ResidualVar LogAbundance (Intercept) LogDegree LogCloseness LogEigenvector TrophicLevel
-0.327627615081328 0.977114219337381 -3.17503836422742 0.414950447781795 0.070467130481901 0.139272695626209 0.334514305944355
-0.351626641545881 0.960016534771673 -3.17503836422742 0.414950447781795 0.070467130481901 0.139272695626209 0.334514305944355
-0.364265211124024 0.97839487159224 -3.17503836422742 0.414950447781795 0.070467130481901 0.139272695626209 0.334514305944355
-0.283696997081027 0.943263160689863 -3.17503836422742 0.414950447781795 0.070467130481901 0.139272695626209 0.334514305944355
-0.258729521980376 1.00717488974272 -3.17503836422742 0.414950447781795 0.070467130481901 0.139272695626209 0.334514305944355
-0.29844861857506 0.958237316385998 -3.17503836422742 0.414950447781795 0.070467130481901 0.139272695626209 0.334514305944355
-0.323604970602067 0.918162574120751 -3.17503836422742 0.414950447781795 0.070467130481901 0.139272695626209 0.334514305944355
-0.37325477175772 0.936893241621013 -3.17503836422742 0.414950447781795 0.070467130481901 0.139272695626209 0.334514305944355
-0.00431558070065052 0.956340419516421 -3.17503836422742 0.414950447781795 0.070467130481901 0.139272695626209 0.334514305944355
-0.338070134892685 0.977558105062132 -3.17503836422742 0.414950447781795 0.070467130481901 0.139272695626209 0.334514305944355
-0.337504347138822 0.912081682996518 -3.17503836422742 0.414950447781795 0.070467130481901 0.139272695626209 0.334514305944355
-0.361055367946079 1.02565318184809 -3.17503836422742 0.414950447781795 0.070467130481901 0.139272695626209 0.334514305944355
-0.292118723726561 0.94462658468611 -3.17503836422742 0.414950447781795 0.070467130481901 0.139272695626209 0.334514305944355
-0.305544649300205 0.888937389555045 -3.17503836422742 0.414950447781795 0.070467130481901 0.139272695626209 0.334514305944355
-0.383174927456724 0.893215355059909 -3.17503836422742 0.414950447781795 0.070467130481901 0.139272695626209 0.334514305944355
-0.339260888129398 0.897304166267455 -3.17503836422742 0.414950447781795 0.070467130481901 0.139272695626209 0.334514305944355
-0.315311536420103 1.03870408068396 -3.17503836422742 0.414950447781795 0.070467130481901 0.139272695626209 0.334514305944355
-0.285873135258033 0.960957563128128 -3.17503836422742 0.414950447781795 0.070467130481901 0.139272695626209 0.334514305944355
-0.289113569941824 0.874769408068091 -3.17503836422742 0.414950447781795 0.070467130481901 0.139272695626209 0.334514305944355
-0.320143830594662 0.859624719503914 -3.17503836422742 0.414950447781795 0.070467130481901 0.139272695626209 0.334514305944355
0.0553865084174746 0.85668308364875 -3.17503836422742 0.414950447781795 0.070467130481901 0.139272695626209 0.334514305944355
-0.322296802685953 0.918892457863901 -3.17503836422742 0.414950447781795 0.070467130481901 0.139272695626209 0.334514305944355
-0.319696972971255 0.985019720600148 -3.17503836422742 0.414950447781795 0.070467130481901 0.139272695626209 0.334514305944355
-0.352921269477213 0.951554022023908 -3.17503836422742 0.414950447781795 0.070467130481901 0.139272695626209 0.334514305944355
-0.284806562448282 0.933901145094702 -3.17503836422742 0.414950447781795 0.070467130481901 0.139272695626209 0.334514305944355
-0.31906728778485 0.957375462325445 -3.17503836422742 0.414950447781795 0.070467130481901 0.139272695626209 0.334514305944355
-0.316619172352441 0.989975369817489 -3.17503836422742 0.414950447781795 0.070467130481901 0.139272695626209 0.334514305944355
-0.328321438147684 0.9914536293609 -3.17503836422742 0.414950447781795 0.070467130481901 0.139272695626209 0.334514305944355
-0.302582320653338 1.00944528935815 -3.17503836422742 0.414950447781795 0.070467130481901 0.139272695626209 0.334514305944355
