ResidualVar LogDegree LogCloseness LogEigenvector TrophicLevel (Intercept)
1 0 -0.26198604489251 -0.339657417003203 0.0577453992087912 0.50338429392944 2.36211025875424
2 0 -0.271422900598425 -0.213041375831059 0.1348835197679 0.461152640435205 2.36211025875424
3 0 -0.2294888217386 -0.0218758407352622 -0.112753374182728 0.710976338954936 2.36211025875424
4 0 -0.280264622978889 -0.151562852748221 0.0529805277787164 0.377087541914172 2.36211025875424
5 0 -0.244462204693202 -0.167885031468587 -0.0356974909051705 0.406107580327436 2.36211025875424
6 0 -0.193812574078374 -0.15295734422829 0.0449863891820878 0.484224682273427 2.36211025875424
7 0 -0.0999452850731303 -0.764983336787309 0.0915107488497885 0.271067719992284 2.36211025875424
8 0 -0.0448575761135732 -0.40473691056445 -0.0275438478581188 0.156633433327327 2.36211025875424
9 0 -0.438379910756138 -0.197567059097294 0.0646271948435056 0.321696986671033 2.36211025875424
10 0 -0.0123741582730302 -0.715829905756647 0.130248834722138 0.000544786678444883 2.36211025875424
11 0 -0.292704477025982 -0.346798056184673 0.020809247374019 0.537110411067321 2.36211025875424
12 0 -0.159410152528937 -0.155261491770144 -0.0532498755106887 0.548901846323453 2.36211025875424
13 0 -0.385954861768268 -0.519025360388719 -0.00416831437830419 0.316838762280848 2.36211025875424
14 0 -0.280061200844505 -0.16226602060113 0.171356341976649 0.414959347382027 2.36211025875424
15 0 -0.0789443285615717 -0.133005845176219 -0.0187678893150646 0.568816863138877 2.36211025875424
16 0 -0.434846139106252 -0.122066795075042 -0.0363484877622086 0.600006494789966 2.36211025875424
17 0 -0.126411591015904 -0.542409425423662 0.0192253483933177 0.0780832533283942 2.36211025875424
18 0 -0.143378946187415 -0.54153635844616 -0.0438212634404333 0.439783187568014 2.36211025875424
19 0 -0.286044367121295 -0.0624551727110548 -0.0384062248721958 0.553802491416595 2.36211025875424
20 0 -0.0943307891930549 -0.282997599038309 -0.0897820054098416 0.438287099422337 2.36211025875424
21 0 -0.325252420879406 -0.185148478016921 0.0233275948580047 0.311281585448037 2.36211025875424
22 0 -0.000473332845577659 -0.368544745157796 0.00661677315678099 0.342668256546216 2.36211025875424
23 0 -0.304224741812103 -0.183377579511861 -0.0791079766364793 0.254355396262502 2.36211025875424
24 0 -0.133119527645961 -0.231561960807468 0.0148266999338368 0.389965741712417 2.36211025875424
25 0 0.0183794375676345 -0.324285411387718 -0.0647369429046978 0.405880289555628 2.36211025875424
26 0 -0.239306187912313 -0.258127938473434 -0.052918848206813 0.160497478552415 2.36211025875424
27 0 -0.244174447049962 -0.182517951960812 0.0604408580138531 0.447698981559429 2.36211025875424
28 0 -0.206781877315707 -0.0946670115271932 0.0293778209593193 0.539871573641275 2.36211025875424
29 0 -0.315729009939574 -0.107548939886182 0.0133886636559015 0.515663382446142 2.36211025875424
30 0 -0.140746453828182 -0.161353239218985 -0.0590731328874025 0.469210464581437 2.36211025875424
