0.644357560494362
0.475689647470445
0.473425843250667
0.313430614970302
0.247808550352341
0.576456589081132
0.170340582755905
0.862067446768644
0.024626254562718
0.323145970271956
0.835747764940383
0.830106235505552
0.0510100791581247
0.0570991070135738
0.64890434461472
0.258544147422428
0.305701190534535
0.337796833440347
0.4773011871764
1.04282495880764
0.186029698338071
0.713393968178963
1.2386557981499
0.199889194005004
0.659213803006782
0.237217536391555
0.958531746192527
0.15233139360546
0.359410033362756
0.126703904093036
0.630631798938719
0.296819516249992
0.613953588502165
1.03621621829464
1.06304160306254
0.690128081610782
0.0915921817603597
1.22378080413997
0.438522786406174
0.928513903617499
0.301855874746454
0.553436307311117
0.803527936388448
0.858205919916524
0.359449820223439
0.676605040241313
0.110279434120502
0.421379882052514
0.321050067695301
0.143569793035334
0.536669357546471
0.175032278026794
0.263436716493862
1.05583459143425
0.848225139619006
0.27616886710861
1.10268311920524
0.908450384236074
0.0681981815309415
0.257446957744259
0.259313752261576
0.677074602303104
0.424370289218701
0.802831913723516
0.632036095423439
0.318756967968244
0.846050714051475
0.805841810277929
0.614745671696113
0.412883966254129
0.653220232962253
0.300506410215141
0.571999016900623
0.429999087373182
0.721634832662805
1.23478183407272
0.0739627227181599
0.0703791995736614
0.155598231299031
0.139075594192967
0.464702122223956
0.160280363698669
0.542516992622471
0.604523581573703
0.379413037417636
0.982177681541604
0.590447248685103
0.465684400204577
0.119174017030706
1.08353324057894
0.370944790783988
1.06984948143823
0.22415092684473
0.347529087190135
0.127203137221567
0.161944715964683
1.13270606226239
0.298031079434689
0.772286495246418
0.623077984243381
0.721434646316491
0.415466267832863
0.0748321144673507
0.376330513549167
0.360428284785963
0.464625034171901
0.594072271860255
1.13711395097244
0.127735709387711
0.588366136227601
0.949400178741358
0.230025354281013
1.15725536974744
0.121204657121914
0.760927987602197
0.177144520750315
0.0650151580991716
0.960548454481401
0.747925885706068
0.245407413306746
1.13545213631212
0.455793777243489
1.07306490178965
0.494989164407633
0.375891942205871
0.52538669225566
1.04778365012048
0.279477376371952
0.607670469902315
0.67413798720335
0.335259182686666
0.518822234233639
0.431968692069164
0.551650483152878
0.226832515883391
0.436284948220603
0.315875434277131
0.120073679127601
0.654506183986627
0.539330171111852
0.66380232293414
0.226597530786794
0.239085054142026
0.863182979631544
0.101402226482901
0.154572083257487
0.983710528992143
0.434271691487438
0.300302215697999
0.275602915248859
0.249221905258606
0.0534932848905225
0.315086065520681
0.615049821045177
0.239160509451456
0.265903316544034
0.455890376387072
0.133490163038825
0.353851427943841
1.1186592461392
0.0321043567725633
0.248702844868036
0.115199003534441
0.388687558443256
0.359756444157649
0.0818459179011945
0.836826875436048
0.858177471175328
0.116841678596053
1.10469142356082
1.02749321735546
0.752687889301315
0.703217135945753
0.739073853192951
0.246770288585679
0.511391854177325
1.18702325685495
0.679606981997763
0.275614697023812
0.723905779182368
0.912089491159404
0.541533663075285
0.416535457793018
0.866481733448408
0.369589286836997
0.545612289751091
0.846583404508122
0.595621229456493
0.292543818552389
0.532998394592727
0.10804484947705
0.387511773332398
0.106999367354095
0.554820871534299
0.520873869616904
0.220159529032154
1.20960665556631
0.292524060257674
0.386697132346034
0.0571913839666841
0.317136733447833
0.164250247040698
0.925308791323141
0.276554358782558
0.899820225571651
0.187026113053614
0.756465982724252
0.841896705387116
0.640809859081646
0.895505074464718
0.444566088401211
0.550897719992072
0.467843004699515
0.945016119066242
0.00324897915583551
0.804512794216733
0.33135116616857
0.500994962666486
0.67848118962521
0.296854335158293
0.152603364825667
0.552434622572593
0.705759330479134
0.156518342669323
0.0760243990280859
0.680725607884602
0.928542417296219
0.961515319672534
0.794481800670865
0.28866945812791
0.777248946020194
0.552254080387613
0.409494482696398
0.456646353983848
0.290369203629349
0.261608175902609
0.27409327119868
0.277001684290416
0.80072755590213
0.467812389654386
0.17232007925533
0.250711352280272
0.344427019621025
0.57715477226131
0.864869544435838
1.03589591013355
0.168734569185611
0.0991761525705361
0.53757203438477
