0.114716653128684
0.0804408863773651
0.454881315726809
0.452188860940365
1.01049276520213
0.932900448531298
0.263833411655103
0.27669056283853
0.798405289386918
1.03741297505778
0.341522118449239
0.295255093378669
0.633674287066124
0.761809408181971
0.542126251156376
0.164294213746237
0.0611385919565557
0.806040722405828
0.191417252453043
0.116870058606317
0.0429809191682741
1.12777210371222
0.165839053931572
0.0943119973069969
0.348970845933424
0.189679580736924
0.690338427781936
0.364402545048119
0.163569855182032
0.349181112768254
1.15531063893197
0.34340033810908
0.157408067756149
1.01648728108373
0.756210888307969
0.785749064802685
0.303129343856703
0.917800140374281
0.893284661179425
0.236531177482445
0.284826112856859
0.524747530996199
0.0707860743079456
0.723485023807136
0.180777746522701
0.696928715558777
0.359855511624407
0.936039684165648
0.698415406521234
0.0890186307056503
0.377761215032216
0.795531331206739
0.113299117228069
0.185731211872874
0.361881653846471
0.0801028508234855
1.07965524763275
0.892701008866348
0.16516465939137
0.208111193656685
0.262834610380175
0.100214045463855
1.05483000470138
0.132149843631454
0.273370480312296
0.926821370946808
0.381280041451475
0.592967549826885
0.169136412979736
0.105880842432498
0.473883777245117
0.466552143199636
1.12681247921796
0.053762369867341
0.0942399152052122
0.66186420411414
0.386938744730351
0.476789849808968
0.334190730446408
0.28615153881977
0.509564274618343
0.422250760103411
0.0664486983395877
0.12399154370788
0.362349124335711
0.401434596446432
0.190758443765658
1.20088265164507
0.70179081487124
0.360422465267448
1.20188007732943
1.13682827382067
0.552703899183808
0.683687076499179
0.656848836603855
0.766408355435018
0.134649659620762
0.907970616569299
0.498164068174237
0.361426311049258
0.613833250963406
0.196521099110054
0.954167729776616
0.351112462258717
0.452999578251358
0.661283762356944
0.091554831253383
1.12420541377578
0.921569896120377
0.177840017855397
0.734948581020729
0.715782492162985
0.128526886703993
0.260979178680489
0.67704201333523
0.622735050962407
0.488407438759968
0.404598936485517
0.347856085163975
0.812379802773798
0.332489468842593
0.099645058278246
0.734704429789316
0.452868009111087
0.153653324851212
0.437096578508724
0.650438585941278
0.126573541422769
0.859273984623655
0.144307396928883
0.435146262882378
0.196603596717148
0.187687858161882
0.295257841081792
0.736172426613526
0.933372828044809
1.02951690514924
0.656495950517213
0.470038521318675
0.217553885865252
0.379479508072372
0.436435326366396
0.372463307891072
0.196772296528146
0.0958583001969202
0.0569100178214579
0.27525354446121
0.265316887177005
0.265760604877169
0.693348753732028
0.813582755499416
0.640767401522346
0.205098265328299
0.0696344319812366
0.537281370402836
0.81395954412013
0.156483658200242
0.460828725147365
0.958009869069544
0.132723055611364
0.816014830192589
0.885983312303225
0.699125599049472
0.559117666896014
0.689269729700485
0.972376658137739
0.771411389642338
0.4764273116995
1.03303047598959
0.699125513527629
0.503589859356486
0.392281214751977
0.180672873908046
0.729318044053297
1.03569254297236
0.719694394793719
0.397018401492436
0.981922684179712
0.207593634449239
0.575918759331313
0.143776502628538
0.867977203143523
0.483902359215631
0.964079613022743
0.305941952486051
0.30904308516002
0.708888985337096
0.349672082457291
1.10601176743389
0.0961290488895586
0.245106283824086
0.433444334157445
0.422015439566598
0.389958881923999
0.471617707416812
0.0520433965947747
0.568731833800157
0.0803372905819923
0.288560267627805
0.0725790118366622
0.199781456759929
0.687141643453997
0.240386168933488
1.05091077559897
0.448569489173151
0.846956926989076
0.157277502949592
0.194754344812653
0.126940438721583
0.736269811099865
0.198202846322058
1.02797060943129
0.435197509943645
0.984966809692745
0.502388710992286
0.504891438973552
0.576750203043224
0.127583552955299
1.17446216566441
0.561133822618228
0.631406975957664
0.213402324260812
0.636875288634972
0.0870463696708961
0.627292327210338
0.423519599473924
0.476333062597079
1.16037477093387
0.134566037837522
0.721305300313673
0.127359946807574
0.0779762761286494
0.467809064564314
0.208139682254229
0.90618153151165
1.15282458609068
0.596189516705722
0.941269391597997
0.100607169311961
0.593220021699072
0.650176717614772
1.1155173066866
0.171575666762733
1.05670571329287
1.01465995549018
0.253874089303977
0.500271646628068
0.857840265832181
0.183505465618908
