0.767944548387587
0.383072572461545
0.207404824733159
0.488569594400125
0.645896932771578
0.431712945262451
1.48817595463918
0.102401246126004
0.218869024319215
1.39047100962941
0.322984181888145
0.65809056223769
0.241525357171788
0.524082937974846
0.340969755897961
0.766097908530229
0.685342662688858
0.082322636578226
0.346624444818819
0.159563067667966
1.59701764816922
0.449286274440615
0.595571182085943
0.65293134166208
0.296994199315694
0.722695715149766
1.1033863119262
1.05151909071419
0.351567286637497
1.09067421112011
0.433611553939409
0.562499960299883
0.841672486956582
1.40475457210316
1.51962750853015
0.0948643456899148
0.29527712581632
0.757042362500374
0.826585328488257
1.55635402575763
0.822335935983461
0.486992607692419
1.30394524533812
1.10200703255698
0.312270611859986
0.482565106912227
0.957590380582833
0.74611356785621
0.435202442645948
0.204818826128757
1.37629178658909
0.598800039908963
0.5832026325382
0.410324900961239
0.407233122993856
1.30677934465257
1.17629966958935
0.531050289952319
0.333781561008744
0.59410328817355
1.38807292821248
1.55867125147178
1.40145074621137
1.2083663536359
0.839125211220774
0.421347625263455
0.526467931941836
1.53284574694017
0.90260776845823
0.421371052756531
0.507522548660122
1.42809031665078
1.13541369139436
0.657734257689818
0.226386993086747
0.242689406763615
0.663182470040724
0.117396228479302
1.33476308338123
0.53009665817119
1.0734237919409
0.393484553370481
0.292185671107519
1.14257390625362
0.397025194688161
0.531944672085517
1.50095117569903
0.0964041614567454
1.29132264853037
0.606453973631956
1.34724030283874
0.847087078631561
1.10008967291636
0.139261700914024
0.654372491646031
0.486657399683953
1.02851420425607
0.73156013584902
1.60604342898478
1.28131831624076
0.409578820037248
0.692315006731189
0.470954897401579
1.18840647066823
0.0880493995647476
1.07054505023209
0.463471957420424
0.429984152501052
1.14693358978737
0.809320794410637
0.719259189793787
1.35993360563182
0.620508701892636
0.1655707817405
0.758061541321272
0.657371670829582
0.845200925944047
1.28370662168519
0.214504297354438
1.10187599175397
1.06125056521648
1.38495275466114
0.742367700390605
1.30619053324438
0.8254045236469
1.41196934845073
0.481697601992778
0.618827305182603
0.584735198542719
1.27112931524309
1.17071938647025
1.29826976427236
0.682468926581456
0.524500917614446
1.03976525987909
1.55380099450887
0.778648208522944
1.14012758501045
1.39858752271666
0.583105424131288
1.11871374870017
0.357915536702191
0.14438545280522
0.944465610272816
0.710811311545192
0.184245585113088
0.90653039580823
1.40401656044655
0.92171209096962
0.271371836630187
0.217462162433611
0.811013754766478
1.49455885518331
1.27346730356802
1.16214928572828
0.231367753198641
0.606074670843442
1.09151754110959
0.150596404082692
0.412841119581746
0.389695520104615
0.610758644462071
0.88844828443214
0.633239593624485
0.0840606397721594
0.180583329871895
0.970167450433609
0.275062696777327
0.343719561025644
0.608859245922247
1.58555370064231
0.54410152243195
0.467967762866249
1.15149837687755
1.1653165339482
1.46331109593597
0.972000918179261
1.53901686318556
0.730582355338238
1.29942848016498
