1.2563894279068
0.786714956141493
0.39724109407898
0.191839657789145
0.539706608700621
1.6078771958902
0.00340273200197035
0.725920382620511
0.631811856633139
0.192772022837483
0.105132715127401
0.952384801472946
1.22198001232522
0.0701682375462759
0.464722289828228
0.359729874535844
0.766097618179296
0.606644287853476
0.841331851388837
0.288741842291776
1.26368371168791
0.214034699548933
0.230540535174149
0.95380320580683
0.0241538709027233
1.410529826543
0.916118448828587
0.163800329760248
0.156266674097271
1.14474608223565
0.2695040137102
1.24114205172811
0.639022308463577
0.119717975442629
1.27167927702989
1.10343883520428
0.82125074535599
0.156118937429477
0.85251879300059
0.974932246822244
0.976803179421355
0.151667756855304
0.225248186742248
0.702021975852811
0.316281879794592
0.140153586554848
0.187343610896143
0.316076446193896
0.777360187108954
1.22601430928684
0.329190042260551
1.67090298479839
0.213131370500472
0.29580415368122
1.43518310360501
0.147148437020746
0.175818690652913
1.37136504042278
0.161183938387187
0.14153437433934
0.355910054041567
0.0331690587073062
1.00770858151463
0.0687293703261553
0.237635044845101
0.415666416784281
0.248459391058681
0.918578125932885
0.363495941253682
0.353230906763461
0.503682879684042
0.126171659354443
0.14834540293865
0.961317246581506
0.962650148343843
0.692722451212831
0.127444080000167
0.976378229815539
0.45722053623346
0.99911755330096
0.872696299378712
0.495755803529817
0.430462042827151
1.08440934762291
0.169019158501867
1.03458161009405
0.428493050120115
0.561514439976707
0.260719974741486
0.185198146779948
0.314086336415296
0.655608824780922
1.02169609377928
0.345726594547555
0.232869500048736
0.153012173357252
0.739285499555735
0.804656042096443
0.576567319927985
1.06380013776085
0.570944006699623
0.0989965189789506
0.790778867260912
1.42997110958558
0.188492749057188
0.507863264618485
0.292433397577573
0.759122205790696
0.229850979871027
0.0683634691204789
1.34376954331249
0.2354666802031
0.271148850956027
1.59627796040714
0.0481405700806031
0.8788492158895
1.29585777482361
0.320280747985062
0.439047094238867
0.514486240985362
0.801892082229091
0.967742573740404
1.04253067542019
0.604885690572737
0.38230816301732
1.06963242610476
0.501080896021768
0.231761019501699
0.112544732653206
0.459271726792362
0.937456063709537
0.498675906555433
0.323356362253884
0.477959612743112
0.245375449125876
0.302757869988619
0.410206727337762
0.867041866281018
1.00320626033664
1.68869793341642
0.265803563570487
0.0601785761985823
0.346865069500564
1.25966061747078
0.557227389576715
0.0377799212203842
0.051303010549339
0.0758330251845155
0.10558646946016
0.743074690043579
0.454917875105543
0.687501528510626
0.255419154025638
0.0569654215981188
0.645770760425271
0.0499594862036751
0.0714785468081965
1.35044497362544
0.257062069167796
1.65276475293535
0.311532492181573
0.0789444792501826
0.953252265594557
0.913995913739854
0.156207723883855
0.998615194909702
1.68587105131991
1.54891666556863
1.06734789181925
0.0793482733792418
0.878837483762457
0.355189989979132
0.233972465915315
0.632231611043865
0.704414586080988
0.503450240054999
0.213462897695168
0.752251653739624
0.48971563190021
0.446484396836276
