1.10830480061514
0.0980030274365626
0.88156782767305
0.408502325398426
0.566959761826559
0.0672656638455373
0.360276090080659
0.694320640062961
0.374926687956591
0.291711780101383
1.21950652661067
0.168192317284791
0.168450900080437
0.482499165097572
0.364131365168007
0.395017945492617
1.1524697720882
0.238943185004768
0.402920482783527
0.0887013671748751
0.185253382299662
0.242787070582962
0.125905202810661
0.424798725189118
0.415464428190385
0.362594097616765
1.1911295114246
0.493868655864411
0.0516405573885809
1.26532365216721
0.359447418298892
0.0720148234144772
0.246285221000368
0.968977689124234
0.197203212059441
0.399710981437187
1.23990191521196
0.351752455610712
1.13038646058048
0.454613132470904
0.523371596786242
0.7958842909062
0.52456386425758
0.759451760792696
0.652362142688496
0.0520841531613452
1.38108915977959
0.23100254375705
1.18445477015724
0.396802822246179
0.869809779419302
0.376068926853317
0.370741294697343
0.097808992913821
0.902797491909751
0.587923425053093
0.287186176648315
0.914946340383047
0.294727661463115
0.629684883883857
0.929011217753861
1.14285466669563
0.425093513832118
0.872206048624328
0.411024368936384
0.217266529647178
0.614881206121748
0.676705672137551
0.831842089055019
0.724713821416437
0.0494616401491054
1.28953466972987
0.382630319673089
0.0924050004638205
0.968396133958382
0.691544883547443
0.57881882006748
0.823188645055311
0.109324318407516
0.629979497660675
0.0724671617826008
0.091223207706791
0.745862928010236
0.148111769218169
0.25927716983842
0.151427795862377
0.25931687043139
0.284748547563161
0.8284922833947
1.11669353550477
0.0797321146641204
0.542917236564881
0.378473425025951
0.513284302893201
0.235781418337933
0.0800805771595281
0.885962781356431
0.179172499908383
0.917831377301929
1.14795581773489
0.079888966525232
1.10593654285197
1.13667018751459
0.182296981591101
0.766118849297238
0.085159596868278
0.51423568378926
0.614638759609694
0.564382139892924
0.0726909696154973
0.190799232099452
0.582543044193663
0.4836576328938
0.254351113472282
0.566564344955771
0.183899527452754
0.11502363979994
0.19880526018355
0.538312631285578
0.350772347027404
0.989315049223619
1.06612562733503
0.0343210757147699
0.961454413654724
1.01169929685658
1.3444370084952
0.524912832650237
0.132001956154332
1.24493293568312
0.604976711829114
0.659160977961069
0.0940255684258845
1.05619287021063
0.287060912050582
0.0985554826537895
0.233170456645573
0.189790604981822
0.261380709956526
1.2300348515617
0.343647299500306
0.324378944900824
0.620384588496204
1.14017536004415
0.32497669148794
0.959059881032871
0.153816326834219
0.364725505349831
1.22377582568424
0.661802238505016
0.951374099181462
0.533184070309362
0.214230840925475
1.26966937844097
0.356726411990347
0.393495311702208
0.090103553761584
0.361322575669931
0.356266737026178
1.12233119330596
0.444668903018757
0.312254109993148
0.975500740086099
0.827479734311373
0.505065750969898
0.251558540104095
0.611355895657552
0.101127594642441
0.355292897269107
0.778306652298972
0.564777814518195
0.115988041956931
0.679767705929022
0.255078376201409
0.527373569309887
0.670630491219823
0.654887395347917
0.422440005056937
0.387927517954813
0.628243972186805
0.310677774605523
