0.355075540150251
0.777660741689907
0.513697483867768
1.17275786511499
0.595400743512443
0.622682841552435
1.00574701463181
0.325659410045651
0.926271098020054
0.399279286705794
0.614369855747644
0.99524778220398
0.47593516437833
0.137618276963724
0.809588838503395
0.708857009360222
0.735015456882139
1.15097427739263
0.613057823780094
0.355135061712842
0.651059977153771
0.302704423560997
0.411309856348747
0.523985707705787
0.121986779488169
0.899559406568134
0.456114612255711
0.873256363551623
0.875099933763825
0.615144972409701
0.469019779139305
0.147617221063261
0.102049573030205
0.224849455463643
0.603627006852802
0.894993888199731
1.17727411113597
0.351736574725017
0.944253769115323
0.665180660552029
1.04705883197197
0.198758424078801
1.06322966876621
0.0945911150229595
0.609862576555361
0.728118423288847
0.244452097718198
0.477817337767015
0.419859377749218
0.250483865061415
0.464673359731727
0.49803647624775
0.933657350184652
0.419497462483082
0.455139876822069
0.616546265768558
0.25096291726149
0.549940037316236
0.990534485968192
0.711090805144186
0.452059535630744
0.363294149735437
0.369881620998413
0.206009761778516
1.11645254406258
0.28902520109808
0.478471031700099
0.625649721041717
1.14753606631424
1.17644950922876
0.296922795431019
0.654221809950603
0.393044418489357
0.454235165104026
0.472939206163568
0.420158889647138
0.164059800684997
0.72070524909777
1.04149237745063
0.202727461994615
0.188803941436907
0.322283418332166
0.404043238431445
0.77019143005582
0.52698426522933
1.07036043173067
0.656046943203864
0.739099181306816
0.25863311161006
0.92137624908911
0.554846763940603
0.940183085994972
0.289422817775422
0.434758323233992
0.995124186633321
1.01636004878972
0.971334888612299
0.524813067834445
0.396030748342851
0.584849695713487
0.0991788089210562
0.661302360410147
0.679125302258728
0.355982849882834
0.273176206776125
0.553950521208732
0.96800804843368
0.295894518534815
0.226946589317794
0.502543325590583
0.406130644329238
0.707047028869912
0.898101754181648
0.550052765511809
0.631097307383524
0.553213671977937
0.478653905824778
0.524412272476481
0.676447934167662
0.712046561339803
0.277586871561556
0.658143813960074
0.904669571902522
0.875272923589287
0.437681290373314
0.297335662706523
0.439287501130408
0.366427949576962
1.02113582213023
0.0844243563682128
0.52407347890622
0.637566343986443
1.00976376000983
0.81532001616456
0.407496651594308
0.405345554489645
0.144151827106665
0.418020828487747
0.452075211864325
1.15086015426684
0.0944986675468723
0.590766343561295
0.620470235933065
0.381735743314087
0.628703826607377
0.588901487411652
0.116067566951565
0.263375990776182
0.297325515468834
0.443049631758144
0.889219455825172
0.906176688731887
0.7448421564513
0.590149044331494
0.222000555589599
0.516919381679247
0.414506870796584
0.384902946369818
0.663481130980564
0.693446474801669
1.00855407732047
0.680450305931933
0.60400224767897
0.386963466211194
0.90728550595047
1.07766861590486
0.0919922359975309
0.577702548960029
0.55981781266852
0.271214888483905
1.10655105307135
0.0716892017291146
0.334994173308089
0.186982398476676
0.397954174362627
1.01046556699012
0.34501635819422
0.154202173108232
0.237289823621728
0.285969374872545
