1.25740760642561
0.7247593110885
0.248226899832767
1.40006271143301
0.281971419138778
0.426840880890514
0.342904863990343
0.219300919174418
0.356711683794818
1.3387046566206
0.745473122543227
0.650715260734781
0.0484234160345376
0.636173883033024
0.122620146724376
0.386179768873996
0.176169613605206
0.466454503555646
0.592824267639797
0.683728465132546
0.904196211715904
0.386146627062219
0.318027625550201
0.0873184603237515
0.00272680242991753
0.713270343487114
0.850027189049153
0.302896414145787
0.0721633315114524
0.0647694270218016
0.943216245121308
0.220147107043786
0.884757941287736
0.640494423050355
0.705340665819582
0.191926242965642
0.403478255629197
0.400396212897058
0.366367976479554
1.13145503610932
0.703605037488031
0.204446667586002
0.726096410571109
0.379917187098853
0.847052998717044
1.18698005328799
0.244838654841575
0.691242487927111
0.865099807243396
0.48275403169629
0.205572914305797
0.810198440557068
0.251824577795005
0.494840699537915
0.177358527080638
0.0215712375452428
0.53891723914173
0.39040296542922
0.403398016398655
0.264267309307872
0.18770922081329
0.675163219703956
0.18138644994654
0.547222771841664
0.474968631164603
0.175852121802912
0.0750609311697536
0.168713565619272
1.01684891595566
0.870183961162277
0.498889478314935
0.56532108236362
1.05501193145896
0.817139750073218
0.359479508389396
0.827175350544365
0.475365071450252
0.218277560757459
0.812220348078199
0.922233521085755
0.157013030889854
0.113333895587439
0.111265121228745
0.090594820527468
0.819558919522956
0.967974790016706
0.79140856103313
1.22671549451867
0.703407731670421
1.2441114118569
0.172443472799053
0.406962783007507
0.493229554216177
0.753763420110462
1.0549872618646
0.0372909173500748
0.745112778404504
0.110208906720512
0.504665925433318
1.19576622846095
0.301653570049159
0.192405062888512
1.28273218641925
0.29614459135689
0.392525758912947
0.503534201899286
0.159775769828918
0.650811637653578
0.659581147549915
0.434810137761022
0.768567504337082
0.369555919304399
0.691617325475164
0.505399704327958
0.273166904999247
0.747954616814853
1.15139889762761
0.714492261752813
0.99468028445216
0.389461245965044
0.542285874106876
0.174519171194264
0.501879943720678
0.314768854002169
0.359348189163585
0.213915079922873
0.229253036960398
0.746949440646249
0.478720748164962
1.02221099424199
0.0316543113645068
1.1034045516467
1.37496787993485
0.852047604300383
0.221958025263241
0.687617224856424
0.568019025524571
0.838577461168728
0.0477757320476578
1.02649809175516
0.0868475692700127
0.746694523779034
0.399673444495699
0.421564390974273
0.149191026759061
0.700712335364003
0.0762965563953929
0.0953810622103925
0.217112204594672
0.322799965889642
0.529415132183863
0.211593020827591
0.117986205349128
0.448269498177376
0.209739213597283
0.95524009715338
1.08275376944133
1.0586628513024
0.330881406170372
0.936399340241967
0.917481902297748
1.14780059937898
0.357594352936271
0.503424068225211
0.187810550841549
0.208936045747097
0.433276518852092
1.37584992170335
0.908800121098685
0.356506523101761
0.157647360226405
0.312287065013411
0.397845188661087
0.0276346345395569
0.550428528132445
0.171537623541827
1.11836047327476
0.299173372675156
0.144215507674141
0.0689559216882866
