0.453404868004488
3.67646496279963
0.84669523465697
1.03920027146033
1.13209354350904
1.82124951689817
3.13746469823638
1.46471721674811
0.228006042568367
2.91653883787217
2.23670985768414
0.942211573395145
1.24370179843937
1.2066547583137
0.0910754084065925
0.142253333148291
0.554571047864559
1.45999257174549
0.233984764861522
1.29002524752853
0.805170580762735
0.330857506434773
1.41065566638262
1.11146875371881
0.737107380963401
0.681828074638752
0.94764824942914
0.378268554920448
1.37493801868906
3.32230337939336
0.360584123391883
0.813224269494321
1.71933571431827
0.915305145219633
1.08598163482351
0.395198511833739
0.304748728746764
1.18079211371224
2.01861921228108
0.805149101389231
2.13917667050529
1.69784413187131
0.582100580465935
2.29615656824273
0.9165579754905
1.29025338998842
2.32976953930257
0.566333943157802
0.919009392370856
1.3917510493836
