1.47100109020696
1.33209067007398
0.403089619009791
0.512155624825518
1.06124272212424
1.30721378717392
1.67063544522803
0.675977374520385
0.306281934613392
0.513299297084418
0.784835234471848
0.161600357144055
0.120442129327028
1.12005534515741
0.132644169863227
1.67906460112124
0.221708895985326
0.219862187205946
0.157839937694666
0.228527398819007
1.04815523616874
0.77940988259286
0.393967821525638
0.435032848046275
0.136506469969663
1.93794590851195
1.82271490207337
0.0778774394427742
0.733963788016138
0.0448157100489746
0.170637475074219
0.647756232255234
0.10385120613858
2.04454788488333
0.190313186590465
0.386818650128449
0.159554596396244
1.34696788113533
3.94357732777413
0.590780030061888
0.826044969827992
3.16135275525402
0.149177126505713
2.07535892371396
1.30150272884139
2.42264263425327
2.89481806829364
0.0432998230962093
1.85025721437636
0.192733115916841
