1.76772849988828
0.293275533512193
1.50989342333047
0.716079681707241
0.101764985021741
0.814685804241192
3.55284338695314
0.981647353736626
0.982363152968377
0.194807855797608
1.20765084200444
0.314045645956406
0.552150614821408
0.727125136899511
1.46621296359465
3.06364828477104
1.27692019956525
1.9098053981954
1.59484964772298
0.220626474583422
1.29169911064918
0.754621037710618
2.17824210239514
0.897934605516451
2.07239494106057
1.6075259871255
0.720573283437985
0.572976525935975
0.76669940996409
3.05120146451889
4.1888158332633
1.81009362630301
2.15577294620396
4.17733060508546
4.4353037795408
0.765483749920156
2.47876594256255
0.582073362312875
0.584327202786216
4.10373819382709
0.424139477562757
0.438523063008136
1.78057944015656
4.33784215194855
3.87532591899663
0.505331115042099
0.0863404403561972
1.15398489410041
0.218561418029869
0.19483223661932
