0 0 0 0 0 0 0 0 0 0 0 0 0 0 -1.38212906190883 0 0 0 0 0 0 0 0 0 0 0 0 0 0 0 0 0 0 0 0 0 0 0 0 0 0 0 0 0 0 0 0 0 0 0
0 0 0 0 0 0 0 0 0 0 0 0 0 0 0 0 -0.22493312392931 0 -1.17148731323349 0 0 0 -1.56682797752017 0 0 0 0 0 0 0 0 0 0 0 -0.589600494302923 0 0 0 0 0 0 0 0 0 0 0 0 0 0 0
0 0 0 0 -0.315327974517436 0 0 0 -0.798046246888657 0 0 0 0 0 0 0 0 0 0 0 0 0 -6.27701962130602 0 0 0 0 0 0 0 0 0 0 0 -0.739699297170168 0 0 0 0 0 0 0 0 0 0 0 0 0 0 0
0 0 0 0 -0.206415051964772 0 0 0 -0.286744614976098 0 0 0 0 -0.881656989127121 0 0 -3.62081748001845 0 0 0 0 0 -0.351070757283264 0 0 -0.731025882730038 0 0 0 0 0 0 0 0 0 0 0 0 0 0 0 0 0 0 0 0 0 0 0 0
0 0 0.0657045506731573 0.045569826081541 0 0 -1.14469949621855 0 0 0 0 0 0 -0.478604881278215 0 0 -0.45619704288279 0 0 0 0 0 -1.34961984147189 0 0 -0.559813036242151 0 0 0 0 0 0 0 0 0 0 0 0 0 0 0 0 0 0 0 0 0 0 0 0
0 0 0 0 0 0 -2.05045548195609 0 0 0 0 -0.498080622039746 0 -11.509036187131 0 0 0 0 0 0 0 0 -0.832640527646812 0 0 -4.20864056369648 0 0 0 0 0 0 0 0 -4.83191813237581 0 0 0 0 0 0 0 0 0 0 0 0 0 0 0
0 0 0 0 0.234649648491822 0.396326282797761 0 0 0 0 0 -3.44362186744319 0 -1.65007797628774 0 0 -1.28446897184842 0 0 0 0 0 -1.12960052204544 0 0 -2.39191826790282 0 0 0 0 0 0 0 0 -0.732046673838526 0 0 0 0 0 0 0 0 0 0 0 0 0 0 0
0 0 0 0 0 0 0 0 0 -7.71807786993772 0 0 0 -2.59247617803535 0 0 -0.570471655717307 0 0 0 0 0 -1.34280382808517 0 0 -0.493639209747765 0 0 0 0 0 0 0 0 0 0 0 0 0 0 0 0 0 0 0 0 0 0 0 0
0 0 0.167905615034478 0.0594627748982093 0 0 0 0 0 0 0 0 0 0 0 0 -1.49513752406152 0 0 0 0 0 0 0 0 -4.16716187998825 -0.27992580817106 0 0 0 0 0 0 0 0 0 0 0 0 0 0 0 0 0 0 0 0 0 0 0
0 0 0 0 0 0 0 1.36965081049957 0 0 0 0 0 0 0 0 0 0 0 0 0 0 -1.7706176123115 0 0 0 -1.87988538961047 0 0 0 0 0 0 0 0 0 0 0 0 0 0 0 0 0 0 0 0 0 0 0
0 0 0 0 0 0 0 0 0 0 0 0 0 0 0 0 0 0 0 0 0 0 -0.766374750532843 0 0 0 0 -2.24854026136818 0 0 0 -0.945320315363944 0 0 0 0 0 0 0 0 0 0 0 0 0 0 0 0 0 0
0 0 0 0 0 0.0956730639840505 0.725179905879555 0 0 0 0 0 0 0 0 0 0 0 0 0 0 0 -0.871439975349576 0 0 0 0 -1.89045663793165 0 0 0 -0.557638222568483 0 0 0 0 0 0 0 0 0 0 0 0 0 0 0 0 0 0
0 0 0 0 0 0 0 0 0 0 0 0 0 0 0 0 0 0 0 0 0 -0.725244396654377 0 0 0 0 0 0 0 -1.15555946431467 0 0 0 0 0 0 0 0 -0.0587352054702647 0 0 -0.434857097675556 0 0 -0.234401495102755 -0.485913486131503 0 0 0 0
0 0 0 0.174426687265204 0.0898313197523328 2.16547436414715 0.315718467446229 0.510970201794143 0 0 0 0 0 0 0 0 0 0 0 0 0 -0.255589403414475 0 0 0 0 0 0 0 -0.285082207275871 0 0 0 0 0 0 0 0 0 0 0 -3.72872474627272 0 0 0 -1.78732655782782 0 0 0 0
0.280642989720589 0 0 0 0 0 0 0 0 0 0 0 0 0 0 0 0 0 0 -0.952736658736151 0 0 0 0 0 0 0 0 0 0 0 0 0 0 0 0 0 0 0 0 0 -0.527590245249561 0 0 -0.694251141075912 -0.789400480800015 0 0 0 0
0 0 0 0 0 0 0 0 0 0 0 0 0 0 0 0 0 0 0 0 0 -3.72399719897537 0 0 0 0 0 0 0 -0.542340585756835 0 0 0 0 0 0 0 0 0 0 0 -0.598241388608422 0 0 -0.884703812620146 -0.317378124907379 0 0 0 0
0 0.0426482907249858 0 0.718686753522565 0.091402675116687 0 0.242264821668248 0.109522269091833 0.301932869882284 0 0 0 0 0 0 0 0 0 0 0 -0.594694385967902 0 0 0 0 0 0 0 0 0 0 0 0 0 0 0 0 0 0 0 -0.527262749685386 0 0 0 -0.988360055163406 -2.44825068628573 0 0 0 0
0 0 0 0 0 0 0 0 0 0 0 0 0 0 0 0 0 0 0 0 -0.261709520661677 0 0 0 0 0 0 0 0 0 0 0 0 -0.200681248407511 0 0 0 0 0 0 -0.591554240764446 0 0 0 -1.50850194791861 -0.494481937327472 0 0 0 0
0 0.221301020867623 0 0 0 0 0 0 0 0 0 0 0 0 0 0 0 0 0 0 0 0 0 -0.970618725435263 0 0 0 0 0 0 0 0 -1.44784379375428 0 0 0 -0.173800214371279 0 0 0 0 0 0 0 -0.756707486792178 -0.458486084108714 0 0 0 0
0 0 0 0 0 0 0 0 0 0 0 0 0 0 0.192578539162022 0 0 0 0 0 0 0 0 0 0 0 0 0 -0.458284468011102 0 0 0 -0.186585515252509 0 0 0 -4.07989499177801 0 0 0 -0.884853296295897 0 0 0 -0.443448403711724 0 0 0 0 0
0 0 0 0 0 0 0 0 0 0 0 0 0 0 0 0 0.115921648418776 0.0516025149851458 0 0 0 0 0 0 0 0 0 0 -0.619707255036753 0 0 0 0 0 0 0 0 0 0 0 -0.447410052381117 0 0 0 0 0 0 0 0 0
0 0 0 0 0 0 0 0 0 0 0 0 0.14521940637917 0.053934975150019 0 0.742397631687642 0 0 0 0 0 0 0 0 0 0 0 0 -0.529420705183188 0 0 0 -0.508286832760808 0 0 0 0 0 0 0 -0.397099257023051 0 0 0 0 0 0 0 -0.589452724864067 0
0 0.288487260526395 1.23301172815107 0.066147999954089 0.264849153529746 0.170249083395439 0.227145705269614 0.248610351587075 0 0.366655053632752 0.159386691242551 0.167783356141467 0 0 0 0 0 0 0 0 0 0 0 0 0 0 0 0 -1.29039682428496 0 0 0 -0.388154968048677 0 0 0 0 0 0 0 -1.70674548541376 0 0 0 0 0 0 0 -0.30108065016667 0
0 0 0 0 0 0 0 0 0 0 0 0 0 0 0 0 0 0 0.197799185168379 0 0 0 0 0 0 0 0 0 -0.759253878553442 0 0 0 -0.890284845216242 0 0 0 0 0 0 0 -0.25996252354728 0 0 0 0 0 0 0 -1.98185111469133 0
0 0 0 0 0 0 0 0 0 0 0 0 0 0 0 0 0 0 0 0 0 0 0 0 0 0 0 0 0 0 0 0 -2.13129883822223 0 0 0 -1.26409298826139 0 0 0 0 0 0 0 0 0 0 0 -1.14538660421425 0
0 0 0 0.148929843284723 0.114092387284514 0.837058749371371 0.4425588928381 0.0926958388009313 0.808700271053822 0 0 0 0 0 0 0 0 0 0 0 0 0 0 0 0 0 0 0 0 0 -1.05470261566906 0 0 0 0 0 -0.516166390866844 -1.64127810810311 0 0 0 0 0 0 0 0 0 0 -0.943007631548432 0
0 0 0 0 0 0 0 0 0.0533922033295849 0.376176515061772 0 0 0 0 0 0 0 0 0 0 0 0 0 0 0 0 0 0 0 0 0 0 0 0 0 0 0 -0.291269255624814 0 0 0 0 0 0 0 0 0 0 0 0
0 0 0 0 0 0 0 0 0 0 0.487234457343387 0.372210132138391 0 0 0 0 0 0 0 0 0 0 0 0 0 0 0 0 0 0 0 0 0 0 0 0 -2.33366443475649 -0.663407264262349 0 0 0 0 0 0 0 0 0 0 -4.2533458744731 0
0 0 0 0 0 0 0 0 0 0 0 0 0 0 0 0 0 0 0 0.0923006942757767 0.124505609205079 0.106532146825952 0.264602028397777 0.149970459927236 0 0 0 0 0 0 0 0 0 0 0 0 0 0 0 0 0 0 0 0 0 0 0 0 0 0
0 0 0 0 0 0 0 0 0 0 0 0 0.246017827198135 0.0612049909515475 0 0.107785818346937 0 0 0 0 0 0 0 0 0 0 0 0 0 0 0 0 0 0 0 0 0 -0.108579853794437 0 0 0 0 0 0 0 0 0 0 0 0
0 0 0 0 0 0 0 0 0 0 0 0 0 0 0 0 0 0 0 0 0 0 0 0 0 0.203270206232256 0 0 0 0 0 0 0 0 0 0 0 -0.859799293527117 0 0 0 0 0 0 0 0 0 0 0 -0.717627322490554
0 0 0 0 0 0 0 0 0 0 0.174648486258429 0.116202584208454 0 0 0 0 0 0 0 0 0 0 0 0 0 0 0 0 0 0 0 0 0 0 0 0 0 -1.38338901689749 0 0 0 0 0 0 0 0 0 0 0 -2.58034603057259
0 0 0 0 0 0 0 0 0 0 0 0 0 0 0 0 0 0 0.290039758534514 0.0365554517701946 0 0.107297552478148 0.0814615771192066 0.184974959507382 0.403116180456425 0 0 0 0 0 0 0 0 0 0 0 0 0 0 0 0 0 0 0 0 0 0 0 0 -1.52881383267769
0 0 0 0 0 0 0 0 0 0 0 0 0 0 0 0 0 0.0405812555485208 0 0 0 0 0 0 0 0 0 0 0 0 0 0 0 0 0 0 0 0 0 -1.72462630333088 0 0 0 0 0 0 0 0 0 0
0 0.108513154841672 0.145474514655029 0 0 0.85515949170771 0.132584692865116 0 0 0 0 0 0 0 0 0 0 0 0 0 0 0 0 0 0 0 0 0 0 0 0 0 0 0 0 0 0 0 0 -0.849507722537944 0 0 0 0 0 0 0 0 0 0
0 0 0 0 0 0 0 0 0 0 0 0 0 0 0 0 0 0 0 0 0 0 0 0 0 0 0 0 0 0 0 0 0 0 0 0 0 0 0 -2.19217860119703 0 0 0 0 0 0 0 0 0 0
0 0 0 0 0 0 0 0 0 0 0 0 0 0 0 0 0 0 0.0347267193025181 0.863171249772736 0 0 0 0 0.275738657876218 0.0911726091434434 0 0.503481016635403 0 0 0 0 0 0 0 0 0 0 0 0 0 0 0 0 0 0 0 0 0 0
0 0 0 0 0 0 0 0 0 0 0 0 0 0 0 0 0 0 0 0 0 0 0 0 0 0.326687605032018 0.0644245491089901 0.133132756586038 0 0.0199136965105442 0.167107282011359 0.277506472248547 0 0 0 0 0 0 0 -0.139922175089286 0 0 0 0 0 0 0 0 0 0
0 0 0 0 0 0 0 0 0 0 0 0 0.0113714554692245 0 0 0 0 0 0 0 0 0 0 0 0 0 0 0 0 0 0 0 0 0 0 0 0 0 0 -0.596190704838817 0 0 0 0 0 0 0 0 0 0
0 0 0 0 0 0 0 0 0 0 0 0 0 0 0 0 0 0 0 0 0 0 0 0 0 0 0 0 0 0 0 0 0 0.341293732166257 0.173153758674472 0.466425006331982 0 0.0292017388594014 0.124984979228344 0 0.137364276375872 0.112733105486066 0.434474621143631 0.666968619939904 0 0 0.133694286657984 0.234473446887732 0.0268346433215735 0
0 0 0 0 0 0 0 0 0 0 0 0 0 0 0 0 0.109257895790127 0.117147491371731 0 0.178220519578588 0.0973266896088239 0.0750093375910714 0.350926292168671 0.0491197720064661 0 0 0 0 0 0 0 0 0 0 0 0 0 0 0 -0.699965260106677 0 0 0 0 0 0 0 0 0 0
0 0 0 0 0 0 0 0 0 0 0 0 0.0853482416194007 0.750096303366497 0.112891141022453 0.121586249862922 0 0 0 0 0 0 0 0 0 0 0 0 0 0 0 0 0 0 0 0 0 0 0 -0.558940335091842 0 0 0 0 0 0 0 0 0 0
0 0 0 0 0 0 0 0 0 0 0 0 0 0 0 0 0 0 0 0 0 0 0 0 0 0 0 0 0 0 0 0 0 0 0 0 0 0 0 -2.18374294413919 0 0 0 0 0 0 0 0 0 0
0 0 0 0 0 0 0 0 0 0 0 0 0 0 0 0 0 0 0 0 0 0 0 0 0 0 0 0 0 0 0 0 0 0 0 0 0 0 0 -3.60582466031266 0 0 0 0 0 0 0 0 0 0
0 0 0 0 0 0 0 0 0 0 0 0 0.0502317000424218 0 0.135218892301361 0.170990695854387 0.201511822638095 0.311910844533038 0.15370891886003 0.090713725146959 0 0 0 0 0 0 0 0 0 0 0 0 0 0 0 0 0 0 0 0 0 0 0 0 0 0 0 0 0 0
0 0 0 0 0 0 0 0 0 0 0 0 0.103613585775389 0.356487397337176 0.170267544595868 0.0644139259318992 0.514049481751501 0.109395096493101 0.102663798310905 0 0 0 0 0 0 0 0 0 0 0 0 0 0 0 0 0 0 0 0 0 0 0 0 0 0 0 0 0 0 0
0 0 0 0 0 0 0 0 0 0 0 0 0 0 0 0 0 0 0 0 0 0 0 0 0 0 0 0 0 0 0 0 0 0 0 0 0 0 0 -0.718306665817469 0 0 0 0 0 0 0 0 0 0
0 0 0 0 0 0 0 0 0 0 0 0 0 0 0 0 0 0 0 0 0 0 0 0 0 0 0 0 0 0 0 0 0 0 0 0 0 0 0 -1.26081758401377 0 0 0 0 0 0 0 0 0 0
0 0 0 0 0 0 0 0 0 0 0 0 0 0 0 0 0 0 0 0 0 0.12011702174683 0.0610000678209843 0.358857427565945 0.212438369835373 0.185305381671121 0 0.8617156908022 0 0 0 0 0 0 0 0 0 0 0 -0.134309530403271 0 0 0 0 0 0 0 0 0 0
0 0 0 0 0 0 0 0 0 0 0 0 0 0 0 0 0 0 0 0 0 0 0 0 0 0 0 0 0 0 0.140706362161567 0.4720334288952 0.318285612402199 0 0 0 0 0 0 0 0 0 0 0 0 0 0 0 0 0
