0.0540371754070426
0.100185756685714
1.33928863996116
0.757620387789268
0.455848701556134
1.12351408148846
0.162578647432599
0.3319230100353
1.49461069739383
3.57182335867552
0.0645409144354324
0.0327811332505926
0.337265130910175
0.155945440022043
0.372184422726054
0.224810287245055
0.634371796630725
1.99001149536235
0.0642896767104875
2.4417090106783
1.45308117939241
0.0378518193087716
0.430704992415564
0.0741135115299211
0.431284293099961
1.97243831877432
0.332324610194106
0.00982509643777186
0.234217206877703
2.95530018926443
1.50238527860599
0.859251204696894
0.338302598487434
0.411335299036267
0.743048148926634
1.63352520285282
0.0421202234005164
1.08770724252343
0.149290190062729
0.243219612278586
0.644544933458549
0.326741597664388
2.05926962586266
0.598703925197497
0.0697312748982525
0.121772288069798
0.24424169698842
0.509471854757131
2.05079217923607
0.208055999422825
