0.721046435159296
0.373143791845723
0.10717097948738
0.0552274615755185
0.607978119465254
0.462927876372214
0.0747852830442791
0.846182554391995
0.216700961173984
0.266452078353718
1.41091408634101
0.183172503271645
0.459437051392089
1.23573556075494
0.267460359826346
0.197064107282564
0.033469208697841
0.525328721125429
0.509376446417571
2.09464679090567
1.7445730988508
7.71084743563255
1.66151912476772
1.06086392492871
2.33373263837571
0.482648138122053
0.105689652865683
1.48373164074644
1.84421842418039
0.2262316716211
1.64722637997531
2.61266494273796
0.0963044016174798
0.180594897692267
0.588088529866911
1.05792256706999
0.659914877789319
3.82731606355138
0.0127172643633055
0.314985022776481
0.148070435074987
1.08563840995427
0.0732276022588928
0.10424942605844
0.460410888415032
0.102227955567484
0.0695240964642107
0.252377628627664
0.906699554690708
0.251807138749963
