0 0 0 0 0 0 0 0 0 0 0 0 0 -0.673156676057645 0 0 0 0 0 0 0 0 -0.615656427366263 0 0 0 0 0 0 0 0 0 0 0 0 0 0 0 0 0 0 0 0 0 0 0 0 0 0 0
0 0 0 0 0 0 0 0 0 0 0 0 0 -0.758368800842757 0 0 0 0 0 0 0 0 0 0 0 0 0 0 0 0 0 0 0 0 0 0 0 0 0 0 0 0 0 0 0 0 0 0 0 0
0 0 0 0 -0.398619769036973 0 0 0 0 0 0 0 0 -0.721846142972723 0 0 0 0 0 0 0 0 -1.18391988294878 0 0 0 0 0 0 0 0 0 0 0 0 0 0 -0.314471848179132 0 0 0 0 0 0 0 0 0 0 0 0
0 0 0 0 -0.0576826819098706 0 0 0 -1.39046795485369 0 0 0 0 -0.236054110792008 0 0 0 0 0 0 0 0 -2.27463502823445 0 0 0 0 0 0 0 0 0 0 0 0 0 0 0 0 -2.58891833076962 0 0 0 0 0 0 0 0 0 0
0 0 0.074232606283423 0.0118953802677382 0 0 0 0 0 0 0 0 0 -5.01669676342373 0 0 0 0 0 0 0 0 -1.35338156401158 0 0 0 0 0 0 0 0 0 0 0 0 0 0 -0.411826718920135 0 -0.600246940843138 0 0 0 0 0 0 0 0 0 0
0 0 0 0 0 0 0 0 0 0 0 0 0 -1.16877673967666 0 0 0 0 -0.390216794398302 0 0 0 -0.87166757670153 0 0 0 0 0 0 0 0 0 0 0 0 0 0 -0.781070856373102 0 0 0 0 0 0 0 0 0 0 0 0
0 0 0 0 0 0 0 0 0 0 0 0 0 0 0 0 0 0 -1.99225523056381 0 0 0 -1.10506579717128 0 0 -1.62090667521205 0 0 0 0 0 0 0 0 0 0 0 -1.41575082965519 0 0 0 0 0 0 0 0 0 0 0 0
0 0 0 0 0 0 0 0 0 0 0 0 0 -1.81836786927126 0 0 0 0 -2.3354746801422 0 0 0 -3.24973218532561 0 0 0 0 0 0 0 0 0 0 0 0 0 0 -5.38633875809541 0 0 0 0 0 0 0 0 0 0 0 0
0 0 0 0.259418485597989 0 0 0 0 0 0 0 -0.655141938900003 0 0 -0.824718533013181 0 0 0 0 0 -1.85108742650704 -4.29758485991384 0 0 0 -1.29658907014757 0 0 0 0 0 0 0 0 0 0 0 -0.902647836886699 0 0 0 0 0 0 0 0 0 0 -3.88146617461336 0
0 0 0 0 0 0 0 0 0 0 0 0 0 0 -0.185879289757893 0 0 0 0 0 -1.22847584964464 -0.438769358489049 0 -0.176182795499979 0 -1.66190091502939 0 0 0 -2.67547445996622 0 0 0 0 0 0 0 -3.4371420266427 0 0 0 0 0 0 0 0 0 -2.32654192668833 0 0
0 0 0 0 0 0 0 0 0 0 0 0 0 0 -2.59002484008375 0 0 0 0 0 -0.679467218320023 0 0 -0.907284648567209 0 0 0 0 0 -0.115175747404318 0 0 0 0 0 0 0 0 0 0 0 0 0 0 0 0 0 -1.12726957975361 0 0
0 0 0 0 0 0 0 0 0.133154661410392 0 0 0 0 0 0 0 0 0 0 -6.15906663622606 -0.854047622519454 0 0 0 -3.46684784878735 0 0 -0.264507191702988 0 0 0 0 0 0 0 0 0 0 0 0 0 0 0 0 -0.264482109104892 0 0 0 0 0
0 0 0 0 0 0 0 0 0 0 0 0 0 0 0 0 0 0 0 -0.77032468422755 -4.51037454019188 0 0 0 0 0 0 0 0 0 0 0 0 0 0 0 0 0 0 0 0 0 0 0 0 0 0 0 0 0
0.15323187488988 0.151769278476282 0.134499081731293 0.0500695955975929 1.01294309608146 0.247985672191698 0 0.37883054780934 0 0 0 0 0 0 0 0 0 0 0 0 0 0 0 0 0 0 0 0 0 0 0 0 0 0 0 -0.429306320273772 0 0 0 0 0 0 0 0 0 0 0 0 0 0
0 0 0 0 0 0 0 0 0.172471579277322 0.0381869229387975 0.525648052745938 0 0 0 0 0 0 0 0 0 -6.28933305684675 0 0 0 0 0 0 0 0 0 0 0 0 0 0 -0.176675644600197 0 0 0 0 0 0 0 0 0 0 0 0 0 0
0 0 0 0 0 0 0 0 0 0 0 0 0 0 0 0 0 -0.67290974747215 0 0 -0.50755751121712 0 0 0 0 0 0 0 0 0 0 0 0 0 0 -1.12579593140472 0 0 -1.95779749647916 0 0 -1.25987740586687 -1.80597572202197 -1.06500089626409 0 0 0 0 0 0
0 0 0 0 0 0 0 0 0 0 0 0 0 0 0 0 0 -0.461441007126376 0 0 -1.25261114931659 0 0 0 0 0 0 0 0 0 0 -0.850572492650472 0 0 0 -0.154936961379295 0 0 -1.11738738856216 0 0 -1.13009447364705 -2.83470887922202 -1.76117083342511 0 0 0 0 0 0
0 0 0 0 0 0 0 0 0 0 0 0 0 0 0 0.144249725196678 0.0885716326796919 0 0 0 -1.87215464956453 0 0 0 0 0 -0.548224523495558 0 0 0 0 0 0 0 0 0 0 0 0 0 0 -2.64924477002247 0 0 0 0 0 0 0 0
0 0 0 0 0 0.082184536775919 0.401002229408899 0.467715267292563 0 0 0 0 0 0 0 0 0 0 0 0 0 0 0 0 0 0 0 0 0 0 0 -1.85451547195465 0 0 0 -0.400924531855223 -0.392562038764142 0 0 0 0 -2.35557240807586 -0.107032031666226 -1.59312546526042 0 0 0 0 0 0
0 0 0 0 0 0 0 0 0 0 0 1.21170993535156 0.153928880936721 0 0 0 0 0 0 0 0 0 0 0 0 0 0 0 0 0 0 -5.17052672375201 0 0 0 0 0 0 -6.96515181439114 0 0 -0.48890602457347 0 -0.447863112166008 0 0 0 0 0 0
0 0 0 0 0 0 0 0 0.369451515523013 0.242491760639861 0.131120451191561 0.16118262145303 0.962042032111924 0 1.22840553924091 0.112697088567072 0.2384784789723 0.39323333097659 0 0 0 0 0 0 0 0 0 0 0 0 0 -4.40395146505288 0 0 0 0 -0.738392783984183 0 -0.517978265655373 0 0 -0.352828194975739 -1.05645192447882 -0.230965972261386 0 0 0 0 0 0
0 0 0 0 0 0 0 0 0.883455821205228 0.0852301235522371 0 0 0 0 0 0 0 0 0 0 0 0 0 0 0 0 0 0 0 0 0 0 0 0 0 0 0 0 0 0 0 -0.308965083374838 -2.75758410198227 0 0 0 0 0 0 0
0.116928254748688 0 0.240828551199613 0.446512189410141 0.258443081445439 0.185269359469851 0.219408807210052 0.609935497355217 0 0 0 0 0 0 0 0 0 0 0 0 0 0 0 0 0 0 0 0 0 0 0 0 0 0 0 0 -1.78130714487737 0 0 0 0 0 -1.82771430172985 0 0 0 0 0 0 0
0 0 0 0 0 0 0 0 0 0.0333781903249225 0.160955936426632 0 0 0 0 0 0 0 0 0 0 0 0 0 0 0 0 0 0 0 0 0 0 0 0 0 -0.93978649877595 0 0 0 0 -1.80978030984072 -0.2879017452507 0 0 0 0 0 0 0
0 0 0 0 0 0 0 0 0 0 0 0.618557882516543 0 0 0 0 0 0 0 0 0 0 0 0 0 0 0 0 0 0 0 0 0 0 0 0 0 0 0 0 0 0 0 0 0 0 0 0 0 -0.277513222010832
0 0 0 0 0 0 0.326613783256446 0 0.270947900824628 0.350694955741518 0 0 0 0 0 0 0 0 0 0 0 0 0 0 0 0 0 0 0 0 0 0 0 0 0 0 0 0 0 0 0 0 0 0 0 0 0 0 0 -0.272926913241809
0 0 0 0 0 0 0 0 0 0 0 0 0 0 0 0 0 0.109521631121463 0 0 0 0 0 0 0 0 0 0 0 0 0 0 0 -1.80359478642797 0 0 0 0 0 0 0 0 0 0 0 0 0 0 0 -0.617959614966445
0 0 0 0 0 0 0 0 0 0 0 0.0515344526311642 0 0 0 0 0 0 0 0 0 0 0 0 0 0 0 0 0 0 0 0 -0.234837927869088 -5.81689424535488 0 0 0 0 0 0 0 0 0 0 0 0 0 0 0 -2.14444068100948
0 0 0 0 0 0 0 0 0 0 0 0 0 0 0 0 0 0 0 0 0 0 0 0 0 0 0 0 0 0 0 0 0 -2.15344820405392 0 0 0 0 0 0 0 0 0 0 0 0 -0.810892261150875 0 0 -0.590509562955072
0 0 0 0 0 0 0 0 0 0.536528040552172 0.0209169651297185 0 0 0 0 0 0 0 0 0 0 0 0 0 0 0 0 0 0 0 0 0 0 -0.685051513044411 0 0 0 0 0 0 0 0 0 0 0 0 0 0 0 0
0 0 0 0 0 0 0 0 0 0 0 0 0 0 0 0 0 0 0 0 0 0 0 0 0 0 0 0 0 0 0 0 -0.371898597965886 -2.21633647327669 0 0 0 0 0 0 0 0 0 0 0 0 0 0 0 0
0 0 0 0 0 0 0 0 0 0 0 0 0 0 0 0 0.157940812710735 0 0.387359046569444 1.0156346881097 0.828512782955904 0 0 0 0 0 0 0 0 0 0 0 -2.59361084811894 0 0 0 0 0 0 0 0 0 0 0 0 0 0 0 0 -0.485432273437623
0 0 0 0 0 0 0 0 0 0 0 0 0 0 0 0 0 0 0 0 0 0 0 0 0 0 0 0.0483312883735046 0 0 0.0772363828758904 0.506923102555098 0 0 0 0 0 0 0 0 0 0 0 0 0 0 0 0 0 -0.640970613258594
0 0 0 0 0 0 0 0 0 0 0 0 0 0 0 0 0 0 0 0 0 0 0 0 0 0 0.313535228264148 1.21960089068516 0.416337051285083 0.152381620647387 0.46525589130674 0 0 0 0 0 0 0 0 0 0 0 0 0 0 0 0 0 0 0
0 0 0 0 0 0 0 0 0 0 0 0 0 0 0 0 0 0 0 0 0 0 0 0 0 0 0 0 0 0 0 0 0 0 0 0 0 0 0 0 0 0 0 0 0 0 0 0 0 -2.21653963492739
0 0 0 0 0 0 0 0 0 0 0 0 0 0.0915499811883399 0.0342838079418685 0.229808497330646 0.0337752564116074 0 0.0751144390746249 0 0 0 0 0 0 0 0 0 0 0 0 0 0 0 0 0 0 0 0 0 0 0 0 0 0 0 0 0 0 -0.795792776752057
0 0 0 0 0 0 0 0 0 0 0 0 0 0 0 0 0 0 0.0800355068983759 0 0.152244934859726 0 0.358261071287191 0.18706770351061 0 0 0 0 0 0 0 0 0 0 0 0 0 0 0 0 0 0 0 0 0 0 0 0 0 -0.969623432560086
0 0 0.0649882738882213 0 0.0774791487431132 0.147562273886486 0.286307099921766 1.1030743323454 0.177333802165041 0.689381099960447 0 0 0 0 0 0 0 0 0 0 0 0 0 0 0 0 0 0 0 0 0 0 0 0 0 0 0 0 0 0 0 0 0 0 0 0 0 0 0 -1.85744185668169
0 0 0 0 0 0 0 0 0 0 0 0 0 0 0 0.352538467092726 0.219631220386936 0 0 1.36021319242098 0.103209055203633 0 0 0 0 0 0 0 0 0 0 0 0 0 0 0 0 0 0 0 0 0 0 0 0 0 0 0 0 0
0 0 0 0.492833473934853 0.112175726832227 0 0 0 0 0 0 0 0 0 0 0 0 0 0 0 0 0 0 0 0 0 0 0 0 0 0 0 0 0 0 0 0 0 0 0 0 0 0 0 0 0 0 0 0 -0.589691996333617
0 0 0 0 0 0 0 0 0 0 0 0 0 0 0 0 0 0 0 0 0 0 0 0 0 0 0 0 0 0 0 0 0 0 0 0 0 0 0 0 0 0 0 0 0 0 0 0 0 -0.125225294032084
0 0 0 0 0 0 0 0 0 0 0 0 0 0 0 0.243225254725566 0.227255663436342 0.602920282317576 0.490665463547074 0.105376217211665 0.0660852997018229 0.0585378747307643 0 0.358704427385404 0 0 0 0 0 0 0 0 0 0 0 0 0 0 0 0 0 0 0 0 0 0 0 0 0 0
0 0 0 0 0 0 0 0 0 0 0 0 0 0 0 0.383199082398798 0.560387858453525 0 0.0226964992196469 0 0.197079331261737 0.559706081810214 0.367306576507259 0.0582742375411363 0 0 0 0 0 0 0 0 0 0 0 0 0 0 0 0 0 0 0 0 0 0 0 0 0 0
0 0 0 0 0 0 0 0 0 0 0 0 0 0 0 0.214898296247533 0.386399771101485 0 0.336222497312538 0.0923390075749528 0.0460057923521257 0 0 0 0 0 0 0 0 0 0 0 0 0 0 0 0 0 0 0 0 0 0 0 0 -1.47734651757763 0 0 0 0
0 0 0 0 0 0 0 0 0 0 0 0.0523734898212838 0 0 0 0 0 0 0 0 0 0 0 0 0 0 0 0 0 0 0 0 0 0 0 0 0 0 0 0 0 0 0 0 0 -0.665108141924068 0 0 0 0
0 0 0 0 0 0 0 0 0 0 0 0 0 0 0 0 0 0 0 0 0 0 0 0 0 0 0 0 0 0 0 0 0 0 0 0 0 0 0 0 0 0 0 0.286919504437967 0.134985755234381 0 0.0289114194296957 0 1.36493623398199 0.156225817503258
0 0 0 0 0 0 0 0 0 0 0 0 0 0 0 0 0 0 0 0 0 0 0 0 0 0 0 0 0.154843057473963 0 0 0 0 0 0 0 0 0 0 0 0 0 0 0 0 -0.147373105337271 0 0 0 0
0 0 0 0 0 0 0 0 0 0.45108981194715 0.210317692912722 0 0 0 0 0 0 0 0 0 0 0 0 0 0 0 0 0 0 0 0 0 0 0 0 0 0 0 0 0 0 0 0 0 0 0 0 0 0 0
0 0 0 0 0 0 0 0 0.738865872974521 0 0 0 0 0 0 0 0 0 0 0 0 0 0 0 0 0 0 0 0 0 0 0 0 0 0 0 0 0 0 0 0 0 0 0 0 -6.96421812750713 0 0 0 0
0 0 0 0 0 0 0 0 0 0 0 0 0 0 0 0 0 0 0 0 0 0 0 0 0.0569818470177084 0.0574591902479251 0.134621572977726 0.40380909557181 0.120399514353696 0 0 0.0939086687147336 0.136741298783632 0 0.454505832760367 0.164202350796222 0.20973281093028 0.375347200291126 0 0.126953749984353 0.0258720767473535 0 0 0 0 -0.780018200744547 0 0 0 0
