1.21040161675573
1.52535795391836
0.325127691635767
0.0445772379088756
1.68225662147771
1.37510309195508
0.439884248979482
0.338602378562608
0.19307113188966
0.149808303935563
0.894125552786897
0.139728582377655
0.206782728565248
1.0902994409229
0.57663222344403
2.62383819964612
0.147238077383478
1.65273312481055
0.290394656769883
1.97328490998636
0.357028742243927
4.88856232632306
0.564622629900503
1.8562945891513
0.587997274838007
0.189282244314237
0.563427988607334
0.758083758367991
1.85918060230317
0.61655878417327
1.91526227366618
3.82627132613761
1.19546723609843
0.483308997431809
0.212114306839939
0.159541507254357
0.204354549478505
0.778540787208503
0.804044216515773
0.417707873026304
0.504179189313914
0.305320026860587
0.323605846111755
0.426589294681856
0.492729963163536
0.092849405367517
0.0893821160435588
0.676022508136753
0.244205647445944
1.93199382849742
