0.454976836800974
1.24213946448487
1.18164538822764
0.197544706511729
1.24028749634582
0.263497705270252
0.982642584469005
2.48015667972621
0.498006505215395
1.21160142977313
0.0668662913439627
0.418245800271872
0.079402684667903
0.940153447659994
2.6245965017253
0.0905061956155289
0.478402298778328
0.119969308223323
2.03184955441323
0.084490444166549
0.355895817600535
1.0293914580071
0.589057044622141
0.579245113143144
1.58733481161316
2.52550658436566
1.13419990038546
0.732211839276886
0.133895585598064
1.15370455169782
1.95616766917114
0.276619894355274
2.01752186060032
0.0924194999841128
0.275744935909779
0.621203104773277
0.537920212137338
0.0735850693737347
3.97456701235325
0.8119492621605
3.78567407640196
2.08585669039035
0.0763877084174153
0.452669153189922
0.601001191376031
0.512217816350026
1.07584028983006
6.14329502520902
0.862461310732359
0.190170752132459
