0 0 0 -4.26857590191486 0 0 0 0 0 0 0 -0.365933383429554 0 0 0 0 0 -2.62831458807151 0 0 0 0 0 0 0 0 0 0 0 0 0 -1.22242095501904 0 0 0 0 0 0 -0.157986844007922 0 0 0 0 0 0 0 0 0 0 0
0 0 0 0 -0.601163157251217 0 0 0 0 0 0 -2.23815480642995 0 0 0 0 0 0 0 0 0 0 0 0 0 0 0 0 0 0 0 -0.722463416326904 0 0 0 0 0 0 -2.12168134697728 0 0 0 0 0 0 0 0 0 0 0
0 0 0 0 0 0 0 0 0 0 0 -1.32585740067694 0 0 0 0 0 -0.762724520539894 0 0 0 0 0 0 0 0 -0.207085335180372 0 0 0 0 0 0 -0.359265315701088 0 0 0 0 0 0 0 0 0 0 0 0 0 0 -1.20576549295247 0
0.903442895140179 0 0 0 0 0 0 0 0 0 0 0 0 0 0 0 0 -0.25729181769752 0 0 0 0 0 0 0 0 -0.582594446109717 0 0 0 0 0 0 -0.564693201077987 0 0 0 0 0 0 -3.78969600238187 0 0 0 0 0 0 0 0 0
0 0.117593813487214 0 0 0 0 0 0 0 0 0 0 0 0 -1.66188974414646 0 0 0 0 0 0 0 0 0 0 0 -0.265620648747039 0 0 0 0 0 0 0 0 0 0 0 0 0 -0.440417115325527 0 0 0 0 0 0 0 -1.15383796355733 0
0 0 0 0 0 0 0 0 0 0 0 0 0 0 0 0 0 0 0 0 0 0 0 0 0 0 -1.01461341529405 0 0 0 0 0 0 -0.981803653270994 0 0 0 0 0 0 -0.604266293231072 0 0 0 0 0 0 0 0 0
0 0 0 0 0 0 0 0 -0.246183490271943 0 0 0 -0.557891790585496 0 0 0 0 0 0 -0.941622569083913 0 0 0 0 0 0 0 -0.897644728304785 0 0 0 0 0 -0.95014282625145 0 0 0 0 0 0 -0.77878344920882 0 -3.76861691513024 0 0 0 0 0 -0.9941967864456 0
0 0 0 0 0 0 0 0 0 -0.291024921644584 0 0 -0.679562178679134 0 0 0 0 0 0 0 0 0 0 0 0 0 0 0 0 0 0 0 0 -0.508200145544627 0 0 0 0 0 0 -2.00333412704841 0 -0.969059023472292 0 0 0 0 0 0 0
0 0 0 0 0 0 0.0498117453232937 0 0 0 0 0 0 0 0 -1.14457753473245 0 0 0 0 -0.491225334118828 0 0 0 0 0 0 0 0 0 0 0 -1.22378316048065 -1.57354799444282 0 0 0 0 0 0 0 -0.171137547112805 -0.490808769640476 0 0 0 0 0 0 0
0 0 0 0 0 0 0 0.0585009071349863 0 0 0 0 0 0 0 -0.915401741068 0 0 0 0 -0.251232417054809 0 0 0 0 0 0 0 0 0 0 0 0 0 0 0 0 -0.838836833614044 0 0 0 -0.185242382352722 -0.649686032814551 0 0 0 0 0 0 0
0 0 0 0 0 0 0 0 0 0 0 0 0 0 0 -3.18676354531309 0 0 0 0 -2.11297494990501 0 0 0 0 0 0 0 0 0 0 0 -1.79582289000213 0 0 0 0 0 0 0 0 -0.67916474489185 -0.502243011411725 0 0 0 0 0 0 0
0.0726963320512271 0.451820118484347 0.252239122847042 0 0 0 0 0 0 0 0 0 0 0 0 0 0 0 0 0 -1.44980495846403 0 0 0 0 0 0 0 0 0 -0.803735273609084 0 0 0 0 0 0 -1.84970963774661 0 0 0 0 0 0 -2.93671403614926 0 0 0 0 0
0 0 0 0 0 0 0.111770607197219 0.128980743324153 0 0 0 0 0 0 0 0 0 0 0 0 -1.80885006039544 0 0 0 0 0 0 0 0 0 -0.311902610455558 0 0 0 0 0 0 -2.03072881931875 0 0 0 0 -0.594158772398152 0 -0.526264908135724 0 0 0 0 0
0 0 0 0 0 0 0 0 0 0 0 0 0 0 0 0 0 0 0 0 -2.06694907152955 0 0 0 0 0 0 0 0 0 -0.215796725107817 0 0 0 -0.355956551220992 0 0 -0.225273179661392 0 0 0 0 -0.709230166725642 0 0 0 0 0 0 0
0 0 0 0 0.315401848750125 0 0 0 0 0 0 0 0 0 0 0 0 0 0 0 0 0 0 0 0 0 0 0 0 0 0 0 0 0 -1.4497865254658 0 0 -1.44539693774287 0 0 0 0 -2.36517374665683 0 -6.53719848276348 0 0 0 0 0
0 0 0 0 0 0 0 0 0.242722535776358 0.195420426584118 0.683686918784353 0 0 0 0 0 0 0 0 0 -1.04650522308803 0 0 0 0 0 0 0 0 0 -3.34787951377606 0 0 0 0 0 0 -0.817700928286593 0 0 0 0 -1.1335135587772 0 -0.756716011261843 0 0 0 0 0
0 0 0 0 0 0 0 0 0 0 0 0 0 0 0 0 0 0 0 0 -1.35232968806382 0 0 0 0 0 0 0 0 -0.900398199758815 -1.46449313476931 0 0 0 -1.77815130304798 0 0 -1.45028552443904 0 0 0 0 -0.340002667337621 0 -6.25745305739014 0 0 0 0 0
0.512438858582112 0 0.12989028071936 0.0502445806701481 0 0 0 0 0 0 0 0 0 0 0 0 0 0 0 0 0 0 0 0 0 0 0 0 0 -0.674401535334147 -3.21896441470039 0 0 0 0 0 0 -1.5271164794575 0 -3.5578757654584 0 0 0 0 0 0 0 0 0 0
0 0 0 0 0 0 0 0 0 0 0 0 0 0 0 0 0 0 0 0 0 0 0 0 0 0 0 0 0 0 -0.281975418809278 0 0 0 -1.5158705189174 0 0 0 0 0 0 0 -0.408255134708554 0 0 0 0 0 0 0
0 0 0 0 0 0 0.194317456536651 0 0 0 0 0 0 0 0 0 0 0 0 0 0 0 0 0 0 0 0 0 0 -4.18650903564359 0 0 0 0 -1.41056110225327 0 -1.2518104405155 0 0 0 0 0 0 0 0 0 0 0 0 0
0 0 0 0 0 0 0 0 0.107140077020879 0.0489725767642334 0.3946007101963 0.263297536687283 0.343499894306665 0.411684350030573 0 0.200785631011568 0.29332523280909 0 0 0 0 0 0 0 0 0 0 0 0 0 0 0 0 0 -0.402937390647038 0 0 0 0 0 0 0 -1.45224036403299 0 0 0 0 0 0 0
0 0 0 0 0 0 0 0 0 0 0 0 0 0 0 0 0 0 0 0 0 0 0 0 0 0 0 0 0 0 0 0 0 0 -0.365942893448443 0 0 0 0 0 0 0 -0.402389320744028 0 0 0 0 0 0 0
0 0 0 0 0 0 0 0 0 0 0 0 0 0 0 0 0 0 0 0 0 0 0 0 0 -0.279480399471627 0 0 0 0 0 0 0 0 0 0 0 0 0 0 0 0 -0.20956950378641 0 0 0 0 0 0 0
0 0 0 0 0 0 0 0 0 0 0 0 0 0 0 0 0 0 0 0 0 0 0 0 0 -1.30644994850649 0 0 0 0 0 0 0 0 0 0 0 0 0 0 0 0 -0.575387904214578 0 0 0 0 0 0 0
0 0 0 0 0 0 0 0 0 0 0 0 0 0 0 0 0 0 0 0 0 0 0 0 0 -1.90052968436525 0 0 0 0 0 0 0 0 0 0 0 0 0 0 0 0 0 0 0 0 0 0 0 0
0 0 0 0 0 0 0 0 0 0 0 0 0 0 0 0 0 0 0 0 0 0 0.0526289333953772 0.26068045953871 0.373052397337668 0 0 0 0 0 0 0 0 0 -0.24821949824949 -0.290693220439635 0 0 0 0 0 0 0 0 0 0 -1.27160945062632 0 0 0
0 0 0.0426838788760967 0.112914528064118 0.0518011072191708 0.199269502433918 0 0 0 0 0 0 0 0 0 0 0 0 0 0 0 0 0 0 0 0 0 0 0 0 0 0 0 0 0 -0.530229324447732 0 0 0 0 0 0 0 0 0 0 -2.90500178048533 0 0 0
0 0 0 0 0 0 0.187123294318294 0 0 0 0 0 0 0 0 0 0 0 0 0 0 0 0 0 0 0 0 0 0 0 0 0 0 0 0 0 0 0 0 0 0 0 0 0 0 0 -0.930792859551311 0 0 0
0 0 0 0 0 0 0 0 0 0 0 0 0 0 0 0 0 0 0 0 0 0 0 0 0 0 0 0 0 0 0 0 0 0 0 0 0 0 0 0 0 0 0 0 0 0 -2.7118259548661 0 0 0
0 0 0 0 0 0 0 0 0 0 0 0 0 0 0 0 0.188795053186367 0.137461873680635 0 0.861693425707743 0 0 0 0 0 0 0 0 0 0 0 0 0 0 0 0 0 0 0 0 0 0 0 0 0 0 0 0 0 0
0 0 0 0 0 0 0 0 0 0 0 0.155594233003048 0.0651481252714264 0.0444879002277731 0 0.632817605667414 0.294536697920992 0.664022855141509 0.0508533870379258 0 0 0 0 0 0 0 0 0 0 0 0 0 0 0 0 0 0 0 0 0 0 0 0 0 0 0 0 0 0 0
0.257229535289188 0.156761761162362 0 0 0 0 0 0 0 0 0 0 0 0 0 0 0 0 0 0 0 0 0 0 0 0 0 0 0 0 0 0 0 0 0 0 0 0 0 0 0 0 0 -5.25570221815639 0 0 0 0 0 0
0 0 0 0 0 0 0 0 0.21805788469266 0 0.349142795345979 0 0 0 0 0 0 0 0 0 0 0 0 0 0 0 0 0 0 0 0 0 0 0 0 0 0 0 0 0 0 0 0 0 0 -0.583873198970218 0 0 0 0
0 0 0.0697508452613433 0.106646927721764 0 0.20948570598491 0.181205756307764 0.104748608819136 0.306226526759447 0 0 0 0 0 0 0 0 0 0 0 0 0 0 0 0 0 0 0 0 0 0 0 0 0 0 0 0 0 0 0 0 0 0 0 0 -0.717936091992742 0 0 0 0
0 0 0 0 0 0 0 0 0 0 0 0 0 0.0688203496406496 0.272267903170659 0 0.363059375303941 0 0.298186040980791 0.268661654031631 0.0744881862434662 0.0803135642124981 0 0 0 0.0481472945059625 0 0 0 0 0 0 0 0 0 0 0 0 0 0 0 0 0 0 0 0 0 0 0 0
0 0 0 0 0 0 0 0 0 0 0 0 0 0 0 0 0 0 0 0 0 0 0 0 0 0.0576271115428506 0.111026106166705 0 0 0 0 0 0 0 0 0 0 0 0 0 0 0 0 0 0 -1.97151364097427 0 0 0 0
0 0 0 0 0 0 0 0 0 0 0 0 0 0 0 0 0 0 0 0.257897868610587 0 0 0 0 0 0 0 0 0 0 0 0 0 0 0 0 0 0 0 0 0 0 0 0 0 -0.472579961299088 0 0 0 0
0 0 0 0 0 0 0 0 0 0.171716013772367 0 0.381865312469614 0.417294085347757 0.045262335341097 0.297399948104233 0.166628221032437 0.289447634536407 0.309708447997602 0 0 0 0 0 0 0 0 0 0 0 0 0 0 0 0 0 0 0 0 0 0 0 0 0 0 0 0 0 0 0 0
0.0332298501969626 0.414932383764293 0 0 0 0 0 0 0 0 0 0 0 0 0 0 0 0 0 0 0 0 0 0 0 0 0 0 0 0 0 0 0 0 0 0 0 0 0 0 0 0 0 0 0 0 0 0 0 0
0 0 0 0 0 0 0 0 0 0 0 0 0 0 0 0 0 0.707603723080456 0 0 0 0 0 0 0 0 0 0 0 0 0 0 0 0 0 0 0 0 0 0 0 0 0 0 0 0 0 0 0 0
0 0 0 0.810211242776003 0.0859925980500692 0.128597288643682 0.170139216659532 0.414783522836409 0 0 0 0 0 0 0 0 0 0 0 0 0 0 0 0 0 0 0 0 0 0 0 0 0 0 0 0 0 0 0 0 0 0 0 0 0 0 0 0 0 0
0 0 0 0 0 0 0 0 0.0339728407482789 0.0373227109123197 0.132143788158953 0 0 0 0 0 0 0 0 0 0 0 0 0 0 0 0 0 0 0 0 0 0 0 0 0 0 0 0 0 0 0 0 0 0 0 0 0 0 0
0 0 0 0 0 0 0.667251099844712 0.190733316788084 0.102304765313548 0.129335306698481 0.103301429092284 0 0.116892680042645 0.150807329605276 0.506635524869378 0.24179945372578 0.0679868623607407 0 0.0828749540297654 0 0.296995041436123 0.0867712902557288 0.0395931715180627 0.114491087210658 0 0 0 0 0 0 0 0 0 0 0 0 0 0 0 0 0 0 0 0 0 0 0 0 0 0
0 0 0 0 0 0 0 0 0 0 0 0 0 0 0 0 0 0 0 0 0 0 0 0 0 0 0 0 0 0 0 1.06888250028886 0 0 0 0 0 0 0 0 0 0 0 0 0 0 0 -0.295064263346702 0 -1.33225095076907
0 0 0 0 0 0 0 0 0 0 0 0.579259947908272 0.107996720456098 0 1.31716822794222 0.13861440037949 1.19739529364983 0 0 0 0 0 0 0 0 0 0 0 0 0 0 0 0 0 0 0 0 0 0 0 0 0 0 0 0 0 0 -0.403738623343588 0 0
0 0 0 0 0 0 0 0 0 0 0 0 0 0 0 0 0 0 0 0 0 0 0 0 0 0 0 0 0 0 0 0 0.115934140440222 0.148759693482316 0 0.387408217551954 0.0968199056813072 0 0 0 0 0 0 0 0 0 0 0 0 -1.8479895786641
0 0 0 0 0 0 0 0 0 0 0 0 0 0 0 0 0 0 0 0 0 0 0 0 0 0.242473256054754 0.592374216725254 0.178388922983932 0.570970489232811 0 0 0 0 0 0 0 0 0 0 0 0 0 0 0 0 0 0 0 0 0
0 0 0 0 0 0 0 0 0 0 0 0 0 0 0 0 0 0 0 0 0 0 0 0 0 0 0 0 0 0 0 0 0 0 0 0 0 0 0 0 0 0 0 0.0652677806919945 0.0798269634206349 0 0 0 0 0
0 0 0.249412978455783 0 0.233390780787055 0 0.204926343263867 0 0 0 0 0 0 0 0 0 0 0 0 0 0 0 0 0 0 0 0 0 0 0 0 0 0 0 0 0 0 0 0 0 0 0 0 0 0 0 0 0 0 0
0 0 0 0 0 0 0 0 0 0 0 0 0 0 0 0 0 0 0 0 0 0 0 0 0 0 0 0 0 0 0 0 0 0 0 0 0 0 0 0 0 0 0 0.269550682295059 0 0.333849925234757 0 0 0 0
