0.960507340150089
1.31650391573943
1.74047010448355
0.127749900255204
0.527114920861829
0.141767108726287
1.10122390308937
1.8993360513272
0.50527183577368
0.910385494058025
2.87480369151573
1.07490584050592
1.10275439159398
0.611979626241956
0.108671862605859
0.359956174185681
0.882748464158248
1.23567780689899
0.895359507079525
0.534454234368561
0.979336325083801
3.7581592074633
0.954866907099489
0.972278084290056
1.16987628210597
2.57951163655912
0.369003947683744
3.41932237625983
3.88034941132668
1.89635373197847
2.56141143696022
1.39645914433244
0.743711108758698
3.10757866817775
2.83379381023971
0.73010291981836
0.517333921396493
1.11096973679834
2.05790476017123
0.310741691443925
1.58439790800237
0.990203785289571
1.05245228867249
0.522976943010728
0.329264756231799
0.687548211659924
1.02449075039774
0.176452876433186
0.237525968581338
0.534755846310123
