1.46767553657272
0.893485474905647
0.393352274618127
2.2257271931992
0.309565605265587
3.56131244718281
1.56974358438851
2.15939279572584
1.10254091723896
2.49867584708586
0.161550798025909
0.997878017333103
0.148602465980277
0.211190591145125
0.494557317746333
0.809753142915738
2.97079508359649
1.67109646877527
0.248213032688573
0.241590261534909
0.796661554418892
1.56850795335365
0.0799733410591057
1.21688757593686
4.03446577148176
0.992966219355218
0.807967727272626
2.18888768660741
3.73741949433156
2.99852807659989
0.563194604098239
0.212769856123971
1.10412635926564
2.67329216194447
0.47473542436859
2.26273224711841
0.669868057056005
2.00330460209965
3.97398826141407
0.730699656290871
2.79020289491266
0.882852533618645
2.24795867415693
1.81987425710452
0.244790642435909
0.723277842299433
2.04648615519812
2.19433726412606
0.870804979162124
0.153912313128254
