0.580333293886736
0.158995824387589
0.161449653841311
0.368396745912525
2.38985551187508
0.893242528248265
0.696992960575376
0.0891556990386345
0.259308999835501
0.871082875122169
0.48700538131094
0.113012215979914
0.279256701266431
0.0729860310571896
2.98536974755747
0.102785814236351
0.0619176053851434
0.559311332519533
0.104909340110958
0.176412493718514
0.162870164192624
0.122371242643417
1.92991349420807
1.75317035068503
0.415511580723207
0.921995235451702
0.328719500107829
1.5653237502682
1.26512296856848
0.0852675784755322
0.14563871112578
0.160516541375581
0.444082088638891
0.179527379416816
0.598575315344506
2.39072200799209
0.299707597079614
0.689913038098218
0.0230986517826951
1.38280239762637
0.68285514343471
0.991178636661889
3.7020041497325
0.8007328752332
0.400603496797249
0.0254895130222651
0.111992541138086
0.463074773414339
1.83823861941852
0.24448959909316
