0.961988432170331
1.07369812657811
1.67612130524106
0.263591624645121
0.698019649460686
3.69491352344271
0.702967075612354
0.187052676014607
1.3822592224451
0.556546357952124
0.511037520633712
0.568932141740831
0.232302114202216
2.62204134015892
2.52485321347893
0.379248601169925
0.390590161328171
1.32738847166961
2.38487610480106
0.257948713958403
0.49727934406326
0.905311970551454
1.14807154494641
0.604073780239838
0.239397357338349
1.54693166935
0.224166981020126
0.524144626329425
0.359125345965796
3.20408867333243
0.293129914362963
0.932562375672378
0.861060341940977
1.01376177316391
2.0094366410008
1.45182379064346
4.10435286093918
1.22023540511146
1.47320737682751
0.432801291801979
3.51150523169417
2.0939522717278
0.456904837880551
1.20293184575407
1.00513805277675
3.60033221468744
1.38032615604014
1.40612425360922
0.225048790911555
2.26950221364773
