0.315558605784295
2.10369336980821
0.902628344415682
2.06028210258278
0.860256797641908
0.632985330391486
2.34578359854315
0.492935053211462
2.00139688718928
0.32723381454212
0.514417436013137
0.427400737676128
4.92998842901013
0.248720371847771
0.806051522347793
2.03560592360174
0.169536973315687
0.053732709608054
1.60998988266435
2.96378150582767
0.664605944689702
1.35781678266757
0.899568636838576
0.372930384107006
1.04642253663696
1.46929356010537
0.862882576513868
0.380044873048683
1.9057276435548
0.857036958295819
0.513418633187724
0.319835860826536
3.27522412778619
1.18552113976568
0.468839688620826
0.592308185066087
2.48419038729924
0.972411487998867
0.353389254255981
0.406958421545685
1.13123714571907
6.26017867127133
3.99432814590015
1.57967354916798
0.184380937839433
1.42287872393393
3.63835045659893
0.986632455307101
1.00208553192099
1.97954807149387
