0 0 0 0 0 -0.691387822373592 0 0 0 0 0 0 0 0 0 0 0 0 0 0 0 0 0 0 0 -0.373720616592659 0 0 0 0 0 0 0 0 0 0 0 0 0 0 0 0 -0.944346299518456 0 0 0 0 -1.00413912236927 0 0
0 0 0 0 0 0 0 0 0 0 0 0 0 0 0 0 0 0 0 0 0 0 0 0 0 -2.19219816277273 0 0 0 0 0 0 0 0 0 0 0 0 0 0 0 0 0 0 0 0 0 -0.725672470959598 0 0
0 0 0 0 0 0 0 0 0 0 0 0 0 0 0 0 0 0 0 0 0 -0.648991619510599 0 0 0 0 0 0 0 0 0 0 0 0 0 0 0 0 0 0 0 0 0 0 0 0 0 -0.570596082357077 0 0
0 0 0 0 0 0 0 0 0 0 0 0 0 0 0 0 -0.398179621539203 0 0 -2.03503180359355 0 0 0 0 0 0 0 0 0 0 0 0 0 0 -1.71516522326385 0 0 0 0 0 0 0 0 0 0 0 0 -0.356491725943189 0 0
0 0 0 0 0 0 0 0 0 0 0 0 0 0 -1.84655825970768 0 -1.7231495864641 0 0 0 0 0 0 0 0 0 0 0 0 0 0 0 0 0 -4.32173335968406 0 0 0 0 0 0 0 0 0 0 0 0 -0.419948300206394 0 0
0.13421475367912 0 0 0 0 0 0 0 0 0 0 0 0 0 -1.14781895763791 0 -1.33572589015265 0 0 0 0 0 0 0 0 0 0 0 0 0 0 0 0 0 0 0 0 0 0 0 0 0 0 0 0 0 0 -1.08462529041989 0 0
0 0 0 0 0 0 0 0 0 -2.11592290434392 -1.76845690504028 0 0 0 -2.86798172803954 0 0 0 0 -1.77360508134899 0 0 0 0 -0.233984014186876 0 0 0 0 0 0 0 0 0 0 0 0 0 0 0 0 0 0 0 0 0 0 0 0 0
0 0 0 0 0 0 0 0 -2.5321756915113 0 0 0 0 0 0 0 0 0 0 0 0 0 0 0 -3.6651007249863 0 0 0 0 0 0 0 0 0 0 0 0 0 -2.40900895583884 0 0 0 0 0 -2.30419196983701 0 0 0 0 0
0 0 0 0 0 0 0 0.520092617690226 0 0 0 0 0 0 0 0 0 0 0 -0.306409612080899 0 0 0 0 0 0 0 0 0 0 0 0 0 0 0 0 0 0 -1.40261659019469 0 0 0 0 0 -1.03547298749008 0 0 0 0 0
0 0 0 0 0 0 0.412489894611862 0 0 0 0 0 0 0 0 0 0 -0.290168404263926 0 -0.600853618713152 0 0 0 0 -0.335695749561703 0 0 0 0 0 0 0 0 0 0 0 0 0 -6.44111629213699 0 0 0 0 0 -0.104186576732121 0 0 0 0 0
0 0 0 0 0 0 0.356403674310598 0 0 0 0 0 0 0 0 0 0 -1.10775655277858 0 -1.34892033749524 0 0 0 0 0 0 0 0 0 0 0 0 0 0 0 0 0 0 0 0 0 0 0 0 -3.36624721686578 0 0 0 0 0
0 0 0 0 0 0 0 0 0 0 0 0 0 0 0 0 0 -1.42757001394079 0 0 0 0 0 -0.566061057764665 -2.24773173739831 0 0 0 -0.67536280894403 0 0 0 0 0 0 0 0 0 -1.39771891427211 0 0 0 0 -0.900662574990022 -5.45942529006848 0 0 0 0 0
0 0 0 0 0 0 0 0 0 0 0 0 0 0 0 0 0 0 0 0 0 0 0 0 -9.10335371965772 0 0 0 0 0 0 0 0 0 0 0 0 0 -3.82414888366906 0 0 0 0 -0.905923882636145 0 0 0 0 0 0
0 0 0 0 0 0 0 0 0 0 0 0 0 0 0 0 0 0 0 0 -0.516304875063233 0 0 -2.13604644828096 -0.186495359179537 0 0 0 0 0 0 0 0 0 0 0 0 0 -2.39529414866542 0 0 0 0 -3.71820132897352 -0.689949080045511 0 0 0 0 0
0 0 0 0 0.355157032794068 0.228986794414894 0.592053478306143 0 0 0 0 0 0 0 0 0 0 0 0 0 -0.696992236209514 0 0 -0.800779448082717 0 0 0 0 0 0 0 0 0 0 0 0 0 0 -1.5005741132301 0 0 0 0 -0.951446333981022 -3.19507386092019 0 0 0 -1.5828820773048 0
0 0 0 0 0 0 0 0 0 0 0 0 0 0 0 0 0 0 0 0 -1.3179849230179 0 0 -1.07937330085549 -0.956388257262297 0 0 0 0 0 0 0 0 0 0 0 0 0 -0.809490567389699 0 0 0 0 -0.330576734627531 0 0 0 0 -1.1020057159967 0
0 0 0 0.0804038310647616 0.358394577731866 0.27905160248612 0 0 0 0 0 0 0 0 0 0 0 0 0 0 0 0 0 0 0 0 0 0 0 0 0 0 0 0 0 0 0 0 -3.74075073859259 -1.34255366265767 0 0 0 -2.66962831180691 0 0 0 0 -0.872405280327571 0
0 0 0 0 0 0 0 0 0 0.0564048404706009 0.218565983354236 0.277063303933099 0 0 0 0 0 0 0 0 0 0 0 0 0 0 0 0 0 0 0 0 0 0 0 0 0 0 0 0 -2.63592093318902 0 0 0 0 0 0 0 0 0
0 0 0 0 0 0 0 0 0 0 0 0 0 0 0 0 0 0 0 0 0 0 0 0 0 0 0 0 0 0 0 0 0 0 0 0 0 0 0 0 -0.80217596336033 0 0 0 0 0 0 0 0 0
0 0 0 0.432256259365726 0 0 0.370540132724563 0 0.0552525431786001 0.116101482401352 0.263737967005265 0 0 0 0 0 0 0 0 0 0 0 0 0 0 0 0 0 0 0 0 0 0 0 0 0 0 -0.244699104664395 0 0 -0.238638384814835 0 0 0 0 0 0 0 0 0
0 0 0 0 0 0 0 0 0 0 0 0 0 0.101600819041598 0.137536175178039 0.268938651195966 0 0 0 0 0 0 0 0 0 0 0 0 0 0 0 0 0 0 0 0 0 -0.822348068201721 0 0 -0.459237937043531 0 0 0 0 0 0 0 0 0
0 0 0.143621920402971 0 0 0 0 0 0 0 0 0 0 0 0 0 0 0 0 0 0 0 0 0 0 0 0 -0.419562100428237 0 0 0 0 0 0 0 0 0 -2.88954683464212 0 0 -0.559773847459141 0 0 0 0 0 0 0 0 0
0 0 0 0 0 0 0 0 0 0 0 0 0 0 0 0 0 0 0 0 0 0 0 0 0 0 -0.715190947191157 0 0 -0.415955442860627 0 0 -0.782836270391602 0 0 0 0 0 0 0 0 0 0 0 0 0 0 0 0 0
0 0 0 0 0 0 0 0 0 0 0 0.108690075516427 0 0.41562398618823 0.162645518984448 0.221372888646877 0 0 0 0 0 0 0 0 0 0 0 0 0 -0.323449955917469 0 0 -2.63501097463262 0 0 0 0 0 0 0 0 0 0 0 0 0 0 0 0 0
0 0 0 0 0 0 0.0501637835085037 0.682969276623531 0 0.064335449763678 0 0.449335445916368 1.86354725691091 0.0367501777299871 0 0.197554401188349 0 0 0 0 0 0 0 0 0 0 0 0 0 -3.97673818397376 0 0 -3.03120456842823 0 0 0 -3.46317565479509 0 0 0 0 0 0 0 0 0 0 0 0 0
0.0687695672412466 0.431504502700819 0 0 0 0 0 0 0 0 0 0 0 0 0 0 0 0 0 0 0 0 0 0 0 0 0 0 0 -0.816355871094628 0 0 0 0 0 0 -0.97025905242899 0 0 0 0 0 0 0 0 0 0 0 0 0
0 0 0 0 0 0 0 0 0 0 0 0 0 0 0 0 0 0 0 0 0 0 0.145994157317729 0 0 0 0 0 0 -0.2736654530203 0 -0.174422655296419 -1.18976897713965 0 0 0 -0.762949995966662 0 0 0 0 0 0 0 0 0 0 0 0 0
0 0 0 0 0 0 0 0 0 0 0 0 0 0 0 0 0 0 0 0 0 0.0861531370289948 0 0 0 0 0 0 0 0 0 0 0 0 0 0 0 0 0 0 0 0 0 0 0 0 0 0 0 0
0 0 0 0 0 0 0 0 0 0 0 0.130963339199345 0 0 0 0 0 0 0 0 0 0 0 0 0 0 0 0 0 -1.68294609132709 0 0 0 0 0 0 0 0 0 0 0 -0.375727431108996 0 0 0 0 0 0 0 0
0 0 0 0 0 0 0 0 0 0 0 0 0 0 0 0 0 0 0 0 0 0 0.0799496881671295 0.0634961572107996 0.740580955065705 0.141847655029076 0.0530760115635599 0 0.314263247972652 0 0 0 0 0 0 0 0 0 0 0 0 0 0 0 0 0 0 0 0 0
0 0 0 0 0 0 0 0 0 0 0 0 0 0 0 0 0 0 0 0 0 0 0 0 0 0 0 0 0 0 0 0 0 0 0 0 0 0 0 0 0 -1.41279829151014 0 0 0 0 0 0 0 -0.233477325296338
0 0 0 0 0 0 0 0 0 0 0 0 0 0 0 0 0 0 0 0 0 0 0 0 0 0 0.0350782327615645 0 0 0 0 0 0 0 0 0 0 0 0 0 0 0 0 0 0 0 0 0 0 0
0 0 0 0 0 0 0 0 0 0 0 0 0 0 0 0 0 0 0 0 0 0 0.164231770906804 0.469973972652957 0.56597094241333 0 0.256338104199842 0 0 0 0 0 0 0 0 0 0 0 0 0 0 0 0 0 0 0 0 0 0 -3.3868791442066
0 0 0 0 0 0 0 0 0 0 0 0 0 0 0 0 0 0 0 0 0 0 0 0 0 0 0 0 0 0 0 0 0 0 0 0 0 0 0 0 0 0 0 0 0 0 0 0 0 -2.06529390953496
0 0 0 0.373205221071581 0.832539433454393 0 0 0 0 0 0 0 0 0 0 0 0 0 0 0 0 0 0 0 0 0 0 0 0 0 0 0 0 0 0 0 0 0 0 0 0 0 0 0 0 0 0 0 0 -0.238923210162433
0 0 0 0 0 0 0 0 0 0 0 0 0 0 0 0 0 0 0 0 0 0 0 0 0 0 0 0 0 0 0 0 0 0 0 0 0 0 0 0 0 0 0 0 0 0 0 0 0 -2.39856391910069
0 0 0 0 0 0 0 0 0 0 0 0 0 0 0 0 0 0 0 0 0 0 0 0 0.711893725392682 0.183989209547935 0.162617256502053 0 0 0 0 0 0 0 0 0 0 0 0 0 0 0 0 0 0 0 0 0 0 0
0 0 0 0 0 0 0 0 0 0 0 0 0 0 0 0 0 0 0 0.04799937039536 0.167938812649952 0.578492497896736 0 0 0 0 0 0 0 0 0 0 0 0 0 0 0 0 0 0 0 0 0 0 0 0 -0.240604713419295 0 0 0
0 0 0 0 0 0 0 0.497803850154814 0.250245411491949 1.22735789339306 0 0.302168643367225 0.785553909086969 0.44967890559376 0.285414913172497 0.154617747131538 0.718914268179772 0 0 0 0 0 0 0 0 0 0 0 0 0 0 0 0 0 0 0 0 0 0 0 0 0 0 0 0 0 0 0 0 0
0 0 0 0 0 0 0 0 0 0 0 0 0 0 0 0 0.259702454465898 0 0 0 0 0 0 0 0 0 0 0 0 0 0 0 0 0 0 0 0 0 0 0 0 0 0 0 0 0 0 0 0 0
0 0 0 0 0 0 0 0 0 0 0 0 0 0 0 0 0 0.565401552478547 0.170171250851871 0.0465296730365961 0.0957927589725358 0.102489672686674 0 0 0 0 0 0 0 0 0 0 0 0 0 0 0 0 0 0 0 0 0 0 0 0 0 0 0 0
0 0 0 0 0 0 0 0 0 0 0 0 0 0 0 0 0 0 0 0 0 0 0 0 0 0 0 0 0.0721753713830612 0 0.285251631812603 0 0 0 0 0 0 0 0 0 0 0 0 0 0 -0.200167783895274 0 0 0 0
0.182596741110723 0 0 0 0 0 0 0 0 0 0 0 0 0 0 0 0 0 0 0 0 0 0 0 0 0 0 0 0 0 0 0 0 0 0 0 0 0 0 0 0 0 0 0 0 -3.07337280251674 0 0 0 0
0 0 0 0 0 0 0 0 0 0 0 0.189483046489229 0.192023520443768 0.781658009889217 0.182057923369673 0.0653090226201073 0.566233975481337 0 0 0 0 0 0 0 0 0 0 0 0 0 0 0 0 0 0 0 0 0 0 0 0 0 0 0 0 -0.418170874361075 0 0 0 0
0 0 0 0 0 0 0 0.47052965185345 0.219809711582061 0.0225642642591453 0.678544672994422 1.14684637229594 0 0.138014534658828 0.655026045827932 0 0 0 0 0 0 0 0 0 0 0 0 0 0 0 0 0 0 0 0 0 0 0 0 0 0 0 0 0 0 -0.213031146268287 0 0 0 0
0 0 0 0 0 0 0 0 0 0 0 0 0 0 0 0 0 0 0 0 0 0 0 0 0 0 0 0 0 0 0 0 0 0 0 0 0 0 0 0 0 0.0383060132271564 0.606921994520539 0.083054211577712 0.0404342965165362 0 0 0 0 0
0 0 0 0 0 0 0 0 0 0 0 0 0 0 0 0 0 0 0 0 0 0 0 0 0 0 0 0 0 0 0 0 0 0 0 0 0 0.0446121261173326 0 0 0 0 0 0 0 0 0 0 0 0
0.196894514130877 0.14822769317347 0.104440783862922 0.0741361837556181 0.0833476492540524 0.193516342205166 0 0 0 0 0 0 0 0 0 0 0 0 0 0 0 0 0 0 0 0 0 0 0 0 0 0 0 0 0 0 0 0 0 0 0 0 0 0 0 0 0 0 0 0
0 0 0 0 0 0 0 0 0 0 0 0 0 0 0.332514386543115 0.22637651319683 0.157605551880052 0 0 0 0 0 0 0 0 0 0 0 0 0 0 0 0 0 0 0 0 0 0 0 0 0 0 0 0 0 0 0 0 0
0 0 0 0 0 0 0 0 0 0 0 0 0 0 0 0 0 0 0 0 0 0 0 0 0 0 0 0 0 0 0.0484421234597807 0 0.726376897402223 0.381412727621463 0.0457367876814485 0.466652666970912 0 0 0 0 0 0 0 0 0 0 0 0 0 0
