0.231614781042732
0.0503499773052523
1.01179460274979
0.484039072180041
0.254415554405787
2.40434384907846
0.0685885787343092
1.87036141139102
0.327031417523703
0.207810696342835
0.28865239839672
0.0593109040667599
0.22244801037273
0.536319639804141
1.96664445832499
0.996936043662891
0.431074859041216
0.275001856939823
0.261543594314393
3.69606249319106
0.354105260198349
1.10057906842971
0.183987107711887
1.51307436811366
1.55307377999314
0.150639331861614
2.16002438531106
1.03760616218603
0.34280192119116
0.343030502476223
0.517898543814979
0.592250520226269
0.28497190105269
2.12158391803062
0.69466334228063
1.5742475686255
3.99054422814005
0.363426283455903
0.061830470578023
0.135863125677311
0.0647816370071106
0.106410210536893
1.78965571065945
4.01463075098054
1.55220414579
1.08886013677418
3.09959896549806
0.0535165325160195
1.02313290138325
0.828642892583898
