0.601605664767478
0.449778438141162
0.934023483000062
1.29212764624901
4.16066395359684
0.541117829714613
0.691423104767112
2.14523886014225
1.36605020704722
3.78776024645621
0.710012297631814
0.669541532713478
2.27323008114745
0.994714783772136
0.597374969988366
0.460134159417801
1.06421162231016
2.61449743207867
1.38764644160079
0.517834845129138
0.731881431657529
1.73851406799906
0.507885412082679
0.557506150529213
1.75599351487357
6.70236796964679
0.413991689386825
0.478637511994861
0.150929325405427
0.857419111805831
0.388881072401662
1.48623110300796
0.227318547624837
0.342819598202964
0.379616232279649
0.35524263220406
0.869748057535646
0.338935201539347
0.336027764404564
0.992912093018652
2.37214052842497
1.75018563250833
0.149498656834734
0.949762275696745
0.183307263497552
0.456217824807574
0.307345686166693
0.132151504470865
3.68566002441018
0.779408893931381
