0.474905080781627
0.696728953692722
5.14238618881596
0.580963493283013
0.759060252365852
3.43983704540767
0.271629293201473
0.915045038477184
1.58339676659638
0.31604133585833
1.10054196851489
0.295706865686034
0.152920923858706
3.3634842002632
0.937684090648435
1.65312808824108
1.65232313921089
1.14304348935587
1.06523090397661
0.30411894415311
0.305301321077578
0.978963282136791
7.37760412532959
0.477704394804222
2.69093088921258
1.99223462560868
1.23792887979561
1.2564863809959
1.72594965351277
0.705614308577082
0.179646592662943
3.21449287258303
1.29920809931639
3.30573063184664
2.26977682293256
0.197698316410728
2.50886342247459
0.996703393687684
6.09581873393806
1.87413563654057
0.739916221381269
1.27397595305931
7.36607038667469
0.15519987147299
0.772583294756327
2.14756438100304
1.68492764817132
2.36629063224064
0.390379648661818
0.897984392620249
