0.570375200670933
1.47029420247084
1.01519911113978
0.334509983014999
1.38308149850295
0.290770608752105
2.7923267119999
0.674707713114975
0.556092055177873
2.21432225946467
0.360487247652903
1.94917290168944
0.874257559793258
0.544595021869774
1.77751468580267
0.988710542438889
0.694312972157683
0.129257897896344
0.683255113689021
0.606774300673504
0.964769827217804
1.54650880514207
3.05019885078165
0.879824136561581
0.265612541182589
0.780387986158963
0.876899762626721
1.95384305456044
1.31450731248306
0.954400036206493
0.250349832324405
0.837414647019763
1.19008928347988
1.42537834501404
3.83014709943452
0.839550542367022
1.85331416949499
0.280944173017946
1.01834616527099
0.356117424174233
1.5573744404638
1.19679671745616
1.97967870231336
1.00779849723351
3.25042178691948
0.393906533556609
0.88411056228471
3.12906810691371
0.911956108689367
1.92439822544757
