0.394837952747352
0.700236298055877
0.183700320050548
2.22287498050127
0.155219039034592
0.542243544075343
1.3016416331526
0.255790104644518
0.222390983187454
0.12810705757924
0.409133457501895
0.2268585976064
0.502268974076079
0.531756738375169
1.77502893959558
0.798873323954638
0.308417293581484
0.505840059510148
0.958905041383939
0.842641197634685
0.494609663260801
2.19161495879459
0.41668188811492
1.07269326335671
0.0669532592237886
0.101991836584582
0.0467673042723073
0.166439451225963
0.354740447124588
1.01969969473913
0.237933737412446
1.51294725002082
0.801501403686082
3.48059231976413
0.340738815925403
0.255379358393909
0.412975706016186
0.0600072435030216
1.19035609582776
2.26826815290144
0.632440207928527
0.246760445625006
0.692129927706291
1.46188184550269
0.271491683968372
0.189418203053212
0.151702451936086
0.417866326484386
0.254886854564097
0.382694388589877
