0 0 0 0 0 0 0 0 -2.67213043780976 0 0 0 0 0 0 0 0 0 0 0 0 0 0 0 0 0 0 0 0 0 -1.21355855767038 0 0 0 0 0 0 0 0 -0.949414510877461 0 0 0 0 0 0 0 0 0 0
0 0 0 0 0 0 0 0 -1.52503784848069 0 0 0 0 0 0 0 0 0 0 0 0 0 0 0 0 0 0 0 0 0 -0.395325278011936 0 0 0 0 0 0 0 0 -1.96902179366067 0 0 0 0 0 0 0 0 0 0
0 0 0 0 0 0 0 0 0 0 0 0 0 0 0 0 0 0 0 0 0 0 0 0 0 0 0 -0.481960900342546 0 0 0 0 0 0 0 0 0 0 0 0 0 0 0 0 0 0 0 0 0 0
0 0 0 0 0 0 0 0 0 0 0 0 0 0 0 0 -0.378713672207358 0 0 0 0 0 0 0 0 0 -4.02959818242776 -8.7130150227222 0 0 0 0 0 0 0 0 0 0 0 0 0 0 0 0 0 0 0 0 0 0
0 0 0 0 0 0 0 -0.745134982610598 0 0 0 0 0 0 0 -0.815695917903123 -3.1599107970746 -1.24084422115274 0 -1.03003170966349 0 0 0 0 0 0 0 0 0 0 0 0 0 -0.159427928214389 0 0 0 -3.60188986634214 0 0 0 0 0 0 0 0 0 0 0 0
0 0 0 0 0 0 0 0 0 0 0 0 0 0 0 0 -0.80615426527885 -0.328262216019121 0 -0.444086956097444 0 0 0 0 0 0 0 0 -0.800759078260718 0 0 0 0 0 0 0 0 -0.68039099775025 0 0 0 0 0 0 0 0 0 0 0 0
0 0 0 0 0 0 0 0 0 0 0 0 0 0 0 -0.743885487320113 -0.902507266272699 -0.0936751845933736 0 -0.368998137664453 0 0 0 0 0 0 0 0 0 0 0 0 0 -0.762904019166911 0 0 0 0 0 0 0 0 0 0 0 0 0 0 0 0
0 0 0 0 0.145124163715777 0 0 0 0 0 0 0 0 0 0 0 -0.304447731500293 0 0 0 0 0 0 0 0 -6.23422737203522 0 0 0 0 0 0 0 0 0 0 0 0 0 0 0 0 0 0 0 0 0 0 0 0
0.550787117834545 0.31829142490028 0 0 0 0 0 0 0 0 0 0 0 0 0 0 -0.472095772479648 0 -1.95785907925435 -0.204875109432047 0 0 0 0 0 0 0 0 -0.231213409658029 0 0 0 0 0 0 0 0 -0.778010581682797 0 0 0 -1.96318336985349 0 0 0 0 0 0 0 0
0 0 0 0 0 0 0 0 0 0 0 0 0 0 0 0 0 0 -1.63624268089154 -4.79294789014735 0 0 0 0 0 -0.721760889412243 0 0 -2.38953333342857 0 0 0 0 0 0 0 0 -9.68896694764397 0 0 0 0 0 0 0 0 0 0 0 0
0 0 0 0 0 0 0 0 0 0 0 0 0 0 0 0 0 0 -0.570488592790673 0 0 0 0 0 0 -0.499969353414306 0 0 0 0 0 0 0 0 0 -0.582157849002704 0 0 0 0 0 -1.32384234245918 0 0 0 0 0 0 0 0
0 0 0 0 0 0 0 0 0 0 0 0 0 0 0 0 0 0 -2.11810844675951 -1.67045412895098 0 0 0 0 0 -0.861108188213674 0 0 0 0 0 0 0 0 0 -2.42255209830648 0 0 0 0 0 0 0 0 0 0 0 0 0 0
0 0 0 0 0 0 0 0 0 0 0 0 0 0 0 0 0 0 -0.853818369892467 -1.6179146250104 0 0 0 0 0 -0.33779792269232 0 0 0 0 0 0 0 0 0 -0.358082754625171 -1.21304133433077 0 0 0 0 0 0 0 0 0 0 0 0 0
0 0 0 0 0 0 0 0 0 0 0 0 0 0 0 0 0 0 0 0 0 0 0 0 0 -0.235652614679882 0 0 0 0 0 0 0 0 0 -0.570051472744674 0 0 0 0 0 0 -0.24402533882151 0 0 -0.871474889737425 -0.969194621933905 0 0 0
0 0 0 0 0 0 0 0 0 0 0 0 0 0 0 0 0 0 0 0 0 0 0 0 0 0 0 0 0 0 0 0 0 0 0 0 0 0 0 0 0 0 -0.331559564744408 0 0 -0.267399858641025 0 0 0 0
0 0 0 0 0.176794009508345 0 0.145044694855578 0 0 0 0 0 0 0 0 0 0 0 0 0 0 0 0 0 0 -0.82435296092295 0 0 0 0 0 0 0 0 0 0 0 0 0 0 0 0 -1.21390051622157 0 0 0 0 0 0 0
0 0 0 0.0676088117627945 0.69327797951652 0.143454518311127 0.179068280240327 0.0632920591007364 0.0958715089408907 0 0 0 0 0 0 0 0 0 0 0 0 0 0 0 0 0 0 0 0 0 0 0 0 0 -1.39906005938626 0 0 0 -4.09538390740509 0 0 0 -0.214103074246978 0 0 0 -0.118593098402068 0 0 0
0 0 0 0 0.236075892131324 0.0665552728432021 0.018559554587227 0 0 0 0 0 0 0 0 0 0 0 0 0 -0.784962358769719 0 0 0 0 0 0 0 0 0 0 0 0 0 -0.17741391980837 0 0 0 0 0 0 0 -0.830743567284766 0 0 0 0 0 0 0
0 0 0 0 0 0 0 0 0.415521716166705 0.326896495094203 0.122346481938128 0.437747834238025 0.171903928862125 0 0 0 0 0 0 0 -3.32109252204954 0 0 0 0 0 0 0 0 0 0 0 0 0 -0.867976054970393 0 0 0 0 0 0 0 -0.069948710691065 0 0 0 -1.3211266382302 0 0 0
0 0 0 0 0.212718169542668 0.0911886305640417 0.0737985131240327 0 0.0411558019081411 1.05237175729307 0 0.309251468079215 0.307117191329443 0 0 0 0 0 0 0 -3.53779932801792 0 0 0 0 0 0 0 0 0 0 0 0 0 -0.312033605831106 0 0 0 -2.8953242064278 0 0 0 0 0 0 0 -2.1592513456185 0 0 0
0 0 0 0 0 0 0 0 0 0 0 0 0 0 0 0 0 0.152419333259903 0.625963268183467 0.713668527915566 0 0.334513796370857 0 0 0 0 0 0 0 -7.10735780544244 0 0 0 0 -0.840308785054188 0 0 0 -1.05525479917297 0 0 0 0 0 0 0 0 0 0 0
0 0 0 0 0 0 0 0 0 0 0 0 0 0 0 0 0 0 0 0 -1.74850927086939 0 0 0 0 0 0 0 0 -0.114053329688448 0 -1.04521821812615 0 0 -0.814371637116044 0 0 0 0 0 -0.875464872693546 0 -0.188124032622996 0 0 0 0 0 0 0
0 0 0 0 0 0 0 0 0 0 0 0 0 0 0 0 0 0 0 0 0 0 0 0 0 0 0 0 0 -0.706548893291369 0 -0.927758102505748 0 0 0 0 0 0 0 0 -1.0408215586592 0 0 0 0 0 0 0 0 0
0 0 0 0 0 0 0 0 0 0 0 0 0 0 0 0 0 0 0 0 0 0 0 0 0 0 0 0 0 -0.46578460829444 0 -1.70252639199788 0 0 0 0 0 0 0 0 0 0 0 -2.51061149476492 0 0 0 0 0 0
0 0 0 0 0 0 0 0 0 0 0 0 0 0 0 0 0 0 0 0 0 0 0 0 0 0 0 0 0 0 0 0 0 0 0 0 0 0 0 0 0 0 0 0 0 0 0 0 -0.627844357257312 0
0 0 0 0 0 0 0 1.14840243074807 0 0.133430257131477 0.088167745063726 0.182824242370121 0.0702221219739494 0.0467648202679321 0 0.165386901250862 0 0 0 0 0 0 0 0 0 0 0 0 0 0 0 0 0 0 0 0 0 0 0 0 0 0 0 0 0 0 0 0 -0.786642078811601 -0.790129531111419
0 0 0 0.796619890993614 0 0 0 0 0 0 0 0 0 0 0 0 0 0 0 0 0 0 0 0 0 0 0 0 0 0 0 0 0 0 0 0 0 0 0 0 0 0 0 0 0 0 0 -0.484439775918559 -2.51457810780238 -0.279600376296608
0 0 0.0959224284552988 1.87208526732285 0 0 0 0 0 0 0 0 0 0 0 0 0 0 0 0 0 0 0 0 0 0 0 0 0 0 0 0 0 0 0 0 0 0 0 0 0 0 0 0 0 0 0 -0.264236716867452 -0.255975229457238 0
0 0 0 0 0 0.143553208352685 0 0 0.0451725250278303 0.51546576088809 0 0 0 0 0 0 0 0 0 0 0 0 0 0 0 0 0 0 0 0 0 0 0 0 0 0 0 0 0 0 0 0 0 0 -10.874414501368 0 0 -0.328214178422423 -7.78728815930156 0
0 0 0 0 0 0 0 0 0 0 0 0 0 0 0 0 0 0 0 0 1.48962213679237 0.0234062814924317 0.138094697154648 0.0995678290116583 0 0 0 0 0 0 0 0 0 0 0 0 0 0 0 0 0 0 0 0 0 0 0 -0.370510165781485 -0.26318683991144 0
0.232524963561284 0.0673297271148105 0 0 0 0 0 0 0 0 0 0 0 0 0 0 0 0 0 0 0 0 0 0 0 0 0 0 0 0 0 0 0 0 0 0 0 0 0 0 0 0 0 0 -1.02764309854862 0 0 -0.618215974133851 -0.612451736772531 -0.8423924644778
0 0 0 0 0 0 0 0 0 0 0 0 0 0 0 0 0 0 0 0 0 0.207987503942559 0.166546614264183 0.346348147217424 0 0 0 0 0 0 0 0 0 0 0 0 0 0 0 0 0 0 0 0 -0.82370208125618 0 0 -5.23569810675517 -1.1192457824793 0
0 0 0 0 0 0 0 0 0 0 0 0 0 0 0 0 0 0 0 0 0 0 0 0 0 0 0 0 0 0 0 0 0 0 0 0 0 0 0 0 0 0 0 0 0 0 0 -1.5411004774089 -0.368350015687379 -5.10593709941534
0 0 0 0 0.0347033569691803 0 0.158222680936601 0 0 0 0 0 0 0 0 0 0 0 0 0 0 0 0 0 0 0 0 0 0 0 0 0 0 0 0 0 0 0 0 0 0 0 0 0 0 0 0 0 0 0
0 0 0 0 0 0 0 0 0 0 0 0 0 0 0 0 0.276596226301228 0.0373585470558535 0.191249464628856 0.0599932802783283 0.163565369829168 0.152260356535246 0 0 0 0 0 0 0 0 0 0 0 0 0 0 0 0 0 0 0 0 0 0 0 0 0 0 0 0
0 0 0 0 0 0 0 0 0 0 0.112442133592213 0.474024097836782 0.0729684670327127 0.116785402287636 0 0 0 0 0 0 0 0 0 0 0 0 0 0 0 0 0 0 0 0 0 0 0 0 0 0 0 0 0 0 0 0 0 0 -4.40350255066956 0
0 0 0 0 0 0 0 0 0 0 0 0 0.234289634390447 0 0 0 0 0 0 0 0 0 0 0 0 0 0 0 0 0 0 0 0 0 0 0 0 0 0 0 0 0 0 0 0 0 0 0 0 0
0 0 0 0 0.708424401141949 0.132876351247179 0 0 0.158311700274382 1.81990245613762 0 0 0 0 0 0 0 0 0 0 0 0 0 0 0 0 0 0 0 0 0 0 0 0 0 0 0 0 0 0 0 0 0 0 0 0 0 0 -0.894322917392183 0
0 0 0 0 0 0 0 0 0 0 0 0 0 0 0 0 0.785187031529301 0 0 0.539962665924248 0.208066911307583 0 0 0 0 0 0 0 0 0 0 0 0 0 0 0 0 0 0 0 0 0 0 0 0 0 0 0 0 0
0.188990180972044 0.406263529687091 0 0 0 0 0 0 0 0 0 0 0 0 0 0 0 0 0 0 0 0 0 0 0 0 0 0 0 0 0 0 0 0 0 0 0 0 0 0 0 0 0 0 0 0 0 0 0 0
0 0 0 0 0 0 0 0 0 0 0 0 0 0 0 0 0 0 0 0 0 0.177209800645464 0.185258740855859 0 0 0 0 0 0 0 0 0 0 0 0 0 0 0 0 0 0 0 0 0 0 0 0 0 -2.49896028357013 0
0 0 0 0 0 0 0 0 0.384504112990975 0 0.2675919437652 0 0 0 0 0 0 0 0 0 0 0 0 0 0 0 0 0 0 0 0 0 0 0 0 0 0 0 0 0 0 0 0 0 0 0 0 0 -0.168841011616616 0
0 0 0 0 0 0 0 0 0 0 0 0 0 0.0491312038023353 0.0616019741910977 0.242449573021412 0.0420891426617448 0.167864225127321 0.0148892036424414 0 0 0.0394912722737732 0 0 0 0 0 0 0 0 0 0 0 0 0 0 0 0 0 0 0 0 0 0 0 0 0 0 -0.598879881059572 0
0 0 0 0 0 0 0 0 0 0 0 0 0 0 0 0 0 0 0 0 0 0 0 0.476100628893462 0 0 0 0 0 0 0 0 0 0 0 0 0 0 0 0 0 0 0 0 0 0 0 0 0 0
0 0 0 0 0 0 0 0 0 0 0 0 0 0 0 0 0 0 0 0 0 0 0 0 0 0 0 0 2.21220171311767 0 0.189830689193296 0.153295610831811 0 0 0 0 0 0 0 0 0 0 0 0 0 0 0 0 -1.06856640435812 0
0 0 0 0 0 0 0 0 0 0 0 0 0 0.172529694797121 0.0535137813264529 0 0 0 0 0 0 0 0 0 0 0 0 0 0 0 0 0 0 0 0 0 0 0 0 0 0 0 0 0 0 0 0 0 -2.5628996614567 0
0 0 0 0 0 0 0 0 0 0 0 0 0 0.189787380559792 0 0 0.0239538779606904 0 0.26887356066413 0.460370729722379 0 0 0 0 0 0 0 0 0 0 0 0 0 0 0 0 0 0 0 0 0 0 0 0 0 0 0 0 0 0
0 0 0 0 0 0 0 0 0 0 0 0 0 0 0 0 0 0 0 0 0 0 0 0 0 0 0.0938306045724069 0.0557329204343562 0.0614798043786894 0.0767262252271393 0.124317545061491 1.00214198867392 0.31369229247311 0 0 0 0 0 0 0 0 0 0 0 0 0 0 0 0 0
0 0 0 0 0 0 0 0 0 0 0 0 0 0 0 0 0 0 0 0 0 0 0 0 0.1344603713475 0.155538291126518 0.483968486638524 0.0557061325573075 1.53867602991384 0.0536046021532516 0.123032532500848 0.214942611136589 0.0780823092157455 0 0 0.838017874924331 0 0.185546642673095 0 0 0.51083849448284 0.0324636425282751 0.117699745359209 0 0.190136748805849 0.501624778914477 0 0 0 0
0 0 0 0 0 0 0 0 0 0 0 0 0 0 0 0 0 0 0 0 0 0 0 0 0 0.160668238426195 0.0541578521702355 0 0 0 0.159773914563523 0 0.967668826974391 0 0 0 0 0 0 0 0 0 0 0 0 0 0 0 0 0
