0.272966374251714
2.10805311857136
1.75061336813794
0.557735188645207
0.692127983875079
0.149931631581024
0.488245306359424
0.104934384909676
0.440752597872188
0.748220629242847
0.752213066234762
0.493134919763251
0.748766543766614
1.42033527085133
0.531218307522351
0.239587212693782
2.40385183749731
3.17039061027364
0.336436700469785
0.568552274732992
0.249931978630754
0.957241965327752
1.63602721372477
2.66235664535527
3.15770254583755
0.606787748723334
1.17454284563301
0.894910659426653
0.467027364591141
1.49636245545869
0.168878626671384
3.47630206145327
1.23829385386332
0.511757545767126
2.08319506609326
1.4294206216886
0.287276619288643
0.881006768010872
0.246315014530413
1.06197691032646
0.950794608040018
0.619578935981121
2.85476947002653
1.17719372231727
0.761173071957265
0.398342778360515
0.353515173456161
2.82952357567351
0.721534216515177
1.61936188790965
