0 0 0 0 0 0 0 -0.389680690065758 0 -0.930897962017902 0 0 0 0 0 0 0 0 0 0 0 0 0 0 0 0 0 0 0 0 0 0 0 0 0 0 0 0 0 0 0 0 -0.464844889016071 0 0 0 0 0 0 0
0 0 0 0 0 0 -1.16118104313586 -2.02848625763725 0 -0.998496729893119 0 0 0 0 0 0 0 0 0 0 0 0 0 0 0 0 0 0 0 0 0 0 0 0 0 -3.22997773159197 0 0 0 0 0 0 0 0 0 0 0 0 0 0
0 0 0 0 0 0 -1.56632439932669 -0.364034597572667 0 -7.81199824476039 0 0 0 0 0 0 0 0 0 0 0 0 -0.51369314661515 0 0 0 0 0 0 0 0 0 0 0 0 -0.326273389737495 0 0 0 0 0 0 -0.732178169703347 0 0 0 0 0 0 0
0 0 0 0 0 0 -3.01546000963836 -1.43611769211659 0 -0.839955288851863 0 0 0 0 0 0 0 0 0 0 0 0 -4.65792643008477 0 0 0 0 0 0 0 0 0 0 0 0 -1.70210730102243 0 0 0 0 0 0 0 0 0 0 0 0 0 0
0 0 0 0 0 0 0 0 0 -1.04488054866584 0 0 0 0 0 -0.438070991125974 0 0 0 0 0 0 0 0 0 0 0 0 0 0 0 0 0 0 0 -10.3057010281281 0 0 0 0 0 0 -1.82683569081882 0 0 0 0 0 0 0
0 0 0 0 0 0 0 0 0 -0.193245455642121 0 0 0 0 0 -0.425293853305954 0 0 0 0 0 0 0 0 0 0 0 0 0 0 0 0 0 0 0 -7.62617795793817 0 0 0 0 0 0 -2.63424117504318 0 0 0 0 0 0 0
0 0.239269441648041 0.322185318355707 0.628572909304379 0 0 0 0 0 -0.782449961375137 0 0 0 0 0 -0.662226504688279 -0.294897068422033 0 0 0 0 0 0 0 0 0 0 0 0 0 0 0 0 0 0 0 0 0 0 0 0 0 -0.955334117494634 0 0 0 0 0 0 0
0.0765081125879049 0.408762740936079 0.0706847126721439 0.290354588480956 0 0 0 0 0 -0.615770972158493 0 0 0 0 0 0 0 0 0 0 0 0 -2.07748612852295 0 0 0 0 0 0 0 0 0 0 0 0 -1.3606648165791 0 -10.6151614389943 0 0 0 0 -0.990356400500459 -1.10556791092751 0 0 0 0 0 0
0 0 0 0 0 0 0 0 0 0 -4.61002263343004 0 0 0 0 0 0 0 0 0 0 0 0 0 0 0 0 0 0 0 0 0 0 0 0 -1.41633588101713 0 0 0 0 0 0 -0.845384935408852 -3.03010022601272 0 0 0 0 0 0
0.179299345773255 0.20179802445848 1.54292884561274 0.173662541751617 0.202143338952867 0.0402926116798 0.145626381312597 0.11852163880202 0 0 0 0 0 0 0 0 0 0 -6.0824377160781 0 0 0 0 0 0 0 0 0 0 0 0 0 0 0 0 0 0 0 0 0 0 0 -0.726926116645417 -2.64399139796897 0 0 0 0 0 0
0 0 0 0 0 0 0 0 0.902653490089714 0 0 0 0 -1.10627285780864 -3.53653700350664 0 0 -0.306319475957717 0 0 0 0 0 0 0 0 0 0 0 0 0 0 0 0 0 0 0 -1.38921106890679 0 0 0 0 0 -0.788824903445835 0 0 0 0 0 -0.966588078023548
0 0 0 0 0 0 0 0 0 0 0 0 0 0 0 0 0 0 0 0 0 0 0 0 0 0 0 -0.827198507813557 0 0 0 0 0 0 0 0 0 0 0 0 0 0 0 0 0 0 0 0 0 -0.81806784767634
0 0 0 0 0 0 0 0 0 0 0 0 0 0 0 0 0 0 0 0 0 0 0 0 0 0 0 -3.29654054363543 0 0 0 0 0 0 0 0 0 0 0 0 0 0 0 0 0 0 0 0 0 0
0 0 0 0 0 0 0 0 0 0 0.223056610601627 0 0 0 0 0 0 0 0 0 0 0 0 0 0 0 0 -0.323075930834672 0 0 0 0 0 0 -2.6486722309791 0 0 0 0 0 0 0 0 0 0 0 0 0 0 -0.647645163391385
0 0 0 0 0 0 0 0 0 0 0.682204341478279 0 0 0 0 0 0 0 0 0 0 0 0 0 0 0 0 0 0 0 0 0 0 0 -1.59604425614912 0 0 0 0 0 0 0 0 0 0 0 0 0 0 -0.243515812983018
0 0 0 0 0.0955388184191092 0.0910560569337689 0.131888918311932 0 0 0 0 0 0 0 0 0 0 0 0 0 0 0 0 -7.01321379381564 0 0 0 0 0 0 0 0 0 0 -0.502555110008631 0 0 0 0 0 0 0 0 0 0 0 0 0 0 0
0 0 0 0 0 0 0.0589902743458057 0 0 0 0 0 0 0 0 0 0 0 0 0 0 0 0 -0.583107379782208 0 0 0 0 0 0 0 0 0 0 -1.70466367711548 0 0 0 0 0 0 0 0 0 0 0 0 0 0 -1.03976562144323
0 0 0 0 0 0 0 0 0 0 0.0565831217408299 0 0 0 0 0 0 0 0 0 0 0 0 0 0 0 0 0 0 0 -0.0880365925019554 0 0 0 -0.251617588878808 0 0 0 0 0 0 0 0 0 0 0 0 0 0 -0.49419431280725
0 0 0 0 0 0 0 0 0 1.21111234943882 0 0 0 0 0 0 0 0 0 0 0 0 0 0 0 0 0 0 0 0 0 0 0 0 0 0 0 0 0 0 0 0 0 0 0 -1.7289275383989 0 0 0 -0.912083080962664
0 0 0 0 0 0 0 0 0 0 0 0 0 0 0 0 0 0 0 0 0 0 0 0 0 0 0 0 0 0 0 0 0 0 -0.485308930451272 0 0 0 0 0 0 0 0 0 0 -0.241552139753802 0 0 0 -5.59859960461818
0 0 0 0 0 0 0 0 0 0 0 0 0 0 0 0 0 0 0 0 0 0 0 0 0 0 0 0 0 0 0 0 0 0 0 0 0 0 0 0 0 0 0 0 0 -0.220992079164205 0 0 0 -0.430681033555641
0 0 0 0 0 0 0 0 0 0 0 0 0 0 0 0 0 0 0 0 0 0 0 0 0 0 0 0 0 0 0 0 0 0 -0.302922960482563 0 0 0 0 0 0 0 0 0 0 0 0 0 0 -0.31142960295763
0 0 0.107048726887589 0.932018958615489 0 0 0 0.446796044075788 0 0 0 0 0 0 0 0 0 0 0 0 0 0 0 0 0 0 0 0 0 0 0 0 0 0 -3.81942891704773 0 0 0 0 0 0 0 0 0 0 -0.271382831597721 0 0 0 -0.254556093095698
0 0 0 0 0 0 0 0 0 0 0 0 0 0 0 1.30548354305121 0.127454973246812 0 0 0 0 0 0 0 0 0 0 0 0 0 0 0 0 0 0 0 0 0 0 0 0 0 0 0 0 0 -0.764631823024307 0 -2.0752026121579 -4.66267377709578
0 0 0 0 0 0 0 0 0 0 0 0 0 0 0 0 0 0 0 0 0 0 0 0 0 0 0 0 0 0 0 0 0 -3.80203979671895 0 0 0 0 0 0 0 -0.690339714684868 0 0 0 -4.50806012035761 -0.607550065154301 0 0 0
0 0 0 0 0 0 0 0 0 0 0 0 0 0 0 0 0 0 0 0 0 0 0 0 0 0 0 0 0 0 0 0 0 0 -0.433795393759226 0 0 0 0 0 0 -2.60547543916732 0 0 0 -1.61061695558639 -11.9400035910108 0 0 0
0 0 0 0 0 0 0 0 0 0 0 0 0 0 0 0 0 0 0 0 0 0 0 0 0 0 0 0 0 0 0 0 0 -1.16835637640294 -1.67776404367464 0 0 0 0 0 0 -5.73543040452566 0 0 0 0 0 0 0 0
0 0 0 0 0 0 0 0 0 0 0 0.16431236110572 0.597398943237725 0.0674995049799521 0 0 0 0 0 0 0 0 0 0 0 0 0 0 0 0 0 0 0 -0.787385111104865 -0.216520184047805 0 0 0 0 0 0 -2.43693062120949 0 0 0 -0.14284417224513 0 0 0 0
0 0 0 0 0 0 0 0 0 0 0 0 0 0 0 0 0 0 0 0 0 0 0 0 0 0 0 0 0 0 0 0 0 0 -2.51180911076052 0 0 0 0 0 0 -1.52317687318101 0 0 0 -0.851954835936229 -1.36580175313227 0 0 0
0 0 0 0 0 0 0 0 0 0 0 0 0 0 0 0 0 0 0 0 0 0 0 0 0 0 0 0 0 0 0 0 0 0 -1.60810963690636 0 0 0 0 0 0 -1.25081331470736 0 0 0 -0.296888691689694 -0.40698574841312 0 0 0
0 0 0 0 0 0 0 0 0 0 0 0 0 0 0 0 0 0.0168562726077443 0 0 0 0 0 0 0 0 0 0 0 0 0 0 0 0 0 0 0 0 0 0 0 -0.431222754155006 0 0 0 -2.0963479435218 -0.26143193058907 0 0 0
0 0 0 0 0 0 0 0 0 0 0 0 0 0 0 0 0 0 0 0 0 0 0 0 0 0 0 0 0 0 0 0 0 0 -0.307255568163831 0 0 0 0 0 0 -0.770200641914007 0 0 0 -0.889844690036633 0 0 0 0
0 0 0 0 0 0 0 0 0 0 0 0 0 0 0 0 0 0 0 0 0 0 0 0 0 0 0 0 0 0 0 0 0 0 0 0 0 0 0 0 0 0 0 0 0 -0.208964050595617 0 0 0 0
0 0 0 0 0 0 0 0 0 0 0 0 0 0 0 0 0 0 0 0 0 0 0 0 0.677098709346764 0 0.237890044045726 0.162666587998867 0 0 0 0 0 0 0 0 0 0 0 0 -2.12666106207973 -1.79513360649814 0 0 0 -6.15637818934017 0 -4.60919780730487 0 0
0 0 0 0 0 0 0 0 0 0 0 0 0 0.552005111848781 0.308772393510326 0.103114465004235 0.366947824398164 0.0524118632786743 0 0.103497062595901 0 0.0576847257539771 0.760678737239487 0 0 0.0828484936935224 0.340733436125957 0.0445703572849861 0.512378446329854 0.341241227393727 0 0.0586411546713444 0 0 0 0 0 0 0 0 -5.64913888031487 -0.205684145352471 0 0 -2.02427971053211 -2.79351901791838 0 -1.64369918205389 0 0
0 0.627729358591569 0.0665301552683541 0.308226734760169 1.98739271156832 1.46079177872025 0 0.249516208534073 0.288371389567795 0 0 0 0 0 0 0 0 0 0 0 0 0 0 0 0 0 0 0 0 0 0 0 0 0 0 0 0 0 0 0 -0.538710256648144 0 0 0 -1.08390451546427 -0.787025764812803 0 -4.28780814757824 0 0
0 0 0 0 0 0 0 0 0 0 0 0 0 0 0 0 0 0 0 0 0 0 0 0 0 0 0 0 0 0 0 0 0 0 0 0 0 0 0 0 0 0 0 0 -2.70895401091269 -0.803795954125808 0 -1.02709593663506 0 0
0 0 0 0 0 0 0 2.15467601209984 0 0 0.299008346452099 0 0 0 0 0 0 0 0 0 0 0 0 0 0 0 0 0 0 0 0 0 0 0 0 0 0 0 0 0 0 0 0 0 0 -0.585737633310298 0 -0.377354993797376 0 0
0 0 0 0 0 0 0 0 0 0 0 0 0 0 0 0 0 0 0 0 0 0 0 0 0 0 0 0 0 0 0 0 0 0 0 0 0 0 0 0 0 0 0 0 0 -1.77540809406711 0 0 0 0
0 0 0 0 0 0 0 0 0 0 0 0 0 0 0 0 0 0 0 0 0 0 0 0 0 0 0 0 0 0 0 0 0 0 0 0 0 0 0 0 0 0 0 0 0 -0.734741909407044 0 -0.365161138829902 0 0
0 0 0 0 0 0 0 0 0 0 0 0 0 0 0 0 0 0 0 0 0 0 0 0 0 0 0 0 0 0 0 0 0 0.420700612227159 1.18411613186343 0.110970428721287 0 0 0 0 0 0 0 0 0 0 0 -0.910354337871731 0 0
0 0 0 0 0 0 0 0 0 0 0 0 0 0 0 0 0 0 0 0 0 0 0 0 0.122191187178998 0.534152843570887 1.16003021009378 0.509597977123441 0.288633672609825 0.25357854063159 0.0827178884267412 0.152008010985792 0 0.355393682920835 0.0417406931704209 0 0 0 0 0 0 0 0 0 0 0 0 -1.35134277269749 0 0
0.0923258932651689 0 0.141960509876446 0 0.387634994265927 0.531780590043652 0.184319742086804 0.186050477326802 0.160984479849766 0.135279517901084 0 0 0 0 0 0 0 0 0 0 0 0 0 0 0 0 0 0 0 0 0 0 0 0 0 0 0 0 0 0 0 0 0 0 0 0 0 0 0 0
0 0 0 0 0 0 0 0.224879274843482 0.627045497419383 0.49202525699334 0.153276624684709 0 0 0 0 0 0 0 0 0 0 0 0 0 0 0 0 0 0 0 0 0 0 0 0 0 0 0 0 0 0 0 0 0 0 0 0 0 0 0
0 0 0 0 0 0 0 0 0 0 0 0 0 0 0 0 0 0 0 0 0 0 0 0 0 0 0 0 0 0 0 0 0 0 0.384704101054575 0.223826123523604 0.560831470376592 0 0 0 0 0 0 0 0 0 0 0 0 0
0 0 0 0 0 0 0 0 0 0 0 0 0 0 0 0 0 0 0.364554646777999 0.0488013962762216 0.0481307398025498 0 0.053777057581752 0 0.942944471132344 0.30577742575612 0 0.027780342543688 0.176586950710617 0.0607823397895843 0.385092046101666 0.181363109342931 0.044039912449147 1.28250490132441 0.585098764959796 0.15410306684203 0.157530032168664 0.112851007766112 0.360261794920865 0.147674756314605 0 0 0 0 0 0 0 0 0 0
0 0 0 0 0 0 0 0 0 0 0 0 0 0 0 0 0 0 0 0 0 0 0 0.144636248891307 0.119771310509799 2.30918292842021 0 0 0.281747259087273 0.0829095401230452 0.0525827106193006 0 0 0 0 0 0 0 0 0 0 0 0 0 0 0 0 0 0 0
0 0 0 0 0 0 0 0 0 0 0 0 0 0 0 0 0 0 0 0 0 0 0 0 0 0 0 0 0 0 0 0 0 0.900513192571406 0.351187721991822 0.866555406194022 0.212046826283473 0.0769214044156856 0 0.0743139048468834 0.176836887554859 0.297945561733057 0 0 0 0 0 0 0 0
0 0 0 0 0 0 0 0 0 0 0 0 0 0 0 0 0 0 0 0 0 0 0 0.433440080623848 0 0 0 0 0 0 0 0 0 0 0 0 0 0 0 0 0 0 0 0 0 0 0 0 0 0
0 0 0 0 0 0 0 0 0 0 0.199937112139776 0.175103310087639 0 0.126810659851775 0.0477734093491641 0 0.19176847437405 0.0956889007578577 0.17505333943568 1.10348793755292 0.0853216429462038 0.0585706285846301 0.0505016861287619 1.00272049971552 0 0 0 0 0 0 0 0 0 0 0 0 0 0 0 0 0 0 0 0 0 0 0 0 0 0
