0.469690618788409
0.370738050571824
2.2162068121613
0.321379668106322
2.17275718561894
0.661566361630923
0.186794142307681
3.67618271210702
0.432383315957748
3.34820504528724
0.527714697032346
0.688000751040404
2.23014569766836
1.19094001994857
0.243502630880303
0.575234511434024
0.969333734691245
0.223251111536607
1.92870800315374
3.03803877267327
1.58025418382092
1.95485680606959
1.7756342814531
0.12300639133359
0.492342177342878
0.556229996834831
0.521888420979867
0.402800502139196
2.84753510364599
0.613458332609282
1.27812073486431
0.646614609556019
2.78554530077695
0.529976989045426
1.75775660665773
0.699480097647875
2.56930762391392
1.4078559481824
0.211477907029466
0.725505089560591
1.62600346526076
3.14679790341465
1.03991875762621
0.430729822337522
1.83965396219235
3.15562306446613
0.5519652333285
1.18433308379827
0.163195253585299
0.593814145911574
