0.423082309404247
0.555945120888352
0.0751157167563538
0.151066354800475
1.21779424589217
0.0766385750449763
0.384185092542728
2.05789466097211
1.47408094946323
0.0375634598896757
2.403424530015
0.0472691416054946
0.808925653488948
1.10237826231381
0.165221731949976
1.05381308869141
0.0382871566972252
1.06608587678788
0.209535930103654
0.277401566654404
0.204052450575825
0.857201985819446
1.01546068221292
0.856322346154694
0.478895008711597
1.31147941568551
0.256265649699879
3.41167328565826
0.162387083070165
1.00200840304275
0.624768063140693
0.242235169583626
3.3454648686712
0.142377513960059
1.45772943680491
1.87776372985903
0.0386022663808095
0.139969983849722
0.51712759818817
0.456766342880213
0.165680242306882
2.10615360124017
1.04031162441928
0.485883101654793
0.2064214124364
2.78037890831433
0.355702265474867
0.150998661077919
1.36600966395492
0.0366719677708511
