10.8522988236336
0.387742726311892
0.875290776931221
1.33979853279122
0.913264282995912
4.36348839424077
0.241553990607005
0.518607707085742
0.217896704050339
2.727792197485
2.84091983129324
0.203869748967014
0.207008164335537
2.41711540240176
2.72368728127507
0.660191946785014
4.3981163622934
0.704548908827309
0.618462100866124
0.646937185859207
0.704664823017664
4.74402974060278
0.599471889444931
0.0221915596032568
2.35493934064211
0.284442479567416
1.00993509897027
1.55128398740962
0.550688274977225
0.493442276565735
0.632266753803451
5.99909815538465
0.621820298865343
0.425047508212925
2.62436842204782
0.171538667414328
2.9724456236458
0.525902662068205
5.24751102275919
3.34911658792332
1.45426676805693
3.08966271256051
1.89398318158154
2.66426707760239
0.348522838949716
0.723517560276246
0.230177641122007
0.451112138615953
0.21472877184212
3.98311611146055
