0 0 0 0 0 0 0 0 0 0 0 0 0 0 -0.935569449499679 0 0 0 0 0 0 0 0 0 0 0 0 0 0 0 0 0 0 0 0 0 0 0 0 0 0 0 0 0 0 0 0 0 0 0
0 0 0 0 0 0 0 0 0 0 0 0 0 0 0 0 -2.51074487883295 0 -9.11358872475606 0 0 0 -0.316104812185186 0 0 0 0 0 0 0 0 0 0 0 -1.57514678128358 0 0 0 0 0 0 0 0 0 0 0 0 0 0 0
0 0 0 0 -0.663760282412591 0 0 0 -0.213145372302151 0 0 0 0 0 0 0 0 0 0 0 0 0 -3.16978269544173 0 0 0 0 0 0 0 0 0 0 0 -1.68877696527072 0 0 0 0 0 0 0 0 0 0 0 0 0 0 0
0 0 0 0 -0.724895388345928 0 0 0 -1.09656051318556 0 0 0 0 -0.368597882784958 0 0 -0.367823872415802 0 0 0 0 0 -1.15598068379714 0 0 -0.205873257055632 0 0 0 0 0 0 0 0 0 0 0 0 0 0 0 0 0 0 0 0 0 0 0 0
0 0 0.133219153582574 0.1416123661495 0 0 -1.28477477408557 0 0 0 0 0 0 -1.85782262314775 0 0 -4.40320763749454 0 0 0 0 0 -1.7021149829614 0 0 -1.37055736481235 0 0 0 0 0 0 0 0 0 0 0 0 0 0 0 0 0 0 0 0 0 0 0 0
0 0 0 0 0 0 -1.36901271418563 0 0 0 0 -0.471183787123121 0 -3.30249864616519 0 0 0 0 0 0 0 0 -0.466620985718713 0 0 -0.422086451482809 0 0 0 0 0 0 0 0 -0.905790522005136 0 0 0 0 0 0 0 0 0 0 0 0 0 0 0
0 0 0 0 0.245776132924068 0.269448915210654 0 0 0 0 0 -0.424966317534314 0 -0.425629630270486 0 0 -0.770114211401393 0 0 0 0 0 -8.37824020475365 0 0 -0.631346945329833 0 0 0 0 0 0 0 0 -0.736271647900011 0 0 0 0 0 0 0 0 0 0 0 0 0 0 0
0 0 0 0 0 0 0 0 0 -10.2760529151336 0 0 0 -0.682029193955057 0 0 -2.32770123221637 0 0 0 0 0 -2.30954365040874 0 0 -0.0664056430181076 0 0 0 0 0 0 0 0 0 0 0 0 0 0 0 0 0 0 0 0 0 0 0 0
0 0 0.0412509935144812 0.220183617160076 0 0 0 0 0 0 0 0 0 0 0 0 -1.90444220302266 0 0 0 0 0 0 0 0 -0.153494182629424 -0.258433744297371 0 0 0 0 0 0 0 0 0 0 0 0 0 0 0 0 0 0 0 0 0 0 0
0 0 0 0 0 0 0 2.09401828756352 0 0 0 0 0 0 0 0 0 0 0 0 0 0 -0.205068544014522 0 0 0 -0.307541072339873 0 0 0 0 0 0 0 0 0 0 0 0 0 0 0 0 0 0 0 0 0 0 0
0 0 0 0 0 0 0 0 0 0 0 0 0 0 0 0 0 0 0 0 0 0 -1.29884270907705 0 0 0 0 -1.61460286842294 0 0 0 -0.504042831469429 0 0 0 0 0 0 0 0 0 0 0 0 0 0 0 0 0 0
0 0 0 0 0 0.0942234959606967 0.0872354324327383 0 0 0 0 0 0 0 0 0 0 0 0 0 0 0 -0.568836528414188 0 0 0 0 -1.18159849587517 0 0 0 -0.697209447671524 0 0 0 0 0 0 0 0 0 0 0 0 0 0 0 0 0 0
0 0 0 0 0 0 0 0 0 0 0 0 0 0 0 0 0 0 0 0 0 -2.44545551485353 0 0 0 0 0 0 0 -1.85060307531885 0 0 0 0 0 0 0 0 -0.635529334276273 0 0 -0.503718932875324 0 0 -3.15703019299564 -0.509077627014171 0 0 0 0
0 0 0 0.0728763257742336 0.38168049795852 0.702566523239695 0.0829759209896998 0.130768226652517 0 0 0 0 0 0 0 0 0 0 0 0 0 -0.658778218390663 0 0 0 0 0 0 0 -0.816590584909883 0 0 0 0 0 0 0 0 0 0 0 -1.60573903158402 0 0 0 -4.12753859264231 0 0 0 0
0.182489145917773 0 0 0 0 0 0 0 0 0 0 0 0 0 0 0 0 0 0 -0.598859424142079 0 0 0 0 0 0 0 0 0 0 0 0 0 0 0 0 0 0 0 0 0 -0.935620040914841 0 0 -0.175769790631626 -2.75728186011145 0 0 0 0
0 0 0 0 0 0 0 0 0 0 0 0 0 0 0 0 0 0 0 0 0 -1.60382314318572 0 0 0 0 0 0 0 -0.839116143024737 0 0 0 0 0 0 0 0 0 0 0 -0.442466070735052 0 0 -4.92931688042784 -0.887362718594641 0 0 0 0
0 0.452368721229871 0 0.0738016094732229 0.848387354878461 0 0.150104307077147 0.514624885404364 0.361193170352967 0 0 0 0 0 0 0 0 0 0 0 -0.456680277771801 0 0 0 0 0 0 0 0 0 0 0 0 0 0 0 0 0 0 0 -1.8373627691776 0 0 0 -0.433979332853655 -0.0780287975027742 0 0 0 0
0 0 0 0 0 0 0 0 0 0 0 0 0 0 0 0 0 0 0 0 -1.29906941388168 0 0 0 0 0 0 0 0 0 0 0 0 -0.182220121903076 0 0 0 0 0 0 -0.375043891922247 0 0 0 -0.978461051831466 -0.617278293513567 0 0 0 0
0 1.68138059436365 0 0 0 0 0 0 0 0 0 0 0 0 0 0 0 0 0 0 0 0 0 -1.01510817753285 0 0 0 0 0 0 0 0 -0.719228766825768 0 0 0 -0.758161959225337 0 0 0 0 0 0 0 -0.522948095982376 -0.209082363812964 0 0 0 0
0 0 0 0 0 0 0 0 0 0 0 0 0 0 0.11241455828675 0 0 0 0 0 0 0 0 0 0 0 0 0 -9.56823363417603 0 0 0 -0.854006735931801 0 0 0 -0.340530053879509 0 0 0 -0.278364028722843 0 0 0 -11.0533659874256 0 0 0 0 0
0 0 0 0 0 0 0 0 0 0 0 0 0 0 0 0 0.0936578734505904 0.257519803161679 0 0 0 0 0 0 0 0 0 0 -0.991225078449261 0 0 0 0 0 0 0 0 0 0 0 -0.635758658679779 0 0 0 0 0 0 0 0 0
0 0 0 0 0 0 0 0 0 0 0 0 0.479019073915792 0.129188194928675 0 0.31740567567862 0 0 0 0 0 0 0 0 0 0 0 0 -0.0990686328600589 0 0 0 -2.77750917351647 0 0 0 0 0 0 0 -0.452022185989426 0 0 0 0 0 0 0 -3.46919223605515 0
0 0.0631925021222774 0.632918710350377 0.240196237381571 0.351968723592479 0.0931702966692752 1.78685272941504 0.47087740393172 0 0.0416743931329783 0.262177281945052 0.122467345864793 0 0 0 0 0 0 0 0 0 0 0 0 0 0 0 0 -0.480390638038838 0 0 0 -7.73875106567028 0 0 0 0 0 0 0 -0.592737539806111 0 0 0 0 0 0 0 -0.561135611391776 0
0 0 0 0 0 0 0 0 0 0 0 0 0 0 0 0 0 0 0.212097207721689 0 0 0 0 0 0 0 0 0 -0.764202201059338 0 0 0 -0.610779853393094 0 0 0 0 0 0 0 -0.922026738235648 0 0 0 0 0 0 0 -0.679348619823793 0
0 0 0 0 0 0 0 0 0 0 0 0 0 0 0 0 0 0 0 0 0 0 0 0 0 0 0 0 0 0 0 0 -1.34579884973562 0 0 0 -1.15901437556621 0 0 0 0 0 0 0 0 0 0 0 -0.719162735742181 0
0 0 0 0.0395443671217062 0.290477495434214 0.0850846007874522 0.126478178513742 0.0133559652410309 0.030846072211386 0 0 0 0 0 0 0 0 0 0 0 0 0 0 0 0 0 0 0 0 0 -0.505891900005117 0 0 0 0 0 -1.24412329929734 -0.758787697860243 0 0 0 0 0 0 0 0 0 0 -0.227403305600486 0
0 0 0 0 0 0 0 0 0.0497180700237457 0.0575443075228551 0 0 0 0 0 0 0 0 0 0 0 0 0 0 0 0 0 0 0 0 0 0 0 0 0 0 0 -1.01246301218628 0 0 0 0 0 0 0 0 0 0 0 0
0 0 0 0 0 0 0 0 0 0 0.311595600297704 0.222214006094682 0 0 0 0 0 0 0 0 0 0 0 0 0 0 0 0 0 0 0 0 0 0 0 0 -3.00712131490655 -2.8006239189344 0 0 0 0 0 0 0 0 0 0 -2.21344112526892 0
0 0 0 0 0 0 0 0 0 0 0 0 0 0 0 0 0 0 0 1.84093286586152 0.202496565791219 0.0178830808606638 0.103654540313337 0.139152856303299 0 0 0 0 0 0 0 0 0 0 0 0 0 0 0 0 0 0 0 0 0 0 0 0 0 0
0 0 0 0 0 0 0 0 0 0 0 0 0.390113056884387 0.172475869333198 0 0.179780394643418 0 0 0 0 0 0 0 0 0 0 0 0 0 0 0 0 0 0 0 0 0 -1.12390267956788 0 0 0 0 0 0 0 0 0 0 0 0
0 0 0 0 0 0 0 0 0 0 0 0 0 0 0 0 0 0 0 0 0 0 0 0 0 0.102351948098496 0 0 0 0 0 0 0 0 0 0 0 -2.81086906636996 0 0 0 0 0 0 0 0 0 0 0 -2.11695141356902
0 0 0 0 0 0 0 0 0 0 0.0989037840217688 0.136496382301443 0 0 0 0 0 0 0 0 0 0 0 0 0 0 0 0 0 0 0 0 0 0 0 0 0 -2.11473202041606 0 0 0 0 0 0 0 0 0 0 0 -1.46149773485479
0 0 0 0 0 0 0 0 0 0 0 0 0 0 0 0 0 0 0.128651563290713 0.163576652489081 0 0.549856174475825 1.48246448075124 0.124767182043396 0.27334389064877 0 0 0 0 0 0 0 0 0 0 0 0 0 0 0 0 0 0 0 0 0 0 0 0 -1.32275885715518
0 0 0 0 0 0 0 0 0 0 0 0 0 0 0 0 0 0.0368210065872484 0 0 0 0 0 0 0 0 0 0 0 0 0 0 0 0 0 0 0 0 0 -0.900351529411853 0 0 0 0 0 0 0 0 0 0
0 0.317996609463336 0.358162520095753 0 0 0.174562873866178 0.151846210782393 0 0 0 0 0 0 0 0 0 0 0 0 0 0 0 0 0 0 0 0 0 0 0 0 0 0 0 0 0 0 0 0 -0.933453474642024 0 0 0 0 0 0 0 0 0 0
0 0 0 0 0 0 0 0 0 0 0 0 0 0 0 0 0 0 0 0 0 0 0 0 0 0 0 0 0 0 0 0 0 0 0 0 0 0 0 -1.2002424095996 0 0 0 0 0 0 0 0 0 0
0 0 0 0 0 0 0 0 0 0 0 0 0 0 0 0 0 0 0.14413127299268 0.0706471495880789 0 0 0 0 0.236786506123453 0.269090622236542 0 0.601133564147412 0 0 0 0 0 0 0 0 0 0 0 0 0 0 0 0 0 0 0 0 0 0
0 0 0 0 0 0 0 0 0 0 0 0 0 0 0 0 0 0 0 0 0 0 0 0 0 0.157903881198044 0.199165194548779 0.529609038544358 0 0.226519907036087 0.587319464566614 0.447186227287493 0 0 0 0 0 0 0 -0.946009273616256 0 0 0 0 0 0 0 0 0 0
0 0 0 0 0 0 0 0 0 0 0 0 0.134886789436644 0 0 0 0 0 0 0 0 0 0 0 0 0 0 0 0 0 0 0 0 0 0 0 0 0 0 -7.02809744868528 0 0 0 0 0 0 0 0 0 0
0 0 0 0 0 0 0 0 0 0 0 0 0 0 0 0 0 0 0 0 0 0 0 0 0 0 0 0 0 0 0 0 0 0.173563338144899 0.174870279827599 0.219330628252401 0 0.202051125017543 1.34488238542136 0 0.133980330024577 0.583672644980231 0.151643054231561 0.0400522016640313 0 0 0.27377557296235 0.0816861600585515 0.136468057317363 0
0 0 0 0 0 0 0 0 0 0 0 0 0 0 0 0 0.396355103979066 0.0781138855263374 0 0.0525995697939446 0.121071056150701 0.0879515324566975 0.119480871767213 0.193027900247462 0 0 0 0 0 0 0 0 0 0 0 0 0 0 0 -0.668432899333805 0 0 0 0 0 0 0 0 0 0
0 0 0 0 0 0 0 0 0 0 0 0 0.102054157691878 0.321981607822467 0.204402775129466 0.0946870970033518 0 0 0 0 0 0 0 0 0 0 0 0 0 0 0 0 0 0 0 0 0 0 0 -2.68642987676225 0 0 0 0 0 0 0 0 0 0
0 0 0 0 0 0 0 0 0 0 0 0 0 0 0 0 0 0 0 0 0 0 0 0 0 0 0 0 0 0 0 0 0 0 0 0 0 0 0 -0.693629017306974 0 0 0 0 0 0 0 0 0 0
0 0 0 0 0 0 0 0 0 0 0 0 0 0 0 0 0 0 0 0 0 0 0 0 0 0 0 0 0 0 0 0 0 0 0 0 0 0 0 -0.198081411335012 0 0 0 0 0 0 0 0 0 0
0 0 0 0 0 0 0 0 0 0 0 0 0.659621906197546 0 0.0368036226876383 1.00439658704261 0.0791161737327662 0.188629392871929 0.101511538468198 2.15283014217417 0 0 0 0 0 0 0 0 0 0 0 0 0 0 0 0 0 0 0 0 0 0 0 0 0 0 0 0 0 0
0 0 0 0 0 0 0 0 0 0 0 0 0.100588688901587 0.865104017209991 0.563788482446362 0.168058344038309 0.0154281121588371 0.126524548029576 0.0444588100866554 0 0 0 0 0 0 0 0 0 0 0 0 0 0 0 0 0 0 0 0 0 0 0 0 0 0 0 0 0 0 0
0 0 0 0 0 0 0 0 0 0 0 0 0 0 0 0 0 0 0 0 0 0 0 0 0 0 0 0 0 0 0 0 0 0 0 0 0 0 0 -1.29165423488046 0 0 0 0 0 0 0 0 0 0
0 0 0 0 0 0 0 0 0 0 0 0 0 0 0 0 0 0 0 0 0 0 0 0 0 0 0 0 0 0 0 0 0 0 0 0 0 0 0 -0.429300402633118 0 0 0 0 0 0 0 0 0 0
0 0 0 0 0 0 0 0 0 0 0 0 0 0 0 0 0 0 0 0 0 0.760489736772544 0.11588747940381 0.135490167768649 0.135727844856571 0.0445777462839569 0 0.433225281426368 0 0 0 0 0 0 0 0 0 0 0 -0.646624124957484 0 0 0 0 0 0 0 0 0 0
0 0 0 0 0 0 0 0 0 0 0 0 0 0 0 0 0 0 0 0 0 0 0 0 0 0 0 0 0 0 0.420989303105346 0.342896468192272 0.272282949868631 0 0 0 0 0 0 0 0 0 0 0 0 0 0 0 0 0
