0 0 0 0 0 0 -3.27314992477672 0 0 0 0 0 0 0 0 0 0 0 0 0 0 0 0 0 0 0 0 0 0 0 0 0 0 0 0 0 0 0 0 0 0 0 0 0 0 -0.326573320210649 0 0 0 0
0 0 0 0 0 0 -2.01502717336855 0 0 0 0 -1.78647311189927 0 0 0 0 0 0 0 0 0 0 0 0 0 0 0 0 0 0 0 0 0 0 0 0 0 0 0 0 0 0 0 0 0 -0.103567676665509 0 0 0 0
0 0 0 0 -1.65546309256078 0 0 0 0 0 0 0 0 0 0 0 0 0 0 0 0 0 -0.158336465470438 0 0 0 0 0 0 0 0 -5.22480379959081 0 0 0 0 0 0 0 0 0 0 0 0 0 -0.963976380907538 0 0 0 0
0 0 0 0 -3.11165895874456 -0.31784157592884 0 0 0 0 0 -0.496612825026982 0 0 0 0 0 0 0 0 0 0 0 0 0 0 0 0 0 0 0 -0.38266195799357 0 0 0 0 0 0 0 0 0 0 0 0 0 0 0 0 0 0
0 0 0.333777816978518 0.669352371117761 0 0 0 0 0 0 0 0 0 0 0 0 0 -0.969102129564343 0 0 0 0 0 0 0 0 0 0 0 -0.622859537202137 0 0 0 0 0 0 0 0 0 0 0 0 0 0 0 -1.11043777936786 0 0 0 0
0 0 0 0.0648536127271471 0 0 0 0 0 0 0 0 0 0 0 0 0 -0.37459844988954 0 0 0 0 0 0 0 0 0 0 0 0 0 0 0 0 0 -0.907866407744789 0 0 0 0 0 0 0 0 0 0 0 0 0 0
0.666474914788146 0.401675995405383 0 0 0 0 0 0 0 0 0 0 0 0 0 0 0 0 0 0 0 0 0 0 0 0 0 0 0 0 0 0 0 0 0 -0.282746793151953 0 0 0 0 0 0 0 0 0 0 0 0 0 0
0 0 0 0 0 0 0 0 0 0 0 0 -0.931197649068494 0 0 0 0 0 -0.532388233386295 0 0 0 0 0 0 0 0 0 0 0 0 0 0 0 0 -0.3684105764901 0 0 0 0 0 0 0 0 0 0 0 0 0 0
0 0 0 0 0 0 0 0 0 0 0 0 0 0 0 0 0 0 -1.39988365746414 0 0 0 0 0 0 0 0 0 0 0 0 0 0 -2.02452983926454 0 -2.03020660086631 0 0 0 0 0 0 0 0 0 0 0 0 0 -1.58229304873282
0 0 0 0 0 0 0 0 0 0 0 0 0 0 0 0 0 0 -1.03779672673316 0 0 0 0 0 0 0 0 0 -0.549466257923673 0 0 0 0 0 0 -4.53593671921055 0 0 0 0 0 0 0 0 0 0 0 0 0 -1.13467647525896
0 0 0 0 0 0 0 0 0 0 0 0 0 0 0 0 0 0 -0.396003963622304 0 0 0 0 0 0 0 0 0 -0.423131906337836 0 0 0 0 -2.72730022127239 0 -0.971869087912425 0 0 0 0 0 0 0 0 0 0 0 0 0 -0.914125501455741
0 0.350501129253868 0 0.0873065990201566 0 0 0 0 0 0 0 0 0 0 0 0 0 0 -3.78716352706027 0 -1.54682649695523 0 0 0 0 0 0 0 -0.994536106759529 0 0 0 0 0 0 0 0 0 0 0 0 0 0 0 0 0 0 0 0 0
0 0 0 0 0 0 0 0.198327042362794 0 0 0 0 0 0 0 0 0 0 0 0 -4.17941296320983 0 0 0 0 0 0 0 0 0 0 0 0 0 0 -0.808542391958378 0 0 0 0 0 0 0 0 0 0 0 0 0 0
0 0 0 0 0 0 0 0 0 0 0 0 0 0 -0.414640424233774 0 0 0 0 0 0 0 0 0 0 0 0 0 0 0 0 0 0 0 0 0 0 0 -1.34700958659544 0 0 0 0 0 0 0 0 0 0 -1.60152560468527
0 0 0 0 0 0 0 0 0 0 0 0 0 0.0822057947056891 0 0 0 0 0 0 0 0 0 0 0 0 0 0 0 0 0 0 0 0 0 0 0 0 -0.446614586304731 0 0 0 0 0 0 0 0 0 0 -1.05245711234888
0 0 0 0 0 0 0 0 0 0 0 0 0 0 0 0 0 0 0 0 0 0 0 0 0 0 0 0 0 0 0 0 0 0 0 0 0 0 -1.72718669551474 0 0 0 0 0 0 0 0 0 0 -2.03711389945397
0 0 0 0 0 0 0 0 0 0 0 0 0 0 0 0 0 0 0 0 0 0 0 0 0 0 0 0 0 0 0 0 0 0 0 0 0 0 -1.07502252292641 0 0 0 0 0 0 0 0 0 0 0
0 0 0 0 0.195259207555969 0.0771587608774277 0 0 0 0 0 0 0 0 0 0 0 0 0 -1.13586667479126 0 0 0 0 0 0 0 0 0 0 0 0 0 0 0 0 0 0 -0.412558132957858 0 0 0 0 0 0 0 0 0 0 -2.67317340594272
0 0 0 0 0 0 0 0.120242665429539 0.268418340531456 0.214831665277332 0.0730656069450511 0.751775861350149 0 0 0 0 0 0 0 0 0 0 0 0 -0.236614956331742 0 0 0 0 0 0 0 0 0 0 0 0 0 -1.62567982126968 0 0 0 0 0 0 0 0 0 0 -1.48776693353737
0 0 0 0 0 0 0 0 0 0 0 0 0 0 0 0 0 0.233726759104437 0 0 0 0 0 -0.408560767135811 -2.15970022657471 0 0 0 0 0 0 0 0 0 0 0 0 0 -0.12884790783815 0 0 0 0 -0.665863924125507 0 0 0 0 0 -0.883112471512726
0 0 0 0 0 0 0 0 0 0 0 0.315432194141947 0.794175408569023 0 0 0 0 0 0 0 0 0 0 -1.64080440585959 -0.0928947290286271 0 0 0 0 0 0 0 0 0 0 0 0 0 -3.0602962561806 0 0 0 0 0 0 0 0 0 0 -1.06481807147655
0 0 0 0 0 0 0 0 0 0 0 0 0 0 0 0 0 0 0 0 0 0 0 -1.40832668580891 0 0 0 0 0 0 0 0 0 0 0 0 0 0 -3.48259224186265 0 0 0 0 0 0 0 0 0 0 -0.383315214901385
0 0 0.0322402483141132 0 0 0 0 0 0 0 0 0 0 0 0 0 0 0 0 0 0 0 0 -0.939603202503862 0 0 0 0 0 0 0 0 0 0 0 0 0 0 0 -0.839837013507374 0 0 0 0 0 0 0 0 0 0
0 0 0 0 0 0 0 0 0 0 0 0 0 0 0 0 0 0 0 0.078993677920721 0.347208150158867 0.291350179707961 0.17116414627552 0 0 0.08471693520745 0.190493649587934 0 0 0 0 0 0 0 0 0 0 0 -5.10960687754269 -4.04848598847844 0 0 0 0 0 0 0 0 0 0
0 0 0 0 0 0 0 0 0 0 0 0 0 0 0 0 0 0 0.046724740083191 0.39145544500188 0.0200263968502322 0 0 0 0 0 0 0 0 0 0 0 0 0 0 0 0 0 -6.57599557520576 0 0 0 0 0 0 0 0 0 0 0
0 0 0 0 0 0 0 0 0 0 0 0 0 0 0 0 0 0 0 0 0 0 0 -0.426516276719356 0 0 0 0 0 0 0 0 0 0 0 0 0 0 -5.40262064441046 -0.294817729807667 0 0 0 0 0 0 0 0 0 0
0 0 0 0 0 0 0 0 0 0 0 0 0 0 0 0 0 0 0 0 0 0 0 -0.916834864882599 0 0 0 0 0 0 0 0 0 0 0 0 0 0 -0.188226674455411 0 0 0 0 0 0 0 0 0 0 0
0 0 0 0 0 0 0 0 0 0 0 0 0 0 0 0 0 0 0 0 0 0 0 0 0 0 0 0 0 0 0 0 0 0 0 0 0 0 0 -1.47378602245629 0 0 0 0 0 0 0 0 0 0
0 0 0 0 0 0 0 0 0 0.114546863788454 0.08799588970335 0.195622571958984 0 0 0 0 0 0 0 0 0 0 0 0 0 0 0 0 0 0 -0.127131330749237 0 0 0 0 0 0 0 0 -1.24212379335777 0 0 0 0 0 0 0 0 0 0
0 0 0 0 0.119225061954852 0 0 0 0 0 0 0 0 0 0 0 0 0 0 0 0 0 0 0 0 0 0 0 0 0 -0.603518129230551 0 0 0 0 0 0 0 0 0 -2.32983917677148 0 0 0 0 0 0 0 0 0
0 0 0 0 0 0 0 0 0 0 0 0 0 0 0 0 0 0 0 0 0 0 0 0 0 0 0 0 0.0244418591508456 0.123696170275314 0 0 0.216915550923715 0 0 0 0 0 0 -0.86691592262378 -0.153714676057994 0 -1.14626345918602 0 0 0 0 0 0 0
0 0 0.984088875003213 0.0760561920208542 0 0 0 0 0 0 0 0 0 0 0 0 0 0 0 0 0 0 0 0 0 0 0 0 0 0 0 0 0 0 0 0 0 0 0 0 -0.328697124814368 0 0 0 0 0 0 0 0 0
0 0 0 0 0 0 0 0 0 0 0 0 0 0 0 0 0 0 0 0 0 0 0 0 0 0 0 0 0 0 -1.09837261715458 0 0 0 0 0 0 0 0 0 0 0 -0.485944771330786 0 0 0 0 0 0 0
0 0 0 0 0 0 0 0 0.381566094140665 0 0.506017107727612 0 0 0 0 0 0 0 0 0 0 0 0 0 0 0 0 0 0 0 0 0 0 0 0 0 -0.800577884215412 0 0 0 0 0 -1.01492362591147 0 0 0 0 0 0 0
0 0 0 0 0 0 0 0 0 0 0 0 0 0 0 0 0 0 0 0 0 0 0 0 0 0 0 0 0 0 0 0 0 0 0 0 -0.590916238764323 0 0 0 0 0 0 0 0 0 0 0 0 0
0 0 0 0 0 0.183461534749773 0.0567700653440983 0.0734489921091354 0.377753245238098 0.892400262875543 0.185419338209835 0 0.160131513976575 0 0 0 0 0 0 0 0 0 0 0 0 0 0 0 0 0 0 0 0 0 0 0 -0.741920886756384 0 0 0 0 0 -1.98594613328302 0 0 0 0 0 0 0
0 0 0 0 0 0 0 0 0 0 0 0 0 0 0 0 0 0 0 0 0 0 0 0 0 0 0 0 0 0 0 0 0 0.168746727426404 0.108312488959046 0.159458551977552 0 0.547422163367677 0 0 0 0 -1.82540825890054 0 0 0 0 0 0 0
0 0 0 0 0 0 0 0 0 0 0 0 0 0 0 0 0 0 0 0 0 0 0 0 0 0 0 0 0 0 0 0 0 0 0 0 -2.88048816039596 0 0 0 0 0 -0.845941867582925 0 0 0 0 0 0 0
0 0 0 0 0 0 0 0 0 0 0 0 0 0.268137011640276 0.0913131186537598 0.357708220142233 0.218818216525303 0.0791829524388814 0.348871960639353 0.0233403003443978 0.578676954614814 0.698093681614413 0 1.02415507242317 1.28381011853259 1.00784518333811 0.0399185822262967 0 0 0 0 0 0 0 0 0 0 0 0 0 0 0 0 0 0 0 0 -0.353456207566676 -0.545205380173801 0
0 0 0 0 0 0 0 0 0 0 0 0 0 0 0 0 0 0 0 0 0 0 0.158983355704117 0.841264838167661 0 0.0579610819424601 0 0.286633311223966 0.241616166994899 0 0.185629751873016 0 0 0 0 0 0 0 0 0 0 0 -1.55961535846721 0 0 0 0 0 -0.431462334271061 0
0 0 0 0 0 0 0 0 0 0 0 0 0 0 0 0 0 0 0 0 0 0 0 0 0 0 0 0 0 0.490322388403372 0.030330427094067 0.071181249529133 0 0 0 0 0 0 0 0 0 0 -3.58828385662487 0 0 0 0 -0.492826634363745 0 0
0 0 0 0 0 0 0 0 0 0 0 0 0 0 0 0 0 0 0 0 0 0 0 0 0 0 0 0 0 0 0 0 0 0 0 0 0 0 0 0 0 0 -1.17479416953375 0 0 0 0 0 -0.430021703217768 0
0 0 0 0 0 0 0 0 0 0 0 0 0 0 0 0 0 0 0 0 0 0 0 0 0 0 0 0 0 0 0.235115699561704 0 0.0820528693390065 0.219099483526745 0 0.39223035992076 0.385466511261828 0.155087507139715 0 0.328778830072791 0.752081289184544 0.235851697471686 0 0.106697761054372 0 0 0 -0.783991756571742 -1.6159300578086 0
0 0 0 0 0 0 0 0 0 0 0 0 0 0 0 0 0 0 0 0.137793232682079 0 0 0 0 0 0 0 0 0 0 0 0 0 0 0 0 0 0 0 0 0 0 -0.531753055084503 0 -4.53155820429834 0 0 0 -0.594894773528675 0
0 0 0 0 0 0 0 0 0 0 0 0 0 0 0 0 0 0 0 0 0 0 0 0 0 0 0 0 0 0 0 0 0 0 0 0 0 0 0 0 0 0 0 0.794676396876175 0 0 0 0 -0.272571368635172 0
0.0717577692014397 0.0213120449051164 0.19284588691009 0 0.215784440098296 0 0 0 0 0 0 0 0 0 0 0 0 0 0 0 0 0 0 0 0 0 0 0 0 0 0 0 0 0 0 0 0 0 0 0 0 0 0 0 0 0 0 0 -1.39005209500309 0
0 0 0 0 0 0 0 0 0 0 0 0 0 0 0 0 0 0 0 0 0 0 0 0 0 0 0 0 0 0 0 0 0 0 0 0 0 0 0 0 0 0 0 0 0 0 0 0 -0.345811186240742 0
0 0 0 0 0 0 0 0 0 0 0 0 0 0 0 0 0 0 0 0 0 0 0 0 0 0 0 0 0 0 0 0 0 0 0 0 0 0 0.0728445040371783 0 0.10005066422331 0 0.157011019570129 0 0 0 0 0 0 0
0 0 0 0 0 0 0 0 0 0 0 0 0 0 0 0 0 0 0 0 0 0 0 0 0 0 0 0 0 0 0 0 0 0 0 0 0 0 0.10349177886477 0.0865515062543079 0 0.0835933761698212 0.32874162020139 0.113163149416506 0.0546291208283413 0.268854898579595 0.0613049037774984 0 0 0
0 0 0 0 0 0 0 0 0.314992176141562 0.218927048042278 0.180700415535131 0 0 0.31847779847356 0.202170057453512 0.368488170966406 0 0.540480917319486 0.306408242318146 0.167431927742324 0.222723496343437 0.0726940039123613 0 0 0 0 0 0 0 0 0 0 0 0 0 0 0 0 0 0 0 0 0 0 0 0 0 0 0 0
