0 0 0 0 0 0 0 0 0 0 -0.600336957036704 0 0 0 0 0 0 0 0 0 0 0 0 0 0 0 0 0 0 0 0 0 0 0 0 0 0 0 0 0 0 0 0 0 0 0 0 0 0 0
0 0 0 0 0 0 -0.287438552400935 0 0 0 -3.27036731092127 0 0 0 0 0 0 0 0 0 0 0 0 0 0 0 0 0 0 0 0 0 0 0 0 0 0 0 0 0 0 0 0 0 0 0 0 0 0 0
0 0 0 -0.105690781017012 0 0 -0.877081066766885 0 0 0 0 0 0 0 0 0 0 0 0 0 0 0 0 0 0 0 0 0 0 0 0 0 0 0 0 0 0 0 0 0 0 0 0 0 0 0 0 0 0 0
0 0 0.0206306741878471 0 0 0 -0.942991419764011 0 0 -3.33869729295067 0 0 0 0 0 0 0 0 0 0 0 0 0 0 0 0 0 0 0 0 0 0 0 0 0 0 0 0 0 0 0 0 0 0 0 0 0 0 0 0
0 0 0 0 0 0 0 0 -0.450982724390453 -1.65790934006945 0 0 0 0 0 0 0 0 0 0 0 0 0 0 0 0 0 0 0 0 0 0 0 0 0 0 0 0 0 0 0 0 0 0 0 0 -2.57858580816019 0 0 0
0 0 0 0 0 0 0 0 0 0 0 0 0 0 0 0 0 0 0 0 0 0 0 0 0 0 0 0 0 0 0 0 0 0 0 0 0 0 0 0 0 0 0 0 0 0 -5.09802063691431 0 0 -0.155421303456593
0 0.0546511352096143 0.180712517676793 0.193653252988983 0 0 0 0 0 0 0 0 0 -0.881630099217923 0 0 0 0 0 0 -2.62756663956221 0 0 0 0 0 0 0 0 0 0 0 0 0 0 0 0 0 0 0 0 0 0 0 0 0 -0.414511732939054 0 0 -0.635970284495227
0 0 0 0 0 0 0 0 0 0 0 0 0 0 0 0 0 0 0 0 -3.38452386704648 0 0 0 0 0 0 0 0 0 0 0 0 0 0 0 0 0 0 0 0 0 0 0 0 0 0 0 0 -1.85921573570767
0 0 0 0 0.0907907237245343 0 0 0 0 0 0 0 0 0 0 0 0 0 0 0 -0.506259886800818 0 0 0 0 0 0 0 0 0 0 0 0 0 0 0 0 0 0 0 0 0 0 0 0 0 0 0 0 -0.453881113094446
0 0 0 0.631541407452383 0.326275546581205 0 0 0 0 0 0 -0.533208315324701 0 0 0 0 0 0 0 0 0 0 0 0 0 0 0 0 0 0 0 0 0 0 0 0 0 0 0 0 0 0 0 0 0 0 0 0 0 0
0.118545412802442 0.659818631489139 0 0 0 0 0 0 0 0 0 0 0 0 0 0 0 0 0 -2.24067528993915 0 0 0 0 0 0 -0.404233934284007 0 0 0 0 0 0 0 0 0 0 0 0 0 0 0 0 0 0 0 0 0 0 -0.90867839941807
0 0 0 0 0 0 0 0 0 0.107910446626513 0 0 0 0 0 0 0 0 0 0 0 0 0 0 0 0 -0.581136592312588 0 0 0 0 0 0 -0.36392484580407 0 0 0 0 0 0 0 0 0 0 0 0 0 0 0 0
0 0 0 0 0 0 0 0 0 0 0 0 0 0 0 0 -1.64825953438713 0 0 0 0 0 0 0 -1.05287831857296 0 -0.384967138827487 0 0 0 -2.25532200261872 0 0 -1.42714393968019 0 0 0 0 0 0 0 -0.208566807654529 0 0 0 0 0 0 0 -0.700197549090663
0 0 0 0 0 0 0.188881837225725 0 0 0 0 0 0 0 0 0 -5.72277781524228 -1.68119639004911 0 0 0 0 0 0 -3.94830298816367 0 -0.251766397376565 0 0 0 0 0 0 0 0 -0.253905740963811 0 0 0 0 -0.617924490193792 -3.11196511293914 0 0 0 0 0 0 0 0
0 0 0 0 0 0 0 0 0 0 0 0 0 0 0 0 -1.60737685348343 0 0 0 0 0 0 0 0 0 0 0 -1.11108928131967 0 0 0 0 -1.53353019533091 0 -0.402106833043419 0 0 0 0 0 0 0 0 0 0 0 0 0 -0.485502474694942
0 0 0 0 0 0 0 0 0 0 0 0 0 0 0 0 0 0 0 0 0 0 0 0 0 0 -1.01928285902708 0 0 0 0 0 0 -0.422234843863032 0 0 0 -1.30765975326901 0 0 -0.559446598376571 0 0 0 0 -10.6847657200486 0 0 0 0
0 0 0 0 0 0 0 0 0 0 0 0 0.292596673506401 1.14021770977492 0.311404588472087 0 0 0 0 0 0 0 0 0 -0.378702842674454 0 -3.23933739516434 0 0 0 0 0 0 -0.0327492397484181 0 -1.89301273894996 0 0 0 0 0 0 -1.27007998121742 0 0 0 0 0 0 0
0 0 0 0 0 0 0 0 0 0 0 0 0 0.327225931601147 0 0 0 0 0 0 0 0 0 0 0 0 -0.622956623271564 0 0 0 0 0 0 0 0 -0.829421553223478 0 0 0 0 -4.57510371679837 0 0 0 0 -0.206563804397713 0 0 0 0
0 0 0 0 0 0 0 0 0 0 0 0 0 0 0 0 0 0 0 0 0 0 0 0 0 0 -1.10836238852242 0 0 0 0 0 0 0 0 0 0 0 0 0 0 0 0 0 0 -0.954213358178531 0 0 0 0
0 0 0 0 0 0 0 0 0 0 0.445290210511603 0 0 0 0 0 0 0 0 0 0 0 0 0 0 0 0 0 0 0 0 0 0 0 0 -0.292840359509898 0 0 -1.43993067498604 0 0 0 0 0 0 -1.84966207828999 0 0 0 0
0 0 0 0 0 0 0.516035144632535 0.697991817879559 0.100744678768412 0 0 0 0 0 0 0 0 0 0 0 0 0 0 0 0 0 0 0 0 0 0 0 0 0 0 -2.32060126963237 0 0 0 0 0 0 0 0 0 0 0 0 -0.948567556022688 0
0 0 0 0 0 0 0 0 0 0 0 0 0 0 0 0 0 0 0 0 0 0 0 0 0 0 0 0 0 0 0 0 0 0 0 -0.407802675630812 0 0 0 0 0 0 0 0 0 0 0 0 0 0
0 0 0 0 0 0 0 0 0 0 0 0 0 0 0 0 0 0 0 0 0 0 0 0 0 0 0 0 0 0 0 0 0 0 0 0 -0.55332715569859 0 0 0 0 0 0 0 0 0 0 0 -1.54585656833541 0
0 0 0 0 0 0 0 0 0 0 0 0 0 0 0 0 0 0 0 0 0 0 0 0 0 0 0 0 0 0 0 0 -0.355967343161159 0 0 0 -1.28232477025811 0 0 0 0 0 0 0 0 0 0 0 -0.125444391077733 0
0 0 0 0 0 0 0 0 0 0 0 0 0.232573420660639 0.748536944059898 0 0 0.0752269988180912 0 0 0 0 0 0 0 0 -0.602677776517156 0 0 0 0 0 0 -0.999163933015347 0 0 0 -3.15915677273027 0 0 -10.0461936553809 0 0 0 0 -2.48785053723582 0 0 0 -0.504801831617649 0
0 0 0 0 0 0 0 0 0 0 0 0 0 0 0 0 0 0 0 0 0 0 0 0 0.121719616031301 0 0 0 0 0 0 0 0 0 0 0 -7.35757769517995 0 0 -1.80160326721878 0 0 0 -0.888825544198553 0 0 0 0 0 0
0 0 0 0 0 0 0 0 0 0 0.084957313210292 0.118903657227312 0.0746997276958808 0.0496602447889817 0 0.202804983510332 0.711643524971446 0.126885088084721 0.2221294480901 0 0 0 0 0 0 0 0 0 0 0 0 0 0 0 0 0 -3.24161517524158 0 0 0 0 0 0 -0.387630639830519 -0.955475086921834 0 0 0 0 0
0 0 0 0 0 0 0 0 0 0 0 0 0 0 0 0 0 0 0 0 0 0 0 0 0 0 0 0 0 0 0 0 0 0 0 0 -1.79089556888634 0 0 0 0 0 0 -1.28677482211569 -0.915669087160511 0 0 0 0 0
0 0 0 0 0 0 0 0 0 0 0 0 0 0 0.20771193940222 0 0 0 0 0 0 0 0 0 0 0 0 0 0 0 0 0 0 0 0 0 -0.377720913423251 0 0 0 0 0 0 0 0 0 0 0 0 0
0 0 0 0 0 0 0 0 0 0 0 0 0 0 0 0 0 0 0 0 0 0 0 0 0 0 0 0 0 0 0 0 0 0 0 0 -0.743699158617232 0 0 0 0 0 0 0 -0.269887763029834 0 0 0 0 0
0 0 0 0 0 0 0 0 0 0 0 0 0.441635248387287 0 0 0 0 0 0 0 0 0 0 0 0 0 0 0 0 0 0 0 0 0 0 0 -2.65985452707896 0 0 0 0 0 0 0 -0.527869194174723 0 0 0 0 0
0 0 0 0 0 0 0 0 0 0 0 0 0 0 0 0 0 0 0 0 0 0 0 0 0 0 0 0 0 0 0 0 0 0 0 0 -0.659422518796321 0 0 0 0 0 0 0 -0.696126812371102 0 0 0 0 0
0 0 0 0 0 0 0 0 0 0 0 0 0 0 0 0 0 0 0 0 0 0 0 0.0689801983499175 0.200228184930205 0 0 0 0 0 0 0 0 0 0 0 -2.41148638575519 0 0 0 0 0 0 0 -1.73701183730542 0 0 0 0 0
0 0 0 0 0 0 0 0 0 0 0 0.069520356756856 0.257241137391996 0 0.318714341906662 0.0836382955048814 0.00613479514959373 0 0 0 0 0 0 0 0 0 0 0 0 0 0 0 0 0 0 0 -2.14800536578387 0 0 0 0 0 0 0 -0.466841969329453 0 0 0 0 0
0 0 0 0 0 0 0 0 0 0 0 0 0 0 0 0 0 0 0 0 0 0 0 0 0 0 0 0 0 0 0 0 0 0 0 0 -1.58446572141398 0 0 0 0 0 0 0 0 0 0 0 0 0
0 0 0 0 0 0 0 0 0 0 0 0 0 0.0476671201269301 0.0816219645238649 0 0.364580726739347 0.176695454873396 0 0.058782101581762 0.462049452321122 0.087875256174419 0 0 0 0 0 0 0 0 0 0 0 0 0 0 -0.629478249843353 0 0 0 0 0 0 0 0 0 0 0 0 0
0 0 0 0 0 0 0 0 0 0 0 0 0 0 0 0 0 0 0 0 0 0 0.112743617032971 0.243258245790934 0.624359937534888 1.50762078958753 0.662982804285424 0.329111882496318 0.0695988418237782 0.160532655785148 0.544404984205101 0.132546746460263 0.509927908677957 0.465204018098421 0.314169061302059 0.124478351141381 0 0.332204315966719 0.11528549131277 0.532147448714623 0 0 0 0 0 0 0 0 0 0
0 0 0 0 0 0 0 0 0 0 0 0 0 0 0 0.272729488815616 0 0 0 0 0 0 0 0 0 0 0 0 0 0 0 0 0 0 0 0 -1.67121555254089 0 0 0 0 0 0 0 0 0 0 0 0 0
0 0 0 0 0 0 0 0 0 0 0 0 0 0 0 0 0 0 0 0.309710648741684 0 0 0 0 0 0 0 0 0 0 0 0 0 0 0 0 -0.609183575412428 0 0 0 0 0 0 0 0 0 0 0 0 0
0 0 0 0 0 0 0 0 0 0 0 0 0 0 0 0 0 0 0 0 0 0 0 0 2.06448760237589 0.389615523296282 0 0 0 0 0 0 0 0 0 0 -2.34033611998075 0 0 0 0 0 0 0 0 0 0 0 0 0
0 0 0 0 0 0 0 0 0 0 0 0 0 0.118909186066815 0 0.117132198379705 0 0.919986496336001 0 0 0 0 0 0 0 0 0 0 0 0 0 0 0 0 0 0 0 0 0 0 0 0 0 0 0 0 0 0 0 0
0 0 0 0 0 0 0 0 0 0 0 0 0.0408563326346708 0.693148016761515 0 0 0 0 0 0 0 0 0 0 0 0 0 0 0 0 0 0 0 0 0 0 0 0 0 0 0 0 0 0 0 0 0 0 0 0
0 0 0 0 0 0 0 0 0 0 0 0 0 0 0 0 0.244351308975773 0 0 0 0 0 0 0 0 0 0 0 0 0 0 0 0 0 0 0 0 0 0 0 0 0 0 0 0 0 0 0 0 0
0 0 0 0 0 0 0 0 0 0 0 0 0 0 0 0 0 0 0 0 0 0 0 0 0 0.1762823170124 0.07370570141929 0.277227767146956 0 0 0 0 0 0 0 0 0 0 0 0 0 0 0 0 0 0 0 -0.311468575913286 0 0
0 0 0 0 0 0 0 0 0 0 0 0 0 0 0 0 0 0 0 0 0 0 0 0 0.479481292377547 0 0.178969944186365 0.178870296287365 0 0.0514873557699226 0.108084510264034 0.1377772825516 0.313867578511487 0.0931267847565742 0 0 0 0 0 0 0 0 0 0 0 0 0 -2.75384303688669 0 0
0 0 0 0 0 0 0 0 0 0 0 0 0 0 0 2.29111876594282 0 0.0427682158984016 0.182078916157327 0.40316812635815 0 0 0 0 0 0 0 0 0 0 0 0 0 0 0 0 0 0 0 0 0 0 0 0 0 0 0 -1.0004701655609 0 0
0 0 0 0 0.486559548931445 1.08758303874632 0.0830975155184317 0 0 0 0 0 0 0 0 0 0 0 0 0 0 0 0 0 0 0 0 0 0 0 0 0 0 0 0 0 0 0 0 0 0 0 0 0 0 0 0 -0.680593137547844 0 0
0 0 0 0 0 0 0 0 0 0 0 0 0 0 0 0 0 0 0 0 0 0 0 0 0 0 0 0 0 0 0 0 0 0 0 0 0 0 0 0 0 0 0 0.0623271273001866 0.551805322432924 0.220151517375414 0.134261006159079 0 0 0
0 0 0 0 0 0 0 0 0 0 0 0 0 0 0 0 0 0 0 0 0.195391475974649 0 0.304212540919257 0.0237705298670577 0.109694334968014 0 0 0 0 0 0 0 0 0 0 0 0 0 0 0 0 0 0 0 0 0 0 0 0 0
0 0 0 0 0 0.0307054440617892 0.126184924385505 0.360193381084626 0.0919733953153583 0 0.176122045796908 0 0.126217260381079 0 0.102075690587453 0 0 0 0 0 0 0 0 0 0 0 0 0 0 0 0 0 0 0 0 0 0 0 0 0 0 0 0 0 0 0 0 0 0 0
