0 0 0 0 0 0 -2.88133264264143 0 0 0 0 0 0 0 0 0 0 0 0 0 0 0 0 0 0 0 0 0 0 0 0 0 0 0 0 0 0 0 0 0 0 0 0 0 0 -1.67735506609622 0 0 0 0
0 0 0 0 0 0 -0.923242975701081 0 0 0 0 -0.792161861440693 0 0 0 0 0 0 0 0 0 0 0 0 0 0 0 0 0 0 0 0 0 0 0 0 0 0 0 0 0 0 0 0 0 -0.367179603489093 0 0 0 0
0 0 0 0 -0.748634842552547 0 0 0 0 0 0 0 0 0 0 0 0 0 0 0 0 0 -0.370485817743667 0 0 0 0 0 0 0 0 -2.6087531651443 0 0 0 0 0 0 0 0 0 0 0 0 0 -1.74624984058742 0 0 0 0
0 0 0 0 -0.341445292595416 -1.74036542325932 0 0 0 0 0 -1.46048883636613 0 0 0 0 0 0 0 0 0 0 0 0 0 0 0 0 0 0 0 -0.72920460909737 0 0 0 0 0 0 0 0 0 0 0 0 0 0 0 0 0 0
0 0 0.155349746393426 0.0686736416459088 0 0 0 0 0 0 0 0 0 0 0 0 0 -1.02245366547278 0 0 0 0 0 0 0 0 0 0 0 -1.98890385039985 0 0 0 0 0 0 0 0 0 0 0 0 0 0 0 -2.20544317919558 0 0 0 0
0 0 0 0.343134677728485 0 0 0 0 0 0 0 0 0 0 0 0 0 -3.34505492931618 0 0 0 0 0 0 0 0 0 0 0 0 0 0 0 0 0 -0.77434225020821 0 0 0 0 0 0 0 0 0 0 0 0 0 0
0.54615439506083 0.19281546868627 0 0 0 0 0 0 0 0 0 0 0 0 0 0 0 0 0 0 0 0 0 0 0 0 0 0 0 0 0 0 0 0 0 -0.655886515399828 0 0 0 0 0 0 0 0 0 0 0 0 0 0
0 0 0 0 0 0 0 0 0 0 0 0 -1.24269234066877 0 0 0 0 0 -0.667545755343741 0 0 0 0 0 0 0 0 0 0 0 0 0 0 0 0 -0.236779370224182 0 0 0 0 0 0 0 0 0 0 0 0 0 0
0 0 0 0 0 0 0 0 0 0 0 0 0 0 0 0 0 0 -1.76789830413253 0 0 0 0 0 0 0 0 0 0 0 0 0 0 -0.515346349470056 0 -0.282993521612839 0 0 0 0 0 0 0 0 0 0 0 0 0 -0.79817166589631
0 0 0 0 0 0 0 0 0 0 0 0 0 0 0 0 0 0 -2.8182849285032 0 0 0 0 0 0 0 0 0 -2.17123974914354 0 0 0 0 0 0 -0.587032076768428 0 0 0 0 0 0 0 0 0 0 0 0 0 -2.84163855105504
0 0 0 0 0 0 0 0 0 0 0 0 0 0 0 0 0 0 -2.49942207821537 0 0 0 0 0 0 0 0 0 -0.802022268367287 0 0 0 0 -0.0763184708008098 0 -0.636452900766053 0 0 0 0 0 0 0 0 0 0 0 0 0 -0.858722038325549
0 0.164017096800974 0 0.298937462745479 0 0 0 0 0 0 0 0 0 0 0 0 0 0 -0.18345554001005 0 -1.78431632088333 0 0 0 0 0 0 0 -0.247506349655724 0 0 0 0 0 0 0 0 0 0 0 0 0 0 0 0 0 0 0 0 0
0 0 0 0 0 0 0 0.256777885809135 0 0 0 0 0 0 0 0 0 0 0 0 -1.3860363036085 0 0 0 0 0 0 0 0 0 0 0 0 0 0 -0.300721338184915 0 0 0 0 0 0 0 0 0 0 0 0 0 0
0 0 0 0 0 0 0 0 0 0 0 0 0 0 -1.36417747703426 0 0 0 0 0 0 0 0 0 0 0 0 0 0 0 0 0 0 0 0 0 0 0 -0.501457322485736 0 0 0 0 0 0 0 0 0 0 -2.02812934500266
0 0 0 0 0 0 0 0 0 0 0 0 0 0.291480374748087 0 0 0 0 0 0 0 0 0 0 0 0 0 0 0 0 0 0 0 0 0 0 0 0 -0.46614150484826 0 0 0 0 0 0 0 0 0 0 -0.594218414323882
0 0 0 0 0 0 0 0 0 0 0 0 0 0 0 0 0 0 0 0 0 0 0 0 0 0 0 0 0 0 0 0 0 0 0 0 0 0 -0.752579739048624 0 0 0 0 0 0 0 0 0 0 -2.89975709796225
0 0 0 0 0 0 0 0 0 0 0 0 0 0 0 0 0 0 0 0 0 0 0 0 0 0 0 0 0 0 0 0 0 0 0 0 0 0 -0.344912187012188 0 0 0 0 0 0 0 0 0 0 0
0 0 0 0 0.188926800314067 0.699119015193423 0 0 0 0 0 0 0 0 0 0 0 0 0 -1.11503461810299 0 0 0 0 0 0 0 0 0 0 0 0 0 0 0 0 0 0 -1.28367119745641 0 0 0 0 0 0 0 0 0 0 -6.51616529921467
0 0 0 0 0 0 0 0.133056646499779 0.352413155142192 0.586433181546578 0.477074275267126 0.0364615240339593 0 0 0 0 0 0 0 0 0 0 0 0 -1.18538910118055 0 0 0 0 0 0 0 0 0 0 0 0 0 -6.23668090551146 0 0 0 0 0 0 0 0 0 0 -1.09723765683894
0 0 0 0 0 0 0 0 0 0 0 0 0 0 0 0 0 0.212846901875834 0 0 0 0 0 -1.68643457452942 -2.08912679384843 0 0 0 0 0 0 0 0 0 0 0 0 0 -7.73563917607654 0 0 0 0 -0.665261977797466 0 0 0 0 0 -3.73853747821332
0 0 0 0 0 0 0 0 0 0 0 0.389841291363128 0.279336702807397 0 0 0 0 0 0 0 0 0 0 -1.93399460857636 -3.57181801921109 0 0 0 0 0 0 0 0 0 0 0 0 0 -2.06771588420346 0 0 0 0 0 0 0 0 0 0 -4.81642001639907
0 0 0 0 0 0 0 0 0 0 0 0 0 0 0 0 0 0 0 0 0 0 0 -1.29522793289808 0 0 0 0 0 0 0 0 0 0 0 0 0 0 -0.895899134242864 0 0 0 0 0 0 0 0 0 0 -4.5195817781997
0 0 0.0717375895203371 0 0 0 0 0 0 0 0 0 0 0 0 0 0 0 0 0 0 0 0 -1.60775772261276 0 0 0 0 0 0 0 0 0 0 0 0 0 0 0 -4.9601306966619 0 0 0 0 0 0 0 0 0 0
0 0 0 0 0 0 0 0 0 0 0 0 0 0 0 0 0 0 0 0.331674796349397 0.391262685797399 0.254536794256413 0.289936007555815 0 0 0.230106651221761 0.311635611033462 0 0 0 0 0 0 0 0 0 0 0 -0.838321082562509 -2.80762037979629 0 0 0 0 0 0 0 0 0 0
0 0 0 0 0 0 0 0 0 0 0 0 0 0 0 0 0 0 0.214531703669924 0.409724479436186 0.707593367728136 0 0 0 0 0 0 0 0 0 0 0 0 0 0 0 0 0 -6.68033558340347 0 0 0 0 0 0 0 0 0 0 0
0 0 0 0 0 0 0 0 0 0 0 0 0 0 0 0 0 0 0 0 0 0 0 -1.12231236040798 0 0 0 0 0 0 0 0 0 0 0 0 0 0 -0.854675098269465 -0.507823284693078 0 0 0 0 0 0 0 0 0 0
0 0 0 0 0 0 0 0 0 0 0 0 0 0 0 0 0 0 0 0 0 0 0 -1.51504391514008 0 0 0 0 0 0 0 0 0 0 0 0 0 0 -1.20449856457115 0 0 0 0 0 0 0 0 0 0 0
0 0 0 0 0 0 0 0 0 0 0 0 0 0 0 0 0 0 0 0 0 0 0 0 0 0 0 0 0 0 0 0 0 0 0 0 0 0 0 -0.657747854713356 0 0 0 0 0 0 0 0 0 0
0 0 0 0 0 0 0 0 0 0.413361942523425 0.144264871762128 0.0484462326382376 0 0 0 0 0 0 0 0 0 0 0 0 0 0 0 0 0 0 -3.09190712903013 0 0 0 0 0 0 0 0 -0.570198869211817 0 0 0 0 0 0 0 0 0 0
0 0 0 0 0.422569232737222 0 0 0 0 0 0 0 0 0 0 0 0 0 0 0 0 0 0 0 0 0 0 0 0 0 -1.38454388526255 0 0 0 0 0 0 0 0 0 -2.94345197424521 0 0 0 0 0 0 0 0 0
0 0 0 0 0 0 0 0 0 0 0 0 0 0 0 0 0 0 0 0 0 0 0 0 0 0 0 0 0.634606584390703 0.293873161794948 0 0 0.152227916876962 0 0 0 0 0 0 -0.983474259915834 -1.84239386921342 0 -0.833292300772758 0 0 0 0 0 0 0
0 0 0.549434960404205 0.146484112154105 0 0 0 0 0 0 0 0 0 0 0 0 0 0 0 0 0 0 0 0 0 0 0 0 0 0 0 0 0 0 0 0 0 0 0 0 -0.256854894743787 0 0 0 0 0 0 0 0 0
0 0 0 0 0 0 0 0 0 0 0 0 0 0 0 0 0 0 0 0 0 0 0 0 0 0 0 0 0 0 -0.75057313090969 0 0 0 0 0 0 0 0 0 0 0 -1.3164143699173 0 0 0 0 0 0 0
0 0 0 0 0 0 0 0 0.10389798319245 0 0.0143290282190769 0 0 0 0 0 0 0 0 0 0 0 0 0 0 0 0 0 0 0 0 0 0 0 0 0 -1.91044209093606 0 0 0 0 0 -0.231543334403513 0 0 0 0 0 0 0
0 0 0 0 0 0 0 0 0 0 0 0 0 0 0 0 0 0 0 0 0 0 0 0 0 0 0 0 0 0 0 0 0 0 0 0 -0.203073214272714 0 0 0 0 0 0 0 0 0 0 0 0 0
0 0 0 0 0 0.161849079657384 0.13501691011207 0.0487780393585385 0.0563124756989102 0.109964246477506 0.126251066901236 0 0.0604481006371976 0 0 0 0 0 0 0 0 0 0 0 0 0 0 0 0 0 0 0 0 0 0 0 -3.24818249931189 0 0 0 0 0 -1.11305361719719 0 0 0 0 0 0 0
0 0 0 0 0 0 0 0 0 0 0 0 0 0 0 0 0 0 0 0 0 0 0 0 0 0 0 0 0 0 0 0 0 0.399998690062552 0.0458589089777218 0.649762061711882 0 0.159561131034263 0 0 0 0 -0.150182880339075 0 0 0 0 0 0 0
0 0 0 0 0 0 0 0 0 0 0 0 0 0 0 0 0 0 0 0 0 0 0 0 0 0 0 0 0 0 0 0 0 0 0 0 -0.818317093975991 0 0 0 0 0 -0.24125462928211 0 0 0 0 0 0 0
0 0 0 0 0 0 0 0 0 0 0 0 0 0.107195501706932 0.0958408908501253 0.144291701277868 0.0739454076080062 0.243733581847444 1.19869965759993 1.56022292995711 0.425941505035689 0.181604291168778 0 0.161188359638395 1.41811367215464 0.168615577987001 0.259490939697446 0 0 0 0 0 0 0 0 0 0 0 0 0 0 0 0 0 0 0 0 -0.255166754683736 -0.356313005727613 0
0 0 0 0 0 0 0 0 0 0 0 0 0 0 0 0 0 0 0 0 0 0 1.03861761054382 0.593347875039695 0 0.100669744760862 0 0.127468344849523 0.127077978246067 0 0.198948483801772 0 0 0 0 0 0 0 0 0 0 0 -0.22748832301466 0 0 0 0 0 -0.696092979731679 0
0 0 0 0 0 0 0 0 0 0 0 0 0 0 0 0 0 0 0 0 0 0 0 0 0 0 0 0 0 0.581985056416853 0.336056440359514 0.0481694521073043 0 0 0 0 0 0 0 0 0 0 -1.41398187572369 0 0 0 0 -0.852592942049179 0 0
0 0 0 0 0 0 0 0 0 0 0 0 0 0 0 0 0 0 0 0 0 0 0 0 0 0 0 0 0 0 0 0 0 0 0 0 0 0 0 0 0 0 -1.25392554108362 0 0 0 0 0 -1.88787412235559 0
0 0 0 0 0 0 0 0 0 0 0 0 0 0 0 0 0 0 0 0 0 0 0 0 0 0 0 0 0 0 0.163972762338739 0 0.261876484884561 0.0436992699461687 0 0.219966889262516 0.030096261149006 0.0470782208401497 0 0.0452393415768173 0.272562077591316 0.235930507798411 0 0.0507841142207568 0 0 0 -0.864442063063774 -3.91582041947137 0
0 0 0 0 0 0 0 0 0 0 0 0 0 0 0 0 0 0 0 0.120402225463659 0 0 0 0 0 0 0 0 0 0 0 0 0 0 0 0 0 0 0 0 0 0 -0.253371106279083 0 -1.11637003664292 0 0 0 -0.398070735417723 0
0 0 0 0 0 0 0 0 0 0 0 0 0 0 0 0 0 0 0 0 0 0 0 0 0 0 0 0 0 0 0 0 0 0 0 0 0 0 0 0 0 0 0 0.231300069293468 0 0 0 0 -0.138856829725803 0
0.325409927381684 0.0776402736652091 0.383295395243809 0 0.448596573226305 0 0 0 0 0 0 0 0 0 0 0 0 0 0 0 0 0 0 0 0 0 0 0 0 0 0 0 0 0 0 0 0 0 0 0 0 0 0 0 0 0 0 0 -0.53735618224465 0
0 0 0 0 0 0 0 0 0 0 0 0 0 0 0 0 0 0 0 0 0 0 0 0 0 0 0 0 0 0 0 0 0 0 0 0 0 0 0 0 0 0 0 0 0 0 0 0 -2.4558653610868 0
0 0 0 0 0 0 0 0 0 0 0 0 0 0 0 0 0 0 0 0 0 0 0 0 0 0 0 0 0 0 0 0 0 0 0 0 0 0 0.0507089894280095 0 0.163087298214493 0 0.161156237932669 0 0 0 0 0 0 0
0 0 0 0 0 0 0 0 0 0 0 0 0 0 0 0 0 0 0 0 0 0 0 0 0 0 0 0 0 0 0 0 0 0 0 0 0 0 0.0741665807872194 0.137580876878146 0 0.404277031682334 0.734436575441029 0.0860380166775218 0.0272826124714455 0.107755995855994 0.474822610625773 0 0 0
0 0 0 0 0 0 0 0 0.141448317580253 0.590147692615017 0.162487310716732 0 0 0.382154045030243 0.109730263743175 0.561740790422405 0 1.29646707350181 0.217357447278379 0.750463164807151 1.05713738140073 0.900590921770818 0 0 0 0 0 0 0 0 0 0 0 0 0 0 0 0 0 0 0 0 0 0 0 0 0 0 0 0
