0.700473837623312
1.70073507143767
1.96598115581035
1.02081844535238
0.599707592189002
0.58565232763112
0.247722544613623
4.10966208590677
4.17881939429086
0.362480921930106
0.902264088262199
1.34253881833237
5.06517552636682
0.124422750006107
0.328977838474432
2.34640816314574
0.355246351636315
1.84451190844793
0.287108603891642
0.417043154917967
0.44151746344658
1.19821943368831
1.82738920862459
2.96351499550075
0.484473745336364
1.07635721493998
1.1385533463177
2.37966426692653
1.77145799062296
0.514919939746548
3.79915301493552
1.54667515531792
0.397785594939701
1.37898555269564
1.97293296655229
0.282481482352091
3.18498236226364
0.454630632428364
3.05966015781051
2.23693869895535
0.287472193506518
1.470306403394
0.36662041012145
1.35169396448729
0.390414456744676
0.477419729090436
0.162610035332346
0.473996475395831
0.267277776544954
0.946296801039879
