0.641063794072555
0.319233399089899
0.360837641731017
0.990183282896336
0.329178394154854
0.587512226247091
0.10376060448635
0.124216141967037
0.122001474970853
0.0480396604243385
0.0345232098541285
0.298170030588958
1.08213175964231
4.41670589732512
0.196420260522974
2.43828030534638
4.02423014282122
0.145127777958904
0.728868825180465
0.116373989873101
0.842163275121436
0.161596796627701
0.137495659236283
0.101096794121159
0.0694287103096793
6.64994278022446
0.791686385034364
0.369905947486203
0.368062355582598
0.486227562275368
3.63449144131988
0.332603043551966
0.42529311281666
0.0360415203771956
0.181758685859802
3.67729161598958
0.194496316292945
0.0371460160410085
0.452346106368309
0.211801462260551
1.95680708885266
0.244149222331664
2.16067663895209
0.0692038488179955
0.656137619344871
0.583504181404325
0.280967476420751
0.111158464734175
0.720618490042358
0.949074352569547
