0 -1.66124636040189 0 -0.730219169946435 0 0 0 -0.893105224358317 0 0 0 0 0 0 0 0 0 -0.133417576627061 0 0 0 0 0 0 0 0 0 0 0 0 0 0 0 0 0 -1.16737147034143 0 0 0 0 0 0 0 0 0 0 0 0 0 0
0.343058090874018 0 -0.356277465873091 0 0 0 0 -0.690676131608982 0 0 0 0 0 0 -4.94036905967012 0 0 -0.993040215137759 0 0 0 0 0 0 0 0 0 0 0 0 0 0 0 0 0 -4.54446474031205 0 0 0 0 0 0 0 0 0 0 0 0 0 0
0 0.0690431350847573 0 -1.58904568566957 0 0 0 -3.88277084054296 0 0 0 0 0 0 -1.90946592299583 0 0 -4.59966559485956 0 0 0 0 0 0 0 0 0 0 0 0 0 0 0 -4.0981764093175 0 0 0 0 0 0 0 0 0 0 0 0 0 0 0 0
0.138183571223316 0 0.322389528500116 0 0 0 0 0 0 0 0 0 0 0 0 0 0 0 0 0 0 0 -3.36149228280503 0 0 0 0 -0.804411967456156 0 0 0 0 0 0 0 0 0 0 0 0 0 0 0 0 0 0 0 0 0 0
0 0 0 0 0 0 0 0 0 0 0 0 0 0 0 0 0 0 0 0 0 0 -0.256293001513528 0 0 0 0 -0.45328492931725 0 0 0 0 0 0 0 0 0 0 0 0 0 0 0 0 0 0 0 0 0 0
0 0 0 0 0 0 0 0 0 0 0 0 0 0 0 0 0 0 0 0 0 0 -0.437059217367347 0 0 0 0 -3.19709138810364 0 0 0 0 0 0 0 0 0 0 0 0 0 0 0 0 0 0 0 0 0 0
0 0 0 0 0 0 0 0 0 0 0 0 0 0 0 0 0 0 0 0 0 0 0 0 0 0 0 -0.302188585199691 0 0 0 0 0 0 0 0 0 0 0 0 0 0 0 0 0 0 0 0 0 0
0.177477207656078 0.146504541862523 0.822363100519484 0 0 0 0 0 0 0 0 0 0 0 0 0 0 0 0 0 0 0 0 0 0 0 0 0 0 0 0 0 0 0 0 0 0 0 0 0 -0.719135765432221 0 0 0 0 0 0 0 0 0
0 0 0 0 0 0 0 0 0 0 0 0 0 0 0 -1.95164089647551 0 0 -0.734090176884447 0 0 0 0 0 -0.150473868230286 0 0 0 0 0 0 0 0 0 0 0 0 0 0 0 0 0 0 0 0 0 0 0 0 0
0 0 0 0 0 0 0 0 0 0 0 0 0 0 0 -0.742155194940535 0 0 -0.222526678190396 0 0 0 0 0 -6.98352257977732 -4.18917790579961 0 0 0 0 0 0 0 0 0 0 0 0 0 0 0 0 0 0 0 0 0 0 0 0
0 0 0 0 0 0 0 0 0 0 0 0 0 0 0 -2.20377564589269 0 0 -1.50657959964866 0 0 0 0 0 -1.82666933906719 0 0 -3.00618501594811 0 0 0 0 0 0 0 0 0 0 0 0 0 0 0 0 0 0 0 0 0 0
0 0 0 0 0 0 0 0 0 0 0 0 0 0 0 0 0 0 0 0 0 0 0 0 -2.0304886737257 0 -0.378117000496324 0 0 0 0 -0.620515366372807 0 0 0 0 0 0 0 0 0 -4.00509987213519 0 0 0 0 0 0 0 0
0 0 0 0 0 0 0 0 0 0 0 0 0 0 0 0 0 0 0 0 0 0 0 0 0 0 -0.507075629638165 0 0 0 0 -3.79764103456194 -7.95735547839426 0 0 0 0 0 0 0 0 -0.597560600607614 0 0 0 -0.493415878766145 0 0 -0.660769614704369 0
0 0 0 0 0 0 0 0 0 0 0 0 0 0 0 0 0 0 0 0 0 0 0 0 0 0 -0.548163333191093 0 0 0 0 -1.32648132111502 0 0 0 0 0 0 0 0 0 0 0 0 0 -2.73008261210205 0 0 0 0
0 0.89338306710545 0.398964525145065 0 0 0 0 0 0 0 0 0 0 0 0 0 0 0 0 0 -1.80133661272291 0 0 0 0 0 -2.78802282916439 0 0 0 0 -1.51016773181883 0 0 0 0 0 0 0 0 0 -0.736741235722953 0 0 0 -0.225564570498191 0 0 0 0
0 0 0 0 0 0 0 0 0.387093257064282 0.157838903381768 0.433148188887557 0 0 0 0 0 0 0 0 0 0 0 0 0 0 0 0 0 0 0 0 -3.00176431781496 0 0 0 0 0 0 0 0 0 0 0 0 0 -2.02729111980072 0 0 0 0
0 0 0 0 0 0 0 0 0 0 0 0 0 0 0 0 0 0 0 0 0 0 0 0 0 0 -0.608568226646089 0 0 0 0 -0.599030187366081 0 0 0 0 0 0 0 0 0 0 0 0 0 0 0 0 0 0
0.0275026728967177 0.200805771688811 0.888937855513687 0 0 0 0 0 0 0 0 0 0 0 0 0 0 0 0 0 0 0 0 0 0 0 -0.994083012618926 0 0 0 -0.579705655148378 -2.24723066908831 0 0 0 0 0 0 0 0 0 0 0 0 0 -0.483494089324086 0 0 0 0
0 0 0 0 0 0 0 0 0.137465913145096 0.0427102909551622 0.311322754188607 0 0 0 0 0 0 0 0 0 0 0 0 0 0 0 0 0 0 0 0 -0.647675905208988 0 0 0 0 0 -0.258357343285264 -0.944520933187416 0 0 -0.512867502953388 0 -3.28858064160066 -0.62305864923488 0 0 0 0 0
0 0 0 0 0 0 0 0 0 0 0 0 0 0 0 0 0 0 0 0 0 0 0 0 0 0 -2.42022104849852 0 0 0 0 0 0 0 0 0 0 -0.553514067923225 0 0 0 0 0 0 -0.284424345536914 -1.6800291668216 0 0 0 0
0 0 0 0 0 0 0 0 0 0 0 0 0 0 0.381385706167222 0 0 0 0 0 0 0 0 0 0 0 0 0 0 0 0 0 0 0 0 0 0 -3.5220419134469 0 0 0 0 0 0 -0.608043013343761 -1.92289121451622 0 0 0 0
0 0 0 0 0 0 0 0 0 0 0 0 0 0 0 0 0 0 0 0 0 0 0 0 0 0 0 0 0 0 0 0 0 0 -0.71119204700973 0 0 -6.58069228870322 0 0 0 -11.6038398052465 0 0 0 -0.525767973874749 0 0 0 -0.280942657956266
0 0 0 0.619980237345584 0.0510717829263385 0.0895246522675943 0 0 0 0 0 0 0 0 0 0 0 0 0 0 0 0 0 0 0 0 0 0 0 -2.72869332852497 0 0 0 0 -1.25968695502529 0 0 0 0 0 0 -0.992682007835643 0 0 -0.764723147911855 0 0 0 0 -0.675913408072298
0 0 0 0 0 0 0 0 0 0 0 0 0 0 0 0 0 0 0 0 0 0 0 0 0 0 0 0 0 -0.402881259368424 0 0 0 0 -1.04029508779955 0 0 0 0 0 0 0 0 0 -0.278008904811578 0 0 0 0 -0.606533426171058
0 0 0 0 0 0 0 0 0.0314239756588884 1.30634698801362 0.382461816532953 0.409894111384908 0 0 0 0 0 0 0 0 0 0 0 0 0 0 0 0 0 -4.96155022849065 0 0 0 0 0 0 0 0 0 0 0 0 0 0 -1.53898070749609 0 0 0 0 -0.187531218185131
0 0 0 0 0 0 0 0 0 0.798379948525075 0 0 0 0 0 0 0 0 0 0 0 0 0 0 0 0 0 0 -3.00578180922173 0 0 0 0 0 0 0 0 0 0 0 0 0 0 0 -0.757533846205506 0 0 -0.0794185013035595 0 -0.559660104788038
0 0 0 0 0 0 0 0 0 0 0 0.067591127217538 0.100321330400623 0.108459385486444 0.541387576287298 0 0.125485855774744 0.205681021935912 0 0.494887092609562 0 0 0 0 0 0 0 0 -0.528434762001373 0 0 0 0 0 0 0 0 0 0 0 0 0 0 0 -1.67449173523782 0 0 -2.19707430191059 0 -0.59488417217558
0 0 0 0.169256258349878 0.0828189189975411 0.662132811786884 0.0588137255895753 0 0 0 0.551655742346846 0 0 0 0 0 0 0 0 0 0 0 0 0 0 0 0 0 -2.10210866754142 0 0 0 0 0 0 0 0 0 0 0 0 0 0 0 0 0 -0.670499753408994 -0.492845446864193 0 -0.316411851638548
0 0 0 0 0 0 0 0 0 0 0 0 0 0 0 0 0 0 0 0 0 0 0 0 0 0.558350411289174 0.101562997748644 0.422885150948219 0 0 0 0 0 0 0 0 -1.44051918779672 0 0 0 0 0 0 0 0 0 -1.89129001198634 -0.452680330872525 0 -1.17654058303957
0 0 0 0 0 0 0 0 0 0 0 0 0 0 0 0 0 0 0 0 0 0 0.581848260025529 0.0791823872033551 1.00236862961446 0 0 0 0 0 0 0 0 0 0 0 -0.5348119266808 0 0 -1.88194037868905 0 0 0 0 0 0 0 0 0 -8.72375071296543
0 0 0 0 0 0 0 0 0 0 0 0 0 0 0 0 0 0.113974722654665 0 0 0 0 0 0 0 0 0 0 0 0 0 0 0 0 0 0 0 0 0 -0.660837824600935 0 0 0 0 0 0 0 0 0 0
0 0 0 0 0 0 0 0 0 0 0 0.123684974932736 0.782805643875458 0.267879744861572 0.307106978575434 0.602885330504283 0.122551165678082 0.476463459357565 0.148361610867773 0 0 0 0 0 0 0 0 0 0 0 0 0 0 0 0 0 -0.295061049970812 0 0 -1.7773314380642 0 0 0 0 0 0 0 0 0 0
0 0 0 0 0 0 0 0 0 0 0 0 1.45968405958642 0 0 0 0 0 0 0 0 0 0 0 0 0 0 0 0 0 0 0 0 0 0 0 -2.0929280954752 0 0 -1.48809719428485 0 0 0 0 0 0 0 0 0 0
0 0 0.820514425235508 0 0 0 0 0 0 0 0 0 0 0 0 0 0 0 0 0 0 0 0 0 0 0 0 0 0 0 0 0 0 0 0 0 0 0 0 -0.302558279719929 0 0 0 0 0 0 0 0 0 0
0 0 0 0 0 0 0 0 0 0 0 0 0 0 0 0 0 0 0 0 0 0.137544048590116 0.232837178085244 0.197826278138767 0 0 0 0 0 0 0 0 0 0 0 0 -0.327723433298021 0 0 -1.55373971186362 0 0 0 0 0 0 0 0 0 0
0.247962805064865 0.852103077272834 0 0 0 0 0 0 0 0 0 0 0 0 0 0 0 0 0 0 0 0 0 0 0 0 0 0 0 0 0 0 0 0 0 0 -0.521088261988135 0 0 -0.211388695607436 0 0 0 0 0 0 0 0 0 0
0 0 0 0 0 0 0 0 0 0 0 0 0 0 0 0 0 0 0 0 0 0 0 0 0 0 0 0 0.249528032946198 0.10644693562098 0 0.0534692713925188 0.433084052457464 0 0.0641748486430371 0.102131776504133 0 0 0 0 0 0 0 0 0 0 0 0 0 0
0 0 0 0 0 0 0 0 0 0 0 0 0 0 0 0 0 0 0.0509186600820988 0.106520338993732 0.719907647422963 1.33575824521277 0 0 0 0 0 0 0 0 0 0 0 0 0 0 0 0 0 -1.01281892367327 0 0 0 0 0 0 0 0 0 0
0 0 0 0 0 0 0 0 0 0 0 0 0 0 0 0 0 0 0.191717037590534 0 0 0 0 0 0 0 0 0 0 0 0 0 0 0 0 0 0 0 0 -0.505394971324745 0 0 0 0 0 0 0 0 0 0
0 0 0 0 0 0 0 0 0 0 0 0 0 0 0 0 0 0 0 0 0 0 0 0 0 0 0 0 0 0.394653344631179 0.137448927890949 0.336771248020324 0.300228175048616 0.0590017066811039 0.309243500396379 0.0408689007876209 0 0.190529643269436 0.100930286827414 0 0 0 0 0 0 0 0 0 0 0
0 0 0 0 0 0 0 0.137746422628017 0 0 0 0 0 0 0 0 0 0 0 0 0 0 0 0 0 0 0 0 0 0 0 0 0 0 0 0 0 0 0 0 0 0 -0.57045976981535 0 0 0 0 0 0 0
0 0 0 0 0 0 0 0 0 0 0 0.814508810852499 0.123175973907466 0 0.157848077966676 0 0 0 0.0976604678176418 0 0 2.42504628029179 0.20805047845509 0 0 0 0 0 0 0 0 0 0 0 0 0 0 0 0 0 0 0 0 0 0 0 0 0 0 0
0 0 0 0 0 0 0 0 0 0 0 0 0 0 0 0 0 0 0 0 0 0 0 0 0 0 0 0 0 0 0 0 0 0 0 0 0 0 0 0 0.111745274946679 0 0 0.0208688231409539 0.268066679898311 0 0 0 0 0
0 0 0 0 0 0 0 0 0 0 0 0 0 0 0 0 0 0 0.719414022108013 0 0 0 0 0 0 0 0 0 0 0 0 0 0 0 0 0 0 0 0 0 0 0 -0.110979239002169 0 0 0 0 0 0 0
0 0 0 0 0 0 0 0 0 0 0 0 0 0 0 0 0 0 0.128272249583962 0.0599577974478854 0.12318791300104 0 0.167672821040843 0.0584329860046814 0.298263806440955 0.156311741971627 0.313676104303079 0 0 0 0 0 0 0 0 0 0 0 0 0 0 0 -1.36162031998529 0 0 0 0 0 0 0
0 0 0 0 0 0 0 0 0 0 0 0 0.112238986624651 0.59869897435967 0.0458200436462761 0.360717813108585 0 0.090617070344693 0 0.362875082855168 0.40993894530249 0.111125649108227 0 0 0 0 0 0 0 0 0 0 0 0 0 0 0 0 0 0 0 0 0 0 0 0 0 0 0 0
0 0 0 0 0 0 0 0 0 0 0 0 0 0 0 0 0 0 0 0 0 0 0 0 0 0 0 0.137576460631042 0.39678313342726 0 0 0 0 0 0 0 0 0 0 0 0 0 0 0 0 0 0 0 0 0
0 0 0 0 0 0 0 0 0 0 0 0 0 0 0 0 0 0 0 0 0 0 0 0 0 0.016866383333879 0.444767242689194 0.0941403968579603 0.094085910695891 0 0 0 0 0 0 0 0 0 0 0 0 0 0 0 0 0 0 0 0 0
0 0 0 0 0 0 0 0 0 0 0 0 0.144507718783049 0 0 0 0 0 0 0 0 0 0 0 0 0 0 0 0 0 0 0 0 0 0 0 0 0 0 0 0 0 0 0 0 0 0 0 0 0
0 0 0 0 0 0 0 0 0 0 0 0 0 0 0 0 0 0 0 0 0 0.060185861234089 0.134216141927969 0.123772944780228 0.039149862128535 0.112173638993839 0.11585597679541 0.0598117201810179 0.246114136713362 1.73735410529088 0 0 0 0 0 0 0 0 0 0 0 0 0 0 0 0 0 0 0 0
