0 0 0 0 0 0 0 0 0 0 -0.247677165960797 0 0 0 0 0 0 0 0 0 0 0 0 0 0 0 0 0 0 0 0 0 0 0 0 0 0 0 0 0 0 0 0 0 0 0 0 0 0 0
0 0 0 0 0 0 -1.64219692066241 0 0 0 -0.517796139350981 0 0 0 0 0 0 0 0 0 0 0 0 0 0 0 0 0 0 0 0 0 0 0 0 0 0 0 0 0 0 0 0 0 0 0 0 0 0 0
0 0 0 -0.299839217627577 0 0 -1.51183877362393 0 0 0 0 0 0 0 0 0 0 0 0 0 0 0 0 0 0 0 0 0 0 0 0 0 0 0 0 0 0 0 0 0 0 0 0 0 0 0 0 0 0 0
0 0 0.0582904726214587 0 0 0 -2.67303283427683 0 0 -1.17280734804629 0 0 0 0 0 0 0 0 0 0 0 0 0 0 0 0 0 0 0 0 0 0 0 0 0 0 0 0 0 0 0 0 0 0 0 0 0 0 0 0
0 0 0 0 0 0 0 0 -5.3916479513401 -1.41840336004896 0 0 0 0 0 0 0 0 0 0 0 0 0 0 0 0 0 0 0 0 0 0 0 0 0 0 0 0 0 0 0 0 0 0 0 0 -1.98517571060754 0 0 0
0 0 0 0 0 0 0 0 0 0 0 0 0 0 0 0 0 0 0 0 0 0 0 0 0 0 0 0 0 0 0 0 0 0 0 0 0 0 0 0 0 0 0 0 0 0 -1.64279916989005 0 0 -0.401355719945488
0 0.311117915464083 0.274743763945886 0.537666827073015 0 0 0 0 0 0 0 0 0 -1.33299543002807 0 0 0 0 0 0 -0.698145728527606 0 0 0 0 0 0 0 0 0 0 0 0 0 0 0 0 0 0 0 0 0 0 0 0 0 -5.97224535709131 0 0 -0.400292415230276
0 0 0 0 0 0 0 0 0 0 0 0 0 0 0 0 0 0 0 0 -1.49244328004453 0 0 0 0 0 0 0 0 0 0 0 0 0 0 0 0 0 0 0 0 0 0 0 0 0 0 0 0 -1.27848690299798
0 0 0 0 1.05151792284036 0 0 0 0 0 0 0 0 0 0 0 0 0 0 0 -1.78904774806547 0 0 0 0 0 0 0 0 0 0 0 0 0 0 0 0 0 0 0 0 0 0 0 0 0 0 0 0 -6.17120808952957
0 0 0 0.218010097220125 0.285330143837906 0 0 0 0 0 0 -2.28904524066272 0 0 0 0 0 0 0 0 0 0 0 0 0 0 0 0 0 0 0 0 0 0 0 0 0 0 0 0 0 0 0 0 0 0 0 0 0 0
0.0473586118027161 0.100287793364035 0 0 0 0 0 0 0 0 0 0 0 0 0 0 0 0 0 -2.41090988900855 0 0 0 0 0 0 -0.448896585728081 0 0 0 0 0 0 0 0 0 0 0 0 0 0 0 0 0 0 0 0 0 0 -0.804138061539809
0 0 0 0 0 0 0 0 0 0.468069301008864 0 0 0 0 0 0 0 0 0 0 0 0 0 0 0 0 -1.23955219026224 0 0 0 0 0 0 -1.44414021694186 0 0 0 0 0 0 0 0 0 0 0 0 0 0 0 0
0 0 0 0 0 0 0 0 0 0 0 0 0 0 0 0 -0.722018826965787 0 0 0 0 0 0 0 -8.25350374341098 0 -4.34230121759419 0 0 0 -2.71001573824744 0 0 -1.69955810118153 0 0 0 0 0 0 0 -0.327719900323062 0 0 0 0 0 0 0 -0.54079217755443
0 0 0 0 0 0 0.257405700604311 0 0 0 0 0 0 0 0 0 -1.73304535328942 -1.65501192880817 0 0 0 0 0 0 -3.19594693946376 0 -0.524330702836063 0 0 0 0 0 0 0 0 -1.90508077689687 0 0 0 0 -0.236195386073127 -0.666990141334678 0 0 0 0 0 0 0 0
0 0 0 0 0 0 0 0 0 0 0 0 0 0 0 0 -0.814320408776874 0 0 0 0 0 0 0 0 0 0 0 -1.2311097052099 0 0 0 0 -4.7794033090871 0 -2.26647729880918 0 0 0 0 0 0 0 0 0 0 0 0 0 -0.739504719471644
0 0 0 0 0 0 0 0 0 0 0 0 0 0 0 0 0 0 0 0 0 0 0 0 0 0 -1.18082763983997 0 0 0 0 0 0 -1.11563745582521 0 0 0 -0.615724773483368 0 0 -0.0961317206964339 0 0 0 0 -0.974867141955525 0 0 0 0
0 0 0 0 0 0 0 0 0 0 0 0 0.146259884463468 0.35586575758042 0.158921285710636 0 0 0 0 0 0 0 0 0 -0.145036375532619 0 -2.56749528206582 0 0 0 0 0 0 -1.79072260203015 0 -0.934510659873219 0 0 0 0 0 0 -0.489958590162581 0 0 0 0 0 0 0
0 0 0 0 0 0 0 0 0 0 0 0 0 0.332188726408835 0 0 0 0 0 0 0 0 0 0 0 0 -1.51698365014014 0 0 0 0 0 0 0 0 -3.21022156107735 0 0 0 0 -1.14542434689976 0 0 0 0 -0.524912271723871 0 0 0 0
0 0 0 0 0 0 0 0 0 0 0 0 0 0 0 0 0 0 0 0 0 0 0 0 0 0 -0.286172360011758 0 0 0 0 0 0 0 0 0 0 0 0 0 0 0 0 0 0 -3.62421299063991 0 0 0 0
0 0 0 0 0 0 0 0 0 0 0.474414961817192 0 0 0 0 0 0 0 0 0 0 0 0 0 0 0 0 0 0 0 0 0 0 0 0 -0.200398404979365 0 0 -1.4043980704693 0 0 0 0 0 0 -9.71771453427418 0 0 0 0
0 0 0 0 0 0 0.136455473336241 0.316360691444533 0.360033042155936 0 0 0 0 0 0 0 0 0 0 0 0 0 0 0 0 0 0 0 0 0 0 0 0 0 0 -2.84557810278263 0 0 0 0 0 0 0 0 0 0 0 0 -0.228882296102362 0
0 0 0 0 0 0 0 0 0 0 0 0 0 0 0 0 0 0 0 0 0 0 0 0 0 0 0 0 0 0 0 0 0 0 0 -0.377344825000741 0 0 0 0 0 0 0 0 0 0 0 0 0 0
0 0 0 0 0 0 0 0 0 0 0 0 0 0 0 0 0 0 0 0 0 0 0 0 0 0 0 0 0 0 0 0 0 0 0 0 -2.17758345988277 0 0 0 0 0 0 0 0 0 0 0 -1.92487852955663 0
0 0 0 0 0 0 0 0 0 0 0 0 0 0 0 0 0 0 0 0 0 0 0 0 0 0 0 0 0 0 0 0 -0.861063808260563 0 0 0 -0.448786255584663 0 0 0 0 0 0 0 0 0 0 0 -6.11669562857147 0
0 0 0 0 0 0 0 0 0 0 0 0 1.58135645481126 0.645000307216392 0 0 0.0293279252923683 0 0 0 0 0 0 0 0 -2.11501998251058 0 0 0 0 0 0 -3.27263470713858 0 0 0 -0.660930401840281 0 0 -1.15401835882591 0 0 0 0 -2.79082187557761 0 0 0 -5.08745312247167 0
0 0 0 0 0 0 0 0 0 0 0 0 0 0 0 0 0 0 0 0 0 0 0 0 0.427607275693095 0 0 0 0 0 0 0 0 0 0 0 -0.611530413174566 0 0 -1.74701802323273 0 0 0 -0.87823159655233 0 0 0 0 0 0
0 0 0 0 0 0 0 0 0 0 0.0885529109720575 0.244007906443373 0.919888167450765 0.111976819463067 0 0.22866843493453 0.512284422507231 0.311320886261821 0.0555817213530991 0 0 0 0 0 0 0 0 0 0 0 0 0 0 0 0 0 -3.52338278726393 0 0 0 0 0 0 -7.23814790932046 -1.96765781901055 0 0 0 0 0
0 0 0 0 0 0 0 0 0 0 0 0 0 0 0 0 0 0 0 0 0 0 0 0 0 0 0 0 0 0 0 0 0 0 0 0 -6.29486810772463 0 0 0 0 0 0 -0.518651953538374 -1.18346797680837 0 0 0 0 0
0 0 0 0 0 0 0 0 0 0 0 0 0 0 0.242038935027138 0 0 0 0 0 0 0 0 0 0 0 0 0 0 0 0 0 0 0 0 0 -2.04078327055291 0 0 0 0 0 0 0 0 0 0 0 0 0
0 0 0 0 0 0 0 0 0 0 0 0 0 0 0 0 0 0 0 0 0 0 0 0 0 0 0 0 0 0 0 0 0 0 0 0 -0.558230500747104 0 0 0 0 0 0 0 -0.233132891556166 0 0 0 0 0
0 0 0 0 0 0 0 0 0 0 0 0 0.47640750291276 0 0 0 0 0 0 0 0 0 0 0 0 0 0 0 0 0 0 0 0 0 0 0 -2.56282869029231 0 0 0 0 0 0 0 -4.18591836858957 0 0 0 0 0
0 0 0 0 0 0 0 0 0 0 0 0 0 0 0 0 0 0 0 0 0 0 0 0 0 0 0 0 0 0 0 0 0 0 0 0 -0.114820026004013 0 0 0 0 0 0 0 -0.876243378469279 0 0 0 0 0
0 0 0 0 0 0 0 0 0 0 0 0 0 0 0 0 0 0 0 0 0 0 0 0.178923906689319 0.610476112841074 0 0 0 0 0 0 0 0 0 0 0 -3.20593083194285 0 0 0 0 0 0 0 -4.81095086370131 0 0 0 0 0
0 0 0 0 0 0 0 0 0 0 0 0.274678153789646 0.322777556827858 0 1.01491684076024 0.224413183877583 0.332821149165682 0 0 0 0 0 0 0 0 0 0 0 0 0 0 0 0 0 0 0 -0.834302822001073 0 0 0 0 0 0 0 -1.36814693394082 0 0 0 0 0
0 0 0 0 0 0 0 0 0 0 0 0 0 0 0 0 0 0 0 0 0 0 0 0 0 0 0 0 0 0 0 0 0 0 0 0 -1.76602166463446 0 0 0 0 0 0 0 0 0 0 0 0 0
0 0 0 0 0 0 0 0 0 0 0 0 0 0.37527966071147 0.415207947755647 0 0.193246061423094 0.634670104172635 0 0.0377508178983762 0.592360205000477 0.0764100563758796 0 0 0 0 0 0 0 0 0 0 0 0 0 0 -8.29767485120273 0 0 0 0 0 0 0 0 0 0 0 0 0
0 0 0 0 0 0 0 0 0 0 0 0 0 0 0 0 0 0 0 0 0 0 0.436021987550318 0.084776317763818 0.128058125223919 0.122775207212827 0.696798893859036 1.17791237582503 0.418626447585457 0.107298312399189 0.463360081104218 0.0229101131252112 0.609595412481715 0.18551986535037 0.361848896376393 1.63560323558533 0 0.327107518109118 0.130110903940211 0.693285647309845 0 0 0 0 0 0 0 0 0 0
0 0 0 0 0 0 0 0 0 0 0 0 0 0 0 0.11551917156991 0 0 0 0 0 0 0 0 0 0 0 0 0 0 0 0 0 0 0 0 -1.65000812951668 0 0 0 0 0 0 0 0 0 0 0 0 0
0 0 0 0 0 0 0 0 0 0 0 0 0 0 0 0 0 0 0 0.25571287806816 0 0 0 0 0 0 0 0 0 0 0 0 0 0 0 0 -0.675079120041536 0 0 0 0 0 0 0 0 0 0 0 0 0
0 0 0 0 0 0 0 0 0 0 0 0 0 0 0 0 0 0 0 0 0 0 0 0 0.219285079761136 0.332647354213898 0 0 0 0 0 0 0 0 0 0 -3.60286471032657 0 0 0 0 0 0 0 0 0 0 0 0 0
0 0 0 0 0 0 0 0 0 0 0 0 0 0.0501864844603374 0 0.0175557288992376 0 0.252581683376514 0 0 0 0 0 0 0 0 0 0 0 0 0 0 0 0 0 0 0 0 0 0 0 0 0 0 0 0 0 0 0 0
0 0 0 0 0 0 0 0 0 0 0 0 0.0684329447174285 0.128929496390635 0 0 0 0 0 0 0 0 0 0 0 0 0 0 0 0 0 0 0 0 0 0 0 0 0 0 0 0 0 0 0 0 0 0 0 0
0 0 0 0 0 0 0 0 0 0 0 0 0 0 0 0 0.0980398572209845 0 0 0 0 0 0 0 0 0 0 0 0 0 0 0 0 0 0 0 0 0 0 0 0 0 0 0 0 0 0 0 0 0
0 0 0 0 0 0 0 0 0 0 0 0 0 0 0 0 0 0 0 0 0 0 0 0 0 0.188864117574514 1.41846127645742 0.106514287008105 0 0 0 0 0 0 0 0 0 0 0 0 0 0 0 0 0 0 0 -1.11679936068306 0 0
0 0 0 0 0 0 0 0 0 0 0 0 0 0 0 0 0 0 0 0 0 0 0 0 0.520290721388354 0 0.363147092585128 0.230011855485976 0 0.0445932609084442 0.851725076430831 0.17223463520447 0.925497596218965 0.270587007310603 0 0 0 0 0 0 0 0 0 0 0 0 0 -2.55355953513541 0 0
0 0 0 0 0 0 0 0 0 0 0 0 0 0 0 0.206037380220307 0 0.104828317212157 0.722537291198215 1.92139990250093 0 0 0 0 0 0 0 0 0 0 0 0 0 0 0 0 0 0 0 0 0 0 0 0 0 0 0 -0.400096120431036 0 0
0 0 0 0 0.395072544325604 0.348506244997031 1.2137779355474 0 0 0 0 0 0 0 0 0 0 0 0 0 0 0 0 0 0 0 0 0 0 0 0 0 0 0 0 0 0 0 0 0 0 0 0 0 0 0 0 -1.38091030895189 0 0
0 0 0 0 0 0 0 0 0 0 0 0 0 0 0 0 0 0 0 0 0 0 0 0 0 0 0 0 0 0 0 0 0 0 0 0 0 0 0 0 0 0 0 0.213918656313339 0.522224660805017 0.0818268713783866 0.262253991289812 0 0 0
0 0 0 0 0 0 0 0 0 0 0 0 0 0 0 0 0 0 0 0 0.0431033666499875 0 0.392485463113476 1.20308075210077 1.11278439009786 0 0 0 0 0 0 0 0 0 0 0 0 0 0 0 0 0 0 0 0 0 0 0 0 0
0 0 0 0 0 0.0801659199062493 0.0801679328599513 0.258576790056108 1.21906242691872 0 0.144004575763379 0 0.11043008586709 0 0.150705977606589 0 0 0 0 0 0 0 0 0 0 0 0 0 0 0 0 0 0 0 0 0 0 0 0 0 0 0 0 0 0 0 0 0 0 0
