0.116930754755275
0.307513245727016
0.0168972485647018
0.276836844389111
0.129963749508752
0.792346352033861
0.23516391940693
0.612632076579602
0.187852466477098
0.343207829829782
1.08268399108239
0.31615770618565
0.0545264039877787
3.5982968315709
1.26255233896871
0.0251037863609097
0.126632214135499
0.00503999345958162
1.20937170382639
0.178687207093952
0.458174150508786
0.268596335206851
0.438073259207244
0.318152730866265
1.36194105624994
0.298498595099247
3.66232141575125
1.62428238097307
0.525686567615914
0.165944880886885
2.73868322522312
0.505113922006326
0.186957508622669
1.02230144857993
0.0788157416760081
2.22426496651374
1.08305125653651
0.31024613516911
0.213037945274139
0.392807210853503
0.177474109915812
2.6791223746589
0.603836964450033
1.28552003016282
1.26117343048488
1.13088333573982
0.149801388105499
1.83451048631385
0.13376511738313
0.531924213438594
