0 0 0 0 0 0 0 0 0 0 0 0 0 0 0 0 0 0 0 0 0 0 0 0 0 0 -0.717051445370144 0 0 0 0 0 0 0 0 0 0 0 0 0 0 0 0 0 0 0 0 0 0 0
0 0 0 0 0 0 0 0 0 0 0 0 0 0 0 0 0 0 0 0 0 0 0 0 0 0 -0.999652256359592 0 0 0 0 0 0 0 0 0 0 0 0 0 0 0 0 0 0 0 0 0 0 0
0 0 0 -1.07574692943998 -0.230553582155148 0 0 0 -3.38788309256569 0 -1.21558198698742 0 0 0 0 0 0 0 0 0 0 0 0 0 -1.5531883541418 0 0 0 0 0 0 0 0 0 0 0 0 0 0 0 0 0 0 -0.605340263787614 0 0 0 0 0 0
0 0 0.202404173516058 0 0 0 0 0 0 0 0 0 0 0 0 0 0 0 0 0 0 0 -4.31387862975848 0 0 0 0 0 0 0 0 0 0 0 0 0 0 0 0 0 0 0 0 0 0 0 0 0 0 0
0 0 0.0408681735530846 0 0 -2.01966339064711 0 0 0 0 0 0 0 0 0 0 0 0 -0.392620860918429 0 0 0 -3.0777276340914 0 0 0 0 0 0 0 0 0 0 0 0 0 0 0 0 0 0 -0.661187366251439 0 0 0 0 0 0 0 0
0 0 0 0 0.42095474781913 0 0 0 0 0 0 0 0 0 0 0 0 0 0 0 0 0 -0.161664089354438 0 -0.658048770455996 0 0 0 0 0 0 0 0 0 0 0 0 0 0 0 0 0 0 0 0 0 0 0 0 0
0 0 0 0 0 0 0 0 0 0 0 0 0 0 0 0 0 0 0 0 0 0 0 0 0 0 0 0 0 0 -3.17653102129128 0 0 0 0 0 0 0 0 0 0 -0.592663996630871 0 0 0 0 0 0 0 0
0 0 0 0 0 0 0 0 0 0 0 0 0 0 -1.52163186623327 -1.28887156961836 0 0 0 0 -0.126641600681043 0 0 0 0 -0.763962901731518 0 0 0 0 -1.43232878718016 0 0 0 0 0 0 0 0 0 0 0 0 0 0 0 0 0 0 0
0 0 0.699462460063603 0 0 0 0 0 0 0 0 0 0 0 0 -2.14631933149849 -0.639001948172974 0 0 0 0 0 0 0 0 0 0 0 0 0 0 0 0 0 0 0 0 0 0 0 0 0 0 0 0 0 0 0 0 0
0 0 0 0 0 0 0 0 0 0 0 0 0 0 0 -0.558212234891921 -0.134117198654959 0 0 0 0 0 0 0 0 0 0 0 0 0 0 0 0 0 0 0 0 0 0 0 0 0 0 0 0 0 0 0 0 0
0 0 0.245773956812003 0 0 0 0 0 0 0 0 0 0 0 0 -0.763813437701279 0 -0.179837913906782 0 0 0 0 0 0 0 0 0 0 0 0 0 0 0 0 0 0 0 0 0 0 0 0 0 0 0 0 0 0 0 0
0 0 0 0 0 0 0 0 0 0 0 0 0 0 0 -2.77247211794019 0 0 0 0 0 0 0 0 0 0 0 0 0 0 0 0 0 0 0 0 0 0 0 0 0 0 0 0 0 0 0 -0.696029443170829 0 0
0 0 0 0 0 0 0 0 0 0 0 0 0 0 0 -0.280402965035875 0 0 0 0 0 0 0 -1.52426182878744 0 0 0 0 0 0 0 0 0 -1.63991334320129 0 0 0 0 0 0 0 0 0 0 0 0 0 -3.21102597177564 0 0
0 0 0 0 0 0 0 0 0 0 0 0 0 0 0 0 0 0 0 0 0 0 0 0 0 0 0 0 0 0 0 0 0 -0.182578418699478 0 0 0 0 0 0 0 0 0 0 0 0 0 -0.588941351077711 0 0
0 0 0 0 0 0 0 0.317022130989328 0 0 0 0 0 0 0 0 0 0 0 0 0 0 0 -1.21129247256372 0 0 0 0 0 0 0 0 0 -0.382731992450053 0 0 0 0 0 0 0 0 0 0 0 0 0 -0.297038642978906 0 0
0 0 0 0 0 0 0 0.264826822544805 0.453828990656418 0.105155034643902 0.151287419434927 0.54758417608584 0.0552905459172004 0 0 0 0 0 0 0 0 0 0 -1.16404065247873 0 0 0 0 0 0 0 0 0 -0.593562297932014 0 0 0 0 0 0 0 0 0 0 0 0 0 -2.96119637232073 0 0
0 0 0 0 0 0 0 0 0.131551427005588 0.0260929421479001 0 0 0 0 0 0 0 0 0 0 0 0 0 0 0 0 0 0 0 0 0 0 0 -0.731828621659149 0 0 0 0 0 0 0 0 0 0 0 0 0 0 0 0
0 0 0 0 0 0 0 0 0 0 0.0351713301058141 0 0 0 0 0 0 0 0 -0.552626383619301 0 0 0 0 0 0 0 0 0 0 0 0 0 -2.01796433415656 0 0 0 0 0 0 0 0 0 0 0 0 0 -0.931027873651672 0 0
0 0 0 0 0.0722511986891641 0 0 0 0 0 0 0 0 0 0 0 0 0 0 -1.0046328411852 0 0 0 0 0 0 0 0 0 0 0 0 0 -1.73121216665781 0 0 0 0 0 0 0 0 0 0 0 0 0 -7.05429591523645 0 0
0 0 0 0 0 0 0 0 0 0 0 0 0 0 0 0 0 0.106986163432386 0.180707479903584 0 0.15558294241439 -1.90524291706906 0 0 0 0 0 0 0 0 0 0 0 0 0 0 0 0 -0.348575989536678 0 0 0 0 0 0 0 0 -0.24193707769747 0 0
0 0 0 0 0 0 0 0.0249484554311658 0 0 0 0 0 0 0 0 0 0 0 -0.793730216651064 0 0 0 0 0 0 0 0 0 0 0 0 0 -1.9251230202117 0 0 0 0 -0.189890902669994 -2.36213225823914 -0.348862526035977 0 0 0 0 0 0 0 0 0
0 0 0 0 0 0 0 0 0 0 0 0 0 0 0 0 0 0 0 0.367125912793187 0 0 0 0 0 0 0 0 0 0 0 0 0 0 0 0 0 0 -1.62938381133441 -0.552477755026037 -0.994483432803089 0 0 0 0 0 0 -3.25190918391068 0 0
0 0 0 0.880306805920167 0.601187849608531 0.0345255138284027 0 0 0 0 0 0 0 0 0 0 0 0 0 0 0 0 0 0 0 0 0 0 -0.527191100869003 0 0 0 0 0 0 0 0 0 -1.32146083565739 0 -1.18508166385278 0 0 0 0 0 -0.493475982443925 -0.220468178672825 0 0
0 0 0 0 0 0 0 0 0 0 0 0 0.303084327307575 0 0.244511685681775 0.227227508588585 0 0 0 0 0 0 0 0 0 0 0 0 -1.45236949836892 0 0 0 0 0 -1.87941643083032 0 0 0 -0.678620413893352 -1.58861308294231 -0.538570551230775 0 0 0 0 -1.71168695089779 -2.1267722678542 -7.33486111977718 0 0
0 0 0.331916840331268 0 0 0.139101545104529 0 0 0 0 0 0 0 0 0 0 0 0 0 0 0 0 0 0 0 0 0 0 -0.543136212340324 0 0 0 0 0 0 0 0 0 -0.958957111529906 -0.96683484429727 -0.326339286470151 0 0 0 0 -1.10178033491015 0 -0.130853638526682 0 0
0 0 0 0 0 0 0 0.151284764330682 0 0 0 0 0 0 0 0 0 0 0 0 0 0 0 0 0 0 0 0 0 0 0 0 0 0 -1.89102305380052 0 -6.71508845886992 0 0 0 -4.83451029242951 0 0 0 0 0 0 0 0 0
0.139637798022615 0.211165563210402 0 0 0 0 0 0 0 0 0 0 0 0 0 0 0 0 0 0 0 0 0 0 0 0 0 0 0 0 0 0 0 0 -1.75214716530548 -3.56143632250986 -0.23704740534457 0 0 0 0 0 0 0 0 0 0 0 0 0
0 0 0 0 0 0 0 0 0 0 0 0 0 0 0 0 0 0 0 0 0 0 0 0 0 0 0 0 0 0 0 -2.15058944558942 0 0 -5.47865611094471 -1.51525219715624 -0.461823811879509 0 0 0 0 0 0 0 0 -0.642815729078821 0 0 0 0
0 0 0 0 0 0 0 0 0 0 0 0 0 0 0 0 0 0 0 0 0 0 0.109917785511855 0.287359491530834 0.116303159896488 0 0 0 0 0 0 -1.84744365130568 0 0 -0.199134580250585 -0.356439210486055 -0.576086384349052 0 0 0 0 0 0 0 0 -3.29103166384888 0 0 0 0
0 0 0 0 0 0 0 0 0 0 0 0 0 0 0 0 0 0 0 0 0 0 0 0 0 0 0 0 0 0 0 -1.54708976906181 0 0 -0.709128524303138 -1.56137303738319 -0.556418250358146 0 0 0 0 0 0 0 -3.62418614078828 0 0 0 0 0
0 0 0 0 0 0 0.631213658498495 0.293545544924008 0 0 0 0 0 0 0 0 0 0 0 0 0 0 0 0 0 0 0 0 0 0 0 -3.51667724623991 0 0 -0.912518076382154 0 0 0 0 0 0 0 0 0 -0.687553966000739 0 0 0 -1.30160498738713 0
0 0 0 0 0 0 0 0 0 0 0 0 0 0 0 0 0 0 0 0 0 0 0 0 0 0 0 0.424292492086222 0.398049139457193 0.317290222143454 0.71780758951199 0 0 0 -1.11369722216313 0 -0.962063083977267 0 0 0 0 0 0 0 -0.884299761666201 -0.506711775998814 0 0 0 0
0 0 0 0 0 0 0 0 0 0 0 0 0 0 0 0 0 0 0 0 0 0 0 0 0 0 0 0 0 0 0 0 0 0 0 -3.91252622790069 -0.225789135064227 0 0 0 0 0 0 0 -0.843322937268181 0 0 0 -0.947067022913987 0
0 0 0 0 0 0 0 0 0 0 0 0 0.31648188177948 0.036187895787363 0.0727843943257011 0.118444154737708 0.152748414497552 0.383875978199277 0.317368150769293 0 0.396569871707846 0 0 0 0 0 0 0 0 0 0 0 0 0 -2.96221232608571 -0.543024555848337 -0.757363388412759 0 0 0 0 0 0 0 -2.86358712663197 -0.511900688056912 0 0 -3.1212129757862 0
0 0 0 0 0 0 0 0 0 0 0 0 0 0 0 0 0 0 0 0 0 0 0 0.4057704374208 0 0.336861534046072 0.383815934403634 1.12025720725959 0.0407855142050156 0.148400507190285 0.174782328016562 0.225368894727826 0 0.596187931415768 0 0 -0.956677864288314 -0.271137477100512 0 0 0 0 0 0 -1.17069643296253 -0.512183884349063 0 0 -1.3786148863959 0
0 0 0 0 0 0 0 0 0 0 0 0 0 0 0 0 0 0 0 0 0 0 0 0 0 0 0.676885683591998 0.294748364667543 0.0713395018139598 0.299460991456178 0 0 0.804556807395792 0.11341784726196 0 0 0 0 0 0 0 0 0 0 -1.41411826200655 0 0 0 -0.278182621324507 -0.569255447012308
0 0 0 0 0 0 0 0 0 0 0 0 0 0 0 0 0 0 0 0 0 0 0 0 0 1.3582054443854 0.0489259862538156 0.0987949032143024 0.114179603695912 0.113743524212866 0 0.172680205771658 0.0462904802917615 0.158086343817297 0.186190694462205 0 0 0 0 0 0 0 0 0 -11.9442207847649 0 0 0 0 -1.50350773503739
0 0 0 0 0 0 0 0 0 0 0 0 0 0 0 0 0 0 0 0 0 0 0 0 0 0 0 0 0 0 0 0 0 0 0.05367298934989 0 0 0 0 0 0 0 0 0 0 0 0 0 0 -0.164063932974675
0 0 0 0 0 0 0 0 0 0 0 0 0 0 0 0 0 0 0 0.0685317351744097 0.0398849356652593 0.346120687922661 0.254730736850944 0.131765874062752 0.20452767565097 0 0 0 0 0 0 0 0 0 0 0 0 0 0 0 0 0 0 0 0 0 0 0 0 0
0 0 0 0 0 0 0 0 0 0 0 0 0 0 0 0 0 0 0 0 0.471375689872946 0.107885899905434 0 0.329552599171338 0.20323908571672 0 0 0 0 0 0 0 0 0 0 0 0 0 0 0 0 0 0 0 0 0 0 0 0 0
0 0 0 0 0 0 0 0 0 0 0 0 0 0 0 0 0 0 0 0 0.0675985142824445 0.211067271068256 0.238272465805385 0.0987146878048478 0.0630239368299452 1.00704251493581 0 0 0 0 0 0 0 0 0 0 0 0 0 0 0 0 0 0 0 0 0 0 0 0
0 0 0 0 0.122402640831027 0 0.100011198918896 0 0 0 0 0 0 0 0 0 0 0 0 0 0 0 0 0 0 0 0 0 0 0 0 0 0 0 0 0 0 0 0 0 0 0 -7.91588007361269 0 0 0 0 0 0 0
0 0 0 0 0 0 0 0 0 0 0 0 0 0 0 0 0 0 0 0 0 0 0 0 0 0 0 0 0 0 0 0 0 0 0 0 0 0 0 0 0 1.53840730413573 0 0 0 0 0 0 0 0
0 0 0.12560544920582 0 0 0 0 0 0 0 0 0 0 0 0 0 0 0 0 0 0 0 0 0 0 0 0 0 0 0 0 0 0 0 0 0 0 0 0 0 0 0 0 0 0 0 0 0 0 0
0 0 0 0 0 0 0 0 0 0 0 0 0 0 0 0 0 0 0 0 0 0 0 0 0 0 0 0 0 0.761248158462122 0.128978345666719 0.188886824123241 0.178606901253819 0.597526478237984 0.227616958758156 0.279269606060582 2.41806801276152 0 0 0 0 0 0 0 0 0 0 0 0 0
0 0 0 0 0 0 0 0 0 0 0 0 0 0 0 0 0 0 0 0 0 0 0 0.335415461897582 0.195506783360226 0 0 0.125321471169563 0.633332146296215 0 0 0.107482911492735 0 0.0995845887436865 0.099494209593478 0 0 0 0 0 0 0 0 0 0 0 0 0 0 0
0 0 0 0 0 0 0 0 0 0 0 0 0 0 0 0 0 0 0 0 0 0 0.104379794767232 0.438101218391381 0 0 0 0 0 0 0 0 0 0 0 0 0 0 0 0 0 0 0 0 0 0 0 0 0 0
0 0 0 0 0 0 0 0 0 0 0 0.144674939518849 0.629805956733133 0.115499413724018 0.0584495331150942 0.586585678406795 0 0.202791960074688 1.43150579589355 0.050478874039246 0 0.667672192406086 0.0482034198471399 1.37691827847218 0.0253234203572389 0 0 0 0 0 0 0 0 0 0 0 0 0 0 0 0 0 0 0 0 0 0 0 0 0
0 0 0 0 0 0 0 0 0 0 0 0 0 0 0 0 0 0 0 0 0 0 0 0 0 0 0 0 0 0 0.281633204474544 0 0.200181394360873 0.677902580752595 0.291690779746541 0.055276070987436 0 0 0 0 0 0 0 0 0 0 0 0 0 0
0 0 0 0 0 0 0 0 0 0 0 0 0 0 0 0 0 0 0 0 0 0 0 0 0 0 0 0 0 0 0 0 0 0 0 0.107857542696756 0.296019146811289 0.0331793423324883 0 0 0 0 0 0 0 0 0 0 0 0
