1.15752970601923
0.572165859444291
0.557372609089419
0.768034860123316
0.794288433839935
0.214892887609862
1.08449156967016
2.56388853343294
2.56288302301936
2.27472459756407
1.5399442960897
1.49967514974875
1.47434357907945
1.21474673653364
0.670942764089352
0.278039764868902
0.379534897031852
0.275772607407807
0.365340025892978
0.767554954887427
0.454571131351146
1.96737993657311
0.0989203010205299
2.39178114193217
2.24402212124622
0.859850238241206
0.465248192901613
0.611394853341092
1.28283259588116
0.548569897557898
0.460624745238395
1.62257721929748
1.32679439000157
1.92027776991232
1.68167076510438
3.14458360916019
1.31023217169096
1.33951084530663
0.418144247272654
0.686377151236381
0.76229452185309
0.672165758138774
0.173184701165175
1.57780899046887
2.36069962024898
0.632172970114628
0.631382318476202
0.628013253402305
0.384377433351475
1.00145678019839
