0.207018504651603
0.294394308089626
2.25019555913937
0.30869817173369
1.04907070378728
0.510655267633639
1.37863871725409
1.39123801504235
1.33304383135143
1.38951554242462
0.248629958120908
0.277171326202864
2.63748621576435
0.281377249374233
2.22293057298221
0.0561894124585787
0.307344544064533
0.378703758184051
2.09469811002434
0.169485948328834
0.494958469002204
0.136350045290742
6.97154714493227
1.08328446852004
2.44552867506794
1.02730249170539
0.584676401077357
0.0629382444081143
0.469579051663642
0.828999457147745
0.275116331256421
0.358458518604288
0.167595415270888
0.125972913384118
0.350905578673463
0.6511124086626
0.0445102661671791
1.1803719702217
0.455156928701726
0.419450331759784
8.24999752152121
0.744201580669336
0.11755519366152
0.367738024688723
1.19837356925893
0.0610312691476865
0.538691543331932
2.17542007230698
0.230301929319816
0.781426720071439
