0 0 0 0 0 0 0 -0.146108089297497 0 0 0 0 0 0 0 0 0 0 0 0 0 0 0 0 0 0 0 0 0 0 0 0 0 0 0 0 0 0 0 0 0 0 0 0 0 0 0 0 0 0
0 0 -0.506722322141256 0 0 -2.64011670454641 0 0 0 0 0 0 0 0 0 0 0 0 0 0 0 0 0 0 0 0 0 0 0 0 0 0 0 0 0 0 0 0 -1.78525372423455 0 0 0 0 0 0 0 0 0 0 0
0 0.104688643891982 0 0 0 0 0 -1.61599377466924 -0.529248837526578 -1.18224395041808 -1.9448497288775 0 0 0 0 0 0 0 0 0 0 0 0 0 0 0 0 0 0 0 0 0 0 0 0 0 0 0 0 0 0 0 0 0 0 0 0 0 0 0
0 0 0 0 0 0 0 0 -0.41226408858137 -0.260702886771264 0 0 0 0 0 0 0 0 0 0 0 0 0 0 0 0 0 0 0 0 0 0 0 0 0 0 0 0 0 0 0 0 0 0 0 0 0 0 0 0
0 0 0 0 0 0 -3.84625062203728 0 0 -8.0398625124435 0 0 0 0 0 0 0 0 0 0 0 0 0 0 0 0 0 0 0 0 0 0 0 0 0 0 0 0 0 0 0 0 0 0 0 0 0 0 0 0
0 0.465279666623708 0 0 0 0 0 0 0 0 0 0 0 -1.61033935922569 0 0 0 0 0 0 0 0 -1.45980630228038 0 -0.884472562600844 0 0 0 -1.23580285217086 0 0 0 0 0 0 0 0 0 0 0 0 0 0 0 0 0 0 0 0 0
0 0 0 0 0.731987668957758 0 0 0 0 0 0 0 0 0 0 -1.32599539470577 0 0 0 0 0 0 -1.47802120610564 0 -2.61892566100514 0 0 0 -0.741313700113457 0 0 0 0 0 0 0 0 0 0 0 0 0 0 0 0 0 0 -2.88830180454253 0 0
0.0312267895761874 0 0.311692960024517 0 0 0 0 0 0 0 0 0 0 0 0 -0.742194187746417 0 0 0 0 0 0 0 0 -2.4474925218521 0 0 0 -0.50365328029171 0 0 0 0 0 0 0 0 0 0 0 0 0 0 0 0 0 0 -1.24459913331914 0 -0.748965547158263
0 0 0.103632166742879 0.0861517621652141 0 0 0 0 0 0 0 0 0 0 0 -2.80133206480642 0 0 0 0 0 0 0 0 0 0 0 0 -1.72329430937663 0 0 0 0 0 0 0 0 0 0 0 0 0 0 0 0 0 0 -0.643672643977981 0 0
0 0 0.244366353983163 0.0473258897963735 1.53292688574384 0 0 0 0 0 0 0 0 0 0 -0.724599040272076 -0.639006955918349 0 0 0 0 0 0 0 0 0 0 0 0 0 0 0 0 0 0 0 0 0 0 0 0 0 0 0 0 0 0 0 -0.958015333317362 0
0 0 0.424922127312209 0 0 0 0 0 0 0 0 0 0 0 0 -1.72766077328159 -0.241920719995315 0 0 0 0 0 0 0 0 0 0 0 0 0 0 0 0 0 -3.02370335075286 0 0 0 0 0 0 0 0 0 0 0 0 0 -1.18149850306137 0
0 0 0 0 0 0 0 0 0 0 0 0 0 0 0 0 -0.680394498854146 0 -0.33202460754121 0 0 0 0 0 0 0 -0.161478902510859 0 0 0 0 0 0 0 0 0 0 0 0 0 -1.36083636680543 0 0 0 0 0 0 0 0 0
0 0 0 0 0 0 0 0 0 0 0 0 0 0 0 0 -1.41255862323909 -0.720748373675663 0 0 0 0 0 0 0 0 0 0 0 0 0 0 0 0 0 0 0 0 0 0 -0.837842306826129 0 0 0 0 0 0 0 -0.778120017858188 0
0 0 0 0 0 0.320397557169813 0 0 0 0 0 0 0 0 0 0 -2.60700874378609 -0.358758167498044 -0.220835264021257 0 0 0 0 0 0 0 0 0 0 0 0 0 0 0 0 0 0 0 0 0 -1.47703536162095 0 0 0 0 0 0 0 -3.88521812700266 0
0 0 0 0 0 0 0 0 0 0 0 0 0 0 0 0 0 -0.100742292630834 0 0 0 0 0 0 0 0 -1.81628276590349 0 0 0 -1.48276992542248 0 0 0 -1.91281746664449 0 0 0 0 0 -2.23654381796293 0 0 0 0 0 0 0 0 0
0 0 0 0 0 0 0.262617661455492 0.145676815453583 0.551443311148879 0.148557150425766 0.33861523255777 0 0 0 0 0 0 0 -1.97231863348443 0 0 0 0 0 0 0 -3.86633146185182 0 0 0 -0.948264396777692 0 0 0 -6.54526777869245 0 0 0 0 0 0 0 0 0 0 0 0 0 0 0
0 0 0 0 0 0 0 0 0 0.122639760579586 0.0501299840042147 0.129340054324431 0.283409159659463 0.529579878144469 0 0 0 0 -0.78822173604483 0 0 0 0 0 0 0 -0.466642690683159 0 0 0 0 0 0 0 -1.62368197823394 0 0 0 0 0 -0.295827857379733 0 0 0 0 0 0 0 0 0
0 0 0 0 0 0 0 0 0 0 0 0 0.148432107559 0.0723757384510882 0.0192226142788717 0 0 0 0 0 0 -1.15381062606906 0 0 0 0 -0.757521453654677 0 0 0 0 0 0 -1.14276515408775 0 0 0 0 0 0 -1.1161191481201 0 0 0 0 0 0 0 0 0
0 0 0 0 0 0 0 0 0 0 0 0.066974577410165 0 0.0445263633857067 0 0.377850461685697 0.158007920781502 0 0 0 0 -2.21748848254466 0 0 0 0 -1.08045245747199 0 0 0 0 0 0 -2.46027301808673 0 0 0 0 0 0 -1.19901368745341 0 0 0 0 0 0 0 0 0
0 0 0 0 0 0 0 0 0 0 0 0 0 0 0 0 0 0 0 0 0 0 0 -6.77268144340101 0 0 0 0 0 0 0 0 0 -2.35670148766045 0 0 0 0 0 0 0 0 0 0 0 0 0 0 0 0
0 0 0 0 0 0 0 0 0 0 0 0 0 0 0 0 0 0 0 0 0 -0.490241530084184 0 0 0 0 0 0 0 0 0 0 0 0 0 0 0 0 0 0 0 0 0 0 0 0 0 0 0 0
0 0 0 0 0 0 0 0 0 0 0 0 0 0 0 0 0 0.216509146391889 0.418515497486773 0 0.106738191458493 0 0 -0.816521086544768 0 0 0 0 0 0 0 0 0 0 0 0 0 0 0 0 0 0 0 0 0 0 0 0 0 0
0 0 0 0 0 0.310770376545532 0.301851555363002 0 0 0 0 0 0 0 0 0 0 0 0 0 0 0 0 -0.307028549218273 0 0 0 0 0 0 0 0 0 0 0 0 0 0 0 0 0 0 0 0 0 0 0 0 0 0
0 0 0 0 0 0 0 0 0 0 0 0 0 0 0 0 0 0 0 1.22206780624297 0 0.155670193191925 0.0627543852708052 0 0 0 0 0 0 0 0 0 0 -0.514415728202614 0 0 0 0 0 0 0 0 0 0 0 0 0 0 0 0
0 0 0 0 0 0.156943674041503 0.500959123893117 0.469249219722884 0 0 0 0 0 0 0 0 0 0 0 0 0 0 0 0 0 0 0 0 0 0 0 -2.7712251212588 0 -0.90177515902161 0 0 0 0 0 0 0 0 0 0 0 0 0 0 0 0
0 0 0 0 0 0 0 0 0 0 0 0 0 0 0 0 0 0 0 0 0 0 0 0 0 0 0 0 0 0 0 -0.14239736309228 0 -3.58358142058585 0 0 0 0 0 0 0 0 0 0 0 0 0 0 0 0
0 0 0 0 0 0 0 0 0 0 0 0.029813279976594 0 0 0.376104592009881 0.799296854956842 0.0884273213561935 0.165143845495757 0.206186753233361 0 0 0 0 0 0 0 0 0 0 0 0 -1.47174399352723 -2.18677672583253 0 0 0 0 0 0 0 0 0 0 0 0 0 0 0 0 0
0 0 0 0 0 0 0 0 0 0 0 0 0 0 0 0 0 0 0 0 0 0 0 0 0 0 0 0 0 0 0 0 -0.885162565285802 0 0 0 0 0 0 -2.24073299512472 0 0 0 0 0 0 0 0 0 0
0 0 0 0 0 0.259698898143829 0.15271195575063 0.0995228432298006 0.335797074702322 0 0 0 0 0 0 0 0 0 0 0 0 0 0 0 0 0 0 0 0 0 0 -0.892252641014551 0 0 0 0 0 0 0 0 0 0 0 0 0 0 0 0 0 0
0 0 0 0 0 0 0 0 0 0 0 0 0 0 0 0 0 0 0 0 0 0 0 0 0 0 0 0 0 0 0 0 0 0 0 0 0 0 0 0 0 0 0 0 0 -0.129662078695262 0 0 0 0
0 0 0 0 0 0 0 0 0 0 0 0 0 0 0.299527254129607 0.18869649294072 0 0 0 0 0 0 0 0 0 0 0 0 0 0 0 0 0 0 0 0 0 0 0 0 0 0 0 0 0 0 -5.23327903701962 0 0 0
0 0 0 0 0 0 0 0 0 0 0 0 0 0 0 0 0 0 0 0 0 0 0 0 0.581049495914437 0.0292996554121735 0.30129423324465 0 0.178452713459681 0 0 0 0 0 0 0 0 0 0 0 0 0 0 0 0 -0.710158511372936 0 0 0 0
0 0 0 0 0 0 0 0 0 0 0 0 0 0 0 0 0 0 0 0 0 0 0 0 0 0 0.413401072842307 0.177366707344447 0 0 0 0 0 0 0 0 -3.55407658890599 0 0 0 0 0 0 0 0 -0.51073751928656 -2.14551634744625 0 0 0
0 0 0 0 0 0 0 0 0 0 0 0 0 0 0 0 0 0.234984851058456 0.492651222069331 0.476911313950008 0 0 0 0.110513846658218 0.168730924731953 0.746124488778692 0 0 0 0 0 0 0 0 0 0 -0.951112118495854 0 0 0 0 0 0 0 0 -0.693240130526427 -1.33785967919469 0 0 0
0 0 0 0 0 0 0 0 0 0 0.655709493184087 0 0 0 0.411878469378535 1.14648870902338 0.297288116355949 0 0 0 0 0 0 0 0 0 0 0 0 0 0 0 0 0 0 0 0 0 0 0 0 0 0 0 0 -0.257367017072849 -2.22212308863136 0 0 0
0 0 0 0 0 0 0 0 0 0 0 0 0 0 0 0 0 0 0 0 0 0 0 0 0 0 0 0 0 0 0 0 0 0 0 0 0 0 0 0 0 0 0 0 0 -1.32823778329705 -1.00638949654635 0 0 0
0 0 0 0 0 0 0 0 0 0 0 0 0 0 0 0 0 0 0 0 0 0 0 0 0 0 0 0 0 0 0 0 0.696498198615668 0.187661586574884 0 0 0 0 0 0 0 0 0 0 0 -1.92433216922675 -0.0927487419327232 0 0 0
0 0 0 0 0 0 0 0 0 0 0 0 0 0 0 0 0 0 0 0 0 0 0 0 0 0 0 0 0 0 0 0 0 0 0 0 0 0 0 0 0 0 0 0 0 -1.34484039479181 -0.273627901723985 0 0 0
0 0.353778970271286 0 0 0 0 0 0 0 0 0 0 0 0 0 0 0 0 0 0 0 0 0 0 0 0 0 0 0 0 0 0 0 0 0 0 0 0 0 0 0 0 -0.383064891591587 0 0 0 -0.298854729468727 0 0 0
0 0 0 0 0 0 0 0 0 0 0 0 0 0 0 0 0 0 0 0 0 0 0 0 0 0 0 0.453085949691859 0 0 0 0 0 0 0 0 0 0 0 0 0 0 0 0 0 0 0 0 0 0
0 0 0 0 0 0 0 0 0 0 0 0.282158333009734 0.178399889036535 0.311463079648593 0.447122315136208 0 0.0622832798385025 0.236732302858809 0.244209477658986 0 0 0 0 0 0 0 0 0 0 0 0 0 0 0 0 0 0 0 0 0 0 0 0 0 0 0 -0.700533960424356 0 0 0
0 0 0 0 0 0 0 0 0 0 0 0 0 0 0 0 0 0 0 0 0 0 0 0 0 0 0 0 0 0 0 0 0 0 0 0 0 0 0 0 0 0 0 0 0 0 -0.689053607347215 0 0 0
0 0 0 0 0 0 0 0 0 0 0 0 0 0 0 0 0 0 0 0 0 0 0 0 0 0 0 0 0 0 0 0 0 0 0 0 0 0 0.078066374056523 0 0 0 0 0 0 0 -1.88858239545292 0 0 0
0 0 0 0 0 0 0 0 0 0 0 0 0 0 0 0 0 0 0 0 0 0 0 0 0 0 0 0 0 0 0 0 0 0 0 0 0 0 0 0 0 0 0 0 0 0 -1.8780357767192 0 0 0
0 0 0 0 0 0 0 0 0 0 0 0 0 0 0 0 0 0 0 0 0 0 0 0 0 0 0 0 0 0 0 0 0 0 0 0 0 0 0 0 0 0 0 0 0 0 -0.371204392824417 0 0 0
0 0 0 0 0 0 0 0 0 0 0 0 0 0 0 0 0 0 0 0 0 0 0 0 0 0 0 0 0 0.026223653123397 0 0.146617396037915 0.0973655548428837 0.130420566977143 0.0470944488929467 0.236011174117242 0.385743557271999 0.286622590905464 0 0 0 0 0 0 0 0 -1.66800645293454 0 0 0
0 0 0 0 0 0 0 0 0 0 0 0 0 0 0 0 0 0 0 0 0 0 0 0 0 0 0 0 0 0 1.12567432647639 0 0.40674956970818 0.281942943007661 0.424221725296543 0.205536308952111 0.0196707745452182 0.0540105373853089 0.059854243544014 0 0.140535946950284 0.146924123450264 0.36690856279846 0.397604255193971 0.0722589123783805 0.312037902251001 0 0 0.0428334555147067 0
0 0 0 0 0 0 0.59162077417055 0.22771461803246 0.126947911378238 0 0 0 0 0 0 0 0 0 0 0 0 0 0 0 0 0 0 0 0 0 0 0 0 0 0 0 0 0 0 0 0 0 0 0 0 0 0 0 0 0
0 0 0 0 0 0 0 0 0 0.199741329768557 0.228227515207885 0 0.164356796477716 0.798681144443645 0 0 0 0 0 0 0 0 0 0 0 0 0 0 0 0 0 0 0 0 0 0 0 0 0 0 0 0 0 0 0 0 -0.205413908655718 0 0 0
0 0 0 0 0 0 0 0.138988642610735 0 0 0 0 0 0 0 0 0 0 0 0 0 0 0 0 0 0 0 0 0 0 0 0 0 0 0 0 0 0 0 0 0 0 0 0 0 0 0 0 0 0
