0.341215592527308
0.901898663763274
0.0842568541193611
0.500431394761492
0.903299826295168
0.709298684538003
0.0169789636633466
0.452043070741062
1.56015337717161
0.200838919235668
0.26985229032706
0.386890620106979
2.88656980938728
0.549838288725987
2.66194106982371
3.32283064728943
0.402604152969326
0.66236502389219
0.495546563589931
0.282087447916492
0.0696242145503267
0.412984415526977
0.466201130084389
0.40626931546931
0.581353479648174
0.115197310593141
0.571412908065997
1.38329757039328
2.57694991474954
0.378133568213572
1.89419015095946
0.437346279297859
2.81883084860962
1.10701017152062
0.186413013545683
0.404011737004777
1.48517584734263
0.114222689601953
0.451373101802926
0.130959769464804
1.16163968773301
0.469973024134352
1.11292216717906
0.632856768342094
0.120117546669135
1.06927455907808
0.901735463749074
2.06669008628371
1.80799468547307
0.152090834718429
