0 0 0 -0.248371053339141 0 -2.17416712384308 0 0 0 0 0 0 0 0 0 0 0 0 0 0 0 0 0 0 0 0 0 -1.75197725658598 0 0 0 0 0 0 0 0 0 0 0 0 0 0 0 0 0 0 0 0 0 0
0 0 0 0 0 -0.125654823388354 0 0 0 0 0 0 0 0 0 0 0 0 0 0 0 0 0 0 0 0 0 0 0 0 0 0 0 0 0 0 0 0 0 0 0 0 0 0 0 0 0 0 0 0
0 0 0 0 0 0 -1.16929047378614 0 0 0 0 -0.499487329072559 0 0 0 0 0 0 0 0 0 0 0 0 0 0 0 -1.86111736289452 0 0 0 0 0 0 0 0 0 0 0 0 0 0 0 0 0 0 0 0 0 0
0.0530328677920282 0 0 0 0 0 0 0 0 0 0 -1.98100661340037 0 0 0 0 0 0 0 0 0 0 0 0 0 0 0 -0.134856752165291 0 0 0 0 0 0 0 0 0 0 0 0 0 0 0 0 0 0 0 0 0 0
0 0 0 0 0 0 -3.18973113585872 0 0 0 0 -0.124469249675068 0 0 0 0 0 0 0 0 0 0 0 0 0 0 0 -1.50698568511277 0 0 0 0 0 0 0 0 0 0 0 0 0 0 0 0 0 0 0 0 0 0
0.426962106956857 0.0261311765286959 0 0 0 0 0 -1.78109033690821 -0.288109757980767 0 0 0 0 0 0 0 0 -1.2387204088224 0 0 0 0 0 0 0 0 0 -1.47487541853295 0 0 0 0 0 0 0 0 0 0 0 0 0 0 0 0 0 0 0 0 0 0
0 0 0.22785460773853 0 0.570759987806502 0 0 0 -2.95521970040343 0 0 0 0 0 0 0 0 -0.770854149703338 0 0 0 0 0 0 0 0 0 0 0 0 0 0 0 0 0 0 -1.31269542366508 0 0 0 0 0 0 0 0 0 0 0 0 0
0 0 0 0 0 0.343132692082576 0 0 0 0 0 0 0 0 0 0 0 -2.21111922566062 0 0 0 0 -2.5932108166075 0 0 0 0 -1.5143818244972 0 0 0 0 0 0 0 0 -0.706027605718762 0 0 0 0 0 0 0 0 0 0 0 0 0
0 0 0 0 0 0.0586690074599733 0.586160962539761 0 0 0 -0.24529748984306 0 0 0 0 0 0 0 0 0 0 0 0 0 0 0 0 -1.11403982244025 0 0 0 0 0 0 0 0 -0.700897175846065 0 0 0 0 0 0 0 0 0 0 0 0 0
0 0 0 0 0 0 0 0 0 0 0 0 -3.02746694808388 0 0 0 0 0 0 0 0 0 -3.15978233939582 0 0 0 0 0 0 0 0 0 0 0 0 0 -1.09014667295443 0 0 0 0 -0.71303390195052 0 0 0 0 0 0 0 0
0 0 0 0 0 0 0 0 0.0509022047551549 0 0 0 -0.287137727098354 0 0 0 0 0 0 0 0 0 -0.724225019188451 0 0 0 0 0 0 -6.39473724597585 0 0 0 0 0 0 -1.89342099880158 0 0 0 0 -0.74106397091629 0 0 0 0 0 0 0 0
0 0 0.095695321584035 0.387365171651961 0.0264342655096649 0 0 0 0 0 0 0 -2.06432832783511 0 0 0 0 0 0 0 0 0 0 0 0 0 0 0 0 -1.68181816804933 0 0 0 0 0 0 0 0 0 0 0 0 -0.170985760096499 0 0 0 -0.97042218857611 0 0 0
0 0 0 0 0 0 0 0 0 0.565452823450281 0.0535852617704967 0.408762876044848 0 0 0 0 0 0 0 0 0 0 0 0 0 0 0 0 0 -3.92978390698273 0 0 0 0 0 0 -0.342064423733449 0 0 0 0 -1.20250127245331 -1.39109610329265 0 0 0 -0.259848212503865 0 0 0
0 0 0 0 0 0 0 0 0 0 0 0 0 0 0 0 -1.1033514448904 0 0 0 0 0 0 0 -0.36635923576054 0 0 0 0 0 0 0 0 0 0 0 -2.82366548346082 0 0 0 0 0 -0.406252989610426 0 0 0 0 0 0 0
0 0 0 0 0 0 0 0 0 0 0 0 0 0 0 0 0 0 -0.795974823747244 0 0 -0.369981238007436 0 0 0 0 0 0 0 0 0 0 0 0 0 -0.45325453066916 0 0 0 0 0 0 -1.26660871560081 0 0 0 0 0 0 0
0 0 0 0 0 0 0 0 0 0 0 0 0 0 0 0 0 0 -0.0871108065121028 0 0 -1.67037836733964 0 0 0 0 0 0 0 0 0 0 0 0 0 -2.56584019971335 0 0 0 0 0 0 -1.11522847748102 0 0 0 0 0 0 0
0 0 0 0 0 0 0 0 0 0 0 0 0 0.212626994951562 0 0 0 0 -0.685598113514111 0 0 -0.665198575337117 0 -1.72887446295671 0 0 0 0 0 0 0 0 0 0 0 -0.347405379130631 0 0 0 0 0 0 -4.08315560835777 0 0 0 0 0 0 0
0 0 0 0 0 0.239410277434856 0.155472318155917 0.400607943434417 0 0 0 0 0 0 0 0 0 0 -0.452888596935337 0 0 -8.89520890014068 0 -0.565917806724357 0 0 0 0 0 0 0 0 0 0 0 -0.518233491079729 0 0 0 0 0 0 -1.89588136844811 0 0 0 0 0 0 0
0 0 0 0 0 0 0 0 0 0 0 0 0 0 0.170218674855669 0.0182647119195735 0.149238183033642 0.0917258575676391 0 0 0 -0.757310130580565 0 0 0 0 0 0 0 0 0 0 -0.466962693364827 0 0 -1.72448750620181 0 0 0 0 0 0 -3.95800124567498 0 0 0 0 0 0 0
0 0 0 0 0 0 0 0 0 0 0 0 0 0 0 0 0 0 0 0 0 -2.58125847197528 0 0 0 0 0 0 0 0 0 0 0 0 0 -0.50711028561176 0 0 0 0 0 0 -0.882980734753714 0 0 0 0 0 0 0
0 0 0 0 0 0 0 0 0 0 0 0 0 0 0 0 0 0 0 0 0 0 0 0 0 0 0 0 0 0 0 0 0 0 0 -3.25865758455966 0 0 0 0 0 0 -1.61892044031488 0 0 0 0 0 0 0
0 0 0 0 0 0 0 0 0 0 0 0 0 0 0.0738898860916716 0.330400962485406 0.130497374320785 1.71709757433745 0.141223347229349 0.510165740928801 0 0 0 0 0 0 -1.42091307033039 0 0 0 0 0 0 0 0 0 0 0 0 0 0 0 -0.801371824206337 0 0 0 0 0 0 0
0 0 0 0 0 0 0 0.516253223929972 0 0.628995486874624 0.151767830777811 0 0 0 0 0 0 0 0 0 0 0 0 0 0 0 -0.178713738409218 0 0 0 0 0 0 0 0 -0.66093850633868 0 0 0 0 0 0 0 0 0 0 0 0 0 0
0 0 0 0 0 0 0 0 0 0 0 0 0 0 0 0 0.344373158792918 0.102719442272557 0 0 0 0 0 0 0 0 0 0 0 0 0 0 0 0 0 0 0 0 0 0 0 0 0 0 0 0 0 0 0 0
0 0 0 0 0 0 0 0 0 0 0 0 0 0.0737886480799244 0 0 0 0 0 0 0 0 0 0 0 0 0 0 0 0 0 0 0 0 0 -1.0913153469959 0 0 0 0 0 0 0 0 0 0 0 0 0 0
0 0 0 0 0 0 0 0 0 0 0 0 0 0 0 0 0 0 0 0 0 0 0 0 0 0 0 0 0 0 0 -1.88758288116756 0 0 -0.433308831739217 -0.488666723594774 0 0 0 0 0 0 0 0 0 0 0 0 0 0
0 0 0 0 0 0 0 0 0 0 0 0 0 0 0 0 0 0 0 0 0 0.291629874463261 0.0341422733013932 0 0 0 0 0 0 0 0 0 0 0 0 0 0 0 0 0 0 0 0 0 0 -0.91249529090316 0 0 0 0
0.354078192043316 0 0.371282692719356 0.0261131384194789 0.291885168002314 0.28413868806816 0 0.311467652505626 0.234556017984511 0 0 0 0 0 0 0 0 0 0 0 0 0 0 0 0 0 0 0 0 0 0 -0.813377847851579 0 0 -2.79453704406694 0 0 0 0 0 0 0 0 0 0 -0.312242070170657 0 0 0 0
0 0 0 0 0 0 0 0 0 0 0 0 0 0 0 0 0 0 0 0 0 0 0 0 0 0 0 0 0 0 0 -1.96028853194145 0 0 -1.10922961935931 0 0 0 0 0 0 0 0 0 0 -0.269438318163113 0 0 0 0
0 0 0 0 0 0 0 0 0 0 1.33940360727668 0.31834161278374 0.853633738396376 0 0 0 0 0 0 0 0 0 0 0 0 0 0 0 0 0 0 0 0 0 0 0 0 0 0 0 0 0 0 0 -2.01420860277672 -0.438745969802958 0 0 0 0
0 0 0 0 0 0 0 0 0 0 0 0 0 0 0 0 0 0 0 0 0 0 0 0 0 0 0 0 0 0 0 0 0 0 0 0 0 0 0 0 -0.282596907864564 0 0 -0.954669614403813 -1.45826187357207 0 0 0 0 0
0 0 0 0 0 0 0 0 0 0 0 0 0 0 0 0 0 0 0 0 0 0 0 0 0 0.396655142081676 0 0.159733377397333 0.404280315065587 0 0 0 0 0 0 0 0 0 0 0 -1.28756539453246 0 0 -1.13542919742441 0 0 0 0 0 0
0 0 0 0 0 0 0 0 0 0 0 0 0 0 0 0 0 0 0.102275410737308 0 0 0 0 0 0 0 0 0 0 0 0 0 0 0 0 0 0 0 0 0 -1.08309362394699 0 0 -1.59709588902465 -3.61835838984139 0 0 0 0 0
0 0 0 0 0 0 0 0 0 0 0 0 0 0 0 0 0 0 0 0 0 0 0 0 0 0 0 0 0 0 0 0 0 0 0 0 0 0 0 0 -0.454672664768789 0 0 -6.1375472786229 -0.489630720501514 0 0 0 0 0
0 0 0 0 0 0 0 0 0 0 0 0 0 0 0 0 0 0 0 0 0 0 0 0 0 0.0905195159547954 0 0.546485499399197 0.222614721232874 0 0 0 0 0 0 0 0 0 0 0 -1.45737810278212 0 0 -7.06657141353987 -0.187703982961659 0 0 0 0 0
0 0 0 0 0 0 0 0 0 0 0 0 0 0 0.089469674498809 0.504783276351786 0.0757346390012085 0.105775369979056 0.347000146521218 0.0944748023729987 0.742462389709762 0 0.135858640104982 0 0.197958309184562 0.097875320786811 0 0 0 0 0 0 0 0 0 0 0 0 0 0 0 0 0 0 0 0 0 0 0 0
0 0 0 0 0 0 0.281059317738305 0.146612345563417 0.144379046486181 0.203454843983204 0.33454170736453 0 0.0699315384199613 0.578757330747149 0 0 0 0 0 0 0 0 0 0 0 0 0 0 0 0 0 0 0 0 0 0 0 0 0 0 -1.1793276818174 0 0 0 0 0 0 0 0 -0.497090335268032
0 0 0 0 0 0 0 0 0 0 0 0 0 0 0 0 0 0 0 0 0 0 0 0 0 0 0 0 0 0 0 0 0 0 0 0 0 0 0 0 -2.76905889726966 0 0 0 0 0 0 -1.95895489513077 0 0
0 0 0 0 0 0 0 0 0 0 0 0 0 0 0 0 0 0 0 0 0 0 0 0 0 0 0 0 0 0 0 0 0 0 0 0 0 0 0 0 -0.700719318385941 0 0 0 0 0 0 0 0 0
0 0 0 0 0 0 0 0 0 0 0 0 0 0 0 0 0 0 0 0 0 0 0 0 0 0 0 0 0 0 0 0 0 0 0 0 0 0 0 0 0 0 0 0 0 0 0 -0.961830271125065 0 0
0 0 0 0 0 0 0 0 0 0 0 0 0 0 0 0 0 0 0 0 0 0 0 0 0 0 0 0 0 0 0.0601375084813642 0.267610075006069 0.206475775277682 0.0874085410802844 0.284002922733979 0 0.23571911394473 0.533426661002858 0.151608314638421 0 0 0 0 0 0 0 0 -2.47313280858492 0 -1.78193550180526
0 0 0 0 0 0 0 0 0 0.146329148577955 0.156340973998322 0 0.242447978362657 0 0 0 0 0 0 0 0 0 0 0 0 0 0 0 0 0 0 0 0 0 0 0 0 0 0 0 0 0 0 0 0 0 0 -2.94454819006568 -0.655693109445306 -1.69431718957648
0 0 0 0 0 0 0 0 0 0 0 0.0346889007839252 0.303052590415584 0.0751188626846154 0.247709064920773 0.247720199868707 0.804725316269243 0.364699904530672 0.799783473049794 0.185361027278532 0.338250042106734 0.161945987451216 0 0 0 0 0 0 0 0 0 0 0 0 0 0 0 0 0 0 0 0 0 0 0 0 0 -1.72073939414196 -0.40963843245741 -0.481073660556769
0 0 0 0 0 0 0 0 0 0 0 0 0 0 0 0 0 0 0 0 0 0 0 0 0 0 0 0 0 0 0.187473451832247 0.21708406270709 0.286574536382759 1.27274452010318 1.36243039185313 0 0 0 0 0 0 0 0 0 0 0 0 -1.92280046464988 0 -0.437033376896452
0 0 0 0 0 0 0 0 0 0 0 0 0 0 0 0 0 0 0 0 0 0 0 0 0 0 0 0 0 0.424188733014044 0.296611092162855 0 0.726885753717215 0.0991043773864026 0.0362850340566431 0 0 0 0 0 0 0 0 0 0 0 0 0 0 0
0 0 0 0 0 0 0 0 0 0 0 0 0 0 0 0 0 0 0 0 0 0 0 0 0 0 0.190334035601793 0.0654869448200609 0.0522196641833901 0.0924810972505684 0 0 0 0 0 0 0 0 0 0 0 0 0 0 0 0 0 0 0 0
0 0 0 0 0 0 0 0 0 0 0 0.194801606564084 0.0543511150011568 0 0 0 0 0 0 0 0 0 0 0 0 0 0 0 0 0 0 0 0 0 0 0 0 0 0 0 0 0 0 0 0 0 0 0 0 0
0 0 0 0 0 0 0 0 0 0 0 0 0 0 0 0 0 0 0 0 0 0 0 0 0 0 0 0 0 0 0 0 0 0 0 0 0 0.398286055426016 0 0.204720298132043 0.539464883952266 0.574239969292011 0.362009706583058 0.364310718277784 0 0 0 0 0 0
0 0 0 0 0 0 0 0 0 0 0 0 0 0 0 0 0 0 0 0 0 0 0 0 0 0 0 0 0 0 0 0 0 0 0 0 0 0 0 0 0 0.115141356182916 0.0752945056591569 0 0 0 0 0 0 0
0 0 0 0 0 0 0 0 0 0 0 0 0 0 0 0 0 0 0 0 0 0 0 0 0 0 0 0 0 0 0 0 0 0 0 0 0.0984509735164801 0 0 0 0.386453733913515 0.360921434351403 0.0974217551827189 0.0867257636155927 0 0 0 0 0 0
