0.512962741171157
0.348659065413354
6.2993772323655
0.209838481921003
4.60656288604082
0.158411228718983
1.4275190510206
0.0815002341957921
0.183560813096352
0.841207649264551
3.30105444624784
1.88511709992222
1.47681250587163
0.302897485941712
0.626415686942498
0.653534840423604
0.580744138248698
1.05609814759458
0.0709666885025506
0.48736135605611
0.309188267216673
0.459552502067436
1.61492027547641
0.68432652342012
1.3196095816234
4.56349778764055
0.911283247333927
3.15876270956766
0.682626757841988
2.15658878169049
0.0637614829785483
0.0532658915561432
5.04794752621285
0.744019170046369
0.563708529133022
0.723866209619651
0.120417292794856
0.723397805107125
2.032248601339
1.78828088185801
6.43596945257417
0.280167094204294
1.47525592756859
0.91026111484997
2.59638484430671
0.7727585701848
0.574391061996055
0.348774109184321
0.420233124249131
1.78741769676992
