0.448361631762986
0.0419834049064117
0.524026693686246
1.34275396448258
0.289527479894969
0.149959378398746
0.808036520899591
0.364628563918451
0.328238134783397
0.201366321990249
0.168831393151982
0.0480793882774504
2.083401254652
0.204033085965058
0.389135895999333
1.80373094916043
0.147512323020114
0.627187838999108
4.40887791639181
0.475739541378045
1.44399038509234
2.9229294516949
0.0411003452800481
0.0468099661131033
1.30975197585505
0.305237387068067
1.22789320491053
0.187679744561037
0.205049610881815
0.158733777597137
0.180062291460882
1.22255541262638
0.0421691967224116
1.59038059577199
0.117439136294555
1.14516733121212
0.347147548699943
8.19058624843118
0.00294686860714347
1.24910970234414
0.155369283660066
0.406935263043835
1.47376361877634
0.0675105366899958
4.18799584954155
2.46313723867579
2.14906928241162
0.328522766684998
0.152017382993919
4.55190732855488
