0.688551012392118
0.0195738610385996
0.384839216800625
2.40570915130252
0.114712074280921
0.888265233000492
0.351924561251094
0.632760933668946
0.701132426006839
0.521469137583999
0.996195772893458
0.977189680467325
0.342064378590015
0.426175484420877
4.53706274561822
0.420663216632684
0.0909216047993178
2.50842992076746
0.147329130905714
0.818399459264375
1.02397209878165
0.224465451310375
0.414942512120616
0.145441430548443
0.606447296444464
0.122739757584262
1.4828090664736
0.490104616958768
3.62117097674617
0.129780039167687
1.45345866168861
0.548545733397173
0.320377724492823
3.21363370798179
0.125731321670269
0.139023455404948
3.9114996676656
0.185938825983132
0.09821776492403
1.58765606296021
0.344953256236195
0.270109295490337
0.229511424233541
0.333897262258104
0.0888352594568732
0.0757226658363833
0.15597415439561
4.37880818898399
0.385426060960244
3.11404749924291
