0 0 0 0 0 -0.678993906874932 0 0 0 0 0 0 0 0 0 0 0 0 0 0 0 0 0 0 0 0 0 0 0 0 0 0 0 0 0 0 0 0 0 0 0 0 0 0 0 0 0 0 0 0
0 0 -3.94838418264506 0 0 0 0 0 0 0 0 0 0 0 0 0 0 0 0 -2.70986861137275 0 -0.970498011489764 0 0 0 0 0 0 0 0 0 0 0 0 0 0 0 0 0 0 0 0 0 0 0 0 0 0 0 0
0 0.808116898624753 0 0 0 0 0 0 0 0 0 0 0 0 0 0 0 0 0 -2.07361299218716 0 -0.627815785225423 -0.293992218337772 0 0 0 0 0 0 0 0 0 0 0 0 0 0 0 0 0 0 0 0 0 0 0 0 0 0 0
0 0 0 0 0.764644598766192 0 0 0 0 0 0 0 0 0 0 0 0 0 0 0 0 -2.30411985320115 0 0 0 0 0 0 0 0 0 0 0 0 0 0 0 0 -0.733929465225465 0 0 0 0 0 0 0 0 0 0 0
0 0 0 -3.69710679789259 0 0 0 0 -0.438047316778649 0 0 0 0 0 0 0 0 0 0 0 0 -0.358981532209904 0 0 0 0 0 0 0 0 0 0 0 0 0 -3.91571573066791 0 0 -0.745007827230472 0 0 0 0 0 0 0 0 0 0 0
0.150395509468183 0 0 0 0 0 -1.83129801818224 0 0 0 0 0 0 -0.797910959885378 0 0 0 0 0 0 0 -0.0997726574036263 -1.23226533997763 0 0 0 0 0 0 0 0 0 0 0 0 -0.170452325147557 0 0 -2.58916984042375 0 0 0 0 0 0 0 0 0 0 0
0 0 0 0 0 0.339042076788137 0 0 0 0 0 0 0 0 0 0 0 0 0 0 0 -3.63187190060591 0 0 0 0 0 0 0 0 0 0 0 0 0 0 0 0 -1.33633445565698 0 0 0 0 0 0 0 0 -0.401113221948328 0 0
0 0 0 0 0 0 0 0 0 0 0 0 0 0 0 0 -1.75299914226427 0 0 0 0 0 0 -0.595111399274568 0 0 0 0 0 0 0 0 0 0 0 0 0 0 0 0 0 0 0 0 0 0 0 0 0 0
0 0 0 0 0.092401947203669 0 0 0 0 0 0 0 0 0 0 0 -0.516654080458366 0 0 0 0 0 0 -1.04382216051059 0 0 0 0 0 0 0 0 0 0 0 0 0 0 0 0 0 0 0 0 0 0 0 0 0 0
0 0 0 0 0 0 0 0 0 0 0 0 0 0 0 0 0 0 0 0 0 0 0 0 0 0 0 0 -8.92203493123599 0 0 0 0 0 0 0 0 0 0 0 0 0 0 0 0 0 0 0 0 0
0 0 0 0 0 0 0 0 0 0 0 0 0 0 0 -1.67590349422773 0 0 0 0 -0.495256673737585 0 0 0 0 0 0 0 -0.409969708765478 0 0 0 0 0 0 0 0 0 0 0 0 0 0 0 0 0 0 0 0 0
0 0 0 0 0 0 0 0 0 0 0 0 0 0 0 -0.285722474244144 0 0 -0.911969619166506 0 0 0 0 0 0 0 0 0 0 0 -0.87756891966395 -1.2456026044906 0 -0.698227862760968 0 0 0 0 0 0 0 0 0 0 0 0 0 0 0 0
0 0 0 0 0 0 0 0 0 0 0 0 0 0.197527213649261 0.0886539698094842 -4.5274702045107 0 0 -0.35581744542657 0 0 0 0 0 0 0 0 0 0 0 -0.295143176597353 0 0 -0.517039282217658 0 0 0 0 0 0 0 0 0 0 0 0 0 0 0 0
0 0 0 0 0 0.145983471945006 0 0 0 0 0 0 -1.0026641919914 0 0 -2.74901645127075 0 0 -0.660743668424245 0 0 0 0 0 0 0 0 0 0 0 -0.904160971855866 0 0 -0.280436192166219 0 0 0 0 0 0 0 0 0 0 0 0 0 0 0 0
0 0 0 0 0 0 0 0 0 0 0 0 -0.439036677634174 0 0 0 0 0 0 0 0 0 0 0 0 0 0 0 0 0 -2.03586656592198 0 0 0 0 0 0 0 0 0 0 0 0 0 0 0 0 0 0 0
0 0 0 0 0 0 0 0 0 0 0.319107715326449 0.0596392541847094 0.951565700111855 0.586074673597623 0 0 0 0 0 0 0 0 0 0 0 0 0 0 0 0 0 0 0 0 0 0 -2.81403511769239 0 0 0 0 0 0 0 0 0 0 0 0 0
0 0 0 0 0 0 0 0.340335481814246 0.100660612455133 0 0 0 0 0 0 0 0 0 0 0 0 0 0 0 0 0 0 0 0 0 0 0 0 -0.53461263918053 0 0 -0.774944202954863 0 0 0 0 0 0 0 0 -0.545247790260023 0 0 0 0
0 0 0 0 0 0 0 0 0 0 0 0 0 0 0 0 0 0 0 0 0 0 0 0 0 0 0 0 0 0 0 0 0 -2.91594679326417 0 0 -0.363871581426343 0 0 0 0 0 0 0 -1.60681276671274 0 0 0 0 -0.753956358496839
0 0 0 0 0 0 0 0 0 0 0 0.192741472136116 0.0684908865553753 0.141913747252225 0 0 0 0 0 0 0 0 0 0 0 0 0 0 0 0 0 0 0 0 0 0 0 0 0 0 0 0 0 0 0 0 0 0 0 -0.936468759620564
0 0.545023960786406 0.415210367507537 0 0 0 0 0 0 0 0 0 0 0 0 0 0 0 0 0 0 0 0 0 0 0 0 0 0 0 0 0 0 0 0 0 0 0 0 0 0 0 0 0 0 0 0 0 0 0
0 0 0 0 0 0 0 0 0 0 0.104035783498819 0 0 0 0 0 0 0 0 0 0 0 0 0 0 0 0 0 0 0 0 0 0 0 0 0 0 0 0 0 0 0 0 0 -0.0783864213616991 0 0 0 0 -3.67970070072605
0 0.210760923018814 0.116061358779302 0.45373538932336 0.0707184434378204 0.0204042237204366 0.787817214578989 0 0 0 0 0 0 0 0 0 0 0 0 0 0 0 0 0 0 0 0 0 0 0 0 0 0 0 0 0 0 0 0 0 0 0 0 0 -5.89680320597951 0 0 0 0 -0.682804359116409
0 0 0.0584918283680991 0 0 0.235564704275021 0 0 0 0 0 0 0 0 0 0 0 0 0 0 0 0 0 0 0 0 0 0 0 -0.469124208997844 0 0 0 0 -2.95490048583321 0 0 0 0 0 0 0 0 0 -1.99117931662511 0 0 0 0 -1.53932805411302
0 0 0 0 0 0 0 0.121104650436709 0.212724208186084 0 0 0 0 0 0 0 0 0 0 0 0 0 0 0 0 0 0 0 0 -0.626633003962291 0 0 0 0 -0.963091472687243 0 0 0 0 0 0 0 0 0 -1.05640878727527 0 0 0 0 0
0 0 0 0 0 0 0 0 0 0 0 0 0 0 0 0 0 0 0 0 0 0 0 0 0 0 0 0 0 -0.554032499530284 0 0 0 0 -0.0248906745022343 0 0 0 0 -0.587732243864305 0 0 0 0 -1.97765431120535 0 0 0 -0.718464175684871 0
0 0 0 0 0 0 0 0 0 0 0 0 0 0 0 0 0 0 0 0 0 0 0 0 0 0 -0.381269856932427 0 0 -3.7096221752558 0 0 -3.35820525018551 0 -0.581936563996505 0 0 0 0 -1.69964100446777 0 0 0 0 -1.09667515874517 0 0 0 -0.285968764036909 0
0 0 0 0 0 0 0 0 0 0 0 0 0 0 0 0 0 0 0 0 0 0 0 0 0 0.0802302444358575 0 0 0 -2.8588521671372 0 0 -1.16758561876184 0 -1.04392590826772 0 0 0 0 -3.18873954388345 0 0 0 0 0 0 0 0 -0.555920863858637 0
0 0 0 0 0 0 0 0 0 0 0 0 0 0 0 0 0 0 0 0 0 0 0 0 0 0 0 0 0 0 0 0 -1.15905471423066 0 -1.66402962634648 0 0 0 0 -0.950118272575908 0 0 0 0 0 0 0 0 -0.226596267431461 0
0 0 0 0 0 0 0 0 0 1.84466690401162 0.0807234680418937 0 0 0 0 0 0 0 0 0 0 0 0 0 0 0 0 0 0 0 0 0 0 0 -3.34274872826285 0 0 0 0 0 0 0 0 0 0 0 0 0 0 0
0 0 0 0 0 0 0 0 0 0 0 0 0 0 0 0 0 0 0 0 0 0 0.100431409268456 0.115305398829302 0.118065681241264 0.719118557012753 0.526351584292348 0 0 0 0 0 -1.23751700676379 0 0 0 0 0 0 0 0 0 0 0 0 0 0 0 0 0
0 0 0 0 0 0 0 0 0 0 0 0.187664122818436 0.0626986773310751 0.182387267829485 0.432749103016068 0 0 0 0 0 0 0 0 0 0 0 0 0 0 0 0 0 -1.65900123970943 0 -5.20417880361117 0 0 0 0 -0.321881812327727 0 0 0 0 0 0 0 0 0 0
0 0 0 0 0 0 0 0 0 0 0 0.229599626561646 0 0 0 0 0 0 0 0 0 0 0 0 0 0 0 0 0 0 0 0 0 0 0 0 0 -1.12958321073753 0 0 0 0 0 0 0 0 -0.636180681712173 0 0 0
0 0 0 0 0 0 0 0 0 0 0 0 0 0 0 0 0 0 0 0 0 0 0 0 0 0.623081115385803 0.218863738983474 0.236225351696919 0 0.236062359143067 0.342143377382711 0 0 0 -0.535196728780561 0 0 0 0 -7.34347801852119 0 0 0 -1.0654626221575 0 0 0 0 0 0
0 0 0 0 0 0 0 0 0 0 0 0.154885188760337 0.109166840993429 0.0514757021061252 0 0 0.102370649345476 0.575343126041196 0 0 0 0 0 0 0 0 0 0 0 0 0 0 0 0 -0.363305438036338 0 0 -0.265664154490214 0 -0.163903051266494 0 0 0 -0.429284189423819 0 0 0 0 0 0
0 0 0 0 0 0 0 0 0 0 0 0 0 0 0 0 0 0 0 0 0 0 0.575009933155627 0.194249557954024 0.00480899274949824 0.113090502644601 0.210299334415865 0.366791258273946 0.690120673389553 0 1.00419891109439 0 0.115923799711957 0.0790141604666233 0 0.0988111533974031 0 -0.448412772436524 0 -0.875356766687128 0 0 0 0 0 0 -0.639992669287028 0 0 0
0 0 0 0 0.744557403499143 0.0325227139925211 0 0 0 0 0 0 0 0 0 0 0 0 0 0 0 0 0 0 0 0 0 0 0 0 0 0 0 0 -0.489914141070317 0 0 0 0 -0.125248054091769 0 0 0 0 0 0 -0.278414123981728 0 0 0
0 0 0 0 0 0 0 0 0 0 0 0 0 0 0 0.539750162177105 0.150518090719158 0.0645792531926012 0 0 0 0 0 0 0 0 0 0 0 0 0 0 0 0 0 0 0 0 0 -0.957416630153617 0 0 0 0 0 0 -1.51821309567896 0 0 0
0 0 0 0 0 0 0 0 0 0 0 0 0 0 0 0 0 0 0 0 0 0 0 0 0 0 0 0 0 0 0 0.222205743664059 0 0.0549556536441762 0.0810299697912727 0 0 0 0 -2.88533393668211 0 0 0 0 0 0 -0.380288297539736 0 0 0
0 0 0 0.143929783904468 0.14402841876854 0.517329019689938 0.26235444214544 0 0 0 0 0 0 0 0 0 0 0 0 0 0 0 0 0 0 0 0 0 0 0 0 0 0 0 0 0 0 0 0 0 0 -1.87115453608913 0 0 0 0 0 0 0 0
0 0 0 0 0 0 0 0 0 0 0 0 0 0 0 0 0 0 0 0 0 0 0 0 0.120179284974558 0.338208528200763 0.658638436408803 0.180786693816533 0 0 0.0688023448412997 0 1.45463884061373 0.0330945892392161 0.15658203763629 0.0237241032338522 0.192532445588688 0.539832320443134 0 0 0 0 0 0 0 0 -0.302715585084119 0 0 0
0 0 0 0 0 0 0 0 0 0 0 0 0 0 0 0 0 0 0 0 0 0 0 0 0 0 0 0 0 0 0 0 0 0 0 0 0 0 0 0 0 -0.331829879549766 0 0 0 0 0 0 0 0
0 0 0 0 0 0 0 0 0 0 0 0 0 0 0 0 0 0 0 0 0 0 0 0 0 0 0 0 0 0 0 0 0 0 0 0 0 0 0.359502959165647 0 0.0666060340028898 0 0 0 0 0 -0.399132560367206 0 0 0
0 0 0 0 0 0 0 0 0 0 0 0 0 0 0 0 0 0 0 0 0 0 0 0 0 0 0 0 0 0 0 0 0 0 0 0 0 0 0 0 0 0 0 0 0 0 -3.54146645683924 0 0 0
0 0 0 0 0 0 0 0 0 0 0 0 0 0 0 0 0 0 0 0 0 0 0 0 0 0 0 0 0 0 0 0 0.204974150919343 0.0875930029387197 0 0 0 0 0 0 0 0 0 0 0 0 0 0 0 0
0 0 0 0 0 0 0 0 0 0 0 0 0 0 0 0 0 0.316410481572518 0 0 0.0144201077047416 1.29062356739606 0.386632669161543 0.226696036349691 0.393043720482781 0.219067821214109 0 0 0 0 0 0 0 0 0 0 0 0 0 0 0 0 0 0 0 0 0 0 0 0
0 0 0 0 0 0 0 0 0 0 0 0 0 0 0 0 0.111595787780682 0 0 0 0 0 0 0 0 0 0 0 0 0 0 0 0 0 0 0 0 0 0 0 0 0 0 0 0 0 0 0 0 0
0 0 0 0 0 0 0 0 0 0 0 0 0 0 0 0 0 0 0 0 0 0 0 0 0 0 0 0 0 0 0 0.110510920566494 0 0 0.124696657225953 0.0612346095070262 0.314677773401206 0.0770648608616072 0 0.0583996334132567 0 0.0721892426579072 0.746475107447123 0 0 0 0 0 0 0
0 0 0 0 0 0 0.0788764947266177 0 0 0 0 0 0 0 0 0 0 0 0 0 0 0 0 0 0 0 0 0 0 0 0 0 0 0 0 0 0 0 0 0 0 0 0 0 0 0 0 0 0 0
0 0 0 0 0 0 0 0 0 0 0 0 0 0 0 0 0 0 0 0 0 0 0 0 0.146731800782422 0.0553721434179801 0.115588829851611 0.0463242747164331 0 0 0 0 0 0 0 0 0 0 0 0 0 0 0 0 0 0 0 0 0 0
0 0 0 0 0 0 0 0 0 0 0 0 0 0 0 0 0 0.148394619784203 0.184970475518098 0 0.711114260977341 0.139090766647487 0.288062803725913 0 0 0 0 0 0 0 0 0 0 0 0 0 0 0 0 0 0 0 0 0 0 0 0 0 0 0
