0 0 0 0 0 0 0 0 -0.476677843665241 0 0 0 0 0 0 0 0 0 0 0 0 0 0 0 0 0 0 0 0 0 -0.729076795324147 0 0 0 0 0 0 0 0 -2.56803675608502 0 0 0 0 0 0 0 0 0 0
0 0 0 0 0 0 0 0 -0.693968365745358 0 0 0 0 0 0 0 0 0 0 0 0 0 0 0 0 0 0 0 0 0 -0.13409714645213 0 0 0 0 0 0 0 0 -3.24171954324843 0 0 0 0 0 0 0 0 0 0
0 0 0 0 0 0 0 0 0 0 0 0 0 0 0 0 0 0 0 0 0 0 0 0 0 0 0 -1.94498094448802 0 0 0 0 0 0 0 0 0 0 0 0 0 0 0 0 0 0 0 0 0 0
0 0 0 0 0 0 0 0 0 0 0 0 0 0 0 0 -1.90053197941212 0 0 0 0 0 0 0 0 0 -0.229353749136805 -0.706651794902392 0 0 0 0 0 0 0 0 0 0 0 0 0 0 0 0 0 0 0 0 0 0
0 0 0 0 0 0 0 -2.76716809369269 0 0 0 0 0 0 0 -2.14476247270279 -1.06069010413328 -5.58476353096243 0 -0.910978259891778 0 0 0 0 0 0 0 0 0 0 0 0 0 -2.8542832653696 0 0 0 -1.00550303391865 0 0 0 0 0 0 0 0 0 0 0 0
0 0 0 0 0 0 0 0 0 0 0 0 0 0 0 0 -0.4207761633786 -0.259569166979661 0 -1.57022014903224 0 0 0 0 0 0 0 0 -1.41208646747858 0 0 0 0 0 0 0 0 -2.26963584704451 0 0 0 0 0 0 0 0 0 0 0 0
0 0 0 0 0 0 0 0 0 0 0 0 0 0 0 -3.17242030111632 -0.418648870676372 -0.956315373734893 0 -0.400235715651359 0 0 0 0 0 0 0 0 0 0 0 0 0 -0.827959687167895 0 0 0 0 0 0 0 0 0 0 0 0 0 0 0 0
0 0 0 0 0.556808573813916 0 0 0 0 0 0 0 0 0 0 0 -0.62043452241598 0 0 0 0 0 0 0 0 -1.32865959437784 0 0 0 0 0 0 0 0 0 0 0 0 0 0 0 0 0 0 0 0 0 0 0 0
0.101387164842444 0.137962493281514 0 0 0 0 0 0 0 0 0 0 0 0 0 0 -0.663652833960862 0 -1.00602658843769 -0.879350623311636 0 0 0 0 0 0 0 0 -1.28073049837354 0 0 0 0 0 0 0 0 -3.35024063937668 0 0 0 -0.277982411324189 0 0 0 0 0 0 0 0
0 0 0 0 0 0 0 0 0 0 0 0 0 0 0 0 0 0 -1.37409045356062 -6.79769636874556 0 0 0 0 0 -1.7066771548817 0 0 -0.649837509323848 0 0 0 0 0 0 0 0 -2.20973250767174 0 0 0 0 0 0 0 0 0 0 0 0
0 0 0 0 0 0 0 0 0 0 0 0 0 0 0 0 0 0 -1.99362020837987 0 0 0 0 0 0 -0.376459099108235 0 0 0 0 0 0 0 0 0 -0.763158471201201 0 0 0 0 0 -0.905246816884341 0 0 0 0 0 0 0 0
0 0 0 0 0 0 0 0 0 0 0 0 0 0 0 0 0 0 -1.37865870442242 -1.75524068923082 0 0 0 0 0 -0.178627632051264 0 0 0 0 0 0 0 0 0 -8.71612407204399 0 0 0 0 0 0 0 0 0 0 0 0 0 0
0 0 0 0 0 0 0 0 0 0 0 0 0 0 0 0 0 0 -1.34233684861194 -0.212718413818875 0 0 0 0 0 -0.439323928022502 0 0 0 0 0 0 0 0 0 -0.651590089662031 -1.57509853013119 0 0 0 0 0 0 0 0 0 0 0 0 0
0 0 0 0 0 0 0 0 0 0 0 0 0 0 0 0 0 0 0 0 0 0 0 0 0 -0.430413001480056 0 0 0 0 0 0 0 0 0 -0.360435312152628 0 0 0 0 0 0 -0.0945970856612888 0 0 -4.2419895929859 -0.799401630251413 0 0 0
0 0 0 0 0 0 0 0 0 0 0 0 0 0 0 0 0 0 0 0 0 0 0 0 0 0 0 0 0 0 0 0 0 0 0 0 0 0 0 0 0 0 -0.477476512866088 0 0 -0.397073529185351 0 0 0 0
0 0 0 0 0.442919073620165 0 0.611632128146443 0 0 0 0 0 0 0 0 0 0 0 0 0 0 0 0 0 0 -2.94112312871292 0 0 0 0 0 0 0 0 0 0 0 0 0 0 0 0 -0.877247232244882 0 0 0 0 0 0 0
0 0 0 0.382082123121211 0.221516778494488 0.0814667534296539 0.0872126982032828 0.125577923933251 0.14534030194789 0 0 0 0 0 0 0 0 0 0 0 0 0 0 0 0 0 0 0 0 0 0 0 0 0 -0.407339672632072 0 0 0 -1.75737659044934 0 0 0 -0.175597293197185 0 0 0 -1.62473012105891 0 0 0
0 0 0 0 1.08137102272155 0.0495114691120952 0.187962061221927 0 0 0 0 0 0 0 0 0 0 0 0 0 -0.314142019080922 0 0 0 0 0 0 0 0 0 0 0 0 0 -1.12808501469908 0 0 0 0 0 0 0 -2.03481519807467 0 0 0 0 0 0 0
0 0 0 0 0 0 0 0 0.204046420857891 0.243143312769769 0.408071621389519 0.273158913025444 0.274829046878461 0 0 0 0 0 0 0 -1.70032156114438 0 0 0 0 0 0 0 0 0 0 0 0 0 -3.01461620453402 0 0 0 0 0 0 0 -0.48143002488277 0 0 0 -0.770577971854032 0 0 0
0 0 0 0 0.186727836743737 0.334791895922458 0.0753130309876519 0 0.167026626159396 1.3138172744863 0 0.339778575978524 0.0474680622092655 0 0 0 0 0 0 0 -0.518598113004432 0 0 0 0 0 0 0 0 0 0 0 0 0 -0.523476718580042 0 0 0 -3.3738624818016 0 0 0 0 0 0 0 -1.69774254298772 0 0 0
0 0 0 0 0 0 0 0 0 0 0 0 0 0 0 0 0 0.0604430807467153 0.356063532176736 0.0933903168256967 0 0.187520235202356 0 0 0 0 0 0 0 -1.86266756542704 0 0 0 0 -5.14092534186447 0 0 0 -0.178236917575391 0 0 0 0 0 0 0 0 0 0 0
0 0 0 0 0 0 0 0 0 0 0 0 0 0 0 0 0 0 0 0 -0.954542789054876 0 0 0 0 0 0 0 0 -1.5295546002093 0 -0.722407784271143 0 0 -0.834391352671708 0 0 0 0 0 -1.25534788886105 0 -0.931747895952287 0 0 0 0 0 0 0
0 0 0 0 0 0 0 0 0 0 0 0 0 0 0 0 0 0 0 0 0 0 0 0 0 0 0 0 0 -1.64839668716117 0 -0.294981264894251 0 0 0 0 0 0 0 0 -5.45436381060704 0 0 0 0 0 0 0 0 0
0 0 0 0 0 0 0 0 0 0 0 0 0 0 0 0 0 0 0 0 0 0 0 0 0 0 0 0 0 -1.83954793413354 0 -0.267924745685821 0 0 0 0 0 0 0 0 0 0 0 -6.89548422119436 0 0 0 0 0 0
0 0 0 0 0 0 0 0 0 0 0 0 0 0 0 0 0 0 0 0 0 0 0 0 0 0 0 0 0 0 0 0 0 0 0 0 0 0 0 0 0 0 0 0 0 0 0 0 -1.17716264879573 0
0 0 0 0 0 0 0 0.245333746219468 0 0.345567715963812 0.0800524272529799 0.0362298198689566 0.0910404256133748 0.0833392317985943 0 0.571823074067041 0 0 0 0 0 0 0 0 0 0 0 0 0 0 0 0 0 0 0 0 0 0 0 0 0 0 0 0 0 0 0 0 -0.196021545401859 -0.496860140432287
0 0 0 0.0433607320574006 0 0 0 0 0 0 0 0 0 0 0 0 0 0 0 0 0 0 0 0 0 0 0 0 0 0 0 0 0 0 0 0 0 0 0 0 0 0 0 0 0 0 0 -0.550961714074516 -1.2562409952859 -1.08729771978428
0 0 0.406580982914065 0.133165234016571 0 0 0 0 0 0 0 0 0 0 0 0 0 0 0 0 0 0 0 0 0 0 0 0 0 0 0 0 0 0 0 0 0 0 0 0 0 0 0 0 0 0 0 -0.539222378863114 -0.510565656484248 0
0 0 0 0 0 0.286728018839062 0 0 0.240206128109034 0.130832351949634 0 0 0 0 0 0 0 0 0 0 0 0 0 0 0 0 0 0 0 0 0 0 0 0 0 0 0 0 0 0 0 0 0 0 -0.146690364278315 0 0 -0.83792093443811 -0.314894152827886 0
0 0 0 0 0 0 0 0 0 0 0 0 0 0 0 0 0 0 0 0 0.346182048424188 0.305900104748266 0.342481480861774 0.334747523235036 0 0 0 0 0 0 0 0 0 0 0 0 0 0 0 0 0 0 0 0 0 0 0 -0.721044132430588 -5.74642120466511 0
0.149061845018444 0.0258054878268639 0 0 0 0 0 0 0 0 0 0 0 0 0 0 0 0 0 0 0 0 0 0 0 0 0 0 0 0 0 0 0 0 0 0 0 0 0 0 0 0 0 0 -1.34760638817041 0 0 -0.667392731730732 -1.63344540565898 -0.524987507039354
0 0 0 0 0 0 0 0 0 0 0 0 0 0 0 0 0 0 0 0 0 0.146303998223812 0.0560310270816422 0.0557744037304043 0 0 0 0 0 0 0 0 0 0 0 0 0 0 0 0 0 0 0 0 -1.67254292922564 0 0 -0.747493953272389 -2.12652748642357 0
0 0 0 0 0 0 0 0 0 0 0 0 0 0 0 0 0 0 0 0 0 0 0 0 0 0 0 0 0 0 0 0 0 0 0 0 0 0 0 0 0 0 0 0 0 0 0 -1.30936485784455 -0.396042965410125 -2.91256504973489
0 0 0 0 0.585095758036246 0 0.183400801509125 0 0 0 0 0 0 0 0 0 0 0 0 0 0 0 0 0 0 0 0 0 0 0 0 0 0 0 0 0 0 0 0 0 0 0 0 0 0 0 0 0 0 0
0 0 0 0 0 0 0 0 0 0 0 0 0 0 0 0 0.0802207748586584 0.246296564712424 0.582310579955367 0.107898862613229 1.00170675865171 0.162436508114401 0 0 0 0 0 0 0 0 0 0 0 0 0 0 0 0 0 0 0 0 0 0 0 0 0 0 0 0
0 0 0 0 0 0 0 0 0 0 0.155692848175278 1.74342128693289 0.140094282132533 0.0726545588306984 0 0 0 0 0 0 0 0 0 0 0 0 0 0 0 0 0 0 0 0 0 0 0 0 0 0 0 0 0 0 0 0 0 0 -0.27359687377989 0
0 0 0 0 0 0 0 0 0 0 0 0 0.325339569651579 0 0 0 0 0 0 0 0 0 0 0 0 0 0 0 0 0 0 0 0 0 0 0 0 0 0 0 0 0 0 0 0 0 0 0 0 0
0 0 0 0 0.198846648997853 0.471110371450718 0 0 0.664265295583363 0.438605566695991 0 0 0 0 0 0 0 0 0 0 0 0 0 0 0 0 0 0 0 0 0 0 0 0 0 0 0 0 0 0 0 0 0 0 0 0 0 0 -0.271088234712252 0
0 0 0 0 0 0 0 0 0 0 0 0 0 0 0 0 0.358987869937248 0 0 0.683536985760318 0.0375436419944904 0 0 0 0 0 0 0 0 0 0 0 0 0 0 0 0 0 0 0 0 0 0 0 0 0 0 0 0 0
0.508339065601599 0.64286751041426 0 0 0 0 0 0 0 0 0 0 0 0 0 0 0 0 0 0 0 0 0 0 0 0 0 0 0 0 0 0 0 0 0 0 0 0 0 0 0 0 0 0 0 0 0 0 0 0
0 0 0 0 0 0 0 0 0 0 0 0 0 0 0 0 0 0 0 0 0 0.256454232765402 1.04053875159868 0 0 0 0 0 0 0 0 0 0 0 0 0 0 0 0 0 0 0 0 0 0 0 0 0 -0.681436741579846 0
0 0 0 0 0 0 0 0 0.0562805239152291 0 0.177753303735175 0 0 0 0 0 0 0 0 0 0 0 0 0 0 0 0 0 0 0 0 0 0 0 0 0 0 0 0 0 0 0 0 0 0 0 0 0 -4.25581747729985 0
0 0 0 0 0 0 0 0 0 0 0 0 0 0.0186919535641171 0.105141535753345 0.174268448211984 0.0390097449671093 0.397256335831198 0.104836663843047 0 0 0.186783748072908 0 0 0 0 0 0 0 0 0 0 0 0 0 0 0 0 0 0 0 0 0 0 0 0 0 0 -2.81681207243204 0
0 0 0 0 0 0 0 0 0 0 0 0 0 0 0 0 0 0 0 0 0 0 0 1.35547731872227 0 0 0 0 0 0 0 0 0 0 0 0 0 0 0 0 0 0 0 0 0 0 0 0 0 0
0 0 0 0 0 0 0 0 0 0 0 0 0 0 0 0 0 0 0 0 0 0 0 0 0 0 0 0 0.0273658026938674 0 0.28378699743718 0.318383313779859 0 0 0 0 0 0 0 0 0 0 0 0 0 0 0 0 -1.14631261048979 0
0 0 0 0 0 0 0 0 0 0 0 0 0 0.830461519071909 0.07784892914732 0 0 0 0 0 0 0 0 0 0 0 0 0 0 0 0 0 0 0 0 0 0 0 0 0 0 0 0 0 0 0 0 0 -4.58108624810523 0
0 0 0 0 0 0 0 0 0 0 0 0 0 0.154166106235227 0 0 0.313750555680727 0 0.152789750275973 0.342274041804583 0 0 0 0 0 0 0 0 0 0 0 0 0 0 0 0 0 0 0 0 0 0 0 0 0 0 0 0 0 0
0 0 0 0 0 0 0 0 0 0 0 0 0 0 0 0 0 0 0 0 0 0 0 0 0 0 0.11377899227066 0.0993456557863727 0.180913381387223 0.153937671247045 0.136224841904418 0.146256837571027 0.282570750873152 0 0 0 0 0 0 0 0 0 0 0 0 0 0 0 0 0
0 0 0 0 0 0 0 0 0 0 0 0 0 0 0 0 0 0 0 0 0 0 0 0 0.251343915006745 0.0378563436969816 0.232039351075721 0.10073445008143 0.0588499487987588 1.14141736748451 0.305340592938503 0.437909129702555 0.0798466632532038 0 0 0.0523740702076665 0 0.0511698754950847 0 0 0.149366528848034 0.884213560378797 0.569623058459402 0 0.236302146537647 0.876190355434036 0 0 0 0
0 0 0 0 0 0 0 0 0 0 0 0 0 0 0 0 0 0 0 0 0 0 0 0 0 0.0925433528897856 0.217584635374224 0 0 0 0.1043215426807 0 0.633612905821931 0 0 0 0 0 0 0 0 0 0 0 0 0 0 0 0 0
