0.768045372243876
1.57277089166601
1.03743619348837
0.677568730479943
0.920523252664587
0.475956811051912
0.329188385818988
1.44054654643
2.4042743469358
1.90313424064315
2.93786929581873
0.280095492872763
1.40156635614014
3.11683024692304
1.38192870124153
2.10848399196745
2.00548687491703
0.962238270074225
0.54544324111109
1.94594980318476
2.37756603794394
0.0668172797204411
1.3654367816849
0.960739340245697
1.88599121071807
2.79662213837927
0.698810357259962
0.867608036329319
1.11824848627561
0.869415316406297
0.696202613434807
1.53295348101635
0.295679609122407
0.360041973146345
1.70284904867944
4.52925519756506
0.55005401405095
1.19807708795528
1.49412160850878
1.66933072834106
0.104985004748894
0.490905399956281
1.61249950077353
0.481473830860839
2.72767267931582
4.01971169129233
0.331926776567994
0.209412713911944
0.494613336038735
0.0795168283627026
