0 -0.190760435284295 0 0 0 0 0 -0.176514167920503 0 0 0 0 0 0 0 0 0 0 0 0 0 0 0 0 0 0 0 0 0 0 0 0 0 0 0 0 0 0 0 0 -3.90349347564888 0 0 0 0 0 0 0 0 0
0.0423387296172175 0 0 0 0 -0.379683721413141 -0.629321863724088 -5.52343827681275 0 0 -0.853195444514413 0 0 0 0 0 0 0 0 0 0 0 0 0 0 0 0 0 0 0 0 0 0 0 0 0 0 0 0 0 -0.63265186663485 0 0 0 0 0 0 0 0 0
0 0 0 0 0 0 -3.73630249681403 -1.34454062040143 0 0 -3.95897157801623 0 0 0 0 0 0 0 0 0 0 0 -0.11587115276107 0 0 0 0 0 0 0 0 0 0 0 0 0 0 0 0 0 -2.40821253456276 0 0 0 0 0 0 0 0 0
0 0 0 0 0 0 -0.67874845191415 0 0 0 -2.12455522732805 0 -1.19389318086977 0 0 0 0 0 0 0 0 0 -5.76450078395164 0 0 0 0 0 0 0 0 0 0 0 0 0 0 0 0 0 -1.37021356196982 0 0 0 0 0 0 0 0 0
0 0 0 0 0 0 0 0 0 0 -0.928138994276603 0 -0.688628347776882 0 -2.13345590431214 0 0 0 0 0 0 0 -0.555972031918394 0 0 0 0 0 0 0 0 0 0 0 0 0 0 0 0 0 -0.938208798449015 0 0 0 0 0 0 0 0 0
0 0.0814530312104238 0 0 0 0 0 0 0 0 0 0 -0.45523902032757 0 -0.686678859118271 0 0 0 0 0 0 0 0 0 0 0 0 0 0 0 0 0 0 0 0 0 0 0 0 0 -0.694583271759005 0 0 0 0 0 0 0 0 0
0 0.122693751668408 0.737325878086026 0.1422491004045 0 0 0 0 0 0 -0.237606955367539 0 0 0 0 0 0 0 0 0 0 0 -0.528406206534041 0 0 0 -5.02009246389934 0 0 0 0 0 0 0 0 0 0 0 0 0 -0.413017666019839 0 0 0 0 0 -0.37118663414418 0 0 0
0.0344093092121076 1.12500952070965 0.278120004620251 0 0 0 0 0 0 0 -4.06282779189256 0 0 0 -0.324379717230112 0 0 0 0 0 0 0 -0.625422224673651 0 0 0 -0.438027959385146 0 0 0 0 0 0 0 0 0 0 0 0 0 -0.854230364377437 -6.43847555334794 0 0 0 0 -0.706054104114045 0 0 0
0 0 0 0 0 0 0 0 0 0 0 0 0 0 0 0 0 0 0 0 0 0 0 0 0 0 -0.681029660589838 0 0 -0.634984618672328 0 0 0 0 0 0 0 0 0 0 -1.49351157010106 -2.71692218626619 0 0 0 0 -0.665843612729449 0 -0.809423813960099 0
0 0 0 0 0 0 0 0 0 0 0 0 0 0 0 0 0 0 0 0 0 0 0 0 0 0 0 0 -0.912525318961076 -0.878342800453391 0 0 0 0 0 0 0 0 0 0 -0.530152743517697 -0.593151898925702 0 0 0 0 -1.43369607728867 0 -0.843856085625049 0
0 0.158653898616066 0.792886438868388 0.421698485288511 0.177853799845946 0 0.0501005671684731 0.802762866697045 0 0 0 0 0 0 0 0 0 0 0 0 0 0 0 0 0 0 0 0 -1.42872314094896 -1.49041337437502 0 0 0 0 0 0 0 0 0 0 -1.56439471333858 -1.61489021547697 0 0 0 0 0 0 0 0
0 0 0 0 0 0 0 0 0 0 0 0 0 0 0 -1.155381274261 0 0 0 0 0 0 0 0 0 0 0 0 -0.348633296207145 0 0 0 0 0 -0.620540207908315 0 0 0 0 0 0 0 0 0 0 0 -0.125692412401554 0 0 0
0 0 0 0.238272166773286 0.143220476609242 0.0901045653361242 0 0 0 0 0 0 0 0 0 0 0 0 0 0 0 0 0 0 0 0 0 0 0 0 0 0 0 0 -1.91026016127999 0 0 0 0 0 0 0 0 0 0 0 0 0 0 0
0 0 0 0 0 0 0 0 0 0 0 0 0 0 0 0 0 0 0 0 0 0 0 0 0 0 0 0 -1.29959256012444 0 0 0 0 0 -0.605618070485763 0 0 0 0 0 0 0 0 0 0 0 0 0 0 0
0 0 0 0 0.462159064983161 0.13852390108044 0 0.0612571857196103 0 0 0 0 0 0 0 0 0 0 0 0 0 0 0 0 0 0 0 0 -0.264918874779996 0 0 0 0 0 -0.54746989098909 0 0 0 0 0 0 0 0 0 0 0 0 0 0 0
0 0 0 0 0 0 0 0 0 0 0 0.229751865845955 0 0 0 0 0 0 0 -1.12983505096007 0 0 0 0 0 0 0 0 0 0 0 0 -0.823374397355402 0 0 0 0 -0.627374120609931 0 0 0 0 0 0 0 0 0 0 0 -0.64140631026758
0 0 0 0 0 0 0 0 0 0 0 0 0 0 0 0 0 0 0 -1.92537083567212 0 0 0 0 0 0 0 0 0 0 0 0 -0.223142031440106 0 0 0 0 0 0 0 0 0 0 0 0 0 0 0 0 -2.32292750295515
0 0 0 0 0 0 0 0 0 0 0 0 0 0 0 0 0 0 0 -1.8550495886675 0 0 0 0 0 0 0 0 0 0 0 0 -1.04141173025035 0 0 0 0 0 0 0 0 0 0 0 0 0 0 0 0 -4.81492612426888
0 0 0 0 0 0 0 0 0 0 0 0 0 0 0 0 0 0 0 0 0 -0.67860280093726 0 0 0 0 0 0 0 0 0 0 0 0 0 0 0 0 0 -7.39158071135802 0 0 0 0 0 0 0 0 0 -10.6526922183788
0 0 0 0 0 0 0 0 0 0 0 0 0 0 0 0.222120079432166 0.380494060855679 0.352170260269689 0 0 0 -1.66080849798061 0 0 0 -0.55961295391157 0 0 0 0 0 0 -0.106856617115443 0 0 0 0 0 0 -2.19596703049376 0 0 0 0 0 0 0 0 0 0
0 0 0 0 0 0 0 0 0 0 0 0 0 0 0 0 0 0 0 0 0 0 0 0 0 0 0 0 0 0 0 0 -1.12886049942311 0 0 0 0 0 0 -0.531863022743486 0 0 0 0 0 0 0 -3.64715576451265 0 -1.97699617573414
0 0 0 0 0 0 0 0 0 0 0 0 0 0 0 0 0 0 0.127152269132046 0.334161658619577 0 0 0 0 0 0 0 0 0 0 0 0 0 0 0 0 0 0 0 -0.519153220707327 0 0 0 0 0 0 0 -2.38009156440441 0 0
0 0 0.0217363422817485 1.2103001240797 0.106823953143658 0 0.105829835556054 0.126423166643072 0 0 0 0 0 0 0 0 0 0 0 0 0 0 0 -0.251969703013501 -0.0827409702717097 0 0 0 0 0 0 0 0 -5.43316761431661 0 0 0 0 -1.97372780116589 0 0 0 0 0 0 0 0 0 0 0
0 0 0 0 0 0 0 0 0 0 0 0 0 0 0 0 0 0 0 0 0 0 0.0516819745893507 0 0.144360631496234 0 0 0 0 0 0 0 0 -0.905087502406913 0 0 0 0 -1.11012506589538 0 0 0 0 0 0 0 0 0 0 -1.36621736715857
0 0 0 0 0 0 0 0 0 0 0 0 0 0 0 0 0 0 0 0 0 0 0.017071987305734 -0.723107211136638 0 0 0 0 0 0 0 0 0 -1.54055291947648 0 0 0 0 -1.274073870172 0 0 0 0 0 0 0 0 0 0 -0.631741254842935
0 0 0 0 0 0 0 0 0 0 0 0 0 0 0 0 0 0 0 0.114851682106857 0 0 0 0 0 0 0 0 0 0 0 0 0 0 0 0 0 0 0 0 0 0 0 0 -0.452916606249253 0 0 0 0 0
0 0 0 0 0 0 0.982946131711349 0.0844047701414881 0.147309460989512 0 0 0 0 0 0 0 0 0 0 0 0 0 0 0 0 0 0 0 0 0 0 0 0 -0.315499625445045 0 0 0 0 0 0 0 0 0 0 -0.58226289192073 0 0 0 0 0
0 0 0 0 0 0 0 0 0 0 0 0 0 0 0 0 0 0 0 0 0 0 0 0 0 0 0 0 0 0 0 0 0 -1.78480910112269 0 0 0 0 0 0 0 0 0 0 -0.644386442146979 0 0 0 0 0
0 0 0 0 0 0 0 0 0 0.176098709160395 0.26703106056277 0.0667106822400564 0 0.240100450705528 0.0511859670428508 0 0 0 0 0 0 0 0 0 0 0 0 0 0 0 0 0 0 -1.02296594994276 0 0 0 0 0 0 0 0 0 0 0 0 0 0 0 0
0 0 0 0 0 0 0 0 0.118594804068181 0.169889329816217 0.299873153207486 0 0 0 0 0 0 0 0 0 0 0 0 0 0 0 0 0 0 0 0 0 0 -1.0156114783041 0 0 0 0 0 0 0 0 0 0 -0.137337163022548 0 0 0 0 0
0 0 0 0 0 0 0 0 0 0 0 0 0 0 0 0 0 0 0 0 0 0 0 0 0 0 0 0 0 0 0 0 0 -1.52061614476685 0 0 0 0 0 0 0 0 0 0 -0.20312017236105 0 0 0 0 0
0 0 0 0 0 0 0 0 0 0 0 0 0 0 0 0 0 0 0 0 0 0 0 0 0 0 0 0 0 0 0 0 0 -0.609361094464675 0 -2.83076821498068 0 0 0 0 0 0 0 0 -4.74564612300242 0 0 0 0 0
0 0 0 0 0 0 0 0 0 0 0 0 0 0 0 0.176211171107915 0.0449223558042473 0.220389816869975 0 0.0200809385694684 0.234916047696767 0 0 0 0 0 0 0 0 0 0 0 0 -2.19729592841087 0 0 0 0 0 0 0 0 0 0 0 0 0 0 0 0
0 0 0 0 0 0 0 0 0 0 0 0 0 0 0 0 0 0 0 0 0 0 1.04334315407325 0.182383453563177 0.31431543833113 0 0.0588008226305922 0.338170651603401 0.214776390770723 0.200960317028705 0.313373232234848 0.124722968857617 0.425848102073877 0 0 0 0 0 0 0 0 0 0 0 0 0 0 0 0 0
0 0 0 0 0 0 0 0 0 0 0 0.128001973373171 0.368084548757884 0.126476108920082 0.113588773788417 0 0 0 0 0 0 0 0 0 0 0 0 0 0 0 0 0 0 0 0 -0.737437261263365 0 0 0 0 0 0 0 0 0 0 0 0 0 0
0 0 0 0 0 0 0 0 0 0 0 0 0 0 0 0 0 0 0 0 0 0 0 0 0 0 0 0 0 0 0 0.54314070268799 0 0 0.139407661075108 0 0.479032402080514 0.185380060762989 0 0 0 0 -0.848651727691154 0 0 -6.53848165530437 0 0 0 0
0 0 0 0 0 0 0 0 0 0 0 0 0 0 0 0 0 0 0 0 0 0 0 0 0 0 0 0 0 0 0 0 0 0 0 -2.4715660703742 0 0 0 0 0 0 0 0 0 -3.68156571938271 0 0 0 0
0 0 0 0 0 0 0 0 0 0 0 0 0 0 0 0.128907257964945 0 0 0 0 0 0 0 0 0 0 0 0 0 0 0 0 0 0 0 -0.941489273772012 0 0 0 0 0 0 0 0 0 -0.815273881969793 0 0 0 0
0 0 0 0 0 0 0 0 0 0 0 0 0 0 0 0 0 0 0 0 0 0 0.391593706266336 0.229145210440625 0.232972778827744 0 0 0 0 0 0 0 0 0 0 0 0 0 0 0 0 0 0 0 0 -2.07242007166774 0 0 0 0
0 0 0 0 0 0 0 0 0 0 0 0 0 0 0 0 0 0 1.38937109364821 0.413592136044399 0.102080571944887 0.109822112084897 0 0 0 0 0 0 0 0 0 0 0 0 0 0 0 0 0 0 0 0 0 0 0 -1.86421797180417 0 0 0 0
0.811788728738732 0.12749083937298 0.501509961393783 0.272140072914291 0.191252693357075 0.150086427453363 0.0782148187483174 0.182213894510678 0.27986611699877 0.113050843494124 0.327763920924516 0 0 0 0 0 0 0 0 0 0 0 0 0 0 0 0 0 0 0 0 0 0 0 0 0 0 0 0 0 0 0 0 -0.608949998080597 0 -0.538169905589682 0 0 0 0
0 0 0 0 0 0 0 1.27029715708256 0.547752156313972 0.114856406205661 0.330757186696989 0 0 0 0 0 0 0 0 0 0 0 0 0 0 0 0 0 0 0 0 0 0 0 0 0 0 0 0 0 0 0 0 -1.30149939953414 0 -0.344330914178528 0 0 0 0
0 0 0 0 0 0 0 0 0 0 0 0 0 0 0 0 0 0 0 0 0 0 0 0 0 0 0 0 0 0 0 0 0 0 0 0.165635849359724 0 0 0 0 0 0 0 -2.18403305203806 0 0 0 0 0 0
0 0 0 0 0 0 0 0 0 0 0 0 0 0 0 0 0 0 0 0 0 0 0 0 0 0 0 0 0 0 0 0 0 0 0 0 0 0 0 0 0.120643122453799 0.275731295272126 0.458918918395302 0 1.05033118043161 0 0 0 0 0
0 0 0 0 0 0 0 0 0 0 0 0 0 0 0 0 0 0 0 0 0 0 0 0 0 0.096775868669367 0.119168630945967 0.134787686074874 0 0.0264368581610153 0.0401911361772893 0.872243535162883 0 0 0 0 0 0 0 0 0 0 0 -4.90222521461856 0 0 0 0 0 0
0 0 0 0 0 0 0 0 0 0 0 0 0 0 0 0 0 0 0 0 0 0 0 0 0 0 0 0 0 0 0 0 0 0 0 1.3038290253212 0.72298623457816 0.157201130439062 0.455100409549835 0.362310840370056 0.107213331263337 0.0771567707646294 0 0 0 0 0 0 0 0
0 0 0 0 0 0 0.0698739999999175 0.136558662343481 0.131383927138819 0.294848978696155 0 0.0273043133792516 0 0 0 0 0 0 0 0 0 0 0 0 0 0 0 0 0 0 0 0 0 0 0 0 0 0 0 0 0 0 0 0 0 0 0 0 0 0
0 0 0 0 0 0 0 0 0 0 0 0 0 0 0 0 0 0 0 0 0.715402892502426 0.451520932994442 0 0 0 0 0 0 0 0 0 0 0 0 0 0 0 0 0 0 0 0 0 0 0 0 0 0 0 0
0 0 0 0 0 0 0 0 0.15541665432162 0.160731096665888 0 0 0 0 0 0 0 0 0 0 0 0 0 0 0 0 0 0 0 0 0 0 0 0 0 0 0 0 0 0 0 0 0 0 0 0 0 0 0 0
0 0 0 0 0 0 0 0 0 0 0 0 0 0 0 0.123714006492217 0.468984060159077 0.988597793519762 2.23090143279241 0 0.349172190939935 0 0 0.265383053048114 0.124687854647008 0 0 0 0 0 0 0 0 0 0 0 0 0 0 0 0 0 0 0 0 0 0 0 0 0
