0.494990527010974
1.41951777321864
0.780182008772207
0.406007892188355
0.114065315223063
0.337575904608077
0.360469149112792
0.257296704328576
0.83193428975096
0.646750776379398
2.36274609585597
0.297761940208209
0.651349898518934
0.241617812961027
1.4767194934757
0.575183413600662
0.315457238143874
2.07116154976354
0.741125226632133
0.0704495048518767
2.64709307953583
1.45076881864495
0.293502018940557
0.997783183942353
0.362995931126252
0.405016225225395
0.999374989371588
3.55678130818565
0.266034913114045
0.35348448879
1.80129075037266
0.0956118307037885
0.501407836234348
0.544701470823104
0.0304525455704707
0.330401083804361
1.18042055664993
0.152405067070905
2.17631066105414
2.44925751852159
0.306593395532011
0.9706816790539
0.900423184322954
1.74725928543962
0.0915116933128764
2.01973481866462
3.82769769388872
1.81604575544687
0.434496684411057
0.0911085067267478
