0.94965051936719
1.69756270675119
1.10245682532201
0.61880080482444
0.101804759685404
0.226527575423228
0.194656251039056
0.0652181394533405
0.344421931276264
0.513609290177602
0.801390768371968
0.530798548682237
0.261826975568835
0.454763728521931
1.04510261987345
1.73698656027233
1.92354148019844
0.172003784714788
0.74957226919555
1.8851579332024
1.56925465813724
1.17439830502541
1.42976291315064
0.209217479405866
0.798125414843651
0.258167588308322
0.490828411106813
0.175297855800852
0.697377892050511
0.729553470784029
0.643813756580197
0.159677407750908
0.27689585310511
0.39248408248725
0.559291405063053
0.55075674700456
0.0449003941803374
0.214567546237159
0.414480492273729
1.47208108981413
1.48401140334723
0.398772277689418
0.802198591934083
0.242617838741288
0.46251031833876
0.0875332225560529
0.360673318212901
0.143304234309747
1.87718638732128
0.351943910675448
