0.302499719792556
1.51371050486919
0.748054587579262
2.62525486419388
1.59287717327081
0.242583438304883
0.211304803698585
0.223168306444483
0.33493147438349
0.273146488303112
0.54108749451503
0.0918410264001697
0.208247138286477
0.498849838913969
0.707973619786827
1.09033196429649
0.0703004368104197
1.21935352598063
2.43636396486165
2.15292415316092
0.417513360127908
0.230511619390661
2.08732667443928
0.887147147240343
0.415095192323067
0.297762601964947
1.71395701850426
0.380144090361131
0.393084094286431
0.417129838852598
0.419302989380226
0.632936508171418
0.497871419161192
0.0848761181488133
2.21304603062427
0.270223233479327
0.43099683409373
0.453175909617071
0.994173392171893
0.0572514599079933
0.0521491615123441
2.89962658153536
1.09525282443266
0.415049602756536
0.154478897755903
0.211286661185106
0.413637164229093
0.331152907564534
2.77651840916494
0.223972402659731
