1.06425501066457
0.341035376246291
0.0716395568217092
0.280587429135885
0.183721173117559
0.991079312841122
0.408951017215015
0.200032398388427
0.607308083082578
0.135594830763272
0.208687706236778
0.221520082003289
1.2931540989049
0.393708296347225
0.438795570376528
0.769162016570712
1.85188714884566
0.0138986818748839
0.165191725086331
0.321156299157869
0.227806655288235
0.80596345012725
0.0572677675519036
0.869941889659535
0.362291210929643
0.917324467732573
0.332885733679885
0.161209048147731
0.665492565141093
0.740468064892948
0.050722083161029
1.73595072622813
0.367908797287124
0.467831871950479
1.25715851821683
0.368838823084817
1.0648993615246
1.68438051498572
1.15658734348346
0.579099840764431
0.404354637741118
1.61195546987506
0.157988056533989
0.185876686707087
0.7824373093555
1.48030331153615
0.740433752862069
1.06559854434302
1.64422653852995
0.351763414613823
