0 0 0 0 0 0 0 0 0 0 0 -0.976745747877844 0 0 0 0 0 0 0 0 0 0 0 0 0 0 0 0 0 0 -1.14252262121974 0 0 0 0 0 0 0 0 0 0 0 0 0 0 0 0 0 0 0
0 0 0 0 0 0 0 0 -0.365308345625479 0 0 -3.19316740112245 0 0 0 0 0 0 0 0 0 0 0 0 0 0 0 0 0 0 0 0 0 0 0 0 0 0 0 0 0 0 0 0 0 0 0 0 0 0
0 0 0 0 0 0 -1.06567174849742 0 -0.944115381687629 0 0 0 0 0 0 0 0 0 0 0 0 0 0 0 0 0 0 0 0 0 0 0 0 -1.49519550466451 0 0 0 0 0 0 0 0 0 0 0 -2.50963827895645 0 0 0 0
0 0 0 0 0 0 0 0 0 0 0 0 -0.210109707958666 0 0 0 0 0 0 0 0 -2.42284953688638 0 0 0 0 0 0 -2.01954773013787 0 0 0 0 0 0 0 0 0 0 0 0 0 0 0 0 -0.929874937020566 0 0 0 0
0 0 0 0 0 0 0 0 0 -0.609806242028915 0 0 -1.5545116328997 0 0 0 0 0 0 0 0 -0.443187680458287 0 0 0 0 0 0 0 0 0 0 0 0 0 0 0 0 0 0 0 0 0 0 0 -0.17892504226133 0 0 0 0
0 0 0 0 0 0 0 0 0 0 0 0 -0.56504906174756 0 0 0 0 0 0 0 0 -3.91268393783546 0 0 0 0 0 0 0 -0.204330032541954 0 0 0 0 0 0 0 0 0 0 0 0 0 0 0 -2.12440051155293 0 0 0 0
0 0 0.228111466995985 0 0 0 0 0 0 -3.0646138658158 0 0 0 0 0 0 0 0 0 0 0 -3.28608971945512 0 0 0 0 0 0 -0.866559872017955 -0.77111402688084 0 0 0 0 0 0 0 0 0 0 0 0 0 0 0 -1.35274701622413 0 0 0 0
0 0 0 0 0 0 0 0 0 -0.627267583362277 0 0 0 0 0 0 0 0 0 0 0 -2.83921172275557 0 0 0 0 0 0 -0.500777353587801 -0.523952517949232 0 0 0 0 0 0 0 0 0 0 0 -2.81301156710295 0 0 0 -1.06228060481037 0 0 0 0
0 0.0764377674718293 0.186550211421743 0 0 0 0 0 0 -2.09551410418619 0 0 0 0 0 0 0 0 0 0 0 -2.83356538639509 0 0 0 0 0 0 0 -0.626851274539014 0 0 0 0 0 0 0 0 0 0 0 -0.240058768375026 0 0 0 -1.09203353506379 0 0 0 0
0 0 0 0 0.115452310217147 0 0.656200855169642 0.129394810548691 0.409300838076956 0 0 0 0 -1.23847709605556 0 0 0 0 0 -1.78282222320246 0 0 0 0 0 0 0 0 0 -3.32170735596503 0 0 0 0 0 0 0 0 0 0 0 0 0 0 0 0 0 0 0 0
0 0 0 0 0 0 0 0 0 0 0 0 0 -1.09191005375297 0 -0.139284951434305 0 0 0 -0.154807934412676 0 0 0 0 0 0 0 0 0 -1.37445558355502 0 0 0 0 0 0 0 0 0 0 0 0 0 0 0 -0.40007372287159 0 0 0 -0.503256515256688
0.18811129812913 0.655142003143826 0 0 0 0 0 0 0 0 0 0 0 0 0 -0.786832243705643 0 0 0 -2.49444277800645 0 0 0 0 0 0 0 0 0 -0.614624718779577 0 0 0 0 0 0 0 0 -0.234632264180132 0 0 0 0 0 0 -0.682365589395435 0 0 0 -0.67718987031559
0 0 0 0.0434157025912648 0.316560125800956 0.105334830363506 0 0 0 0 0 0 0 0 0 -0.361429435375845 0 0 0 0 0 0 0 0 0 0 0 0 0 -0.665658996671723 0 0 0 0 0 0 0 0 0 0 0 0 0 0 0 -0.688779930512564 0 0 0 0
0 0 0 0 0 0 0 0 0 0.240175520186305 0.216238526879374 0 0 0 0 0 -0.407304574065144 0 0 0 0 0 0 0 0 0 0 0 0 0 0 0 0 0 0 0 0 0 0 0 0 0 0 0 0 0 0 0 0 0
0 0 0 0 0 0 0 0 0 0 0 0 0 0 0 0 0 0 -0.500591940374897 0 0 0 0 0 0 0 0 0 0 0 0 0 0 0 0 0 0 -0.729444415946422 0 0 0 0 0 0 0 0 0 0 0 0
0 0 0 0 0 0 0 0 0 0 0.0274832575492519 0.14212261842557 0.0704014850388921 0 0 0 0 0 0 0 0 0 0 0 0 0 0 0 0 0 0 0 0 0 0 0 0 -1.00884622826091 -2.38229620504764 0 0 0 0 0 0 0 0 0 0 0
0 0 0 0 0 0 0 0 0 0 0 0 0 0.0742094488399682 0 0 0 0 -2.25537334827586 0 0 0 0 0 -4.12436178751918 0 -0.499702160474356 0 0 0 0 0 0 0 0 0 0 -0.520553073713777 0 0 0 0 0 0 0 0 0 0 0 0
0 0 0 0 0 0 0 0 0 0 0 0 0 0 0 0 0 0 0 0 0 0 0 0 0 0 -2.6621096180433 0 0 0 0 0 0 0 0 0 0 -1.74003870922585 0 -0.256450953697293 0 0 0 0 0 0 0 0 0 0
0 0 0 0 0 0 0 0 0 0 0 0 0 0 0.0986044844860942 0 0.454891425910473 0 0 0 0 0 0 0 -0.844626864599429 0 -2.50712279218099 0 0 0 0 0 0 0 0 0 0 0 0 0 0 0 0 0 0 0 0 0 0 0
0 0 0 0 0 0 0 0 0 0.347201682113352 0.0352485202582576 0.448243127419722 0 0 0 0 0 0 0 0 0 0 0 0 0 0 0 0 0 0 0 0 0 0 0 -4.0311607975271 0 -0.223706583251737 0 -1.78686632079075 0 0 0 0 0 0 0 0 -0.496456090128104 0
0 0 0 0 0 0 0 0 0 0 0 0 0 0 0 0 0 0 0 0 0 0 -1.71669648666094 0 0 0 0 0 0 0 0 0 0 0 0 0 0 0 0 -1.91542744563858 -3.34571339793409 0 0 0 0 0 0 -1.06348759559619 0 0
0 0 0 0.480830095346718 0.085562109493244 0.795102082536488 0.627638605762394 0.537025077326603 0.577494565803916 0 0 0 0 0 0 0 0 0 0 0 0 0 -0.921859614332482 0 0 0 0 0 0 0 0 0 0 0 0 0 0 0 0 -0.576168793446963 0 0 0 0 0 0 0 0 0 0
0 0 0 0 0 0 0 0 0 0 0 0 0 0 0 0 0 0 0 0 0.368717832156049 0.187620669663348 0 0 0 0 0 0 0 0 0 0 0 0 0 0 0 0 0 -4.36128222328798 -1.32185503934223 0 0 0 0 0 0 0 0 0
0 0 0 0 0 0 0 0 0 0 0 0 0 0 0 0 0 0 0 0 0 0 0 0 0 0 0 0 0 0 0 0 0 0 0 0 0 0 0 -1.19076532016015 -1.03986748672324 0 0 0 0 0 0 0 0 0
0 0 0 0 0 0 0 0 0 0 0 0 0 0 0 0 0.869926264882927 0 0.172416760485772 0 0 0 0 0 0 0 0 0 0 0 0 0 0 0 0 0 0 0 0 -0.314885956156814 -1.29945051222688 0 0 0 0 0 0 0 0 0
0 0 0 0 0 0 0 0 0 0 0 0 0 0 0 0 0 0 0 0 0 0 0 0 0 0 0 0 0 0 0 0 0 0 0 0 0 0 0 -0.591016089008266 -2.1148032942571 0 0 0 0 0 0 0 0 0
0 0 0 0 0 0 0 0 0 0 0 0 0 0 0 0 0.102984385750678 0.546203402315637 0.508311950612836 0 0 0 0 0 0 0 0 0 0 0 0 0 0 0 0 0 0 0 0 -6.46050218280002 0 0 0 -6.36998878474825 0 0 0 0 0 0
0 0 0 0 0 0 0 0 0 0 0 0 0 0 0 0 0 0 0 0 0 0 0 0 0 0 0 0 0 0 0 0 0 0 0 0 0 0 0 -0.718239333282217 -0.590251843474091 0 0 0 0 0 0 0 0 0
0 0 0 0.409058855287892 0 0 0.16420763245959 0.108742691306534 0 0 0 0 0 0 0 0 0 0 0 0 0 0 0 0 0 0 0 0 0 0 0 0 0 0 0 0 0 0 0 -3.03236967128985 0 0 0 -0.32631302570541 0 0 0 0 0 0
0 0 0 0 0 0.0433090974316635 0.151281753491779 0.109080693922666 0.128278476004 0.66819799952726 0.258728253118981 0.128440423753696 0.134041658438169 0 0 0 0 0 0 0 0 0 0 0 0 0 0 0 0 0 0 0 0 0 0 0 0 0 0 -0.620405612867057 0 0 0 0 0 0 0 0 0 0
0.224645028079627 0 0 0 0 0 0 0 0 0 0 0 0 0 0 0 0 0 0 0 0 0 0 0 0 0 0 0 0 0 0 0 0 0 0 0 0 0 0 -4.16825836796195 0 0 0 -2.06795040740308 0 0 0 0 0 0
0 0 0 0 0 0 0 0 0 0 0 0 0 0 0 0 0 0 0 0 0 0 0 0 0 0 0 0 0 0 0 0 0 0 0 0 0 0 0 -1.8195077057902 0 0 0 -0.103799348502856 0 0 0 0 0 0
0 0 0 0 0 0 0 0 0 0 0 0 0 0 0 0 0 0 0 0 0 0 0 0 0 0 0 0 0 0 0 0 0 0 0 0 0 0 0 0 0 0 0 -0.835654414212984 0 0 0 0 0 0
0 0 0.286770671369154 0 0 0 0 0 0 0 0 0 0 0 0 0 0 0 0 0 0 0 0 0 0 0 0 0 0 0 0 0 0 0 0 0 0 0 0 0 0 0 0 -0.102742510924844 0 0 0 0 0 0
0 0 0 0 0 0 0 0 0 0 0 0 0 0 0 0 0 0 0 0 0 0 0 0 0 0 0 0 0 0 0 0 0 0 0 0 0 0 0 0 0 0 0 -2.71687563014411 0 0 0 0 0 0
0 0 0 0 0 0 0 0 0 0 0 0 0 0 0 0 0 0 0 0.778723239524663 0 0 0 0 0 0 0 0 0 0 0 0 0 0 0 0 0 0 0 0 0 0 0 0 0 0 0 0 0 0
0 0 0 0 0 0 0 0 0 0 0 0 0 0 0 0 0 0 0 0 0 0 0 0 0 0 0 0 0 0 0 0 0 0 0 0 0 0 0 0 0 0 0 0 -1.06079584593046 0 0 0 0 0
0 0 0 0 0 0 0 0 0 0 0 0 0 0 0.144630437886765 0.208745086213124 0.104909924131024 0.341889561760975 0 0.0479197656259229 0 0 0 0 0 0 0 0 0 0 0 0 0 0 0 0 0 0 0 0 0 0 0 0 -2.09389291628665 0 0 0 0 0
0 0 0 0 0 0 0 0 0 0 0 0.0470108107784186 0 0 0 0.512395951815425 0 0 0 0 0 0 0 0 0 0 0 0 0 0 0 0 0 0 0 0 0 0 0 0 0 0 0 0 -0.602774192480667 0 0 0 0 0
0 0 0 0 0 0 0 0 0 0 0 0 0 0 0 0 0 0.0463358377150303 0 0.337972906951577 0.377323351244607 0.125473470844771 0.828727742029905 0.212813322946559 0.0659411685149711 0.112977738842672 1.43701985335383 0.151126028540421 0.622973446841704 0.115142426192233 0.832759971973439 0.337821068813121 0 0 0 0 0 0 0 0 0 0 -0.57507372437887 0 0 0 0 0 0 0
0 0 0 0 0 0 0 0 0 0 0 0 0 0 0 0 0 0 0 0 0.706991877618249 0 0.266155616905695 0.189715105562826 0.257081737933433 0.472285801758876 0 0.109972395469502 0 0 0 0 0 0 0 0 0 0 0 0 0 0 0 0 -1.21053970149668 0 -1.05716564729724 0 0 0
0 0 0 0 0 0 0 0.592824471371695 0.0490439812209394 0 0 0 0 0 0 0 0 0 0 0 0 0 0 0 0 0 0 0 0 0 0 0 0 0 0 0 0 0 0 0 0 0 -2.65873815583653 0 0 0 -0.232528447664488 0 0 0
0 0 0 0 0 0 0 0 0 0 0 0 0 0 0 0 0 0 0 0 0 0 0 0 0 0 0 0 0 0 0 0 0 0 0 0 0 0 0 0.116164365786757 0 0.554857856089352 0 0 0 0 -1.83445894444301 0 0 0
0 0 0 0 0 0 0 0 0 0 0 0 0 0 0 0 0 0 0 0 0 0 0 0 0 0 1.20678036011721 0 0.0658310000925199 0 0.446475050075352 0.021753823393993 0.163636586581763 0.0201187584234399 0.528774371938062 0 0 0 0 0 0 0 0 0 0 0 -1.46145373795794 0 0 0
0 0 0 0 0 0 0 0 0 0 0 0 0 0 0 0 0 0 0 0 0 0 0 0 0 0 0 0 0 0 0 0 0 0 0 0 0.222065686386251 0.414534931225129 0.112478471759101 0 0.244832198556133 0 0 0 0 0 0 0 0 0
0 0 0.473109522053679 0.191879498072407 0.0357861940614009 0.462627053168635 0.249331316054913 0.22997829928158 0.219969669508791 0 0.0792879695930719 0.144341773277629 0.137380704672141 0 0 0 0 0 0 0 0 0 0 0 0 0 0 0 0 0 0 0 0 0 0 0 0 0 0 0 0 0 0 0 0 0 -0.557002568647869 0 0 0
0 0 0 0 0 0 0 0 0 0 0 0 0 0 0 0 0 0 0 0 0 0 0 0 0 0 0 0 0 0 0 0 0 0 0 0 0 0 0 0 0.195146731079945 0.0487750760253437 0.38483151641802 0.275753313071393 0 0.110762919894302 0 0 1.43296773273874 0.0747358633815976
0 0 0 0 0 0 0 0 0 0 0 0 0 0 0 0 0 0 0 0 0.204852837197989 0 0 0 0 0 0 0 0 0 0 0 0 0 0 0 0 0 0 0 0 0 0 0 0 0 0 0 0 0
0 0 0 0 0 0 0 0 0 0 0 0 0 0 0 0 0 0 0 0.0883593631938316 0 0 0 0 0 0 0 0 0 0 0 0 0 0 0 0 0 0 0 0 0 0 0 0 0 0 -6.81104358201783 0 0 0
0 0 0 0 0 0 0 0 0 0 0.0956377379086932 0.149334502776066 0 0 0 0 0 0 0 0 0 0 0 0 0 0 0 0 0 0 0 0 0 0 0 0 0 0 0 0 0 0 0 0 0 0 -0.397258678289943 0 0 0
