0.375705455757461
0.713019910728828
0.561403552593633
0.207066978647331
0.451049366054222
2.41752875975769
0.226010093994975
0.704994258479024
0.0364566272970861
1.60482583579117
0.363565573687214
0.158752674170854
0.215163792840477
0.297661279029743
0.425349720935892
0.956799854711902
1.61033893469231
3.03442202441656
0.131702546181673
0.883946336503399
0.332133541375368
1.50285790840084
1.83148117575688
0.900446352587459
0.0742734363495537
0.318071957987356
0.272096865343005
2.51780432261506
1.55489793181354
0.396549105316424
0.330236943460127
2.74390604449672
2.90489936521238
2.72536949191024
2.26053097387901
0.5496085292595
0.568383628601199
1.02130258675963
1.71350738967149
1.06818937661301
1.52019873621122
0.350197410831711
0.818070626203527
0.567373177443102
0.808326638987489
0.111906840188822
0.78990753848981
0.680328411302306
0.429706045969092
0.518794966145785
