0 0 0 0 0 0 0 0 0 -1.16394550371177 0 0 0 0 0 0 0 0 0 0 0 0 0 0 0 -1.80552896847704 0 0 0 0 0 0 0 0 0 0 0 0 0 0 0 0 0 0 0 0 0 0 0 0
0 0 0 0 0 0 0 0 0 -1.95409356730525 0 0 0 0 0 0 0 0 0 0 0 0 0 0 0 0 0 0 0 0 0 0 0 0 0 0 0 0 0 -3.31536415483809 0 0 0 0 0 0 0 0 0 0
0 0 0 0 0 0 0 0 0 0 -1.06248910640856 0 0 0 0 0 0 0 0 0 -0.519987986120617 0 -1.3563322706805 0 0 0 0 -1.27902611200135 0 0 0 0 0 0 0 0 0 0 0 0 0 0 0 0 0 0 0 0 0 0
0 0 0 0 0 0 0 0 0 0 0 0 0 -0.468912384830141 0 0 0 0 0 0 0 0 -2.89262629538062 0 0 0 0 -0.372557944552909 0 0 0 0 0 0 0 0 0 0 0 -1.0760110404648 0 0 0 0 0 0 0 0 0 0
0 0 0 0 0 0 0 0 0 0 -0.120954818363638 0 0 -0.48806007577678 0 0 0 0 0 0 -1.56223373809946 0 0 0 0 0 0 0 0 0 0 0 0 0 0 0 0 0 0 -1.28133354823845 0 0 0 0 0 0 0 0 0 0
0 0 0 0 0 0 0 0 0 0 -0.801701862596537 0 0 0 0 0 0 0 0 0 -1.36346340023066 0 -0.0942445850147034 0 0 0 0 0 0 0 0 0 0 0 0 0 0 0 0 0 0 0 0 0 0 0 0 0 0 0
0 0 0 0 0 0 0 0 -1.22020014074075 0 0 0 0 0 0 0 0 0 0 -0.793926534165553 -0.941124822846512 0 -2.24831497236666 0 0 0 0 0 0 0 0 0 0 0 0 0 0 0 0 -0.56339257388902 0 0 0 0 0 0 0 0 0 0
0 0 0 0 0 0 0 0 0 0 0 0 0 0 -1.61063369107434 0 -1.29528797378473 0 0 -2.37984795120831 0 0 0 -1.8684044158286 0 0 0 0 0 0 0 0 0 0 0 0 0 0 0 -0.285092240239478 0 0 -4.83069292646213 0 0 0 0 0 0 0
0 0 0 0 0 0 0.256092015651743 0 0 0 0 0 0 0 -0.23257680609666 0 -0.415066426008597 0 0 -0.484571025350348 0 0 0 0 0 0 -4.09126106463111 0 0 0 0 0 0 0 0 0 0 0 0 0 0 0 -1.54324762836217 0 0 0 0 0 0 0
0.219656786319106 0.367584276500243 0 0 0 0 0 0 0 0 0 0 0 0 -1.23481064527519 0 0 0 0 -1.18473968351319 0 0 0 0 0 0 0 0 0 -0.318085894213201 -1.1229692727712 0 0 0 0 0 0 0 0 0 0 0 0 0 0 0 0 0 0 0
0 0 0.213820261029984 0 0.0245150029081981 0.173492634586827 0 0 0 0 0 0 0 0 -3.79011073447337 0 -0.970488930455323 0 0 -1.00599422993091 0 0 0 0 0 0 0 0 0 -0.427612106755887 -4.89863176155515 0 0 0 0 0 0 0 0 -0.254004068631222 0 0 -4.53746429542709 0 0 0 0 0 0 0
0 0 0 0 0 0 0 0 0 0 0 0 0 0 -0.830325753326315 -0.507301201363937 0 0 -1.14748337701084 0 0 0 0 0 0 0 0 0 0 0 -1.32030442583403 0 0 0 0 0 0 0 0 0 0 0 0 0 0 0 0 0 0 0
0 0 0 0 0 0 0 0 0 0 0 0 0 0 0 -0.176265596696456 0 0 0 0 0 0 0 0 0 0 0 0 0 0 0 0 0 0 0 0 0 0 0 0 0 0 -3.86997303420024 0 0 0 0 0 0 0
0 0 0 0.0895951861207311 0.0976570077938062 0 0 0 0 0 0 0 0 0 0 0 0 0 0 0 0 0 0 0 0 0 0 0 0 0 0 0 0 0 0 0 0 0 0 -0.549598364290491 0 0 -0.962110945861834 0 0 0 0 0 0 0
0 0 0 0 0 0 0 0.329424011574014 0.0499100916797755 0.239342372080966 0.833350747652339 0.171831937557125 0 0 0 0 0 0 0 0 0 0 0 0 0 0 0 0 0 0 0 0 0 0 0 0 0 0 0 -1.54606315106272 0 0 -0.391639275215748 0 0 0 0 0 0 0
0 0 0 0 0 0 0 0 0 0 0 0.102356038527218 0.036125809492311 0 0 0 0.414359474035844 0.196659737557715 0 0 0 0 0 0 0 0 0 0 0 0 0 0 0 0 0 0 0 0 0 -2.50844119384643 0 0 -1.75044186524325 0 0 0 0 0 0 0
0 0 0 0 0 0 0 0.280750406164967 0.0818664686686914 0 0.194030719973074 0 0 0 0 -2.17169214709689 0 0 0 0 0 0 0 0 0 0 0 0 -3.62169909256811 0 0 0 0 0 0 0 0 0 0 0 0 0 0 0 0 0 0 0 0 0
0 0 0 0 0 0 0 0 0 0 0 0 0 0 0 -0.873468461781575 0 0 0 0 0 0 0 0 0 0 0 0 -4.43703826183081 0 0 0 0 0 0 0 0 0 0 0 0 0 0 0 0 0 0 0 0 0
0 0 0 0 0 0 0 0 0 0 0 0.25144321187064 0 0 0 0 0 0 0 0 0 -0.555580158310648 0 0 0 0 0 0 -0.618878797029817 0 0 0 0 0 0 0 0 0 0 0 0 -0.532271985575022 0 0 0 0 0 0 0 -0.442438481150919
0 0 0 0 0 0 0.176144851217716 0.503930376540651 0.097463718148424 0.245723535915762 0.208810401717354 0 0 0 0 0 0 0 0 0 0 -2.63185802325358 0 0 -1.74514825339688 0 0 0 -4.30074609654349 0 0 0 0 0 0 0 0 0 0 0 0 0 0 -0.511019919442281 0 0 0 0 0 -0.557279083798587
0 0 0.0988498943071514 0 0.338385075945893 0.281814064080019 0.193354845256884 0 0 0 0 0 0 0 0 0 0 0 0 0 0 0 0 0 0 0 0 0 0 0 0 -0.786745446524777 0 0 -1.23563888187826 0 0 0 0 0 0 -0.631282359900998 0 -4.12704853286469 0 -10.3224467785531 0 0 0 0
0 0 0 0 0 0 0 0 0 0 0 0 0 0 0 0 0 0 0.103880145134077 0.514343430950539 0 0 0 0 0 0 0 0 -1.52350973159038 0 0 -1.82846149534465 0 0 0 0 0 0 0 0 0 -1.42549683448319 0 -2.71815968673523 0 -0.298056613057984 0 0 0 -4.78533430879567
0 0 0.285305184206237 0.645032356058717 0 0.0202162615880161 0.457832135776828 0 0 0 0 0 0 0 0 0 0 0 0 0 0 0 0 0 0 0 0 0 0 0 0 -0.742100447733296 0 0 -0.372169954051557 0 0 0 0 0 0 -0.562234113758576 0 0 0 -0.44316325812382 0 0 0 -0.910169816886126
0 0 0 0 0 0 0 0.36944300979226 0 0 0 0 0 0 0 0 0 0 0 0 0 0 0 0 0 0 0 0 0 0 0 -0.52819274344822 0 0 -0.627198728337575 0 0 0 0 0 0 0 0 -0.592342544554313 0 0 0 0 0 0
0 0 0 0 0 0 0 0 0 0 0 0 0 0 0 0 0 0 0 0.369080278532993 0 0 0 0 0 0 0 0 0 0 0 -0.144088857931365 0 0 0 0 0 0 0 0 -0.90433568801012 0 0 0 0 -1.19676272025469 0 0 0 0
0.341176516065784 0 0 0 0 0 0 0 0 0 0 0 0 0 0 0 0 0 0 0 0 0 0 0 0 0 0 0 0 0 0 -2.87000301386875 -4.18125954037162 0 0 0 0 0 0 0 0 0 0 0 0 -2.21321741536648 0 0 0 0
0 0 0 0 0 0 0 0 0.886817655791957 0 0 0 0 0 0 0 0 0 0 0 0 0 0 0 0 0 0 0 0 0 0 0 0 0 0 -2.86689651610934 0 0 0 0 -0.211846119427273 0 0 0 0 -0.462603623433753 0 0 -1.39422811711741 0
0 0 0.246326184295996 0.0793011102076758 0 0 0 0 0 0 0 0 0 0 0 0 0 0 0 0 0 0 0 0 0 0 0 0 0 0 0 0 0 0 0 0 0 0 0 0 0 0 0 0 0 -0.824911980001036 0 0 -0.343680659369139 0
0 0 0 0 0 0 0 0 0 0 0 0 0 0 0 0 0.726293596735462 0.87687833817477 0.119032389756043 0.828064390697326 0 0.322620263153933 0 0 0 0 0 0 0 0 0 0 0 0 0 0 0 0 0 0 0 0 0 0 0 -3.18686473145961 0 0 -0.867695622076735 0
0 0 0 0 0 0 0 0 0 0.0629309401704975 0.0786492423002525 0 0 0 0 0 0 0 0 0 0 0 0 0 0 0 0 0 0 0 0 0 0 0 0 0 0 0 0 0 0 0 0 0 0 -2.06274537339008 0 0 0 0
0 0 0 0 0 0 0 0 0 0.224496746898914 0.993557525317422 0.251496264798392 0 0 0 0 0 0 0 0 0 0 0 0 0 0 0 0 0 0 0 0 0 0 0 0 0 0 0 0 0 0 0 0 0 0 0 0 -2.04329219921806 0
0 0 0 0 0 0 0 0 0 0 0 0 0 0 0 0 0 0 0 0 0.141248808380542 0.369475745033494 0.142112554847738 0.104237467081612 0.0261373154788647 0.577739831312912 0 0 0 0 0 0 0 0 0 0 0 0 0 0 0 0 0 0 0 0 0 -1.22761590011276 0 0
0 0 0 0 0 0 0 0 0 0 0 0 0 0 0 0 0 0 0 0 0 0 0 0 0 0.894826538629994 0 0 0 0 0 0 0 0 0 0 0 0 -2.22946361370228 0 0 0 0 0 0 0 0 -0.582238328841328 0 0
0 0 0 0 0 0 0 0 0 0 0 0 0 0 0 0 0 0 0 0 0 0 0 0 0 0 0 0 0 0 0 0 0 0 0 0 0 0 -0.609384093545478 0 0 0 0 0 0 0 0 -0.419524740402819 0 0
0 0 0 0 0 0 0 0 0 0 0 0 0 0 0 0 0 0 0 0 0.25945585375708 0 0.0744503042915658 0.134411639629517 0 0 0 0 0 0 0 0 0 0 0 0 0 0 0 0 0 0 0 0 0 0 0 -0.38353023378396 0 0
0 0 0 0 0 0 0 0 0 0 0 0 0 0 0 0 0 0 0 0 0 0 0 0 0 0 0.621349257802599 0 0 0 0 0 0 0 0 0 0 0 0 0 0 0 0 0 0 0 0 -0.624551570910485 0 0
0 0 0 0 0 0 0 0 0 0 0 0 0 0 0 0 0 0 0 0 0 0 0 0 0 0 0 0 0 0 0 0 0 0 0 0 0 0 0 0 0 0 0 0 0 0 0 -0.659497722744011 0 0
0 0 0 0 0 0 0 0 0 0 0 0 0 0 0 0 0 0 0 0 0 0 0 0 0 0 0 0 0 0 0 0 0 0 0 0 0 0 0 0 0 0 0 0 0 0 0 -0.362236189234757 0 0
0 0 0 0 0 0 0 0 0 0 0 0 0 0 0 0 0 0 0 0 0 0 0 0 0 0 0 0 0 0 0 0 0.427907369640298 0.117921892605781 0 0 0 0 0 0 0 0 0 0 0 0 0 -0.849304296984803 0 0
0 0.671981773573875 0 0.195426100201321 0.244565394408174 0 0.11208379989015 0.0559244515933779 0 0 0.0549455090147024 0 0 0.110079717805606 0.314132001580317 0.498276065135401 0 0 0 0 0 0 0 0 0 0 0 0 0 0 0 0 0 0 0 0 0 0 0 0 0 0 0 0 0 0 -9.81934628348935 -0.427365330370954 0 0
0 0 0 0 0 0 0 0 0 0 0 0 0 0 0 0 0 0 0 0 0 0 0 0 0.179815995654505 0 0.043064365553493 0 0 0 0 0 0 0 0 0 0 0 0 0 0 0 0 0 0 0 -1.63757096497837 0 0 0
0 0 0 0 0 0 0 0 0 0 0 0 0 0 0 0 0 0 0.104521064283753 0 0.130384694933485 0.25605479016558 0.126590413409651 0 0 0 0 0 0 0 0 0 0 0 0 0 0 0 0 0 0 0 0 0 0 0 -5.2375785133517 -0.31327177420588 0 0
0 0 0 0 0 0 0 0.989680096695314 0.281866616835554 0 0.92366407066865 0 0.76864382023311 0.196249598945324 0.0830935387171506 0.334421209769054 0 0 0 0 0 0 0 0 0 0 0 0 0 0 0 0 0 0 0 0 0 0 0 0 0 0 0 0 0 0 -3.45082571656699 0 0 0
0 0 0 0 0 0 0 0 0 0 0 0 0 0 0 0 0 0 0 0.0995936861280834 0.830314075865413 0.560001993675808 0 0.112218352380056 0 0 0 0 0 0 0 0 0 0 0 0 0 0 0 0 0 0 0 0 0 0 -1.27797489076466 0 0 0
0 0 0 0 0 0 0 0 0 0 0 0 0 0 0 0 0 0 0 0 0 0 0 0 0 0 0 0 0 0 0 0 0 0 0 0 0 0 0 0 0 0 0 0 0 0 -0.182457730421013 0 0 0
0 0 0 0 0 0 0 0 0 0 0 0 0 0 0 0 0 0 0 0 2.17589887089812 0.0649011021876241 0.0992187973364005 0 0.223891596144773 0.421835399552508 0.0913698700470992 0.155966864390354 0.677284781593869 0.418584579034454 0 0 0 0 0 0 0 0 0 0 0 0 0 0 0 0 0 0 0 0
0 0 0 0 0 0 0 0 0 0 0 0 0 0 0 0 0 0 0 0 0 0 0 0 0 0 0 0 0 0 0 0 0 0 0 0 0 0 0 2.13934473150904 0.308835285613413 1.02843547161981 0.709634807031395 0.271829315878544 0.03924072326109 0 0 0 0 0
0 0 0 0 0 0 0 0 0 0 0 0 0 0 0 0 0 0 0 0 0 0 0 0 0 0 0 0 0 0 0 0.261967481935028 0.111077065830492 0.078520183099672 0.0704846141721394 0.130222995085424 0.125274732886946 0.0718506493038584 0.177557905947564 0.0917048365146948 0 0.0565589692229352 0 0 0 0 0 0 0 0
0 0 0 0 0 0 0 0 0 0 0 0 0 0 0 0 0 0 0 0 0 0 0 0 0 0 0.258460581720163 0.0676958872804986 0.180468101745586 0 0.438246708448243 0 0 0 0 0 0 0 0 0 0 0 0 0 0 0 0 0 0 0
0 0 0 0 0 0 0 0 0 0 0 0 0 0 0 0 0 0 0.0987115567322618 0.109353117126459 0 0.991538073793296 0.17671474585567 0 0 0 0 0 0 0 0 0 0 0 0 0 0 0 0 0 0 0 0 0 0 0 0 0 0 0
