0 0 0 0 0 0 0 -3.22099912493128 0 0 0 0 0 0 0 0 0 0 0 0 0 0 0 0 0 0 0 0 0 0 0 0 0 0 0 0 0 0 0 0 0 0 0 0 0 0 0 0 0 0
0 0 -0.84363146817016 0 0 -1.10203295405601 0 0 0 0 0 0 0 0 0 0 0 0 0 0 0 0 0 0 0 0 0 0 0 0 0 0 0 0 0 0 0 0 -1.17158332505004 0 0 0 0 0 0 0 0 0 0 0
0 0.172150927249955 0 0 0 0 0 -1.06136672064339 -2.96268177941807 -0.563337485560357 -7.78749980727564 0 0 0 0 0 0 0 0 0 0 0 0 0 0 0 0 0 0 0 0 0 0 0 0 0 0 0 0 0 0 0 0 0 0 0 0 0 0 0
0 0 0 0 0 0 0 0 -0.994098048091098 -0.367679127284366 0 0 0 0 0 0 0 0 0 0 0 0 0 0 0 0 0 0 0 0 0 0 0 0 0 0 0 0 0 0 0 0 0 0 0 0 0 0 0 0
0 0 0 0 0 0 -0.228397307279943 0 0 -3.80197285655045 0 0 0 0 0 0 0 0 0 0 0 0 0 0 0 0 0 0 0 0 0 0 0 0 0 0 0 0 0 0 0 0 0 0 0 0 0 0 0 0
0 0.231324679847715 0 0 0 0 0 0 0 0 0 0 0 -0.736360155247956 0 0 0 0 0 0 0 0 -0.112409592014102 0 -0.377398729261104 0 0 0 -1.39827133943277 0 0 0 0 0 0 0 0 0 0 0 0 0 0 0 0 0 0 0 0 0
0 0 0 0 0.0473215307158413 0 0 0 0 0 0 0 0 0 0 -3.65830015321636 0 0 0 0 0 0 -1.16148501277907 0 -1.55489996930932 0 0 0 -1.90436881791027 0 0 0 0 0 0 0 0 0 0 0 0 0 0 0 0 0 0 -0.824131552697611 0 0
0.64547316722627 0 0.199893037345621 0 0 0 0 0 0 0 0 0 0 0 0 -2.27672916234618 0 0 0 0 0 0 0 0 -1.1022575472452 0 0 0 -2.64802598275108 0 0 0 0 0 0 0 0 0 0 0 0 0 0 0 0 0 0 -1.24101152226653 0 -3.01150585114375
0 0 0.572241201872306 0.207070522854858 0 0 0 0 0 0 0 0 0 0 0 -1.11937865621713 0 0 0 0 0 0 0 0 0 0 0 0 -4.28537445895929 0 0 0 0 0 0 0 0 0 0 0 0 0 0 0 0 0 0 -0.756142632125645 0 0
0 0 0.116449173425214 0.0695499650956787 0.722078280252988 0 0 0 0 0 0 0 0 0 0 -0.286974143907555 -0.299231358626861 0 0 0 0 0 0 0 0 0 0 0 0 0 0 0 0 0 0 0 0 0 0 0 0 0 0 0 0 0 0 0 -0.506100864034929 0
0 0 1.50964793105173 0 0 0 0 0 0 0 0 0 0 0 0 -2.37776747814604 -0.495690311647875 0 0 0 0 0 0 0 0 0 0 0 0 0 0 0 0 0 -1.81972192367334 0 0 0 0 0 0 0 0 0 0 0 0 0 -0.827775098839587 0
0 0 0 0 0 0 0 0 0 0 0 0 0 0 0 0 -1.44498305463699 0 -3.63743999675515 0 0 0 0 0 0 0 -1.1816668184734 0 0 0 0 0 0 0 0 0 0 0 0 0 -1.86228765250995 0 0 0 0 0 0 0 0 0
0 0 0 0 0 0 0 0 0 0 0 0 0 0 0 0 -0.460997081513593 -0.934455170566313 0 0 0 0 0 0 0 0 0 0 0 0 0 0 0 0 0 0 0 0 0 0 -0.67018862881948 0 0 0 0 0 0 0 -0.643359476974604 0
0 0 0 0 0 0.153576083877178 0 0 0 0 0 0 0 0 0 0 -2.11478333725505 -4.61220500858554 -0.321490607805988 0 0 0 0 0 0 0 0 0 0 0 0 0 0 0 0 0 0 0 0 0 -2.55488221397102 0 0 0 0 0 0 0 -0.781934077952241 0
0 0 0 0 0 0 0 0 0 0 0 0 0 0 0 0 0 -1.91569251608766 0 0 0 0 0 0 0 0 -4.57004924105704 0 0 0 -0.470990902000885 0 0 0 -2.17429415904156 0 0 0 0 0 -1.35556919801063 0 0 0 0 0 0 0 0 0
0 0 0 0 0 0 0.792238642624915 0.41283354548801 0.221472459277611 0.0600041476577597 0.461320738265762 0 0 0 0 0 0 0 -3.70428993783987 0 0 0 0 0 0 0 -1.65384091622584 0 0 0 -0.875699332747343 0 0 0 -2.47175823003169 0 0 0 0 0 0 0 0 0 0 0 0 0 0 0
0 0 0 0 0 0 0 0 0 0.063404404691982 0.0971752664768147 0.281994909834313 0.0947373233485063 0.400928335523516 0 0 0 0 -2.13708638311628 0 0 0 0 0 0 0 -1.01861082139579 0 0 0 0 0 0 0 -8.84715908483201 0 0 0 0 0 -0.500164531577487 0 0 0 0 0 0 0 0 0
0 0 0 0 0 0 0 0 0 0 0 0 0.181334026417207 0.970231612479559 0.348401171565571 0 0 0 0 0 0 -0.426106515714427 0 0 0 0 -0.691433930654133 0 0 0 0 0 0 -0.520238362362083 0 0 0 0 0 0 -0.729001131601388 0 0 0 0 0 0 0 0 0
0 0 0 0 0 0 0 0 0 0 0 0.697563444899792 0 0.0667941255506633 0 0.741423127660036 0.40989611791504 0 0 0 0 -0.597873549504007 0 0 0 0 -0.469259095814145 0 0 0 0 0 0 -0.579507787103249 0 0 0 0 0 0 -1.19571658023242 0 0 0 0 0 0 0 0 0
0 0 0 0 0 0 0 0 0 0 0 0 0 0 0 0 0 0 0 0 0 0 0 -0.337492172736125 0 0 0 0 0 0 0 0 0 -0.214165317521018 0 0 0 0 0 0 0 0 0 0 0 0 0 0 0 0
0 0 0 0 0 0 0 0 0 0 0 0 0 0 0 0 0 0 0 0 0 -6.06198214157318 0 0 0 0 0 0 0 0 0 0 0 0 0 0 0 0 0 0 0 0 0 0 0 0 0 0 0 0
0 0 0 0 0 0 0 0 0 0 0 0 0 0 0 0 0 0.0867221581672432 0.115464985837029 0 1.22440315629529 0 0 -5.08707870225085 0 0 0 0 0 0 0 0 0 0 0 0 0 0 0 0 0 0 0 0 0 0 0 0 0 0
0 0 0 0 0 0.0215164620805373 0.23453882656135 0 0 0 0 0 0 0 0 0 0 0 0 0 0 0 0 -0.428553058473456 0 0 0 0 0 0 0 0 0 0 0 0 0 0 0 0 0 0 0 0 0 0 0 0 0 0
0 0 0 0 0 0 0 0 0 0 0 0 0 0 0 0 0 0 0 0.0614902386159805 0 1.08042271770202 0.0891571825373079 0 0 0 0 0 0 0 0 0 0 -2.46919206850773 0 0 0 0 0 0 0 0 0 0 0 0 0 0 0 0
0 0 0 0 0 0.0789923686117691 0.319005113250763 0.222788101719554 0 0 0 0 0 0 0 0 0 0 0 0 0 0 0 0 0 0 0 0 0 0 0 -0.287648389811837 0 -0.834403894790761 0 0 0 0 0 0 0 0 0 0 0 0 0 0 0 0
0 0 0 0 0 0 0 0 0 0 0 0 0 0 0 0 0 0 0 0 0 0 0 0 0 0 0 0 0 0 0 -1.08891974532048 0 -8.10734558023741 0 0 0 0 0 0 0 0 0 0 0 0 0 0 0 0
0 0 0 0 0 0 0 0 0 0 0 0.238780077299903 0 0 0.903776645761193 0.329487255452504 0.22039976264722 0.131973450495764 0.0983359098332869 0 0 0 0 0 0 0 0 0 0 0 0 -0.800445336396515 -0.432813811937581 0 0 0 0 0 0 0 0 0 0 0 0 0 0 0 0 0
0 0 0 0 0 0 0 0 0 0 0 0 0 0 0 0 0 0 0 0 0 0 0 0 0 0 0 0 0 0 0 0 -1.32555674965791 0 0 0 0 0 0 -0.613506483392775 0 0 0 0 0 0 0 0 0 0
0 0 0 0 0 0.29795009025568 0.415145819322042 0.539487560691798 0.873479086648183 0 0 0 0 0 0 0 0 0 0 0 0 0 0 0 0 0 0 0 0 0 0 -0.23620996089415 0 0 0 0 0 0 0 0 0 0 0 0 0 0 0 0 0 0
0 0 0 0 0 0 0 0 0 0 0 0 0 0 0 0 0 0 0 0 0 0 0 0 0 0 0 0 0 0 0 0 0 0 0 0 0 0 0 0 0 0 0 0 0 -0.727063152098742 0 0 0 0
0 0 0 0 0 0 0 0 0 0 0 0 0 0 0.100035869882631 0.169991641520226 0 0 0 0 0 0 0 0 0 0 0 0 0 0 0 0 0 0 0 0 0 0 0 0 0 0 0 0 0 0 -1.65750163372687 0 0 0
0 0 0 0 0 0 0 0 0 0 0 0 0 0 0 0 0 0 0 0 0 0 0 0 0.0590663951365202 0.220317334802279 0.16388891551314 0 0.0472196576890992 0 0 0 0 0 0 0 0 0 0 0 0 0 0 0 0 -1.65297694344326 0 0 0 0
0 0 0 0 0 0 0 0 0 0 0 0 0 0 0 0 0 0 0 0 0 0 0 0 0 0 0.0908393481948573 0.273912453509242 0 0 0 0 0 0 0 0 -1.26007091282 0 0 0 0 0 0 0 0 -0.431008914339128 -1.12508406141617 0 0 0
0 0 0 0 0 0 0 0 0 0 0 0 0 0 0 0 0 0.0977590156491014 0.116975568096319 0.0410820680583837 0 0 0 0.50941456563341 0.158065557631319 1.43777310867044 0 0 0 0 0 0 0 0 0 0 -0.269331213102321 0 0 0 0 0 0 0 0 -1.65995861283811 -0.998108173233242 0 0 0
0 0 0 0 0 0 0 0 0 0 0.406551276408616 0 0 0 0.472920281547699 0.439683941538382 1.80487133680985 0 0 0 0 0 0 0 0 0 0 0 0 0 0 0 0 0 0 0 0 0 0 0 0 0 0 0 0 -1.12117845546702 -6.62358144432541 0 0 0
0 0 0 0 0 0 0 0 0 0 0 0 0 0 0 0 0 0 0 0 0 0 0 0 0 0 0 0 0 0 0 0 0 0 0 0 0 0 0 0 0 0 0 0 0 -1.10168064584225 -0.456958672788413 0 0 0
0 0 0 0 0 0 0 0 0 0 0 0 0 0 0 0 0 0 0 0 0 0 0 0 0 0 0 0 0 0 0 0 0.235391534207565 0.0520317552671501 0 0 0 0 0 0 0 0 0 0 0 -1.35545322958493 -0.807274825602474 0 0 0
0 0 0 0 0 0 0 0 0 0 0 0 0 0 0 0 0 0 0 0 0 0 0 0 0 0 0 0 0 0 0 0 0 0 0 0 0 0 0 0 0 0 0 0 0 -0.707663815766198 -0.448307809056312 0 0 0
0 0.229766259398408 0 0 0 0 0 0 0 0 0 0 0 0 0 0 0 0 0 0 0 0 0 0 0 0 0 0 0 0 0 0 0 0 0 0 0 0 0 0 0 0 -0.392426012540109 0 0 0 -1.4433264828292 0 0 0
0 0 0 0 0 0 0 0 0 0 0 0 0 0 0 0 0 0 0 0 0 0 0 0 0 0 0 0.129186020084237 0 0 0 0 0 0 0 0 0 0 0 0 0 0 0 0 0 0 0 0 0 0
0 0 0 0 0 0 0 0 0 0 0 0.364756195046615 0.138786078350603 0.465030235676557 0.272098728239233 0 0.0980140659358535 0.146024859154009 0.2241373677461 0 0 0 0 0 0 0 0 0 0 0 0 0 0 0 0 0 0 0 0 0 0 0 0 0 0 0 -3.24720109768493 0 0 0
0 0 0 0 0 0 0 0 0 0 0 0 0 0 0 0 0 0 0 0 0 0 0 0 0 0 0 0 0 0 0 0 0 0 0 0 0 0 0 0 0 0 0 0 0 0 -0.656624042473933 0 0 0
0 0 0 0 0 0 0 0 0 0 0 0 0 0 0 0 0 0 0 0 0 0 0 0 0 0 0 0 0 0 0 0 0 0 0 0 0 0 0.0829359924588517 0 0 0 0 0 0 0 -0.249548780146978 0 0 0
0 0 0 0 0 0 0 0 0 0 0 0 0 0 0 0 0 0 0 0 0 0 0 0 0 0 0 0 0 0 0 0 0 0 0 0 0 0 0 0 0 0 0 0 0 0 -2.46880838420988 0 0 0
0 0 0 0 0 0 0 0 0 0 0 0 0 0 0 0 0 0 0 0 0 0 0 0 0 0 0 0 0 0 0 0 0 0 0 0 0 0 0 0 0 0 0 0 0 0 -0.148327710718379 0 0 0
0 0 0 0 0 0 0 0 0 0 0 0 0 0 0 0 0 0 0 0 0 0 0 0 0 0 0 0 0 0.136813978694739 0 0.354033418918956 0.0807769936508087 0.33643835640295 0.240261564096838 0.210203591944428 0.268727118828644 0.147708154028692 0 0 0 0 0 0 0 0 -0.0938565102271002 0 0 0
0 0 0 0 0 0 0 0 0 0 0 0 0 0 0 0 0 0 0 0 0 0 0 0 0 0 0 0 0 0 0.33372459292236 0 0.219128948423482 0.191788527931949 1.42114913744662 0.0918241686256917 0.154002463352287 0.0893681156142836 0.288182137415391 0 0.682800715041003 0.121196425215545 0.0502851686577862 0.50736909792984 0.02710660600333 0.0195383200850952 0 0 0.188041165396053 0
0 0 0 0 0 0 0.176743656735799 0.227560411355001 0.154882775052135 0 0 0 0 0 0 0 0 0 0 0 0 0 0 0 0 0 0 0 0 0 0 0 0 0 0 0 0 0 0 0 0 0 0 0 0 0 0 0 0 0
0 0 0 0 0 0 0 0 0 0.102108546847509 0.173770766691753 0 0.119091856267053 0.156844487916618 0 0 0 0 0 0 0 0 0 0 0 0 0 0 0 0 0 0 0 0 0 0 0 0 0 0 0 0 0 0 0 0 -0.903313380992894 0 0 0
0 0 0 0 0 0 0 0.618466858158316 0 0 0 0 0 0 0 0 0 0 0 0 0 0 0 0 0 0 0 0 0 0 0 0 0 0 0 0 0 0 0 0 0 0 0 0 0 0 0 0 0 0
