1.47742683765853
1.35541187992931
2.01507491064035
0.305226686241223
0.984941925391603
0.424046323885849
0.7965296898809
0.114712604308582
0.286024463960712
0.557533112941298
0.277570131128665
0.485776529116008
0.900280619258517
1.91146508318169
0.18371525198947
0.0867630741987338
0.260785981180381
1.13177620104666
0.562985691721164
1.0444562251543
0.111680213778407
0.923960894756228
1.9261583657794
0.332175517353734
0.125809119276916
0.511727771316765
1.10351221098068
0.621977995105746
0.261104255309346
0.260920311666579
0.449689741553712
0.525427661893509
1.64996270955045
1.64980226421641
0.804653150731372
1.74976684948709
1.96316059453666
0.118596246323318
0.985652707701527
0.927768337593819
0.870276488320468
0.268237895176808
0.485539036107144
0.907596956562627
0.0858707370702936
0.55971160665155
1.5151123122779
0.3171515996494
1.85647290290519
0.794100804294169
