0.630661783577859
4.61640862136695
0.463852437646192
2.006899634899
1.14043994467835
1.29376891781783
3.40572267313804
0.305104753075123
2.22986481465415
1.14752309106247
1.93621153015795
0.0643200465668804
1.89513440275221
11.9798835718285
1.02181208005072
0.50238208191375
4.57292620251421
1.32776027574685
0.355781527785321
1.37615100585681
0.375065861581399
0.520058489341064
0.653688620468211
0.372623123013716
2.05918663118791
1.12513981939678
0.814639166376846
0.424293829258087
1.41729306534483
0.141568677919534
1.04363398189464
3.24290666130324
1.17722321068466
2.88860985145822
0.919895837840957
0.152288009382957
0.488638651446088
0.539970699182064
0.994688697820098
0.480958347811567
0.187468238026784
5.68520192862568
0.932174501497791
1.52522588616752
1.48139497226342
1.30801053919823
0.805352857827529
0.509052368710778
1.9528027881376
0.400899654016247
