0.137482543596168
0.938918077934675
0.523859629623214
0.256863129334711
4.69293370169995
0.393681594022942
0.241612383326162
2.50963204401446
1.38088596081645
0.240524918280287
0.272283215145275
0.88452330954535
0.250492110798435
0.202898439700518
0.692319408997959
0.798611608847585
0.172648987566815
1.42428796995422
0.603222962945189
0.288427905279488
0.930707561634397
1.12418150797981
0.34044768708801
0.10244345495992
4.39377592500865
0.556591083593994
0.375555296192344
0.462185789538777
0.863559875831225
0.545115325672327
2.36391330922725
0.297234418753888
0.275324785858272
0.113107744721436
1.0664469657168
1.1909955153444
1.25616797129968
0.0424490151304696
0.367751353544997
0.821098221210073
1.44925536882973
2.19747692669915
0.391693801969466
0.400550544313336
1.52267963879827
0.373050273339711
0.539980021506058
0.648802073399265
0.856493883302853
0.789513811284391
