0 0 0 0 0 -0.38590378923052 0 0 0 0 0 0 0 0 0 0 0 0 0 0 0 0 0 0 0 -0.97251379867174 0 0 0 0 0 0 0 0 0 0 0 0 0 0 0 0 -1.37570994295489 0 0 0 0 -3.65040111168476 0 0
0 0 0 0 0 0 0 0 0 0 0 0 0 0 0 0 0 0 0 0 0 0 0 0 0 -0.332918040412946 0 0 0 0 0 0 0 0 0 0 0 0 0 0 0 0 0 0 0 0 0 -0.420827572482327 0 0
0 0 0 0 0 0 0 0 0 0 0 0 0 0 0 0 0 0 0 0 0 -0.668959318258988 0 0 0 0 0 0 0 0 0 0 0 0 0 0 0 0 0 0 0 0 0 0 0 0 0 -4.11584124974719 0 0
0 0 0 0 0 0 0 0 0 0 0 0 0 0 0 0 -6.59574458036646 0 0 -2.48227319427474 0 0 0 0 0 0 0 0 0 0 0 0 0 0 -0.974228878500149 0 0 0 0 0 0 0 0 0 0 0 0 -0.87822691153348 0 0
0 0 0 0 0 0 0 0 0 0 0 0 0 0 -1.24328449094544 0 -1.52946917522799 0 0 0 0 0 0 0 0 0 0 0 0 0 0 0 0 0 -4.53657365895502 0 0 0 0 0 0 0 0 0 0 0 0 -5.05251888626826 0 0
0.0797162438405992 0 0 0 0 0 0 0 0 0 0 0 0 0 -2.59376663729513 0 -0.652696091780394 0 0 0 0 0 0 0 0 0 0 0 0 0 0 0 0 0 0 0 0 0 0 0 0 0 0 0 0 0 0 -0.421109530300721 0 0
0 0 0 0 0 0 0 0 0 -1.11637959654715 -8.3845824560781 0 0 0 -0.976297825710608 0 0 0 0 -0.593038709833915 0 0 0 0 -0.43540745388891 0 0 0 0 0 0 0 0 0 0 0 0 0 0 0 0 0 0 0 0 0 0 0 0 0
0 0 0 0 0 0 0 0 -0.687391639895617 0 0 0 0 0 0 0 0 0 0 0 0 0 0 0 -1.58941025449469 0 0 0 0 0 0 0 0 0 0 0 0 0 -2.26476636141148 0 0 0 0 0 -1.32610503159883 0 0 0 0 0
0 0 0 0 0 0 0 0.134186879106794 0 0 0 0 0 0 0 0 0 0 0 -0.113326420162562 0 0 0 0 0 0 0 0 0 0 0 0 0 0 0 0 0 0 -0.264932558504779 0 0 0 0 0 -0.810698149065407 0 0 0 0 0
0 0 0 0 0 0 0.227144824420762 0 0 0 0 0 0 0 0 0 0 -0.463707448122503 0 -1.50192742571133 0 0 0 0 -0.924858811982507 0 0 0 0 0 0 0 0 0 0 0 0 0 -1.09468049036214 0 0 0 0 0 -2.77579988203225 0 0 0 0 0
0 0 0 0 0 0 1.56091767005287 0 0 0 0 0 0 0 0 0 0 -2.88730261135575 0 -2.89256823500934 0 0 0 0 0 0 0 0 0 0 0 0 0 0 0 0 0 0 0 0 0 0 0 0 -0.525170952846222 0 0 0 0 0
0 0 0 0 0 0 0 0 0 0 0 0 0 0 0 0 0 -0.478704610964466 0 0 0 0 0 -1.36906812641002 -8.93248891162005 0 0 0 -0.66289151763497 0 0 0 0 0 0 0 0 0 -2.17092445947038 0 0 0 0 -0.49179183862304 -0.767174279059872 0 0 0 0 0
0 0 0 0 0 0 0 0 0 0 0 0 0 0 0 0 0 0 0 0 0 0 0 0 -0.464953213526812 0 0 0 0 0 0 0 0 0 0 0 0 0 -1.32239474269226 0 0 0 0 -0.413535382482836 0 0 0 0 0 0
0 0 0 0 0 0 0 0 0 0 0 0 0 0 0 0 0 0 0 0 -10.7123985356531 0 0 -1.19819899943815 -0.21752464440552 0 0 0 0 0 0 0 0 0 0 0 0 0 -1.07264286839136 0 0 0 0 -0.289138538067714 -2.28594431182143 0 0 0 0 0
0 0 0 0 0.256087657693147 0.503761623769983 0.202023735827459 0 0 0 0 0 0 0 0 0 0 0 0 0 -0.250532466836626 0 0 -0.696508324805742 0 0 0 0 0 0 0 0 0 0 0 0 0 0 -0.647306561602147 0 0 0 0 -0.309575328561976 -1.70876034842682 0 0 0 -0.38561808416127 0
0 0 0 0 0 0 0 0 0 0 0 0 0 0 0 0 0 0 0 0 -4.48456350178126 0 0 -4.65778501455833 -1.903907799874 0 0 0 0 0 0 0 0 0 0 0 0 0 -0.581595629843383 0 0 0 0 -1.89509969799702 0 0 0 0 -1.23624641121252 0
0 0 0 1.35080689106108 0.297214195349948 0.127005629285118 0 0 0 0 0 0 0 0 0 0 0 0 0 0 0 0 0 0 0 0 0 0 0 0 0 0 0 0 0 0 0 0 -2.59790710895319 -0.435983768438599 0 0 0 -1.46918260393854 0 0 0 0 -0.792029656694116 0
0 0 0 0 0 0 0 0 0 0.0947221171236516 0.581542817277391 0.0971833815125344 0 0 0 0 0 0 0 0 0 0 0 0 0 0 0 0 0 0 0 0 0 0 0 0 0 0 0 0 -1.40743233528177 0 0 0 0 0 0 0 0 0
0 0 0 0 0 0 0 0 0 0 0 0 0 0 0 0 0 0 0 0 0 0 0 0 0 0 0 0 0 0 0 0 0 0 0 0 0 0 0 0 -0.274979544590325 0 0 0 0 0 0 0 0 0
0 0 0 0.477131659715693 0 0 0.120956318199627 0 0.0225677738665454 0.294405622885582 0.592369054958618 0 0 0 0 0 0 0 0 0 0 0 0 0 0 0 0 0 0 0 0 0 0 0 0 0 0 -0.364628315752821 0 0 -0.524429334146888 0 0 0 0 0 0 0 0 0
0 0 0 0 0 0 0 0 0 0 0 0 0 2.31498205086916 0.0499494090363706 0.867209601441779 0 0 0 0 0 0 0 0 0 0 0 0 0 0 0 0 0 0 0 0 0 -2.99317704168171 0 0 -0.766871803475183 0 0 0 0 0 0 0 0 0
0 0 0.14297203189318 0 0 0 0 0 0 0 0 0 0 0 0 0 0 0 0 0 0 0 0 0 0 0 0 -0.849927178230379 0 0 0 0 0 0 0 0 0 -2.26491143531264 0 0 -1.24798215832996 0 0 0 0 0 0 0 0 0
0 0 0 0 0 0 0 0 0 0 0 0 0 0 0 0 0 0 0 0 0 0 0 0 0 0 -5.70567515298628 0 0 -0.432382389410827 0 0 -0.482412285098597 0 0 0 0 0 0 0 0 0 0 0 0 0 0 0 0 0
0 0 0 0 0 0 0 0 0 0 0 0.297442653437108 0 0.250281888677002 0.132319881637167 0.914055062840322 0 0 0 0 0 0 0 0 0 0 0 0 0 -1.26743983053359 0 0 -1.30218481489113 0 0 0 0 0 0 0 0 0 0 0 0 0 0 0 0 0
0 0 0 0 0 0 0.0843839420004192 0.298408086201805 0 0.176534048050624 0 1.79233407214231 0.10418387649814 0.0411131641595821 0 0.362781047408087 0 0 0 0 0 0 0 0 0 0 0 0 0 -1.20936187672336 0 0 -2.91126829002534 0 0 0 -1.42715239382989 0 0 0 0 0 0 0 0 0 0 0 0 0
0.194723096096987 0.0732494255740451 0 0 0 0 0 0 0 0 0 0 0 0 0 0 0 0 0 0 0 0 0 0 0 0 0 0 0 -1.74807299397251 0 0 0 0 0 0 -0.747955639590821 0 0 0 0 0 0 0 0 0 0 0 0 0
0 0 0 0 0 0 0 0 0 0 0 0 0 0 0 0 0 0 0 0 0 0 1.20665275703269 0 0 0 0 0 0 -2.31897853400267 0 -4.72831450317478 -0.0823916906272017 0 0 0 -3.44822421973985 0 0 0 0 0 0 0 0 0 0 0 0 0
0 0 0 0 0 0 0 0 0 0 0 0 0 0 0 0 0 0 0 0 0 0.183090738065169 0 0 0 0 0 0 0 0 0 0 0 0 0 0 0 0 0 0 0 0 0 0 0 0 0 0 0 0
0 0 0 0 0 0 0 0 0 0 0 0.128363397721321 0 0 0 0 0 0 0 0 0 0 0 0 0 0 0 0 0 -3.8224776382869 0 0 0 0 0 0 0 0 0 0 0 -1.14728799349721 0 0 0 0 0 0 0 0
0 0 0 0 0 0 0 0 0 0 0 0 0 0 0 0 0 0 0 0 0 0 0.0770297942756607 0.25001958751005 0.259069858281551 0.331489170460816 0.440756162177702 0 0.710368723057976 0 0 0 0 0 0 0 0 0 0 0 0 0 0 0 0 0 0 0 0 0
0 0 0 0 0 0 0 0 0 0 0 0 0 0 0 0 0 0 0 0 0 0 0 0 0 0 0 0 0 0 0 0 0 0 0 0 0 0 0 0 0 -2.38023357146794 0 0 0 0 0 0 0 -1.96559066757858
0 0 0 0 0 0 0 0 0 0 0 0 0 0 0 0 0 0 0 0 0 0 0 0 0 0 0.949626687990474 0 0 0 0 0 0 0 0 0 0 0 0 0 0 0 0 0 0 0 0 0 0 0
0 0 0 0 0 0 0 0 0 0 0 0 0 0 0 0 0 0 0 0 0 0 0.0926348483931926 0.273941948463845 0.577276583002327 0 0.0159601500810236 0 0 0 0 0 0 0 0 0 0 0 0 0 0 0 0 0 0 0 0 0 0 -1.64344374195999
0 0 0 0 0 0 0 0 0 0 0 0 0 0 0 0 0 0 0 0 0 0 0 0 0 0 0 0 0 0 0 0 0 0 0 0 0 0 0 0 0 0 0 0 0 0 0 0 0 -1.66472763471528
0 0 0 0.196869522466297 1.0009746756112 0 0 0 0 0 0 0 0 0 0 0 0 0 0 0 0 0 0 0 0 0 0 0 0 0 0 0 0 0 0 0 0 0 0 0 0 0 0 0 0 0 0 0 0 -0.663366940719722
0 0 0 0 0 0 0 0 0 0 0 0 0 0 0 0 0 0 0 0 0 0 0 0 0 0 0 0 0 0 0 0 0 0 0 0 0 0 0 0 0 0 0 0 0 0 0 0 0 -0.534007805849153
0 0 0 0 0 0 0 0 0 0 0 0 0 0 0 0 0 0 0 0 0 0 0 0 0.269627864991562 0.165457762410062 0.713786661660718 0 0 0 0 0 0 0 0 0 0 0 0 0 0 0 0 0 0 0 0 0 0 0
0 0 0 0 0 0 0 0 0 0 0 0 0 0 0 0 0 0 0 0.0749358657441157 0.633159838687176 0.423624346118585 0 0 0 0 0 0 0 0 0 0 0 0 0 0 0 0 0 0 0 0 0 0 0 0 -3.20951428186455 0 0 0
0 0 0 0 0 0 0 0.459485478663866 0.046891009279341 0.193906873761618 0 0.466164277367846 0.275790298836217 0.20906528461145 0.11664983459527 0.118126954566877 0.504609650535742 0 0 0 0 0 0 0 0 0 0 0 0 0 0 0 0 0 0 0 0 0 0 0 0 0 0 0 0 0 0 0 0 0
0 0 0 0 0 0 0 0 0 0 0 0 0 0 0 0 0.0861076535017239 0 0 0 0 0 0 0 0 0 0 0 0 0 0 0 0 0 0 0 0 0 0 0 0 0 0 0 0 0 0 0 0 0
0 0 0 0 0 0 0 0 0 0 0 0 0 0 0 0 0 0.296811873575095 0.0561994141308033 0.10748573932681 0.15738040520699 0.257813452597241 0 0 0 0 0 0 0 0 0 0 0 0 0 0 0 0 0 0 0 0 0 0 0 0 0 0 0 0
0 0 0 0 0 0 0 0 0 0 0 0 0 0 0 0 0 0 0 0 0 0 0 0 0 0 0 0 0.238692909892777 0 0.459067237093323 0 0 0 0 0 0 0 0 0 0 0 0 0 0 -3.58023226837115 0 0 0 0
0.271321423189101 0 0 0 0 0 0 0 0 0 0 0 0 0 0 0 0 0 0 0 0 0 0 0 0 0 0 0 0 0 0 0 0 0 0 0 0 0 0 0 0 0 0 0 0 -1.58371721635305 0 0 0 0
0 0 0 0 0 0 0 0 0 0 0 0.0985328061793496 0.0871616538779073 0.0578602310004967 0.0603289505033526 0.392080311060789 0.28597714385315 0 0 0 0 0 0 0 0 0 0 0 0 0 0 0 0 0 0 0 0 0 0 0 0 0 0 0 0 -3.81757300556161 0 0 0 0
0 0 0 0 0 0 0 0.263534558031866 0.16467191466602 0.558475384211302 0.101793856014715 0.163404963570513 0 0.445769710294242 0.356724779513646 0 0 0 0 0 0 0 0 0 0 0 0 0 0 0 0 0 0 0 0 0 0 0 0 0 0 0 0 0 0 -2.55945348624781 0 0 0 0
0 0 0 0 0 0 0 0 0 0 0 0 0 0 0 0 0 0 0 0 0 0 0 0 0 0 0 0 0 0 0 0 0 0 0 0 0 0 0 0 0 0.75007011157249 0.324817941879548 0.770778222696617 0.494204868631287 0 0 0 0 0
0 0 0 0 0 0 0 0 0 0 0 0 0 0 0 0 0 0 0 0 0 0 0 0 0 0 0 0 0 0 0 0 0 0 0 0 0 0.6179881858995 0 0 0 0 0 0 0 0 0 0 0 0
0.739331014951673 0.0843765557627105 0.918985907315261 0.173749898167746 1.02078316213911 0.0879849582438971 0 0 0 0 0 0 0 0 0 0 0 0 0 0 0 0 0 0 0 0 0 0 0 0 0 0 0 0 0 0 0 0 0 0 0 0 0 0 0 0 0 0 0 0
0 0 0 0 0 0 0 0 0 0 0 0 0 0 0.0787775748177592 0.257118449922074 0.172163718811374 0 0 0 0 0 0 0 0 0 0 0 0 0 0 0 0 0 0 0 0 0 0 0 0 0 0 0 0 0 0 0 0 0
0 0 0 0 0 0 0 0 0 0 0 0 0 0 0 0 0 0 0 0 0 0 0 0 0 0 0 0 0 0 0.361354063089257 0 0.318010746170293 0.305736546351136 0.134078571087142 0.10637856810475 0 0 0 0 0 0 0 0 0 0 0 0 0 0
