1.16258006515188
0.638125610241969
2.41149893020413
0.639663069871227
0.492463863123322
0.253057599408299
0.409801293784284
1.489151187811
0.0950391859311182
0.107241287090273
0.0248364723466673
0.0436223490755567
0.279993087561018
0.285413490409635
0.588823531866129
1.075091593405
2.92426303542643
0.578234228892244
0.357421964681808
0.721217047473993
0.323611370165472
0.0629300222327009
0.389821750940714
0.679789064311274
0.38079906895557
0.812975432474964
1.55653402804276
0.75690815843361
0.175017582254995
0.596915775138243
0.370546817980898
0.436868181199248
3.40872785604441
0.143001689765861
0.824875689516817
0.866234394187342
2.89746193471458
0.0865130807532267
0.0719198336686303
0.605989564076682
0.0951949152121698
0.972558532175438
0.103401529820257
3.30693832838866
0.636663322219415
1.0883133951608
2.56173892266509
0.438819760948149
0.0942858325966541
0.710591388870361
