0 0 0 -1.42389120995615 0 0 0 0 0 0 0 -0.329376688036284 0 0 0 0 0 -0.797277305694728 0 0 0 0 0 0 0 0 0 0 0 0 0 -1.16896310359305 0 0 0 0 0 0 -1.89561845133092 0 0 0 0 0 0 0 0 0 0 0
0 0 0 0 -0.70416536746721 0 0 0 0 0 0 -0.630631186414152 0 0 0 0 0 0 0 0 0 0 0 0 0 0 0 0 0 0 0 -0.198030926514703 0 0 0 0 0 0 -0.555042296859644 0 0 0 0 0 0 0 0 0 0 0
0 0 0 0 0 0 0 0 0 0 0 -0.400928942609703 0 0 0 0 0 -6.49912296642416 0 0 0 0 0 0 0 0 -1.81505143155589 0 0 0 0 0 0 -1.91687979705855 0 0 0 0 0 0 0 0 0 0 0 0 0 0 -2.26397937253068 0
0.307306072303848 0 0 0 0 0 0 0 0 0 0 0 0 0 0 0 0 -1.71085284859803 0 0 0 0 0 0 0 0 -4.10914357557489 0 0 0 0 0 0 -0.192921730381332 0 0 0 0 0 0 -1.30846770609289 0 0 0 0 0 0 0 0 0
0 0.140215243237682 0 0 0 0 0 0 0 0 0 0 0 0 -0.833333426564345 0 0 0 0 0 0 0 0 0 0 0 -7.9639128751389 0 0 0 0 0 0 0 0 0 0 0 0 0 -0.603775175997068 0 0 0 0 0 0 0 -0.923777643724263 0
0 0 0 0 0 0 0 0 0 0 0 0 0 0 0 0 0 0 0 0 0 0 0 0 0 0 -0.432350188188493 0 0 0 0 0 0 -1.05140925602804 0 0 0 0 0 0 -2.12678059040351 0 0 0 0 0 0 0 0 0
0 0 0 0 0 0 0 0 -0.0850720224005422 0 0 0 -0.877313799939718 0 0 0 0 0 0 -2.12560483155591 0 0 0 0 0 0 0 -3.70664330845241 0 0 0 0 0 -0.402468028825765 0 0 0 0 0 0 -0.395111691392911 0 -1.6734996896415 0 0 0 0 0 -0.0567157491296961 0
0 0 0 0 0 0 0 0 0 -0.77933393813541 0 0 -0.361721609234864 0 0 0 0 0 0 0 0 0 0 0 0 0 0 0 0 0 0 0 0 -1.37751417823942 0 0 0 0 0 0 -2.02731961255481 0 -0.65056162632338 0 0 0 0 0 0 0
0 0 0 0 0 0 0.017342798732911 0 0 0 0 0 0 0 0 -2.25410129836774 0 0 0 0 -0.163008644561143 0 0 0 0 0 0 0 0 0 0 0 -4.00112940732447 -1.22538097826468 0 0 0 0 0 0 0 -0.856955142235547 -1.12230903152697 0 0 0 0 0 0 0
0 0 0 0 0 0 0 0.154085360285176 0 0 0 0 0 0 0 -0.238364578986341 0 0 0 0 -2.89995449356525 0 0 0 0 0 0 0 0 0 0 0 0 0 0 0 0 -0.181055849530961 0 0 0 -0.91343609341103 -0.648400600589753 0 0 0 0 0 0 0
0 0 0 0 0 0 0 0 0 0 0 0 0 0 0 -0.634826326887259 0 0 0 0 -0.37006583380591 0 0 0 0 0 0 0 0 0 0 0 -1.01147086595491 0 0 0 0 0 0 0 0 -2.04396791445564 -1.69235023292206 0 0 0 0 0 0 0
0.0636773791342015 0.123261383860039 0.0874996244391171 0 0 0 0 0 0 0 0 0 0 0 0 0 0 0 0 0 -1.63782059543994 0 0 0 0 0 0 0 0 0 -1.01929900366546 0 0 0 0 0 0 -3.39732518493226 0 0 0 0 0 0 -0.534010193108308 0 0 0 0 0
0 0 0 0 0 0 0.169879467492592 0.0678878697807743 0 0 0 0 0 0 0 0 0 0 0 0 -5.53557129118323 0 0 0 0 0 0 0 0 0 -3.17467720154373 0 0 0 0 0 0 -0.515689267815226 0 0 0 0 -4.69066205083392 0 -1.0303386218309 0 0 0 0 0
0 0 0 0 0 0 0 0 0 0 0 0 0 0 0 0 0 0 0 0 -0.753818485723724 0 0 0 0 0 0 0 0 0 -0.839406995292777 0 0 0 -2.55233542635844 0 0 -2.31360503287016 0 0 0 0 -1.09594663621232 0 0 0 0 0 0 0
0 0 0 0 0.181602641916005 0 0 0 0 0 0 0 0 0 0 0 0 0 0 0 0 0 0 0 0 0 0 0 0 0 0 0 0 0 -7.24105811628066 0 0 -0.856382999065971 0 0 0 0 -1.06518422518452 0 -1.04241765783738 0 0 0 0 0
0 0 0 0 0 0 0 0 0.46509140393154 0.0468927836968327 0.133510965688959 0 0 0 0 0 0 0 0 0 -0.534764900505324 0 0 0 0 0 0 0 0 0 -1.24717501886328 0 0 0 0 0 0 -1.4986553220034 0 0 0 0 -0.592730718260355 0 -0.321780366702479 0 0 0 0 0
0 0 0 0 0 0 0 0 0 0 0 0 0 0 0 0 0 0 0 0 -1.8673120959488 0 0 0 0 0 0 0 0 -1.2133126485234 -2.1149539182827 0 0 0 -3.13896617208174 0 0 -0.563563730926353 0 0 0 0 -4.72412095998847 0 -0.665904040642532 0 0 0 0 0
0.16531624747667 0 1.36145595077753 0.33388102267719 0 0 0 0 0 0 0 0 0 0 0 0 0 0 0 0 0 0 0 0 0 0 0 0 0 -7.24286573414173 -0.318933868604615 0 0 0 0 0 0 -0.126349692293 0 -1.6507147977843 0 0 0 0 0 0 0 0 0 0
0 0 0 0 0 0 0 0 0 0 0 0 0 0 0 0 0 0 0 0 0 0 0 0 0 0 0 0 0 0 -0.394519148846554 0 0 0 -0.565155865150427 0 0 0 0 0 0 0 -3.9808336432189 0 0 0 0 0 0 0
0 0 0 0 0 0 0.383937327186463 0 0 0 0 0 0 0 0 0 0 0 0 0 0 0 0 0 0 0 0 0 0 -1.55162566040357 0 0 0 0 -1.79395474414457 0 -2.09576363762518 0 0 0 0 0 0 0 0 0 0 0 0 0
0 0 0 0 0 0 0 0 0.0337085771821147 0.553719299630869 0.0677994213555057 0.313978924830074 1.11186520179403 0.149420754266437 0 0.103967738222956 0.354519195839584 0 0 0 0 0 0 0 0 0 0 0 0 0 0 0 0 0 -0.520347978765592 0 0 0 0 0 0 0 -5.59622215144395 0 0 0 0 0 0 0
0 0 0 0 0 0 0 0 0 0 0 0 0 0 0 0 0 0 0 0 0 0 0 0 0 0 0 0 0 0 0 0 0 0 -0.615930007598065 0 0 0 0 0 0 0 -1.84968807723964 0 0 0 0 0 0 0
0 0 0 0 0 0 0 0 0 0 0 0 0 0 0 0 0 0 0 0 0 0 0 0 0 -1.0104791020697 0 0 0 0 0 0 0 0 0 0 0 0 0 0 0 0 -3.01817539534918 0 0 0 0 0 0 0
0 0 0 0 0 0 0 0 0 0 0 0 0 0 0 0 0 0 0 0 0 0 0 0 0 -0.247729341794161 0 0 0 0 0 0 0 0 0 0 0 0 0 0 0 0 -0.381485292788055 0 0 0 0 0 0 0
0 0 0 0 0 0 0 0 0 0 0 0 0 0 0 0 0 0 0 0 0 0 0 0 0 -0.876567110713486 0 0 0 0 0 0 0 0 0 0 0 0 0 0 0 0 0 0 0 0 0 0 0 0
0 0 0 0 0 0 0 0 0 0 0 0 0 0 0 0 0 0 0 0 0 0 0.225334681593934 0.0501327450296936 0.17725287426323 0 0 0 0 0 0 0 0 0 -1.64522685785095 -0.583772073908334 0 0 0 0 0 0 0 0 0 0 -1.43372903383118 0 0 0
0 0 0.329665093938353 0.783038999282568 1.56990130647053 0.0872253489505502 0 0 0 0 0 0 0 0 0 0 0 0 0 0 0 0 0 0 0 0 0 0 0 0 0 0 0 0 0 -3.99032907285538 0 0 0 0 0 0 0 0 0 0 -0.508769588956544 0 0 0
0 0 0 0 0 0 0.74541797366236 0 0 0 0 0 0 0 0 0 0 0 0 0 0 0 0 0 0 0 0 0 0 0 0 0 0 0 0 0 0 0 0 0 0 0 0 0 0 0 -0.485618532386247 0 0 0
0 0 0 0 0 0 0 0 0 0 0 0 0 0 0 0 0 0 0 0 0 0 0 0 0 0 0 0 0 0 0 0 0 0 0 0 0 0 0 0 0 0 0 0 0 0 -0.386354681674732 0 0 0
0 0 0 0 0 0 0 0 0 0 0 0 0 0 0 0 0.265388259315301 1.35006833588962 0 0.287482685197428 0 0 0 0 0 0 0 0 0 0 0 0 0 0 0 0 0 0 0 0 0 0 0 0 0 0 0 0 0 0
0 0 0 0 0 0 0 0 0 0 0 0.204914837549274 0.682872987150516 0.152019037045497 0 0.257805380028476 0.420254448106646 0.0628131618268309 0.0869161858330066 0 0 0 0 0 0 0 0 0 0 0 0 0 0 0 0 0 0 0 0 0 0 0 0 0 0 0 0 0 0 0
0.211219661586962 0.0371360123261932 0 0 0 0 0 0 0 0 0 0 0 0 0 0 0 0 0 0 0 0 0 0 0 0 0 0 0 0 0 0 0 0 0 0 0 0 0 0 0 0 0 -1.08083059545022 0 0 0 0 0 0
0 0 0 0 0 0 0 0 0.895004153257087 0 0.206488299593982 0 0 0 0 0 0 0 0 0 0 0 0 0 0 0 0 0 0 0 0 0 0 0 0 0 0 0 0 0 0 0 0 0 0 -2.58055644958122 0 0 0 0
0 0 0.404166659292071 0.040071023141453 0 0.223680224728072 0.078116802953272 0.274974309665622 0.26955184891629 0 0 0 0 0 0 0 0 0 0 0 0 0 0 0 0 0 0 0 0 0 0 0 0 0 0 0 0 0 0 0 0 0 0 0 0 -1.40017851771998 0 0 0 0
0 0 0 0 0 0 0 0 0 0 0 0 0 0.525151117766978 1.49527098465192 0 0.588486521438587 0 0.10769002989647 0.360801100054061 0.106484889583607 0.117321525478234 0 0 0 0.327052727203709 0 0 0 0 0 0 0 0 0 0 0 0 0 0 0 0 0 0 0 0 0 0 0 0
0 0 0 0 0 0 0 0 0 0 0 0 0 0 0 0 0 0 0 0 0 0 0 0 0 0.119078220965894 0.784860518689062 0 0 0 0 0 0 0 0 0 0 0 0 0 0 0 0 0 0 -1.06586607763654 0 0 0 0
0 0 0 0 0 0 0 0 0 0 0 0 0 0 0 0 0 0 0 0.438652688304053 0 0 0 0 0 0 0 0 0 0 0 0 0 0 0 0 0 0 0 0 0 0 0 0 0 -0.578842277599132 0 0 0 0
0 0 0 0 0 0 0 0 0 0.037007165554188 0 0.682420296080696 0.0962342520981192 0.457547006344201 0.174953574387725 0.320645322680419 0.115126553177936 0.025720300664486 0 0 0 0 0 0 0 0 0 0 0 0 0 0 0 0 0 0 0 0 0 0 0 0 0 0 0 0 0 0 0 0
0.340448718199894 0.115230917059666 0 0 0 0 0 0 0 0 0 0 0 0 0 0 0 0 0 0 0 0 0 0 0 0 0 0 0 0 0 0 0 0 0 0 0 0 0 0 0 0 0 0 0 0 0 0 0 0
0 0 0 0 0 0 0 0 0 0 0 0 0 0 0 0 0 0.326126930767359 0 0 0 0 0 0 0 0 0 0 0 0 0 0 0 0 0 0 0 0 0 0 0 0 0 0 0 0 0 0 0 0
0 0 0 0.270531086504626 0.120877899621053 0.480153527911962 0.0790001136170664 0.405758123744085 0 0 0 0 0 0 0 0 0 0 0 0 0 0 0 0 0 0 0 0 0 0 0 0 0 0 0 0 0 0 0 0 0 0 0 0 0 0 0 0 0 0
0 0 0 0 0 0 0 0 0.179292207176528 0.171647855102981 0.439871107400451 0 0 0 0 0 0 0 0 0 0 0 0 0 0 0 0 0 0 0 0 0 0 0 0 0 0 0 0 0 0 0 0 0 0 0 0 0 0 0
0 0 0 0 0 0 0.299012816458112 0.13455535093385 0.232469654932001 0.133788720949513 0.331484542104293 0 0.928469531563825 0.214156951619385 0.202510695108217 0.104940457448385 0.93688864244497 0 0.801667891654377 0 1.17301347039046 0.328292707176919 0.572978570808217 0.0788758506820417 0 0 0 0 0 0 0 0 0 0 0 0 0 0 0 0 0 0 0 0 0 0 0 0 0 0
0 0 0 0 0 0 0 0 0 0 0 0 0 0 0 0 0 0 0 0 0 0 0 0 0 0 0 0 0 0 0 0.214958584684778 0 0 0 0 0 0 0 0 0 0 0 0 0 0 0 -0.537361232390231 0 -0.600252081206619
0 0 0 0 0 0 0 0 0 0 0 0.100709952617154 0.237261323906862 0 0.204133795372267 0.0612506618685764 0.124613973333275 0 0 0 0 0 0 0 0 0 0 0 0 0 0 0 0 0 0 0 0 0 0 0 0 0 0 0 0 0 0 -1.51132810434595 0 0
0 0 0 0 0 0 0 0 0 0 0 0 0 0 0 0 0 0 0 0 0 0 0 0 0 0 0 0 0 0 0 0 0.496776620303988 0.267910089196026 0 0.211756481433942 0.110647514066151 0 0 0 0 0 0 0 0 0 0 0 0 -1.59814355858687
0 0 0 0 0 0 0 0 0 0 0 0 0 0 0 0 0 0 0 0 0 0 0 0 0 0.273403631820152 0.110942082740337 0.102295711049287 0.0742406201532692 0 0 0 0 0 0 0 0 0 0 0 0 0 0 0 0 0 0 0 0 0
0 0 0 0 0 0 0 0 0 0 0 0 0 0 0 0 0 0 0 0 0 0 0 0 0 0 0 0 0 0 0 0 0 0 0 0 0 0 0 0 0 0 0 0.109355660065077 0.272120687828645 0 0 0 0 0
0 0 0.453701239563276 0 0.195279828393961 0 0.0112714345401923 0 0 0 0 0 0 0 0 0 0 0 0 0 0 0 0 0 0 0 0 0 0 0 0 0 0 0 0 0 0 0 0 0 0 0 0 0 0 0 0 0 0 0
0 0 0 0 0 0 0 0 0 0 0 0 0 0 0 0 0 0 0 0 0 0 0 0 0 0 0 0 0 0 0 0 0 0 0 0 0 0 0 0 0 0 0 0.124401298874392 0 0.334360989088408 0 0 0 0
