0.124018424383712
0.107390132535801
0.232123791494205
4.78916692523974
0.0104523679512361
0.380336431280589
0.346369031033863
0.230769249388589
0.435468758445729
0.680650021914756
0.227586070186702
1.42030057370811
0.403299497207963
0.535633994810328
2.81415209055888
10.2712417943571
0.169148832919662
1.68716598490056
0.895151206012664
0.0804392460164867
0.136122313361088
0.657683102553656
0.0388494638709141
0.272368855189447
0.0122541043864674
0.146343279197691
0.09732964970111
1.67784003152359
2.38973141763539
0.11972380351429
0.162663787691261
0.843789301215055
0.549367072252442
1.87199693108694
0.0760666238860927
1.42648645994359
0.664243015501585
0.568519775649948
0.270571570301815
0.126154669848737
4.29966922748619
0.396968121050003
2.30557022887162
0.183552674905554
0.162128047903024
0.0696344499202981
4.99261827000589
0.198673902437717
1.81216952048062
1.06318631334082
