0 0 -1.98206932913527 0 0 0 0 0 0 0 0 0 0 0 0 0 0 0 -2.30875700764892 0 0 0 0 0 0 -3.37917832360739 0 0 0 0 0 0 0 0 0 0 0 0 0 0 0 0 0 0 0 0 0 0 0 0
0 0 0 0 0 0 0 0 0 0 0 0 0 0 0 0 0 0 0 0 0 0 0 0 0 -0.187536463270658 0 0 0 0 0 0 0 0 0 0 0 0 0 0 0 0 0 0 0 0 0 0 0 0
0.374690198984965 0 0 0 0 0 0 0 -9.46101719455092 0 0 0 0 0 0 0 0 0 -0.859099450938429 0 0 0 0 -0.997010861948914 0 -5.62619177475289 0 0 0 0 0 0 0 0 0 0 0 0 0 0 0 0 0 0 0 0 0 0 0 0
0 0 0 0 0 0 -4.57348581589052 0 0 0 0 0 0 0 0 0 0 0 -0.557497045014102 0 0 0 0 -0.408360130267386 0 0 0 0 0 0 0 0 0 0 0 0 0 0 0 0 0 0 0 0 0 0 0 0 0 0
0 0 0 0 0 0 -0.890932715689751 0 0 0 0 0 0 0 0 0 0 0 -7.60384907375095 0 0 0 -1.33183454432576 -0.709069908207828 0 -2.00503972414523 0 0 0 0 0 0 0 0 0 0 0 0 0 0 0 0 0 0 0 0 0 0 0 0
0 0 0 0 0 0 0 0 0 0 0 0 0 0 0 0 0 0 0 0 0 0 0 -0.994478956999784 0 0 0 0 0 0 0 0 0 0 0 0 0 0 0 0 0 0 0 0 0 0 0 0 0 0
0 0 0 0.924235032013978 0.174267244464978 0 0 0 0 0 0 0 0 0 0 0 0 -0.84069131306372 0 0 0 0 0 -1.3359297729005 0 0 0 0 0 0 0 0 0 0 0 0 0 -1.17877377548623 0 0 0 0 0 0 0 0 0 0 0 0
0 0 0 0 0 0 0 0 0 0 0 0 0 0 0 0 0 -2.85395683042813 0 0 0 0 0 -1.78269738847128 0 0 0 0 0 0 0 0 0 -0.825835050833122 0 0 0 -3.55549034240302 -0.773055331115384 0 0 0 0 0 0 0 0 0 0 0
0 0 1.81094284390043 0 0 0 0 0 0 0 0 -0.712452686967098 0 0 0 -0.616012464721671 0 -2.51189520778049 0 0 0 0 0 -1.89268201588609 0 0 0 0 0 0 0 0 0 -1.05321470005359 0 0 0 -4.10408063260027 -2.51117255421172 0 0 0 0 0 0 0 0 0 0 0
0 0 0 0 0 0 0 0 0 0 0 -1.1503981019814 0 0 0 -1.31063964735391 0 0 0 0 0 0 0 0 0 0 0 0 0 0 0 0 0 -0.795014314950379 0 0 0 0 -0.960009967964308 0 0 0 0 0 0 0 0 0 0 0
0 0 0 0 0 0 0 0 0 0 0 0 0 0 0 -0.676583841127848 0 0 0 0 0 0 0 0 0 0 0 0 0 0 0 0 0 -1.00868723543999 0 0 0 0 -1.72127494552913 0 0 0 0 0 0 0 0 0 0 0
0 0 0 0 0 0 0 0 0.140704340771347 0.209681515740779 0 0 -6.21443334188678 0 0 0 0 0 0 -1.38819234284917 0 0 0 0 0 0 0 0 0 0 0 0 0 0 0 0 0 -0.483204869701928 0 0 0 0 0 0 0 0 0 0 0 0
0 0 0 0 0 0 0 0 0 0 0 1.23503625933952 0 0 0 0 0 0 0 -0.899424421111483 0 -1.04004465258829 0 0 -0.0824870981292724 0 -1.17544529023668 0 0 0 0 0 0 0 0 0 0 -0.495201770591885 -1.4405196993712 0 0 0 0 0 0 0 -1.21204016847196 0 0 0
0 0 0 0 0 0 0 0 0 0 0 0 0 0 0 0 0 0 0 0 0 -1.87692217096418 0 0 0 0 -0.562041711410654 0 0 0 0 0 0 0 0 0 0 0 0 0 -1.09019123568253 0 0 0 0 0 0 0 0 0
0 0 0 0 0 0 0 0 0 0 0 0 0 0 0 0 0 0 0 0 0 -2.36068335246363 0 0 0 0 -1.74754463581139 0 0 0 0 0 0 0 0 0 0 0 0 0 -0.16243426569367 0 0 0 0 0 0 0 0 0
0 0 0 0 0 0 0 0 0.111208379701295 0.268541043620689 0.135531319965668 0 0 0 0 0 0 0 0 0 0 0 0 0 0 0 -1.53163582669264 0 0 0 0 0 0 0 0 0 0 0 0 0 -0.976028394840015 0 0 0 0 0 0 0 0 -0.199775474425366
0 0 0 0 0 0 0 0 0 0 0 0 0 0 0 0 0 0 0 0 0 0 0 0 0 0 -1.93452453673148 -1.83039765623332 0 0 0 0 -1.39176058448798 0 0 0 0 0 0 0 0 0 0 0 0 0 0 0 0 -0.962831015844766
0 0 0 0 0 0 0.173277759627431 0.630757766775099 0.49181810048254 0 0 0 0 0 0 0 0 0 0 0 0 0 0 0 0 0 0 0 0 0 0 0 0 0 0 0 0 0 0 0 0 0 0 0 0 0 0 0 0 0
0.481195563618344 0 0.156343009302843 0.10986920274826 1.52336497544193 0 0 0 0 0 0 0 0 0 0 0 0 0 0 0 0 0 0 0 0 0 0 0 0 0 0 0 0 0 0 0 0 0 0 0 0 0 0 0 0 0 0 0 0 -0.137074246269943
0 0 0 0 0 0 0 0 0 0 0 0.2653726509575 0.195254372404824 0 0 0 0 0 0 0 0 0 0 0 0 0 0 0 0 0 0 0 0 0 0 0 0 0 0 0 0 0 0 -1.09943883438065 0 0 0 0 0 -5.22187231963689
0 0 0 0 0 0 0 0 0 0 0 0 0 0 0 0 0 0 0 0 0 0 0 0 0 0 0 0 0 0 0 0 0 0 0 0 0 0 0 0 0 0 0 -0.466531731322327 0 0 0 0 -0.63554114273194 0
0 0 0 0 0 0 0 0 0 0 0 0 0.223602039574602 0.379540013045761 0.464493614112847 0 0 0 0 0 0 0 0 0 0 0 0 0 0 0 0 0 0 0 0 0 -1.33276182818055 0 0 0 0 0 0 -0.548177729844826 0 -0.314914703291479 0 0 -2.30656137288338 -0.0758093178656798
0 0 0 0 0.276192828170147 0 0 0 0 0 0 0 0 0 0 0 0 0 0 0 0 0 0 0 0 0 0 0 0 0 0 0 0 0 0 0 -0.376614571846686 0 0 0 0 0 0 -0.634465711124835 0 -0.947116717613506 0 0 0 -0.675911862356368
0 0 0.202313989248942 0.0890890298664516 0.141533436194132 0.201292625830532 0.25470026819351 0.375172502371606 0.363456148342344 0 0 0 0 0 0 0 0 0 0 0 0 0 0 0 0 0 0 0 0 0 0 0 0 0 0 0 -1.77530286349931 0 0 -0.619235232716203 0 0 0 -0.43300675282332 0 -1.92451932380863 0 0 -1.71390241775471 -0.404541510083237
0 0 0 0 0 0 0 0 0 0 0 0 0.0167794030752989 0 0 0 0 0 0 0 0 0 0 0 0 0 0 0 0 0 0 0 0 0 0 0 -0.277883303079261 0 0 -1.58789219517462 0 0 0 -1.8973951951462 0 0 0 -2.42688660148206 -1.8919890023847 0
0.680799342529554 0.0384519272639073 1.17982987979286 0 0.362651718803995 0 0 0 0 0 0 0 0 0 0 0 0 0 0 0 0 0 0 0 0 0 0 0 0 0 0 0 0 0 0 -0.149536322560909 -0.296513734699748 0 0 -2.33746362353156 0 0 0 -1.17940577844692 0 -0.923970713030391 0 -0.321468445598537 0 -0.320519619196071
0 0 0 0 0 0 0 0 0 0 0 0 0.250737967088728 0.111792800943637 0.365105833373134 0.298499750833449 0.394679007553381 0 0 0 0 0 0 0 0 0 0 0 0 0 0 0 0 0 0 -0.814082687381249 -6.86104088253753 0 0 -8.67184777929195 0 0 0 -2.86153974087328 0 -0.5445902603459 0 -0.610156995233529 -5.94384281705222 -0.365092041550941
0 0 0 0 0 0 0 0 0 0 0 0 0 0 0 0 0.385961170436816 0 0 0 0 0 0 0 0 0 0 0 0 0 0 0 0 0 0 -1.77560894032735 -0.877805248452243 0 0 -2.59287690171093 0 0 0 -0.69030861379116 0 0 0 0 -10.5309216924393 0
0 0 0 0 0 0 0 0 0 0 0 0 0 0 0 0 0 0 0 0 0 0 0 0 0 0 0 0 0 0 0 0 0 0 0 -6.20199910909899 -0.83829725892154 0 0 -1.09787666835236 0 0 0 0 0 0 0 0 -0.554056521000989 0
0 0 0 0 0 0 0 0 0 0 0 0 0 0 0 0 0 0 0 0 0 0 0 0 0 0 0 0 0 0 0 0 0 0 0 -2.83070775188946 -2.60892411719391 0 0 0 0 0 0 0 0 0 0 0 0 0
0 0 0 0 0 0 0 0 0 0 0 0 0 0 0 0 0 0 0 0 0 0 0 0 0 0 0 0 0 0 0 0 0 0 0 0 0 0 0 0 0 0 0 0 0 0 0 0 -2.90831222499394 0
0 0 0 0 0 0 0 0 0 0 0 0 0 0 0 0 0 0 0 0 0 0 0 0 0 0 0 0 0 0 0 0 0 0 0 0 -1.77915670786763 0 0 0 0 0 0 0 0 0 0 0 -7.25239260369874 0
0 0 0 0 0 0 0 0 0 0 0 0 0 0 0 0 0.293533359846317 0 0 0 0 0 0 0 0 0 0 0 0 0 0 0 0 0 0 0 -0.947385176582945 0 0 0 0 0 0 0 0 0 0 0 -2.89969455330266 0
0 0 0 0 0 0 0 0.14958706953617 0.210168399109474 0.159101668028094 0.208958562014289 0 0 0 0 0 0 0 0 0 0 0 0 0 0 0 0 0 0 0 0 0 0 0 0 0 -5.42839747439752 0 0 0 0 0 0 0 0 0 0 0 -0.216801346488623 0
0 0 0 0 0 0 0 0 0 0 0 0 0 0 0 0 0 0 0 0 0 0 0 0 0 0 0 0 0 0 0 0 0 0 0 0 -0.765970554482562 0 0 0 0 0 0 0 0 0 0 0 -4.14285255020377 0
0 0 0 0 0 0 0 0 0 0 0 0 0 0 0 0 0 0 0 0 0 0 0 0 0 0.0270718047252246 0.175381610294374 0.411965911634404 1.26161280623768 0.481303519069301 0 0 0 0 0 0 -0.919381331105494 0 0 0 0 0 0 0 0 0 0 0 0 0
0 0 0 0 0 0 0 0 0 0 0 0 0 0 0 0 0 0 0 0 0 0.25517843047217 0.0761311972565754 0.364785337378971 0.0606857151090749 0.0663440775228307 1.40700544954329 0.170920790492582 0.169182846126369 0.523399139498157 0 0.35933424487029 0.195648252981382 1.09554539623639 0.146959117902955 0.189391161868803 0 0 0.215369987676657 0 0 0 0 0 0 0 0 0 0 0
0 0 0 0 0 0 0.227622716355076 0.683471809552999 0.799617982079901 0 0 0.0911508883034467 0.0884689027466636 0 0 0 0 0 0 0 0 0 0 0 0 0 0 0 0 0 0 0 0 0 0 0 0 0 0 0 0 0 0 0 0 0 0 0 0 0
0 0 0 0 0 0 0 0.153209324107151 0.55544621851622 0.188207937555078 0.335787349677085 0 0.301408774092609 0 0 0 0 0 0 0 0 0 0 0 0 0 0 0 0 0 0 0 0 0 0 0 -1.09082987342094 0 0 0 0 0 0 0 0 0 0 0 0 0
0 0 0 0 0 0 0 0 0 0 0 0 0 0 0 0 0 0 0 0 0 0 0 0.127208510377845 0.341340055683896 0.450526178642867 1.74713359821614 0.537446522552956 0.236854491378764 0 0 0 0 0 0 0 0 0 0 0 0 0 0 0 0 0 0 0 0 0
0 0 0 0 0 0 0 0 0 0 0 0 0 0.218416501945452 0.0327208919630967 0.204590362914893 0 0 0 0 0 0 0 0 0 0 0 0 0 0 0 0 0 0 0 0 0 0 0 0 0 0 -0.618733006578568 0 0 0 0 0 0 0
0 0 0 0 0 0 0 0 0 0 0 0 0 0 0 0 0 0 0 0 0 0 0 0 0 0 0 0 0 0 0 0 0 0 0 0 0 0 0 0 0 0 -0.0355818511343028 0 0 0 0 0 0 0
0 0 0 0 0 0 0 0 0 0 0 0 0 0 0 0 0 0 0 0 0 0 0 0 0 0 0 0 0 0 0 0 0 0 0 0 0 0 0 0 0.124632162517581 0.007309929846394 0 0.306628085336946 0.081177789343785 0 0 0 0 0
0 0 0 0 0 0 0 0 0 0 0 0 0 0 0 0 0 0 0 0.215120502874103 0.0990806248706192 0.1107114135642 0.131219587774449 0.0857209402643765 0.37129270611082 0.23419934808397 0.575699146270204 0.130893193452455 0 0 0 0 0 0 0 0 0 0 0 0 0 0 -1.53652409001196 0 0 0 0 0 0 0
0 0 0 0 0 0 0 0 0 0 0 0 0 0 0 0 0 0 0 0 0 0 0 0 0 0 0 0 0 0 0 0 0 0 0 0 0 0 0 0 0 0 -0.377227125136446 0 0 0 0 0 0 0
0 0 0 0 0 0 0 0 0 0 0 0 0 0 0 0 0 0 0 0 0 0.0618708294014486 0.20320815666544 0.34415909220326 0 0.181224070839478 0.105997270565879 0 0 0 0 0 0 0 0 0 0 0 0 0 0 0 0 0 0 0 0 0 0 0
0 0 0 0 0 0 0 0 0 0 0 0 0.228905174436352 0 0 0 0 0 0 0 0 0 0 0 0 0 0 0 0 0 0 0 0 0 0 0 0 0 0 0 0 0 0 0 0 0 0 0 0 0
0 0 0 0 0 0 0 0 0 0 0 0 0 0 0 0 0 0 0 0 0 0 0 0 0.46811113774081 0.0608156551189458 0.121790365067709 0 0 0 0 0 0 0 0 0 0 0 0 0 0 0 0 0 0 0 0 0 0 0
0 0 0 0 0 0 0 0 0 0 0 0 0 0 0 0 0 0 0 0 0.12622033296506 0.481176542753995 0 0.382151623572702 0.401218912388888 0 1.14087148887402 2.05985814399254 0.106295285679152 0 0.571250531345259 1.38821543312209 0.5427727517112 0.0453010824097265 0.88884390891536 0 0 0 0 0 0 0 0 0 0 0 0 0 0 0
0 0 0 0 0 0 0 0 0 0 0 0 0 0 0 0.0381810281205492 0.204312390414975 0 0.0274305789990824 1.03878871576412 0 0.0150036640015976 0.142890207092547 0.0730995236968613 0 0.0664353532680078 0.0712566422405645 0 0 0 0 0 0 0 0 0 0 0 0 0 0 0 0 0 0 0 0 0 0 0
