0.110092061775333
1.06572851777177
0.497630871530045
0.965949408596434
0.402060949854518
0.473075570025891
0.206327868118589
0.854980393120595
0.283498647370172
0.180056873975809
1.47315321383024
0.182173576295761
1.16549889488413
0.313085007996912
0.184080802946822
3.23257232931701
0.306230531087267
0.958631769832673
1.47879112442161
1.21498971725936
0.701828655090643
0.0227723284661769
0.428652341342722
2.06887208185167
2.62588986169764
3.05570307559645
0.231696027206162
0.880705466186033
0.0484976826432178
0.635153897068954
0.100215561283573
0.364138224864858
0.335557454103389
0.0399484203523868
0.14355817924273
0.363330047856086
0.0988396477079176
0.377494330220724
0.376708889162891
0.412657263725545
0.801564821847711
0.699842711342803
1.09699775556764
4.08032781563346
0.0527909586902008
0.359574789500273
0.136653086428027
0.568023524080297
3.49499779978256
4.21161158756128
