0.418615722561292
0.26918201912786
4.01255002489455
1.18712712949714
3.27585384786076
2.00388819601682
2.37160297719187
0.205247076010364
0.863555327845789
0.469490855097211
0.354899285600308
1.57032051914661
3.02195435187026
4.40858774134659
0.421695324327972
1.53151809807266
0.21491129812251
2.95294430375353
0.584591097850179
0.425740199147824
0.116488996029378
4.80880318355845
0.958409115054475
3.62624150704093
0.576717850812792
0.794947104757616
1.82843672951029
1.17608354424775
2.03333358817541
0.211807738182015
1.19026205935326
2.15419131230292
0.213398870298865
2.34710394900067
2.87185862770272
4.12678668884207
1.14285950579271
4.20058403634815
0.731716407395485
0.84790696476416
0.613631333614669
0.365997935153454
0.212231386103376
0.0868288399173426
0.376242701383072
1.90965946192737
0.138231115958542
0.244835956215456
3.08155792121457
1.33075876410384
