4.98160787973123
0.31251460960403
1.19582617937043
1.23575434490612
1.10047302556486
0.387459045815822
0.876352897136131
0.138037455983141
0.0787707980386688
0.580432844421867
5.60698623535581
2.47870332357001
2.33255216559972
0.310785204447407
3.50447326656455
0.210436143340121
0.470060314700895
0.521715436211982
0.0382674779736813
0.269683586540074
0.226035293087283
1.43436574506382
0.663286781622041
0.0544029755249581
2.86119586410581
0.565061557107895
0.714567956550889
0.700478711427588
0.198797251702839
0.924274020927318
0.175657438599967
5.39495273796823
0.928015602540467
0.67393343231671
0.10957421375569
0.375217357250971
0.737517813448384
0.395009866670322
0.355785970661897
0.288976459673821
0.558544921000021
2.77806115764221
0.70650492304984
5.08307703063261
0.428939576345094
0.0114422256311318
0.596257425606366
0.723047283910228
1.07006309489465
0.839948719843627
