0.175782154324312
0.49616885896833
0.978430865143325
0.20107517044532
0.133626142501264
5.20236961680044
0.0858493986698361
0.112738488422531
0.395611046554195
0.340530246121132
0.547543318809983
0.631204392389353
2.02377200443734
3.19784868589304
1.47898045107555
0.27069723683703
0.571389769436294
0.185234198750553
0.141125169837542
1.74252576720842
1.36730873919237
1.54585297098805
0.0230234988023578
0.560503772049878
0.196426170616548
0.532589042075177
0.154861193055557
0.0129366940950999
0.206143447953233
0.0912080300833312
0.255741880265655
0.0802594918546609
2.68238531157173
0.838654760263426
1.68895360227879
0.4415094485996
0.274743597654779
0.315272533883545
4.86063185419719
0.0500795333688027
1.52646111794416
0.479839826246351
0.774475363438873
0.125908779447953
0.800202708091128
0.311831482811423
0.814183323101958
0.262648319742163
0.00775556255090662
0.339116395812739
