0.319086595705999
0.222583041429408
0.786095985167085
1.86919635686563
1.05418309830367
0.281685580567564
0.0775483170122686
1.32009084573586
0.397220035007714
0.48667571131175
0.0826184558099383
0.507335895744391
1.0118353123381
2.80234859332076
0.175557387270715
0.859300531763495
0.220924317805949
0.262551263830951
0.296962427949324
1.70510745995536
0.567183582693638
0.0791460668847006
0.388690560448341
0.407161733356883
0.986512721312393
0.486394012397959
1.16881366538549
0.374579575630112
0.976600167578359
0.192221458176778
1.28422275193366
1.98213213776543
2.55096017550757
0.427897467612218
0.183210621907742
0.0517979198622765
0.239765156650794
1.42937562284977
2.19276396889528
1.38642492341588
0.250594283142961
2.18898000461016
1.34384087467524
0.719021570097176
1.02940827548166
2.09082992589738
0.317451929332213
0.187613239433962
1.05742494267941
0.528345666461619
