0.109669087999174
1.06088691523981
0.0267704796534748
0.691106566849057
1.6553824528913
0.818413896281644
1.01781601935048
0.962960221697558
3.18529544296768
1.65462730789932
1.01150763556761
0.167017391656164
0.784639452894272
0.285268045433386
0.329621494008901
1.1534320144064
2.93085793678602
1.83449733580562
0.22140725285808
1.13527216115116
2.78069582693715
0.368062081775382
0.916242167212836
0.580528751727298
0.529634993386229
0.725058128439215
0.373883977069066
0.904576608315566
1.0245591617444
1.50536002428729
1.92966247436086
1.40737892663446
1.86925533998894
0.0638275648602756
1.99244509670946
0.408958193091717
1.52134113514282
2.11099786975007
0.261356510890897
0.537201605161448
2.72852296542692
0.970043938314505
4.3220397398492
1.54908282571184
0.163006731538121
2.0384122263362
6.13242045334008
0.35532864204726
1.07517142213147
1.49598649027056
