1.20217342644996
1.81971317890976
1.36598694151849
0.319132026392752
0.494857445840882
1.73445768136412
1.51498446675543
0.648600811027557
0.16996735893945
4.18766467361541
1.14131292784482
0.0297717716263256
1.84073537802597
0.735273453547941
1.95502286650854
1.17233721250247
0.468353662722105
0.258482254613192
2.77551582921823
1.43080191219884
1.44311355842102
1.04224805278447
0.732086312365089
0.281258582143174
1.13536292022458
1.36288278926242
0.489955847384727
2.10612026619361
3.68020587812574
2.09768321930502
0.359552540596987
0.386017421766927
0.417267157148032
2.37112280583981
1.60779099278589
0.789957955558051
0.933710164081548
1.94204679734479
0.31849619813605
0.310030666169265
0.357557183420511
1.32598589780881
0.795152057195804
0.145563747935081
2.26825295422176
0.505391813414231
0.491906410748379
0.0761609724569632
0.279637006386488
3.98002160151209
