0.346989631441934
0.67810301209582
0.850085425832549
2.518827662247
1.29905821978561
0.330736985558735
0.42074090296412
1.42190761714653
0.973812092413926
0.706098159387667
0.239611243348731
0.643697007183746
1.09896499993537
4.2664292464804
0.799820495498469
1.0571501400811
0.765259726839848
0.670172377081442
1.41903364122826
3.23141643872316
0.811494991186211
0.526701951995204
0.717106549129062
0.813180935792111
1.42206989296004
0.654169565824961
1.38024835739146
1.46992696606581
1.02172407258396
0.323577335594458
2.29119285351957
2.96404353947651
2.95153517905794
0.737211631690074
0.522874695187368
0.0894787252760395
0.42869493251216
1.47722490825154
2.5922679071975
1.45510720001617
0.469131922033019
3.15861443383554
2.66635402402048
0.923400437817306
1.63267099175449
2.88577761443749
0.388701270854485
0.378859720040158
1.43899059265873
1.77146899569428
