0.113573759036797
0.10138584898121
0.896516155837987
0.947736121682801
0.185976465500591
0.6788659917534
0.458424374574307
0.0142858035668953
1.49469566592344
0.772151826855654
1.24437001039011
0.0335456944471819
0.600531145767101
0.693212101531214
0.352793701295719
0.62410291609618
0.653457682210542
0.0581565018057318
0.484997080368274
0.0538302263205345
0.955318251221514
0.372162416006091
0.999328860578661
0.137077651023484
1.27486842673664
0.270476772714616
0.373498345658839
0.486465301401715
0.370120322711451
0.947664962304463
0.236685644220593
0.612449279260366
0.516116592677736
1.02318139194674
1.91825492722813
0.802072639828506
0.0348666159584786
0.325149705588343
0.116954762564047
0.418477041754068
0.33935050096723
0.160019016614041
0.194735172133655
0.0014125620836471
0.677321369585621
0.142280902092562
0.527830786131488
0.244805659975746
0.22408527737043
0.125362535245331
