0.0437070903487814
0.40936085232535
0.50941505680713
0.570473141448823
0.527120484466573
0.380534086988974
1.51758138136348
0.464604615779442
2.86724216591494
0.388920358888835
2.02018058423568
0.92223573873008
1.09494425663796
2.77462492784619
0.14874875768913
1.16489172744352
1.4712535260682
0.403332592556091
0.171267753635066
0.163326093393829
0.360998929418894
0.0649365624879808
0.136625452628704
0.573101163957101
0.750792001095362
0.101009473303813
0.260233793184546
0.220063480547684
0.550656474700464
0.272725604232521
0.421064918549629
0.133933985675251
0.514233975013661
0.723137838020073
0.2823282270034
0.166809830108632
0.472532322485696
4.45107523911822
0.227750131852964
0.830057935295288
0.171783151631593
0.18384078164705
0.230710976482818
0.398509247757129
0.638663287410015
0.826019847152136
0.0446189478401412
1.12051519238784
0.377913443973306
0.955966589846502
