0 0 0 0 0 0 0 0 0 0 0 0 0 0 0 0 0 0 0 0 0 0 0 0 0 0 0 0 0 0 0 0 0 0 0 0 0 0 0 -3.7789278347714 0 0 0 0 0 0 0 0 0 0
0 0 0 0 0 0 0 0 0 0 0 0 0 0 0 0 0 0 0 0 0 0 0 0 0 0 0 0 0 0 0 0 0 0 0 0 0 0 0 -2.25750786028198 0 0 0 0 0 0 0 0 0 0
0 0 0 -1.79921983651509 0 0 0 0 0 0 0 0 0 0 0 0 0 0 0 0 0 0 0 0 0 0 0 0 0 0 0 0 0 0 0 0 0 0 0 0 0 0 0 0 0 0 0 0 0 0
0 0 0.369303412331623 0 0 0 0 0 0 0 0 0 0 0 0 0 0 0 0 0 0 0 0 0 0 0 0 0 0 0 -1.51135951228987 0 0 0 0 0 0 0 0 0 0 0 0 0 0 0 0 0 0 0
0 0 0 0 0 0 0 0 0 0 0 0 0 0 0 0 0 0 0 0 -0.80441353383141 0 0 0 0 0 0 0 0 -2.61403999517483 0 0 0 0 0 0 0 0 0 0 0 0 0 0 0 0 0 0 0 0
0 0 0 0 0 0 0 0 0 0 0 0 0 -1.33592716077412 0 -0.566346045351981 0 0 0 0 0 0 0 0 0 0 0 0 0 0 0 0 0 0 -0.773209019572147 0 0 0 0 0 0 0 0 0 0 0 0 0 0 0
0 0 0 0 0 0 0 0 0 0 0 0 0 0 0 0 0 0 0 -2.12476794081494 0 -1.03610571846767 -2.35924094882387 0 0 0 0 0 -1.62540888412653 0 0 0 0 0 -0.656837690896774 0 0 0 0 0 0 0 0 0 0 0 0 0 0 0
0 0 0 0 0 0 0 0 0 0 0 0 0 -1.35687407116046 0 0 0 0 0 -0.471563463144555 0 -0.470089865579877 -1.05656812043899 0 0 0 0 0 0 0 0 0 0 0 -0.507077915689605 0 0 0 0 0 0 0 0 0 0 0 0 0 0 0
0 0 0 0 0 0 0 0 0 0 0 0 0 0 0 0 -0.515647689883368 0 0 -0.509326822584327 0 -2.2433549090493 -0.990001390601408 0 0 -1.21353677838373 0 0 0 0 0 0 0 0 -0.868462037333514 0 0 0 0 0 0 0 0 0 0 0 0 0 0 0
0 0 0 0 0 0 0 0 0 0 0 0 0 0 0 0 -1.97473782268423 0 0 -0.429096197100315 0 0 -0.0535572360680597 0 0 0 0 0 0 0 0 0 0 0 0 -0.658818335511418 0 0 0 0 0 0 0 0 0 0 0 0 0 0
0 0 0 0 0 0 0 0 0 0 0 0 0 0 0 0 -0.494119850758496 0 0 -0.627480000568044 0 0 0 0 0 0 0 0 0 0 0 0 0 0 -0.989639983621977 0 0 0 0 0 0 0 0 0 0 0 0 0 0 0
0 0 0 0 0 0 0 0 0 0 0 0 -2.07122310437354 0 0 0 0 0 0 0 0 0 0 0 0 0 0 0 0 0 0 0 0 0 0 0 -4.29308650298232 0 0 0 0 0 0 0 0 0 0 0 0 0
0 0 0 0 0 0 0 0 0 0 0 0.393695254238648 0 0 0 0 0 0 0 0 0 0 0 -0.872884033827186 0 0 0 0 0 0 0 0 0 0 0 0 0 0 0 0 -0.526880206914597 0 0 0 0 0 0 0 0 -0.468148860334334
0 0 0 0 0 0.274946004327015 0 0.274061565123373 0 0 0 0 0 0 0 0 0 -1.02521291088476 0 0 0 0 0 0 0 0 0 0 0 0 0 0 0 0 0 0 0 0 0 0 -2.64042002140751 0 0 0 0 0 0 0 0 -1.88426952975485
0 0 0 0 0 0 0 0 0 0 0 0 0 0 0 0 0 0 0 0 0 0 0 0 0 0 0 0 0 0 0 0 0 0 0 0 -0.580755220128916 0 0 0 -3.0837905499576 0 0 0 0 0 0 0 0 -0.213862312726728
0 0 0 0 0 0.115057777674535 0 0 0 0 0 0 0 0 0 0 0 -0.204126003027825 0 0 0 0 0 -0.649342069651792 0 0 0 0 0 0 0 0 0 0 0 0 -0.339291817375668 0 0 0 -2.11922285184206 0 0 0 0 0 0 0 0 -4.19934372714353
0 0 0 0 0 0 0 0 0.105441833077748 0.380276813552377 0.0995976628486872 0 0 0 0 0 0 -0.924246180135015 0 0 0 0 0 0 0 0 0 0 0 0 0 0 0 0 0 0 -0.319782188081635 0 0 0 0 0 0 0 0 0 0 0 0 -4.59381595462808
0 0 0 0 0 0 0 0 0 0 0 0 0 0.201737667011642 0 0.0413727374851586 0.183153528167034 0 0 0.0513945594688003 0 0 0 0 0 0 0 0 0 0 0 -2.15109278910363 0 0 0 0 -0.645691194038719 0 0 0 0 0 0 0 0 0 0 0 0 0
0 0 0 0 0 0 0 0 0 0 0 0 0 0 0 0 0 0 0 0 0 0 0 0 0 0 0 0 0 0 0 -3.83994889997315 0 0 0 0 -0.596355898838631 0 0 0 0 0 0 0 0 0 0 0 0 0
0 0 0 0 0 0 0.385156884210646 0.0881614339017933 0.102889853395768 0.0864275784380359 0.117042547125981 0 0 0 0 0 0 -0.276793198597357 0 0 0 0 0 0 0 0 -1.06191790278858 0 0 0 0 -0.73790744166452 0 0 0 0 -0.896245631474667 0 0 0 0 0 0 0 0 0 0 0 0 0
0 0 0 0 0.162160245559217 0 0 0 0 0 0 0 0 0 0 0 0 0 0 0 0 0 0 0 0 0 -6.69414928605054 -3.62148707072001 0 0 0 -3.0047890897716 0 0 0 0 0 0 0 0 0 0 0 0 -3.37337318797943 0 0 0 0 0
0 0 0 0 0 0 0.224894736789337 0.0858612671111509 0.420111081487471 0 0 0 0 0 0 0 0 0 0 0 0 0 0 0 0 0 -1.29455754584643 -1.07750680955429 0 0 0 -0.47819443052841 0 0 0 0 -3.69923147289263 0 0 0 0 0 0 0 -0.782681972230204 0 -0.298579297924924 0 0 0
0 0 0 0 0 0 0.460733020741485 0.205402912917193 0.196984892564878 0.0107385962455433 0 0 0 0 0 0 0 0 0 0 0 0 0 0 0 0 0 0 0 0 0 -4.37479045033881 0 0 0 0 -0.373266462508433 0 0 0 0 0 0 0 -0.773976237591604 0 0 0 0 0
0 0 0 0 0 0 0 0 0 0 0 0 0.167927105442035 0 0 0.126898168094802 0 0 0 0 0 0 0 0 0 0 0 0 0 0 0 -0.290631957133156 0 0 0 0 -3.79486391382348 0 0 0 0 0 0 0 -0.637873802200424 -0.599187924448161 0 0 0 0
0 0 0 0 0 0 0 0 0 0 0 0 0 0 0 0 0 0 0 0 0 0 0 0 0 0 0 -8.2700760477121 0 0 0 -1.38989909689256 0 0 0 0 -0.800125141872827 0 0 0 0 0 0 0 -0.835513153911347 0 -1.61822253174067 0 0 0
0 0 0 0 0 0 0 0 0.221926636678645 0 0 0 0 0 0 0 0 0 0 0 0 0 0 0 0 0 0 -0.349735824573261 0 0 0 0 0 0 0 0 -4.36280595023019 0 0 0 0 0 0 0 -0.352737201150254 0 -1.83083127352099 0 0 0
0 0 0 0 0 0 0 0 0 0 0 0 0 0 0 0 0 0 0 0.218002732724109 1.244689581597 0.236496539443267 0 0 0 0 0 -8.61266570482163 0 0 0 0 0 0 0 0 0 0 0 0 0 0 0 0 -0.311815852897491 0 0 0 0 0
0 0 0 0 0 0 0 0 0 0 0 0 0 0 0 0 0 0 0 0 0.749597933558942 0.219379237919114 0 0 1.64484626645436 0.069812635770604 1.7031057948388 0 0 0 0 0 0 0 0 0 0 0 0 0 0 0 0 0 0 0 0 0 0 0
0 0 0 0 0 0 0.307006751068156 0 0 0 0 0 0 0 0 0 0 0 0 0 0 0 0 0 0 0 0 0 0 0 0 0 0 0 0 0 0 0 0 0 0 0 0 0 -3.39076287333997 0 0 0 0 0
0 0 0 0 0.506269879646761 0 0 0 0 0 0 0 0 0 0 0 0 0 0 0 0 0 0 0 0 0 0 0 0 0 0 0 0 0 0 0 0 0 0 0 0 0 -1.06403534254428 0 -0.244835041661852 0 0 0 0 0
0 0 0 0.333359067607609 0 0 0 0 0 0 0 0 0 0 0 0 0 0 0 0 0 0 0 0 0 0 0 0 0 0 0 0 0 0 0 0 0 0 0 0 0 0 -0.450891255178726 0 -6.6399269192208 0 0 0 -0.513464100645538 0
0 0 0 0 0 0 0 0 0 0 0 0 0 0 0 0 0 0.447055127308486 0.763546351424617 0.145335243644262 0.62315083389066 0.0982190364230861 0.769252558232757 0.0600510809143412 0.274774319742947 0 0 0 0 0 0 0 0 0 0 0 0 -4.17061630955626 0 0 0 0 -2.27517361119304 0 0 0 -1.69902917031614 0 0 0
0 0 0 0 0 0 0 0 0 0 0 0 0 0 0 0 0 0 0 0 0 0 0 0 0 0 0 0 0 0 0 0 0 0 0 0 0 -0.599951546228678 0 0 0 -1.3663817326857 0 0 0 0 -0.0790135310863399 0 -0.538681532474454 0
0 0 0 0 0 0 0 0 0 0 0 0 0 0 0 0 0 0 0 0 0 0 0 0 0 0 0 0 0 0 0 0 0 0 0 0 0 -1.31279918404519 0 0 0 -0.280894152288179 0 0 -0.265360909443733 0 -0.845471460997992 0 -1.7125797373999 0
0 0 0 0 0 0.150099119025582 0.124058063867484 0.104850213364718 0.168042946585884 0 0.201318951443814 0 0 0 0 0 0 0 0 0 0 0 0 0 0 0 0 0 0 0 0 0 0 0 0 0 0 -0.637317700715706 0 0 0 -1.64608403832234 0 0 -2.32595474656066 0 -2.54052958052227 -0.591714939575503 -1.63006186679544 0
0 0 0 0 0 0 0 0 0 0.135233751007357 0 0 0 0 0 0 0 0 0 0 0 0 0 0 0 0 0 0 0 0 0 0 0 0 0 0 0 -0.811738030787702 0 0 0 -0.290175678638104 0 0 0 0 -1.32428353451216 0 0 0
0 0 0 0 0 0 0 0 0 0 0 0.919478179070413 0 0 0.111015829504335 0.0679931152917035 0.0622619861360608 0.132930431011792 0.11539954963318 0.175783086676777 0 0.737439513267845 0.0717101011605514 0.766607761305109 0.157665300917535 0.849965078883476 0 0 0 0 0 0 0 0 0 0 0 0 0 0 0 -0.830909780518693 0 0 0 0 0 0 0 0
0 0 0 0 0 0 0 0 0 0 0 0 0 0 0 0 0 0 0 0 0 0 0 0 0 0 0 0 0 0 0 0.817003392957038 0.119724007024079 0.256290076887781 0.130847893540597 0.147510315483538 0 0 0 0 0 0 0 0 -1.6066028477791 0 -2.38230160902834 -0.800270620748424 0 0
0 0 0 0 0 0 0 0 0 0 0 0 0 0 0 0 0 0 0 0 0 0 0 0 0 0 0 0 0 0 0 0 0 0 0 0 0 0 0 0 0 0 0 0 0 0 -2.30811273914527 0 0 0
0.763047487576524 0.453676387045738 0 0 0 0 0 0 0 0 0 0 0 0 0 0 0 0 0 0 0 0 0 0 0 0 0 0 0 0 0 0 0 0 0 0 0 0 0 0 0 0 0 0 0 0 -0.626625979105651 0 0 0
0 0 0 0 0 0 0 0 0 0 0 0 0.10994104817971 0.510635759248234 0.656936776407526 0.379903901438339 0 0 0 0 0 0 0 0 0 0 0 0 0 0 0 0 0 0 0 0 0 0 0 0 0 0 0 0 0 0 -1.1458833810174 0 0 0
0 0 0 0 0 0 0 0 0 0 0 0 0 0 0 0 0 0 0 0 0 0 0 0 0 0 0 0 0 0 0 0 0.264559065391696 0.0564752972266891 0.338437817901137 0.0548522444293057 0.141043219226045 0 0 0 0 0 0 0 0 0 -3.23334279674994 0 0 0
0 0 0 0 0 0 0 0 0 0 0 0 0 0 0 0 0 0 0 0 0 0 0 0 0 0 0 0 0 0.21908956348036 0.0881223804985918 0.450029535778048 0 0 0 0 0 0 0 0 0 0 0 0 0 0 -5.95072909285535 0 0 0
0 0 0 0 0 0 0 0 0 0 0 0 0 0 0 0 0 0 0 0 0 0 0 0 0 0 0 0 0 0 0 0 0 0 0 0 0 0 0 0 0 0 0 0 0 0 -0.329681942019821 0 0 0
0 0 0 0 0 0 0 0 0 0 0 0 0 0 0 0 0 0 0 0 0.669116212183987 0.139211675948817 0.164290031681895 0.134942797143909 0.173263086297803 0.0637859182959961 0.0609907287967983 0 0.693600550145344 0.0448675292592088 1.33071120677329 0 0 0.053197963046131 0.457579892566148 0 0 0.298335454095699 0 0 0 0 0 0 0 0 -2.29627875088982 0 0 0
0 0 0 0 0 0 0 0 0 0 0 0 0 0 0 0 0 0 0 0 0 0 0 0.117444642464403 0 0 0 0 0 0 0 0 0 0 0 0 0 0 0 0 0 0 0 0 0 0 0 0 0 0
0 0 0 0 0 0 0 0 0 0 0 0 0 0 0 0 0 0 0 0 0 0.0561255884195004 0 0 0.326054615619962 0.417154245038929 0 0 0 0 0 0.334086463135947 0.0151523743587218 0.172552942874599 0.452210167727584 0.270686511751556 0 0.483386591199195 0.508190677163196 0.131663004833405 0.23416055970909 0.583233071438182 1.15875776960887 0.0637682238065603 0.480527698799104 0 0 0 0 0
0 0 0 0 0 0 0 0 0 0 0 0 0 0 0 0 0 0 0 0 0 0 0 0 0 0 0 0 0 0 0 0 0 0 0.115760887981664 0 0 0.159426380809403 0 0 0 0 0 0 0 0 0 0 0 0
0 0 0 0 0 0 0 0 0 0 0 0 0 0 0 0 0 0 0 0 0 0 0 0 0 0 0 0 0 0 0.106055033892763 0 0.106213519362088 0.343505495209395 0.333596376292968 0 0 0 0 0 0 0 0 0 0 0 0 0 0 0
0 0 0 0 0 0 0 0 0 0 0 0 0.0934621722270226 0.381329579324755 0.0417533093262007 0.858359278494885 0.885769310471973 0 0 0 0 0 0 0 0 0 0 0 0 0 0 0 0 0 0 0 0 0 0 0 0 0 0 0 0 0 0 0 0 0
