0 0 0 0 0 0 0 0 0 0 0 0 0 -0.594142676820532 0 0 0 0 0 0 0 0 -0.373462798803757 0 0 0 0 0 0 0 0 0 0 0 0 0 0 0 0 0 0 0 0 0 0 0 0 0 0 0
0 0 0 0 0 0 0 0 0 0 0 0 0 -2.56273501807948 0 0 0 0 0 0 0 0 0 0 0 0 0 0 0 0 0 0 0 0 0 0 0 0 0 0 0 0 0 0 0 0 0 0 0 0
0 0 0 0 -5.06094952439978 0 0 0 0 0 0 0 0 -2.85128847232819 0 0 0 0 0 0 0 0 -0.635861907912986 0 0 0 0 0 0 0 0 0 0 0 0 0 0 -2.10516709416496 0 0 0 0 0 0 0 0 0 0 0 0
0 0 0 0 -1.50865474386843 0 0 0 -1.62197085904896 0 0 0 0 -0.557898680270074 0 0 0 0 0 0 0 0 -1.11269650094003 0 0 0 0 0 0 0 0 0 0 0 0 0 0 0 0 -1.19616147358417 0 0 0 0 0 0 0 0 0 0
0 0 1.05121619285294 0.279825860083647 0 0 0 0 0 0 0 0 0 -0.948401979832908 0 0 0 0 0 0 0 0 -1.2551029465773 0 0 0 0 0 0 0 0 0 0 0 0 0 0 -0.322117481627751 0 -2.57874338705815 0 0 0 0 0 0 0 0 0 0
0 0 0 0 0 0 0 0 0 0 0 0 0 -0.915613485819722 0 0 0 0 -0.188779050023223 0 0 0 -0.455961583787805 0 0 0 0 0 0 0 0 0 0 0 0 0 0 -2.86502200716959 0 0 0 0 0 0 0 0 0 0 0 0
0 0 0 0 0 0 0 0 0 0 0 0 0 0 0 0 0 0 -0.232232265159201 0 0 0 -0.818079672766654 0 0 -0.457592553942417 0 0 0 0 0 0 0 0 0 0 0 -0.524316067026714 0 0 0 0 0 0 0 0 0 0 0 0
0 0 0 0 0 0 0 0 0 0 0 0 0 -0.267559738615915 0 0 0 0 -1.10820403955631 0 0 0 -0.754270492654508 0 0 0 0 0 0 0 0 0 0 0 0 0 0 -0.997472990435634 0 0 0 0 0 0 0 0 0 0 0 0
0 0 0 0.319060004845054 0 0 0 0 0 0 0 -0.362251042676241 0 0 -0.133950948027406 0 0 0 0 0 -6.25375934503089 -0.181760266533957 0 0 0 -0.204465625745939 0 0 0 0 0 0 0 0 0 0 0 -0.081494617850205 0 0 0 0 0 0 0 0 0 0 -3.32299360467042 0
0 0 0 0 0 0 0 0 0 0 0 0 0 0 -0.517741180468869 0 0 0 0 0 -0.713696555302193 -0.115800496005812 0 -1.67332041520302 0 -0.509931836748507 0 0 0 -9.15380196329346 0 0 0 0 0 0 0 -0.368353591836127 0 0 0 0 0 0 0 0 0 -0.976401244590906 0 0
0 0 0 0 0 0 0 0 0 0 0 0 0 0 -1.48563542442879 0 0 0 0 0 -1.44355873810813 0 0 -3.99716418963716 0 0 0 0 0 -0.342218450303177 0 0 0 0 0 0 0 0 0 0 0 0 0 0 0 0 0 -0.940380548837367 0 0
0 0 0 0 0 0 0 0 0.0732888829670033 0 0 0 0 0 0 0 0 0 0 -0.182048156381796 -1.89686797251676 0 0 0 -0.269075331307288 0 0 -0.738611464323321 0 0 0 0 0 0 0 0 0 0 0 0 0 0 0 0 -0.957958773921268 0 0 0 0 0
0 0 0 0 0 0 0 0 0 0 0 0 0 0 0 0 0 0 0 -2.49853611468274 -0.200662831354666 0 0 0 0 0 0 0 0 0 0 0 0 0 0 0 0 0 0 0 0 0 0 0 0 0 0 0 0 0
0.117610458617851 0.49231716381134 0.519119518707134 0.110685665522321 0.182862901204762 0.188710882539929 0 0.0481958805779744 0 0 0 0 0 0 0 0 0 0 0 0 0 0 0 0 0 0 0 0 0 0 0 0 0 0 0 -0.299622293225975 0 0 0 0 0 0 0 0 0 0 0 0 0 0
0 0 0 0 0 0 0 0 0.0253694856834683 0.0987369213031227 0.306314423839223 0 0 0 0 0 0 0 0 0 -3.1554454739333 0 0 0 0 0 0 0 0 0 0 0 0 0 0 -0.501572043550016 0 0 0 0 0 0 0 0 0 0 0 0 0 0
0 0 0 0 0 0 0 0 0 0 0 0 0 0 0 0 0 -0.911894615441217 0 0 -1.94961856358422 0 0 0 0 0 0 0 0 0 0 0 0 0 0 -2.61057658297512 0 0 -2.07271758689894 0 0 -10.3372167590471 -0.638159735417685 -0.447255537353075 0 0 0 0 0 0
0 0 0 0 0 0 0 0 0 0 0 0 0 0 0 0 0 -3.56124245389774 0 0 -1.44322231032896 0 0 0 0 0 0 0 0 0 0 -2.11922415094376 0 0 0 -0.493573583661491 0 0 -1.61653243961771 0 0 -2.63263713886571 -3.25533444529516 -0.321014522607697 0 0 0 0 0 0
0 0 0 0 0 0 0 0 0 0 0 0 0 0 0 0.1723509786261 0.633709522668178 0 0 0 -0.339321678633651 0 0 0 0 0 -5.63362532725491 0 0 0 0 0 0 0 0 0 0 0 0 0 0 -1.95122273279634 0 0 0 0 0 0 0 0
0 0 0 0 0 0.0390093484743127 0.0479657401866618 0.219550072557089 0 0 0 0 0 0 0 0 0 0 0 0 0 0 0 0 0 0 0 0 0 0 0 -1.01700632952061 0 0 0 -4.95172727503945 -1.1166351250057 0 0 0 0 -2.51146788086324 -4.71703085045975 -1.6495577316908 0 0 0 0 0 0
0 0 0 0 0 0 0 0 0 0 0 0.0381182805741535 0.473453950346149 0 0 0 0 0 0 0 0 0 0 0 0 0 0 0 0 0 0 -3.56118867442293 0 0 0 0 0 0 -0.836086672918437 0 0 -1.09985697023689 0 -0.0974409323182383 0 0 0 0 0 0
0 0 0 0 0 0 0 0 1.24772926196601 0.126131475790987 0.268659530473245 0.359859732749559 0.038242212217984 0 0.66475009900215 0.362131833883781 0.300036846771538 0.0668988792508716 0 0 0 0 0 0 0 0 0 0 0 0 0 -0.171892083197024 0 0 0 0 -0.345649127005073 0 -0.54661176335222 0 0 -0.790977627888506 -0.478336032564591 -0.186636871571703 0 0 0 0 0 0
0 0 0 0 0 0 0 0 0.0395382163742799 0.0236458455877681 0 0 0 0 0 0 0 0 0 0 0 0 0 0 0 0 0 0 0 0 0 0 0 0 0 0 0 0 0 0 0 -0.984918598710344 -3.63582513788226 0 0 0 0 0 0 0
0.0765203292701728 0 0.137094004379115 0.224493836761251 0.248251901793074 0.0881093767537466 0.157951748887284 0.140524602955002 0 0 0 0 0 0 0 0 0 0 0 0 0 0 0 0 0 0 0 0 0 0 0 0 0 0 0 0 -0.715081627468279 0 0 0 0 0 -2.54633604130936 0 0 0 0 0 0 0
0 0 0 0 0 0 0 0 0 0.329377274541355 0.722315134914079 0 0 0 0 0 0 0 0 0 0 0 0 0 0 0 0 0 0 0 0 0 0 0 0 0 -1.75409953919554 0 0 0 0 -0.803775932473096 -0.591387347965172 0 0 0 0 0 0 0
0 0 0 0 0 0 0 0 0 0 0 0.0559022471195034 0 0 0 0 0 0 0 0 0 0 0 0 0 0 0 0 0 0 0 0 0 0 0 0 0 0 0 0 0 0 0 0 0 0 0 0 0 -0.82014647034747
0 0 0 0 0 0 0.0932679823143337 0 0.0403607889104741 0.0958195412590355 0 0 0 0 0 0 0 0 0 0 0 0 0 0 0 0 0 0 0 0 0 0 0 0 0 0 0 0 0 0 0 0 0 0 0 0 0 0 0 -2.42374989143237
0 0 0 0 0 0 0 0 0 0 0 0 0 0 0 0 0 1.0660844634482 0 0 0 0 0 0 0 0 0 0 0 0 0 0 0 -2.85135882092453 0 0 0 0 0 0 0 0 0 0 0 0 0 0 0 -0.14821391836497
0 0 0 0 0 0 0 0 0 0 0 0.157172084604747 0 0 0 0 0 0 0 0 0 0 0 0 0 0 0 0 0 0 0 0 -3.13942471969942 -0.100123454605241 0 0 0 0 0 0 0 0 0 0 0 0 0 0 0 -3.18925471562029
0 0 0 0 0 0 0 0 0 0 0 0 0 0 0 0 0 0 0 0 0 0 0 0 0 0 0 0 0 0 0 0 0 -5.94302374606802 0 0 0 0 0 0 0 0 0 0 0 0 -1.75947213839818 0 0 -1.08706163851042
0 0 0 0 0 0 0 0 0 1.66655405677821 0.0701535719035781 0 0 0 0 0 0 0 0 0 0 0 0 0 0 0 0 0 0 0 0 0 0 -2.99529958818168 0 0 0 0 0 0 0 0 0 0 0 0 0 0 0 0
0 0 0 0 0 0 0 0 0 0 0 0 0 0 0 0 0 0 0 0 0 0 0 0 0 0 0 0 0 0 0 0 -5.95136468689464 -2.99962855814613 0 0 0 0 0 0 0 0 0 0 0 0 0 0 0 0
0 0 0 0 0 0 0 0 0 0 0 0 0 0 0 0 0.431620670563805 0 0.196077738175362 0.811015381327339 0.0371125480469201 0 0 0 0 0 0 0 0 0 0 0 -0.108328016248138 0 0 0 0 0 0 0 0 0 0 0 0 0 0 0 0 -0.803806960156464
0 0 0 0 0 0 0 0 0 0 0 0 0 0 0 0 0 0 0 0 0 0 0 0 0 0 0 0.667158939712862 0 0 1.22602174541456 0.0220048053585126 0 0 0 0 0 0 0 0 0 0 0 0 0 0 0 0 0 -0.388311436540268
0 0 0 0 0 0 0 0 0 0 0 0 0 0 0 0 0 0 0 0 0 0 0 0 0 0 0.579339768582979 0.0198773323771485 1.27691530904737 0.610148272155446 0.597539074243527 0 0 0 0 0 0 0 0 0 0 0 0 0 0 0 0 0 0 0
0 0 0 0 0 0 0 0 0 0 0 0 0 0 0 0 0 0 0 0 0 0 0 0 0 0 0 0 0 0 0 0 0 0 0 0 0 0 0 0 0 0 0 0 0 0 0 0 0 -1.19578704374063
0 0 0 0 0 0 0 0 0 0 0 0 0 0.062051770903351 0.0964159677373188 0.509047723118986 0.107692904515674 0 1.02444102580716 0 0 0 0 0 0 0 0 0 0 0 0 0 0 0 0 0 0 0 0 0 0 0 0 0 0 0 0 0 0 -0.107606730539539
0 0 0 0 0 0 0 0 0 0 0 0 0 0 0 0 0 0 0.23376976196898 0 0.0719992057313758 0 0.136898851656573 0.363202553246219 0 0 0 0 0 0 0 0 0 0 0 0 0 0 0 0 0 0 0 0 0 0 0 0 0 -0.163994623621465
0 0 0.433043328349746 0 0.0689249868161364 0.556382829372992 0.109710229431446 0.200867471058011 0.0157997498177542 0.0698835831115294 0 0 0 0 0 0 0 0 0 0 0 0 0 0 0 0 0 0 0 0 0 0 0 0 0 0 0 0 0 0 0 0 0 0 0 0 0 0 0 -0.609152836578724
0 0 0 0 0 0 0 0 0 0 0 0 0 0 0 0.399303149820248 0.352831286295487 0 0 0.172932987600408 0.113958665929883 0 0 0 0 0 0 0 0 0 0 0 0 0 0 0 0 0 0 0 0 0 0 0 0 0 0 0 0 0
0 0 0 0.247711691740708 0.484240367208056 0 0 0 0 0 0 0 0 0 0 0 0 0 0 0 0 0 0 0 0 0 0 0 0 0 0 0 0 0 0 0 0 0 0 0 0 0 0 0 0 0 0 0 0 -1.51373486320589
0 0 0 0 0 0 0 0 0 0 0 0 0 0 0 0 0 0 0 0 0 0 0 0 0 0 0 0 0 0 0 0 0 0 0 0 0 0 0 0 0 0 0 0 0 0 0 0 0 -1.90680568887042
0 0 0 0 0 0 0 0 0 0 0 0 0 0 0 1.87598737761646 0.536567831935381 0.383508678641557 0.504390062163232 0.245874282440918 0.154152986678438 0.201191449154339 0 0.15843875717554 0 0 0 0 0 0 0 0 0 0 0 0 0 0 0 0 0 0 0 0 0 0 0 0 0 0
0 0 0 0 0 0 0 0 0 0 0 0 0 0 0 0.139327546147927 0.591475830003727 0 0.889116038048727 0 0.0996278380873632 0.729487732145046 0.523008943215503 0.112476019317207 0 0 0 0 0 0 0 0 0 0 0 0 0 0 0 0 0 0 0 0 0 0 0 0 0 0
0 0 0 0 0 0 0 0 0 0 0 0 0 0 0 0.0896366853547868 0.0611524451153124 0 0.320624282174301 0.0193572946527702 0.0351238812289743 0 0 0 0 0 0 0 0 0 0 0 0 0 0 0 0 0 0 0 0 0 0 0 0 -0.471231326146078 0 0 0 0
0 0 0 0 0 0 0 0 0 0 0 0.183702184656558 0 0 0 0 0 0 0 0 0 0 0 0 0 0 0 0 0 0 0 0 0 0 0 0 0 0 0 0 0 0 0 0 0 -1.59934743780881 0 0 0 0
0 0 0 0 0 0 0 0 0 0 0 0 0 0 0 0 0 0 0 0 0 0 0 0 0 0 0 0 0 0 0 0 0 0 0 0 0 0 0 0 0 0 0 0.091176989373117 0.307076346107013 0 0.0720875162225028 0 0.147318760441206 0.563343297409243
0 0 0 0 0 0 0 0 0 0 0 0 0 0 0 0 0 0 0 0 0 0 0 0 0 0 0 0 0.349912236193688 0 0 0 0 0 0 0 0 0 0 0 0 0 0 0 0 -0.363417220038144 0 0 0 0
0 0 0 0 0 0 0 0 0 0.18567306774624 0.203493480547433 0 0 0 0 0 0 0 0 0 0 0 0 0 0 0 0 0 0 0 0 0 0 0 0 0 0 0 0 0 0 0 0 0 0 0 0 0 0 0
0 0 0 0 0 0 0 0 0.680073243567728 0 0 0 0 0 0 0 0 0 0 0 0 0 0 0 0 0 0 0 0 0 0 0 0 0 0 0 0 0 0 0 0 0 0 0 0 -0.714211431965757 0 0 0 0
0 0 0 0 0 0 0 0 0 0 0 0 0 0 0 0 0 0 0 0 0 0 0 0 0.160976740498544 0.53361466521976 0.0291793461521381 0.624471406697152 0.219629251142955 0 0 0.158800231583469 0.0833262306665294 0 0.230129315237745 0.0224267352801501 0.0327564962887773 0.120833821777374 0 0.28454189372994 0.382323518124515 0 0 0 0 -2.73561123701334 0 0 0 0
