0 0 0 0 0 0 0 0 0 0 0 0 0 -0.880568759377557 0 0 0 0 0 0 0 0 0 0 0 0 0 0 0 0 0 0 0 0 0 0 0 0 0 0 0 0 0 0 0 0 0 0 0 0
0 0 0 0 0 0 0 0 0 0 0 0 0 -1.03578844856747 0 0 0 0 0 0 0 0 0 0 0 0 0 0 0 0 0 0 0 0 0 0 0 0 0 0 0 0 0 0 0 0 0 0 0 0
0 0 0 0 0 0 0 0 0 0 0 0 0 0 0 0 0 0 0 0 0 0 0 0 0 0 0 0 0 0 0 0 0 0 0 -1.88597323998885 0 0 0 0 0 0 0 0 0 0 0 0 0 0
0 0 0 0 0 0 0 0 0 -0.656825945919598 0 0 0 -0.727231502043573 0 0 -2.7036515326049 0 0 0 0 0 0 0 0 0 0 0 0 0 0 0 0 0 0 -0.924496466759812 0 0 0 0 0 0 0 0 0 0 0 0 0 0
0 0 0 0 0 0 0 -1.94180450017914 0 -0.147673457861462 -0.80455761484658 -1.07234664461316 0 0 0 0 -1.04778096543822 0 0 0 0 -0.607694165197651 0 0 0 0 0 0 0 0 0 0 0 0 0 -0.300794553818074 0 0 0 0 0 0 0 0 0 0 0 0 0 0
0 0 0 0 0 0 0 0 0 -0.248313870148569 -0.386170443636124 0 0 0 0 0 -0.74834312487639 0 0 0 0 -1.57033089951189 0 0 0 0 0 0 0 0 0 0 0 0 0 -0.481005354925347 0 0 0 0 0 0 0 -0.497886515365863 0 0 0 0 0 0
0 0 0 0 0 0 0 -1.02371270539582 0 0 0 0 0 0 0 0 -4.61927626348728 0 0 0 0 0 0 0 0 0 0 0 0 0 0 0 0 0 0 -0.305483092396804 0 0 0 0 0 0 0 -1.5036559700217 0 0 0 0 0 0
0 0 0 0 0.372091793170306 0 0.195272206827453 0 0 -0.407362951257836 0 0 0 0 0 0 -1.56304985940865 0 0 0 0 0 0 0 0 0 0 0 0 0 0 0 0 0 0 -0.211398418786513 0 0 0 0 0 0 0 0 0 0 0 0 0 0
0 0 0 0 0 0 0 0 0 0 0 -0.998276152616138 0 0 0 0 0 0 0 0 0 0 0 0 0 0 0 0 0 0 0 0 0 0 0 0 0 0 0 0 0 0 0 -0.943133421090072 0 0 0 0 0 0
0 0 0 0.130254647384709 0.0272573799050551 0.0475364355164244 0 0.0854697649282309 0 0 0 0 0 0 0 0 0 0 0 0 -0.171593723948876 0 0 0 0 0 0 0 -0.488139387922077 0 0 0 0 0 0 0 0 0 0 0 0 0 0 -3.61060601012427 0 0 0 0 0 0
0 0 0 0 0.159985027442542 0.0791227379490883 0 0 0 0 0 0 0 0 0 0 0 0 0 0 -1.3688468233132 0 0 0 0 0 0 0 -0.271024888765222 0 0 0 0 0 0 0 0 0 0 0 0 -0.26176895277522 0 -1.19237970097187 0 -1.75093242497999 0 0 0 0
0 0 0 0 0.229434968200196 0 0 0 0.201599549784702 0 0 0 0 0 0 0 0 0 0 0 -0.265811110983558 0 0 0 0 0 0 0 0 0 0 0 0 0 0 0 0 0 0 0 0 -0.248020403478434 0 -1.07904465816052 0 0 0 0 0 0
0 0 0 0 0 0 0 0 0 0 0 0 0 0 0 0 0 0 0 0 0 0 0 0 0 0 0 0 -0.58116904185732 0 0 0 0 0 0 0 0 0 0 0 0 -0.322118591390646 0 -0.206140682718763 0 0 0 0 0 0
0.178829500376722 0.200823521398339 0 0.13001845192306 0 0 0 0 0 0 0 0 0 0 0 0 0 0 -0.625137431137066 0 0 0 0 -0.467239770987792 0 0 0 0 0 0 0 0 0 0 0 0 0 -1.36095659372218 0 0 0 0 0 0 0 0 0 0 0 0
0 0 0 0 0 0 0 0 0 0 0 0 0 0 0 0 0 0 0 0 0 0 0 0 0 0 0 -1.46355543766971 -0.97363756824851 0 0 0 0 0 0 0 0 0 0 0 0 0 0 0 0 0 0 0 0 0
0 0 0 0 0 0 0 0 0 0 0 0 0 0 0 0 0 0 0 0 0 0 0 0 -1.97673163572127 -0.41472040572333 0 0 -0.328192854753139 0 0 0 0 -1.42218754085568 0 0 0 -1.15360191563531 0 0 0 0 0 0 -1.66405848214374 0 0 0 0 0
0 0 0 0.539769566268866 0.210763998020868 0.150038836649555 0.895640265156717 0.305368300411626 0 0 0 0 0 0 0 0 0 0 0 0 0 0 0 0 -0.303195717176435 -0.730126550450235 0 -2.89489591741138 -0.468091748103028 0 0 0 0 -0.852461947540724 0 0 0 -0.318453439635254 0 0 0 0 0 0 -0.401051422147703 0 0 0 0 0
0 0 0 0 0 0 0 0 0 0 0 0 0 0 0 0 0 0 0 0 0 0 0 0 -5.62169586149177 -2.60947366367971 0 -0.517914662352405 -0.399385713928902 0 0 0 0 -0.802620411871373 0 0 0 -0.709255757147272 0 0 0 0 0 0 -1.17995891819134 0 0 0 0 0
0 0 0 0 0 0 0 0 0 0 0 0 0 0.126217804719951 0 0 0 0 0 0 0 0 0 0 0 -0.419350840171761 0 0 0 0 0 0 0 -1.1806656988446 0 0 0 -1.89323992283554 0 0 0 0 0 0 -0.689507359015588 0 0 0 0 0
0 0 0 0 0 0 0 0 0 0 0 0 0 0 0 0 0 0 0 0 0 0 0 0 -5.48376031836355 -0.326027750524022 0 -1.39012000816211 0 -3.38851884131495 0 0 -0.416344367109665 -0.62253169323808 0 0 0 0 0 0 0 0 0 0 0 0 0 0 0 0
0 0 0 0 0 0 0 0 0 0.0327371467990738 0.287772463471665 0.0505944765141117 0 0 0 0 0 0 0 0 0 0 0 0 -1.38268171418852 -3.95197761308599 0 0 0 0 0 0 -3.22897886139835 -0.38133019147833 0 0 0 0 0 0 0 0 0 0 -2.62847868438429 0 0 0 0 0
0 0 0 0 0.117491837803847 0.333638951392145 0 0 0 0 0 0 0 0 0 0 0 0 0 0 0 0 0 0 0 0 0 0 0 0 0 0 0 0 0 0 0 0 0 0 0 0 0 0 -4.20331896016924 0 0 0 0 0
0 0 0 0 0 0 0 0 0 0 0 0 0 0 0 0 0 0 0 0 0 0 0 0 -0.900825928968196 0 0 0 0 0 0 0 0 0 0 0 -0.92661251156258 0 0 0 0 0 -0.482778425147652 0 0 0 0 0 0 0
0 0 0 0 0 0 0 0 0 0 0 0 0 0.0866490489953017 0 0 0 0 0 0 0 0 0 0 0 0 0 0 0 0 0 0 0 0 0 0 0 0 0 0 0 0 -2.46991569110877 0 -0.622256747678191 0 0 -1.37952223495726 0 -0.814912938156773
0 0 0 0 0 0 0 0 0 0 0 0 0 0 0 0.378565148447149 0.0627744052168092 1.10205786253122 0 1.01346304547089 0.273889624808688 0 0.193492265863943 0 0 0 0 0 0 0 0 0 0 -1.708697962306 0 0 0 0 0 0 0 0 -0.894505541500289 0 -0.271383287402522 0 0 0 0 -2.93700291818692
0 0 0 0 0 0 0 0 0 0 0 0 0 0 0 0.0788514109688201 0.15360541150869 0.490680957010457 0.0819287814129044 0.0611181106211422 0.831503297788142 0 0 0 0 0 0 0 0 0 0 0 0 -0.405056420839444 0 0 -1.17155610222195 0 0 0 0 0 -0.794880268695355 0 0 0 0 -2.47623519741129 0 -0.504332189164091
0 0 0 0 0 0 0 0 0 0 0 0 0 0 0 0 0 0 0 0 0 0 0 0 0 0 0 0 0 0 0 0 0 0 0 0 -0.221445784300365 0 0 0 0 0 -0.753663048715947 0 0 0 0 -1.84404102210302 0 -1.11547981767543
0 0 0 0 0 0 0 0 0 0 0 0 0 0 0.294620358563891 0 0.61208697353337 0.108290626414192 0 0.279742536545649 0 0 0 0 0 0 0 0 0 0 0 -0.993461063296033 0 0 0 0 0 0 0 0 0 0 -3.14896395497739 0 -1.0760630707578 0 0 0 0 -4.21903484062346
0 0 0 0 0 0 0 0 0 0.0864320483524495 0.0512478742352274 0 0.122095887357386 0 0.174239022714105 0.0656843093237108 0.0921579906524195 0.0778033012038111 0 0 0 0 0 0 0 0 0 0 0 0 0 -0.410766222941538 0 0 0 0 -2.02983394026134 0 0 0 0 0 0 0 0 0 0 -0.588575177737115 0 0
0 0 0 0 0 0 0 0 0 0 0 0 0 0 0 0 0 0 0 0.666358608626122 0 0 0 0 0 0 0 0 0 0 0 0 0 0 0 0 -1.31890422988695 0 0 0 0 0 0 0 0 0 0 0 0 -1.10559148590835
0 0 0 0 0 0 0 0 0 0 0 0 0 0 0 0 0 0 0 0 0 0 0 0 0 0 0 0 0 0 0 0 0 0 0 0 -0.166949488052204 0 0 0 0 0 0 0 0 0 0 0 0 -0.0827237358492475
0 0 0 0 0 0 0 0 0 0 0 0 0 0 0 0 0 0 0 0 0 0 0 0 0 0 0 0.206335601353531 0.0856016640274204 0 0 0 0 0 0 0 -0.357754019197467 0 0 0 0 0 0 0 0 0 0 0 0 0
0 0 0 0 0 0 0 0 0 0 0 0 0 0 0 0 0 0 0 0.0824602484345944 0.638523566649096 0 0 0 0 0 0 0 0 0 0 0 0 0 0 0 0 0 0 0 0 0 0 0 0 0 0 0 -1.11986062022854 0
0 0 0 0 0 0 0 0 0 0 0 0 0 0 0 0.287305718368999 0.170218888330397 0.154374703147742 0.254182582545288 0.116384649890387 0.0746192681583149 0 0 0 0.330293501711172 0.079039477628309 0 0 0 0 0 0 0 0 0 0 0 0 0 0 0 0 0 0 0 0 0 0 -1.1387914748236 0
0 0 0 0 0 0 0 0 0 0 0 0 0 0 0 0 0 0 0 0 0 0 0 0 0 0 0 0 0 0 0 0 0 0 0 0 0 0 0 0 0 0 0 0 0 0 0 0 -0.265082199431008 0
0 0 0.389354666104685 0.188034457578589 0.0607597245596667 0.092392855897562 0.0591504241243219 0.044250835608982 0 0 0 0 0 0 0 0 0 0 0 0 0 0 0 0 0 0 0 0 0 0 0 0 0 0 0 0 0 0 0 0 0 0 0 0 0 0 0 0 0 0
0 0 0 0 0 0 0 0 0 0 0 0 0 0 0 0 0 0 0 0 0 0 0.164492889777383 0 0 0.227667013119306 0.042662652034286 0 0.396757002118663 0.270474348814928 0.0316530915386245 0.0784266192497232 0 0 0 0 0 0 0 0 0 0 0 0 0 0 0 0 0 0
0 0 0 0 0 0 0 0 0 0 0 0 0 0.28159287170419 0 0.228492954494367 0.0630788101785295 0.142222257452203 0.399521912746969 0 0 0 0 0 0 0 0 0 0 0 0 0 0 0 0 0 0 0 0 0 0 0 0 0 0 0 0 0 -0.875613603226463 0
0 0 0 0 0 0 0 0 0 0 0 0 0 0 0 0 0 0 0 0 0 0 0 0 0 0 0 0 0 0 0 0 0 0 0 0 0 0 0 0 0 0 0 0 0 0 0 0 -2.95541438014986 0
0 0 0 0 0 0 0 0 0 0 0 0 0 0 0 0 0 0 0 0 0 0 0 0 0 0 0 0 0 0 0 0 0 0 0 0 0 0 0 0 0 0 0 0 0 0 -1.2279124167505 0 -1.13884799471111 0
0 0 0 0 0 0 0 0 0 0 0 0 0 0 0 0 0 0 0 0 0 0 0 0 0 0 0 0 0 0 0 0 0 0 0 0 0 0 0 0 0 0 0 0 0 0 0 0 -2.25481295947852 0
0 0 0 0 0 0 0 0 0 0 0.0536687441608635 0.0481480976920397 0.0643608271861215 0 0 0 0 0 0 0 0 0 0 0 0 0 0 0 0 0 0 0 0 0 0 0 0 0 0 0 0 0 0 0 0 0 0 0 0 0
0 0 0 0 0 0 0 0 0 0 0 0 0 0 0 0 0 0 0 0 0 0 0.09948991402425 0.481924278773742 0.170831726286843 0.161599500685058 0.166807772477458 0.627267400550937 0 0 0 0 0 0 0 0 0 0 0 0 0 0 0 0 0 0 0 0 -1.41146597719916 0
0 0 0 0 0 0.10124930761812 0.302647074742915 0 0.190549832378661 0.775366686401898 0.235495674500494 0.229198850802798 0.0383193021188458 0 0 0 0 0 0 0 0 0 0 0 0 0 0 0 0 0 0 0 0 0 0 0 0 0 0 0 0 0 0 0 0 0 0 0 0 0
0 0 0 0 0 0 0 0 0 0 0 0 0 0 0 0.320908292293647 0.0780851830857193 0.234613760925877 0.132738189972611 0 0.536537099058502 0.819977518815406 0 0.132991222198767 0.0558326541587181 0 0 0.202353012427903 0 0 0 0 0 0 0 0 0 0 0 0 0 0 0 0 0 0 0 0 0 0
0 0 0 0 0 0 0 0 0 0 0.345820552690493 0 0 0 0 0 0 0 0 0 0 0 0 0 0 0 0 0 0 0 0 0 0 0 0 0 0 0 0 0 0 0 0 0 0 0 0 0 -0.498914549761301 0
0 0 0 0 0 0 0 0 0 0 0 0 0 0 0 0 0 0 0 0 0 0 0 0 0 0 0 0 0 0 0 0 0 0 0 0 0 0 0 0.256246555931637 0 0 0 0 0 0 0 0 -2.63837281924035 0
0 0 0 0 0 0 0 0 0 0 0 0 0 0 0 0 0 0 0 0 0 0 0 0.316428119250656 0 0.506659779813166 0.384671170336115 0 0.11662328982722 0 0 0 0 0 0 0 0 0 0 0 0 0 0 0 0 0 0 0 -0.44812104172084 0
0 0 0 0 0 0 0 0 0 0 0 0 0 0 0 0 0 0 0 0 0 0 0 0 0 0 0 0 0 0 0 0 0.229381395209282 0.237958790876566 0.0586701133001908 0 0 0.166810710023168 0.626165172453001 0.23007231171235 0.448608290829572 0 0.263891834260194 0 0 0.0950015469452233 0.488088135863573 0.0890976857609942 0 0
0 0 0 0 0 0 0 0 0 0 0 0 0 0 0 0 0 0 0 0 0 0 0 0.15171669333425 0.580316409819519 0.104339517254498 0.215478007803221 0.835387187097424 0 0.206393653426125 0.0170266607687874 0 0 0 0 0 0 0 0 0 0 0 0 0 0 0 0 0 0 0
