1.06858253315085
0.118736803526049
1.6962464557154
3.83545381934408
2.24127109109699
0.552648512819823
3.70691332812192
0.857080880422693
0.423408695337
1.89297217462584
0.392035490836008
0.900635020227189
7.19522224501323
2.70159914987676
1.34332727717953
1.96201484499635
0.327073632611968
0.381875938757025
0.196252625049943
0.405095649350489
1.77335878572794
0.663283044580419
1.15926556375812
0.287273433197647
0.95107425371532
0.18001968272835
0.0399892333869079
1.84657901537695
0.228359231671255
1.52447466183807
0.785295136329113
2.55196055033005
1.47622213855982
0.259843913125659
0.166331552763309
0.442430128517889
1.01714071913685
0.77895131741324
1.76024885131951
0.210496084779478
3.65996794429688
6.8713691676209
0.529126230837009
0.694902915474421
0.233355188462177
3.35732380250327
3.75940869436242
0.574323370130216
0.313904610100974
0.552823038649594
