0 0 0 0 0 0 0 0 0 0 0 0 0 0 0 0 0 0 0 0 0 0 0 0 0 0 0 -1.36152935207871 0 0 0 0 0 0 0 0 0 0 0 0 0 0 0 0 0 0 0 0 0 0
0 0 0 0 0 -0.37709838113851 0 0 0 0 0 0 0 0 0 0 0 0 0 0 0 0 0 0 0 0 0 -0.508560142641485 0 0 0 0 0 0 0 0 0 0 0 0 0 0 0 0 0 0 0 0 0 0
0 0 0 0 0 0 0 0 0 0 0 0 0 0 0 0 0 0 0 0 -0.66697131929439 0 0 0 -0.663691610085925 0 0 -0.924158383073191 0 0 0 0 0 0 0 0 0 0 0 0 -0.986475279542968 0 0 0 0 0 0 -1.31719074293325 0 0
0 0 0 0 0 0 0 -2.35313096619068 0 0 0 0 0 0 0 0 0 0 0 0 0 0 0 0 0 0 0 0 0 0 0 0 0 0 0 0 0 0 0 0 -3.02174152324643 -0.185061177228761 0 0 -1.66766623886764 0 0 -1.24085015985161 0 0
0 0 0 0 0 0 0 0 0 0 -1.21750377357559 0 0 0 0 0 0 0 0 0 -0.97705418899836 0 0 0 0 0 0 0 0 0 0 0 0 0 0 0 0 -2.13686865669651 0 0 -7.58808305736062 0 0 0 -0.499464016837037 0 0 0 -0.566967553274739 0
0 0.0732624050094036 0 0 0 0 0 0 0 0 -0.276717031725773 0 0 0 0 0 0 0 0 0 0 0 0 0 0 0 0 0 0 0 0 0 0 0 0 0 0 0 0 0 -0.405312300292543 -0.521063449869018 0 0 -0.141637830184169 0 0 0 -3.68873322059479 0
0 0 0 0 0 0 0 0 0 -0.333199747740845 0 -1.86646007395301 0 0 0 0 0 0 0 0 0 0 0 -0.204162554105034 0 0 -1.14102800875673 0 0 0 0 0 0 0 0 -0.411006419398366 -1.97757668430275 -0.706677572166294 -0.386859645870982 0 0 -1.1399313943112 0 0 0 0 -0.52089374758587 0 0 0
0 0 0 0.458174795075545 0 0 0 0 0 0 0 -0.289671040204673 0 0 -0.467158280447485 0 0 0 0 0 0 0 0 -6.92294635624757 0 0 0 0 0 0 0 0 0 0 0 -6.56049732477585 -1.79797164589279 0 -2.61796378197697 0 -0.591721906980614 0 0 0 0 0 -0.592975892999499 0 0 0
0 0 0 0 0 0 0 0 0 0 0 0 -1.91182447589815 0 0 0 0 0 0 0 0 0 0 -1.08915356010156 0 0 -1.25604859550798 0 0 0 -0.490933819836807 0 0 0 0 0 -1.58033629804937 -0.30876644021238 0 0 -0.822465035569557 0 0 0 0 0 -1.12783607238774 0 0 0
0 0 0 0 0 0 0.0627330169760512 0 0 0 0 0 0 0 0 0 0 0 0 0 0 0 0 -2.57058890066599 0 0 0 0 0 0 -1.02590743866157 0 0 0 0 -0.860960123761415 -1.60732057689324 -0.18192868534487 0 0 -0.519326071766681 0 0 0 0 0 -1.219171440171 0 0 0
0 0 0 0 0.254138438529204 0.0567012373923522 0 0 0 0 0 0 0 0 0 0 -0.289055206158857 0 0 0 0 0 0 -0.439051265681807 0 0 0 0 0 0 -0.999726742953663 0 0 0 0 0 -0.782844974743327 -1.12323663818999 0 0 0 0 0 0 0 0 -1.29294557493299 0 0 0
0 0 0 0 0 0 0.367367385354653 0.0538144762023537 0 0 0 0 0 0 0 0 -1.57507333284811 0 0 0 0 0 0 0 0 0 0 0 0 0 0 0 0 0 0 -0.254415481931553 0 0 0 0 -1.56975247016301 0 0 0 0 0 0 0 0 0
0 0 0 0 0 0 0 0 0.388729221925594 0 0 0 0 -1.5491596683311 0 0 -0.868763066160169 -1.77680024352556 -1.97463224259457 0 0 0 0 0 0 0 0 0 0 0 0 0 0 0 0 -5.45849163521208 0 0 0 0 0 0 0 0 0 0 0 0 0 0
0 0 0 0 0 0 0 0 0 0 0 0 0.314174982347359 0 0 0 -0.160499990420983 -0.974327116274689 -2.82274134527205 0 0 0 0 0 0 0 0 0 0 0 0 0 -0.565619587778302 0 0 0 0 0 0 0 -0.756245050389654 0 0 0 0 0 0 0 0 0
0 0 0 0 0 0 0 0.096970822526318 0 0 0 0 0 0 0 0 0 0 0 0 0 0 0 0 0 0 0 0 0 0 0 0 -0.367128306984054 0 0 0 0 0 0 0 0 0 0 0 0 0 0 0 0 0
0 0 0 0 0 0 0 0 0 0 0 0 0 0 0 0 0 0 0 0 0 -3.09618719090719 0 0 0 0 0 0 0 0 0 0 0 0 0 0 0 0 0 0 0 0 0 0 0 0 0 0 0 0
0 0 0 0 0 0 0 0 0 0 0.0572830016490983 0.3155585800388 0.171844187836523 0.0306536938159382 0 0 0 0 0 0 0 -2.06961155229885 0 0 0 0 0 0 0 0 0 0 0 0 0 0 0 0 0 0 0 0 0 0 0 0 0 0 0 0
0 0 0 0 0 0 0 0 0 0 0 0 0.346326235067105 0.198703701209366 0 0 0 0 0 0 0 -3.24939499142912 0 0 0 0 0 0 0 0 0 0 0 0 0 0 0 0 0 0 0 0 0 0 0 0 0 0 0 0
0 0 0 0 0 0 0 0 0 0 0 0 0.386012560302376 0.531609059397843 0 0 0 0 0 0 0 0 0 0 0 0 0 0 0 0 0 0 0 0 -0.521139991665077 0 0 0 0 0 0 0 0 0 0 0 0 0 0 0
0 0 0 0 0 0 0 0 0 0 0 0 0 0 0 0 0 0 0 0 0 0 0 0 0 0 0 0 0 0 0 0 0 0 -5.3364438162187 0 0 0 0 0 0 0 0 0 0 0 0 0 0 -1.78543876614303
0 0 0.135778089505051 0 0.200331867463253 0 0 0 0 0 0 0 0 0 0 0 0 0 0 0 0 0 0 0 0 0 0 0 0 0 0 0 0 0 0 0 0 0 0 0 0 0 0 -1.51829545372611 0 -1.38025163176584 0 0 0 -1.07435816271034
0 0 0 0 0 0 0 0 0 0 0 0 0 0 0 0.569594113335269 0.399968993329448 0.635329577430249 0 0 0 0 0.292578064228693 0.635774460888897 0.082094973761852 0 0 0 0 0 0 0 0 0 0 0 0 0 0 0 0 0 0 -1.01617530673344 0 0 0 0 0 0
0 0 0 0 0 0 0 0 0 0 0 0 0 0 0 0 0 0 0 0 0 -1.43243193086672 0 0 0 0 0 0 0 0 0 0 0 0 0 0 0 0 0 0 0 0 0 0 0 -0.922063345004659 0 0 0 -1.17027972176596
0 0 0 0 0 0 0.0420235275280833 1.37613263685687 0.207096985479195 0.505765940903562 0.0835768013876745 0 0 0 0 0 0 0 0 0 0 -2.91084662408682 0 0 0 0 0 0 0 0 0 0 0 0 0 0 0 0 0 0 0 0 0 -3.18111010489547 0 0 0 0 0 0
0 0 0.139510212638178 0 0 0 0 0 0 0 0 0 0 0 0 0 0 0 0 0 0 -0.441068894109857 0 0 0 0 0 0 0 0 0 0 0 0 0 0 0 0 0 0 0 0 0 -1.59693308950173 0 0 0 0 0 0
0 0 0 0 0 0 0 0 0 0 0 0 0 0 0 0 0 0 0 0 0 0 0 0 0 0 0 0 0 0 0 0 0 0 0 0 0 0 0 0 0 0 0 0 0 0 0 0 0 -3.75591136750526
0 0 0 0 0 0 0.227729990801274 0 0.261030710839368 0 0 0 0 0 0 0 0 0 0 0 0 0 0 0 0 0 0 0 0 0 0 0 0 0 0 0 0 0 0 0 0 0 0 0 0 0 0 0 0 0
0.265555743687397 0.102519883975613 0.19663241480757 0 0 0 0 0 0 0 0 0 0 0 0 0 0 0 0 0 0 0 0 0 0 0 0 0 0 0 0 0 0 -1.28278792824625 0 0 0 0 0 0 0 0 0 0 0 0 0 0 0 -1.0430957383637
0 0 0 0 0 0 0 0 0 0 0 0 0 0 0 0 0 0 0 0 0 0 0 0 0 0 0 0 0 0 0 0 0 -0.631668538217239 0 0 0 0 0 0 0 0 0 0 0 0 0 0 0 -1.55559175023895
0 0 0 0 0 0 0 0 0 0 0 0 0 0 0 0 0 0 0 0 0 0 0 0 0 0 0 0 0 0 0 0 0 -0.365123105141203 0 0 0 0 0 0 0 0 -7.98177709070695 0 0 0 0 0 0 -0.466823087074461
0 0 0 0 0 0 0 0 0.101965963505351 0.214770434548211 0.195100662997558 0 0 0 0 0 0 0 0 0 0 0 0 0 0 0 0 0 0 0 0 0 0 -1.24175048456342 0 0 0 0 0 0 0 0 0 0 0 0 0 0 0 -3.48772613198883
0 0 0 0 0 0 0 0 0 0 0 0 0 0 0 0 0 0 0 0 0 0 0 0 0 0 0 0 0 0 0 0 0 0 0 0 0 0 0 0 0 0 0 0 0 0 0 0 0 -0.155043560499242
0 0 0 0 0 0 0 0 0 0 0 0 0 0.124917406575354 0.0736229174845872 0 0 0 0 0 0 0 0 0 0 0 0 0 0 0 0 0 0 0 0 0 0 0 0 0 0 0 0 0 0 0 0 0 0 0
0 0 0 0 0 0 0 0 0 0 0 0 0 0 0 0 0 0 0 0 0 0 0 0 0 0 0 0.277266613186687 0.115291183276016 0.0756474916882995 0.252717758734704 0 0 0 0 0 0 0 0 0 0 0 0 0 0 0 0 0 0 -1.05690345243488
0 0 0 0 0 0 0 0 0 0 0 0 0 0 0 0 0 0 0.10814117978265 1.09472029223052 0 0 0 0 0 0 0 0 0 0 0 0 0 0 0 0 0 0 0 0 0 0 0 0 0 0 0 0 0 -1.94314378403219
0 0 0 0 0 0 0.0837529845635893 1.46683929306871 0 0.178103067637344 0 0.0492967521671374 1.13931246985081 0 0 0 0 0 0 0 0 0 0 0 0 0 0 0 0 0 0 0 0 0 0 0 0 0 0 0 0 0 0 0 0 0 0 0 0 -1.51033763573853
0 0 0 0 0 0 0.360800587933176 0.369806263976727 0.333676372796601 0.307420495399372 0.15951470390264 0 0 0 0 0 0 0 0 0 0 0 0 0 0 0 0 0 0 0 0 0 0 0 0 0 0 0 0 0 0 0 0 0 0 0 0 0 0 -0.803050834939081
0 0 0 0 0.414070284015128 0 0.144373740725147 0 0.0608694760225811 0.0340797213621478 0.209443650583634 0 0 0 0 0 0 0 0 0 0 0 0 0 0 0 0 0 0 0 0 0 0 0 0 0 0 0 0 0 0 0 0 0 0 0 0 0 0 -0.0960806492423374
0 0 0 0 0 0 0.0794022651240978 0.578934254708943 0 0 0 0 0 0 0 0 0 0 0 0 0 0 0 0 0 0 0 0 0 0 0 0 0 0 0 0 0 0 0 0 0 0 0 0 0 0 0 0 0 -2.65820374967564
0 0 0 0 0 0 0 0 0 0 0 0 0 0 0 0 0 0 0 0 0 0 0 0 0 0 0 0 0 0 0 0 0 0 0 0 0 0 0 0 0 0 0 0 0 0 0 0 0 -2.20555002314111
0 0 0.192845515027001 0.628029671826029 1.54800425663681 0.0805078617792501 0 0.122762240298192 0.172284332811239 0.102677852487489 0 0.311388618683436 0 0.156183403221841 0 0 0 0 0 0 0 0 0 0 0 0 0 0 0 0 0 0 0 0 0 0 0 0 0 0 0 0 0 0 0 0 0 0 0 -3.61937244735626
0 0 0 0.0382258554493116 0 0.105891833096279 0.231865093287207 0 0 0 0 0 0 0 0 0 0 0 0 0 0 0 0 0 0 0 0 0 0 0 0 0 0 0 0 0 0 0 0 0 0 0 0 0 0 0 0 0 0 -5.62554797093487
0 0 0 0 0 0 0 0 0 0 0 0 0 0 0 0 0 0 0 0 0 0 0 0 0 0 0 0 0 1.63290944414332 0 0 0 0 0 0 0 0 0 0 0 0 0 0 0 0 0 0 0 -2.6102326354593
0 0 0 0 0 0 0 0 0 0 0 0 0 0 0 0 0 0 0 0 0.306095708763408 0.206817159361506 0 0.665755215179975 0.327822528139169 0 0 0 0 0 0 0 0 0 0 0 0 0 0 0 0 0 0 0 0 0 0 0 0 -3.38972440919957
0 0 0 0.341043939016941 0.101011176410562 0.0265887115940424 0 0 0 0 0 0 0 0 0 0 0 0 0 0 0 0 0 0 0 0 0 0 0 0 0 0 0 0 0 0 0 0 0 0 0 0 0 0 0 0 0 0 0 -0.745406981880301
0 0 0 0 0 0 0 0 0 0 0 0 0 0 0 0 0 0 0 0 0.279084231369269 0 0.176741936016173 0 0 0 0 0 0 0 0 0 0 0 0 0 0 0 0 0 0 0 0 0 0 0 0 0 0 0
0 0 0 0 0 0 0.107979811049119 0.118128651525359 0.222351691485312 0.25027089309832 0.259609852993316 0 0 0 0 0 0 0 0 0 0 0 0 0 0 0 0 0 0 0 0 0 0 0 0 0 0 0 0 0 0 0 0 0 0 0 0 0 0 -0.180703448902792
0 0 0.258279647067978 0.24648409192623 0 0 0 0 0 0 0 0 0 0 0 0 0 0 0 0 0 0 0 0 0 0 0 0 0 0 0 0 0 0 0 0 0 0 0 0 0 0 0 0 0 0 0 0 0 0
0 0 0 0 0.113324936958085 0.807186737043251 0 0 0 0 0 0 0 0 0 0 0 0 0 0 0 0 0 0 0 0 0 0 0 0 0 0 0 0 0 0 0 0 0 0 0 0 0 0 0 0 0 0 0 -1.34438060677818
0 0 0 0 0 0 0 0 0 0 0 0 0 0 0 0 0 0 0 0.371701431149769 0.211084729612899 0 0.21969062129668 0 0 0.78563996592019 0 0.194948034403782 0.326483544032182 0.0986928516855938 0.726687006111114 0.0302052823717906 0 0.203231254594025 0.382497113794684 0.312569021822165 0.148122776920098 0.0191807462522921 0.523920656889336 0.434400706826585 0.735357006992715 1.13481086935709 0.489280579127327 0.676823337321618 0.159273995341859 0 0.0372328540673563 0 0.285135987248247 0
