1.06749867854599
2.60510007430653
0.771451884400361
1.11713669276385
0.129004405012489
1.34964724583703
0.151619987555935
0.414266481477168
1.55615293467488
0.209518185487064
1.15152252125835
0.466817475415995
0.522109143694246
0.811123861347564
2.49722650113429
5.07228419083535
0.744208153549649
1.37194065207281
1.51735986453256
0.118341079081844
2.69303334426153
0.974164539856999
0.278071914923597
1.02407925498674
1.96755786408119
0.647727992801924
0.446404987658615
0.247529109568282
1.02971080854077
3.40142381093911
1.83417968911463
0.468060743224043
0.6444134038243
0.374240460733407
1.3375522882623
2.6155991201774
0.605511981113557
0.173404019905527
0.982608065990393
0.974126616530257
2.23843888097638
1.00418899021503
2.08038804854088
1.7943188401493
2.6684394070748
1.96576893188475
6.92178031639503
1.33836638083194
0.920419725343949
0.930388311946255
