0 0 0 0 0 0 0 0 0 0 0 0 0 0 0 0 0 0 0 0 0 0 0 0 0 0 0 0 0 0 0 0 0 0 0 0 0 0 0 0 0 0 0 0 -5.93708109087644 0 0 0 0 0
0 0 0 0 0 0 0 0 0 0 0 0 0 0 0 0 0 0 0 0 0 0 0 0 0 -0.64652633022135 0 0 0 0 0 0 0 0 0 0 0 0 0 0 0 0 0 0 -0.388278683953692 0 0 0 0 0
0 0 0 0 0 -0.831974629835198 0 0 0 0 0 0 0 0 0 0 0 0 0 0 0 0 0 0 0 -0.46135852120567 0 0 0 0 0 0 0 0 0 0 0 0 0 0 0 0 0 0 -1.01064578293631 0 0 0 0 0
0 0 0 0 0 0 -2.55884805982621 0 0 0 0 0 0 0 0 0 0 0 0 0 0 0 0 0 0 0 0 0 0 0 0 0 0 0 0 0 0 0 0 0 0 0 0 0 0 0 0 0 0 0
0 0 0 0 0 0 -2.0234657724003 -0.165844507171102 -0.278489066651945 0 -3.30194593676589 0 0 0 0 0 0 0 0 0 0 0 0 0 0 0 0 0 0 0 0 0 0 0 0 0 0 0 0 0 0 0 0 0 -3.33773381907965 0 0 0 0 0
0 0 0.173413985695413 0 0 0 -0.704984572195806 0 0 0 0 0 0 0 0 0 0 0 0 0 0 0 0 0 0 0 0 0 0 0 0 0 0 0 0 0 0 0 0 -7.25892744334037 0 0 -1.88557049257191 0 0 0 0 0 0 0
0 0 0 0.5321801205131 0.415787316785847 0.141523571770925 0 0 0 0 0 0 0 0 0 0 0 0 0 0 0 0 -0.87132541677783 0 0 0 0 0 0 0 0 0 0 0 0 0 0 -1.83628118821977 -0.600081526134974 0 0 0 -1.59692360023622 0 -3.71933658069699 0 0 0 0 0
0 0 0 0 0.0353784968185621 0 0 0 0 0 0 0 0 0 0 0 0 0 0 0 0 0 -1.46169784135613 0 0 0 0 0 0 0 0 0 0 0 -1.57723587765066 0 0 -1.97602689811626 -0.902401211535392 -2.80806218879905 0 0 -1.87330491862742 0 -2.89880798667426 0 0 0 0 0
0 0 0 0 0.0527783563473262 0 0 0 0 0 0 0 -0.144720944289282 0 0 0 0 0 0 -1.59396870731801 0 0 0 0 0 0 0 0 0 0 0 0 -1.12617309833999 0 0 0 0 0 0 0 0 0 0 0 0 0 0 0 0 0
0 0 0 0 0 0 0 0 0 0 0 0 -0.499061085139773 0 0 0 0 0 0 -0.260629197263671 0 0 0 0 0 0 0 0 0 0 0 0 -0.477758143205452 0 -1.09829532104303 0 0 0 0 0 -0.870700979419062 0 0 0 -5.35133213820307 0 0 0 0 0
0 0 0 0 0.673519278388151 0 0 0 0 0 0 0 -4.49302538784865 0 0 0 0 0 0 -0.172190331847254 0 0 0 0 0 0 0 0 0 0 0 0 0 0 -2.12338571040987 0 0 0 0 0 -1.93740893887266 0 -0.234905572984086 0 0 0 0 0 0 0
0 0 0 0 0 0 0 0 0 0 0 0 -2.04452754387394 0 -0.234821587570546 0 0 0 0 -3.68626784060901 0 0 0 0 0 0 0 0 0 0 0 0 0 0 -0.509964473169448 0 0 0 0 0 -0.385866930398026 0 -0.712697761453578 0 -0.322779958102896 0 0 0 0 0
0 0 0 0 0 0 0 0 0.0297437531297582 0.0988179123177161 0.795297570504455 0.375052984231839 0 0 0.102450761958496 0.749293486365292 0.067273564268903 0 0 0 0 -1.79486946754 0 0 0 0 0 0 0 0 0 0 0 0 -0.35956380757866 0 0 0 0 0 0 0 -0.31474648101115 0 0 0 0 0 -1.39059779635166 0
0 0 0 0 0 0 0 0 0 0 0 0 0 0 0 0 0 0 0 -0.710421486179295 0 -4.78006669890106 0 0 0 0 0 0 0 0 0 0 0 0 -0.639346171311102 0 0 0 0 0 -0.4718203711751 0 -0.984533751689781 0 0 0 0 0 -0.535728323277089 0
0 0 0 0 0 0 0 0 0 0 0 0.0482603853142725 -0.494276099964184 0 0 0.0275769620534898 0 0 0 -1.13376637780695 0 -0.492785996725482 0 0 0 0 0 0 0 0 0 0 0 0 0 0 0 0 0 0 -0.906397443549605 0 -0.449999138231998 0 0 0 0 0 -0.394206383099808 0
0 0 0 0 0 0 0 0 0 0 0 0 -3.67195841990815 0 -0.141329813426014 0 0 0 0 -0.449702217480277 0 -4.68507808936219 0 0 0 0 0 0 0 0 0 0 0 0 0 0 0 0 0 0 -1.22257168734233 0 -0.442127703410732 0 0 0 0 0 -1.20882265035827 0
0 0 0 0 0 0 0 0 0 0 0 0 -0.32853326628808 0 0 0 0 0 0 -0.601848587388155 0 0 0 0 0 0 0 0 0 0 0 0 0 0 0 0 0 0 0 0 -0.474952450370706 0 0 0 0 0 0 0 -0.400435729003992 0
0 0 0 0 0 0 0 0 0 0 0 0 0 0 0 0 0 0 0 0 0 0 0 0 0 0 0 0 0 0 0 0 0 0 0 0 0 0 0 0 -0.727994610068659 0 0 0 0 0 0 0 -1.0537047350182 0
0 0 0 0 0 0 0 0 0 0 0 0 0 0 0 0 0 0 0 0 0 0 0 0 0 0 0 0 0 0 -0.296208536491349 0 0 0 0 0 0 0 0 0 0 0 0 -0.968700103053645 0 0 0 0 0 0
0 0 0 0 0 0 0 0 0.313083001448112 0.0515080344158947 0.0323697226779492 0.697102786403829 0 0.158422152615946 0.218704217828823 0.0839733429161101 0.12327833061205 0 0 0 0 0 0 0 0 0 0 0 0 0 0 0 0 0 0 0 0 0 0 0 -5.31004387006962 0 0 -1.4241760266599 0 0 0 0 -0.391192552830588 0
0 0 0 0 0 0 0 0 0 0 0 0 0 0 0 0 0 0 0 0 0 0 0 -1.49498995576312 0 0 0 0 0 0 0 0 0 0 0 0 0 0 0 0 0 0 0 -0.314061977356939 0 0 0 -1.17794726343988 -0.168383748480747 0
0 0 0 0 0 0 0 0 0 0 0 0 0.370427278642842 0.964812479657493 0.098407201448145 1.05935094600148 0 0 0 0 0 0 0 -0.490384745483495 0 0 0 0 0 0 0 0 0 0 0 0 0 0 0 0 0 0 0 -0.862474061186768 0 0 0 -3.02271599088759 -2.53662015448744 0
0 0 0 0 0 0 0.165009323317061 0.309786032908102 0 0 0 0 0 0 0 0 0 0 0 0 0 0 0 0 0 0 0 0 0 0 0 0 0 0 0 0 0 0 0 0 0 0 0 -0.876144674577392 0 0 0 -3.50675121310031 -0.329336211007954 0
0 0 0 0 0 0 0 0 0 0 0 0 0 0 0 0 0 0 0 0 0.344325589600837 0.101068263691645 0 0 0 0 0 0 -0.938260442880146 0 0 0 0 0 0 0 0 0 0 0 0 0 0 0 0 0 0 -0.262850153615468 -1.13324640433108 0
0 0 0 0 0 0 0 0 0 0 0 0 0 0 0 0 0 0 0 0 0 0 0 0 0 0 0 0 0 0 0 0 0 0 0 0 0 0 0 0 0 -8.15482186481584 0 0 0 0 0 0 -0.976668571172519 0
0 0.13632805065716 0.0883062535935661 0 0 0 0 0 0 0 0 0 0 0 0 0 0 0 0 0 0 0 0 0 0 0 0 0 -2.83831666973199 0 0 0 0 0 0 0 0 0 0 0 0 -0.708069938852427 0 0 0 0 0 0 -2.95377623546732 -3.3257094704367
0 0 0 0 0 0 0 0 0 0 0 0 0 0 0 0 0 0 0 0 0 0 0 0 0 0 0 0 -1.54922816118684 0 0 0 0 0 0 0 0 0 0 0 0 -2.9977334615102 0 0 0 0 0 0 -0.516166730911627 -0.236567856200295
0 0 0 0 0 0 0 0 0 0 0 0 0 0 0 0 0 0 0 0 0 0 0 0 0 0 0 0 0 0 0 0 0 0 0 0 0 0 0 0 0 -7.62058014129755 0 0 0 0 0 0 -1.14895613817707 0
0 0 0 0 0 0 0 0 0 0 0 0 0 0 0 0 0 0 0 0 0 0 0 0.188616779956425 0 0.587484292188681 0.317077122079677 0 0 0 0 0 0 0 0 0 -0.574663411686426 0 0 0 0 0 0 0 0 0 0 0 0 -1.2896518849115
0 0 0 0 0 0 0 0 0 0 0 0 0 0 0 0 0 0 0 0 0 0 0 0 0 0 0 0 0 0 0 0 0 0 0 0 -0.353652301402751 0 0 0 0 0 0 0 0 0 0 0 -0.557074012277946 0
0 0 0 0 0 0 0 0 0 0 0 0 0 0 0 0 0 0 0.0604944547811533 0 0 0 0 0 0 0 0 0 0 0 0 0 0 0 0 -0.475897258824517 -0.850798865335468 0 0 0 0 0 0 0 0 0 0 0 -0.569808697671474 0
0 0 0 0 0 0 0 0 0 0 0 0 0 0 0 0 0 0 0 0 0 0 0 0 0 0 0 0 0 0 0 0 0 0 0 -0.50269584960802 -2.07358772865075 0 0 0 0 0 0 0 0 0 0 0 -0.55975132896022 0
0 0 0 0 0 0 0 0 0.225943348453771 0.0960915797531628 0 0 0 0 0 0 0 0 0 0 0 0 0 0 0 0 0 0 0 0 0 0 0 0 0 -3.44298943308452 -0.224241115059358 0 0 0 0 0 0 0 0 0 0 0 0 -0.60029842322595
0 0 0 0 0 0 0 0 0 0 0 0 0 0 0 0 0 0 0 0 0 0 0 0 0 0 0 0 0 0 0 0 0 0 0 -0.560037223547233 -4.80550092465226 0 0 0 0 0 0 0 0 0 0 0 -0.235991673281095 -1.98160733366477
0 0 0 0 0 0 0 0.320988498242338 0 0.225605860168593 0.431100139860279 0.104915282971157 0.0702355105631979 0.11998917182693 0 0 0 0 0 0 0 0 0 0 0 0 0 0 0 0 0 0 0 0 0 0 0 0 0 0 0 0 0 0 0 0 0 0 -0.440661511355108 -0.890619114885551
0 0 0 0 0 0 0 0 0 0 0 0 0 0 0 0 0 0 0 0 0 0 0 0 0 0 0 0 0 0 0.0860528258565293 0.108361147508356 0.592318204144847 0.10539496485957 0 0 0 0 0 0 0 0 0 0 0 0 0 0 0 -1.48741581665558
0 0 0 0 0 0 0 0 0 0 0 0 0 0 0 0 0 0 0 0 0 0 0 0 0 0 0 0 0.114901781944205 0.0722742934417311 0.173989147756416 0.415685847280871 0.0452348842283282 0.958197095898447 0 0 0 0 0 0 0 0 0 0 0 0 0 0 -0.826830390400431 0
0 0 0 0 0 0 0.376823921276673 0.378506210154342 0 0 0 0 0 0 0 0 0 0 0 0 0 0 0 0 0 0 0 0 0 0 0 0 0 0 0 0 0 0 0 0 0 0 0 0 0 0 0 0 -1.41792696878487 0
0 0 0 0 0 0 0.11038244731256 0.184138588251464 0 0 0 0 0 0 0 0 0 0 0 0 0 0 0 0 0 0 0 0 0 0 0 0 0 0 0 0 0 0 0 0 0 0 0 0 0 -1.35038832679375 0 0 -8.74175343804041 0
0 0 0 0 0 1.38086683802625 0 0.588528286822222 0 0 0 0 0 0 0 0 0 0 0 0 0 0 0 0 0 0 0 0 0 0 0 0 0 0 0 0 0 0 0 0 0 0 0 0 0 0 0 0 -0.0987837875739983 0
0 0 0 0 0 0 0 0 0 0.159116767682046 0.348044604485247 0.0700972803926601 0 0.0991086493567911 0.181695063555654 0.253930334689549 0.0944161127162293 0.141890542348471 0 1.075368268299 0 0 0 0 0 0 0 0 0 0 0 0 0 0 0 0 0 0 0 0 0 0 0 0 0 0 0 0 0 0
0 0 0 0 0 0 0 0 0 0 0 0 0 0 0 0 0 0 0 0 0 0 0 0 1.63445243001808 0.144295649892652 0.59118630126416 1.40418576987084 0 0 0 0 0 0 0 0 0 0 0 0 0 0 0 0 0 0 -0.760926846557513 0 0 0
0 0 0 0 0 0.380246750384976 0.327757450602556 0.386868377313639 0 0 0.0444185544737469 0.153419559201063 0.0644209278516207 0.185124915591437 0.0951019144550938 0.0910828600429837 0 0 0 0 0 0 0 0 0 0 0 0 0 0 0 0 0 0 0 0 0 0 0 0 0 0 0 0 0 0 -0.67489999826453 0 0 0
0 0 0 0 0 0 0 0 0 0 0 0 0 0 0 0 0 0 0.181858957316974 0.275540748378102 0.0609305602009258 0.170211449112551 0.170600765967479 0 0 0 0 0 0 0 0 0 0 0 0 0 0 0 0 0 0 0 0 0 0 0 0 0 0 0
1.21654575113725 0.0803608289450579 0.194981814360929 0 0.645410922657827 0 0.797363581992201 0.564772817016954 0 1.03438640052442 0 0.0619361565056933 0 0 0 0 0 0 0 0 0 0 0 0 0 0 0 0 0 0 0 0 0 0 0 0 0 0 0 0 0 0 0 0 0 0 0 0 0 0
0 0 0 0 0 0 0 0 0 0 0 0 0 0 0 0 0 0 0 0 0 0 0 0 0 0 0 0 0 0 0 0 0 0 0 0 0 0 0.253489454787541 0 0 0 0 0 0 0 0 0 0 0
0 0 0 0 0 0 0 0 0 0 0 0 0 0 0 0 0 0 0 0 0 0 0 0 0 0 0 0 0 0 0 0 0 0 0 0 0 0 0 0 0 0.143727168714878 0.131193851260283 0 0 0 0 0 0 0
0 0 0 0 0 0 0 0 0 0 0 0 0 0 0 0 0 0 0 0 0.228528453057014 0.667840366239708 0.688813173641259 0.0537026201280501 0 0 0 0 0 0 0 0 0 0 0 0 0 0 0 0 0 0 0 0 0 0 0 0 0 0
0 0 0 0 0 0 0 0 0 0 0 0 0.282165165600533 0.10004604038113 0.0824640288969928 0.242704840499577 0.0805585675947298 0.204913580365929 0 0.0778867431351798 0.0337349467299302 0.513783645350831 0.0693104629725814 0.212286933589956 0.194435753581475 0.551158585059551 0.0990126051401278 0.240116062042163 0 0.112508696367683 0.119212652430583 0.112977939964228 0 0.0475635076988551 0.0889130298064477 0 0.168507285297861 0.273481405237591 1.75311427287372 0.0183153903714053 0 0 0 0 0 0 0 0 0 0
0 0 0 0 0 0 0 0 0 0 0 0 0 0 0 0 0 0 0 0 0 0 0 0 0 0.689628713433682 0.0495478269966016 0 0.269192753697771 0 0 0 0.122222451419508 0.380734477072687 0.176657713911528 0.290103161066669 0 0 0 0 0 0 0 0 0 0 0 0 0 0
