0.380030693575418
2.71556188004046
1.86160679035816
0.174855716576634
0.932594636982642
0.747256355097366
1.05982205402833
0.502229866717305
4.96506472811986
1.16413367098114
0.190286433595997
0.169947241319207
1.67648376375598
0.137379011033338
1.03532576297369
0.0686074952770739
0.128911058959163
0.338466905297918
2.59071780127196
1.14513841589219
0.50006864591733
0.581102557820656
0.653078815631612
2.6714744503583
0.146972204593212
0.359162698335201
1.05275639536429
0.19484774314341
0.736999395241722
0.111712580921197
0.242217773801732
1.6536702704631
0.43881040267429
0.0421300414583935
1.43922916349216
0.458055046098334
2.07915605108509
0.115572606982483
0.115898641606267
2.33746692530949
0.815105721038799
1.34547921138865
0.317307271989449
0.691570307847834
1.69715014648065
3.41289595594445
0.875331191956229
0.179398287746819
0.172344874833486
0.444442374512273
