2.54077765034689
0.924386498926384
0.160509484607575
1.48795554173281
2.32040030576007
0.294310125904174
2.67769385292381
0.713622148630503
0.00973191184410415
1.14066473757514
0.077965278684101
0.359757491507783
0.419164738986211
0.0672656469169962
0.0484010101574371
0.186705475785677
7.29444006093618
0.929243893942996
0.227400523234294
0.476824456990402
0.0354061748132935
1.25337653085312
3.20426302216404
0.467749147829553
0.0752571918097374
0.631965208795488
0.463340934052616
0.375062149745098
0.159990486958939
0.584115524576206
2.23844946997673
0.994741517136482
0.134166576484469
0.555088959855463
1.53270625322208
0.00874979258801257
4.32517521809475
0.286479729048851
0.238966467824647
0.396920801021228
0.799197500222263
2.4181587352444
0.757656537526533
0.0916197554397848
0.972846081130986
1.5917183440382
0.485927057478116
0.733235935603007
1.62010902099704
1.43606292404481
