0.908813891158355
1.2455699903393
0.40335086472478
0.966389608704222
0.791755773259255
0.14888538727431
4.03317442523356
1.91814683018541
0.198166025357687
0.851385042088471
0.725690120153397
0.998320612396706
0.370783279789267
0.552808248582888
2.00003916573878
0.302211015882028
0.400992363199407
0.0850179690745938
3.26696189600848
0.122592338307066
0.400973127101873
3.25781863714238
1.26917515071018
0.492575439037811
0.0565830359605631
0.358735173134765
0.305062917347444
3.37677750976558
0.214480160414823
0.539310519502692
0.0436817348012511
1.56184083997313
0.42713075448853
0.161116694719054
0.213395231998657
0.737371684477007
3.26313483172615
0.0831244402565701
0.134682442959492
0.843055152830279
0.433101114043072
0.129382903107285
0.0615304544397051
0.451644122967479
1.35381649672409
0.273828505784567
0.107089354863373
0.206582920067429
0.0221424472061789
0.609553335781982
