0 0 0 0 0 0 0 0 -11.6161233747188 0 0 0 0 0 0 0 0 0 0 0 0 0 0 0 0 0 0 0 0 0 -0.525505019290392 0 0 0 0 0 0 0 0 -0.876171201084466 0 0 0 0 0 0 0 0 0 0
0 0 0 0 0 0 0 0 -1.73245172387242 0 0 0 0 0 0 0 0 0 0 0 0 0 0 0 0 0 0 0 0 0 -0.268875718224728 0 0 0 0 0 0 0 0 -0.083835623696259 0 0 0 0 0 0 0 0 0 0
0 0 0 0 0 0 0 0 0 0 0 0 0 0 0 0 0 0 0 0 0 0 0 0 0 0 0 -1.87014436295751 0 0 0 0 0 0 0 0 0 0 0 0 0 0 0 0 0 0 0 0 0 0
0 0 0 0 0 0 0 0 0 0 0 0 0 0 0 0 -0.236779216215854 0 0 0 0 0 0 0 0 0 -1.97468815178196 -1.55786409410454 0 0 0 0 0 0 0 0 0 0 0 0 0 0 0 0 0 0 0 0 0 0
0 0 0 0 0 0 0 -2.04953704100207 0 0 0 0 0 0 0 -10.7977695973298 -1.56205450515304 -0.603335454275185 0 -1.08681005330467 0 0 0 0 0 0 0 0 0 0 0 0 0 -0.566179630413666 0 0 0 -0.16792660054989 0 0 0 0 0 0 0 0 0 0 0 0
0 0 0 0 0 0 0 0 0 0 0 0 0 0 0 0 -1.61209424190162 -0.553743640854389 0 -2.86691495880076 0 0 0 0 0 0 0 0 -0.27365699563192 0 0 0 0 0 0 0 0 -2.51529334440466 0 0 0 0 0 0 0 0 0 0 0 0
0 0 0 0 0 0 0 0 0 0 0 0 0 0 0 -1.29912512345398 -0.469088972008467 -3.41172825575497 0 -1.56076683146811 0 0 0 0 0 0 0 0 0 0 0 0 0 -0.809377271327082 0 0 0 0 0 0 0 0 0 0 0 0 0 0 0 0
0 0 0 0 0.412087097743969 0 0 0 0 0 0 0 0 0 0 0 -0.590566057139381 0 0 0 0 0 0 0 0 -4.33904503516678 0 0 0 0 0 0 0 0 0 0 0 0 0 0 0 0 0 0 0 0 0 0 0 0
2.50037268837019 0.346214889269511 0 0 0 0 0 0 0 0 0 0 0 0 0 0 -0.870041068379925 0 -0.290204575980579 -0.33155592334587 0 0 0 0 0 0 0 0 -0.8679774149792 0 0 0 0 0 0 0 0 -0.801220415898654 0 0 0 -1.87950696694318 0 0 0 0 0 0 0 0
0 0 0 0 0 0 0 0 0 0 0 0 0 0 0 0 0 0 -0.479328122950601 -0.449583303411956 0 0 0 0 0 -0.238368435462307 0 0 -4.95149602400772 0 0 0 0 0 0 0 0 -0.798188708160243 0 0 0 0 0 0 0 0 0 0 0 0
0 0 0 0 0 0 0 0 0 0 0 0 0 0 0 0 0 0 -0.7881239067539 0 0 0 0 0 0 -0.4718759041681 0 0 0 0 0 0 0 0 0 -0.961033695564057 0 0 0 0 0 -2.09215274904837 0 0 0 0 0 0 0 0
0 0 0 0 0 0 0 0 0 0 0 0 0 0 0 0 0 0 -0.755089584086412 -5.10847701304166 0 0 0 0 0 -1.5694558065879 0 0 0 0 0 0 0 0 0 -1.25530940079748 0 0 0 0 0 0 0 0 0 0 0 0 0 0
0 0 0 0 0 0 0 0 0 0 0 0 0 0 0 0 0 0 -0.755806467611001 -0.482912542860754 0 0 0 0 0 -1.71760158312435 0 0 0 0 0 0 0 0 0 -0.670521421906835 -0.600581751054576 0 0 0 0 0 0 0 0 0 0 0 0 0
0 0 0 0 0 0 0 0 0 0 0 0 0 0 0 0 0 0 0 0 0 0 0 0 0 -1.68361263606188 0 0 0 0 0 0 0 0 0 -1.07620581530112 0 0 0 0 0 0 -2.23113072397726 0 0 -0.7986141846514 -1.85400002821002 0 0 0
0 0 0 0 0 0 0 0 0 0 0 0 0 0 0 0 0 0 0 0 0 0 0 0 0 0 0 0 0 0 0 0 0 0 0 0 0 0 0 0 0 0 -0.954337734180575 0 0 -2.48961916922612 0 0 0 0
0 0 0 0 2.37860844751012 0 0.270816426498099 0 0 0 0 0 0 0 0 0 0 0 0 0 0 0 0 0 0 -1.37306150776924 0 0 0 0 0 0 0 0 0 0 0 0 0 0 0 0 -3.79559450973297 0 0 0 0 0 0 0
0 0 0 0.045765961892034 0.287274003791633 0.314848453530225 0.0836710182097369 0.117214761515338 0.179179193779683 0 0 0 0 0 0 0 0 0 0 0 0 0 0 0 0 0 0 0 0 0 0 0 0 0 -0.217345950244656 0 0 0 -0.832111931900998 0 0 0 -2.68458936674862 0 0 0 -0.178589131154724 0 0 0
0 0 0 0 0.111714915968808 0.115545690546553 0.662830258491162 0 0 0 0 0 0 0 0 0 0 0 0 0 -0.554519164187835 0 0 0 0 0 0 0 0 0 0 0 0 0 -2.63076486970888 0 0 0 0 0 0 0 -5.80507872377424 0 0 0 0 0 0 0
0 0 0 0 0 0 0 0 0.0539715355761638 0.0928794419079655 0.160367286240145 0.152967966192387 0.142137271408168 0 0 0 0 0 0 0 -2.41800986462648 0 0 0 0 0 0 0 0 0 0 0 0 0 -1.24022196347737 0 0 0 0 0 0 0 -3.32319578779001 0 0 0 -3.1075942678994 0 0 0
0 0 0 0 0.225353300181422 0.568900752620868 0.313093822845623 0 0.0669190966706942 0.0936205839612485 0 1.05270723174489 0.086329222745833 0 0 0 0 0 0 0 -2.47852409558442 0 0 0 0 0 0 0 0 0 0 0 0 0 -0.460669167064666 0 0 0 -0.85956758499646 0 0 0 0 0 0 0 -8.17517831873626 0 0 0
0 0 0 0 0 0 0 0 0 0 0 0 0 0 0 0 0 0.109101029228109 0.462026501997181 0.498330131558738 0 0.14918160827563 0 0 0 0 0 0 0 -3.56899248861289 0 0 0 0 -1.08082638236945 0 0 0 -6.60949870118788 0 0 0 0 0 0 0 0 0 0 0
0 0 0 0 0 0 0 0 0 0 0 0 0 0 0 0 0 0 0 0 -0.701006636413356 0 0 0 0 0 0 0 0 -1.60661199479777 0 -0.423918515075961 0 0 -0.661407594229777 0 0 0 0 0 -0.0976167417261163 0 -10.0893879787694 0 0 0 0 0 0 0
0 0 0 0 0 0 0 0 0 0 0 0 0 0 0 0 0 0 0 0 0 0 0 0 0 0 0 0 0 -1.28200575743511 0 -0.184042565137501 0 0 0 0 0 0 0 0 -0.90258372451733 0 0 0 0 0 0 0 0 0
0 0 0 0 0 0 0 0 0 0 0 0 0 0 0 0 0 0 0 0 0 0 0 0 0 0 0 0 0 -2.32025151644331 0 -1.26857057823499 0 0 0 0 0 0 0 0 0 0 0 -2.59280114903124 0 0 0 0 0 0
0 0 0 0 0 0 0 0 0 0 0 0 0 0 0 0 0 0 0 0 0 0 0 0 0 0 0 0 0 0 0 0 0 0 0 0 0 0 0 0 0 0 0 0 0 0 0 0 -0.577496021501771 0
0 0 0 0 0 0 0 0.835305611407115 0 0.0486571511758297 0.0909327772308632 0.315904899915338 0.348576509951336 0.340306500256252 0 0.27581156963342 0 0 0 0 0 0 0 0 0 0 0 0 0 0 0 0 0 0 0 0 0 0 0 0 0 0 0 0 0 0 0 0 -9.38205586672571 -1.32019414361866
0 0 0 0.377550169606273 0 0 0 0 0 0 0 0 0 0 0 0 0 0 0 0 0 0 0 0 0 0 0 0 0 0 0 0 0 0 0 0 0 0 0 0 0 0 0 0 0 0 0 -3.04341528844855 -1.78146260161674 -0.356239292271121
0 0 0.396789498751807 0.321233397021076 0 0 0 0 0 0 0 0 0 0 0 0 0 0 0 0 0 0 0 0 0 0 0 0 0 0 0 0 0 0 0 0 0 0 0 0 0 0 0 0 0 0 0 -0.438549064100124 -1.30907928952763 0
0 0 0 0 0 0.0593356620808945 0 0 0.180059786134411 0.913108199695809 0 0 0 0 0 0 0 0 0 0 0 0 0 0 0 0 0 0 0 0 0 0 0 0 0 0 0 0 0 0 0 0 0 0 -2.64378227073421 0 0 -0.288237326108588 -0.809971528547839 0
0 0 0 0 0 0 0 0 0 0 0 0 0 0 0 0 0 0 0 0 0.711062692053668 0.318705389906573 0.258013788398652 0.469924858301284 0 0 0 0 0 0 0 0 0 0 0 0 0 0 0 0 0 0 0 0 0 0 0 -1.69138010821799 -2.17977144031466 0
0.102100737178202 0.0574552156306864 0 0 0 0 0 0 0 0 0 0 0 0 0 0 0 0 0 0 0 0 0 0 0 0 0 0 0 0 0 0 0 0 0 0 0 0 0 0 0 0 0 0 -0.416468211763003 0 0 -0.330435695814126 -4.95263074812731 -0.867002055913528
0 0 0 0 0 0 0 0 0 0 0 0 0 0 0 0 0 0 0 0 0 0.0833313281113365 0.0371919150345886 0.254912154344018 0 0 0 0 0 0 0 0 0 0 0 0 0 0 0 0 0 0 0 0 -1.39481181673784 0 0 -0.52553921300002 -1.04323610470999 0
0 0 0 0 0 0 0 0 0 0 0 0 0 0 0 0 0 0 0 0 0 0 0 0 0 0 0 0 0 0 0 0 0 0 0 0 0 0 0 0 0 0 0 0 0 0 0 -0.379796422269093 -2.77796875648855 -0.269568560401862
0 0 0 0 0.110590684502644 0 0.163725868542787 0 0 0 0 0 0 0 0 0 0 0 0 0 0 0 0 0 0 0 0 0 0 0 0 0 0 0 0 0 0 0 0 0 0 0 0 0 0 0 0 0 0 0
0 0 0 0 0 0 0 0 0 0 0 0 0 0 0 0 0.0453902566285582 0.546142367777381 0.280686374961145 0.102463051508845 0.2064950326945 0.143210608992092 0 0 0 0 0 0 0 0 0 0 0 0 0 0 0 0 0 0 0 0 0 0 0 0 0 0 0 0
0 0 0 0 0 0 0 0 0 0 0.197971811722367 0.247031661058823 0.131362255545944 0.207570198740749 0 0 0 0 0 0 0 0 0 0 0 0 0 0 0 0 0 0 0 0 0 0 0 0 0 0 0 0 0 0 0 0 0 0 -0.0823670490170306 0
0 0 0 0 0 0 0 0 0 0 0 0 0.130322532192495 0 0 0 0 0 0 0 0 0 0 0 0 0 0 0 0 0 0 0 0 0 0 0 0 0 0 0 0 0 0 0 0 0 0 0 0 0
0 0 0 0 0.0301962665153247 0.474324255395303 0 0 0.16868317956559 0.152199908955399 0 0 0 0 0 0 0 0 0 0 0 0 0 0 0 0 0 0 0 0 0 0 0 0 0 0 0 0 0 0 0 0 0 0 0 0 0 0 -0.946880275849491 0
0 0 0 0 0 0 0 0 0 0 0 0 0 0 0 0 0.186985134951861 0 0 0.161354267452118 1.34523988004787 0 0 0 0 0 0 0 0 0 0 0 0 0 0 0 0 0 0 0 0 0 0 0 0 0 0 0 0 0
0.167251070444135 0.0169279288922145 0 0 0 0 0 0 0 0 0 0 0 0 0 0 0 0 0 0 0 0 0 0 0 0 0 0 0 0 0 0 0 0 0 0 0 0 0 0 0 0 0 0 0 0 0 0 0 0
0 0 0 0 0 0 0 0 0 0 0 0 0 0 0 0 0 0 0 0 0 0.0185777353453908 0.182993931425693 0 0 0 0 0 0 0 0 0 0 0 0 0 0 0 0 0 0 0 0 0 0 0 0 0 -1.64713983965525 0
0 0 0 0 0 0 0 0 0.364885592557306 0 0.39651668778798 0 0 0 0 0 0 0 0 0 0 0 0 0 0 0 0 0 0 0 0 0 0 0 0 0 0 0 0 0 0 0 0 0 0 0 0 0 -2.35666637560519 0
0 0 0 0 0 0 0 0 0 0 0 0 0 0.428998859538479 0.192667518705073 0.746456605396716 0.511159787391467 1.12826235786824 0.598503857766224 0 0 2.19976714446537 0 0 0 0 0 0 0 0 0 0 0 0 0 0 0 0 0 0 0 0 0 0 0 0 0 0 -0.166751034008584 0
0 0 0 0 0 0 0 0 0 0 0 0 0 0 0 0 0 0 0 0 0 0 0 0.503188718074299 0 0 0 0 0 0 0 0 0 0 0 0 0 0 0 0 0 0 0 0 0 0 0 0 0 0
0 0 0 0 0 0 0 0 0 0 0 0 0 0 0 0 0 0 0 0 0 0 0 0 0 0 0 0 0.525771369518118 0 0.0842228706181647 0.273208429418578 0 0 0 0 0 0 0 0 0 0 0 0 0 0 0 0 -3.18113181615706 0
0 0 0 0 0 0 0 0 0 0 0 0 0 0.163673342665737 0.455253682262981 0 0 0 0 0 0 0 0 0 0 0 0 0 0 0 0 0 0 0 0 0 0 0 0 0 0 0 0 0 0 0 0 0 -0.126216366597145 0
0 0 0 0 0 0 0 0 0 0 0 0 0 0.381340227801161 0 0 0.0356819613443885 0 0.588766835922563 1.75778154937043 0 0 0 0 0 0 0 0 0 0 0 0 0 0 0 0 0 0 0 0 0 0 0 0 0 0 0 0 0 0
0 0 0 0 0 0 0 0 0 0 0 0 0 0 0 0 0 0 0 0 0 0 0 0 0 0 0.581339155222629 0.0919746016236478 0.057758081700306 0.352923435218166 0.062918386156147 0.108804397060691 0.075897930344541 0 0 0 0 0 0 0 0 0 0 0 0 0 0 0 0 0
0 0 0 0 0 0 0 0 0 0 0 0 0 0 0 0 0 0 0 0 0 0 0 0 0.114324380564464 1.8662957958728 0.36389552631545 0.263888318175976 0.174612967367869 0.453063380402934 1.02489075772444 0.200454697205857 0.593489459963585 0 0 0.0155356539396632 0 0.187693141842489 0 0 0.351733788023044 0.467686919470996 0.0339852107491552 0 0.614316495380027 0.02313858495259 0 0 0 0
0 0 0 0 0 0 0 0 0 0 0 0 0 0 0 0 0 0 0 0 0 0 0 0 0 0.246677849363611 0.0721583213243113 0 0 0 0.177766469487341 0 0.0518394806236559 0 0 0 0 0 0 0 0 0 0 0 0 0 0 0 0 0
