2.13337811538761
5.62871797152259
0.441136357035826
0.493182079398769
0.600111911433048
2.50747303374252
3.05775165900406
0.593976692075175
0.634840706964226
0.232081352460357
1.54207548257498
0.925752177561324
0.113813487137526
0.242673412914553
0.399455980640784
1.03952513338708
1.9545344134381
1.56153205350377
0.965041766579653
3.59571089457839
0.879225896430039
0.922883350930301
1.34863744382919
0.46401898227449
0.718243071074383
0.4828256119499
0.807190748352473
5.28932843361159
0.842250069776504
0.885452637984733
0.711826879948308
0.333525384900294
0.481228380721159
0.307132543375614
0.976055766492372
1.64796726695934
3.8173603437908
1.66113600138769
0.837372375425286
1.03932855468998
3.47485326903805
1.17945156722236
8.06512348982885
1.68913808237232
1.07601628184844
0.600567457606583
1.87918913532197
0.147565707125058
2.88264485259537
0.509711976859563
