0.218115925018806
2.46923422498565
1.2385258349724
1.57106229063281
3.69758258870943
0.346657256736989
0.320072915406982
0.7478832684016
0.287308089560179
4.74170862100937
0.690769003003397
0.680781585878356
2.4892546293291
0.889897844899368
2.11238645424192
0.331949474547678
1.64487169601717
0.416121957238543
2.11457653300649
3.05041642693408
2.10124824650753
0.501781646884949
1.48034286132853
0.809778908159852
0.817290444886566
2.16834338111364
0.869348998385472
2.19741017082024
0.678758850324284
0.675644027440631
0.154890647285212
0.62620171325382
3.97903815833476
0.625608794676203
1.06971702956539
0.491028083228757
1.29246038929342
1.73519002873184
3.31488340655192
0.564557495714014
1.39720920790116
2.28379805643504
0.412855423550862
1.70653566011975
0.316632153174331
0.646845671764077
0.990469392665468
3.8235529482458
0.707447032390263
3.62888914395897
