1.52622517043291
0.263041650112951
0.948872135681867
0.520437235085004
0.217529876018996
0.434888397084882
0.382539721090057
0.492838340788266
1.45120988635985
0.355072875781439
0.781062183827558
0.487506554071882
0.699549920406559
0.655503883297903
1.26854780456077
1.15796317182464
0.75629992830021
0.632907841767955
0.157419543583982
0.270383046339599
0.23749162271834
0.451387748884729
0.407721980086874
0.588785096758425
0.388028288307653
0.7546028195314
0.513906679040486
0.868700033789074
0.295223408492335
1.00842347863675
0.704999349516767
0.510596627661824
0.11370148482306
1.27315159817789
0.31446223534116
0.626739338032065
0.311416981235775
0.719869818667275
0.440265307098512
0.204650887998785
0.771933546580964
0.590860280974597
0.260637308689915
0.13416697220647
1.06440241021305
0.657548128882347
0.366885943589598
0.481447581292968
0.850100041130511
0.601502201714436
