0.515817839540293
1.12087126707149
0.352679755981504
0.834394962462975
1.90870463132153
2.28508529003525
0.945582846575731
1.61613413790268
1.65653677834381
0.457769463441112
0.513299645338213
0.822738884427068
0.377815413779031
1.09619678519547
0.110781959838927
0.551249701467197
0.357497897150312
1.72396261948339
0.365537720190174
2.83911369397229
1.36719251322981
4.2835965711068
0.339054420260218
0.736078538351768
0.669941862645766
1.25104315394943
0.730932834495123
1.67592423716289
0.316713350792142
0.402104682506242
2.26041672858927
1.85020855207546
1.68462337456118
1.38286625904821
0.247594839948613
0.357436003344983
2.39400713974609
2.89140892979851
1.79424853361153
0.84052452404
2.27437794405708
1.23781146640348
0.425023840552124
3.7769621198288
2.82851064752802
0.533916314925635
2.58116502888375
1.71834310311511
2.57471289276227
1.09196221503689
