0 0 0 0 0 -0.248370299546106 0 0 0 0 0 0 0 0 0 0 0 0 0 0 0 0 0 0 0 0 0 0 0 0 0 0 0 0 0 0 0 0 0 0 0 0 0 0 0 0 0 0 0 0
0 0 -1.93127523970974 0 0 0 0 0 0 0 0 0 0 0 0 0 0 0 0 -10.906737524842 0 -0.334995593479034 0 0 0 0 0 0 0 0 0 0 0 0 0 0 0 0 0 0 0 0 0 0 0 0 0 0 0 0
0 0.373856286727367 0 0 0 0 0 0 0 0 0 0 0 0 0 0 0 0 0 -2.56807639589701 0 -0.93395605271666 -0.108015353059398 0 0 0 0 0 0 0 0 0 0 0 0 0 0 0 0 0 0 0 0 0 0 0 0 0 0 0
0 0 0 0 0.0569576303975116 0 0 0 0 0 0 0 0 0 0 0 0 0 0 0 0 -0.643717236848982 0 0 0 0 0 0 0 0 0 0 0 0 0 0 0 0 -8.21169067171912 0 0 0 0 0 0 0 0 0 0 0
0 0 0 -0.293059289152602 0 0 0 0 -1.14280561812431 0 0 0 0 0 0 0 0 0 0 0 0 -9.67822717635198 0 0 0 0 0 0 0 0 0 0 0 0 0 -1.45012904182445 0 0 -6.80817981440106 0 0 0 0 0 0 0 0 0 0 0
0.0471301653958249 0 0 0 0 0 -1.0228507659595 0 0 0 0 0 0 -0.419504965234633 0 0 0 0 0 0 0 -0.540738508380745 -0.250618214544523 0 0 0 0 0 0 0 0 0 0 0 0 -2.14060460132118 0 0 -4.23686810825867 0 0 0 0 0 0 0 0 0 0 0
0 0 0 0 0 0.191647853127509 0 0 0 0 0 0 0 0 0 0 0 0 0 0 0 -1.5385680757106 0 0 0 0 0 0 0 0 0 0 0 0 0 0 0 0 -0.912815023780781 0 0 0 0 0 0 0 0 -0.91442357116331 0 0
0 0 0 0 0 0 0 0 0 0 0 0 0 0 0 0 -1.34433901626562 0 0 0 0 0 0 -2.03363464183334 0 0 0 0 0 0 0 0 0 0 0 0 0 0 0 0 0 0 0 0 0 0 0 0 0 0
0 0 0 0 0.234611664927814 0 0 0 0 0 0 0 0 0 0 0 -3.77468204922044 0 0 0 0 0 0 -2.67134995414304 0 0 0 0 0 0 0 0 0 0 0 0 0 0 0 0 0 0 0 0 0 0 0 0 0 0
0 0 0 0 0 0 0 0 0 0 0 0 0 0 0 0 0 0 0 0 0 0 0 0 0 0 0 0 -0.469570808428508 0 0 0 0 0 0 0 0 0 0 0 0 0 0 0 0 0 0 0 0 0
0 0 0 0 0 0 0 0 0 0 0 0 0 0 0 -1.74567904451096 0 0 0 0 -0.519221615359094 0 0 0 0 0 0 0 -1.04297471608621 0 0 0 0 0 0 0 0 0 0 0 0 0 0 0 0 0 0 0 0 0
0 0 0 0 0 0 0 0 0 0 0 0 0 0 0 -1.58467428489496 0 0 -6.73811769061221 0 0 0 0 0 0 0 0 0 0 0 -2.29135316034094 -1.62693716143548 0 -1.24873102909401 0 0 0 0 0 0 0 0 0 0 0 0 0 0 0 0
0 0 0 0 0 0 0 0 0 0 0 0 0 0.530655629236733 0.35763537682582 -0.316605082988863 0 0 -0.609330916147845 0 0 0 0 0 0 0 0 0 0 0 -0.409969475978298 0 0 -1.07291179870543 0 0 0 0 0 0 0 0 0 0 0 0 0 0 0 0
0 0 0 0 0 0.094533485561448 0 0 0 0 0 0 -2.67046990832893 0 0 -1.17565445231084 0 0 -1.19248888446193 0 0 0 0 0 0 0 0 0 0 0 -0.42868287527411 0 0 -1.40652271060273 0 0 0 0 0 0 0 0 0 0 0 0 0 0 0 0
0 0 0 0 0 0 0 0 0 0 0 0 -1.75034256205704 0 0 0 0 0 0 0 0 0 0 0 0 0 0 0 0 0 -0.50313416317865 0 0 0 0 0 0 0 0 0 0 0 0 0 0 0 0 0 0 0
0 0 0 0 0 0 0 0 0 0 0.343079555378544 0.336205585386305 0.0624881140035827 0.242520137962587 0 0 0 0 0 0 0 0 0 0 0 0 0 0 0 0 0 0 0 0 0 0 -11.652413682246 0 0 0 0 0 0 0 0 0 0 0 0 0
0 0 0 0 0 0 0 0.253047968356815 0.791134448462506 0 0 0 0 0 0 0 0 0 0 0 0 0 0 0 0 0 0 0 0 0 0 0 0 -0.788615209976341 0 0 -0.87813626329766 0 0 0 0 0 0 0 0 -1.04386833514529 0 0 0 0
0 0 0 0 0 0 0 0 0 0 0 0 0 0 0 0 0 0 0 0 0 0 0 0 0 0 0 0 0 0 0 0 0 -2.03985891849968 0 0 -1.75379936481994 0 0 0 0 0 0 0 -0.38983789843145 0 0 0 0 -1.87361463630364
0 0 0 0 0 0 0 0 0 0 0 1.27564590316148 0.123306000363069 0.260040773437361 0 0 0 0 0 0 0 0 0 0 0 0 0 0 0 0 0 0 0 0 0 0 0 0 0 0 0 0 0 0 0 0 0 0 0 -0.237347877416096
0 2.07998036029593 0.469060971902484 0 0 0 0 0 0 0 0 0 0 0 0 0 0 0 0 0 0 0 0 0 0 0 0 0 0 0 0 0 0 0 0 0 0 0 0 0 0 0 0 0 0 0 0 0 0 0
0 0 0 0 0 0 0 0 0 0 0.110969470497983 0 0 0 0 0 0 0 0 0 0 0 0 0 0 0 0 0 0 0 0 0 0 0 0 0 0 0 0 0 0 0 0 0 -2.43544286697969 0 0 0 0 -0.817949056755222
0 0.069711861396999 0.187909746839779 0.123840798880053 1.96036164334786 0.101211347503113 0.304776376688983 0 0 0 0 0 0 0 0 0 0 0 0 0 0 0 0 0 0 0 0 0 0 0 0 0 0 0 0 0 0 0 0 0 0 0 0 0 -1.14313898885597 0 0 0 0 -1.17210473227495
0 0 0.0203214624835418 0 0 0.0455946478310077 0 0 0 0 0 0 0 0 0 0 0 0 0 0 0 0 0 0 0 0 0 0 0 -1.59252452375364 0 0 0 0 -0.766022797663017 0 0 0 0 0 0 0 0 0 -1.09716897479701 0 0 0 0 -0.544897009185873
0 0 0 0 0 0 0 0.412102741440218 0.553020820326322 0 0 0 0 0 0 0 0 0 0 0 0 0 0 0 0 0 0 0 0 -0.942791175576418 0 0 0 0 -1.30577019627069 0 0 0 0 0 0 0 0 0 -0.373489024994967 0 0 0 0 0
0 0 0 0 0 0 0 0 0 0 0 0 0 0 0 0 0 0 0 0 0 0 0 0 0 0 0 0 0 -1.63350258266726 0 0 0 0 -0.96896884550183 0 0 0 0 -0.74952011474235 0 0 0 0 -0.435085625270633 0 0 0 -1.08234556309162 0
0 0 0 0 0 0 0 0 0 0 0 0 0 0 0 0 0 0 0 0 0 0 0 0 0 0 -3.61323784347441 0 0 -0.516457693095911 0 0 -1.91873223387324 0 -1.66708045178768 0 0 0 0 -2.18747201974434 0 0 0 0 -0.915748739669809 0 0 0 -0.757227789680512 0
0 0 0 0 0 0 0 0 0 0 0 0 0 0 0 0 0 0 0 0 0 0 0 0 0 0.685727521169769 0 0 0 -4.88522079240562 0 0 -2.11316317240757 0 -0.477941675297379 0 0 0 0 -1.36381637420209 0 0 0 0 0 0 0 0 -1.58957559901333 0
0 0 0 0 0 0 0 0 0 0 0 0 0 0 0 0 0 0 0 0 0 0 0 0 0 0 0 0 0 0 0 0 -0.566071721558758 0 -3.39662507744025 0 0 0 0 -1.10084027261366 0 0 0 0 0 0 0 0 -2.90034807058654 0
0 0 0 0 0 0 0 0 0 0.094796931651642 0.207876987414815 0 0 0 0 0 0 0 0 0 0 0 0 0 0 0 0 0 0 0 0 0 0 0 -6.03418358903088 0 0 0 0 0 0 0 0 0 0 0 0 0 0 0
0 0 0 0 0 0 0 0 0 0 0 0 0 0 0 0 0 0 0 0 0 0 0.349218230003348 0.189615144466893 0.329951020379051 0.106347229263362 1.04069913737589 0 0 0 0 0 -0.257212631131081 0 0 0 0 0 0 0 0 0 0 0 0 0 0 0 0 0
0 0 0 0 0 0 0 0 0 0 0 0.437260600812918 0.0839494779494836 0.0799026666114103 0.104749949101368 0 0 0 0 0 0 0 0 0 0 0 0 0 0 0 0 0 -0.654259468702451 0 -0.720367683809186 0 0 0 0 -0.250151187921483 0 0 0 0 0 0 0 0 0 0
0 0 0 0 0 0 0 0 0 0 0 0.319549871492368 0 0 0 0 0 0 0 0 0 0 0 0 0 0 0 0 0 0 0 0 0 0 0 0 0 -0.377349781924877 0 0 0 0 0 0 0 0 -0.522249305663189 0 0 0
0 0 0 0 0 0 0 0 0 0 0 0 0 0 0 0 0 0 0 0 0 0 0 0 0 0.396046992506579 0.375107094755702 0.119818860973384 0 0.0560753545737049 0.143367179377675 0 0 0 -0.755490960268088 0 0 0 0 -3.3953965323887 0 0 0 -1.9083254546339 0 0 0 0 0 0
0 0 0 0 0 0 0 0 0 0 0 0.257074420764794 0.215491165475489 0.276854151989438 0 0 0.159985160159069 0.398972019260978 0 0 0 0 0 0 0 0 0 0 0 0 0 0 0 0 -2.13103809803216 0 0 -3.18865699189903 0 -0.979360089498348 0 0 0 -0.847318533411715 0 0 0 0 0 0
0 0 0 0 0 0 0 0 0 0 0 0 0 0 0 0 0 0 0 0 0 0 0.143058324275097 0.259498759555703 0.199182635388737 0.336108886839682 0.0979229200440623 0.633582812290787 1.22847030777134 0 0.144611312598683 0 0.148390367666983 0.405380710961738 0 0.216107845733657 0 -0.725541813470676 0 -1.35084617496583 0 0 0 0 0 0 -1.12477568435233 0 0 0
0 0 0 0 0.298984809758774 0.434647638795003 0 0 0 0 0 0 0 0 0 0 0 0 0 0 0 0 0 0 0 0 0 0 0 0 0 0 0 0 -1.09118890962651 0 0 0 0 -0.179470521391976 0 0 0 0 0 0 -0.314148727735259 0 0 0
0 0 0 0 0 0 0 0 0 0 0 0 0 0 0 2.41616352878685 0.177743225288001 0.339594575486661 0 0 0 0 0 0 0 0 0 0 0 0 0 0 0 0 0 0 0 0 0 -0.671970156341387 0 0 0 0 0 0 -0.358639084550363 0 0 0
0 0 0 0 0 0 0 0 0 0 0 0 0 0 0 0 0 0 0 0 0 0 0 0 0 0 0 0 0 0 0 0.0754944893905642 0 0.651927601333553 0.149207002745211 0 0 0 0 -1.45712429528074 0 0 0 0 0 0 -1.23300059330182 0 0 0
0 0 0 1.58772084269148 1.26718586961381 0.907961856388593 0.178319942021724 0 0 0 0 0 0 0 0 0 0 0 0 0 0 0 0 0 0 0 0 0 0 0 0 0 0 0 0 0 0 0 0 0 0 -0.925400014998563 0 0 0 0 0 0 0 0
0 0 0 0 0 0 0 0 0 0 0 0 0 0 0 0 0 0 0 0 0 0 0 0 0.150329882554878 0.435246032983788 0.271186582670848 0.22986557666946 0 0 0.0531808923911075 0 0.663322797015899 0.188804950149754 0.292708461948841 0.0350626990174588 0.128252523525878 0.287092884168398 0 0 0 0 0 0 0 0 -0.83170152734793 0 0 0
0 0 0 0 0 0 0 0 0 0 0 0 0 0 0 0 0 0 0 0 0 0 0 0 0 0 0 0 0 0 0 0 0 0 0 0 0 0 0 0 0 -0.872790672511538 0 0 0 0 0 0 0 0
0 0 0 0 0 0 0 0 0 0 0 0 0 0 0 0 0 0 0 0 0 0 0 0 0 0 0 0 0 0 0 0 0 0 0 0 0 0 0.174379236049054 0 0.16920745033674 0 0 0 0 0 -1.44714987881705 0 0 0
0 0 0 0 0 0 0 0 0 0 0 0 0 0 0 0 0 0 0 0 0 0 0 0 0 0 0 0 0 0 0 0 0 0 0 0 0 0 0 0 0 0 0 0 0 0 -2.83837755005217 0 0 0
0 0 0 0 0 0 0 0 0 0 0 0 0 0 0 0 0 0 0 0 0 0 0 0 0 0 0 0 0 0 0 0 0.385718228922965 0.160821860187503 0 0 0 0 0 0 0 0 0 0 0 0 0 0 0 0
0 0 0 0 0 0 0 0 0 0 0 0 0 0 0 0 0 0.0774462712725398 0 0 0.501577478893418 0.233403503861917 0.213695187864265 0.0726463013595399 0.0792281219336323 0.167480931438023 0 0 0 0 0 0 0 0 0 0 0 0 0 0 0 0 0 0 0 0 0 0 0 0
0 0 0 0 0 0 0 0 0 0 0 0 0 0 0 0 0.19081613581157 0 0 0 0 0 0 0 0 0 0 0 0 0 0 0 0 0 0 0 0 0 0 0 0 0 0 0 0 0 0 0 0 0
0 0 0 0 0 0 0 0 0 0 0 0 0 0 0 0 0 0 0 0 0 0 0 0 0 0 0 0 0 0 0 0.101329081661996 0 0 0.206071463970598 0.0642734284478197 0.0719119346877892 0.241303848418007 0 0.161086609890035 0 0.265665159494693 0.593873480544159 0 0 0 0 0 0 0
0 0 0 0 0 0 0.198815919956584 0 0 0 0 0 0 0 0 0 0 0 0 0 0 0 0 0 0 0 0 0 0 0 0 0 0 0 0 0 0 0 0 0 0 0 0 0 0 0 0 0 0 0
0 0 0 0 0 0 0 0 0 0 0 0 0 0 0 0 0 0 0 0 0 0 0 0 0.209054180158542 0.15637978549064 0.307492325777109 0.570875760976695 0 0 0 0 0 0 0 0 0 0 0 0 0 0 0 0 0 0 0 0 0 0
0 0 0 0 0 0 0 0 0 0 0 0 0 0 0 0 0 0.355672769068127 0.0477451950010302 0 0.156403180354245 0.216276999699345 0.109318184872655 0 0 0 0 0 0 0 0 0 0 0 0 0 0 0 0 0 0 0 0 0 0 0 0 0 0 0
