2.93258175408225
0.504305003480836
0.102356202510837
0.737107854876363
2.80119343390695
0.808377262123595
2.57254630834218
1.90830868621554
3.76245950668466
0.500007440615626
0.278539421247707
0.632977392717705
1.35577061229518
0.633279883475663
0.757716243060931
1.0018108914804
0.636180739628998
1.77201420246939
0.819363728823554
0.486157734003608
0.136506819730566
2.55786556758126
0.423689984405694
0.818771184622829
2.31111256422066
4.59955021149308
0.4770328417144
8.18112087148689
1.18587872219392
4.39615461770952
0.500491484794883
1.98660778866547
1.36113492836377
0.741920268054336
2.502230015483
0.620383552185513
3.61747668063564
0.695983690938365
0.297861864973054
1.70872112420775
0.397639483507407
3.67026487454837
3.96560368786223
0.334057222738084
1.28968884520926
0.412985608572678
1.11089869933821
1.41454622594026
7.88459392858848
0.351799271486329
