1.77613733280997
0.167449289100783
0.651900998355308
0.317968288612864
0.304766291892918
0.103608496946832
2.44967728711598
0.795925973904169
1.42132556308371
0.909780557477815
1.99985990663253
1.29615154067369
0.434056852894515
0.122418490077429
1.49000013376963
0.100816526148867
0.708803997064901
1.92241790735221
2.13292762544846
0.142391921642686
0.0334429219251273
2.06482280102505
0.502922169065116
0.623014826266516
0.984263607890514
0.425966489711292
0.220872169526322
0.523562919077558
3.45711903846113
0.207481533778065
0.15202298149924
0.437441039520048
0.51558941956986
0.294134240572521
1.0144682565987
0.257807632885575
0.353101160194875
3.12045139378777
0.283134683837312
0.392768745139304
0.343262233941964
1.11558530050858
0.200426589589083
0.263650605031986
1.20235368980404
0.0889361753829857
1.54139285478639
0.577679459667565
0.0415232160726099
1.42907799683306
