5.26543845693729
1.43213011501506
0.280568485466367
0.375071319069611
0.136798658566443
0.874459456969029
1.54104628926518
1.78952314933753
1.23366242121326
0.606911156331004
1.01888006986273
2.10362937568872
0.869949198928077
0.775610961274037
2.43280512957476
1.55012008775673
0.727597358208261
0.395670936381376
4.56779886520115
0.26419936065047
0.20336979872641
0.893464365295468
3.49721234012511
0.450951524975935
3.65260708905507
3.15810447484837
0.430271114308283
1.57583698995661
0.494578209166986
1.75992475745019
0.636179291202893
0.723255451932011
0.454660199580106
0.691197837694202
0.107897981323909
0.492583466624401
0.506663338686018
2.95744504100575
2.89686237534313
0.777068925085614
0.768992248036504
0.230637707787257
1.24543658603123
0.286138114382837
0.944636300006809
1.44157437319261
1.66260251873481
0.272556913543594
0.529981441105504
5.02891099608648
