2.00812243825662
0.335505558157346
1.15618116237106
1.91569418083441
3.52519650864079
1.01843653776513
1.70860322789697
1.80711657706065
1.29553220879859
0.34080955556242
1.42216108475533
0.949468611608562
1.04632902835309
1.76314884114101
0.904127470545595
2.03541868564395
1.74299729633878
0.854373157483696
0.578612392557841
1.82165514757384
1.41145433407262
1.82483676189726
0.321452653273456
2.86746141485126
0.388254994723901
0.192413354088798
2.58559547848996
1.4022754287219
0.941798592259837
0.657380381573092
1.94223662195798
0.48389992741859
1.49895934115103
0.730320578613453
1.73932046918117
0.535976079585012
0.803451695856023
0.341690015643549
3.55865420482628
0.705202984375758
0.313343910434561
0.555779481849511
2.60027388113765
1.8909410252911
0.615914669122623
2.28202190281691
0.266111081112084
1.8566104653996
0.303179809566838
2.09371891232586
