0 0 0 0 0 0 0 0 0 0 0 0 0 0 -0.14158590413683 0 0 0 0 0 0 0 0 0 0 0 0 0 0 0 0 0 0 0 0 0 0 0 0 0 0 0 0 0 0 0 0 0 0 0
0 0 0 0 0 0 0 0 0 0 0 0 0 0 0 0 -1.56560067968938 0 -0.85021192616451 0 0 0 -0.682023277811677 0 0 0 0 0 0 0 0 0 0 0 -0.377844161756645 0 0 0 0 0 0 0 0 0 0 0 0 0 0 0
0 0 0 0 -2.0732861000325 0 0 0 -0.918974977565123 0 0 0 0 0 0 0 0 0 0 0 0 0 -0.410870001904507 0 0 0 0 0 0 0 0 0 0 0 -2.98464587030767 0 0 0 0 0 0 0 0 0 0 0 0 0 0 0
0 0 0 0 -1.2359949059096 0 0 0 -0.461397071721815 0 0 0 0 -1.85126416061921 0 0 -2.07953156932952 0 0 0 0 0 -1.23816349519202 0 0 -0.175057821196344 0 0 0 0 0 0 0 0 0 0 0 0 0 0 0 0 0 0 0 0 0 0 0 0
0 0 0.409289878920099 0.261884263507761 0 0 -0.183744339486207 0 0 0 0 0 0 -1.26338588065857 0 0 -0.698642272203904 0 0 0 0 0 -0.78016200840166 0 0 -0.112006707584669 0 0 0 0 0 0 0 0 0 0 0 0 0 0 0 0 0 0 0 0 0 0 0 0
0 0 0 0 0 0 -0.984141010839209 0 0 0 0 -0.263231030246564 0 -1.25631301459739 0 0 0 0 0 0 0 0 -1.26407197202502 0 0 -4.93405608912166 0 0 0 0 0 0 0 0 -0.393387458978973 0 0 0 0 0 0 0 0 0 0 0 0 0 0 0
0 0 0 0 0.0366665008107716 0.201437123511233 0 0 0 0 0 -0.926356975096977 0 -0.450497388186854 0 0 -1.55628677075259 0 0 0 0 0 -2.0147740362085 0 0 -0.6385789091276 0 0 0 0 0 0 0 0 -0.172718790191251 0 0 0 0 0 0 0 0 0 0 0 0 0 0 0
0 0 0 0 0 0 0 0 0 -0.591437151571526 0 0 0 -0.734000496958242 0 0 -1.37205920248036 0 0 0 0 0 -0.280174351459588 0 0 -6.46540772331443 0 0 0 0 0 0 0 0 0 0 0 0 0 0 0 0 0 0 0 0 0 0 0 0
0 0 0.176671885180137 0.0870915371016191 0 0 0 0 0 0 0 0 0 0 0 0 -1.08056181631841 0 0 0 0 0 0 0 0 -2.13258253739167 -1.08009722781675 0 0 0 0 0 0 0 0 0 0 0 0 0 0 0 0 0 0 0 0 0 0 0
0 0 0 0 0 0 0 0.113985878196318 0 0 0 0 0 0 0 0 0 0 0 0 0 0 -2.72072345019618 0 0 0 -0.398903432412828 0 0 0 0 0 0 0 0 0 0 0 0 0 0 0 0 0 0 0 0 0 0 0
0 0 0 0 0 0 0 0 0 0 0 0 0 0 0 0 0 0 0 0 0 0 -1.57330850905126 0 0 0 0 -2.02448589640504 0 0 0 -1.83353692165561 0 0 0 0 0 0 0 0 0 0 0 0 0 0 0 0 0 0
0 0 0 0 0 0.0538011050180206 0.190969897930753 0 0 0 0 0 0 0 0 0 0 0 0 0 0 0 -2.81029292973646 0 0 0 0 -0.91664484936183 0 0 0 -3.6419972851822 0 0 0 0 0 0 0 0 0 0 0 0 0 0 0 0 0 0
0 0 0 0 0 0 0 0 0 0 0 0 0 0 0 0 0 0 0 0 0 -0.199917734744285 0 0 0 0 0 0 0 -1.34405906915181 0 0 0 0 0 0 0 0 -0.311562966564117 0 0 -1.34992990475149 0 0 -0.135643265141028 -1.44436569101334 0 0 0 0
0 0 0 0.372072228357258 0.258265967771699 0.252069990668261 0.0988602120724747 0.14160021000599 0 0 0 0 0 0 0 0 0 0 0 0 0 -7.58163969988961 0 0 0 0 0 0 0 -4.32190451086698 0 0 0 0 0 0 0 0 0 0 0 -3.65528386814289 0 0 0 -0.118878914487925 0 0 0 0
0.0265148912946685 0 0 0 0 0 0 0 0 0 0 0 0 0 0 0 0 0 0 -1.38782334810784 0 0 0 0 0 0 0 0 0 0 0 0 0 0 0 0 0 0 0 0 0 -0.474340742472352 0 0 -1.70488729905 -0.987977963659461 0 0 0 0
0 0 0 0 0 0 0 0 0 0 0 0 0 0 0 0 0 0 0 0 0 -0.683676867042841 0 0 0 0 0 0 0 -1.34180521345376 0 0 0 0 0 0 0 0 0 0 0 -3.1035902538402 0 0 -1.59654226946945 -0.923719058625438 0 0 0 0
0 0.308411599854556 0 0.438739275046129 0.132509360864897 0 0.303762477344607 0.275517509771308 0.223942555586207 0 0 0 0 0 0 0 0 0 0 0 -0.246778620646367 0 0 0 0 0 0 0 0 0 0 0 0 0 0 0 0 0 0 0 -0.721536726271931 0 0 0 -2.2851292491255 -2.19628784285526 0 0 0 0
0 0 0 0 0 0 0 0 0 0 0 0 0 0 0 0 0 0 0 0 -3.51676276476076 0 0 0 0 0 0 0 0 0 0 0 0 -2.33519097211701 0 0 0 0 0 0 -0.319579556562792 0 0 0 -3.04292887914685 -0.388289796184697 0 0 0 0
0 0.167170958939493 0 0 0 0 0 0 0 0 0 0 0 0 0 0 0 0 0 0 0 0 0 -0.103748565424659 0 0 0 0 0 0 0 0 -5.86020392351166 0 0 0 -0.679077286464138 0 0 0 0 0 0 0 -0.113646395228507 -0.11506104788644 0 0 0 0
0 0 0 0 0 0 0 0 0 0 0 0 0 0 0.272533891159323 0 0 0 0 0 0 0 0 0 0 0 0 0 -0.159611256881157 0 0 0 -3.16723691084188 0 0 0 -0.939652138327844 0 0 0 -0.405683859314407 0 0 0 -1.23046342505437 0 0 0 0 0
0 0 0 0 0 0 0 0 0 0 0 0 0 0 0 0 0.0497469191112023 0.680530143637631 0 0 0 0 0 0 0 0 0 0 -0.788545251288731 0 0 0 0 0 0 0 0 0 0 0 -0.673655898314108 0 0 0 0 0 0 0 0 0
0 0 0 0 0 0 0 0 0 0 0 0 0.0369905454087364 1.60078201051993 0 0.13207256614482 0 0 0 0 0 0 0 0 0 0 0 0 -0.900361728811068 0 0 0 -0.723904142427188 0 0 0 0 0 0 0 -5.63006640964833 0 0 0 0 0 0 0 -3.86790100767704 0
0 0.138627979166187 0.0821534939603586 0.255446750055486 0.157577861297135 0.26831838021575 0.372621608020807 0.0550074199237355 0 0.540508685581125 0.304788278925829 0.566782389526032 0 0 0 0 0 0 0 0 0 0 0 0 0 0 0 0 -2.10495583820674 0 0 0 -3.24794474374606 0 0 0 0 0 0 0 -1.0950866815175 0 0 0 0 0 0 0 -3.91381831909718 0
0 0 0 0 0 0 0 0 0 0 0 0 0 0 0 0 0 0 0.0207368123501206 0 0 0 0 0 0 0 0 0 -0.836207520222145 0 0 0 -1.29941003146714 0 0 0 0 0 0 0 -3.70091200204057 0 0 0 0 0 0 0 -0.52214496462807 0
0 0 0 0 0 0 0 0 0 0 0 0 0 0 0 0 0 0 0 0 0 0 0 0 0 0 0 0 0 0 0 0 -0.37711540837016 0 0 0 -0.572555822629033 0 0 0 0 0 0 0 0 0 0 0 -1.21032272269408 0
0 0 0 0.0353664114941814 0.0214272512016271 0.995090729009123 0.13008211071313 1.36899143308059 0.455208104424685 0 0 0 0 0 0 0 0 0 0 0 0 0 0 0 0 0 0 0 0 0 -1.44215821697702 0 0 0 0 0 -0.332947659990551 -3.43658134692658 0 0 0 0 0 0 0 0 0 0 -4.48170757448767 0
0 0 0 0 0 0 0 0 0.225371388818654 0.079758072734931 0 0 0 0 0 0 0 0 0 0 0 0 0 0 0 0 0 0 0 0 0 0 0 0 0 0 0 -6.84610725460982 0 0 0 0 0 0 0 0 0 0 0 0
0 0 0 0 0 0 0 0 0 0 0.401225887495373 0.174310285330289 0 0 0 0 0 0 0 0 0 0 0 0 0 0 0 0 0 0 0 0 0 0 0 0 -0.475683601926201 -0.477859506169604 0 0 0 0 0 0 0 0 0 0 -0.889955750509323 0
0 0 0 0 0 0 0 0 0 0 0 0 0 0 0 0 0 0 0 0.0322911310889764 0.148633663703999 0.171557535929804 0.451025939991088 0.163931550406427 0 0 0 0 0 0 0 0 0 0 0 0 0 0 0 0 0 0 0 0 0 0 0 0 0 0
0 0 0 0 0 0 0 0 0 0 0 0 0.254242813746409 0.810833609283786 0 0.250915608785164 0 0 0 0 0 0 0 0 0 0 0 0 0 0 0 0 0 0 0 0 0 -1.29206101844682 0 0 0 0 0 0 0 0 0 0 0 0
0 0 0 0 0 0 0 0 0 0 0 0 0 0 0 0 0 0 0 0 0 0 0 0 0 0.276738907244613 0 0 0 0 0 0 0 0 0 0 0 -2.4384543677791 0 0 0 0 0 0 0 0 0 0 0 -0.310099096692295
0 0 0 0 0 0 0 0 0 0 0.37779743370254 0.758734809836051 0 0 0 0 0 0 0 0 0 0 0 0 0 0 0 0 0 0 0 0 0 0 0 0 0 -0.675632131602235 0 0 0 0 0 0 0 0 0 0 0 -1.22738288802537
0 0 0 0 0 0 0 0 0 0 0 0 0 0 0 0 0 0 1.15089325397877 0.620558846765292 0 0.144686159465835 0.664467632145907 0.268295439204796 0.0782807493362869 0 0 0 0 0 0 0 0 0 0 0 0 0 0 0 0 0 0 0 0 0 0 0 0 -0.832351581103304
0 0 0 0 0 0 0 0 0 0 0 0 0 0 0 0 0 0.456552313481421 0 0 0 0 0 0 0 0 0 0 0 0 0 0 0 0 0 0 0 0 0 -2.56360178951338 0 0 0 0 0 0 0 0 0 0
0 0.0685343938427444 0.558700073486741 0 0 0.083786113679858 0.0315843019813248 0 0 0 0 0 0 0 0 0 0 0 0 0 0 0 0 0 0 0 0 0 0 0 0 0 0 0 0 0 0 0 0 -1.56839875752805 0 0 0 0 0 0 0 0 0 0
0 0 0 0 0 0 0 0 0 0 0 0 0 0 0 0 0 0 0 0 0 0 0 0 0 0 0 0 0 0 0 0 0 0 0 0 0 0 0 -1.51465518888093 0 0 0 0 0 0 0 0 0 0
0 0 0 0 0 0 0 0 0 0 0 0 0 0 0 0 0 0 0.129338831662353 0.174687608438941 0 0 0 0 0.113338453187334 0.0665153032465721 0 0.0949930659531465 0 0 0 0 0 0 0 0 0 0 0 0 0 0 0 0 0 0 0 0 0 0
0 0 0 0 0 0 0 0 0 0 0 0 0 0 0 0 0 0 0 0 0 0 0 0 0 0.688553406431146 1.41046969126483 0.103932294005268 0 0.255382206096657 0.490989983015212 0.131565162984226 0 0 0 0 0 0 0 -1.11052234139768 0 0 0 0 0 0 0 0 0 0
0 0 0 0 0 0 0 0 0 0 0 0 0.0624466740867182 0 0 0 0 0 0 0 0 0 0 0 0 0 0 0 0 0 0 0 0 0 0 0 0 0 0 -0.435590561741074 0 0 0 0 0 0 0 0 0 0
0 0 0 0 0 0 0 0 0 0 0 0 0 0 0 0 0 0 0 0 0 0 0 0 0 0 0 0 0 0 0 0 0 0.480371465042569 0.320760741508645 0.308495883921856 0 0.224598158272782 0.0952778162789707 0 0.0311119560716742 0.268259526171623 0.424054219308789 0.107639721640197 0 0 0.11709637288218 0.834710708576432 0.0996682432784535 0
0 0 0 0 0 0 0 0 0 0 0 0 0 0 0 0 0.149260538038571 0.0618948500479384 0 0.0800010195508693 0.114455112719873 1.10413536871328 0.234913462463996 0.791647637577517 0 0 0 0 0 0 0 0 0 0 0 0 0 0 0 -0.149590798495061 0 0 0 0 0 0 0 0 0 0
0 0 0 0 0 0 0 0 0 0 0 0 0.292281665548915 0.667856909737192 0.0938214660065786 0.634748920790438 0 0 0 0 0 0 0 0 0 0 0 0 0 0 0 0 0 0 0 0 0 0 0 -1.38371457860294 0 0 0 0 0 0 0 0 0 0
0 0 0 0 0 0 0 0 0 0 0 0 0 0 0 0 0 0 0 0 0 0 0 0 0 0 0 0 0 0 0 0 0 0 0 0 0 0 0 -2.0054078569986 0 0 0 0 0 0 0 0 0 0
0 0 0 0 0 0 0 0 0 0 0 0 0 0 0 0 0 0 0 0 0 0 0 0 0 0 0 0 0 0 0 0 0 0 0 0 0 0 0 -0.54934544806787 0 0 0 0 0 0 0 0 0 0
0 0 0 0 0 0 0 0 0 0 0 0 0.0288782462014428 0 0.372374236401388 0.333916555149614 0.445267828143928 0.633397112784221 0.022307783090037 0.253675581388071 0 0 0 0 0 0 0 0 0 0 0 0 0 0 0 0 0 0 0 0 0 0 0 0 0 0 0 0 0 0
0 0 0 0 0 0 0 0 0 0 0 0 0.27231136049922 0.0225646203090407 0.198286268650619 0.183526029896094 0.410563122407451 0.0798748102891563 0.0228239518061951 0 0 0 0 0 0 0 0 0 0 0 0 0 0 0 0 0 0 0 0 0 0 0 0 0 0 0 0 0 0 0
0 0 0 0 0 0 0 0 0 0 0 0 0 0 0 0 0 0 0 0 0 0 0 0 0 0 0 0 0 0 0 0 0 0 0 0 0 0 0 -0.598419795016027 0 0 0 0 0 0 0 0 0 0
0 0 0 0 0 0 0 0 0 0 0 0 0 0 0 0 0 0 0 0 0 0 0 0 0 0 0 0 0 0 0 0 0 0 0 0 0 0 0 -4.24411439219903 0 0 0 0 0 0 0 0 0 0
0 0 0 0 0 0 0 0 0 0 0 0 0 0 0 0 0 0 0 0 0 0.763466638897987 0.745101008244238 0.113527944786176 0.237301307842709 0.92834921867993 0 0.174088742890552 0 0 0 0 0 0 0 0 0 0 0 -0.515022428026833 0 0 0 0 0 0 0 0 0 0
0 0 0 0 0 0 0 0 0 0 0 0 0 0 0 0 0 0 0 0 0 0 0 0 0 0 0 0 0 0 0.0648628899300256 0.25604917149107 0.153142080856302 0 0 0 0 0 0 0 0 0 0 0 0 0 0 0 0 0
