0.506927119322394
1.07638940493738
0.115423574785528
2.87212813429821
0.581283782956949
0.487982102570644
0.775948698402735
0.0701872337807186
0.63262154993293
3.66812354163083
0.440404392703584
0.898726647376813
0.317567925667993
0.352145203957112
1.51014971955168
2.61551296769122
0.369262759814726
1.27528002661435
1.62162945139647
0.313096060605413
3.05794109270015
0.732266902180884
0.874487429680488
0.587724778491136
2.2468375547533
0.786385968991337
1.17287322987847
1.41340560772732
0.631985072965054
0.692353225261086
1.36418990133282
0.31958058127986
2.10937092387276
0.614185806586544
0.64124002860042
3.92301403162822
2.8319482921635
0.913677101549128
0.220240871344331
0.614869047627944
1.96667835769299
1.94415431224676
0.839529031560503
0.531994852189285
0.797670764437096
2.6610577131032
0.40313911603523
1.15959452722805
0.928027028318312
0.155073520734891
