1.50481945310099
0.668906566697547
0.280726767035443
0.885874712911212
1.60110281578124
1.56874364969
1.25219379826085
0.285559496388883
0.238073003380323
0.683439303714219
0.678474953921733
1.75340158618533
2.56640763059617
0.759482089556196
1.00453269523196
0.415393600477276
0.594049298269945
3.67781109769038
0.188444112094261
0.44290607819398
0.932131699045969
1.18123202323875
1.9714174818928
0.490329840879096
0.7130278351753
1.63407214633816
1.53283381980651
0.412005610228497
0.579124073601898
1.28944560166369
0.196795493250184
1.5940617715599
0.661343889260237
0.643131348799306
0.488184649545907
0.2163617521883
1.43888598097391
1.34379149386925
3.37480296476128
1.89999424426572
0.250669300868267
1.0909798767517
0.811545878033029
0.247791316879252
0.189705897482111
0.667377291233432
1.42282252797162
1.19554159589789
0.831607366943287
0.600140357362927
