0.0341243393214456
2.19630642165552
0.198873072724474
0.161866295374536
0.256676228898233
0.160707704917899
1.75129340803683
0.193648779859386
0.607203384428422
1.44246670530783
5.57649558477167
1.07504740781758
0.31447302351092
0.326042447211387
2.74769929733864
0.411269402002084
0.559495357125801
0.343619828651332
0.157324364654925
1.53528639784401
1.00026659056463
0.309314639233014
0.353858717853085
0.145315107853264
0.467640103440152
0.693962855262345
0.509522724691893
0.664021631719865
0.314064296119238
1.85351840872456
0.441453826872009
0.0313925044383085
0.937548810617595
3.48561990404364
1.83445687345019
0.0797251735416887
0.51799058462864
1.95712165516016
1.09863999373352
2.37654236730435
1.69593031581938
1.77538075656121
0.946837023157001
0.434418652997172
0.424775256975938
0.351505351919688
0.46004530470736
1.25000723359064
0.92188518725851
1.27674738864106
