0.140753215508326
0.0632739868141943
0.09677745342563
0.928976602425
0.116115132582677
0.0543741538935857
0.57885461014065
4.13130842636522
0.754239650031831
0.0387911850193696
1.05273773306463
0.374007150054292
1.82680157467192
2.34009019603711
1.79996227937528
0.142480746767415
0.246026557789305
1.16639226162582
0.161665454269093
1.25118120928399
1.47439337749661
0.275968583762897
1.8564412081267
1.66924661356568
0.796766870931106
0.204069159101094
0.238819514482983
0.5252133201802
5.77775577076149
2.47181620913367
0.0510725657684953
0.0809116469315907
0.0198923044714517
1.50716269908856
0.550610671079355
0.528292202401836
0.335879901545321
0.625717835030216
0.822940812911905
0.428948407828659
0.573201353022584
0.236239828857909
5.87417282129029
0.210764515631201
1.62026373463107
0.283670678744191
0.146726752913892
0.388679562609843
0.0731026467628584
0.481118352955586
