4.64164517019177
0.225871542508879
1.03014513479764
1.01544908637094
0.898204135055812
0.170741650512484
0.0876340895848938
1.52969803598138
0.0663912233235
0.188537457456694
0.11505687753983
0.218459195684137
0.223553740566518
0.930231452294362
0.151074207557742
0.345647152941594
0.610450344873457
1.00013077900964
1.94949149967752
1.19697232368871
0.486800902059426
1.08683963813704
0.453626999575752
1.48897379261112
0.384041201889335
0.439559124347743
0.522949889712578
1.07934593066549
0.167008625130684
0.769943765649326
0.0505821156039687
0.15262927783052
0.220081914716051
0.065963777457861
0.761009810558694
0.23176451987019
0.239436449028427
0.295936525495197
0.42022705656926
0.279761458095424
0.98403207413701
0.400814670771398
0.425003175396891
0.953884147271013
0.298092329320771
1.14633993944964
0.921224174416783
0.243827464980311
0.273508984977392
0.712583395899778
