0.151747900791605
1.67751056117943
0.464341369941008
0.330408777916198
4.07411614884939
2.48865978902885
4.1050193373357
4.32256040849419
1.13488864958888
2.02031692125037
1.72376689766903
0.495520149198391
3.51107155403984
3.14858399341662
0.276917958344178
0.156611837094111
1.4226512395811
3.42632492095722
1.0379621719888
0.142028838975354
2.61448599752325
0.360821990305207
0.910451126817756
0.175213387219366
1.08754140727079
1.14733334771969
2.12653973268621
0.0592481572644413
2.65979760629019
0.709847641788529
0.784086724364146
0.728352931912386
6.60390262577792
0.449207203508653
2.52734629993087
1.39997775996066
0.270547750460815
0.711676946167315
2.9666506011667
0.153384928043203
1.41570272181154
7.68193669738922
5.47514302540015
2.53581404725418
0.230715791466886
0.543158900257283
1.17744901906701
0.970938426685554
0.484362864518779
1.27377087753728
