0 -0.767025581815087 -0.0690291673596719 0 0 0 0 0 0 0 0 0 0 0 0 0 0 0 0 0 0 0 0 0 0 0 0 0 0 0 0 0 0 0 0 0 0 0 0 0 0 0 0 0 0 0 0 0 0 0
0.154518889927915 0 -6.50942304489508 0 0 0 0 0 0 0 0 0 0 0 0 0 0 0 0 0 -0.344480388933046 0 0 0 -0.946252261065859 0 0 0 0 0 0 0 0 0 0 0 0 0 0 0 0 0 0 0 0 0 0 0 0 0
0.0139731222058657 1.2962581153422 0 0 0 0 0 0 -1.74627829675774 0 0 -0.663674966052821 0 0 0 0 0 0 0 0 0 0 0 0 -0.964623890509148 0 0 0 0 0 0 0 0 -1.15389162144732 0 0 0 0 0 0 0 0 0 0 0 0 0 0 0 0
0 0 0 0 0 0 0 0 -0.925900983195722 0 0 -1.9790223037055 0 0 0 0 0 0 0 0 -1.53995453805977 0 0 0 -6.64410748180488 0 0 0 0 0 0 0 0 -0.129269105106018 0 0 0 0 0 0 0 0 0 0 0 0 0 0 0 0
0 0 0 0 0 0 0 0 -1.34842778924351 0 0 -2.85819581955324 0 0 0 0 0 0 0 0 -1.04532885133588 0 0 0 -0.281275591376051 0 0 0 0 0 0 0 0 -0.640656515882647 0 0 0 0 0 0 0 0 0 0 0 0 0 0 0 0
0 0 0 0 0 0 0 -0.857438486385651 0 0 0 -3.21814056875402 0 0 0 0 0 0 0 0 0 0 0 0 0 0 0 0 0 0 0 0 0 -7.61201076756335 0 0 -8.32987880399348 0 -1.90908377061589 0 0 0 0 0 -1.7384323219884 0 0 0 0 0
0 0 0 0 0 0 0 0 0 0 0 -0.730024803850243 0 0 0 0 0 0 0 0 0 0 0 0 0 0 0 0 0 0 0 0 0 -1.32902394096378 0 0 0 0 -0.263739293763792 0 0 0 0 0 -1.07927204405356 0 0 0 0 0
0 0 0 0 0 0.177342930811052 0 0 0.480047959118587 0 0 -0.859347787806904 0 0 0 0 0 0 0 0 0 0 0 0 0 0 0 0 0 0 0 0 0 -0.214881790331129 0 0 -6.7059621946816 0 -0.746371064764767 0 0 0 0 0 0 0 0 0 0 0
0 0 0.341709350498201 0.181963684305361 0.260141129922831 0 0 -2.58497431801621 0 0 0 0 0 0 0 0 0 0 0 0 0 0 0 0 0 0 0 0 0 0 0 0 0 -0.999838419983485 0 0 -0.757353766084313 0 -1.78007877417539 0 0 0 0 0 0 0 0 0 0 0
0 0 0 0 0 0 0 0 0 0 0 0 0 0 0 0 0 0 0 0 0 0 0 0 0 0 0 0 0 0 0 0 0 -2.0652845039106 0 0 -0.335674177957978 0 0 0 0 0 0 0 0 0 0 -2.68184004678364 0 0
0 0 0 0 0 0 0 0 0 0 0 0 0 0 0 0 0 0 0 0 0 0 0 0 0 0 0 0 0 0 0 0 0 -1.36429804679744 0 0 0 0 -5.30142119766237 0 0 0 0 0 -0.979903575781089 0 0 -1.4350358539304 0 0
0 0 0.123806882109891 0.403688882951305 0.578338554421712 0.647112121079368 0.146761760123662 0.164578863466155 0 0 0 0 0 0 0 0 0 0 0 0 0 0 0 0 0 0 0 0 0 0 0 0 0 -1.62924383966892 0 0 0 0 -0.818310931264697 0 0 0 0 0 0 0 0 0 0 0
0 0 0 0 0 0 0 0 0 0 0 0 0 0 0 0 0 0 0 0 0 0 0 0 0 0 0 -1.45242866982559 0 0 0 0 0 0 0 0 0 0 0 0 0 0 -1.09327921151562 0 0 0 0 0 0 0
0 0 0 0 0 0 0 0 0 0 0 0 0 0 0 0 0 0 0 0 0 0 0 0 0 0 -0.573929684126278 -0.296738981722226 0 0 0 0 0 0 0 0 0 0 0 0 0 0 -7.78707595682715 0 0 0 0 -1.14488533298338 0 0
0 0 0 0 0 0 0 0 0 0 0 0 0 0 0 0 0 0 0 0 0 0 0 0 0 0 -0.95465670312577 -4.65387957891443 0 0 0 0 0 0 0 0 0 0 0 0 0 0 0 0 0 0 0 -2.92121302448122 0 0
0 0 0 0 0 0 0 0 0 0 0 0 0 0 0 0 0 0 0 -3.4054460355516 0 -3.26330587748376 0 0 0 0 0 0 0 0 0 0 0 0 0 0 0 0 0 0 0 0 -0.912852773737467 0 0 0 -1.78648004364062 0 -0.302922105053005 0
0 0 0 0 0 0 0 0 0 0 0 0 0 0 0 0 0 -1.22630689985529 0 0 0 -2.38405843205282 0 0 0 0 0 -1.96599415937702 0 0 0 0 0 0 0 0 0 0 0 0 0 0 -3.01147159576588 0 0 0 -0.271397147885809 0 0 0
0 0 0 0 0 0 0 0 0 0 0 0 0 0 0 0 0.223636888560972 0 0 -0.3391834877137 0 0 0 0 0 0 0 0 0 0 0 0 0 0 0 0 0 0 0 0 0 0 -0.279159557732947 0 0 0 -4.26479203171924 0 0 0
0 0 0 0 0 0 0 0 0 0 0 0 0 0 0 0 0 0 0 -0.352721634469014 0 0 -1.5581652816087 -0.0886529209880864 0 0 0 0 0 0 -7.40770749256555 0 0 0 0 0 0 0 0 0 0 -1.14224866934743 -0.652305387567167 0 0 0 -0.32984614482178 0 0 0
0 0 0 0 0 0 0 0 0 0 0 0 0 0 0 0.624612331424392 0 0.0620551970731375 0.0642081512235965 0 0 0 -0.485091827442482 -2.48863603931515 0 0 0 0 -4.04214884849719 0 -0.184956120346034 0 0 0 0 0 0 0 0 0 0 -3.6426304888518 0 0 0 0 -0.721902206788152 0 0 0
0 0.0694191388444075 0 0.3218533280459 0.214996338019359 0 0 0 0 0 0 0 0 0 0 0 0 0 0 0 0 0 0 -6.09990472808588 0 -0.460148800168727 0 0 -2.08507349505161 0 0 -0.369869054971023 0 0 0 -1.27144164287562 0 0 0 0 0 0 -4.48131652126004 0 0 0 -0.386297778594761 0 0 0
0 0 0 0 0 0 0 0 0 0 0 0 0 0 0 0.626607613311253 0.464138196685083 0 0 0 0 0 -2.84820980757546 0 0 -1.11486192980878 0 0 -2.08152617522072 0 0 -2.57767283951106 0 0 0 -1.05958908667295 0 0 0 0 0 0 -2.39357217303676 0 0 0 -1.68558369000737 0 0 0
0 0 0 0 0 0 0 0 0 0 0 0 0 0 0 0 0 0 0.319964683079313 0.102577426285491 0 0.559129248343393 0 -1.44368534781789 0 0 0 0 0 0 0 -0.567769021726136 0 0 0 -0.220480952941715 0 0 0 0 0 0 -0.171544534989883 0 0 0 -0.296812855508918 0 0 0
0 0 0 0 0 0 0 0 0 0 0 0 0 0 0 0 0 0 0.0176769167265206 0.465482774327034 1.29305595402269 0 0.275075165420501 0 0 0 0.366104553400696 0.0362406869592514 0.102005238279735 0 0 -0.605442795353202 0 0 0 0 0 0 0 0 0 0 -0.100887147607048 0 0 0 0 0 0 0
0 0.198395335608808 0.170823388081593 1.3522383377607 0.0600791290441921 0 0 0 0 0 0 0 0 0 0 0 0 0 0 0 0 0 0 0 0 0 0 0 0 0 0 -1.01258824726933 0 0 0 0 0 0 0 0 0 0 -0.469753511474539 0 0 0 0 0 0 0
0 0 0 0 0 0 0 0 0 0 0 0 0 0 0 0 0 0 0 0 0.0936892268512059 0.20863143022355 0 0 0 0 0 0 0 0 0 -0.898644916080642 0 0 0 0 0 0 0 0 -0.661138180277313 0 -0.39280874411256 0 0 0 0 0 0 0
0 0 0 0 0 0 0 0 0 0 0 0 0 0.110652767320754 0.187467671741542 0 0 0 0 0 0 0 0 -1.94214862034423 0 0 0 0 0 -0.282473891620169 0 -4.91656754442886 0 0 0 0 0 0 0 0 -9.04191935044837 0 0 0 0 0 0 0 0 0
0 0 0 0 0 0 0 0 0 0 0 0 0.318589716804919 0.0673739738054734 0.9065193367348 0 0.408634222719446 0 0 0 0 0 0 -0.178110767329528 0 0 0 0 0 -1.88163954249171 0 0 0 0 0 0 0 0 0 0 -2.54381701328833 0 0 0 0 0 0 0 0 0
0 0 0 0 0 0 0 0 0 0 0 0 0 0 0 0 0 0 0 0.851219223675395 0.386347042249601 0.452444262666853 0 -0.515108959589362 0 0 0 0 0 -3.92558243094229 0 0 0 0 0 0 0 0 0 0 -1.55633154992124 0 0 0 0 0 0 0 0 0
0 0 0 0 0 0 0 0 0 0 0 0 0 0 0 0 0 0 0 0 0 0 0 0 0 0 0.0575016579741812 0.365104797538887 0.796560863282822 0 0.0242888814403146 0.633134786452152 0 0 -0.188996633974576 0 0 0 0 0 -0.573160999150202 0 0 0 0 0 0 0 0 0
0 0 0 0 0 0 0 0 0 0 0 0 0 0 0 0 0 0 1.51246329432285 0.036668914614576 0 0 0 0 0 0 0 0 0 -0.125884528494915 0 0 0 0 0 0 0 0 0 0 0 0 0 0 0 0 0 0 0 0
0 0 0 0 0 0 0 0 0 0 0 0 0 0 0 0 0 0 0 0 0.0699814876557967 0.507829825266136 0.121467504965035 0.130670663434107 0.198428215229976 0.176585414722431 0.886002962940878 0 0 -3.19526362847666 0 0 0 0 0 0 0 0 0 0 -0.519397953107938 0 0 0 0 0 0 0 0 0
0 0 0 0 0 0 0 0 0 0 0 0 0 0 0 0 0 0 0 0 0 0 0 0 0 0 0 0 0 0 0 0 0 0 0 0 0 0 0 0 -4.24280616696672 0 0 0 0 0 0 0 0 0
0 0 0.254191575644554 0.0246996037327676 0.142495062000876 1.52163265620655 0.257011158220625 0.0407028857652013 0.202883215880634 0.421044736960393 0.287015847618211 0.354263463355118 0 0 0 0 0 0 0 0 0 0 0 0 0 0 0 0 0 0 0 0 0 0 0 0 0 0 0 0 -3.18218528548865 0 0 0 0 0 0 0 0 0
0 0 0 0 0 0 0 0 0 0 0 0 0 0 0 0 0 0 0 0 0 0 0 0 0 0 0 0 0 0.0356494917299315 0 0 0 0 0 0 0 0 0 0 -1.04034628291592 0 0 0 0 0 0 0 0 0
0 0 0 0 0 0 0 0 0 0 0 0 0 0 0 0 0 0 0 0 0.250248560753942 0.19878852677076 0.03943429351966 0 0 0 0 0 0 0 0 0 0 0 0 0 0 0 0 0 -1.46530563086332 0 0 0 0 0 0 0 0 0
0 0 0 0 0 1.66773049028349 0 1.3831202530734 0.162608466433944 0.0674992826147885 0 0 0 0 0 0 0 0 0 0 0 0 0 0 0 0 0 0 0 0 0 0 0 0 0 0 0 0 0 0 -0.512588709123624 0 0 0 0 0 0 0 0 0
0 0 0 0 0 0 0 0 0 0 0 0 0 0 0 0 0 0 0 0 0 0 0 0 0 0 0 0 0 0 0 0 0 0 0 0 0 0 0 -1.05049240944342 -0.942960345067736 0 0 0 0 0 0 0 0 0
0 0 0 0 0 0.372011143667133 0.050996941743214 0.151609340867564 0.361049540123143 0 1.08310382049579 0.162985606218518 0 0 0 0 0 0 0 0 0 0 0 0 0 0 0 0 0 0 0 0 0 0 0 0 0 0 0 -0.135638742888209 -0.173182018924891 0 0 0 0 0 0 0 0 0
0 0 0 0 0 0 0 0 0 0 0 0 0 0 0 0 0 0 0 0 0 0 0 0 0 0 0 0 0 0 0 0 0 0 0 0 0 0.211111455613023 0.0270114143137044 0 0 0 0 0 0 0 0 0 0 0
0 0 0 0 0 0 0 0 0 0 0 0 0 0 0 0 0 0 0 0 0 0 0 0 0 0.122938231216882 1.80422039647145 0.489230219200819 0.301286524932958 0.117177975828642 0 0.106838563999678 0.884735052123819 0.646114941613648 0.207037220364536 0.302977381039981 0.108978542904344 0.17327518852906 0.0338119352555558 0 0 0 0 0 0 0 0 0 0 -0.313930434364274
0 0 0 0 0 0 0 0 0 0 0 0 0 0 0 0 0 0 0.221941095902239 0.750857230596861 0 0 0 0 0 0 0 0 0 0 0 0 0 0 0 0 0 0 0 0 0 0 0 0 0 0 0 0 0 0
0 0 0 0 0 0 0 0 0 0 0 0 0.222060717136404 1.42070534921966 0 0.161267722726022 0.611415446796545 0.0585583673937577 0.123746845637321 0 0.85853235374834 0.498030026282941 0.0333263990265724 0.0198571490437448 0.0853047722004324 0.0818841374322356 0 0 0 0 0 0 0 0 0 0 0 0 0 0 0 0 0 0 0 -1.25351254064962 0 0 0 0
0 0 0 0 0 0 0 0 0 0 0 0 0 0 0 0 0 0 0 0 0 0 0 0 0 0 0 0 0 0 0 0 0 0 0 0 0 0 0 0 0 0 0 0 0 -1.81383383311318 0 0 0 0
0 0 0 0 0 0.340510082599733 0.233658468968563 0 0 0 0.197765624681427 0 0 0 0 0 0 0 0 0 0 0 0 0 0 0 0 0 0 0 0 0 0 0 0 0 0 0 0 0 0 0 0 0 0 -0.651223437479348 0 0 0 0
0 0 0 0 0 0 0 0 0 0 0 0 0 0 0 0 0 0 0 0 0 0 0 0 0 0 0 0 0 0 0 0 0 0 0 0 0 0 0 0 0 0 0.251537188010772 0.332990372500288 0.127037042136882 0 0.494054789935137 0.225183928052549 0.0775873373184868 0
0 0 0 0 0 0 0 0 0 0 0 0 0 0 0 0.346138331500794 0.0497267353713213 0.796538058730311 0.0679191326284264 0.137099309433805 0.0727498216968667 0.35925213023014 0.0603935423654283 0 0 0 0 0 0 0 0 0 0 0 0 0 0 0 0 0 0 0 0 0 0 -2.33855727366972 0 0 0 0
0 0 0 0 0 0 0 0 0 0.521172061847657 0.263909527134383 0 0 0.213899035701282 0.606767989513015 0 0 0 0 0 0 0 0 0 0 0 0 0 0 0 0 0 0 0 0 0 0 0 0 0 0 0 0 0 0 -1.18747145990107 0 0 0 0
0 0 0 0 0 0 0 0 0 0 0 0 0 0 0 0.0657639078096635 0 0 0 0 0 0 0 0 0 0 0 0 0 0 0 0 0 0 0 0 0 0 0 0 0 0 0 0 0 -0.388710169961098 0 0 0 0
0 0 0 0 0 0 0 0 0 0 0 0 0 0 0 0 0 0 0 0 0 0 0 0 0 0 0 0 0 0 0 0 0 0 0 0 0 0 0 0 0.062030487994341 0 0 0 0 0 0 0 0 0
