1.59054608323188
0.280489257394522
1.07744306026011
0.0502976247356648
1.8277839225644
0.920945932122721
0.994925840391835
0.658221167325567
0.307831701134477
0.964534087256335
0.305347725129237
1.84566713395774
1.62879818332379
2.26669582009211
0.410690657620892
0.921959013336622
0.312222888359524
0.790924849293363
1.48702131093491
0.670455698038764
1.75897750297387
2.84273548029128
0.31199723758935
0.570623068396026
2.52510891126201
0.241486437554998
0.535332570211323
1.62957520314995
0.471246494105701
2.49377710992366
0.978510704618049
0.484522386079826
1.5782383530955
0.15848614501367
0.512776114400059
1.74786531844271
1.22580502512557
0.421396937711445
1.16133991517922
1.30349069265377
0.697370598834535
0.847351853017681
0.481504025718766
0.837260268713495
1.13985331202082
0.775913886711636
2.38836432557333
1.05049147456913
0.468910920210093
1.4381836127203
