0 0 0 0 0 0 0 0 0 0 0 0 0 -0.555841413278369 0 0 0 0 0 0 0 0 0 0 0 0 0 0 0 0 0 0 0 0 0 0 0 0 0 0 0 0 0 0 0 0 0 0 0 0
0 0 0 0 0 0 0 0 0 0 0 0 0 -0.853678663774899 0 0 0 0 0 0 0 0 0 0 0 0 0 0 0 0 0 0 0 0 0 0 0 0 0 0 0 0 0 0 0 0 0 0 0 0
0 0 0 0 0 0 0 0 0 0 0 0 0 0 0 0 0 0 0 0 0 0 0 0 0 0 0 0 0 0 0 0 0 0 0 -3.70870731340385 0 0 0 0 0 0 0 0 0 0 0 0 0 0
0 0 0 0 0 0 0 0 0 -0.934388543551601 0 0 0 -2.10170016287862 0 0 -6.67570776172682 0 0 0 0 0 0 0 0 0 0 0 0 0 0 0 0 0 0 -1.05949892747407 0 0 0 0 0 0 0 0 0 0 0 0 0 0
0 0 0 0 0 0 0 -7.0608286639631 0 -0.927292235509666 -7.77653579980038 -2.48607423630088 0 0 0 0 -0.312669659722226 0 0 0 0 -0.238952304942036 0 0 0 0 0 0 0 0 0 0 0 0 0 -1.76270939529515 0 0 0 0 0 0 0 0 0 0 0 0 0 0
0 0 0 0 0 0 0 0 0 -0.360845837324935 -1.18590708426786 0 0 0 0 0 -1.74862842759184 0 0 0 0 -0.410577718007249 0 0 0 0 0 0 0 0 0 0 0 0 0 -0.374555394190724 0 0 0 0 0 0 0 -2.02940743502044 0 0 0 0 0 0
0 0 0 0 0 0 0 -0.258396109142543 0 0 0 0 0 0 0 0 -1.15171833485573 0 0 0 0 0 0 0 0 0 0 0 0 0 0 0 0 0 0 -3.29629683247224 0 0 0 0 0 0 0 -3.34804808172029 0 0 0 0 0 0
0 0 0 0 1.50294108498112 0 0.053009474984462 0 0 -2.10677681850627 0 0 0 0 0 0 -3.56287673881266 0 0 0 0 0 0 0 0 0 0 0 0 0 0 0 0 0 0 -0.712711374786588 0 0 0 0 0 0 0 0 0 0 0 0 0 0
0 0 0 0 0 0 0 0 0 0 0 -0.583674419330284 0 0 0 0 0 0 0 0 0 0 0 0 0 0 0 0 0 0 0 0 0 0 0 0 0 0 0 0 0 0 0 -0.47437955069276 0 0 0 0 0 0
0 0 0 0.178640386149847 0.204732691562042 0.0656465070469389 0 0.405120499534846 0 0 0 0 0 0 0 0 0 0 0 0 -0.730897008862124 0 0 0 0 0 0 0 -2.0699856996757 0 0 0 0 0 0 0 0 0 0 0 0 0 0 -1.60137059921369 0 0 0 0 0 0
0 0 0 0 1.49554143938229 0.214684635548814 0 0 0 0 0 0 0 0 0 0 0 0 0 0 -4.60644336520635 0 0 0 0 0 0 0 -0.550793773803999 0 0 0 0 0 0 0 0 0 0 0 0 -0.921676495880987 0 -0.945610531078668 0 -1.15579859745933 0 0 0 0
0 0 0 0 0.464254722754518 0 0 0 0.116291258287024 0 0 0 0 0 0 0 0 0 0 0 -0.225957215176038 0 0 0 0 0 0 0 0 0 0 0 0 0 0 0 0 0 0 0 0 -1.21883214447961 0 -0.211620121128783 0 0 0 0 0 0
0 0 0 0 0 0 0 0 0 0 0 0 0 0 0 0 0 0 0 0 0 0 0 0 0 0 0 0 -4.20303139905831 0 0 0 0 0 0 0 0 0 0 0 0 -2.84949230161571 0 -1.54666580904345 0 0 0 0 0 0
0.114136213712171 0.176773775003391 0 0.421614050005617 0 0 0 0 0 0 0 0 0 0 0 0 0 0 -0.656764552264751 0 0 0 0 -5.89173717748958 0 0 0 0 0 0 0 0 0 0 0 0 0 -0.843284926979796 0 0 0 0 0 0 0 0 0 0 0 0
0 0 0 0 0 0 0 0 0 0 0 0 0 0 0 0 0 0 0 0 0 0 0 0 0 0 0 -2.49222624011869 -1.00653205535695 0 0 0 0 0 0 0 0 0 0 0 0 0 0 0 0 0 0 0 0 0
0 0 0 0 0 0 0 0 0 0 0 0 0 0 0 0 0 0 0 0 0 0 0 0 -2.09477502604146 -2.41567508643745 0 0 -6.603350136971 0 0 0 0 -0.691075306418127 0 0 0 -8.53697062858337 0 0 0 0 0 0 -5.09527225400523 0 0 0 0 0
0 0 0 1.23203899768846 0.0594164775074047 0.378918064884508 0.228640980931401 0.692015359069465 0 0 0 0 0 0 0 0 0 0 0 0 0 0 0 0 -4.87398302538717 -3.52572717314288 0 -0.400193584657041 -0.661524076000461 0 0 0 0 -0.302125801770399 0 0 0 -1.29889305565351 0 0 0 0 0 0 -1.54270310912284 0 0 0 0 0
0 0 0 0 0 0 0 0 0 0 0 0 0 0 0 0 0 0 0 0 0 0 0 0 -1.16987201729357 -0.871189227730441 0 -0.420375380974338 -7.19002644028131 0 0 0 0 -0.506435162132022 0 0 0 -1.03771466523197 0 0 0 0 0 0 -2.99891300430309 0 0 0 0 0
0 0 0 0 0 0 0 0 0 0 0 0 0 0.132657681763507 0 0 0 0 0 0 0 0 0 0 0 -0.286563943145004 0 0 0 0 0 0 0 -0.778647359708712 0 0 0 -1.80481582284037 0 0 0 0 0 0 -0.505353754951192 0 0 0 0 0
0 0 0 0 0 0 0 0 0 0 0 0 0 0 0 0 0 0 0 0 0 0 0 0 -4.08434077081824 -0.971883166488724 0 -12.4091592823405 0 -0.668041295404615 0 0 -0.534637475338486 -4.41576477702071 0 0 0 0 0 0 0 0 0 0 0 0 0 0 0 0
0 0 0 0 0 0 0 0 0 0.138432478987495 0.917127417482628 0.0420028510848182 0 0 0 0 0 0 0 0 0 0 0 0 -2.7788525664089 -0.374455216297299 0 0 0 0 0 0 -0.260651350017797 -2.91593184601408 0 0 0 0 0 0 0 0 0 0 -1.74106043108094 0 0 0 0 0
0 0 0 0 0.0489576756850329 0.079898854001762 0 0 0 0 0 0 0 0 0 0 0 0 0 0 0 0 0 0 0 0 0 0 0 0 0 0 0 0 0 0 0 0 0 0 0 0 0 0 -1.09002666490333 0 0 0 0 0
0 0 0 0 0 0 0 0 0 0 0 0 0 0 0 0 0 0 0 0 0 0 0 0 -0.980122683595193 0 0 0 0 0 0 0 0 0 0 0 -1.0674000088445 0 0 0 0 0 -1.50088345235525 0 0 0 0 0 0 0
0 0 0 0 0 0 0 0 0 0 0 0 0 1.22672340769033 0 0 0 0 0 0 0 0 0 0 0 0 0 0 0 0 0 0 0 0 0 0 0 0 0 0 0 0 -0.829814547579401 0 -0.228681653625731 0 0 -1.20299766094117 0 -0.621082133753114
0 0 0 0 0 0 0 0 0 0 0 0 0 0 0 0.405697104040881 0.937864346921011 0.244840910157258 0 0.862358404822291 0.566564255446772 0 0.197553020672687 0 0 0 0 0 0 0 0 0 0 -1.35949052561161 0 0 0 0 0 0 0 0 -1.43135434324469 0 -0.744641728860156 0 0 0 0 -0.850758402306448
0 0 0 0 0 0 0 0 0 0 0 0 0 0 0 0.523980200778598 0.730464713426208 0.172573771672724 0.0569820718531923 0.174940019083405 0.0696443438276731 0 0 0 0 0 0 0 0 0 0 0 0 -0.790742766473653 0 0 -3.38889372069425 0 0 0 0 0 -1.47099121045023 0 0 0 0 -0.409340038675899 0 -1.39955679648437
0 0 0 0 0 0 0 0 0 0 0 0 0 0 0 0 0 0 0 0 0 0 0 0 0 0 0 0 0 0 0 0 0 0 0 0 -0.562030478451375 0 0 0 0 0 -0.750908361935556 0 0 0 0 -0.515920459096255 0 -1.2839439399962
0 0 0 0 0 0 0 0 0 0 0 0 0 0 0.48443157207058 0 0.0793989098928004 0.0909598492995705 0 2.53059891044004 0 0 0 0 0 0 0 0 0 0 0 -0.235111370363772 0 0 0 0 0 0 0 0 0 0 -3.02185940235903 0 -0.332193603044461 0 0 0 0 -1.46649006555038
0 0 0 0 0 0 0 0 0 0.438524689658288 0.107637212839199 0 0.868677050707693 0 0.208511298145134 1.353628760703 0.134102541588769 1.4112664531131 0 0 0 0 0 0 0 0 0 0 0 0 0 -2.4762927632953 0 0 0 0 -2.01922196797191 0 0 0 0 0 0 0 0 0 0 -1.5556118882909 0 0
0 0 0 0 0 0 0 0 0 0 0 0 0 0 0 0 0 0 0 0.132991052058428 0 0 0 0 0 0 0 0 0 0 0 0 0 0 0 0 -4.77433194071004 0 0 0 0 0 0 0 0 0 0 0 0 -0.435286119726051
0 0 0 0 0 0 0 0 0 0 0 0 0 0 0 0 0 0 0 0 0 0 0 0 0 0 0 0 0 0 0 0 0 0 0 0 -0.777822461023059 0 0 0 0 0 0 0 0 0 0 0 0 -0.615458652789054
0 0 0 0 0 0 0 0 0 0 0 0 0 0 0 0 0 0 0 0 0 0 0 0 0 0 0 0.0449366150571312 0.489192182721954 0 0 0 0 0 0 0 -3.16163289114185 0 0 0 0 0 0 0 0 0 0 0 0 0
0 0 0 0 0 0 0 0 0 0 0 0 0 0 0 0 0 0 0 0.106307908798798 0.0560272747174836 0 0 0 0 0 0 0 0 0 0 0 0 0 0 0 0 0 0 0 0 0 0 0 0 0 0 0 -3.01589189125178 0
0 0 0 0 0 0 0 0 0 0 0 0 0 0 0 0.147776636113605 0.0595544644698495 0.105282834389075 0.162593165181302 0.88530190414318 0.615403865362276 0 0 0 0.266557506991224 0.16140451502345 0 0 0 0 0 0 0 0 0 0 0 0 0 0 0 0 0 0 0 0 0 0 -6.97856286192565 0
0 0 0 0 0 0 0 0 0 0 0 0 0 0 0 0 0 0 0 0 0 0 0 0 0 0 0 0 0 0 0 0 0 0 0 0 0 0 0 0 0 0 0 0 0 0 0 0 -1.75646258067041 0
0 0 0.732845783492395 0.214085404781784 0.313909014867052 0.0742372346029249 0.633743612260646 0.135712991300507 0 0 0 0 0 0 0 0 0 0 0 0 0 0 0 0 0 0 0 0 0 0 0 0 0 0 0 0 0 0 0 0 0 0 0 0 0 0 0 0 0 0
0 0 0 0 0 0 0 0 0 0 0 0 0 0 0 0 0 0 0 0 0 0 0.237917039108561 0 0 0.662747036706621 0.115219194159749 0 0.404801488326251 0.939730053782124 0.155639775877381 0.615168907490684 0 0 0 0 0 0 0 0 0 0 0 0 0 0 0 0 0 0
0 0 0 0 0 0 0 0 0 0 0 0 0 0.161713265706197 0 1.67227885752048 0.257826013415105 0.224027513088403 0.355026164828942 0 0 0 0 0 0 0 0 0 0 0 0 0 0 0 0 0 0 0 0 0 0 0 0 0 0 0 0 0 -0.07769778026684 0
0 0 0 0 0 0 0 0 0 0 0 0 0 0 0 0 0 0 0 0 0 0 0 0 0 0 0 0 0 0 0 0 0 0 0 0 0 0 0 0 0 0 0 0 0 0 0 0 -0.849249346840853 0
0 0 0 0 0 0 0 0 0 0 0 0 0 0 0 0 0 0 0 0 0 0 0 0 0 0 0 0 0 0 0 0 0 0 0 0 0 0 0 0 0 0 0 0 0 0 -0.742189270834945 0 -1.7761800358229 0
0 0 0 0 0 0 0 0 0 0 0 0 0 0 0 0 0 0 0 0 0 0 0 0 0 0 0 0 0 0 0 0 0 0 0 0 0 0 0 0 0 0 0 0 0 0 0 0 -0.294746949007915 0
0 0 0 0 0 0 0 0 0 0 0.169404205801504 0.237478733638921 0.57205942487346 0 0 0 0 0 0 0 0 0 0 0 0 0 0 0 0 0 0 0 0 0 0 0 0 0 0 0 0 0 0 0 0 0 0 0 0 0
0 0 0 0 0 0 0 0 0 0 0 0 0 0 0 0 0 0 0 0 0 0 0.302102160070659 0.157937714590045 0.26848569114143 0.279213487082397 0.147101478755265 0.614578931122496 0 0 0 0 0 0 0 0 0 0 0 0 0 0 0 0 0 0 0 0 -0.925951741324285 0
0 0 0 0 0 0.382223710176111 0.658661821644574 0 0.0927668361079979 0.338466669707637 0.191897084887567 0.048422767444434 0.273242863899135 0 0 0 0 0 0 0 0 0 0 0 0 0 0 0 0 0 0 0 0 0 0 0 0 0 0 0 0 0 0 0 0 0 0 0 0 0
0 0 0 0 0 0 0 0 0 0 0 0 0 0 0 0.982300512080835 0.340610471623593 0.591949466038219 0.101961998817731 0 0.352641184635703 0.217786164685575 0 0.0444268794330044 0.148826980355607 0 0 0.0632500750763604 0 0 0 0 0 0 0 0 0 0 0 0 0 0 0 0 0 0 0 0 0 0
0 0 0 0 0 0 0 0 0 0 0.232192263860142 0 0 0 0 0 0 0 0 0 0 0 0 0 0 0 0 0 0 0 0 0 0 0 0 0 0 0 0 0 0 0 0 0 0 0 0 0 -1.25213693716996 0
0 0 0 0 0 0 0 0 0 0 0 0 0 0 0 0 0 0 0 0 0 0 0 0 0 0 0 0 0 0 0 0 0 0 0 0 0 0 0 0.159938544371048 0 0 0 0 0 0 0 0 -2.83187709550359 0
0 0 0 0 0 0 0 0 0 0 0 0 0 0 0 0 0 0 0 0 0 0 0 0.250457390917093 0 0.0905533473346252 0.109382810611909 0 0.294397739578124 0 0 0 0 0 0 0 0 0 0 0 0 0 0 0 0 0 0 0 -0.368708831807151 0
0 0 0 0 0 0 0 0 0 0 0 0 0 0 0 0 0 0 0 0 0 0 0 0 0 0 0 0 0 0 0 0 0.622389085745959 1.45019299572108 0.336469051848403 0 0 0.0155252461090994 0.182460421497778 0.355407684032444 0.050571958704721 0 0.184854629710084 0 0 0.247107009462551 0.58543563602141 0.0699032926597579 0 0
0 0 0 0 0 0 0 0 0 0 0 0 0 0 0 0 0 0 0 0 0 0 0 0.123048173591666 0.171171799261448 0.257171472069855 0.25407562588914 0.304069722766335 0 0.090917853166416 0.12526118787381 0 0 0 0 0 0 0 0 0 0 0 0 0 0 0 0 0 0 0
