1.37693708801351
0.0789999842357608
0.512346945360351
0.0407273719294656
1.51248479513096
0.477893674272699
0.619844236490801
0.222333217673899
0.0861512560814619
0.454895798413321
0.0585166280060798
1.73039285567168
1.49472719926558
2.25143916626342
0.35762653311506
0.51501488129636
0.215811233439328
0.468093605586516
1.41572236690334
0.405491628867711
1.57546607729931
2.67968533280551
0.171870823963366
0.327115994988975
2.01644284531906
0.184206848271407
0.524798484725479
1.08413714520845
0.278772111723928
2.24944547418363
0.807930871061917
0.282591454013414
1.34658051012533
0.0228011172941944
0.423196639678554
1.38233342669614
1.0565423575306
0.0908391719548874
0.935596907762491
1.00705739414101
0.558920343804639
0.289140001231137
0.357873580008846
0.748944818904247
0.701293455406888
0.51796143035962
2.20871221371355
0.642895636455385
0.0728179526798002
1.33777058614989
