0.696913935723695
0.221834050929809
0.256716885049281
0.682357059405711
1.81564814234925
1.31280835721879
1.68318367649523
0.224469589877739
0.339590682716083
3.10742287289054
0.13161265851228
0.215005203486163
0.632868637558002
2.31723876737681
0.0341397701087479
0.471651769033582
0.471894874352327
0.688296864991319
2.44934759842553
0.0881533774833453
1.04698156372538
0.86176947682517
3.47666566856681
0.455721958504839
0.22645146862213
0.0851275229234347
0.00721969289280452
0.449610902700154
0.174730308948128
1.29509881076251
1.27864075892278
1.04470496124704
0.421899183905642
0.496418014095305
1.29691242188275
0.382862469390108
1.4045515837248
0.197988272913575
1.03616719774833
1.01471807439761
0.105228073155235
0.210318527659537
0.123364552279693
0.0823924158739806
0.108508340935649
2.0894322732619
0.143536674259348
0.872486880287539
0.301375664951558
1.20711802298896
