2.17557820086784
1.09800144993055
1.93347643398032
0.214915669269755
0.124951858061924
0.208039978556274
1.00207211296555
0.121135424097807
2.75854417340857
1.69543901426302
0.944722151667767
0.100852002695638
2.67478405554984
3.17814409569726
0.0707288135328681
2.22652675821126
0.598551544681502
1.81450587885691
1.38981907507822
0.412026163228132
0.062495425810488
1.19755033859494
0.535047114060954
0.0423275829462022
1.15996250093884
0.42449295857061
0.56471802105849
0.183545838967506
0.432828153774065
0.265637743417219
0.220658901321497
1.58505663670281
0.190815349282861
0.586340197203388
0.0714341457034869
1.51292595119418
0.545246610258472
0.645491634909932
0.693607983765837
0.690629331884125
1.09837742339655
0.5496471678189
0.385879203245383
0.0893948184573572
0.470051707340654
3.76051385225099
0.240930204948495
0.88682250299216
0.207008599114655
0.363056694984677
