1.84816548074298
0.030561688807607
1.0023333986931
0.144911598951755
0.138130157460471
0.114273627222635
0.943985786921389
1.27795194211637
0.346673265492334
0.190995035001981
0.317885866360031
0.752286290597943
0.235675532870162
2.39083698953109
0.477479359821662
0.053846036849985
1.47220813834355
0.48082671483395
3.03533330793825
1.39113969336095
0.318345582590434
0.628287370439317
0.469029843774587
1.12526374426558
0.267718897406699
0.212924183788083
0.206464334718026
1.18481097785756
1.02871787811762
0.410644042036713
0.0312622467063405
1.00188741615518
2.89470650072114
0.26731680045131
1.09184396700485
0.35901083468382
1.10110393745701
0.442143129694824
3.01649401723577
0.073845503814775
0.249712699091191
0.863272622301255
0.119986008046908
0.263369527394345
0.425022877644444
0.86946267315215
2.59148309226475
0.457203196605201
0.803678104762657
0.712475402533579
