0 0 0 0 0 0 0 0 0 0 0 -1.40260711917622 0 0 0 0 0 0 0 0 0 0 0 0 0 0 0 0 0 0 -7.73166479955883 0 0 0 0 0 0 0 0 0 0 0 0 0 0 0 0 0 0 0
0 0 0 0 0 0 0 0 -0.554798933846197 0 0 -1.43593775220547 0 0 0 0 0 0 0 0 0 0 0 0 0 0 0 0 0 0 0 0 0 0 0 0 0 0 0 0 0 0 0 0 0 0 0 0 0 0
0 0 0 0 0 0 -0.829907064617297 0 -0.0744657243029053 0 0 0 0 0 0 0 0 0 0 0 0 0 0 0 0 0 0 0 0 0 0 0 0 -2.04440075882774 0 0 0 0 0 0 0 0 0 0 0 -0.677344267027675 0 0 0 0
0 0 0 0 0 0 0 0 0 0 0 0 -0.504972098710014 0 0 0 0 0 0 0 0 -0.177981485518318 0 0 0 0 0 0 -0.32461997696408 0 0 0 0 0 0 0 0 0 0 0 0 0 0 0 0 -1.41198895315673 0 0 0 0
0 0 0 0 0 0 0 0 0 -3.97223524875662 0 0 -1.6670789613056 0 0 0 0 0 0 0 0 -1.54875402655011 0 0 0 0 0 0 0 0 0 0 0 0 0 0 0 0 0 0 0 0 0 0 0 -0.218932235731381 0 0 0 0
0 0 0 0 0 0 0 0 0 0 0 0 -0.319621635520325 0 0 0 0 0 0 0 0 -3.50989926067188 0 0 0 0 0 0 0 -2.5577950234522 0 0 0 0 0 0 0 0 0 0 0 0 0 0 0 -1.11969090141721 0 0 0 0
0 0 0.166233417669402 0 0 0 0 0 0 -0.218833098829521 0 0 0 0 0 0 0 0 0 0 0 -0.738064221355659 0 0 0 0 0 0 -0.513163780052097 -2.42829600116911 0 0 0 0 0 0 0 0 0 0 0 0 0 0 0 -2.53028750724377 0 0 0 0
0 0 0 0 0 0 0 0 0 -0.334972920111776 0 0 0 0 0 0 0 0 0 0 0 -0.157327341046716 0 0 0 0 0 0 -0.363496348257717 -0.68208653466145 0 0 0 0 0 0 0 0 0 0 0 -1.33421362150455 0 0 0 -1.88255922550783 0 0 0 0
0 0.11643353933746 0.0150844459380371 0 0 0 0 0 0 -0.538330557175912 0 0 0 0 0 0 0 0 0 0 0 -0.720921769177819 0 0 0 0 0 0 0 -2.37748689554354 0 0 0 0 0 0 0 0 0 0 0 -8.62971585101939 0 0 0 -0.518665490378975 0 0 0 0
0 0 0 0 0.782593776262331 0 0.0401954863478925 0.0692778506312681 0.109338246714707 0 0 0 0 -1.59699096070774 0 0 0 0 0 -0.551557394414395 0 0 0 0 0 0 0 0 0 -0.888735563397912 0 0 0 0 0 0 0 0 0 0 0 0 0 0 0 0 0 0 0 0
0 0 0 0 0 0 0 0 0 0 0 0 0 -1.20337426536565 0 -0.40153241838303 0 0 0 -1.03326784712374 0 0 0 0 0 0 0 0 0 -0.767081657246606 0 0 0 0 0 0 0 0 0 0 0 0 0 0 0 -1.88876785774824 0 0 0 -0.644854983152644
0.27955094381438 0.292201113634342 0 0 0 0 0 0 0 0 0 0 0 0 0 -0.850163927413724 0 0 0 -8.5614905908612 0 0 0 0 0 0 0 0 0 -2.45979120673168 0 0 0 0 0 0 0 0 -0.852920109540143 0 0 0 0 0 0 -0.866257499067486 0 0 0 -1.03462795161348
0 0 0 0.0975721883265062 0.33330395960109 0.0691131835895991 0 0 0 0 0 0 0 0 0 -0.542091510858494 0 0 0 0 0 0 0 0 0 0 0 0 0 -1.18397743725993 0 0 0 0 0 0 0 0 0 0 0 0 0 0 0 -0.433869736222116 0 0 0 0
0 0 0 0 0 0 0 0 0 0.308322893195411 0.22957508502949 0 0 0 0 0 -0.335115485976301 0 0 0 0 0 0 0 0 0 0 0 0 0 0 0 0 0 0 0 0 0 0 0 0 0 0 0 0 0 0 0 0 0
0 0 0 0 0 0 0 0 0 0 0 0 0 0 0 0 0 0 -1.08541533192773 0 0 0 0 0 0 0 0 0 0 0 0 0 0 0 0 0 0 -0.970102475959471 0 0 0 0 0 0 0 0 0 0 0 0
0 0 0 0 0 0 0 0 0 0 0.0809124319303697 0.162878043840618 0.113048370211405 0 0 0 0 0 0 0 0 0 0 0 0 0 0 0 0 0 0 0 0 0 0 0 0 -1.42906578616299 -1.0824614352075 0 0 0 0 0 0 0 0 0 0 0
0 0 0 0 0 0 0 0 0 0 0 0 0 0.0675669566286244 0 0 0 0 -1.12330269347979 0 0 0 0 0 -2.00359246570674 0 -0.309732735928206 0 0 0 0 0 0 0 0 0 0 -0.887729613367048 0 0 0 0 0 0 0 0 0 0 0 0
0 0 0 0 0 0 0 0 0 0 0 0 0 0 0 0 0 0 0 0 0 0 0 0 0 0 -1.58267439322635 0 0 0 0 0 0 0 0 0 0 -1.44274408541985 0 -0.252111902605008 0 0 0 0 0 0 0 0 0 0
0 0 0 0 0 0 0 0 0 0 0 0 0 0 0.221549675350872 0 0.24286482313224 0 0 0 0 0 0 0 -3.2231866488168 0 -0.334697930085453 0 0 0 0 0 0 0 0 0 0 0 0 0 0 0 0 0 0 0 0 0 0 0
0 0 0 0 0 0 0 0 0 0.109711747492657 0.202720557162936 1.58845965647442 0 0 0 0 0 0 0 0 0 0 0 0 0 0 0 0 0 0 0 0 0 0 0 -0.334170696754716 0 -1.80685196739538 0 -1.40369139618456 0 0 0 0 0 0 0 0 -0.553462699091834 0
0 0 0 0 0 0 0 0 0 0 0 0 0 0 0 0 0 0 0 0 0 0 -0.880731219490415 0 0 0 0 0 0 0 0 0 0 0 0 0 0 0 0 -1.63460722706482 -0.992855498162002 0 0 0 0 0 0 -0.237848713023516 0 0
0 0 0 0.032477802169705 0.31925253492225 0.65744844293667 0.16230648144793 0.0320420421976578 0.146901523809828 0 0 0 0 0 0 0 0 0 0 0 0 0 -0.307685040015168 0 0 0 0 0 0 0 0 0 0 0 0 0 0 0 0 -1.11527097958239 0 0 0 0 0 0 0 0 0 0
0 0 0 0 0 0 0 0 0 0 0 0 0 0 0 0 0 0 0 0 0.174084083200892 0.0684085523979723 0 0 0 0 0 0 0 0 0 0 0 0 0 0 0 0 0 -1.89433656834713 -1.2450230498743 0 0 0 0 0 0 0 0 0
0 0 0 0 0 0 0 0 0 0 0 0 0 0 0 0 0 0 0 0 0 0 0 0 0 0 0 0 0 0 0 0 0 0 0 0 0 0 0 -0.37648042336594 -0.543765334163749 0 0 0 0 0 0 0 0 0
0 0 0 0 0 0 0 0 0 0 0 0 0 0 0 0 0.399089242453799 0 0.67996872500195 0 0 0 0 0 0 0 0 0 0 0 0 0 0 0 0 0 0 0 0 -0.706248065884563 -3.48431960924305 0 0 0 0 0 0 0 0 0
0 0 0 0 0 0 0 0 0 0 0 0 0 0 0 0 0 0 0 0 0 0 0 0 0 0 0 0 0 0 0 0 0 0 0 0 0 0 0 -1.35572459015736 -0.808039528620305 0 0 0 0 0 0 0 0 0
0 0 0 0 0 0 0 0 0 0 0 0 0 0 0 0 0.0575745037650229 0.320982828261365 0.0639632997793786 0 0 0 0 0 0 0 0 0 0 0 0 0 0 0 0 0 0 0 0 -1.76867013612259 0 0 0 -3.41263972353753 0 0 0 0 0 0
0 0 0 0 0 0 0 0 0 0 0 0 0 0 0 0 0 0 0 0 0 0 0 0 0 0 0 0 0 0 0 0 0 0 0 0 0 0 0 -1.78989426059791 -1.11972830351487 0 0 0 0 0 0 0 0 0
0 0 0 0.0608328350020312 0 0 0.0916042744392615 0.070501891458167 0 0 0 0 0 0 0 0 0 0 0 0 0 0 0 0 0 0 0 0 0 0 0 0 0 0 0 0 0 0 0 -2.13433093953443 0 0 0 -0.294359786719198 0 0 0 0 0 0
0 0 0 0 0 0.480738024801731 0.510133218264354 0.131654467167892 0.444667828533969 0.169470425019729 0.158391420189241 0.535922199292121 0.233932349191964 0 0 0 0 0 0 0 0 0 0 0 0 0 0 0 0 0 0 0 0 0 0 0 0 0 0 -1.6057194681175 0 0 0 0 0 0 0 0 0 0
1.58509576181337 0 0 0 0 0 0 0 0 0 0 0 0 0 0 0 0 0 0 0 0 0 0 0 0 0 0 0 0 0 0 0 0 0 0 0 0 0 0 -4.95475363980482 0 0 0 -0.770926942427991 0 0 0 0 0 0
0 0 0 0 0 0 0 0 0 0 0 0 0 0 0 0 0 0 0 0 0 0 0 0 0 0 0 0 0 0 0 0 0 0 0 0 0 0 0 -0.299331112613853 0 0 0 -0.249761625256124 0 0 0 0 0 0
0 0 0 0 0 0 0 0 0 0 0 0 0 0 0 0 0 0 0 0 0 0 0 0 0 0 0 0 0 0 0 0 0 0 0 0 0 0 0 0 0 0 0 -1.5149704327985 0 0 0 0 0 0
0 0 0.400068639485604 0 0 0 0 0 0 0 0 0 0 0 0 0 0 0 0 0 0 0 0 0 0 0 0 0 0 0 0 0 0 0 0 0 0 0 0 0 0 0 0 -1.77550101633032 0 0 0 0 0 0
0 0 0 0 0 0 0 0 0 0 0 0 0 0 0 0 0 0 0 0 0 0 0 0 0 0 0 0 0 0 0 0 0 0 0 0 0 0 0 0 0 0 0 -1.7325485518915 0 0 0 0 0 0
0 0 0 0 0 0 0 0 0 0 0 0 0 0 0 0 0 0 0 0.0627877857960018 0 0 0 0 0 0 0 0 0 0 0 0 0 0 0 0 0 0 0 0 0 0 0 0 0 0 0 0 0 0
0 0 0 0 0 0 0 0 0 0 0 0 0 0 0 0 0 0 0 0 0 0 0 0 0 0 0 0 0 0 0 0 0 0 0 0 0 0 0 0 0 0 0 0 -1.49457407547789 0 0 0 0 0
0 0 0 0 0 0 0 0 0 0 0 0 0 0 0.198662572417825 0.282499895381093 0.176814344825082 0.299025819956454 0 0.376814220916733 0 0 0 0 0 0 0 0 0 0 0 0 0 0 0 0 0 0 0 0 0 0 0 0 -0.704920810893704 0 0 0 0 0
0 0 0 0 0 0 0 0 0 0 0 0.170695399299033 0 0 0 0.213986742627959 0 0 0 0 0 0 0 0 0 0 0 0 0 0 0 0 0 0 0 0 0 0 0 0 0 0 0 0 -1.34916397767091 0 0 0 0 0
0 0 0 0 0 0 0 0 0 0 0 0 0 0 0 0 0 0.0540234761338846 0 0.269420240804175 0.325542102216848 0.209001444614226 0.392363370389351 0.0736321274597804 0.141259209845263 0.258652522214822 0.35520284554404 0.352202988497921 0.401568773483191 0.314731433490857 1.06450172129512 0.0649406980618222 0 0 0 0 0 0 0 0 0 0 -0.625254601738998 0 0 0 0 0 0 0
0 0 0 0 0 0 0 0 0 0 0 0 0 0 0 0 0 0 0 0 0.198786425850135 0 0.240221018190745 0.102601095385021 0.75438898798611 0.168675333288359 0 0.241615566576818 0 0 0 0 0 0 0 0 0 0 0 0 0 0 0 0 -0.551477298066335 0 -0.767595213314276 0 0 0
0 0 0 0 0 0 0 0.275743785476356 1.76976573216569 0 0 0 0 0 0 0 0 0 0 0 0 0 0 0 0 0 0 0 0 0 0 0 0 0 0 0 0 0 0 0 0 0 -0.254354308223372 0 0 0 -1.36794821494983 0 0 0
0 0 0 0 0 0 0 0 0 0 0 0 0 0 0 0 0 0 0 0 0 0 0 0 0 0 0 0 0 0 0 0 0 0 0 0 0 0 0 0.136320111044737 0 0.0502328855922599 0 0 0 0 -3.34525931701812 0 0 0
0 0 0 0 0 0 0 0 0 0 0 0 0 0 0 0 0 0 0 0 0 0 0 0 0 0 0.713968843806004 0 0.056210546261245 0 0.161932942079873 0.0527756303694787 0.319034163564571 0.344846570788167 0.352329385960231 0 0 0 0 0 0 0 0 0 0 0 -1.54955990000286 0 0 0
0 0 0 0 0 0 0 0 0 0 0 0 0 0 0 0 0 0 0 0 0 0 0 0 0 0 0 0 0 0 0 0 0 0 0 0 0.290950106301045 0.146653878027979 0.240912142067474 0 0.102419448588411 0 0 0 0 0 0 0 0 0
0 0 0.139412169278446 0.280339021639848 0.0460414401702587 0.229382033988251 0.496652733200733 0.374529889971825 0.104498602428589 0 0.376738840985169 0.167521074102836 0.0911712966134576 0 0 0 0 0 0 0 0 0 0 0 0 0 0 0 0 0 0 0 0 0 0 0 0 0 0 0 0 0 0 0 0 0 -2.08336281620964 0 0 0
0 0 0 0 0 0 0 0 0 0 0 0 0 0 0 0 0 0 0 0 0 0 0 0 0 0 0 0 0 0 0 0 0 0 0 0 0 0 0 0 0.153467426469433 0.263693711211851 0.677109277533987 0.315166484471796 0 0.412124941147255 0 0 0.252479438000117 0.169250384189905
0 0 0 0 0 0 0 0 0 0 0 0 0 0 0 0 0 0 0 0 0.0437652488302681 0 0 0 0 0 0 0 0 0 0 0 0 0 0 0 0 0 0 0 0 0 0 0 0 0 0 0 0 0
0 0 0 0 0 0 0 0 0 0 0 0 0 0 0 0 0 0 0 0.104352392365853 0 0 0 0 0 0 0 0 0 0 0 0 0 0 0 0 0 0 0 0 0 0 0 0 0 0 -1.25220294645539 0 0 0
0 0 0 0 0 0 0 0 0 0 0.134016585853671 0.218253989373995 0 0 0 0 0 0 0 0 0 0 0 0 0 0 0 0 0 0 0 0 0 0 0 0 0 0 0 0 0 0 0 0 0 0 -0.842842692833921 0 0 0
