webtype,model,var,sd,t.estimate,t.pval,sig
Empirical,Immigration,LogAbundance,0.0928848678946787,0.672674699457262,2.12367120849627e-08,TRUE
Empirical,Immigration,LogCloseness,0.240587496444043,-0.218680961672138,0.025972551228156,TRUE
Empirical,Immigration,LogDegree,0.339021852791762,0.782186451650794,0.000121852272952495,TRUE
Empirical,Immigration,LogEigenvector,0.0949510453907874,0.128735172450365,0.00359626872414343,TRUE
Empirical,Immigration,ResidualVar,0.088970015724539,-0.176270223598664,0.000344403752034062,TRUE
Empirical,Immigration,TrophicLevel,0.114302342118257,0.310194552637473,3.84848254382168e-05,TRUE
Empirical,NoImmigration,LogAbundance,0.130346722512572,0.852371601217323,4.74073072778197e-08,TRUE
Empirical,NoImmigration,LogCloseness,0.206268354023086,-0.202391062472027,0.0186066707042578,TRUE
Empirical,NoImmigration,LogDegree,0.290960949472512,0.671012676385354,0.000122217514262834,TRUE
Empirical,NoImmigration,LogEigenvector,0.0685965766844664,0.0800715910104362,0.00805723319830529,TRUE
Empirical,NoImmigration,ResidualVar,0.0902346850807378,-0.170654670354363,0.000468393947179004,TRUE
Empirical,NoImmigration,TrophicLevel,0.0574278994666267,0.245610596104759,1.28539282112681e-06,TRUE
Simulated,Immigration,LogAbundance,0.0172085531358524,0.805653661038088,4.99264845785293e-08,TRUE
Simulated,Immigration,LogCloseness,0.0288589847971881,-0.3103010627642,1.7750487833909e-05,TRUE
Simulated,Immigration,LogDegree,0.0659718838715183,0.644641073201989,2.59617802934933e-05,TRUE
Simulated,Immigration,LogEigenvector,0.024810334486247,0.0623774749627362,0.00492218014425305,TRUE
Simulated,Immigration,ResidualVar,0.0533928793437132,-0.0935284799318721,0.0172924318474738,TRUE
Simulated,Immigration,TrophicLevel,0.0984258686351487,0.438087872598517,0.000572433535310009,TRUE
Simulated,NoImmigration,LogAbundance,0.93479472926657,3.25190065503983,0.00147275500579798,TRUE
Simulated,NoImmigration,LogCloseness,0.0231395274802564,-0.174863250119773,7.19055678097343e-05,TRUE
Simulated,NoImmigration,LogDegree,0.105939035754368,0.533461915435366,0.000354424277365049,TRUE
Simulated,NoImmigration,LogEigenvector,0.0161277311713961,0.0437136900061319,0.00374159096183438,TRUE
Simulated,NoImmigration,ResidualVar,0.0272449643165744,-0.209832175088565,6.67064979955908e-05,TRUE
Simulated,NoImmigration,TrophicLevel,0.0646870272190535,0.283186181999605,0.000610331462846775,TRUE
