RemovedVar,ChiSq,p.value
var,76.8444094174483,1.84971096934656e-18
abund,11673.9720050498,0
deg,7332.75060370812,0
close,1530.53155492997,0
eig,236.387169713009,2.41261615301232e-53
tl,2326.76161511743,0
