3.15939740053692
1.1977526267078
0.711973591448571
2.55510145670639
0.230543664484418
5.15354221889004
1.53285227691119
0.538057923783002
0.286288347610461
5.18119659385592
2.34572799630829
0.995357611986583
0.767533881921763
4.2616117684175
2.03174944280652
5.98677466332331
2.615121726786
0.154857888804351
1.76027785125786
1.04006802930124
1.5911720173946
1.87930219748299
1.16151216360674
2.46352415342999
2.35204135681091
0.68132782431201
1.68403825468272
0.539558891974898
0.681639113361256
0.693320034470335
1.21046174482432
0.574058450393187
2.87657302444017
1.41563868840776
2.06422949944689
1.361860998008
1.71028845518357
0.746424633747028
0.910955179734746
4.31623537026705
2.84812606832019
0.529352939375485
0.741766040904367
0.956716190306761
1.06344774525656
0.472032567932012
6.57953432304459
0.547225429011891
0.721639363366629
1.04691954845893
3.41272427464169
10.1400512157529
2.66704350696987
0.59019772152929
2.04009384322402
0.21447195250862
0.217390532792667
0.595787972709452
0.192888989215399
0.741108467051094
0.230354114121321
2.36673366754127
0.30120659667162
1.54097495130457
3.57754833989192
1.73343807801455
0.835007659217452
0.928438907711761
8.28465203369274
1.49172871849611
0.726351416013805
0.743299982030311
0.18341202627511
1.54521653738177
4.53454288907586
1.15295491303123
2.73623481170478
1.14985059666122
1.49580272642221
4.06625640689344
5.99693252260952
0.836433628760971
1.21690487894548
7.35792543504048
1.35344092228487
1.01031488648271
5.09371879985094
1.97557186851764
5.63386726318636
1.33710699399559
0.51545984130892
0.947847511221894
0.805639247543922
0.998726412665662
1.63553249046165
1.99054265119785
4.32477191592431
0.559127688660242
2.54709531003053
0.838423018538281
1.56941609021091
0.217767509875283
0.445310530243555
0.0535975795487081
1.49946532123147
0.712494588514605
0.635258603078266
0.337681188560546
0.601009318863196
1.6898767745161
2.37949205405332
0.59955699497901
0.777839972338815
0.846795228689438
0.779855062615237
0.622422894140814
2.57418539942696
0.711150283833904
3.61854447021262
0.205042045523523
2.64544434919899
6.24094668077986
0.064229676281465
2.36682728282334
1.8091009257591
0.922547716857323
0.520232604593513
2.75094986463785
0.617756349565672
0.820343519196951
3.08778330315853
1.55927270049545
0.885025381880621
1.1515900213401
0.677212372642904
0.668008659895671
0.142182363160133
1.07923434610058
0.82935261803024
0.932990546466281
1.36379150118129
1.04137553298377
2.30984021200014
1.21709901748366
2.462118528345
0.384649300636427
2.42382721593287
0.805725206465627
0.168329242793794
4.79416141459019
0.362120393781331
1.70150070917918
1.07954018940695
1.33379364480357
0.497788640580622
1.30311159975188
1.10262834050269
0.608588086536911
0.811595649661156
0.0994029380701465
0.438698804074884
3.92517835214112
4.8921958485
1.15177951659216
1.68972259057718
0.78920988389943
0.18998886320318
0.218665482795113
0.323375116839586
6.12262169309272
0.286462306581134
3.5727853231607
1.1045264672441
0.772419072704668
1.07942862916619
0.787133007495239
0.976028616147461
0.618674657143569
4.05193546072209
0.673952313998011
