-0.365032211220792 0 0 0 0 -0.185486853255551 0 0 0 0 0 0 0 0 0 0 -4.08339482016405 -0.940490700940126 0 0 0 0 0 0 0 0 0 0 0 0 0 -0.514457266311431 -0.244175613048634 0 0 0 0 0 0 0 0 0 0 0 0 0 0 0 0 0
0 -0.365032211220792 -0.825213684891916 0 0 0 0 -0.244435149455805 0 0 0 0 0 0 0 0 0 0 0 0 0 0 -2.70449812969029 -4.21958670956962 0 0 0 0 0 0 0 0 0 0 0 0 0 0 0 0 0 0 0 0 0 0 0 0 -0.788173666196031 0
0 0.15827788355389 -0.365032211220792 0 0 0 0 0 0 0 0 0 0 0 0 0 -0.417494733178806 0 0 0 0 0 0 0 0 0 0 0 0 0 0 0 0 0 0 0 0 0 0 0 0 0 0 0 0 0 0 0 0 0
0 0 0 -0.365032211220792 0 0 -1.41079470414295 0 0 0 0 0 0 0 0 0 0 0 -0.600417462157559 0 0 0 0 0 0 0 0 0 0 0 0 0 0 0 0 -1.66400033740271 0 0 0 0 0 0 0 0 0 -0.564248969904589 0 0 0 0
0 0 0 0 -0.365032211220792 0 0 0 0 0 0 0 0 0 0 0 0 0 0 0 -3.14247844189297 0 0 -0.813449098208808 0 0 0 0 -8.4311030170194 0 0 0 0 -0.512671222550237 0 0 0 0 0 0 0 0 0 0 0 0 0 0 0 0
0.037636696649841 0 0 0 0 -0.365032211220792 0 0 0 0 0 0 0 0 0 0 0 0 -1.77903835481037 0 0 0 0 0 0 0 0 0 0 0 0 0 0 0 0 0 -0.586417498755524 0 0 0 0 0 0 0 0 0 0 0 0 0
0 0 0 0.273242846364042 0 0 -0.365032211220792 0 0 -1.80215371352034 0 0 0 0 0 0 0 0 -0.717473697359006 0 0 0 0 0 0 0 0 0 0 -1.43107954732557 0 0 0 0 0 0 0 -0.173398276281248 -2.26487432718726 0 0 0 0 0 0 0 -0.205506199226364 0 0 0
0 0.0504565802311442 0 0 0 0 0 -0.365032211220792 0 0 0 -0.0911096604002418 0 0 0 -0.839388737396777 0 0 0 0 0 0 0 0 0 0 -2.87674395894634 0 0 0 0 0 0 0 0 0 0 0 0 -6.36358234739071 0 0 0 0 0 0 0 0 0 0
0 0 0 0 0 0 0 0 -0.365032211220792 0 -1.20733972367008 0 0 0 0 0 0 0 0 -0.260412496771127 -0.621406293785669 0 0 0 0 0 0 0 0 0 0 0 0 0 0 0 0 0 0 0 0 0 0 0 -1.23858704493182 0 0 0 0 0
0 0 0 0 0 0 0.356977356979932 0 0 -0.365032211220792 -1.27614515719152 0 0 0 0 0 0 0 0 0 0 0 0 0 0 0 0 0 0 0 0 0 0 0 0 0 0 0 -0.209636788868021 -2.26647632330388 0 0 0 0 0 0 0 0 0 0
0 0 0 0 0 0 0 0 0.240845211456123 0.23923528258632 -0.365032211220792 0 0 0 0 0 0 0 0 0 0 0 0 0 0 0 0 -1.00706555438902 0 0 0 0 0 0 0 -4.28937509627486 0 0 0 0 0 0 0 0 0 0 0 -1.34992698169338 0 0
0 0 0 0 0 0 0 0.0178384493210548 0 0 0 -0.365032211220792 0 0 0 0 0 0 -0.654136567556271 0 0 0 0 -2.09926461911001 0 0 0 0 0 0 0 0 0 0 0 0 0 0 0 0 0 0 0 0 0 0 -0.322974367613773 0 0 0
0 0 0 0 0 0 0 0 0 0 0 0 -0.365032211220792 0 0 0 -1.22838355819642 0 -1.25744641730919 0 0 0 0 0 0 -1.45768530130035 0 0 0 0 0 0 0 0 0 0 0 0 0 0 0 -0.561681064085707 0 0 0 0 0 0 -0.875538759170827 0
0 0 0 0 0 0 0 0 0 0 0 0 0 -0.365032211220792 0 0 0 -1.51740774897311 0 0 -0.350148446588085 0 0 0 0 0 0 -0.100731848591083 0 0 -0.457014749646553 0 0 0 0 0 0 0 0 0 0 0 0 0 0 0 0 0 -4.52673703971369 0
0 0 0 0 0 0 0 0 0 0 0 0 0 0 -0.365032211220792 0 0 0 -2.1122244440397 0 0 -2.02680851448021 0 0 0 0 0 0 0 0 0 0 0 0 0 0 0 0 0 0 0 -0.636560384482546 0 0 -0.200906474498888 0 0 0 0 0
0 0 0 0 0 0 0 0.164122440442447 0 0 0 0 0 0 0 -0.365032211220792 -0.987740707811182 0 0 0 0 0 0 0 0 0 0 0 0 0 -0.446048379528319 -1.58950272359557 0 0 0 0 0 0 -0.418587178145343 0 0 -0.874382252169927 0 0 0 0 0 -0.396888685969331 0 0
0.828019325176925 0 0.0929951354824579 0 0 0 0 0 0 0 0 0 0.254514522114275 0 0 0.186792255449691 -0.365032211220792 -1.24614058334319 0 0 0 0 0 0 0 0 0 0 0 0 0 0 0 0 0 0 0 0 0 0 0 0 0 0 0 0 0 0 -2.32482324643998 0
0.181207224556032 0 0 0 0 0 0 0 0 0 0 0 0 0.295197130324439 0 0 0.256589295660854 -0.365032211220792 0 0 0 -1.08927724508559 0 0 0 0 -1.16576473964281 0 0 0 0 -0.988476597040261 0 -2.4853194454656 0 0 0 0 -5.72304145448899 0 0 0 0 0 0 0 0 0 0 0
0 0 0 0.113777921344692 0 0.352364780118801 0.141232369309209 0 0 0 0 0.127258460398212 0.239043249432676 0 0.4019724689134 0 0 0 -0.365032211220792 0 0 0 0 0 0 0 -0.666789203500181 0 0 0 0 0 0 0 0 -0.685067403147412 0 0 0 0 0 0 0 0 -0.492789797860525 0 0 0 0 -2.57262800876625
0 0 0 0 0 0 0 0 0.0487887289539998 0 0 0 0 0 0 0 0 0 0 -0.365032211220792 0 0 0 0 0 0 0 0 0 0 0 0 0 0 -0.556310550476986 0 0 0 0 0 0 0 0 0 0 0 0 0 0 0
0 0 0 0 0.658368581880987 0 0 0 0.137340774223028 0 0 0 0 0.0680592119253772 0 0 0 0 0 0 -0.365032211220792 -1.10428662938531 0 0 0 0 0 0 -1.13693666098211 -0.750969546465556 0 0 0 0 0 0 0 -3.49211160633069 0 0 -2.08547727988241 0 0 0 0 0 0 0 0 0
0 0 0 0 0 0 0 0 0 0 0 0 0 0 0.415366837510857 0 0 0.221810771629604 0 0 0.229941207170487 -0.365032211220792 0 0 0 0 0 -1.05522255052131 -2.12846959725636 0 0 0 0 0 0 0 0 -1.73543360519497 0 0 0 0 0 0 0 0 0 -1.45363225169354 0 0
0 0.555922004823611 0 0 0 0 0 0 0 0 0 0 0 0 0 0 0 0 0 0 0 0 -0.365032211220792 0 0 0 0 0 0 0 -0.770091513000082 0 -0.986662195249975 0 0 0 0 0 0 -0.866110877439103 0 0 0 0 0 0 0 0 0 0
0 0.795654901601408 0 0 0.179113766167606 0 0 0 0 0 0 0.45090188454218 0 0 0 0 0 0 0 0 0 0 0 -0.365032211220792 0 0 0 0 0 0 0 0 -1.00152534903299 -0.123713293228141 0 0 -1.21369451269718 0 0 0 0 0 0 0 0 0 0 0 0 0
0 0 0 0 0 0 0 0 0 0 0 0 0 0 0 0 0 0 0 0 0 0 0 0 -0.365032211220792 0 0 0 0 0 0 0 0 -2.82327530797205 0 0 -7.70346023887145 0 0 0 0 0 0 0 -0.33614013039802 0 0 0 0 0
0 0 0 0 0 0 0 0 0 0 0 0 0.303138037427192 0 0 0 0 0 0 0 0 0 0 0 0 -0.365032211220792 -1.1849493370229 0 0 0 0 0 0 -1.90931438278149 0 -0.197497250811857 0 0 0 0 0 0 -3.0033598557031 0 0 0 0 0 -0.495483783169101 0
0 0 0 0 0 0 0 0.541347377457893 0 0 0 0 0 0 0 0 0 0.241501060675297 0.150060809065771 0 0 0 0 0 0 0.254782476884585 -0.365032211220792 0 0 0 0 0 0 0 0 0 0 0 0 0 0 0 0 0 0 0 0 0 -0.414406915107366 0
0 0 0 0 0 0 0 0 0 0 0.210609188110664 0 0 0.0200787146522371 0 0 0 0 0 0 0 0.213390330469572 0 0 0 0 0 -0.365032211220792 0 0 0 0 0 0 0 0 0 0 0 0 0 0 0 0 0 0 0 0 0 0
0 0 0 0 1.71533387745414 0 0 0 0 0 0 0 0 0 0 0 0 0 0 0 0.23047064755364 0.447655866637648 0 0 0 0 0 0 -0.365032211220792 0 0 0 0 0 0 0 0 0 0 0 0 0 0 0 0 0 0 0 0 0
0 0 0 0 0 0 0.288954240292717 0 0 0 0 0 0 0 0 0 0 0 0 0 0.14186240865874 0 0 0 0 0 0 0 0 -0.365032211220792 0 -0.521524195841056 -0.813224828885125 0 0 0 0 0 0 0 0 0 0 0 0 0 0 0 0 -0.343751626647492
0 0 0 0 0 0 0 0 0 0 0 0 0 0.0839973007388681 0 0.0962801661777109 0 0 0 0 0 0 0.152768402008265 0 0 0 0 0 0 0 -0.365032211220792 0 0 0 -2.6141859204964 0 0 0 0 0 0 0 0 0 0 0 0 0 0 0
0.101852247372271 0 0 0 0 0 0 0 0 0 0 0 0 0 0 0.271055589589419 0 0.204208309406061 0 0 0 0 0 0 0 0 0 0 0 0.102970488891351 0 -0.365032211220792 0 0 0 0 -0.686884524443884 0 0 0 0 0 -0.622906156810468 0 0 0 0 0 0 0
0.04801750592362 0 0 0 0 0 0 0 0 0 0 0 0 0 0 0 0 0 0 0 0 0 0.196433082378129 0.215542454106883 0 0 0 0 0 0.175983609832484 0 0 -0.365032211220792 0 0 0 0 0 0 0 0 0 0 -1.93889137470705 -0.509841483480361 0 0 0 -2.58109066668667 0
0 0 0 0 0.108435250003763 0 0 0 0 0 0 0 0 0 0 0 0 0.483931378938115 0 0 0 0 0 0.0262234080599591 0.631580108044834 0.408732419145657 0 0 0 0 0 0 0 -0.365032211220792 0 0 0 0 -1.00175880619194 0 0 0 0 0 0 0 0 0 0 0
0 0 0 0 0 0 0 0 0 0 0 0 0 0 0 0 0 0 0 0.107834601961242 0 0 0 0 0 0 0 0 0 0 0.520870703185124 0 0 0 -0.365032211220792 -0.536449822180194 -3.33716246860643 0 0 0 0 0 0 0 0 0 0 0 0 0
0 0 0 0.336413667384581 0 0 0 0 0 0 0.849405116530096 0 0 0 0 0 0 0 0.141119624802535 0 0 0 0 0 0 0.0355862099714665 0 0 0 0 0 0 0 0 0.119697361876213 -0.365032211220792 -0.905156954367976 0 0 0 0 0 0 0 0 0 0 0 0 0
0 0 0 0 0 0.11550430952979 0 0 0 0 0 0 0 0 0 0 0 0 0 0 0 0 0 0.244341687500453 1.55577280090088 0 0 0 0 0 0 0.141213793645545 0 0 0.687009588416512 0.171731189576644 -0.365032211220792 0 0 0 0 0 0 0 0 -0.384064123315264 0 0 0 -4.55842480473449
0 0 0 0 0 0 0.0377201699483021 0 0 0 0 0 0 0 0 0 0 0 0 0 0.676772842692775 0.343089880700641 0 0 0 0 0 0 0 0 0 0 0 0 0 0 0 -0.365032211220792 -0.369321273906899 0 0 0 0 0 0 -3.23716243763019 0 0 0 -0.390820388431346
0 0 0 0 0 0 0.438710861746035 0 0 0.0397526278808023 0 0 0 0 0 0.0809406939288707 0 1.19426794129372 0 0 0 0 0 0 0 0 0 0 0 0 0 0 0 0.191524947731099 0 0 0 0.0754206054931162 -0.365032211220792 0 0 0 0 0 0 0 0 0 0 -1.66604136258534
0 0 0 0 0 0 0 1.30273042532764 0 0.440131106859163 0 0 0 0 0 0 0 0 0 0 0 0 0.171999918774554 0 0 0 0 0 0 0 0 0 0 0 0 0 0 0 0 -0.365032211220792 0 0 0 0 0 0 0 0 0 0
0 0 0 0 0 0 0 0 0 0 0 0 0 0 0 0 0 0 0 0 0.399403125865269 0 0 0 0 0 0 0 0 0 0 0 0 0 0 0 0 0 0 0 -0.365032211220792 0 0 0 0 0 0 0 0 -0.554528721186145
0 0 0 0 0 0 0 0 0 0 0 0 0.108179161077484 0 0.131818004406063 0.180881421035568 0 0 0 0 0 0 0 0 0 0 0 0 0 0 0 0 0 0 0 0 0 0 0 0 0 -0.365032211220792 0 0 0 -1.50342033692059 0 0 0 0
0 0 0 0 0 0 0 0 0 0 0 0 0 0 0 0 0 0 0 0 0 0 0 0 0 0.600196198062678 0 0 0 0 0 0.133792836106642 0 0 0 0 0 0 0 0 0 0 -0.365032211220792 0 0 0 0 0 0 0
0 0 0 0 0 0 0 0 0 0 0 0 0 0 0 0 0 0 0 0 0 0 0 0 0 0 0 0 0 0 0 0 0.391458109781629 0 0 0 0 0 0 0 0 0 0 -0.365032211220792 0 0 0 0 0 0
0 0 0 0 0 0 0 0 0.234760011303445 0 0 0 0 0 0.0415483053091228 0 0 0 0.103136240977044 0 0 0 0 0 0.0621173521721929 0 0 0 0 0 0 0 0.108519216091782 0 0 0 0 0 0 0 0 0 0 0 -0.365032211220792 0 0 0 0 -1.89486927196299
0 0 0 0.110590390717432 0 0 0 0 0 0 0 0 0 0 0 0 0 0 0 0 0 0 0 0 0 0 0 0 0 0 0 0 0 0 0 0 0.0761631765774778 0.68557532147788 0 0 0 0.314603051956561 0 0 0 -0.365032211220792 0 0 0 0
0 0 0 0 0 0 0.0383073946726621 0 0 0 0 0.0644601760380809 0 0 0 0 0 0 0 0 0 0 0 0 0 0 0 0 0 0 0 0 0 0 0 0 0 0 0 0 0 0 0 0 0 0 -0.365032211220792 -0.654189323759416 0 -1.14229347274105
0 0 0 0 0 0 0 0 0 0 0.299846185431722 0 0 0 0 0.0767846183871887 0 0 0 0 0 0.294287325275925 0 0 0 0 0 0 0 0 0 0 0 0 0 0 0 0 0 0 0 0 0 0 0 0 0.131341437062675 -0.365032211220792 0 0
0 0.168463718879146 0 0 0 0 0 0 0 0 0 0 0.173546345176278 0.884429398095623 0 0 0.474634360228176 0 0 0 0 0 0 0 0 0.10016087764837 0.0769384648181817 0 0 0 0 0 0.510114241284486 0 0 0 0 0 0 0 0 0 0 0 0 0 0 0 -0.365032211220792 0
0 0 0 0 0 0 0 0 0 0 0 0 0 0 0 0 0 0 0.527629906673217 0 0 0 0 0 0 0 0 0 0 0.0695814446576698 0 0 0 0 0 0 0.892038400746798 0.0872073414643427 0.331502783274646 0 0.108759409029634 0 0 0 0.376662138552356 0 0.245777193575611 0 0 -0.365032211220792
