-0.275947909358815 0 0 0 0 0 0 0 0 0 0 0 0 0 0 0 0 0 0 -0.130884753944852 0 0 0 0 0 0 0 0 0 0 -0.983506983295032 0 0 -0.825824138332362 0 0 0 0 0 0 0 0 0 0 0 0 -2.76474244503161 -1.36038920576776 0 0
0 -0.275947909358815 0 0 0 0 0 0 0 -0.493540441214601 0 0 0 0 0 0 0 0 0 0 0 0 -0.251366934705069 0 0 0 0 0 0 0 0 0 0 0 0 0 0 0 0 0 0 0 0 0 0 0 0 0 -0.879128068174311 0
0 0 -0.275947909358815 0 0 0 -0.389031183953933 0 0 0 0 0 0 0 0 0 -0.689947066767841 0 0 0 0 0 0 0 0 0 -0.356550978448039 0 -1.28402477276462 0 0 0 0 0 0 0 0 0 0 0 0 0 0 0 0 0 0 -0.61550093505946 0 0
0 0 0 -0.275947909358815 0 0 0 0 0 0 0 0 0 0 0 0 0 0 0 0 0 0 0 0 0 0 0 0 0 0 0 0 0 -0.412425871338954 0 0 -1.08036445051852 0 0 0 0 0 -3.59318980393145 0 0 0 0 -0.873890117950551 0 0
0 0 0 0 -0.275947909358815 -9.01184998795211 0 0 0 0 0 0 0 0 0 0 0 -0.788084561050747 0 0 0 0 -0.595104190034954 0 0 0 0 0 0 0 0 0 0 0 -0.153934422864086 0 0 0 -1.2835519444286 -5.28118917061623 0 0 0 0 0 0 0 0 -2.0119410433063 -1.34121239886672
0 0 0 0 1.82097677257458 -0.275947909358815 0 0 -0.614292393042751 0 0 0 -1.49670608328588 0 0 0 0 0 0 0 0 0 0 0 0 0 0 0 0 0 -2.88625372474579 0 0 0 0 0 0 0 0 0 -1.07090927753857 0 -1.02325612334977 0 0 0 0 0 0 0
0 0 0.0813559329011977 0 0 0 -0.275947909358815 0 0 0 0 0 0 0 0 0 0 0 0 0 0 0 0 0 0 -1.26510362060387 0 0 0 0 0 0 0 -1.09654651729854 0 -3.75874878319471 0 -2.54763714020245 -0.889993101028436 0 0 0 0 0 0 0 0 0 0 0
0 0 0 0 0 0 0 -0.275947909358815 0 0 0 0 -0.300076205700751 0 0 0 0 0 0 0 0 0 0 0 0 0 0 0 0 0 0 0 0 0 0 0 0 0 0 0 0 0 -3.08658642691684 0 0 0 0 0 0 0
0 0 0 0 0 0.112744843800656 0 0 -0.275947909358815 0 0 -0.228818436994225 0 0 0 0 0 0 0 -0.728670567989052 0 0 0 0 0 0 0 0 0 0 0 0 0 0 0 0 0 0 0 0 0 0 0 0 -1.13395728971814 -0.826409391503565 -1.90115163550817 0 0 0
0 0.0960953061131365 0 0 0 0 0 0 0 -0.275947909358815 -0.303171109045854 0 0 0 0 0 0 0 0 0 0 0 0 0 0 -0.874129678753646 0 0 0 0 0 0 0 0 0 0 0 0 0 0 0 0 0 0 0 0 0 0 0 0
0 0 0 0 0 0 0 0 0 0.0599548482336479 -0.275947909358815 0 0 0 0 0 0 0 0 0 0 0 0 0 0 0 0 0 0 0 0 0 0 0 -0.153892949488673 0 0 0 0 0 -6.7064830759692 0 0 -1.27249930992362 0 0 0 0 0 0
0 0 0 0 0 0 0 0 0.0503166217566165 0 0 -0.275947909358815 0 0 -0.667834382739257 0 0 0 0 0 0 0 -0.409050955869691 0 -1.36784782478823 0 0 0 0 -2.03891764098976 0 0 0 0 0 -0.782983659073186 0 0 0 0 0 0 0 -2.44612616135163 0 0 0 0 0 0
0 0 0 0 0 0.314756851299632 0 0.0584480190239684 0 0 0 0 -0.275947909358815 0 0 -1.23168525415198 0 0 0 0 0 0 -0.847067486591681 0 0 0 0 0 0 0 0 -0.281561005901772 0 0 0 0 0 0 0 0 -2.78200186433258 0 0 0 0 0 0 0 0 0
0 0 0 0 0 0 0 0 0 0 0 0 0 -0.275947909358815 0 0 0 0 -0.187774995332267 0 0 0 -1.6817152058929 -0.832592467365783 0 0 0 0 0 0 0 0 0 0 0 0 0 0 0 -6.23002648212765 0 0 0 0 0 0 0 0 0 0
0 0 0 0 0 0 0 0 0 0 0 0.143740738748774 0 0 -0.275947909358815 0 0 0 0 0 -1.16975506364058 0 0 0 0 0 0 -0.784479582086131 0 0 -0.578792951717298 0 0 0 0 -0.451193242942848 0 0 0 0 0 0 0 0 0 0 0 0 -0.52461690066936 0
0 0 0 0 0 0 0 0 0 0 0 0 0.24718362265681 0 0 -0.275947909358815 0 0 -0.793356366820958 0 0 0 0 0 0 -0.527773144253763 0 0 0 -6.82418222450764 0 0 0 0 0 0 0 0 0 0 -2.28744676897939 0 0 0 0 0 0 0 0 0
0 0 0.14769642506733 0 0 0 0 0 0 0 0 0 0 0 0 0 -0.275947909358815 0 0 0 0 0 0 0 0 0 0 0 0 -0.329482050182882 0 -1.45123561022739 0 0 0 0 0 0 0 0 0 -1.21140603527858 0 0 0 -1.78788832974341 0 0 0 0
0 0 0 0 0.159329873054388 0 0 0 0 0 0 0 0 0 0 0 0 -0.275947909358815 0 0 -2.97901417653068 0 0 0 0 0 0 0 -0.41673775037464 0 0 0 0 0 0 0 0 0 0 0 0 0 0 0 0 0 -1.08736612391199 0 0 -0.75946071568927
0 0 0 0 0 0 0 0 0 0 0 0 0 0.0406267234094137 0 0.161885255329198 0 0 -0.275947909358815 0 0 0 0 0 0 0 -0.854777891329647 0 0 0 -1.90593458189907 0 -0.39873688932402 -0.432959734321815 0 0 0 0 0 0 0 0 0 0 0 0 0 0 0 0
0.0282779417295975 0 0 0 0 0 0 0 0.141509494716424 0 0 0 0 0 0 0 0 0 0 -0.275947909358815 0 0 0 0 -0.941234098748504 0 0 -6.04524429638159 0 0 0 0 -0.325765291728723 0 0 -0.724085091819832 0 0 0 0 0 0 0 0 0 -2.94630595364521 -1.86632709701468 0 -0.744778442852241 0
0 0 0 0 0 0 0 0 0 0 0 0 0 0 0.233808172146669 0 0 0.560834547466314 0 0 -0.275947909358815 0 0 0 0 0 -1.17926763586326 0 0 0 0 0 0 0 0 -2.05166424758217 0 0 0 0 0 0 0 0 0 0 0 0 0 0
0 0 0 0 0 0 0 0 0 0 0 0 0 0 0 0 0 0 0 0 0 -0.275947909358815 0 0 0 0 0 -6.708633836966 0 0 0 0 0 -1.85196160070607 0 0 0 0 0 0 0 0 -1.43019561070508 0 0 0 -0.122677699413862 0 0 0
0 0.0489781137765118 0 0 0.122708850891548 0 0 0 0 0 0 0.0852787642233639 0.184311952998401 0.35740261281907 0 0 0 0 0 0 0 0 -0.275947909358815 0 0 0 0 -0.737092144985098 0 0 0 0 0 0 0 0 0 0 0 0 0 0 0 0 0 0 0 -0.744194283421277 0 -2.2643545390359
0 0 0 0 0 0 0 0 0 0 0 0 0 0.174203463016664 0 0 0 0 0 0 0 0 0 -0.275947909358815 0 0 0 0 0 -1.24445336625285 0 0 0 0 0 0 0 0 0 0 -0.925159761713371 -0.0988367532728105 0 0 0 0 0 0 0 0
0 0 0 0 0 0 0 0 0 0 0 0.267784014914411 0 0 0 0 0 0 0 0.191952437247173 0 0 0 0 -0.275947909358815 0 0 0 0 0 0 0 0 -1.83705895671534 0 0 0 0 0 -0.151112717947276 0 0 0 0 0 0 0 0 0 0
0 0 0 0 0 0 0.255698711422874 0 0 0.180044601842288 0 0 0 0 0 0.110136282701076 0 0 0 0 0 0 0 0 0 -0.275947909358815 0 -1.85348840645562 0 -6.0794561111624 0 0 0 0 -1.48313211408309 0 0 0 0 0 0 0 0 0 0 0 0 0 0 0
0 0 0.066688873475541 0 0 0 0 0 0 0 0 0 0 0 0 0 0 0 0.174965823859885 0 0.232758607664423 0 0 0 0 0 -0.275947909358815 0 0 0 0 -0.488983645779117 0 0 0 0 0 0 0 0 -0.416511814099361 0 0 0 0 0 0 0 0 0
0 0 0 0 0 0 0 0 0 0 0 0 0 0 0.151001182950583 0 0 0 0 1.3039178548222 0 1.27088424082876 0.1350094080268 0 0 0.366151101349145 0 -0.275947909358815 0 0 0 0 -0.129872483493874 0 0 0 0 0 0 0 0 0 0 0 0 0 0 0 0 0
0 0 0.256517529124166 0 0 0 0 0 0 0 0 0 0 0 0 0 0 0.0825047417868517 0 0 0 0 0 0 0 0 0 0 -0.275947909358815 0 0 0 0 0 0 0 -0.448214752025822 0 0 0 0 0 0 0 0 0 0 0 0 0
0 0 0 0 0 0 0 0 0 0 0 0.417160409442356 0 0 0 1.44290760291949 0.0654455758149687 0 0 0 0 0 0 0.265372358590257 0 1.14952376945566 0 0 0 -0.275947909358815 0 0 0 0 0 0 -0.680346863943389 0 0 0 0 0 0 0 0 0 0 0 0 0
0.199719051014466 0 0 0 0 0.607369286778079 0 0 0 0 0 0 0 0 0.125533607709395 0 0 0 0.409258892191986 0 0 0 0 0 0 0 0 0 0 0 -0.275947909358815 0 0 0 0 0 0 0 0 0 0 0 0 -0.568159160450173 0 0 0 0 0 0
0 0 0 0 0 0 0 0 0 0 0 0 0.0571619466549372 0 0 0 0.284981453002081 0 0 0 0 0 0 0 0 0 0.0957631886512279 0 0 0 0 -0.275947909358815 0 0 0 0 0 0 0 0 0 0 0 -1.55447785141113 0 0 0 -2.56074357313548 0 0
0 0 0 0 0 0 0 0 0 0 0 0 0 0 0 0 0 0 0.0793029416045713 0.063981132271285 0 0 0 0 0 0 0 0.0259705912713715 0 0 0 0 -0.275947909358815 0 0 -0.495565996035268 0 0 0 0 0 0 0 0 0 0 0 0 0 0
0.160927626049458 0 0 0.0829711229329211 0 0 0.235837511874248 0 0 0 0 0 0 0 0 0 0 0 0.0810539604886418 0 0 0.358877574028442 0 0 0.366402737862417 0 0 0 0 0 0 0 0 -0.275947909358815 0 0 0 0 0 -10.2918392158467 0 0 0 0 0 0 -0.248589836413454 0 0 0
0 0 0 0 0.0291671899895863 0 0 0 0 0 0.0314150469268527 0 0 0 0 0 0 0 0 0 0 0 0 0 0 0.290554272532929 0 0 0 0 0 0 0 0 -0.275947909358815 0 0 0 0 0 0 0 0 0 0 0 0 0 0 -2.13864342600784
0 0 0 0 0 0 0.711328112587939 0 0 0 0 0.151895532441399 0 0 0.0876801078039684 0 0 0 0 0.152578189608145 0.395391593418081 0 0 0 0 0 0 0 0 0 0 0 0.0853382584526399 0 0 -0.275947909358815 0 0 0 0 0 0 0 0 0 0 0 0 0 0
0 0 0 0.235667616941515 0 0 0 0 0 0 0 0 0 0 0 0 0 0 0 0 0 0 0 0 0 0 0 0 0.0893586383056881 0.130172188608658 0 0 0 0 0 0 -0.275947909358815 0 0 0 -4.86702962230056 0 -1.53533550213334 0 0 0 0 0 0 0
0 0 0 0 0 0 0.514870108555396 0 0 0 0 0 0 0 0 0 0 0 0 0 0 0 0 0 0 0 0 0 0 0 0 0 0 0 0 0 0 -0.275947909358815 0 0 0 0 0 0 0 0 0 0 0 0
0 0 0 0 0.25818151550386 0 0.172091384512026 0 0 0 0 0 0 0 0 0 0 0 0 0 0 0 0 0 0 0 0 0 0 0 0 0 0 0 0 0 0 0 -0.275947909358815 0 0 0 0 0 0 0 0 0 -0.695131133111633 0
0 0 0 0 0.981175599485542 0 0 0 0 0 0 0 0 1.35476831298845 0 0 0 0 0 0 0 0 0 0 0.0318190558184258 0 0 0 0 0 0 0 0 2.10736165787837 0 0 0 0 0 -0.275947909358815 0 0 -1.28674251343691 0 0 0 0 0 0 0
0 0 0 0 0 0.21140074192311 0 0 0 0 1.35976216313768 0 0.561448996363874 0 0 0.461298169820779 0 0 0 0 0 0 0 0.177059964532822 0 0 0.0770301762203865 0 0 0 0 0 0 0 0 0 0.908012148419972 0 0 0 -0.275947909358815 0 0 0 0 0 0 0 0 0
0 0 0 0 0 0 0 0 0 0 0 0 0 0 0 0 0.240956106322845 0 0 0 0 0 0 0.019755436227502 0 0 0 0 0 0 0 0 0 0 0 0 0 0 0 0 0 -0.275947909358815 0 -5.7706974436189 -0.12622497210516 0 0 -0.344366864081452 0 0
0 0 0 0.634478787804313 0 0.193143183242705 0 0.639805417088147 0 0 0 0 0 0 0 0 0 0 0 0 0 0.304699795449981 0 0 0 0 0 0 0 0 0 0 0 0 0 0 0.315929124057072 0 0 0.259188460256361 0 0 -0.275947909358815 0 0 0 0 0 0 0
0 0 0 0 0 0 0 0 0 0 0.260922542606056 0.497894770821631 0 0 0 0 0 0 0 0 0 0 0 0 0 0 0 0 0 0 0.118033623254512 0.316988849867569 0 0 0 0 0 0 0 0 0 1.20765044094358 0 -0.275947909358815 0 0 0 0 0 -1.33089240942809
0 0 0 0 0 0 0 0 0.229547008734292 0 0 0 0 0 0 0 0 0 0 0 0 0 0 0 0 0 0 0 0 0 0 0 0 0 0 0 0 0 0 0 0 0.024984645795933 0 0 -0.275947909358815 0 0 0 0 -0.597477635738915
0 0 0 0 0 0 0 0 0.166529692009721 0 0 0 0 0 0 0 0.368500987345829 0 0 0.579963005796567 0 0 0 0 0 0 0 0 0 0 0 0 0 0 0 0 0 0 0 0 0 0 0 0 0 -0.275947909358815 0 -0.963451540782722 0 0
0.599997066103182 0 0 0 0 0 0 0 0.357936579350359 0 0 0 0 0 0 0 0 0.196994645781852 0 0.358521534972312 0 0.0218982306390409 0 0 0 0 0 0 0 0 0 0 0 0.0492922460559513 0 0 0 0 0 0 0 0 0 0 0 0 -0.275947909358815 0 0 0
0.287549605550347 0 0.127752909125031 0.177861566559058 0 0 0 0 0 0 0 0 0 0 0 0 0 0 0 0 0 0 0.156621603066149 0 0 0 0 0 0 0 0 0.519771458185034 0 0 0 0 0 0 0 0 0 0.0710452020553762 0 0 0 0.187996325244073 0 -0.275947909358815 0 -11.9875854315389
0 0.1567161630578 0 0 0.424936584749063 0 0 0 0 0 0 0 0 0 0.096636675720537 0 0 0 0 0.155665449152801 0 0 0 0 0 0 0 0 0 0 0 0 0 0 0 0 0 0 0.154656012095312 0 0 0 0 0 0 0 0 0 -0.275947909358815 0
0 0 0 0 0.251708169980134 0 0 0 0 0 0 0 0 0 0 0 0 0.133592079965904 0 0 0 0 0.438330950527686 0 0 0 0 0 0 0 0 0 0 0 0.402827726488 0 0 0 0 0 0 0 0 0.2512217606451 0.116066620747986 0 0 2.30007178668619 0 -0.275947909358815
