-0.291015369420312 0 0 0 0 0 0 0 0 0 0 0 0 0 0 0 0 0 -0.731771960649991 0 0 0 0 0 0 -1.62064735475406 0 0 -0.541095205002702 0 0 0 0 0 0 0 0 0 0 0 0 0 0 0 0 0 0 0 0 0
0 -0.291015369420312 0 0 0 0 0 0 0 0 0 0 0 0 0 0 0 0 0 0 0 0 0 0 0 0 0 0 -8.91530578266669 0 0 0 0 0 0 0 0 -1.4965578908485 0 0 0 0 0 0 0 -2.66989901854062 0 0 0 0
0 0 -0.291015369420312 0 0 0 0 0 0 0 0 0 0 0 0 -0.789676316274169 -0.365170294711466 0 0 0 0 0 0 0 0 0 0 0 0 0 0 0 0 0 0 0 0 0 0 0 0 0 0 0 0 0 -0.291869878108452 0 0 -4.28711907827238
0 0 0 -0.291015369420312 0 0 0 0 0 0 0 0 0 0 0 0 0 0 0 0 0 0 0 0 -0.33600077965121 0 0 0 0 0 0 0 0 0 0 0 0 0 0 0 0 0 0 0 0 0 0 0 0 0
0 0 0 0 -0.291015369420312 -6.92008455375656 -0.655376764382817 0 0 0 0 0 0 0 0 0 0 0 0 0 0 -2.5857314775965 0 0 0 0 0 0 0 0 0 0 0 0 0 0 0 0 0 -0.5551373310014 0 0 -2.79694140868069 -2.50995489920791 0 0 0 0 0 0
0 0 0 0 1.33139493998789 -0.291015369420312 0 -0.804431966559534 0 0 0 -2.19030443228403 0 0 -2.38515674299614 0 0 0 0 0 0 0 0 -1.34363441370888 0 0 0 0 0 0 0 0 0 0 0 -0.962708112661079 0 0 0 -0.940302832515167 0 0 0 0 0 -3.62918241752686 0 0 0 0
0 0 0 0 0.127963746788158 0 -0.291015369420312 0 0 0 0 0 0 0 0 0 -0.880064273185988 0 0 0 -3.44943285191934 0 0 0 0 0 0 0 0 -0.955115046116253 -1.93857912588567 0 0 0 0 0 0 0 0 -0.243927587350678 0 0 0 0 0 0 0 0 0 0
0 0 0 0 0 0.157580003493409 0 -0.291015369420312 0 0 -0.656704356166937 0 0 0 -0.611881360811875 0 0 0 0 0 0 -3.00725410549299 0 0 0 0 0 0 0 0 0 0 0 0 0 0 0 0 0 0 0 0 0 0 0 0 0 0 0 0
0 0 0 0 0 0 0 0 -0.291015369420312 0 0 0 0 0 0 0 -4.80046924953306 0 0 0 -1.48622187862775 0 -1.62259621221573 0 0 0 0 0 0 0 0 0 0 0 0 0 0 -0.118580210148109 -0.255743939304899 0 0 0 0 0 0 0 0 0 0 -0.740695381540503
0 0 0 0 0 0 0 0 0 -0.291015369420312 -0.680480056902865 -0.237635315255287 0 0 0 0 -1.79777693839964 0 0 0 0 0 0 0 0 -1.39990853175152 0 0 0 0 0 0 0 -0.123558878534576 0 0 0 0 0 -0.323060183057918 0 0 0 0 0 0 0 0 0 0
0 0 0 0 0 0 0 0.138888636002886 0 0.145073341969731 -0.291015369420312 0 0 0 0 0 0 0 0 0 0 0 0 0 0 0 0 0 0 0 0 0 0 0 0 0 0 0 0 0 0 0 0 -9.22271189668038 0 0 0 0 0 0
0 0 0 0 0 0.450267357905495 0 0 0 0.0472927098271795 0 -0.291015369420312 0 0 0 0 -0.718054274931359 0 0 0 0 0 -3.86892754258387 0 0 -0.393697800264664 0 0 0 0 0 0 0 0 0 0 0 0 0 0 0 0 0 0 0 0 0 0 0 0
0 0 0 0 0 0 0 0 0 0 0 0 -0.291015369420312 0 0 0 0 0 -1.19119614351506 0 0 0 0 -0.149627246769598 0 0 0 0 0 -1.90878580048553 0 0 0 0 0 0 0 0 0 0 0 0 0 0 0 0 0 0 0 0
0 0 0 0 0 0 0 0 0 0 0 0 0 -0.291015369420312 0 0 0 0 0 -1.25377460240419 0 0 0 0 0 0 -2.21676897940198 0 0 0 0 0 0 0 0 0 0 0 0 0 0 0 0 0 0 0 0 0 -0.845667714808578 -0.953546935005016
0 0 0 0 0 0.487911354389171 0 0.118902217211002 0 0 0 0 0 0 -0.291015369420312 0 0 -1.22285448083826 -0.94221684440959 -0.224382754428872 0 0 -1.27252032224824 0 0 0 0 0 0 0 0 0 0 0 0 0 0 0 0 0 0 0 0 0 0 0 0 0 0 0
0 0 0.158080907190975 0 0 0 0 0 0 0 0 0 0 0 0 -0.291015369420312 -0.419080317251225 0 0 0 0 0 0 0 0 -0.62246748299312 -1.12908814235261 0 0 0 0 0 -1.58817969933163 0 -3.51284819506015 0 0 0 0 0 0 0 0 -0.661480072447328 0 0 0 -0.506965600356243 0 0
0 0 0.0750825026815495 0 0 0 0.179654097338997 0 0.953341395226997 0.355413523616095 0 0.136335856745632 0 0 0 0.0820665516480871 -0.291015369420312 0 0 -1.03541171837905 0 0 0 0 0 0 0 0 0 0 0 0 0 0 0 0 0 0 0 0 0 0 0 0 0 0 -0.961588961670229 0 0 0
0 0 0 0 0 0 0 0 0 0 0 0 0 0 0.247492187373849 0 0 -0.291015369420312 0 0 0 0 0 0 0 -0.916127859744271 0 0 -0.709512286721039 0 0 0 -1.48853002713887 0 0 0 0 0 0 0 0 0 0 0 0 -1.03368330706019 0 0 0 0
0.151602992583171 0 0 0 0 0 0 0 0 0 0 0 0.238165857800537 0 0.181574685311742 0 0 0 -0.291015369420312 0 0 0 0 0 0 0 0 0 -1.10636153801245 0 0 0 0 0 0 0 -0.321235475446802 0 0 0 -0.110867441178769 0 0 0 -0.332171360963405 0 0 0 0 0
0 0 0 0 0 0 0 0 0 0 0 0 0 0.256971002780397 0.0426791477047411 0 0.223153133048664 0 0 -0.291015369420312 -0.481824563781987 0 -0.121657784639272 0 0 0 0 0 0 -1.66195708503042 0 -0.284656153948959 0 -0.872191854413545 0 0 -1.82351236445116 0 0 0 0 0 0 0 -0.51273315139745 0 0 0 0 0
0 0 0 0 0 0 0.622167795369117 0 0.298238622421108 0 0 0 0 0 0 0 0 0 0 0.0882690615313468 -0.291015369420312 0 0 0 0 0 0 0 0 0 0 0 0 0 0 0 0 0 0 0 0 0 0 0 0 0 0 0 -0.523007342379966 0
0 0 0 0 0.543811726245733 0 0 0.591311039598676 0 0 0 0 0 0 0 0 0 0 0 0 0 -0.291015369420312 0 0 0 0 0 0 0 0 0 0 0 0 0 0 0 -1.89183188097876 0 0 0 -0.3562199041767 0 0 0 0 0 -2.42066685223707 0 0
0 0 0 0 0 0 0 0 0.321741265018678 0 0 0.741670077656554 0 0 0.248073958174851 0 0 0 0 0.0245476353233922 0 0 -0.291015369420312 0 0 0 0 0 0 0 0 0 0 -0.783381823998579 0 0 0 0 0 0 0 0 0 -0.234973037503823 0 0 0 0 0 0
0 0 0 0 0 0.280745866387778 0 0 0 0 0 0 0.0296832963380982 0 0 0 0 0 0 0 0 0 0 -0.291015369420312 0 0 -1.23994735814584 -0.110860833783967 -0.19745318301208 0 0 0 0 0 0 0 0 0 0 0 0 0 0 0 0 0 0 0 0 0
0 0 0 0.067172001239143 0 0 0 0 0 0 0 0 0 0 0 0 0 0 0 0 0 0 0 0 -0.291015369420312 -1.81928498379343 0 0 0 0 0 0 0 0 0 0 0 0 0 0 -1.59570257305243 0 0 0 0 0 0 0 0 0
0.325163270478584 0 0 0 0 0 0 0 0 0.265272521377081 0 0.0796037372763475 0 0 0 0.124513462720041 0 0.187813505443535 0 0 0 0 0 0 0.374358672454557 -0.291015369420312 0 0 0 0 0 -0.623600406126487 0 0 0 0 0 -1.08198857758574 0 -0.303459404469341 0 -2.09101994595188 0 0 0 0 -0.397806616388256 0 0 0
0 0 0 0 0 0 0 0 0 0 0 0 0 0.471457674056359 0 0.239840152127475 0 0 0 0 0 0 0 0.242381693709588 0 0 -0.291015369420312 0 0 0 0 -0.395023318138008 -2.14203811011909 0 0 0 0 0 0 -0.856704872465778 0 0 0 0 0 0 0 0 0 0
0 0 0 0 0 0 0 0 0 0 0 0 0 0 0 0 0 0 0 0 0 0 0 0.0238784891143539 0 0 0 -0.291015369420312 0 0 -1.91268170709143 0 -0.483590761835475 0 0 -0.630316255830382 0 0 0 0 0 0 0 0 0 0 0 -2.42255048695055 0 0
0.114052586112727 1.71794011805751 0 0 0 0 0 0 0 0 0 0 0 0 0 0 0 0.140345701959388 0.228285283741629 0 0 0 0 0.0360474513164525 0 0 0 0 -0.291015369420312 -3.08850008533013 0 0 0 0 0 0 0 0 0 0 0 0 0 0 0 0 0 0 0 0
0 0 0 0 0 0 0.198372218448739 0 0 0 0 0 0.390373581092146 0 0 0 0 0 0 0.334670280041801 0 0 0 0 0 0 0 0 0.59542449310504 -0.291015369420312 -0.792507173400732 0 -0.457475244333496 0 0 -1.87430706222437 0 0 -1.62586026425068 0 0 0 0 0 0 0 0 0 -2.38370362295372 0
0 0 0 0 0 0 0.393994075952636 0 0 0 0 0 0 0 0 0 0 0 0 0 0 0 0 0 0 0 0 0.376159316667942 0 0.15986072357349 -0.291015369420312 0 0 0 0 0 -2.1011314454603 -1.75932303439953 0 0 -1.38837136632039 0 0 0 0 0 0 0 0 0
0 0 0 0 0 0 0 0 0 0 0 0 0 0 0 0 0 0 0 0.0562292044864709 0 0 0 0 0 0.127337754584512 0.0842111793056873 0 0 0 0 -0.291015369420312 0 0 0 0 0 0 0 0 0 0 0 0 0 0 0 0 0 0
0 0 0 0 0 0 0 0 0 0 0 0 0 0 0 0.315983691145011 0 0.295613082206569 0 0 0 0 0 0 0 0 0.459848946678524 0.088207093193531 0 0.0869041455505513 0 0 -0.291015369420312 0 0 -0.377965119631002 0 0 0 0 0 0 0 0 0 0 0 -0.632851508502933 -0.180318250854607 0
0 0 0 0 0 0 0 0 0 0.0232397931127798 0 0 0 0 0 0 0 0 0 0.180133286041856 0 0 0.152877443344414 0 0 0 0 0 0 0 0 0 0 -0.291015369420312 0 0 0 0 -0.735820247786728 0 0 0 0 0 0 0 0 -1.78779895967748 -3.06611186930697 0
0 0 0 0 0 0 0 0 0 0 0 0 0 0 0 0.710122531561626 0 0 0 0 0 0 0 0 0 0 0 0 0 0 0 0 0 0 -0.291015369420312 0 0 0 0 0 0 0 0 0 -1.64497332616817 0 0 0 0 0
0 0 0 0 0 0.208743503148611 0 0 0 0 0 0 0 0 0 0 0 0 0 0 0 0 0 0 0 0 0 0.128238645722424 0 0.360433294177647 0 0 0.0738132666087603 0 0 -0.291015369420312 0 0 0 0 0 0 0 0 0 0 -1.45609700513998 0 0 0
0 0 0 0 0 0 0 0 0 0 0 0 0 0 0 0 0 0 0.0603115365274321 0.37333194027891 0 0 0 0 0 0 0 0 0 0 0.404521497602791 0 0 0 0 0 -0.291015369420312 0 0 -0.426933584391386 0 0 0 0 0 0 0 0 0 0
0 0.307348883755702 0 0 0 0 0 0 0.0223405341935448 0 0 0 0 0 0 0 0 0 0 0 0 0.359127244578616 0 0 0 0.188161746014262 0 0 0 0 0.351658348216544 0 0 0 0 0 0 -0.291015369420312 -3.73118571676556 0 -0.598499859403755 0 0 0 -0.869700606731994 0 -0.148487917736547 0 0 0
0 0 0 0 0 0 0 0 0.0515332642167398 0 0 0 0 0 0 0 0 0 0 0 0 0 0 0 0 0 0 0 0 0.350543715678108 0 0 0 0.153022745824518 0 0 0 0.770273242941496 -0.291015369420312 0 0 0 0 0 0 0 0 0 0 0
0 0 0 0 0.110390831779108 0.193240990979379 0.0455081840227127 0 0 0.0662461432091546 0 0 0 0 0 0 0 0 0 0 0 0 0 0 0 0.063071886456324 0.174278216773841 0 0 0 0 0 0 0 0 0 0.0863867475694738 0 0 -0.291015369420312 0 0 0 0 0 0 -1.94283759521617 0 0 -2.62335197568713
0 0 0 0 0 0 0 0 0 0 0 0 0 0 0 0 0 0 0.0219877615061345 0 0 0 0 0 0.304471698625724 0 0 0 0 0 0.279268154774802 0 0 0 0 0 0 0.113113820449292 0 0 -0.291015369420312 0 0 0 0 0 0 0 0 0
0 0 0 0 0 0 0 0 0 0 0 0 0 0 0 0 0 0 0 0 0 0.0702964542680813 0 0 0 0.432733937106905 0 0 0 0 0 0 0 0 0 0 0 0 0 0 0 -0.291015369420312 0 0 0 0 0 0 0 0
0 0 0 0 0.532661055416011 0 0 0 0 0 0 0 0 0 0 0 0 0 0 0 0 0 0 0 0 0 0 0 0 0 0 0 0 0 0 0 0 0 0 0 0 0 -0.291015369420312 0 0 -0.166028555230219 0 0 0 0
0 0 0 0 0.461315689782031 0 0 0 0 0 1.8507314139858 0 0 0 0 0.130234700039293 0 0 0 0 0 0 0.0476765389593067 0 0 0 0 0 0 0 0 0 0 0 0 0 0 0 0 0 0 0 0 -0.291015369420312 0 0 0 0 0 0
0 0 0 0 0 0 0 0 0 0 0 0 0 0 0 0 0 0 0.0721252141802548 0.11395516411068 0 0 0 0 0 0 0 0 0 0 0 0 0 0 0.329905120260228 0 0 0.185391316256282 0 0 0 0 0 0 -0.291015369420312 0 -1.34330632760597 0 0 0
0 0.517753340338592 0 0 0 0.676150650598116 0 0 0 0 0 0 0 0 0 0 0 0.213623283925471 0 0 0 0 0 0 0 0 0 0 0 0 0 0 0 0 0 0 0 0 0 0 0 0 0.0340037084134939 0 0 -0.291015369420312 -0.745347946188546 0 0 0
0 0 0.0594080815661316 0 0 0 0 0 0 0 0 0 0 0 0 0 0.203945007585533 0 0 0 0 0 0 0 0 0.0837006370363099 0 0 0 0 0 0 0 0 0 0.271427132076094 0 0.0300995840317726 0 0.391702245556904 0 0 0 0 0.291030630642782 0.143275872986149 -0.291015369420312 0 0 -0.342582312787919
0 0 0 0 0 0 0 0 0 0 0 0 0 0 0 0.104356477095923 0 0 0 0 0 0.418238969911484 0 0 0 0 0 0.491231858830135 0 0 0 0 0.125512569624065 0.368724419347867 0 0 0 0 0 0 0 0 0 0 0 0 0 -0.291015369420312 0 0
0 0 0 0 0 0 0 0 0 0 0 0 0 0.162357135588434 0 0 0 0 0 0 0.0996135377746972 0 0 0 0 0 0 0 0 0.464962914214637 0 0 0.035462333364715 0.619920943907754 0 0 0 0 0 0 0 0 0 0 0 0 0 0 -0.291015369420312 0
0 0 0.877814047289435 0 0 0 0 0 0.151143872612522 0 0 0 0 0.207267403094985 0 0 0 0 0 0 0 0 0 0 0 0 0 0 0 0 0 0 0 0 0 0 0 0 0 0.545567325345406 0 0 0 0 0 0 0.0597413027352107 0 0 -0.291015369420312
