0.324788495225207
0.652991594575943
2.21857701570504
0.385268565826613
1.59239479124797
3.29356579195465
1.04139164721321
1.03921187991676
2.08361092453163
0.223991748474781
4.00994438919044
3.3314723608487
2.52198099626023
0.382788502974799
0.121448239487163
0.605261731392808
0.555705504641317
0.169207433868744
0.863754335176668
8.00814615761793
0.623135702884139
4.08844997664656
0.53681069375735
1.06757058959181
0.27285406450836
0.230308319988614
0.342560992288071
0.0937826225821256
1.57894750673538
2.58474441181208
0.515507294839463
0.672335039497079
5.26226866038102
1.25269427107677
1.78482504547098
0.501118251567328
0.769526316956282
0.559442790412678
0.813657419656598
0.83220895883184
1.93358479921796
0.129900829753837
0.376648352930274
2.33564806807559
0.200202283930622
0.859470046044971
0.754397638710675
0.769326845541202
0.627849174561812
0.874489497553586
