-0.326898881441183 0 0 0 0 0 0 0 0 -3.16284547830748 0 0 0 0 -7.68743162556563 -0.206076436286325 -0.466895052588191 0 0 0 0 0 0 0 0 0 0 0 0 0 0 0 0 0 0 0 0 0 0 0 -2.01767069438535 0 0 0 0 0 -1.67656477805761 0 0 0
0 -0.326898881441183 0 0 0 0 0 0 -3.49196030001386 0 0 0 0 -9.03838438590748 0 0 0 0 0 0 0 0 0 0 0 0 0 0 0 0 0 0 0 0 0 0 0 0 0 0 0 0 0 0 0 0 0 0 0 0
0 0 -0.326898881441183 0 0 0 0 0 -0.321784971598474 0 0 -2.08345191366721 0 -1.0029200534802 0 0 0 0 0 0 -0.101186823969686 0 0 0 0 -1.49082784513493 0 0 -0.381744388368519 0 0 -0.624324333723048 0 -1.25467560695701 0 0 0 0 0 -3.75341121106758 0 0 0 0 0 -3.78049413459189 0 0 0 0
0 0 0 -0.326898881441183 -0.864725584522615 0 0 -0.459736367740195 0 0 0 0 0 0 0 0 -0.889055364582084 0 0 0 0 0 0 0 0 0 0 0 0 0 -2.68758464774232 0 0 0 0 -1.97262661310656 0 0 0 0 0 0 0 0 0 0 0 0 0 0
0 0 0 0.181421650013045 -0.326898881441183 0 0 0 0 0 0 0 -0.577402875046609 0 0 0 0 0 0 0 0 0 0 0 0 0 0 0 0 -0.176228622899569 0 0 0 0 0 0 0 0 0 0 0 0 -3.00786910536062 0 0 0 0 0 0 0
0 0 0 0 0 -0.326898881441183 0 0 0 0 0 -0.544489991657516 0 0 0 0 0 0 -1.72688761840329 0 0 0 0 0 0 0 0 0 0 0 0 0 0 0 0 0 0 0 -3.22972384617831 0 0 -0.204836226791436 0 -0.228827448728693 0 0 0 -4.93201685995469 0 0
0 0 0 0 0 0 -0.326898881441183 0 0 0 0 0 0 0 0 0 0 0 0 0 0 -3.45535541996086 0 0 0 0 0 0 0 0 0 0 0 0 0 0 0 0 0 -0.414048368926586 0 0 0 0 0 -1.23855348942419 0 0 0 0
0 0 0 0.0983750309068593 0 0 0 -0.326898881441183 0 0 0 0 0 0 0 0 0 0 0 -1.09783232021131 0 0 0 0 0 -1.67019481273032 -2.36499965962337 0 0 -1.36018818782485 0 0 0 0 0 0 0 0 0 0 0 -2.23924293160661 0 0 0 -0.789820586884119 0 0 0 -10.5769046526613
0 0.662676210357191 0.0693870577029184 0 0 0 0 0 -0.326898881441183 0 0 0 0 0 0 0 0 -1.52062944660491 0 0 0 0 0 0 0 0 0 0 -0.194301767227869 0 0 0 0 0 0 0 0 0 0 0 0 0 0 0 0 0 0 0 0 0
0.593968399036153 0 0 0 0 0 0 0 0 -0.326898881441183 0 0 0 0 0 0 0 0 0 0 0 0 0 0 0 0 0 0 0 0 0 0 0 0 0 -0.535001434410214 0 0 0 0 0 -1.17051140041772 0 0 0 0 0 -0.518291546782213 -0.620314310643717 0
0 0 0 0 0 0 0 0 0 0 -0.326898881441183 -8.18434610330256 0 0 0 0 -2.04363436314534 -1.89121562674195 0 0 0 0 0 0 0 0 0 0 -1.5768316334657 0 0 0 0 0 0 0 0 0 0 0 0 0 0 0 0 0 0 0 0 -0.243610667828563
0 0 0.414145464480212 0 0 0.100995393062435 0 0 0 0 1.56753203657621 -0.326898881441183 0 0 0 0 0 0 0 0 0 0 0 0 0 0 0 0 0 0 0 0 0 0 0 0 0 0 0 0 0 0 0 -1.23457371085674 0 0 0 0 -0.0863514430028025 -0.136642293208961
0 0 0 0 0.116230906775249 0 0 0 0 0 0 0 -0.326898881441183 0 0 0 0 0 0 0 0 0 -1.47439449410539 0 0 -1.22794265934483 0 0 0 0 0 0 0 0 0 -2.04018233330668 0 0 0 0 0 0 0 0 0 0 0 0 0 0
0 1.98424871606309 0.205674901523217 0 0 0 0 0 0 0 0 0 0 -0.326898881441183 0 0 0 0 0 -0.403860315728007 0 0 0 0 0 0 0 0 0 0 0 -0.979267583777278 0 0 -0.972706288891186 0 0 0 0 0 0 -0.319036652976695 0 0 0 0 0 0 0 0
1.63812849703278 0 0 0 0 0 0 0 0 0 0 0 0 0 -0.326898881441183 0 0 -0.809959985818787 0 0 0 0 0 0 0 0 -0.145354782626508 0 0 0 0 0 0 0 0 0 0 0 0 0 0 0 0 0 0 0 0 0 0 0
0.0419405007260298 0 0 0 0 0 0 0 0 0 0 0 0 0 0 -0.326898881441183 0 0 0 0 -0.683228569324648 0 0 0 0 -0.390280472098791 0 0 0 0 0 0 0 0 0 0 0 0 -0.863555126782857 0 0 0 0 0 0 0 0 0 0 0
0.0977434635982626 0 0 0.190064315940113 0 0 0 0 0 0 0.408268138563995 0 0 0 0 0 -0.326898881441183 0 0 -0.573440668980285 0 0 0 -0.407365454690654 0 0 0 0 0 0 0 0 0 0 0 0 0 0 0 0 0 -0.162484902757157 0 0 0 0 0 0 0 0
0 0 0 0 0 0 0 0 0.306779481615175 0 0.372851109387487 0 0 0 0.164898379105652 0 0 -0.326898881441183 0 0 0 0 0 0 0 -0.847956268694474 0 0 0 -0.528187138524647 0 0 0 0 0 0 0 0 0 0 0 0 0 0 0 0 0 -2.10067950371204 -1.99128570442186 0
0 0 0 0 0 0.330230404385923 0 0 0 0 0 0 0 0 0 0 0 0 -0.326898881441183 0 -3.00537197607986 0 0 0 0 0 0 0 0 0 0 0 0 0 0 0 -0.202144680738992 0 0 -0.561936686078894 0 0 0 0 0 0 0 0 0 0
0 0 0 0 0 0 0 0.239863942898404 0 0 0 0 0 0.0815229140713038 0 0 0.117747846724332 0 0 -0.326898881441183 0 0 0 0 0 0 0 0 0 0 0 0 0 0 0 -0.464272337416628 0 0 0 0 0 0 0 -0.696260564817889 0 0 0 0 -0.94138256105338 0
0 0 0.0202397297345621 0 0 0 0 0 0 0 0 0 0 0 0 0.142523848882732 0 0 0.601470413280297 0 -0.326898881441183 0 0 0 0 0 0 0 0 0 0 0 0 0 0 0 0 0 0 0 0 0 0 0 0 0 0 0 0 0
0 0 0 0 0 0 0.647856263016936 0 0 0 0 0 0 0 0 0 0 0 0 0 0 -0.326898881441183 0 0 0 0 0 0 0 -0.261032010242113 0 0 0 0 -2.67463944622529 0 0 -0.587502415808446 0 0 0 -1.74561101125936 -1.59867312837859 -1.29070580498373 0 0 0 0 0 0
0 0 0 0 0 0 0 0 0 0 0 0 0.284213176907843 0 0 0 0 0 0 0 0 0 -0.326898881441183 0 0 -2.15321135994841 0 0 0 0 0 -0.721342897925708 0 0 -3.37205490999873 0 0 0 0 0 0 0 0 0 0 0 0 0 0 0
0 0 0 0 0 0 0 0 0 0 0 0 0 0 0 0 0.0852120515705903 0 0 0 0 0 0 -0.326898881441183 0 0 0 0 0 0 -0.992838301531966 0 0 0 0 0 0 0 0 0 0 0 0 0 0 0 0 0 0 0
0 0 0 0 0 0 0 0 0 0 0 0 0 0 0 0 0 0 0 0 0 0 0 0 -0.326898881441183 0 0 -2.02399163139472 0 0 0 0 0 0 0 0 0 -0.375679755485198 0 0 0 0 0 0 0 0 0 0 -1.74700433166631 0
0 0 0.301286959026804 0 0 0 0 0.337703717579078 0 0 0 0 0.243369211662506 0 0 0.0712388836437637 0 0.182893523387764 0 0 0 0 0.440682733269599 0 0 -0.326898881441183 -0.392045622101869 0 0 0 0 0 0 0 0 0 0 0 -3.18795280995642 0 0 0 0 0 0 0 0 0 0 0
0 0 0 0 0 0 0 0.480845432991379 0 0 0 0 0 0 0.0288379100212555 0 0 0 0 0 0 0 0 0 0 0.0822259092751296 -0.326898881441183 0 0 -0.280617503245547 0 0 0 0 0 0 0 0 0 -0.220533231974311 0 0 0 0 0 0 0 0 0 0
0 0 0 0 0 0 0 0 0 0 0 0 0 0 0 0 0 0 0 0 0 0 0 0 0.414634143750752 0 0 -0.326898881441183 0 0 0 0 0 -0.606427960529168 0 0 0 0 0 0 0 0 0 0 0 0 0 0 0 0
0 0 0.0740623116138 0 0 0 0 0 0.0367571427899418 0 0.328553012947155 0 0 0 0 0 0 0 0 0 0 0 0 0 0 0 0 0 -0.326898881441183 0 -5.24908104181538 0 0 0 0 0 -2.14498426771642 0 0 0 0 0 0 0 0 0 0 -0.616567412408725 0 0
0 0 0 0 0.0355891554295915 0 0 0.298886844491752 0 0 0 0 0 0 0 0 0 0.108112816957343 0 0 0 0.0591041308504208 0 0 0 0 0.0561513883027171 0 0 -0.326898881441183 0 0 0 0 0 0 0 0 0 0 0 0 0 0 0 0 0 0 0 0
0 0 0 0.545888598796984 0 0 0 0 0 0 0 0 0 0 0 0 0 0 0 0 0 0 0 0.199529710768889 0 0 0 0 1.02062572219801 0 -0.326898881441183 0 0 0 -1.09461502227336 -2.07193767881911 0 0 0 0 -1.08958715718745 0 0 0 0 0 -0.236584018305715 0 0 0
0 0 0.117493960002716 0 0 0 0 0 0 0 0 0 0 0.205787429202719 0 0 0 0 0 0 0 0 0.138845219538304 0 0 0 0 0 0 0 0 -0.326898881441183 0 0 0 -0.529363795007819 0 0 0 0 0 0 0 0 0 0 0 0 0 0
0 0 0 0 0 0 0 0 0 0 0 0 0 0 0 0 0 0 0 0 0 0 0 0 0 0 0 0 0 0 0 0 -0.326898881441183 0 0 -0.563473198195938 0 0 0 0 0 0 0 0 0 0 -0.484457240984004 0 0 0
0 0 0.251165783305362 0 0 0 0 0 0 0 0 0 0 0 0 0 0 0 0 0 0 0 0 0 0 0 0 0.123427215730007 0 0 0 0 0 -0.326898881441183 0 -0.111614961457503 -1.93780329100945 0 0 0 0 0 0 0 0 0 -1.17472031714461 0 0 0
0 0 0 0 0 0 0 0 0 0 0 0 0 0.18872223086397 0 0 0 0 0 0 0 0.538667007549505 0.652742277686944 0 0 0 0 0 0 0 0.199147568811595 0 0 0 -0.326898881441183 0 -1.38431399973439 0 -0.670602521338124 0 0 0 0 0 0 0 0 0 0 0
0 0 0 0.400152608034414 0 0 0 0 0 0.111303511727346 0 0 0.374391364699899 0 0 0 0 0 0 0.0996278167260087 0 0 0 0 0 0 0 0 0 0 0.419667744125654 0.101295743486512 0.113603173514268 0.0227809696220565 0 -0.326898881441183 0 0 0 0 -1.56694231273754 0 0 0 -0.590718790094747 0 0 0 0 0
0 0 0 0 0 0 0 0 0 0 0 0 0 0 0 0 0 0 0.0377135977335258 0 0 0 0 0 0 0 0 0 0.410364758643312 0 0 0 0 0.357118674802396 0.280230141383441 0 -0.326898881441183 0 0 0 0 0 -4.2193305725841 0 0 0 0 0 -0.612123315233419 0
0 0 0 0 0 0 0 0 0 0 0 0 0 0 0 0 0 0 0 0 0 0.114337442833305 0 0 0.0692826314085769 0 0 0 0 0 0 0 0 0 0 0 0 -0.326898881441183 0 -0.987609006445449 0 0 0 0 0 0 0 0 0 0
0 0 0 0 0 0.683347391505927 0 0 0 0 0 0 0 0 0 0.174217330113599 0 0 0 0 0 0 0 0 0 0.590536536889267 0 0 0 0 0 0 0 0 0.136544282325287 0 0 0 -0.326898881441183 0 0 0 0 0 0 0 0 0 0 0
0 0 0.738057665855595 0 0 0 0.0878829989320115 0 0 0 0 0 0 0 0 0 0 0 0.117128435360417 0 0 0 0 0 0 0 0.041022653093391 0 0 0 0 0 0 0 0 0 0 0.197995239271581 0 -0.326898881441183 0 0 0 0 0 -2.64158935570433 0 0 0 0
0.412960413903226 0 0 0 0 0 0 0 0 0 0 0 0 0 0 0 0 0 0 0 0 0 0 0 0 0 0 0 0 0 0.213168259298187 0 0 0 0 0.317649443389972 0 0 0 0 -0.326898881441183 0 0 0 0 0 -0.316263059447111 0 0 0
0 0 0 0 0 0.0400798546170854 0 0.443312994466767 0 0.226653742885119 0 0 0 0.060760008183959 0 0 0.0299894730837006 0 0 0 0 0.332085718392451 0 0 0 0 0 0 0 0 0 0 0 0 0 0 0 0 0 0 0 -0.326898881441183 0 -0.923551631218786 0 -1.59090179832364 0 0 0 0
0 0 0 0 0.567311329593277 0 0 0 0 0 0 0 0 0 0 0 0 0 0 0 0 0.318952760623923 0 0 0 0 0 0 0 0 0 0 0 0 0 0 0.870491238255106 0 0 0 0 0 -0.326898881441183 0 -0.233552575629685 0 0 0 0 0
0 0 0 0 0 0.0467883861043477 0 0 0 0 0 0.248883000337568 0 0 0 0 0 0 0 0.150614425728266 0 0.263405947571931 0 0 0 0 0 0 0 0 0 0 0 0 0 0 0 0 0 0 0 0.184847692777366 0 -0.326898881441183 0 -4.0225882339938 0 0 0 0
0 0 0 0 0 0 0 0 0 0 0 0 0 0 0 0 0 0 0 0 0 0 0 0 0 0 0 0 0 0 0 0 0 0 0 0.117870261692404 0 0 0 0 0 0 0.0498233538000891 0 -0.326898881441183 0 0 0 0 0
0 0 0.812086363079853 0 0 0 0.255809178028811 0.146326576770235 0 0 0 0 0 0 0 0 0 0 0 0 0 0 0 0 0 0 0 0 0 0 0 0 0 0 0 0 0 0 0 0.566520684471444 0 0.33446120916247 0 0.835878153964096 0 -0.326898881441183 0 0 0 0
0.33423108460874 0 0 0 0 0 0 0 0 0 0 0 0 0 0 0 0 0 0 0 0 0 0 0 0 0 0 0 0 0 0.0463094564775473 0 0.0981031358895325 0.248580294197008 0 0 0 0 0 0 0.06722831221065 0 0 0 0 0 -0.326898881441183 0 0 0
0 0 0 0 0 1.02441494666305 0 0 0 0.106292957374199 0 0 0 0 0 0 0 0.434980335989126 0 0 0 0 0 0 0 0 0 0 0.122566591788305 0 0 0 0 0 0 0 0 0 0 0 0 0 0 0 0 0 0 -0.326898881441183 0 -0.790623887574925
0 0 0 0 0 0 0 0 0 0.126569477039291 0 0.0183066064977404 0 0 0 0 0 0.380460166278488 0 0.203865965868919 0 0 0 0 0.36139704658599 0 0 0 0 0 0 0 0 0 0 0 0.125800013107683 0 0 0 0 0 0 0 0 0 0 0 -0.326898881441183 0
0 0 0 0 0 0 0 2.25653652117087 0 0 0.0542622534866568 0.0297411189354702 0 0 0 0 0 0 0 0 0 0 0 0 0 0 0 0 0 0 0 0 0 0 0 0 0 0 0 0 0 0 0 0 0 0 0 0.157267450312633 0 -0.326898881441183
