0.112710684431381
0.359367132229138
0.769764658710212
0.191064060862213
0.827754660041232
0.164513031491095
3.79094207576024
0.466920517591931
4.23988346285278
2.00756082560545
2.94352706885996
1.42933802512969
0.966966444649922
0.794680767547378
0.530799223089734
0.323838051684784
0.44222934418719
0.244407683147007
1.00207900950148
0.52327103134513
0.274219450612796
1.03748057423174
0.359944900362973
0.519426941655666
0.0445225277240928
0.408496164105491
3.93878153413092
3.70346358823769
0.185156375349218
3.47617305618192
0.597857943534828
0.781374264025435
4.71736851119708
1.61090581983931
1.00511681395647
0.649711326255747
3.41451188073943
0.520493954171483
0.839669762619604
2.87262587020038
0.187484016135589
5.76116293060476
4.51422515187261
1.46552970685794
1.30894916563518
2.52163952347843
0.263984960772715
1.03926363681504
0.275415260622495
4.83335342499137
