-0.77188344785186 0 0 -1.96154318354614 0 0 0 0 -0.283198527766437 0 -1.40594501847307 -1.65156699683 0 -1.13229173869526 0 0 0 -0.576223658468536 0 0 -3.60298342557662 0 0 0 0 0 0 0 0 0 0 0 0 0 0 0 0 0 0 0 0 0 0 0 0 -2.7791569040746 0 -0.801165087753117 0 0
0 -0.77188344785186 0 0 -0.881084637828455 0 0 0 0 0 0 0 0 0 0 0 0 0 0 0 0 -0.17355922747292 0 0 0 0 -3.33637098321269 0 0 0 -0.365413924120018 0 -0.321018145303369 0 0 0 0 0 0 0 0 0 0 0 0 0 0 -1.09169273126681 0 0
0 0 -0.77188344785186 0 0 0 0 0 0 0 0 0 0 0 -2.5321987082437 0 -1.71360637619998 0 0 0 -1.33562010857244 -6.27704877266544 0 0 0 0 0 0 0 0 0 0 0 -0.394777070523484 0 0 0 0 0 0 0 0 0 0 0 -1.21480900401817 0 0 0 0
0.411373047271386 0 0 -0.77188344785186 0 0 0 0 0 0 0 0 0 0 0 0 0 0 0 0 -0.401114660370387 0 0 0 0 -0.260196344481952 0 0 0 0 0 0 0 0 0 0 0 0 -2.76670861709905 -2.72165246834864 -1.03538637631918 0 0 -0.391754031670375 0 0 0 0 0 0
0 0.177100201507191 0 0 -0.77188344785186 0 0 0 0 0 -1.62600401749843 0 0 0 0 -1.16417621968854 0 0 0 0 0 0 0 0 -1.07265530813645 0 0 0 0 -0.447612110063868 0 0 0 0 0 0 0 -0.842086633189037 0 0 0 0 0 0 0 -3.18809167673039 0 0 0 0
0 0 0 0 0 -0.77188344785186 -0.674442703915147 0 0 0 0 0 0 0 0 0 0 0 0 0 0 0 0 0 0 0 0 0 0 0 0 0 0 0 0 0 0 0 0 0 0 0 0 0 0 0 0 0 0 0
0 0 0 0 0 0.13754508563547 -0.77188344785186 0 0 0 0 0 -0.938919100798717 0 0 0 -0.514545941417053 0 0 -1.87444227479169 0 0 0 -0.192497780499748 0 0 -2.38717799237439 0 0 -0.402114443463009 0 0 0 0 0 0 0 0 0 0 0 0 0 0 0 0 0 -1.46435227945317 0 -1.82893981674192
0 0 0 0 0 0 0 -0.77188344785186 0 0 0 0 0 -3.48207440269914 0 0 0 -1.24884745484592 0 0 -1.39330653146052 0 0 0 0 0 0 0 0 0 0 0 -1.50666778588394 0 0 0 0 -0.724600226688417 0 0 0 0 0 0 0 0 0 0 0 0
0.0557173144370911 0 0 0 0 0 0 0 -0.77188344785186 0 0 -0.0743296324737978 0 0 0 0 0 0 0 0 0 0 0 0 -0.739078237148477 -0.179737582394063 0 0 0 -0.116126707938282 0 -2.68491793546768 0 0 0 0 0 -0.292272753901484 0 0 0 0 0 0 0 0 0 0 0 0
0 0 0 0 0 0 0 0 0 -0.77188344785186 0 0 -0.266620381270642 0 0 -1.37597146127872 0 0 -2.23433616177313 0 0 0 0 0 0 0 0 0 0 0 0 0 0 0 0 -1.22244509605344 0 0 0 0 0 0 0 0 0 0 0 0 0 -0.524738526841145
0.299220324628302 0 0 0 0.354786965444561 0 0 0 0 0 -0.77188344785186 0 0 0 0 0 0 0 0 0 -3.67800634367176 0 0 0 0 0 0 0 0 0 0 0 0 0 0 0 0 0 0 0 0 0 0 -0.755685007654151 0 0 0 -0.234515125440362 0 0
0.352415976200316 0 0 0 0 0 0 0 0.0145849894275553 0 0 -0.77188344785186 -2.55441524251224 0 0 0 0 0 0 0 0 0 0 0 0 0 0 0 0 -1.57612915116222 0 0 0 0 0 0 0 0 0 -0.828502972841288 0 0 0 0 0 -0.222923997453602 0 0 0 0
0 0 0 0 0 0 0.163546846898507 0 0 0.054428597345446 0 0.529818039999984 -0.77188344785186 0 0 0 0 -0.78455007610436 0 0 0 0 0 -1.03985619837721 0 0 0 0 0 0 0 0 0 0 0 -1.50789701539421 0 0 0 -2.64686060190059 0 0 0 0 -2.78119142684068 0 0 0 0 0
0.222286770282547 0 0 0 0 0 0 0.715926805373333 0 0 0 0 0 -0.77188344785186 0 0 0 0 0 0 0 0 -1.53292435245915 0 -1.56305658554423 0 -7.70025830077743 0 0 0 0 0 0 0 0 0 0 0 0 0 -0.90598189770543 0 -0.197562321943624 0 0 0 0 0 0 0
0 0 0.526084109710383 0 0 0 0 0 0 0 0 0 0 0 -0.77188344785186 -0.786567676076048 0 -0.56175632783682 0 0 0 -2.96234739786642 0 0 0 0 0 0 0 0 0 0 0 0 0 0 0 -0.680451972564346 0 0 -0.695622038594469 0 0 0 0 0 0 -1.08995651615709 0 0
0 0 0 0 0.21567914699254 0 0 0 0 0.267161592319108 0 0 0 0 0.160483393096124 -0.77188344785186 0 0 0 0 0 0 0 0 0 0 -4.41681083704903 0 0 0 0 0 -1.22512113669081 0 0 0 0 0 0 0 0 0 0 0 0 0 0 0 0 0
0 0 0.328190939033811 0 0 0 0.112293605795286 0 0 0 0 0 0 0 0 0 -0.77188344785186 0 0 0 0 -1.25314160752862 0 0 0 -0.924671140525441 0 0 0 -0.786974409687651 0 0 0 0 0 0 0 0 0 0 0 0 0 0 0 0 0 0 0 0
0.108055821561459 0 0 0 0 0 0 0.258064872552357 0 0 0 0 0.15032954574497 0 0.128437123347747 0 0 -0.77188344785186 0 0 0 0 0 0 0 0 0 0 0 0 0 0 0 0 0 0 0 0 0 0 0 0 0 0 0 0 0 -10.9834139632286 0 0
0 0 0 0 0 0 0 0 0 0.447754616586397 0 0 0 0 0 0 0 0 -0.77188344785186 0 0 0 0 0 0 0 -0.322593946066233 0 0 0 0 0 0 -1.24468453612833 0 0 0 0 0 0 0 0 0 0 0 0 0 0 0 0
0 0 0 0 0 0 0.352276322901805 0 0 0 0 0 0 0 0 0 0 0 0 -0.77188344785186 0 0 0 0 0 0 0 0 0 0 -1.46709177323734 -0.321596175437085 0 0 0 0 0 0 0 0 0 -1.35879726313119 0 0 0 0 0 0 0 0
0.669762581560052 0 0.267421164029511 0.0876389908880966 0 0 0 0.259772194756611 0 0 0.723768827027444 0 0 0 0 0 0 0 0 0 -0.77188344785186 0 0 0 0 0 0 0 0 0 0 0 0 0 0 0 -0.534732467242354 0 0 0 0 0 0 0 0 0 -9.27503441158373 -4.20609841874196 0 0
0 0.0355584547562681 1.32571538269408 0 0 0 0 0 0 0 0 0 0 0 0.583431009977601 0 0.263633009104873 0 0 0 0 -0.77188344785186 0 0 0 -1.08482928610304 0 0 0 0 0 -0.199109338083826 0 0 0 0 0 0 0 0 0 0 0 0 0 0 -1.99296867809027 0 0 0
0 0 0 0 0 0 0 0 0 0 0 0 0 0.285375275847113 0 0 0 0 0 0 0 0 -0.77188344785186 0 -0.687782885200863 -0.445025388135501 0 0 0 0 -5.14868829610127 0 0 0 0 0 0 -0.683232959765433 0 0 0 -1.7672729150206 0 0 0 0 0 0 0 0
0 0 0 0 0 0 0.0367815646098814 0 0 0 0 0 0.203906728813859 0 0 0 0 0 0 0 0 0 0 -0.77188344785186 0 0 0 -0.39679658679962 0 0 0 0 0 0 0 0 0 0 0 0 0 0 0 -0.67284764366541 0 0 0 -1.72207593694732 0 0
0 0 0 0 0.224321541263722 0 0 0 0.148663348340855 0 0 0 0 0.312207228169518 0 0 0 0 0 0 0 0 0.146287554816483 0 -0.77188344785186 0 0 0 0 0 0 0 0 0 0 0 0 0 0 -0.101990159940102 -2.1788062958834 0 0 0 0 0 0 0 -0.933996653194381 0
0 0 0 0.0511927620015361 0 0 0 0 0.0377496344681602 0 0 0 0 0 0 0 0.177583516039458 0 0 0 0 0.217073650043849 0.0886266313770412 0 0 -0.77188344785186 0 0 -3.59748600426084 0 0 0 0 0 0 0 0 0 0 0 0 0 0 0 0 -3.36132727090424 0 0 0 0
0 0.668003745706808 0 0 0 0 0.519671528428335 0 0 0 0 0 0 1.53205623994907 0 0.820112157781082 0 0 0.0645101278419006 0 0 0 0 0 0 0 -0.77188344785186 0 0 0 0 0 0 0 -3.31960531521817 0 0 0 -1.90046901269534 0 0 0 0 0 0 0 0 -0.590705349484653 0 0
0 0 0 0 0 0 0 0 0 0 0 0 0 0 0 0 0 0 0 0 0 0 0 0.0751792923787565 0 0 0 -0.77188344785186 0 0 0 0 0 0 0 -0.677465607237216 -0.298207206308859 -0.973003384643543 0 -0.225398878985863 0 0 0 0 0 -1.26962140723406 0 0 0 0
0 0 0 0 0 0 0 0 0 0 0 0 0 0 0 0 0 0 0 0 0 0 0 0 0 0.750562558404809 0 0 -0.77188344785186 0 0 0 0 0 0 0 0 -0.427837340529219 0 0 0 0 0 0 0 0 -4.63040429835914 0 0 0
0 0 0 0 0.0863927087826532 0 0.075024540502698 0 0.0224174132224977 0 0 0.301717649459554 0 0 0 0 0.161901884020937 0 0 0 0 0 0 0 0 0 0 0 0 -0.77188344785186 0 0 0 0 0 0 0 0 0 -2.83220900479565 0 0 0 0 0 0 0 0 0 0
0 0.068239799627095 0 0 0 0 0 0 0 0 0 0 0 0 0 0 0 0 0 0.292438283424016 0 0 0.971412169440082 0 0 0 0 0 0 0 -0.77188344785186 0 0 0 0 0 0 0 0 0 -2.32225248537085 0 0 0 0 0 0 0 0 0
0 0 0 0 0 0 0 0 0.529354546345811 0 0 0 0 0 0 0 0 0 0 0.0710563647080843 0 0.0393794267738771 0 0 0 0 0 0 0 0 0 -0.77188344785186 0 0 0 0 0 0 0 0 -0.72025098672546 0 0 0 0 0 0 -0.526249859601823 -0.967258111077849 -0.516101307522647
0 0.0628255727549527 0 0 0 0 0 0.303605433357518 0 0 0 0 0 0 0 0.229672565193226 0 0 0 0 0 0 0 0 0 0 0 0 0 0 0 0 -0.77188344785186 0 0 0 0 0 0 0 0 0 0 0 0 0 -0.31466324008249 0 -0.45075623560973 0
0 0 0.0817716317860529 0 0 0 0 0 0 0 0 0 0 0 0 0 0 0 0.251699857331875 0 0 0 0 0 0 0 0 0 0 0 0 0 0 -0.77188344785186 0 0 0 0 0 0 0 0 0 0 0 0 -3.24420743970884 0 0 0
0 0 0 0 0 0 0 0 0 0 0 0 0 0 0 0 0 0 0 0 0 0 0 0 0 0 0.71046560073363 0 0 0 0 0 0 0 -0.77188344785186 0 0 0 0 0 0 0 0 0 0 0 0 0 0 0
0 0 0 0 0 0 0 0 0 0.241200513225922 0 0 0.329865216659644 0 0 0 0 0 0 0 0 0 0 0 0 0 0 0.134910807432823 0 0 0 0 0 0 0 -0.77188344785186 0 0 0 0 0 0 0 0 0 0 0 0 0 0
0 0 0 0 0 0 0 0 0 0 0 0 0 0 0 0 0 0 0 0 0.106225783077781 0 0 0 0 0 0 0.0619683475981269 0 0 0 0 0 0 0 0 -0.77188344785186 0 0 0 0 0 0 0 0 0 0 0 0 0
0 0 0 0 0.161510159926742 0 0 0.141557745656055 0.0622485210845658 0 0 0 0 0 0.138124037853022 0 0 0 0 0 0 0 0.139031145386077 0 0 0 0 0.185806627229567 0.0893950809336493 0 0 0 0 0 0 0 0 -0.77188344785186 -0.939504345084807 -3.73332265648971 0 0 0 0 0 0 0 0 0 0
0 0 0 0.589039992832131 0 0 0 0 0 0 0 0 0 0 0 0 0 0 0 0 0 0 0 0 0 0 0.372018036010887 0 0 0 0 0 0 0 0 0 0 0.195189704544343 -0.77188344785186 0 0 0 0 0 0 0 0 0 0 0
0 0 0 0.540342767597135 0 0 0 0 0 0 0 0.167258420970287 0.538855547715511 0 0 0 0 0 0 0 0 0 0 0 0.0191571234555044 0 0 0.0479193534903426 0 0.567124211761589 0 0 0 0 0 0 0 0.72827405398681 0 -0.77188344785186 0 0 0 -3.65188211767315 0 0 0 0 0 0
0 0 0 0.216011706543267 0 0 0 0 0 0 0 0 0 0.180947681242187 0.141204291318678 0 0 0 0 0 0 0 0 0 0.447723280116401 0 0 0 0 0 0.456069032081634 0.130000677326445 0 0 0 0 0 0 0 0 -0.77188344785186 0 0 0 0 -2.4520680679933 0 -0.142496122579365 0 0
0 0 0 0 0 0 0 0 0 0 0 0 0 0 0 0 0 0 0 0.298897642524511 0 0 0.360008000934336 0 0 0 0 0 0 0 0 0 0 0 0 0 0 0 0 0 0 -0.77188344785186 0 0 0 -0.348672623552419 0 0 0 0
0 0 0 0 0 0 0 0 0 0 0 0 0 0.0379390727939346 0 0 0 0 0 0 0 0 0 0 0 0 0 0 0 0 0 0 0 0 0 0 0 0 0 0 0 0 -0.77188344785186 0 0 0 0 0 0 0
0 0 0 0.0800763810487273 0 0 0 0 0 0 0.145953867914965 0 0 0 0 0 0 0 0 0 0 0 0 0.139076833512657 0 0 0 0 0 0 0 0 0 0 0 0 0 0 0 0.712802741864848 0 0 0 -0.77188344785186 0 0 0 -0.577008277001289 0 0
0 0 0 0 0 0 0 0 0 0 0 0 0.5675566195249 0 0 0 0 0 0 0 0 0 0 0 0 0 0 0 0 0 0 0 0 0 0 0 0 0 0 0 0 0 0 0 -0.77188344785186 0 0 -3.20307642190028 0 0
0.500019920834453 0 0.224483172016448 0 0.664214453090154 0 0 0 0 0 0 0.0390580809930925 0 0 0 0 0 0 0 0 0 0 0 0 0 0.617187254043639 0 0.241176930396876 0 0 0 0 0 0 0 0 0 0 0 0 0.482957879418586 0.0661883914191903 0 0 0 -0.77188344785186 0 0 0 -0.263356207528907
0 0 0 0 0 0 0 0 0 0 0 0 0 0 0 0 0 0 0 0 1.95788355883945 0.401532749782461 0 0 0 0 0 0 0.853186398447313 0 0 0 0.0659561982469057 0.651541033768999 0 0 0 0 0 0 0 0 0 0 0 0 -0.77188344785186 0 0 0
0.150670060668633 0.209318250845465 0 0 0 0 0.288425586402175 0 0 0 0.0497083577873912 0 0 0 0.217824676966242 0 0 2.26144827563214 0 0 0.911462691593742 0 0 0.34849111889469 0 0 0.114493728664495 0 0 0 0 0.103880317002835 0 0 0 0 0 0 0 0 0.0279242001574252 0 0 0.124729413466998 0.587182251835221 0 0 -0.77188344785186 0 0
0 0 0 0 0 0 0 0 0 0 0 0 0 0 0 0 0 0 0 0 0 0 0 0 0.193722023569241 0 0 0 0 0 0 0.187197332311013 0.0991998163375291 0 0 0 0 0 0 0 0 0 0 0 0 0 0 0 -0.77188344785186 0
0 0 0 0 0 0 0.347396011562848 0 0 0.103345271156978 0 0 0 0 0 0 0 0 0 0 0 0 0 0 0 0 0 0 0 0 0 0.10301495108039 0 0 0 0 0 0 0 0 0 0 0 0 0 0.0524391791640796 0 0 0 -0.77188344785186
