0.263110916340932
0.757133377340882
0.703901869407527
0.128493832851796
0.505725314408019
1.27398623487095
0.159299406340596
0.215527498186893
1.2764908995873
1.74291256462831
0.561763391304103
0.281859662052046
1.24813670863701
1.4084277294071
0.145940837736958
0.510248811889176
3.47110748978799
1.28851691003969
0.542282213138331
0.730474541523075
1.06157298240832
5.6870096318735
0.415801006601483
0.31996205850838
1.12960149542848
7.32722685600176
4.07534915504176
0.875105263863704
0.875149462131194
1.90736349353556
0.384703441284221
3.88000043672065
1.97669940106223
2.07987549597156
0.232399530721937
2.43305330035514
3.76503884049314
2.07519072461617
3.16432019058875
0.276907508259722
0.825560339181445
1.60387982411425
0.144871508203293
0.352884674152537
0.327347578830551
2.58150887390533
0.183535957277376
1.94854036624545
2.10659839260941
0.349868889319648
