-0.225534960798023 0 0 0 0 0 0 0 0 0 0 0 0 0 0 0 0 0 0 0 0 0 -0.494444183519592 0 0 0 0 0 0 0 0 0 -0.258537201560506 0 0 0 -1.86282781962246 0 0 -0.387681174602234 0 0 0 0 0 0 0 0 0 0
0 -0.225534960798023 0 0 0 0 0 0 0 0 0 0 0 0 0 0 0 -2.43523558759031 0 0 0 0 0 0 0 0 0 0 0 0 0 -2.14529761854902 0 0 0 0 -0.140902276767241 0 0 0 0 0 0 0 0 0 0 0 0 0
0 0 -0.225534960798023 0 0 0 0 0 0 0 0 0 0 0 0 0 0 0 0 0 0 0 0 0 0 0 -0.302493920098721 0 0 0 -0.776618719804229 0 0 0 0 0 0 0 0 0 0 0 0 0 0 -2.52695524252594 0 0 0 0
0 0 0 -0.225534960798023 0 0 0 0 0 0 0 0 -2.32670575843241 -1.36647026757824 -3.30505719881516 0 0 0 0 0 0 0 0 -4.48613970361485 0 0 0 0 0 0 0 -0.140612267286017 0 0 0 0 0 0 0 0 0 0 0 0 0 0 0 0 0 -0.209080135560197
0 0 0 0 -0.225534960798023 0 0 0 0 0 -2.05021851025814 0 0 0 0 -2.05314677560894 0 -0.192374705147435 0 0 0 -0.95652106017804 0 0 0 0 0 0 0 0 0 0 -1.56652944931828 0 0 0 0 0 0 0 0 0 0 0 0 0 0 0 0 0
0 0 0 0 0 -0.225534960798023 0 0 0 0 0 -1.6405187540515 0 0 0 0 0 0 0 0 0 0 0 -0.500727838734299 0 0 0 0 0 0 0 0 0 0 0 0 0 0 0 0 0 0 0 0 0 0 -1.34122104605008 0 0 0
0 0 0 0 0 0 -0.225534960798023 0 0 0 -1.11719158397737 0 0 0 0 0 0 -1.97504103827323 0 0 -0.838174566545252 0 0 0 0 0 0 -0.618638034073804 0 0 0 0 0 0 0 0 0 0 0 0 0 0 -0.557487956299872 0 0 0 0 0 0 0
0 0 0 0 0 0 0 -0.225534960798023 0 0 0 0 0 0 0 0 0 0 0 0 0 0 0 -0.690728211866064 0 -3.12096212480152 0 0 0 0 0 0 0 0 0 0 0 0 0 0 0 0 0 0 0 0 -0.0607532596461591 0 0 0
0 0 0 0 0 0 0 0 -0.225534960798023 0 0 0 0 -0.112498656853459 0 0 0 -0.77107222204962 0 0 -0.590475746111613 0 0 0 0 0 0 0 0 0 0 0 0 0 0 0 0 0 0 0 0 0 0 0 0 0 0 0 0 0
0 0 0 0 0 0 0 0 0 -0.225534960798023 0 -6.02857362300033 0 0 0 0 0 -3.48163552555606 0 0 0 0 0 -1.61174810318162 0 0 0 0 0 0 -3.60485432216449 0 0 0 0 0 0 0 0 0 0 0 -1.79563801432513 0 0 0 0 0 0 0
0 0 0 0 0.400280807463016 0 0.208205766553298 0 0 0 -0.225534960798023 0 0 0 0 0 0 0 0 0 0 -2.49890593768257 0 0 0 0 0 0 0 0 0 0 0 0 0 0 0 0 0 0 0 0 0 0 0 0 0 0 0 0
0 0 0 0 0 0.321947170474076 0 0 0 1.23127975897268 0 -0.225534960798023 0 0 0 0 0 -0.441694713347748 0 0 0 0 0 0 -0.335495831085589 0 0 0 0 0 0 0 0 0 0 0 0 -0.214310996747243 0 0 -2.50237544225116 0 0 0 0 -0.285348106113349 0 0 0 0
0 0 0 0.492523878684932 0 0 0 0 0 0 0 0 -0.225534960798023 0 0 0 0 0 0 0 0 0 0 0 0 0 0 0 0 0 0 0 0 0 0 0 0 0 0 0 0 0 0 0 0 0 0 0 0 0
0 0 0 0.266052280039381 0 0 0 0 0.0220073878370888 0 0 0 0 -0.225534960798023 0 0 0 0 0 0 0 0 0 0 0 -0.599839608953847 0 0 0 0 0 0 0 0 0 0 0 0 -6.19527923312862 0 0 0 0 0 0 0 0 -1.51249351122807 0 0
0 0 0 0.671724378199255 0 0 0 0 0 0 0 0 0 0 -0.225534960798023 0 0 0 0 0 0 0 0 0 0 0 0 0 0 0 0 0 0 0 0 -0.84493048021161 0 0 0 0 0 0 0 0 -1.02353144149796 0 0 0 -2.93922954668406 0
0 0 0 0 0.430409866341233 0 0 0 0 0 0 0 0 0 0 -0.225534960798023 0 0 0 -0.754658760351451 -0.237556711291674 -2.90702475240684 0 0 0 0 0 0 0 0 0 0 0 0 0 0 -0.349024808942891 0 -0.144727932257619 0 0 0 0 0 0 -0.304391877063847 0 0 0 0
0 0 0 0 0 0 0 0 0 0 0 0 0 0 0 0 -0.225534960798023 0 0 -8.79309581552533 0 0 0 0 0 0 0 0 -3.38447774972596 0 -2.73399264229873 0 0 0 0 0 0 0 0 -0.748144961647495 0 0 0 0 0 0 0 -0.430125905587279 0 0
0 0.46341004681926 0 0 0.0373118399598123 0 0.402436061440136 0 0.148096297044179 0.745213474760075 0 0.0874910369960667 0 0 0 0 0 -0.225534960798023 0 0 0 0 0 0 -1.18020786882699 -1.2944844744812 0 0 0 -1.85438542359302 0 0 0 -1.03817262784956 0 0 0 0 0 0 0 0 0 0 0 0 -0.291844056976862 0 -0.816848758829137 0
0 0 0 0 0 0 0 0 0 0 0 0 0 0 0 0 0 0 -0.225534960798023 0 0 -0.933042071994559 0 0 0 -1.83415289716254 0 0 0 0 0 0 -7.38274628408793 0 0 0 0 0 -3.65928130420494 0 0 0 0 0 0 -2.00984851598184 0 0 0 0
0 0 0 0 0 0 0 0 0 0 0 0 0 0 0 0.151815628398685 1.83152910073121 0 0 -0.225534960798023 0 0 0 0 0 0 0 0 0 0 0 0 0 0 0 0 0 0 -5.63759092161704 0 -2.0307251517791 0 0 0 0 0 0 -1.4027014828578 0 0
0 0 0 0 0 0 0.168741098130427 0 0.115908221415845 0 0 0 0 0 0 0.0473695036233521 0 0 0 0 -0.225534960798023 0 0 0 0 0 -0.70230910445141 0 0 0 0 0 0 0 0 0 0 0 -1.00393632213131 0 0 0 0 -0.267984093648288 0 0 0 0 0 0
0 0 0 0 0.196831316745294 0 0 0 0 0 0.48900120679919 0 0 0 0 0.602681252644415 0 0 0.176054344905668 0 0 -0.225534960798023 0 0 0 -5.82891467208983 0 0 0 0 0 0 0 0 0 -0.557061318774826 0 0 0 0 0 0 0 0 0 0 -2.11900378705321 0 0 0
0.101068192785062 0 0 0 0 0 0 0 0 0 0 0 0 0 0 0 0 0 0 0 0 0 -0.225534960798023 0 -1.05908739864221 -1.58981979538644 0 0 0 0 0 0 0 0 0 0 0 0 -1.47789612449162 0 0 0 0 0 0 0 0 0 0 0
0 0 0 0.891652184769032 0 0.0936219664718988 0 0.140416071646015 0 0.33087597042598 0 0 0 0 0 0 0 0 0 0 0 0 0 -0.225534960798023 0 0 0 0 0 0 0 0 0 0 -0.891612058814389 0 0 0 0 0 0 -1.66678016671483 0 -0.252928445498916 0 0 0 0 0 0
0 0 0 0 0 0 0 0 0 0 0 0.0660828112656769 0 0 0 0 0 0.237231220638521 0 0 0 0 0.202313223203135 0 -0.225534960798023 0 0 0 0 0 0 0 0 0 0 0 0 0 0 0 0 0 0 0 0 0 0 0 0 0
0 0 0 0 0 0 0 0.626375620808787 0 0 0 0 0 0.117923913624523 0 0 0 0.258685707524171 0.360276924070075 0 0 1.26179269987272 0.275623357019684 0 0 -0.225534960798023 0 0 0 0 0 -0.396252943147722 0 0 0 0 0 0 0 0 0 0 0 0 0 0 0 0 0 0
0 0 0.0628378406057948 0 0 0 0 0 0 0 0 0 0 0 0 0 0 0 0 0 0.13767126833211 0 0 0 0 0 -0.225534960798023 0 0 0 0 0 -0.975117537355498 -2.55505584689248 0 -5.32992641620674 0 -5.54593359597475 0 0 0 0 -3.29465398358964 0 0 -0.748730162980862 0 0 0 -0.70304544611736
0 0 0 0 0 0 0.122986024034226 0 0 0 0 0 0 0 0 0 0 0 0 0 0 0 0 0 0 0 0 -0.225534960798023 0 0 0 0 0 0 0 -0.4251827706535 0 0 0 0 0 0 0 0 0 -1.22875315173688 0 0 0 0
0 0 0 0 0 0 0 0 0 0 0 0 0 0 0 0 0.718467416776 0 0 0 0 0 0 0 0 0 0 0 -0.225534960798023 0 0 0 0 -0.099158225371485 -0.382245066769918 0 0 0 0 0 0 0 0 0 0 0 0 0 0 0
0 0 0 0 0 0 0 0 0 0 0 0 0 0 0 0 0 0.387471528203069 0 0 0 0 0 0 0 0 0 0 0 -0.225534960798023 -0.354527775213736 0 0 0 0 0 0 0 0 -1.08007167730673 0 0 0 0 -2.43732628453568 -2.73554236125583 0 0 0 0
0 0 0.143475221479036 0 0 0 0 0 0 0.732699564941243 0 0 0 0 0 0 0.547055525939401 0 0 0 0 0 0 0 0 0 0 0 0 0.0741603830275536 -0.225534960798023 0 0 0 0 0 0 0 0 0 0 0 0 0 0 0 -3.50354566426782 0 0 0
0 0.42757291538193 0 0.0280136012125407 0 0 0 0 0 0 0 0 0 0 0 0 0 0 0 0 0 0 0 0 0 0.0818511127681614 0 0 0 0 0 -0.225534960798023 0 0 0 0 0 0 0 0 -0.512351090550851 -0.153701497971767 0 0 0 0 0 0 0 0
0.0510677363380502 0 0 0 0.307376888148351 0 0 0 0 0 0 0 0 0 0 0 0 0 1.51649460662271 0 0 0 0 0 0 0 0.193226694336674 0 0 0 0 0 -0.225534960798023 -0.841289323329682 0 0 0 0 0 0 0 0 0 0 0 0 -4.72403848468224 0 0 0
0 0 0 0 0 0 0 0 0 0 0 0 0 0 0 0 0 0.218599141772362 0 0 0 0 0 0 0 0 0.488965534105312 0 0.0183069868904262 0 0 0 0.164980400922764 -0.225534960798023 0 0 0 0 0 0 0 0 -1.75295994670601 0 0 0 0 0 0 0
0 0 0 0 0 0 0 0 0 0 0 0 0 0 0 0 0 0 0 0 0 0 0 0.178577988844871 0 0 0 0 0.0749070457632791 0 0 0 0 0 -0.225534960798023 0 0 0 0 0 0 0 0 0 0 -1.17890787532775 0 0 0 0
0 0 0 0 0 0 0 0 0 0 0 0 0 0 0.163603081721244 0 0 0 0 0 0 0.107765837558095 0 0 0 0 1.07627027261416 0.0773188475552161 0 0 0 0 0 0 0 -0.225534960798023 0 -1.82244180451236 0 0 -0.134009012478251 0 0 0 0 0 0 0 0 0
0.357589652050172 0.026834615574923 0 0 0 0 0 0 0 0 0 0 0 0 0 0.0716333699376237 0 0 0 0 0 0 0 0 0 0 0 0 0 0 0 0 0 0 0 0 -0.225534960798023 0 0 0 0 0 0 0 0 0 0 0 0 0
0 0 0 0 0 0 0 0 0 0 0 0.0414337630207571 0 0 0 0 0 0 0 0 0 0 0 0 0 0 1.05490995188909 0 0 0 0 0 0 0 0 0.372307150867764 0 -0.225534960798023 0 0 -3.35005114282117 0 0 -0.263378350599552 0 0 0 -3.5785135229872 0 0
0 0 0 0 0 0 0 0 0 0 0 0 0 1.16783807049274 0 0.0290087695781942 0 0 0.74540465951549 1.12130462650671 0.198438845834832 0 0.284289196574747 0 0 0 0 0 0 0 0 0 0 0 0 0 0 0 -0.225534960798023 -0.873170439945525 0 0 0 0 0 0 0 0 0 0
0.0750346803868996 0 0 0 0 0 0 0 0 0 0 0 0 0 0 0 0.150091468541659 0 0 0 0 0 0 0 0 0 0 0 0 0.205905276197821 0 0 0 0 0 0 0 0 0.195223807508654 -0.225534960798023 0 0 0 0 0 0 -0.323643726127418 0 0 0
0 0 0 0 0 0 0 0 0 0 0 0.518650434020614 0 0 0 0 0 0 0 0.417462761672156 0 0 0 0 0 0 0 0 0 0 0 0.103129221426225 0 0 0 0.0268988806910002 0 0.656048167889104 0 0 -0.225534960798023 0 0 0 0 0 0 0 0 0
0 0 0 0 0 0 0 0 0 0 0 0 0 0 0 0 0 0 0 0 0 0 0 0.318761944478855 0 0 0 0 0 0 0 0.031003278291091 0 0 0 0 0 0 0 0 0 -0.225534960798023 0 0 0 0 0 -1.05313901662172 0 0
0 0 0 0 0 0 0.113540854403889 0 0 0.364836905401505 0 0 0 0 0 0 0 0 0 0 0 0 0 0 0 0 0.660276270416266 0 0 0 0 0 0 0.345444209233617 0 0 0 0 0 0 0 0 -0.225534960798023 -2.76381200625226 0 -0.1450959398033 0 0 0 0
0 0 0 0 0 0 0 0 0 0 0 0 0 0 0 0 0 0 0 0 0.0581606358916844 0 0 0.0518662935193614 0 0 0 0 0 0 0 0 0 0 0 0 0 0.0520161964040096 0 0 0 0 0.560396446735813 -0.225534960798023 0 0 0 0 0 0
0 0 0 0 0 0 0 0 0 0 0 0 0 0 0.194492223702604 0 0 0 0 0 0 0 0 0 0 0 0 0 0 0.524894527379195 0 0 0 0 0 0 0 0 0 0 0 0 0 0 -0.225534960798023 0 0 0 0 0
0 0 0.489770214312379 0 0 0 0 0 0 0 0 0.0592116524062217 0 0 0 0.0571900287937409 0 0 0.413931317444079 0 0 0 0 0 0 0 0.150605236498999 0.265901816207187 0 0.553663159712446 0 0 0 0 0.242657805115109 0 0 0 0 0 0 0 0.0297195471466108 0 0 -0.225534960798023 0 0 0 0
0 0 0 0 0 0.27527126064766 0 0.0124877662292243 0 0 0 0 0 0 0 0 0 0.0580898439423151 0 0 0 0.433499605799799 0 0 0 0 0 0 0 0 0.699401909643072 0 0.993738677344275 0 0 0 0 0 0 0.0606483290828505 0 0 0 0 0 0 -0.225534960798023 0 0 0
0 0 0 0 0 0 0 0 0 0 0 0 0 0.321029862320577 0 0 0.0841472770469296 0 0 0.283014545807067 0 0 0 0 0 0 0 0 0 0 0 0 0 0 0 0 0 0.770239714807375 0 0 0 0.212298608061365 0 0 0 0 0 -0.225534960798023 0 0
0 0 0 0 0 0 0 0 0 0 0 0 0 0 0.601905537497653 0 0 0.162624917479643 0 0 0 0 0 0 0 0 0 0 0 0 0 0 0 0 0 0 0 0 0 0 0 0 0 0 0 0 0 0 -0.225534960798023 0
0 0 0 0.0401707189125826 0 0 0 0 0 0 0 0 0 0 0 0 0 0 0 0 0 0 0 0 0 0 0.123867695850586 0 0 0 0 0 0 0 0 0 0 0 0 0 0 0 0 0 0 0 0 0 0 -0.225534960798023
