2.03452694836432
0.554004792882948
2.97467303285738
0.452395265332258
1.19533822178892
0.669494314295113
0.233699138842624
1.42125424369982
1.98959412419217
0.619158480721364
0.867898475752293
2.7626021534752
1.06286349877605
8.93083612169237
2.98674288412219
0.327976099861593
0.414957911908678
0.265726834776122
0.231547195109094
0.683523093777805
0.471323588088974
0.728689425047561
1.15506601946313
0.614968430959565
0.758234781012991
1.82526786884878
4.09349778412825
0.525960561969154
0.62133039794425
0.63057181331988
0.742621284225708
5.88873633525871
0.78874742333262
7.01815303094333
0.484684630943001
0.399136075703813
1.25703901244795
0.577441982442501
0.188729123567867
1.05559289149085
4.55604090283971
0.308790344681557
1.29503073714966
0.401216462923021
1.31268518400042
0.685757505538947
1.36183310983026
2.36936626927934
0.506327983761995
0.249404986892748
