0.877243772945053
1.06664653358388
0.440149863593829
0.376953821755853
0.247221147129709
0.793529137034284
0.530065369436824
0.27829865895681
4.97215121945261
0.412059642400808
3.04634721648883
0.996959229140959
0.751586207085374
1.15610761281148
1.87779568471783
1.24216724330004
0.436180194017725
0.873694665612959
1.04807754594434
0.995711624390744
0.70567377656954
0.339242496041098
0.303970671849314
1.99543113091477
0.493855565527961
1.55134775896331
0.527611034797651
0.965334290473591
1.92079282612667
0.99486997980921
0.737226215621395
0.473314996486396
1.0294525525249
0.14077524656475
1.38621145987488
3.93667472258499
0.882101237510367
8.15554066845133
1.23977253900948
1.27827808884058
0.737924809217732
1.28542923816168
1.83955026028076
0.117977263824217
0.916412485528299
1.72821138937473
0.413952496755262
1.07128992589327
0.709560162203417
0.562148544946353
