-0.317647919338407 0 0 -1.53290233252597 0 0 0 0 -2.48977033755405 0 0 0 0 0 0 0 0 0 0 0 0 0 0 0 0 0 0 0 0 0 -1.29192597086451 0 0 0 0 0 0 0 0 0 0 0 0 0 0 0 0 0 0 0
0 -0.317647919338407 0 0 0 0 -2.78679947587625 0 0 0 0 0 0 0 0 0 0 0 0 0 0 0 0 0 0 0 0 0 0 0 0 0 0 0 0 0 0 0 0 0 0 0 0 0 0 0 0 0 0 0
0 0 -0.317647919338407 0 0 -0.914593072856033 0 0 0 0 -0.891610723220536 0 0 0 0 0 0 -9.7420184075333 0 0 0 0 0 0 0 -1.04886495253678 -0.487498607708372 0 0 0 0 0 0 0 -0.117878683439533 0 0 0 0 0 -0.93886742741274 0 0 0 0 0 -1.57886000983973 0 0 0
0.317267341986261 0 0 -0.317647919338407 -0.489337427017039 0 -0.835472306137622 0 0 0 0 0 0 -1.13890502448415 0 0 0 0 0 0 0 0 0 0 0 0 -1.6970773968278 -6.96540903133975 0 0 0 -0.908257475912871 0 0 0 0 0 0 0 0 0 0 0 0 0 0 0 0 0 0
0 0 0 0.0913018277487645 -0.317647919338407 0 0 0 0 0 -0.0821965716560151 0 0 -3.16412047458932 0 0 0 0 0 0 0 0 0 0 0 0 0 0 0 0 0 0 0 0 0 0 -2.29803617928684 0 0 0 0 0 0 0 0 0 0 0 -0.517423306373846 0
0 0 0.199776356943507 0 0 -0.317647919338407 0 0 0 0 0 0 0 0 -0.290606582764758 0 -1.30279766653878 -3.80715134408642 0 0 0 0 0 0 0 0 0 0 0 0 0 -0.0645722909233725 0 -3.22636610075112 0 0 -1.88140954415779 0 0 0 0 0 0 0 0 -0.342955268014478 0 0 0 0
0 0.541105243623273 0 0.170107354236651 0 0 -0.317647919338407 0 0 0 0 0 0 0 0 0 0 -1.76387187603816 0 0 0 -0.722697565908411 0 0 0 0 0 0 0 0 0 0 0 0 0 0 0 0 -1.86681886599983 0 0 -0.302754670279387 0 0 0 0 0 0 0 0
0 0 0 0 0 0 0 -0.317647919338407 0 0 -0.790409193076224 0 0 0 0 0 0 0 -1.13193731058034 0 0 0 0 0 0 0 0 -0.334150622864837 0 0 0 0 0 0 0 0 0 0 0 0 0 0 0 0 0 0 0 0 0 0
0.554583227127487 0 0 0 0 0 0 0 -0.317647919338407 0 0 0 0 0 0 -1.11256602889167 0 0 0 0 0 0 0 -0.466464817398665 0 0 0 0 0 0 0 0 0 0 0 0 0 0 0 -0.864362086308573 0 0 0 0 0 0 0 0 0 0
0 0 0 0 0 0 0 0 0 -0.317647919338407 0 0 -3.17296376750952 0 0 0 0 0 0 0 0 -8.96799421829347 0 0 0 0 0 0 0 0 0 0 0 0 0 0 -0.716108329456234 0 0 0 0 0 0 0 0 0 0 0 0 0
0 0 0.175737650993685 0 0.0163729714908834 0 0 0.166521415135781 0 0 -0.317647919338407 0 -1.28248980351467 0 0 -1.46476333903915 0 0 0 0 -3.92720504531825 0 0 0 0 0 0 0 0 0 0 0 0 0 0 0 0 0 -3.15216625105578 -1.13148441896602 0 0 0 0 0 0 0 0 0 0
0 0 0 0 0 0 0 0 0 0 0 -0.317647919338407 0 0 0 0 0 -0.522366439151172 0 0 -0.191355801084915 0 0 0 -1.19942801505761 0 0 0 0 0 0 0 0 0 0 0 0 0 -0.559514364508709 -6.3279798666382 0 0 0 0 -8.97224547221713 0 0 0 0 0
0 0 0 0 0 0 0 0 0 0.585956791507207 0.254794688131476 0 -0.317647919338407 0 0 -0.706420772709931 0 0 0 0 0 0 0 0 0 0 0 -1.34233903484767 0 0 0 0 0 0 -3.28601242334479 0 0 0 0 0 0 0 0 0 0 0 0 -0.167014403516601 0 0
0 0 0 0.221290759865602 0.590233081226899 0 0 0 0 0 0 0 0 -0.317647919338407 0 0 0 0 0 0 0 0 0 -0.438842049977703 0 0 -0.680349011376366 0 0 0 -1.37317757818143 0 0 0 0 0 0 0 0 0 0 0 0 0 0 0 0 0 0 0
0 0 0 0 0 0.0591449995711419 0 0 0 0 0 0 0 0 -0.317647919338407 0 0 -1.19622867925726 0 0 0 0 0 0 0 0 0 0 0 0 0 0 0 -0.802340709322584 0 0 0 0 0 0 0 0 0 0 0 0 0 0 0 0
0 0 0 0 0 0 0 0 0.209674412105818 0 0.286449631119291 0 0.15161260629107 0 0 -0.317647919338407 0 0 0 -2.87305050043049 0 0 0 0 0 0 0 0 0 0 0 0 0 0 0 0 0 0 0 0 0 0 0 0 0 0 0 0 -0.517676571130004 0
0 0 0 0 0 0.257616469524555 0 0 0 0 0 0 0 0 0 0 -0.317647919338407 0 0 -4.02277790212014 0 -3.72369839628536 0 0 0 0 0 0 -1.54455388689985 0 0 -1.85801928562374 0 -0.194550047557737 0 0 0 0 -10.8096618388729 0 0 0 0 -0.721888217225453 0 0 0 0 0 0
0 0 1.90405195726078 0 0 0.791396411982112 0.329929638080242 0 0 0 0 0.097007582338188 0 0 0.235907980794039 0 0 -0.317647919338407 0 0 0 0 0 0 -2.77316045688558 0 0 0 0 0 0 -1.00021759471987 0 0 -2.58320808083766 -9.34330438229481 -7.5976985687164 0 0 0 0 0 0 -1.33803850741177 -1.32099775026875 0 -0.235958393341581 0 0 0
0 0 0 0 0 0 0 0.228077245148409 0 0 0 0 0 0 0 0 0 0 -0.317647919338407 0 0 0 0 0 0 0 0 0 0 0 0 0 -0.826289170984283 0 0 0 0 0 -3.17595163140113 -1.57734903581009 0 0 0 -0.233364303975831 0 0 0 0 -0.292136424043284 0
0 0 0 0 0 0 0 0 0 0 0 0 0 0 0 0.553674983518465 0.816899729888312 0 0 -0.317647919338407 -1.23091858941604 0 0 -0.152141037232005 0 -5.29837483055587 0 0 0 0 0 0 0 0 0 0 0 0 0 0 0 0 0 0 0 0 0 0 0 0
0 0 0 0 0 0 0 0 0 0 0.790419169719149 0.0372406978391801 0 0 0 0 0 0 0 0.259827851214851 -0.317647919338407 0 0 0 0 0 0 0 0 0 0 0 0 0 0 -0.637217839828392 0 0 0 0 0 0 0 0 0 0 0 0 0 0
0 0 0 0 0 0 0.141960306961525 0 0 1.89074794602873 0 0 0 0 0 0 0.744554189571045 0 0 0 0 -0.317647919338407 0 0 0 0 0 0 -0.550614879879468 0 0 0 0 0 0 0 0 0 0 0 0 0 0 0 0 0 0 0 0 0
0 0 0 0 0 0 0 0 0 0 0 0 0 0 0 0 0 0 0 0 0 0 -0.317647919338407 0 0 -0.857410831549558 0 0 0 0 -1.81571068504582 0 0 0 0 0 0 0 0 -1.06038659109008 -0.434210433902197 0 0 0 0 0 0 -0.105824617862764 0 0
0 0 0 0 0 0 0 0 0.0877222260489653 0 0 0 0 0.0835483519865308 0 0 0 0 0 0.0312096471222037 0 0 0 -0.317647919338407 0 0 0 0 0 0 0 0 0 0 0 0 0 0 0 -0.214546085256593 0 0 0 0 0 0 0 0 0 0
0 0 0 0 0 0 0 0 0 0 0 0.241214792200413 0 0 0 0 0 0.584767213871948 0 0 0 0 0 0 -0.317647919338407 -0.598781801073838 0 0 0 -0.376672389965078 0 0 0 -5.21547581299534 0 0 0 0 0 0 0 0 0 0 0 0 0 0 0 0
0 0 0.208133788705083 0 0 0 0 0 0 0 0 0 0 0 0 0 0 0 0 1.03472494465366 0 0 0.17197955433942 0 0.121829164868226 -0.317647919338407 0 0 0 0 0 0 0 0 0 0 0 0 0 0 0 0 0 -7.46928539403044 0 0 0 0 0 0
0 0 0.099239422864487 0.331543405542759 0 0 0 0 0 0 0 0 0 0.14474303230416 0 0 0 0 0 0 0 0 0 0 0 0 -0.317647919338407 0 0 0 0 -0.914202855210918 0 0 -0.347657567922698 0 0 0 0 0 0 0 0 -0.307580559982807 -0.720670950020128 0 0 0 0 0
0 0 0 1.42050127264565 0 0 0 0.0675726418331063 0 0 0 0 0.27624528077069 0 0 0 0 0 0 0 0 0 0 0 0 0 0 -0.317647919338407 0 0 0 -0.0854590611996497 0 0 -0.890953362135711 -0.474518123443214 0 0 0 0 0 0 0 0 0 0 0 0 0 -1.76896813218813
0 0 0 0 0 0 0 0 0 0 0 0 0 0 0 0 0.313801654391187 0 0 0 0 0.0992716616675179 0 0 0 0 0 0 -0.317647919338407 0 0 0 0 0 0 0 -0.306337907413698 0 0 0 -0.683904435375665 0 0 0 0 -0.475578238840938 0 0 0 0
0 0 0 0 0 0 0 0 0 0 0 0 0 0 0 0 0 0 0 0 0 0 0 0 0.080982720765113 0 0 0 0 -0.317647919338407 0 0 0 0 0 0 -0.731393294176848 0 0 0 0 0 0 0 0 0 0 0 0 -2.07570123705002
0.239088392451792 0 0 0 0 0 0 0 0 0 0 0 0 0.262390610337214 0 0 0 0 0 0 0 0 0.33966524534887 0 0 0 0 0 0 0 -0.317647919338407 0 0 0 0 0 0 0 0 0 0 -1.17221770595355 0 0 0 0 0 0 -0.730206199841457 0
0 0 0 0.193370971180494 0 0.0128970287143147 0 0 0 0 0 0 0 0 0 0 0.400333268274543 0.180676610394537 0 0 0 0 0 0 0 0 0.195680330864994 0.0171734498000654 0 0 0 -0.317647919338407 0 0 0 0 0 0 0 0 0 0 0 -1.17320132768872 0 0 0 0 0 0
0 0 0 0 0 0 0 0 0 0 0 0 0 0 0 0 0 0 0.156895109161335 0 0 0 0 0 0 0 0 0 0 0 0 0 -0.317647919338407 0 0 0 0 0 0 0 0 0 0 0 0 0 0 0 0 0
0 0 0 0 0 0.611721892109616 0 0 0 0 0 0 0 0 0.161462395806299 0 0.0398148913234876 0 0 0 0 0 0 0 1.0078568420535 0 0 0 0 0 0 0 0 -0.317647919338407 0 0 0 0 0 0 0 0 0 0 0 -1.00624443029329 0 0 0 0
0 0 0.0239564817939966 0 0 0 0 0 0 0 0 0 0.64055698722127 0 0 0 0 0.537063630828546 0 0 0 0 0 0 0 0 0.0693437319331997 0.201839966668002 0 0 0 0 0 0 -0.317647919338407 0 0 0 0 0 0 -0.185612611643451 0 0 -2.0274480849609 0 0 0 0 0
0 0 0 0 0 0 0 0 0 0 0 0 0 0 0 0 0 1.89559661522301 0 0 0.129346679708057 0 0 0 0 0 0 0.0955313897389546 0 0 0 0 0 0 0 -0.317647919338407 0 0 0 0 0 0 0 0 0 0 0 0 0 0
0 0 0 0 0.400140333497528 0.351125951299269 0 0 0 0.129576366345657 0 0 0 0 0 0 0 1.50024146713552 0 0 0 0 0 0 0 0 0 0 0.0610514223947797 0.145203470664955 0 0 0 0 0 0 -0.317647919338407 0 0 0 0 0 0 0 0 0 0 0 -0.29982103778003 0
0 0 0 0 0 0 0 0 0 0 0 0 0 0 0 0 0 0 0 0 0 0 0 0 0 0 0 0 0 0 0 0 0 0 0 0 0 -0.317647919338407 0 0 0 -1.85593841083738 0 0 0 0 0 -1.17053657833162 0 -0.333705428572111
0 0 0 0 0 0 0.390784349135937 0 0 0 0.641796194410254 0.111776776900795 0 0 0 0 2.21754277019794 0 0.665238295421805 0 0 0 0 0 0 0 0 0 0 0 0 0 0 0 0 0 0 0 -0.317647919338407 0 0 0 0 0 -1.6005434372854 0 0 0 0 0
0 0 0 0 0 0 0 0 0.185325509831391 0 0.227164856737819 1.35051837651208 0 0 0 0 0 0 0.32357961441421 0 0 0 0.219935138084063 0.0440597297280778 0 0 0 0 0 0 0 0 0 0 0 0 0 0 0 -0.317647919338407 -1.91809754412226 -3.12236732219833 0 0 0 0 0 0 0 0
0 0 0.181087847813073 0 0 0 0 0 0 0 0 0 0 0 0 0 0 0 0 0 0 0 0.0883468673292617 0 0 0 0 0 0.129811723075505 0 0 0 0 0 0 0 0 0 0 0.363992024228008 -0.317647919338407 0 0 0 0 0 0 0 0 0
0 0 0 0 0 0 0.0542149116399207 0 0 0 0 0 0 0 0 0 0 0 0 0 0 0 0 0 0 0 0 0 0 0 0.23030647949854 0 0 0 0.0370358578474381 0 0 0.39090593260452 0 0.648248902960699 0 -0.317647919338407 0 -2.56762760777304 0 0 0 0 0 0
0 0 0 0 0 0 0 0 0 0 0 0 0 0 0 0 0 0 0 0 0 0 0 0 0 0 0 0 0 0 0 0 0 0 0 0 0 0 0 0 0 0 -0.317647919338407 0 -1.93121242542709 -0.199190446446042 0 -0.785679981626232 0 0
0 0 0 0 0 0 0 0 0 0 0 0 0 0 0 0 0.142001218051286 0.279670942937114 0.0471423369755821 0 0 0 0 0 0 1.55622068888207 0.0604858523261437 0 0 0 0 0.220434014777073 0 0 0 0 0 0 0 0 0 0.556981256462998 0 -0.317647919338407 0 -0.914835313150755 0 0 0 0
0 0 0 0 0 0 0 0 0 0 0 1.74704052069903 0 0 0 0 0 0.257458546876279 0 0 0 0 0 0 0 0 0.143097889840718 0 0 0 0 0 0 0 0.380213602413259 0 0 0 0.307661229198912 0 0 0 0.358873114543582 0 -0.317647919338407 0 0 0 0 0
0 0 0 0 0 0.0660818249277924 0 0 0 0 0 0 0 0 0 0 0 0 0 0 0 0 0 0 0 0 0 0 0.0975977714286623 0 0 0 0 0.194382846191673 0 0 0 0 0 0 0 0 0.0390417666407495 0.201953246373529 0 -0.317647919338407 0 -1.64522373951428 0 0
0 0 0.31222257446468 0 0 0 0 0 0 0 0 0 0 0 0 0 0 0.0461696251997724 0 0 0 0 0 0 0 0 0 0 0 0 0 0 0 0 0 0 0 0 0 0 0 0 0 0 0 0 -0.317647919338407 0 0 0
0 0 0 0 0 0 0 0 0 0 0 0 0.0344813325834998 0 0 0 0 0 0 0 0 0 0.0206980117099024 0 0 0 0 0 0 0 0 0 0 0 0 0 0 0.237057991954997 0 0 0 0 0.160075462913241 0 0 0.304003046526655 0 -0.317647919338407 0 0
0 0 0 0 0.1108185147548 0 0 0 0 0 0 0 0 0 0 0.10711448306055 0 0 0.0557971109947769 0 0 0 0 0 0 0 0 0 0 0 0.144783195145361 0 0 0 0 0 0.0616564968677476 0 0 0 0 0 0 0 0 0 0 0 -0.317647919338407 0
0 0 0 0 0 0 0 0 0 0 0 0 0 0 0 0 0 0 0 0 0 0 0 0 0 0 0 0.337437776458343 0 0.377073709481692 0 0 0 0 0 0 0 0.0685513270281539 0 0 0 0 0 0 0 0 0 0 0 -0.317647919338407
