-0.423366041803203 0 0 0 0 -1.25145302651052 0 0 0 0 0 0 -0.376355170479356 0 0 0 -0.958795262197036 0 0 -1.2748013967584 0 0 0 0 -0.264128222244573 0 -5.02569213265034 0 0 0 0 0 0 -1.92726656872308 0 -0.469228592691829 0 0 0 0 0 0 0 0 0 -0.822435756055952 0 0 0 0
0 -0.423366041803203 0 0 0 0 0 0 0 0 -1.36109240367966 0 0 0 0 0 0 0 0 -0.988779314784902 0 -2.3053140118137 0 0 0 0 0 0 0 0 0 0 0 0 -0.584467002220731 0 0 0 0 0 -0.702132916793817 0 0 0 0 0 0 0 -0.918919652815496 0
0 0 -0.423366041803203 0 0 0 0 0 -0.885713723645719 -4.40528452253324 0 0 0 0 0 0 0 0 0 0 0 0 0 0 0 0 -1.7066919150328 0 0 0 -0.155756764103641 0 0 0 0 -1.5292354714443 0 -0.736206049854254 0 0 0 0 0 0 0 -1.07135672986497 0 0 0 0
0 0 0 -0.423366041803203 0 0 0 0 0 0 -0.542243300743282 0 0 0 0 0 -0.458020546444216 0 0 0 0 -4.4633918691841 0 0 0 0 0 0 0 0 0 0 0 0 0 0 0 0 0 0 0 0 0 0 0 -0.0413694525572526 0 0 0 0
0 0 0 0 -0.423366041803203 0 0 0 0 0 0 0 0 0 0 0 -0.656456145206214 0 0 0 -1.72457303356781 0 0 -0.209738760595269 0 0 0 -1.94355085039245 0 0 0 0 0 0 0 0 0 0 0 0 0 0 0 0 0 0 0 0 0 0
0.262391456376571 0 0 0 0 -0.423366041803203 0 0 0 0 0 0 0 0 0 0 0 -0.0594924029908567 0 0 0 0 0 0 0 0 0 0 0 0 0 -0.716371841638251 0 0 -0.74092844386296 0 0 0 0 0 0 0 0 0 0 0 0 0 0 -0.989360318372478
0 0 0 0 0 0 -0.423366041803203 0 0 0 0 -0.400152103306537 0 0 0 0 0 0 0 0 0 0 0 0 0 0 0 0 0 0 0 0 -3.56966879140803 0 0 -0.769871637078383 0 0 0 0 0 0 0 0 0 0 0 0 -0.79728073292598 0
0 0 0 0 0 0 0 -0.423366041803203 0 0 0 0 0 0 -1.01131112616421 0 -2.44722578376712 0 0 0 0 0 0 0 0 0 0 0 0 0 0 0 0 0 0 0 0 0 0 0 0 0 0 0 0 -0.138842409333525 0 0 0 0
0 0 0.167280522011223 0 0 0 0 0 -0.423366041803203 0 0 0 0 0 0 0 0 0 0 0 0 -1.76901861306511 0 0 0 0 0 0 0 0 0 0 0 0 0 0 0 -3.69638861172728 0 0 0 0 0 0 0 0 0 0 0 0
0 0 0.847230899883266 0 0 0 0 0 0 -0.423366041803203 0 0 0 -1.39158083861709 0 0 0 0 0 0 0 0 0 0 0 0 -2.80271415520673 0 0 0 0 0 0 0 0 0 0 0 0 0 0 0 0 0 0 0 0 0 0 0
0 0.259990628442555 0 0.100944839085195 0 0 0 0 0 0 -0.423366041803203 0 0 -1.32855263744021 0 0 0 0 0 0 -0.34721572471204 -5.73450820135398 0 0 0 0 0 0 0 0 0 0 0 0 0 0 0 0 0 0 0 0 0 0 0 0 0 0 0 0
0 0 0 0 0 0 0.0832414033651552 0 0 0 0 -0.423366041803203 0 0 0 0 -1.2037487166559 0 0 0 0 0 0 0 0 0 0 0 0 -6.04503522822264 0 0 0 0 -1.43321831122518 0 0 0 0 0 0 0 0 0 0 0 0 0 0 0
0.0768824720775776 0 0 0 0 0 0 0 0 0 0 0 -0.423366041803203 -0.785958850158519 0 0 0 0 0 0 0 0 0 -0.345220466411476 0 0 0 0 0 0 0 0 0 0 0 0 0 0 0 0 0 0 0 0 0 0 0 0 0 0
0 0 0 0 0 0 0 0 0 0.283770667755663 0.257084269418734 0 0.16305613787979 -0.423366041803203 0 0 0 0 0 -0.151137175854922 0 0 0 0 0 0 0 -8.79759187364563 0 0 0 -0.582619653611712 0 0 0 0 0 0 0 0 0 0 0 0 0 -0.146647501524691 0 0 0 0
0 0 0 0 0 0 0 0.197455306627507 0 0 0 0 0 0 -0.423366041803203 0 0 0 0 0 0 0 0 0 0 0 0 0 0 0 0 0 0 -2.46314072626894 0 0 0 -1.30733079235339 0 0 0 0 0 0 0 0 0 0 0 0
0 0 0 0 0 0 0 0 0 0 0 0 0 0 0 -0.423366041803203 0 0 0 0 0 0 0 0 0 0 0 0 0 0 0 0 0 0 0 0 0 0 0 0 0 -0.501669246892093 0 -0.987405063937635 0 0 0 0 0 0
0.177858359695884 0 0 0.0918432810999664 0.121305403118642 0 0 0.451920080454497 0 0 0 0.252086890075785 0 0 0 0 -0.423366041803203 0 -3.92963207212998 0 0 0 -0.837476590174695 0 -3.01747689766199 0 0 0 0 0 0 0 0 0 0 0 0 0 0 0 0 0 0 0 0 0 0 0 0 0
0 0 0 0 0 0.0121385502820446 0 0 0 0 0 0 0 0 0 0 0 -0.423366041803203 0 0 -2.18019617819574 -0.491895444206265 0 0 0 0 0 0 0 0 0 -0.458418413246024 0 0 0 0 0 0 0 0 0 0 -0.895866760199365 0 0 0 0 -2.88558705394 0 -0.419855196855391
0 0 0 0 0 0 0 0 0 0 0 0 0 0 0 0 0.82611347620131 0 -0.423366041803203 0 0 0 0 0 0 0 0 0 0 0 -1.44495595889942 0 0 0 0 0 0 0 0 0 0 0 0 0 0 0 0 0 0 0
0.23714539773064 0.192502368266538 0 0 0 0 0 0 0 0 0 0 0 0.0319361182599025 0 0 0 0 0 -0.423366041803203 0 0 0 0 0 0 0 0 0 0 0 0 0 0 -4.11457189313337 0 0 0 0 0 0 -0.439685196224191 0 0 0 0 0 0 0 0
0 0 0 0 0.331432772273583 0 0 0 0 0 0.0698419922484422 0 0 0 0 0 0 0.434971209919653 0 0 -0.423366041803203 0 -1.89286307456364 0 -0.793369456178733 0 0 0 0 -3.49613431563919 0 0 0 0 0 0 0 0 0 0 -0.759695835398544 0 0 0 0 0 0 0 0 0
0 0.456147740021817 0 0.893559221618781 0 0 0 0 0.342662352596144 0 1.11046653567606 0 0 0 0 0 0 0.0931373445883327 0 0 0 -0.423366041803203 0 0 0 -2.13082224535413 0 0 0 0 0 0 0 0 0 0 0 0 0 0 0 0 0 0 0 0 0 0 0 0
0 0 0 0 0 0 0 0 0 0 0 0 0 0 0 0 0.172732593163442 0 0 0 0.399095098777383 0 -0.423366041803203 0 0 0 0 0 0 0 0 0 0 -0.89471796113139 0 -1.62113102650377 0 0 0 0 0 0 0 0 0 0 0 0 0 0
0 0 0 0 0.040791733771392 0 0 0 0 0 0 0 0.0668598349746767 0 0 0 0 0 0 0 0 0 0 -0.423366041803203 0 0 -1.461868772289 -1.84308859394836 0 0 0 0 0 0 0 0 0 0 0 0 0 -3.70824310011805 0 -4.62545092295667 0 0 0 0 0 0
0.050048671043349 0 0 0 0 0 0 0 0 0 0 0 0 0 0 0 0.637489371139032 0 0 0 0.15708875069381 0 0 0 -0.423366041803203 0 0 0 0 -0.667953422287115 -0.677434994761309 0 -1.16055582006174 0 -0.511738580560339 -0.389666911686852 0 0 0 0 0 0 0 0 0 0 0 0 0 0
0 0 0 0 0 0 0 0 0 0 0 0 0 0 0 0 0 0 0 0 0 0.439829381651868 0 0 0 -0.423366041803203 0 0 0 0 0 0 0 -1.14359520884948 0 0 0 0 0 0 0 0 0 0 0 0 0 0 0 0
0.972801110735073 0 0.369664833456177 0 0 0 0 0 0 0.471761787976493 0 0 0 0 0 0 0 0 0 0 0 0 0 0.29977399858771 0 0 -0.423366041803203 0 0 0 0 0 -1.06184522772642 0 0 0 0 0 0 0 -0.186811368780404 0 0 0 0 0 0 0 0 0
0 0 0 0 0.396776479579384 0 0 0 0 0 0 0 0 1.7885597859179 0 0 0 0 0 0 0 0 0 0.35979651048963 0 0 0 -0.423366041803203 0 0 0 0 0 0 -0.349180509171503 0 0 0 0 0 0 0 0 0 -8.44716686814779 0 0 -4.07337977629374 0 -1.02160120012086
0 0 0 0 0 0 0 0 0 0 0 0 0 0 0 0 0 0 0 0 0 0 0 0 0 0 0 0 -0.423366041803203 0 0 0 -0.422335719334633 0 0 0 0 0 -0.92249595152352 -0.561626409435651 0 0 0 0 0 0 0 0 0 0
0 0 0 0 0 0 0 0 0 0 0 1.20125695290274 0 0 0 0 0 0 0 0 0.782753921805406 0 0 0 0.130920257330896 0 0 0 0 -0.423366041803203 0 0 0 0 0 -1.8113205435595 -2.39101831827366 -0.360895017262593 -1.62938547771787 -0.414999144275822 0 0 0 -5.45799405111578 0 0 0 0 0 0
0 0 0.0338491352422984 0 0 0 0 0 0 0 0 0 0 0 0 0 0 0 0.306150512149109 0 0 0 0 0 0.14960141967367 0 0 0 0 0 -0.423366041803203 0 0 0 -0.738107857212209 0 0 0 0 0 0 0 0 0 0 0 -0.65205288537159 -2.13360607184564 0 0
0 0 0 0 0 0.146015486668018 0 0 0 0 0 0 0 0.116025351955191 0 0 0 0.0917360930894975 0 0 0 0 0 0 0 0 0 0 0 0 0 -0.423366041803203 0 0 0 0 0 0 0 -0.536043450187124 0 0 0 -2.19496897896646 0 -0.6045619992275 0 0 0 0
0 0 0 0 0 0 0.709076773988313 0 0 0 0 0 0 0 0 0 0 0 0 0 0 0 0 0 0.23108931891973 0 0.206535549639011 0 0.0829580605870891 0 0 0 -0.423366041803203 0 0 0 -1.04981630704738 0 0 0 0 -0.793353261723292 0 0 0 0 0 0 0 0
0.368831140237973 0 0 0 0 0 0 0 0 0 0 0 0 0 0.458977029611129 0 0 0 0 0 0 0 0.184447219354033 0 0 0.227237647519927 0 0 0 0 0 0 0 -0.423366041803203 0 0 0 0 0 0 -1.42995888541388 0 0 0 0 0 0 0 0 0
0 0.105738329113447 0 0 0 0.143829773003432 0 0 0 0 0 0.266348843490284 0 0 0 0 0 0 0 0.842124497907839 0 0 0 0 0.102341920075411 0 0 0.0712752131211969 0 0 0.144046716003591 0 0 0 -0.423366041803203 0 0 0 0 0 0 0 0 0 0 0 0 -1.41633156136973 0 0
0.0888667483337896 0 0.30496105177795 0 0 0 0.158709117406817 0 0 0 0 0 0 0 0 0 0 0 0 0 0 0 0.317232896385625 0 0.0735023376407171 0 0 0 0 0.366764479961867 0 0 0 0 0 -0.423366041803203 0 -0.397971761424765 0 0 0 0 0 0 0 0 -0.564419094601665 0 0 0
0 0 0 0 0 0 0 0 0 0 0 0 0 0 0 0 0 0 0 0 0 0 0 0 0 0 0 0 0 0.442172012412051 0 0 0.209527920670535 0 0 0 -0.423366041803203 0 0 -0.39827460820066 0 0 0 0 0 0 -1.87289813857875 -0.434732683755886 0 0
0 0 0.140089724107803 0 0 0 0 0 0.737004579693602 0 0 0 0 0 0.250171219715897 0 0 0 0 0 0 0 0 0 0 0 0 0 0 0.0690734579615422 0 0 0 0 0 0.0756740307597116 0 -0.423366041803203 0 0 0 0 0 0 0 0 0 0 0 0
0 0 0 0 0 0 0 0 0 0 0 0 0 0 0 0 0 0 0 0 0 0 0 0 0 0 0 0 0.178587004279332 0.314439219471245 0 0 0 0 0 0 0 0 -0.423366041803203 0 0 0 0 0 0 0 0 0 -0.745099710998264 0
0 0 0 0 0 0 0 0 0 0 0 0 0 0 0 0 0 0 0 0 0 0 0 0 0 0 0 0 0.11087176488397 0.0820471621402021 0 0.0994931346565602 0 0 0 0 0.0738411287105731 0 0 -0.423366041803203 0 0 0 0 0 0 0 -8.50200413613116 0 0
0 0.134743092472995 0 0 0 0 0 0 0 0 0 0 0 0 0 0 0 0 0 0 0.154600115289692 0 0 0 0 0 0.0356259125770399 0 0 0 0 0 0 0.279783159374006 0 0 0 0 0 0 -0.423366041803203 0 0 -1.26583030411647 0 0 -0.962634500818593 -2.02628755669399 -0.602373208564181 0
0 0 0 0 0 0 0 0 0 0 0 0 0 0 0 0.0970258675229856 0 0 0 0.0892185179345821 0 0 0 0.752282581492928 0 0 0 0 0 0 0 0 0.171003445856816 0 0 0 0 0 0 0 0 -0.423366041803203 0 0 0 0 0 0 0 0
0 0 0 0 0 0 0 0 0 0 0 0 0 0 0 0 0 0.198356301596589 0 0 0 0 0 0 0 0 0 0 0 0 0 0 0 0 0 0 0 0 0 0 0 0 -0.423366041803203 0 0 0 -0.266515855733805 0 0 0
0 0 0 0 0 0 0 0 0 0 0 0 0 0 0 0.193278837634936 0 0 0 0 0 0 0 0.959366952119574 0 0 0 0 0 1.17257447052068 0 0.43854726824695 0 0 0 0 0 0 0 0 0.265585388124458 0 0 -0.423366041803203 0 0 0 0 0 0
0 0 0 0 0 0 0 0 0 0 0 0 0 0 0 0 0 0 0 0 0 0 0 0 0 0 0 1.76616496770461 0 0 0 0 0 0 0 0 0 0 0 0 0 0 0 0 -0.423366041803203 0 0 -0.950714225843986 0 0
0.184732126667287 0 0.214839601364303 0.00844719778538567 0 0 0 0.0272111144050109 0 0 0 0 0 0.027515948070823 0 0 0 0 0 0 0 0 0 0 0 0 0 0 0 0 0 0.117379557015093 0 0 0 0 0 0 0 0 0 0 0 0 0 -0.423366041803203 0 0 0 0
0 0 0 0 0 0 0 0 0 0 0 0 0 0 0 0 0 0 0 0 0 0 0 0 0 0 0 0 0 0 0.128370048248334 0 0 0 0 0.109669346909228 0.365592290577053 0 0 0 0.2026546435535 0 0.0503374287731425 0 0 0 -0.423366041803203 0 0 -1.71751814705729
0 0 0 0 0 0 0 0 0 0 0 0 0 0 0 0 0 0.623635669573868 0 0 0 0 0 0 0 0 0 0.808090306392497 0 0 0.404509899225626 0 0 0 0.280732564791535 0 0.0878460983939094 0 0 1.76492709435127 0.411350514160585 0 0 0 0.184262663150823 0 0 -0.423366041803203 0 0
0 0.186243157624593 0 0 0 0 0.153016165007091 0 0 0 0 0 0 0 0 0 0 0 0 0 0 0 0 0 0 0 0 0 0 0 0 0 0 0 0 0 0 0 0.145340467219025 0 0.126515512448409 0 0 0 0 0 0 0 -0.423366041803203 0
0 0 0 0 0 0.19976937729987 0 0 0 0 0 0 0 0 0 0 0 0.0851810904976587 0 0 0 0 0 0 0 0 0 0.196310629120397 0 0 0 0 0 0 0 0 0 0 0 0 0 0 0 0 0 0 0.361218860402683 0 0 -0.423366041803203
