-0.259078598046584 -2.11789362665825 0 0 0 0 -0.822445636582324 0 0 0 0 0 0 0 0 -1.67360496689061 0 0 0 0 -0.589703890162155 0 0 0 0 0 0 0 0 0 0 0 0 0 0 0 0 -0.760034190982238 0 -1.81185019229555 0 0 0 0 0 0 0 0 -0.14665243811857 0
0.466648276108352 -0.259078598046584 0 0 0 0 0 0 0 0 0 0 -0.594976711967828 0 0 -1.9850810057363 0 0 0 0 0 0 0 -0.944414332461472 0 0 0 0 0 0 0 -1.86366351924482 0 0 -0.0756457230421132 0 0 -0.680350620851105 0 -2.5339224688417 0 -1.79787421765572 0 0 0 0 0 0 0 0
0 0 -0.259078598046584 0 0 0 0 0 0 0 0 0 -1.87777236934382 0 0 0 0 0 0 0 0 0 0 0 -0.952696965036733 0 0 0 0 0 0 0 0 0 0 0 0 0 0 0 0 0 -3.07199795631358 0 0 -0.192210555894988 0 0 -0.283641825462182 0
0 0 0 -0.259078598046584 0 0 0 0 0 0 0 0 0 0 0 0 0 0 0 0 0 -0.716951261332873 -1.05186455745545 0 0 0 -1.43148929248633 0 0 0 0 0 0 0 -0.238032848824227 -0.253964932068483 0 0 0 0 0 0 0 0 0 0 0 0 0 0
0 0 0 0 -0.259078598046584 0 0 0 0 0 0 0 0 0 0 0 0 0 0 0 0 0 0 0 0 0 0 0 0 0 0 0 0 -0.83797349888595 0 0 0 0 0 0 0 0 -0.678703262189787 0 0 0 0 -0.816280724552378 -0.499095076187203 0
0 0 0 0 0 -0.259078598046584 0 0 0 0 0 0 0 0 0 0 0 0 0 0 0 0 0 0 0 0 0 0 0 0 0 -1.2165800611931 0 0 -1.44657692318131 0 0 0 0 0 0 0 0 0 0 -2.86066996932343 -1.13501159689822 0 0 0
0.155203015859053 0 0 0 0 0 -0.259078598046584 0 -1.88505064048633 0 0 0 0 0 0 0 0 0 0 0 0 0 0 -0.89373519905962 0 0 0 -1.25897688425584 0 0 0 0 0 0 0 -2.89282508042317 0 -0.317814901829872 -3.0727170969141 -0.900165461769283 0 0 0 0 0 0 0 0 0 0
0 0 0 0 0 0 0 -0.259078598046584 0 -0.840408681679353 0 0 0 0 -0.542238046558602 -0.616593508972582 0 0 0 0 0 0 0 0 0 0 0 0 0 0 0 0 0 0 0 0 -0.842421257363624 0 0 0 0 0 0 0 0 0 0 0 0 0
0 0 0 0 0 0 0.362090688653906 0 -0.259078598046584 0 0 0 0 0 -0.282470740041566 0 0 0 0 0 0 0 -0.614750755653068 0 -1.84588256357781 0 0 0 0 0 0 0 0 0 0 0 0 0 0 0 0 0 0 0 -0.455687761794736 0 0 0 -0.801081084501627 0
0 0 0 0 0 0 0 0.181667257557006 0 -0.259078598046584 0 0 0 0 0 0 0 0 0 0 0 0 0 0 -2.71520964092124 -0.739044885085944 0 0 -0.416467298300612 0 -3.5808209585117 0 0 -0.908195129009003 0 0 0 0 0 0 0 0 0 0 0 0 0 0 0 0
0 0 0 0 0 0 0 0 0 0 -0.259078598046584 0 0 0 -1.85231979453038 0 0 0 0 0 0 0 -0.532020022798869 -0.868592133484364 0 0 0 -2.10449745838774 0 0 0 0 0 0 0 0 0 0 0 0 0 0 0 0 0 -0.26118228992136 0 0 0 0
0 0 0 0 0 0 0 0 0 0 0 -0.259078598046584 0 0 0 0 0 0 0 0 0 0 0 0 0 0 0 0 -6.9120801017299 0 0 0 0 0 0 -0.267995927631702 0 0 0 -1.40689519445303 0 0 0 0 0 0 0 0 0 0
0 0.139071965896856 0.342871914824396 0 0 0 0 0 0 0 0 0 -0.259078598046584 0 0 0 0 0 0 0 0 0 0 0 0 0 0 0 0 0 0 0 0 0 0 0 0 0 -0.387483421592411 0 0 0 0 0 0 0 0 -0.296096069762736 0 0
0 0 0 0 0 0 0 0 0 0 0 0 0 -0.259078598046584 0 0 -1.67454404872485 0 0 0 0 0 0 0 0 0 0 -1.21974953223117 0 -0.314678669995129 0 0 0 0 0 0 0 0 0 0 0 -0.511636220794678 0 0 0 0 0 0 0 -0.928500905050489
0 0 0 0 0 0 0 0.110526497707326 0.0523004194185331 0 0.374488387547178 0 0 0 -0.259078598046584 -1.96668339591016 0 0 -0.54453661760355 0 0 0 0 0 0 0 0 0 0 0 -2.78257201071498 0 0 0 0 0 -0.362879838554938 0 0 0 -1.07836560629269 0 0 0 -0.116135771742685 0 0 0 0 0
0.342865794081624 0.36392355061614 0 0 0 0 0 0.122414359538275 0 0 0 0 0 0 0.363551947601294 -0.259078598046584 0 0 0 0 0 0 0 0 0 0 0 -0.351815591096226 0 0 -1.66404339895347 0 0 0 0 0 0 0 0 0 0 0 0 0 0 -1.37436856588632 0 0 0 -1.18800902760213
0 0 0 0 0 0 0 0 0 0 0 0 0 0.336314884523323 0 0 -0.259078598046584 0 0 0 0 0 0 0 0 0 0 0 0 0 0 0 0 0 0 0 0 -3.07254857481391 0 0 0 0 0 0 0 0 0 0 0 0
0 0 0 0 0 0 0 0 0 0 0 0 0 0 0 0 0 -0.259078598046584 -0.521672124316766 0 0 0 0 0 0 0 0 0 0 0 0 0 0 0 0 0 0 0 0 -0.481847322282299 0 0 0 0 0 0 0 -0.727918767565047 -0.63540636659511 0
0 0 0 0 0 0 0 0 0 0 0 0 0 0 0.108720280107761 0 0 0.100787653477732 -0.259078598046584 0 0 0 0 0 0 0 0 0 0 0 0 0 0 -0.0990431948259815 0 0 0 0 0 0 0 -0.342085818515181 0 0 0 0 0 0 0 0
0 0 0 0 0 0 0 0 0 0 0 0 0 0 0 0 0 0 0 -0.259078598046584 0 0 0 0 0 0 -0.472058961119309 0 0 0 -0.0738775949168858 0 0 -0.603862695616893 0 0 0 -0.802608528962721 0 0 0 0 0 0 0 0 0 0 -1.14039023008373 0
0.106983815925178 0 0 0 0 0 0 0 0 0 0 0 0 0 0 0 0 0 0 0 -0.259078598046584 0 0 0 -0.894639811804256 0 0 0 0 0 0 0 -0.214171046926145 0 0 0 0 0 0 0 -5.85174548753042 0 0 0 0 -1.25798186104621 0 0 0 0
0 0 0 0.137138017870193 0 0 0 0 0 0 0 0 0 0 0 0 0 0 0 0 0 -0.259078598046584 0 0 0 0 0 0 0 0 0 0 0 0 0 0 0 0 0 0 0 0 0 0 0 0 0 0 -2.15493007524479 0
0 0 0 0.218968855798357 0 0 0 0 0.121675344486356 0 0.111884244239754 0 0 0 0 0 0 0 0 0 0 0 -0.259078598046584 0 0 0 -0.226894471822334 0 0 0 0 0 -3.0838737792659 0 0 0 0 0 -1.34484707027684 -2.95522436364536 0 0 0 0 0 0 0 0 0 0
0 0.18013714404861 0 0 0 0 0.165764426988911 0 0 0 0.177031681517336 0 0 0 0 0 0 0 0 0 0 0 0 -0.259078598046584 0 0 0 0 0 0 0 0 0 0 0 0 0 0 0 0 0 0 0 0 0 0 0 -2.19190398485751 0 0
0 0 0.199826024855973 0 0 0 0 0 0.366056881428189 0.496067867765899 0 0 0 0 0 0 0 0 0 0 0.170205567911172 0 0 0 -0.259078598046584 0 0 0 0 0 0 0 0 0 0 0 0 0 0 0 0 0 0 0 0 0 -5.82868787473394 0 0 0
0 0 0 0 0 0 0 0 0 0.146935895893434 0 0 0 0 0 0 0 0 0 0 0 0 0 0 0 -0.259078598046584 -1.15477686535484 0 0 0 0 0 -0.801492015684 0 0 0 0 0 0 0 -0.591096827131224 0 -0.459356437677015 0 0 0 0 0 0 -1.66459720988143
0 0 0 0.273648916828428 0 0 0 0 0 0 0 0 0 0 0 0 0 0 0 0.0982139782148949 0 0 0.0466491770169426 0 0 0.245761833002257 -0.259078598046584 -2.68791559785583 -0.509273644290629 0 0 0 0 0 -3.35715586110357 0 0 0 0 0 0 0 0 -0.944667412056957 -0.318487932968739 0 0 0 0 -2.59207949259759
0 0 0 0 0 0 0.254792290839503 0 0 0 0.405840357395956 0 0 0.249384421554252 0 0.0661943107607607 0 0 0 0 0 0 0 0 0 0 0.518402906101512 -0.259078598046584 0 0 0 0 0 0 0 0 0 0 0 0 0 0 0 0 0 -1.11724930783897 0 0 0 0
0 0 0 0 0 0 0 0 0 0.0860824156405657 0 1.43120257394812 0 0 0 0 0 0 0 0 0 0 0 0 0 0 0.105523473312084 0 -0.259078598046584 0 0 0 0 0 0 0 0 -1.19071126846553 0 0 0 0 0 0 0 -0.339193482151571 0 0 0 -1.98387292612111
0 0 0 0 0 0 0 0 0 0 0 0 0 0.0621806158563536 0 0 0 0 0 0 0 0 0 0 0 0 0 0 0 -0.259078598046584 0 -0.294954984344564 0 0 0 0 0 0 0 0 0 0 0 0 0 0 0 0 0 0
0 0 0 0 0 0 0 0 0 0.671337710860008 0 0 0 0 0.559340705971152 0.337705202471666 0 0 0 0.0142386682306619 0 0 0 0 0 0 0 0 0 0 -0.259078598046584 0 -1.26523402105107 0 0 0 0 0 0 0 0 0 0 0 0 0 0 0 0 0
0 0.401000747470413 0 0 0 0.235059192539884 0 0 0 0 0 0 0 0 0 0 0 0 0 0 0 0 0 0 0 0 0 0 0 0.0612127061650097 0 -0.259078598046584 0 -0.260427055582291 0 0 0 0 -0.656897763296751 0 -2.0008901020194 0 0 0 0 0 0 0 0 0
0 0 0 0 0 0 0 0 0 0 0 0 0 0 0 0 0 0 0 0 0.0456349691683851 0 0.640986426740227 0 0 0.168071948681224 0 0 0 0 0.241682827807221 0 -0.259078598046584 0 0 0 0 0 0 0 0 0 0 0 0 0 0 0 -1.9317415606907 0
0 0 0 0 0.15216145451279 0 0 0 0 0.18772200563493 0 0 0 0 0 0 0 0 0.0197944876105198 0.126479327484829 0 0 0 0 0 0 0 0 0 0 0 0.0556306771587192 0 -0.259078598046584 0 0 0 0 0 0 0 0 0 0 0 0 0 -0.297909460406566 0 0
0 0.014745287208043 0 0.0486507320869377 0 0.30428664617123 0 0 0 0 0 0 0 0 0 0 0 0 0 0 0 0 0 0 0 0 0.731917611836693 0 0 0 0 0 0 0 -0.259078598046584 0 0 -1.16614596672983 0 0 0 0 -2.03890804211485 0 0 0 0 0 0 0
0 0 0 0.0506842140171865 0 0 0.588279491934053 0 0 0 0 0.0503988188240256 0 0 0 0 0 0 0 0 0 0 0 0 0 0 0 0 0 0 0 0 0 0 0 -0.259078598046584 0 0 -0.101612208430179 0 0 0 0 0 0 0 0 0 0 0
0 0 0 0 0 0 0 0.156056808619349 0 0 0 0 0 0 0.0691114773662544 0 0 0 0 0 0 0 0 0 0 0 0 0 0 0 0 0 0 0 0 0 -0.259078598046584 0 0 0 0 -2.2272199183457 0 0 0 -0.271187271390267 0 0 0 0
0.156888254801852 0.130785481223108 0 0 0 0 0.0645332122086292 0 0 0 0 0 0 0 0 0 0.543565893365863 0 0 0.157156340426176 0 0 0 0 0 0 0 0 0.237139890925238 0 0 0 0 0 0.258100939660606 0 0 -0.259078598046584 0 0 0 0 0 0 0 0 0 0 0 0
0 0 0 0 0 0 0.583345277734861 0 0 0 0 0 0.0732299110689876 0 0 0 0 0 0 0 0 0 0.282540521540719 0 0 0 0 0 0 0 0 0.123215449193562 0 0 0 0.0207376850347611 0 0 -0.259078598046584 -1.56853508017055 0 0 0 0 0 0 0 0 0 0
0.382294023591888 0.459051091675957 0 0 0 0 0.171727189295275 0 0 0 0 0.2869783961124 0 0 0 0 0 0.0986137932263796 0 0 0 0 0.58481823619714 0 0 0 0 0 0 0 0 0 0 0 0 0 0 0 0.305807876530552 -0.259078598046584 0 0 0 0 -0.766059311250727 0 0 -5.07253615108549 0 -1.22263764971201
0 0 0 0 0 0 0 0 0 0 0 0 0 0 0.224217829046643 0 0 0 0 0 1.20746043015896 0 0 0 0 0.116799715980377 0 0 0 0 0 0.387425523198784 0 0 0 0 0 0 0 0 -0.259078598046584 0 0 -0.227485376997278 0 0 0 -1.79015153896265 0 0
0 0.373382793146198 0 0 0 0 0 0 0 0 0 0 0 0.10764725939147 0 0 0 0 0.0670165371692722 0 0 0 0 0 0 0 0 0 0 0 0 0 0 0 0 0 0.410571587849162 0 0 0 0 -0.259078598046584 0 0 0 0 0 0 0 0
0 0 0.596819457210648 0 0.136800767168514 0 0 0 0 0 0 0 0 0 0 0 0 0 0 0 0 0 0 0 0 0.0958870649437206 0 0 0 0 0 0 0 0 0.376142436624363 0 0 0 0 0 0 0 -0.259078598046584 0 0 0 0 0 0 0
0 0 0 0 0 0 0 0 0 0 0 0 0 0 0 0 0 0 0 0 0 0 0 0 0 0 0.187219029463221 0 0 0 0 0 0 0 0 0 0 0 0 0 0.048109853959172 0 0 -0.259078598046584 0 0 -0.916563021088712 0 0 -1.66158336710525
0 0 0 0 0 0 0 0 0.0876845899231378 0 0 0 0 0 0.024888292386239 0 0 0 0 0 0 0 0 0 0 0 0.0661707346271546 0 0 0 0 0 0 0 0 0 0 0 0 0.159249721373504 0 0 0 0 -0.259078598046584 0 0 0 0 0
0 0 0.0394361343051707 0 0 0.56803609646803 0 0 0 0 0.0519345976449859 0 0 0 0 0.276837927927428 0 0 0 0 0.240950724540251 0 0 0 0 0 0 0.211293046789413 0.0695111116276219 0 0 0 0 0 0 0 0.0528605601069936 0 0 0 0 0 0 0 0 -0.259078598046584 0 0 -0.0421899315180699 0
0 0 0 0 0 0.221820049227343 0 0 0 0 0 0 0 0 0 0 0 0 0 0 0 0 0 0 1.14181642840025 0 0 0 0 0 0 0 0 0 0 0 0 0 0 0 0 0 0 0.173566351865298 0 0 -0.259078598046584 0 0 0
0 0 0 0 0.155806896107929 0 0 0 0 0 0 0 0.059493004977321 0 0 0 0 0.150056262287683 0 0 0 0 0 0.443722625301553 0 0 0 0 0 0 0 0 0 0.0578138042196257 0 0 0 0 0 1.0655406141092 0.375700774283323 0 0 0 0 0 0 -0.259078598046584 -1.04687995305204 0
0.0328219911022099 0 0.055585076749234 0 0.105808134223102 0 0 0 0.164580924903835 0 0 0 0 0 0 0 0 0.13364037488577 0 0.238922327354667 0 0.400950946862657 0 0 0 0 0 0 0 0 0 0 0.34858653338038 0 0 0 0 0 0 0 0 0 0 0 0 0.00913259772242121 0 0.212478616957836 -0.259078598046584 0
0 0 0 0 0 0 0 0 0 0 0 0 0 0.195968985943978 0 0.214998206772579 0 0 0 0 0 0 0 0 0 0.294204370995199 0.489480033184364 0 0.370798419829496 0 0 0 0 0 0 0 0 0 0 0.223162601920913 0 0 0 0.348864745880922 0 0 0 0 0 -0.259078598046584
