-0.554268730658556 0 0 0 0 0 -0.893123852863479 0 0 0 -0.299719497279737 0 -0.371317344016261 -2.34266421791595 -0.13343806337638 0 0 0 0 0 -2.61723295399628 -0.394959454768967 0 0 -2.12016635600944 0 0 0 0 0 0 -2.25517636353533 0 0 0 0 0 0 0 0 0 0 -4.41946679155736 0 0 0 0 0 0 0
0 -0.554268730658556 0 0 0 0 0 0 0 0 0 0 0 -0.426338444670869 0 0 0 0 -0.775951812585822 0 0 0 0 0 0 0 0 -0.257754313586025 -3.4517322780303 0 0 0 0 0 0 0 0 0 0 0 0 0 0 0 0 0 0 0 0 0
0 0 -0.554268730658556 0 -2.44378933416345 -0.635352501834897 0 0 0 -0.699811456409713 -0.430131132220038 0 0 0 0 0 0 -1.83823199827075 0 0 0 -1.35427722984757 0 0 0 0 0 0 0 0 0 0 0 0 0 -0.7962730255067 0 0 0 0 0 0 0 0 0 -2.74748517968556 0 0 0 0
0 0 0 -0.554268730658556 0 0 0 0 0 -2.73285188418418 0 -0.411556413578905 0 0 -9.29238766431086 0 0 0 0 0 0 0 -9.11972347549282 0 0 0 0 0 0 0 0 0 0 0 0 0 0 0 0 0 0 0 0 0 0 0 0 0 0 0
0 0 0.509138482966432 0 -0.554268730658556 0 0 0 0 0 0 0 0 0 0 0 0 0 0 0 0 0 0 0 0 0 0 0 0 0 -0.321601660184473 0 0 -2.55380777747094 0 0 0 0 0 0 0 0 0 0 -0.476281907856363 -0.448802550614417 0 0 -0.990407339633786 -3.13048971731743
0 0 0.124347824317887 0 0 -0.554268730658556 0 0 0 0 -0.682455446424961 0 0 0 0 0 0 0 -1.14422251353219 0 0 0 0 0 0 0 -1.64098338772929 -2.74561145327823 0 0 0 0 0 0 -0.853454598526665 0 0 0 0 0 0 0 0 0 0 0 0 0 -1.89098918977126 0
0.198048094794826 0 0 0 0 0 -0.554268730658556 0 -0.158112791302491 0 0 0 0 0 0 0 0 0 0 0 0 0 0 0 0 0 0 0 0 0 0 0 0 0 0 0 0 0 -2.11294876551911 0 0 0 0 0 0 0 0 0 0 0
0 0 0 0 0 0 0 -0.554268730658556 -1.21780454133223 0 0 0 -1.82126695067753 0 0 0 0 0 0 0 0 0 0 0 0 0 0 0 -0.135968848460696 0 0 0 0 0 0 0 0 0 0 0 0 0 0 0 0 -1.61224745631354 0 0 0 0
0 0 0 0 0 0 0.0336655607458321 0.256461005485317 -0.554268730658556 0 0 0 0 0 0 0 0 0 0 0 0 0 0 0 0 -2.9634257159343 0 0 0 0 0 0 0 0 0 0 0 0 0 0 -0.48563261354151 0 0 -0.545613285244407 0 0 0 0 0 0
0 0 0.131025240723623 0.553873953380445 0 0 0 0 0 -0.554268730658556 0 0 -1.03525516771426 -1.03427701872678 0 0 0 0 0 0 0 0 0 0 0 0 0 0 0 -2.44436048726341 -0.719102382293607 0 0 0 0 0 0 0 0 0 0 0 0 -2.92408633399499 0 0 0 0 0 0
0.0638755316977996 0 0.0876429112076376 0 0 0.140734233916733 0 0 0 0 -0.554268730658556 -1.28461938641852 0 0 0 0 0 0 0 0 0 0 0 0 0 0 0 0 0 -6.30791502359709 0 -2.12663427540513 0 0 -0.743468951307498 0 0 0 0 0 0 0 0 0 0 -0.410573657385336 0 -1.88755373825425 0 0
0 0 0 0.0791889485365751 0 0 0 0 0 0 0.246191469345879 -0.554268730658556 0 0 0 -0.594534458298312 0 0 0 0 0 0 0 0 0 0 0 0 0 0 0 -7.47764256759007 0 0 0 0 0 -4.13256634721883 0 0 0 -0.529707789067582 0 0 0 0 0 0 -0.411707483110413 0
0.0662486854854287 0 0 0 0 0 0 0.327591639916403 0 0.204405701533318 0 0 -0.554268730658556 0 0 0 0 0 -1.41503811085932 0 0 0 0 0 0 0 -0.598533575338879 0 0 0 0 0 0 0 0 0 0 0 -0.321921147809709 0 0 0 0 0 0 0 0 0 0 0
0.44876628415132 0.0893206062010396 0 0 0 0 0 0 0 0.199533862309792 0 0 0 -0.554268730658556 0 0 0 -6.48750395162932 0 0 0 0 0 0 0 0 0 0 -1.72324346277977 0 0 -0.603784701576921 0 0 0 0 0 0 0 0 0 0 0 0 0 0 -0.513601487766486 0 0 0
0.0261783639752823 0 0 1.73762816712382 0 0 0 0 0 0 0 0 0 0 -0.554268730658556 0 -0.9543508823408 0 0 0 0 0 0 0 0 0 0 0 0 0 0 0 0 0 0 0 0 0 0 0 0 -0.295077016119481 0 0 -1.00119082084851 0 0 -3.23588601773945 0 0
0 0 0 0 0 0 0 0 0 0 0 0.113590823135316 0 0 0 -0.554268730658556 -0.23299557259065 0 -0.152574431825383 0 0 0 0 0 0 0 0 0 0 0 -0.491053827890524 0 0 0 0 0 0 0 0 0 0 0 0 -1.16934778504603 0 0 0 0 0 0
0 0 0 0 0 0 0 0 0 0 0 0 0 0 0.196608378028458 0.0474336461941145 -0.554268730658556 0 0 0 0 0 0 0 0 0 0 0 0 -1.57050457417068 0 0 0 0 0 0 0 0 0 0 0 0 -0.415791621794897 0 0 0 0 -0.770272088176591 0 0
0 0 0.385775716403492 0 0 0 0 0 0 0 0 0 0 1.24663999781557 0 0 0 -0.554268730658556 0 0 0 0 0 0 0 0 0 -0.486056136573145 0 0 0 0 -0.400621418202741 0 0 0 -2.60531801016998 -0.571137512650132 0 0 0 0 -2.83854351139835 0 0 0 0 0 0 0
0 0.145818069600712 0 0 0 0.211281101536542 0 0 0 0 0 0 0.264303019939569 0 0 0.0302044140011943 0 0 -0.554268730658556 0 0 0 0 0 0 0 0 0 0 0 0 0 0 0 0 -0.123266283438501 0 0 0 0 0 0 0 0 0 0 0 0 0 0
0 0 0 0 0 0 0 0 0 0 0 0 0 0 0 0 0 0 0 -0.554268730658556 0 0 0 0 0 -0.81343036931138 0 0 0 0 0 -0.641794746780594 -2.09644670232181 0 -0.447009516869562 -0.701312175521646 0 -0.792572564500735 0 0 0 0 0 0 0 0 0 0 0 0
0.541793867750894 0 0 0 0 0 0 0 0 0 0 0 0 0 0 0 0 0 0 0 -0.554268730658556 0 0 0 0 -2.75802712629193 0 0 0 -0.565777608943921 0 0 0 0 0 0 0 0 0 0 0 -1.15534870081828 0 0 0 0 0 0 0 0
0.0748433159276057 0 0.271577832506696 0 0 0 0 0 0 0 0 0 0 0 0 0 0 0 0 0 0 -0.554268730658556 0 0 0 0 0 0 0 0 0 0 0 0 0 0 0 0 0 0 0 0 0 0 0 0 0 0 0 0
0 0 0 1.9306926942306 0 0 0 0 0 0 0 0 0 0 0 0 0 0 0 0 0 0 -0.554268730658556 0 0 0 0 0 0 0 0 -1.09145180040932 0 0 -1.18243504041726 0 0 0 0 0 0 0 0 0 0 0 0 -0.355093098060483 0 0
0 0 0 0 0 0 0 0 0 0 0 0 0 0 0 0 0 0 0 0 0 0 0 -0.554268730658556 0 0 -1.27690114701359 0 0 0 0 0 0 0 0 0 0 0 0 0 0 0 0 0 0 0 0 0 0 0
0.412705267905585 0 0 0 0 0 0 0 0 0 0 0 0 0 0 0 0 0 0 0 0 0 0 0 -0.554268730658556 0 0 -1.68263494965547 0 -0.570595812882499 0 0 0 0 0 0 0 0 0 0 0 0 0 0 0 0 0 0 0 -1.92427144714041
0 0 0 0 0 0 0 0 0.594658933264405 0 0 0 0 0 0 0 0 0 0 0.162226907247625 0.623243696815303 0 0 0 0 -0.554268730658556 0 0 -1.13471041810145 0 0 0 0 0 0 0 0 0 0 0 0 0 -0.813628146681326 0 0 0 0 0 0 0
0 0 0 0 0 0.341638456432049 0 0 0 0 0 0 0.12551292110605 0 0 0 0 0 0 0 0 0 0 0.266270300783349 0 0 -0.554268730658556 0 0 0 0 0 0 -1.2105526261325 -0.598714400804621 0 0 0 0 -0.511096515175087 0 0 0 0 0 0 0 0 0 0
0 0.0497819341254348 0 0 0 0.554474536741113 0 0 0 0 0 0 0 0 0 0 0 0.0952858158542595 0 0 0 0 0 0 0.348903889642823 0 0 -0.554268730658556 0 -0.623320583153599 0 0 0 0 0 0 0 0 0 0 0 0 -0.588491023088151 0 0 0 0 0 0 0
0 0.702428340018794 0 0 0 0 0 0.0278111889040125 0 0 0 0 0 0.319597374078445 0 0 0 0 0 0 0 0 0 0 0 0.249938202933305 0 0 -0.554268730658556 0 0 0 0 0 0 0 0 0 0 0 -0.914063465914729 0 0 0 0 0 0 -0.429506178941992 0 0
0 0 0 0 0 0 0 0 0 0.538288061581072 1.27580910372603 0 0 0 0 0 0.319726413768233 0 0 0 0.110851227571345 0 0 0 0.114476260222262 0 0 0.123999498021474 0 -0.554268730658556 -4.59041389335733 0 0 0 0 0 0 0 0 0 0 0 0 0 0 0 0 0 0 0
0 0 0 0 0.0595135471708568 0 0 0 0 0.143437456919075 0 0 0 0 0 0.0912621886367708 0 0 0 0 0 0 0 0 0 0 0 0 0 0.955296025229304 -0.554268730658556 -2.85165328132123 0 0 0 0 0 0 0 0 0 0 0 0 -1.76366633442586 0 0 0 0 0
0.452215935488187 0 0 0 0 0 0 0 0 0 0.392539183839938 1.43587822877836 0 0.121132970910344 0 0 0 0 0 0.122169694236313 0 0 0.240574904473582 0 0 0 0 0 0 0 0.510734286969818 -0.554268730658556 0 0 0 0 0 0 0 0 0 0 0 0 0 0 0 0 0 0
0 0 0 0 0 0 0 0 0 0 0 0 0 0 0 0 0 0.0804472081526702 0 0.428838019590967 0 0 0 0 0 0 0 0 0 0 0 0 -0.554268730658556 0 0 0 0 0 0 0 0 0 0 0 0 0 0 0 0 0
0 0 0 0 0.522293135290133 0 0 0 0 0 0 0 0 0 0 0 0 0 0 0 0 0 0 0 0 0 0.223760241994967 0 0 0 0 0 0 -0.554268730658556 0 0 0 0 0 0 0 0 0 0 0 0 0 0 0 0
0 0 0 0 0 0.163013481568653 0 0 0 0 0.141095211253909 0 0 0 0 0 0 0 0 0.0785977931717954 0 0 0.234507006996824 0 0 0 0.128305269629476 0 0 0 0 0 0 0 -0.554268730658556 0 -3.50124645221088 -0.314475540206651 -0.34741172417197 0 0 0 0 0 0 0 0 0 0 0
0 0 0.149440811095146 0 0 0 0 0 0 0 0 0 0 0 0 0 0 0 0.0239420797752612 0.142158968331196 0 0 0 0 0 0 0 0 0 0 0 0 0 0 0 -0.554268730658556 -1.20673405959715 0 0 0 0 0 0 0 0 0 0 0 0 0
0 0 0 0 0 0 0 0 0 0 0 0 0 0 0 0 0 0.494982931678798 0 0 0 0 0 0 0 0 0 0 0 0 0 0 0 0 0.711048790712496 0.250358574071233 -0.554268730658556 -0.527048796674151 0 0 0 0 0 0 0 0 0 0 0 0
0 0 0 0 0 0 0 0 0 0 0 0.830536568653965 0 0 0 0 0 0.120589638927923 0 0.149475309891462 0 0 0 0 0 0 0 0 0 0 0 0 0 0 0.0614704089114833 0 0.105284339731436 -0.554268730658556 0 0 0 0 0 0 0 0 0 0 0 0
0 0 0 0 0 0 0.391544027925167 0 0 0 0 0 0.0598132175424993 0 0 0 0 0 0 0 0 0 0 0 0 0 0 0 0 0 0 0 0 0 0.0717987123965566 0 0 0 -0.554268730658556 0 0 0 0 0 0 0 0 0 0 0
0 0 0 0 0 0 0 0 0 0 0 0 0 0 0 0 0 0 0 0 0 0 0 0 0 0 0.0961739183531119 0 0 0 0 0 0 0 0 0 0 0 0 -0.554268730658556 0 0 0 0 0 0 0 0 0 -0.398020042378477
0 0 0 0 0 0 0 0 0.0898719051040999 0 0 0 0 0 0 0 0 0 0 0 0 0 0 0 0 0 0 0 0.192555036306053 0 0 0 0 0 0 0 0 0 0 0 -0.554268730658556 0 0 0 0 0 0 0 0 0
0 0 0 0 0 0 0 0 0 0 0 0.111080426156533 0 0 0.0632002839326868 0 0 0 0 0 0.224887044018522 0 0 0 0 0 0 0 0 0 0 0 0 0 0 0 0 0 0 0 0 -0.554268730658556 -0.96917452556385 0 0 0 0 0 0 0
0.953084996427654 0 0 0 0 0 0 0 0 0 0 0 0 0 0 0 0.0874752725926469 0.563065213202465 0 0 0 0 0 0 0 0.167311387367802 0 0.11778348157447 0 0 0 0 0 0 0 0 0 0 0 0 0 0.208629751888905 -0.554268730658556 0 0 0 0 0 0 0
0 0 0 0 0 0 0 0 0.112091488815984 0.58268982901579 0 0 0 0 0 0.218504471139799 0 0 0 0 0 0 0 0 0 0 0 0 0 0 0 0 0 0 0 0 0 0 0 0 0 0 0 -0.554268730658556 0 0 0 0 0 0
0 0 0 0 0.0843076561627764 0 0 0 0 0 0 0 0 0 0.211184394219469 0 0 0 0 0 0 0 0 0 0 0 0 0 0 0 0.364696958432408 0 0 0 0 0 0 0 0 0 0 0 0 0 -0.554268730658556 0 -1.41852803914954 0 0 0
0 0 0.567207967706348 0 0.0924570863492903 0 0 0.330662292517831 0 0 0.0810709722107295 0 0 0 0 0 0 0 0 0 0 0 0 0 0 0 0 0 0 0 0 0 0 0 0 0 0 0 0 0 0 0 0 0 0 -0.554268730658556 0 0 -0.905443614802002 0
0 0 0 0 0 0 0 0 0 0 0 0 0 0.0989102223192061 0 0 0 0 0 0 0 0 0 0 0 0 0 0 0 0 0 0 0 0 0 0 0 0 0 0 0 0 0 0 0.28831493680253 0 -0.554268730658556 0 0 0
0 0 0 0 0 0 0 0 0 0 0.37338495211582 0 0 0 0.606676116265247 0 0.157499695534646 0 0 0 0 0 0.0738263149280356 0 0 0 0 0 0.0878202356494425 0 0 0 0 0 0 0 0 0 0 0 0 0 0 0 0 0 0 -0.554268730658556 0 0
0 0 0 0 0.203487803686874 0.38425737273169 0 0 0 0 0 0.0872362598872076 0 0 0 0 0 0 0 0 0 0 0 0 0 0 0 0 0 0 0 0 0 0 0 0 0 0 0 0 0 0 0 0 0 0.201735306323928 0 0 -0.554268730658556 0
0 0 0 0 0.599635875599854 0 0 0 0 0 0 0 0 0 0 0 0 0 0 0 0 0 0 0 0.416827675791714 0 0 0 0 0 0 0 0 0 0 0 0 0 0 0.0836614040900154 0 0 0 0 0 0 0 0 0 -0.554268730658556
