-0.330892765922867 0 0 0 0 0 0 0 0 0 -0.691883113363046 0 0 0 0 0 0 0 0 0 0 -0.186882445228031 0 0 0 0 0 0 0 0 0 0 0 0 0 0 0 -0.665580537606135 0 0 0 0 0 0 0 0 0 0 0 0
0 -0.330892765922867 0 0 0 0 0 0 0 0 0 0 0 0 0 0 0 -2.32690186524345 0 -1.18079987158595 0 0 0 0 0 0 0 0 0 0 0 0 0 0 0 0 0 0 0 0 0 0 0 0 0 0 -3.83299228246027 -2.24926247731833 0 0
0 0 -0.330892765922867 0 -1.93359671121036 0 0 0 0 0 0 0 0 0 0 0 0 0 -1.78576196181055 0 0 0 0 0 0 0 0 0 -2.30892623845756 0 0 0 0 0 0 -2.45395407514239 0 -1.03377096170649 -2.02225067093174 0 0 0 0 0 0 0 0 0 0 -0.119855996543835
0 0 0 -0.330892765922867 -1.24848235529018 0 0 0 -0.599994813311027 0 0 0 0 0 0 0 0 0 0 0 0 0 -0.745926732344717 0 0 0 0 0 0 0 -0.822313955533175 0 0 0 0 -1.98616402551287 0 0 0 0 0 0 0 0 0 0 0 0 0 0
0 0 0.376213713696117 0.255219505661428 -0.330892765922867 0 0 0 0 0 0 0 0 0 0 0 0 0 0 -0.151794340555614 0 0 0 0 0 -1.37480349808633 0 0 0 0 -3.12457740465131 0 0 0 0 0 0 0 0 0 0 0 0 -0.816219188936392 0 0 0 0 0 0
0 0 0 0 0 -0.330892765922867 0 0 0 0 0 0 0 0 0 0 0 -4.23680811230599 0 -1.27982580823592 0 0 0 0 0 0 -3.56485647948182 0 0 0 0 0 0 0 0 0 -0.346019753916494 0 0 0 0 0 0 0 0 0 0 0 0 0
0 0 0 0 0 0 -0.330892765922867 0 0 0 0 0 0 0 0 0 0 0 0 0 0 0 0 0 0 0 -0.232149216221423 0 0 0 -1.08115293411373 0 0 0 0 0 0 0 0 0 0 0 0 0 0 0 -0.412553203165979 -1.65787922348918 0 -2.20602272333702
0 0 0 0 0 0 0 -0.330892765922867 0 0 0 0 0 0 0 0 0 0 0 0 0 0 0 0 0 0 0 0 -0.0771719570680474 0 0 0 0 0 -0.327561495991183 0 -0.474343212004775 0 0 0 -0.767554129594753 0 0 0 0 0 0 0 0 0
0 0 0 0.129205480444731 0 0 0 0 -0.330892765922867 0 0 0 0 0 0 0 -0.802320418697205 0 0 0 0 0 0 0 0 0 0 0 0 0 0 0 0 0 0 0 0 -0.436198415538476 0 -0.576669412459042 0 0 0 0 0 0 0 0 0 0
0 0 0 0 0 0 0 0 0 -0.330892765922867 0 0 0 0 0 0 0 -0.590680761092268 -1.33213466274197 0 0 0 0 0 0 0 0 0 0 0 0 0 0 0 0 0 0 0 0 0 0 0 0 0 0 0 0 0 0 0
0.143959893702029 0 0 0 0 0 0 0 0 0 -0.330892765922867 0 -2.86398221604143 0 0 0 0 0 0 -1.03504598256454 0 0 0 0 0 0 0 0 0 0 -5.27969618982008 0 -0.510336710837639 0 0 0 0 0 0 0 0 0 0 0 0 0 -0.30816868896543 0 0 0
0 0 0 0 0 0 0 0 0 0 0 -0.330892765922867 0 -1.02288646718149 -0.221767639558504 0 0 0 -1.44395919297288 0 0 0 0 0 0 0 0 0 0 0 0 0 0 0 0 0 0 0 0 0 0 0 0 0 0 0 0 0 0 0
0 0 0 0 0 0 0 0 0 0 0.581243340434387 0 -0.330892765922867 -0.226124110776044 -1.13094438610724 -0.765338166157821 0 0 0 0 0 0 0 0 0 0 0 0 0 0 -0.370058661050162 0 0 0 0 0 0 0 0 0 0 0 0 0 0 0 0 0 0 0
0 0 0 0 0 0 0 0 0 0 0 0.223630114314034 0.0439642701853052 -0.330892765922867 0 -0.151268225425387 0 0 0 0 0 0 0 0 0 0 0 0 0 0 0 -0.366433109637708 0 0 0 0 0 0 0 0 0 0 0 0 0 0 0 0 0 0
0 0 0 0 0 0 0 0 0 0 0 0.0422958071566652 0.237708330063471 0 -0.330892765922867 0 0 0 0 -0.778627942532852 0 0 0 0 0 0 0 0 0 0 0 0 0 0 0 0 0 0 0 0 -0.380496745758563 0 0 0 0 0 0 0 -1.93383968473502 0
0 0 0 0 0 0 0 0 0 0 0 0 0.146350365273765 0.0299880092172653 0 -0.330892765922867 -1.25047918740349 -0.210859551897039 0 0 0 0 0 0 0 0 -8.50912221298582 0 0 0 0 0 0 0 0 -4.17829856927316 0 0 0 0 0 0 0 0 0 0 0 0 0 0
0 0 0 0 0 0 0 0 0.160551433087577 0 0 0 0 0 0 0.247923103163993 -0.330892765922867 0 0 -0.730182680542282 0 0 0 0 0 0 0 0 0 0 0 0 0 0 0 0 0 0 0 0 0 0 -4.0083732064535 0 0 0 0 0 0 0
0 0.483305984655564 0 0 0 0.832631218865574 0 0 0 0.108972104980969 0 0 0 0 0 0.0408335610982072 0 -0.330892765922867 0 0 0 0 0 0 0 0 0 0 0 0 0 0 0 0 -0.812571004274195 0 0 0 0 0 0 0 -0.457137957614783 0 0 0 0 0 -4.19556829453491 0
0 0 0.397437591940767 0 0 0 0 0 0 0.276698552931838 0 0.289962959080478 0 0 0 0 0 0 -0.330892765922867 0 0 0 0 0 0 0 0 0 0 0 0 -1.22612271946476 0 0 0 0 0 0 0 0 0 0 0 0 0 0 0 0 0 0
0 0.259732647841215 0 0 0.031380521343165 0.251047444570284 0 0 0 0 0.188650254952667 0 0 0 0.151032490165914 0 0.150554307004067 0 0 -0.330892765922867 0 0 0 0 0 0 0 0 0 0 0 0 0 0 0 0 0 0 0 0 0 0 0 0 -0.18013517025795 0 -1.46006824623684 0 0 0
0 0 0 0 0 0 0 0 0 0 0 0 0 0 0 0 0 0 0 0 -0.330892765922867 -1.24446128151339 0 0 -2.76062595210926 0 0 0 0 0 0 0 0 0 0 0 0 0 0 -0.0941168791439621 -0.715722759437204 0 0 0 0 0 0 0 0 0
0.0342867467605209 0 0 0 0 0 0 0 0 0 0 0 0 0 0 0 0 0 0 0 0.246628170755119 -0.330892765922867 0 0 0 0 0 0 0 0 0 0 0 -2.05872117858519 0 0 0 0 0 0 0 0 0 0 0 0 -1.00758850228874 0 0 0
0 0 0 0.152170718739502 0 0 0 0 0 0 0 0 0 0 0 0 0 0 0 0 0 0 -0.330892765922867 0 -1.08714657514805 -1.41283197375593 0 0 0 0 0 0 0 0 0 0 0 0 0 0 0 0 0 0 0 0 0 -0.117432185951961 0 0
0 0 0 0 0 0 0 0 0 0 0 0 0 0 0 0 0 0 0 0 0 0 0 -0.330892765922867 0 0 0 0 0 0 0 0 0 0 0 0 0 -2.01690428281098 0 0 0 0 0 0 0 0 0 0 0 0
0 0 0 0 0 0 0 0 0 0 0 0 0 0 0 0 0 0 0 0 0.54874999981384 0 0.216814647010214 0 -0.330892765922867 -0.700979319247984 0 0 0 0 0 0 0 0 -0.272481753212411 -0.942106001246346 0 -1.06831462586356 0 0 0 0 0 0 0 0 0 0 0 0
0 0 0 0 0.248895808156245 0 0 0 0 0 0 0 0 0 0 0 0 0 0 0 0 0 0.263083114719809 0 0.141437695940918 -0.330892765922867 0 0 0 0 0 0 0 0 0 -0.697438946696958 0 -4.41445801357618 0 -0.36559028834764 0 0 0 0 -1.84168774556199 0 0 0 0 0
0 0 0 0 0 0.648000053865343 0.0472331032785955 0 0 0 0 0 0 0 0 1.70583848446243 0 0 0 0 0 0 0 0 0 0 -0.330892765922867 0 -0.430922995542513 0 0 0 0 0 0 0 0 -1.8904818119428 0 0 0 0 0 0 0 0 0 0 0 0
0 0 0 0 0 0 0 0 0 0 0 0 0 0 0 0 0 0 0 0 0 0 0 0 0 0 0 -0.330892765922867 -2.48125870853599 0 0 0 0 0 0 0 0 -0.843964827336925 0 -1.41280498013553 0 0 0 0 0 0 0 0 0 0
0 0 0.447088017302477 0 0 0 0 0.0144250421597052 0 0 0 0 0 0 0 0 0 0 0 0 0 0 0 0 0 0 0.090214682409902 0.493665036059866 -0.330892765922867 0 0 0 0 0 0 0 0 0 0 0 0 0 -2.41774193308175 0 0 -0.413840042841549 0 0 0 0
0 0 0 0 0 0 0 0 0 0 0 0 0 0 0 0 0 0 0 0 0 0 0 0 0 0 0 0 0 -0.330892765922867 0 0 0 0 0 0 0 0 0 0 0 0 0 0 0 -1.6394500620761 -1.38704766061635 0 0 0
0 0 0 0.152874408538397 0.644038651236829 0 0.234639418375321 0 0 0 0.995416644249374 0 0.0689033778177122 0 0 0 0 0 0 0 0 0 0 0 0 0 0 0 0 0 -0.330892765922867 -3.52765801277842 0 0 0 0 -3.46599230172272 -2.78801350234766 0 0 0 0 0 0 0 0 0 0 0 0
0 0 0 0 0 0 0 0 0 0 0 0 0 0.0750266841996482 0 0 0 0 0.248057071756006 0 0 0 0 0 0 0 0 0 0 0 0.702499063199793 -0.330892765922867 0 0 0 0 0 0 -1.88848520016489 0 0 -2.27041199093692 -1.80063029679728 0 0 0 0 0 0 0
0 0 0 0 0 0 0 0 0 0 0.0986330297536028 0 0 0 0 0 0 0 0 0 0 0 0 0 0 0 0 0 0 0 0 0 -0.330892765922867 0 -1.79015006488969 -2.79918450207148 0 0 0 0 0 0 0 0 0 0 -1.89173471633748 0 0 0
0 0 0 0 0 0 0 0 0 0 0 0 0 0 0 0 0 0 0 0 0 0.421552461676077 0 0 0 0 0 0 0 0 0 0 0 -0.330892765922867 0 -1.77115181894256 0 0 0 0 0 0 0 0 0 0 0 0 0 -0.102419142232149
0 0 0 0 0 0 0 0.0618030671019561 0 0 0 0 0 0 0 0 0 0.155843599254875 0 0 0 0 0 0 0.054672940362523 0 0 0 0 0 0 0 0.351471121660664 0 -0.330892765922867 -1.343330768041 0 0 -1.43562721860859 0 0 0 0 0 -0.739293490554354 0 0 0 -0.883162096694593 0
0 0 0.521875582104145 0.424707403053455 0 0 0 0 0 0 0 0 0 0 0 0.781599801148728 0 0 0 0 0 0 0 0 0.190840600667305 0.142997043578216 0 0 0 0 0 0 0.532155978199474 0.334148704712697 0.290955103537109 -0.330892765922867 0 0 0 0 0 0 0 0 0 0 0 0 -0.671020794340196 0
0 0 0 0 0 0.0638616651306754 0 0.096900757655711 0 0 0 0 0 0 0 0 0 0 0 0 0 0 0 0 0 0 0 0 0 0 0.659285122140799 0 0 0 0 0 -0.330892765922867 0 -0.448221700246798 0 0 0 0 0 0 0 0 0 -1.69755126663419 0
0.144378913104648 0 0.191056679942715 0 0 0 0 0 0.096786713990425 0 0 0 0 0 0 0 0 0 0 0 0 0 0 0.404176695639643 0.208652577406081 0.907235688433526 0.36810860314786 0.167104613935785 0 0 0.581139212380648 0 0 0 0 0 0 -0.330892765922867 0 0 0 0 0 -2.80444918647838 0 0 0 0 0 0
0 0 0.407259865935522 0 0 0 0 0 0 0 0 0 0 0 0 0 0 0 0 0 0 0 0 0 0 0 0 0 0 0 0 0.387782781372522 0 0 0.30452684106163 0 0.0936108689111159 0 -0.330892765922867 0 -1.04783514632117 0 0 -1.37761838911851 0 0 0 0 0 0
0 0 0 0 0 0 0 0 0.116594413939852 0 0 0 0 0 0 0 0 0 0 0 0.0181802849641853 0 0 0 0 0.0731538047044363 0 0.297719522829621 0 0 0 0 0 0 0 0 0 0 0 -0.330892765922867 0 0 0 0 0 -0.294789021382435 0 0 0 0
0 0 0 0 0 0 0 0.153457654430118 0 0 0 0 0 0 0.0754396084674505 0 0 0 0 0 0.154231863946733 0 0 0 0 0 0 0 0 0 0 0 0 0 0 0 0 0 0.215076174260297 0 -0.330892765922867 0 0 0 0 0 -0.503062541456569 -0.338521936745794 0 0
0 0 0 0 0 0 0 0 0 0 0 0 0 0 0 0 0 0 0 0 0 0 0 0 0 0 0 0 0 0 0 0.423982048424944 0 0 0 0 0 0 0 0 0 -0.330892765922867 0 0 0 0 0 0 0 0
0 0 0 0 0 0 0 0 0 0 0 0 0 0 0 0 0.782337244972918 0.0932112196220436 0 0 0 0 0 0 0 0 0 0 0.493602880789317 0 0 0.385202522852609 0 0 0 0 0 0 0 0 0 0 -0.330892765922867 0 0 0 -2.71645452710759 0 0 0
0 0 0 0 0.157661669137365 0 0 0 0 0 0 0 0 0 0 0 0 0 0 0 0 0 0 0 0 0 0 0 0 0 0 0 0 0 0 0 0 0.572844076574407 0.284911413484982 0 0 0 0 -0.330892765922867 0 0 0 0 0 0
0 0 0 0 0 0 0 0 0 0 0 0 0 0 0 0 0 0 0 0.0359782845169425 0 0 0 0 0 0.366557251373063 0 0 0 0 0 0 0 0 0.143509152066213 0 0 0 0 0 0 0 0 0 -0.330892765922867 0 0 0 0 0
0 0 0 0 0 0 0 0 0 0 0 0 0 0 0 0 0 0 0 0 0 0 0 0 0 0 0 0 0.0860326118762761 0.327169268184076 0 0 0 0 0 0 0 0 0 0.0561487826498313 0 0 0 0 0 -0.330892765922867 0 0 0 0
0 0.774244797033343 0 0 0 0 0.0891117202615944 0 0 0 0.064982868578105 0 0 0 0 0 0 0 0 0.268263491944084 0 0.178516580740477 0 0 0 0 0 0 0 0.282021052268161 0 0 0.380801212285318 0 0 0 0 0 0 0 0.112323021621475 0 0.549736457486646 0 0 0 -0.330892765922867 0 0 0
0 0.44506065621871 0 0 0 0 0.331912785237504 0 0 0 0 0 0 0 0 0 0 0 0 0 0 0 0.0232390602509198 0 0 0 0 0 0 0 0 0 0 0 0 0 0 0 0 0 0.0699131248495505 0 0 0 0 0 0 -0.330892765922867 0 0
0 0 0 0 0 0 0 0 0 0 0 0 0 0 0.397408181747726 0 0 0.890658224129938 0 0 0 0 0 0 0 0 0 0 0 0 0 0 0 0 0.166155061977218 0.124784573832196 0.315664581142253 0 0 0 0 0 0 0 0 0 0 0 -0.330892765922867 0
0 0 0.0223349648314599 0 0 0 0.458780099542983 0 0 0 0 0 0 0 0 0 0 0 0 0 0 0 0 0 0 0 0 0 0 0 0 0 0 0.0188166318257004 0 0 0 0 0 0 0 0 0 0 0 0 0 0 0 -0.330892765922867
