-0.764322135163361 0 0 0 0 0 -3.02040223658379 0 0 0 0 0 -1.14394837507986 0 0 0 0 0 0 0 -0.192679487314322 0 0 0 0 0 0 0 0 0 0 0 0 0 0 0 0 0 0 0 0 0 0 0 0 0 0 0 0 0
0 -0.764322135163361 0 0 -1.49778102660785 0 -1.29934485862573 0 0 0 0 0 0 0 0 0 0 0 0 0 0 0 0 0 0 0 -5.94345452106965 0 -0.0266750334992495 0 0 0 0 0 0 0 0 0 0 0 -1.90084010566436 0 0 0 0 0 0 0 -0.837825061798511 0
0 0 -0.764322135163361 0 0 0 0 0 0 0 0 0 0 0 0 0 -0.860991810645758 0 0 0 0 0 0 0 0 0 0 0 0 0 0 0 0 0 0 0 -0.823822485853829 0 -2.23431306608331 0 0 0 0 0 -1.24929295155805 0 0 0 0 0
0 0 0 -0.764322135163361 -2.52011879679361 0 0 0 0 0 0 0 0 0 -0.258153504210907 0 -0.164847207346421 0 0 0 0 0 -0.760959522017137 -1.08798523538331 0 0 0 0 0 0 0 0 0 0 0 0 0 0 0 0 0 0 0 0 0 -2.74720361355225 0 0 0 0
0 0.306546614677331 0 0.506700109235492 -0.764322135163361 -0.127223780724136 -0.619566504687054 0 -2.58966419548155 0 0 0 0 -3.55156810119355 0 -1.54248505882239 0 0 0 0 0 0 0 0 0 -1.09174931246855 0 0 0 0 0 -0.54915571529432 0 0 0 0 0 0 0 0 0 0 0 0 0 0 0 0 0 0
0 0 0 0 0.0260928129525574 -0.764322135163361 -1.61018637592641 0 -0.428700226092194 0 0 -0.419468055291288 0 -0.237069387958386 0 0 -1.2985200769672 0 0 0 0 0 0 0 0 0 0 0 0 0 0 0 0 0 -1.21511399876685 0 0 0 0 0 0 0 0 -0.562381092493732 0 0 0 0 0 0
0.66470573120368 0.277966438064442 0 0 0.120701182654287 0.329719270312441 -0.764322135163361 0 0 0 0 0 0 -0.661313098516279 0 0 0 0 0 0 0 0 0 0 0 0 0 0 0 0 0 0 0 0 0 0 0 0 0 0 0 0 0 0 0 0 0 0 0 0
0 0 0 0 0 0 0 -0.764322135163361 0 0 0 0 0 -0.762190206157196 0 0 0 0 0 0 0 0 -6.45085579449195 0 0 0 0 0 -1.03176937122392 0 0 0 -0.663037723086936 0 0 0 0 0 0 0 0 0 0 0 0 0 0 0 0 0
0 0 0 0 0.501490365592863 0.0845298947074316 0 0 -0.764322135163361 0 0 0 0 0 0 0 0 0 0 0 0 0 -0.485741507177997 0 -1.31892315145455 0 0 0 0 0 0 0 0 0 0 0 0 0 0 0 0 0 0 0 0 0 0 0 0 0
0 0 0 0 0 0 0 0 0 -0.764322135163361 -0.842142607797116 0 0 0 0 0 0 -2.59158351495006 0 0 0 0 0 0 0 0 0 -1.40895194089757 0 0 0 0 0 0 -1.77839079286123 0 0 0 0 0 -0.100630285760208 0 0 0 0 0 0 0 0 0
0 0 0 0 0 0 0 0 0 0.157217737376765 -0.764322135163361 0 -0.752149500347802 0 0 0 0 0 0 0 0 -0.534158925213319 0 0 0 0 0 0 0 0 -1.41512728200853 0 0 0 0 0 0 0 0 0 0 0 0 0 0 0 0 0 0 0
0 0 0 0 0 0.0844526064264725 0 0 0 0 0 -0.764322135163361 -8.45573198044137 0 0 0 0 0 0 0 0 0 0 0 0 0 0 0 0 0 0 0 0 0 0 0 0 0 0 0 0 -7.3828812986888 0 0 0 0 0 0 0 0
0.230367037001279 0 0 0 0 0 0 0 0 0 0.140855463906804 1.70077262703182 -0.764322135163361 0 0 0 0 0 0 0 0 0 0 0 0 0 0 0 -1.27827534866302 0 0 0 0 -0.308720326274521 0 0 0 -2.11905820732854 0 0 0 -1.86754462770372 0 0 0 0 0 0 0 -0.334168292000376
0 0 0 0 0.66952105961364 0.049742746586414 0.130379505532369 0.150846948742998 0 0 0 0 0 -0.764322135163361 0 0 0 0 0 0 0 0 0 -1.83490683854549 0 0 0 0 0 0 -1.1027787872089 0 0 0 0 0 0 0 0 -3.40607789944095 -0.77502084693317 0 0 0 0 0 0 0 0 0
0 0 0 0.0515031403990606 0 0 0 0 0 0 0 0 0 0 -0.764322135163361 0 0 0 0 -6.52718547177328 0 0 0 0 0 0 0 0 0 -1.15087395682443 0 -1.10724965209281 0 0 0 -0.643424459844487 0 0 0 0 0 0 0 -7.32546617911717 0 0 0 0 0 0
0 0 0 0 0.2979019370492 0 0 0 0 0 0 0 0 0 0 -0.764322135163361 0 0 0 0 0 0 -0.75034045751043 0 0 0 0 0 0 0 0 0 0 0 0 0 0 -1.52323013740181 0 0 0 0 -4.59724123150154 0 0 0 0 0 0 0
0 0 0.176539398613007 0.0341665727312208 0 0.25744003346591 0 0 0 0 0 0 0 0 0 0 -0.764322135163361 0 0 -1.31344210368125 0 0 0 0 0 0 0 0 0 0 0 0 0 0 0 0 0 0 0 0 -0.316620499455143 0 0 0 0 -0.527307775334503 0 0 0 0
0 0 0 0 0 0 0 0 0 0.492226108368865 0 0 0 0 0 0 0 -0.764322135163361 0 0 0 0 0 0 0 0 0 0 0 0 0 0 0 0 0 0 0 0 0 0 0 0 0 0 0 0 0 0 0 0
0 0 0 0 0 0 0 0 0 0 0 0 0 0 0 0 0 0 -0.764322135163361 0 0 0 0 0 0 0 0 0 0 0 0 0 0 0 0 0 0 0 0 0 0 -0.720250023514341 0 0 0 -0.676356593643169 0 0 0 0
0 0 0 0 0 0 0 0 0 0 0 0 0 0 1.27370672720492 0 0.259527631845339 0 0 -0.764322135163361 0 0 0 0 0 0 0 0 -2.84392698347193 -0.688857987504204 0 0 0 0 0 0 0 -0.835367760408907 0 0 0 0 0 0 -0.742664082032333 0 0 0 0 0
0.0390133827343328 0 0 0 0 0 0 0 0 0 0 0 0 0 0 0 0 0 0 0 -0.764322135163361 0 0 0 0 0 0 0 0 0 0 0 -5.41149281704812 0 -0.837031256632639 0 0 0 0 0 0 0 0 0 0 0 0 0 -1.9998531926847 0
0 0 0 0 0 0 0 0 0 0 0.104956302445378 0 0 0 0 0 0 0 0 0 0 -0.764322135163361 0 0 0 0 0 0 -1.8813998819422 0 0 -0.702529691201939 0 -0.812345367256654 0 0 0 0 0 0 0 0 0 0 0 0 0 0 0 0
0 0 0 0.152766745431258 0 0 0 1.22636881036476 0.098632588085555 0 0 0 0 0 0 0.141061913762024 0 0 0 0 0 0 -0.764322135163361 0 0 0 0 0 0 -0.458553881052084 0 0 0 0 0 0 0 0 0 0 0 0 0 0 0 0 -0.554523968450242 0 0 0
0 0 0 0.198180970776221 0 0 0 0 0 0 0 0 0 0.3600087431029 0 0 0 0 0 0 0 0 0 -0.764322135163361 0 0 0 0 0 0 0 0 0 0 0 0 0 0 0 0 0 -8.51730224436616 0 -3.67477978956356 0 -0.706077290512726 0 0 -0.552196461704192 0
0 0 0 0 0 0 0 0 0.274029297513927 0 0 0 0 0 0 0 0 0 0 0 0 0 0 0 -0.764322135163361 0 0 0 -1.03317780963524 0 0 0 0 0 0 0 0 0 0 0 -0.301564358906286 -1.80294467516062 -1.12818083316763 -1.53264165567551 0 0 0 0 0 0
0 0 0 0 0.222169877793364 0 0 0 0 0 0 0 0 0 0 0 0 0 0 0 0 0 0 0 0 -0.764322135163361 0 0 0 -0.752914145352504 0 0 0 -0.626840274833931 0 0 0 0 0 -0.636916084785276 0 0 0 0 0 0 0 0 0 0
0 1.06959162086654 0 0 0 0 0 0 0 0 0 0 0 0 0 0 0 0 0 0 0 0 0 0 0 0 -0.764322135163361 0 0 -0.330900801979225 0 0 0 -4.39891481410314 0 0 0 0 0 0 0 0 0 -0.145005866987026 0 0 -0.184238629806934 0 0 0
0 0 0 0 0 0 0 0 0 0.270385486238211 0 0 0 0 0 0 0 0 0 0 0 0 0 0 0 0 0 -0.764322135163361 0 0 0 0 0 0 0 0 0 0 0 0 0 0 0 0 0 0 0 0 -1.42732982781434 0
0 0.0054200493559054 0 0 0 0 0 0.220349927268401 0 0 0 0 0.25165023196987 0 0 0 0 0 0 0.582190657676925 0 0.391531503162577 0 0 0.201276259060701 0 0 0 -0.764322135163361 0 0 0 0 0 0 0 0 0 -1.68469568437419 0 0 0 0 -1.47121937599638 0 0 0 0 0 0
0 0 0 0 0 0 0 0 0 0 0 0 0 0 0.219954098353254 0 0 0 0 0.141249988714821 0 0 0.0890690739197132 0 0 0.159188877601139 0.0641593179106783 0 0 -0.764322135163361 0 0 0 0 0 0 0 0 0 -0.164681282029614 0 0 0 0 0 0 -0.715889035621315 -3.9399460768509 0 0
0 0 0 0 0 0 0 0 0 0 0.297471097483441 0 0 0.212156046186882 0 0 0 0 0 0 0 0 0 0 0 0 0 0 0 0 -0.764322135163361 0 0 -0.735034012200884 -4.58483772738732 0 0 0 0 0 0 0 0 0 0 0 0 0 0 0
0 0 0 0 0.105952041398374 0 0 0 0 0 0 0 0 0 0.209406543994894 0 0 0 0 0 0 0.132405322495366 0 0 0 0 0 0 0 0 0 -0.764322135163361 -6.78453467078363 0 0 0 0 0 0 0 -1.58938450055789 0 -1.07553425574325 0 -0.498723217711553 0 0 0 0 0
0 0 0 0 0 0 0 0.143369448375618 0 0 0 0 0 0 0 0 0 0 0 0 1.07818120499707 0 0 0 0 0 0 0 0 0 0 1.27708431773548 -0.764322135163361 0 0 -0.824746450085598 0 0 0 0 -7.61134608670577 0 0 0 0 0 0 0 0 0
0 0 0 0 0 0 0 0 0 0 0 0 0.0622614371097367 0 0 0 0 0 0 0 0 0.166703842729034 0 0 0 0.122314246599546 0.886308519490645 0 0 0 0.151705798494535 0 0 -0.764322135163361 0 0 0 0 0 0 0 0 0 0 0 -0.229983933990049 0 0 0 0
0 0 0 0 0 0.246481428708184 0 0 0 0.360432390752507 0 0 0 0 0 0 0 0 0 0 0.160280319360803 0 0 0 0 0 0 0 0 0 0.93103152684604 0 0 0 -0.764322135163361 -0.461579673964497 0 0 0 0 0 0 0 0 0 0 -1.06797917761749 0 0 0
0 0 0 0 0 0 0 0 0 0 0 0 0 0 0.118521018590524 0 0 0 0 0 0 0 0 0 0 0 0 0 0 0 0 0 0.164219384236599 0 0.104925547461724 -0.764322135163361 0 0 0 0 0 0 0 -0.49263161476748 0 0 0 0 0 0
0 0 0.162861726506739 0 0 0 0 0 0 0 0 0 0 0 0 0 0 0 0 0 0 0 0 0 0 0 0 0 0 0 0 0 0 0 0 0 -0.764322135163361 0 0 0 0 0 -0.308626160922623 0 0 -0.493803544049771 0 0 0 0
0 0 0 0 0 0 0 0 0 0 0 0 0.425634510199665 0 0 0.30005192099059 0 0 0 0.164250843133624 0 0 0 0 0 0 0 0 0 0 0 0 0 0 0 0 0 -0.764322135163361 0 -3.06459009784189 0 0 0 0 0 -1.58462545286412 0 0 0 0
0 0 0.492261793870843 0 0 0 0 0 0 0 0 0 0 0 0 0 0 0 0 0 0 0 0 0 0 0 0 0 0.342442477331317 0 0 0 0 0 0 0 0 0 -0.764322135163361 0 0 0 0 0 0 0 0 0 0 0
0 0 0 0 0 0 0 0 0 0 0 0 0 0.632085571065102 0 0 0 0 0 0 0 0 0 0 0 0.132967279061165 0 0 0 0.0329892586384742 0 0 0 0 0 0 0 0.614957146495451 0 -0.764322135163361 -6.95743850088647 0 0 -0.323127319410199 0 0 0 0 0 0
0 0.367012228323857 0 0 0 0 0 0 0 0.020705935819624 0 0 0 0.1413946487619 0 0 0.0616272995127372 0 0 0 0 0 0 0 0.0607566581899033 0 0 0 0 0 0 0.307656516162561 1.61874060589333 0 0 0 0 0 0 1.53214002332886 -0.764322135163361 0 0 0 0 0 0 0 0 0
0 0 0 0 0 0 0 0 0 0 0 1.48923433525447 0.376216809906308 0 0 0 0 0 0.149162969899139 0 0 0 0 1.8297943769386 0.361183217101013 0 0 0 0 0 0 0 0 0 0 0 0 0 0 0 0 -0.764322135163361 0 0 0 0 -0.881643377105604 0 0 0
0 0 0 0 0 0 0 0 0 0 0 0 0 0 0 0.871631842246409 0 0 0 0 0 0 0 0 0.210499820592889 0 0 0 0 0 0 0.197031633311817 0 0 0 0 0.0634902546247798 0 0 0 0 0 -0.764322135163361 0 0 0 0 0 -2.71721089932372 0
0 0 0 0 0 0.107364427936697 0 0 0 0 0 0 0 0 1.30417502345653 0 0 0 0 0 0 0 0 0.778608126748604 0.319325428578907 0 0.0292549142520037 0 0.296326338031893 0 0 0 0 0 0 0.1013079855365 0 0 0 0.0641451296017167 0 0 0 -0.764322135163361 0 0 0 -0.120490794979067 -1.3527416119184 0
0 0 0.269793854534842 0 0 0 0 0 0 0 0 0 0 0 0 0 0 0 0 0.142173232927741 0 0 0 0 0 0 0 0 0 0 0 0.102851673238926 0 0 0 0 0 0 0 0 0 0 0 0 -0.764322135163361 0 0 0 0 0
0 0 0 0.571927916766552 0 0 0 0 0 0 0 0 0 0 0 0 0.107422279336826 0 0.151078159860942 0 0 0 0 0.136935853702401 0 0 0 0 0 0 0 0 0 0.0482892486567238 0 0 0.101343382109182 0.308595107047564 0 0 0 0 0 0 0 -0.764322135163361 0 0 0 0
0 0 0 0 0 0 0 0 0 0 0 0 0 0 0 0 0 0 0 0 0 0 0.116009862774199 0 0 0 0.0393316467909204 0 0 0.139555020257603 0 0 0 0 0.21981326195855 0 0 0 0 0 0 0.17555537144772 0 0 0 0 -0.764322135163361 0 0 0
0 0 0 0 0 0 0 0 0 0 0 0 0 0 0 0 0 0 0 0 0 0 0 0 0 0 0 0 0 0.814519977187071 0 0 0 0 0 0 0 0 0 0 0 0 0 0.0235615709865167 0 0 0 -0.764322135163361 0 -2.24345023689455
0 0.159014970893392 0 0 0 0 0 0 0 0 0 0 0 0 0 0 0 0 0 0 0.411769999362317 0 0 0.104056776081634 0 0 0 0.276393057666072 0 0 0 0 0 0 0 0 0 0 0 0 0 0 0.546405304088737 0.279605609617757 0 0 0 0 -0.764322135163361 0
0 0 0 0 0 0 0 0 0 0 0 0 0.0667094819400026 0 0 0 0 0 0 0 0 0 0 0 0 0 0 0 0 0 0 0 0 0 0 0 0 0 0 0 0 0 0 0 0 0 0 0.460107431673563 0 -0.764322135163361
