0.958688867552224
1.33996813251071
0.968052229998579
1.92536081698433
0.532635852617837
1.59712559900972
9.34680728479596
3.65028713741283
0.168692636321672
0.566020372239024
0.807479431908843
2.13573865306115
1.53011791818093
0.21356015323266
0.986265466976434
1.37621183887013
0.849275632824911
1.31516955443066
1.60462608102486
0.285091881270862
0.280468111446034
2.46632513670624
0.408026432197092
0.285696465142016
1.78370010974348
0.648581190230781
0.198257029069494
0.488336016968592
1.32789945137429
0.235283866644957
0.35290772029081
0.307217973064075
3.52225233565273
0.0706782314591909
0.446884578781022
0.708083811301241
0.818799083739783
0.287012177576792
0.342008926827037
2.05763458048744
2.40276940711731
0.373475936839535
0.917232738262892
2.349302035446
2.36280066975114
1.04086133723484
0.479597260491307
0.256725631911659
0.51836781294997
0.92199706914689
