-0.414872589221054 0 0 -0.162311598382742 0 -0.589108769893483 0 0 0 0 0 0 0 -0.873772726885698 0 0 0 0 0 -1.03138868408946 0 0 0 0 0 0 0 0 0 0 0 0 0 0 0 0 0 0 0 0 -2.28484625225564 0 0 0 0 0 0 0 0 0
0 -0.414872589221054 0 -0.257523772095334 0 0 0 0 0 0 0 0 0 0 0 0 0 0 0 0 0 0 0 -0.674880718328593 -0.858962365686521 0 0 0 0 0 0 0 0 0 0 -0.177997529601623 0 0 0 0 0 -0.332009085987237 0 0 0 -0.408671291251147 -0.734569236857046 0 0 0
0 0 -0.414872589221054 0 0 0 0 0 0 0 0 0 0 0 0 0 -3.03035992613797 0 0 0 -1.61757082321729 0 0 0 0 0 0 0 0 0 0 0 0 0 -1.22282902569258 0 0 0 0 0 0 0 0 0 0 0 0 -0.51042739000919 0 0
0.0323535828109018 0.0548229934677589 0 -0.414872589221054 0 0 0 -1.18386036477863 0 0 0 0 0 0 0 0 0 0 0 0 0 0 0 0 0 0 0 -0.493587302460838 0 0 0 0 0 0 0 0 0 0 0 -1.68303948974096 0 0 0 0 0 0 0 -0.645967794763782 0 0
0 0 0 0 -0.414872589221054 -11.3291775765085 0 0 0 0 0 0 0 0 0 0 0 0 0 0 0 0 0 0 0 0 0 0 -0.413792351297491 0 0 0 0 0 0 0 0 0 -0.857301548745752 0 0 0 0 0 0 0 -3.72980492341298 0 0 0
0.114459012692364 0 0 0 2.37795152893895 -0.414872589221054 0 0 0 0 0 0 -0.282458646178485 0 0 0 -2.23906370218205 0 -1.0640030540821 0 0 0 0 0 0 0 0 0 0 0 0 0 0 0 0 0 0 0 0 0 0 0 0 0 0 0 0 0 0 -4.43661119486418
0 0 0 0 0 0 -0.414872589221054 0 -1.19259166753684 0 0 0 0 0 0 0 0 0 0 0 0 0 0 0 0 0 0 -0.541790678488912 0 0 -0.844654232160077 0 0 0 0 0 -1.71503088397283 0 0 0 0 0 0 0 0 0 -0.670373608734558 0 0 0
0 0 0 0.223044848453261 0 0 0 -0.414872589221054 0 0 0 0 0 0 0 0 0 0 0 0 0 0 0 0 0 0 0 0 0 -2.91573991469451 0 0 0 0 -0.534877633580085 0 0 0 0 0 0 0 0 0 0 0 0 0 0 0
0 0 0 0 0 0 0.24693389229544 0 -0.414872589221054 0 0 0 -0.209313932967025 0 0 0 0 0 0 0 0 -4.16699079373372 0 -0.573751278750025 0 0 0 -0.986983269140829 0 -0.855249708680432 0 0 -2.32628396242324 0 0 0 0 0 0 -0.196988798581328 0 0 0 0 0 0 0 0 0 0
0 0 0 0 0 0 0 0 0 -0.414872589221054 0 0 0 0 0 0 0 0 0 0 0 0 0 0 0 0 -1.46743791026486 0 0 0 0 -0.565275760661268 0 0 0 0 -3.44633143578108 0 0 -0.591515932270031 0 0 0 0 0 0 0 0 0 0
0 0 0 0 0 0 0 0 0 0 -0.414872589221054 0 0 0 -1.76221734842105 0 0 0 0 0 0 0 0 0 0 0 0 0 0 -0.350908917678507 0 0 0 0 0 0 0 0 0 0 -1.85344308168235 0 0 0 -2.11109839025563 -1.27904172263274 0 0 -0.345536490559548 0
0 0 0 0 0 0 0 0 0 0 0 -0.414872589221054 0 0 0 0 0 0 0 0 0 0 -1.14998211226148 0 0 0 -0.395706072878736 0 0 0 0 0 0 0 0 0 0 0 0 0 0 0 0 0 0 0 0 0 0 0
0 0 0 0 0 0.0583786849385291 0 0 0.0405444441927107 0 0 0 -0.414872589221054 0 0 0 0 0 -0.327740081475872 0 0 0 0 0 0 0 0 0 -0.908083019365184 0 0 0 0 0 0 -1.33695691612826 0 0 0 0 0 0 0 -1.27576557366134 0 0 0 0 0 0
0.170341262494569 0 0 0 0 0 0 0 0 0 0 0 0 -0.414872589221054 0 0 0 0 0 0 0 0 0 0 -0.790076957198767 0 0 0 0 0 0 0 0 0 0 -2.75938202715106 0 0 0 -1.85166330028004 0 0 0 0 0 0 0 0 0 0
0 0 0 0 0 0 0 0 0 0 0.368712484728266 0 0 0 -0.414872589221054 0 -10.6067072696207 0 0 0 0 0 0 0 0 0 0 0 0 0 0 0 0 0 0 0 0 0 0 0 0 0 0 0 0 -0.986332049401565 0 0 0 0
0 0 0 0 0 0 0 0 0 0 0 0 0 0 0 -0.414872589221054 0 0 0 0 0 0 0 -0.742061958479645 0 0 0 0 0 0 0 0 0 0 0 0 0 0 0 0 0 0 0 0 0 0 0 0 0 0
0 0 0.556293037253381 0 0 0.447864375958256 0 0 0 0 0 0 0 0 2.18777977003474 0 -0.414872589221054 0 0 0 0 0 0 0 0 0 0 0 0 0 0 0 0 0 0 0 0 0 0 0 -1.23692098745756 0 0 0 0 0 0 0 0 0
0 0 0 0 0 0 0 0 0 0 0 0 0 0 0 0 0 -0.414872589221054 0 0 0 0 0 0 0 0 0 -1.51711855712286 0 0 0 0 0 -1.88222623111941 -0.332870831286807 0 0 0 0 0 0 0 0 0 0 0 0 0 -0.599717962402 0
0 0 0 0 0 0.206402747003925 0 0 0 0 0 0 0.0567009308460545 0 0 0 0 0 -0.414872589221054 0 -2.5690239528589 0 0 0 -0.743284882457797 0 0 0 0 0 0 0 0 0 0 0 0 0 0 -5.02840345452552 0 0 0 0 0 0 0 0 0 0
0.183432550104794 0 0 0 0 0 0 0 0 0 0 0 0 0 0 0 0 0 0 -0.414872589221054 0 0 0 0 0 0 0 0 0 0 0 0 0 0 0 0 0 0 0 0 0 -1.0012355441728 0 0 0 -0.52852435501151 0 0 0 0
0 0 0.326934882101141 0 0 0 0 0 0 0 0 0 0 0 0 0 0 0 0.461921813202896 0 -0.414872589221054 0 0 -2.11826038554711 0 0 0 0 0 0 0 0 0 0 0 0 0 0 0 0 0 0 0 -1.25968583436841 0 0 0 0 0 0
0 0 0 0 0 0 0 0 0.812748252117835 0 0 0 0 0 0 0 0 0 0 0 0 -0.414872589221054 0 0 0 0 0 0 0 0 -0.171573348007962 0 -0.509890558355576 0 -1.0714613024467 0 -1.39177999653149 -1.11370360870633 0 0 -0.249467787238859 0 0 0 0 0 0 0 0 0
0 0 0 0 0 0 0 0 0 0 0 0.235945095937463 0 0 0 0 0 0 0 0 0 0 -0.414872589221054 0 0 0 0 0 0 0 0 0 0 0 0 0 -0.826502568701824 0 0 0 0 0 0 0 0 0 0 0 0 -2.09427670203509
0 0.135331917319234 0 0 0 0 0 0 0.116319270430455 0 0 0 0 0 0 0.170507465889003 0 0 0 0 0.422740029190816 0 0 -0.414872589221054 0 0 0 0 -1.64263036795814 0 0 0 0 0 0 0 -1.65986054273167 0 0 0 0 0 0 0 0 0 0 0 0 0
0 0.164247777710155 0 0 0 0 0 0 0 0 0 0 0 0.160859329537826 0 0 0 0 0.159987860749451 0 0 0 0 0 -0.414872589221054 0 0 0 0 0 0 0 -0.327109397890918 0 0 -0.708447899189057 0 -0.670222879484815 0 0 0 0 0 0 0 0 0 0 0 0
0 0 0 0 0 0 0 0 0 0 0 0 0 0 0 0 0 0 0 0 0 0 0 0 0 -0.414872589221054 0 -0.631502282122069 0 0 0 0 0 0 0 0 -2.61215726997994 0 0 0 -4.06183097163162 0 0 0 0 0 0 0 0 0
0 0 0 0 0 0 0 0 0 0.286172139307787 0 0.0820297452921927 0 0 0 0 0 0 0 0 0 0 0 0 0 0 -0.414872589221054 0 0 0 0 -0.954744609421848 0 0 0 0 0 0 0 0 0 0 0 0 0 -0.479418470883447 0 -0.319403387722583 0 0
0 0 0 0.0905714941945181 0 0 0.109257043102971 0 0.198094495786346 0 0 0 0 0 0 0 0 0.30757429511521 0 0 0 0 0 0 0 0.130033772630985 0 -0.414872589221054 0 0 0 0 0 0 0 0 0 0 0 0 0 0 -0.409877643942883 0 0 0 0 0 -1.09034041449567 0
0 0 0 0 0.0826927031410686 0 0 0 0 0 0 0 0.201961661955799 0 0 0 0 0 0 0 0 0 0 0.333649687777812 0 0 0 0 -0.414872589221054 0 0 0 0 0 0 -3.67109782303592 -0.480709928661152 0 0 0 0 0 0 -0.63795797055779 0 0 0 0 0 0
0 0 0 0 0 0 0 0.589923770168292 0.168864989983313 0 0.0632984336646718 0 0 0 0 0 0 0 0 0 0 0 0 0 0 0 0 0 0 -0.414872589221054 0 0 0 0 -1.78257108684888 0 0 0 0 0 0 0 -1.82000441170413 0 0 0 0 0 0 0
0 0 0 0 0 0 0.173598552505614 0 0 0 0 0 0 0 0 0 0 0 0 0 0 0.0374587036688983 0 0 0 0 0 0 0 0 -0.414872589221054 -1.35847759773161 0 -1.46776025621259 0 0 0 0 0 0 0 0 0 0 0 0 0 0 0 0
0 0 0 0 0 0 0 0 0 0.110832126735326 0 0 0 0 0 0 0 0 0 0 0 0 0 0 0 0 0.1905197118481 0 0 0 0.270727961893003 -0.414872589221054 0 0 0 0 0 0 0 0 0 0 0 0 0 0 0 0 0 0
0 0 0 0 0 0 0 0 0.459297080195368 0 0 0 0 0 0 0 0 0 0 0 0 0.111134169609714 0 0 0.0649311526673037 0 0 0 0 0 0 0 -0.414872589221054 0 -0.870582745826794 0 0 0 0 0 -1.00273331631923 0 0 0 0 0 0 0 0 0
0 0 0 0 0 0 0 0 0 0 0 0 0 0 0 0 0 0.388805367467972 0 0 0 0 0 0 0 0 0 0 0 0 0.294843173450193 0 0 -0.414872589221054 0 -4.12542947991082 0 0 0 0 -0.108285293982086 0 0 -0.415921313293273 0 -2.82177933881037 -1.05560181074839 0 0 0
0 0 0.231110692094769 0 0 0 0 0.115115876602141 0 0 0 0 0 0 0 0 0 0.0705661483000943 0 0 0 0.231190740266138 0 0 0 0 0 0 0 0.376363347604009 0 0 0.17336307434462 0 -0.414872589221054 0 0 0 0 0 0 0 0 0 0 0 -0.772389194841235 0 0 0
0 0.0387084756407916 0 0 0 0 0 0 0 0 0 0 0.268317233477882 0.542082526573141 0 0 0 0 0 0 0 0 0 0 0.137804500400146 0 0 0 0.717739684883699 0 0 0 0 0.857167009053887 0 -0.414872589221054 0 0 0 0 0 0 0 0 0 0 -2.07749866137537 0 0 -1.77240386350444
0 0 0 0 0 0 0.32138924743395 0 0 0.718045170743721 0 0 0 0 0 0 0 0 0 0 0 0.271559384515245 0.16840208266848 0.324204548740123 0 0.485462106702932 0 0 0.0954282422377751 0 0 0 0 0 0 0 -0.414872589221054 0 0 0 0 0 0 0 0 0 0 0 0 -8.8692718442475
0 0 0 0 0 0 0 0 0 0 0 0 0 0 0 0 0 0 0 0 0 0.223522151113436 0 0 0.141824007414591 0 0 0 0 0 0 0 0 0 0 0 0 -0.414872589221054 0 0 0 0 0 0 0 0 0 0 -0.871744956923407 0
0 0 0 0 0.167496727666463 0 0 0 0 0 0 0 0 0 0 0 0 0 0 0 0 0 0 0 0 0 0 0 0 0 0 0 0 0 0 0 0 0 -0.414872589221054 0 0 0 0 0 0 0 0 0 0 0
0 0 0 0.32635726939776 0 0 0 0 0.0409860348279528 0.122657660573731 0 0 0 0.37110200856018 0 0 0 0 1.03710330776692 0 0 0 0 0 0 0 0 0 0 0 0 0 0 0 0 0 0 0 0 -0.414872589221054 0 -0.177534859741305 0 0 0 0 0 0 0 0
0.469244506805752 0 0 0 0 0 0 0 0 0 0.358382336763966 0 0 0 0 0 0.261968582843437 0 0 0 0 0.0511088524249012 0 0 0 0.812093837672625 0 0 0 0 0 0 0.190598903032703 0.0204044238322761 0 0 0 0 0 0 -0.414872589221054 0 0 0 0 0 0 0 0 0
0 0.0651919855424596 0 0 0 0 0 0 0 0 0 0 0 0 0 0 0 0 0 0.201193937083002 0 0 0 0 0 0 0 0 0 0 0 0 0 0 0 0 0 0 0 0.0341352592774114 0 -0.414872589221054 0 0 0 0 0 0 0 0
0 0 0 0 0 0 0 0 0 0 0 0 0 0 0 0 0 0 0 0 0 0 0 0 0 0 0 0.0885290986638682 0 0.383360371610619 0 0 0 0 0 0 0 0 0 0 0 0 -0.414872589221054 0 0 0 0 0 0 0
0 0 0 0 0 0 0 0 0 0 0 0 0.259484458227089 0 0 0 0 0 0 0 0.242663114830714 0 0 0 0 0 0 0 0.136426773148074 0 0 0 0 0.0899735544720233 0 0 0 0 0 0 0 0 0 -0.414872589221054 0 0 0 0 0 0
0 0 0 0 0 0 0 0 0 0 0.387490320959235 0 0 0 0 0 0 0 0 0 0 0 0 0 0 0 0 0 0 0 0 0 0 0 0 0 0 0 0 0 0 0 0 0 -0.414872589221054 0 0 0 0 0
0 0.0828064496926 0 0 0 0 0 0 0 0 0.251977207014927 0 0 0 0.174446571340679 0 0 0 0 0.10161312997805 0 0 0 0 0 0 0.0932747080226794 0 0 0 0 0 0 0.536509928892744 0 0 0 0 0 0 0 0 0 0 0 -0.414872589221054 0 0 0 0
0 0.152579984832474 0 0 0.722871893471164 0 0.142576952681314 0 0 0 0 0 0 0 0 0 0 0 0 0 0 0 0 0 0 0 0 0 0 0 0 0 0 0.186426922623065 0.154581704683082 0.427843242466565 0 0 0 0 0 0 0 0 0 0 -0.414872589221054 0 0 0
0 0 0.103684100367357 0.127730813200303 0 0 0 0 0 0 0 0 0 0 0 0 0 0 0 0 0 0 0 0 0 0 0.0618877406082301 0 0 0 0 0 0 0 0 0 0 0 0 0 0 0 0 0 0 0 0 -0.414872589221054 0 0
0 0 0 0 0 0 0 0 0 0 0.0746074089432285 0 0 0 0 0 0 0.112341131183487 0 0 0 0 0 0 0 0 0 0.212404910114358 0 0 0 0 0 0 0 0 0 0.167368841380277 0 0 0 0 0 0 0 0 0 0 -0.414872589221054 0
0 0 0 0 0 0.898421947192453 0 0 0 0 0 0 0 0 0 0 0 0 0 0 0 0 0.412132233874482 0 0 0 0 0 0 0 0 0 0 0 0 0.343022307593683 1.7950330045107 0 0 0 0 0 0 0 0 0 0 0 0 -0.414872589221054
