1.96933494211411
0.605234975939417
0.148797798012503
1.03358618376762
0.336772279228037
0.601575781063082
1.37966887912798
0.588146566659915
0.428933590810696
5.17760211157325
1.47199691940842
0.081417437852524
2.63932618697396
6.06050324836795
0.135413533208721
1.13245855808318
1.88182866105231
0.10040131190807
0.530968056168361
1.34279629056794
1.30597492408275
0.238891110237114
5.94980792630566
1.44254859656733
0.501221088727688
2.73294418728097
0.306821016789881
1.13402889319058
3.92126141639824
0.805516389292203
2.28529569148751
0.0703437703683182
1.49002805192068
2.85829168646831
0.718139332966445
0.458006125181867
0.130823237329181
0.756741877656935
0.590338553797146
1.91152803984218
2.254226004571
0.373791839162151
3.38344275173286
2.97960218464535
1.38938617814126
0.699339620425909
1.10794399761164
3.32754543480981
6.28296451769409
0.81254291044234
