-0.247730618353575 0 0 0 0 0 0 0 0 0 0 0 0 0 0 0 0 0 0 0 0 0 -4.95045716264017 0 0 0 0 0 0 0 0 0 -2.1693809740438 0 0 0 -1.87570537047037 0 0 -9.6159983038631 0 0 0 0 0 0 0 0 0 0
0 -0.247730618353575 0 0 0 0 0 0 0 0 0 0 0 0 0 0 0 -3.09425556379252 0 0 0 0 0 0 0 0 0 0 0 0 0 -2.38413028303234 0 0 0 0 -3.15712867379088 0 0 0 0 0 0 0 0 0 0 0 0 0
0 0 -0.247730618353575 0 0 0 0 0 0 0 0 0 0 0 0 0 0 0 0 0 0 0 0 0 0 0 -2.36261963103786 0 0 0 -0.712781742926419 0 0 0 0 0 0 0 0 0 0 0 0 0 0 -2.57667495878211 0 0 0 0
0 0 0 -0.247730618353575 0 0 0 0 0 0 0 0 -0.255974479274186 -1.03901206993126 -0.743220975871209 0 0 0 0 0 0 0 0 -0.854493850578307 0 0 0 0 0 0 0 -0.354398648297892 0 0 0 0 0 0 0 0 0 0 0 0 0 0 0 0 0 -0.398103829637143
0 0 0 0 -0.247730618353575 0 0 0 0 0 -2.02963331097965 0 0 0 0 -2.37324324727267 0 -1.52723071812421 0 0 0 -1.64974118776751 0 0 0 0 0 0 0 0 0 0 -6.74114501103662 0 0 0 0 0 0 0 0 0 0 0 0 0 0 0 0 0
0 0 0 0 0 -0.247730618353575 0 0 0 0 0 -0.0969820097350477 0 0 0 0 0 0 0 0 0 0 0 -0.36094038324711 0 0 0 0 0 0 0 0 0 0 0 0 0 0 0 0 0 0 0 0 0 0 -0.4524812619599 0 0 0
0 0 0 0 0 0 -0.247730618353575 0 0 0 -0.454494736750377 0 0 0 0 0 0 -0.32541326289558 0 0 -0.774447503478511 0 0 0 0 0 0 -0.487685019147517 0 0 0 0 0 0 0 0 0 0 0 0 0 0 -5.44803050479915 0 0 0 0 0 0 0
0 0 0 0 0 0 0 -0.247730618353575 0 0 0 0 0 0 0 0 0 0 0 0 0 0 0 -0.0854871664357496 0 -3.43298090990755 0 0 0 0 0 0 0 0 0 0 0 0 0 0 0 0 0 0 0 0 -8.45382467982582 0 0 0
0 0 0 0 0 0 0 0 -0.247730618353575 0 0 0 0 -0.460722838596332 0 0 0 -1.08319270183435 0 0 -1.95324801976245 0 0 0 0 0 0 0 0 0 0 0 0 0 0 0 0 0 0 0 0 0 0 0 0 0 0 0 0 0
0 0 0 0 0 0 0 0 0 -0.247730618353575 0 -0.597882715482546 0 0 0 0 0 -3.4847759626781 0 0 0 0 0 -1.93608853487026 0 0 0 0 0 0 -0.452323076671095 0 0 0 0 0 0 0 0 0 0 0 -0.362303158635639 0 0 0 0 0 0 0
0 0 0 0 0.399976590419716 0 0.0912239439844095 0 0 0 -0.247730618353575 0 0 0 0 0 0 0 0 0 0 -1.926413510841 0 0 0 0 0 0 0 0 0 0 0 0 0 0 0 0 0 0 0 0 0 0 0 0 0 0 0 0
0 0 0 0 0 0.0170954118286412 0 0 0 0.120446034769498 0 -0.247730618353575 0 0 0 0 0 -1.93480540294167 0 0 0 0 0 0 -10.5432585356923 0 0 0 0 0 0 0 0 0 0 0 0 -0.30807128115083 0 0 -1.08535336337199 0 0 0 0 -1.30097249350038 0 0 0 0
0 0 0 0.0541395661152709 0 0 0 0 0 0 0 0 -0.247730618353575 0 0 0 0 0 0 0 0 0 0 0 0 0 0 0 0 0 0 0 0 0 0 0 0 0 0 0 0 0 0 0 0 0 0 0 0 0
0 0 0 0.195905370312091 0 0 0 0 0.0918645016535347 0 0 0 0 -0.247730618353575 0 0 0 0 0 0 0 0 0 0 0 -0.986452094347408 0 0 0 0 0 0 0 0 0 0 0 0 -4.51088536367088 0 0 0 0 0 0 0 0 -7.76138962585529 0 0
0 0 0 0.148019783847255 0 0 0 0 0 0 0 0 0 0 -0.247730618353575 0 0 0 0 0 0 0 0 0 0 0 0 0 0 0 0 0 0 0 0 -0.508375636473394 0 0 0 0 0 0 0 0 -0.60249957254435 0 0 0 -1.76104158671646 0
0 0 0 0 0.515905170070455 0 0 0 0 0 0 0 0 0 0 -0.247730618353575 0 0 0 -1.61001580321513 -1.52434054544192 -6.78576746234043 0 0 0 0 0 0 0 0 0 0 0 0 0 0 -0.622276514308546 0 -0.449338760244016 0 0 0 0 0 0 -2.13966257764396 0 0 0 0
0 0 0 0 0 0 0 0 0 0 0 0 0 0 0 0 -0.247730618353575 0 0 -1.56332201378263 0 0 0 0 0 0 0 0 -0.837833708011116 0 -0.963549233675733 0 0 0 0 0 0 0 0 -0.222144850343962 0 0 0 0 0 0 0 -1.95618050114122 0 0
0 0.652113847662187 0 0 0.290918921954167 0 0.0620685501688257 0 0.213845517296665 0.6692556089663 0 0.377238695361839 0 0 0 0 0 -0.247730618353575 0 0 0 0 0 0 -1.24537105888641 -0.299795785109421 0 0 0 -0.439609240772162 0 0 0 -0.306911877906493 0 0 0 0 0 0 0 0 0 0 0 0 -0.625792809434188 0 -0.294828668862888 0
0 0 0 0 0 0 0 0 0 0 0 0 0 0 0 0 0 0 -0.247730618353575 0 0 -0.682579768649014 0 0 0 -0.490029400692757 0 0 0 0 0 0 -2.94744549580239 0 0 0 0 0 -0.819530301000697 0 0 0 0 0 0 -1.20792435559991 0 0 0 0
0 0 0 0 0 0 0 0 0 0 0 0 0 0 0 0.321069281425328 0.328818668792305 0 0 -0.247730618353575 0 0 0 0 0 0 0 0 0 0 0 0 0 0 0 0 0 0 -1.57003040259581 0 -0.537458291313391 0 0 0 0 0 0 -0.694358563357172 0 0
0 0 0 0 0 0 0.154867116517143 0 0.440179028570828 0 0 0 0 0 0 0.296528565434126 0 0 0 0 -0.247730618353575 0 0 0 0 0 -0.210517854358955 0 0 0 0 0 0 0 0 0 0 0 -1.0218682662963 0 0 0 0 -1.40490805695068 0 0 0 0 0 0
0 0 0 0 0.329245316817659 0 0 0 0 0 0.392256077049901 0 0 0 0 1.28024012352193 0 0 0.134087667551608 0 0 -0.247730618353575 0 0 0 -1.72144845551743 0 0 0 0 0 0 0 0 0 -0.557212286431464 0 0 0 0 0 0 0 0 0 0 -2.03071429580234 0 0 0
0.878640420618373 0 0 0 0 0 0 0 0 0 0 0 0 0 0 0 0 0 0 0 0 0 -0.247730618353575 0 -0.651806909457105 -0.623095787772008 0 0 0 0 0 0 0 0 0 0 0 0 -0.334823766300305 0 0 0 0 0 0 0 0 0 0 0
0 0 0 0.150671113409518 0 0.0762593759332308 0 0.0176089197960035 0 0.375161383933282 0 0 0 0 0 0 0 0 0 0 0 0 0 -0.247730618353575 0 0 0 0 0 0 0 0 0 0 -0.19047132489202 0 0 0 0 0 0 -0.18863570027908 0 -0.131589549145118 0 0 0 0 0 0
0 0 0 0 0 0 0 0 0 0 0 2.03119349990194 0 0 0 0 0 0.247199807407205 0 0 0 0 0.127941939050003 0 -0.247730618353575 0 0 0 0 0 0 0 0 0 0 0 0 0 0 0 0 0 0 0 0 0 0 0 0 0
0 0 0 0 0 0 0 0.65614773676554 0 0 0 0 0 0.204682281756506 0 0 0 0.0570520788133857 0.100105128108903 0 0 0.323146020044542 0.132683278474037 0 0 -0.247730618353575 0 0 0 0 0 -0.71007692855628 0 0 0 0 0 0 0 0 0 0 0 0 0 0 0 0 0 0
0 0 0.524890139975934 0 0 0 0 0 0 0 0 0 0 0 0 0 0 0 0 0 0.0410224272070508 0 0 0 0 0 -0.247730618353575 0 0 0 0 0 -0.481750651240048 -1.07228868680092 0 -2.8851402571543 0 -1.33082550559916 0 0 0 0 -0.693776243811306 0 0 -2.94497354144631 0 0 0 -2.1695060523062
0 0 0 0 0 0 0.0987040980472519 0 0 0 0 0 0 0 0 0 0 0 0 0 0 0 0 0 0 0 0 -0.247730618353575 0 0 0 0 0 0 0 -1.02561059067806 0 0 0 0 0 0 0 0 0 -0.412197012920657 0 0 0 0
0 0 0 0 0 0 0 0 0 0 0 0 0 0 0 0 0.175786633055639 0 0 0 0 0 0 0 0 0 0 0 -0.247730618353575 0 0 0 0 -0.234603434313509 -1.32593413220613 0 0 0 0 0 0 0 0 0 0 0 0 0 0 0
0 0 0 0 0 0 0 0 0 0 0 0 0 0 0 0 0 0.0870889727366468 0 0 0 0 0 0 0 0 0 0 0 -0.247730618353575 -3.91918927173355 0 0 0 0 0 0 0 0 -1.97230840134294 0 0 0 0 -0.290341917280578 -0.787834287642059 0 0 0 0
0 0 0.142677558546146 0 0 0 0 0 0 0.0913288490185142 0 0 0 0 0 0 0.187753042573165 0 0 0 0 0 0 0 0 0 0 0 0 0.769709746503853 -0.247730618353575 0 0 0 0 0 0 0 0 0 0 0 0 0 0 0 -0.776833885866009 0 0 0
0 0.492500950842816 0 0.0664844671489818 0 0 0 0 0 0 0 0 0 0 0 0 0 0 0 0 0 0 0 0 0 0.140471657009299 0 0 0 0 0 -0.247730618353575 0 0 0 0 0 0 0 0 -0.257952997718664 -0.663777174928873 0 0 0 0 0 0 0 0
0.438202563061144 0 0 0 1.22624004581653 0 0 0 0 0 0 0 0 0 0 0 0 0 0.586220461693105 0 0 0 0 0 0 0 0.0942023497824681 0 0 0 0 0 -0.247730618353575 -0.86735847705292 0 0 0 0 0 0 0 0 0 0 0 0 -0.515882023453192 0 0 0
0 0 0 0 0 0 0 0 0 0 0 0 0 0 0 0 0 0.060052190835945 0 0 0 0 0 0 0 0 0.240242508572671 0 0.0479127069802622 0 0 0 0.185428868633541 -0.247730618353575 0 0 0 0 0 0 0 0 -1.93455718694538 0 0 0 0 0 0 0
0 0 0 0 0 0 0 0 0 0 0 0 0 0 0 0 0 0 0 0 0 0 0 0.0384680757487137 0 0 0 0 0.268337657335631 0 0 0 0 0 -0.247730618353575 0 0 0 0 0 0 0 0 0 0 -5.25879777422123 0 0 0 0
0 0 0 0 0 0 0 0 0 0 0 0 0 0 0.102026075398099 0 0 0 0 0 0 0.112842372578187 0 0 0 0 0.603102322515869 0.205544514529034 0 0 0 0 0 0 0 -0.247730618353575 0 -0.180837670926496 0 0 -0.118452850608205 0 0 0 0 0 0 0 0 0
0.376962891563252 0.618895289458555 0 0 0 0 0 0 0 0 0 0 0 0 0 0.118692421517173 0 0 0 0 0 0 0 0 0 0 0 0 0 0 0 0 0 0 0 0 -0.247730618353575 0 0 0 0 0 0 0 0 0 0 0 0 0
0 0 0 0 0 0 0 0 0 0 0 0.0588437730047861 0 0 0 0 0 0 0 0 0 0 0 0 0 0 0.274950667637707 0 0 0 0 0 0 0 0 0.0363239800093873 0 -0.247730618353575 0 0 -1.23698805630807 0 0 -1.63060861868076 0 0 0 -2.04587930843791 0 0
0 0 0 0 0 0 0 0 0 0 0 0 0 0.865500593469096 0 0.0903329287312841 0 0 0.174644790822023 0.322941821106631 0.200865498040789 0 0.066030352348823 0 0 0 0 0 0 0 0 0 0 0 0 0 0 0 -0.247730618353575 -0.214949229447242 0 0 0 0 0 0 0 0 0 0
1.89104837686177 0 0 0 0 0 0 0 0 0 0 0 0 0 0 0 0.0452035156670686 0 0 0 0 0 0 0 0 0 0 0 0 0.397284660224362 0 0 0 0 0 0 0 0 0.0387771966850471 -0.247730618353575 0 0 0 0 0 0 -0.695166204200933 0 0 0
0 0 0 0 0 0 0 0 0 0 0 0.194995049358531 0 0 0 0 0 0 0 0.118372537005669 0 0 0 0 0 0 0 0 0 0 0 0.0528468674453927 0 0 0 0.0230163121293722 0 0.251512333013036 0 0 -0.247730618353575 0 0 0 0 0 0 0 0 0
0 0 0 0 0 0 0 0 0 0 0 0 0 0 0 0 0 0 0 0 0 0 0 0.0366176725058049 0 0 0 0 0 0 0 0.134293265513064 0 0 0 0 0 0 0 0 0 -0.247730618353575 0 0 0 0 0 -2.43152109282342 0 0
0 0 0 0 0 0 1.21180291400357 0 0 0.0748903739460816 0 0 0 0 0 0 0 0 0 0 0 0 0 0 0 0 0.137019529395316 0 0 0 0 0 0 0.367320405802732 0 0 0 0 0 0 0 0 -0.247730618353575 -1.19168270313411 0 -0.273546306856344 0 0 0 0
0 0 0 0 0 0 0 0 0 0 0 0 0 0 0 0 0 0 0 0 0.290451111948873 0 0 0.0260681392480495 0 0 0 0 0 0 0 0 0 0 0 0 0 0.343074568006127 0 0 0 0 0.25191113737493 -0.247730618353575 0 0 0 0 0 0
0 0 0 0 0 0 0 0 0 0 0 0 0 0 0.11485955512837 0 0 0 0 0 0 0 0 0 0 0 0 0 0 0.0541725065273823 0 0 0 0 0 0 0 0 0 0 0 0 0 0 -0.247730618353575 0 0 0 0 0
0 0 0.512048078086907 0 0 0 0 0 0 0 0 0.274625777075361 0 0 0 0.436220526453144 0 0 0.219314063714478 0 0 0 0 0 0 0 0.607196817945427 0.0767345559792452 0 0.157421632059629 0 0 0 0 1.10188920473441 0 0 0 0 0 0 0 0.0537335813850932 0 0 -0.247730618353575 0 0 0 0
0 0 0 0 0 0.0919165315744441 0 1.60274037740998 0 0 0 0 0 0 0 0 0 0.131479147269868 0 0 0 0.374005096671972 0 0 0 0 0 0 0 0 0.150594296301562 0 0.10712823031185 0 0 0 0 0 0 0.135021729776746 0 0 0 0 0 0 -0.247730618353575 0 0 0
0 0 0 0 0 0 0 0 0 0 0 0 0 1.59525714266617 0 0 0.403464835959108 0 0 0.158273542803787 0 0 0 0 0 0 0 0 0 0 0 0 0 0 0 0 0 0.402208113352842 0 0 0 0.471721946191687 0 0 0 0 0 -0.247730618353575 0 0
0 0 0 0 0 0 0 0 0 0 0 0 0 0 0.33925256846234 0 0 0.0612069576933364 0 0 0 0 0 0 0 0 0 0 0 0 0 0 0 0 0 0 0 0 0 0 0 0 0 0 0 0 0 0 -0.247730618353575 0
0 0 0 0.0830367686932179 0 0 0 0 0 0 0 0 0 0 0 0 0 0 0 0 0 0 0 0 0 0 0.455075020199684 0 0 0 0 0 0 0 0 0 0 0 0 0 0 0 0 0 0 0 0 0 0 -0.247730618353575
