-0.222371035309316 0 0 -8.44482505022047 0 0 -2.86314882987077 0 0 0 0 0 0 0 0 0 0 -4.21124822707914 0 0 0 0 0 0 0 0 0 0 0 0 0 0 0 -0.757154287431986 0 0 0 -1.71133633686892 0 0 -0.245093880110171 0 0 0 0 0 0 0 0 0
0 -0.222371035309316 0 0 0 0 0 0 0 0 0 0 -4.18291062435636 0 0 0 0 0 0 0 0 0 0 0 0 0 0 0 0 0 0 0 0 0 0 0 0 0 -2.33380451933771 0 0 0 0 0 0 0 0 0 -2.36102190765981 0
0 0 -0.222371035309316 -0.466267636817316 0 0 0 0 0 -0.564707495223132 0 0 0 0 0 -0.876151429277111 0 0 0 0 -1.96848181644694 0 0 0 0 0 0 0 0 0 0 0 0 -4.69721686615331 0 0 0 0 0 0 0 0 0 0 0 0 0 0 0 0
1.77093707466657 0 0.0941692704708054 -0.222371035309316 0 0 0 0 0 0 0 0 0 0 0 0 0 0 -4.34298676687379 0 0 0 0 0 0 0 -0.924780319995753 0 0 -1.36815119699136 0 0 -1.0740826719195 0 -5.85837194073546 0 0 0 0 0 0 0 0 0 0 0 0 0 0 0
0 0 0 0 -0.222371035309316 0 0 0 0 0 0 0 0 -0.737348592887738 0 0 0 0 0 0 0 0 0 0 0 0 0 0 0 0 0 -1.78163948229675 0 0 0 0 0 0 0 0 0 0 0 0 0 0 -1.05082954594584 0 0 0
0 0 0 0 0 -0.222371035309316 0 0 0 0 0 0 0 0 0 0 0 0 0 0 0 0 0 0 0 0 0 0 0 0 0 0 0 0 0 0 0 0 0 0 0 0 0 -1.21152887473349 0 -1.48530665680796 0 0 0 0
0.558867010845009 0 0 0 0 0 -0.222371035309316 0 0 0 0 0 0 0 0 0 0 0 0 0 0 -0.401151650989679 0 0 0 0 0 -0.333350555410763 0 0 0 0 0 -1.37086800263481 0 0 0 0 0 0 0 -0.884189980185431 0 0 0 0 0 0 0 0
0 0 0 0 0 0 0 -0.222371035309316 0 -0.477347604159979 0 0 0 0 0 0 -0.324964244759631 0 -1.62328666358246 0 -0.232185537657717 0 0 0 0 -0.192394834892778 0 -0.518558871580646 0 0 0 0 0 0 -0.364691979691221 0 0 0 0 0 0 0 0 0 0 0 -0.270611088437358 0 -0.945774185844433 0
0 0 0 0 0 0 0 0 -0.222371035309316 -0.563926413097096 0 0 0 0 0 0 -6.3637256584277 0 0 -2.26577212316701 0 -0.907113075118935 0 0 0 0 0 0 0 0 0 0 0 -4.46793512971477 0 0 -0.156600514346813 0 0 0 0 0 0 0 -0.409271436763545 0 0 0 0 -2.27018074731781
0 0 0.117792686295249 0 0 0 0 0.0960565092389071 0.110272022185698 -0.222371035309316 0 0 0 -0.569751621023535 0 0 0 0 -1.36856336790866 0 -0.606442061043176 0 0 0 0 0 0 0 0 0 -4.52563780280964 0 0 0 0 0 0 0 0 0 0 0 0 0 0 0 0 0 0 0
0 0 0 0 0 0 0 0 0 0 -0.222371035309316 0 -1.7167503924339 -0.435479331150621 0 0 0 -3.83595957860915 0 0 0 0 0 0 0 0 0 -3.444059135092 0 0 0 -0.255535713527324 0 0 0 0 0 0 0 0 0 0 0 0 0 0 0 0 0 0
0 0 0 0 0 0 0 0 0 0 0 -0.222371035309316 0 0 0 0 0 0 0 0 0 0 0 0 -0.918767821701574 0 0 0 0 0 0 0 0 -0.802270259867378 -2.08724595321459 0 0 0 0 0 0 -1.44313142005133 0 -0.353269137627301 0 0 0 0 0 0
0 0.890655708330751 0 0 0 0 0 0 0 0 0.368255978633539 0 -0.222371035309316 0 0 0 0 0 0 0 0 0 0 0 0 0 0 0 0 0 0 0 0 0 0 0 0 0 0 0 -0.997067608831414 0 0 0 0 0 0 0 0 0
0 0 0 0 0.136601733065952 0 0 0 0 0.113765119561764 0.0902150195024676 0 0 -0.222371035309316 0 0 0 0 0 0 0 0 0 0 0 0 0 0 -1.56783464840619 -1.10779938335641 0 0 0 0 0 -2.66856382980482 -1.323148561255 0 0 -1.26714262217966 0 0 0 0 0 0 0 -1.655502536228 0 0
0 0 0 0 0 0 0 0 0 0 0 0 0 0 -0.222371035309316 0 0 0 0 0 0 0 0 0 0 0 0 0 -0.629862620458213 0 0 0 0 0 0 0 0 0 0 0 0 0 0 0 -0.86057876477074 0 0 0 0 0
0 0 0.166947628959539 0 0 0 0 0 0 0 0 0 0 0 0 -0.222371035309316 0 0 0 -0.898992751290809 0 0 -0.409012830465103 0 0 0 0 0 0 0 0 0 0 0 0 0 0 0 0 0 0 0 0 0 0 0 0 0 0 0
0 0 0 0 0 0 0 0.0649597092935763 1.25544572650235 0 0 0 0 0 0 0 -0.222371035309316 0 0 0 0 0 0 0 0 0 0 0 0 0 -9.18388001418549 0 0 0 0 0 0 0 0 0 0 0 0 0 0 -0.175894624915559 -0.940894710032584 -3.03296564041718 0 0
0.831965521867727 0 0 0 0 0 0 0 0 0 0.784637189053554 0 0 0 0 0 0 -0.222371035309316 0 0 0 -0.977426091816666 0 -1.72337885100566 0 0 0 0 0 0 0 0 0 0 0 0 0 0 -0.18454250071366 0 -4.20486064052607 0 0 0 0 0 0 -0.980529823067176 -5.17384877938815 0
0 0 0 0.864696784419992 0 0 0 0.326034983125681 0 0.242360764543252 0 0 0 0 0 0 0 0 -0.222371035309316 0 0 0 0 0 0 0 0 0 0 0 -0.821832638620902 0 0 0 0 0 0 -0.306911976709579 0 0 0 0 0 0 0 0 0 0 0 0
0 0 0 0 0 0 0 0 0.467840810696053 0 0 0 0 0 0 0.181616616575285 0 0 0 -0.222371035309316 0 0 0 0 0 0 0 -1.75716412194256 0 -2.76153905815708 0 0 0 0 0 0 0 0 0 0 0 0 0 0 0 0 0 0 -0.28646651283075 0
0 0 0.385341114353392 0 0 0 0 0.0490191401387322 0 0.135780173170202 0 0 0 0 0 0 0 0 0 0 -0.222371035309316 -2.71184866104513 0 0 0 0 0 0 0 0 0 0 0 0 0 0 0 0 0 0 0 0 0 0 0 0 0 0 0 -0.924569650450219
0 0 0 0 0 0 0.0839153620442248 0 0.171598707527311 0 0 0 0 0 0 0 0 0.199759098822772 0 0 0.548845017646186 -0.222371035309316 0 0 0 0 -0.377255372754887 0 0 0 0 0 0 0 0 0 0 0 -0.874254577239255 0 0 0 0 0 0 0 0 0 0 0
0 0 0 0 0 0 0 0 0 0 0 0 0 0 0 0.0870216450785487 0 0 0 0 0 0 -0.222371035309316 0 0 0 0 0 0 -0.208991489023703 0 0 0 0 0 0 0 -1.19694849153224 0 0 -0.278239168647581 0 0 0 -0.295847094046173 0 0 0 0 0
0 0 0 0 0 0 0 0 0 0 0 0 0 0 0 0 0 0.339246302982133 0 0 0 0 0 -0.222371035309316 0 0 0 0 0 0 0 -1.33123808043915 0 0 0 -2.84200994204179 0 0 0 0 0 0 0 0 0 0 0 0 0 0
0 0 0 0 0 0 0 0 0 0 0 0.196885382115765 0 0 0 0 0 0 0 0 0 0 0 0 -0.222371035309316 -0.832521637384254 0 0 0 -1.73452827477865 0 0 0 0 0 -0.53644512928163 0 0 0 0 0 0 0 0 0 0 0 0 0 0
0 0 0 0 0 0 0 0.0384657552231079 0 0 0 0 0 0 0 0 0 0 0 0 0 0 0 0 0.16385939620353 -0.222371035309316 0 0 0 0 -1.63967296294161 0 0 0 0 0 0 0 -2.44441810499435 0 0 0 0 -1.3450139932908 0 0 0 0 0 -0.0406799977671871
0 0 0 0.182999553990709 0 0 0 0 0 0 0 0 0 0 0 0 0 0 0 0 0 0.0651676938123599 0 0 0 0 -0.222371035309316 0 0 0 0 0 0 0 0 0 -0.221129141388499 0 0 0 0 0 0 0 0 0 0 0 0 0
0 0 0 0 0 0 0.0696152727952251 0.107563195182028 0 0 0.749339122052492 0 0 0 0 0 0 0 0 0.333567969646596 0 0 0 0 0 0 0 -0.222371035309316 0 0 0 0 0 0 -1.19878658842811 0 0 0 0 0 0 0 0 -0.140224511818519 0 0 0 0 0 0
0 0 0 0 0 0 0 0 0 0 0 0 0 0.276562947069177 0.126222035547655 0 0 0 0 0 0 0 0 0 0 0 0 0 -0.222371035309316 0 0 0 0 0 0 -2.10898788629667 0 0 0 0 0 0 0 0 0 0 0 0 0 -1.09748591262305
0 0 0 0.278278392077342 0 0 0 0 0 0 0 0 0 0.217411327253935 0 0 0 0 0 0.565056654514823 0 0 0.0397670780134836 0 0.357893382683516 0 0 0 0 -0.222371035309316 0 0 0 -1.2798546081252 0 0 0 0 0 0 0 0 0 -0.272425809585403 0 0 0 0 -0.440467619715505 0
0 0 0 0 0 0 0 0 0 0.874331368759639 0 0 0 0 0 0 1.83426726066613 0 0.166099468464419 0 0 0 0 0 0 0.327443991787135 0 0 0 0 -0.222371035309316 0 0 0 0 0 0 0 0 -0.208829150358519 0 0 0 0 0 0 0 0 0 0
0 0 0 0 0.37008714411003 0 0 0 0 0 0.0564942921599202 0 0 0 0 0 0 0 0 0 0 0 0 0.247778409157491 0 0 0 0 0 0 0 -0.222371035309316 0 0 0 0 0 0 0 0 0 0 0 0 0 0 0 0 0 0
0 0 0 0.212238821287998 0 0 0 0 0 0 0 0 0 0 0 0 0 0 0 0 0 0 0 0 0 0 0 0 0 0 0 0 -0.222371035309316 0 0 0 0 0 0 0 0 0 -4.42605405547555 0 0 0 0 0 -0.896914485571359 0
0.162625194839219 0 0.980569238113851 0 0 0 0.257675772098977 0 0.856988711048612 0 0 0.164211598355142 0 0 0 0 0 0 0 0 0 0 0 0 0 0 0 0 0 0.23956221475047 0 0 0 -0.222371035309316 0 0 0 0 0 0 -0.835882176272304 0 0 0 0 0 -6.87459148978302 -0.78546191896192 0 0
0 0 0 1.21644529682994 0 0 0 0.0726813199581011 0 0 0 0.392165532241471 0 0 0 0 0 0 0 0 0 0 0 0 0 0 0 0.256731055111585 0 0 0 0 0 0 -0.222371035309316 0 0 0 0 0 0 -0.693703319310215 0 0 0 0 0 0 0 0
0 0 0 0 0 0 0 0 0 0 0 0 0 0.534788030140875 0 0 0 0 0 0 0 0 0 0.61778852781571 0.113085127210921 0 0 0 0.40832497925166 0 0 0 0 0 0 -0.222371035309316 0 0 0 0 0 0 0 0 0 0 0 0 0 0
0 0 0 0 0 0 0 0 0.0320522142817211 0 0 0 0 0.242444801669412 0 0 0 0 0 0 0 0 0 0 0 0 0.0427263798332721 0 0 0 0 0 0 0 0 0 -0.222371035309316 0 0 0 0 0 0 0 0 0 0 0 0 -0.403726168882296
0.343864526719289 0 0 0 0 0 0 0 0 0 0 0 0 0 0 0 0 0 0.0616669565837641 0 0 0 0.237509896816482 0 0 0 0 0 0 0 0 0 0 0 0 0 0 -0.222371035309316 0 0 0 0 0 0 0 0 0 0 0 0
0 0.444716594985301 0 0 0 0 0 0 0 0 0 0 0 0 0 0 0 0.0348409095479953 0 0 0 0.172429494917102 0 0 0 0.46798823937042 0 0 0 0 0 0 0 0 0 0 0 0 -0.222371035309316 0 0 0 0 0 0 0 0 0 0 0
0 0 0 0 0 0 0 0 0 0 0 0 0 0.25988307168998 0 0 0 0 0 0 0 0 0 0 0 0 0 0 0 0 0.043269716290755 0 0 0 0 0 0 0 0 -0.222371035309316 0 0 0 0 -0.971395649468032 0 0 0 0 0
0.046553814668565 0 0 0 0 0 0 0 0 0 0 0 0.189429003010974 0 0 0 0 0.819610616908878 0 0 0 0 0.0536254741065856 0 0 0 0 0 0 0 0 0 0 0.167133666294128 0 0 0 0 0 0 -0.222371035309316 0 0 0 0 0 0 0 0 0
0 0 0 0 0 0 0.184949031865719 0 0 0 0 0.273360233501335 0 0 0 0 0 0 0 0 0 0 0 0 0 0 0 0 0 0 0 0 0 0 0.132304610573026 0 0 0 0 0 0 -0.222371035309316 0 0 0 -0.267770274650568 0 0 0 0
0 0 0 0 0 0 0 0 0 0 0 0 0 0 0 0 0 0 0 0 0 0 0 0 0 0 0 0 0 0 0 0 0.924210679304985 0 0 0 0 0 0 0 0 0 -0.222371035309316 0 0 0 0 0 0 0
0 0 0 0 0 0.22190426880785 0 0 0 0 0 0.0621130101514636 0 0 0 0 0 0 0 0 0 0 0 0 0 0.270912072845624 0 0.0278944897919169 0 0.0550923515610816 0 0 0 0 0 0 0 0 0 0 0 0 0 -0.222371035309316 -0.351485767562593 -2.29457606998046 0 -2.56180510829358 0 0
0 0 0 0 0 0 0 0 0.0768144428654859 0 0 0 0 0 0.174735856980357 0 0 0 0 0 0 0 0.0643856690330024 0 0 0 0 0 0 0 0 0 0 0 0 0 0 0 0 0.184754232699997 0 0 0 0.0683799380630939 -0.222371035309316 0 0 0 0 0
0 0 0 0 0 0.311705146943997 0 0 0 0 0 0 0 0 0 0 0.0363916550142261 0 0 0 0 0 0 0 0 0 0 0 0 0 0 0 0 0 0 0 0 0 0 0 0 0.0591339228314878 0 0.469408848273336 0 -0.222371035309316 0 0 0 0
0 0 0 0 0.220483948459694 0 0 0.0600646221609713 0 0 0 0 0 0 0 0 0.188766082641073 0 0 0 0 0 0 0 0 0 0 0 0 0 0 0 0 1.42046240094906 0 0 0 0 0 0 0 0 0 0 0 0 -0.222371035309316 -0.679162406304373 0 -1.61380658913827
0 0 0 0 0 0 0 0 0 0 0 0 0 0.340229777046994 0 0 0.627377404121164 0.193380519639631 0 0 0 0 0 0 0 0 0 0 0 0 0 0 0 0.169995389468794 0 0 0 0 0 0 0 0 0 0.502956366349497 0 0 0.13396032682648 -0.222371035309316 0 0
0 0.485528058360731 0 0 0 0 0 0.18816269245695 0 0 0 0 0 0 0 0 0 1.04078553488188 0 0.0556316239359842 0 0 0 0 0 0 0 0 0 0.0894618323372623 0 0 0.18047234829025 0 0 0 0 0 0 0 0 0 0 0 0 0 0 0 -0.222371035309316 0
0 0 0 0 0 0 0 0 0.424966816954321 0 0 0 0 0 0 0 0 0 0 0 0.186350576789815 0 0 0 0 0.00877838261025172 0 0 0.220650807691268 0 0 0 0 0 0 0 0.0789655175873463 0 0 0 0 0 0 0 0 0 0.329816967242386 0 0 -0.222371035309316
