-0.282368890466394 0 0 0 0 0 0 0 -0.571688408426605 0 0 0 -1.17990809103573 0 0 0 0 0 0 0 -0.258929535235096 -2.03932256766405 0 0 0 0 0 0 0 0 0 0 0 0 0 0 0 0 -0.89085990392481 0 0 0 0 0 0 0 0 0 0 0
0 -0.282368890466394 -1.26999506825524 0 0 -0.248971877072423 0 0 -0.756473089915053 0 -2.99633403531971 0 0 0 0 0 0 0 0 0 0 0 0 0 0 0 0 0 -2.86905099773709 0 0 0 0 0 0 -2.86299531417155 -0.1339082576613 0 0 0 0 0 0 0 0 0 0 -1.8378862313368 0 0
0 0.268542232365419 -0.282368890466394 -1.6358584166939 -1.03869995954763 0 -2.51422466744384 0 0 -1.2448176186644 0 -0.614727755208483 -2.63470209459589 0 0 0 0 0 0 0 0 0 -2.6375566080234 0 0 0 0 0 0 0 0 0 0 0 0 0 0 0 0 0 0 0 0 0 0 0 0 0 0 0
0 0 0.330344429374033 -0.282368890466394 0 0 0 0 0 0 0 0 0 0 0 0 0 0 0 0 0 0 0 0 0 0 0 -0.636743715877966 -0.276365333524578 0 0 0 0 0 0 0 0 0 0 0 0 0 0 0 0 0 -5.84863555695671 0 0 0
0 0 0.204864878581944 0 -0.282368890466394 0 0 -1.33443481837216 0 0 0 0 0 0 0 0 0 0 0 0 -2.19784732953292 -1.05347592746855 0 0 0 0 -2.67020542283341 0 0 -2.32968320010292 -0.326918406941723 0 0 0 0 0 0 0 0 0 0 0 0 0 0 0 0 0 0 0
0 0.0435454597260822 0 0 0 -0.282368890466394 0 0 0 0 0 0 0 0 0 0 0 0 -2.38881038325218 0 -1.38688875141959 0 0 0 0 0 0 0 0 0 0 0 0 0 0 0 0 0 0 0 0 0 0 0 0 0 0 0 0 0
0 0 0.503558466161532 0 0 0 -0.282368890466394 0 0 0 0 0 0 0 0 0 0 0 -6.55080755011489 0 0 0 0 0 0 0 0 0 0 0 0 0 0 0 0 0 0 0 0 0 0 0 0 0 0 0 0 0 0 0
0 0 0 0 0.289245760887399 0 0 -0.282368890466394 0 0 0 0 0 0 0 0 0 0 0 -0.211583914488148 0 0 0 0 0 0 0 0 -0.600616018008092 0 0 -0.643477642114606 0 0 0 0 0 0 0 0 0 0 0 0 0 0 0 0 0 0
0.115089483412526 0.138928375596168 0 0 0 0 0 0 -0.282368890466394 0 0 0 0 0 0 0 0 0 0 0 0 0 0 0 0 0 0 0 0 0 0 0 0 0 0 0 0 0 0 0 0 0 0 0 0 0 0 0 0 0
0 0 0.25645269033982 0 0 0 0 0 0 -0.282368890466394 0 0 0 0 0 -0.670402347594233 0 0 0 0 0 0 0 -2.55647086916409 0 -0.10276553712229 0 0 0 0 0 0 0 -2.02103818959403 0 0 0 0 0 0 0 0 -1.23021120092082 -0.411256368216538 0 0 -1.53874049535748 0 0 0
0 0.624801598443262 0 0 0 0 0 0 0 0 -0.282368890466394 0 0 0 0 0 0 0 -0.621351407762079 0 0 0 0 0 0 0 0 0 -1.07280810491357 -1.67285401238893 0 0 0 0 0 0 0 0 0 0 0 0 0 0 0 0 0 0 0 0
0 0 0.125305356261184 0 0 0 0 0 0 0 0 -0.282368890466394 0 0 0 0 -0.315564314934 -0.575391156146744 0 -1.01349150545983 0 0 0 0 0 0 0 -0.577279125293957 0 0 0 0 0 0 0 0 0 0 0 0 -1.04948239674404 0 0 0 0 0 0 0 0 0
0.234260465761055 0 0.525517805453044 0 0 0 0 0 0 0 0 0 -0.282368890466394 0 0 -1.63235901219424 0 -0.35611735437702 0 0 0 0 0 -0.31608935789914 0 0 0 0 0 0 0 0 0 0 0 0 0 0 0 0 0 0 0 -1.81554150910384 0 0 0 0 0 -1.55774299910106
0 0 0 0 0 0 0 0 0 0 0 0 0 -0.282368890466394 0 -4.69712024232383 0 0 0 0 0 0 0 0 0 0 0 0 -1.37620716357111 0 0 0 0 0 0 0 0 0 0 0 0 0 0 0 0 0 0 0 0 0
0 0 0 0 0 0 0 0 0 0 0 0 0 0 -0.282368890466394 0 0 0 0 0 0 -1.92789825523749 0 0 0 0 0 0 0 0 0 0 0 0 0 0 0 0 0 0 0 0 0 0 0 -0.213608070248141 0 -2.98762765659563 0 0
0 0 0 0 0 0 0 0 0 0.124451684223625 0 0 0.334792589968901 0.953095689373982 0 -0.282368890466394 0 0 0 0 0 0 0 0 0 0 0 0 0 0 0 0 0 0 -0.57298619794903 0 0 0 -5.32508574380868 0 0 0 0 0 0 0 0 0 -0.637696694836649 -0.067369713285359
0 0 0 0 0 0 0 0 0 0 0 0.0630996812422848 0 0 0 0 -0.282368890466394 0 -0.746396433493463 0 0 0 0 0 0 0 0 0 0 0 0 0 -1.57968186387538 0 0 0 0 -2.07029504750719 0 0 0 0 0 0 0 0 0 0 0 0
0 0 0 0 0 0 0 0 0 0 0 0.111763519655896 0.0735362795329296 0 0 0 0 -0.282368890466394 0 0 0 0 0 0 0 0 0 0 0 0 0 0 0 0 0 -0.369166051077794 0 0 0 0 0 0 -0.48653690940367 0 0 0 -0.986492354609378 0 0 0
0 0 0 0 0 0.474372507403104 1.25587000324831 0 0 0 0.120011053878747 0 0 0 0 0 0.159498040832818 0 -0.282368890466394 0 0 0 0 0 -0.42153834622133 0 -0.48195234213005 -1.23618387797171 0 0 0 0 -1.3381979633214 0 0 -1.72255801020226 -0.475942002208311 -0.240553851602593 0 0 -0.672202062635672 0 -0.844214505636748 0 0 0 0 0 0 0
0 0 0 0 0 0 0 0.0401413856398573 0 0 0 0.199903842387325 0 0 0 0 0 0 0 -0.282368890466394 0 0 0 0 0 0 0 0 0 0 0 0 0 0 0 0 0 0 -0.664939460356497 0 0 0 0 0 0 0 0 0 0 0
0.0542511636407739 0 0 0 0.439024323037707 0.279646920225509 0 0 0 0 0 0 0 0 0 0 0 0 0 0 -0.282368890466394 0 0 0 0 0 0 0 0 0 0 0 0 0 0 0 0 0 0 0 0 0 0 0 0 0 0 0 0 0
0.430069902784666 0 0 0 0.212817886508913 0 0 0 0 0 0 0 0 0 0.394269671289674 0 0 0 0 0 0 -0.282368890466394 0 0 0 0 0 0 0 0 -0.934454504194702 -1.69757294949751 0 0 0 0 0 0 0 0 0 0 0 0 0 0 0 -1.68333656092985 0 0
0 0 0.547022053522993 0 0 0 0 0 0 0 0 0 0 0 0 0 0 0 0 0 0 0 -0.282368890466394 0 0 0 0 0 0 -1.31139600370854 0 0 0 -1.4979811124555 0 0 0 0 0 0 0 0 0 0 0 0 0 0 0 0
0 0 0 0 0 0 0 0 0 0.489569642895838 0 0 0.0656609979726409 0 0 0 0 0 0 0 0 0 0 -0.282368890466394 0 0 0 0 0 0 0 0 0 0 0 0 0 0 -4.08382011572311 0 0 0 0 0 0 0 0 0 0 0
0 0 0 0 0 0 0 0 0 0 0 0 0 0 0 0 0 0 0.0767474265603539 0 0 0 0 0 -0.282368890466394 0 -0.435011361901489 0 0 0 0 0 0 0 0 -2.39640855446974 0 0 0 0 0 0 0 0 0 0 0 0 -0.327239549031871 0
0 0 0 0 0 0 0 0 0 0.0205434397107289 0 0 0 0 0 0 0 0 0 0 0 0 0 0 0 -0.282368890466394 0 0 0 0 0 0 0 0 0 0 0 0 0 0 0 0 0 0 0 -0.551950908796949 0 0 0 0
0 0 0 0 0.520382187458875 0 0 0 0 0 0 0 0 0 0 0 0 0 0.0978218210996788 0 0 0 0 0 0.0957590958643339 0 -0.282368890466394 0 0 0 -0.262072085436622 0 -0.554671878912537 0 0 0 0 0 0 0 0 0 0 0 0 0 0 0 0 0
0 0 0 0.12367522233783 0 0 0 0 0 0 0 0.128208597808713 0 0 0 0 0 0 0.245265930106076 0 0 0 0 0 0 0 0 -0.282368890466394 0 0 0 0 0 0 0 0 -0.648882073901153 0 0 -0.478821467059059 0 0 -3.07857814306879 0 0 0 0 0 0 0
0 0.579892379474694 0 0.0535103321381378 0 0 0 0.129370901273362 0 0 0.20486360258403 0 0 0.296544728635619 0 0 0 0 0 0 0 0 0 0 0 0 0 0 -0.282368890466394 -0.524955811696422 0 0 0 0 0 0 0 0 0 0 0 0 0 0 0 0 0 0 0 0
0 0 0 0 0.465015688694459 0 0 0 0 0 0.347725435820519 0 0 0 0 0 0 0 0 0 0 0 0.260245928460899 0 0 0 0 0 0.110835272776086 -0.282368890466394 0 0 0 0 0 0 0 -1.1464396793282 -0.488765812285174 0 0 0 0 0 0 0 0 0 0 0
0 0 0 0 0.0600131225205602 0 0 0 0 0 0 0 0 0 0 0 0 0 0 0 0 0.174976146440896 0 0 0 0 0.0580661403849697 0 0 0 -0.282368890466394 0 0 0 -0.124688102886126 -2.24782039060483 0 -2.13354384792999 0 0 0 0 0 -0.688344158640835 0 0 0 0 0 0
0 0 0 0 0 0 0 0.125875661351355 0 0 0 0 0 0 0 0 0 0 0 0 0 0.338531428958567 0 0 0 0 0 0 0 0 0 -0.282368890466394 0 -2.28150754840261 -1.65824207244804 0 0 0 0 0 -2.19901064454771 0 0 0 -4.01633864950784 0 0 -2.51521098573386 0 0
0 0 0 0 0 0 0 0 0 0 0 0 0 0 0 0 0.320467624680714 0 0.256218148035146 0 0 0 0 0 0 0 0.120739831215193 0 0 0 0 0 -0.282368890466394 0 0 0 0 0 -0.355533010938004 0 0 0 0 0 0 0 0 0 0 0
0 0 0 0 0 0 0 0 0 0.385830660858854 0 0 0 0 0 0 0 0 0 0 0 0 0.303532593388847 0 0 0 0 0 0 0 0 0.480073584364573 0 -0.282368890466394 0 0 0 0 0 0 0 0 0 0 0 0 0 0 0 0
0 0 0 0 0 0 0 0 0 0 0 0 0 0 0 0.115748364534838 0 0 0 0 0 0 0 0 0 0 0 0 0 0 0.0258540417351435 0.326390076128864 0 0 -0.282368890466394 0 -1.3499529686043 0 0 0 0 0 0 0 0 -0.503127016515066 -1.73833959887659 0 0 0
0 0.603528951375866 0 0 0 0 0 0 0 0 0 0 0 0 0 0 0 0.0782330923127984 0.34453260219444 0 0 0 0 0 0.425683503075505 0 0 0 0 0 0.424897518579537 0 0 0 0 -0.282368890466394 0 0 0 -1.0948885408574 0 0 0 0 0 0 0 -0.711372620173417 0 0
0 0.0275810586303202 0 0 0 0 0 0 0 0 0 0 0 0 0 0 0 0 0.0897080169317913 0 0 0 0 0 0 0 0 0.145809505730011 0 0 0 0 0 0 0.257114096655875 0 -0.282368890466394 0 0 0 0 0 0 0 0 0 0 -0.595355180351935 0 0
0 0 0 0 0 0 0 0 0 0 0 0 0 0 0 0 0.416482638123404 0 0.044966765941545 0 0 0 0 0 0 0 0 0 0 0.241436011929577 0.451875696284672 0 0 0 0 0 0 -0.282368890466394 -0.290425586375203 -0.0403227543214136 0 0 0 0 -3.77240847495273 0 0 0 0 0
0.175183189571186 0 0 0 0 0 0 0 0 0 0 0 0 0 0 1.0331713203077 0 0 0 0.121696578516426 0 0 0 0.824031043721101 0 0 0 0 0 0.0958466778466305 0 0 0.0740216808311858 0 0 0 0 0.0537386963210084 -0.282368890466394 0 0 0 0 0 0 0 0 0 0 0
0 0 0 0 0 0 0 0 0 0 0 0 0 0 0 0 0 0 0 0 0 0 0 0 0 0 0 0.0860455434045959 0 0 0 0 0 0 0 0.226112654004115 0 0.00767564843106465 0 -0.282368890466394 0 0 0 0 0 0 0 0 0 0
0 0 0 0 0 0 0 0 0 0 0 0.224872752497879 0 0 0 0 0 0 0.131781909617075 0 0 0 0 0 0 0 0 0 0 0 0 0.414499115009634 0 0 0 0 0 0 0 0 -0.282368890466394 0 0 0 0 0 0 -0.385951692402404 -5.09666516242646 0
0 0 0 0 0 0 0 0 0 0 0 0 0 0 0 0 0 0 0 0 0 0 0 0 0 0 0 0 0 0 0 0 0 0 0 0 0 0 0 0 0 -0.282368890466394 0 0 0 0 0 0 -1.56340745865087 0
0 0 0 0 0 0 0 0 0 0.267267139923574 0 0 0 0 0 0 0 0.103556342134266 0.165159952954241 0 0 0 0 0 0 0 0 0.594256470953991 0 0 0 0 0 0 0 0 0 0 0 0 0 0 -0.282368890466394 0 0 0 0 0 0 0
0 0 0 0 0 0 0 0 0 0.0785727669168644 0 0 0.360738912345637 0 0 0 0 0 0 0 0 0 0 0 0 0 0 0 0 0 0.135204967112793 0 0 0 0 0 0 0 0 0 0 0 0 -0.282368890466394 0 0 0 0 0 0
0 0 0 0 0 0 0 0 0 0 0 0 0 0 0 0 0 0 0 0 0 0 0 0 0 0 0 0 0 0 0 0.797802377391985 0 0 0 0 0 0.769565830173485 0 0 0 0 0 0 -0.282368890466394 0 0 0 0 0
0 0 0 0 0 0 0 0 0 0 0 0 0 0 0.0416203511366456 0 0 0 0 0 0 0 0 0 0 0.11126986434426 0 0 0 0 0 0 0 0 0.0927408503534139 0 0 0 0 0 0 0 0 0 0 -0.282368890466394 0 0 0 0
0 0 0 1.21055840275711 0 0 0 0 0 0.284371134232896 0 0 0 0 0 0 0 0.186698446197267 0 0 0 0 0 0 0 0 0 0 0 0 0 0 0 0 0.36047963081411 0 0 0 0 0 0 0 0 0 0 0 -0.282368890466394 0 0 0
0 0.373364099066317 0 0 0 0 0 0 0 0 0 0 0 0 0.63508107818935 0 0 0 0 0 0 0.343763630915495 0 0 0 0 0 0 0 0 0 0.508470020646968 0 0 0 0.128352669403233 0.123715144298337 0 0 0 0.0755800383519171 0 0 0 0 0 0 -0.282368890466394 0 0
0 0 0 0 0 0 0 0 0 0 0 0 0 0 0 0.129719632308057 0 0 0 0 0 0 0 0 0.0703238420274531 0 0 0 0 0 0 0 0 0 0 0 0 0 0 0 0.924630605323594 0.341467290093067 0 0 0 0 0 0 -0.282368890466394 0
0 0 0 0 0 0 0 0 0 0 0 0 0.327893458522676 0 0 0.0124319739724158 0 0 0 0 0 0 0 0 0 0 0 0 0 0 0 0 0 0 0 0 0 0 0 0 0 0 0 0 0 0 0 0 0 -0.282368890466394
