0.998434289579885
1.11574633979595
0.0641039260069689
7.60644243316342
0.500287333282725
0.542124271542295
0.819573769741497
0.775492043891195
3.04851404350699
1.13798060507578
0.70418276658401
0.370200668295311
0.433573579166288
0.616451147516328
2.41840000287101
2.11176310688385
4.20189076204104
0.836736949388089
2.98993649370906
1.50768318574331
1.61013183119916
0.182152856624062
0.51203271230936
1.00690992932582
1.5427252353771
1.37004341664271
0.333894323834052
0.596615318898944
0.899736968621339
0.549143493139276
2.21897605933643
0.161595420719641
0.93465347046931
1.37867565175218
0.956386241489876
1.30350074706863
0.513442999865796
0.229131739241833
0.510817310516246
0.715598366615583
0.301060800087299
0.88434392600617
4.024033664705
1.01284170738615
0.406850764587519
2.60492760851012
0.47011196197734
4.1584294275063
2.22682427849853
2.79812364509053
