0.811649153853126
0.925668230063111
0.337250104185453
0.532654796871614
2.50603800842782
1.35599603294494
0.236143892461588
0.571920234168281
1.50654213473522
0.249626229804565
1.36439612343472
1.91102342673694
0.626479967395616
2.265353498072
0.390033541610219
3.64322208125241
1.99594431875694
3.10934398566933
4.32196435643086
0.637949783648856
0.986202017086731
4.97033950175459
1.06070629627407
0.0921238640732452
1.37330850110379
5.77392279762799
0.488481221403786
2.67765505889799
4.83418392432749
2.25413297206583
2.9920032582299
0.265497822087403
1.61934099332849
1.90294237704276
1.15968580008762
0.334840245552837
2.0911501665675
1.09585636188056
2.08242458746883
0.725832460030494
1.17630318167645
3.21122767714293
0.692548475607275
1.56611942803095
0.349536831283198
2.26080308679009
1.33769054254628
1.97282750392675
3.77434101931422
4.21893818972172
