-0.169929705194359 0 0 -0.273734316725708 0 -0.284671584169674 0 0 0 0 0 0 0 -1.9626415035319 0 0 0 0 0 -0.661558149001516 0 0 0 0 0 0 0 0 0 0 0 0 0 0 0 0 0 0 0 0 -0.744073115071395 0 0 0 0 0 0 0 0 0
0 -0.169929705194359 0 -0.555690870489159 0 0 0 0 0 0 0 0 0 0 0 0 0 0 0 0 0 0 0 -4.51554478478014 -1.56948360782707 0 0 0 0 0 0 0 0 0 0 -1.02183057006693 0 0 0 0 0 -0.519972790998064 0 0 0 -0.300944386556813 -1.52207833571421 0 0 0
0 0 -0.169929705194359 0 0 0 0 0 0 0 0 0 0 0 0 0 -0.054377608951617 0 0 0 -0.660693687593219 0 0 0 0 0 0 0 0 0 0 0 0 0 -0.183735814345198 0 0 0 0 0 0 0 0 0 0 0 0 -0.0883885777831876 0 0
0.053706181611272 0.112332270532128 0 -0.169929705194359 0 0 0 -7.12659160065033 0 0 0 0 0 0 0 0 0 0 0 0 0 0 0 0 0 0 0 -1.54833352855475 0 0 0 0 0 0 0 0 0 0 0 -7.65571441237948 0 0 0 0 0 0 0 -1.22660722926467 0 0
0 0 0 0 -0.169929705194359 -6.11944430100293 0 0 0 0 0 0 0 0 0 0 0 0 0 0 0 0 0 0 0 0 0 0 -0.634898503833147 0 0 0 0 0 0 0 0 0 -1.32207528777012 0 0 0 0 0 0 0 -0.910823655338315 0 0 0
0.0550192505347067 0 0 0 1.21157720190697 -0.169929705194359 0 0 0 0 0 0 -0.248729638496202 0 0 0 -0.145096198492192 0 -0.210539177715185 0 0 0 0 0 0 0 0 0 0 0 0 0 0 0 0 0 0 0 0 0 0 0 0 0 0 0 0 0 0 -2.66997202743573
0 0 0 0 0 0 -0.169929705194359 0 -1.30242341215198 0 0 0 0 0 0 0 0 0 0 0 0 0 0 0 0 0 0 -0.477021199457753 0 0 -0.490888437463417 0 0 0 0 0 -0.0887165625332926 0 0 0 0 0 0 0 0 0 -0.521479251844495 0 0 0
0 0 0 1.47632670765868 0 0 0 -0.169929705194359 0 0 0 0 0 0 0 0 0 0 0 0 0 0 0 0 0 0 0 0 0 -2.02634825237431 0 0 0 0 -0.124602623904573 0 0 0 0 0 0 0 0 0 0 0 0 0 0 0
0 0 0 0 0 0 0.271125658703151 0 -0.169929705194359 0 0 0 -0.722959033820808 0 0 0 0 0 0 0 0 -0.288346625861092 0 -2.87131643897492 0 0 0 -0.577811077184788 0 -1.12224418885013 0 0 -2.09059279316617 0 0 0 0 0 0 -0.829711724723207 0 0 0 0 0 0 0 0 0 0
0 0 0 0 0 0 0 0 0 -0.169929705194359 0 0 0 0 0 0 0 0 0 0 0 0 0 0 0 0 -9.57186634448172 0 0 0 0 -1.02873129275146 0 0 0 0 -4.32829544863803 0 0 -0.377130890305831 0 0 0 0 0 0 0 0 0 0
0 0 0 0 0 0 0 0 0 0 -0.169929705194359 0 0 0 -1.93996424855345 0 0 0 0 0 0 0 0 0 0 0 0 0 0 -0.844490018329403 0 0 0 0 0 0 0 0 0 0 -1.78473064759176 0 0 0 -1.52334153694403 -0.591701085560122 0 0 -0.978581868520388 0
0 0 0 0 0 0 0 0 0 0 0 -0.169929705194359 0 0 0 0 0 0 0 0 0 0 -0.317599751277002 0 0 0 -0.596939286135876 0 0 0 0 0 0 0 0 0 0 0 0 0 0 0 0 0 0 0 0 0 0 0
0 0 0 0 0 0.0489064741391427 0 0 0.143448361272869 0 0 0 -0.169929705194359 0 0 0 0 0 -1.02739608300004 0 0 0 0 0 0 0 0 0 -0.437742713844537 0 0 0 0 0 0 -2.8853974901808 0 0 0 0 0 0 0 -1.3424359046844 0 0 0 0 0 0
0.387592752150218 0 0 0 0 0 0 0 0 0 0 0 0 -0.169929705194359 0 0 0 0 0 0 0 0 0 0 -0.840425005226389 0 0 0 0 0 0 0 0 0 0 -0.951404434781084 0 0 0 -1.03479110414241 0 0 0 0 0 0 0 0 0 0
0 0 0 0 0 0 0 0 0 0 0.394260509189305 0 0 0 -0.169929705194359 0 -0.624940945769714 0 0 0 0 0 0 0 0 0 0 0 0 0 0 0 0 0 0 0 0 0 0 0 0 0 0 0 0 -0.980438904902702 0 0 0 0
0 0 0 0 0 0 0 0 0 0 0 0 0 0 0 -0.169929705194359 0 0 0 0 0 0 0 -1.07257996018295 0 0 0 0 0 0 0 0 0 0 0 0 0 0 0 0 0 0 0 0 0 0 0 0 0 0
0 0 0.00919547384119435 0 0 0.0323216352595691 0 0 0 0 0 0 0 0 0.121769787289909 0 -0.169929705194359 0 0 0 0 0 0 0 0 0 0 0 0 0 0 0 0 0 0 0 0 0 0 0 -0.171844969169783 0 0 0 0 0 0 0 0 0
0 0 0 0 0 0 0 0 0 0 0 0 0 0 0 0 0 -0.169929705194359 0 0 0 0 0 0 0 0 0 -0.75683635576714 0 0 0 0 0 -0.637103443714028 -0.391920457350644 0 0 0 0 0 0 0 0 0 0 0 0 0 -11.7402810885909 0
0 0 0 0 0 0.0417187343154471 0 0 0 0 0 0 0.208509682833053 0 0 0 0 0 -0.169929705194359 0 -0.25290559276328 0 0 0 -0.889288308867423 0 0 0 0 0 0 0 0 0 0 0 0 0 0 -2.92606882351883 0 0 0 0 0 0 0 0 0 0
0.129949181278036 0 0 0 0 0 0 0 0 0 0 0 0 0 0 0 0 0 0 -0.169929705194359 0 0 0 0 0 0 0 0 0 0 0 0 0 0 0 0 0 0 0 0 0 -0.559266367624479 0 0 0 -0.538356167194987 0 0 0 0
0 0 0.13586702673921 0 0 0 0 0 0 0 0 0 0 0 0 0 0 0 0.0480783282180106 0 -0.169929705194359 0 0 -0.84923750310898 0 0 0 0 0 0 0 0 0 0 0 0 0 0 0 0 0 0 0 -0.783701446594814 0 0 0 0 0 0
0 0 0 0 0 0 0 0 0.0574423582181684 0 0 0 0 0 0 0 0 0 0 0 0 -0.169929705194359 0 0 0 0 0 0 0 0 -0.0867068399366625 0 -1.64479434574245 0 -0.629935866054824 0 -0.433265175292261 -3.43487233902194 0 0 -0.697631635297916 0 0 0 0 0 0 0 0 0
0 0 0 0 0 0 0 0 0 0 0 0.0622641983516853 0 0 0 0 0 0 0 0 0 0 -0.169929705194359 0 0 0 0 0 0 0 0 0 0 0 0 0 -2.94424496983079 0 0 0 0 0 0 0 0 0 0 0 0 -0.666879346470583
0 0.899107910330724 0 0 0 0 0 0 0.574824022796926 0 0 0 0 0 0 0.198618722512929 0 0 0 0 0.158706279120154 0 0 -0.169929705194359 0 0 0 0 -1.17794368389509 0 0 0 0 0 0 0 -0.497144028078665 0 0 0 0 0 0 0 0 0 0 0 0 0
0 0.302125408989118 0 0 0 0 0 0 0 0 0 0 0 0.160894650782621 0 0 0 0 0.175584059206 0 0 0 0 0 -0.169929705194359 0 0 0 0 0 0 0 -0.25098497334947 0 0 -0.129207190136481 0 -1.26187533086591 0 0 0 0 0 0 0 0 0 0 0 0
0 0 0 0 0 0 0 0 0 0 0 0 0 0 0 0 0 0 0 0 0 0 0 0 0 -0.169929705194359 0 -0.992319440201616 0 0 0 0 0 0 0 0 -1.52995271972987 0 0 0 -4.83472329651456 0 0 0 0 0 0 0 0 0
0 0 0 0 0 0 0 0 0 1.96352464708798 0 0.121613972766131 0 0 0 0 0 0 0 0 0 0 0 0 0 0 -0.169929705194359 0 0 0 0 -0.582649515227885 0 0 0 0 0 0 0 0 0 0 0 0 0 -1.99190940453264 0 -0.477187109926522 0 0
0 0 0 0.307441276884022 0 0 0.0864961392596167 0 0.119249693819267 0 0 0 0 0 0 0 0 0.149054384742933 0 0 0 0 0 0 0 0.197376570571745 0 -0.169929705194359 0 0 0 0 0 0 0 0 0 0 0 0 0 0 -2.56941980857506 0 0 0 0 0 -1.16944753705231 0
0 0 0 0 0.112194951923347 0 0 0 0 0 0 0 0.0962317750843572 0 0 0 0 0 0 0 0 0 0 0.234123887656157 0 0 0 0 -0.169929705194359 0 0 0 0 0 0 -0.607963502740989 -2.35273704044291 0 0 0 0 0 0 -0.415677598860279 0 0 0 0 0 0
0 0 0 0 0 0 0 0.425083629293122 0.241961422271508 0 0.16045943070426 0 0 0 0 0 0 0 0 0 0 0 0 0 0 0 0 0 0 -0.169929705194359 0 0 0 0 -0.155755025124493 0 0 0 0 0 0 0 -0.290316559187313 0 0 0 0 0 0 0
0 0 0 0 0 0 0.102537947864818 0 0 0 0 0 0 0 0 0 0 0 0 0 0 0.0180597935207844 0 0 0 0 0 0 0 0 -0.169929705194359 -0.567244568534363 0 -1.3969210524287 0 0 0 0 0 0 0 0 0 0 0 0 0 0 0 0
0 0 0 0 0 0 0 0 0 0.213260172851368 0 0 0 0 0 0 0 0 0 0 0 0 0 0 0 0 0.117803715838534 0 0 0 0.101513396715173 -0.169929705194359 0 0 0 0 0 0 0 0 0 0 0 0 0 0 0 0 0 0
0 0 0 0 0 0 0 0 0.450018078392449 0 0 0 0 0 0 0 0 0 0 0 0 0.319304213369782 0 0 0.0522607601696269 0 0 0 0 0 0 0 -0.169929705194359 0 -1.09300602039064 0 0 0 0 0 -1.37582182644283 0 0 0 0 0 0 0 0 0
0 0 0 0 0 0 0 0 0 0 0 0 0 0 0 0 0 0.117630132556312 0 0 0 0 0 0 0 0 0 0 0 0 0.280377366827655 0 0 -0.169929705194359 0 -1.5742916459915 0 0 0 0 -0.332165856053951 0 0 -1.77107395703906 0 -0.398481463532474 -0.501270684712766 0 0 0
0 0 0.0373267340972921 0 0 0 0 0.0245367379075009 0 0 0 0 0 0 0 0 0 0.0805616219515342 0 0 0 0.13143375081856 0 0 0 0 0 0 0 0.0325784856370568 0 0 0.214320758615273 0 -0.169929705194359 0 0 0 0 0 0 0 0 0 0 0 -0.979999765248882 0 0 0
0 0.187690222944562 0 0 0 0 0 0 0 0 0 0 0.61733196769173 0.187810057375939 0 0 0 0 0 0 0 0 0 0 0.0261820301623194 0 0 0 0.119980728710389 0 0 0 0 0.31851008231796 0 -0.169929705194359 0 0 0 0 0 0 0 0 0 0 -1.18358677262802 0 0 -0.187175113611603
0 0 0 0 0 0 0.0184472323862836 0 0 0.875952556694068 0 0 0 0 0 0 0 0 0 0 0 0.08973851891953 0.545792985514165 0.0993427620468703 0 0.311953659073156 0 0 0.494433446888917 0 0 0 0 0 0 0 -0.169929705194359 0 0 0 0 0 0 0 0 0 0 0 0 -1.06632272113405
0 0 0 0 0 0 0 0 0 0 0 0 0 0 0 0 0 0 0 0 0 0.638990350899078 0 0 0.249892599209908 0 0 0 0 0 0 0 0 0 0 0 0 -0.169929705194359 0 0 0 0 0 0 0 0 0 0 -2.0857179268502 0
0 0 0 0 0.258840083463896 0 0 0 0 0 0 0 0 0 0 0 0 0 0 0 0 0 0 0 0 0 0 0 0 0 0 0 0 0 0 0 0 0 -0.169929705194359 0 0 0 0 0 0 0 0 0 0 0
0 0 0 1.54506099808206 0 0 0 0 0.160004756896057 0.0763328748295333 0 0 0 0.178574114000502 0 0 0 0 0.561301702462217 0 0 0 0 0 0 0 0 0 0 0 0 0 0 0 0 0 0 0 0 -0.169929705194359 0 -1.28320457444099 0 0 0 0 0 0 0 0
0.134793330665792 0 0 0 0 0 0 0 0 0 0.339536898870761 0 0 0 0 0 0.0351243738430784 0 0 0 0 0.147634448489759 0 0 0 1.02288269115759 0 0 0 0 0 0 0.265398942717617 0.0683922816539024 0 0 0 0 0 0 -0.169929705194359 0 0 0 0 0 0 0 0 0
0 0.109381421106143 0 0 0 0 0 0 0 0 0 0 0 0 0 0 0 0 0 0.107570522257974 0 0 0 0 0 0 0 0 0 0 0 0 0 0 0 0 0 0 0 0.256470147360215 0 -0.169929705194359 0 0 0 0 0 0 0 0
0 0 0 0 0 0 0 0 0 0 0 0 0 0 0 0 0 0 0 0 0 0 0 0 0 0 0 0.561600968172249 0 0.0537452488214571 0 0 0 0 0 0 0 0 0 0 0 0 -0.169929705194359 0 0 0 0 0 0 0
0 0 0 0 0 0 0 0 0 0 0 0 0.259616551117017 0 0 0 0 0 0 0 0.155130036952256 0 0 0 0 0 0 0 0.0838423391578028 0 0 0 0 0.355598382860625 0 0 0 0 0 0 0 0 0 -0.169929705194359 0 0 0 0 0 0
0 0 0 0 0 0 0 0 0 0 0.320189184094491 0 0 0 0 0 0 0 0 0 0 0 0 0 0 0 0 0 0 0 0 0 0 0 0 0 0 0 0 0 0 0 0 0 -0.169929705194359 0 0 0 0 0
0 0.0625758999445245 0 0 0 0 0 0 0 0 0.110825384537298 0 0 0 0.184694762590528 0 0 0 0 0.109562124513919 0 0 0 0 0 0 0.412091287891066 0 0 0 0 0 0 0.0751666888156338 0 0 0 0 0 0 0 0 0 0 0 -0.169929705194359 0 0 0 0
0 0.300521703273848 0 0 0.180666094330843 0 0.0983888178970135 0 0 0 0 0 0 0 0 0 0 0 0 0 0 0 0 0 0 0 0 0 0 0 0 0 0 0.0975750820763421 0.185985709861292 0.248546678350138 0 0 0 0 0 0 0 0 0 0 -0.169929705194359 0 0 0
0 0 0.0165990218723516 0.253760752491934 0 0 0 0 0 0 0 0 0 0 0 0 0 0 0 0 0 0 0 0 0 0 0.0990138494443352 0 0 0 0 0 0 0 0 0 0 0 0 0 0 0 0 0 0 0 0 -0.169929705194359 0 0
0 0 0 0 0 0 0 0 0 0 0.196167926290745 0 0 0 0 0 0 2.28354717647686 0 0 0 0 0 0 0 0 0 0.23877202957058 0 0 0 0 0 0 0 0 0 0.388662569571847 0 0 0 0 0 0 0 0 0 0 -0.169929705194359 0
0 0 0 0 0 0.504369909656895 0 0 0 0 0 0 0 0 0 0 0 0 0 0 0 0 0.130863422370125 0 0 0 0 0 0 0 0 0 0 0 0 0.0346781795543772 0.207459247989513 0 0 0 0 0 0 0 0 0 0 0 0 -0.169929705194359
