-0.356081243387689 0 0 0 0 0 0 0 0 -1.3715604084968 0 0 0 0 0 0 0 -1.48547567017665 0 0 0 0 0 0 0 0 0 0 0 -0.230779327904671 0 0 0 0 0 0 0 -1.3010349792432 0 0 0 0 -0.507263418988927 0 0 0 0 0 0 0
0 -0.356081243387689 0 0 0 0 0 0 0 0 -3.74533180554076 0 0 0 0 0 0 0 -2.22157567126601 0 0 0 -0.392223155195427 0 0 0 0 0 0 0 -0.317989237356706 0 0 -2.88414153440304 0 0 0 0 0 0 0 0 0 -2.12254658777739 0 0 0 0 -0.396722193470061 0
0 0 -0.356081243387689 0 0 0 0 0 0 0 0 0 0 0 0 0 0 0 -0.328646912494242 0 0 0 0 0 0 0 0 0 0 0 0 0 0 -0.337123235575654 0 0 0 0 -9.92037669117297 0 0 0 0 0 0 -1.15790093393601 0 0 0 0
0 0 0 -0.356081243387689 0 -1.26819962576727 0 0 0 0 -0.505819349774956 0 0 0 0 0 0 0 0 0 0 0 0 0 0 -0.630216542614883 0 -0.820574923635725 0 0 -4.5409992174817 0 0 0 0 0 0 0 0 0 0 0 0 0 0 0 0 0 0 0
0 0 0 0 -0.356081243387689 0 0 0 0 0 -1.00019779582674 0 0 0 0 0 0 0 0 0 -0.80156079991746 0 0 0 0 0 0 0 0 0 0 0 -0.288600520379906 0 0 -0.368526460354496 0 0 0 0 0 0 0 0 0 0 0 0 0 -0.594730256919796
0 0 0 0.244544373046141 0 -0.356081243387689 0 -0.278331426371152 0 0 0 0 0 0 0 0 -4.95251158366527 0 0 0 0 0 0 0 0 0 0 0 0 0 0 -1.72146363947452 0 0 -1.43513915180409 0 0 0 0 0 0 0 -1.49056948164272 0 0 0 -0.96099530321264 -2.07653251488674 0 0
0 0 0 0 0 0 -0.356081243387689 0 0 0 0 -0.148757890572229 -1.20698442375194 -2.67148505341651 0 -1.05097584365151 0 -1.07199467907791 0 0 0 0 0 0 0 0 -0.239131505564078 -0.460011318931508 0 0 0 0 0 0 0 0 0 -2.04389286866665 0 0 0 0 0 0 0 0 0 0 0 0
0 0 0 0 0 0.0551185633158296 0 -0.356081243387689 0 0 0 0 0 0 0 -0.643890702227025 0 0 0 0 0 0 0 0 0 -0.622026264978226 0 0 0 0 0 0 0 0 0 0 0 0 0 0 0 0 0 0 0 0 0 -0.357697513553897 0 0
0 0 0 0 0 0 0 0 -0.356081243387689 0 -1.79874309884423 0 0 0 0 0 -3.1919538997421 0 0 0 0 0 0 0 -0.740933833730944 0 0 0 0 0 0 0 0 0 -2.26073938519619 0 0 0 0 0 0 0 0 0 0 0 -0.757138412994353 0 0 0
0.28422903058921 0 0 0 0 0 0 0 0 -0.356081243387689 0 0 0 0 0 0 -0.876402716606466 0 0 0 0 0 -1.1125469288827 0 0 0 0 0 0 0 0 0 0 0 0 -0.474147797223625 0 0 0 0 0 0 0 0 0 0 0 0 0 0
0 0.739534935525607 0 0.101156189880304 0.214111649973099 0 0 0 0.336904154268298 0 -0.356081243387689 0 0 -0.536566115059779 0 0 0 0 0 0 0 0 0 0 0 0 0 0 0 -1.68344765636122 0 0 -1.96636087339489 0 0 0 0 0 0 0 0 0 0 0 0 0 0 0 0 0
0 0 0 0 0 0 0.0289047899960037 0 0 0 0 -0.356081243387689 0 0 0 0 0 0 0 -2.25203204781216 0 0 0 0 0 0 0 -1.67850571377049 0 0 0 0 -0.0404320665971751 -0.564307838999456 0 0 0 0 0 0 0 0 0 0 0 0 0 0 0 0
0 0 0 0 0 0 0.242465636644928 0 0 0 0 0 -0.356081243387689 -5.49998800220612 0 0 0 0 0 0 0 0 0 -0.600774429295957 0 0 0 0 0 0 0 0 -1.96912142304911 0 0 -2.06814307147831 0 0 -0.422005221341936 0 0 0 0 0 -3.26900932487308 0 -0.615769579695536 0 0 -1.01288068688149
0 0 0 0 0 0 0.573815057280866 0 0 0 0.103468481079854 0 1.02864955687616 -0.356081243387689 0 0 0 0 0 0 0 0 0 0 0 0 0 0 -0.55381477405902 0 -2.02471046509212 0 0 0 0 0 0 0 0 0 0 -0.388435020873195 0 -0.332985490962894 -0.835097402110289 0 0 0 0 0
0 0 0 0 0 0 0 0 0 0 0 0 0 0 -0.356081243387689 0 0 0 0 0 0 0 0 0 0 0 0 0 0 0 0 0 0 0 0 0 0 0 -1.06491994039809 0 -1.89133328449021 -2.06209068487339 -0.676332602117701 0 0 0 0 0 0 0
0 0 0 0 0 0 0.210714974940612 0.132592336036375 0 0 0 0 0 0 0 -0.356081243387689 0 0 0 0 0 -0.414870232011419 0 0 0 0 0 0 0 0 0 0 0 0 0 0 0 -2.09759571989858 0 0 0 0 0 0 0 -0.869346524655011 0 0 0 0
0 0 0 0 0 0.999149324659497 0 0 0.613544327940936 0.180295514494774 0 0 0 0 0 0 -0.356081243387689 0 0 0 0 0 0 0 0 0 -1.41231144752114 0 0 0 0 -1.47382577238518 0 0 0 0 0 0 0 0 0 0 0 0 0 0 0 0 0 0
0.296595377516297 0 0 0 0 0 0.21979797832593 0 0 0 0 0 0 0 0 0 0 -0.356081243387689 0 0 0 -1.07403702106085 0 0 0 0 0 0 0 0 0 0 0 0 0 0 0 0 0 0 0 -0.532850495223143 0 -0.152826868608112 0 0 0 0 0 0
0 0.442900126563841 0.0619127065631904 0 0 0 0 0 0 0 0 0 0 0 0 0 0 0 -0.356081243387689 0 0 0 0 0 0 0 0 0 0 0 0 0 0 -0.523114834694302 0 0 0 0 0 0 0 0 0 0 -0.809177991523552 0 0 0 0 0
0 0 0 0 0 0 0 0 0 0 0 0.414966216739022 0 0 0 0 0 0 0 -0.356081243387689 0 0 0 0 0 0 0 0 0 0 0 0 0 0 0 0 0 0 0 0 0 0 0 0 0 0 0 0 0 0
0 0 0 0 0.156274907611041 0 0 0 0 0 0 0 0 0 0 0 0 0 0 0 -0.356081243387689 0 0 0 0 0 0 0 0 0 0 0 0 0 0 0 0 0 0 -2.14360705323375 0 -0.810099528831273 0 0 0 -0.223950262127105 0 0 0 0
0 0 0 0 0 0 0 0 0 0 0 0 0 0 0 0.0812645007499857 0 0.220255783897555 0 0 0 -0.356081243387689 -0.401416853484969 0 0 0 -1.31214390118567 0 -0.289704654095714 0 0 0 0 0 0 0 -0.304884133432128 0 0 0 0 0 -3.78358907722358 0 0 0 0 0 0 0
0 0.0878557893437182 0 0 0 0 0 0 0 0.212301636638568 0 0 0 0 0 0 0 0 0 0 0 0.0739984687107424 -0.356081243387689 0 0 0 0 -2.61138985921698 0 0 0 0 0 0 0 0 0 0 0 0 0 0 0 0 0 0 0 0 0 0
0 0 0 0 0 0 0 0 0 0 0 0 0.123379528357037 0 0 0 0 0 0 0 0 0 0 -0.356081243387689 0 0 0 0 0 -1.82897081366786 0 0 0 -0.286471310711639 0 0 0 0 0 0 0 0 0 0 0 -1.54108072800484 0 0 0 0
0 0 0 0 0 0 0 0 0.137904183477019 0 0 0 0 0 0 0 0 0 0 0 0 0 0 0 -0.356081243387689 0 0 0 0 0 0 0 0 -1.07949446012844 0 0 0 0 0 0 0 0 0 0 0 0 0 0 0 0
0 0 0 0.121351277714627 0 0 0 0.119312088645247 0 0 0 0 0 0 0 0 0 0 0 0 0 0 0 0 0 -0.356081243387689 0 0 -1.55883322555967 0 0 0 0 0 0 0 0 0 0 0 0 0 0 0 0 -1.91198740941569 0 0 0 0
0 0 0 0 0 0 0.0494620750863218 0 0 0 0 0 0 0 0 0 0.317996913842579 0 0 0 0 0.259296289652499 0 0 0 0 -0.356081243387689 0 0 -3.12747482691569 0 0 0 0 0 0 0 0 0 0 0 0 0 0 0 0 0 -2.07828522327762 0 0
0 0 0 0.163363788874976 0 0 0.0926155653513032 0 0 0 0 0.292289396117546 0 0 0 0 0 0 0 0 0 0 0.506911724318316 0 0 0 0 -0.356081243387689 0 0 0 -1.38527117757401 0 0 -0.448930327726142 0 0 0 0 0 0 0 0 0 0 0 0 0 0 0
0 0 0 0 0 0 0 0 0 0 0 0 0 0.110650209527162 0 0 0 0 0 0 0 0.0572145081081091 0 0 0 0.32357602653489 0 0 -0.356081243387689 0 0 0 0 0 0 0 0 0 0 0 0 0 0 0 0 0 -7.18970768126426 0 0 0
0.0415792918580765 0 0 0 0 0 0 0 0 0 0.331131931532513 0 0 0 0 0 0 0 0 0 0 0 0 0.368849120897208 0 0 0.622983959702678 0 0 -0.356081243387689 0 0 0 0 0 0 0 0 0 -0.163911167527326 0 0 0 -0.421452013331133 0 0 0 -0.846751107889277 0 0
0 0.0654467337304238 0 0.88081112706552 0 0 0 0 0 0 0 0 0 0.416194831980838 0 0 0 0 0 0 0 0 0 0 0 0 0 0 0 0 -0.356081243387689 0 0 0 0 0 0 0 0 0 0 0 0 0 0 -0.807050288455913 0 0 0 0
0 0 0 0 0 0.331211961161843 0 0 0 0 0 0 0 0 0 0 0.276879490097732 0 0 0 0 0 0 0 0 0 0 0.289338072223404 0 0 0 -0.356081243387689 0 0 0 0 0 0 0 0 0 0 0 0 -0.317816558874799 -0.963740309195054 0 0 -1.65046490787334 0
0 0 0 0 0.0572975731265558 0 0 0 0 0 0.386871370668925 0.00737470182723865 0.359020689585958 0 0 0 0 0 0 0 0 0 0 0 0 0 0 0 0 0 0 0 -0.356081243387689 0 0 0 0 0 0 -1.22160752886064 0 0 -1.98635143919066 0 0 0 0 0 0 -5.73080970640176
0 0.635153718994405 0.0641952813590509 0 0 0 0 0 0 0 0 0.111522184979907 0 0 0 0 0 0 0.10098052338922 0 0 0 0 0.0505224683419305 0.21279472013035 0 0 0 0 0 0 0 0 -0.356081243387689 0 0 0 0 0 -1.48468004470996 0 0 0 0 0 -3.13158266463802 0 0 0 0
0 0 0 0 0 0.288790001087178 0 0 0.473589522349852 0 0 0 0 0 0 0 0 0 0 0 0 0 0 0 0 0 0 0.0951573546379239 0 0 0 0 0 0 -0.356081243387689 0 -1.10905921797239 0 0 0 0 0 -3.36709935857726 0 0 0 0 0 0 0
0 0 0 0 0.0818212537965276 0 0 0 0 0.103798070044572 0 0 0.379672209391886 0 0 0 0 0 0 0 0 0 0 0 0 0 0 0 0 0 0 0 0 0 0 -0.356081243387689 0 0 0 0 0 0 0 0 0 0 0 0 0 0
0 0 0 0 0 0 0 0 0 0 0 0 0 0 0 0 0 0 0 0 0 0.0613151846642062 0 0 0 0 0 0 0 0 0 0 0 0 0.216661669097514 0 -0.356081243387689 0 0 0 0 0 0 0 0 0 0 0 0 0
0.274248499861339 0 0 0 0 0 0.352356051574789 0 0 0 0 0 0 0 0 0.432185409466569 0 0 0 0 0 0 0 0 0 0 0 0 0 0 0 0 0 0 0 0 0 -0.356081243387689 0 -0.337181597899161 0 0 0 -0.318693620283887 0 0 0 0 0 0
0 0 1.88254346206784 0 0 0 0 0 0 0 0 0 0.0957533846193098 0 0.196070059902128 0 0 0 0 0 0 0 0 0 0 0 0 0 0 0 0 0 0 0 0 0 0 0 -0.356081243387689 0 0 -3.93702369171083 0 0 0 0 0 -7.0583273385126 0 0
0 0 0 0 0 0 0 0 0 0 0 0 0 0 0 0 0 0 0 0 0.384418290358248 0 0 0 0 0 0 0 0 0.0336268151340778 0 0 0.2478436771515 0.292926602788151 0 0 0 0.0690873013347063 0 -0.356081243387689 0 0 0 -1.07954390485948 0 0 0 -0.148844586890181 0 -2.17878461823536
0 0 0 0 0 0 0 0 0 0 0 0 0 0 0.365879747354252 0 0 0 0 0 0 0 0 0 0 0 0 0 0 0 0 0 0 0 0 0 0 0 0 0 -0.356081243387689 0 0 0 0 0 0 0 0 0
0 0 0 0 0 0 0 0 0 0 0 0 0 0.0772481227372976 0.464004295805822 0 0 0.107701669569602 0 0 0.161302109488812 0 0 0 0 0 0 0 0 0 0 0 0 0 0 0 0 0 0.835180827668803 0 0 -0.356081243387689 -0.15463910417378 0 0 0 0 0 0 0
0.0989614792642491 0 0 0 0 0.306745182339776 0 0 0 0 0 0 0 0 0.129092234624119 0 0 0 0 0 0 0.723530147746802 0 0 0 0 0 0 0 0 0 0 0.404695965116976 0 0.639717872689551 0 0 0 0 0 0 0.0322086802137996 -0.356081243387689 0 0 0 -0.121385400692477 0 0 0
0 0.449598991905338 0 0 0 0 0 0 0 0 0 0 0 0.0696880492205696 0 0 0 0.0317153968543885 0 0 0 0 0 0 0 0 0 0 0 0.0828483988290329 0 0 0 0 0 0 0 0.0651274905706092 0 0.206709620364706 0 0 0 -0.356081243387689 0 0 0 0 0 0
0 0 0 0 0 0 0 0 0 0 0 0 0.66708677218878 0.165090702548123 0 0 0 0 0.168736283345696 0 0 0 0 0 0 0 0 0 0 0 0 0.0632015241539574 0 0 0 0 0 0 0 0 0 0 0 0 -0.356081243387689 0 0 0 0 0
0 0 0.225913858403423 0 0 0 0 0 0 0 0 0 0 0 0 0.180416054970152 0 0 0 0 0.0422512442836546 0 0 0.298910656848255 0 0.402414690326306 0 0 0 0 0.170657993448516 0.19332504517476 0 0.62759213157216 0 0 0 0 0 0 0 0 0 0 0 -0.356081243387689 0 0 -0.196047709082161 0
0 0 0 0 0 0.19446505864003 0 0 0.151708607565488 0 0 0 0.114077219535319 0 0 0 0 0 0 0 0 0 0 0 0 0 0 0 1.44452098131112 0 0 0 0 0 0 0 0 0 0 0 0 0 0.0229909070303346 0 0 0 -0.356081243387689 0 0 0
0 0 0 0 0 0.42826115393504 0 0.069193886056042 0 0 0 0 0 0 0 0 0 0 0 0 0 0 0 0 0 0 0.395282002579239 0 0 0.175553424951852 0 0 0 0 0 0 0 0 1.33856562851171 0.0296133432620414 0 0 0 0 0 0 0 -0.356081243387689 0 0
0 0.0760642335974032 0 0 0 0 0 0 0 0 0 0 0 0 0 0 0 0 0 0 0 0 0 0 0 0 0 0 0 0 0 0.320379520126153 0 0 0 0 0 0 0 0 0 0 0 0 0 0.0410140860834456 0 0 -0.356081243387689 -0.351137256266496
0 0 0 0 0.11923166968879 0 0 0 0 0 0 0 0.183058076153562 0 0 0 0 0 0 0 0 0 0 0 0 0 0 0 0 0 0 0 1.30159947832651 0 0 0 0 0 0 0.472966345554986 0 0 0 0 0 0 0 0 0.0671569102370221 -0.356081243387689
