-0.511803338617073 0 0 0 0 0 0 0 0 0 0 0 0 0 0 -0.189779786451657 0 0 0 0 0 0 0 0 0 0 0 0 0 0 0 0 -0.648323110177344 -0.396131627128927 -1.13827584295476 0 0 0 0 0 0 0 -0.689684694005487 0 0 0 0 0 0 0
0 -0.511803338617073 0 0 0 0 0 0 0 -0.682273085438915 0 -1.20668140371938 0 0 0 0 0 0 0 0 -5.0101271366417 0 0 0 0 0 0 0 0 0 0 0 0 0 0 0 0 0 -1.13048588367401 0 0 0 0 0 0 0 0 0 0 0
0 0 -0.511803338617073 0 0 0 0 0 0 0 0 0 0 0 0 -1.26556250564687 0 0 0 0 0 -0.943271054676215 0 0 0 0 0 0 0 0 0 0 0 0 0 0 0 0 0 0 0 0 0 0 -1.00850439578637 0 0 0 0 0
0 0 0 -0.511803338617073 -0.835965926877734 0 0 0 0 0 0 0 0 0 0 0 0 0 0 -0.803043566668464 0 0 0 0 0 0 0 0 -0.747368507053341 0 0 0 0 -0.760861919553202 0 0 0 0 0 -0.852523120853089 -0.962222371006048 0 0 0 0 0 0 0 0 0
0 0 0 0.150346514243054 -0.511803338617073 0 0 0 0 0 0 0 0 0 0 0 0 0 0 0 0 0 0 0 0 0 -0.211908610614941 0 0 0 0 0 0 0 0 0 0 0 0 0 0 0 0 0 0 0 0 0 0 0
0 0 0 0 0 -0.511803338617073 0 0 0 0 0 0 0 -0.277285469901541 0 0 0 0 0 0 0 0 0 0 0 0 0 0 0 0 0 0 0 0 0 0 0 0 0 -0.392537692110102 0 0 0 0 0 0 0 0 0 0
0 0 0 0 0 0 -0.511803338617073 0 0 0 0 0 0 0 0 0 0 0 0 0 0 0 0 0 0 0 -0.810414746783438 0 0 0 0 0 -1.0148743894558 0 0 0 0 -0.13832523859281 0 0 0 0 0 0 0 0 -0.84080239606435 0 0 0
0 0 0 0 0 0 0 -0.511803338617073 0 0 0 0 -0.495251363877893 -1.86127261694798 0 0 0 0 0 0 0 0 -1.12798025448486 0 0 0 0 0 0 -0.274961613389855 0 -2.65188384481137 0 0 0 0 0 0 0 0 -1.37665835426155 0 0 0 0 0 0 0 0 0
0 0 0 0 0 0 0 0 -0.511803338617073 0 0 0 0 0 0 0 0 0 0 0 0 0 0 0 0 0 0 0 0 0 0 0 -0.0764238866569885 -2.07950405495385 0 0 0 0 0 0 0 0 -0.544399961421397 0 0 0 0 0 0 0
0 0.136681657384254 0 0 0 0 0 0 0 -0.511803338617073 0 -1.91879234827376 0 0 -0.332667182577811 0 0 0 0 -0.529143436825286 0 0 0 0 0 0 0 0 0 0 0 0 0 0 0 0 0 -1.27393834956799 0 0 0 0 0 0 -0.0515647936628027 0 0 0 0 0
0 0 0 0 0 0 0 0 0 0 -0.511803338617073 0 0 0 0 0 0 0 0 0 0 0 0 0 0 0 -5.2739897522825 0 0 0 -0.946848640534608 -0.301040807664011 0 0 0 0 0 0 -0.215007779012794 0 0 0 0 0 0 -0.565178731114952 0 0 0 0
0 0.246344737211511 0 0 0 0 0 0 0 0.361606614826906 0 -0.511803338617073 0 0 0 0 0 0 0 0 0 0 -2.59466240089918 0 0 0 0 0 0 0 0 0 0 0 -0.726311606171474 0 0 0 0 0 0 0 0 0 0 0 0 0 0 -2.31364582484239
0 0 0 0 0 0 0 0.0940444889476441 0 0 0 0 -0.511803338617073 0 0 0 0 -0.437609768091787 0 0 0 0 0 0 0 -0.112187480690498 0 0 0 0 0 0 0 0 0 -0.360400376239119 0 0 0 0 0 0 0 0 0 0 0 0 0 0
0 0 0 0 0 0.0591688134921438 0 0.377911006344091 0 0 0 0 0 -0.511803338617073 0 0 0 0 0 0 0 0 0 0 0 0 0 0 0 0 0 0 0 0 0 0 0 -8.56375962067765 0 0 0 0 0 0 0 0 0 0 0 0
0 0 0 0 0 0 0 0 0 0.063383651741029 0 0 0 0 -0.511803338617073 0 0 0 -3.68896248972603 0 0 0 0 0 0 0 0 0 0 0 0 0 0 0 -2.6225062120194 0 0 0 0 -2.1349760312586 0 0 -0.489244489672626 0 0 -2.36613325218482 0 0 0 0
0.0393095030988553 0 0.267687337899112 0 0 0 0 0 0 0 0 0 0 0 0 -0.511803338617073 0 0 0 -0.38730864240075 0 0 0 0 -1.6546392325981 0 0 0 0 0 0 0 0 0 -4.35027140292556 0 0 0 0 0 0 0 0 0 -0.205612322547834 0 0 0 0 -0.79335611532608
0 0 0 0 0 0 0 0 0 0 0 0 0 0 0 0 -0.511803338617073 0 0 0 0 0 0 0 0 -3.47113539054817 0 0 0 0 -0.185668732958652 0 0 0 0 0 0 0 0 -3.91463566429934 0 0 0 0 0 0 0 0 0 0
0 0 0 0 0 0 0 0 0 0 0 0 0.0864388743898429 0 0 0 0 -0.511803338617073 -1.24734122344983 0 0 0 0 0 0 0 0 0 0 0 0 0 0 0 -0.709477717064556 0 0 0 0 0 0 0 0 0 0 0 0 0 0 -1.16629802128842
0 0 0 0 0 0 0 0 0 0 0 0 0 0 0.741174287145903 0 0 0.256605619898318 -0.511803338617073 0 0 -1.26896194657387 -0.850833284436799 0 0 0 0 0 0 0 -0.120303700442178 0 0 0 0 0 0 0 0 0 0 0 0 0 0 0 0 0 0 0
0 0 0 0.159148883656006 0 0 0 0 0 0.115744956403936 0 0 0 0 0 0.0759842168676631 0 0 0 -0.511803338617073 0 0 -1.00925976788565 0 0 0 0 0 0 0 0 0 0 0 0 0 0 0 0 0 0 -2.88883431588422 0 0 0 0 -0.862698126308935 0 0 0
0 0.978692788718614 0 0 0 0 0 0 0 0 0 0 0 0 0 0 0 0 0 0 -0.511803338617073 0 0 0 0 0 0 0 0 -2.21921697755871 0 0 0 0 -0.310355244608057 0 0 0 0 0 0 0 0 -0.33096250939942 0 0 0 0 -0.556193033503398 0
0 0 0.200007623186009 0 0 0 0 0 0 0 0 0 0 0 0 0 0 0 0.261663185244189 0 0 -0.511803338617073 0 -0.179506468912639 0 -2.03781150871984 0 0 0 0 0 0 0 0 -1.2854822696208 0 0 0 0 0 0 0 -0.69095863535467 0 0 0 0 0 0 -0.976543200527629
0 0 0 0 0 0 0 0.229975191352986 0 0 0 0.528403496075918 0 0 0 0 0 0 0.163466649068725 0.213331349411858 0 0 -0.511803338617073 0 0 -3.70805372126726 0 0 0 0 0 0 0 0 -1.79383433477964 0 0 0 -0.278038567553273 0 0 0 0 -1.26728747838516 0 0 0 0 -1.17896193288478 0
0 0 0 0 0 0 0 0 0 0 0 0 0 0 0 0 0 0 0 0 0 0.0353433316500185 0 -0.511803338617073 0 0 0 0 0 0 0 0 0 0 0 0 0 -0.248430038387734 0 -3.75710785264117 0 0 0 -1.04228845729592 -0.981395000918607 0 0 0 0 0
0 0 0 0 0 0 0 0 0 0 0 0 0 0 0 0.357917983939732 0 0 0 0 0 0 0 0 -0.511803338617073 0 0 0 0 0 0 0 0 0 0 0 0 0 0 0 0 0 0 0 0 -0.124219434124946 -0.950643704491041 0 0 0
0 0 0 0 0 0 0 0 0 0 0 0 0.0231513888477656 0 0 0 0.680543178126229 0 0 0 0 0.388449301520567 0.764713931945494 0 0 -0.511803338617073 0 0 0 0 0 0 0 0 0 0 0 0 0 0 0 -2.94434338362908 -1.0348358818643 0 0 0 0 0 0 0
0 0 0 0 0.044761239242076 0 0.168423611867864 0 0 0 1.10916206617523 0 0 0 0 0 0 0 0 0 0 0 0 0 0 0 -0.511803338617073 0 0 -0.297664485423448 0 0 0 0 0 0 -0.596879355421508 0 0 0 0 0 0 0 0 0 -2.01434465108399 0 0 -9.11207663017141
0 0 0 0 0 0 0 0 0 0 0 0 0 0 0 0 0 0 0 0 0 0 0 0 0 0 0 -0.511803338617073 0 -0.645281530568538 0 0 0 -1.91736670373346 0 0 0 0 -0.484226255181167 0 0 0 0 0 -4.41133327761237 0 0 0 0 0
0 0 0 0.133043167725061 0 0 0 0 0 0 0 0 0 0 0 0 0 0 0 0 0 0 0 0 0 0 0 0 -0.511803338617073 0 0 0 0 0 0 0 0 0 0 -1.25507524319505 0 0 0 0 -0.471124474929977 0 0 0 0 0
0 0 0 0 0 0 0 0.0529903101129377 0 0 0 0 0 0 0 0 0 0 0 0 0.438449063893411 0 0 0 0 0 0.0548368744023654 0.132177114935353 0 -0.511803338617073 0 0 0 0 0 0 0 0 0 0 0 -1.3005736256032 0 -0.863857603294263 0 -2.99942289795923 0 0 -1.23204123081174 0
0 0 0 0 0 0 0 0 0 0 0.190076172262944 0 0 0 0 0 0.0344225641571161 0 0.0239376943566039 0 0 0 0 0 0 0 0 0 0 0 -0.511803338617073 0 0 0 0 0 0 0 0 0 0 0 0 0 0 0 0 0 0 0
0 0 0 0 0 0 0 0.498797281802307 0 0 0.057033388264446 0 0 0 0 0 0 0 0 0 0 0 0 0 0 0 0 0 0 0 0 -0.511803338617073 0 0 0 0 0 0 0 0 0 0 0 0 0 0 0 0 0 -1.04205423888265
0.117441104445319 0 0 0 0 0 0.211843408141805 0 0.0154189995228576 0 0 0 0 0 0 0 0 0 0 0 0 0 0 0 0 0 0 0 0 0 0 0 -0.511803338617073 0 0 0 0 0 0 0 -0.510913387734639 0 0 0 0 0 0 0 0 0
0.0771807860113641 0 0 0.152996066485442 0 0 0 0 0.387970907785842 0 0 0 0 0 0 0 0 0 0 0 0 0 0 0 0 0 0 0.375968896853092 0 0 0 0 0 -0.511803338617073 0 -0.81840759669691 0 0 0 0 0 0 0 0 0 0 0 0 0 0
0.235056972974743 0 0 0 0 0 0 0 0 0 0 0.159637475786478 0 0 0.609112128357463 0.907176457334062 0 0.143759920717855 0 0 0.0660315923454929 0.248631520330553 0.37247821864353 0 0 0 0 0 0 0 0 0 0 0 -0.511803338617073 0 -0.248585073307425 0 0 0 0 0 -0.278658484763999 0 -2.76515619980093 0 0 0 -0.415320212837434 0
0 0 0 0 0 0 0 0 0 0 0 0 0.0608213409850379 0 0 0 0 0 0 0 0 0 0 0 0 0 0 0 0 0 0 0 0 0.17110072758246 0 -0.511803338617073 0 0 0 0 0 0 -1.67460490465263 0 0 0 0 0 -2.76522979333989 0
0 0 0 0 0 0 0 0 0 0 0 0 0 0 0 0 0 0 0 0 0 0 0 0 0 0 0.111230459897417 0 0 0 0 0 0 0 0.0514251517817544 0 -0.511803338617073 0 0 0 0 0 0 0 0 0 0 -1.15656002744008 0 0
0 0 0 0 0 0 0.0277287302965239 0 0 0.251092388914419 0 0 0 1.61206744974559 0 0 0 0 0 0 0 0 0 0.0516394610468692 0 0 0 0 0 0 0 0 0 0 0 0 0 -0.511803338617073 0 0 0 0 0 -0.439641582683582 0 0 0 0 0 0
0 0.225332250967872 0 0 0 0 0 0 0 0 0.0419674578362526 0 0 0 0 0 0 0 0 0 0 0 0.0574627913942874 0 0 0 0 0.106814763388689 0 0 0 0 0 0 0 0 0 0 -0.511803338617073 0 0 0 0 0 0 0 0 0 0 0
0 0 0 0.171805279305377 0 0.0861186162108482 0 0 0 0 0 0 0 0 0.42532153780669 0 0.800674357270338 0 0 0 0 0 0 0.85462259144352 0 0 0 0 0.270738482307818 0 0 0 0 0 0 0 0 0 0 -0.511803338617073 0 0 0 0 -3.70663179652897 0 0 0 0 0
0 0 0 0.203958198712982 0 0 0 0.252690765287906 0 0 0 0 0 0 0 0 0 0 0 0 0 0 0 0 0 0 0 0 0 0 0 0 0.106700428137997 0 0 0 0 0 0 0 -0.511803338617073 0 0 -0.594648204661074 0 0 0 0 0 -1.14179035535315
0 0 0 0 0 0 0 0 0 0 0 0 0 0 0 0 0 0 0 0.612602928136123 0 0 0 0 0 0.628341642203978 0 0 0 0.246524796079763 0 0 0 0 0 0 0 0 0 0 0 -0.511803338617073 0 0 0 0 0 0 0 0
0.136881715207222 0 0 0 0 0 0 0 0.114277540177385 0 0 0 0 0 0.0964956834055711 0 0 0 0 0 0 0.137466096871424 0 0 0 0.200835213658021 0 0 0 0 0 0 0 0 0.0615226685782472 0.325466068709533 0 0 0 0 0 0 -0.511803338617073 0 -0.455759974237915 0 0 0 0 0
0 0 0 0 0 0 0 0 0 0 0 0 0 0 0 0 0 0 0 0 0.0645629359403668 0 0.237817333470696 0.204012046890547 0 0 0 0 0 0.166188648297384 0 0 0 0 0 0 0 0.088809493337887 0 0 0.122841501158843 0 0 -0.511803338617073 0 0 0 0 0 0
0 0 0.208783811887046 0 0 0 0 0 0 0.00958845463071089 0 0 0 0 0 0.0422160926225367 0 0 0 0 0 0 0 0.203318897233638 0 0 0 0.90106659781874 0.0932959858998886 0 0 0 0 0 0.492127792665561 0 0 0 0 0.744523189131388 0 0 0.0917361822820264 0 -0.511803338617073 -2.51613680308979 0 0 0 0
0 0 0 0 0 0 0 0 0 0 0.102920204871615 0 0 0 0.420659924608225 0 0 0 0 0 0 0 0 0 0.0248407704382719 0 0 0 0 0.546304247082671 0 0 0 0 0 0 0 0 0 0 0 0 0 0 0.495083997941439 -0.511803338617073 0 0 0 0
0 0 0 0 0 0 0.160323736485635 0 0 0 0 0 0 0 0 0 0 0 0 0.157579915228924 0 0 0 0 0.176831393965094 0 0.403658074682647 0 0 0 0 0 0 0 0 0 0 0 0 0 0 0 0 0 0 0 -0.511803338617073 0 0 0
0 0 0 0 0 0 0 0 0 0 0 0 0 0 0 0 0 0 0 0 0 0 0 0 0 0 0 0 0 0 0 0 0 0 0 0 0.224905231738654 0 0 0 0 0 0 0 0 0 0 -0.511803338617073 0 0
0 0 0 0 0 0 0 0 0 0 0 0 0 0 0 0 0 0 0 0 0.108272476270268 0 0.220757084365086 0 0 0 0 0 0 0.253038817014009 0 0 0 0 0.0787744927273319 0.524249038824696 0 0 0 0 0 0 0 0 0 0 0 0 -0.511803338617073 0
0 0 0 0 0 0 0 0 0 0 0 0.470738790371749 0 0 0 0.167108070743839 0 0.232765315942475 0 0 0 0.199351965788152 0 0 0 0 1.70124350455239 0 0 0 0 0.208238341528967 0 0 0 0 0 0 0 0 0.225986200142465 0 0 0 0 0 0 0 0 -0.511803338617073
