1.09212139014819
1.02954167778926
0.603972635861885
1.38811824599882
0.713210315980158
1.10776653581267
0.429726866073108
2.86749568793986
0.712912256948753
0.310788568673638
1.25731218809307
2.94209620994217
1.46528368801364
4.13966957407765
0.59038077387469
4.22529020627766
0.147419942283806
2.61596430230483
1.10318759835914
1.20475334825856
1.62763677093058
1.89186303326532
1.06803004636319
1.53180871360924
1.59701118124971
0.296797626064181
1.56767131687917
2.89521346232937
0.858268275941319
1.44232682479235
0.521759980801423
1.94202805228241
1.20249101825416
7.37786844195759
4.71359660754271
0.283685130225513
0.380061612901451
0.649069015496935
0.465006132447101
0.0307473130284912
2.84116103535854
1.51726491916977
1.84226360684521
1.90294896058253
2.40104049759891
2.18646400331235
0.410376327576003
2.3272069924327
0.558450236540861
0.827794153876851
