-0.493808865726475 0 0 0 0 0 0 0 0 -4.34803377130003 0 0 0 0 0 0 0 -5.57220156804685 0 0 0 0 0 0 0 0 0 0 0 -1.37160406599413 0 0 0 0 0 0 0 -0.622096854006397 0 0 0 0 -2.3624687459295 0 0 0 0 0 0 0
0 -0.493808865726475 0 0 0 0 0 0 0 0 -3.02667601234328 0 0 0 0 0 0 0 -0.316492802880433 0 0 0 -0.490082717679864 0 0 0 0 0 0 0 -1.91079854669231 0 0 -1.23445481092902 0 0 0 0 0 0 0 0 0 -0.807544681380348 0 0 0 0 -0.327947732954168 0
0 0 -0.493808865726475 0 0 0 0 0 0 0 0 0 0 0 0 0 0 0 -1.2826758091428 0 0 0 0 0 0 0 0 0 0 0 0 0 0 -7.33697204622804 0 0 0 0 -1.22008207122611 0 0 0 0 0 0 -1.68068202962353 0 0 0 0
0 0 0 -0.493808865726475 0 -3.19204549287104 0 0 0 0 -1.51852316025525 0 0 0 0 0 0 0 0 0 0 0 0 0 0 -0.175471953872995 0 -2.31995831140447 0 0 -0.884703319662031 0 0 0 0 0 0 0 0 0 0 0 0 0 0 0 0 0 0 0
0 0 0 0 -0.493808865726475 0 0 0 0 0 -1.19629665605762 0 0 0 0 0 0 0 0 0 -1.33691035732936 0 0 0 0 0 0 0 0 0 0 0 -0.792783193260489 0 0 -1.38989070382339 0 0 0 0 0 0 0 0 0 0 0 0 0 -3.59558527069997
0 0 0 0.658572141889654 0 -0.493808865726475 0 -0.391179590499464 0 0 0 0 0 0 0 0 -5.14717371014506 0 0 0 0 0 0 0 0 0 0 0 0 0 0 -3.69304591195022 0 0 -7.03493412567432 0 0 0 0 0 0 0 -0.511191533604362 0 0 0 -2.56429357940351 -0.475101555446271 0 0
0 0 0 0 0 0 -0.493808865726475 0 0 0 0 -1.24026082683478 -0.869644394825957 -2.91087868611596 0 -0.54270994481755 0 -0.518923895362501 0 0 0 0 0 0 0 0 -0.327192303533913 -8.52624861708659 0 0 0 0 0 0 0 0 0 -1.08893302761953 0 0 0 0 0 0 0 0 0 0 0 0
0 0 0 0 0 0.0837520968051209 0 -0.493808865726475 0 0 0 0 0 0 0 -0.120256214957531 0 0 0 0 0 0 0 0 0 -1.57899701182906 0 0 0 0 0 0 0 0 0 0 0 0 0 0 0 0 0 0 0 0 0 -1.38268676588057 0 0
0 0 0 0 0 0 0 0 -0.493808865726475 0 -0.45946972464431 0 0 0 0 0 -0.761182437323879 0 0 0 0 0 0 0 -2.71006429933767 0 0 0 0 0 0 0 0 0 -10.181651960855 0 0 0 0 0 0 0 0 0 0 0 -1.14036342156056 0 0 0
0.87910328911016 0 0 0 0 0 0 0 0 -0.493808865726475 0 0 0 0 0 0 -2.33577192098315 0 0 0 0 0 -1.04699849701793 0 0 0 0 0 0 0 0 0 0 0 0 -1.71136859687496 0 0 0 0 0 0 0 0 0 0 0 0 0 0
0 0.583222622455534 0 0.299067750918262 0.227121404955816 0 0 0 0.093719087873845 0 -0.493808865726475 0 0 -1.75414116066389 0 0 0 0 0 0 0 0 0 0 0 0 0 0 0 -1.01161928199487 0 0 -0.2043953187148 0 0 0 0 0 0 0 0 0 0 0 0 0 0 0 0 0
0 0 0 0 0 0 0.246672262775293 0 0 0 0 -0.493808865726475 0 0 0 0 0 0 0 -0.58047748599044 0 0 0 0 0 0 0 -1.12861508001186 0 0 0 0 -1.1016682169571 -3.84981097570617 0 0 0 0 0 0 0 0 0 0 0 0 0 0 0 0
0 0 0 0 0 0 0.181118411481609 0 0 0 0 0 -0.493808865726475 -0.312865777361506 0 0 0 0 0 0 0 0 0 -1.6834771536909 0 0 0 0 0 0 0 0 -2.45801740046327 0 0 -1.92384417717386 0 0 -1.98604815668593 0 0 0 0 0 -0.856126812015378 0 -2.96602795174158 0 0 -0.651703424186018
0 0 0 0 0 0 0.614232248155974 0 0 0 0.342975330990042 0 0.0595813971571752 -0.493808865726475 0 0 0 0 0 0 0 0 0 0 0 0 0 0 -0.461682256893965 0 -4.21853451593363 0 0 0 0 0 0 0 0 0 0 -0.6188819220358 0 -1.66040848756875 -0.202793663660835 0 0 0 0 0
0 0 0 0 0 0 0 0 0 0 0 0 0 0 -0.493808865726475 0 0 0 0 0 0 0 0 0 0 0 0 0 0 0 0 0 0 0 0 0 0 0 -0.733542389923557 0 -0.427970123995101 -1.17794283054363 -0.357326629304453 0 0 0 0 0 0 0
0 0 0 0 0 0 0.110869863794272 0.0210330613422422 0 0 0 0 0 0 0 -0.493808865726475 0 0 0 0 0 -0.837328262301947 0 0 0 0 0 0 0 0 0 0 0 0 0 0 0 -0.922874204316807 0 0 0 0 0 0 0 -3.37915845259075 0 0 0 0
0 0 0 0 0 1.09951457726238 0 0 0.159044078291723 0.500971377428771 0 0 0 0 0 0 -0.493808865726475 0 0 0 0 0 0 0 0 0 -1.75891048567719 0 0 0 0 -1.9200311727366 0 0 0 0 0 0 0 0 0 0 0 0 0 0 0 0 0 0
1.17773864174976 0 0 0 0 0 0.108517809537276 0 0 0 0 0 0 0 0 0 0 -0.493808865726475 0 0 0 -0.190143618355776 0 0 0 0 0 0 0 0 0 0 0 0 0 0 0 0 0 0 0 -0.402310142804639 0 -7.22641064399918 0 0 0 0 0 0
0 0.0647375236927521 0.280528363248429 0 0 0 0 0 0 0 0 0 0 0 0 0 0 0 -0.493808865726475 0 0 0 0 0 0 0 0 0 0 0 0 0 0 -0.0958869036755055 0 0 0 0 0 0 0 0 0 0 -1.94186067301417 0 0 0 0 0
0 0 0 0 0 0 0 0 0 0 0 0.119632591054348 0 0 0 0 0 0 0 -0.493808865726475 0 0 0 0 0 0 0 0 0 0 0 0 0 0 0 0 0 0 0 0 0 0 0 0 0 0 0 0 0 0
0 0 0 0 0.279682526038633 0 0 0 0 0 0 0 0 0 0 0 0 0 0 0 -0.493808865726475 0 0 0 0 0 0 0 0 0 0 0 0 0 0 0 0 0 0 -0.649879394005889 0 -0.392496123953539 0 0 0 -2.76289509048981 0 0 0 0
0 0 0 0 0 0 0 0 0 0 0 0 0 0 0 0.148603594679617 0 0.0393960228695006 0 0 0 -0.493808865726475 -2.71720261242838 0 0 0 -1.17349427813799 0 -1.1064123948528 0 0 0 0 0 0 0 -0.751721684707769 0 0 0 0 0 -0.266649949793269 0 0 0 0 0 0 0
0 0.102328776739801 0 0 0 0 0 0 0 0.209748939217304 0 0 0 0 0 0 0 0 0 0 0 0.556827367270026 -0.493808865726475 0 0 0 0 -0.813081541183383 0 0 0 0 0 0 0 0 0 0 0 0 0 0 0 0 0 0 0 0 0 0
0 0 0 0 0 0 0 0 0 0 0 0 0.353527228088563 0 0 0 0 0 0 0 0 0 0 -0.493808865726475 0 0 0 0 0 -1.38049780422196 0 0 0 -0.128203570468275 0 0 0 0 0 0 0 0 0 0 0 -0.94574854701468 0 0 0 0
0 0 0 0 0 0 0 0 0.555058350606384 0 0 0 0 0 0 0 0 0 0 0 0 0 0 0 -0.493808865726475 0 0 0 0 0 0 0 0 -0.109533536736449 0 0 0 0 0 0 0 0 0 0 0 0 0 0 0 0
0 0 0 0.0356227049687403 0 0 0 0.312566649422736 0 0 0 0 0 0 0 0 0 0 0 0 0 0 0 0 0 -0.493808865726475 0 0 -0.695061563750652 0 0 0 0 0 0 0 0 0 0 0 0 0 0 0 0 -2.09190074435525 0 0 0 0
0 0 0 0 0 0 0.068737519901164 0 0 0 0 0 0 0 0 0 0.34503756944871 0 0 0 0 0.24358261876948 0 0 0 0 -0.493808865726475 0 0 -0.308757233622556 0 0 0 0 0 0 0 0 0 0 0 0 0 0 0 0 0 -0.618562165395449 0 0
0 0 0 0.459701795756694 0 0 1.7764131013729 0 0 0 0 0.227250017597321 0 0 0 0 0 0 0 0 0 0 0.150090666303026 0 0 0 0 -0.493808865726475 0 0 0 -1.38236522590757 0 0 -1.08312786587435 0 0 0 0 0 0 0 0 0 0 0 0 0 0 0
0 0 0 0 0 0 0 0 0 0 0 0 0 0.0902353729653132 0 0 0 0 0 0 0 0.201874070312205 0 0 0 0.144129376759682 0 0 -0.493808865726475 0 0 0 0 0 0 0 0 0 0 0 0 0 0 0 0 0 -0.0753227116496386 0 0 0
0.278558535355909 0 0 0 0 0 0 0 0 0 0.203319570096972 0 0 0 0 0 0 0 0 0 0 0 0 0.270602001722534 0 0 0.0608843047829986 0 0 -0.493808865726475 0 0 0 0 0 0 0 0 0 -2.12917877358903 0 0 0 -3.04407806260887 0 0 0 -2.50535034712937 0 0
0 0.400646443318626 0 0.186306168267507 0 0 0 0 0 0 0 0 0 0.877646816683559 0 0 0 0 0 0 0 0 0 0 0 0 0 0 0 0 -0.493808865726475 0 0 0 0 0 0 0 0 0 0 0 0 0 0 -0.949512900311998 0 0 0 0
0 0 0 0 0 0.693390273054976 0 0 0 0 0 0 0 0 0 0 0.368332112121386 0 0 0 0 0 0 0 0 0 0 0.274135652685698 0 0 0 -0.493808865726475 0 0 0 0 0 0 0 0 0 0 0 0 -0.275949525281884 -0.462066498485861 0 0 -0.879473863901511 0
0 0 0 0 0.152674270795303 0 0 0 0 0 0.0386795198398865 0.21199679857762 0.473852510946212 0 0 0 0 0 0 0 0 0 0 0 0 0 0 0 0 0 0 0 -0.493808865726475 0 0 0 0 0 0 -0.22962681634032 0 0 -0.637230215325412 0 0 0 0 0 0 -0.750889538342738
0 0.266937468899122 1.71624944665611 0 0 0 0 0 0 0 0 0.796179051215737 0 0 0 0 0 0 0.0194351682119525 0 0 0 0 0.0240771102035673 0.0225566321122895 0 0 0 0 0 0 0 0 -0.493808865726475 0 0 0 0 0 -0.524665889059765 0 0 0 0 0 -0.749222774497868 0 0 0 0
0 0 0 0 0 1.45562161347547 0 0 1.99739447605418 0 0 0 0 0 0 0 0 0 0 0 0 0 0 0 0 0 0 0.205949915124917 0 0 0 0 0 0 -0.493808865726475 0 -0.369007925727463 0 0 0 0 0 -1.38947587943745 0 0 0 0 0 0 0
0 0 0 0 0.240854442420358 0 0 0 0 0.354601251407805 0 0 0.409884968629564 0 0 0 0 0 0 0 0 0 0 0 0 0 0 0 0 0 0 0 0 0 0 -0.493808865726475 0 0 0 0 0 0 0 0 0 0 0 0 0 0
0 0 0 0 0 0 0 0 0 0 0 0 0 0 0 0 0 0 0 0 0 0.159549056902149 0 0 0 0 0 0 0 0 0 0 0 0 0.0724842521068708 0 -0.493808865726475 0 0 0 0 0 0 0 0 0 0 0 0 0
0.137603095788735 0 0 0 0 0 0.225930227495846 0 0 0 0 0 0 0 0 0.197639001614467 0 0 0 0 0 0 0 0 0 0 0 0 0 0 0 0 0 0 0 0 0 -0.493808865726475 0 -0.285268596361449 0 0 0 -0.194934216510871 0 0 0 0 0 0
0 0 0.244790887238079 0 0 0 0 0 0 0 0 0 0.386625855006423 0 0.146955136832227 0 0 0 0 0 0 0 0 0 0 0 0 0 0 0 0 0 0 0 0 0 0 0 -0.493808865726475 0 0 -1.56314157529825 0 0 0 0 0 -1.25790675722913 0 0
0 0 0 0 0 0 0 0 0 0 0 0 0 0 0 0 0 0 0 0 0.125248596303172 0 0 0 0 0 0 0 0 0.447283209063615 0 0 0.0441353774809933 0.111985202197086 0 0 0 0.0597988453475522 0 -0.493808865726475 0 0 0 -2.54855459832635 0 0 0 -0.708558321623886 0 -1.85227003941348
0 0 0 0 0 0 0 0 0 0 0 0 0 0 0.0886389854225178 0 0 0 0 0 0 0 0 0 0 0 0 0 0 0 0 0 0 0 0 0 0 0 0 0 -0.493808865726475 0 0 0 0 0 0 0 0 0
0 0 0 0 0 0 0 0 0 0 0 0 0 0.128983504300693 0.22125748577293 0 0 0.0804265810763932 0 0 0.0814238394176735 0 0 0 0 0 0 0 0 0 0 0 0 0 0 0 0 0 0.316194886582105 0 0 -0.493808865726475 -0.46736634785478 0 0 0 0 0 0 0
0.464663389319849 0 0 0 0 0.101365293508677 0 0 0 0 0 0 0 0 0.0633208475562161 0 0 0 0 0 0 0.0544187888904605 0 0 0 0 0 0 0 0 0 0 0.129755774110832 0 0.267585938663767 0 0 0 0 0 0 0.0918358970976602 -0.493808865726475 0 0 0 -4.63651214112234 0 0 0
0 0.176906545403747 0 0 0 0 0 0 0 0 0 0 0 0.345185995528138 0 0 0 1.48619190425483 0 0 0 0 0 0 0 0 0 0 0 0.617988911410675 0 0 0 0 0 0 0 0.0387851891345338 0 0.501946141214376 0 0 0 -0.493808865726475 0 0 0 0 0 0
0 0 0 0 0 0 0 0 0 0 0 0 0.165117468214043 0.0390243032371002 0 0 0 0 0.392444904052939 0 0 0 0 0 0 0 0 0 0 0 0 0.0562640994416831 0 0 0 0 0 0 0 0 0 0 0 0 -0.493808865726475 0 0 0 0 0
0 0 0.310837267946037 0 0 0 0 0 0 0 0 0 0 0 0 0.641861061943009 0 0 0 0 0.57546675908705 0 0 0.178377024367076 0 0.38067710912547 0 0 0 0 0.180242700647287 0.0943115526709008 0 0.144397904744263 0 0 0 0 0 0 0 0 0 0 0 -0.493808865726475 0 0 -0.868880574057744 0
0 0 0 0 0 0.558214001001092 0 0 0.249586819480808 0 0 0 0.59827608512508 0 0 0 0 0 0 0 0 0 0 0 0 0 0 0 0.0148816186043469 0 0 0 0 0 0 0 0 0 0 0 0 0 0.831072055861384 0 0 0 -0.493808865726475 0 0 0
0 0 0 0 0 0.102028991609015 0 0.274887937289286 0 0 0 0 0 0 0 0 0 0 0 0 0 0 0 0 0 0 0.129814950506032 0 0 0.475801272120693 0 0 0 0 0 0 0 0 0.230772396413531 0.138410334898505 0 0 0 0 0 0 0 -0.493808865726475 0 0
0 0.0687307556725967 0 0 0 0 0 0 0 0 0 0 0 0 0 0 0 0 0 0 0 0 0 0 0 0 0 0 0 0 0 0.16766626665706 0 0 0 0 0 0 0 0 0 0 0 0 0 0.17220961324383 0 0 -0.493808865726475 -1.51106457887179
0 0 0 0 0.675504192807594 0 0 0 0 0 0 0 0.131246999201378 0 0 0 0 0 0 0 0 0 0 0 0 0 0 0 0 0 0 0 0.147982154514062 0 0 0 0 0 0 0.336358004582281 0 0 0 0 0 0 0 0 0.316286594248327 -0.493808865726475
