0.605795654848816
0.718422363886967
0.720279388575943
2.36530075316395
3.48017343233533
0.697708413743294
1.03915442887141
0.379481949547693
2.50488306305338
0.305176396313746
0.697039594871411
1.48228354708476
0.125828864737153
1.03470234934658
0.314710513535488
0.65387568587274
1.13646009326514
0.734012811372383
3.19467523110366
0.613103890362868
0.776550831286949
0.653654032380717
0.988813933177185
12.2496731946262
0.497190255225984
0.396000677766093
0.343489600781999
0.522913639550825
3.55546363186791
1.05559428879325
0.739818893605975
4.31874324742716
0.271334041972518
0.801973678724691
1.92197336456088
2.3103995539907
2.25823755400284
1.77411172233599
0.826041998031935
0.614889936013926
1.23254737800656
0.0889006953889911
1.71710480404506
1.10434318236544
1.69850188967762
1.56122002014492
7.82174466955174
0.67376121007839
1.13905068162316
1.5518893224341
