-0.381588394221969 0 0 -9.17858260983236 0 0 -1.24964752138971 0 0 0 0 0 0 0 0 0 0 -0.540810476078202 0 0 0 0 0 0 0 0 0 0 0 0 0 0 0 -2.54467990302873 0 0 0 -1.17083405600298 0 0 -4.8121544521461 0 0 0 0 0 0 0 0 0
0 -0.381588394221969 0 0 0 0 0 0 0 0 0 0 -1.13780769422205 0 0 0 0 0 0 0 0 0 0 0 0 0 0 0 0 0 0 0 0 0 0 0 0 0 -2.55054081027068 0 0 0 0 0 0 0 0 0 -1.72905246869424 0
0 0 -0.381588394221969 -0.184947665629274 0 0 0 0 0 -1.70815295570868 0 0 0 0 0 -0.362080843767065 0 0 0 0 -2.28240514522363 0 0 0 0 0 0 0 0 0 0 0 0 -0.66849871019907 0 0 0 0 0 0 0 0 0 0 0 0 0 0 0 0
1.78897934498833 0 0.0361244048209012 -0.381588394221969 0 0 0 0 0 0 0 0 0 0 0 0 0 0 -0.56183353485601 0 0 0 0 0 0 0 -0.419708570357632 0 0 -0.636072938194633 0 0 -0.530137224591346 0 -0.868362247040832 0 0 0 0 0 0 0 0 0 0 0 0 0 0 0
0 0 0 0 -0.381588394221969 0 0 0 0 0 0 0 0 -0.765193403028759 0 0 0 0 0 0 0 0 0 0 0 0 0 0 0 0 0 -0.63722501431158 0 0 0 0 0 0 0 0 0 0 0 0 0 0 -3.36209973446661 0 0 0
0 0 0 0 0 -0.381588394221969 0 0 0 0 0 0 0 0 0 0 0 0 0 0 0 0 0 0 0 0 0 0 0 0 0 0 0 0 0 0 0 0 0 0 0 0 0 -2.64164557677013 0 -1.63976609256446 0 0 0 0
0.269582017670584 0 0 0 0 0 -0.381588394221969 0 0 0 0 0 0 0 0 0 0 0 0 0 0 -0.415989020360143 0 0 0 0 0 -5.26312088081546 0 0 0 0 0 -2.91534345929012 0 0 0 0 0 0 0 -1.10552804625533 0 0 0 0 0 0 0 0
0 0 0 0 0 0 0 -0.381588394221969 0 -7.87367179211622 0 0 0 0 0 0 -1.43334169421109 0 -1.60982867461178 0 -1.53606200386034 0 0 0 0 -2.05079017728928 0 -5.10582201842483 0 0 0 0 0 0 -0.479419094439699 0 0 0 0 0 0 0 0 0 0 0 -2.74274195204273 0 -1.40637967676256 0
0 0 0 0 0 0 0 0 -0.381588394221969 -1.49620224924115 0 0 0 0 0 0 -0.224224938875059 0 0 -2.49659207966482 0 -1.88135808658652 0 0 0 0 0 0 0 0 0 0 0 -0.253238919731915 0 0 -0.512945458901221 0 0 0 0 0 0 0 -2.08892453606085 0 0 0 0 -0.352401408946374
0 0 0.340621260390392 0 0 0 0 1.48703082406849 0.306402210556876 -0.381588394221969 0 0 0 -5.1191918587031 0 0 0 0 -0.388733426736625 0 -0.417138517454875 0 0 0 0 0 0 0 0 0 -0.93626889212631 0 0 0 0 0 0 0 0 0 0 0 0 0 0 0 0 0 0 0
0 0 0 0 0 0 0 0 0 0 -0.381588394221969 0 -1.19924534534376 -0.234653142710171 0 0 0 -0.915984990568879 0 0 0 0 0 0 0 0 0 -1.7894681588616 0 0 0 -4.396838834748 0 0 0 0 0 0 0 0 0 0 0 0 0 0 0 0 0 0
0 0 0 0 0 0 0 0 0 0 0 -0.381588394221969 0 0 0 0 0 0 0 0 0 0 0 0 -1.44476585839516 0 0 0 0 0 0 0 0 -0.948494844057351 -1.05580966806126 0 0 0 0 0 0 -0.116650122442176 0 -1.25712005284169 0 0 0 0 0 0
0 0.242993940722547 0 0 0 0 0 0 0 0 0.25579877750312 0 -0.381588394221969 0 0 0 0 0 0 0 0 0 0 0 0 0 0 0 0 0 0 0 0 0 0 0 0 0 0 0 -0.360088804582204 0 0 0 0 0 0 0 0 0
0 0 0 0 0.151804793596321 0 0 0 0 0.989878192676868 0.0470045167998813 0 0 -0.381588394221969 0 0 0 0 0 0 0 0 0 0 0 0 0 0 -0.350348549328121 -0.74601077746207 0 0 0 0 0 -1.39065409074956 -6.63606123955185 0 0 -0.227939816794919 0 0 0 0 0 0 0 -1.72730644861 0 0
0 0 0 0 0 0 0 0 0 0 0 0 0 0 -0.381588394221969 0 0 0 0 0 0 0 0 0 0 0 0 0 -6.83653568664494 0 0 0 0 0 0 0 0 0 0 0 0 0 0 0 -1.2624715701395 0 0 0 0 0
0 0 0.0727429021384224 0 0 0 0 0 0 0 0 0 0 0 0 -0.381588394221969 0 0 0 -0.825324178956879 0 0 -8.15114354139133 0 0 0 0 0 0 0 0 0 0 0 0 0 0 0 0 0 0 0 0 0 0 0 0 0 0 0
0 0 0 0 0 0 0 0.304217060707432 0.0447263242817951 0 0 0 0 0 0 0 -0.381588394221969 0 0 0 0 0 0 0 0 0 0 0 0 0 -1.02498752186581 0 0 0 0 0 0 0 0 0 0 0 0 0 0 -0.441183647257487 -0.935235454854339 -1.43269763293922 0 0
0.104076156262881 0 0 0 0 0 0 0 0 0 0.182368009958215 0 0 0 0 0 0 -0.381588394221969 0 0 0 -0.905564014600587 0 -3.70087755568675 0 0 0 0 0 0 0 0 0 0 0 0 0 0 -2.89656145308915 0 -4.51718547371999 0 0 0 0 0 0 -2.2046400848694 -1.42004594833493 0
0 0 0 0.112221884210652 0 0 0 0.313044375726406 0 0.0813888117668041 0 0 0 0 0 0 0 0 -0.381588394221969 0 0 0 0 0 0 0 0 0 0 0 -1.04672523965134 0 0 0 0 0 0 -0.627557298127685 0 0 0 0 0 0 0 0 0 0 0 0
0 0 0 0 0 0 0 0 0.451856220111952 0 0 0 0 0 0 0.167767513962011 0 0 0 -0.381588394221969 0 0 0 0 0 0 0 -0.223739656641146 0 -1.82084633107654 0 0 0 0 0 0 0 0 0 0 0 0 0 0 0 0 0 0 -0.257571076802141 0
0 0 0.530820164666852 0 0 0 0 0.328824742941546 0 0.0856561352899221 0 0 0 0 0 0 0 0 0 0 -0.381588394221969 -0.649849100916297 0 0 0 0 0 0 0 0 0 0 0 0 0 0 0 0 0 0 0 0 0 0 0 0 0 0 0 -1.47608850509066
0 0 0 0 0 0 0.0859591785778788 0 0.395918124685028 0 0 0 0 0 0 0 0 0.186108673104577 0 0 0.130003897180126 -0.381588394221969 0 0 0 0 -0.261557742473003 0 0 0 0 0 0 0 0 0 0 0 -5.65742768583869 0 0 0 0 0 0 0 0 0 0 0
0 0 0 0 0 0 0 0 0 0 0 0 0 0 0 1.65510846217491 0 0 0 0 0 0 -0.381588394221969 0 0 0 0 0 0 -0.393510485827577 0 0 0 0 0 0 0 -0.544858302355196 0 0 -1.02811681942253 0 0 0 -1.36114564345513 0 0 0 0 0
0 0 0 0 0 0 0 0 0 0 0 0 0 0 0 0 0 0.750845417743157 0 0 0 0 0 -0.381588394221969 0 0 0 0 0 0 0 -0.154742770486124 0 0 0 -1.40851591578674 0 0 0 0 0 0 0 0 0 0 0 0 0 0
0 0 0 0 0 0 0 0 0 0 0 0.300171967444839 0 0 0 0 0 0 0 0 0 0 0 0 -0.381588394221969 -2.15484238371392 0 0 0 -0.553786124163842 0 0 0 0 0 -1.37988878931747 0 0 0 0 0 0 0 0 0 0 0 0 0 0
0 0 0 0 0 0 0 0.386399753513737 0 0 0 0 0 0 0 0 0 0 0 0 0 0 0 0 0.386476343182184 -0.381588394221969 0 0 0 0 -1.10016081863535 0 0 0 0 0 0 0 -0.232092809776428 0 0 0 0 -1.23631821081364 0 0 0 0 0 -1.45610013733991
0 0 0 0.0786284539375978 0 0 0 0 0 0 0 0 0 0 0 0 0 0 0 0 0 0.0519579810240288 0 0 0 0 -0.381588394221969 0 0 0 0 0 0 0 0 0 -1.49093836687986 0 0 0 0 0 0 0 0 0 0 0 0 0
0 0 0 0 0 0 1.05439005902369 1.0563673058368 0 0 0.369847443656112 0 0 0 0 0 0 0 0 0.0446557129656443 0 0 0 0 0 0 0 -0.381588394221969 0 0 0 0 0 0 -1.18968253397327 0 0 0 0 0 0 0 0 -1.91215006400363 0 0 0 0 0 0
0 0 0 0 0 0 0 0 0 0 0 0 0 0.0704664391339101 1.3655138058757 0 0 0 0 0 0 0 0 0 0 0 0 0 -0.381588394221969 0 0 0 0 0 0 -0.791457391820999 0 0 0 0 0 0 0 0 0 0 0 0 0 -0.44822219833405
0 0 0 0.124360611532455 0 0 0 0 0 0 0 0 0 0.150815533465579 0 0 0 0 0 0.359112452099649 0 0 0.0820590688985313 0 0.116443244069499 0 0 0 0 -0.381588394221969 0 0 0 -0.874070966629087 0 0 0 0 0 0 0 0 0 -0.353762777560386 0 0 0 0 -0.390352687792573 0
0 0 0 0 0 0 0 0 0 0.18467953743973 0 0 0 0 0 0 0.22282574064505 0 0.208790009715822 0 0 0 0 0 0 0.207476043265216 0 0 0 0 -0.381588394221969 0 0 0 0 0 0 0 0 -0.457898082601702 0 0 0 0 0 0 0 0 0 0
0 0 0 0 0.111924789037619 0 0 0 0 0 0.87865080339901 0 0 0 0 0 0 0 0 0 0 0 0 0.0295774306719066 0 0 0 0 0 0 0 -0.381588394221969 0 0 0 0 0 0 0 0 0 0 0 0 0 0 0 0 0 0
0 0 0 0.102079015480917 0 0 0 0 0 0 0 0 0 0 0 0 0 0 0 0 0 0 0 0 0 0 0 0 0 0 0 0 -0.381588394221969 0 0 0 0 0 0 0 0 0 -1.09655099616039 0 0 0 0 0 -0.201873058822962 0
0.506837997310671 0 0.128277576404817 0 0 0 0.589965989245584 0 0.0504278650411326 0 0 0.183528671454036 0 0 0 0 0 0 0 0 0 0 0 0 0 0 0 0 0 0.172253981788238 0 0 0 -0.381588394221969 0 0 0 0 0 0 -1.89309330780167 0 0 0 0 0 -0.312673168205404 -0.465158056423195 0 0
0 0 0 0.18631084961651 0 0 0 0.0935371628700586 0 0 0 0.206875681279101 0 0 0 0 0 0 0 0 0 0 0 0 0 0 0 0.245331153889052 0 0 0 0 0 0 -0.381588394221969 0 0 0 0 0 0 -1.17897075786458 0 0 0 0 0 0 0 0
0 0 0 0 0 0 0 0 0 0 0 0 0 0.293829659060894 0 0 0 0 0 0 0 0 0 0.279950681305331 0.271836516509323 0 0 0 0.168438879119594 0 0 0 0 0 0 -0.381588394221969 0 0 0 0 0 0 0 0 0 0 0 0 0 0
0 0 0 0 0 0 0 0 0.0942177278658332 0 0 0 0 1.4193852466379 0 0 0 0 0 0 0 0 0 0 0 0 0.292335822897554 0 0 0 0 0 0 0 0 0 -0.381588394221969 0 0 0 0 0 0 0 0 0 0 0 0 -0.285588435562069
0.229349236663555 0 0 0 0 0 0 0 0 0 0 0 0 0 0 0 0 0 0.12111321824958 0 0 0 0.110310691165972 0 0 0 0 0 0 0 0 0 0 0 0 0 0 -0.381588394221969 0 0 0 0 0 0 0 0 0 0 0 0
0 0.53615087198911 0 0 0 0 0 0 0 0 0 0 0 0 0 0 0 0.546812961492963 0 0 0 1.13537589326627 0 0 0 0.0458816711054141 0 0 0 0 0 0 0 0 0 0 0 0 -0.381588394221969 0 0 0 0 0 0 0 0 0 0 0
0 0 0 0 0 0 0 0 0 0 0 0 0 0.0495419755625866 0 0 0 0 0 0 0 0 0 0 0 0 0 0 0 0 0.0861470106343654 0 0 0 0 0 0 0 0 -0.381588394221969 0 0 0 0 -4.81715069457992 0 0 0 0 0
0.934582685423758 0 0 0 0 0 0 0 0 0 0 0 0.0728531896020803 0 0 0 0 0.899819085361333 0 0 0 0 0.19313540158076 0 0 0 0 0 0 0 0 0 0 0.395335316455829 0 0 0 0 0 0 -0.381588394221969 0 0 0 0 0 0 0 0 0
0 0 0 0 0 0 0.212319613991529 0 0 0 0 0.025180386534036 0 0 0 0 0 0 0 0 0 0 0 0 0 0 0 0 0 0 0 0 0 0 0.251277819846837 0 0 0 0 0 0 -0.381588394221969 0 0 0 -4.35996221720274 0 0 0 0
0 0 0 0 0 0 0 0 0 0 0 0 0 0 0 0 0 0 0 0 0 0 0 0 0 0 0 0 0 0 0 0 0.230036373033363 0 0 0 0 0 0 0 0 0 -0.381588394221969 0 0 0 0 0 0 0
0 0 0 0 0 0.560234640809645 0 0 0 0 0 0.247091021243638 0 0 0 0 0 0 0 0 0 0 0 0 0 0.253005610609184 0 0.372358696941382 0 0.0708219221951855 0 0 0 0 0 0 0 0 0 0 0 0 0 -0.381588394221969 -1.36547919470127 -0.347540474364648 0 -1.46638255379507 0 0
0 0 0 0 0 0 0 0 0.411303055571907 0 0 0 0 0 0.249724217734697 0 0 0 0 0 0 0 0.264906371155708 0 0 0 0 0 0 0 0 0 0 0 0 0 0 0 0 0.947501869239576 0 0 0 0.275446980833986 -0.381588394221969 0 0 0 0 0
0 0 0 0 0 0.33728640798156 0 0 0 0 0 0 0 0 0 0 0.0914215370669843 0 0 0 0 0 0 0 0 0 0 0 0 0 0 0 0 0 0 0 0 0 0 0 0 0.910275243433544 0 0.0691260220496935 0 -0.381588394221969 0 0 0 0
0 0 0 0 0.643029321591402 0 0 0.600993609501942 0 0 0 0 0 0 0 0 0.158324821540275 0 0 0 0 0 0 0 0 0 0 0 0 0 0 0 0 0.0584392048202713 0 0 0 0 0 0 0 0 0 0 0 0 -0.381588394221969 -2.7268010395153 0 -1.58080506019015
0 0 0 0 0 0 0 0 0 0 0 0 0 0.335618186060732 0 0 0.290338932394083 0.449215363261549 0 0 0 0 0 0 0 0 0 0 0 0 0 0 0 0.0926215964009523 0 0 0 0 0 0 0 0 0 0.294456012405849 0 0 0.570057071023474 -0.381588394221969 0 0
0 0.368071836912519 0 0 0 0 0 0.305376188889984 0 0 0 0 0 0 0 0 0 0.285372512370029 0 0.0528900578931595 0 0 0 0 0 0 0 0 0 0.0824474769270415 0 0 0.0424504486912833 0 0 0 0 0 0 0 0 0 0 0 0 0 0 0 -0.381588394221969 0
0 0 0 0 0 0 0 0 0.0710100781998957 0 0 0 0 0 0 0 0 0 0 0 0.297727773070767 0 0 0 0 0.285763848542744 0 0 0.0867084499786245 0 0 0 0 0 0 0 0.0553794935648392 0 0 0 0 0 0 0 0 0 0.323865934877282 0 0 -0.381588394221969
