-0.740813332293759 0 0 0 0 0 0 0 0 0 0 0 0 0 0 -1.48777603172108 0 -0.209238583780361 0 0 0 0 0 0 0 0 0 0 0 0 0 -3.61368507134455 0 0 0 0 0 0 0 0 0 0 0 0 0 0 0 0 0 0
0 -0.740813332293759 0 0 0 -0.372577070604545 0 0 0 0 0 0 0 0 0 0 0 0 0 0 0 0 0 0 0 0 0 0 0 0 0 0 0 -0.74504614446444 0 0 0 -0.813551488411917 0 0 0 0 0 0 0 0 0 0 0 0
0 0 -0.740813332293759 0 0 0 0 -1.13968579619406 0 0 0 0 0 0 0 0 0 0 0 0 0 0 0 0 0 0 0 0 0 0 0 0 0 0 0 0 0 0 0 0 0 0 0 0 0 0 -1.43431751854391 0 0 0
0 0 0 -0.740813332293759 0 0 0 0 -3.02436484744475 0 0 0 0 0 0 0 0 0 0 0 0 0 0 0 -0.867422442311386 0 0 0 0 0 0 0 0 -6.14662256429754 0 0 0 0 0 0 0 0 0 0 0 0 -1.77024586448612 0 -0.926815262398326 0
0 0 0 0 -0.740813332293759 0 0 0 0 0 0 -0.313280034546075 0 0 0 -0.98275613651985 0 0 0 -0.172354574093977 0 0 0 0 0 0 0 0 0 0 0 0 0 0 0 0 -0.525851361131491 0 0 0 0 0 0 0 0 0 0 0 -0.665773503231729 0
0 0.0791894438847471 0 0 0 -0.740813332293759 0 0 0 0 0 0 0 0 0 0 0 0 0 0 0 0 0 0 0 0 0 -1.70586911569726 0 0 0 0 0 0 -6.78646404499602 0 0 0 0 0 0 0 0 0 -0.609825628586411 0 0 0 0 0
0 0 0 0 0 0 -0.740813332293759 0 0 0 0 0 0 -1.13619913885248 0 0 0 0 -5.40365359400852 0 0 0 0 0 0 0 -0.552955829312943 0 0 -3.40909376812295 0 0 -0.496104747491683 0 0 0 0 0 0 0 -7.98842392741541 0 0 0 0 -1.07014363710875 0 0 0 0
0 0 0.207228250604741 0 0 0 0 -0.740813332293759 0 0 0 0 0 0 0 0 0 0 0 0 0 0 0 0 0 0 0 0 0 0 0 0 0 -0.940767639755311 0 0 0 0 0 0 0 -0.742101994879648 0 0 0 0 0 0 0 0
0 0 0 0.611621139426405 0 0 0 0 -0.740813332293759 0 0 0 0 -3.42776814904469 0 0 0 0 0 0 0 0 0 0 0 0 0 0 0 0 0 0 0 0 0 0 0 0 -1.45485663069848 0 0 0 0 0 0 0 0 0 0 0
0 0 0 0 0 0 0 0 0 -0.740813332293759 -1.75043423632911 0 0 0 0 0 0 0 0 0 0 0 0 0 0 0 0 0 0 0 0 0 0 0 0 0 0 0 0 -1.07773786840825 0 0 0 0 0 0 0 0 0 0
0 0 0 0 0 0 0 0 0 0.327794098277182 -0.740813332293759 0 0 0 0 0 0 -1.24338918670846 0 0 0 0 0 0 0 0 -0.191431534945555 0 0 -1.08192154813296 0 0 0 -0.646890245391053 -2.07793256311072 -3.73826438132679 0 0 0 0 0 0 -1.15483882427534 0 0 0 0 0 0 0
0 0 0 0 0.0615870148116083 0 0 0 0 0 0 -0.740813332293759 0 0 0 -0.461131820570844 0 0 0 -0.536577327473943 0 0 0 0 0 0 0 0 0 0 0 0 0 0 0 0 0 0 0 0 0 0 0 -1.27856339922021 0 0 0 0 0 -0.787173273532058
0 0 0 0 0 0 0 0 0 0 0 0 -0.740813332293759 0 0 0 0 0 0 0 0 0 0 0 0 0 0 0 0 0 0 0 0 0 0 -1.46596768789383 0 0 0 0 0 0 0 0 0 0 -2.518176401036 0 0 0
0 0 0 0 0 0 0.213564135587027 0 0.70725357210887 0 0 0 0 -0.740813332293759 0 0 0 0 0 0 0 0 0 0 0 0 0 0 0 0 -3.12733331200741 0 0 0 0 0 -1.62949117068289 0 0 0 0 0 0 0 0 0 0 0 0 0
0 0 0 0 0 0 0 0 0 0 0 0 0 0 -0.740813332293759 0 0 0 0 0 0 0 0 0 -0.968472178579841 0 -0.297762086871849 0 0 0 0 0 0 0 0 0 0 0 0 0 0 0 0 0 0 0 0 0 0 0
0.2908415489512 0 0 0 0.179939349774136 0 0 0 0 0 0 0.085568567014047 0 0 0 -0.740813332293759 0 0 0 -3.55713991521011 0 0 -1.80461974013746 -9.32477415410929 0 -0.943698418281928 0 0 0 0 0 0 0 -0.560613909446924 0 0 0 0 0 0 0 0 0 0 -0.114643338372646 0 0 0 0 0
0 0 0 0 0 0 0 0 0 0 0 0 0 0 0 0 -0.740813332293759 0 0 -0.220029311055358 0 0 0 -0.359083681491363 0 0 0 0 0 -0.550557904476273 0 0 -5.69046692563747 0 0 0 -0.350605684127483 -3.0422522713665 -1.28786220138253 0 0 0 0 -1.18995169935931 0 0 0 0 0 0
0.0458153776129185 0 0 0 0 0 0 0 0 0 0.267339626525272 0 0 0 0 0 0 -0.740813332293759 0 0 0 0 0 0 0 -0.299325397572243 0 0 0 0 -4.41050903152385 0 0 -3.69438438443143 0 0 0 0 0 0 0 0 0 0 0 0 0 0 -0.824654002868577 0
0 0 0 0 0 0 1.06046168196829 0 0 0 0 0 0 0 0 0 0 0 -0.740813332293759 0 0 0 0 0 0 -1.11888145696621 0 0 0 0 0 0 0 0 0 0 0 0 0 0 0 -0.392779441335816 0 0 0 -0.265774388676856 -1.15394981635232 0 0 0
0 0 0 0 0.0367856526347328 0 0 0 0 0 0 0.105094234174905 0 0 0 0.713949844157842 0.0487472718422196 0 0 -0.740813332293759 0 0 0 0 0 0 -1.03058485095714 0 -1.28106273713746 0 -1.14761641659211 -3.25017731121706 0 0 0 -2.9695922205701 0 0 0 0 0 -2.17886990612148 0 0 0 0 0 0 0 -0.349341187650703
0 0 0 0 0 0 0 0 0 0 0 0 0 0 0 0 0 0 0 0 -0.740813332293759 0 0 0 -0.913969132383128 0 0 0 0 0 0 -0.447341120318628 0 0 0 0 0 0 0 0 0 0 0 0 0 -0.404250792186624 0 0 0 0
0 0 0 0 0 0 0 0 0 0 0 0 0 0 0 0 0 0 0 0 0 -0.740813332293759 0 0 0 0 0 0 -2.83197112762561 -2.47025500104714 0 0 0 0 0 0 0 -0.631085851932062 0 0 0 0 0 0 0 -0.291154688781726 0 0 -0.486777897719891 0
0 0 0 0 0 0 0 0 0 0 0 0 0 0 0 0.378590137320127 0 0 0 0 0 0 -0.740813332293759 0 0 0 0 0 0 0 0 0 0 0 0 0 0 -2.0968454081437 -0.920872290485531 0 0 0 0 0 0 0 0 0 0 0
0 0 0 0 0 0 0 0 0 0 0 0 0 0 0 1.8652297279564 0.0715666711578883 0 0 0 0 0 0 -0.740813332293759 0 -0.983899720619231 0 0 0 0 0 0 0 0 0 0 0 0 0 0 0 -1.99544020823088 0 -0.721890508572003 0 0 0 0 0 0
0 0 0 0.173043609851377 0 0 0 0 0 0 0 0 0 0 0.190750744179586 0 0 0 0 0 0.168366902279519 0 0 0 -0.740813332293759 0 0 0 0 0 0 0 0 0 -0.733514515841141 0 0 -2.41564300731282 0 0 0 0 0 0 0 0 0 0 0 0
0 0 0 0 0 0 0 0 0 0 0 0 0 0 0 0.196391510768528 0 0.0589506156944733 0.222973346968675 0 0 0 0 0.19958344270009 0 -0.740813332293759 0 0 0 0 -4.14535915434888 0 0 0 0 0 0 0 0 0 0 0 0 0 0 0 0 0 0 0
0 0 0 0 0 0 0.119918146144484 0 0 0 0.0372010487882525 0 0 0 0.0612902943946747 0 0 0 0 0.202321547658643 0 0 0 0 0 0 -0.740813332293759 0 0 0 0 0 0 0 0 0 0 0 0 0 0 0 0 0 0 0 -2.57563176100029 0 0 0
0 0 0 0 0 0.330592265319486 0 0 0 0 0 0 0 0 0 0 0 0 0 0 0 0 0 0 0 0 0 -0.740813332293759 0 -0.262910280872692 0 0 0 0 0 0 0 0 0 0 0 0 0 0 0 0 0 0 0 -10.1841161762325
0 0 0 0 0 0 0 0 0 0 0 0 0 0 0 0 0 0 0 0.247265551390668 0 0.582645923898906 0 0 0 0 0 0 -0.740813332293759 0 0 0 -5.26905695307512 0 -2.45803245710784 -2.30063631889705 0 -0.940065374594717 0 0 0 0 0 0 0 0 0 0 0 0
0 0 0 0 0 0 0.70239914295422 0 0 0 0.222102618113796 0 0 0 0 0 0.118830577862248 0 0 0 0 0.467802790975043 0 0 0 0 0 0.049348273475287 0 -0.740813332293759 -8.33002930705876 0 0 0 0 0 0 0 0 0 0 0 0 -2.53352610743893 0 0 0 0 0 0
0 0 0 0 0 0 0 0 0 0 0 0 0 0.587096345300843 0 0 0 0.792913241791378 0 0.23523147190717 0 0 0 0 0 0.851928311417306 0 0 0 1.59656163772227 -0.740813332293759 0 0 0 0 0 0 -2.2130415628905 0 0 -1.87632434085328 0 0 0 0 0 0 0 0 0
0.719555841037305 0 0 0 0 0 0 0 0 0 0 0 0 0 0 0 0 0 0 0.578338005895595 0.0887485313250384 0 0 0 0 0 0 0 0 0 0 -0.740813332293759 0 -0.421183262553285 0 0 0 0 0 0 0 0 0 0 0 0 0 0 0 0
0 0 0 0 0 0 0.0948559137253066 0 0 0 0 0 0 0 0 0 1.1255773473054 0 0 0 0 0 0 0 0 0 0 0 1.06269600070231 0 0 0 -0.740813332293759 0 0 0 0 0 0 0 0 0 0 0 -0.618305443629619 0 0 0 0 0
0 0.154555606888995 0 1.18753276229223 0 0 0 0.212088537469429 0 0 0.124139658697409 0 0 0 0 0.118402575756448 0 0.698952167361306 0 0 0 0 0 0 0 0 0 0 0 0 0 0.0862646044048874 0 -0.740813332293759 0 -1.65786013035349 0 0 0 0 0 0 0 0 0 -2.95450610187603 -0.850526892770601 0 0 0
0 0 0 0 0 1.33024020130873 0 0 0 0 0.386994006256642 0 0 0 0 0 0 0 0 0 0 0 0 0 0.144854003097674 0 0 0 0.45710326475154 0 0 0 0 0 -0.740813332293759 0 -0.200246647324285 0 0 0 0 0 0 0 0 0 0 -1.14594381632678 0 0
0 0 0 0 0 0 0 0 0 0 0.727401709332214 0 0.317599335354018 0 0 0 0 0 0 0.565875930414549 0 0 0 0 0 0 0 0 0.489021246884254 0 0 0 0 0.342619644333174 0 -0.740813332293759 0 0 0 0 0 0 0 0 0 -0.490121490792924 0 0 0 0
0 0 0 0 0.105886874781653 0 0 0 0 0 0 0 0 0.371246532172046 0 0 0.0698421755523323 0 0 0 0 0 0 0 0 0 0 0 0 0 0 0 0 0 0.0399961731343344 0 -0.740813332293759 0 0 0 0 0 -0.553055141285695 0 0 0 0 -0.398796587838981 0 0
0 0.177447236988689 0 0 0 0 0 0 0 0 0 0 0 0 0 0 0.527938613858227 0 0 0 0 0.123178450793952 0.393193738928939 0 0.471947606684704 0 0 0 0.17211805852182 0 0.489886251929127 0 0 0 0 0 0 -0.740813332293759 0 0 0 0 0 0 0 0 0 0 0 0
0 0 0 0 0 0 0 0 0.298604444942336 0 0 0 0 0 0 0 0.287440130388078 0 0 0 0 0 0.186463498255528 0 0 0 0 0 0 0 0 0 0 0 0 0 0 0 -0.740813332293759 0 -1.91840915120497 0 0 0 0 0 0 0 -1.66704316029558 0
0 0 0 0 0 0 0 0 0 0.216089641844806 0 0 0 0 0 0 0 0 0 0 0 0 0 0 0 0 0 0 0 0 0 0 0 0 0 0 0 0 0 -0.740813332293759 0 0 -2.26748804133943 0 0 -2.91690646021913 0 0 0 0
0 0 0 0 0 0 1.5413014308393 0 0 0 0 0 0 0 0 0 0 0 0 0 0 0 0 0 0 0 0 0 0 0 0.346045406735797 0 0 0 0 0 0 0 0.377893958332177 0 -0.740813332293759 -0.508493837442197 0 0 0 0 0 -0.723257373510422 -1.7736271170861 0
0 0 0 0 0 0 0 0.142751930254455 0 0 0 0 0 0 0 0 0 0 0.0874072169407958 0.451162206213674 0 0 0 0.421472111583112 0 0 0 0 0 0 0 0 0 0 0 0 0 0 0 0 0.100541296253915 -0.740813332293759 0 0 0 0 0 0 -0.552724975861153 0
0 0 0 0 0 0 0 0 0 0 0.245408819450329 0 0 0 0 0 0 0 0 0 0 0 0 0 0 0 0 0 0 0 0 0 0 0 0 0 0.119196704804756 0 0 0.453255672157869 0 0 -0.740813332293759 0 0 0 0 0 0 0
0 0 0 0 0 0 0 0 0 0 0 0.254901496869142 0 0 0 0 0.232776784384138 0 0 0 0 0 0 0.145801533340316 0 0 0 0 0 0.502695974000316 0 0 0 0 0 0 0 0 0 0 0 0 0 -0.740813332293759 0 0 -0.113597140294353 -1.81189130014156 0 0
0 0 0 0 0 0.117371779295638 0 0 0 0 0 0 0 0 0 0.0216395984580737 0 0 0 0 0 0 0 0 0 0 0 0 0 0 0 0 0.116936951239471 0 0 0 0 0 0 0 0 0 0 0 -0.740813332293759 0 0 0 -2.0064800201608 -3.2931856412492
0 0 0 0 0 0 0.21540835039489 0 0 0 0 0 0 0 0 0 0 0 0.0514895224999228 0 0.0864332290180038 0.0540783300655715 0 0 0 0 0 0 0 0 0 0 0 0.628642961094263 0 0.089226925063441 0 0 0 0.548221765247836 0 0 0 0 0 -0.740813332293759 0 0 0 0
0 0 0.268045933970863 0.368667189057976 0 0 0 0 0 0 0 0 0.540020469186309 0 0 0 0 0 0.244145607987248 0 0 0 0 0 0 0 0.520004404808028 0 0 0 0 0 0 0.177321663020603 0 0 0 0 0 0 0 0 0 0.0222403916386499 0 0 -0.740813332293759 0 0 0
0 0 0 0 0 0 0 0 0 0 0 0 0 0 0 0 0 0 0 0 0 0 0 0 0 0 0 0 0 0 0 0 0 0 0.252902685024801 0 0.0901000458897055 0 0 0 0.145345702640515 0 0 0.35502088375496 0 0 0 -0.740813332293759 0 -1.08284245117788
0 0 0 0.200699733148448 0.137378016642474 0 0 0 0 0 0 0 0 0 0 0 0 0.17629197337798 0 0 0 0.100853960653013 0 0 0 0 0 0 0 0 0 0 0 0 0 0 0 0 0.335282960502271 0 0.35873439290215 0.107478130883142 0 0 0.366192789937388 0 0 0 -0.740813332293759 0
0 0 0 0 0 0 0 0 0 0 0 0.156137892297045 0 0 0 0 0 0 0 0.0704793459544634 0 0 0 0 0 0 0 1.89971909193811 0 0 0 0 0 0 0 0 0 0 0 0 0 0 0 0 0.628482582019308 0 0 0.215115452869252 0 -0.740813332293759
