-0.466414501503565 0 0 0 0 0 0 0 0 0 0 0 0 0 0 0 0 0 0 0 0 0 0 0 0 0 0 0 -2.10283917519947 0 0 0 -0.295263692573134 0 0 0 0 0 0 0 0 0 0 0 0 0 0 0 0 -0.68705655986615
0 -0.466414501503565 0 0 0 0 -1.0870711099442 0 -0.357015154444672 0 0 0 0 0 0 0 0 0 0 -1.25609430024 0 0 0 0 0 0 0 0 0 0 0 0 0 0 0 0 0 0 0 0 0 0 0 0 0 0 0 0 0 0
0 0 -0.466414501503565 -1.14745128554086 0 0 0 0 0 0 0 -0.38362655619454 0 0 0 0 0 0 0 0 0 0 0 0 0 0 -1.31504678412111 0 0 0 0 0 0 0 0 0 0 0 0 0 0 0 0 0 0 -2.14106236080648 0 0 0 -0.658486297777806
0 0 0.234586369696456 -0.466414501503565 0 0 0 0 0 -1.22742194696609 0 0 0 0 0 0 0 0 0 0 0 0 0 0 0 0 0 0 -1.31710533239248 0 0 0 0 0 0 0 -1.10514524794438 -0.931413728605387 0 0 0 0 0 -0.627350574837367 0 0 0 0 0 0
0 0 0 0 -0.466414501503565 0 0 0 0 0 -0.366600506526565 0 0 -10.7887909942637 0 0 0 0 0 0 -0.942418124292259 -0.374042500797741 0 0 0 0 0 0 0 0 0 0 0 0 0 0 0 0 0 -2.44123906779437 0 0 0 0 -0.544372157370923 0 -4.11775159977366 -0.757039950056202 0 0
0 0 0 0 0 -0.466414501503565 0 0 0 0 -0.776424458128892 0 0 0 0 0 0 0 0 0 0 0 0 0 0 -1.15270828911746 0 0 0 0 0 -0.236503400861255 -1.01970418665101 0 0 0 0 -1.75692500433242 0 0 0 -2.78273012665518 0 0 0 0 0 0 0 0
0 0.219515678788986 0 0 0 0 -0.466414501503565 0 0 0 0 0 0 0 -0.955685728659123 0 -3.83582364754942 0 0 0 0 0 0 0 0 0 0 0 0 0 0 0 0 0 0 0 0 0 -0.569103222080164 -0.40166593240624 0 0 -1.19597098307346 0 0 0 0 0 0 0
0 0 0 0 0 0 0 -0.466414501503565 0 0 0 0 0 0 0 0 0 -0.831226370841275 0 0 0 0 0 0 0 0 0 0 0 0 -0.57082453325062 0 0 0 0 0 0 0 0 0 0 -0.326706934182653 0 0 0 0 0 0 0 0
0 0.078890844989624 0 0 0 0 0 0 -0.466414501503565 0 0 0 0 0 0 0 0 -1.59326768859864 0 -10.6047034141249 0 0 0 0 0 0 0 0 0 0 0 0 -0.0755981589709115 0 0 0 0 0 0 0 0 0 0 0 0 0 0 0 0 0
0 0 0 0.227638254104792 0 0 0 0 0 -0.466414501503565 0 0 0 0 0 0 0 0 0 0 0 0 0 0 0 0 0 0 -0.860937440823086 0 0 0 -9.35741024993061 0 0 0 0 0 0 0 0 0 0 0 0 0 0 0 -0.403647812701118 -9.9420687034918
0 0 0 0 0.0792315271540957 0.147788829747196 0 0 0 0 -0.466414501503565 0 0 0 0 -0.177323523447581 0 0 0 -1.65834868058397 0 0 0 -3.57053050312124 0 0 0 0 0 0 0 0 0 0 -0.356897390779998 0 0 -1.42373656061725 -5.98691197904349 0 0 0 0 0 0 0 0 0 0 0
0 0 0.0725446382125439 0 0 0 0 0 0 0 0 -0.466414501503565 0 0 0 0 0 0 0 0 0 0 0 0 0 0 0 0 0 0 0 0 0 0 0 -1.00683702201041 0 0 -1.7955008071058 0 0 0 0 0 0 -0.535241715225031 0 0 0 0
0 0 0 0 0 0 0 0 0 0 0 0 -0.466414501503565 0 0 0 0 0 0 0 0 0 0 0 0 0 0 -0.682013709125717 0 0 0 0 0 -1.47382640678532 0 0 0 -4.06318945591064 0 -1.05605572759772 -0.946945026166646 0 0 0 0 0 0 0 0 0
0 0 0 0 2.18070225990041 0 0 0 0 0 0 0 0 -0.466414501503565 0 0 0 0 0 0 0 0 0 0 0 0 0 0 0 0 0 -1.38821666881908 0 0 0 0 0 0 0 0 -1.36668356485593 0 0 0 0 0 0 0 0 0
0 0 0 0 0 0 0.196650371395227 0 0 0 0 0 0 0 -0.466414501503565 -2.96509764336983 0 0 0 0 0 0 0 0 0 0 0 -0.502186982663173 0 0 0 0 0 0 0 0 0 0 0 0 0 0 0 -1.07174699648762 0 0 0 0 0 0
0 0 0 0 0 0 0 0 0 0 0.0339275786683847 0 0 0 0.610752520916084 -0.466414501503565 0 0 0 0 0 0 0 0 0 0 0 0 0 0 0 0 0 0 0 0 0 0 0 0 0 0 0 0 0 0 0 -1.18674401579595 0 0
0 0 0 0 0 0 0.753809329740613 0 0 0 0 0 0 0 0 0 -0.466414501503565 0 -3.90177104389455 0 0 0 -0.725350727646189 0 0 0 0 0 0 0 0 0 0 0 0 0 0 0 0 0 0 0 0 0 0 0 0 0 0 0
0 0 0 0 0 0 0 0.16239101342293 0.296609438615071 0 0 0 0 0 0 0 0 -0.466414501503565 0 0 0 0 0 0 0 0 0 0 0 0 0 0 0 0 0 0 0 0 0 0 -2.01987263486108 -0.613264231539935 0 -2.38733066046881 0 0 0 0 0 0
0 0 0 0 0 0 0 0 0 0 0 0 0 0 0 0 0.76254483784227 0 -0.466414501503565 0 -1.49060983560155 0 -0.473128258885921 -0.988675858475418 0 0 0 0 -2.68119883785688 0 0 0 0 0 -0.0905696014047532 0 0 0 0 0 0 0 0 0 0 0 0 0 0 0
0 0.263049152187293 0 0 0 0 0 0 2.336551338554 0 0.337505984079771 0 0 0 0 0 0 0 0 -0.466414501503565 0 0 0 0 0 0 0 0 0 -0.883349414731766 0 0 0 0 0 -0.796668018296972 0 0 0 0 0 0 0 0 0 -2.58107427060895 0 0 0 0
0 0 0 0 0.190341197123774 0 0 0 0 0 0 0 0 0 0 0 0 0 0.293686771245928 0 -0.466414501503565 0 0 0 0 0 0 0 0 0 0 0 0 0 0 0 -0.925245603415157 0 -1.91256089495162 0 0 0 0 0 0 0 0 0 0 0
0 0 0 0 0.0701488159669178 0 0 0 0 0 0 0 0 0 0 0 0 0 0 0 0 -0.466414501503565 0 0 0 0 0 0 0 0 0 0 0 -1.14781619746033 -0.943055516957288 0 0 0 0 0 0 0 0 0 0 0 0 0 0 0
0 0 0 0 0 0 0 0 0 0 0 0 0 0 0 0 0.140829600411098 0 0.0934765345910405 0 0 0 -0.466414501503565 0 0 -0.680301935719121 0 0 0 0 0 0 0 0 0 0 0 0 0 0 0 0 0 0 -0.709752224982339 0 -0.354437718732 0 0 0
0 0 0 0 0 0 0 0 0 0 0.708677359685779 0 0 0 0 0 0 0 0.1945358024496 0 0 0 0 -0.466414501503565 -0.974664991294164 -1.73982250187142 0 0 0 0 0 0 0 0 0 0 -0.426301725332536 0 0 0 0 -0.603749470987608 0 0 0 0 0 0 0 0
0 0 0 0 0 0 0 0 0 0 0 0 0 0 0 0 0 0 0 0 0 0 0 0.184840728000143 -0.466414501503565 0 0 0 0 0 0 0 0 0 0 0 0 0 0 0 0 -0.130795561403728 0 0 0 0 0 0 0 0
0 0 0 0 0 0.240241205455037 0 0 0 0 0 0 0 0 0 0 0 0 0 0 0 0 0.135730901823747 0.325788695831367 0 -0.466414501503565 0 0 0 0 0 0 0 0 0 -5.66497287669978 0 0 0 -1.2130479201084 0 0 0 0 0 0 0 0 0 0
0 0 0.257708592916139 0 0 0 0 0 0 0 0 0 0 0 0 0 0 0 0 0 0 0 0 0 0 0 -0.466414501503565 0 0 0 0 0 0 -0.280909843768861 0 0 0 0 0 -0.930483822424756 -0.169045378673248 -1.12021196001241 0 0 0 0 0 0 0 -1.72398438039031
0 0 0 0 0 0 0 0 0 0 0 0 0.130289510630202 0 0.106808080902136 0 0 0 0 0 0 0 0 0 0 0 0 -0.466414501503565 0 0 0 -0.755238204530476 -0.137541665661047 0 0 0 -0.996766607407673 0 0 -0.630975883108471 -11.7548462850039 0 0 0 0 0 -0.879232304847894 -0.536076854429878 0 0
0.420798728361277 0 0 0.299118068190381 0 0 0 0 0 0.186449607226725 0 0 0 0 0 0 0 0 0.580209235096531 0 0 0 0 0 0 0 0 0 -0.466414501503565 0 0 0 0 0 0 0 0 0 0 0 0 -0.58951037285409 0 0 -1.34425000330917 0 0 0 0 0
0 0 0 0 0 0 0 0 0 0 0 0 0 0 0 0 0 0 0 0.15778405513893 0 0 0 0 0 0 0 0 0 -0.466414501503565 0 -3.5926188861536 0 0 0 0 0 0 0 0 0 0 0 -0.208893278206868 0 0 0 0 0 0
0 0 0 0 0 0 0 0.113440096189891 0 0 0 0 0 0 0 0 0 0 0 0 0 0 0 0 0 0 0 0 0 0 -0.466414501503565 -1.60503678417521 0 0 0 0 0 0 0 0 0 0 0 0 0 0 0 0 0 0
0 0 0 0 0 0.0445290444485972 0 0 0 0 0 0 0 0.273262677286591 0 0 0 0 0 0 0 0 0 0 0 0 0 0.157217570807318 0 0.776092739887169 0.337343640572746 -0.466414501503565 0 0 0 0 0 0 0 0 0 0 0 0 0 0 0 0 -2.00353503032117 0
0.0637114766906852 0 0 0 0 0.200885597004138 0 0 0.014389008601965 1.75424126312539 0 0 0 0 0 0 0 0 0 0 0 0 0 0 0 0 0 0.0295237879707219 0 0 0 0 -0.466414501503565 0 0 0 -0.471848499272591 0 0 -1.14172101006685 0 0 0 0 0 0 0 0 0 0
0 0 0 0 0 0 0 0 0 0 0 0 0.300877731780268 0 0 0 0 0 0 0 0 0.243164558666042 0 0 0 0 0.0590362158189106 0 0 0 0 0 0 -0.466414501503565 0 0 0 0 -1.10938890072663 -1.59303474817213 0 -0.587978154671916 -0.314348562083994 0 0 0 -2.80313370450679 -1.35775197138406 0 0
0 0 0 0 0 0 0 0 0 0 0.0727491997761825 0 0 0 0 0 0 0 0.0182133575224566 0 0 0.209846936824427 0 0 0 0 0 0 0 0 0 0 0 0 -0.466414501503565 0 0 0 0 0 0 0 0 0 0 0 0 0 0 0
0 0 0 0 0 0 0 0 0 0 0 0.206488965124284 0 0 0 0 0 0 0 0.16456359914752 0 0 0 0 0 1.06579300568507 0 0 0 0 0 0 0 0 0 -0.466414501503565 0 0 0 0 0 0 0 0 0 0 0 0 -0.552294936231893 -0.220459373814534
0 0 0 0.222722196870138 0 0 0 0 0 0 0 0 0 0 0 0 0 0 0 0 0.192507720747071 0 0 0.0836729780403995 0 0 0 0.213808044212476 0 0 0 0 0.0937258634992673 0 0 0 -0.466414501503565 0 0 0 0 0 0 0 0 0 0 0 0 0
0 0 0 0.192686848646669 0 0.358065544053047 0 0 0 0 0.286122987345122 0 0.789977130651311 0 0 0 0 0 0 0 0 0 0 0 0 0 0 0 0 0 0 0 0 0 0 0 0 -0.466414501503565 0 0 0 0 0 0 0 0 0 0 -2.35455261910448 0
0 0 0 0 0 0 0.115368171149303 0 0 0 1.0966538199607 0.344555808919225 0 0 0 0 0 0 0 0 0.387892584904241 0 0 0 0 0 0 0 0 0 0 0 0 0.208769192960122 0 0 0 0 -0.466414501503565 -0.187441619472726 0 0 0 0 -0.456279191657401 0 0 0 0 0
0 0 0 0 0.512011471123179 0 0.0825277566327771 0 0 0 0 0 0.193583818086647 0 0 0 0 0 0 0 0 0 0 0 0 0.248909898008712 0.186186927858887 0.124309709239899 0 0 0 0 0.219186392502595 0.324652003930678 0 0 0 0 0.0354594401751408 -0.466414501503565 0 0 -2.02171588843526 -1.3741709879321 0 0 0 0 0 0
0 0 0 0 0 0 0 0 0 0 0 0 0.19187904705002 0.264360972976552 0 0 0 0.411658833784455 0 0 0 0 0 0 0 0 0.0343284335265057 2.48456905247774 0 0 0 0 0 0 0 0 0 0 0 0 -0.466414501503565 0 0 -0.659548146221785 0 0 0 0 0 0
0 0 0 0 0 0.5842431303999 0 0.0680348453734368 0 0 0 0 0 0 0 0 0 0.130256878498953 0 0 0 0 0 0.127848381792703 0.0252543887725629 0 0.224032732585421 0 0.116509700197427 0 0 0 0 0.111549189742069 0 0 0 0 0 0 0 -0.466414501503565 0 -4.98863104040861 0 0 -5.93950203587266 0 0 0
0 0 0 0 0 0 0.235737639327964 0 0 0 0 0 0 0 0 0 0 0 0 0 0 0 0 0 0 0 0 0 0 0 0 0 0 0.0617895589708398 0 0 0 0 0 0.407480128163859 0 0 -0.466414501503565 0 0 0 0 0 0 0
0 0 0 0.136615601002778 0 0 0 0 0 0 0 0 0 0 0.221001794923671 0 0 0.496449500768417 0 0 0 0 0 0 0 0 0 0 0 0.0426806007578623 0 0 0 0 0 0 0 0 0 0.270947042066674 0.117741969785687 0.964745916217449 0 -0.466414501503565 0 -0.302600222209491 0 0 0 0
0 0 0 0 0.110223975889086 0 0 0 0 0 0 0 0 0 0 0 0 0 0 0 0 0 0.134904697599656 0 0 0 0 0 0.267419124029085 0 0 0 0 0 0 0 0 0 0.0881918175146787 0 0 0 0 0 -0.466414501503565 0 -0.0480760038566666 0 0 -2.19764387849706
0 0 0.380928081656376 0 0 0 0 0 0 0 0 0.111004489420921 0 0 0 0 0 0 0 0.511478228542893 0 0 0 0 0 0 0 0 0 0 0 0 0 0 0 0 0 0 0 0 0 0 0 0.0626677354958684 0 -0.466414501503565 0 0 0 0
0 0 0 0 0.789640206978678 0 0 0 0 0 0 0 0 0 0 0 0 0 0 0 0 0 0.0762200883538775 0 0 0 0 0.182022799300933 0 0 0 0 0 0.570302286709974 0 0 0 0 0 0 0 1.27927500964686 0 0 0.00922609803227683 0 -0.466414501503565 0 0 0
0 0 0 0 0.151835691974687 0 0 0 0 0 0 0 0 0 0 0.227443318416811 0 0 0 0 0 0 0 0 0 0 0 0.111930862232703 0 0 0 0 0 0.258431899814056 0 0 0 0 0 0 0 0 0 0 0 0 0 -0.466414501503565 0 -0.934565934272327
0 0 0 0 0 0 0 0 0 0.0720420440123787 0 0 0 0 0 0 0 0 0 0 0 0 0 0 0 0 0 0 0 0 0 0.378880366685356 0 0 0 0.114223728595829 0 0.449602851711141 0 0 0 0 0 0 0 0 0 0 -0.466414501503565 0
0.136280412415247 0 0.126161842575834 0 0 0 0 0 0 2.05148584297331 0 0 0 0 0 0 0 0 0 0 0 0 0 0 0 0 0.371232459114708 0 0 0 0 0 0 0 0 0.0457245685381951 0 0 0 0 0 0 0 0 0.457134112025793 0 0 0.200933003591209 0 -0.466414501503565
