-0.294966907587647 0 0 0 0 0 0 0 0 -0.570351565283509 0 0 0 0 0 0 0 -1.69142305493603 0 0 0 0 0 0 0 0 0 0 0 -0.842675660843176 0 0 0 0 0 0 0 -0.678668972751003 0 0 0 0 -0.905884617832165 0 0 0 0 0 0 0
0 -0.294966907587647 0 0 0 0 0 0 0 0 -1.23025998372384 0 0 0 0 0 0 0 -1.1741674638687 0 0 0 -1.68474211628686 0 0 0 0 0 0 0 -0.672279536821153 0 0 -4.22278417165529 0 0 0 0 0 0 0 0 0 -7.38167131074928 0 0 0 0 -0.659186203965675 0
0 0 -0.294966907587647 0 0 0 0 0 0 0 0 0 0 0 0 0 0 0 -0.360802432786699 0 0 0 0 0 0 0 0 0 0 0 0 0 0 -0.333384842048626 0 0 0 0 -0.798159763270596 0 0 0 0 0 0 -0.882231857597125 0 0 0 0
0 0 0 -0.294966907587647 0 -0.358373929274414 0 0 0 0 -0.50066750457213 0 0 0 0 0 0 0 0 0 0 0 0 0 0 -1.18973426917327 0 -0.650892038145002 0 0 -1.71705582638723 0 0 0 0 0 0 0 0 0 0 0 0 0 0 0 0 0 0 0
0 0 0 0 -0.294966907587647 0 0 0 0 0 -1.29477579510604 0 0 0 0 0 0 0 0 0 -1.25306375142419 0 0 0 0 0 0 0 0 0 0 0 -0.475904405623385 0 0 -1.05139128898379 0 0 0 0 0 0 0 0 0 0 0 0 0 -2.06644883642621
0 0 0 0.0682123594572846 0 -0.294966907587647 0 -1.50101548557231 0 0 0 0 0 0 0 0 -0.270750389575732 0 0 0 0 0 0 0 0 0 0 0 0 0 0 -0.358549911768541 0 0 -1.81976833450022 0 0 0 0 0 0 0 -0.504487796274726 0 0 0 -0.670390091234931 -1.97386512697032 0 0
0 0 0 0 0 0 -0.294966907587647 0 0 0 0 -1.63935292724714 -4.22994611744241 -1.00754043679401 0 -1.54649698274819 0 -0.928959996199663 0 0 0 0 0 0 0 0 -0.845082409002095 -0.132598741674382 0 0 0 0 0 0 0 0 0 -0.353518741218325 0 0 0 0 0 0 0 0 0 0 0 0
0 0 0 0 0 0.29602074038508 0 -0.294966907587647 0 0 0 0 0 0 0 -0.470872087276525 0 0 0 0 0 0 0 0 0 -0.684488547274927 0 0 0 0 0 0 0 0 0 0 0 0 0 0 0 0 0 0 0 0 0 -0.4547154021287 0 0
0 0 0 0 0 0 0 0 -0.294966907587647 0 -0.497101145770576 0 0 0 0 0 -0.348262312417017 0 0 0 0 0 0 0 -1.09890465352705 0 0 0 0 0 0 0 0 0 -0.526727410596551 0 0 0 0 0 0 0 0 0 0 0 -1.07709719135147 0 0 0
0.118910703989696 0 0 0 0 0 0 0 0 -0.294966907587647 0 0 0 0 0 0 -0.99040905013597 0 0 0 0 0 -1.31054382223396 0 0 0 0 0 0 0 0 0 0 0 0 -1.60080747884724 0 0 0 0 0 0 0 0 0 0 0 0 0 0
0 0.261356582618086 0 0.106737901145113 0.260584157562288 0 0 0 0.100614402716444 0 -0.294966907587647 0 0 -0.340334527979744 0 0 0 0 0 0 0 0 0 0 0 0 0 0 0 -1.35447295483421 0 0 -0.541830600914396 0 0 0 0 0 0 0 0 0 0 0 0 0 0 0 0 0
0 0 0 0 0 0 0.331446229759292 0 0 0 0 -0.294966907587647 0 0 0 0 0 0 0 -0.45411728604443 0 0 0 0 0 0 0 -0.123189009590463 0 0 0 0 -1.89047406844561 -0.443766831708031 0 0 0 0 0 0 0 0 0 0 0 0 0 0 0 0
0 0 0 0 0 0 0.882928302211196 0 0 0 0 0 -0.294966907587647 -1.86542129732961 0 0 0 0 0 0 0 0 0 -0.255136396671947 0 0 0 0 0 0 0 0 -0.487990209767739 0 0 -0.515059651098085 0 0 -0.24688505741385 0 0 0 0 0 -1.4928221545899 0 -1.24954864490844 0 0 -1.81340528956422
0 0 0 0 0 0 0.20146289494263 0 0 0 0.0682887123185529 0 0.390033737665808 -0.294966907587647 0 0 0 0 0 0 0 0 0 0 0 0 0 0 -1.43308331865093 0 -1.39782492562341 0 0 0 0 0 0 0 0 0 0 -3.75817516343298 0 -0.654110551166341 -0.326461290099407 0 0 0 0 0
0 0 0 0 0 0 0 0 0 0 0 0 0 0 -0.294966907587647 0 0 0 0 0 0 0 0 0 0 0 0 0 0 0 0 0 0 0 0 0 0 0 -1.14436715277225 0 -1.23188014958742 -0.288824113089531 -1.11603051043571 0 0 0 0 0 0 0
0 0 0 0 0 0 0.289313867277652 0.0991589136259003 0 0 0 0 0 0 0 -0.294966907587647 0 0 0 0 0 -1.01720239495499 0 0 0 0 0 0 0 0 0 0 0 0 0 0 0 -1.13400178886923 0 0 0 0 0 0 0 -1.0268537678556 0 0 0 0
0 0 0 0 0 0.0575645339899003 0 0 0.071998329869121 0.217808794830685 0 0 0 0 0 0 -0.294966907587647 0 0 0 0 0 0 0 0 0 -2.24959001024166 0 0 0 0 -0.35885451629568 0 0 0 0 0 0 0 0 0 0 0 0 0 0 0 0 0 0
0.326576122811054 0 0 0 0 0 0.183452899769625 0 0 0 0 0 0 0 0 0 0 -0.294966907587647 0 0 0 -1.18734793294642 0 0 0 0 0 0 0 0 0 0 0 0 0 0 0 0 0 0 0 -0.146334895353888 0 -2.47412582892899 0 0 0 0 0 0
0 0.247866540348344 0.0729630734786623 0 0 0 0 0 0 0 0 0 0 0 0 0 0 0 -0.294966907587647 0 0 0 0 0 0 0 0 0 0 0 0 0 0 -0.323919359593795 0 0 0 0 0 0 0 0 0 0 -0.180359502725423 0 0 0 0 0
0 0 0 0 0 0 0 0 0 0 0 0.081592543124834 0 0 0 0 0 0 0 -0.294966907587647 0 0 0 0 0 0 0 0 0 0 0 0 0 0 0 0 0 0 0 0 0 0 0 0 0 0 0 0 0 0
0 0 0 0 0.263158257066413 0 0 0 0 0 0 0 0 0 0 0 0 0 0 0 -0.294966907587647 0 0 0 0 0 0 0 0 0 0 0 0 0 0 0 0 0 0 -1.1594894285109 0 -0.502327099764394 0 0 0 -3.33881454374039 0 0 0 0
0 0 0 0 0 0 0 0 0 0 0 0 0 0 0 0.21684659376685 0 0.231667056269617 0 0 0 -0.294966907587647 -0.90560507191639 0 0 0 -0.93638951153861 0 -0.478130606463708 0 0 0 0 0 0 0 -1.85158837390419 0 0 0 0 0 -0.273394537787884 0 0 0 0 0 0 0
0 0.350811377164414 0 0 0 0 0 0 0 0.280304793354919 0 0 0 0 0 0 0 0 0 0 0 0.190371574714249 -0.294966907587647 0 0 0 0 -0.274759350311068 0 0 0 0 0 0 0 0 0 0 0 0 0 0 0 0 0 0 0 0 0 0
0 0 0 0 0 0 0 0 0 0 0 0 0.0466821374306671 0 0 0 0 0 0 0 0 0 0 -0.294966907587647 0 0 0 0 0 -0.380588058476816 0 0 0 -0.343890464577896 0 0 0 0 0 0 0 0 0 0 0 -0.407487812540566 0 0 0 0
0 0 0 0 0 0 0 0 0.234948798163308 0 0 0 0 0 0 0 0 0 0 0 0 0 0 0 -0.294966907587647 0 0 0 0 0 0 0 0 -0.978429630659893 0 0 0 0 0 0 0 0 0 0 0 0 0 0 0 0
0 0 0 0.233509919979375 0 0 0 0.138040248504151 0 0 0 0 0 0 0 0 0 0 0 0 0 0 0 0 0 -0.294966907587647 0 0 -0.567893369223014 0 0 0 0 0 0 0 0 0 0 0 0 0 0 0 0 -0.604021290672063 0 0 0 0
0 0 0 0 0 0 0.17122180139573 0 0 0 0 0 0 0 0 0 0.43842701879465 0 0 0 0 0.183153869450876 0 0 0 0 -0.294966907587647 0 0 -0.205236487738161 0 0 0 0 0 0 0 0 0 0 0 0 0 0 0 0 0 -3.92116768685648 0 0
0 0 0 0.126456873281844 0 0 0.0258657647778658 0 0 0 0 0.0241880351503259 0 0 0 0 0 0 0 0 0 0 0.0577512029730478 0 0 0 0 -0.294966907587647 0 0 0 -1.53861279045951 0 0 -2.39218105791344 0 0 0 0 0 0 0 0 0 0 0 0 0 0 0
0 0 0 0 0 0 0 0 0 0 0 0 0 0.279640046177862 0 0 0 0 0 0 0 0.0982990879515137 0 0 0 0.123679392175448 0 0 -0.294966907587647 0 0 0 0 0 0 0 0 0 0 0 0 0 0 0 0 0 -1.07917004195233 0 0 0
0.176577588017819 0 0 0 0 0 0 0 0 0 0.274722646293895 0 0 0 0 0 0 0 0 0 0 0 0 0.0780848980946477 0 0 0.0462806069198783 0 0 -0.294966907587647 0 0 0 0 0 0 0 0 0 -0.295851669508786 0 0 0 -1.60242772965482 0 0 0 -0.10969888416913 0 0
0 0.137615790247064 0 0.327605344395225 0 0 0 0 0 0 0 0 0 0.292508223266381 0 0 0 0 0 0 0 0 0 0 0 0 0 0 0 0 -0.294966907587647 0 0 0 0 0 0 0 0 0 0 0 0 0 0 -1.13756591840722 0 0 0 0
0 0 0 0 0 0.0785983534607842 0 0 0 0 0 0 0 0 0 0 0.0738339251804931 0 0 0 0 0 0 0 0 0 0 0.330594799567005 0 0 0 -0.294966907587647 0 0 0 0 0 0 0 0 0 0 0 0 -0.722126893197433 -0.600492095166864 0 0 -2.25303267859321 0
0 0 0 0 0.097982338954064 0 0 0 0 0 0.124094753901897 0.365192353677753 0.102966991567736 0 0 0 0 0 0 0 0 0 0 0 0 0 0 0 0 0 0 0 -0.294966907587647 0 0 0 0 0 0 -0.765697363088166 0 0 -0.515571856156898 0 0 0 0 0 0 -1.49883357805991
0 0.901031134491118 0.0686766469277613 0 0 0 0 0 0 0 0 0.0885829230063246 0 0 0 0 0 0 0.0672365937117977 0 0 0 0 0.0622404329534891 0.196619667288454 0 0 0 0 0 0 0 0 -0.294966907587647 0 0 0 0 0 -0.409116316789584 0 0 0 0 0 -0.255830850376878 0 0 0 0
0 0 0 0 0 0.367078192737742 0 0 0.109103579511879 0 0 0 0 0 0 0 0 0 0 0 0 0 0 0 0 0 0 0.501222189827963 0 0 0 0 0 0 -0.294966907587647 0 -0.745730961739732 0 0 0 0 0 -0.588472859603863 0 0 0 0 0 0 0
0 0 0 0 0.212705655829885 0 0 0 0 0.31707230416716 0 0 0.100750209448815 0 0 0 0 0 0 0 0 0 0 0 0 0 0 0 0 0 0 0 0 0 0 -0.294966907587647 0 0 0 0 0 0 0 0 0 0 0 0 0 0
0 0 0 0 0 0 0 0 0 0 0 0 0 0 0 0 0 0 0 0 0 0.398739487635389 0 0 0 0 0 0 0 0 0 0 0 0 0.131325324583817 0 -0.294966907587647 0 0 0 0 0 0 0 0 0 0 0 0 0
0.13837061041186 0 0 0 0 0 0.0688925598821487 0 0 0 0 0 0 0 0 0.218576006190632 0 0 0 0 0 0 0 0 0 0 0 0 0 0 0 0 0 0 0 0 0 -0.294966907587647 0 -2.67085333560624 0 0 0 -0.748797759088307 0 0 0 0 0 0
0 0 0.16727008088128 0 0 0 0 0 0 0 0 0 0.0508160182290717 0 0.226688431910236 0 0 0 0 0 0 0 0 0 0 0 0 0 0 0 0 0 0 0 0 0 0 0 -0.294966907587647 0 0 -2.33079692555003 0 0 0 0 0 -0.243173625616053 0 0
0 0 0 0 0 0 0 0 0 0 0 0 0 0 0 0 0 0 0 0 0.215837358605458 0 0 0 0 0 0 0 0 0.0580819288793247 0 0 0.152499903439352 0.0759662868887707 0 0 0 0.560558453177001 0 -0.294966907587647 0 0 0 -1.65909414435967 0 0 0 -0.516161140925842 0 -0.312005066769173
0 0 0 0 0 0 0 0 0 0 0 0 0 0 0.227916499468094 0 0 0 0 0 0 0 0 0 0 0 0 0 0 0 0 0 0 0 0 0 0 0 0 0 -0.294966907587647 0 0 0 0 0 0 0 0 0
0 0 0 0 0 0 0 0 0 0 0 0 0 0.739032109639241 0.0583334421004086 0 0 0.02632655814583 0 0 0.104687197872353 0 0 0 0 0 0 0 0 0 0 0 0 0 0 0 0 0 0.472554605159964 0 0 -0.294966907587647 -2.98956584816517 0 0 0 0 0 0 0
0.192894708556807 0 0 0 0 0.101771055124319 0 0 0 0 0 0 0 0 0.21584490951129 0 0 0 0 0 0 0.0553942099070494 0 0 0 0 0 0 0 0 0 0 0.11130510848878 0 0.105522947918068 0 0 0 0 0 0 0.659206127111098 -0.294966907587647 0 0 0 -0.364621181249579 0 0 0
0 1.44589074781122 0 0 0 0 0 0 0 0 0 0 0 0.12006050928056 0 0 0 0.496047103250937 0 0 0 0 0 0 0 0 0 0 0 0.31677754785626 0 0 0 0 0 0 0 0.152184936043844 0 0.368540742921563 0 0 0 -0.294966907587647 0 0 0 0 0 0
0 0 0 0 0 0 0 0 0 0 0 0 0.282454837260034 0.0675472418632514 0 0 0 0 0.0358222350924176 0 0 0 0 0 0 0 0 0 0 0 0 0.143315553621154 0 0 0 0 0 0 0 0 0 0 0 0 -0.294966907587647 0 0 0 0 0
0 0 0.180465356582777 0 0 0 0 0 0 0 0 0 0 0 0 0.217131548583846 0 0 0 0 0.694755988657302 0 0 0.0860278309212152 0 0.117272238075781 0 0 0 0 0.236490490509011 0.122502339989334 0 0.0501675157751623 0 0 0 0 0 0 0 0 0 0 0 -0.294966907587647 0 0 -0.524392986009251 0
0 0 0 0 0 0.137154508680584 0 0 0.21082566593549 0 0 0 0.268016812816835 0 0 0 0 0 0 0 0 0 0 0 0 0 0 0 0.220587079768303 0 0 0 0 0 0 0 0 0 0 0 0 0 0.0759779439093899 0 0 0 -0.294966907587647 0 0 0
0 0 0 0 0 0.406567216844222 0 0.0910276314201413 0 0 0 0 0 0 0 0 0 0 0 0 0 0 0 0 0 0 0.845006694888685 0 0 0.0216075988584797 0 0 0 0 0 0 0 0 0.0434914737997983 0.103603160906541 0 0 0 0 0 0 0 -0.294966907587647 0 0
0 0.131856463889815 0 0 0 0 0 0 0 0 0 0 0 0 0 0 0 0 0 0 0 0 0 0 0 0 0 0 0 0 0 0.485088837041017 0 0 0 0 0 0 0 0 0 0 0 0 0 0.109988596668113 0 0 -0.294966907587647 -0.174044039497099
0 0 0 0 0.407905990059226 0 0 0 0 0 0 0 0.3451719213019 0 0 0 0 0 0 0 0 0 0 0 0 0 0 0 0 0 0 0 0.303124701905464 0 0 0 0 0 0 0.0572471222126798 0 0 0 0 0 0 0 0 0.036770004540755 -0.294966907587647
