1.70512424006983
0.239644523097698
0.517889057686771
0.394166828715052
0.285174280470412
1.58232877227991
0.777558853931411
0.886580975141036
0.533299357924192
0.69010760280208
0.161744059034838
1.46968391710156
0.276870621781592
0.358671739886525
0.167926405553374
0.418611741419294
1.82460579683432
0.428616370552223
5.00434246090975
0.315815508873099
0.33843711570933
1.58641391031533
0.474410800818574
1.78161062726752
1.32509713718833
0.529060055693586
2.40165821444195
0.384984484947103
0.499171019450584
2.6664037798777
0.765785160080956
0.601368400239784
1.14734886498752
0.249091611402388
1.51140598339786
0.459856652632243
1.08649083930923
0.635155391198685
0.180300098889655
0.168470220698036
0.130848325135
0.320538239190579
1.63783341371347
1.30765346201364
1.22726994276612
1.7135119256478
0.570842196666587
1.01039986519917
2.20254242123341
2.35145706553512
