4.12339396223656
2.01778771758617
6.28225923431475
0.632757120186203
0.254445660509843
0.311676276222961
0.327258119372462
2.07078191524807
0.30935459990048
0.239369487653657
4.01393985539217
4.20586304267469
6.98716402772795
0.252336054388533
0.967026475624756
0.971508366801481
2.41318289803258
2.23653066449168
1.06762936294387
0.776359544047236
1.42720496650427
1.9821082523569
1.99323417501013
8.55619861565876
0.885867924113207
0.286024744980518
0.571516679311408
0.797226002135505
0.57105600329886
0.885451642859319
0.576503667203026
1.04363232794718
0.362033433821495
0.800355125512886
1.68614489286013
0.791648049523672
2.75312450695777
0.345528387047885
0.287785249321176
3.6778669699864
0.798619816993213
0.0941351809693283
0.258681346127178
1.45717222721495
3.73376676703448
2.28222351921612
0.648025215080426
1.63001568374877
0.763860618309051
0.353994586999522
