2.40762953946965
1.7216746831587
0.465520111173448
1.97846130929636
1.3986359626844
9.61663657024291
0.656900140027457
0.653514206965813
0.702533665741058
3.92938061100393
0.927448242462812
1.27760649910389
0.358572763694018
1.86669377107801
1.26308670334067
0.475592285401302
1.28043788902596
0.761456124218989
1.80574561896683
0.871407845437251
1.77156126099389
0.770083860550148
1.43348862074622
0.177781770593977
1.49707821516966
0.249339875682305
0.392724382496366
0.690964704026088
1.15353005879258
1.1184467735063
4.54598028818708
4.03848458082012
0.679278219803124
0.535732890884658
0.742600384431705
0.955773676661224
2.28748493136514
1.65710122814769
1.21090477024287
2.18544018538236
2.03224380734414
0.50141680944661
4.30768346062734
0.452694370334047
0.931936412950195
1.90300908788542
0.534474632659191
0.787471528354177
5.23790467182461
0.402076497968499
