0.173974252610888
5.57882797177491
0.586544570434022
1.27000936062479
0.825166902774687
0.53700981524637
5.16888829834022
0.362080916763631
0.581957718773882
0.217210212317074
1.23463362394263
0.893727135576874
1.74489899029436
0.864069730599262
7.65538327054853
0.200647333595399
0.513674284550906
0.385633195934491
0.252851897273993
0.530763293634223
1.46041061247212
2.78928206179421
0.713457974776582
6.18215363795922
1.85105149457262
0.262282913141244
0.609833236918122
1.13477628952485
4.5211220555009
1.48624695826977
0.208532445607385
3.01544908631699
1.0019756076783
2.05820273831459
1.34114572063626
0.529440401701037
0.354944396486363
1.5173648432278
0.681159249301219
3.89484726001642
0.843230961053797
1.01110117288893
0.306119293355423
3.33690178782052
1.66541578010729
0.415746149169534
0.576275272105471
2.01858176990922
0.340455416313169
1.03445872767823
