4.60038925093079
2.01621807390794
1.73281069740006
0.944791451336993
2.00875519663459
0.604055727448924
0.189011810364756
0.708184370495101
1.0525798416765
1.6669064229319
3.65409723622566
0.223478053284318
1.02449843637569
0.523043652946731
0.560681718185767
0.997053849296816
1.73738397845256
0.270145319727021
1.77130224487181
3.11973342390644
2.07078539779208
2.51688749815787
2.03128413740936
2.39844116971866
0.383867995022156
1.08007425875278
0.530091784009759
0.103441369374501
0.211693843003533
0.37664240145978
0.419044957374152
1.29668365436902
0.457800697918062
0.168424983076037
0.306364115076076
2.06597177326191
0.88037660559924
6.54728430457025
0.348628536273121
2.56027720047693
1.81349250190319
1.74045885971716
1.23925635586522
0.36790456810199
1.4567642440507
0.414536897909941
1.75342987039708
2.52214708973953
0.864899093215239
3.98034074359297
