-0.236847560227016 0 0 0 0 0 0 0 0 0 0 0 0 0 0 0 0 0 0 0 -0.65230650209935 0 0 -0.234372095874439 0 0 0 0 0 0 0 0 0 0 0 0 0 0 0 0 0 -6.01204967987469 0 0 0 0 0 0 0 0
0 -0.236847560227016 0 0 -2.13310783662911 0 0 0 0 -1.2034031564917 0 0 0 0 0 0 0 0 0 0 -0.489556762733469 0 0 0 0 0 0 0 0 0 -1.14813260416164 0 0 0 0 0 0 0 0 0 0 0 0 0 0 0 0 0 0 0
0 0 -0.236847560227016 0 0 0 0 -1.06393079063657 0 0 0 0 0 0 0 -0.74848947681675 0 0 0 -0.316838878610533 0 0 0 0 0 0 0 0 0 0 0 0 -1.62601467583401 0 0 0 0 -0.236906423203745 0 0 0 0 -1.03207774751055 -2.95856003534231 0 -0.177452037602039 0 0 0 0
0 0 0 -0.236847560227016 0 0 0 0 0 0 0 0 0 -0.479966709506568 0 0 0 0 0 0 0 0 0 0 0 0 0 0 0 0 0 0 0 0 -1.11389570085314 0 0 0 0 0 0 0 0 0 0 0 0 0 0 0
0 0.416716385453387 0 0 -0.236847560227016 0 0 0 0 0 0 0 0 -0.957637296511494 0 0 0 0 0 0 0 0 -1.52795834709955 0 -1.57541658198873 0 0 -1.97726052480506 0 -0.50421069575549 0 0 0 0 0 0 0 0 0 0 0 0 0 0 0 -3.79824509632685 0 -1.42159330042185 0 0
0 0 0 0 0 -0.236847560227016 0 0 0 0 0 0 0 0 -2.30128438132627 0 0 0 0 0 0 0 0 0 0 0 0 0 0 0 0 0 0 0 0 0 0 0 0 0 0 0 0 0 0 0 0 0 0 0
0 0 0 0 0 0 -0.236847560227016 0 0 0 0 0 -0.905373060469947 0 0 -2.92474308382745 0 0 0 0 0 0 0 0 0 0 0 0 0 0 0 0 0 0 -3.15464920843621 0 0 0 0 -1.35343264442115 0 0 0 0 0 0 0 0 0 0
0 0 0.198074877408798 0 0 0 0 -0.236847560227016 0 0 0 0 -0.221625843386807 -2.9672212211204 0 0 0 0 0 0 0 0 0 0 0 0 0 0 0 0 0 -0.954475296442557 0 0 0 0 0 0 0 -2.00598674961098 0 0 0 0 0 0 0 0 0 0
0 0 0 0 0 0 0 0 -0.236847560227016 0 0 0 0 0 0 0 0 0 0 0 0 0 0 0 0 0 -1.73426874895024 0 -1.50141633398136 0 0 0 0 0 0 -9.22729887767942 -0.615312822540867 0 0 0 0 -0.93979746234696 0 0 0 0 0 0 0 0
0 0.243531726280184 0 0 0 0 0 0 0 -0.236847560227016 0 0 0 0 0 0 -1.0891342706133 -1.641701524479 0 0 -0.402229552017622 0 0 0 0 0 0 0 0 0 0 0 0 0 0 0 -5.72603327018692 0 -2.62671546968641 0 0 0 0 0 0 0 0 0 0 0
0 0 0 0 0 0 0 0 0 0 -0.236847560227016 0 -2.17167564425295 -0.775868411324603 0 0 0 0 0 0 0 0 0 0 -0.814803523881511 0 0 0 0 0 0 -0.35274235056214 0 0 0 0 0 0 0 0 0 0 0 0 0 0 0 0 0 0
0 0 0 0 0 0 0 0 0 0 0 -0.236847560227016 0 0 -3.4832561569869 0 0 0 0 0 0 0 0 0 0 0 0 0 0 0 0 0 0 0 0 0 0 0 0 0 0 0 0 0 0 0 0 -0.708059049273127 0 -0.879761151287218
0 0 0 0 0 0 0.180726389485511 0.0445474668842524 0 0 0.486405931650687 0 -0.236847560227016 0 0 0 0 0 -0.717469332376307 -0.273937176084053 0 0 0 -0.591570295336134 0 0 0 0 0 0 0 0 0 0 0 -0.124561111446086 0 0 0 0 0 0 0 0 0 0 0 0 0 0
0 0 0 0.0997652770500513 0.188941090880935 0 0 0.603965789584234 0 0 0.161889491223963 0 0 -0.236847560227016 0 0 0 0 -0.819184122058773 -1.46769953548496 0 0 0 -0.095744830713591 0 0 0 -0.239119590973483 0 0 0 0 0 0 0 -1.62093172411806 0 0 0 0 0 -0.200364576767881 0 0 0 0 0 0 0 0
0 0 0 0 0 0.45567113456663 0 0 0 0 0 0.689969352268173 0 0 -0.236847560227016 0 0 0 0 0 0 0 0 -3.15958388219822 0 0 0 0 0 0 0 0 0 -0.27852178231629 0 0 -0.531446273146732 0 0 0 0 0 0 0 0 0 0 0 0 0
0 0 0.140708554158875 0 0 0 0.54460295316127 0 0 0 0 0 0 0 0 -0.236847560227016 0 0 0 0 0 0 0 0 0 0 -1.18552071011734 0 0 0 0 0 0 0 0 0 0 0 0 0 0 0 0 0 0 0 0 0 0 0
0 0 0 0 0 0 0 0 0 0.223333557083228 0 0 0 0 0 0 -0.236847560227016 0 0 0 0 0 0 0 -0.442817787273544 0 0 -1.99870149179977 0 0 -0.198123767670453 0 0 0 0 0 0 0 0 0 0 0 0 0 0 0 0 0 0 0
0 0 0 0 0 0 0 0 0 0.314175065449067 0 0 0 0 0 0 0 -0.236847560227016 0 0 0 0 0 0 0 0 -0.794062815334283 0 0 0 0 0 0 0 0 0 0 0 0 0 0 0 0 0 0 0 0 0 0 0
0 0 0 0 0 0 0 0 0 0 0 0 0.151339025759029 0.163066741327653 0 0 0 0 -0.236847560227016 -0.312921500876455 0 0 0 0 -1.05081239565273 0 0 0 0 0 0 0 0 0 0 0 0 0 0 0 -4.2196644865561 0 0 0 0 0 0 0 -1.8340287144775 0
0 0 0.0647467332973378 0 0 0 0 0 0 0 0 0 0.0559060890545656 0.291447669428121 0 0 0 0 0.0615317526589382 -0.236847560227016 0 0 0 0 0 0 0 -0.0860633420825378 0 0 0 0 0 0 0 0 -0.518795184547562 0 0 0 0 0 0 -0.846965778461188 0 0 0 0 0 0
0.139637964640472 0.0901860271461776 0 0 0 0 0 0 0 0.0785947814455346 0 0 0 0 0 0 0 0 0 0 -0.236847560227016 0 0 0 0 0 0 0 0 0 -5.63392798889 0 -1.05830178520844 0 0 -0.940881313685844 0 0 0 0 0 0 0 0 0 0 0 0 0 0
0 0 0 0 0 0 0 0 0 0 0 0 0 0 0 0 0 0 0 0 0 -0.236847560227016 0 0 0 0 -0.533300687664924 0 0 -0.443592118863318 0 0 0 0 0 0 0 0 0 0 0 0 -1.28465330320636 0 0 0 0 0 0 0
0 0 0 0 0.303620384437065 0 0 0 0 0 0 0 0 0 0 0 0 0 0 0 0 0 -0.236847560227016 0 0 0 0 0 0 0 0 -1.73141407657558 0 0 -1.76952833488832 0 0 0 0 0 0 0 0 0 0 0 0 0 0 0
0.0472716669253087 0 0 0 0 0 0 0 0 0 0 0 0.122228858566453 0.0187253249822801 0.643079489559219 0 0 0 0 0 0 0 0 -0.236847560227016 0 0 0 0 0 0 0 0 0 0 0 -0.260680148141579 0 0 0 0 -0.896552693969199 0 -1.56259649583365 0 -0.483166623490323 0 -0.298314982189292 -1.11324573853665 -0.625349282378396 0
0 0 0 0 0.292378973580116 0 0 0 0 0 0.162657625871193 0 0 0 0 0 0.0941818278368576 0 0.189995449006986 0 0 0 0 0 -0.236847560227016 0 0 0 0 0 -0.6510476873266 0 0 0 -0.423136551195529 0 0 0 0 0 0 -0.170133503931886 0 0 0 -0.167377034696259 0 0 0 0
0 0 0 0 0 0 0 0 0 0 0 0 0 0 0 0 0 0 0 0 0 0 0 0 0 -0.236847560227016 0 -0.907295894463778 0 0 0 -0.443185876782902 0 0 0 0 0 0 0 0 0 0 0 -1.12789033087126 0 -6.9681680903519 0 0 0 0
0 0 0 0 0 0 0 0 0.347044660431017 0 0 0 0 0 0 0.236637976237412 0 0.156312186880902 0 0 0 0.10594016503486 0 0 0 0 -0.236847560227016 0 0 0 0 0 0 0 0 0 0 0 0 0 0 0 -0.481703394170927 -0.563605049370425 0 0 0 0 0 0
0 0 0 0 0.376121739208009 0 0 0 0 0 0 0 0 0.0486193202469054 0 0 0.38349051188167 0 0 0.0162723368070578 0 0 0 0 0 0.163316010172661 0 -0.236847560227016 0 0 0 0 0 0 0 0 0 0 0 0 0 0 0 0 0 0 0 0 -0.782429576651999 0
0 0 0 0 0 0 0 0 0.303290394470908 0 0 0 0 0 0 0 0 0 0 0 0 0 0 0 0 0 0 0 -0.236847560227016 0 0 0 0 0 0 0 0 0 0 0 0 0 0 0 0 -0.877272377411161 0 -0.331841412818764 0 0
0 0 0 0 0.101302596404663 0 0 0 0 0 0 0 0 0 0 0 0 0 0 0 0 0.0866191649971272 0 0 0 0 0 0 0 -0.236847560227016 0 0 0 0 0 0 -2.67729003051749 -0.350414473199101 0 0 0 0 0 0 0 0 0 0 0 0
0 0.225472146902551 0 0 0 0 0 0 0 0 0 0 0 0 0 0 0.0404557471412835 0 0 0 1.01213411336288 0 0 0 0.122532809363537 0 0 0 0 0 -0.236847560227016 0 0 0 0 0 0 0 0 0 -1.4562098123962 0 -8.80868466422256 0 0 0 0 0 0 0
0 0 0 0 0 0 0 0.190886526178999 0 0 0.0697466577978447 0 0 0 0 0 0 0 0 0 0 0 0.363415545869673 0 0 0.0852840158542991 0 0 0 0 0 -0.236847560227016 0 0 0 0 0 0 0 0 -1.26443786246268 0 0 0 0 0 0 0 -2.35185762101403 0
0 0 0.307921076993702 0 0 0 0 0 0 0 0 0 0 0 0 0 0 0 0 0 0.195455048757704 0 0 0 0 0 0 0 0 0 0 0 -0.236847560227016 0 0 -2.10897368199539 0 0 0 0 0 0 0 0 0 0 0 0 0 0
0 0 0 0 0 0 0 0 0 0 0 0 0 0 0.0557764746226974 0 0 0 0 0 0 0 0 0 0 0 0 0 0 0 0 0 0 -0.236847560227016 0 -0.297365800571605 0 0 0 0 0 0 0 0 0 0 0 -0.615195677147089 0 0
0 0 0 0.211472984794074 0 0 0.573235264735982 0 0 0 0 0 0 0 0 0 0 0 0 0 0 0 0.36210393608766 0 0.082737408861719 0 0 0 0 0 0 0 0 0 -0.236847560227016 0 0 0 0 0 0 0 0 0 -1.144905131369 0 -3.73046657917732 0 0 0
0 0 0 0 0 0 0 0 1.76900389730359 0 0 0 0.0255932692435967 0.32667484521587 0 0 0 0 0 0 0.182183779546385 0 0 0.0559014581018033 0 0 0 0 0 0 0 0 0.456223866234328 0.0644231538089361 0 -0.236847560227016 0 0 0 0 0 0 0 0 0 0 -0.768130744720051 0 0 0
0 0 0 0 0 0 0 0 0.129992186972934 1.10943213613394 0 0 0 0 0.0972345659252928 0 0 0 0 0.095151048380995 0 0 0 0 0 0 0 0 0 0.530671146428631 0 0 0 0 0 0 -0.236847560227016 0 0 0 -7.09621340034714 0 0 -9.06315083102561 0 0 0 0 0 0
0 0 0.0475369515913478 0 0 0 0 0 0 0 0 0 0 0 0 0 0 0 0 0 0 0 0 0 0 0 0 0 0 0.0664313656819523 0 0 0 0 0 0 0 -0.236847560227016 0 0 0 0 0 0 0 0 0 0 0 0
0 0 0 0 0 0 0 0 0 0.507588811031612 0 0 0 0 0 0 0 0 0 0 0 0 0 0 0 0 0 0 0 0 0 0 0 0 0 0 0 0 -0.236847560227016 0 0 0 0 0 0 0 0 0 0 0
0 0 0 0 0 0 0.242603105851487 0.387887128424575 0 0 0 0 0 0 0 0 0 0 0 0 0 0 0 0 0 0 0 0 0 0 0 0 0 0 0 0 0 0 0 -0.236847560227016 -1.69909310066853 0 0 -0.39499151477539 0 0 0 0 0 0
0 0 0 0 0 0 0 0 0 0 0 0 0 0 0 0 0 0 0.804853368590853 0 0 0 0 0.176503640796912 0 0 0 0 0 0 0.275958878963614 0.267647755766865 0 0 0 0 1.34935911294484 0 0 0.363646814397941 -0.236847560227016 0 0 0 0 0 0 0 0 0
1.31045151106963 0 0 0 0 0 0 0 0.191374785902159 0 0 0 0 0.038994850854531 0 0 0 0 0 0 0 0 0 0 0.0328323143923741 0 0 0 0 0 0 0 0 0 0 0 0 0 0 0 0 -0.236847560227016 0 0 0 0 0 0 0 0
0 0 0.224293535113289 0 0 0 0 0 0 0 0 0 0 0 0 0 0 0 0 0 0 0.264510303165164 0 0.31323338093131 0 0 0.105406347596035 0 0 0 1.73982571673016 0 0 0 0 0 0 0 0 0 0 0 -0.236847560227016 -0.437618018347622 0 0 0 0 0 0
0 0 0.566137428727207 0 0 0 0 0 0 0 0 0 0 0 0 0 0 0 0 0.162233806381487 0 0 0 0 0 0.236889966985292 0.122758015666945 0 0 0 0 0 0 0 0 0 1.89735322050009 0 0 0.0855568327666397 0 0 0.0814057879121839 -0.236847560227016 0 0 0 0 0 0
0 0 0 0 0 0 0 0 0 0 0 0 0 0 0 0 0 0 0 0 0 0 0 0.0980575293088481 0 0 0 0 0 0 0 0 0 0 0.23159229896591 0 0 0 0 0 0 0 0 0 -0.236847560227016 0 0 0 0 0
0 0 0.0350934794698266 0 0.754368507885777 0 0 0 0 0 0 0 0 0 0 0 0 0 0 0 0 0 0 0 0.0331072955583726 1.32067588351153 0 0 0.172372240376809 0 0 0 0 0 0 0 0 0 0 0 0 0 0 0 0 -0.236847560227016 0 -1.76704438121448 0 0
0 0 0 0 0 0 0 0 0 0 0 0 0 0 0 0 0 0 0 0 0 0 0 0.0577898096498037 0 0 0 0 0 0 0 0 0 0 0.681455144964388 0.152745603710591 0 0 0 0 0 0 0 0 0 0 -0.236847560227016 0 0 -0.276797473790963
0 0 0 0 0.283728866304285 0 0 0 0 0 0 0.135032849590811 0 0 0 0 0 0 0 0 0 0 0 0.205066765561238 0 0 0 0 0.0685250465404843 0 0 0 0 0.125213668180122 0 0 0 0 0 0 0 0 0 0 0 0.359087458740497 0 -0.236847560227016 0 0
0 0 0 0 0 0 0 0 0 0 0 0 0 0 0 0 0 0 0.38646456979541 0 0 0 0 0.117652622225955 0 0 0 0.156791191657378 0 0 0 0.493264042569393 0 0 0 0 0 0 0 0 0 0 0 0 0 0 0 0 -0.236847560227016 0
0 0 0 0 0 0 0 0 0 0 0 0.173269881825538 0 0 0 0 0 0 0 0 0 0 0 0 0 0 0 0 0 0 0 0 0 0 0 0 0 0 0 0 0 0 0 0 0 0 0.0561158434506881 0 0 -0.236847560227016
