-0.265874442635105 0 0 0 0 0 -2.12253700607053 0 0 0 -0.591472834558994 0 -2.33532506542617 -1.01320660903096 -5.23811591834312 0 0 0 0 0 -1.74203088743147 -2.71803559445577 0 0 -1.53390763183064 0 0 0 0 0 0 -2.86442689893793 0 0 0 0 0 0 0 0 0 0 -0.310968132183526 0 0 0 0 0 0 0
0 -0.265874442635105 0 0 0 0 0 0 0 0 0 0 0 -1.00549104013232 0 0 0 0 -0.77088042968691 0 0 0 0 0 0 0 0 -2.13123174869314 -0.841420027259465 0 0 0 0 0 0 0 0 0 0 0 0 0 0 0 0 0 0 0 0 0
0 0 -0.265874442635105 0 -1.40961501722938 -0.390140187525262 0 0 0 -0.69453620717832 -0.843286741968813 0 0 0 0 0 0 -0.206552811338921 0 0 0 -3.54301560321137 0 0 0 0 0 0 0 0 0 0 0 0 0 -2.14756709882721 0 0 0 0 0 0 0 0 0 -1.23057439615767 0 0 0 0
0 0 0 -0.265874442635105 0 0 0 0 0 -0.223453379557821 0 -2.44963010375402 0 0 -0.417927664243949 0 0 0 0 0 0 0 -0.997907432630469 0 0 0 0 0 0 0 0 0 0 0 0 0 0 0 0 0 0 0 0 0 0 0 0 0 0 0
0 0 0.272939004350935 0 -0.265874442635105 0 0 0 0 0 0 0 0 0 0 0 0 0 0 0 0 0 0 0 0 0 0 0 0 0 -0.714524377466631 0 0 -0.45607099678302 0 0 0 0 0 0 0 0 0 0 -0.889726300625997 -1.20867642367434 0 0 -2.44097393580871 -0.765828455251549
0 0 0.0862098955128565 0 0 -0.265874442635105 0 0 0 0 -2.16752622669226 0 0 0 0 0 0 0 -0.634022679660264 0 0 0 0 0 0 0 -3.9352442994956 -1.54805034643485 0 0 0 0 0 0 -0.339164044253209 0 0 0 0 0 0 0 0 0 0 0 0 0 -0.504096783448979 0
0.415483926095379 0 0 0 0 0 -0.265874442635105 0 -3.27002375626356 0 0 0 0 0 0 0 0 0 0 0 0 0 0 0 0 0 0 0 0 0 0 0 0 0 0 0 0 0 -1.79666538883991 0 0 0 0 0 0 0 0 0 0 0
0 0 0 0 0 0 0 -0.265874442635105 -2.7965939093352 0 0 0 -2.51784731623471 0 0 0 0 0 0 0 0 0 0 0 0 0 0 0 -0.734956718075747 0 0 0 0 0 0 0 0 0 0 0 0 0 0 0 0 -1.5908199121478 0 0 0 0
0 0 0 0 0 0 0.684618825881605 0.512170925919348 -0.265874442635105 0 0 0 0 0 0 0 0 0 0 0 0 0 0 0 0 -0.204231714929646 0 0 0 0 0 0 0 0 0 0 0 0 0 0 -1.67107812447174 0 0 -4.39571748886041 0 0 0 0 0 0
0 0 0.149907225344162 0.0433873650518807 0 0 0 0 0 -0.265874442635105 0 0 -2.28086228331175 -0.925513757445395 0 0 0 0 0 0 0 0 0 0 0 0 0 0 0 -2.57104458607028 -0.751039858027213 0 0 0 0 0 0 0 0 0 0 0 0 -4.34033469440614 0 0 0 0 0 0
0.114922225748564 0 0.17228852639064 0 0 0.460309138297279 0 0 0 0 -0.265874442635105 -0.778918199025067 0 0 0 0 0 0 0 0 0 0 0 0 0 0 0 0 0 -0.348299601385288 0 -0.33545074421453 0 0 -1.39715709439083 0 0 0 0 0 0 0 0 0 0 -6.34460828774735 0 -1.18911365143313 0 0
0 0 0 0.497639969601205 0 0 0 0 0 0 0.151671887793891 -0.265874442635105 0 0 0 -2.16302139250189 0 0 0 0 0 0 0 0 0 0 0 0 0 0 0 -1.72088901631821 0 0 0 0 0 -7.30266034999254 0 0 0 -2.3558173727719 0 0 0 0 0 0 -2.86724972074038 0
0.465098387807554 0 0 0 0 0 0 0.571736063465043 0 0.463512888735743 0 0 -0.265874442635105 0 0 0 0 0 -0.425131651248177 0 0 0 0 0 0 0 -0.501789059888715 0 0 0 0 0 0 0 0 0 0 0 -1.5488870211583 0 0 0 0 0 0 0 0 0 0 0
0.189967083700581 0.201651392864975 0 0 0 0 0 0 0 0.181893198791472 0 0 0 -0.265874442635105 0 0 0 -0.673566874237621 0 0 0 0 0 0 0 0 0 0 -7.34910491013038 0 0 -0.185098613972603 0 0 0 0 0 0 0 0 0 0 0 0 0 0 -0.965527426758131 0 0 0
1.04962548665783 0 0 0.0715258292920716 0 0 0 0 0 0 0 0 0 0 -0.265874442635105 0 -1.40826760008817 0 0 0 0 0 0 0 0 0 0 0 0 0 0 0 0 0 0 0 0 0 0 0 0 -1.76108268260087 0 0 -2.69829641451261 0 0 -0.322965804865144 0 0
0 0 0 0 0 0 0 0 0 0 0 0.449267361450609 0 0 0 -0.265874442635105 -1.48881316007587 0 -0.689562733934595 0 0 0 0 0 0 0 0 0 0 0 -1.99194954370529 0 0 0 0 0 0 0 0 0 0 0 0 -1.49630313256119 0 0 0 0 0 0
0 0 0 0 0 0 0 0 0 0 0 0 0 0 0.283159494066738 0.321288147997266 -0.265874442635105 0 0 0 0 0 0 0 0 0 0 0 0 -0.273474818189668 0 0 0 0 0 0 0 0 0 0 0 0 -0.249711739400483 0 0 0 0 -6.2165315080684 0 0
0 0 0.0432538316101379 0 0 0 0 0 0 0 0 0 0 0.130059561422907 0 0 0 -0.265874442635105 0 0 0 0 0 0 0 0 0 -1.48697682259119 0 0 0 0 -2.21962615793299 0 0 0 -0.0729091656228167 -1.81974181372229 0 0 0 0 -0.357142783220909 0 0 0 0 0 0 0
0 0.160328014098184 0 0 0 0.120123932239913 0 0 0 0 0 0 0.0900516888085613 0 0 0.134411185559052 0 0 -0.265874442635105 0 0 0 0 0 0 0 0 0 0 0 0 0 0 0 0 -1.29549802685957 0 0 0 0 0 0 0 0 0 0 0 0 0 0
0 0 0 0 0 0 0 0 0 0 0 0 0 0 0 0 0 0 0 -0.265874442635105 0 0 0 0 0 -0.786285800239401 0 0 0 0 0 -0.931200412019552 -1.67085095950573 0 -0.400366801643454 -5.23031165911796 0 -3.27043622190337 0 0 0 0 0 0 0 0 0 0 0 0
0.356861672669653 0 0 0 0 0 0 0 0 0 0 0 0 0 0 0 0 0 0 0 -0.265874442635105 0 0 0 0 -4.70601284146359 0 0 0 -0.315476142387275 0 0 0 0 0 0 0 0 0 0 0 -0.367769418638559 0 0 0 0 0 0 0 0
0.588132107140553 0 0.685725124606599 0 0 0 0 0 0 0 0 0 0 0 0 0 0 0 0 0 0 -0.265874442635105 0 0 0 0 0 0 0 0 0 0 0 0 0 0 0 0 0 0 0 0 0 0 0 0 0 0 0 0
0 0 0 0.216216581098554 0 0 0 0 0 0 0 0 0 0 0 0 0 0 0 0 0 0 -0.265874442635105 0 0 0 0 0 0 0 0 -1.68387508185421 0 0 -0.255626085529219 0 0 0 0 0 0 0 0 0 0 0 0 -2.58980071368014 0 0
0 0 0 0 0 0 0 0 0 0 0 0 0 0 0 0 0 0 0 0 0 0 0 -0.265874442635105 0 0 -1.03113488079645 0 0 0 0 0 0 0 0 0 0 0 0 0 0 0 0 0 0 0 0 0 0 0
0.303689011549986 0 0 0 0 0 0 0 0 0 0 0 0 0 0 0 0 0 0 0 0 0 0 0 -0.265874442635105 0 0 -1.55830030880308 0 -0.33115561155122 0 0 0 0 0 0 0 0 0 0 0 0 0 0 0 0 0 0 0 -4.50785247256931
0 0 0 0 0 0 0 0 0.040575483406783 0 0 0 0 0 0 0 0 0 0 0.157121041500037 0.931127342216162 0 0 0 0 -0.265874442635105 0 0 -1.40006059207189 0 0 0 0 0 0 0 0 0 0 0 0 0 -0.53435376139099 0 0 0 0 0 0 0
0 0 0 0 0 0.752735870874056 0 0 0 0 0 0 0.0954234379021617 0 0 0 0 0 0 0 0 0 0 0.22345857323569 0 0 -0.265874442635105 0 0 0 0 0 0 -0.377450404022349 -1.2071093503498 0 0 0 0 -1.51157410466649 0 0 0 0 0 0 0 0 0 0
0 0.448303365785219 0 0 0 0.314912005738037 0 0 0 0 0 0 0 0 0 0 0 0.302895326392886 0 0 0 0 0 0 0.327596501178246 0 0 -0.265874442635105 0 -0.838990953388041 0 0 0 0 0 0 0 0 0 0 0 0 -0.761421672039443 0 0 0 0 0 0 0
0 0.174540828725544 0 0 0 0 0 0.149261774530721 0 0 0 0 0 1.46041926333425 0 0 0 0 0 0 0 0 0 0 0 0.280372965190087 0 0 -0.265874442635105 0 0 0 0 0 0 0 0 0 0 0 -2.09937447698248 0 0 0 0 0 0 -0.927765752212467 0 0
0 0 0 0 0 0 0 0 0 0.481552397199543 0.0754101957190736 0 0 0 0 0 0.0569555561475737 0 0 0 0.065405235759049 0 0 0 0.070362901345066 0 0 0.164477365020259 0 -0.265874442635105 -1.25805949172581 0 0 0 0 0 0 0 0 0 0 0 0 0 0 0 0 0 0 0
0 0 0 0 0.141109430393727 0 0 0 0 0.141266737845999 0 0 0 0 0 0.387760474257951 0 0 0 0 0 0 0 0 0 0 0 0 0 0.230404965923274 -0.265874442635105 -0.575808093770498 0 0 0 0 0 0 0 0 0 0 0 0 -1.16327211751338 0 0 0 0 0
0.59214426537587 0 0 0 0 0 0 0 0 0 0.0640318609734382 0.342468630967649 0 0.0427017438834467 0 0 0 0 0 0.181153865570536 0 0 0.308302851841409 0 0 0 0 0 0 0 0.116486999549345 -0.265874442635105 0 0 0 0 0 0 0 0 0 0 0 0 0 0 0 0 0 0
0 0 0 0 0 0 0 0 0 0 0 0 0 0 0 0 0 0.417928968741542 0 0.33943145654069 0 0 0 0 0 0 0 0 0 0 0 0 -0.265874442635105 0 0 0 0 0 0 0 0 0 0 0 0 0 0 0 0 0
0 0 0 0 0.0841413539043457 0 0 0 0 0 0 0 0 0 0 0 0 0 0 0 0 0 0 0 0 0 0.0676026342867398 0 0 0 0 0 0 -0.265874442635105 0 0 0 0 0 0 0 0 0 0 0 0 0 0 0 0
0 0 0 0 0 0.0653114861764614 0 0 0 0 0.278781622434668 0 0 0 0 0 0 0 0 0.0804780277345464 0 0 0.0510885234727931 0 0 0 0.240725430044432 0 0 0 0 0 0 0 -0.265874442635105 0 -0.392066821646933 -2.58060979015347 -1.75391212262955 0 0 0 0 0 0 0 0 0 0 0
0 0 0.464515874870546 0 0 0 0 0 0 0 0 0 0 0 0 0 0 0 0.251035162963369 1.09743503821954 0 0 0 0 0 0 0 0 0 0 0 0 0 0 0 -0.265874442635105 -0.908637722118625 0 0 0 0 0 0 0 0 0 0 0 0 0
0 0 0 0 0 0 0 0 0 0 0 0 0 0 0 0 0 0.0148309418241811 0 0 0 0 0 0 0 0 0 0 0 0 0 0 0 0 0.0798696429860654 0.174378761814956 -0.265874442635105 -0.422939877130221 0 0 0 0 0 0 0 0 0 0 0 0
0 0 0 0 0 0 0 0 0 0 0 1.36280551819807 0 0 0 0 0 0.379107025928191 0 0.659534982915032 0 0 0 0 0 0 0 0 0 0 0 0 0 0 0.522087661829379 0 0.0842896023203317 -0.265874442635105 0 0 0 0 0 0 0 0 0 0 0 0
0 0 0 0 0 0 0.347686110879788 0 0 0 0 0 0.309663184633539 0 0 0 0 0 0 0 0 0 0 0 0 0 0 0 0 0 0 0 0 0 0.328730210716353 0 0 0 -0.265874442635105 0 0 0 0 0 0 0 0 0 0 0
0 0 0 0 0 0 0 0 0 0 0 0 0 0 0 0 0 0 0 0 0 0 0 0 0 0 0.330627575173437 0 0 0 0 0 0 0 0 0 0 0 0 -0.265874442635105 0 0 0 0 0 0 0 0 0 -2.42017186016914
0 0 0 0 0 0 0 0 0.354462120282018 0 0 0 0 0 0 0 0 0 0 0 0 0 0 0 0 0 0 0 0.409092244079661 0 0 0 0 0 0 0 0 0 0 0 -0.265874442635105 0 0 0 0 0 0 0 0 0
0 0 0 0 0 0 0 0 0 0 0 0.460466954331133 0 0 0.334455222111525 0 0 0 0 0 0.0668599801719104 0 0 0 0 0 0 0 0 0 0 0 0 0 0 0 0 0 0 0 0 -0.265874442635105 -2.03565012820468 0 0 0 0 0 0 0
0.0626484760212938 0 0 0 0 0 0 0 0 0 0 0 0 0 0 0 0.0434017612160849 0.0698103834517123 0 0 0 0 0 0 0 0.113771114408599 0 0.164925195642291 0 0 0 0 0 0 0 0 0 0 0 0 0 0.411176856624009 -0.265874442635105 0 0 0 0 0 0 0
0 0 0 0 0 0 0 0 0.909009536525781 0.889972275447763 0 0 0 0 0 0.288608259909391 0 0 0 0 0 0 0 0 0 0 0 0 0 0 0 0 0 0 0 0 0 0 0 0 0 0 0 -0.265874442635105 0 0 0 0 0 0
0 0 0 0 0.178099952004637 0 0 0 0 0 0 0 0 0 0.540632239582291 0 0 0 0 0 0 0 0 0 0 0 0 0 0 0 0.229254433819301 0 0 0 0 0 0 0 0 0 0 0 0 0 -0.265874442635105 0 -8.07874768901131 0 0 0
0 0 0.244101295366322 0 0.239425569933214 0 0 0.314326742576743 0 0 1.30246399259862 0 0 0 0 0 0 0 0 0 0 0 0 0 0 0 0 0 0 0 0 0 0 0 0 0 0 0 0 0 0 0 0 0 0 -0.265874442635105 0 0 -0.456895918942557 0
0 0 0 0 0 0 0 0 0 0 0 0 0 0.179543820621623 0 0 0 0 0 0 0 0 0 0 0 0 0 0 0 0 0 0 0 0 0 0 0 0 0 0 0 0 0 0 1.63948248127999 0 -0.265874442635105 0 0 0
0 0 0 0 0 0 0 0 0 0 0.223972292400496 0 0 0 0.0624440845054075 0 1.24243993163511 0 0 0 0 0 0.54278957858446 0 0 0 0 0 0.171681554664922 0 0 0 0 0 0 0 0 0 0 0 0 0 0 0 0 0 0 -0.265874442635105 0 0
0 0 0 0 0.504571115696378 0.100266596695125 0 0 0 0 0 0.559002292544168 0 0 0 0 0 0 0 0 0 0 0 0 0 0 0 0 0 0 0 0 0 0 0 0 0 0 0 0 0 0 0 0 0 0.0930788020810577 0 0 -0.265874442635105 0
0 0 0 0 0.150592580945156 0 0 0 0 0 0 0 0 0 0 0 0 0 0 0 0 0 0 0 1.02784721676115 0 0 0 0 0 0 0 0 0 0 0 0 0 0 0.446518483689009 0 0 0 0 0 0 0 0 0 -0.265874442635105
