0.86722908387715
0.228392824602424
1.89960133769076
1.87565961686453
0.538893089775351
1.03999877988579
0.576913008520766
0.940394354240848
0.184493325042707
1.18897889196579
1.34603934520595
0.757654193201108
0.77559621454442
1.42807839732107
0.496880163684826
4.02754188313604
1.60493603712835
1.61062947320287
1.38133607425479
6.05494274717391
0.946443825918242
1.231332413213
0.383963515119624
0.427162746294408
0.514038555131952
3.14552694689819
0.821136187765448
0.759716487129195
0.12294054997475
0.528687014257836
1.77747727545478
1.43437683911101
3.56676022624535
2.34498940522191
0.596658013836615
0.522975855491552
0.378712862961878
1.20897434786231
1.12304080932468
1.61592286057571
0.191588618281886
1.53448223335632
0.389088927776922
0.614510683156236
2.50492933127688
1.34504661758917
0.0856346190367564
1.57094490208325
2.42191494835008
0.159253314805894
