5.00587683306296
4.12377795079558
3.33288309504778
4.89533730258403
0.866761968497197
4.88772711117701
0.458528368450055
0.417866059037635
1.02646322941878
0.378298817686373
2.12258537301463
0.198312636388428
0.531783523900608
0.693022638928041
0.757035883579112
0.947918056465524
2.71664065197267
0.316331044173556
0.518945490135089
7.43569975239512
0.456734099036206
0.60217007642458
2.04130089220343
1.05655123193906
0.307423649490589
4.66522277916178
0.32008137648817
0.272097274866258
0.231830429404716
0.240530177364451
1.53126594279099
1.36271258052225
0.174820041065867
0.811148680614097
2.07722106475706
3.23685450280678
3.35190965128184
7.37735332138642
2.25586330575584
0.33040554938794
5.04290534240195
2.55066480235506
0.685780329972189
2.07544365795605
2.9614498616037
0.262771552244775
1.96863122720911
0.945125432104154
1.80488742581786
0.938944286813656
