-0.366330982040007 0 0 0 0 0 -0.581211895925395 0 0 0 -0.180771880274321 0 -1.05141874067832 -1.61272511708159 -4.47752148321279 0 0 0 0 0 -0.456012864036418 -1.54776420060734 0 0 -0.803286176572709 0 0 0 0 0 0 -0.754183495387429 0 0 0 0 0 0 0 0 0 0 -1.3696679878652 0 0 0 0 0 0 0
0 -0.366330982040007 0 0 0 0 0 0 0 0 0 0 0 -1.13248181261807 0 0 0 0 -0.889099876301513 0 0 0 0 0 0 0 0 -0.48211490337797 -0.556091228279172 0 0 0 0 0 0 0 0 0 0 0 0 0 0 0 0 0 0 0 0 0
0 0 -0.366330982040007 0 -0.764824566543847 -2.03902496235619 0 0 0 -0.0482209591148066 -1.6926169747344 0 0 0 0 0 0 -0.389516185342892 0 0 0 -3.62160207584933 0 0 0 0 0 0 0 0 0 0 0 0 0 -3.80729733950405 0 0 0 0 0 0 0 0 0 -2.35503115592206 0 0 0 0
0 0 0 -0.366330982040007 0 0 0 0 0 -0.900602376383339 0 -1.63660553475831 0 0 -6.92932244529102 0 0 0 0 0 0 0 -0.603346754587155 0 0 0 0 0 0 0 0 0 0 0 0 0 0 0 0 0 0 0 0 0 0 0 0 0 0 0
0 0 0.150765811129613 0 -0.366330982040007 0 0 0 0 0 0 0 0 0 0 0 0 0 0 0 0 0 0 0 0 0 0 0 0 0 -2.0282663126868 0 0 -1.38000070712956 0 0 0 0 0 0 0 0 0 0 -0.918942056365623 -0.413892372848072 0 0 -1.22581916620141 -0.420887011625049
0 0 0.397308242716947 0 0 -0.366330982040007 0 0 0 0 -1.15873565731204 0 0 0 0 0 0 0 -3.42440964643743 0 0 0 0 0 0 0 -0.791416626329983 -1.51601848510547 0 0 0 0 0 0 -0.729184029521547 0 0 0 0 0 0 0 0 0 0 0 0 0 -0.34434330229122 0
0.117490220479591 0 0 0 0 0 -0.366330982040007 0 -3.11729843636207 0 0 0 0 0 0 0 0 0 0 0 0 0 0 0 0 0 0 0 0 0 0 0 0 0 0 0 0 0 -3.49615174391051 0 0 0 0 0 0 0 0 0 0 0
0 0 0 0 0 0 0 -0.366330982040007 -5.17595470408044 0 0 0 -0.504779644915435 0 0 0 0 0 0 0 0 0 0 0 0 0 0 0 -0.539847144097278 0 0 0 0 0 0 0 0 0 0 0 0 0 0 0 0 -3.98663460567697 0 0 0 0
0 0 0 0 0 0 0.667584272158792 0.972000540494202 -0.366330982040007 0 0 0 0 0 0 0 0 0 0 0 0 0 0 0 0 -0.743376741505489 0 0 0 0 0 0 0 0 0 0 0 0 0 0 -2.01690309893737 0 0 -2.90726517015309 0 0 0 0 0 0
0 0 0.00888223883349774 0.183487120991931 0 0 0 0 0 -0.366330982040007 0 0 -0.218134769504754 -2.19660868869988 0 0 0 0 0 0 0 0 0 0 0 0 0 0 0 -0.150678147909027 -0.249277421209813 0 0 0 0 0 0 0 0 0 0 0 0 -0.659636481069467 0 0 0 0 0 0
0.0392926936883403 0 0.34766116918276 0 0 0.245725042103243 0 0 0 0 -0.366330982040007 -0.246391849782641 0 0 0 0 0 0 0 0 0 0 0 0 0 0 0 0 0 -0.833290953105963 0 -6.13304307913708 0 0 -0.353343042247551 0 0 0 0 0 0 0 0 0 0 -0.658991510463164 0 -0.48336517885108 0 0
0 0 0 0.334584043401987 0 0 0 0 0 0 0.0484423183779483 -0.366330982040007 0 0 0 -4.86126219141772 0 0 0 0 0 0 0 0 0 0 0 0 0 0 0 -6.90252676600661 0 0 0 0 0 -0.446375634788938 0 0 0 -0.187570449515571 0 0 0 0 0 0 -0.149969368652719 0
0.216702901275804 0 0 0 0 0 0 0.106899901512613 0 0.0404168697038322 0 0 -0.366330982040007 0 0 0 0 0 -1.87508503533169 0 0 0 0 0 0 0 -0.348230845643049 0 0 0 0 0 0 0 0 0 0 0 -0.341511487142299 0 0 0 0 0 0 0 0 0 0 0
0.333012600186091 0.233440983931648 0 0 0 0 0 0 0 0.43516932697256 0 0 0 -0.366330982040007 0 0 0 -7.851984583695 0 0 0 0 0 0 0 0 0 0 -1.08825190972194 0 0 -1.13130187802831 0 0 0 0 0 0 0 0 0 0 0 0 0 0 -0.138027762808354 0 0 0
0.810662052144503 0 0 1.3426925803037 0 0 0 0 0 0 0 0 0 0 -0.366330982040007 0 -1.83935315732188 0 0 0 0 0 0 0 0 0 0 0 0 0 0 0 0 0 0 0 0 0 0 0 0 -0.235476392499007 0 0 -2.18927709313111 0 0 -0.174464033026797 0 0
0 0 0 0 0 0 0 0 0 0 0 1.06336215356966 0 0 0 -0.366330982040007 -0.855613915449788 0 -6.70004512844477 0 0 0 0 0 0 0 0 0 0 0 -1.70309590488306 0 0 0 0 0 0 0 0 0 0 0 0 -0.956426422582881 0 0 0 0 0 0
0 0 0 0 0 0 0 0 0 0 0 0 0 0 0.383815786534443 0.167897487608947 -0.366330982040007 0 0 0 0 0 0 0 0 0 0 0 0 -2.73465489025413 0 0 0 0 0 0 0 0 0 0 0 0 -6.52977653382237 0 0 0 0 -1.43168935882869 0 0
0 0 0.0771286509307688 0 0 0 0 0 0 0 0 0 0 1.5676755881676 0 0 0 -0.366330982040007 0 0 0 0 0 0 0 0 0 -1.3249279224208 0 0 0 0 -3.22593726152214 0 0 0 -1.02836789267677 -0.293609881835184 0 0 0 0 -1.10762817638772 0 0 0 0 0 0 0
0 0.190101443867526 0 0 0 0.68975088220216 0 0 0 0 0 0 0.370033456317494 0 0 1.30185533462885 0 0 -0.366330982040007 0 0 0 0 0 0 0 0 0 0 0 0 0 0 0 0 -0.372016451263776 0 0 0 0 0 0 0 0 0 0 0 0 0 0
0 0 0 0 0 0 0 0 0 0 0 0 0 0 0 0 0 0 0 -0.366330982040007 0 0 0 0 0 -3.00518852705821 0 0 0 0 0 -1.69973394015999 -0.211923224242814 0 -1.37738543170499 -1.01295685203549 0 -0.333649573700163 0 0 0 0 0 0 0 0 0 0 0 0
0.086179178717335 0 0 0 0 0 0 0 0 0 0 0 0 0 0 0 0 0 0 0 -0.366330982040007 0 0 0 0 -0.318435943328523 0 0 0 -1.09299703921456 0 0 0 0 0 0 0 0 0 0 0 -5.75012226959977 0 0 0 0 0 0 0 0
0.275197541888855 0 0.719113652217624 0 0 0 0 0 0 0 0 0 0 0 0 0 0 0 0 0 0 -0.366330982040007 0 0 0 0 0 0 0 0 0 0 0 0 0 0 0 0 0 0 0 0 0 0 0 0 0 0 0 0
0 0 0 0.120439756651394 0 0 0 0 0 0 0 0 0 0 0 0 0 0 0 0 0 0 -0.366330982040007 0 0 0 0 0 0 0 0 -1.4521108306356 0 0 -0.815709763233263 0 0 0 0 0 0 0 0 0 0 0 0 -2.22062326403035 0 0
0 0 0 0 0 0 0 0 0 0 0 0 0 0 0 0 0 0 0 0 0 0 0 -0.366330982040007 0 0 -0.200073423231444 0 0 0 0 0 0 0 0 0 0 0 0 0 0 0 0 0 0 0 0 0 0 0
0.169304999668427 0 0 0 0 0 0 0 0 0 0 0 0 0 0 0 0 0 0 0 0 0 0 0 -0.366330982040007 0 0 -0.289293419598583 0 -0.432499736635685 0 0 0 0 0 0 0 0 0 0 0 0 0 0 0 0 0 0 0 -1.03735354684607
0 0 0 0 0 0 0 0 0.131892544081127 0 0 0 0 0 0 0 0 0 0 0.62149674505959 0.070418983646788 0 0 0 0 -0.366330982040007 0 0 -0.402066488720877 0 0 0 0 0 0 0 0 0 0 0 0 0 -0.854136715345831 0 0 0 0 0 0 0
0 0 0 0 0 0.14685742046941 0 0 0 0 0 0 0.0679248072758568 0 0 0 0 0 0 0 0 0 0 0.040086595384324 0 0 -0.366330982040007 0 0 0 0 0 0 -1.38671200853929 -1.11007478992366 0 0 0 0 -1.43752490298717 0 0 0 0 0 0 0 0 0 0
0 0.0977379498336235 0 0 0 0.324713586110363 0 0 0 0 0 0 0 0 0 0 0 0.262009758637988 0 0 0 0 0 0 0.0595319182284859 0 0 -0.366330982040007 0 -1.74609379216254 0 0 0 0 0 0 0 0 0 0 0 0 -0.583031958986171 0 0 0 0 0 0 0
0 0.0990923173894788 0 0 0 0 0 0.103666915041594 0 0 0 0 0 0.212202664063694 0 0 0 0 0 0 0 0 0 0 0 0.0752283350978146 0 0 -0.366330982040007 0 0 0 0 0 0 0 0 0 0 0 -0.358778285014411 0 0 0 0 0 0 -0.766798572254099 0 0
0 0 0 0 0 0 0 0 0 0.0276068979483557 0.172063005856379 0 0 0 0 0 0.50383527362505 0 0 0 0.205832328400051 0 0 0 0.0820193656548724 0 0 0.334937057809099 0 -0.366330982040007 -0.453553916007181 0 0 0 0 0 0 0 0 0 0 0 0 0 0 0 0 0 0 0
0 0 0 0 0.404152518744133 0 0 0 0 0.0520357486793201 0 0 0 0 0 0.346106443522899 0 0 0 0 0 0 0 0 0 0 0 0 0 0.0793614383686222 -0.366330982040007 -0.554534356221597 0 0 0 0 0 0 0 0 0 0 0 0 -6.83788410538099 0 0 0 0 0
0.15388381882052 0 0 0 0 0 0 0 0 0 1.09123765244633 1.37049253152184 0 0.25295269134623 0 0 0 0 0 0.331883720211677 0 0 0.301674400191212 0 0 0 0 0 0 0 0.107344912362679 -0.366330982040007 0 0 0 0 0 0 0 0 0 0 0 0 0 0 0 0 0 0
0 0 0 0 0 0 0 0 0 0 0 0 0 0 0 0 0 0.679298713883152 0 0.043697950337323 0 0 0 0 0 0 0 0 0 0 0 0 -0.366330982040007 0 0 0 0 0 0 0 0 0 0 0 0 0 0 0 0 0
0 0 0 0 0.293679167954906 0 0 0 0 0 0 0 0 0 0 0 0 0 0 0 0 0 0 0 0 0 0.261630510167453 0 0 0 0 0 0 -0.366330982040007 0 0 0 0 0 0 0 0 0 0 0 0 0 0 0 0
0 0 0 0 0 0.132449226710784 0 0 0 0 0.0736920472574639 0 0 0 0 0 0 0 0 0.277640050067708 0 0 0.150008840984513 0 0 0 0.221188690504684 0 0 0 0 0 0 0 -0.366330982040007 0 -2.24272317626692 -1.53610104632632 -0.466904390922181 0 0 0 0 0 0 0 0 0 0 0
0 0 0.757787730735505 0 0 0 0 0 0 0 0 0 0 0 0 0 0 0 0.0791246755149784 0.210746572531258 0 0 0 0 0 0 0 0 0 0 0 0 0 0 0 -0.366330982040007 -2.78074990880942 0 0 0 0 0 0 0 0 0 0 0 0 0
0 0 0 0 0 0 0 0 0 0 0 0 0 0 0 0 0 0.200339130701827 0 0 0 0 0 0 0 0 0 0 0 0 0 0 0 0 0.426808918367443 0.568536161917675 -0.366330982040007 -2.94456418282194 0 0 0 0 0 0 0 0 0 0 0 0
0 0 0 0 0 0 0 0 0 0 0 0.0877190219742643 0 0 0 0 0 0.0568475967292939 0 0.0655742525083464 0 0 0 0 0 0 0 0 0 0 0 0 0 0 0.296441758256369 0 0.572441519237683 -0.366330982040007 0 0 0 0 0 0 0 0 0 0 0 0
0 0 0 0 0 0 0.719644835227087 0 0 0 0 0 0.0739764597944173 0 0 0 0 0 0 0 0 0 0 0 0 0 0 0 0 0 0 0 0 0 0.0907323629044682 0 0 0 -0.366330982040007 0 0 0 0 0 0 0 0 0 0 0
0 0 0 0 0 0 0 0 0 0 0 0 0 0 0 0 0 0 0 0 0 0 0 0 0 0 0.298701891679474 0 0 0 0 0 0 0 0 0 0 0 0 -0.366330982040007 0 0 0 0 0 0 0 0 0 -3.70447427690606
0 0 0 0 0 0 0 0 0.372332362699453 0 0 0 0 0 0 0 0 0 0 0 0 0 0 0 0 0 0 0 0.0707040044582477 0 0 0 0 0 0 0 0 0 0 0 -0.366330982040007 0 0 0 0 0 0 0 0 0
0 0 0 0 0 0 0 0 0 0 0 0.0370754720682449 0 0 0.0454717089083335 0 0 0 0 0 1.23870178406115 0 0 0 0 0 0 0 0 0 0 0 0 0 0 0 0 0 0 0 0 -0.366330982040007 -0.73258904752185 0 0 0 0 0 0 0
0.302323691460636 0 0 0 0 0 0 0 0 0 0 0 0 0 0 0 1.35752650662757 0.221816719949986 0 0 0 0 0 0 0 0.17966591504015 0 0.114594044213287 0 0 0 0 0 0 0 0 0 0 0 0 0 0.145233271283705 -0.366330982040007 0 0 0 0 0 0 0
0 0 0 0 0 0 0 0 0.607324260397139 0.125093698526886 0 0 0 0 0 0.193466792992939 0 0 0 0 0 0 0 0 0 0 0 0 0 0 0 0 0 0 0 0 0 0 0 0 0 0 0 -0.366330982040007 0 0 0 0 0 0
0 0 0 0 0.186705956441162 0 0 0 0 0 0 0 0 0 0.417055555315339 0 0 0 0 0 0 0 0 0 0 0 0 0 0 0 1.29444566465371 0 0 0 0 0 0 0 0 0 0 0 0 0 -0.366330982040007 0 -2.21559678940981 0 0 0
0 0 0.507997915165258 0 0.085430490947156 0 0 0.766391023965879 0 0 0.13296525917858 0 0 0 0 0 0 0 0 0 0 0 0 0 0 0 0 0 0 0 0 0 0 0 0 0 0 0 0 0 0 0 0 0 0 -0.366330982040007 0 0 -1.46726156752072 0
0 0 0 0 0 0 0 0 0 0 0 0 0 0.0287251492690804 0 0 0 0 0 0 0 0 0 0 0 0 0 0 0 0 0 0 0 0 0 0 0 0 0 0 0 0 0 0 0.457194005465528 0 -0.366330982040007 0 0 0
0 0 0 0 0 0 0 0 0 0 0.0962748427502014 0 0 0 0.035453850080946 0 0.295559961587299 0 0 0 0 0 0.463830883078837 0 0 0 0 0 0.157122209543553 0 0 0 0 0 0 0 0 0 0 0 0 0 0 0 0 0 0 -0.366330982040007 0 0
0 0 0 0 0.250521673988817 0.0718865549517827 0 0 0 0 0 0.0280908887763336 0 0 0 0 0 0 0 0 0 0 0 0 0 0 0 0 0 0 0 0 0 0 0 0 0 0 0 0 0 0 0 0 0 0.312671623004662 0 0 -0.366330982040007 0
0 0 0 0 0.0833317183162496 0 0 0 0 0 0 0 0 0 0 0 0 0 0 0 0 0 0 0 0.219886676685005 0 0 0 0 0 0 0 0 0 0 0 0 0 0 0.722771761822508 0 0 0 0 0 0 0 0 0 -0.366330982040007
