6.20304604313446
1.03654814217964
1.46692569167033
0.450971162826824
1.72169023592467
2.95031704744783
0.704941027183844
1.29915302728085
1.67930764090338
0.341344715852288
0.54040997932438
2.69679969902582
0.517587664937123
0.732146639432209
1.06812433747513
1.25090563570109
1.01950154071685
1.97346576463015
1.61592564755871
3.65672039945233
1.56209554185309
0.413268340095349
0.790580831159125
0.559403200172853
0.717138139031866
1.53157123539619
3.26753673794853
0.319241867139733
1.27079756203096
0.933013103480207
0.404897739939557
0.795026536852872
0.951506361499346
1.08966062088132
9.98572274264835
0.0621296992286205
0.274737662179024
1.18121394769532
0.57215554898378
1.98481313065987
0.549813176199382
0.322158835319473
1.63124415817543
0.198939546243167
2.40451001550577
1.50964263201086
3.24159529609535
0.800954569360627
0.320062571414939
1.44074121383918
