1.85218539726448
0.334683403327204
0.601310143328565
1.32069140998021
0.0391912208501275
2.00423645615435
1.07596706449257
2.33583997300419
0.077040119371362
1.3366115408819
0.423219453535733
1.90374716802838
1.32360932419745
0.281276177854317
0.2838209839407
1.91517600886326
3.46143855022893
1.39529472459511
1.30667727385963
1.93599545641881
0.776188955262825
0.301656995830771
0.342459571980007
4.29880139628962
1.38123719877831
1.7978277179384
0.390323775350742
0.723396627133217
1.59146358096452
0.403062417229132
1.80481094284279
6.12707059467804
8.84417680728345
0.90537815905297
1.44165543678927
1.82693297649521
0.228666623515737
0.970099627527941
0.175870454430481
2.64551749173183
0.447519550088007
0.961923162628602
1.47163507636451
2.32948562130093
3.2781670658583
4.48038315837206
0.482841056811314
0.475700489898714
2.04101985220162
0.415537420888524
