0.952893048603939
6.99166250056127
0.349228111967865
4.68644215220617
8.64514058513455
0.583171200387543
1.06040175809638
0.61062737849292
0.373020733468119
0.685246786877679
0.858784017198891
0.297765630743994
0.647142464187838
0.630408397236021
1.59335050247647
1.10473662554991
0.251008199429662
0.386187589774717
0.480871687590148
0.599013911734205
0.713622540907681
0.494640916071749
1.75353986774997
2.1971798672624
0.226889732703199
1.58282306815295
0.327554101286171
4.66370858649128
0.213897360746802
2.75046513154895
2.89188571834994
0.947590503263885
7.18428427777704
0.331381216999628
0.420871389085236
0.242676484839999
1.40617479230131
5.57400910191414
1.48602144078131
2.65168740563877
0.474019439156054
0.573173661993586
0.977662099592352
0.821478325695468
0.554245806097029
1.09288333071267
2.34426719065595
0.955686362241677
1.27922684696967
1.25137905154838
