0.680487888530603
0.694194030224097
1.91250654528697
1.40049967191474
1.06635863242295
8.46215074746934
0.276176708407621
1.12023768561099
0.374105521356518
0.894949405799486
0.741724754981093
1.54271623745251
0.994361088683823
2.00484086730295
0.197452492532413
2.6874632856444
0.28448342204433
0.562964559159211
0.381008717423355
1.05314977823141
0.276556311956911
0.397808108952001
0.430033486467867
0.631764395313437
3.68748012543988
2.52278690920087
3.0620923990142
2.27026484691399
0.672341636951593
1.25282540131723
0.68569166294838
4.36113900624937
0.297538370275999
0.44755695154833
1.72493374716763
0.66093150894192
0.404035948922811
8.60306698159388
0.9475777644195
0.591601166620121
1.91033405274483
0.945856213704937
0.718134688605783
1.91351115618682
1.43038406908574
0.0980898803090142
0.501867280905475
3.28966507367166
0.790042650983047
0.619859972821535
