-0.549071971778372 0 0 0 0 0 0 0 0 0 0 0 0 0 0 0 0 0 0 0 0 0 0 0 0 0 0 0 0 0 0 0 0 0 0 -0.188750376783674 0 0 0 0 0 0 0 0 0 0 0 0 0 0
0 -0.549071971778372 0 0 0 0 -4.60874549058987 0 0 0 0 0 0 0 0 0 0 0 0 0 0 0 -0.184537644850382 0 0 0 0 0 0 0 0 0 0 0 0 0 0 -0.906500427782461 0 0 0 0 0 0 0 0 0 0 0 0
0 0 -0.549071971778372 0 0 -1.40518088105322 0 0 -2.13985941212593 0 0 -0.39073258969713 0 0 0 0 0 -0.397306463823593 0 0 0 0 0 0 0 0 0 0 -0.975296066375867 0 0 0 0 0 0 0 0 0 0 0 -0.953979716136246 0 0 0 0 0 -0.527428311054454 0 0 0
0 0 0 -0.549071971778372 -0.279563644063287 0 0 0 0 0 0 0 -7.3257679813666 0 0 0 0 0 0 0 0 0 0 0 -2.03247657025371 0 0 0 -1.76098327429493 0 0 0 0 0 0 0 0 0 0 0 -1.98484344880477 0 0 0 0 -3.27746570978098 0 0 -0.145076897694722 0
0 0 0 0.0582383051145795 -0.549071971778372 0 0 0 0 0 0 -1.4119235274692 0 0 0 -2.48643791315472 0 0 0 0 -0.273398494748392 -0.632640623856597 -0.871712162632074 0 -3.20270918260703 0 0 0 0 0 0 0 0 0 0 0 0 -2.11637020678946 0 0 0 -0.695582179820589 0 0 0 0 0 -0.22164506504982 0 0
0 0 0.26356001060657 0 0 -0.549071971778372 0 -0.964451856934134 0 0 0 0 0 0 0 0 -0.233584648097654 0 0 -0.995811898442045 0 -0.430362455188913 0 0 0 0 0 0 0 0 0 0 -0.376826281538469 0 0 0 0 0 0 0 0 0 0 0 0 0 0 0 0 0
0 1.01673735696464 0 0 0 0 -0.549071971778372 0 0 0 0 0 0 0 0 0 0 0 0 0 0 0 0 0 0 0 0 0 0 -0.734393349795343 0 0 0 0 0 0 0 0 0 0 0 0 0 0 0 0 0 -1.37422036545105 0 0
0 0 0 0 0 0.169289633461589 0 -0.549071971778372 0 0 0 0 0 0 0 0 0 0 0 0 0 0 0 0 0 0 0 0 0 0 0 0 0 0 0 0 0 0 0 0 0 0 0 -3.65054576635287 0 0 -4.35605317683699 0 0 0
0 0 0.427436209370542 0 0 0 0 0 -0.549071971778372 0 0 0 0 0 0 0 0 0 0 0 0 0 0 0 -1.068919179328 0 0 -0.431331690389578 0 0 0 0 0 0 0 0 0 0 -2.17441493891862 0 0 0 0 -0.979985528644245 0 -3.78268391820051 -3.54971026208452 0 0 0
0 0 0 0 0 0 0 0 0 -0.549071971778372 0 0 0 0 0 0 0 0 0 0 0 0 0 0 0 0 0 -1.73587685201525 0 0 0 0 0 0 -0.651059974404949 0 0 0 0 -0.0558439688315078 0 0 0 0 0 -5.07650630371897 0 -0.263241270304139 -0.60296673532716 0
0 0 0 0 0 0 0 0 0 0 -0.549071971778372 -0.642542548465798 0 0 0 0 0 0 0 0 0 0 0 0 0 0 0 0 0 -0.44580169914822 0 0 0 0 0 0 0 0 0 0 0 0 0 0 -3.98969034130368 0 0 0 -2.43386821825739 0
0 0 0.0794613431099653 0 0.254329978409133 0 0 0 0 0 0.124991466669779 -0.549071971778372 -1.69418352532225 -1.04894337861774 0 0 0 0 0 0 0 0 -2.13072951430662 0 0 0 0 0 0 0 -0.288940068784778 0 0 0 0 0 0 0 -0.253615886436328 0 0 0 0 0 0 0 0 -0.675462113423139 0 -0.836108763868007
0 0 0 1.51183449205207 0 0 0 0 0 0 0 0.323911872600119 -0.549071971778372 0 0 0 0 -0.672958218173913 0 0 0 0 0 0 0 0 -1.22655028633312 0 0 -0.923916469606378 0 0 0 0 0 0 -0.324363936824481 -0.166028526815306 0 -2.61757654703542 0 0 0 -0.33900401456756 -1.90394050590172 0 0 0 -1.08386155520459 0
0 0 0 0 0 0 0 0 0 0 0 0.20062065603754 0 -0.549071971778372 -1.32537515229062 -0.944631734963536 0 0 0 0 0 0 0 0 0 0 0 0 0 0 0 -1.16289206710632 0 0 0 0 0 0 0 0 0 0 0 -1.77483281290345 0 0 0 -2.31766375613945 0 0
0 0 0 0 0 0 0 0 0 0 0 0 0 0.273393516940587 -0.549071971778372 0 0 0 0 0 0 0 0 0 0 0 0 0 0 0 0 -1.48316100944347 0 0 0 0 -0.467246113448282 0 0 0 0 0 0 0 0 0 0 0 0 0
0 0 0 0 0.521166924908215 0 0 0 0 0 0 0 0 0.205617480100096 0 -0.549071971778372 0 0 0 0 0 0 0 0 0 -2.13764210192437 0 0 0 0 0 -0.884125252122731 0 0 0 0 0 0 0 -2.72432770394013 -0.368318792114388 0 0 0 0 0 -1.23567538331138 0 0 0
0 0 0 0 0 0.0423080804387344 0 0 0 0 0 0 0 0 0 0 -0.549071971778372 0 0 0 0 0 0 0 0 0 -0.55658115636302 0 0 0 0 0 -1.59976145952546 0 -3.73000455893906 0 0 0 0 0 0 0 0 0 0 0 -1.03003070656002 -0.261165386489597 0 0
0 0 0.0687885263872452 0 0 0 0 0 0 0 0 0 0.140280508142097 0 0 0 0 -0.549071971778372 0 -0.973295080663769 0 -0.442508909779429 0 -0.692546153780686 0 0 0 0 0 0 0 0 0 0 0 0 0 0 0 -2.68797034990896 0 0 -0.491552493958628 0 0 0 0 0 0 0
0 0 0 0 0 0 0 0 0 0 0 0 0 0 0 0 0 0 -0.549071971778372 0 0 0 0 0 0 0 0 0 0 0 -0.771955835775625 0 -1.97030194532941 0 0 0 0 0 0 0 0 0 0 0 0 0 0 0 0 0
0 0 0 0 0 0.193947574756666 0 0 0 0 0 0 0 0 0 0 0 0.185906837846326 0 -0.549071971778372 0 0 0 0 0 0 0 0 0 0 0 0 0 0 0 0 0 0 0 0 0 -0.302132179941787 0 0 0 -0.114641117172017 -0.932127237429159 -0.325683233665928 0 0
0 0 0 0 0.0527432449109997 0 0 0 0 0 0 0 0 0 0 0 0 0 0 0 -0.549071971778372 0 0 0 0 0 0 0 0 0 0 0 0 0 0 0 0 0 0 -2.29526311979613 0 0 0 0 0 0 0 0 0 0
0 0 0 0 0.122660078969883 0.0774225599144869 0 0 0 0 0 0 0 0 0 0 0 0.0918504851721677 0 0 0 -0.549071971778372 0 0 0 0 0 0 -3.56818670047272 0 0 0 0 0 0 0 0 0 0 0 0 0 0 0 0 0 0 0 0 0
0 0.0379572342845935 0 0 0.168700299048652 0 0 0 0 0 0 0.431871730549092 0 0 0 0 0 0 0 0 0 0 -0.549071971778372 0 0 0 0 0 0 0 0 0 0 0 0 0 0 0 0 -0.330050083290154 0 0 -1.6206050633092 0 0 0 0 0 0 0
0 0 0 0 0 0 0 0 0 0 0 0 0 0 0 0 0 0.140128547668286 0 0 0 0 0 -0.549071971778372 0 0 0 0 -0.92012329217212 0 0 -1.25212807943669 0 0 -0.641902551368355 0 0 0 0 0 0 0 0 -0.201964091737675 0 0 0 -0.0922309521101974 0 0
0 0 0 0.421796228188848 0.671071715289629 0 0 0 0.223426889094785 0 0 0 0 0 0 0 0 0 0 0 0 0 0 0 -0.549071971778372 -3.6589165197027 0 0 0 0 0 0 0 0 -0.546013901648214 0 0 0 0 0 0 0 0 0 -5.24609602057512 0 0 0 0 0
0 0 0 0 0 0 0 0 0 0 0 0 0 0 0 0.469288808587608 0 0 0 0 0 0 0 0 0.723221331027552 -0.549071971778372 0 0 0 0 0 -1.39873088665573 0 0 0 0 -0.32383287605193 0 0 0 0 0 0 0 -0.669851215807672 0 0 0 0 0
0 0 0 0 0 0 0 0 0 0 0 0 0.247445029595798 0 0 0 0.109635205545263 0 0 0 0 0 0 0 0 0 -0.549071971778372 0 0 0 0 0 0 0 0 0 -0.502525078924666 0 0 0 0 0 0 0 -2.69841692066896 0 0 0 -8.16401790472502 0
0 0 0 0 0 0 0 0 0.08853895311159 0.317121072199979 0 0 0 0 0 0 0 0 0 0 0 0 0 0 0 0 0 -0.549071971778372 -0.895130910555352 0 0 0 0 0 0 0 0 0 0 0 0 0 0 0 0 0 0 0 0 0
0 0 0.198474780119335 0.368216505684778 0 0 0 0 0 0 0 0 0 0 0 0 0 0 0 0 0 0.665264421865775 0 0.172705103755932 0 0 0 0.177508742901264 -0.549071971778372 0 0 0 -3.27051196715366 0 0 0 0 0 0 0 0 0 0 0 0 0 0 0 0 0
0 0 0 0 0 0 0.15809033639139 0 0 0 0.0898572096355067 0 0.195193607189414 0 0 0 0 0 0 0 0 0 0 0 0 0 0 0 0 -0.549071971778372 0 0 0 0 -0.379082647345214 0 0 0 0 0 0 0 0 0 0 0 0 0 0 0
0 0 0 0 0 0 0 0 0 0 0 0.060014651276102 0 0 0 0 0 0 0.154174569065993 0 0 0 0 0 0 0 0 0 0 0 -0.549071971778372 0 0 0 0 -1.10601444016839 0 0 0 0 0 0 0 0 0 0 0 -0.157124229526429 0 -1.23448975945502
0 0 0 0 0 0 0 0 0 0 0 0 0 0.23551259941883 0.259520135095153 0.179209174719262 0 0 0 0 0 0 0 0.227559984428989 0 0.263354373365257 0 0 0 0 0 -0.549071971778372 0 0 0 0 0 0 0 0 0 0 0 0 -4.13565041164225 0 0 0 0 0
0 0 0 0 0 0.0798779279521841 0 0 0 0 0 0 0 0 0 0 0.32234593708556 0 0.405386449074497 0 0 0 0 0 0 0 0 0 0.667661777517146 0 0 0 -0.549071971778372 0 0 0 0 0 0 -0.0564782335391638 0 0 0 0 0 0 0 0 0 0
0 0 0 0 0 0 0 0 0 0 0 0 0 0 0 0 0 0 0 0 0 0 0 0 0 0 0 0 0 0 0 0 0 -0.549071971778372 0 0 0 0 0 0 0 -0.61706460831423 0 0 0 0 0 0 0 0
0 0 0 0 0 0 0 0 0 0.124656101638945 0 0 0 0 0 0 0.833431736738309 0 0 0 0 0 0 0.130950098362951 0.0998454596231812 0 0 0 0 0.075641216429557 0 0 0 0 -0.549071971778372 0 0 0 0 0 0 0 0 -2.58515545595929 0 0 -1.19748138711414 0 0 0
0.0351272844804671 0 0 0 0 0 0 0 0 0 0 0 0 0 0 0 0 0 0 0 0 0 0 0 0 0 0 0 0 0 0.226991365089575 0 0 0 0 -0.549071971778372 0 0 0 0 0 0 0 0 0 0 0 0 0 0
0 0 0 0 0 0 0 0 0 0 0 0 0.0717758958557479 0 0.0967863395929912 0 0 0 0 0 0 0 0 0 0 0.0690852651676654 0.103643485115973 0 0 0 0 0 0 0 0 0 -0.549071971778372 0 0 0 0 0 0 0 0 0 0 0 0 0
0 0.178930244856233 0 0 0.40860855309608 0 0 0 0 0 0 0 0.030878122761418 0 0 0 0 0 0 0 0 0 0 0 0 0 0 0 0 0 0 0 0 0 0 0 0 -0.549071971778372 0 0 0 0 0 0 -0.944414226341937 0 0 0 0 0
0 0 0 0 0 0 0 0 0.453043853919076 0 0 0.0488405432058031 0 0 0 0 0 0 0 0 0 0 0 0 0 0 0 0 0 0 0 0 0 0 0 0 0 0 -0.549071971778372 0 -0.469722755969452 0 0 0 0 0 -0.580312818636034 0 0 0
0 0 0 0 0 0 0 0 0 0.0114862034071585 0 0 0.529833442577388 0 0 0.591045478706066 0 0.547346259474633 0 0 0.432651726160089 0 0.0635148431054886 0 0 0 0 0 0 0 0 0 0.0110540564429178 0 0 0 0 0 0 -0.549071971778372 0 0 0 0 0 -4.08545998413374 0 0 0 0
0 0 0.192001970845829 0.40640692857331 0 0 0 0 0 0 0 0 0 0 0 0.0765590410596334 0 0 0 0 0 0 0 0 0 0 0 0 0 0 0 0 0 0 0 0 0 0 0.0864831965737239 0 -0.549071971778372 0 0 0 0 0 0 0 0 0
0 0 0 0 0.141635292427652 0 0 0 0 0 0 0 0 0 0 0 0 0 0 0.0687966570636152 0 0 0 0 0 0 0 0 0 0 0 0 0 0.121391848133726 0 0 0 0 0 0 0 -0.549071971778372 0 0 0 0 0 0 0 0
0 0 0 0 0 0 0 0 0 0 0 0 0 0 0 0 0 0.096651653710565 0 0 0 0 0.308290151100539 0 0 0 0 0 0 0 0 0 0 0 0 0 0 0 0 0 0 0 -0.549071971778372 0 0 0 0 0 0 0
0 0 0 0 0 0 0 0.709307703139514 0.213145990645941 0 0 0 0.068030211604958 0.348467243428702 0 0 0 0 0 0 0 0 0 0.0438473725182466 0 0 0 0 0 0 0 0 0 0 0.512398629370732 0 0 0 0 0 0 0 0 -0.549071971778372 0 0 -3.95555617017838 0 0 0
0 0 0 0 0 0 0 0 0 0 0.785102996109453 0 0.38261771033977 0 0 0 0 0 0 0 0 0 0 0 1.01364231644097 0.129627777905358 0.519925965766106 0 0 0 0 0.779752765962025 0 0 0 0 0 0.179131783554617 0 0 0 0 0 0 -0.549071971778372 0 0 0 0 0
0 0 0 0.600276294647701 0 0 0 0 0.733757292685905 1.10063418604547 0 0 0 0 0 0 0 0 0 0.0233317364549542 0 0 0 0 0 0 0 0 0 0 0 0 0 0 0 0 0 0 0 0.804100085372509 0 0 0 0 0 -0.549071971778372 0 0 0 0
0 0 0.118043767571413 0 0 0 0 0.833346340332539 0.784046509153138 0 0 0 0 0 0 0.224455212795254 0.22395530403342 0 0 0.201499785125644 0 0 0 0 0 0 0 0 0 0 0 0 0 0 0.251834034636218 0 0 0 0.109275578268125 0 0 0 0 0.829430927699165 0 0 -0.549071971778372 -1.21541928717233 0 0
0 0 0 0 0.0448603053035858 0 0.268564800006527 0 0 0.0559312364406989 0 0.13444557378089 0 0.431943028627309 0 0 0.0505796056927673 0 0 0.0612643658503849 0 0 0 0.0177404433369883 0 0 0 0 0 0 0.0288362460342059 0 0 0 0 0 0 0 0 0 0 0 0 0 0 0 0.253448618971199 -0.549071971778372 0 -0.9486722002922
0 0 0 0.0275822054541838 0 0 0 0 0 0.130778601434993 0.468031764646989 0 0.2095054951994 0 0 0 0 0 0 0 0 0 0 0 0 0 1.68191257495714 0 0 0 0 0 0 0 0 0 0 0 0 0 0 0 0 0 0 0 0 0 -0.549071971778372 0
0 0 0 0 0 0 0 0 0 0 0 0.16891886367524 0 0 0 0 0 0 0 0 0 0 0 0 0 0 0 0 0 0 0.236777909060875 0 0 0 0 0 0 0 0 0 0 0 0 0 0 0 0 0.205025743670741 0 -0.549071971778372
