-0.391133180665477 -1.93594056970019 0 0 0 0 0 -0.918634938179417 0 0 0 0 0 -1.75863624681209 -0.849212568428765 0 0 0 0 -0.468496959101209 0 0 0 -0.349178854341284 0 0 0 -0.436531691364828 0 0 0 0 0 0 0 0 0 0 0 0 0 0 0 0 0 0 -2.09937617253974 0 0 0
0.393068695679107 -0.391133180665477 -0.308503407540055 0 0 0 -0.649152309754402 0 -1.21191005623623 0 0 0 0 0 0 -0.316820402754024 0 -0.903772369647371 0 0 -1.03869844781741 0 0 0 0 0 0 0 0 0 0 0 -3.01225804637912 0 0 0 0 0 0 0 0 0 0 0 0 -0.823213005683024 0 -0.842336377497697 0 0
0 0.0585242816334396 -0.391133180665477 0 0 -0.875828295793267 0 -1.43219024119 0 -1.14171163521978 0 0 0 0 0 0 0 0 0 0 0 0 0 0 0 0 0 0 0 0 0 0 0 0 0 0 0 -0.174687475097149 0 0 0 -0.241251519803365 0 0 0 0 0 0 0 -1.0673235549068
0 0 0 -0.391133180665477 0 0 0 0 0 0 -3.91623364169998 0 0 0 0 0 0 0 0 0 0 0 0 0 0 0 0 0 0 0 0 0 0 0 0 0 0 0 0 0 0 0 0 0 0 0 0 0 0 -1.80427755558015
0 0 0 0 -0.391133180665477 -0.649601940350815 0 0 0 0 0 0 0 -7.74120270548326 0 0 0 0 -0.19322038184704 0 0 -1.56738835898317 0 0 0 0 0 0 0 0 0 0 0 0 0 0 0 0 0 0 0 0 0 0 0 -1.02395145730669 0 -2.17979725175551 0 0
0 0 0.16189509746921 0 0.130419317285008 -0.391133180665477 0 0 0 0 0 0 0 0 0 0 0 0 0 0 0 0 0 -0.864479446607331 0 0 0 0 0 0 0 0 0 0 0 0 0 0 0 -2.0016209205728 0 0 0 0 0 0 0 0 0 0
0 0.13932994140889 0 0 0 0 -0.391133180665477 -0.748800574410113 0 0 0 0 0 0 0 0 0 -0.748870962313854 0 0 0 0 0 0 0 0 0 0 0 -0.42509818422118 0 0 0 -1.12934130006238 0 0 0 0 0 0 0 0 0 0 0 0 0 0 0 0
0.181304770678913 0 0.285790286577091 0 0 0 0.14888084219567 -0.391133180665477 0 0 0 0 0 0 0 0 0 0 0 0 0 0 0 0 -0.565147152682045 0 0 0 0 0 0 0 0 -0.486384186359044 -3.73266278344659 -2.84319578949953 0 0 0 0 0 0 0 0 0 0 -0.32570385658998 0 0 0
0 0.232037727433996 0 0 0 0 0 0 -0.391133180665477 0 0 0 0 0 0 0 0 0 0 0 -1.17358452237908 0 0 0 0 0 0 0 0 -0.861919227013766 0 0 0 0 0 0 0 0 0 0 -5.9995072890483 0 0 0 0 -0.166999924706456 0 0 0 0
0 0 0.211226096920249 0 0 0 0 0 0 -0.391133180665477 0 0 0 0 0 0 0 0 0 0 0 0 0 0 0 0 0 0 0 -0.753920403956816 0 0 0 0 0 0 0 0 0 0 0 0 0 0 0 0 0 0 0 -0.108100324484729
0 0 0 0.726664419313838 0 0 0 0 0 0 -0.391133180665477 0 0 0 0 0 0 0 -0.891089490445891 0 0 0 0 0 0 0 -2.28106500391136 -10.5561695698523 0 0 0 0 0 -0.691124040789198 0 0 0 0 -5.10096454988749 0 0 0 0 0 0 0 0 0 0 0
0 0 0 0 0 0 0 0 0 0 0 -0.391133180665477 0 0 0 0 0 0 0 0 0 0 0 0 0 0 0 0 0 0 0 0 0 0 0 0 0 0 0 0 0 0 0 0 0 0 -0.477433019329703 -0.480461115872598 -0.540848499627691 0
0 0 0 0 0 0 0 0 0 0 0 0 -0.391133180665477 0 0 0 0 0 0 0 0 0 0 0 0 0 0 0 0 0 -0.181399863657057 0 0 0 0 0 0 -0.678402314085342 0 0 0 -0.42955987975539 0 0 0 0 0 0 0 0
0.346191695600756 0 0 0 1.55818936617186 0 0 0 0 0 0 0 0 -0.391133180665477 0 0 0 0 0 0 0 0 0 0 0 0 0 0 0 0 0 0 0 -2.95719667006026 0 0 0 0 0 0 0 0 0 0 0 0 0 0 0 0
0.176210915993869 0 0 0 0 0 0 0 0 0 0 0 0 0 -0.391133180665477 -0.328463632007693 0 0 0 0 0 0 0 0 0 0 0 0 0 0 0 0 0 0 0 0 0 0 0 0 0 0 0 0 0 0 0 0 0 -0.332352520553961
0 0.0603957173370047 0 0 0 0 0 0 0 0 0 0 0 0 0.0642593034346933 -0.391133180665477 0 0 0 0 0 0 0 0 0 0 0 0 0 0 0 0 0 0 0 0 0 0 0 0 0 0 0 0 0 0 0 0 0 0
0 0 0 0 0 0 0 0 0 0 0 0 0 0 0 0 -0.391133180665477 0 0 0 0 0 0 0 0 0 0 0 0 0 0 0 0 0 0 0 -1.01562968630646 0 0 0 0 0 0 0 0 0 0 0 0 0
0 0.190892191124315 0 0 0 0 0.153649900811838 0 0 0 0 0 0 0 0 0 0 -0.391133180665477 0 0 0 0 0 0 0 -0.777934702561142 0 0 0 0 0 0 0 0 0 -1.08967561090629 0 0 -0.778058814763375 0 0 0 0 0 0 0 0 0 0 0
0 0 0 0 0.0368006578799889 0 0 0 0 0 0.187130342285872 0 0 0 0 0 0 0 -0.391133180665477 0 -1.84221507063506 0 0 0 0 0 0 0 0 0 0 0 0 0 0 0 0 0 0 0 0 0 0 0 0 0 -3.10711031756727 -0.39372999737293 0 0
0.0955780079048049 0 0 0 0 0 0 0 0 0 0 0 0 0 0 0 0 0 0 -0.391133180665477 -5.68492512625093 0 0 0 0 0 0 -0.145781780174338 0 0 -3.03539528795769 0 0 0 0 0 0 -2.0671907145986 -3.52803533576089 0 0 0 0 0 0 0 0 0 0 0
0 0.205773011943518 0 0 0 0 0 0 0.229400776667435 0 0 0 0 0 0 0 0 0 0.329284120505544 1.13268893855899 -0.391133180665477 0 0 0 0 0 0 0 0 0 0 0 0 0 -0.377884548633836 0 0 0 0 0 -2.36614408937553 0 0 0 0 0 0 0 0 0
0 0 0 0 0.30715481129726 0 0 0 0 0 0 0 0 0 0 0 0 0 0 0 0 -0.391133180665477 0 0 0 0 0 0 -0.843969392508957 0 0 0 0 0 0 0 0 0 0 -0.383626304511353 0 0 0 -2.79210494542292 0 0 0 0 0 0
0 0 0 0 0 0 0 0 0 0 0 0 0 0 0 0 0 0 0 0 0 0 -0.391133180665477 0 0 0 0 0 0 0 0 0 0 0 0 0 0 -0.339294537990619 0 0 0 0 0 0 0 0 0 0 0 -1.14635360879983
0.0691090195420949 0 0 0 0 0.15879768526931 0 0 0 0 0 0 0 0 0 0 0 0 0 0 0 0 0 -0.391133180665477 0 0 0 0 0 -3.05565199880369 0 0 -1.32281010495018 0 0 0 0 0 0 0 -1.93471022641824 0 0 0 0 -0.236220282061101 0 0 0 -1.05152580535829
0 0 0 0 0 0 0 0.101884514639008 0 0 0 0 0 0 0 0 0 0 0 0 0 0 0 0 -0.391133180665477 0 0 0 0 0 0 0 0 0 0 0 -2.00798403617365 0 0 0 0 0 0 0 -2.97038119408516 0 0 0 0 0
0 0 0 0 0 0 0 0 0 0 0 0 0 0 0 0 0 0.146906247191669 0 0 0 0 0 0 0 -0.391133180665477 0 0 0 0 0 0 0 0 0 -0.466959160966829 0 0 0 0 0 0 -0.610043492525984 0 0 0 -0.992601762068551 0 0 0
0 0 0 0 0 0 0 0 0 0 0.44384294509904 0 0 0 0 0 0 0 0 0 0 0 0 0 0 0 -0.391133180665477 -0.433654267998692 0 0 0 0 0 0 0 0 0 0 0 0 0 0 0 0 0 0 0 0 0 0
0.0918609165175681 0 0 0 0 0 0 0 0 0 2.22925697758993 0 0 0 0 0 0 0 0 0.0292744283107303 0 0 0 0 0 0 0.0845907941117982 -0.391133180665477 0 0 0 0 -1.44138895470039 0 0 0 0 -0.802226739024583 0 0 0 0 0 0 -0.180415695750199 0 0 0 0 0
0 0 0 0 0 0 0 0 0 0 0 0 0 0 0 0 0 0 0 0 0 0.165475105950707 0 0 0 0 0 0 -0.391133180665477 0 0 -0.892418051388526 0 0 0 0 0 -7.95123945478937 0 -0.983899697462297 0 0 0 0 0 -0.415512835998515 0 -0.358565081197848 0 0
0 0 0 0 0 0 0.089500088815876 0 0.177839055657604 0.159241211302394 0 0 0 0 0 0 0 0 0 0 0 0 0 0.577677401696476 0 0 0 0 0 -0.391133180665477 -1.69470075652024 -6.13415363107904 0 0 0 0 0 -4.61097229152158 0 -0.364134441260815 0 0 0 0 0 0 0 0 0 -2.64874394568146
0 0 0 0 0 0 0 0 0 0 0 0 0.0364568412758359 0 0 0 0 0 0 0.615441610161549 0 0 0 0 0 0 0 0 0 0.330943466968517 -0.391133180665477 0 0 0 0 0 0 0 0 0 0 0 -2.01650971892625 0 0 0 0 0 0 0
0 0 0 0 0 0 0 0 0 0 0 0 0 0 0 0 0 0 0 0 0 0 0 0 0 0 0 0 0.178098965730003 1.1499414167097 0 -0.391133180665477 0 0 0 0 0 0 0 0 0 -0.72017370217754 0 0 0 0 0 0 0 0
0 0.597760495589969 0 0 0 0 0 0 0 0 0 0 0 0 0 0 0 0 0 0 0 0 0 0.280562469442626 0 0 0 0.283236596201044 0 0 0 0 -0.391133180665477 0 0 0 0 0 0 0 -1.97973369202701 0 0 0 0 0 0 0 0 0
0 0 0 0 0 0 0.217667933153499 0.0928741198784036 0 0 0.129102111822421 0 0 0.571322456623835 0 0 0 0 0 0 0 0 0 0 0 0 0 0 0 0 0 0 0 -0.391133180665477 0 0 0 0 0 0 0 0 0 0 0 0 0 0 0 0
0 0 0 0 0 0 0 0.708643281496454 0 0 0 0 0 0 0 0 0 0 0 0 0.0768068133674864 0 0 0 0 0 0 0 0 0 0 0 0 0 -0.391133180665477 -0.720653921524975 0 0 0 0 0 0 0 -0.527840803836516 0 0 0 0 0 0
0 0 0 0 0 0 0 0.592680264391049 0 0 0 0 0 0 0 0 0 0.215302263843638 0 0 0 0 0 0 0 0.0925936694471748 0 0 0 0 0 0 0 0 0.155688211772859 -0.391133180665477 0 0 0 -1.09475509675914 0 0 0 0 -0.288290169127871 0 0 0 -2.91237303615211 -0.290157155113274
0 0 0 0 0 0 0 0 0 0 0 0 0 0 0 0 0.219841806228454 0 0 0 0 0 0 0 0.400846696526329 0 0 0 0 0 0 0 0 0 0 0 -0.391133180665477 -1.64917422383405 0 0 -0.459716990144163 0 -0.115922201352058 0 0 0 -1.5541603680664 0 0 0
0 0 0.0341743003071529 0 0 0 0 0 0 0 0 0 0.120111588225424 0 0 0 0 0 0 0.379719796275565 0 0 0.0663864920601342 0 0 0 0 0.148459859349021 1.63115652522473 0.93899419083726 0 0 0 0 0 0 0.301988273091312 -0.391133180665477 -3.87469022548798 0 0 0 0 0 0 0 0 0 0 0
0 0 0 0 0 0 0 0 0 0 1.08405751891998 0 0 0 0 0 0 0.143733356111619 0 0.712495889068442 0 0 0 0 0 0 0 0 0 0 0 0 0 0 0 0 0 0.8024170279634 -0.391133180665477 0 0 0 -0.360721605926164 0 0 0 0 0 0 0
0 0 0 0 0 0.38692791621377 0 0 0 0 0 0 0 0 0 0 0 0 0 0 0 0.0747128876923361 0 0 0 0 0 0 0.193381350002992 0.070903636567616 0 0 0 0 0 0.194153730703772 0 0 0 -0.391133180665477 0 0 0 0 0 0 0 -1.68390463774495 0 0
0 0 0 0 0 0 0 0 1.25135179167456 0 0 0 0 0 0 0 0 0 0 0 0.489976792741913 0 0 0.343609439719229 0 0 0 0 0 0 0 0 0.388861213037754 0 0 0 0.0926145521871839 0 0 0 -0.391133180665477 0 0 0 0 0 0 0 0 0
0 0 0.048755011233929 0 0 0 0 0 0 0 0 0 0.073711739180791 0 0 0 0 0 0 0 0 0 0 0 0 0 0 0 0 0 0 0.140326066053997 0 0 0 0 0 0 0 0 0 -0.391133180665477 0 0 0 0 0 0 -0.819111542732386 0
0 0 0 0 0 0 0 0 0 0 0 0 0 0 0 0 0 0 0 0 0 0 0 0 0 0.116291097058351 0 0 0 0 0.410543434150736 0 0 0 0 0 0.0228072673137335 0 0.074753654922495 0 0 0 -0.391133180665477 0 0 0 0 0 0 0
0 0 0 0 0 0 0 0 0 0 0 0 0 0 0 0 0 0 0 0 0 0.550230324315945 0 0 0 0 0 0 0 0 0 0 0 0 0.109508171361559 0 0 0 0 0 0 0 0 -0.391133180665477 0 0 0 0 0 0
0 0 0 0 0 0 0 0 0 0 0 0 0 0 0 0 0 0 0 0 0 0 0 0 0.596226072869547 0 0 0.0368201604266649 0 0 0 0 0 0 0 0.0543298869260289 0 0 0 0 0 0 0 0 -0.391133180665477 0 -0.612953212982974 0 0 0
0 0.165109884305041 0 0 0.207124730338736 0 0 0 0.0318993418867916 0 0 0 0 0 0 0 0 0 0 0 0 0 0 0.0476312111304776 0 0 0 0 0.0864896953951384 0 0 0 0 0 0 0 0 0 0 0 0 0 0 0 0 -0.391133180665477 0 0 0 0
0.387500996082889 0 0 0 0 0 0 0.0634712152370183 0 0 0 0.0957568251420712 0 0 0 0 0 0 0.574849379513339 0 0 0 0 0 0 0.200347718706916 0 0 0 0 0 0 0 0 0 0 0.315575498810019 0 0 0 0 0 0 0 0.118741124147975 0 -0.391133180665477 -1.20284217153155 0 0
0 0.170756774291504 0 0 0.435123485745798 0 0 0 0 0 0 0.106194835111147 0 0 0 0 0 0 0.0805750513920292 0 0 0 0 0 0 0 0 0 0.0717289797616983 0 0 0 0 0 0 0 0 0 0 0.334724228536285 0 0 0 0 0 0 0.254515676581865 -0.391133180665477 0 -0.690320956082625
0 0 0 0 0 0 0 0 0 0 0 0.105989703487457 0 0 0 0 0 0 0 0 0 0 0 0 0 0 0 0 0 0 0 0 0 0 0 0.560517639663381 0 0 0 0 0 0.152603066039398 0 0 0 0 0 0 -0.391133180665477 0
0 0 0.19734844983358 0.334037813126242 0 0 0 0 0 0.0229158803450148 0 0 0 0 0.0662612526775992 0 0 0 0 0 0 0 0.232257981671914 0.189966080889932 0 0 0 0 0 0.550055129761089 0 0 0 0 0 0.055905769618707 0 0 0 0 0 0 0 0 0 0 0 0.125418150876228 0 -0.391133180665477
