-0.263012763592393 0 0 0 0 0 -0.271609614046582 0 0 0 0 0 -6.03246998607881 0 0 0 0 0 0 0 -1.33075004217891 0 0 0 0 0 0 0 0 0 0 0 0 0 0 0 0 0 0 0 0 0 0 0 0 0 0 0 0 0
0 -0.263012763592393 0 0 -2.33339835126393 0 -0.787388026665628 0 0 0 0 0 0 0 0 0 0 0 0 0 0 0 0 0 0 0 -1.30580362471652 0 -0.914060696950204 0 0 0 0 0 0 0 0 0 0 0 -0.149962787421139 0 0 0 0 0 0 0 -0.375369510891088 0
0 0 -0.263012763592393 0 0 0 0 0 0 0 0 0 0 0 0 0 -0.746097049189739 0 0 0 0 0 0 0 0 0 0 0 0 0 0 0 0 0 0 0 -2.67625547446106 0 -1.5833295929228 0 0 0 0 0 -2.22673447946653 0 0 0 0 0
0 0 0 -0.263012763592393 -3.49824182436975 0 0 0 0 0 0 0 0 0 -0.709354057058588 0 -0.588822644720593 0 0 0 0 0 -0.120979321090874 -0.539427194119966 0 0 0 0 0 0 0 0 0 0 0 0 0 0 0 0 0 0 0 0 0 -1.16978136418523 0 0 0 0
0 0.463229010941613 0 0.684089570290423 -0.263012763592393 -2.09696935079359 -1.78281500051713 0 -0.340056992808411 0 0 0 0 -1.42051916727641 0 -0.292970238210767 0 0 0 0 0 0 0 0 0 -0.262066134447223 0 0 0 0 0 -0.333107764382605 0 0 0 0 0 0 0 0 0 0 0 0 0 0 0 0 0 0
0 0 0 0 0.417204181206238 -0.263012763592393 -0.545937689509239 0 -2.08862893777099 0 0 -1.56824611405503 0 -0.484575481405466 0 0 -0.918577420670769 0 0 0 0 0 0 0 0 0 0 0 0 0 0 0 0 0 -1.11955390123608 0 0 0 0 0 0 0 0 -3.68734073533265 0 0 0 0 0 0
0.0527092420891729 0.14662038680847 0 0 0.345955609855409 0.108608697012605 -0.263012763592393 0 0 0 0 0 0 -8.14641616345557 0 0 0 0 0 0 0 0 0 0 0 0 0 0 0 0 0 0 0 0 0 0 0 0 0 0 0 0 0 0 0 0 0 0 0 0
0 0 0 0 0 0 0 -0.263012763592393 0 0 0 0 0 -0.56835090902782 0 0 0 0 0 0 0 0 -1.284730198631 0 0 0 0 0 -1.55949364348905 0 0 0 -0.674848924997108 0 0 0 0 0 0 0 0 0 0 0 0 0 0 0 0 0
0 0 0 0 0.0741822666846865 0.395666094604291 0 0 -0.263012763592393 0 0 0 0 0 0 0 0 0 0 0 0 0 -0.234852722676994 0 -0.63332858523327 0 0 0 0 0 0 0 0 0 0 0 0 0 0 0 0 0 0 0 0 0 0 0 0 0
0 0 0 0 0 0 0 0 0 -0.263012763592393 -0.231111862164678 0 0 0 0 0 0 -0.145447215833453 0 0 0 0 0 0 0 0 0 -0.556646889369694 0 0 0 0 0 0 -0.868817517476425 0 0 0 0 0 -10.8729984855951 0 0 0 0 0 0 0 0 0
0 0 0 0 0 0 0 0 0 0.045947716672238 -0.263012763592393 0 -4.88711816119604 0 0 0 0 0 0 0 0 -0.140045057150385 0 0 0 0 0 0 0 0 -0.745289451760245 0 0 0 0 0 0 0 0 0 0 0 0 0 0 0 0 0 0 0
0 0 0 0 0 0.316004963127058 0 0 0 0 0 -0.263012763592393 -0.143884366036686 0 0 0 0 0 0 0 0 0 0 0 0 0 0 0 0 0 0 0 0 0 0 0 0 0 0 0 0 -2.16009914124472 0 0 0 0 0 0 0 0
1.18076361030101 0 0 0 0 0 0 0 0 0 0.932666175211524 0.0286551370844011 -0.263012763592393 0 0 0 0 0 0 0 0 0 0 0 0 0 0 0 -0.348618372153014 0 0 0 0 -0.736690999383406 0 0 0 -0.223947512923621 0 0 0 -1.4569580330113 0 0 0 0 0 0 0 -0.97651309323931
0 0 0 0 0.273654257826008 0.100559980112968 1.80450927956229 0.111615859664204 0 0 0 0 0 -0.263012763592393 0 0 0 0 0 0 0 0 0 -0.644058016812027 0 0 0 0 0 0 -0.964994922929932 0 0 0 0 0 0 0 0 -4.6198743737517 -0.558856730132171 0 0 0 0 0 0 0 0 0
0 0 0 0.146718525366251 0 0 0 0 0 0 0 0 0 0 -0.263012763592393 0 0 0 0 -0.401648402866635 0 0 0 0 0 0 0 0 0 -1.57817776413418 0 -0.47641379387837 0 0 0 -0.266492244046719 0 0 0 0 0 0 0 -0.472059312765726 0 0 0 0 0 0
0 0 0 0 0.0605223260617312 0 0 0 0 0 0 0 0 0 0 -0.263012763592393 0 0 0 0 0 0 -0.50379167131442 0 0 0 0 0 0 0 0 0 0 0 0 0 0 -2.15585000063074 0 0 0 0 -2.67706790748788 0 0 0 0 0 0 0
0 0 0.138199434942134 0.114078257784906 0 0.178681972361353 0 0 0 0 0 0 0 0 0 0 -0.263012763592393 0 0 -0.664853657709066 0 0 0 0 0 0 0 0 0 0 0 0 0 0 0 0 0 0 0 0 -0.177132408820876 0 0 0 0 -1.22361666173814 0 0 0 0
0 0 0 0 0 0 0 0 0 0.0285939131024423 0 0 0 0 0 0 0 -0.263012763592393 0 0 0 0 0 0 0 0 0 0 0 0 0 0 0 0 0 0 0 0 0 0 0 0 0 0 0 0 0 0 0 0
0 0 0 0 0 0 0 0 0 0 0 0 0 0 0 0 0 0 -0.263012763592393 0 0 0 0 0 0 0 0 0 0 0 0 0 0 0 0 0 0 0 0 0 0 -0.314898362956709 0 0 0 -0.584795513857824 0 0 0 0
0 0 0 0 0 0 0 0 0 0 0 0 0 0 0.07761244271488 0 0.13891221838891 0 0 -0.263012763592393 0 0 0 0 0 0 0 0 -1.58539442994241 -0.801077052908436 0 0 0 0 0 0 0 -1.39385730917205 0 0 0 0 0 0 -1.30550827637784 0 0 0 0 0
0.262122324675564 0 0 0 0 0 0 0 0 0 0 0 0 0 0 0 0 0 0 0 -0.263012763592393 0 0 0 0 0 0 0 0 0 0 0 -0.662633600482209 0 -1.30716383040494 0 0 0 0 0 0 0 0 0 0 0 0 0 -6.08052004201114 0
0 0 0 0 0 0 0 0 0 0 0.0284657444849843 0 0 0 0 0 0 0 0 0 0 -0.263012763592393 0 0 0 0 0 0 -0.705646943215207 0 0 -0.311302644298373 0 -0.556608478162178 0 0 0 0 0 0 0 0 0 0 0 0 0 0 0 0
0 0 0 0.0245552848064708 0 0 0 0.248441845163779 0.0499528538479193 0 0 0 0 0 0 0.0983822207994203 0 0 0 0 0 0 -0.263012763592393 0 0 0 0 0 0 -5.73022459082814 0 0 0 0 0 0 0 0 0 0 0 0 0 0 0 0 -0.468190722876223 0 0 0
0 0 0 0.101226319371312 0 0 0 0 0 0 0 0 0 0.11449911918994 0 0 0 0 0 0 0 0 0 -0.263012763592393 0 0 0 0 0 0 0 0 0 0 0 0 0 0 0 0 0 -2.97729226105205 0 -0.171697077537046 0 -0.186770377941511 0 0 -0.122043539083127 0
0 0 0 0 0 0 0 0 0.131187851476248 0 0 0 0 0 0 0 0 0 0 0 0 0 0 0 -0.263012763592393 0 0 0 -0.137135492721258 0 0 0 0 0 0 0 0 0 0 0 -1.15442258165885 -0.0691733045905551 -1.094801870237 -2.75668333707062 0 0 0 0 0 0
0 0 0 0 0.0520862955889487 0 0 0 0 0 0 0 0 0 0 0 0 0 0 0 0 0 0 0 0 -0.263012763592393 0 0 0 -1.47105292259161 0 0 0 -1.50575136865795 0 0 0 0 0 -2.64082067846745 0 0 0 0 0 0 0 0 0 0
0 0.234668782528395 0 0 0 0 0 0 0 0 0 0 0 0 0 0 0 0 0 0 0 0 0 0 0 0 -0.263012763592393 0 0 -0.60887931253852 0 0 0 -0.384515219056537 0 0 0 0 0 0 0 0 0 -0.0793359106324059 0 0 -2.02322478410686 0 0 0
0 0 0 0 0 0 0 0 0 0.110797056740791 0 0 0 0 0 0 0 0 0 0 0 0 0 0 0 0 0 -0.263012763592393 0 0 0 0 0 0 0 0 0 0 0 0 0 0 0 0 0 0 0 0 -0.469622655986497 0
0 0.199456636473002 0 0 0 0 0 0.325962295705538 0 0 0 0 0.0676816452082412 0 0 0 0 0 0 0.330295637906452 0 0.136945047853803 0 0 0.0280850055137804 0 0 0 -0.263012763592393 0 0 0 0 0 0 0 0 0 -1.59159619223712 0 0 0 0 -0.68052327108828 0 0 0 0 0 0
0 0 0 0 0 0 0 0 0 0 0 0 0 0 0.326919891811644 0 0 0 0 0.160298001336919 0 0 1.23697377224863 0 0 0.286625325208424 0.12803832929429 0 0 -0.263012763592393 0 0 0 0 0 0 0 0 0 -0.236750552368466 0 0 0 0 0 0 -0.497819065213689 -1.69095892242229 0 0
0 0 0 0 0 0 0 0 0 0 0.152124679969945 0 0 0.190803146814289 0 0 0 0 0 0 0 0 0 0 0 0 0 0 0 0 -0.263012763592393 0 0 -2.66678960638019 -2.021722954639 0 0 0 0 0 0 0 0 0 0 0 0 0 0 0
0 0 0 0 0.0687274975565943 0 0 0 0 0 0 0 0 0 0.10386952693498 0 0 0 0 0 0 0.0616275938087655 0 0 0 0 0 0 0 0 0 -0.263012763592393 -0.579192153642617 0 0 0 0 0 0 0 -1.04910692762844 0 -1.05265190172354 0 -0.810172218679194 0 0 0 0 0
0 0 0 0 0 0 0 0.123351108256605 0 0 0 0 0 0 0 0 0 0 0 0 0.142691291045187 0 0 0 0 0 0 0 0 0 0 0.119814014040296 -0.263012763592393 0 0 -0.667178697624936 0 0 0 0 -5.25945360896854 0 0 0 0 0 0 0 0 0
0 0 0 0 0 0 0 0 0 0 0 0 0.149450510779973 0 0 0 0 0 0 0 0 0.1156592315077 0 0 0 0.270859071041114 0.0757358544487302 0 0 0 0.516459652766324 0 0 -0.263012763592393 0 0 0 0 0 0 0 0 0 0 0 -0.239505579183026 0 0 0 0
0 0 0 0 0 0.239751571332587 0 0 0 0.180116649225452 0 0 0 0 0 0 0 0 0 0 0.251014669973257 0 0 0 0 0 0 0 0 0 0.385561506311134 0 0 0 -0.263012763592393 -0.982670424022296 0 0 0 0 0 0 0 0 0 0 -0.656298395336914 0 0 0
0 0 0 0 0 0 0 0 0 0 0 0 0 0 0.0559150151269256 0 0 0 0 0 0 0 0 0 0 0 0 0 0 0 0 0 0.133239708376157 0 0.193930686777373 -0.263012763592393 0 0 0 0 0 0 0 -1.09728956944194 0 0 0 0 0 0
0 0 0.580862212026067 0 0 0 0 0 0 0 0 0 0 0 0 0 0 0 0 0 0 0 0 0 0 0 0 0 0 0 0 0 0 0 0 0 -0.263012763592393 0 0 0 0 0 -0.611783936131575 0 0 -4.27419243625635 0 0 0 0
0 0 0 0 0 0 0 0 0 0 0 0 0.0427173415888021 0 0 0.404684003836878 0 0 0 0.292901063333411 0 0 0 0 0 0 0 0 0 0 0 0 0 0 0 0 0 -0.263012763592393 0 -0.939320618664367 0 0 0 0 0 -0.100718229422532 0 0 0 0
0 0 0.350579831281057 0 0 0 0 0 0 0 0 0 0 0 0 0 0 0 0 0 0 0 0 0 0 0 0 0 0.333901252399428 0 0 0 0 0 0 0 0 0 -0.263012763592393 0 0 0 0 0 0 0 0 0 0 0
0 0 0 0 0 0 0 0 0 0 0 0 0 0.918005184748312 0 0 0 0 0 0 0 0 0 0 0 0.48280433466632 0 0 0 0.0511384403039918 0 0 0 0 0 0 0 0.189480740345694 0 -0.263012763592393 -1.05565609748488 0 0 -0.205343708838486 0 0 0 0 0 0
0 0.0320935146769959 0 0 0 0 0 0 0 2.19490692584916 0 0 0 0.112428568556428 0 0 0.0377296987766694 0 0 0 0 0 0 0 0.230433623042183 0 0 0 0 0 0 0.214030659103045 0.971301095570791 0 0 0 0 0 0 0.211532853100236 -0.263012763592393 0 0 0 0 0 0 0 0 0
0 0 0 0 0 0 0 0 0 0 0 0.45459743395901 0.295745880794542 0 0 0 0 0 0.0631780818772838 0 0 0 0 0.608808417264121 0.0146295617176425 0 0 0 0 0 0 0 0 0 0 0 0 0 0 0 0 -0.263012763592393 0 0 0 0 -2.44597923236565 0 0 0
0 0 0 0 0 0 0 0 0 0 0 0 0 0 0 0.519832963528194 0 0 0 0 0 0 0 0 0.221977413424588 0 0 0 0 0 0 0.215278202108861 0 0 0 0 0.131358832485357 0 0 0 0 0 -0.263012763592393 0 0 0 0 0 -1.0741545024705 0
0 0 0 0 0 0.765206777526247 0 0 0 0 0 0 0 0 0.0946243920408009 0 0 0 0 0 0 0 0 0.0329398738489098 0.547422767953698 0 0.0155676431356753 0 0.138324897281787 0 0 0 0 0 0 0.20740270275157 0 0 0 0.0411732371668887 0 0 0 -0.263012763592393 0 0 0 -1.42199395618665 -4.59983118061002 0
0 0 0.488158473016064 0 0 0 0 0 0 0 0 0 0 0 0 0 0 0 0 0.283988695482541 0 0 0 0 0 0 0 0 0 0 0 0.144489459128757 0 0 0 0 0 0 0 0 0 0 0 0 -0.263012763592393 0 0 0 0 0
0 0 0 0.230108665366191 0 0 0 0 0 0 0 0 0 0 0 0 0.234568003549806 0 0.114454425082107 0 0 0 0 0.0389141410320539 0 0 0 0 0 0 0 0 0 0.0479230588497725 0 0 0.833828293296203 0.0190880331723996 0 0 0 0 0 0 0 -0.263012763592393 0 0 0 0
0 0 0 0 0 0 0 0 0 0 0 0 0 0 0 0 0 0 0 0 0 0 0.0876744429837137 0 0 0 0.404089464485027 0 0 0.0967539789500793 0 0 0 0 0.128956515438002 0 0 0 0 0 0 0.525579319149431 0 0 0 0 -0.263012763592393 0 0 0
0 0 0 0 0 0 0 0 0 0 0 0 0 0 0 0 0 0 0 0 0 0 0 0 0 0 0 0 0 0.338989117042679 0 0 0 0 0 0 0 0 0 0 0 0 0 0.293008717915433 0 0 0 -0.263012763592393 0 -1.3899291198351
0 0.0763902942057635 0 0 0 0 0 0 0 0 0 0 0 0 0 0 0 0 0 0 1.25989502580835 0 0 0.0240582269910952 0 0 0 0.096802661858069 0 0 0 0 0 0 0 0 0 0 0 0 0 0 0.202128688171383 1.02384614916705 0 0 0 0 -0.263012763592393 0
0 0 0 0 0 0 0 0 0 0 0 0 0.204310317700243 0 0 0 0 0 0 0 0 0 0 0 0 0 0 0 0 0 0 0 0 0 0 0 0 0 0 0 0 0 0 0 0 0 0 0.266922270787982 0 -0.263012763592393
