0.499784699547234
0.0741541340838518
0.635093771483009
0.655597098783334
0.292278674844643
1.13162452074622
0.29683548213915
0.302492789079969
3.62947057558402
0.178117395232916
0.421949321038486
0.634809202662226
1.14238534366134
5.36377827182941
0.37390935232702
2.87027545497298
0.984610825976374
0.625833934029013
0.457250029827718
2.49936428238869
0.659440194091015
3.8407455698643
0.59158553962927
1.6691300725167
3.06136544677233
4.2624942251618
0.840942588270384
0.170373183304317
1.13738198340283
0.556879758211302
3.26109139006477
0.395076121435865
0.587615773010057
1.10552327123303
1.51765817868993
0.593529208338783
0.857276158513007
0.519507580693412
2.37376619056161
0.913852928753362
0.658413425692731
1.45722787258907
0.719522045322815
0.475908192585361
0.89726009404175
0.42381664387481
3.70477926828622
0.0943619031811192
0.807466362926903
0.0764009172365206
