-0.572499625174148 -0.416740207099632 0 0 0 0 -2.53783230364651 0 0 0 0 0 0 0 0 -1.64239750311139 0 0 0 0 -4.0182721564894 0 0 0 0 0 0 0 0 0 0 0 0 0 0 0 0 -0.816719616619186 0 -0.548301731884887 0 0 0 0 0 0 0 0 -1.81730764084771 0
0.0802270756097727 -0.572499625174148 0 0 0 0 0 0 0 0 0 0 -1.3114954024484 0 0 -0.354727311617029 0 0 0 0 0 0 0 -2.82419796479397 0 0 0 0 0 0 0 -0.297889005191143 0 0 -0.209025249695214 0 0 -2.28034682313884 0 -0.402083466767851 0 -1.87768974429443 0 0 0 0 0 0 0 0
0 0 -0.572499625174148 0 0 0 0 0 0 0 0 0 -0.255272402257279 0 0 0 0 0 0 0 0 0 0 0 -0.19237963289654 0 0 0 0 0 0 0 0 0 0 0 0 0 0 0 0 0 -1.63819709691303 0 0 -0.802189320372161 0 0 -0.778687431962415 0
0 0 0 -0.572499625174148 0 0 0 0 0 0 0 0 0 0 0 0 0 0 0 0 0 -3.46266600743467 -0.561916963767399 0 0 0 -0.472143400602231 0 0 0 0 0 0 0 -0.278678593030248 -0.262016367586273 0 0 0 0 0 0 0 0 0 0 0 0 0 0
0 0 0 0 -0.572499625174148 0 0 0 0 0 0 0 0 0 0 0 0 0 0 0 0 0 0 0 0 0 0 0 0 0 0 0 0 -8.79745719175322 0 0 0 0 0 0 0 0 -0.371004987504287 0 0 0 0 -0.242155661779793 -0.181644712474266 0
0 0 0 0 0 -0.572499625174148 0 0 0 0 0 0 0 0 0 0 0 0 0 0 0 0 0 0 0 0 0 0 0 0 0 -0.722910243852497 0 0 -0.645095217294226 0 0 0 0 0 0 0 0 0 0 -1.46463492005234 -4.75543489564507 0 0 0
0.474494554270786 0 0 0 0 0 -0.572499625174148 0 -1.72671440843592 0 0 0 0 0 0 0 0 0 0 0 0 0 0 -1.06727674994504 0 0 0 -4.66918189262495 0 0 0 0 0 0 0 -3.5227435279681 0 -7.03276859766355 -2.47397120035146 -0.222746083717829 0 0 0 0 0 0 0 0 0 0
0 0 0 0 0 0 0 -0.572499625174148 0 -1.1690898808888 0 0 0 0 -0.780329205470656 -0.239239293949108 0 0 0 0 0 0 0 0 0 0 0 0 0 0 0 0 0 0 0 0 -0.553424973225009 0 0 0 0 0 0 0 0 0 0 0 0 0
0 0 0 0 0 0 0.335066151556392 0 -0.572499625174148 0 0 0 0 0 -1.05226796729392 0 0 0 0 0 0 0 -0.48206332724569 0 -1.43724074278732 0 0 0 0 0 0 0 0 0 0 0 0 0 0 0 0 0 0 0 -0.373115553131827 0 0 0 -0.871260065920848 0
0 0 0 0 0 0 0 0.244483270493325 0 -0.572499625174148 0 0 0 0 0 0 0 0 0 0 0 0 0 0 -0.509768748895722 -0.250955190732617 0 0 -2.03636213899585 0 -1.96802643152863 0 0 -0.869300002873545 0 0 0 0 0 0 0 0 0 0 0 0 0 0 0 0
0 0 0 0 0 0 0 0 0 0 -0.572499625174148 0 0 0 -1.04773000424345 0 0 0 0 0 0 0 -4.49012918390202 -0.309833807428405 0 0 0 -0.768801018393358 0 0 0 0 0 0 0 0 0 0 0 0 0 0 0 0 0 -1.23018458976567 0 0 0 0
0 0 0 0 0 0 0 0 0 0 0 -0.572499625174148 0 0 0 0 0 0 0 0 0 0 0 0 0 0 0 0 -3.54764159100883 0 0 0 0 0 0 -0.786514309335863 0 0 0 -1.06508221241835 0 0 0 0 0 0 0 0 0 0
0 0.251518451184668 0.0490643130070716 0 0 0 0 0 0 0 0 0 -0.572499625174148 0 0 0 0 0 0 0 0 0 0 0 0 0 0 0 0 0 0 0 0 0 0 0 0 0 -0.837030750258033 0 0 0 0 0 0 0 0 -0.404626663334433 0 0
0 0 0 0 0 0 0 0 0 0 0 0 0 -0.572499625174148 0 0 -0.694005313686579 0 0 0 0 0 0 0 0 0 0 -0.179888037285629 0 -0.319453241667777 0 0 0 0 0 0 0 0 0 0 0 -0.373969812735609 0 0 0 0 0 0 0 -1.05295859481152
0 0 0 0 0 0 0 0.143602092462419 0.206968672788234 0 0.214561592363654 0 0 0 -0.572499625174148 -2.01927923235059 0 0 -0.737506170790841 0 0 0 0 0 0 0 0 0 0 0 -0.353874783931601 0 0 0 0 0 -2.13206739230956 0 0 0 -0.355230360577123 0 0 0 -0.857421293725437 0 0 0 0 0
0.302138904035283 0.0709075879534532 0 0 0 0 0 0.0462286865487944 0 0 0 0 0 0 0.382550431132559 -0.572499625174148 0 0 0 0 0 0 0 0 0 0 0 -0.291368627166068 0 0 -2.19161840201397 0 0 0 0 0 0 0 0 0 0 0 0 0 0 -0.848340568740744 0 0 0 -0.464189430459549
0 0 0 0 0 0 0 0 0 0 0 0 0 0.133746348778315 0 0 -0.572499625174148 0 0 0 0 0 0 0 0 0 0 0 0 0 0 0 0 0 0 0 0 -1.07721846359895 0 0 0 0 0 0 0 0 0 0 0 0
0 0 0 0 0 0 0 0 0 0 0 0 0 0 0 0 0 -0.572499625174148 -1.2650766240824 0 0 0 0 0 0 0 0 0 0 0 0 0 0 0 0 0 0 0 0 -1.24230570182226 0 0 0 0 0 0 0 -1.55027692088731 -0.747729137970931 0
0 0 0 0 0 0 0 0 0 0 0 0 0 0 0.157171749241075 0 0 0.26601904136494 -0.572499625174148 0 0 0 0 0 0 0 0 0 0 0 0 0 0 -2.50590786140842 0 0 0 0 0 0 0 -8.31911628059617 0 0 0 0 0 0 0 0
0 0 0 0 0 0 0 0 0 0 0 0 0 0 0 0 0 0 0 -0.572499625174148 0 0 0 0 0 0 -0.562672540296668 0 0 0 -0.425285460067737 0 0 -0.217834198987059 0 0 0 -2.1892012416748 0 0 0 0 0 0 0 0 0 0 -0.434048051496021 0
0.836252499801542 0 0 0 0 0 0 0 0 0 0 0 0 0 0 0 0 0 0 0 -0.572499625174148 0 0 0 -3.18233064554475 0 0 0 0 0 0 0 -0.608895147623574 0 0 0 0 0 0 0 -4.26604384394691 0 0 0 0 -0.390300111410345 0 0 0 0
0 0 0 0.672436235873736 0 0 0 0 0 0 0 0 0 0 0 0 0 0 0 0 0 -0.572499625174148 0 0 0 0 0 0 0 0 0 0 0 0 0 0 0 0 0 0 0 0 0 0 0 0 0 0 -1.47123879098921 0
0 0 0 0.120327092760184 0 0 0 0 0.0924570973525862 0 0.845975324275367 0 0 0 0 0 0 0 0 0 0 0 -0.572499625174148 0 0 0 -0.764843626626809 0 0 0 0 0 -2.24845376354691 0 0 0 0 0 -0.509659128793907 -1.91720619778963 0 0 0 0 0 0 0 0 0 0
0 0.545141667226789 0 0 0 0 0.227323464053058 0 0 0 0.0561152408231888 0 0 0 0 0 0 0 0 0 0 0 0 -0.572499625174148 0 0 0 0 0 0 0 0 0 0 0 0 0 0 0 0 0 0 0 0 0 0 0 -1.79054879000027 0 0
0 0 0.0409239995154407 0 0 0 0 0 0.240354431766868 0.0991931762689121 0 0 0 0 0 0 0 0 0 0 0.581782236003795 0 0 0 -0.572499625174148 0 0 0 0 0 0 0 0 0 0 0 0 0 0 0 0 0 0 0 0 0 -0.833458473708183 0 0 0
0 0 0 0 0 0 0 0 0 0.0502559688701683 0 0 0 0 0 0 0 0 0 0 0 0 0 0 0 -0.572499625174148 -0.384463560178478 0 0 0 0 0 -1.05289255214951 0 0 0 0 0 0 0 -3.90696023175587 0 -1.23857531172801 0 0 0 0 0 0 -1.38718106226716
0 0 0 0.0834904015560883 0 0 0 0 0 0 0 0 0 0 0 0 0 0 0 0.109314035383546 0 0 0.154311044461586 0 0 0.0783512142621637 -0.572499625174148 -3.33862286593125 -0.316844139350303 0 0 0 0 0 -0.766429347470359 0 0 0 0 0 0 0 0 -1.1502476681539 -0.606802019754092 0 0 0 0 -2.81279423190852
0 0 0 0 0 0 0.867224079046647 0 0 0 0.165304075798272 0 0 0.0371318394541451 0 0.0620943727945331 0 0 0 0 0 0 0 0 0 0 0.665130761599686 -0.572499625174148 0 0 0 0 0 0 0 0 0 0 0 0 0 0 0 0 0 -0.216474128519023 0 0 0 0
0 0 0 0 0 0 0 0 0 0.39783629109044 0 0.740904259243103 0 0 0 0 0 0 0 0 0 0 0 0 0 0 0.0657184885294247 0 -0.572499625174148 0 0 0 0 0 0 0 0 -0.871378926721538 0 0 0 0 0 0 0 -2.05835679807935 0 0 0 -1.79983369550309
0 0 0 0 0 0 0 0 0 0 0 0 0 0.0632928812198082 0 0 0 0 0 0 0 0 0 0 0 0 0 0 0 -0.572499625174148 0 -1.15450195788025 0 0 0 0 0 0 0 0 0 0 0 0 0 0 0 0 0 0
0 0 0 0 0 0 0 0 0 0.417706955665439 0 0 0 0 0.0732268408764597 0.465874995719054 0 0 0 0.0894013385117212 0 0 0 0 0 0 0 0 0 0 -0.572499625174148 0 -2.45745034978087 0 0 0 0 0 0 0 0 0 0 0 0 0 0 0 0 0
0 0.0643689536292853 0 0 0 0.156111366179872 0 0 0 0 0 0 0 0 0 0 0 0 0 0 0 0 0 0 0 0 0 0 0 0.221623407531549 0 -0.572499625174148 0 -0.256857431722139 0 0 0 0 -0.532583072451319 0 -0.165424361809483 0 0 0 0 0 0 0 0 0
0 0 0 0 0 0 0 0 0 0 0 0 0 0 0 0 0 0 0 0 0.125857524526241 0 0.456387350682986 0 0 0.215835353818124 0 0 0 0 0.544568319906003 0 -0.572499625174148 0 0 0 0 0 0 0 0 0 0 0 0 0 0 0 -0.698123689202938 0
0 0 0 0 1.79602634760931 0 0 0 0 0.165088241447958 0 0 0 0 0 0 0 0 0.491001334104969 0.0480390226122111 0 0 0 0 0 0 0 0 0 0 0 0.0496230297586915 0 -0.572499625174148 0 0 0 0 0 0 0 0 0 0 0 0 0 -0.187089934643324 0 0
0 0.0428350303952927 0 0.054555406926678 0 0.13426344379595 0 0 0 0 0 0 0 0 0 0 0 0 0 0 0 0 0 0 0 0 0.150160025348623 0 0 0 0 0 0 0 -0.572499625174148 0 0 -0.581013637521332 0 0 0 0 -0.478183560860831 0 0 0 0 0 0 0
0 0 0 0.0512252844617145 0 0 0.69268541438039 0 0 0 0 0.163406984321814 0 0 0 0 0 0 0 0 0 0 0 0 0 0 0 0 0 0 0 0 0 0 0 -0.572499625174148 0 0 -1.54009753170106 0 0 0 0 0 0 0 0 0 0 0
0 0 0 0 0 0 0 0.0989165445252423 0 0 0 0 0 0 0.406247706991267 0 0 0 0 0 0 0 0 0 0 0 0 0 0 0 0 0 0 0 0 0 -0.572499625174148 0 0 0 0 -0.758281893065513 0 0 0 -1.24671113980334 0 0 0 0
0.167713879511631 0.460076203904271 0 0 0 0 1.56407385823297 0 0 0 0 0 0 0 0 0 0.215271089717343 0 0 0.430388428364903 0 0 0 0 0 0 0 0 0.170001065459949 0 0 0 0 0 0.111602556714681 0 0 -0.572499625174148 0 0 0 0 0 0 0 0 0 0 0 0
0 0 0 0 0 0 0.487140638571575 0 0 0 0 0 0.165523610194261 0 0 0 0 0 0 0 0 0 0.100809566108267 0 0 0 0 0 0 0 0 0.100930289699026 0 0 0 0.302685541434845 0 0 -0.572499625174148 -0.656934852793628 0 0 0 0 0 0 0 0 0 0
0.111635099523336 0.0752657337852927 0 0 0 0 0.0406298660236338 0 0 0 0 0.219511605472443 0 0 0 0 0 0.264824957387507 0 0 0 0 0.383242253426101 0 0 0 0 0 0 0 0 0 0 0 0 0 0 0 0.121216019902866 -0.572499625174148 0 0 0 0 -3.74886829480016 0 0 -1.41505040429171 0 -1.17201550720794
0 0 0 0 0 0 0 0 0 0 0 0 0 0 0.0700496538340658 0 0 0 0 0 0.940794068778941 0 0 0 0 0.771222929738308 0 0 0 0 0 0.0345754283460375 0 0 0 0 0 0 0 0 -0.572499625174148 0 0 -4.92320112973083 0 0 0 -0.413650458154963 0 0
0 0.404827169431829 0 0 0 0 0 0 0 0 0 0 0 0.0800990506376839 0 0 0 0 1.59947898862907 0 0 0 0 0 0 0 0 0 0 0 0 0 0 0 0 0 0.158449868700213 0 0 0 0 -0.572499625174148 0 0 0 0 0 0 0 0
0 0 0.319343151141266 0 0.0825959929531163 0 0 0 0 0 0 0 0 0 0 0 0 0 0 0 0 0 0 0 0 0.230930357961337 0 0 0 0 0 0 0 0 0.100094349990305 0 0 0 0 0 0 0 -0.572499625174148 0 0 0 0 0 0 0
0 0 0 0 0 0 0 0 0 0 0 0 0 0 0 0 0 0 0 0 0 0 0 0 0 0 0.241358024415132 0 0 0 0 0 0 0 0 0 0 0 0 0 1.04436477153583 0 0 -0.572499625174148 0 0 -2.56266841381832 0 0 -0.47504507394069
0 0 0 0 0 0 0 0 0.0774266615410389 0 0 0 0 0 0.183071993738373 0 0 0 0 0 0 0 0 0 0 0 0.115849954787813 0 0 0 0 0 0 0 0 0 0 0 0 0.794529072938882 0 0 0 0 -0.572499625174148 0 0 0 0 0
0 0 0.171594819776772 0 0 0.324593964068389 0 0 0 0 0.235092570243532 0 0 0 0 0.173379264634006 0 0 0 0 0.0696350984348555 0 0 0 0 0 0 0.0452585768794395 0.464067596083972 0 0 0 0 0 0 0 0.248141969237985 0 0 0 0 0 0 0 0 -0.572499625174148 0 0 -0.998924334685433 0
0 0 0 0 0 0.966099991761839 0 0 0 0 0 0 0 0 0 0 0 0 0 0 0 0 0 0 0.15912817204865 0 0 0 0 0 0 0 0 0 0 0 0 0 0 0 0 0 0 0.530346900411548 0 0 -0.572499625174148 0 0 0
0 0 0 0 0.0454197636759788 0 0 0 0 0 0 0 0.0853470996955732 0 0 0 0 0.313626490493034 0 0 0 0 0 0.333114375994332 0 0 0 0 0 0 0 0 0 0.0346378319497168 0 0 0 0 0 0.292562200144876 0.081840080143488 0 0 0 0 0 0 -0.572499625174148 -1.59560416463012 0
0.354878625456787 0 0.165761374590057 0 0.0376809830542178 0 0 0 0.19085154374659 0 0 0 0 0 0 0 0 0.147914968149402 0 0.0849255911359995 0 0.277489379815096 0 0 0 0 0 0 0 0 0 0 0.132823521990541 0 0 0 0 0 0 0 0 0 0 0 0 0.20533657622609 0 0.321560263581916 -0.572499625174148 0
0 0 0 0 0 0 0 0 0 0 0 0 0 0.20657536467232 0 0.0874704775145977 0 0 0 0 0 0 0 0 0 0.246034173636957 0.557538022738945 0 0.36648637460965 0 0 0 0 0 0 0 0 0 0 0.225561188665748 0 0 0 0.102617152624645 0 0 0 0 0 -0.572499625174148
