2.75333999478074
0.32668699844804
1.6614501945722
0.706115099974743
0.647010017707182
0.665505001575767
0.57278222175944
1.12467028324629
1.12738874120183
0.901190763277177
1.52121444119491
0.931131974478315
1.09257969278164
0.381086547039498
1.91189212093729
0.77113945105813
0.685665597076523
0.0578739417967284
0.856949761946983
0.526560956263903
1.28781692370678
2.67621266658336
0.314525635343455
1.27240959818796
0.7857072253101
1.01174923136413
0.709187185228062
0.666192957016896
0.504201737607662
1.46535897067239
1.21229497542255
1.5452834361572
0.511024461133823
2.30835051907553
2.22806723354408
0.102044053003814
0.611061458209925
0.902128139562155
1.11635475080387
1.95131318297627
0.237009518666958
1.56078466650724
3.2751424728365
0.469583053558004
0.812380160552859
0.9194082346447
1.42771649194968
1.34298312388514
1.66245993851295
0.703637709742141
