-0.357593121242143 0 0 0 0 0 -1.69592829138572 0 0 0 0 0 0 -0.693288985842052 -0.628927827482496 0 0 0 0 0 0 -1.26768208441797 0 0 0 0 0 0 0 0 -1.55225012497433 0 0 0 0 0 0 0 0 -0.170143581088095 0 -1.35617031377251 0 -0.315602113262646 0 0 0 0 0 0
0 -0.357593121242143 0 0 0 0 -0.744092598387647 0 0 0 -1.50342314399236 0 0 0 0 0 0 -4.64713641362212 0 0 0 0 0 0 0 0 0 0 0 0 0 -0.268635133385963 0 0 0 0 -0.141168593860436 0 0 -0.540865933256267 -0.951855180057886 0 0 0 0 0 0 0 0 0
0 0 -0.357593121242143 0 -0.564855535343212 0 0 0 0 0 0 0 0 -1.05964470469601 0 -0.734798981839287 0 0 0 0 0 0 0 0 0 0 0 0 -3.94229442944479 0 0 0 0 0 0 0 0 0 0 0 0 0 0 0 0 0 0 0 0 0
0 0 0 -0.357593121242143 0 0 -0.543514413412155 0 0 0 0 0 0 -0.702441269226089 0 0 0 -0.295224645626017 0 0 0 0 0 0 0 0 0 0 0 0 0 0 0 0 0 0 0 0 0 -1.13203983675238 0 0 0 0 -0.571305172825595 0 0 0 0 -0.298306321300748
0 0 0.119248128822582 0 -0.357593121242143 -0.951113993278335 0 0 0 0 0 0 0 0 0 -1.56496584354737 0 -8.25283821876788 0 0 0 0 0 0 0 0 0 0 0 0 0 0 0 0 -3.84876410021821 0 0 0 0 0 -4.04323887313537 0 -3.48865094813503 0 0 0 0 0 0 0
0 0 0 0 0.19905185337908 -0.357593121242143 -0.448899235186307 0 0 0 0 0 0 0 0 0 0 0 0 0 0 0 0 0 -0.580770903446198 -1.57338322710532 -0.101513528376697 0 0 0 0 0 0 0 0 0 0 -3.31517106159548 0 0 0 0 -1.2486023372752 0 0 0 0 0 0 0
0.328159299869055 0.139747512810185 0 0.104469244703969 0 0.0892103028463378 -0.357593121242143 0 0 0 -0.262579198096003 0 -0.189393651592366 0 0 0 0 0 0 -0.215661692753609 0 0 -6.03106643436048 0 0 0 0 0 0 0 0 0 0 0 0 0 0 0 0 0 0 0 0 0 0 0 0 0 0 0
0 0 0 0 0 0 0 -0.357593121242143 0 0 0 0 0 -1.58823460124956 0 0 0 -1.08078751084305 0 0 0 0 0 0 0 0 0 0 0 0 0 0 0 0 0 0 0 0 0 -1.46121089983759 0 0 -1.23799985040265 0 0 0 0 0 0 0
0 0 0 0 0 0 0 0 -0.357593121242143 0 0 0 0 0 0 0 0 0 0 0 0 0 0 0 -0.773936444990103 0 0 0 0 0 -0.370047945319111 -0.248459202188389 0 -0.557939018713067 -0.677835884872135 -0.449490389918792 0 0 0 0 -0.910956062524664 0 0 0 0 0 0 0 0 0
0 0 0 0 0 0 0 0 0 -0.357593121242143 0 0 0 0 0 0 0 0 -0.581491014910148 0 0 0 0 0 0 0 0 0 0 0 0 -0.603444547760584 0 0 0 0 -0.90848044922352 -1.01307802753877 0 0 0 0 0 0 0 0 0 0 0 0
0 0.299669524227043 0 0 0 0 0.0541701097022183 0 0 0 -0.357593121242143 0 0 0 0 0 0 -0.867739079153226 0 0 0 0 0 0 0 0 0 0 0 0 0 0 -1.06478344101453 0 0 0 0 0 0 0 0 0 0 -3.85119188433045 0 0 0 0 0 0
0 0 0 0 0 0 0 0 0 0 0 -0.357593121242143 0 0 0 0 0 0 0 0 0 0 0 0 0 0 0 0 0 0 0 0 0 0 0 -1.00602800009396 0 0 0 0 0 0 0 0 0 0 0 0 0 0
0 0 0 0 0 0 0.0382102584974889 0 0 0 0 0 -0.357593121242143 0 -0.251942480711126 0 0 0 -0.353320561161329 0 0 -1.20115087367707 0 -0.152580364337208 0 0 0 0 0 0 0 -0.110262216923056 0 0 0 0 0 0 0 0 0 0 0 0 0 0 -2.28089321608745 0 0 0
0.14148371742545 0 0.215928724775138 0.133083761629126 0 0 0 0.323756204894591 0 0 0 0 0 -0.357593121242143 -1.91879444523581 0 0 0 -2.47194894682126 0 -0.505270171902808 0 0 0 0 0 0 0 0 0 0 0 0 0 0 0 0 0 0 0 0 0 -0.194389804003207 0 0 -1.37998329399788 0 0 0 0
0.118858406935563 0 0 0 0 0 0 0 0 0 0 0 0.0455016089568319 0.404068369460812 -0.357593121242143 0 0 0 0 -0.840281459534393 0 0 0 0 0 0 0 0 0 0 0 0 0 0 0 0 0 0 0 0 0 0 0 0 0 -0.490572158007385 0 0 0 0
0 0 0.156660183554252 0 0.287883094423519 0 0 0 0 0 0 0 0 0 0 -0.357593121242143 0 0 0 0 0 0 0 0 0 0 0 0 0 0 0 0 0 0 0 0 0 0 -2.36480018386064 0 0 0 0 0 0 -1.26996539496816 0 0 0 0
0 0 0 0 0 0 0 0 0 0 0 0 0 0 0 0 -0.357593121242143 0 0 0 0 0 0 0 0 0 0 0 0 0 0 0 0 0 0 0 0 0 0 0 0 0 -2.28557171951703 0 0 0 0 0 0 0
0 0.956235110700732 0 0.0574744509346328 1.6873037301987 0 0 0.206321335922824 0 0 0.161640760291645 0 0 0 0 0 0 -0.357593121242143 0 0 0 0 0 0 0 0 0 0 -9.53331736523467 0 0 0 -1.28213419516483 0 -0.543410874599157 0 0 0 0 0 0 0 0 0 0 0 0 0 0 0
0 0 0 0 0 0 0 0 0 0.10963246472907 0 0 0.0719022246764844 0.481991848226112 0 0 0 0 -0.357593121242143 -0.322018659627698 0 0 0 -3.94641659661262 0 0 0 0 -0.718363149500946 0 0 0 0 0 0 0 0 0 0 0 -3.33834792005178 0 0 -0.517203423463594 0 0 0 0 0 -0.488209992326753
0 0 0 0 0 0 0.0438432263246572 0 0 0 0 0 0 0 0.18200477203025 0 0 0 0.0611990075043784 -0.357593121242143 0 0 0 0 0 0 0 -0.136750659540866 0 0 0 0 0 -0.760680734232133 0 0 -1.3813774309621 0 0 -0.142897222571319 0 0 0 0 0 0 0 0 0 -0.694277075776409
0 0 0 0 0 0 0 0 0 0 0 0 0 0.0911978874552073 0 0 0 0 0 0 -0.357593121242143 0 0 0 0 0 0 0 0 0 0 0 0 0 0 -0.666988884586767 0 -0.853480965740002 0 0 0 0 0 0 0 0 0 0 0 0
0.251066205047432 0 0 0 0 0 0 0 0 0 0 0 0.246167753102309 0 0 0 0 0 0 0 0 -0.357593121242143 0 0 0 -0.374439578734691 0 0 0 0 0 0 0 0 -3.22649674895974 0 0 0 0 0 0 0 0 0 -2.11809998339108 0 0 0 0 0
0 0 0 0 0 0 1.24874459304636 0 0 0 0 0 0 0 0 0 0 0 0 0 0 0 -0.357593121242143 0 -0.137828667366427 0 0 0 0 0 0 0 0 0 0 0 0 0 0 0 0 0 0 0 0 0 0 0 0 0
0 0 0 0 0 0 0 0 0 0 0 0 0.0324282720695129 0 0 0 0 0 0.819230207905767 0 0 0 0 -0.357593121242143 0 0 0 0 0 0 0 0 0 0 0 0 0 0 0 0 0 0 0 0 -1.47175486133582 0 0 0 0 0
0 0 0 0 0 0.119137477678901 0 0 0.150935571236215 0 0 0 0 0 0 0 0 0 0 0 0 0 0.0271797905315001 0 -0.357593121242143 0 -0.522940077672846 0 0 0 0 0 0 0 0 0 0 0 0 0 -1.28776998293743 0 0 0 0 0 0 0 0 0
0 0 0 0 0 0.312259814961921 0 0 0 0 0 0 0 0 0 0 0 0 0 0 0 0.0752765876983017 0 0 0 -0.357593121242143 0 0 0 0 0 0 0 0 0 -1.1116804934673 0 0 -0.274083162703988 0 -1.11134583258916 0 0 0 0 0 0 0 0 0
0 0 0 0 0 0.0214604017694502 0 0 0 0 0 0 0 0 0 0 0 0 0 0 0 0 0 0 0.10638767654546 0 -0.357593121242143 0 0 0 0 0 0 0 -1.67409204922347 -0.774472799046318 0 0 0 0 0 0 0 0 0 0 0 0 0 0
0 0 0 0 0 0 0 0 0 0 0 0 0 0 0 0 0 0 0 0.0260726787765748 0 0 0 0 0 0 0 -0.357593121242143 0 0 0 0 0 0 0 0 0 0 0 0 0 0 0 0 0 0 0 0 0 0
0 0 0.782598873745248 0 0 0 0 0 0 0 0 0 0 0 0 0 0 1.91091433190979 0.150543558261735 0 0 0 0 0 0 0 0 0 -0.357593121242143 0 0 -2.01836696500219 0 0 0 0 0 0 0 0 0 0 -0.289616503400087 0 0 0 0 0 0 0
0 0 0 0 0 0 0 0 0 0 0 0 0 0 0 0 0 0 0 0 0 0 0 0 0 0 0 0 0 -0.357593121242143 -2.25828909147293 0 -1.98716229622202 0 0 0 0 0 0 0 0 0 0 0 0 0 0 0 0 0
0.313602418039859 0 0 0 0 0 0 0 0.0761924199217119 0 0 0 0 0 0 0 0 0 0 0 0 0 0 0 0 0 0 0 0 0.450768499112652 -0.357593121242143 0 0 -2.31429835071111 0 0 0 -0.839717464059982 0 0 0 0 0 0 0 0 0 0 0 0
0 0.0569156243953778 0 0 0 0 0 0 0.0490750890339545 0.125531375871076 0 0 0.0202862450149965 0 0 0 0 0 0 0 0 0 0 0 0 0 0 0 0.41832983115089 0 0 -0.357593121242143 0 0 0 0 0 0 0 0 0 0 0 0 0 0 0 0 0 0
0 0 0 0 0 0 0 0 0 0 0.208678993719162 0 0 0 0 0 0 0.281368321191038 0 0 0 0 0 0 0 0 0 0 0 0.404699377004224 0 0 -0.357593121242143 0 0 0 0 0 0 0 0 0 0 0 0 0 0 0 0 0
0 0 0 0 0 0 0 0 0.11168821788749 0 0 0 0 0 0 0 0 0 0 0.156623637304629 0 0 0 0 0 0 0 0 0 0 0.474787014385355 0 0 -0.357593121242143 0 0 0 0 0 0 0 0 0 0 0 0 -0.289745446430969 0 0 0
0 0 0 0 0.823445863280331 0 0 0 0.146684122810022 0 0 0 0 0 0 0 0 0.108755245726863 0 0 0 0.671768642703359 0 0 0 0 0.328022684163683 0 0 0 0 0 0 0 -0.357593121242143 0 0 0 0 0 0 0 0 0 0 0 0 0 0 0
0 0 0 0 0 0 0 0 0.0897907294051415 0 0 0.190501010941731 0 0 0 0 0 0 0 0 0.136813204462848 0 0 0 0 0.231827001685102 0.172172483456809 0 0 0 0 0 0 0 0 -0.357593121242143 -4.62018340879012 0 0 0 0 0 0 0 0 0 0 -0.0665035195225667 0 0
0 0.0292992444089048 0 0 0 0 0 0 0 0.19454139855992 0 0 0 0 0 0 0 0 0 0.27644979990919 0 0 0 0 0 0 0 0 0 0 0 0 0 0 0 0.938360156028588 -0.357593121242143 0 0 0 0 0 0 0 0 -1.11251612811888 0 -1.86358747531718 0 0
0 0 0 0 0 0.717653155774326 0 0 0 0.206341462147313 0 0 0 0 0 0 0 0 0 0 0.165245441458595 0 0 0 0 0 0 0 0 0 0.166547684532313 0 0 0 0 0 0 -0.357593121242143 0 0 0 0 0 0 0 0 0 0 0 0
0 0 0 0 0 0 0 0 0 0 0 0 0 0 0 0.439326411299547 0 0 0 0 0 0 0 0 0 0.0508585855349077 0 0 0 0 0 0 0 0 0 0 0 0 -0.357593121242143 0 -4.67686044581133 0 0 0 0 0 0 0 0 0
0.0318949781376939 0.115497609299074 0 0.232646389650947 0 0 0 0.287716846586592 0 0 0 0 0 0 0 0 0 0 0 0.0272475680237776 0 0 0 0 0 0 0 0 0 0 0 0 0 0 0 0 0 0 0 -0.357593121242143 0 0 0 0 0 0 0 0 0 0
0 0.192851594304993 0 0 0.872375109741377 0 0 0 0.184605468197433 0 0 0 0 0 0 0 0 0 0.673928887959759 0 0 0 0 0 0.24494908602766 0.209381290457809 0 0 0 0 0 0 0 0 0 0 0 0 0.980783163857452 0 -0.357593121242143 0 0 0 0 0 0 -1.50606918829176 0 0
0.278057373474664 0 0 0 0 0 0 0 0 0 0 0 0 0 0 0 0 0 0 0 0 0 0 0 0 0 0 0 0 0 0 0 0 0 0 0 0 0 0 0 0 -0.357593121242143 0 0 0 0 0 0 0 0
0 0 0 0 0.709923612554578 0.26853191008157 0 0.266772182105039 0 0 0 0 0 0.0393488439791151 0 0 0.457758739000318 0 0 0 0 0 0 0 0 0 0 0 0.0591210069687118 0 0 0 0 0 0 0 0 0 0 0 0 0 -0.357593121242143 0 0 0 0 0 0 0
0.0606718226022397 0 0 0 0 0 0 0 0 0 0.791487621782771 0 0 0 0 0 0 0 0.102496666284862 0 0 0 0 0 0 0 0 0 0 0 0 0 0 0 0 0 0 0 0 0 0 0 0 -0.357593121242143 0 0 0 -1.38989018943935 0 0
0 0 0 0.113435437065851 0 0 0 0 0 0 0 0 0 0 0 0 0 0 0 0 0 0.422754894285277 0 0.296811690484518 0 0 0 0 0 0 0 0 0 0 0 0 0 0 0 0 0 0 0 0 -0.357593121242143 0 0 0 -0.801846860212688 0
0 0 0 0 0 0 0 0 0 0 0 0 0 0.250654737278584 0.0982465275704228 0.246113418304158 0 0 0 0 0 0 0 0 0 0 0 0 0 0 0 0 0 0 0 0 0.233012300991941 0 0 0 0 0 0 0 0 -0.357593121242143 0 0 0 0
0 0 0 0 0 0 0 0 0 0 0 0 0.463377726695842 0 0 0 0 0 0 0 0 0 0 0 0 0 0 0 0 0 0 0 0 0.0572241374323462 0 0 0 0 0 0 0 0 0 0 0 0 -0.357593121242143 0 0 0
0 0 0 0 0 0 0 0 0 0 0 0 0 0 0 0 0 0 0 0 0 0 0 0 0 0 0 0 0 0 0 0 0 0 0 0.0123183595244688 0.389458497326146 0 0 0 0.307291232957635 0 0 0.281699013856153 0 0 0 -0.357593121242143 0 0
0 0 0 0 0 0 0 0 0 0 0 0 0 0 0 0 0 0 0 0 0 0 0 0 0 0 0 0 0 0 0 0 0 0 0 0 0 0 0 0 0 0 0 0 0.157727422586182 0 0 0 -0.357593121242143 -1.2003341196268
0 0 0 0.0653957611566005 0 0 0 0 0 0 0 0 0 0 0 0 0 0 0.101075626854298 0.146337600214448 0 0 0 0 0 0 0 0 0 0 0 0 0 0 0 0 0 0 0 0 0 0 0 0 0 0 0 0 0.240666037807585 -0.357593121242143
