-0.506046273282115 0 0 0 0 0 0 0 0 0 0 0 0 0 0 0 0 0 0 -0.486599677397524 0 0 0 0 0 0 0 0 0 0 -1.80521484265809 0 0 -0.920182026049333 0 0 0 0 0 0 0 0 0 0 0 0 -0.396903817888147 -1.55500873544521 0 0
0 -0.506046273282115 0 0 0 0 0 0 0 -0.731289886508441 0 0 0 0 0 0 0 0 0 0 0 0 -0.228764376860319 0 0 0 0 0 0 0 0 0 0 0 0 0 0 0 0 0 0 0 0 0 0 0 0 0 -0.774316157260628 0
0 0 -0.506046273282115 0 0 0 -1.13823369193684 0 0 0 0 0 0 0 0 0 -0.498745148780668 0 0 0 0 0 0 0 0 0 -0.36345953198877 0 -1.35443729962134 0 0 0 0 0 0 0 0 0 0 0 0 0 0 0 0 0 0 -1.06108505018914 0 0
0 0 0 -0.506046273282115 0 0 0 0 0 0 0 0 0 0 0 0 0 0 0 0 0 0 0 0 0 0 0 0 0 0 0 0 0 -1.02185750937768 0 0 -2.65809551524488 0 0 0 0 0 -1.25296399045087 0 0 0 0 -1.3579255560167 0 0
0 0 0 0 -0.506046273282115 -0.38020338820178 0 0 0 0 0 0 0 0 0 0 0 -1.68043742617175 0 0 0 0 -1.33007807571712 0 0 0 0 0 0 0 0 0 0 0 -1.21846825460362 0 0 0 -1.27251669089527 -0.295860660861468 0 0 0 0 0 0 0 0 -0.828540875451347 -2.40979062838839
0 0 0 0 0.0795360254181197 -0.506046273282115 0 0 -1.000188895968 0 0 0 -2.26153841561534 0 0 0 0 0 0 0 0 0 0 0 0 0 0 0 0 0 -1.53335887698735 0 0 0 0 0 0 0 0 0 -0.736004928548633 0 -2.34243022637576 0 0 0 0 0 0 0
0 0 0.209820869942287 0 0 0 -0.506046273282115 0 0 0 0 0 0 0 0 0 0 0 0 0 0 0 0 0 0 -1.26777755567348 0 0 0 0 0 0 0 -5.45795387798129 0 -1.20059204239534 0 -0.633428912230786 -0.540483796488219 0 0 0 0 0 0 0 0 0 0 0
0 0 0 0 0 0 0 -0.506046273282115 0 0 0 0 -5.75205783040639 0 0 0 0 0 0 0 0 0 0 0 0 0 0 0 0 0 0 0 0 0 0 0 0 0 0 0 0 0 -1.02425008502232 0 0 0 0 0 0 0
0 0 0 0 0 0.201147828407557 0 0 -0.506046273282115 0 0 -0.812124302696377 0 0 0 0 0 0 0 -0.716548316541976 0 0 0 0 0 0 0 0 0 0 0 0 0 0 0 0 0 0 0 0 0 0 0 0 -0.197058372942018 -0.30881081601293 -1.06161940487713 0 0 0
0 0.133643687083516 0 0 0 0 0 0 0 -0.506046273282115 -1.55668043693036 0 0 0 0 0 0 0 0 0 0 0 0 0 0 -0.497356996510788 0 0 0 0 0 0 0 0 0 0 0 0 0 0 0 0 0 0 0 0 0 0 0 0
0 0 0 0 0 0 0 0 0 0.319271009323356 -0.506046273282115 0 0 0 0 0 0 0 0 0 0 0 0 0 0 0 0 0 0 0 0 0 0 0 -1.29216707803973 0 0 0 0 0 -0.606778670273953 0 0 -3.49697104143007 0 0 0 0 0 0
0 0 0 0 0 0 0 0 0.166697175173799 0 0 -0.506046273282115 0 0 -1.69474070702651 0 0 0 0 0 0 0 -0.34188154981949 0 -0.335504418373944 0 0 0 0 -0.771756045442499 0 0 0 0 0 -0.210391822890493 0 0 0 0 0 0 0 -1.00914704080478 0 0 0 0 0 0
0 0 0 0 0 0.447207425149363 0 1.14088871978952 0 0 0 0 -0.506046273282115 0 0 -1.77434600682229 0 0 0 0 0 0 -0.918268394096628 0 0 0 0 0 0 0 0 -0.791549195815198 0 0 0 0 0 0 0 0 -1.71385772886566 0 0 0 0 0 0 0 0 0
0 0 0 0 0 0 0 0 0 0 0 0 0 -0.506046273282115 0 0 0 0 -0.529657817083076 0 0 0 -0.478886604835442 -4.71992048337282 0 0 0 0 0 0 0 0 0 0 0 0 0 0 0 -0.571586596528038 0 0 0 0 0 0 0 0 0 0
0 0 0 0 0 0 0 0 0 0 0 0.362660581637371 0 0 -0.506046273282115 0 0 0 0 0 -1.60014801136258 0 0 0 0 0 0 -1.09755651026264 0 0 -1.27950333262765 0 0 0 0 -0.707491193429906 0 0 0 0 0 0 0 0 0 0 0 0 -0.309072074727302 0
0 0 0 0 0 0 0 0 0 0 0 0 0.38925692960562 0 0 -0.506046273282115 0 0 -2.80116770432341 0 0 0 0 0 0 -0.539873588460284 0 0 0 -0.326463727963492 0 0 0 0 0 0 0 0 0 0 -0.48061701819583 0 0 0 0 0 0 0 0 0
0 0 0.0983312686013851 0 0 0 0 0 0 0 0 0 0 0 0 0 -0.506046273282115 0 0 0 0 0 0 0 0 0 0 0 0 -3.40781555990379 0 -0.379671544282022 0 0 0 0 0 0 0 0 0 -0.110050459364294 0 0 0 -0.50281535966393 0 0 0 0
0 0 0 0 0.342147033875514 0 0 0 0 0 0 0 0 0 0 0 0 -0.506046273282115 0 0 -1.01559865481513 0 0 0 0 0 0 0 -1.03631906454046 0 0 0 0 0 0 0 0 0 0 0 0 0 0 0 0 0 -0.270764741413906 0 0 -0.434318947748029
0 0 0 0 0 0 0 0 0 0 0 0 0 0.105606624149528 0 0.569610565161583 0 0 -0.506046273282115 0 0 0 0 0 0 0 -0.87298940710158 0 0 0 -2.33322049398375 0 -1.69350331320364 -0.429320758662481 0 0 0 0 0 0 0 0 0 0 0 0 0 0 0 0
0.097996767016842 0 0 0 0 0 0 0 0.138364863179823 0 0 0 0 0 0 0 0 0 0 -0.506046273282115 0 0 0 0 -0.807812082627698 0 0 -0.944523807057102 0 0 0 0 -1.71476768934661 0 0 -0.718487453901467 0 0 0 0 0 0 0 0 0 -1.91968826313655 -2.13605627542564 0 -1.35604480661582 0
0 0 0 0 0 0 0 0 0 0 0 0 0 0 0.322506555691302 0 0 0.198118907251443 0 0 -0.506046273282115 0 0 0 0 0 -0.715908249894337 0 0 0 0 0 0 0 0 -1.68874455940727 0 0 0 0 0 0 0 0 0 0 0 0 0 0
0 0 0 0 0 0 0 0 0 0 0 0 0 0 0 0 0 0 0 0 0 -0.506046273282115 0 0 0 0 0 -0.370992865414378 0 0 0 0 0 -0.642202560060977 0 0 0 0 0 0 0 0 -3.56540571858216 0 0 0 -2.13259007337189 0 0 0
0 0.0464992420912407 0 0 0.288196315734392 0 0 0 0 0 0 0.061327187642535 0.193959251971276 0.0958752382581471 0 0 0 0 0 0 0 0 -0.506046273282115 0 0 0 0 -6.879505329653 0 0 0 0 0 0 0 0 0 0 0 0 0 0 0 0 0 0 0 -2.14067138502877 0 -0.494849263522588
0 0 0 0 0 0 0 0 0 0 0 0 0 0.935385564059542 0 0 0 0 0 0 0 0 0 -0.506046273282115 0 0 0 0 0 -0.655335379991595 0 0 0 0 0 0 0 0 0 0 -0.898629963860985 -3.1171429903029 0 0 0 0 0 0 0 0
0 0 0 0 0 0 0 0 0 0 0 0.0682795621049761 0 0 0 0 0 0 0 0.164756163350345 0 0 0 0 -0.506046273282115 0 0 0 0 0 0 0 0 -0.338812981441076 0 0 0 0 0 -5.17359496475924 0 0 0 0 0 0 0 0 0 0
0 0 0 0 0 0 0.229153690128275 0 0 0.101628205333445 0 0 0 0 0 0.110358009928022 0 0 0 0 0 0 0 0 0 -0.506046273282115 0 -4.78793820460279 0 -0.640580749696878 0 0 0 0 -1.91653285026518 0 0 0 0 0 0 0 0 0 0 0 0 0 0 0
0 0 0.0726580221467211 0 0 0 0 0 0 0 0 0 0 0 0 0 0 0 0.155092159684672 0 0.132004175416881 0 0 0 0 0 -0.506046273282115 0 0 0 0 -1.8148527171673 0 0 0 0 0 0 0 0 -1.46169072934066 0 0 0 0 0 0 0 0 0
0 0 0 0 0 0 0 0 0 0 0 0 0 0 0.237399345705145 0 0 0 0 0.186516719084581 0 0.0766570167588055 1.42016568969634 0 0 0.982116176955643 0 -0.506046273282115 0 0 0 0 -1.4000724213172 0 0 0 0 0 0 0 0 0 0 0 0 0 0 0 0 0
0 0 0.258355195542847 0 0 0 0 0 0 0 0 0 0 0 0 0 0 0.196735569097529 0 0 0 0 0 0 0 0 0 0 -0.506046273282115 0 0 0 0 0 0 0 -6.43544283513828 0 0 0 0 0 0 0 0 0 0 0 0 0
0 0 0 0 0 0 0 0 0 0 0 0.140527924535457 0 0 0 0.0652470251298362 0.695634440151877 0 0 0 0 0 0 0.123412484147499 0 0.128140583341111 0 0 0 -0.506046273282115 0 0 0 0 0 0 -1.22579244727186 0 0 0 0 0 0 0 0 0 0 0 0 0
0.372219458819431 0 0 0 0 0.316484071801235 0 0 0 0 0 0 0 0 0.281880170040155 0 0 0 0.470488442903295 0 0 0 0 0 0 0 0 0 0 0 -0.506046273282115 0 0 0 0 0 0 0 0 0 0 0 0 -0.613555444683029 0 0 0 0 0 0
0 0 0 0 0 0 0 0 0 0 0 0 0.158302837575022 0 0 0 0.0751582713180137 0 0 0 0 0 0 0 0 0 0.348222385316116 0 0 0 0 -0.506046273282115 0 0 0 0 0 0 0 0 0 0 0 -0.259419972622602 0 0 0 -1.78329575171087 0 0
0 0 0 0 0 0 0 0 0 0 0 0 0 0 0 0 0 0 0.316615102080889 0.360161730686223 0 0 0 0 0 0 0 0.263990707360249 0 0 0 0 -0.506046273282115 0 0 -1.63167255966248 0 0 0 0 0 0 0 0 0 0 0 0 0 0
0.194916731715769 0 0 0.206414119224583 0 0 1.18971031968686 0 0 0 0 0 0 0 0 0 0 0 0.0861639746280708 0 0 0.1297614187904 0 0 0.0691571731567844 0 0 0 0 0 0 0 0 -0.506046273282115 0 0 0 0 0 -0.730790755223364 0 0 0 0 0 0 -3.6628757089444 0 0 0
0 0 0 0 0.245940954526745 0 0 0 0 0 0.240315884722091 0 0 0 0 0 0 0 0 0 0 0 0 0 0 0.365435468943091 0 0 0 0 0 0 0 0 -0.506046273282115 0 0 0 0 0 0 0 0 0 0 0 0 0 0 -1.01522820492432
0 0 0 0 0 0 0.226927614217755 0 0 0 0 0.0393408920657201 0 0 0.140687883340458 0 0 0 0 0.146603490645413 0.332158137546386 0 0 0 0 0 0 0 0 0 0 0 0.311263222107778 0 0 -0.506046273282115 0 0 0 0 0 0 0 0 0 0 0 0 0 0
0 0 0 0.542297199901671 0 0 0 0 0 0 0 0 0 0 0 0 0 0 0 0 0 0 0 0 0 0 0 0 1.30366055761078 0.237758579387737 0 0 0 0 0 0 -0.506046273282115 0 0 0 -2.72988133918968 0 -0.409693990842502 0 0 0 0 0 0 0
0 0 0 0 0 0 0.125729506572469 0 0 0 0 0 0 0 0 0 0 0 0 0 0 0 0 0 0 0 0 0 0 0 0 0 0 0 0 0 0 -0.506046273282115 0 0 0 0 0 0 0 0 0 0 0 0
0 0 0 0 0.256871300855469 0 0.0951687711256417 0 0 0 0 0 0 0 0 0 0 0 0 0 0 0 0 0 0 0 0 0 0 0 0 0 0 0 0 0 0 0 -0.506046273282115 0 0 0 0 0 0 0 0 0 -1.52443625902468 0
0 0 0 0 0.0577408638765863 0 0 0 0 0 0 0 0 0.11700894454535 0 0 0 0 0 0 0 0 0 0 0.96338403524674 0 0 0 0 0 0 0 0 0.154075306201347 0 0 0 0 0 -0.506046273282115 0 0 -0.127918160449712 0 0 0 0 0 0 0
0 0 0 0 0 0.158017268483323 0 0 0 0 0.108049762341299 0 0.33728897458611 0 0 0.0934423734313732 0 0 0 0 0 0 0 0.169686884705958 0 0 0.29754857645036 0 0 0 0 0 0 0 0 0 0.60219634532379 0 0 0 -0.506046273282115 0 0 0 0 0 0 0 0 0
0 0 0 0 0 0 0 0 0 0 0 0 0 0 0 0 0.0211862486280746 0 0 0 0 0 0 0.61536683217035 0 0 0 0 0 0 0 0 0 0 0 0 0 0 0 0 0 -0.506046273282115 0 -0.772169426943529 -0.778145379043967 0 0 -0.407877077133613 0 0
0 0 0 0.253447232663473 0 0.456994392097344 0 0.208387953198222 0 0 0 0 0 0 0 0 0 0 0 0 0 0.744979770085493 0 0 0 0 0 0 0 0 0 0 0 0 0 0 0.0861148959110226 0 0 0.0259367996486342 0 0 -0.506046273282115 0 0 0 0 0 0 0
0 0 0 0 0 0 0 0 0 0 0.735549023243145 0.206074782149621 0 0 0 0 0 0 0 0 0 0 0 0 0 0 0 0 0 0 0.125144411922547 0.0493076923080069 0 0 0 0 0 0 0 0 0 0.145089554125181 0 -0.506046273282115 0 0 0 0 0 -2.19466595111685
0 0 0 0 0 0 0 0 0.0402157876932548 0 0 0 0 0 0 0 0 0 0 0 0 0 0 0 0 0 0 0 0 0 0 0 0 0 0 0 0 0 0 0 0 0.155040292592338 0 0 -0.506046273282115 0 0 0 0 -0.753968263899236
0 0 0 0 0 0 0 0 0.0583215397062793 0 0 0 0 0 0 0 0.103096521212141 0 0 0.384115837252328 0 0 0 0 0 0 0 0 0 0 0 0 0 0 0 0 0 0 0 0 0 0 0 0 0 -0.506046273282115 0 -1.28418277851679 0 0
0.081021465920084 0 0 0 0 0 0 0 0.207674799644658 0 0 0 0 0 0 0 0 0.0522214098457969 0 0.456993602909676 0 0.406483572346058 0 0 0 0 0 0 0 0 0 0 0 0.712723375058989 0 0 0 0 0 0 0 0 0 0 0 0 -0.506046273282115 0 0 0
0.298465666817812 0 0.204073842879609 0.265191387498568 0 0 0 0 0 0 0 0 0 0 0 0 0 0 0 0 0 0 0.439309975554598 0 0 0 0 0 0 0 0 0.361277717445449 0 0 0 0 0 0 0 0 0 0.0814621202374206 0 0 0 0.238328613326535 0 -0.506046273282115 0 -0.22877512015593
0 0.164059217588704 0 0 0.166270109186126 0 0 0 0 0 0 0 0 0 0.0633386829514495 0 0 0 0 0.292555776962585 0 0 0 0 0 0 0 0 0 0 0 0 0 0 0 0 0 0 0.300815436156013 0 0 0 0 0 0 0 0 0 -0.506046273282115 0
0 0 0 0 0.439558492397731 0 0 0 0 0 0 0 0 0 0 0 0 0.0875712565177157 0 0 0 0 0.101819050779057 0 0 0 0 0 0 0 0 0 0 0 0.217004792882472 0 0 0 0 0 0 0 0 0.475003602113907 0.155443350902348 0 0 0.0430267993154774 0 -0.506046273282115
