0.636049546479255
2.20824007931446
0.680338604164709
0.680912602848001
3.29031135302323
0.628598000428551
0.684851628958072
0.711556268255509
3.98268316826613
2.59883771410063
0.425471038464644
0.373790093164622
2.51598561127558
0.338148165895986
6.26722960596901
0.931378916184984
0.883858762867097
1.56307649748516
0.602579343598629
0.932597074359235
1.61240420880116
4.78689241655156
0.909563901404497
1.30596720722025
0.465108767373714
0.693100236899257
0.23048974132854
0.103156780496431
3.80458784031218
0.367651794836461
1.59435622499681
1.38545092270907
1.50645435840339
0.731750963772947
1.87813151511901
0.456272941042434
11.1475068150017
0.270190436038742
0.507993572583717
0.47341204116867
2.06243319537882
0.344961973966144
3.23288772815435
4.85773481059423
1.89972995490195
3.6506143344709
0.702108001130809
6.0783983533875
1.79703306251452
2.88389006566098
