-0.180106030452641 0 0 0 0 0 -1.10333769546582 0 0 0 -4.07036835664498 0 -3.14930075320395 -3.14543401884647 -1.03843270315284 0 0 0 0 0 -3.76766553569367 -1.70312978915604 0 0 -1.77755951588232 0 0 0 0 0 0 -0.433093402663248 0 0 0 0 0 0 0 0 0 0 -1.55027291964107 0 0 0 0 0 0 0
0 -0.180106030452641 0 0 0 0 0 0 0 0 0 0 0 -7.65581929624679 0 0 0 0 -0.676661781897451 0 0 0 0 0 0 0 0 -0.351036819352648 -1.27186267590699 0 0 0 0 0 0 0 0 0 0 0 0 0 0 0 0 0 0 0 0 0
0 0 -0.180106030452641 0 -1.09570819541076 -0.829907478245282 0 0 0 -0.413452142820067 -0.365924914859754 0 0 0 0 0 0 -0.519730470968988 0 0 0 -0.792517896232565 0 0 0 0 0 0 0 0 0 0 0 0 0 -5.09534579493746 0 0 0 0 0 0 0 0 0 -0.820758764293891 0 0 0 0
0 0 0 -0.180106030452641 0 0 0 0 0 -0.681868621343228 0 -0.370057952227169 0 0 -0.50437373933049 0 0 0 0 0 0 0 -1.53314377113413 0 0 0 0 0 0 0 0 0 0 0 0 0 0 0 0 0 0 0 0 0 0 0 0 0 0 0
0 0 0.218207961111323 0 -0.180106030452641 0 0 0 0 0 0 0 0 0 0 0 0 0 0 0 0 0 0 0 0 0 0 0 0 0 -0.607549940902062 0 0 -0.178965904394186 0 0 0 0 0 0 0 0 0 0 -2.69176851505357 -0.586192957391846 0 0 -0.709550138574675 -1.5899004649815
0 0 0.151338940272528 0 0 -0.180106030452641 0 0 0 0 -0.565740143356197 0 0 0 0 0 0 0 -0.345204112198964 0 0 0 0 0 0 0 -0.780215729443507 -0.105856627252149 0 0 0 0 0 0 -3.1177472520833 0 0 0 0 0 0 0 0 0 0 0 0 0 -2.12525771776804 0
0.235436044540834 0 0 0 0 0 -0.180106030452641 0 -0.213622660950119 0 0 0 0 0 0 0 0 0 0 0 0 0 0 0 0 0 0 0 0 0 0 0 0 0 0 0 0 0 -0.531360020143102 0 0 0 0 0 0 0 0 0 0 0
0 0 0 0 0 0 0 -0.180106030452641 -3.01063292366836 0 0 0 -1.10562061191059 0 0 0 0 0 0 0 0 0 0 0 0 0 0 0 -1.09263849406015 0 0 0 0 0 0 0 0 0 0 0 0 0 0 0 0 -0.685021629143621 0 0 0 0
0 0 0 0 0 0 0.0449958903819255 0.606917809520357 -0.180106030452641 0 0 0 0 0 0 0 0 0 0 0 0 0 0 0 0 -2.00804016986862 0 0 0 0 0 0 0 0 0 0 0 0 0 0 -0.354912961443316 0 0 -1.64740211244545 0 0 0 0 0 0
0 0 0.0788313141676092 0.13263011165 0 0 0 0 0 -0.180106030452641 0 0 -0.481711770940141 -0.466948336743724 0 0 0 0 0 0 0 0 0 0 0 0 0 0 0 -4.20853759137277 -1.74386820090044 0 0 0 0 0 0 0 0 0 0 0 0 -0.369171164671136 0 0 0 0 0 0
0.866360366690891 0 0.074392479195753 0 0 0.118016197103176 0 0 0 0 -0.180106030452641 -6.43368480846598 0 0 0 0 0 0 0 0 0 0 0 0 0 0 0 0 0 -2.52111656201134 0 -1.60832713812437 0 0 -0.332276930651899 0 0 0 0 0 0 0 0 0 0 -1.09817158409496 0 -1.4626398838425 0 0
0 0 0 0.0750969969175989 0 0 0 0 0 0 1.28514866548945 -0.180106030452641 0 0 0 -0.924985932461937 0 0 0 0 0 0 0 0 0 0 0 0 0 0 0 -0.446226467188372 0 0 0 0 0 -0.75127795183289 0 0 0 -1.98569206326765 0 0 0 0 0 0 -5.4500524732592 0
0.620577760957931 0 0 0 0 0 0 0.202774296559351 0 0.0954631827689406 0 0 -0.180106030452641 0 0 0 0 0 -5.48359035027922 0 0 0 0 0 0 0 -2.37766408662852 0 0 0 0 0 0 0 0 0 0 0 -0.845848634786722 0 0 0 0 0 0 0 0 0 0 0
0.649089255251319 1.53346034979482 0 0 0 0 0 0 0 0.0985571372570083 0 0 0 -0.180106030452641 0 0 0 -1.18911435671788 0 0 0 0 0 0 0 0 0 0 -0.438920486743731 0 0 -1.23596707993124 0 0 0 0 0 0 0 0 0 0 0 0 0 0 -1.78101383940887 0 0 0
0.219881587707384 0 0 0.11061488401588 0 0 0 0 0 0 0 0 0 0 -0.180106030452641 0 -1.85438733742462 0 0 0 0 0 0 0 0 0 0 0 0 0 0 0 0 0 0 0 0 0 0 0 0 -1.1157953951694 0 0 -1.33536664197679 0 0 -1.55028656983214 0 0
0 0 0 0 0 0 0 0 0 0 0 0.188218489065302 0 0 0 -0.180106030452641 -0.788491359160034 0 -0.397545281797035 0 0 0 0 0 0 0 0 0 0 0 -1.84664064080941 0 0 0 0 0 0 0 0 0 0 0 0 -0.109387950980184 0 0 0 0 0 0
0 0 0 0 0 0 0 0 0 0 0 0 0 0 0.382370854531391 0.158910259685358 -0.180106030452641 0 0 0 0 0 0 0 0 0 0 0 0 -1.54590236008491 0 0 0 0 0 0 0 0 0 0 0 0 -0.347366771925242 0 0 0 0 -0.470875571440321 0 0
0 0 0.101692155939629 0 0 0 0 0 0 0 0 0 0 0.260609676456169 0 0 0 -0.180106030452641 0 0 0 0 0 0 0 0 0 -1.90284971105425 0 0 0 0 -0.339574307549413 0 0 0 -0.402380931831943 -1.33988414196711 0 0 0 0 -0.646962761348298 0 0 0 0 0 0 0
0 0.129391774526603 0 0 0 0.0682390847204078 0 0 0 0 0 0 1.03905636419638 0 0 0.0740759446474767 0 0 -0.180106030452641 0 0 0 0 0 0 0 0 0 0 0 0 0 0 0 0 -0.531571708081787 0 0 0 0 0 0 0 0 0 0 0 0 0 0
0 0 0 0 0 0 0 0 0 0 0 0 0 0 0 0 0 0 0 -0.180106030452641 0 0 0 0 0 -2.24061051169686 0 0 0 0 0 -2.50675461377505 -1.34478151531957 0 -0.589426789853249 -1.94547836847529 0 -0.482925913099837 0 0 0 0 0 0 0 0 0 0 0 0
0.716212489621241 0 0 0 0 0 0 0 0 0 0 0 0 0 0 0 0 0 0 0 -0.180106030452641 0 0 0 0 -1.22432932596873 0 0 0 -0.536852112408034 0 0 0 0 0 0 0 0 0 0 0 -0.105166626094224 0 0 0 0 0 0 0 0
0.32550886272655 0 0.159435603464881 0 0 0 0 0 0 0 0 0 0 0 0 0 0 0 0 0 0 -0.180106030452641 0 0 0 0 0 0 0 0 0 0 0 0 0 0 0 0 0 0 0 0 0 0 0 0 0 0 0 0
0 0 0 0.293925315342998 0 0 0 0 0 0 0 0 0 0 0 0 0 0 0 0 0 0 -0.180106030452641 0 0 0 0 0 0 0 0 -3.04205568015784 0 0 -0.234163185768238 0 0 0 0 0 0 0 0 0 0 0 0 -2.56190276614813 0 0
0 0 0 0 0 0 0 0 0 0 0 0 0 0 0 0 0 0 0 0 0 0 0 -0.180106030452641 0 0 -0.484349272853503 0 0 0 0 0 0 0 0 0 0 0 0 0 0 0 0 0 0 0 0 0 0 0
0.392154186153686 0 0 0 0 0 0 0 0 0 0 0 0 0 0 0 0 0 0 0 0 0 0 0 -0.180106030452641 0 0 -0.67069495981681 0 -1.03355632216796 0 0 0 0 0 0 0 0 0 0 0 0 0 0 0 0 0 0 0 -11.8844891439616
0 0 0 0 0 0 0 0 0.440403040794134 0 0 0 0 0 0 0 0 0 0 0.440603065311308 0.268962928969375 0 0 0 0 -0.180106030452641 0 0 -0.281489349993553 0 0 0 0 0 0 0 0 0 0 0 0 0 -0.555307645225089 0 0 0 0 0 0 0
0 0 0 0 0 0.163643543187676 0 0 0 0 0 0 0.497010019857931 0 0 0 0 0 0 0 0 0 0 0.103126678642723 0 0 -0.180106030452641 0 0 0 0 0 0 -0.820010427674109 -1.31716746954186 0 0 0 0 -0.27387284203904 0 0 0 0 0 0 0 0 0 0
0 0.0701098762934592 0 0 0 0.0198021299200023 0 0 0 0 0 0 0 0 0 0 0 0.390695187589917 0 0 0 0 0 0 0.134237183291344 0 0 -0.180106030452641 0 -1.04513430546813 0 0 0 0 0 0 0 0 0 0 0 0 -0.572058192407898 0 0 0 0 0 0 0
0 0.248151770005883 0 0 0 0 0 0.219126999573166 0 0 0 0 0 0.087047701836567 0 0 0 0 0 0 0 0 0 0 0 0.0520015695874779 0 0 -0.180106030452641 0 0 0 0 0 0 0 0 0 0 0 -0.83841366909554 0 0 0 0 0 0 -1.47954821634478 0 0
0 0 0 0 0 0 0 0 0 0.839359798346312 0.48729598651655 0 0 0 0 0 0.287761923769019 0 0 0 0.111835167526881 0 0 0 0.206154488157529 0 0 0.193722449540874 0 -0.180106030452641 -0.92407590278388 0 0 0 0 0 0 0 0 0 0 0 0 0 0 0 0 0 0 0
0 0 0 0 0.127770073699634 0 0 0 0 0.363546755696275 0 0 0 0 0 0.350032466168353 0 0 0 0 0 0 0 0 0 0 0 0 0 0.189801160599644 -0.180106030452641 -0.944412101339582 0 0 0 0 0 0 0 0 0 0 0 0 -0.548479087969716 0 0 0 0 0
0.0896129928883498 0 0 0 0 0 0 0 0 0 0.300717455309555 0.0987746271544102 0 0.239977364978537 0 0 0 0 0 0.529030250733645 0 0 0.608800480093571 0 0 0 0 0 0 0 0.200469758660018 -0.180106030452641 0 0 0 0 0 0 0 0 0 0 0 0 0 0 0 0 0 0
0 0 0 0 0 0 0 0 0 0 0 0 0 0 0 0 0 0.069719761778195 0 0.266558170796136 0 0 0 0 0 0 0 0 0 0 0 0 -0.180106030452641 0 0 0 0 0 0 0 0 0 0 0 0 0 0 0 0 0
0 0 0 0 0.0350896889684114 0 0 0 0 0 0 0 0 0 0 0 0 0 0 0 0 0 0 0 0 0 0.147500504340063 0 0 0 0 0 0 -0.180106030452641 0 0 0 0 0 0 0 0 0 0 0 0 0 0 0 0
0 0 0 0 0 0.58932330596115 0 0 0 0 0.0578784864252988 0 0 0 0 0 0 0 0 0.120866138857982 0 0 0.0448013139818345 0 0 0 0.245377733618587 0 0 0 0 0 0 0 -0.180106030452641 0 -0.773610268983703 -2.32678544441766 -0.738053192396343 0 0 0 0 0 0 0 0 0 0 0
0 0 1.02202564083385 0 0 0 0 0 0 0 0 0 0 0 0 0 0 0 0.10523165819477 0.403804729943004 0 0 0 0 0 0 0 0 0 0 0 0 0 0 0 -0.180106030452641 -1.92689282968825 0 0 0 0 0 0 0 0 0 0 0 0 0
0 0 0 0 0 0 0 0 0 0 0 0 0 0 0 0 0 0.0797651592798671 0 0 0 0 0 0 0 0 0 0 0 0 0 0 0 0 0.153312314317915 0.390119632067484 -0.180106030452641 -0.197265574657494 0 0 0 0 0 0 0 0 0 0 0 0
0 0 0 0 0 0 0 0 0 0 0 0.140857673285001 0 0 0 0 0 0.275052157168847 0 0.0997086150624173 0 0 0 0 0 0 0 0 0 0 0 0 0 0 0.466243755654826 0 0.0405649175828844 -0.180106030452641 0 0 0 0 0 0 0 0 0 0 0 0
0 0 0 0 0 0 0.114453552075957 0 0 0 0 0 0.168559960158598 0 0 0 0 0 0 0 0 0 0 0 0 0 0 0 0 0 0 0 0 0 0.15123305740201 0 0 0 -0.180106030452641 0 0 0 0 0 0 0 0 0 0 0
0 0 0 0 0 0 0 0 0 0 0 0 0 0 0 0 0 0 0 0 0 0 0 0 0 0 0.0565298565858228 0 0 0 0 0 0 0 0 0 0 0 0 -0.180106030452641 0 0 0 0 0 0 0 0 0 -1.86422678324455
0 0 0 0 0 0 0 0 0.0743825476002066 0 0 0 0 0 0 0 0 0 0 0 0 0 0 0 0 0 0 0 0.160915306617332 0 0 0 0 0 0 0 0 0 0 0 -0.180106030452641 0 0 0 0 0 0 0 0 0
0 0 0 0 0 0 0 0 0 0 0 0.42469868061384 0 0 0.210908126129552 0 0 0 0 0 0.0205352352790942 0 0 0 0 0 0 0 0 0 0 0 0 0 0 0 0 0 0 0 0 -0.180106030452641 -0.264178580767854 0 0 0 0 0 0 0
0.303754852980245 0 0 0 0 0 0 0 0 0 0 0 0 0 0 0 0.0664299946478872 0.130104739985024 0 0 0 0 0 0 0 0.11102591549719 0 0.114928496969466 0 0 0 0 0 0 0 0 0 0 0 0 0 0.0519913903414044 -0.180106030452641 0 0 0 0 0 0 0
0 0 0 0 0 0 0 0 0.312099830266281 0.0773787725476537 0 0 0 0 0 0.0217616812124439 0 0 0 0 0 0 0 0 0 0 0 0 0 0 0 0 0 0 0 0 0 0 0 0 0 0 0 -0.180106030452641 0 0 0 0 0 0
0 0 0 0 0.536464674046931 0 0 0 0 0 0 0 0 0 0.255760114652129 0 0 0 0 0 0 0 0 0 0 0 0 0 0 0 0.115908995459566 0 0 0 0 0 0 0 0 0 0 0 0 0 -0.180106030452641 0 -1.48624418700887 0 0 0
0 0 0.170162260129827 0 0.108681743101654 0 0 0.136163580305721 0 0 0.228206285438551 0 0 0 0 0 0 0 0 0 0 0 0 0 0 0 0 0 0 0 0 0 0 0 0 0 0 0 0 0 0 0 0 0 0 -0.180106030452641 0 0 -1.14695643805971 0
0 0 0 0 0 0 0 0 0 0 0 0 0 0.34658334436321 0 0 0 0 0 0 0 0 0 0 0 0 0 0 0 0 0 0 0 0 0 0 0 0 0 0 0 0 0 0 0.286075487584602 0 -0.180106030452641 0 0 0
0 0 0 0 0 0 0 0 0 0 0.282085881095224 0 0 0 0.284805898819022 0 0.0970882770731798 0 0 0 0 0 0.566681294468221 0 0 0 0 0 0.31484537760231 0 0 0 0 0 0 0 0 0 0 0 0 0 0 0 0 0 0 -0.180106030452641 0 0
0 0 0 0 0.1383230139581 0.413295942397417 0 0 0 0 0 1.12916266753828 0 0 0 0 0 0 0 0 0 0 0 0 0 0 0 0 0 0 0 0 0 0 0 0 0 0 0 0 0 0 0 0 0 0.238783253817121 0 0 -0.180106030452641 0
0 0 0 0 0.316198768491451 0 0 0 0 0 0 0 0 0 0 0 0 0 0 0 0 0 0 0 2.42427152433743 0 0 0 0 0 0 0 0 0 0 0 0 0 0 0.368868429148583 0 0 0 0 0 0 0 0 0 -0.180106030452641
