-0.544244669782945 0 0 0 0 0 0 0 0 -1.09618890352986 0 0 0 0 0 0 0 -0.756500887828767 0 0 0 0 0 0 0 0 0 0 0 -0.810249714385859 0 0 0 0 0 0 0 -1.53265557853367 0 0 0 0 -1.29442025561645 0 0 0 0 0 0 0
0 -0.544244669782945 0 0 0 0 0 0 0 0 -0.476811153089779 0 0 0 0 0 0 0 -0.97262101142944 0 0 0 -0.209714449390787 0 0 0 0 0 0 0 -1.08641791918698 0 0 -1.3375716264958 0 0 0 0 0 0 0 0 0 -3.06719395410664 0 0 0 0 -0.578106335579623 0
0 0 -0.544244669782945 0 0 0 0 0 0 0 0 0 0 0 0 0 0 0 -12.3009603400165 0 0 0 0 0 0 0 0 0 0 0 0 0 0 -0.66909987772662 0 0 0 0 -1.09855374553977 0 0 0 0 0 0 -0.853685317651297 0 0 0 0
0 0 0 -0.544244669782945 0 -0.324827678678889 0 0 0 0 -1.0033296350308 0 0 0 0 0 0 0 0 0 0 0 0 0 0 -0.152856959668121 0 -0.294055106722504 0 0 -0.857071763519689 0 0 0 0 0 0 0 0 0 0 0 0 0 0 0 0 0 0 0
0 0 0 0 -0.544244669782945 0 0 0 0 0 -0.789431627772568 0 0 0 0 0 0 0 0 0 -0.457545163153192 0 0 0 0 0 0 0 0 0 0 0 -10.979895888109 0 0 -2.73557304665613 0 0 0 0 0 0 0 0 0 0 0 0 0 -0.335912799972405
0 0 0 0.0652817376759655 0 -0.544244669782945 0 -0.493658051803249 0 0 0 0 0 0 0 0 -0.899367907819281 0 0 0 0 0 0 0 0 0 0 0 0 0 0 -0.592861469589792 0 0 -1.47870601912542 0 0 0 0 0 0 0 -0.394000884069086 0 0 0 -0.231742088419864 -0.167554338654924 0 0
0 0 0 0 0 0 -0.544244669782945 0 0 0 0 -2.52956271537167 -2.95611337431833 -1.63907887418196 0 -1.36731792988761 0 -4.47555879240589 0 0 0 0 0 0 0 0 -0.400221827057324 -2.3708338191252 0 0 0 0 0 0 0 0 0 -0.443531553874173 0 0 0 0 0 0 0 0 0 0 0 0
0 0 0 0 0 0.0973043175406816 0 -0.544244669782945 0 0 0 0 0 0 0 -0.911692704913438 0 0 0 0 0 0 0 0 0 -4.8836119028102 0 0 0 0 0 0 0 0 0 0 0 0 0 0 0 0 0 0 0 0 0 -5.21071522473355 0 0
0 0 0 0 0 0 0 0 -0.544244669782945 0 -0.285401862517083 0 0 0 0 0 -2.64083299599574 0 0 0 0 0 0 0 -0.679183792169767 0 0 0 0 0 0 0 0 0 -0.423210174251643 0 0 0 0 0 0 0 0 0 0 0 -7.09038991437706 0 0 0
0.208010654331193 0 0 0 0 0 0 0 0 -0.544244669782945 0 0 0 0 0 0 -0.583683018130941 0 0 0 0 0 -1.04121942628007 0 0 0 0 0 0 0 0 0 0 0 0 -1.3272182889388 0 0 0 0 0 0 0 0 0 0 0 0 0 0
0 0.0927130913640877 0 0.208083033212692 0.155735366603834 0 0 0 0.0600987594958883 0 -0.544244669782945 0 0 -1.38420649439917 0 0 0 0 0 0 0 0 0 0 0 0 0 0 0 -0.386252651992382 0 0 -1.56012106763114 0 0 0 0 0 0 0 0 0 0 0 0 0 0 0 0 0
0 0 0 0 0 0 0.494238716445191 0 0 0 0 -0.544244669782945 0 0 0 0 0 0 0 -4.76445964114286 0 0 0 0 0 0 0 -0.700293476132562 0 0 0 0 -1.28985346279988 -0.6530688499096 0 0 0 0 0 0 0 0 0 0 0 0 0 0 0 0
0 0 0 0 0 0 0.581643284247441 0 0 0 0 0 -0.544244669782945 -0.995440896786707 0 0 0 0 0 0 0 0 0 -0.501074884024473 0 0 0 0 0 0 0 0 -0.672730142774597 0 0 -0.72745678921415 0 0 -0.369238868142439 0 0 0 0 0 -0.452979145796343 0 -0.259867818848178 0 0 -0.478515177109288
0 0 0 0 0 0 0.334914064215989 0 0 0 0.266544685326254 0 0.200288311993573 -0.544244669782945 0 0 0 0 0 0 0 0 0 0 0 0 0 0 -0.10959480050048 0 -1.65368606820015 0 0 0 0 0 0 0 0 0 0 -0.498485922318036 0 -0.961603842032914 -0.176783278242559 0 0 0 0 0
0 0 0 0 0 0 0 0 0 0 0 0 0 0 -0.544244669782945 0 0 0 0 0 0 0 0 0 0 0 0 0 0 0 0 0 0 0 0 0 0 0 -1.8042402670239 0 -0.574881483908909 -0.52391737948999 -0.450294387474861 0 0 0 0 0 0 0
0 0 0 0 0 0 0.267738855961354 0.182594814882807 0 0 0 0 0 0 0 -0.544244669782945 0 0 0 0 0 -2.27705933850225 0 0 0 0 0 0 0 0 0 0 0 0 0 0 0 -0.682462916450353 0 0 0 0 0 0 0 -2.00429845760403 0 0 0 0
0 0 0 0 0 0.186077398275165 0 0 0.511949326267596 0.109162521393533 0 0 0 0 0 0 -0.544244669782945 0 0 0 0 0 0 0 0 0 -0.591081322234321 0 0 0 0 -2.01930192216943 0 0 0 0 0 0 0 0 0 0 0 0 0 0 0 0 0 0
0.148606253963097 0 0 0 0 0 0.912738850119305 0 0 0 0 0 0 0 0 0 0 -0.544244669782945 0 0 0 -0.579085859345471 0 0 0 0 0 0 0 0 0 0 0 0 0 0 0 0 0 0 0 -4.92619335972435 0 -0.522311172519007 0 0 0 0 0 0
0 0.195129968440072 2.42826095624954 0 0 0 0 0 0 0 0 0 0 0 0 0 0 0 -0.544244669782945 0 0 0 0 0 0 0 0 0 0 0 0 0 0 -7.4773802125675 0 0 0 0 0 0 0 0 0 0 -0.818866504174665 0 0 0 0 0
0 0 0 0 0 0 0 0 0 0 0 0.986816460826678 0 0 0 0 0 0 0 -0.544244669782945 0 0 0 0 0 0 0 0 0 0 0 0 0 0 0 0 0 0 0 0 0 0 0 0 0 0 0 0 0 0
0 0 0 0 0.0910140509019133 0 0 0 0 0 0 0 0 0 0 0 0 0 0 0 -0.544244669782945 0 0 0 0 0 0 0 0 0 0 0 0 0 0 0 0 0 0 -2.58258863915178 0 -0.905958624387817 0 0 0 -6.33818609905694 0 0 0 0
0 0 0 0 0 0 0 0 0 0 0 0 0 0 0 0.474846909092707 0 0.124368691438312 0 0 0 -0.544244669782945 -1.47268661632692 0 0 0 -2.57423630738449 0 -0.331659524126981 0 0 0 0 0 0 0 -0.81315658483401 0 0 0 0 0 -0.238036341673809 0 0 0 0 0 0 0
0 0.0429847926894721 0 0 0 0 0 0 0 0.217885358638821 0 0 0 0 0 0 0 0 0 0 0 0.294159023605611 -0.544244669782945 0 0 0 0 -0.204124848482966 0 0 0 0 0 0 0 0 0 0 0 0 0 0 0 0 0 0 0 0 0 0
0 0 0 0 0 0 0 0 0 0 0 0 0.10886621527909 0 0 0 0 0 0 0 0 0 0 -0.544244669782945 0 0 0 0 0 -1.43224656211297 0 0 0 -3.56503768293555 0 0 0 0 0 0 0 0 0 0 0 -0.830856408300689 0 0 0 0
0 0 0 0 0 0 0 0 0.134995118336921 0 0 0 0 0 0 0 0 0 0 0 0 0 0 0 -0.544244669782945 0 0 0 0 0 0 0 0 -1.74655449151051 0 0 0 0 0 0 0 0 0 0 0 0 0 0 0 0
0 0 0 0.032228512894902 0 0 0 0.98624715200085 0 0 0 0 0 0 0 0 0 0 0 0 0 0 0 0 0 -0.544244669782945 0 0 -3.93219370570551 0 0 0 0 0 0 0 0 0 0 0 0 0 0 0 0 -0.838656384409099 0 0 0 0
0 0 0 0 0 0 0.074403019988626 0 0 0 0 0 0 0 0 0 0.115636558227443 0 0 0 0 0.468092918257037 0 0 0 0 -0.544244669782945 0 0 -1.99444501442016 0 0 0 0 0 0 0 0 0 0 0 0 0 0 0 0 0 -2.40402505885704 0 0
0 0 0 0.0559213382702715 0 0 0.480002634194334 0 0 0 0 0.130989413020685 0 0 0 0 0 0 0 0 0 0 0.0395585838053938 0 0 0 0 -0.544244669782945 0 0 0 -0.819372050112233 0 0 -0.41964869895841 0 0 0 0 0 0 0 0 0 0 0 0 0 0 0
0 0 0 0 0 0 0 0 0 0 0 0 0 0.0203743878902542 0 0 0 0 0 0 0 0.0660802709658864 0 0 0 0.771057811224551 0 0 -0.544244669782945 0 0 0 0 0 0 0 0 0 0 0 0 0 0 0 0 0 -0.530825180556484 0 0 0
0.156239255051379 0 0 0 0 0 0 0 0 0 0.0760668624151928 0 0 0 0 0 0 0 0 0 0 0 0 0.296681622213839 0 0 0.384811364076266 0 0 -0.544244669782945 0 0 0 0 0 0 0 0 0 -1.56628457970525 0 0 0 -2.71587706600091 0 0 0 -2.5548820786647 0 0
0 0.211172213491437 0 0.17906584964887 0 0 0 0 0 0 0 0 0 0.345753656584227 0 0 0 0 0 0 0 0 0 0 0 0 0 0 0 0 -0.544244669782945 0 0 0 0 0 0 0 0 0 0 0 0 0 0 -0.423959386085312 0 0 0 0
0 0 0 0 0 0.119753637514363 0 0 0 0 0 0 0 0 0 0 0.411798422630522 0 0 0 0 0 0 0 0 0 0 0.165353611036384 0 0 0 -0.544244669782945 0 0 0 0 0 0 0 0 0 0 0 0 -0.241606457938103 -0.62762422479706 0 0 -1.03805799310899 0
0 0 0 0 2.16356079137472 0 0 0 0 0 0.336502159769194 0.260754334808287 0.14376635040099 0 0 0 0 0 0 0 0 0 0 0 0 0 0 0 0 0 0 0 -0.544244669782945 0 0 0 0 0 0 -0.885467834674949 0 0 -1.33547569507881 0 0 0 0 0 0 -0.715191855059598
0 0.245056181388229 0.127317322090926 0 0 0 0 0 0 0 0 0.132931212507596 0 0 0 0 0 0 1.44926585453968 0 0 0 0 0.673460154340253 0.368110261389516 0 0 0 0 0 0 0 0 -0.544244669782945 0 0 0 0 0 -4.00986262401814 0 0 0 0 0 -0.832841799282747 0 0 0 0
0 0 0 0 0 0.309197783467312 0 0 0.0905376914304924 0 0 0 0 0 0 0 0 0 0 0 0 0 0 0 0 0 0 0.0811978611586023 0 0 0 0 0 0 -0.544244669782945 0 -0.295377592308714 0 0 0 0 0 -0.742274167457098 0 0 0 0 0 0 0
0 0 0 0 0.531965813055929 0 0 0 0 0.273310069753929 0 0 0.138663230118258 0 0 0 0 0 0 0 0 0 0 0 0 0 0 0 0 0 0 0 0 0 0 -0.544244669782945 0 0 0 0 0 0 0 0 0 0 0 0 0 0
0 0 0 0 0 0 0 0 0 0 0 0 0 0 0 0 0 0 0 0 0 0.167043962870002 0 0 0 0 0 0 0 0 0 0 0 0 0.0591682818025476 0 -0.544244669782945 0 0 0 0 0 0 0 0 0 0 0 0 0
0.306594954622892 0 0 0 0 0 0.0793302325798971 0 0 0 0 0 0 0 0 0.131253741045779 0 0 0 0 0 0 0 0 0 0 0 0 0 0 0 0 0 0 0 0 0 -0.544244669782945 0 -1.75751470947519 0 0 0 -1.04703984276341 0 0 0 0 0 0
0 0 0.227725414028683 0 0 0 0 0 0 0 0 0 0.073186607813295 0 0.356889494882886 0 0 0 0 0 0 0 0 0 0 0 0 0 0 0 0 0 0 0 0 0 0 0 -0.544244669782945 0 0 -1.59295170349377 0 0 0 0 0 -0.076421671796271 0 0
0 0 0 0 0 0 0 0 0 0 0 0 0 0 0 0 0 0 0 0 0.506418061429214 0 0 0 0 0 0 0 0 0.322912262216949 0 0 0.185761433334031 0.827528708688283 0 0 0 0.357395434475754 0 -0.544244669782945 0 0 0 -2.98593218534626 0 0 0 -0.162992879069269 0 -0.729331349503347
0 0 0 0 0 0 0 0 0 0 0 0 0 0 0.112932629512717 0 0 0 0 0 0 0 0 0 0 0 0 0 0 0 0 0 0 0 0 0 0 0 0 0 -0.544244669782945 0 0 0 0 0 0 0 0 0
0 0 0 0 0 0 0 0 0 0 0 0 0 0.096411772176772 0.0955773392234386 0 0 1.02189649658823 0 0 0.178625219926361 0 0 0 0 0 0 0 0 0 0 0 0 0 0 0 0 0 0.295246015243843 0 0 -0.544244669782945 -0.444532627445436 0 0 0 0 0 0 0
0.238083206558506 0 0 0 0 0.0797179893555838 0 0 0 0 0 0 0 0 0.0865195445677827 0 0 0 0 0 0 0.044249761851191 0 0 0 0 0 0 0 0 0 0 0.269032797199664 0 0.147747133805727 0 0 0 0 0 0 0.0868106740656003 -0.544244669782945 0 0 0 -2.2762005476182 0 0 0
0 0.6208632121051 0 0 0 0 0 0 0 0 0 0 0 0.199840084962662 0 0 0 0.0981043730364104 0 0 0 0 0 0 0 0 0 0 0 0.554893358330085 0 0 0 0 0 0 0 0.220114599113318 0 0.619672694219858 0 0 0 -0.544244669782945 0 0 0 0 0 0
0 0 0 0 0 0 0 0 0 0 0 0 0.0926468401125789 0.0331163946273473 0 0 0 0 0.178370778390204 0 0 0 0 0 0 0 0 0 0 0 0 0.0445682679714344 0 0 0 0 0 0 0 0 0 0 0 0 -0.544244669782945 0 0 0 0 0
0 0 0.168060606357513 0 0 0 0 0 0 0 0 0 0 0 0 0.412554413748944 0 0 0 0 1.41844694105987 0 0 0.167289918091719 0 0.165977078680741 0 0 0 0 0.0845479749588132 0.117180348005089 0 0.166826052771414 0 0 0 0 0 0 0 0 0 0 0 -0.544244669782945 0 0 -3.02883934852847 0
0 0 0 0 0 0.04355700237659 0 0 1.4480277764865 0 0 0 0.0537551915854116 0 0 0 0 0 0 0 0 0 0 0 0 0 0 0 0.107239221381721 0 0 0 0 0 0 0 0 0 0 0 0 0 0.446488708423341 0 0 0 -0.544244669782945 0 0 0
0 0 0 0 0 0.0336706831331249 0 1.05805318089288 0 0 0 0 0 0 0 0 0 0 0 0 0 0 0 0 0 0 0.46592264855837 0 0 0.503932144952553 0 0 0 0 0 0 0 0 0.0151324669802427 0.0298946356478689 0 0 0 0 0 0 0 -0.544244669782945 0 0
0 0.125580563653479 0 0 0 0 0 0 0 0 0 0 0 0 0 0 0 0 0 0 0 0 0 0 0 0 0 0 0 0 0 0.206941802315194 0 0 0 0 0 0 0 0 0 0 0 0 0 0.574584954345158 0 0 -0.544244669782945 -0.450932618507761
0 0 0 0 0.0667274214711893 0 0 0 0 0 0 0 0.0978304525903925 0 0 0 0 0 0 0 0 0 0 0 0 0 0 0 0 0 0 0 0.133988667708602 0 0 0 0 0 0 0.14297659114277 0 0 0 0 0 0 0 0 0.0941515352758011 -0.544244669782945
