1.25329924997767
0.914502169600746
2.13018164757968
1.09400873937128
0.420204775497632
0.934845189813421
2.0726265059178
7.26768310199899
4.05270175208029
0.682122522952522
1.60490891003671
0.773463113864677
1.41189354374491
0.866731454828951
1.62331388148785
0.877245289162761
3.57331987546291
0.11472552457999
0.69057089497053
0.756358112561307
0.527434329872102
3.8469792091652
0.267239993054501
2.56708351540696
0.143818131376826
0.229335205280059
0.187373335220758
0.769558633042495
1.01709086101268
0.898562224152018
0.545253232645817
1.42721546288851
0.329702314676217
1.42735693949111
1.88341154057631
0.648104499020192
2.7402984637481
1.46114075985181
2.08409414747879
1.13758495861555
3.8404975533679
0.697111937688206
0.355835292709864
1.81090821890891
1.526331746612
0.664089896299164
3.91705054514692
0.498429316538639
2.43488174212158
1.99228423232471
