3.45729814227718
1.01661129628806
0.945763183114585
0.166126740624802
2.64693607420445
3.960556461742
0.519756134515929
0.291068460967701
1.20398559827046
0.614809122204287
5.63066253950519
3.7629089149394
2.71285954265831
0.374547853552028
0.872688171357268
8.10210307302858
0.881475702179676
0.255155322480952
1.40331522203513
1.77608099348789
0.520151314344129
2.5402172853544
0.529913299301016
1.40532866146238
3.51833908310237
0.372164913765143
0.411903288899192
0.188657022431661
12.174447529821
0.888598997371027
0.0911321307379635
4.2058930086402
0.206403329240339
0.116034095085377
1.31173942827405
0.662409445995953
0.906822070645633
2.20771263904907
0.943439115460673
2.80254485058421
2.88121636538293
0.58551294872196
1.963973154221
1.03006411837715
0.242624026116917
5.69776737682441
0.68249048699161
1.13447579806741
1.00735424448568
0.320168017562934
