-0.293266978089125 0 0 0 0 0 0 0 0 0 0 0 0 0 0 0 0 -0.638706976360475 0 0 -7.46330722377763 0 0 0 0 0 0 -0.738610476403413 0 0 0 0 -0.853515259359132 0 0 0 0 0 0 0 0 0 0 0 0 0 0 0 0 0
0 -0.293266978089125 0 0 0 0 0 0 0 0 0 0 0 0 0 0 0 0 0 0 0 0 -7.31335922966848 0 0 0 0 0 0 0 0 0 0 0 0 0 0 0 0 0 -6.55178484347064 0 0 0 0 0 0 0 0 0
0 0 -0.293266978089125 0 0 0 -0.71009957705415 0 0 0 0 0 0 0 0 0 0 0 0 0 0 0 0 0 0 0 0 0 0 0 0 0 0 0 0 0 0 0 0 0 0 0 0 0 0 0 0 0 0 0
0 0 0 -0.293266978089125 0 0 0 0 0 0 0 0 0 -3.53523133656471 0 0 0 0 0 0 0 0 0 0 0 -0.0803160836105124 0 0 0 0 0 0 0 0 -2.08221005223007 0 -0.660867805909945 0 0 0 0 0 0 0 0 0 0 0 0 0
0 0 0 0 -0.293266978089125 0 0 0 0 0 0 0 -3.9864845384552 0 0 0 0 0 0 0 -1.35376973963323 0 0 0 0 0 0 0 0 0 0 -0.289975845203974 0 -0.0581541003690456 0 0 0 0 0 0 0 0 0 0 0 0 0 0 0 -0.577328875026279
0 0 0 0 0 -0.293266978089125 0 0 0 0 -2.22292227048676 0 0 0 0 0 0 0 0 0 0 0 0 0 0 0 0 0 -0.329835589462241 0 0 0 -0.439848715030455 0 0 0 0 0 0 0 0 0 0 0 0 0 0 0 0 0
0 0 0.145291588653051 0 0 0 -0.293266978089125 0 0 0 0 -7.45898613193155 0 0 0 -1.66114608533281 0 0 0 0 0 -3.61538297818614 0 0 0 0 0 0 0 0 0 0 0 -2.6931641238747 0 0 0 0 0 -1.83891382764471 0 0 0 0 0 0 0 0 0 0
0 0 0 0 0 0 0 -0.293266978089125 0 0 0 -2.8190052041942 0 0 -0.235569750292322 0 0 0 0 0 0 0 0 0 0 0 0 0 0 0 0 0 0 0 0 0 0 0 0 -1.41847413466011 0 0 0 0 0 -0.960841874419675 0 0 0 -0.605702024097155
0 0 0 0 0 0 0 0 -0.293266978089125 0 0 0 0 0 0 0 0 0 0 0 0 0 0 0 0 0 0 -1.04437620977055 0 0 0 0 0 0 0 0 0 -0.582476695106138 0 0 0 0 0 0 0 0 -1.03956475446089 0 0 -1.95665435916264
0 0 0 0 0 0 0 0 0 -0.293266978089125 0 0 0 -4.28762085420951 0 0 0 0 0 0 0 0 0 0 0 0 0 0 0 0 0 0 0 0 -9.28604347233463 0 0 0 0 0 0 0 0 -0.391484947548191 0 0 0 0 0 0
0 0 0 0 0 0.435725585575875 0 0 0 0 -0.293266978089125 0 0 0 0 0 -2.19059249454334 0 0 0 0 0 0 0 0 0 0 0 0 0 0 0 0 0 0 0 -2.97799138307877 0 -0.444359922453458 0 0 0 0 0 0 0 0 0 0 0
0 0 0 0 0 0 1.51569287121922 0.513740694466644 0 0 0 -0.293266978089125 -2.01810408837192 -0.422255438348143 0 0 0 0 0 0 0 0 0 0 0 0 -0.936971761234824 0 -0.294329023727129 -5.2624737054246 0 0 0 0 0 0 0 0 0 -1.43316999271162 0 -0.225533651087723 0 0 0 0 0 0 0 0
0 0 0 0 0.787438007958415 0 0 0 0 0 0 0.417511157406991 -0.293266978089125 0 0 -0.459647562843236 0 -0.201976002787767 0 0 -0.72310009048685 0 0 0 0 0 0 -0.287813690702305 0 -3.5406587705641 0 0 0 0 0 0 0 0 0 0 0 0 0 0 0 0 0 0 -0.341187171452603 0
0 0 0 0.678452749650778 0 0 0 0 0 0.857512537496191 0 0.0868982227235211 0 -0.293266978089125 0 0 0 0 0 -1.29799754116046 0 0 0 0 0 0 0 -1.26826678442603 0 0 0 0 0 0 0 0 0 0 0 0 0 0 0 0 0 0 0 0 0 0
0 0 0 0 0 0 0 0.0469333142854442 0 0 0 0 0 0 -0.293266978089125 0 0 0 0 0 0 0 0 -1.24510031230454 0 0 -1.08184416773263 -0.902443886203896 0 0 0 -0.797344695442276 -1.26933107483395 0 0 0 0 0 0 -1.61020191723859 0 0 0 0 0 0 0 0 0 0
0 0 0 0 0 0 0.353050406582119 0 0 0 0 0 0.0988912534217264 0 0 -0.293266978089125 0 0 0 0 0 0 0 0 0 -0.6365059875677 -1.76835490808996 0 0 0 -2.54713490623744 0 -1.78570929435178 0 0 0 0 0 0 0 0 0 0 0 0 0 0 0 0 -0.887229343413985
0 0 0 0 0 0 0 0 0 0 0.467027310302161 0 0 0 0 0 -0.293266978089125 0 0 0 -3.73685607754098 0 0 0 0 0 0 0 0 -5.0439548372568 0 0 0 0 0 -0.798392415818479 0 0 0 0 0 0 0 0 0 0 0 0 0 0
0.125159225169437 0 0 0 0 0 0 0 0 0 0 0 0.0433191372037162 0 0 0 0 -0.293266978089125 0 0 0 0 0 0 0 0 0 0 0 0 0 0 0 0 0 0 0 0 0 0 0 0 0 0 0 0 -4.44563261072306 0 0 0
0 0 0 0 0 0 0 0 0 0 0 0 0 0 0 0 0 0 -0.293266978089125 0 0 0 -0.259051817042224 0 0 0 0 0 0 0 0 -1.44474915113963 0 0 0 0 -0.726337496664445 -7.57863271346412 0 0 0 0 0 0 0 0 0 0 0 0
0 0 0 0 0 0 0 0 0 0 0 0 0 0.27761617996026 0 0 0 0 0 -0.293266978089125 0 0 -1.22275743641021 0 0 0 0 0 0 0 0 -2.01502561290104 0 0 0 0 0 0 0 0 0 0 0 0 0 0 0 0 0 0
1.40668688897381 0 0 0 0.295003738742792 0 0 0 0 0 0 0 0.15024486350484 0 0 0 0.711650530121802 0 0 0 -0.293266978089125 0 0 0 0 0 0 0 0 0 0 0 0 0 0 0 -0.869570467928922 0 0 0 0 -0.721883533269288 0 0 0 0 0 0 0 0
0 0 0 0 0 0 0.724510819172648 0 0 0 0 0 0 0 0 0 0 0 0 0 0 -0.293266978089125 -2.11312711289311 0 0 0 0 0 0 0 0 0 0 0 0 0 0 0 0 0 0 0 -1.61473160086656 0 0 0 0 0 0 0
0 1.58956430349681 0 0 0 0 0 0 0 0 0 0 0 0 0 0 0 0 0.0529365501383756 0.231025115798165 0 0.401295662129421 -0.293266978089125 0 0 0 0 0 0 0 0 0 0 0 0 0 0 0 -4.21118164428579 0 0 0 0 0 -1.02742933718757 0 0 0 0 -0.204854233999908
0 0 0 0 0 0 0 0 0 0 0 0 0 0 0.248417596405652 0 0 0 0 0 0 0 0 -0.293266978089125 -1.53533151374537 0 0 0 0 0 0 -0.686971814982646 0 0 -0.712601159095552 0 0 -1.50020048368989 0 0 0 0 0 0 0 0 0 0 0 0
0 0 0 0 0 0 0 0 0 0 0 0 0 0 0 0 0 0 0 0 0 0 0 0.293671650847162 -0.293266978089125 -4.84256270420498 0 0 0 0 0 0 0 0 0 0 -0.379301499862909 -1.04002612078948 0 0 0 -0.216615046051447 0 0 0 0 0 0 0 0
0 0 0 0.0157574752713536 0 0 0 0 0 0 0 0 0 0 0 0.125854962762293 0 0 0 0 0 0 0 0 1.00911192445453 -0.293266978089125 0 0 0 0 0 0 0 0 0 0 0 0 0 0 0 0 0 -0.908422161663805 0 0 0 0 0 0
0 0 0 0 0 0 0 0 0 0 0 0.189827332866073 0 0 0.229850813058955 0.341130740990057 0 0 0 0 0 0 0 0 0 0 -0.293266978089125 0 -0.441939997705512 0 0 -0.29771818451459 0 0 0 0 0 0 0 0 0 0 0 -0.121845680425987 0 0 0 0 0 -1.55264000636512
0.132466826345032 0 0 0 0 0 0 0 0.20947508668856 0 0 0 0.0535648555929746 0.262184440896858 0.185775302057916 0 0 0 0 0 0 0 0 0 0 0 0 -0.293266978089125 0 0 0 0 -1.59033558399611 0 0 0 0 0 0 0 0 0 0 0 0 -0.145875239161977 0 0 0 0
0 0 0 0 0 0.0671155357890643 0 0 0 0 0 0.0561745575978969 0 0 0 0 0 0 0 0 0 0 0 0 0 0 0.0950980209232847 0 -0.293266978089125 0 0 0 0 0 0 0 0 0 0 0 0 0 0 0 0 0 0 0 -0.65985540280801 0
0 0 0 0 0 0 0 0 0 0 0 1.05493576933493 0.735377573907325 0 0 0 0.97785300044931 0 0 0 0 0 0 0 0 0 0 0 0 -0.293266978089125 -1.33064627442256 0 0 0 0 0 0 0 0 0 0 0 0 0 0 0 -0.400248549580541 0 0 0
0 0 0 0 0 0 0 0 0 0 0 0 0 0 0 0.490007763924312 0 0 0 0 0 0 0 0 0 0 0 0 0 0.267644159673865 -0.293266978089125 0 0 0 0 0 -1.00918651284493 0 0 0 0 0 0 0 0 0 0 0 0 0
0 0 0 0 0.0597153517158893 0 0 0 0 0 0 0 0 0 0.154390216440357 0 0 0 0.312346058114756 0.42062391939094 0 0 0 0.15298098941841 0 0 0.0577373622121377 0 0 0 0 -0.293266978089125 0 0 0 0 0 0 0 -1.28100170160933 0 0 0 0 0 0 0 -0.795335125927356 0 0
0.157505385396839 0 0 0 0 0.0918641332242651 0 0 0 0 0 0 0 0 0.261881753750302 0.347575128881945 0 0 0 0 0 0 0 0 0 0 0 0.325628440122363 0 0 0 0 -0.293266978089125 0 0 0 -1.03929843166589 0 0 0 0 0 0 0 0 -1.1259826850834 0 0 0 0
0 0 0 0 0.0111675458586231 0 0.540241459198716 0 0 0 0 0 0 0 0 0 0 0 0 0 0 0 0 0 0 0 0 0 0 0 0 0 0 -0.293266978089125 0 -0.719732784828624 0 0 0 -1.1457082853545 0 0 0 0 0 0 0 0 0 0
0 0 0 0.412461343610848 0 0 0 0 0 1.73431641634194 0 0 0 0 0 0 0 0 0 0 0 0 0 0.146513513431428 0 0 0 0 0 0 0 0 0 0 -0.293266978089125 0 0 -1.73530408289018 0 0 0 0 0 0 0 0 0 0 0 0
0 0 0 0 0 0 0 0 0 0 0 0 0 0 0 0 0.1551409018846 0 0 0 0 0 0 0 0 0 0 0 0 0 0 0 0 0.146104897634936 0 -0.293266978089125 0 0 0 0 0 0 -0.467474452116429 0 0 0 0 0 0 0
0 0 0 0.137183540619144 0 0 0 0 0 0 0.569519759078104 0 0 0 0 0 0 0 0.143896493677923 0 0.184199813025502 0 0 0 0.0759577897717474 0 0 0 0 0 0.219691223214752 0 0.209615691952561 0 0 0 -0.293266978089125 0 0 0 -4.36423688293446 0 0 0 0 0 0 0 0 0
0 0 0 0 0 0 0 0 0.109462481129245 0 0 0 0 0 0 0 0 0 1.43725532894025 0 0 0 0 0.313290556361774 0.211589041576368 0 0 0 0 0 0 0 0 0 0.351179580229673 0 0 -0.293266978089125 0 -0.201094061970601 0 0 0 0 0 0 0 0 0 0
0 0 0 0 0 0 0 0 0 0 0.0894557248881905 0 0 0 0 0 0 0 0 0 0 0 0.803571825548691 0 0 0 0 0 0 0 0 0 0 0 0 0 0 0 -0.293266978089125 0 0 -1.33375183956217 0 0 0 0 0 0 0 0
0 0 0 0 0 0 0.363309431447178 0.304855473929487 0 0 0 0.26259814789016 0 0 0.325740795199037 0 0 0 0 0 0 0 0 0 0 0 0 0 0 0 0 0.243643895550504 0 0.236422824908713 0 0 0 0.0418394191201643 0 -0.293266978089125 0 0 0 0 0 0 0 0 0 -1.47018271521391
0 1.31168008298882 0 0 0 0 0 0 0 0 0 0 0 0 0 0 0 0 0 0 0 0 0 0 0 0 0 0 0 0 0 0 0 0 0 0 0.816693327054552 0 0 0 -0.293266978089125 0 0 0 0 -10.880716969701 0 0 0 0
0 0 0 0 0 0 0 0 0 0 0 0.0440334595469944 0 0 0 0 0 0 0 0 0.15123895115486 0 0 0 0.0450009894861242 0 0 0 0 0 0 0 0 0 0 0 0 0 0.26571824687399 0 0 -0.293266978089125 0 0 0 0 0 0 0 0
0 0 0 0 0 0 0 0 0 0 0 0 0 0 0 0 0 0 0 0 0 0.321657326176304 0 0 0 0 0 0 0 0 0 0 0 0 0 0.0988000503109667 0 0 0 0 0 0 -0.293266978089125 0 -4.30455520451402 0 0 0 0 0
0 0 0 0 0 0 0 0 0 0.0790097043295953 0 0 0 0 0 0 0 0 0 0 0 0 0 0 0 0.190771499430438 0.0245039978464708 0 0 0 0 0 0 0 0 0 0 0 0 0 0 0 0 -0.293266978089125 0 0 0 0 0 0
0 0 0 0 0 0 0 0 0 0 0 0 0 0 0 0 0 0 0 0 0 0 0.205848273452831 0 0 0 0 0 0 0 0 0 0 0 0 0 0 0 0 0 0 0 0.846301005350429 0 -0.293266978089125 0 0 0 0 0
0 0 0 0 0 0 0 0.203289832898308 0 0 0 0 0 0 0 0 0 0 0 0 0 0 0 0 0 0 0 0.0289115706995215 0 0 0 0 0.216533703974678 0 0 0 0 0 0 0 2.17748221281623 0 0 0 0 -0.293266978089125 0 -3.1758406470159 0 0
0 0 0 0 0 0 0 0 0.200935378061888 0 0 0 0 0 0 0 0 0.896705823242723 0 0 0 0 0 0 0 0 0 0 0 0.0804868118307966 0 0 0 0 0 0 0 0 0 0 0 0 0 0 0 0 -0.293266978089125 0 0 0
0 0 0 0 0 0 0 0 0 0 0 0 0 0 0 0 0 0 0 0 0 0 0 0 0 0 0 0 0 0 0 0.160472287429 0 0 0 0 0 0 0 0 0 0 0 0 0 0.614328330012691 0 -0.293266978089125 0 0
0 0 0 0 0 0 0 0 0 0 0 0 0.0684533826390192 0 0 0 0 0 0 0 0 0 0 0 0 0 0 0 0.141785884797522 0 0 0 0 0 0 0 0 0 0 0 0 0 0 0 0 0 0 0 -0.293266978089125 0
0 0 0 0 0.11464605698473 0 0 0.135210676573475 0.385690387221819 0 0 0 0 0 0 0.179177745840341 0 0 0 0 0 0 0.0427564666234832 0 0 0 0.293448052556392 0 0 0 0 0 0 0 0 0 0 0 0 0.281984337896824 0 0 0 0 0 0 0 0 0 -0.293266978089125
