-0.318652602137404 -3.768731079822 -0.538502737729752 0 0 0 0 0 0 -1.58214452174307 0 0 0 0 0 0 0 0 0 0 0 0 0 0 0 0 0 0 0 0 -1.89734018744443 0 0 0 0 0 0 0 0 0 0 0 -0.970340088564121 0 0 0 0 0 0 0
0.826835732818013 -0.318652602137404 0 0 0 -0.43314014202726 0 0 0 -0.280722303181996 0 0 0 0 0 0 0 0 0 -0.559580216212313 0 0 0 0 -0.965853270939308 0 0 0 0 0 0 0 0 0 -0.54574919426116 -0.667387722706377 0 0 0 -0.71338020242671 0 0 -1.17547100782438 0 0 0 0 0 0 0
0.107217453034349 0 -0.318652602137404 0 0 0 0 0 0 0 0 0 -3.16946932071838 0 0 0 0 0 0 0 0 0 0 0 0 0 0 0 0 0 0 0 -1.54323952127718 0 0 0 0 0 0 0 0 0 0 0 0 0 0 0 0 0
0 0 0 -0.318652602137404 0 0 0 0 0 0 0 0 0 0 -0.353355037271956 0 0 0 0 -3.16495337863004 0 0 0 0 0 0 0 0 0 0 0 0 0 0 0 0 0 0 0 0 0 0 0 0 0 0 -2.1226615561269 0 0 0
0 0 0 0 -0.318652602137404 0 0 0 0 0 0 -0.925516064778033 0 0 -2.33789877039451 0 0 -0.948343480835141 -1.40322059126533 0 0 0 0 0 0 0 0 0 0 0 0 0 0 0 0 0 0 0 0 0 0 0 0 0 0 0 0 0 0 0
0 0.0845790883811142 0 0 0 -0.318652602137404 -0.247504139569479 0 0 0 0 0 0 -0.383170590092156 0 0 0 0 0 0 0 -2.03507165879056 0 0 0 0 0 0 0 0 0 -2.24849938628541 0 0 0 0 -2.98921115194542 0 0 0 0 0 0 0 0 0 0 0 0 0
0 0 0 0 0 0.0519093165003612 -0.318652602137404 0 0 0 0 0 0 0 0 0 0 0 -0.508740458410604 0 0 0 0 0 0 0 0 0 0 -0.930660227650083 0 0 0 0 0 0 -1.49112596395468 0 0 0 0 0 0 -0.286538411460163 0 0 0 0 0 -2.36700412814928
0 0 0 0 0 0 0 -0.318652602137404 0 0 0 0 0 0 0 0 -0.920107200544161 -0.65301962134488 0 0 0 0 0 0 0 0 0 0 0 0 0 -0.402211029548748 0 0 0 0 -0.857736957743439 0 0 0 0 0 0 0 0 0 0 -0.660921448840059 0 0
0 0 0 0 0 0 0 0 -0.318652602137404 0 0 0 0 0 0 0 0 -1.21114459056425 0 0 0 0 0 0 0 -0.94449074541892 0 0 0 -1.2117988074708 0 0 0 0 0 0 0 0 -1.46653178872342 0 0 0 0 0 0 0 0 0 0 -0.73285235854422
0.327225127680451 0.0497157466303604 0 0 0 0 0 0 0 -0.318652602137404 0 0 0 0 -0.306140067029002 0 0 0 0 -1.13836109059741 0 0 0 0 0 0 0 -1.70746874916453 0 0 0 0 0 0 0 0 -2.27738084082758 0 0 0 0 0 -2.06136894483101 0 -0.757207973822038 0 -0.810474022172616 0 0 -0.385491415909031
0 0 0 0 0 0 0 0 0 0 -0.318652602137404 0 0 0 0 0 0 0 0 -0.675694028958543 0 0 0 0 0 0 0 0 0 0 -1.36746884127352 0 0 0 -4.91787220677832 0 0 0 -1.52828772099731 0 0 0 0 0 -0.269317059222193 0 0 0 0 0
0 0 0 0 0.19398924893586 0 0 0 0 0 0 -0.318652602137404 0 0 0 0 0 -0.533224096703309 0 -0.603286913070742 0 0 0 -0.372831128930914 0 0 0 0 0 0 0 0 0 -2.80486051757336 0 -0.216363057069485 0 0 0 0 0 0 0 0 0 0 0 0 0 0
0 0 0.616919434913832 0 0 0 0 0 0 0 0 0 -0.318652602137404 0 0 0 0 0 0 -0.31727429565725 0 0 0 0 -0.516145598157459 0 0 0 0 0 0 0 0 0 0 0 0 0 0 0 0 0 0 0 0 0 0 0 0 0
0 0 0 0 0 0.080796810869832 0 0 0 0 0 0 0 -0.318652602137404 0 0 0 -5.24751224324017 0 0 -1.42408162620089 0 -1.07755304844641 0 0 0 0 0 0 0 0 0 0 0 0 -4.63270271898742 0 -0.599497543832188 0 -0.951091441263614 -0.758564142463358 0 0 0 0 0 -0.38303869421431 0 0 0
0 0 0 0.0720707411381748 0.488273127597406 0 0 0 0 0.0592250262341947 0 0 0 0 -0.318652602137404 0 0 0 0 0 0 0 0 0 0 0 0 0 0 0 0 0 0 0 0 0 0 0 0 0 0 0 0 0 0 0 0 0 0 0
0 0 0 0 0 0 0 0 0 0 0 0 0 0 0 -0.318652602137404 0 0 0 0 0 0 0 0 0 0 0 0 0 0 0 0 0 -1.57643808143766 0 0 0 0 0 0 0 0 0 0 0 0 -2.79150954364625 0 0 0
0 0 0 0 0 0 0 0.169801974671736 0 0 0 0 0 0 0 0 -0.318652602137404 0 0 0 0 0 0 0 0 0 0 0 0 0 0 0 0 0 0 0 0 0 0 0 0 0 0 0 0 0 0 0 0 -0.145310492902312
0 0 0 0 0.181080562876897 0 0 0.125300944825668 0.254713828017255 0 0 0.0995336274761817 0 1.08646877941725 0 0 0 -0.318652602137404 0 0 0 0 0 0 0 0 0 0 0 0 0 0 0 0 0 0 -0.140947221205718 0 0 0 0 0 0 0 0 0 0 0 0 0
0 0 0 0 0.312393736532671 0 0.0999489065667238 0 0 0 0 0 0 0 0 0 0 0 -0.318652602137404 0 0 0 0 0 0 0 0 0 0 0 -2.00900978495011 0 0 0 0 -1.32127971074594 0 0 -0.177226429480579 0 0 0 0 0 -1.16992261376632 0 0 0 0 0
0 0.111285363037721 0 0.622325802203596 0 0 0 0 0 0.231216570363384 0.138555544320323 0.134015051821106 0.0693446056250931 0 0 0 0 0 0 -0.318652602137404 0 0 0 0 0 0 0 0 0 0 0 -11.8890355943057 0 -2.34519580808468 -1.53796995190944 0 0 0 0 0 0 -1.0607780868031 0 0 0 0 0 0 0 0
0 0 0 0 0 0 0 0 0 0 0 0 0 0.315499324248956 0 0 0 0 0 0 -0.318652602137404 0 0 0 -0.352835254599313 0 0 -0.252451542665964 0 0 0 0 0 0 0 0 0 0 0 0 0 0 0 0 -2.59911877608483 0 0 -7.47396260209482 0 0
0 0 0 0 0 0.401452051089427 0 0 0 0 0 0 0 0 0 0 0 0 0 0 0 -0.318652602137404 0 0 0 0 0 0 0 0 0 0 0 0 0 0 0 0 0 0 -1.11789652085228 0 0 0 0 0 0 0 0 0
0 0 0 0 0 0 0 0 0 0 0 0 0 0.199900606134737 0 0 0 0 0 0 0 0 -0.318652602137404 0 0 -2.00431369401067 0 0 0 0 0 0 0 0 -0.737236879564425 0 0 0 0 0 0 0 0 0 0 0 0 0 0 0
0 0 0 0 0 0 0 0 0 0 0 0.0736468098947751 0 0 0 0 0 0 0 0 0 0 0 -0.318652602137404 0 -1.22436579154842 0 0 0 0 0 0 0 0 0 0 0 0 0 -0.209923688614544 0 0 0 0 0 0 0 0 0 -4.42291267563084
0 0.204395908934318 0 0 0 0 0 0 0 0 0 0 0.103410042954489 0 0 0 0 0 0 0 0.0656658908090093 0 0 0 -0.318652602137404 0 0 0 0 0 0 -7.32979191021218 0 0 0 0 0 -0.303534143122597 0 -0.141146508332395 0 0 0 0 0 -1.24791450202336 0 0 0 0
0 0 0 0 0 0 0 0 0.196571121912835 0 0 0 0 0 0 0 0 0 0 0 0 0 0.391883264570838 0.246413119499985 0 -0.318652602137404 0 -3.15791319520783 0 0 0 0 0 -1.64330138430883 0 0 0 0 -1.01690801726869 0 0 0 0 0 0 0 0 -0.600598553610957 -0.901978855067882 0
0 0 0 0 0 0 0 0 0 0 0 0 0 0 0 0 0 0 0 0 0 0 0 0 0 0 -0.318652602137404 0 0 0 -0.0659514802115639 0 0 0 0 0 0 0 0 0 0 0 0 0 -1.60733101800109 0 0 0 0 0
0 0 0 0 0 0 0 0 0 0.340610421601555 0 0 0 0 0 0 0 0 0 0 0.0536957312673909 0 0 0 0 0.588592987837347 0 -0.318652602137404 -5.32886885204919 0 0 0 0 0 0 0 -1.08529834918901 0 0 0 0 0 0 0 0 0 0 0 0 0
0 0 0 0 0 0 0 0 0 0 0 0 0 0 0 0 0 0 0 0 0 0 0 0 0 0 0 1.18012620288708 -0.318652602137404 0 0 0 0 0 0 0 0 0 0 0 0 0 0 0 0 0 0 -7.13312889848374 0 0
0 0 0 0 0 0 0.19323891463938 0 0.243428637144396 0 0 0 0 0 0 0 0 0 0 0 0 0 0 0 0 0 0 0 0 -0.318652602137404 -0.748830429146755 0 0 0 0 0 0 0 0 0 0 0 -0.567039305213554 0 0 -0.158531959495564 0 -0.753300330078371 -0.379251923667223 0
0.38244252000927 0 0 0 0 0 0 0 0 0 0.263662904378027 0 0 0 0 0 0 0 0.381781302302596 0 0 0 0 0 0 0 0.0123304586687671 0 0 0.151322768589412 -0.318652602137404 0 0 0 -0.250230502984838 0 0 0 0 0 0 0 0 -1.50397148067699 0 0 0 0 0 0
0 0 0 0 0 0.486058636628431 0 0.0817367936946164 0 0 0 0 0 0 0 0 0 0 0 2.28053927725252 0 0 0 0 1.60048215013368 0 0 0 0 0 0 -0.318652602137404 0 0 0 0 0 0 0 0 -0.165380550255263 0 0 0 0 -0.703375737714661 -8.68632883005702 0 0 -0.651728166713774
0 0 0.294550760385966 0 0 0 0 0 0 0 0 0 0 0 0 0 0 0 0 0 0 0 0 0 0 0 0 0 0 0 0 0 -0.318652602137404 0 0 0 -2.9385678252055 0 0 -1.69695969458609 0 0 0 -0.973365865501404 0 0 0 0 0 0
0 0 0 0 0 0 0 0 0 0 0 0.59249305819831 0 0 0 0.313783539205295 0 0 0 0.497301132580432 0 0 0 0 0 0.315664102741422 0 0 0 0 0 0 0 -0.318652602137404 0 0 0 0 0 0 0 0 0 0 0 0 0 -0.665787529159311 0 0
0 0.107701008110633 0 0 0 0 0 0 0 0 1.06341287907767 0 0 0 0 0 0 0 0 0.334518721791295 0 0 0.139067985144181 0 0 0 0 0 0 0 0.0502846577177705 0 0 0 -0.318652602137404 0 0 0 0 0 0 0 0 0 0 0 0 0 0 0
0 0.140021906632668 0 0 0 0 0 0 0 0 0 0.0415382917486924 0 0.994001580997436 0 0 0 0 0.257096531687964 0 0 0 0 0 0 0 0 0 0 0 0 0 0 0 0 -0.318652602137404 0 0 0 0 0 0 0 -0.884834260744005 0 0 0 0 0 0
0 0 0 0 0 0.605448830014436 0.273285869980067 0.159568006430378 0 0.463041155201121 0 0 0 0 0 0 0 0.0312841647029305 0 0 0 0 0 0 0 0 0 0.218793627808976 0 0 0 0 0.521517415857443 0 0 0 -0.318652602137404 0 0 0 0 0 0 0 -1.18109067051006 0 0 0 -0.357013816949057 -4.05270193621068
0 0 0 0 0 0 0 0 0 0 0 0 0 0.114375914837493 0 0 0 0 0 0 0 0 0 0 0.0615375411838231 0 0 0 0 0 0 0 0 0 0 0 0 -0.318652602137404 0 0 0 0 0 0 0 0 0 0 0 -0.536187947835337
0 0 0 0 0 0 0 0 0.285328667325925 0 0.304070578539201 0 0 0 0 0 0 0 0.0355368679474564 0 0 0 0 0 0 0.198861779425332 0 0 0 0 0 0 0 0 0 0 0 0 -0.318652602137404 0 0 0 0 -0.480256471378424 0 0 0 0 0 0
0 0.132768153629769 0 0 0 0 0 0 0 0 0 0 0 0.185436010933673 0 0 0 0 0 0 0 0 0 0.0386161459114262 0.0291663280446047 0 0 0 0 0 0 0 0.343451239845496 0 0 0 0 0 0 -0.318652602137404 0 0 0 0 0 0 0 0 0 0
0 0 0 0 0 0 0 0 0 0 0 0 0 0.144890192342931 0 0 0 0 0 0 0 0.234794959152436 0 0 0 0 0 0 0 0 0 0.0322976196591771 0 0 0 0 0 0 0 0 -0.318652602137404 0 0 0 0 0 0 0 0 -1.09754703688603
0 0 0 0 0 0 0 0 0 0 0 0 0 0 0 0 0 0 0 0.22679302096328 0 0 0 0 0 0 0 0 0 0 0 0 0 0 0 0 0 0 0 0 0 -0.318652602137404 0 0 0 0 0 0 0 0
0.171284084668167 0.251444514426472 0 0 0 0 0 0 0 0.425756494340442 0 0 0 0 0 0 0 0 0 0 0 0 0 0 0 0 0 0 0 0.120978742067974 0 0 0 0 0 0 0 0 0 0 0 0 -0.318652602137404 0 0 -0.197506921763953 -7.34882297339972 0 0 0
0 0 0 0 0 0 0.0552915128497039 0 0 0 0 0 0 0 0 0 0 0 0 0 0 0 0 0 0 0 0 0 0 0 0.306839932761073 0 0.178338591209736 0 0 0.18347974979964 0 0 0.100710822011298 0 0 0 0 -0.318652602137404 0 0 0 0 0 0
0 0 0 0 0 0 0 0 0 0.154083412817878 0.0582339224141444 0 0 0 0 0 0 0 0.246299137552752 0 0.441198934615873 0 0 0 0 0 0.351789888768814 0 0 0 0 0 0 0 0 0 0.232033945172184 0 0 0 0 0 0 0 -0.318652602137404 0 0 0 -6.1906178650499 0
0 0 0 0 0 0 0 0 0 0 0 0 0 0 0 0 0 0 0 0 0 0 0 0 0.261713998788988 0 0 0 0 0.0318732173307769 0 0.136608487674303 0 0 0 0 0 0 0 0 0 0 0.0385203474071389 0 0 -0.318652602137404 0 0 0 0
0 0 0 0.437092288959555 0 0 0 0 0 0.163202176148497 0 0 0 0.0833007706697871 0 0.602290424930038 0 0 0 0 0 0 0 0 0 0 0 0 0 0 0 1.66217505136718 0 0 0 0 0 0 0 0 0 0 1.4647345639456 0 0 0 -0.318652602137404 -3.19386253934694 0 0
0 0 0 0 0 0 0 0.124814837952262 0 0 0 0 0 0 0 0 0 0 0 0 1.51438880351195 0 0 0 0 0.126298756412458 0 0 1.4133926882947 0.14677722340816 0 0 0 0.142866446495546 0 0 0 0 0 0 0 0 0 0 0 0 0.670108835992247 -0.318652602137404 0 0
0 0 0 0 0 0 0 0 0 0 0 0 0 0 0 0 0 0 0 0 0 0 0 0 0 0.202696394925605 0 0 0 0.0732497921162085 0 0 0 0 0 0 0.0688595534641144 0 0 0 0 0 0 0 1.29520846344857 0 0 0 -0.318652602137404 0
0 0 0 0 0 0 0.514189330898286 0 0.153179675802424 0.0794015030912611 0 0 0 0 0 0 0.0291642776838418 0 0 0 0 0 0 0.950593498903549 0 0 0 0 0 0 0 0.137240070113502 0 0 0 0 0.860706135893143 0.102424151617022 0 0 0.222779124470487 0 0 0 0 0 0 0 0 -0.318652602137404
