7.30701935492413
1.49025872803159
2.15863192280885
0.696855277509433
1.50446177946539
1.20413864699809
1.50450764619258
0.936436497121125
2.26713500429393
0.30581956040811
0.72619409934879
0.903291357988527
3.34131133378299
0.628779289965373
1.0016795112496
0.820483096674731
2.56845985043734
2.01761154301245
0.155636669335772
2.18577089389735
6.32788963160504
0.441161197220232
1.70663051181134
0.722013382345256
1.21688303612348
0.195998769087942
0.516116316714918
1.53369038373514
0.755299654721345
10.874908773584
4.5553223678727
0.602277815954962
0.669666792730799
1.3831937620767
1.75065729207075
3.35245590854362
4.2118168928098
0.371218490289414
2.20183719078037
4.54303472871341
1.42027432675814
0.0942449543512397
0.732733024609646
0.538521544442817
10.7766971211406
5.23277879072663
0.355316935074775
0.417224156411166
0.315111847720462
5.08705354584337
