-0.67697371292866 0 0 0 0 0 -3.0061100949299 0 0 0 -1.35628034708581 0 -2.4749297333568 -0.198518241992429 -0.516470689992975 0 0 0 0 0 -5.2196143254872 -1.59622114948861 0 0 -1.55845622518285 0 0 0 0 0 0 -1.89106424007663 0 0 0 0 0 0 0 0 0 0 -0.196073300790138 0 0 0 0 0 0 0
0 -0.67697371292866 0 0 0 0 0 0 0 0 0 0 0 -12.1009975937253 0 0 0 0 -2.19779855572909 0 0 0 0 0 0 0 0 -0.772075158573954 -0.368881113736748 0 0 0 0 0 0 0 0 0 0 0 0 0 0 0 0 0 0 0 0 0
0 0 -0.67697371292866 0 -1.54415997259977 -0.952839497090161 0 0 0 -0.758466871046944 -0.476406373181977 0 0 0 0 0 0 -1.07351069637623 0 0 0 -2.57078201224565 0 0 0 0 0 0 0 0 0 0 0 0 0 -0.212582512285581 0 0 0 0 0 0 0 0 0 -4.4585757082448 0 0 0 0
0 0 0 -0.67697371292866 0 0 0 0 0 -2.63142682619882 0 -1.96689994910816 0 0 -1.88633393726634 0 0 0 0 0 0 0 -1.25414079810352 0 0 0 0 0 0 0 0 0 0 0 0 0 0 0 0 0 0 0 0 0 0 0 0 0 0 0
0 0 0.293946258444449 0 -0.67697371292866 0 0 0 0 0 0 0 0 0 0 0 0 0 0 0 0 0 0 0 0 0 0 0 0 0 -0.381856475831166 0 0 -0.63689245488124 0 0 0 0 0 0 0 0 0 0 -1.8319114150478 -2.55558642922277 0 0 -0.85244448229986 -2.71748691052164
0 0 0.191572273275287 0 0 -0.67697371292866 0 0 0 0 -0.330937460587198 0 0 0 0 0 0 0 -0.270847267084007 0 0 0 0 0 0 0 -0.282642797308064 -2.92367753267654 0 0 0 0 0 0 -1.1387365432001 0 0 0 0 0 0 0 0 0 0 0 0 0 -4.77220033358214 0
0.585372829617043 0 0 0 0 0 -0.67697371292866 0 -0.113319719477323 0 0 0 0 0 0 0 0 0 0 0 0 0 0 0 0 0 0 0 0 0 0 0 0 0 0 0 0 0 -2.80163138233316 0 0 0 0 0 0 0 0 0 0 0
0 0 0 0 0 0 0 -0.67697371292866 -1.06156638878266 0 0 0 -1.35207047158598 0 0 0 0 0 0 0 0 0 0 0 0 0 0 0 -0.453845508938948 0 0 0 0 0 0 0 0 0 0 0 0 0 0 0 0 -2.03679560866554 0 0 0 0
0 0 0 0 0 0 0.021606010622803 0.198450988143929 -0.67697371292866 0 0 0 0 0 0 0 0 0 0 0 0 0 0 0 0 -1.8623595388674 0 0 0 0 0 0 0 0 0 0 0 0 0 0 -0.128942661278631 0 0 -2.18894204453434 0 0 0 0 0 0
0 0 0.154813482937793 0.49857627311808 0 0 0 0 0 -0.67697371292866 0 0 -0.372612577623521 -1.38077902192158 0 0 0 0 0 0 0 0 0 0 0 0 0 0 0 -1.28890050227696 -0.875902944080655 0 0 0 0 0 0 0 0 0 0 0 0 -0.0813190710491218 0 0 0 0 0 0
0.293381178143199 0 0.0978106788235084 0 0 0.0605457478157237 0 0 0 0 -0.67697371292866 -7.11762612951481 0 0 0 0 0 0 0 0 0 0 0 0 0 0 0 0 0 -1.80762295341235 0 -4.9429005723676 0 0 -3.13099348957716 0 0 0 0 0 0 0 0 0 0 -0.495632497168793 0 -0.143380251119855 0 0
0 0 0 0.383034876678576 0 0 0 0 0 0 1.3245440371401 -0.67697371292866 0 0 0 -0.836374813125402 0 0 0 0 0 0 0 0 0 0 0 0 0 0 0 -0.509110846659665 0 0 0 0 0 -1.95639845683116 0 0 0 -0.2584611561717 0 0 0 0 0 0 -0.541603390534829 0
0.513676638390228 0 0 0 0 0 0 0.277729772736672 0 0.0737861936278195 0 0 -0.67697371292866 0 0 0 0 0 -0.701567027758745 0 0 0 0 0 0 0 -0.455483527891057 0 0 0 0 0 0 0 0 0 0 0 -1.11269053325196 0 0 0 0 0 0 0 0 0 0 0
0.0413031522831112 2.41288090303083 0 0 0 0 0 0 0 0.268623578377266 0 0 0 -0.67697371292866 0 0 0 -9.81077271986183 0 0 0 0 0 0 0 0 0 0 -0.739137838863014 0 0 -2.34262882871691 0 0 0 0 0 0 0 0 0 0 0 0 0 0 -4.24183423678955 0 0 0
0.0943901672366785 0 0 0.357301605779365 0 0 0 0 0 0 0 0 0 0 -0.67697371292866 0 -0.515302354985763 0 0 0 0 0 0 0 0 0 0 0 0 0 0 0 0 0 0 0 0 0 0 0 0 -2.17876968309782 0 0 -0.188959490389362 0 0 -0.284191164748862 0 0
0 0 0 0 0 0 0 0 0 0 0 0.166853256287577 0 0 0 -0.67697371292866 -0.542863901997724 0 -1.38640915686828 0 0 0 0 0 0 0 0 0 0 0 -4.76978266607054 0 0 0 0 0 0 0 0 0 0 0 0 -7.83104169233901 0 0 0 0 0 0
0 0 0 0 0 0 0 0 0 0 0 0 0 0 0.102393772695782 0.109407018156355 -0.67697371292866 0 0 0 0 0 0 0 0 0 0 0 0 -0.706941623111311 0 0 0 0 0 0 0 0 0 0 0 0 -4.02619899169468 0 0 0 0 -2.37900358944277 0 0
0 0 0.214303980712669 0 0 0 0 0 0 0 0 0 0 1.8932262061072 0 0 0 -0.67697371292866 0 0 0 0 0 0 0 0 0 -3.84548730895941 0 0 0 0 -0.708658390827382 0 0 0 -0.827053778452156 -0.984857146982236 0 0 0 0 -0.567790321005222 0 0 0 0 0 0 0
0 0.435959767349335 0 0 0 0.0579920036215767 0 0 0 0 0 0 0.138591434417267 0 0 0.256132904165293 0 0 -0.67697371292866 0 0 0 0 0 0 0 0 0 0 0 0 0 0 0 0 -3.7513821316768 0 0 0 0 0 0 0 0 0 0 0 0 0 0
0 0 0 0 0 0 0 0 0 0 0 0 0 0 0 0 0 0 0 -0.67697371292866 0 0 0 0 0 -0.971521350338377 0 0 0 0 0 -0.893074204491008 -3.87211534518661 0 -0.337835066955335 -0.934500407926174 0 -0.553713466148096 0 0 0 0 0 0 0 0 0 0 0 0
1.02792098216559 0 0 0 0 0 0 0 0 0 0 0 0 0 0 0 0 0 0 0 -0.67697371292866 0 0 0 0 -0.786417096074295 0 0 0 -0.32371324304672 0 0 0 0 0 0 0 0 0 0 0 -1.74572322614937 0 0 0 0 0 0 0 0
0.310614841628847 0 0.497454388530504 0 0 0 0 0 0 0 0 0 0 0 0 0 0 0 0 0 0 -0.67697371292866 0 0 0 0 0 0 0 0 0 0 0 0 0 0 0 0 0 0 0 0 0 0 0 0 0 0 0 0
0 0 0 0.236010004307914 0 0 0 0 0 0 0 0 0 0 0 0 0 0 0 0 0 0 -0.67697371292866 0 0 0 0 0 0 0 0 -0.682452903958261 0 0 -7.93917819394564 0 0 0 0 0 0 0 0 0 0 0 0 -0.773655153604066 0 0
0 0 0 0 0 0 0 0 0 0 0 0 0 0 0 0 0 0 0 0 0 0 0 -0.67697371292866 0 0 -2.12285396950549 0 0 0 0 0 0 0 0 0 0 0 0 0 0 0 0 0 0 0 0 0 0 0
0.326614807728265 0 0 0 0 0 0 0 0 0 0 0 0 0 0 0 0 0 0 0 0 0 0 0 -0.67697371292866 0 0 -1.14482929533954 0 -0.964860898238335 0 0 0 0 0 0 0 0 0 0 0 0 0 0 0 0 0 0 0 -8.28792870705533
0 0 0 0 0 0 0 0 0.382056207512165 0 0 0 0 0 0 0 0 0 0 0.188485005653476 0.141345919656068 0 0 0 0 -0.67697371292866 0 0 -0.582032546967312 0 0 0 0 0 0 0 0 0 0 0 0 0 -1.882430154886 0 0 0 0 0 0 0
0 0 0 0 0 0.0570941229125281 0 0 0 0 0 0 0.0926984654708164 0 0 0 0 0 0 0 0 0 0 0.427230888467329 0 0 -0.67697371292866 0 0 0 0 0 0 -0.961749322446924 -1.32632403213697 0 0 0 0 -3.14757252971947 0 0 0 0 0 0 0 0 0 0
0 0.153993890474308 0 0 0 0.570104721591831 0 0 0 0 0 0 0 0 0 0 0 0.7751391986015 0 0 0 0 0 0 0.203128928936672 0 0 -0.67697371292866 0 -2.58094322102538 0 0 0 0 0 0 0 0 0 0 0 0 -0.54498506653919 0 0 0 0 0 0 0
0 0.0720066333263924 0 0 0 0 0 0.092737641773438 0 0 0 0 0 0.136255951729312 0 0 0 0 0 0 0 0 0 0 0 0.12166803871702 0 0 -0.67697371292866 0 0 0 0 0 0 0 0 0 0 0 -0.878460808930431 0 0 0 0 0 0 -0.589426619888684 0 0
0 0 0 0 0 0 0 0 0 0.290966326689781 0.358700080026441 0 0 0 0 0 0.146059720212677 0 0 0 0.0708951120787554 0 0 0 0.190410552140341 0 0 0.460431623597631 0 -0.67697371292866 -0.52894147572714 0 0 0 0 0 0 0 0 0 0 0 0 0 0 0 0 0 0 0
0 0 0 0 0.0679072848950002 0 0 0 0 0.169324454140228 0 0 0 0 0 1.00035453314254 0 0 0 0 0 0 0 0 0 0 0 0 0 0.110614756096742 -0.67697371292866 -2.50138613926039 0 0 0 0 0 0 0 0 0 0 0 0 -2.73898902434345 0 0 0 0 0
0.40573959399849 0 0 0 0 0 0 0 0 0 0.922468850354604 0.111619744490776 0 0.453846318540958 0 0 0 0 0 0.164819638857069 0 0 0.135725344077902 0 0 0 0 0 0 0 0.505031661501591 -0.67697371292866 0 0 0 0 0 0 0 0 0 0 0 0 0 0 0 0 0 0
0 0 0 0 0 0 0 0 0 0 0 0 0 0 0 0 0 0.147981908606078 0 0.689988543680874 0 0 0 0 0 0 0 0 0 0 0 0 -0.67697371292866 0 0 0 0 0 0 0 0 0 0 0 0 0 0 0 0 0
0 0 0 0 0.129202600880688 0 0 0 0 0 0 0 0 0 0 0 0 0 0 0 0 0 0 0 0 0 0.185767039917789 0 0 0 0 0 0 -0.67697371292866 0 0 0 0 0 0 0 0 0 0 0 0 0 0 0 0
0 0 0 0 0 0.238726105529132 0 0 0 0 0.695251179644372 0 0 0 0 0 0 0 0 0.0693115809660967 0 0 1.60932634995661 0 0 0 0.26891377942225 0 0 0 0 0 0 0 -0.67697371292866 0 -1.58411481050892 -0.805998929331246 -2.59583122529102 0 0 0 0 0 0 0 0 0 0 0
0 0 0.0431955704737391 0 0 0 0 0 0 0 0 0 0 0 0 0 0 0 0.726071737318581 0.193324298944667 0 0 0 0 0 0 0 0 0 0 0 0 0 0 0 -0.67697371292866 -5.06343802525843 0 0 0 0 0 0 0 0 0 0 0 0 0
0 0 0 0 0 0 0 0 0 0 0 0 0 0 0 0 0 0.169850930644997 0 0 0 0 0 0 0 0 0 0 0 0 0 0 0 0 0.322269313349463 1.01410787964424 -0.67697371292866 -1.23007632735676 0 0 0 0 0 0 0 0 0 0 0 0
0 0 0 0 0 0 0 0 0 0 0 0.391316420797763 0 0 0 0 0 0.19574855272749 0 0.103925279951046 0 0 0 0 0 0 0 0 0 0 0 0 0 0 0.157582476635458 0 0.240843434816347 -0.67697371292866 0 0 0 0 0 0 0 0 0 0 0 0
0 0 0 0 0 0 0.582413115430515 0 0 0 0 0 0.223790272209417 0 0 0 0 0 0 0 0 0 0 0 0 0 0 0 0 0 0 0 0 0 0.547147932322887 0 0 0 -0.67697371292866 0 0 0 0 0 0 0 0 0 0 0
0 0 0 0 0 0 0 0 0 0 0 0 0 0 0 0 0 0 0 0 0 0 0 0 0 0 0.626153984706265 0 0 0 0 0 0 0 0 0 0 0 0 -0.67697371292866 0 0 0 0 0 0 0 0 0 -0.602055287977917
0 0 0 0 0 0 0 0 0.0265127536557028 0 0 0 0 0 0 0 0 0 0 0 0 0 0 0 0 0 0 0 0.16275079312322 0 0 0 0 0 0 0 0 0 0 0 -0.67697371292866 0 0 0 0 0 0 0 0 0
0 0 0 0 0 0 0 0 0 0 0 0.0523020732873529 0 0 0.437177702728011 0 0 0 0 0 0.316783451462497 0 0 0 0 0 0 0 0 0 0 0 0 0 0 0 0 0 0 0 0 -0.67697371292866 -1.64815181698021 0 0 0 0 0 0 0
0.0369134719512927 0 0 0 0 0 0 0 0 0 0 0 0 0 0 0 0.780474917314498 0.10937832282066 0 0 0 0 0 0 0 0.375215014567125 0 0.108228090697626 0 0 0 0 0 0 0 0 0 0 0 0 0 0.337376652829206 -0.67697371292866 0 0 0 0 0 0 0
0 0 0 0 0 0 0 0 0.433697937871289 0.0173118543013597 0 0 0 0 0 1.66422143951274 0 0 0 0 0 0 0 0 0 0 0 0 0 0 0 0 0 0 0 0 0 0 0 0 0 0 0 -0.67697371292866 0 0 0 0 0 0
0 0 0 0 0.354462975522523 0 0 0 0 0 0 0 0 0 0.0400420313961692 0 0 0 0 0 0 0 0 0 0 0 0 0 0 0 0.558459662208154 0 0 0 0 0 0 0 0 0 0 0 0 0 -0.67697371292866 0 -1.94423664754748 0 0 0
0 0 0.907302062082252 0 0.546808701839808 0 0 0.41654232555686 0 0 0.10168860201677 0 0 0 0 0 0 0 0 0 0 0 0 0 0 0 0 0 0 0 0 0 0 0 0 0 0 0 0 0 0 0 0 0 0 -0.67697371292866 0 0 -0.468443771489722 0
0 0 0 0 0 0 0 0 0 0 0 0 0 0.866571493297201 0 0 0 0 0 0 0 0 0 0 0 0 0 0 0 0 0 0 0 0 0 0 0 0 0 0 0 0 0 0 0.417948361155223 0 -0.67697371292866 0 0 0
0 0 0 0 0 0 0 0 0 0 0.0260132053991769 0 0 0 0.055763018063135 0 0.485421519355814 0 0 0 0 0 0.154715916415954 0 0 0 0 0 0.119880027879309 0 0 0 0 0 0 0 0 0 0 0 0 0 0 0 0 0 0 -0.67697371292866 0 0
0 0 0 0 0.168720276568202 0.894398569732482 0 0 0 0 0 0.112319872357624 0 0 0 0 0 0 0 0 0 0 0 0 0 0 0 0 0 0 0 0 0 0 0 0 0 0 0 0 0 0 0 0 0 0.0917164130797694 0 0 -0.67697371292866 0
0 0 0 0 0.553080454811877 0 0 0 0 0 0 0 0 0 0 0 0 0 0 0 0 0 0 0 1.61208483941433 0 0 0 0 0 0 0 0 0 0 0 0 0 0 0.118687118728185 0 0 0 0 0 0 0 0 0 -0.67697371292866
