0.368834180646214
0.368545420025071
0.636339263169352
0.56315361912315
0.295364896812319
0.216362907193707
1.63792774376629
0.970395575765665
1.31233886272617
0.647705031802195
0.818406571816888
1.67087485487688
1.79241010389233
1.69104417946789
0.776573498995965
0.681941465753748
0.916958266208992
2.26235917672742
0.619421860956549
0.765545938665191
1.05970459680476
1.18410749272246
0.646649239241789
0.563444597002179
0.149162636635215
2.48244529931616
1.21574162306028
0.96406536521125
0.601073601881326
4.05244587356886
2.34866225708733
0.264966468690738
0.641550307132491
3.5345578187286
0.199104691554548
0.79222931696264
5.40965118364282
3.72842454015517
0.526999668275574
1.53060229368383
0.59265006734248
0.942631110850268
0.957109968585183
1.1797882386295
0.620088276091995
0.881718919279239
3.58486895418231
0.494674697283656
0.615619963974958
0.643740520282624
