-0.292818087943795 0 0 0 0 0 -0.546900131318389 0 0 0 0 0 0 -3.38990227695959 -0.289860789108447 0 0 0 0 0 0 -2.77014638133563 0 0 0 0 0 0 0 0 -2.46664999836295 0 0 0 0 0 0 0 0 -0.849443990778965 0 -2.76254772617655 0 -0.201924111953486 0 0 0 0 0 0
0 -0.292818087943795 0 0 0 0 -2.24349594791245 0 0 0 -1.85194920449473 0 0 0 0 0 0 -4.04318675844176 0 0 0 0 0 0 0 0 0 0 0 0 0 -1.38300832017193 0 0 0 0 -0.588141767235893 0 0 -0.307429943106671 -4.15925936200499 0 0 0 0 0 0 0 0 0
0 0 -0.292818087943795 0 -0.52414943134274 0 0 0 0 0 0 0 0 -0.786613130631705 0 -0.550734357766236 0 0 0 0 0 0 0 0 0 0 0 0 -0.798105834560863 0 0 0 0 0 0 0 0 0 0 0 0 0 0 0 0 0 0 0 0 0
0 0 0 -0.292818087943795 0 0 -1.03969557948913 0 0 0 0 0 0 -0.219822641804859 0 0 0 -1.3697736854569 0 0 0 0 0 0 0 0 0 0 0 0 0 0 0 0 0 0 0 0 0 -0.856730253919415 0 0 0 0 -0.929100592798551 0 0 0 0 -1.90493120819876
0 0 0.106569809038541 0 -0.292818087943795 -0.57446655078594 0 0 0 0 0 0 0 0 0 -1.98370663871168 0 -1.09359647729617 0 0 0 0 0 0 0 0 0 0 0 0 0 0 0 0 -0.632377872611427 0 0 0 0 0 -0.320452697998106 0 -0.385371809135449 0 0 0 0 0 0 0
0 0 0 0 0.117152499923897 -0.292818087943795 -4.96640800241872 0 0 0 0 0 0 0 0 0 0 0 0 0 0 0 0 0 -0.282911288873741 -0.841556729773621 -1.87613519531006 0 0 0 0 0 0 0 0 0 0 -0.749303713294947 0 0 0 0 -0.794858723581739 0 0 0 0 0 0 0
0.100075625688228 0.420944644285693 0 0.208473219360554 0 0.930001883965626 -0.292818087943795 0 0 0 -0.766430594633752 0 -0.794207059929362 0 0 0 0 0 0 -1.5409530752514 0 0 -0.140632720269473 0 0 0 0 0 0 0 0 0 0 0 0 0 0 0 0 0 0 0 0 0 0 0 0 0 0 0
0 0 0 0 0 0 0 -0.292818087943795 0 0 0 0 0 -0.344137935381809 0 0 0 -1.72559777416698 0 0 0 0 0 0 0 0 0 0 0 0 0 0 0 0 0 0 0 0 0 -0.360932258770514 0 0 -0.788551930343028 0 0 0 0 0 0 0
0 0 0 0 0 0 0 0 -0.292818087943795 0 0 0 0 0 0 0 0 0 0 0 0 0 0 0 -0.446504050655132 0 0 0 0 0 -2.02906326667532 -0.224357320518847 0 -0.0780825842398212 -0.570389608359465 -5.00551704722852 0 0 0 0 -3.04398620064786 0 0 0 0 0 0 0 0 0
0 0 0 0 0 0 0 0 0 -0.292818087943795 0 0 0 0 0 0 0 0 -4.18119052434902 0 0 0 0 0 0 0 0 0 0 0 0 -0.686391046597394 0 0 0 0 -3.36584133601091 -3.5421596878632 0 0 0 0 0 0 0 0 0 0 0 0
0 0.357566788701992 0 0 0 0 0.161834762347419 0 0 0 -0.292818087943795 0 0 0 0 0 0 -2.96954364080049 0 0 0 0 0 0 0 0 0 0 0 0 0 0 -4.79661932315813 0 0 0 0 0 0 0 0 0 0 -0.48906743147545 0 0 0 0 0 0
0 0 0 0 0 0 0 0 0 0 0 -0.292818087943795 0 0 0 0 0 0 0 0 0 0 0 0 0 0 0 0 0 0 0 0 0 0 0 -0.456894144772815 0 0 0 0 0 0 0 0 0 0 0 0 0 0
0 0 0 0 0 0 0.166260805662654 0 0 0 0 0 -0.292818087943795 0 -3.07843594689804 0 0 0 -1.65651424919167 0 0 -1.38183290198897 0 -0.840250383959764 0 0 0 0 0 0 0 -0.550936504190546 0 0 0 0 0 0 0 0 0 0 0 0 0 0 -0.604209746209296 0 0 0
0.716981121753597 0 0.15398329370096 0.0467313344575596 0 0 0 0.0706907489847065 0 0 0 0 0 -0.292818087943795 -0.179890083937053 0 0 0 -2.17485146562768 0 -0.208781878221128 0 0 0 0 0 0 0 0 0 0 0 0 0 0 0 0 0 0 0 0 0 -0.836388920980208 0 0 -0.294271836171736 0 0 0 0
0.0609763974235801 0 0 0 0 0 0 0 0 0 0 0 0.595114059759076 0.0337496661827749 -0.292818087943795 0 0 0 0 -2.6854221964671 0 0 0 0 0 0 0 0 0 0 0 0 0 0 0 0 0 0 0 0 0 0 0 0 0 -0.326115117158277 0 0 0 0
0 0 0.105813297801225 0 0.399722879830106 0 0 0 0 0 0 0 0 0 0 -0.292818087943795 0 0 0 0 0 0 0 0 0 0 0 0 0 0 0 0 0 0 0 0 0 0 -3.55185043798524 0 0 0 0 0 0 -0.425242276847294 0 0 0 0
0 0 0 0 0 0 0 0 0 0 0 0 0 0 0 0 -0.292818087943795 0 0 0 0 0 0 0 0 0 0 0 0 0 0 0 0 0 0 0 0 0 0 0 0 0 -1.43019335908634 0 0 0 0 0 0 0
0 0.81866294568354 0 0.277904896523457 0.208565659467897 0 0 0.329974052617013 0 0 0.617639655098212 0 0 0 0 0 0 -0.292818087943795 0 0 0 0 0 0 0 0 0 0 -2.21662014263494 0 0 0 -0.403682550703456 0 -6.23292529547894 0 0 0 0 0 0 0 0 0 0 0 0 0 0 0
0 0 0 0 0 0 0 0 0 0.817543991272231 0 0 0.349706000640688 0.421636642866827 0 0 0 0 -0.292818087943795 -2.09373511335931 0 0 0 -0.523540466894199 0 0 0 0 -3.9725113301857 0 0 0 0 0 0 0 0 0 0 0 -0.949332029979148 0 0 -0.243385088987645 0 0 0 0 0 -0.300057157687899
0 0 0 0 0 0 0.311367233143769 0 0 0 0 0 0 0 0.493944182688322 0 0 0 0.415991335420024 -0.292818087943795 0 0 0 0 0 0 0 -4.16472914414034 0 0 0 0 0 -0.988532921147767 0 0 -0.567956411759623 0 0 -3.47218827217848 0 0 0 0 0 0 0 0 0 -2.80609396552778
0 0 0 0 0 0 0 0 0 0 0 0 0 0.040877168909959 0 0 0 0 0 0 -0.292818087943795 0 0 0 0 0 0 0 0 0 0 0 0 0 0 -0.161119615494082 0 -5.37008578274776 0 0 0 0 0 0 0 0 0 0 0 0
0.579832693471762 0 0 0 0 0 0 0 0 0 0 0 0.272618502317046 0 0 0 0 0 0 0 0 -0.292818087943795 0 0 0 -2.10498460034458 0 0 0 0 0 0 0 0 -0.581457210555543 0 0 0 0 0 0 0 0 0 -2.18446615723784 0 0 0 0 0
0 0 0 0 0 0 0.0270267147291385 0 0 0 0 0 0 0 0 0 0 0 0 0 0 0 -0.292818087943795 0 -2.01678230603151 0 0 0 0 0 0 0 0 0 0 0 0 0 0 0 0 0 0 0 0 0 0 0 0 0
0 0 0 0 0 0 0 0 0 0 0 0 0.16983476609268 0 0 0 0 0 0.104680984208304 0 0 0 0 -0.292818087943795 0 0 0 0 0 0 0 0 0 0 0 0 0 0 0 0 0 0 0 0 -0.586817303165991 0 0 0 0 0
0 0 0 0 0 0.0517707885177215 0 0 0.0851204905760035 0 0 0 0 0 0 0 0 0 0 0 0 0 0.372480759075857 0 -0.292818087943795 0 -2.51682184316068 0 0 0 0 0 0 0 0 0 0 0 0 0 -0.499724693088684 0 0 0 0 0 0 0 0 0
0 0 0 0 0 0.140555734093523 0 0 0 0 0 0 0 0 0 0 0 0 0 0 0 0.413626314856739 0 0 0 -0.292818087943795 0 0 0 0 0 0 0 0 0 -0.975371853759972 0 0 -0.715525385107741 0 -0.13930353365147 0 0 0 0 0 0 0 0 0
0 0 0 0 0 0.395354677740129 0 0 0 0 0 0 0 0 0 0 0 0 0 0 0 0 0 0 0.475773751712793 0 -0.292818087943795 0 0 0 0 0 0 0 -2.5907528576082 -0.708966709511103 0 0 0 0 0 0 0 0 0 0 0 0 0 0
0 0 0 0 0 0 0 0 0 0 0 0 0 0 0 0 0 0 0 0.850063645204399 0 0 0 0 0 0 0 -0.292818087943795 0 0 0 0 0 0 0 0 0 0 0 0 0 0 0 0 0 0 0 0 0 0
0 0 0.155703343029724 0 0 0 0 0 0 0 0 0 0 0 0 0 0 0.429308691975197 0.794540055925539 0 0 0 0 0 0 0 0 0 -0.292818087943795 0 0 -0.905876994834288 0 0 0 0 0 0 0 0 0 0 -0.13508072053811 0 0 0 0 0 0 0
0 0 0 0 0 0 0 0 0 0 0 0 0 0 0 0 0 0 0 0 0 0 0 0 0 0 0 0 0 -0.292818087943795 -0.731714440876011 0 -0.404947811294559 0 0 0 0 0 0 0 0 0 0 0 0 0 0 0 0 0
0.512872077894798 0 0 0 0 0 0 0 0.407424702608703 0 0 0 0 0 0 0 0 0 0 0 0 0 0 0 0 0 0 0 0 0.149422969583089 -0.292818087943795 0 0 -1.11933773612327 0 0 0 -0.567338031708838 0 0 0 0 0 0 0 0 0 0 0 0
0 0.295302308264385 0 0 0 0 0 0 0.0458711263281208 0.136486003479812 0 0 0.106620755287436 0 0 0 0 0 0 0 0 0 0 0 0 0 0 0 0.192679067713091 0 0 -0.292818087943795 0 0 0 0 0 0 0 0 0 0 0 0 0 0 0 0 0 0
0 0 0 0 0 0 0 0 0 0 0.924841737356277 0 0 0 0 0 0 0.078351841471696 0 0 0 0 0 0 0 0 0 0 0 0.0803686594078189 0 0 -0.292818087943795 0 0 0 0 0 0 0 0 0 0 0 0 0 0 0 0 0
0 0 0 0 0 0 0 0 0.0151681049789813 0 0 0 0 0 0 0 0 0 0 0.203560681165271 0 0 0 0 0 0 0 0 0 0 0.223784458346867 0 0 -0.292818087943795 0 0 0 0 0 0 0 0 0 0 0 0 -0.928946243987343 0 0 0
0 0 0 0 0.124583962427729 0 0 0 0.11464667781768 0 0 0 0 0 0 0 0 1.2899725000491 0 0 0 0.115083560341292 0 0 0 0 0.511638767455766 0 0 0 0 0 0 0 -0.292818087943795 0 0 0 0 0 0 0 0 0 0 0 0 0 0 0
0 0 0 0 0 0 0 0 0.989609741398626 0 0 0.0912006093476016 0 0 0 0 0 0 0 0 0.0344246523767414 0 0 0 0 0.175814999134893 0.148513027198134 0 0 0 0 0 0 0 0 -0.292818087943795 -1.10698634879743 0 0 0 0 0 0 0 0 0 0 -0.696587314150338 0 0
0 0.127702918674449 0 0 0 0 0 0 0 0.650620276930965 0 0 0 0 0 0 0 0 0 0.114991555472011 0 0 0 0 0 0 0 0 0 0 0 0 0 0 0 0.214139861296854 -0.292818087943795 0 0 0 0 0 0 0 0 -0.690358742343883 0 -1.68849898996133 0 0
0 0 0 0 0 0.130195016911579 0 0 0 0.656885081746685 0 0 0 0 0 0 0 0 0 0 1.1280070890217 0 0 0 0 0 0 0 0 0 0.118088148749338 0 0 0 0 0 0 -0.292818087943795 0 0 0 0 0 0 0 0 0 0 0 0
0 0 0 0 0 0 0 0 0 0 0 0 0 0 0 0.744432180851522 0 0 0 0 0 0 0 0 0 0.156502591710139 0 0 0 0 0 0 0 0 0 0 0 0 -0.292818087943795 0 -0.12469590769843 0 0 0 0 0 0 0 0 0
0.158795899398446 0.0617712055929072 0 0.168411068101594 0 0 0 0.0711037669165354 0 0 0 0 0 0 0 0 0 0 0 0.703319844490045 0 0 0 0 0 0 0 0 0 0 0 0 0 0 0 0 0 0 0 -0.292818087943795 0 0 0 0 0 0 0 0 0 0
0 0.826362240761616 0 0 0.0593881900636607 0 0 0 0.631680509453459 0 0 0 0 0 0 0 0 0 0.188401592689828 0 0 0 0 0 0.100910592118911 0.0278445177136887 0 0 0 0 0 0 0 0 0 0 0 0 0.0227630625867982 0 -0.292818087943795 0 0 0 0 0 0 -0.310264156065344 0 0
0.53750116309496 0 0 0 0 0 0 0 0 0 0 0 0 0 0 0 0 0 0 0 0 0 0 0 0 0 0 0 0 0 0 0 0 0 0 0 0 0 0 0 0 -0.292818087943795 0 0 0 0 0 0 0 0
0 0 0 0 0.0729990740182199 0.16424244484579 0 0.158328618338718 0 0 0 0 0 0.161727214221784 0 0 0.26564386962848 0 0 0 0 0 0 0 0 0 0 0 0.0249237342483176 0 0 0 0 0 0 0 0 0 0 0 0 0 -0.292818087943795 0 0 0 0 0 0 0
0.0399401722691158 0 0 0 0 0 0 0 0 0 0.100355241978442 0 0 0 0 0 0 0 0.0508052887946101 0 0 0 0 0 0 0 0 0 0 0 0 0 0 0 0 0 0 0 0 0 0 0 0 -0.292818087943795 0 0 0 -1.09122856489975 0 0
0 0 0 0.205919767923455 0 0 0 0 0 0 0 0 0 0 0 0 0 0 0 0 0 0.410966168094675 0 0.111552943389015 0 0 0 0 0 0 0 0 0 0 0 0 0 0 0 0 0 0 0 0 -0.292818087943795 0 0 0 -4.97679441792442 0
0 0 0 0 0 0 0 0 0 0 0 0 0 0.0567715861580091 0.0584796840539623 0.0845071011584759 0 0 0 0 0 0 0 0 0 0 0 0 0 0 0 0 0 0 0 0 0.13196118869901 0 0 0 0 0 0 0 0 -0.292818087943795 0 0 0 0
0 0 0 0 0 0 0 0 0 0 0 0 0.121118330162581 0 0 0 0 0 0 0 0 0 0 0 0 0 0 0 0 0 0 0 0 0.17868912551898 0 0 0 0 0 0 0 0 0 0 0 0 -0.292818087943795 0 0 0
0 0 0 0 0 0 0 0 0 0 0 0 0 0 0 0 0 0 0 0 0 0 0 0 0 0 0 0 0 0 0 0 0 0 0 0.132257196434664 0.338816253890198 0 0 0 0.0661379170203409 0 0 0.235470393138515 0 0 0 -0.292818087943795 0 0
0 0 0 0 0 0 0 0 0 0 0 0 0 0 0 0 0 0 0 0 0 0 0 0 0 0 0 0 0 0 0 0 0 0 0 0 0 0 0 0 0 0 0 0 0.945136204627796 0 0 0 -0.292818087943795 -0.904672131517355
0 0 0 0.369901624118001 0 0 0 0 0 0 0 0 0 0 0 0 0 0 0.0633792266426467 0.530956839409521 0 0 0 0 0 0 0 0 0 0 0 0 0 0 0 0 0 0 0 0 0 0 0 0 0 0 0 0 0.181745642630998 -0.292818087943795
