-0.268768738333459 -2.28821789862594 0 0 0 0 0 -0.204991438389482 0 0 0 0 0 -0.872203294533186 -0.637299960750126 0 0 0 0 -0.427414420397194 0 0 0 -1.10996349359447 0 0 0 -0.303751464805219 0 0 0 0 0 0 0 0 0 0 0 0 0 0 0 0 0 0 -0.412833086564948 0 0 0
0.493434824505793 -0.268768738333459 -0.72748952886668 0 0 0 -1.20363114924877 0 -0.569873712637185 0 0 0 0 0 0 -1.93274795438961 0 -5.26302755346544 0 0 -2.08965998310937 0 0 0 0 0 0 0 0 0 0 0 -2.49735053625876 0 0 0 0 0 0 0 0 0 0 0 0 -0.533395827528712 0 -0.510298231995521 0 0
0 0.146554067444685 -0.268768738333459 0 0 -1.22781257439313 0 -0.859866323288562 0 -0.736831623709045 0 0 0 0 0 0 0 0 0 0 0 0 0 0 0 0 0 0 0 0 0 0 0 0 0 0 0 -1.51367373758351 0 0 0 -0.634648040095788 0 0 0 0 0 0 0 -0.614824639649504
0 0 0 -0.268768738333459 0 0 0 0 0 0 -0.212912601512553 0 0 0 0 0 0 0 0 0 0 0 0 0 0 0 0 0 0 0 0 0 0 0 0 0 0 0 0 0 0 0 0 0 0 0 0 0 0 -6.717064394034
0 0 0 0 -0.268768738333459 -1.18432510156947 0 0 0 0 0 0 0 -0.770037293871828 0 0 0 0 -0.100103036853466 0 0 -2.73772340342313 0 0 0 0 0 0 0 0 0 0 0 0 0 0 0 0 0 0 0 0 0 0 0 -1.41925484644497 0 -0.339725369707073 0 0
0 0 0.234558431675549 0 0.239419781591094 -0.268768738333459 0 0 0 0 0 0 0 0 0 0 0 0 0 0 0 0 0 -1.88507582294157 0 0 0 0 0 0 0 0 0 0 0 0 0 0 0 -2.89269273747548 0 0 0 0 0 0 0 0 0 0
0 0.238853878464311 0 0 0 0 -0.268768738333459 -2.39296960147653 0 0 0 0 0 0 0 0 0 -6.10884485240044 0 0 0 0 0 0 0 0 0 0 0 -0.219691422413187 0 0 0 -0.387457573002803 0 0 0 0 0 0 0 0 0 0 0 0 0 0 0 0
0.0375068898118784 0 0.159070491427257 0 0 0 0.485019985024508 -0.268768738333459 0 0 0 0 0 0 0 0 0 0 0 0 0 0 0 0 -3.53642575095682 0 0 0 0 0 0 0 0 -0.782499818885422 -0.71189056209325 -0.0490373991967089 0 0 0 0 0 0 0 0 0 0 -1.93867024550566 0 0 0
0 0.109771862697559 0 0 0 0 0 0 -0.268768738333459 0 0 0 0 0 0 0 0 0 0 0 -0.267403303118132 0 0 0 0 0 0 0 0 -0.192224747720186 0 0 0 0 0 0 0 0 0 0 -4.15003391889002 0 0 0 0 -3.35056826217385 0 0 0 0
0 0 0.140732091461958 0 0 0 0 0 0 -0.268768738333459 0 0 0 0 0 0 0 0 0 0 0 0 0 0 0 0 0 0 0 -2.52112115867205 0 0 0 0 0 0 0 0 0 0 0 0 0 0 0 0 0 0 0 -0.981826590397753
0 0 0 0.0405461227275993 0 0 0 0 0 0 -0.268768738333459 0 0 0 0 0 0 0 -0.21322015737584 0 0 0 0 0 0 0 -0.710951648683492 -0.411128146541881 0 0 0 0 0 -7.41018781478903 0 0 0 0 -1.08927784107721 0 0 0 0 0 0 0 0 0 0 0
0 0 0 0 0 0 0 0 0 0 0 -0.268768738333459 0 0 0 0 0 0 0 0 0 0 0 0 0 0 0 0 0 0 0 0 0 0 0 0 0 0 0 0 0 0 0 0 0 0 -12.0328840002921 -0.487653652416533 -3.01836662003109 0
0 0 0 0 0 0 0 0 0 0 0 0 -0.268768738333459 0 0 0 0 0 0 0 0 0 0 0 0 0 0 0 0 0 -0.471889017175027 0 0 0 0 0 0 -1.45559407305061 0 0 0 -0.799653820814248 0 0 0 0 0 0 0 0
0.171271054149745 0 0 0 0.144496092318679 0 0 0 0 0 0 0 0 -0.268768738333459 0 0 0 0 0 0 0 0 0 0 0 0 0 0 0 0 0 0 0 -1.05008172766595 0 0 0 0 0 0 0 0 0 0 0 0 0 0 0 0
0.123520484417625 0 0 0 0 0 0 0 0 0 0 0 0 0 -0.268768738333459 -2.84886328347135 0 0 0 0 0 0 0 0 0 0 0 0 0 0 0 0 0 0 0 0 0 0 0 0 0 0 0 0 0 0 0 0 0 -1.60021637011117
0 0.401661972632193 0 0 0 0 0 0 0 0 0 0 0 0 0.563995554498482 -0.268768738333459 0 0 0 0 0 0 0 0 0 0 0 0 0 0 0 0 0 0 0 0 0 0 0 0 0 0 0 0 0 0 0 0 0 0
0 0 0 0 0 0 0 0 0 0 0 0 0 0 0 0 -0.268768738333459 0 0 0 0 0 0 0 0 0 0 0 0 0 0 0 0 0 0 0 -1.46215590500086 0 0 0 0 0 0 0 0 0 0 0 0 0
0 1.06318256109316 0 0 0 0 1.24227477631652 0 0 0 0 0 0 0 0 0 0 -0.268768738333459 0 0 0 0 0 0 0 -2.48977520560349 0 0 0 0 0 0 0 0 0 -1.5771593063189 0 0 -0.412335044657784 0 0 0 0 0 0 0 0 0 0 0
0 0 0 0 0.0201995764299051 0 0 0 0 0 0.044401764338208 0 0 0 0 0 0 0 -0.268768738333459 0 -0.372206931047104 0 0 0 0 0 0 0 0 0 0 0 0 0 0 0 0 0 0 0 0 0 0 0 0 0 -3.80436859767404 -1.30080751488364 0 0
0.0835186679747584 0 0 0 0 0 0 0 0 0 0 0 0 0 0 0 0 0 0 -0.268768738333459 -0.549226737044167 0 0 0 0 0 0 -0.271710157816307 0 0 -1.02055599853658 0 0 0 0 0 0 -1.27533616747222 -0.259685985406868 0 0 0 0 0 0 0 0 0 0 0
0 0.407357318162618 0 0 0 0 0 0 0.0501311103355294 0 0 0 0 0 0 0 0 0 0.0774530074725059 0.112664011106995 -0.268768738333459 0 0 0 0 0 0 0 0 0 0 0 0 0 -0.456548635838325 0 0 0 0 0 -1.03341006636662 0 0 0 0 0 0 0 0 0
0 0 0 0 0.57791130194432 0 0 0 0 0 0 0 0 0 0 0 0 0 0 0 0 -0.268768738333459 0 0 0 0 0 0 -0.230240989957715 0 0 0 0 0 0 0 0 0 0 -1.27292510619946 0 0 0 -0.491969846425439 0 0 0 0 0 0
0 0 0 0 0 0 0 0 0 0 0 0 0 0 0 0 0 0 0 0 0 0 -0.268768738333459 0 0 0 0 0 0 0 0 0 0 0 0 0 0 -0.531172646057305 0 0 0 0 0 0 0 0 0 0 0 -0.243834880383631
0.216147145269993 0 0 0 0 0.386543674471493 0 0 0 0 0 0 0 0 0 0 0 0 0 0 0 0 0 -0.268768738333459 0 0 0 0 0 -1.30914071443418 0 0 -0.616179231710929 0 0 0 0 0 0 0 -2.47597434871261 0 0 0 0 -6.99014547377346 0 0 0 -2.98922463943154
0 0 0 0 0 0 0 0.716141964354334 0 0 0 0 0 0 0 0 0 0 0 0 0 0 0 0 -0.268768738333459 0 0 0 0 0 0 0 0 0 0 0 -6.07079587855939 0 0 0 0 0 0 0 -2.9153205737987 0 0 0 0 0
0 0 0 0 0 0 0 0 0 0 0 0 0 0 0 0 0 0.514491054870213 0 0 0 0 0 0 0 -0.268768738333459 0 0 0 0 0 0 0 0 0 -1.69533772335987 0 0 0 0 0 0 -1.57482105908698 0 0 0 -1.21139629035904 0 0 0
0 0 0 0 0 0 0 0 0 0 0.147575780596703 0 0 0 0 0 0 0 0 0 0 0 0 0 0 0 -0.268768738333459 -1.51963054231201 0 0 0 0 0 0 0 0 0 0 0 0 0 0 0 0 0 0 0 0 0 0
0.0654371492372609 0 0 0 0 0 0 0 0 0 0.08354051697956 0 0 0 0 0 0 0 0 0.0547214106346079 0 0 0 0 0 0 0.310026685657985 -0.268768738333459 0 0 0 0 -1.68331843884943 0 0 0 0 -1.01927096390628 0 0 0 0 0 0 -2.92113095352144 0 0 0 0 0
0 0 0 0 0 0 0 0 0 0 0 0 0 0 0 0 0 0 0 0 0 0.0445921495144346 0 0 0 0 0 0 -0.268768738333459 0 0 -0.439755125706721 0 0 0 0 0 -0.165981398177914 0 -0.661779756805514 0 0 0 0 0 -0.998817495166532 0 -1.01506671000982 0 0
0 0 0 0 0 0 0.0467384914101784 0 0.0373402326081328 0.528486980282171 0 0 0 0 0 0 0 0 0 0 0 0 0 0.231020629820024 0 0 0 0 0 -0.268768738333459 -0.326030988677347 -2.64571683394022 0 0 0 0 0 -1.25270040507272 0 -1.01396690702946 0 0 0 0 0 0 0 0 0 -1.8112406323947
0 0 0 0 0 0 0 0 0 0 0 0 0.105377223812668 0 0 0 0 0 0 0.215300426466939 0 0 0 0 0 0 0 0 0 0.0670937907655001 -0.268768738333459 0 0 0 0 0 0 0 0 0 0 0 -3.68990995649885 0 0 0 0 0 0 0
0 0 0 0 0 0 0 0 0 0 0 0 0 0 0 0 0 0 0 0 0 0 0 0 0 0 0 0 0.0851091346940686 0.584796647115142 0 -0.268768738333459 0 0 0 0 0 0 0 0 0 -1.39220918847096 0 0 0 0 0 0 0 0
0 0.544728396167303 0 0 0 0 0 0 0 0 0 0 0 0 0 0 0 0 0 0 0 0 0 0.130896420060608 0 0 0 0.354364315706491 0 0 0 0 -0.268768738333459 0 0 0 0 0 0 0 -2.59054225736024 0 0 0 0 0 0 0 0 0
0 0 0 0 0 0 0.0777882051243223 0.160808193956961 0 0 1.43310827445004 0 0 0.201322301592711 0 0 0 0 0 0 0 0 0 0 0 0 0 0 0 0 0 0 0 -0.268768738333459 0 0 0 0 0 0 0 0 0 0 0 0 0 0 0 0
0 0 0 0 0 0 0 0.142276934572938 0 0 0 0 0 0 0 0 0 0 0 0 0.0866074040158954 0 0 0 0 0 0 0 0 0 0 0 0 0 -0.268768738333459 -4.41368240492713 0 0 0 0 0 0 0 -2.42104862616318 0 0 0 0 0 0
0 0 0 0 0 0 0 0.00943063033909396 0 0 0 0 0 0 0 0 0 0.335542750573998 0 0 0 0 0 0 0 0.359321602718841 0 0 0 0 0 0 0 0 0.927137003561894 -0.268768738333459 0 0 0 -0.154319280629209 0 0 0 0 -0.154064848622613 0 0 0 -0.658007416872546 -0.133892259777388
0 0 0 0 0 0 0 0 0 0 0 0 0 0 0 0 0.312868587458755 0 0 0 0 0 0 0 1.2122568211694 0 0 0 0 0 0 0 0 0 0 0 -0.268768738333459 -2.24247895786894 0 0 -0.635331562798614 0 -0.203604383994347 0 0 0 -2.39440553580526 0 0 0
0 0 0.303197643788126 0 0 0 0 0 0 0 0 0 0.293013359095988 0 0 0 0 0 0 0.267624315674367 0 0 0.106889724740587 0 0 0 0 0.205637523585887 0.0315533755970897 0.225343486027111 0 0 0 0 0 0 0.424331986733097 -0.268768738333459 -2.43689017585238 0 0 0 0 0 0 0 0 0 0 0
0 0 0 0 0 0 0 0 0 0 0.214003623234036 0 0 0 0 0 0 0.0862699309401778 0 0.0546078098080686 0 0 0 0 0 0 0 0 0 0 0 0 0 0 0 0 0 0.498788418367416 -0.268768738333459 0 0 0 -1.60587327004129 0 0 0 0 0 0 0
0 0 0 0 0 0.590561294656921 0 0 0 0 0 0 0 0 0 0 0 0 0 0 0 0.268995761801602 0 0 0 0 0 0 0.134102651352287 0.211945062106045 0 0 0 0 0 0.0304687687271955 0 0 0 -0.268768738333459 0 0 0 0 0 0 0 -5.40411240794012 0 0
0 0 0 0 0 0 0 0 0.866761743522789 0 0 0 0 0 0 0 0 0 0 0 0.214471684414909 0 0 0.506893473589187 0 0 0 0 0 0 0 0 0.498640587389146 0 0 0 0.13333440515765 0 0 0 -0.268768738333459 0 0 0 0 0 0 0 0 0
0 0 0.140610621917416 0 0 0 0 0 0 0 0 0 0.162705866009893 0 0 0 0 0 0 0 0 0 0 0 0 0 0 0 0 0 0 0.29532343915217 0 0 0 0 0 0 0 0 0 -0.268768738333459 0 0 0 0 0 0 -0.949246032810688 0
0 0 0 0 0 0 0 0 0 0 0 0 0 0 0 0 0 0 0 0 0 0 0 0 0 0.331780037917299 0 0 0 0 0.75434077859991 0 0 0 0 0 0.0407447934324377 0 0.349187471164209 0 0 0 -0.268768738333459 0 0 0 0 0 0 0
0 0 0 0 0 0 0 0 0 0 0 0 0 0 0 0 0 0 0 0 0 0.0950691631296295 0 0 0 0 0 0 0 0 0 0 0 0 0.474543850341556 0 0 0 0 0 0 0 0 -0.268768738333459 0 0 0 0 0 0
0 0 0 0 0 0 0 0 0 0 0 0 0 0 0 0 0 0 0 0 0 0 0 0 0.538930448825137 0 0 0.65922123415714 0 0 0 0 0 0 0 0.0321761393295716 0 0 0 0 0 0 0 0 -0.268768738333459 0 -1.21225680740456 0 0 0
0 0.112857689481208 0 0 0.31214800611737 0 0 0 0.706638527490809 0 0 0 0 0 0 0 0 0 0 0 0 0 0 1.43200740366452 0 0 0 0 0.184734925769755 0 0 0 0 0 0 0 0 0 0 0 0 0 0 0 0 -0.268768738333459 0 0 0 0
0.0813258236262549 0 0 0 0 0 0 0.403610665379296 0 0 0 2.51031184047318 0 0 0 0 0 0 0.811817440549752 0 0 0 0 0 0 0.229453468928104 0 0 0 0 0 0 0 0 0 0 0.469350938164508 0 0 0 0 0 0 0 0.241593078214595 0 -0.268768738333459 -0.524075778494633 0 0
0 0.101319791069577 0 0 0.0634203543531784 0 0 0 0 0 0 0.104360899958725 0 0 0 0 0 0 0.252354010144316 0 0 0 0 0 0 0 0 0 0.193373183504958 0 0 0 0 0 0 0 0 0 0 1.00621061263034 0 0 0 0 0 0 0.0993556653998545 -0.268768738333459 0 -0.518528437728176
0 0 0 0 0 0 0 0 0 0 0 0.578996104613631 0 0 0 0 0 0 0 0 0 0 0 0 0 0 0 0 0 0 0 0 0 0 0 0.136225677600265 0 0 0 0 0 0.198723272996771 0 0 0 0 0 0 -0.268768738333459 0
0 0 0.12505457403548 1.31653152387461 0 0 0 0 0 0.196199468815044 0 0 0 0 0.315167487113559 0 0 0 0 0 0 0 0.04894680482207 0.633409674998266 0 0 0 0 0 0.37942463823498 0 0 0 0 0 0.0261596503168192 0 0 0 0 0 0 0 0 0 0 0 0.098064073386927 0 -0.268768738333459
