-0.237593674972681 0 0 0 0 0 0 0 0 0 0 0 0 0 0 0 0 0 0 0 0 0 0 0 0 0 0 0 -3.12536688481167 0 0 0 -0.394884394866782 0 0 0 0 0 0 0 0 0 0 0 0 0 0 0 0 -0.348502579648087
0 -0.237593674972681 0 0 0 0 -0.137593895904384 0 -0.238657996714722 0 0 0 0 0 0 0 0 0 0 -1.17302380639879 0 0 0 0 0 0 0 0 0 0 0 0 0 0 0 0 0 0 0 0 0 0 0 0 0 0 0 0 0 0
0 0 -0.237593674972681 -1.37500765868885 0 0 0 0 0 0 0 -0.366076060921009 0 0 0 0 0 0 0 0 0 0 0 0 0 0 -0.240711588244586 0 0 0 0 0 0 0 0 0 0 0 0 0 0 0 0 0 0 -2.84121586196918 0 0 0 -1.61009856258146
0 0 0.276452227489928 -0.237593674972681 0 0 0 0 0 -0.437208574355482 0 0 0 0 0 0 0 0 0 0 0 0 0 0 0 0 0 0 -0.191898431374951 0 0 0 0 0 0 0 -1.43772491102057 -0.686152899379341 0 0 0 0 0 -1.14453465303455 0 0 0 0 0 0
0 0 0 0 -0.237593674972681 0 0 0 0 0 -3.44086128212335 0 0 -1.48986922744984 0 0 0 0 0 0 -0.331849285312834 -0.975795110908418 0 0 0 0 0 0 0 0 0 0 0 0 0 0 0 0 0 -0.805072291803738 0 0 0 0 -1.6957959809298 0 -1.13962194205245 -0.395144269859701 0 0
0 0 0 0 0 -0.237593674972681 0 0 0 0 -2.08294797236913 0 0 0 0 0 0 0 0 0 0 0 0 0 0 -1.92836367505234 0 0 0 0 0 -5.19634434794005 -0.502370487468009 0 0 0 0 -0.683682216753066 0 0 0 -0.143429721876645 0 0 0 0 0 0 0 0
0 0.0275968537736647 0 0 0 0 -0.237593674972681 0 0 0 0 0 0 0 -1.4909568512264 0 -0.621659705747476 0 0 0 0 0 0 0 0 0 0 0 0 0 0 0 0 0 0 0 0 0 -0.341397008194407 -0.297576637392653 0 0 -0.377816909195803 0 0 0 0 0 0 0
0 0 0 0 0 0 0 -0.237593674972681 0 0 0 0 0 0 0 0 0 -0.193994562562794 0 0 0 0 0 0 0 0 0 0 0 0 -0.385446471218531 0 0 0 0 0 0 0 0 0 0 -1.03793727613401 0 0 0 0 0 0 0 0
0 0.0503643333918595 0 0 0 0 0 0 -0.237593674972681 0 0 0 0 0 0 0 0 -1.73533083722745 0 -4.2042135846206 0 0 0 0 0 0 0 0 0 0 0 0 -1.31880937075209 0 0 0 0 0 0 0 0 0 0 0 0 0 0 0 0 0
0 0 0 0.0831765860694143 0 0 0 0 0 -0.237593674972681 0 0 0 0 0 0 0 0 0 0 0 0 0 0 0 0 0 0 -0.103140171944214 0 0 0 -0.236394857193017 0 0 0 0 0 0 0 0 0 0 0 0 0 0 0 -1.02627106312559 -0.784153484486192
0 0 0 0 0.686432640153255 0.409502010151249 0 0 0 0 -0.237593674972681 0 0 0 0 -1.39966299186083 0 0 0 -0.622842336602852 0 0 0 -0.540634637088087 0 0 0 0 0 0 0 0 0 0 -7.19981282475026 0 0 -0.662070158317995 -3.04098708702031 0 0 0 0 0 0 0 0 0 0 0
0 0 0.0767417162669121 0 0 0 0 0 0 0 0 -0.237593674972681 0 0 0 0 0 0 0 0 0 0 0 0 0 0 0 0 0 0 0 0 0 0 0 -1.58031214305674 0 0 -0.397784939006083 0 0 0 0 0 0 -3.12782479571838 0 0 0 0
0 0 0 0 0 0 0 0 0 0 0 0 -0.237593674972681 0 0 0 0 0 0 0 0 0 0 0 0 0 0 -0.412723851050586 0 0 0 0 0 -0.415277990712977 0 0 0 -0.0704965149025546 0 -0.242924544539791 -0.220959470139922 0 0 0 0 0 0 0 0 0
0 0 0 0 0.288355438006706 0 0 0 0 0 0 0 0 -0.237593674972681 0 0 0 0 0 0 0 0 0 0 0 0 0 0 0 0 0 -1.24751739870945 0 0 0 0 0 0 0 0 -0.446627876920631 0 0 0 0 0 0 0 0 0
0 0 0 0 0 0 0.297083640165648 0 0 0 0 0 0 0 -0.237593674972681 -1.15766389193948 0 0 0 0 0 0 0 0 0 0 0 -0.556068081452598 0 0 0 0 0 0 0 0 0 0 0 0 0 0 0 -0.422372866113859 0 0 0 0 0 0
0 0 0 0 0 0 0 0 0 0 0.281963779471754 0 0 0 0.223126591463769 -0.237593674972681 0 0 0 0 0 0 0 0 0 0 0 0 0 0 0 0 0 0 0 0 0 0 0 0 0 0 0 0 0 0 0 -1.52698372886942 0 0
0 0 0 0 0 0 0.126638487190961 0 0 0 0 0 0 0 0 0 -0.237593674972681 0 -4.16298376970276 0 0 0 -1.80925224088306 0 0 0 0 0 0 0 0 0 0 0 0 0 0 0 0 0 0 0 0 0 0 0 0 0 0 0
0 0 0 0 0 0 0 0.0365576238927908 0.351552156676079 0 0 0 0 0 0 0 0 -0.237593674972681 0 0 0 0 0 0 0 0 0 0 0 0 0 0 0 0 0 0 0 0 0 0 -6.31322459928107 -0.377063434899131 0 -0.746053570526505 0 0 0 0 0 0
0 0 0 0 0 0 0 0 0 0 0 0 0 0 0 0 0.819386660859279 0 -0.237593674972681 0 -1.28663853307924 0 -2.64996125128317 -0.489511565418983 0 0 0 0 -0.55980656027295 0 0 0 0 0 -1.94070272635409 0 0 0 0 0 0 0 0 0 0 0 0 0 0 0
0 0.231803765128723 0 0 0 0 0 0 0.800293418631185 0 0.122060472123263 0 0 0 0 0 0 0 0 -0.237593674972681 0 0 0 0 0 0 0 0 0 -1.94380732940088 0 0 0 0 0 -1.35242577301795 0 0 0 0 0 0 0 0 0 -3.49031271937001 0 0 0 0
0 0 0 0 0.0680986035853871 0 0 0 0 0 0 0 0 0 0 0 0 0 0.247216946460324 0 -0.237593674972681 0 0 0 0 0 0 0 0 0 0 0 0 0 0 0 -0.184217445159722 0 -1.5218024733836 0 0 0 0 0 0 0 0 0 0 0
0 0 0 0 0.174150507868014 0 0 0 0 0 0 0 0 0 0 0 0 0 0 0 0 -0.237593674972681 0 0 0 0 0 0 0 0 0 0 0 -0.847553801570689 -2.50699132479118 0 0 0 0 0 0 0 0 0 0 0 0 0 0 0
0 0 0 0 0 0 0 0 0 0 0 0 0 0 0 0 0.345020782601298 0 0.558971579519946 0 0 0 -0.237593674972681 0 0 -1.45851137648341 0 0 0 0 0 0 0 0 0 0 0 0 0 0 0 0 0 0 -1.01815757984479 0 -0.837604696691428 0 0 0
0 0 0 0 0 0 0 0 0 0 0.109163164411396 0 0 0 0 0 0 0 0.099639880821965 0 0 0 0 -0.237593674972681 -0.661657215807955 -1.87099287846611 0 0 0 0 0 0 0 0 0 0 -2.26746072816613 0 0 0 0 -2.1742105753457 0 0 0 0 0 0 0 0
0 0 0 0 0 0 0 0 0 0 0 0 0 0 0 0 0 0 0 0 0 0 0 0.126781749270738 -0.237593674972681 0 0 0 0 0 0 0 0 0 0 0 0 0 0 0 0 -0.770591562812581 0 0 0 0 0 0 0 0
0 0 0 0 0 0.386010816594611 0 0 0 0 0 0 0 0 0 0 0 0 0 0 0 0 0.285800982492951 0.374613289318264 0 -0.237593674972681 0 0 0 0 0 0 0 0 0 -1.00396857605793 0 0 0 -1.78204970357331 0 0 0 0 0 0 0 0 0 0
0 0 0.0452171610387541 0 0 0 0 0 0 0 0 0 0 0 0 0 0 0 0 0 0 0 0 0 0 0 -0.237593674972681 0 0 0 0 0 0 -3.23790370601158 0 0 0 0 0 -0.427751716866324 -1.52887534688705 -9.10116043097267 0 0 0 0 0 0 0 -0.502838751048487
0 0 0 0 0 0 0 0 0 0 0 0 0.0881180479793268 0 0.128338883279242 0 0 0 0 0 0 0 0 0 0 0 0 -0.237593674972681 0 0 0 -0.411400717813109 -0.286856821877498 0 0 0 -0.867387943070537 0 0 -0.896516776413309 -1.31422769236011 0 0 0 0 0 -0.95963897215845 -0.47829566866839 0 0
0.617709145543409 0 0 0.0381602342443055 0 0 0 0 0 0.0210458232353655 0 0 0 0 0 0 0 0 0.109728740592363 0 0 0 0 0 0 0 0 0 -0.237593674972681 0 0 0 0 0 0 0 0 0 0 0 0 -1.84512416537251 0 0 -4.40477990490036 0 0 0 0 0
0 0 0 0 0 0 0 0 0 0 0 0 0 0 0 0 0 0 0 0.426159171756234 0 0 0 0 0 0 0 0 0 -0.237593674972681 0 -1.57043261526152 0 0 0 0 0 0 0 0 0 0 0 -5.69558633168839 0 0 0 0 0 0
0 0 0 0 0 0 0 0.0769975991285464 0 0 0 0 0 0 0 0 0 0 0 0 0 0 0 0 0 0 0 0 0 0 -0.237593674972681 -0.543361333503378 0 0 0 0 0 0 0 0 0 0 0 0 0 0 0 0 0 0
0 0 0 0 0 1.11326099451054 0 0 0 0 0 0 0 0.24414497181788 0 0 0 0 0 0 0 0 0 0 0 0 0 0.0833175738815831 0 0.327951616420223 0.106812082337677 -0.237593674972681 0 0 0 0 0 0 0 0 0 0 0 0 0 0 0 0 -1.85870537224957 0
0.0758053198365825 0 0 0 0 0.0898835639231056 0 0 0.25260708016098 0.0478563144775527 0 0 0 0 0 0 0 0 0 0 0 0 0 0 0 0 0 0.0574111150721057 0 0 0 0 -0.237593674972681 0 0 0 -0.484083839532043 0 0 -1.41822658502729 0 0 0 0 0 0 0 0 0 0
0 0 0 0 0 0 0 0 0 0 0 0 0.0848804329210902 0 0 0 0 0 0 0 0 0.163896126674213 0 0 0 0 0.639427505287859 0 0 0 0 0 0 -0.237593674972681 0 0 0 0 -0.477134394859426 -4.10203682187496 0 -0.658233439065196 -0.222362380771413 0 0 0 -1.77021073912641 -2.1559881848647 0 0
0 0 0 0 0 0 0 0 0 0 1.46877824757012 0 0 0 0 0 0 0 0.36739576734438 0 0 0.5026100817122 0 0 0 0 0 0 0 0 0 0 0 0 -0.237593674972681 0 0 0 0 0 0 0 0 0 0 0 0 0 0 0
0 0 0 0 0 0 0 0 0 0 0 0.325652824732296 0 0 0 0 0 0 0 0.261379728723986 0 0 0 0 0 0.202203503170457 0 0 0 0 0 0 0 0 0 -0.237593674972681 0 0 0 0 0 0 0 0 0 0 0 0 -4.93862542291394 -5.94764566014269
0 0 0 0.272050459947397 0 0 0 0 0 0 0 0 0 0 0 0 0 0 0 0 0.0351419632167826 0 0 0.453872918300104 0 0 0 0.167005974329577 0 0 0 0 0.0933186291868497 0 0 0 -0.237593674972681 0 0 0 0 0 0 0 0 0 0 0 0 0
0 0 0 0.133279101000823 0 0.129125532769265 0 0 0 0 0.135351634416599 0 0.0146104230091378 0 0 0 0 0 0 0 0 0 0 0 0 0 0 0 0 0 0 0 0 0 0 0 0 -0.237593674972681 0 0 0 0 0 0 0 0 0 0 -0.74878614669794 0
0 0 0 0 0 0 0.0666588629057506 0 0 0 0.601790878056615 0.07702146238116 0 0 0 0 0 0 0 0 0.298909651833462 0 0 0 0 0 0 0 0 0 0 0 0 0.0934177585225511 0 0 0 0 -0.237593674972681 -0.361509632976007 0 0 0 0 -2.28553962571227 0 0 0 0 0
0 0 0 0 0.164914586261328 0 0.0596575847600465 0 0 0 0 0 0.052798896855448 0 0 0 0 0 0 0 0 0 0 0 0 0.367144901185995 0.0894899088964622 0.18077785394019 0 0 0 0 0.270506445705541 0.806600384970824 0 0 0 0 0.0729716460094135 -0.237593674972681 0 0 -4.1316377799386 -0.596192648306133 0 0 0 0 0 0
0 0 0 0 0 0 0 0 0 0 0 0 0.0447091111053468 0.0898437980431782 0 0 0 1.22758024107981 0 0 0 0 0 0 0 0 0.29644836989161 0.26987180183839 0 0 0 0 0 0 0 0 0 0 0 0 -0.237593674972681 0 0 -0.530978442233984 0 0 0 0 0 0
0 0 0 0 0 0.0303512422205998 0 0.217746533658854 0 0 0 0 0 0 0 0 0 0.0762071073613362 0 0 0 0 0 0.404471847175884 0.151118349842538 0 1.97639725917528 0 0.379839426507767 0 0 0 0 0.137586702159336 0 0 0 0 0 0 0 -0.237593674972681 0 -2.60642641419183 0 0 -1.05313008734906 0 0 0
0 0 0 0 0 0 0.0710979993088237 0 0 0 0 0 0 0 0 0 0 0 0 0 0 0 0 0 0 0 0 0 0 0 0 0 0 0.0462047453160408 0 0 0 0 0 0.844117631476419 0 0 -0.237593674972681 0 0 0 0 0 0 0
0 0 0 0.243228896803047 0 0 0 0 0 0 0 0 0 0 0.0832622665459373 0 0 0.141545259751831 0 0 0 0 0 0 0 0 0 0 0 1.1393668681734 0 0 0 0 0 0 0 0 0 0.128694597682077 0.106624680817588 0.51957518373669 0 -0.237593674972681 0 -0.183570277044626 0 0 0 0
0 0 0 0 0.359603010219028 0 0 0 0 0 0 0 0 0 0 0 0 0 0 0 0 0 0.198650001808502 0 0 0 0 0 0.850477797649721 0 0 0 0 0 0 0 0 0 0.468639917712375 0 0 0 0 0 -0.237593674972681 0 -7.64519257478084 0 0 -0.357444855992983
0 0 0.558395971666965 0 0 0 0 0 0 0 0 0.579327402219555 0 0 0 0 0 0 0 0.729573268608241 0 0 0 0 0 0 0 0 0 0 0 0 0 0 0 0 0 0 0 0 0 0 0 0.0354847335761038 0 -0.237593674972681 0 0 0 0
0 0 0 0 0.230267436364923 0 0 0 0 0 0 0 0 0 0 0 0 0 0 0 0 0 0.155729323068358 0 0 0 0 0.17889491524321 0 0 0 0 0 0.327727898448278 0 0 0 0 0 0 0 0.21066678607023 0 0 1.58856358481759 0 -0.237593674972681 0 0 0
0 0 0 0 0.0756248047926232 0 0 0 0 0 0 0 0 0 0 0.29641929789359 0 0 0 0 0 0 0 0 0 0 0 0.0895948970103289 0 0 0 0 0 0.393962071051301 0 0 0 0 0 0 0 0 0 0 0 0 0 -0.237593674972681 0 -1.85922904189076
0 0 0 0 0 0 0 0 0 0.197061171138068 0 0 0 0 0 0 0 0 0 0 0 0 0 0 0 0 0 0 0 0 0 0.344666361173192 0 0 0 0.93799141554327 0 0.146620791909467 0 0 0 0 0 0 0 0 0 0 -0.237593674972681 0
0.0730875307989813 0 0.338011013379194 0 0 0 0 0 0 0.146472552622745 0 0 0 0 0 0 0 0 0 0 0 0 0 0 0 0 0.107919637746122 0 0 0 0 0 0 0 0 1.26560086209944 0 0 0 0 0 0 0 0 0.0686220748101985 0 0 0.352507286909191 0 -0.237593674972681
