2.10506585481618
5.7532684876892
1.42001531671231
0.58450319740487
0.841395121008483
0.52105736978146
0.480495177516359
0.232852683532285
1.47721985408965
0.824434423198093
0.963091042348483
2.16519456755593
0.294919608945104
1.47379529935409
5.44790809491989
2.45302267222018
4.1018526369998
1.37650659310759
1.75894957089295
0.4591007638713
0.907918774589466
2.40462194718108
0.404843577372146
1.09945379281788
1.00033336943666
1.71921825899794
1.44798250235821
1.07627490970146
0.63648235824747
2.26206713871525
0.327719004931707
0.950236392111099
0.32187993843542
1.05521007267648
0.782683741992681
3.30356790953101
6.41718590884843
2.53423995871101
0.588246494413753
0.430008060869304
0.182205967246111
8.6980083800444
1.0427272998473
0.330377700341272
0.844275543977194
0.203298448384793
3.92048021594822
0.84869434961387
0.763693575724617
5.31200293619582
