0.523300135407457
0.665943205744468
1.33756343592659
1.03933617601958
2.48515423626965
0.774145111031335
2.50670462521865
1.89740135934961
0.3819317948077
2.10886721078911
0.660627050657746
3.08710590511421
2.11448235572361
1.06325919902798
1.40258032919998
2.32807898135742
0.419693613165726
0.452608773428448
1.82791251087519
1.12511262867367
0.488149901024878
0.802646698330786
6.88741605530436
3.18686052258565
1.37930736740076
3.538243026204
0.0870210955411487
0.932981414126868
0.79020668644493
0.957225407709759
4.02305594972942
1.88776515300975
0.835456275640129
0.783185076791518
0.96508739734594
0.499934596662143
1.5011255892781
1.70802610206941
0.355345777561269
0.427323696550487
0.796640190093284
1.20548039993433
0.603646146174421
1.8046455107827
2.94365377794706
2.4793312080135
0.913072809076149
3.9749923355539
1.37010185583907
0.858544881507038
