2.22303482915106
2.28290704327159
1.13728143847066
0.472171607945698
0.431518542825664
0.788648131862633
0.28905453937302
1.90676340705277
0.776994323689279
0.297421364464639
0.718840883606477
0.475565791811149
0.259606629499816
0.289328601156898
3.17301660502522
0.610884626145371
0.586196713280535
0.0923474941673266
0.540569510183017
1.06255071966181
0.943500357128387
0.851538189483418
2.25134490332352
0.205975946920218
0.602113815097189
0.439812826681128
0.0664176494389319
1.06222650030573
1.53869082723053
0.387058865029532
0.161406173221828
0.114833568755573
0.431851446668022
0.307657748461305
0.963767713859345
0.372863282889287
0.10175698819145
0.674362326926841
0.825119373502897
5.12401714729328
0.183470264512148
0.541018274426793
0.068082450288608
0.601063467304222
0.215234225768234
0.0809253325763954
0.846914937736759
0.381869946092817
0.194955045933839
0.991864071303193
