0 0 0 0 0 0 0 0 0 0 0 0 0 -3.51001603500187 0 0 0 0 0 0 0 0 0 0 0 0 0 0 -0.760720239450121 0 0 0 0 0 0 0 0 0 0 0 0 0 0 0 0 0 0 0 0 0
0 0 0 0 -1.06906331530962 0 0 0 0 0 0 -2.1709617299527 0 -0.249642918146686 0 0 0 0 0 0 0 0 0 0 0 0 0 0 -1.13162838642383 0 0 0 0 0 0 0 0 0 0 0 0 0 0 0 0 0 0 0 0 0
0 0 0 0 0 0 0 -0.0813273263328511 0 0 0 0 0 0 0 0 0 0 0 0 0 0 0 0 0 0 0 0 0 0 0 0 0 0 0 0 0 0 0 0 0 0 0 0 0 0 0 0 0 0
0 0 0 0 0 0 0 -1.13537293940149 0 0 0 0 0 0 0 0 0 0 0 0 0 0 0 0 0 0 0 0 0 0 0 0 0 0 0 0 0 0 0 0 0 0 0 0 0 0 0 0 0 0
0 0.211110004548795 0 0 0 0 0 -1.19613681898411 0 0 0 0 0 0 0 0 0 0 0 0 -1.51382701961214 0 0 0 0 0 0 0 0 0 0 0 0 0 0 0 0 0 0 0 0 0 0 0 0 0 0 0 0 0
0 0 0 0 0 0 0 -0.761269637961322 0 0 0 0 0 0 0 0 0 0 0 0 -0.622518546554788 0 0 0 0 0 0 0 0 0 0 0 0 0 0 0 0 0 0 0 0 0 0 0 0 0 0 0 0 0
0 0 0 0 0 0 0 0 0 0 0 0 0 0 0 0 0 0 0 0 -7.47098459873959 0 0 0 0 0 0 0 0 0 0 0 0 0 0 0 0 0 0 0 0 0 0 0 0 0 0 0 0 0
0 0 0.0162120350293364 0.23404839070773 0.25720050180594 0.162571235872061 0 0 0 0 0 0 0 0 0 0 -1.48809284876701 0 0 -0.5666456591219 -2.38141081067405 0 0 0 0 -2.27409582846677 0 0 0 0 0 0 0 0 0 0 0 0 0 0 0 0 0 0 0 0 0 0 0 0
0 0 0 0 0 0 0 0 0 0 0 0 -0.649764013375494 0 0 0 0 0 0 -0.69529882051657 -1.44653856137358 0 0 0 0 -2.11200594101157 0 -2.95224554898079 0 -1.25221242477992 0 0 0 0 0 0 0 0 0 0 -1.4156991916592 0 0 0 0 0 0 0 0 0
0 0 0 0 0 0 0 0 0 0 -1.036370557473 0 -2.97802983063354 0 0 -1.70006655167209 0 0 0 -0.989689848759578 0 0 0 0 0 -0.42964874776191 0 -0.950052950247256 0 0 0 0 0 0 0 0 0 0 0 0 -0.660303640514358 0 0 0 0 0 0 0 0 0
0 0 0 0 0 0 0 0 0 0.219568425451937 0 0 0 0 0 -0.300041911530287 0 0 0 -2.00485597180386 0 0 0 0 0 -0.965254118910588 0 -0.663290427135357 0 0 0 0 0 0 0 0 0 0 0 0 0 0 0 0 0 0 0 0 0 0
0 0.439786241524976 0 0 0 0 0 0 0 0 0 0 0 0 0 -0.499318420785492 0 0 0 0 0 0 0 0 0 -0.565774776758473 0 -2.51194391119419 0 0 0 0 0 0 0 0 -0.983119012054667 0 0 0 0 0 0 0 0 0 0 0 0 0
0 0 0 0 0 0 0 0 0.13593646258769 0.591701370463588 0 0 0 0 -1.20127103113722 0 0 -1.19313559737366 0 0 0 0 0 0 0 0 0 -2.43542198785116 0 0 0 0 0 0 0 0 -0.711818200712636 0 0 0 0 0 0 0 0 0 0 0 0 0
0.724189867871114 0.0506304671500178 0 0 0 0 0 0 0 0 0 0 0 0 -0.652315642590047 0 0 -1.59702636971252 0 0 0 0 0 0 0 0 0 -4.35656816983696 0 0 0 0 0 0 0 0 -6.08456743251849 0 0 0 0 0 0 0 0 0 0 0 0 0
0 0 0 0 0 0 0 0 0 0 0 0 0.269556711805997 0.122885000908633 0 0 0 0 0 0 0 0 0 -0.766144939051337 0 0 0 -0.109414190634425 0 0 0 0 0 0 0 0 -0.176847786092018 0 -1.23145962915322 0 0 0 0 0 0 0 -0.535116605605746 0 0 0
0 0 0 0 0 0 0 0 0 0.316214445250193 0.0608166536179918 0.0985406155086069 0 0 0 0 0 0 0 0 0 0 0 -0.422078733064859 0 0 0 -0.612202333261528 0 0 0 0 0 0 0 0 -1.30315591011704 0 -3.60462853436746 0 0 0 0 0 0 0 -1.51423306126572 0 0 0
0 0 0 0 0 0 0 0.302562443823347 0 0 0 0 0 0 0 0 0 0 0 0 0 0 0 0 0 0 0 -5.20916499544726 0 0 -0.796783613627961 0 0 0 0 0 -0.543977581206054 0 -0.634097763170543 0 0 0 0 0 0 0 -0.411872944289077 0 0 0
0 0 0 0 0 0 0 0 0 0 0 0 0.230800840611266 0.306773980006438 0 0 0 0 -1.15309604070168 0 0 0 0 0 0 0 0 0 0 0 -1.16091423632766 0 0 0 0 0 -1.24075014811207 0 -2.09674596383417 0 0 0 0 0 0 0 -0.461263842868069 0 0 0
0 0 0 0 0 0 0 0 0 0 0 0 0 0 0 0 0 0.214785604531912 0 0 0 0 0 0 0 0 0 0 0 0 -1.83366091803809 -0.90573583344376 0 0 0 0 -0.54770478436022 0 0 0 0 0 0 0 0 0 0 0 0 0
0 0 0 0 0 0 0 0.109870687613571 0.136354524986062 0.204281035525378 0.410912995487691 0 0 0 0 0 0 0 0 0 0 0 -0.51131882087264 0 0 0 0 0 0 0 -0.216668443137671 -0.929122765744532 0 0 0 0 0 0 0 0 0 0 0 0 -0.213072352048482 0 0 0 0 0
0 0 0 0 0.27963579090485 0.118081734159208 1.53939122584609 0.441021128180043 0.309361052811063 0 0 0 0 0 0 0 0 0 0 0 0 0 -0.648283871062858 0 0 0 0 0 0 0 -0.491662030353131 -0.749969033794126 0 0 0 0 0 0 0 0 0 0 0 0 -1.52362543640844 0 0 0 0 0
0 0 0 0 0 0 0 0 0 0 0 0 0 0 0 0 0 0 0 0 0 0 -0.795053379189643 0 0 0 0 0 0 0 -0.860625685086588 -0.315912764732761 0 0 0 0 0 0 0 0 0 0 0 0 0 0 0 0 0 0
0 0 0 0 0 0 0 0 0 0 0 0 0 0 0 0 0 0 0 0.103173850681966 0.12218441293898 0.157670515022739 0 0 0 0 0 0 0 0 0 0 -0.296666889430693 0 0 0 0 0 0 0 0 0 0 0 0 -0.392337349700342 0 0 0 -6.07221520471926
0 0 0 0 0 0 0 0 0 0 0 0 0 0 0.157069813251697 0.082137271206545 0 0 0 0 0 0 0 0 0 0 0 0 0 0 0 0 0 0 0 0 0 0 0 0 0 0 0 0 0 0 0 0 0 -0.183008115419968
0 0 0 0 0 0 0 0 0 0 0 0 0 0 0 0 0 0 0 0 0 0 0 0 0 0 0 0 0 0 0 0 0 0 0 0 0 0 0 0 0 0 0 0 0 0 0 0 0 -1.08340191487322
0 0 0 0 0 0 0 0.46013732649658 0.417641009805861 0.0749899744423776 0.184187372948025 0.121349962992842 0 0 0 0 0 0 0 0 0 0 0 0 0 0 0 0 0 0 0 0 0 0 0 0 0 0 0 0 0 0 0 0 0 0 0 0 -2.20383395389909 -1.1146052490444
0 0 0 0 0 0 0 0 0 0 0 0 0 0 0 0 0 0 0 0 0 0 0 0 0 0 0 0 0 0 0 0 0 0 0 0 0 0 0 0 0 0 0 0 0 0 0 0 -0.879894427274516 -0.657097187786023
0 0 0 0 0 0 0 0 0.575255600029601 0.191299980265004 0.123510954137539 0.507982999773435 0.501513348261958 0.830402363287922 0.0222671427083992 0.119643708678591 0.942941071256815 0 0 0 0 0 0 0 0 0 0 0 0 0 0 0 0 0 0 0 0 0 0 0 0 0 0 0 0 0 0 0 0 -0.664718988607319
0.156983091802749 0.234088755857575 0 0 0 0 0 0 0 0 0 0 0 0 0 0 0 0 0 0 0 0 0 0 0 0 0 0 0 0 0 0 0 0 0 0 0 0 0 -2.36784442781647 0 0 0 0 0 0 0 0 0 -0.401127387180414
0 0 0 0 0 0 0 0 0.252976142173389 0 0 0 0 0 0 0 0 0 0 0 0 0 0 0 0 0 0 0 0 0 0 0 0 0 0 0 0 0 0 -6.41655835590688 0 0 0 0 0 0 0 0 0 -1.08600630524019
0 0 0 0 0 0 0 0 0 0 0 0 0 0 0 0 0.176314903595444 0.240129393142509 0.370568565532305 0.0416563909715584 0.106828943427562 0.176870991040087 0 0 0 0 0 0 0 0 0 0 0 0 0 0 0 0 0 0 0 0 0 0 0 0 0 0 0 0
0 0 0 0 0 0 0 0 0 0 0 0 0 0 0 0 0 0 0.173310694594513 0.202765983081796 0.150449848391798 0.0615144561726048 0 0 0 0 0 0 0 0 0 0 0 0 0 0 0 0 0 0 0 0 0 0 0 0 0 0 0 0
0 0 0 0 0 0 0 0 0 0 0 0 0 0 0 0 0 0 0 0 0 0 0.0587243956197549 0 0 0 0 0 0 0 0 0 0 0 0 0 0 0 0 0 0 0 0 0 0 0 0 0 0 0
0 0 0 0 0 0 0 0 0 0 0 0 0 0 0 0 0 0 0 0 0 0 0 0 0 0 0 0 0 0 0 0 0 0 0 0 0 0 0 0 0 0 -1.15558305376729 0 0 0 0 0 0 0
0 0 0 0 0 0 0 0 0 0 0 0 0 0 0 0 0 0 0 0 0 0 0 0 0 0 0 0 0 0 0 0 0 0 0 0 0 0 0 0 0 0 -0.513798254950393 0 0 0 0 0 0 0
0 0 0 0 0 0 0 0 0 0 0 0 0 0 0 0 0 0 0 0 0 0 0 0 0 0 0 0 0 0 0 0 0 0 0 0 0 0 0 0 0 0 -0.755956227143456 0 0 0 0 0 0 0
0 0 0 0 0 0 0 0 0 0 0 0.193863276615794 0.138712749057795 1.29650511959582 0.0351394963638692 0.265510173530566 0.112374071095208 0.244480020421888 0.113487544163495 0 0 0 0 0 0 0 0 0 0 0 0 0 0 0 0 0 0 0 0 0 0 0 -0.228240408239764 0 0 0 0 0 0 0
0 0 0 0 0 0 0 0 0 0 0 0 0 0 0 0 0 0 0 0 0 0 0 0 0 0 0 0 0 0 0 0 0 0 0 0 0 0 0 0 0 0 -2.484402717328 0 0 0 0 0 0 0
0 0 0 0 0 0 0 0 0 0 0 0 0 0 0.247469671423305 0.699373463608196 0.123430316676358 0.418929271491868 0 0 0 0 0 0 0 0 0 0 0 0 0 0 0 0 0 0 0 0 0 0 0 0 -0.830557330645892 0 0 0 0 0 0 0
0 0 0 0 0 0 0 0 0 0 0 0 0 0 0 0 0 0 0 0 0 0 0 0 0 0 0 0 0.433027330515769 1.42793768363064 0 0 0 0 0 0 0 0 0 0 0 0 0 0 0 0 0 0 0 0
0 0 0 0 0 0 0 0 0.291472215313005 0.129705017713139 0 0 0 0 0 0 0 0 0 0 0 0 0 0 0 0 0 0 0 0 0 0 0 0 0 0 0 0 0 0 0 0 0 -3.20010622506042 0 0 0 -2.00339141272286 0 0
0 0 0 0 0 0 0 0 0 0 0 0 0 0 0 0 0 0 0 0 0 0 0 0 0 0 0 0 0 0 0 0 0 0 0 0 0 0 0 0 0 0 0 -0.633749853917596 0 0 0 -2.55558509883867 0 0
0 0 0 0 0 0 0 0 0 0 0 0 0 0 0 0 0 0 0 0 0 0 0 0 0 0 0 0 0 0 0 0 0 0.227535751308323 0.106009663075238 0.151340329279548 0.0417312502315606 0.4960156823975 0.164261137189767 0 0 0 0 -0.109424515204223 0 0 0 -2.72609929777555 0 0
0 0 0 0 0 0 0 0 0 0 0 0 0 0 0 0 0 0 0 0 0 0 0 0 0 0 0 0 0 0 0 0 0 0 0 0 0 0 0 0 0.633747740483533 0.132185572488654 0.0227738723823045 0 0 0 0 0 0 0
0 0 0 0 0 0 0 0 0 0 0 0 0 0 0 0 0 0 0 0.0402527353180728 0.306910716574813 0 0 0 0 0 0 0 0 0 0 0 0 0 0 0 0 0 0 0 0 0 0 0 0 0 0 0 0 0
0 0 0 0 0 0 0 0 0 0 0 0 0 0 0 0 0 0 0 0 0 0 0.0798670943155967 0 0 0 0 0 0 0 0 0 0 0 0 0 0 0 0 0 0 0 0 0 0 0 0 0 0 0
0 0 0 0 0 0 0 0 0 0 0 0 0 0 0.107006251268781 0.306567031851429 0.0858958157614681 0.0960388073731752 0 0 0 0 0 0 0 0 0 0 0 0 0 0 0 0 0 0 0 0 0 0 0 0 0 0 0 0 0 0 0 0
0 0 0 0 0 0 0 0 0 0 0 0 0 0 0 0 0 0 0 0 0 0 0 0 0 0 0 0 0 0 0 0 0 0 0 0 0 0 0 0 0.384606657314124 0.50932849110657 0.597299287128301 0 0 0 0 0 0 0
0 0 0 0 0 0 0 0 0 0 0 0 0 0 0 0 0 0 0 0 0 0 0 0 0 0.444182442132126 0.182659461685968 0 0 0 0 0 0 0 0 0 0 0 0 0 0 0 0 0 0 0 0 0 0 0
0 0 0 0 0 0 0 0 0 0 0 0 0 0 0 0 0 0 0 0 0 0 1.33824663897344 0.036392602789788 0.2194241578358 0.217253207601174 0.151969766838695 0.12966191164481 0.0820087181009661 0.23960474034417 0 0 0 0 0 0 0 0 0 0 0 0 0 0 0 0 0 0 0 0
