0.793975447211075
0.0480027296835136
4.0341218663753
0.399701873970807
0.161103642581159
4.15397940524379
0.896805518437796
1.92992162541396
1.21545959517235
0.931870480444733
1.82225586887429
0.721856306107706
0.425414805254875
0.218969061191823
3.49322179330886
0.913984778096573
1.07942795322026
2.52191873395844
1.77785752208596
1.09590774898091
1.24250440249508
0.405330864423204
1.43517724556309
0.36873207742935
1.11801628678245
0.198638247507476
0.941019983322591
0.266960106154319
0.409952344130151
0.519821284426086
0.556278678462193
0.323347931464265
0.946363344033943
0.721760753516535
0.264786135913196
0.851693315374819
1.01463402607611
0.71463783364176
0.616109872056675
0.155496611291984
0.548373831977084
0.503347015268668
0.918592659495404
1.67635735639227
0.576279920279798
1.39311316667603
0.30793818590666
4.64217873270045
4.83726264277859
5.56561346132249
