0 0 -0.578534445291139 0 0 0 0 -0.50419851463395 0 0 0 0 0 0 0 0 0 0 0 0 0 0 0 0 0 0 0 0 0 0 0 0 0 0 0 0 0 0 0 0 0 0 0 0 0 0 0 0 0 0
0 0 -0.245568532244885 0 -0.457877839740019 0 0 0 0 0 -2.94466557965418 0 0 0 0 0 0 0 0 0 0 0 0 0 0 0 0 0 0 0 0 0 0 0 0 0 0 0 0 0 0 0 0 -3.84831271334889 0 0 0 0 0 0
0.120895337218917 0.0445969279704728 0 0 0 -1.11337793339307 -3.09652218627252 0 0 0 0 0 0 0 0 0 0 0 0 0 0 0 0 0 0 -0.380446669066153 0 0 0 0 0 0 0 0 0 0 0 0 0 0 0 0 0 -1.68414010528423 0 0 0 0 0 0
0 0 0 0 0 0 -1.35898068367418 0 0 0 0 0 0 0 0 0 0 0 0 0 0 0 0 0 -2.14358830470718 -0.390433841493127 0 0 0 0 0 0 0 0 0 0 0 0 0 0 0 0 0 0 0 0 0 0 0 0
0 0.0952966539458551 0 0 0 0 0 0 0 0 0 0 0 0 0 0 0 0 0 0 0 0 0 0 -2.33265094236153 -1.20628489738847 0 0 0 0 0 0 0 0 0 0 0 0 0 0 0 0 0 0 0 0 -1.10477754747159 0 0 0
0 0 0.235106246593276 0 0 0 0 0 0 0 0 0 0 -2.56524144457787 0 0 0 0 0 0 0 0 0 0 0 0 0 0 -0.546493197316516 -2.92852958447226 0 0 0 0 0 0 0 0 0 0 0 0 0 0 0 0 0 0 0 0
0 0 0.653100703516336 0.266906871100278 0 0 0 0 0 0 0 0 0 0 0 0 0 0 0 0 0 0 0 0 0 0 0 0 0 -0.165361524563588 0 0 0 0 0 0 0 0 0 0 0 0 0 0 0 0 0 0 0 0
0.101762384986 0 0 0 0 0 0 0 -1.46793145807931 0 0 0 0 0 0 0 0 0 0 0 0 0 0 0 0 0 0 0 0 0 0 0 0 0 0 0 0 0 0 0 0 0 0 0 0 0 0 0 0 0
0 0 0 0 0 0 0 0.296654239901643 0 0 0 0 0 0 0 0 0 0 0 0 0 0 0 0 0 0 0 0 0 0 0 0 0 0 0 0 0 0 0 0 0 0 0 0 -0.549340010687485 0 0 0 0 0
0 0 0 0 0 0 0 0 0 0 0 0 -1.45571930397249 0 0 -3.96789572307909 0 -0.580265158015296 0 0 0 0 0 0 0 0 0 0 0 0 0 0 0 0 0 0 0 0 0 0 0 0 0 0 -0.349400698857392 0 0 0 0 0
0 0.582833565370403 0 0 0 0 0 0 0 0 0 -9.41715402066939 -0.810994160327017 0 0 -1.44341883506457 0 -0.596473859885323 0 0 0 0 0 0 0 0 0 0 0 0 0 0 0 0 0 0 0 0 0 0 0 0 0 0 -0.539597590038562 0 0 0 0 0
0 0 0 0 0 0 0 0 0 0 1.86334682509399 0 -3.40447844523171 0 0 -1.07123057062737 0 -0.0416719841650905 0 0 0 0 0 0 0 0 0 0 0 0 0 0 0 0 0 0 0 0 0 0 0 0 0 0 0 0 0 0 0 0
0 0 0 0 0 0 0 0 0 0.275673472517569 0.145337683312771 0.689312360282099 0 0 -0.276182692136852 0 0 0 0 0 0 0 0 0 0 0 0 0 0 0 0 0 0 0 0 0 0 0 -1.72374343961212 0 -0.297865224603034 0 -0.433518090756288 0 0 0 0 0 0 -0.142042628449836
0 0 0 0 0 0.458132909551431 0 0 0 0 0 0 0 0 -0.0914195990356574 0 0 0 0 -3.97290996272105 0 0 0 0 0 0 0 0 0 0 0 0 0 0 0 0 0 0 -1.07014368163508 0 -0.3767068299142 0 -1.13120146058836 0 0 0 0 0 0 -0.492794202180591
0 0 0 0 0 0 0 0 0 0 0 0 0.063075929492368 0.0185534081326164 0 0 0 0 0 -0.446736092386314 0 0 0 0 0 0 0 0 0 0 -0.542798509197403 0 0 0 0 0 0 0 0 0 0 0 -0.684422199306282 0 0 0 0 0 0 -0.474232037456346
0 0 0 0 0 0 0 0 0 0.770088170499816 0.294457092886703 0.205238032939603 0 0 0 0 0 0 -1.43835712886926 -0.21340871728713 0 -2.91525874530309 0 0 0 0 0 -7.04660769206433 0 0 -4.31031578568469 -0.77528624376096 0 0 0 0 -0.510891942546843 -0.936943319323046 0 0 0 -0.948221406925097 0 0 0 0 0 0 0 -3.07779678212394
0 0 0 0 0 0 0 0 0 0 0 0 0 0 0 0 0 0 0 -0.455856586508854 0 -2.82396479948766 0 0 0 0 0 -2.01808096039754 0 0 -8.07376280406522 0 -1.02848101629996 0 0 0 -4.65897489357602 -1.43584311520758 0 0 0 -0.456863583180246 0 0 0 0 0 0 0 -0.787829923973233
0 0 0 0 0 0 0 0 0 0.119363798799361 0.125541119314251 0.00803165872876752 0 0 0 0 0 0 0 -0.838306836882288 0 -1.79405395954338 0 0 0 0 0 0 0 0 0 0 -1.43462173743213 0 0 0 -0.537427342947721 -0.253569529317497 0 0 0 -1.02156532199029 0 0 0 0 0 -2.09050947269479 0 -5.22663822917219
0 0 0 0 0 0 0 0 0 0 0 0 0 0 0 0.282937376219107 0 0 0 0 0 0 0 0 0 0 0 0 0 0 0 0 -0.215291096067325 0 0 0 -1.15984271089364 0 0 0 0 -1.38011108215471 0 0 0 0 0 0 0 -0.103230885438493
0 0 0 0 0 0 0 0 0 0 0 0 0 0.79264141245557 0.0858969490878621 0.0434956563025082 0.0960795014984898 0.16270935797598 0 0 0 0 0 0 0 0 0 0 0 0 0 0 -0.597432168205559 0 0 0 -2.28027727487678 0 0 0 0 -0.306273704258454 0 0 0 0 0 0 0 -2.00805028291872
0 0 0 0 0 0 0 0 0 0 0 0 0 0 0 0 0 0 0 0 0 0 0 0 0 0 0 0 0 0 0 0 0 0 0 0 -2.31949530313387 0 0 -1.08172793104271 0 -3.26744335037111 0 0 0 0 0 0 0 -5.30901815756489
0 0 0 0 0 0 0 0 0 0 0 0 0 0 0 0.593276001088232 0.541163046728118 0.353685520910653 0 0 0 0 0 0 0 0 0 0 0 0 0 0 0 0 0 0 -0.372323064215228 0 0 -2.68843537686179 0 -0.322347881695171 0 0 0 0 0 0 0 -2.45964687603274
0 0 0 0 0 0 0 0 0 0 0 0 0 0 0 0 0 0 0 0 0 0 0 0 0 0 0 0 0 0 0 0 0 0 0 0 -7.04624132144768 0 0 -0.634136711244725 0 -0.618920899776562 0 0 0 0 0 0 0 -0.365046076317679
0 0 0 0 0 0 0 0 0 0 0 0 0 0 0 0 0 0 0 0 0 0 0 0 0 0 0 0 0 0 0 0 0 0 0 0 -0.676508701209884 0 0 -3.04382547933699 0 -0.356944542999274 0 0 0 0 0 0 0 -5.41503719814943
0 0 0 0.420008817994575 0.438220432883698 0 0 0 0 0 0 0 0 0 0 0 0 0 0 0 0 0 0 0 0 0 0 0 0 0 0 0 0 0 0 0 -1.92594314478981 0 0 -1.22589444435046 0 0 0 0 0 0 0 0 0 -1.63696295276343
0 0 0.0753263112241 0.0833797395383806 0.236371950400274 0 0 0 0 0 0 0 0 0 0 0 0 0 0 0 0 0 0 0 0 0 0 0 0 0 0 0 0 0 0 0 -1.00314295256484 0 0 -1.40003519138433 0 0 0 0 0 0 0 0 0 -1.5697723749809
0 0 0 0 0 0 0 0 0 0 0 0 0 0 0 0 0 0 0 0 0 0 0 0 0 0 0 0 0 0 0 0 0 0 0 0 -0.42308834027799 0 0 -0.419118798719561 0 0 0 0 0 0 0 0 0 0
0 0 0 0 0 0 0 0 0 0 0 0 0 0 0 1.48642264127995 0.400225651466752 0 0 0 0 0 0 0 0 0 0 0 0 0 0 0 0 0 0 0 -1.41161049173294 0 0 -0.3582277462755 0 0 0 0 0 0 0 0 0 0
0 0 0 0 0 0.107022056718385 0 0 0 0 0 0 0 0 0 0 0 0 0 0 0 0 0 0 0 0 0 0 0 0 0 0 0 0 0 0 -1.20553214855943 0 0 -1.06308560394249 0 0 0 0 0 0 0 0 0 0
0 0 0 0 0 0.586394712575024 0.0326848960575701 0 0 0 0 0 0 0 0 0 0 0 0 0 0 0 0 0 0 0 0 0 0 0 0 0 0 0 0 0 0 0 0 0 0 0 0 0 0 0 0 0 -0.245954439011898 0
0 0 0 0 0 0 0 0 0 0 0 0 0 0 0.119090862037455 0.81332273248463 1.70747863446843 0 0 0 0 0 0 0 0 0 0 0 0 0 0 0 0 0 0 0 0 0 0 0 0 0 0 0 0 0 0 0 -0.405385225942485 0
0 0 0 0 0 0 0 0 0 0 0 0 0 0 0 0.160239112449815 0 0 0 0 0 0 0 0 0 0 0 0 0 0 0 0 0 0 0 0 0 0 0 0 0 0 0 0 0 0 0 0 -0.766598508302046 0
0 0 0 0 0 0 0 0 0 0 0 0 0 0 0 0 0.209364027367188 0.289851132657334 0.0367167764457701 0.116840720862772 0 0 0 0 0 0 0 0 0 0 0 0 0 0 0 0 0 0 0 0 0 0 0 0 0 -1.01331190339604 0 0 -2.5216130256506 0
0 0 0 0 0 0 0 0 0 0 0 0 0 0 0 0 0 0 0 0 0 0 0 0 0 0 0 0 0 0 0 0 0 0 0 0 0 0 0 0 0 0 0 0 0 -0.582828946749965 0 0 -0.185201913213085 0
0 0 0 0 0 0 0 0 0 0 0 0 0 0 0 0 0 0 0 0 0 0 0 0 0 0 0 0 0 0 0 0 0 0 0 0 0 0 0 0 0 0 0 0 0 -0.990357805204054 0 0 -1.95287645803795 0
0 0 0 0 0 0 0 0 0 0 0 0 0 0 0 0 0 0 0 0 0 0 0 0 0 0 0 0 0 0 0 0 0 0 0 0 0 0 0 0 0 0 0 0 0 -0.478473798404311 0 0 -0.169754682511354 0
0 0 0 0 0 0 0 0 0 0 0 0 0 0 0 0.103386603606856 0.908170060991365 0.109346975468259 0.230461214630092 0.446968261597713 0.438162548688434 0.0718587408764072 1.41640540719346 0.138890755042718 0.387718910871669 0.188715608640411 0.0745307846969828 0.272312086683113 0.233250673357857 0 0 0 0 0 0 0 0 0 0 0 0 0 0 0 0 -2.19680375282312 0 0 -2.55391679223852 0
0 0 0 0 0 0 0 0 0 0 0 0 0 0 0 0.19352751454803 0.267304084146383 0.0513527639213668 0 0 0 0 0 0 0 0 0 0 0 0 0 0 0 0 0 0 0 0 0 0 0 0 0 0 0 0 0 0 -0.155722970211176 0
0 0 0 0 0 0 0 0 0 0 0 0 0.337849550527469 0.211116133244828 0 0 0 0 0 0 0 0 0 0 0 0 0 0 0 0 0 0 0 0 0 0 0 0 0 0 0 0 0 0 0 0 0 0 -0.661797862255411 0
0 0 0 0 0 0 0 0 0 0 0 0 0 0 0 0 0 0 0 0 0.209766230146313 0.544186948426962 0.126985749045529 0.634523358633082 0.258733838793455 0.299102519790974 0.0878121263229171 0.0788034924418989 0.211131755076663 0 0 0 0 0 0 0 0 0 0 0 0 0 0 0 0 0 0 0 0 0
0 0 0 0 0 0 0 0 0 0 0 0 0.0602873036371748 0.0792624285864469 0 0 0 0 0 0 0 0 0 0 0 0 0 0 0 0 0 0 0 0 0 0 0 0 0 0 0 0 0 0 0 0 0 0 0 0
0 0 0 0 0 0 0 0 0 0 0 0 0 0 0 0.186254339121536 0.0881933096941906 0.197408532085907 0.300310648264193 0.0595600655276712 0.631272182380359 0.0700536748305825 0.124230145604082 0.074947310190529 0 0 0 0 0 0 0 0 0 0 0 0 0 0 0 0 0 0 0 0 0 0 0 0 0 0
0 0 0 0 0 0 0 0 0 0 0 0 0.0890015495620447 0.214237299374106 0.139328414081564 0 0 0 0 0 0 0 0 0 0 0 0 0 0 0 0 0 0 0 0 0 0 0 0 0 0 0 0 0 0 0 0 0 0 0
0 0.760915976629892 0.332696173775502 0 0 0 0 0 0 0 0 0 0 0 0 0 0 0 0 0 0 0 0 0 0 0 0 0 0 0 0 0 0 0 0 0 0 0 0 0 0 0 0 0 0 0 0 0 0 0
0 0 0 0 0 0 0 0 0.109670411003737 0.0684263602579356 0.097999520748578 0 0 0 0 0 0 0 0 0 0 0 0 0 0 0 0 0 0 0 0 0 0 0 0 0 0 0 0 0 0 0 0 0 0 0 0 0 0 0
0 0 0 0 0 0 0 0 0 0 0 0 0 0 0 0 0 0 0 0 0 0 0 0 0 0 0 0 0 0 0 0 0.19999505168799 0.11552329937143 0.182531169631092 0.10263926396315 0.432360413755835 0 0 0 0 0 0 0 0 0 0 0 0 0
0 0 0 0 0.226671731204025 0 0 0 0 0 0 0 0 0 0 0 0 0 0 0 0 0 0 0 0 0 0 0 0 0 0 0 0 0 0 0 0 0 0 0 0 0 0 0 0 0 0 0 0 0
0 0 0 0 0 0 0 0 0 0 0 0 0 0 0 0 0 0.395705499907913 0 0 0 0 0 0 0 0 0 0 0 0 0 0 0 0 0 0 0 0 0 0 0 0 0 0 0 0 0 0 0 0
0 0 0 0 0 0 0 0 0 0 0 0 0 0 0 0 0 0 0 0 0 0 0 0 0 0 0 0 0 0.0484307573477539 0.0815473063344513 0.155903988858441 0.475120332181185 0.0383116720117759 0.405358642955578 0.0329848048247322 0.54102857586015 0.0318291091430871 0.125679395221014 0 0 0 0 0 0 0 0 0 0 0
0 0 0 0 0 0 0 0 0 0 0 0 0.0282399611479126 0.0957320336479408 0.0951178211254903 0.649050891465804 0.151777306676533 0.966133994442553 0.0191061428600043 0.422147259637243 0.995213248104077 0.513916679472715 0.0751002226237173 1.08848014532081 0.300083882175999 0.295571085759311 0 0 0 0 0 0 0 0 0 0 0 0 0 0 0 0 0 0 0 0 0 0 0 0
