0.30178748606225
0.204013776195053
0.112407535007896
1.14340805325728
0.709016899532906
0.848154248086374
1.44696562617544
0.288372833525476
0.164466029350909
0.0495842748239563
0.938549682447401
0.372956786128888
1.75778524836107
0.256303152429692
0.56338176502544
1.15198077689913
2.13923156472129
0.152448848947613
0.0146396824177007
1.52959821903366
0.356653087341725
0.898208854191214
1.75766674187423
0.649216816677306
0.28639581015863
1.56942359811059
1.61824773062125
1.54402678031975
0.198208418743293
1.60829044757082
1.62759916437643
5.63585233755291
0.202249944274522
0.313116158913576
0.352556967303279
0.237089539099552
5.39367201923289
0.10347093711288
1.65611420046453
0.10283708935015
5.24353929569969
0.108415451286022
0.813598362185391
0.166529733070959
0.0533337484631784
0.390255290732869
0.298907796802206
0.581829863764865
0.186783616329623
0.96432995398769
