0 -8.30638384807776 0 0 0 0 0 0 0 0 -1.39207405325182 0 0 0 0 0 0 0 0 0 0 0 0 0 0 0 0 0 0 0 -1.9439924090366 0 0 0 0 -2.63451779500487 0 0 0 0 -0.62107303755274 0 0 0 0 0 0 0 0 0
1.69002013262594 0 0 -1.58074242188366 0 0 0 0 0 0 -0.129167077103481 0 0 0 0 0 0 0 0 0 0 0 0 0 0 0 0 0 0 0 -2.51966080234344 0 0 0 0 -1.10089957087962 0 0 0 0 -0.536103808725039 0 0 0 0 0 0 0 0 0
0 0 0 0 0 0 0 0 0 0 0 0 0 0 0 0 -1.10366827619981 0 0 0 0 0 0 0 0 0 0 0 0 0 -0.380842222661872 0 0 0 0 -1.04170855276469 0 0 0 0 -0.0958276551864464 0 0 0 0 0 0 0 0 0
0 0.321497526451405 0 0 0 0 0 0 0 -1.30180317089377 0 0 0 0 0 0 -0.787353453448332 0 0 0 0 0 0 0 0 0 0 0 0 0 -1.6693603046335 0 0 0 0 -0.810282967890071 0 0 0 0 0 0 0 0 -0.300754118549166 0 0 0 0 0
0 0 0 0 0 0 0 0 0 -0.656120874229871 0 0 0 0 0 0 -1.14937541293124 0 0 0 0 0 0 0 0 0 0 0 0 0 -0.496931700500699 0 0 0 0 -0.840918498787906 0 0 0 0 0 0 0 0 -0.429556769654352 0 0 0 0 0
0 0 0 0 0 0 0 0 0 0 0 -0.473004172799443 0 0 0 0 0 0 0 0 0 0 0 0 0 0 0 0 0 0 -0.845160681718397 0 0 0 0 0 0 0 0 0 0 0 0 0 -2.75749580319284 0 0 0 0 0
0 0 0 0 0 0 0 0 -0.346193690205837 0 0 0 0 0 0 0 0 0 0 0 0 0 0 0 0 0 0 0 0 0 -0.0880481015378398 0 0 0 0 0 0 0 0 0 0 0 0 0 -0.800150576284127 0 0 0 0 0
0 0 0 0 0 0 0 0 0 0 0 0 0 0 0 0 0 0 0 0 0 0 0 0 0 0 0 0 0 0 0 0 0 0 0 0 0 0 0 0 0 0 0 0 -0.650493161005826 -0.385329297896161 0 0 0 0
0 0 0 0 0 0 0.0708162331639575 0 0 0 0 0 0 0 -1.08151424321271 0 0 -0.583456759119959 0 0 0 0 -0.310375152504117 0 0 0 -1.17567610489835 0 0 -0.129658655678178 0 0 0 0 0 0 0 0 0 0 0 0 0 0 0 -1.52218396859492 0 0 0 0
0 0 0 0.254585737102069 0.138397348155788 0 0 0 0 0 0 0 0 0 -0.103433833866606 0 0 -0.251772172268462 0 0 0 0 0 0 0 0 0 0 0 -0.467371629689531 0 0 0 0 0 0 0 0 0 0 0 0 0 0 0 -4.37683479872739 0 0 0 0
0.281446231043193 0.0271159226571793 0 0 0 0 0 0 0 0 0 0 0 0 -2.63324867729925 0 0 0 0 0 0 0 0 0 0 0 0 0 0 -3.30967767189577 0 0 0 0 0 0 0 0 0 0 0 0 0 0 0 -2.89214992262039 0 0 0 0
0 0 0 0 0 0.0891781504541229 0 0 0 0 0 0 0 0 0 0 0 0 0 0 0 0 0 0 0 0 0 0 0 0 0 0 0 0 0 0 0 0 0 0 0 0 0 0 0 -2.68377044889196 0 0 0 0
0 0 0 0 0 0 0 0 0 0 0 0 0 0 0 0 0 0 0 0 0 0 0 0 0 0 0 0 0 0 0 0 0 0 0 0 0 0 0 0 0 0 0 0 0 -1.69969123587433 0 0 0 0
0 0 0 0 0 0 0 0 0 0 0 0 0 0 0 0 0 0 0 0 0 0 0 0 0 0 0 0 0 0 0 0 0 0 0 0 0 0 0 0 0 0 0 -1.17688876525473 0 -4.44225166242514 0 0 0 0
0 0 0 0 0 0 0 0 0.233142767646144 0.0211130153893435 0.523013165003631 0 0 0 0 0 0 0 0 0 0 0 0 0 0 0 0 0 0 0 0 0 0 0 0 0 0 0 0 0 0 0 0 -0.185644343442466 0 -2.0927285545847 0 0 0 0
0 0 0 0 0 0 0 0 0 0 0 0 0 0 0 0 0 0 0 0 0 0 0 0 0 0 0 0 0 0 0 0 0 -2.80168085353568 0 0 0 0 0 0 0 0 0 -0.641339819118025 0 -2.2083820364164 0 0 0 -3.19482506860287
0 0 0.235094470653497 0.156284388113913 0.220906986417013 0 0 0 0 0 0 0 0 0 0 0 0 0 -0.244720034099699 0 0 0 0 0 0 0 0 -0.884835723509647 0 0 0 0 -5.07871034156554 -3.28552134180472 0 0 0 0 0 0 0 0 0 -0.333202689097234 0 -1.47945442082007 -0.339791024263857 0 0 -1.84121609860664
0 0 0 0 0 0 0 0 0.115818585207538 0.0504628841907209 0 0 0 0 0 0 0 0 -0.250387864324775 0 0 0 0 0 0 0 0 0 0 0 0 0 -0.533504241694598 0 0 0 0 0 0 0 0 0 0 -1.72450332367468 0 -1.52604925551751 -0.620968346745292 0 0 -1.16254329381186
0 0 0 0 0 0 0 0 0 0 0 0 0 0 0 0 0.0462089592702821 0.0505259145532056 0 0 -0.208468661983222 0 0 0 0 0 0 0 0 0 0 0 -2.5479292654364 0 0 0 0 -1.18601177237626 0 0 0 0 0 -1.98648964508423 0 0 -5.95421524688155 0 0 -1.39157220406934
0 0 0 0 0 0 0 0 0 0 0 0 0 0 0 0 0 0 0 0 -0.977250181410494 0 0 0 0 0 0 0 0 0 0 0 -0.406714823798203 0 0 0 0 -0.307882754081406 0 0 0 0 0 -0.547385219083051 0 0 -1.41955765016787 0 -1.49768303985752 -0.210537089894937
0 0 0 0 0 0 0 0 0 0 0 0 0 0 0 0 0 0 0.0380717012749047 0.211849426658533 0 0 0 0 0 0 0 0 0 0 0 0 -0.857383476642165 0 0 0 0 -0.594688952020876 0 0 0 0 0 -1.04922223480755 0 0 -0.332199111189347 0 -0.229148236372754 -0.164243863289845
0 0 0 0 0 0 0 0 0 0 0 0 0 0 0 0 0 0 0 0 0 0 0 0 -0.377749451060066 0 0 0 0 0 0 0 -0.10698315156627 0 0 0 -1.06543682660552 0 -1.63088330188933 0 0 0 0 0 0 0 0 0 -0.316722986055382 0
0 0 0 0 0 0 0 0 0.0613622395047775 0 0 0 0 0 0 0 0 0 0 0 0 0 0 0 -0.875741584244449 0 0 0 0 0 0 -0.876494054802564 -0.746972541069425 0 0 0 -1.66134447049897 0 -0.263682151747811 0 0 0 0 0 0 0 0 0 -2.52187548305332 0
0 0 0 0 0 0 0 0 0 0 0 0 0 0 0 0 0 0 0 0 0 0 0 0 -0.340454736136489 0 0 0 0 0 0 0 -1.74785342430443 0 0 0 0 0 -0.166081896903521 0 0 0 0 0 0 0 0 0 -0.141215884439326 0
0 0 0 0 0 0 0 0 0 0 0 0 0 0 0 0 0 0 0 0 0 0.0755514704996943 0.165268859368629 0.0686970071451369 0 0 0 0 -0.309693976609476 0 0 0 -1.0543079556493 0 -6.51506306239072 0 0 0 -0.526220561992889 0 0 0 0 0 0 0 0 0 -0.30614661707201 0
0 0 0 0 0 0 0 0 0 0 0 0 0 0 0 0 0 0 0 0 0 0 0 0 0 0 0 0 -1.31882747596945 0 0 0 -1.71848756688277 0 -0.388841395503102 0 0 0 -0.85141323611257 0 0 0 0 0 0 0 0 0 -0.386941312617622 0
0 0 0 0 0 0 0 0 0.224995254699631 0 0 0 0 0 0 0 0 0 0 0 0 0 0 0 0 0 0 0 -2.72019301195365 0 0 0 -0.352720610158674 0 -0.727668361435775 0 0 0 -0.12655868751148 0 0 0 0 0 0 0 0 0 -0.161172163073489 0
0 0 0 0 0 0 0 0 0 0 0 0 0 0 0 0 0.188318362039152 0 0 0 0 0 0 0 0 0 0 0 -1.32793435644481 0 0 0 -0.87383710154415 0 -1.60712757397201 0 0 0 -1.02627912946837 0 0 0 0 0 0 0 0 0 0 0
0 0 0 0 0 0 0 0 0 0 0 0 0 0 0 0 0 0 0 0 0 0 0 0 0.0603396837814019 0.265326090406857 0.564680143134933 0.25962513504152 0 0 0 0 -1.26857490336427 0 -0.74308345931369 0 0 0 0 0 0 0 0 0 0 0 0 0 0 0
0 0 0 0 0 0 0 0 0.0264961530646593 0.0953784027576623 0.650169154025746 0 0 0 0 0 0 0 0 0 0 0 0 0 0 0 0 0 0 0 0 0 -1.01756108613133 0 -5.72838314461823 0 0 0 0 0 0 0 0 0 0 0 0 0 0 0
0.359884367405898 0.537372194915382 0.0746908212722509 0.315147401237475 0.0986996566833552 0.165824750006727 0.017525134068107 0 0 0 0 0 0 0 0 0 0 0 0 0 0 0 0 0 0 0 0 0 0 0 0 0 -0.691108434366276 0 -2.28846681091799 0 0 0 0 0 0 0 0 0 0 0 0 0 0 0
0 0 0 0 0 0 0 0 0 0 0 0 0 0 0 0 0 0 0 0 0 0 0.160429424211641 0 0 0 0 0 0 0 0 0 -1.79207574734695 0 0 0 0 0 0 0 0 0 0 0 0 0 0 0 0 0
0 0 0 0 0 0 0 0 0 0 0 0 0 0 0 0 1.04516402506397 0.10837419167089 0.490879082380746 0.0796399694625025 0.17453897161846 0.0225980353028163 0.15309104468197 0.383697531815959 0.196520166933952 0.354059001644641 0.0643887294796846 0.182301357422839 0.250464148988737 0.191243349343058 0.136080904921144 0.391835315302192 0 0.11712408127211 0.0651918897566919 0.103996141089379 0.965068026849287 0.134656279717714 0 0 0 0 0 0 0 0 0 0 0 0
0 0 0 0 0 0 0 0 0 0 0 0 0 0 0 0.517714990260749 0.647609448081619 0 0 0 0 0 0 0 0 0 0 0 0 0 0 0 -0.535660035580146 0 0 0 0 0 0 0 0 0 0 0 0 0 0 0 0 0
0 0 0 0 0 0 0 0 0 0 0 0 0 0 0 0 0 0 0 0 0 0 0 0 1.14573000717595 0.081728815691501 0.1241762382889 0.301839927371074 0.147207699084794 1.12308312293559 0.414156813583316 0 -0.317741434660025 0 0 0 0 0 0 0 0 0 0 0 0 0 0 0 0 0
0.550939841036986 0.217035581074204 0.211628440631402 0.164927296536309 0.172049356300809 0 0 0 0 0 0 0 0 0 0 0 0 0 0 0 0 0 0 0 0 0 0 0 0 0 0 0 -0.553567215050122 0 0 0 0 0 0 0 0 0 0 0 0 0 0 0 0 0
0 0 0 0 0 0 0 0 0 0 0 0 0 0 0 0 0 0 0 0 0 0.211362556066017 0.314114776501697 0 0 0 0 0 0 0 0 0 -4.61183190378705 0 0 0 0 0 0 0 0 0 0 0 0 0 0 0 0 0
0 0 0 0 0 0 0 0 0 0 0 0 0 0 0 0 0 0 0.222696601664394 0.0576583014953809 0.122898044038348 0 0 0 0 0 0 0 0 0 0 0 -0.700011317801703 0 0 0 0 0 0 0 0 0 0 0 0 0 0 -2.13404350192229 0 0
0 0 0 0 0 0 0 0 0 0 0 0 0 0 0 0 0 0 0 0 0 0.335759591303619 0.0572798181105814 0.0323413590468372 0.11034503928346 0.16323537505785 0.026487824276178 0.208545149549207 0 0 0 0 0 0 0 0 0 0 0 0 0 -0.960302793317727 -1.58167881239747 0 0 0 0 -4.63861487532632 0 0
0 0 0 0 0 0 0 0 0 0 0 0 0 0 0 0 0 0 0 0 0 0 0 0 0 0 0 0 0 0 0 0 0 0 0 0 0 0 0 0 0 -5.95451664756906 -0.199859627876442 0 0 0 0 0 0 0
0.127168662933354 0.108418068287479 0.0179440732764513 0 0 0 0 0 0 0 0 0 0 0 0 0 0 0 0 0 0 0 0 0 0 0 0 0 0 0 0 0 0 0 0 0 0 0 0 0 0 -8.70179823374419 0 0 0 0 0 0 0 0
0 0 0 0 0 0 0 0 0 0 0 0 0 0 0 0 0 0 0 0 0 0 0 0 0 0 0 0 0 0 0 0 0 0 0 0 0 0 0.181409542317688 1.1983745989975 1.84792247386107 0 0.165566885677416 0 0 0 0 0 0 0
0 0 0 0 0 0 0 0 0 0 0 0 0 0 0 0 0 0 0 0 0 0 0 0 0 0 0 0 0 0 0 0 0 0 0 0 0 0 0.305086325168104 0.042831520258562 0 -0.719497557959745 0 0 0 0 0 0 0 0
0 0 0 0 0 0 0 0 0 0 0 0 0 0.235335386572929 0.0382699396972077 0.120989870089836 0.0707548621556563 0.355887460944617 0.407088116608672 0.119964776138117 0.217482028653471 0 0 0 0 0 0 0 0 0 0 0 0 0 0 0 0 0 0 0 0 0 0 0 0 0 0 0 0 0
0 0 0 0.0608073415921924 0.0833500786981822 0.571611186370733 0.165842271479456 0.11681842881011 0 0 0 0 0 0 0 0 0 0 0 0 0 0 0 0 0 0 0 0 0 0 0 0 0 0 0 0 0 0 0 0 0 0 0 0 0 0 0 0 0 0
0 0 0 0 0 0 0 0.0760776499651391 0.304548301688021 0.895796421396917 0.577988461215822 0.576518140652784 0.330242062384802 0.817598365859154 0.436270559663646 0.434762409496909 0.276433895582609 0.312593660655226 0 0 0 0 0 0 0 0 0 0 0 0 0 0 0 0 0 0 0 0 0 0 0 0 0 0 0 0 0 0 0 0
0 0 0 0 0 0 0 0 0 0 0 0 0 0 0 0 0.0601561944817049 0.116353780134473 1.0816296888656 0.303911974231043 0.0623405392871505 0 0 0 0 0 0 0 0 0 0 0 0 0 0 0 0 0 0 0 0 0 0 0 0 0 0 0 0 0
0 0 0 0 0 0 0 0 0 0 0 0 0 0 0 0 0 0 0 0 0 0 0 0 0 0 0 0 0 0 0 0 0 0 0 0 0 0.388427966536364 0.935787540020198 0 0 0 0 0 0 0 0 0 0 0
0 0 0 0 0 0 0 0 0 0 0 0 0 0 0 0 0 0 0 0.300190256525752 0.045939348574123 0.0628010034019225 0.490133502054911 0.0279242559507106 0.058543163189989 0.0754254449486653 0.0301359363517349 0 0 0 0 0 0 0 0 0 0 0 0 0 0 0 0 0 0 0 0 0 0 0
0 0 0 0 0 0 0 0 0 0 0 0 0 0 0 0.617747459832472 0.358914575621209 0.237028260434637 0.250757418970034 0.0406359756709628 0.0324422063290116 0 0 0 0 0 0 0 0 0 0 0 0 0 0 0 0 0 0 0 0 0 0 0 0 0 0 0 0 0
