1.41512236466379
1.73374274354933
1.4961186177322
2.25909231673848
1.69678052402556
0.628404152246874
0.473683961763059
2.28293578922279
2.95414114324029
0.747888619289448
3.48568317999883
0.994941841190208
2.14757206958697
2.83094986414684
1.42715404637999
1.18398228785605
0.289642652892981
0.158580708738846
1.43400969364738
3.67561569788789
1.61556911262795
2.4812018610619
1.25329385150803
0.787971088536617
0.55978617861998
0.588726788074145
1.75125397534263
0.578477955027479
0.167506671019735
0.627254871072566
0.660574539229337
0.46740304606662
0.075349196800167
1.37309464284788
1.00044604079238
1.05831382438072
6.4475505168473
2.8017309573845
1.28973249946129
0.950881185847735
1.22669264469256
2.33561421349586
0.502063096320345
1.55586126296595
1.33212391574089
2.35388610795977
4.25013072683752
1.29832135097879
1.20378918731735
0.783814789794851
