2.37685689167234
1.29980652770233
0.384756326277742
2.67770345587044
1.91124939370382
0.370658264502788
3.18631360267045
1.10623660230609
0.616611981943883
0.383609462644062
0.564048760835613
0.814518769021646
1.36696508449829
0.811706255106255
0.618247085814708
1.7638170909246
0.0811765032082054
0.992084474742409
0.0999083570216465
0.472439680748877
0.733365133942669
3.15352126688973
1.29503689658738
1.02969204815539
1.58233001672695
0.750315970667572
0.601607614144984
0.470499880553441
4.42615117399142
0.139151812647823
1.86867423850528
2.16832658623692
0.175472322026072
0.282055641938344
0.263553344065462
0.169057042847042
0.316685848236785
1.94394062944505
0.963608699483686
1.14431451382839
0.266562876533959
2.35924580695158
2.50403236323157
0.217096719124117
0.290760811186105
0.753214011818946
1.66240117048901
0.520716890998949
0.726444814863915
0.845943118581244
