0 0 0 0 0 0 0 0 0 0 0 0 0 0 0 0 -0.499355278971046 0 0 0 0 0 0 0 0 0 0 0 0 0 0 0 0 0 0 0 0 0 0 0 -1.09798035631235 0 0 0 0 0 0 0 0 0
0 0 0 0 0 0 0 0 0 0 0 0 0 0 0 0 -6.82602031420512 0 0 0 0 0 0 0 0 0 0 0 0 0 0 0 0 0 0 0 0 0 0 0 -1.58020135573022 0 0 0 0 0 0 0 0 0
0 0 0 0 0 0 0 0 0 0 0 0 0 0 0 0 0 0 0 0 0 0 0 0 0 0 0 0 0 0 0 0 0 0 0 0 0 0 0 0 -0.536692252813239 0 0 0 0 0 0 0 0 0
0 0 0 0 0 0 0 -0.333821646917409 0 -2.37258994490031 -2.38746415058374 0 0 0 0 0 0 0 0 0 0 0 0 0 0 -1.22416832076234 0 0 0 0 0 0 0 0 0 0 0 0 0 0 -0.656688396399734 0 0 0 0 0 0 0 0 0
0 0 0 0 0 0 0 0 0 -0.667192010873152 0 0 0 -0.377854828683427 0 0 0 0 0 0 0 0 0 0 0 -0.903129510420387 0 0 0 0 0 0 0 -1.39471308225442 0 0 0 0 0 0 -0.969247165781584 0 0 0 0 0 0 0 0 0
0 0 0 0 0 0 0 0 0 0 0 0 0 0 -0.0905920480409381 0 0 0 0 0 0 0 0 0 0 -4.93993484420393 0 0 0 0 -1.9465311668689 0 -0.568798814954772 0 0 0 0 0 0 0 0 0 0 0 0 0 0 0 0 0
0 0 0 0 0 0 0 0 0 0 0 0 0 0 -1.20796855476893 0 0 0 0 0 0 0 0 0 0 -5.92537470272588 0 0 0 0 -0.745954122857702 0 -0.793039508889975 0 0 0 0 0 0 0 0 0 0 0 0 0 0 0 0 0
0 0 0 0.0672437067318391 0 0 0 0 0 0 0 0 0 0 -0.807324065539751 0 0 0 0 0 0 0 0 0 0 -2.36088753287986 0 0 0 0 -3.7233880644745 0 -2.53449039950591 0 0 0 0 0 0 0 0 0 0 0 0 0 0 0 0 0
0 0 0 0 0 0 0 0 0 0 0 0 0 0 -1.55638445130606 0 0 0 -9.29418167020229 0 0 0 -0.606402442131745 0 0 -0.724019367648428 0 0 0 0 -1.3032695081044 0 -1.15466429084339 0 0 0 0 0 0 0 0 0 0 0 0 0 0 0 0 0
0 0 0 0.485569418070199 0.135252789963657 0 0 0 0 0 0 0 0 0 0 0 0 0 0 0 0 -1.98196461787792 -0.770901538440372 0 0 -0.986199391956649 0 0 0 0 -3.41457826625875 0 -0.57658175123203 0 0 0 0 0 0 0 0 0 0 0 0 0 -1.5098004372849 0 0 0
0 0 0 0.463687028522262 0 0 0 0 0 0 0 0 0 0 0 0 0 0 0 0 0 -0.438297671714476 -3.5480168814705 0 0 -0.891889133861314 0 0 0 0 -0.819418637209768 0 -0.603883143149647 0 0 0 0 0 0 -0.839311053221155 0 0 0 0 0 0 -1.13150154869187 0 0 0
0 0 0 0 0 0 0 0 0 0 0 0 0 0 0 0 0 0 0 0 -2.01898316845467 0 0 0 0 -0.423487325582212 0 0 0 0 -0.623658063642575 0 0 0 0 0 0 0 0 -1.89662933823751 0 0 0 -0.817633439809039 0 0 -0.570472399488476 0 0 0
0 0 0 0 0 0 0 0 0 0 0 0 0 0 0 0 0 -1.06001766740843 0 0 -0.444145188731526 0 0 0 0 0 0 0 0 0 -1.82527286470875 0 0 0 0 0 0 0 0 -6.80183942636355 0 0 0 -0.419190828542056 0 0 0 0 0 0
0 0 0 0 0.0807093663294237 0 0 0 0 0 0 0 0 0 0 0 0 -2.51192043788663 0 0 -2.35189393823981 0 0 -0.423970319226801 0 0 0 0 0 0 -0.280789098902068 0 0 0 0 0 0 0 0 -0.703636774003365 0 0 0 -1.81615366314548 0 0 0 0 0 0
0 0 0 0 0 0.0177787307865523 0.244476298047554 0.186148997946088 0.290013516446231 0 0 0 0 0 0 0 0 -0.122397176245155 0 0 -1.78661158682094 0 0 -4.05339452796481 0 0 0 0 0 0 -5.38315748342155 0 0 0 0 0 0 0 0 -0.188701375361054 0 0 0 -0.359386499376644 0 0 0 0 0 0
0 0 0 0 0 0 0 0 0 0 0 0 0 0 0 0 0 -0.785371671738711 0 0 -0.641431323431761 0 0 -2.59740925542742 0 0 0 0 0 0 -2.05770805014538 0 0 0 0 0 0 0 0 -1.2576058785711 0 0 0 -2.05231726700278 0 0 0 0 0 0
0.101475879854321 1.35454998195747 0 0 0 0 0 0 0 0 0 0 0 0 0 0 0 0 0 0 0 0 0 0 -0.90161696215424 0 0 0 0 0 0 0 0 0 0 0 0 0 0 -0.653652616460167 0 0 0 -0.793034295220992 0 0 0 0 0 0
0 0 0 0 0 0 0 0 0 0 0 0 0.214157384432426 0.487189127235657 0.0232682179962451 0.149547210500458 0 0 0 0 0 0 0 0 0 0 0 0 0 0 0 0 0 0 0 0 0 0 0 -0.4242560429738 0 0 0 -0.706380439714597 0 0 0 0 0 0
0 0 0 0 0 0 0 0 1.95951914903387 0 0 0 0 0 0 0 0 0 0 0 0 0 0 0 0 0 0 0 0 0 0 0 0 0 0 0 0 0 0 -1.45115916265416 0 0 0 -7.19431512623104 0 0 0 0 0 0
0 0 0 0 0 0 0 0 0 0 0 0 0 0 0 0 0 0 0 0 0 0 0 0 0 0 0 0 -1.18972284429961 0 0 0 0 0 0 0 0 0 0 -3.00268447778542 0 0 0 -3.07493650330066 0 0 0 0 0 0
0 0 0 0 0 0 0 0 0 0 0 0.429653717644758 0.0863919027902203 0.453153931661783 0.360696568676292 0.12929858271447 0 0 0 0 0 0 0 0 0 0 0 0 0 0 0 0 0 0 0 0 0 0 0 -0.718442402350723 0 -0.479130759051216 0 -0.967385115487417 0 0 0 -0.516594490266429 0 0
0 0 0 0 0 0 0 0 0 0.40312214113628 0.0821350987987036 0 0 0 0 0 0 0 0 0 0 0 0 0 0 0 0 0 0 0 0 0 0 0 0 0 0 0 0 -7.22525663077408 0 -0.719253878117397 0 -0.156924975211104 0 0 0 -2.13322765162833 0 0
0 0 0 0 0 0 0 0 0.125536383020671 0.161223219272786 0.617504561935018 0 0 0 0 0 0 0 0 0 0 0 0 0 0 0 0 -3.78101425477453 0 -0.522053407562363 0 0 0 0 0 -0.69214766529531 0 0 0 -0.368200497582177 0 -1.12773803553832 0 -0.547491488725163 0 0 0 -5.02214942210578 0 0
0 0 0 0 0 0 0 0 0 0 0 0 0 0.0906864725718891 0.805802067076299 0.535717308662377 0 0 0 0 0 0 0 0 0 0 0 0 0 0 0 0 0 0 0 -0.799296165377259 0 0 0 -0.878489906801118 0 -0.683333778340514 0 -1.74683330983595 0 0 0 -1.0541572853414 0 0
0 0 0 0 0 0 0 0 0 0 0 0 0 0 0 0 0.175976448901194 0 0 0 0 0 0 0 0 0 0 0 0 0 0 0 0 0 0 -1.45492183731316 -0.804033499874406 0 0 -1.70470812348437 0 0 0 -0.868451368015563 0 0 0 0 0 0
0 0 0 0.247719301032545 0.165345920337515 0.962758398394222 1.17817075843976 0.486120730698097 0.154427589003884 0.201871816595873 0.174189881811138 0.084252567311617 0 0 0 0 0 0 0 0 0 0 0 0 0 0 0 0 0 0 0 0 0 0 -1.03823673268249 -0.245934748898779 0 0 0 0 0 0 -0.542588193086212 0 0 0 0 0 0 0
0 0 0 0 0 0 0 0 0 0 0 0 0 0 0 0 0 0 0 0 0 0 0 0 0 0 0 0 0 0 0 0 0 0 -0.269163259774753 0 0 0 0 0 0 0 -0.102367080544991 0 0 0 0 0 0 0
0 0 0 0 0 0 0 0 0 0 0 0 0 0 0 0 0 0 0 0 0 0 0.725696058551517 0 0 0 0 0 0 0 0 0 0 0 -0.509975550985681 0 0 0 0 0 0 0 -1.24549250922727 0 0 0 0 0 0 0
0 0 0 0 0 0 0 0 0 0 0 0 0 0 0 0 0 0 0 0.251694670480808 0 0 0 0 0 0 0 0 0 0 0 0 0 0 -0.258770245709231 0 0 0 0 0 0 0 0 0 0 0 0 0 0 0
0 0 0 0 0 0 0 0 0 0 0 0 0 0 0 0 0 0 0 0 0 0 0.0988172666565566 0 0 0 0 0 0 0 0 0 0 0 -0.298751751234359 0 0 0 0 0 0 0 0 0 0 0 0 0 0 0
0 0 0 0 0 0.373537745152713 0.151541240143991 0.678454338897427 0.269352284258521 0.689651901374193 0.156263771879144 0.124346475351608 0.368870609752355 0.05719117535855 1.14787014445357 0.442898796023611 0 0 0 0 0 0 0 0 0 0 0 0 0 0 0 0 0 0 -0.127098988894064 0 0 0 -0.386912938075404 0 0 0 0 0 0 -0.291114092319822 0 0 0 0
0 0 0 0 0 0 0 0 0 0 0 0 0 0 0 0 0 0 0 0 0 0 0 0 0 0 0 0 0 0 0 0 0 0 0 0 0 0 -0.36965917909629 0 0 0 0 0 0 -0.906921704234729 0 0 -0.738148085121573 0
0 0 0 0 0 0.118396610137231 0.150345873847142 0.501716558720755 0.219147008776534 0.116676142188515 0.113273671483778 0 0 0 0 0 0 0 0 0 0 0 0 0 0 0 0 0 0 0 0 0 0 0 0 0 0 0 -0.313009975012015 0 0 0 0 0 0 0 0 0 -0.675740724658933 0
0 0 0 0 0.281800401646636 0 0 0 0 0 0 0 0 0 0 0 0 0 0 0 0 0 0 0 0 0 0 0 0 0 0 0 0 0 0 0 0 -0.619305866880198 -0.65149405425821 0 0 0 0 0 0 0 0 0 -7.5458544751473 0
0 0 0 0 0 0 0 0 0 0 0 0 0 0 0 0 0 0 0 0 0 0 0 0 0 0.197965777649178 0.0491061909619558 0.106686270754983 0.0550899649617348 0.0662499368046038 0.0279058736089603 0 0 0 0 0 0 -1.68013303808351 -3.83211170833295 0 0 0 0 0 0 0 0 0 -2.27180746719198 0
0 0 0 0 0 0 0 0 0 0 0 0 0 0 0 0 0 0 0 0 0 0 0.135793309200619 0.147338556611608 0.276201074409323 0.0473481924578608 0 0 0 0 0 0 0 0 0 0 0 0 0 0 0 0 0 0 0 0 0 0 0 0
0 0 0 0 0 0 0 0 0 0 0 0 0 0 0 0 0 0 0 0 0 0 0 0 0.157210970180777 0 0 0 0 0 0 0 0 0 0 0 0 0 0 0 0 0 0 0 -0.446072443333403 0 0 0 0 -0.667814100756743
0 0 0 0 0 0 0 0 0 0 0 0 0 0 0 0 0 0 0 0 0 0 0 0 0 0 0 0 0 0 0 0 0 0.129439868520112 0.316255557764358 0 0 0 0 0 0 0 0 0 -0.439438597586824 0 0 0 0 -1.14641019997458
0 0 0 0 0 0 0 0 0 0 0 0 0 0 0 0 0 0 0 0 0 0 0 0 0 0 0 0 0 0 0.0714975044111726 0.0713455528774438 0.0622039363755454 0.12512733162936 0.716638752860806 0 0 0 0 0 0 0 0 0 -1.74041213281748 0 0 0 0 -0.825923838009728
0 0 0 0 0 0 0 0 0 0 0.170525924097896 0.375164218657126 1.38275512190254 0.15176783212679 0.0339898138333697 0.25754466142497 0.137626834036658 0.0791272888995686 0.309011193178761 0.515735342370671 0.137586271235902 1.36849490257591 0.0697760651736316 0.191485996613561 0.308735766790405 0 0 0 0 0 0 0 0 0 0 0 0 0 0 0 0 0 0 0 0 0 0 0 0 0
0.229815626353503 0.28708215043198 0.110541504035166 0.126157658981128 0.200972946903156 0 0 0 0 0 0 0 0 0 0 0 0 0 0 0 0 0 0 0 0 0 0 0 0 0 0 0 0 0 0 0 0 0 0 0 0 0 0 0 0 0 0 0 0 0
0 0 0 0 0 0 0 0 0 0 0 0 0 0 0 0 0 0 0 0 0.0931162946140927 0.141779643765355 0.23002913093315 0.131311094964553 0 0 0 0 0 0 0 0 0 0 0 0 0 0 0 0 0 0 0 0 0 0 0 0 0 0
0 0 0 0 0 0 0 0 0 0 0 0 0 0 0 0 0 0 0 0 0 0 0 0 0 0.10044751713903 0.0193503331351091 0.263662388843101 0 0 0 0 0 0 0 0 0 0 0 0 0 0 0 0 0 0 0 0 0 0
0 0 0 0 0 0 0 0 0 0 0 0.161846002126775 0.0777939523068125 0.355756775662212 0.0731244808262571 0.389058706593336 0.143511081023776 0.146380043597477 1.45756027132685 0.608761103745601 0.181016923856952 0.0311111313702808 0.11198179015846 0.341263839344588 0.177724305666132 0 0 0 0 0 0 0 0 0 0 0 0 0 0 0 0 0 0 0 0 0 0 0 0 0
0 0 0 0 0 0 0 0 0 0 0 0 0 0 0 0 0 0 0 0 0 0 0 0 0 0 0 0 0 0 0 0 0 0 0 0 0.0925214632763707 0.094397969178459 0.358511369909413 0 0 0 0 0 0 0 0 0 0 0
0 0 0 0 0 0 0 0 0 0 0 0 0 0 0 0 0 0 0 0 0 0 0 0 0 0 0 0 0 0 0.0580037719490746 0.193860157116323 0 0 0 0 0 0 0 0 0 0 0 0 0 0 0 0 0 0
0 0 0 0 0 0 0 0 0 0.32390943263787 0.231761411334326 0.122301978597049 0 0 0 0 0 0 0 0 0 0 0 0 0 0 0 0 0 0 0 0 0 0 0 0 0 0 0 0 0 0 0 0 0 0 0 0 0 0
0 0 0 0 0 0 0 0 0 0 0 0 0 0 0 0 0 0 0 0 0.0966798778109245 0.450921879671608 0.951983305297483 0.211667689953066 0 0 0 0 0 0 0 0 0 0 0 0 0 0 0 0 0 0 0 0 0 0 0 0 0 0
0 0 0 0 0 0 0 0 0 0 0 0 0 0 0 0 0 0 0 0 0 0 0 0 0 0 0 0 0 0 0 0.15362975084602 0.131703934887396 1.49286883493846 0.487302050208818 0 0 0 0 0 0 0 0 0 0 0 0 0 0 0
0 0 0 0 0 0 0 0 0 0 0 0 0 0 0 0 0 0 0 0 0 0 0 0 0 0 0 0 0 0 0 0 0 0 0 0 0.131628523915755 0.230619481898155 0.171997988202406 0 0 0 0 0 0 0 0 0 0 0
