1.51087570140786
1.75357628925154
0.0808652558569398
0.0183740984773851
0.275257547315406
0.174708842264928
0.0222262889651383
0.336803042184737
1.02248831363163
0.799979609506189
0.258573747216117
0.414110344673496
0.510914010207569
1.71768602250546
1.75884512829302
0.348899945106667
0.365851804141337
4.72762287717103
0.123044597708532
0.303459205958987
0.516989000370751
3.06923557198422
0.546896608225462
0.774361776985798
1.28711902342806
0.452701000770256
0.393805799957918
0.230792458525659
1.11030483940432
0.538053258869139
0.460942752400244
1.19561144095154
0.444616663591331
0.220439097858008
0.470046305414803
0.137403367509057
1.1876473345464
0.14957011371534
0.0407480480189402
0.156941829062766
0.634215929556296
0.161601813274326
1.06636499535796
0.0690578246817136
0.155399189126395
1.11271736528502
0.0621526729207165
0.17058460229497
1.2652575334357
0.159232217923959
