0 0 0 0 0 0 0 0 0 0 0 0 0 -0.412932011158003 0 0 0 0 0 0 0 0 0 0 0 0 0 0 0 0 0 0 0 0 0 0 0 0 0 0 0 0 0 0 0 0 0 0 0 0
0 0 0 0 0 0 0 0 0 0 0 0 0 -0.565796395575996 0 0 0 0 0 0 0 0 0 0 0 0 0 0 0 0 0 0 0 0 0 0 0 0 0 0 0 0 0 0 0 0 0 0 0 0
0 0 0 -0.364833906907851 0 0 0 0 0 0 0 0 0 -6.62817224864867 0 0 0 0 0 0 0 0 0 0 0 0 0 0 0 0 0 0 0 0 0 0 0 0 0 0 0 0 0 0 0 0 0 0 0 0
0 0 0.0738028763446615 0 0 0 0 0 0 0 0 0 0 -1.14395602039048 0 0 0 0 0 0 0 0 0 0 0 0 0 0 0 0 0 0 0 0 0 0 0 0 0 0 0 0 0 0 0 0 0 0 0 0
0 0 0 0 0 0 0 0 0 0 0 0 0 -0.456876468775479 0 0 0 0 0 0 0 0 0 0 0 0 0 0 0 0 0 0 -1.13405083725384 0 0 0 0 0 0 0 0 0 0 0 0 0 0 0 0 0
0 0 0 0 0 0 0 0 0 -0.249011262645492 0 0 0 -1.522104652227 0 0 -5.06892710151755 0 0 0 0 0 -2.63914958289746 0 0 0 0 0 0 0 0 0 -0.734176642890108 0 0 0 0 0 0 0 0 0 0 0 0 0 -1.13866419270597 0 0 0
0 0 0 0 0 0 0 0 0 0 0 0 0 0 -1.49632860867788 0 0 0 0 -0.0989920630584395 0 -0.842682743166071 0 0 0 0 0 0 0 0 0 0 -0.42367800900366 0 0 0 0 0 0 0 0 0 0 0 0 0 0 0 0 0
0 0 0 0 0 0 0 0 0 0 0 0 0 0 -1.15115836307322 0 0 0 -1.06848854535286 -0.37788549021777 0 -0.369453249473022 0 0 0 0 0 0 0 0 0 0 -0.26266745574961 0 0 0 0 0 0 0 0 0 0 -5.15090205965333 0 0 0 0 0 0
0 0 0 0 0 0 0 0 0 0 0 0 0 0 0 0 0 0 0 -0.413554721323141 0 -0.178656492459632 0 0 0 0 0 0 0 0 0 0 -0.243098228304263 0 0 0 0 0 0 0 0 0 0 -1.86516210709107 0 0 0 0 0 0
0 0 0 0 0 0.0491629283640443 0 0 0 0 0 0 0 0 0 0 0 0 0 -0.132640146594583 0 -0.58963396017694 0 0 0 0 0 0 -0.42479268588047 0 0 0 -1.84870774710216 0 0 0 0 0 0 0 0 0 0 -2.33777912779114 0 0 0 0 0 0
0 0 0 0 0 0 0 0 0 0 0 0 -1.05807549880819 0 0 -1.69237222690732 0 0 0 -1.30632778267196 0 -1.66339393320033 0 0 0 0 0 0 -3.41595396693314 0 0 0 -3.78860037691106 0 0 0 0 0 0 0 0 0 0 -3.59549399527075 0 0 0 0 0 0
0 0 0 0 0 0 0 0 0 0 0 0 0 0 0 -0.265586675838497 0 -0.800568479184458 0 0 0 0 0 0 0 0 -0.41558771508066 0 -0.769232000710196 0 -2.02091659457266 0 0 0 0 0 0 0 0 0 0 0 0 -2.48122221300331 0 0 0 0 0 0
0 0 0 0 0 0 0 0 0 0 0.223471585480791 0 0 0 0 0 0 -2.63736262802305 0 0 0 0 0 0 0 0 0 0 -7.53026903984201 0 0 0 0 0 0 0 0 0 0 0 0 0 0 0 0 0 0 0 0 0
0.0890484890233408 0.102292666779837 1.28446872974018 0.227975487271292 0.0921612044615617 0.271811216168258 0 0 0 0 0 0 0 0 0 0 0 -0.213267921911027 0 0 0 0 0 0 0 0 0 0 -1.29810778575774 0 0 0 0 0 0 0 0 0 0 -1.45811944248531 0 0 0 0 0 0 0 0 0 0
0 0 0 0 0 0 0.278921219229258 0.219408521048766 0 0 0 0 0 0 0 0 0 -2.38836494709804 0 0 0 0 0 0 0 0 0 0 -1.64123788898851 0 0 0 0 0 0 0 0 0 0 -0.814611729824535 0 0 0 0 0 0 0 0 0 0
0 0 0 0 0 0 0 0 0 0 0.301440309228784 0.0543242103614857 0 0 0 0 0 -0.300385477227217 0 0 0 0 0 0 0 0 0 0 -0.62428245553438 0 0 0 0 0 0 0 0 0 0 -2.27935617687267 0 0 0 0 0 0 0 0 0 0
0 0 0 0 0 1.13521963441375 0 0 0 0 0 0 0 0 0 0 0 -0.168664222688063 0 0 0 0 0 0 0 0 0 0 -0.700677585079833 0 0 0 0 0 0 0 0 0 0 -2.8220881605868 0 0 0 0 0 0 0 0 0 0
0 0 0 0 0 0 0 0 0 0 0 0.164773106569327 0.522018790242012 0.0411503187060207 0.505691520280585 0.058798780970189 0.0336776550384814 0 0.227087396701563 0 0 0 0 0 0 0 0 0 -0.871782472121086 0 0 0 0 0 0 0 0 0 0 -0.7401895733513 0 0 0 0 0 0 0 0 0 0
0 0 0 0 0 0 0 0.209514990566341 0 0 0 0 0 0 0 0 0 -1.20699515098466 0 0 0 0 0 0 0 0 0 0 -0.518461737650903 0 0 0 0 0 0 0 0 0 0 -0.50878288640447 0 0 0 0 0 0 0 0 0 0
0 0 0 0 0 0 0.0185981370440255 0.0770734027606984 0.0795013587120115 0.0264548644594739 0.263563918758669 0 0 0 0 0 0 0 0 0 0 0 0 0 0 0 0 0 -4.74301093840496 0 0 0 0 0 0 0 0 -0.930982558898199 0 0 0 -1.50065864239348 0 0 0 0 0 0 0 0
0 0 0 0 0 0 0 0 0 0 0 0 0 0 0 0 0 0 0 0 0 0 0 -7.53384292669479 -1.48462034232305 0 0 0 -1.59611861994209 0 0 0 0 0 0 0 0 -1.01254927966558 0 0 0 -0.273893906281751 0 0 0 0 0 0 0 0
0 0 0 0 0 0 0.176711245131044 0.069201779664352 0.0338293070061249 0.109116308901704 0.314964880944328 0 0 0 0 0 0 0 0 0 0 0 0 -0.821141285026706 -1.32901341507569 0 0 0 -0.891823083913286 0 0 0 0 0 0 0 0 -0.295439099318847 0 0 0 -0.850464528502918 0 0 0 0 0 0 0 0
0 0 0 0 0 0.518696622877288 0 0 0 0 0 0 0 0 0 0 0 0 0 0 0 0 0 -2.66162866828564 -1.32547403676326 0 0 0 0 0 0 0 0 0 0 0 0 -2.42515574494153 0 0 0 -3.33326859926836 0 0 0 0 0 0 0 0
0 0 0 0 0 0 0 0 0 0 0 0 0 0 0 0 0 0 0 0 1.5600843858727 0.164551738048585 0.50967713676554 0 0 0 0 0 0 0 0 0 0 0 0 0 0 -0.315014997861122 0 0 0 0 0 0 0 0 0 -2.45124590502332 0 0
0 0 0 0 0 0 0 0 0 0 0 0 0 0 0 0 0 0 0 0 0.280916290517876 0.28542401473666 0.268140178348561 0 0 0 0 0 0 0 0 0 0 0 -0.387950303521626 0 0 -0.207165241667385 0 0 0 0 0 0 0 0 0 -2.43355086063314 0 0
0 0 0 0 0 0 0 0 0 0 0 0 0 0 0 0 0 0 0 0 0 0 0 0 0 0 0 0 0 0 0 0 0 0 -0.11745595281164 0 0 -1.01857663653441 0 0 0 0 0 0 0 0 0 -0.604470324684743 0 0
0 0 0 0 0 0 0 0 0 0 0 0.0809746793926807 0 0 0 0 0 0 0 0 0 0 0 0 0 0 0 -0.999418876908912 0 0 0 0 0 -1.91272180196253 0 -1.24985972388175 0 0 0 0 0 0 0 0 0 0 0 -1.39134560541458 0 0
0 0 0 0 0 0 0 0 0 0 0 0 0 0 0 0 0 0 0 0 0 0 0 0 0 0 0.209122937284146 0 0 0 0 0 0 -0.685282706969727 0 -1.82591873848304 0 0 0 0 0 0 0 0 0 0 0 -1.75716045973291 0 0
0 0 0 0 0 0 0 0 0 0.0828931276307752 0.700511986995408 0.172480399577344 1.43289014638906 0.238893661394373 0.313961397967954 0.125521464504518 0.12881689258606 0.194049594057356 0.108527853608828 1.05676863780205 0.319278965181769 0.169355807160285 0 0 0 0 0 0 0 0 0 0 0 -1.04631840260871 0 -0.251250943158024 0 0 0 0 0 0 -2.02896751711041 0 0 0 0 -0.60854781220919 0 0
0 0 0 0 0 0 0 0 0 0 0 0 0 0 0 0 0 0 0 0 0 0 0 0 0 0 0 0 0 0 0 0 0 -2.43001790796374 0 -2.23065502233648 0 0 0 0 0 0 -0.908861691065966 0 0 0 0 -5.48534280732591 0 0
0 0 0 0 0 0 0 0 0 0 0 0.402207960094944 0 0 0 0 0 0 0 0 0 0 0 0 0 0 0 0 0 0 0 0 0 -1.0862668955439 0 -0.729954099331435 0 0 0 0 0 0 -0.53331225617949 0 0 0 0 -0.200719193115895 0 0
0 0 0 0 0 0 0 0 0 0 0 0 0 0 0 0 0 0 0 0 0 0 0 0 0 0 0 0 0 0 0 0 0 -4.3879394636329 0 -1.29396176950865 0 0 0 0 0 0 -0.355047840230003 0 0 0 0 -0.829319260692403 0 0
0 0 0 0 0.227635631135277 0.141460753924315 0.0791668422879396 0.0502851344445682 0.0509051085164738 0.377737044970315 0.777720176506126 0 0 0 0 0 0 0 0 0 0 0 0 0 0 0 0 0 0 0 0 0 0 -2.8293751508896 0 -0.509856151420463 0 0 0 0 0 0 -1.19977740175702 0 0 0 0 -0.419389310530678 0 0
0 0 0 0 0 0 0 0 0 0 0 0 0 0 0 0 0 0 0 0 0 0 0 0 0 0 0.385079864966873 0.133430260345754 0.21442320518976 0.469851690793803 0.219813009235015 0.790145171694404 0.538342615112973 0 0 0 0 0 0 0 0 0 0 0 0 0 0 0 0 0
0 0 0 0 0 0 0 0 0 0 0 0 0 0 0 0 0 0 0 0 0 0 0 0 0.067112305542443 0.0250888824689668 0 0 0 0 0 0 0 0 0 0 0 0 0 0 0 0 0 0 0 0 0 0 0 0
0 0 0 0 0 0 0 0 0 0 0 0 0 0 0 0 0 0 0 0 0 0 0 0 0 0 0.235656513718168 0.363955310958608 0.0532432378722494 0.463212574836912 0.1516174311834 0.256961273207831 0.096763097644457 0 0 0 0 0 0 0 0 0 0 0 0 0 0 0 -1.14177310616782 0
0 0 0 0 0 0 0 0 0 0 0 0 0 0 0 0 0 0 0 0 0 0 0 0 0 0 0 0 0 0 0 0 0 0 0 0 0 0 0 0 0 0 0 0 0 0 0 0 -1.24270117983683 0
0 0 0 0 0 0 0 0 0 0 0 0 0 0 0 0 0 0 0 0.170580904611857 0.213478293115687 0.0520835294158529 0.470563364157995 0.0623720748585061 0.0393209433259645 0.202831933674828 0 0 0 0 0 0 0 0 0 0 0 0 0 0 0 0 0 0 0 0 0 0 -0.270521183495272 0
0 0 0 0 0 0 0 0 0 0 0 0 0 0 0 0 0 0 0 0 0 0 0 0 0 0 0 0 0 0 0 0 0 0 0 0 0 0 0 0 -0.493106922961201 0 0 0 0 0 0 0 0 0
0 0 0 0 0 0 0 0 0 0 0 0 0 0.26928973599488 0.175626953872795 0.471657503587317 0.561567408174736 0.149994357431702 0.104098834544869 0 0 0 0 0 0 0 0 0 0 0 0 0 0 0 0 0 0 0 0 0 -2.124675452243 0 0 0 -1.22693627288988 0 0 0 0 0
0 0 0 0 0 0 0 0 0 0 0 0 0 0 0 0 0 0 0 0 0 0 0 0 0 0 0 0 0 0 0 0 0 0 0 0 0 0 0.101100722664642 0.466606044798063 0 0.487248069921092 0.299048081763045 0 -0.192871487849966 -0.65229073141714 0 0 0 0
0 0 0 0 0 0 0 0 0 0 0 0 0 0 0 0 0 0 0 0.300460986647664 0.0579450273052005 0.170857914358657 0.662864261380298 0 0 0 0 0 0 0 0 0 0 0 0 0 0 0 0 0 -2.46500093602367 0 0 0 -3.35461422887597 -0.50377845915465 0 0 0 0
0 0 0 0 0 0 0 0 0 0 0 0 0 0 0 0 0 0 0 0 0 0 0 0 0 0 0 0 0.399037184121132 0.167419971941563 0.10477945714766 0.0744541428977777 0.238938682231846 0 0 0 0 0 0 0 -1.4741757393288 0 0 0 0 -0.375519263480087 0 0 0 0
0 0 0 0 0 0 0 1.11880328106649 0.370786798460473 0.459365279935134 0.699917363833025 0.434207044079582 0 0 0 0 0 0 0 0 0 0 0 0 0 0 0 0 0 0 0 0 0 0 0 0 0 0 0 0 0 0 0 0 0 -0.543637151937885 0 0 0 0
0 0 0 0 0 0 0 0 0 0 0 0 0 0 0 0 0 0 0 0 0 0 0 0 0 0 0 0 0 0 0 0 0 0 0 0 0 0 0 0.257700135192666 0.0363489168676424 0.670278648270189 0 0 0 -6.7024323855773 0 0 0 0
0 0 0 0 0 0 0 0 0 0 0 0 0 0 0 0 0 0 0 0 0 0 0 0 0 0 0 0 0 0 0 0 0 0 0 0 0 0 0 0 0.135284968699473 0.111462714872052 0.0720248003046339 0.107009474155454 1.34382573099908 0 0.127455669286689 0.176299609426068 0.626582411553405 0.767745332502484
0 0 0 0 0 0.235100178134815 0 0 0 0 0 0 0 0 0 0 0 0 0 0 0 0 0 0 0 0 0 0 0 0 0 0 0 0 0 0 0 0 0 0 0 0 0 0 0 -0.675420172429705 0 0 0 0
0 0 0 0 0 0 0 0 0 0 0 0 0 0 0 0 0 0 0 0 0 0 0 0.505122029070097 0.532508993747015 0.124275096907638 0.286444395989447 0.349008950794996 0.128880324690895 1.17803834908077 0.0395311703458866 0.163745880905099 0.0856258227859927 0 0 0 0 0 0 0 0 0 0 0 0 -0.884011130846673 0 0 0 0
0 0 0 0 0 0 0 0 0 0 0 0 0 0 0 0 0 0 0 0 0 0 0 0 0 0 0 0 0 0 0 0 0 0 0 0.229856550886013 0.251556707138755 0.0547398853851726 0 0 0 0 0 0 0 -3.21100194099331 0 0 0 0
0 0 0 0 0 0 0 0 0 0 0 0 0 0 0 0 0 0 0 0 0 0 0 0 0 0 0 0 0 0 0 0 0 0 0 0 0 0 0 0 0 0 0 0 0 -3.85626270818293 0 0 0 0
