0.891102750503573
1.76266675279646
2.10789456132977
1.1569024033466
0.521854264926928
1.16308629853619
2.67431503831504
3.37881978757313
0.573493450321724
0.876942380777617
0.43060903958012
1.48410289443584
0.280475018761014
1.78779963532515
0.462080746421683
0.455258485947966
3.49297626627568
0.443084208889143
2.04280831980151
1.13327232668008
1.31355930135365
1.01807304639194
1.34485781282788
2.82771252226734
0.435299606312704
0.191433691534375
0.417491078475358
1.21745369215089
0.880913601189136
1.77797292597958
0.652259858255147
3.29788996225832
1.3204044507189
0.594637447963676
1.63679764388533
0.98726559582461
1.77111504939014
1.58363927579316
0.294656123115891
2.96351923089318
0.963724927323239
0.564834742721452
1.00303637376942
0.225311499910346
0.490291391189937
0.383712077556885
0.201716576727337
0.669372659466016
1.93796451541844
0.306951868273459
