0 0 0 0 0 0 0 0 0 0 0 0 0 0 0 0 0 0 0 0 0 0 0 0 0 0 0 0 -3.01350075502157 0 0 0 0 0 0 0 0 0 0 0 0 0 0 0 0 0 0 0 0 0
0 0 0 0 0 0 0 0 0 0 0 0 0 0 0 0 0 0 0 0 0 0 0 0 0 0 0 0 -7.47601655771988 0 0 0 0 0 0 0 0 0 0 0 0 0 0 0 0 0 0 0 0 0
0 0 0 -0.972048907982976 0 0 0 0 0 0 0 0 0 0 0 0 0 0 0 0 0 0 0 0 0 0 0 0 -0.465303033602523 0 0 0 0 0 -0.480629622462754 0 -1.86657160395704 0 0 0 0 0 0 0 0 0 0 -1.52267931672028 0 0
0 0 0.178646313630419 0 0 0 0 0 0 0 0 0 0 0 0 0 0 0 0 0 0 0 0 0 0 0 0 0 -3.02672937458349 0 0 0 0 0 -0.978648042331357 0 -7.1900166984718 0 0 0 0 0 0 0 0 0 0 -1.57073115478092 0 0
0 0 0 0 0 0 -1.3155498478692 0 0 0 0 0 0 0 0 0 0 0 0 0 0 0 0 0 0 0 0 0 -1.12994724496222 0 0 0 0 0 -0.359915993415502 0 -1.25910634229479 0 0 0 0 0 0 0 0 0 0 0 0 0
0 0 0 0 0 0 -4.40015308119006 0 0 0 0 0 0 0 0 0 0 0 0 0 0 0 0 0 0 0 0 0 -0.653665103224278 0 0 0 0 0 -3.48991551474675 0 0 0 0 0 0 0 0 0 0 0 0 0 0 0
0 0 0 0 0.268405544372172 0.893860598091226 0 0 0 0 -0.429077237646083 0 0 -0.465014171241623 0 0 0 0 0 0 0 0 0 0 0 0 0 0 -0.840199801970547 0 0 0 0 0 0 0 0 0 -0.323140360592109 0 0 0 0 0 0 0 0 0 0 0
0 0 0 0 0 0 0 0 0 0 -1.12130685173642 0 0 0 0 0 0 0 0 0 0 0 0 0 0 0 0 0 0 0 0 0 0 0 0 0 0 0 -2.00002379022024 0 0 0 0 0 0 0 0 0 0 0
0 0 0 0 0 0 0 0 0 0 0 0 -0.13567018032985 0 0 0 -0.581176280445574 0 -0.552329604769377 0 0 0 -1.90312299647531 0 0 0 0 0 0 -0.693833159100722 0 0 0 0 0 0 0 0 0 0 0 0 0 0 0 0 0 0 -1.17328046341519 0
0 0 0 0 0 0 0 0 0 0 0 0 -1.89295025663669 0 0 0 -0.465344385242262 0 -0.117101929916976 0 0 0 -3.01498536238114 0 0 0 0 0 0 -1.12501051158899 0 -0.225775120586922 0 0 0 0 0 0 0 0 0 0 0 0 0 0 0 0 -0.370258124270775 0
0 0 0 0 0 0 0.0836853628208531 0.245360945435191 0 0 0 0 0 0 -0.700441578416957 -0.429621831656402 0 0 -0.422789132092794 0 0 0 -1.05140667914499 0 0 0 -1.44009509972925 -0.463111945696142 0 0 0 0 0 0 0 0 0 0 0 0 0 0 0 0 0 0 0 0 0 0
0 0 0 0 0 0 0 0 0 0 0 0 0 0 0 0 0 0 -1.22438501527351 0 0 0 0 0 0 0 -0.398648579420157 -5.46444985820828 0 0 0 0 0 0 0 0 0 0 0 0 0 0 0 0 0 0 0 0 0 0
0 0 0 0 0 0 0 0 0.0269593485251261 0.355707467733002 0 0 0 0 0 0 0 0 -2.13154372587821 0 0 0 0 0 0 0 0 -3.53054575681028 0 0 0 0 0 0 0 0 0 0 0 0 0 0 0 0 -0.40053917306074 0 0 0 0 0
0 0 0 0 0 0 0.089898813637416 0 0 0 0 0 0 0 0 0 0 0 0 0 0 0 0 0 -2.02484954233373 0 0 -0.433144247144438 0 0 -0.586688457821517 0 0 0 0 0 0 0 0 0 0 0 0 0 -1.965650788374 0 0 0 0 0
0 0 0 0 0 0 0 0 0 0 0.144363363266065 0 0 0 0 0 0 0 0 0 0 0 0 0 -0.370412941366692 0 0 -0.250407945855731 0 0 -0.406395393760113 0 0 0 0 0 0 0 0 0 0 0 0 0 -0.115963638218065 0 0 0 0 0
0 0 0 0 0 0 0 0 0 0 0.0858187926781145 0 0 0 0 0 0 0 0 0 0 0 0 0 -4.05626305553608 0 0 -1.53819450317393 0 0 -1.31212321179255 0 0 0 0 0 0 0 0 0 0 0 0 0 -1.02506607933078 0 0 0 0 0
0 0 0 0 0 0 0 0 0.12782350769432 0.0894079288620375 0 0 0 0 0 0 0 0 0 0 -1.79358404408511 0 0 0 -0.44259456044097 0 0 -0.962832996493425 0 0 -0.537703067397843 0 0 -5.94914932633058 0 0 0 0 0 0 0 0 0 0 -0.472307308053956 0 0 0 0 0
0 0 0 0 0 0 0 0 0 0 0 0 0 0 0 0 0 0 0 0 -1.18031938512907 0 0 0 0 0 0 -1.96778360513951 0 0 -2.30237799259864 0 0 -1.67812158145844 0 0 0 0 0 0 0 0 0 0 -0.315835832504904 0 0 0 0 0
0 0 0 0 0 0 0 0 0.112019057698035 0.0247732645592678 0.0830985699307774 0.246533441585316 0.445737761223085 0 0 0 0 0 0 0 0 0 0 0 0 0 0 -0.101848838284258 0 0 -1.15522991124197 0 0 -1.30111049056565 0 0 0 0 0 0 -1.53037960032496 0 0 0 -0.252029702010375 0 0 0 0 0
0 0 0 0 0 0 0 0 0 0 0 0 0 0 0 0 0 0 0 0 0 0 0 0 0 0 0 -0.786651771411168 0 0 -0.822309069378773 0 0 -3.20753218480154 0 0 0 0 0 0 0 0 0 0 -0.247348928718262 0 0 0 0 0
0 0 0 0 0 0 0 0 0 0 0 0 0 0 0 0 0.352362532329716 0.233362768350451 0 0 0 0 0 0 0 0 0 0 0 0 -0.77861719737261 0 -2.07225683291903 -0.233902747709816 0 -4.4875272715778 0 0 0 0 0 0 0 0 -0.23549740234593 0 0 0 0 0
0 0 0 0 0 0 0 0 0 0 0 0 0 0 0 0 0 0 0 0 0 0 0 0 0 0 0 0 0 0 -0.63184153655994 0 -2.58391200651111 -0.986397999178212 0 -3.66093215402271 0 0 0 0 0 0 0 0 -0.474025107142858 0 0 0 0 0
0 0 0 0 0 0 0 0 0.366765995144753 0.589291494019473 0.219121117581597 0 0 0 0 0 0 0 0 0 0 0 0 0 0 0 0 0 0 0 -0.784198068364041 0 -0.351560386154053 -0.115668345842016 0 -1.00361813027907 0 0 0 0 0 0 0 0 0 0 0 0 0 0
0 0 0 0 0 0 0 0 0 0 0 0 0 0 0 0 0 0 0 0 0 0 0 0 0 0 0 0 0 0 -0.484328243365896 0 -1.87052859027543 -1.84037992399463 0 -2.37028764959198 0 0 0 0 0 0 0 0 0 0 0 0 0 0
0 0 0 0 0 0 0 0 0 0 0 0 0 0.422853759392886 0.0735024743683538 0.822308970184375 0.0928885534472977 0 0 0 0 0 0 0 0 0 0 0 0 0 0 0 -1.50416988264165 0 0 -1.50816837004366 0 0 0 -1.98883769327471 0 0 0 0 0 0 0 0 0 0
0 0 0 0 0 0 0 0 0 0 0 0 0 0 0 0 0 0 0 0 0 0 0 0 0 0 0 0 0 0 0 0 -0.814025239145757 0 0 -0.625592416408901 0 0 0 0 0 0 0 0 0 0 0 0 0 0
0 0 0 0 0 0 0 0 0 0 0.291106867603775 0.0793200109595909 0 0 0 0 0 0 0 0 0 0 0 0 0 0 0 0 0 0 0 0 -1.20993651927174 0 0 -3.50149157711764 0 0 0 0 0 0 0 -0.882501912111388 0 0 0 0 0 0
0 0 0 0 0 0 0 0 0 0 0.101292919902885 1.1912884889272 0.732432098953431 0.0872230137929126 0.0475201317376705 0.312317286977427 0.187197578000802 0.378672408814798 0.02262884105307 0.157914983082655 0 0 0 0 0 0 0 0 0 0 0 0 -2.86695698554371 0 0 -1.01372739489743 0 0 0 0 0 0 0 -1.23265979482564 0 0 0 0 0 0
0.612871854083987 1.55738207602348 0.0943480420278177 0.620407630214095 0.204508942063122 0.13940094299733 0.164655321121105 0 0 0 0 0 0 0 0 0 0 0 0 0 0 0 0 0 0 0 0 0 0 0 0 0 0 0 0 0 0 0 0 0 0 -3.2848782151665 -0.385784948106164 0 0 0 0 0 0 -3.19694339200278
0 0 0 0 0 0 0 0 0.138074340679493 0.217185837584703 0 0 0 0 0 0 0 0 0 0 0 0 0 0 0 0 0 0 0 0 0 0 0 0 0 0 0 0 0 0 0 0 0 0 0 0 0 0 0 -3.4558089060344
0 0 0 0 0 0 0 0 0 0 0 0 0 0.120659930312189 0.0802441754047257 0.256725552503787 0.108662607920243 0.482994978528579 0.22338649294418 0.171180276115059 0.145761588522738 0.136984658015267 0.143652151270632 0.0927897693018305 0 0 0 0 0 0 0 0 0 0 0 0 0 0 0 0 0 0 0 0 0 0 -4.44480020530573 0 0 -1.05874013856443
0 0 0 0 0 0 0 0 0 0.0445810105383613 0 0 0 0 0 0 0 0 0 0 0 0 0 0 0 0 0 0 0 0 0 0 0 0 0 0 0 -1.37411594306285 0 0 0 0 0 0 0 0 -1.36589196833138 0 0 0
0 0 0 0 0 0 0 0 0 0 0 0 0 0 0 0 0 0 0 0 0.438512214489406 0.544377723152568 0.0735826468622058 0.380163617865193 0.270728149250957 0.171944607103853 0.260652465869572 0.583283378042138 0 0 0 0 0 0 0 0 0 -0.959835875323442 0 0 0 0 0 0 0 0 -5.48244194955793 0 0 0
0 0 0 0 0 0 0 0 0 0 0 0 0 0 0 0 1.18540514888667 0.359984116249941 0.267290097425019 0.632261306099989 0.047335345455512 0.199705804813066 0.0226668241362752 0.384391326966934 0 0 0 0 0 0 0 0 0 0 0 0 0 -3.88031865512062 0 0 0 0 0 0 0 0 -1.97892771577837 0 0 0
0 0 0.0987383099326277 0.203731120213501 0.0727726248738072 0.66047844218989 0 0 0 0 0 0 0 0 0 0 0 0 0 0 0 0 0 0 0 0 0 0 0 0 0 0 0 0 0 0 0 0 0 0 0 0 0 0 0 -2.01530490489841 0 0 0 0
0 0 0 0 0 0 0 0 0 0 0 0 0 0 0 0 0 0 0 0 0.918412736869912 0.73231694888373 0.205023289831851 0.467993070873598 0.303168215328321 0.128859960008698 0.730645341473232 0.195864355056949 0 0 0 0 0 0 0 0 0 0 0 0 0 0 0 0 0 -0.665185296424985 0 0 0 0
0 0 0.396685882714584 1.38240111177852 0.265548803986677 0 0 0 0 0 0 0 0 0 0 0 0 0 0 0 0 0 0 0 0 0 0 0 0 0 0 0 0 0 0 0 0 0 0 0 0 0 0 0 0 -1.83127970173717 0 0 0 0
0 0 0 0 0 0 0 0 0 0 0 0 0 0 0 0 0 0 0 0 0 0 0 0 0 0 0 0 0 0 0 0.270408607867508 0.203382627757195 0.807591014893032 0 0 0 0 0 0 0 0 0 0 0 -0.265339826553869 0 0 0 0
0 0 0 0 0 0 0.0623845500419075 0.406099064258091 0 0 0 0 0 0 0 0 0 0 0 0 0 0 0 0 0 0 0 0 0 0 0 0 0 0 0 0 0 0 0 0 0 0 0 0 0 -0.31997569302462 0 0 0 0
0 0 0 0 0 0 0 0 0 0 0 0 0 0 0 0 0 0 0 0 0 0 0 0 0.384621659568581 0 0 0 0 0 0 0 0 0 0 0 0 0 0 0 0 0 0 0 0 -0.628988863037299 0 0 0 0
0 0 0 0 0 0 0 0 0 0 0 0 0 0 0 0 0 0 0.289941991848255 0 0 0 0 0 0 0 0 0 0 0 0 0 0 0 0 0 0 0 0 0 0 0 0 0 0 0 0 0 0 0
0 0 0 0 0 0 0 0 0 0 0 0 0 0 0 0 0 0 0 0 0 0 0 0 0 0 0 0 0.670305899443987 0 0 0 0 0 0 0 0 0 0 0 0 0 0 0 0 0 0 0 0 0
0 0 0 0 0 0 0 0 0 0 0 0 0 0 0 0 0 0 0 0 0 0 0 0 0 0 0 0 0.0794594274428696 0 0 0 0 0 0 0 0 0 0 0 0 0 0 0 0 0 0 0 0 0
0 0 0 0 0 0 0 0 0 0 0 0 0 0 0 0 0 0 0 0 0 0 0 0 0 0 0.175166789113339 0.249095962468344 0 0 0 0 0 0 0 0 0 0 0 0 0 0 0 0 0 0 0 0 0 0
0 0 0 0 0 0 0 0 0 0 0 0 0.0809377890300951 0.388493845514104 0.0249909571600594 0.204380040708397 0.0913557515670474 0.0636033390835448 0.0531846458243611 0.0513781942709237 0.0443518386426255 0.096144844002019 0 0 0 0 0 0 0 0 0 0 0 0 0 0 0 0 0 0 0 0 0 0 0 0 0 0 0 0
0 0 0 0 0 0 0 0 0 0 0 0 0 0 0 0 0 0 0 0 0 0 0 0 0 0 0 0 0 0 0 0 0 0 0.407428375395839 0.136108509392565 0.374763934743417 0.056268246286478 0.0639320524971511 0.124377863964002 0 0 0 0 0 0 0 0 0 0
0 0 0 0 0 0 0 0 0 0 0 0 0 0 0 0 0 0 0 0 0 0 0 0 0 0 0 0 0 0 0.847209013631289 0.281770983461089 0.973448040986926 0.390875821124176 0 0 0 0 0 0 0 0 0 0 0 0 0 0 0 0
0 0 0.30664812890171 0.287025921603991 0 0 0 0 0 0 0 0 0 0 0 0 0 0 0 0 0 0 0 0 0 0 0 0 0 0 0 0 0 0 0 0 0 0 0 0 0 0 0 0 0 0 0 0 0 0
0 0 0 0 0 0 0 0 0.20718857291126 0.0721879427722569 0 0 0 0 0 0 0 0 0 0 0 0 0 0 0 0 0 0 0 0 0 0 0 0 0 0 0 0 0 0 0 0 0 0 0 0 0 0 0 0
0 0 0 0 0 0 0 0 0 0 0 0 0 0 0 0 0 0 0 0 0 0 0 0 0 0 0 0 0.598065910418225 0.624911612413988 0.213324906286647 0 0 0 0 0 0 0 0 0 0 0 0 0 0 0 0 0 0 0
