0.690880085371179
0.736365053683216
1.20765554643372
0.104240928512158
0.166298705286638
0.931936663578029
0.156762841083502
0.308956441515083
0.97834307513351
2.49126073255288
0.870108046906779
0.65954695442746
0.493681481565103
2.17273613676305
0.278942411932587
0.0471259334037886
0.219053751923266
0.260372366551206
0.3215679024245
1.21017592643872
0.0355913007002869
1.12751166981451
0.121014905422668
0.24961977721455
1.65463108236446
0.15724545166158
0.430627322684857
0.220267659655708
0.603483982572586
0.423275755093015
0.499696696655886
0.488515412892927
0.155397634347306
1.01494590417185
0.672363334173774
0.782306083516311
2.59255106262126
2.40107509204382
0.257037160789658
0.812808364843157
0.244619678842478
0.0788291092130416
0.11892367795734
1.0928278319313
0.636673704251514
0.131142258726708
0.180170610426579
0.123987137453933
0.334074345064895
0.137361701861032
