0.458236296419184
0.23238687791398
0.488707200221602
2.17022163001007
0.745816227538279
0.665010830899135
1.77718075574239
0.421845737924
0.210123944550015
0.861958346055373
1.2813370019262
2.39115516398767
0.726942986697378
0.790644346124827
0.422806159884667
0.78534252047108
1.16419114507487
0.296496469362477
1.75182364220743
2.45069996743335
0.853409796776153
0.56883284084961
2.26037575867989
0.352652763656319
0.75146585997338
0.26383602934411
0.380486981757691
1.05662252308065
0.473658091435983
0.930251004347026
0.792588080091995
0.186874699641646
0.933474952456254
1.85487035208203
0.847266147828566
1.45088001846922
1.16646982975006
0.447859395169568
0.577531654600537
1.97664010298468
0.487114046938451
0.61874139079131
0.240905180330574
1.27371325218293
2.01889710278772
0.394528574608962
0.613098855914127
0.799927617721184
1.2387823838931
0.756245531436572
