1.48046641182652
0.825113324160935
3.7810445819893
0.455167910819519
1.47608638461794
0.629884810307796
1.80309178682582
1.25196995874206
1.27842878577128
0.793105124787755
0.803510244154971
0.127582508719485
1.08837322906234
1.20683224423291
0.351095530196614
0.331737882475636
0.272130297169651
1.33214954940023
0.684754351439386
0.552793533162414
1.90446068852462
2.01734540205729
0.356226863270456
1.35400903585097
2.18277213328418
0.37791950903842
2.42538327636718
2.48251400294675
0.407230947974822
1.02476230068836
1.51396662941994
0.247175062181336
1.91803140704932
0.468326640384563
3.0495391677301
0.984992377576006
0.593357580175936
0.209013164072214
0.702237351500714
1.26082741399442
0.753237983803293
0.0970038965833585
4.70432812661493
1.64330144347359
2.45791388920451
0.968630692063338
2.51962602854273
0.332651524080525
1.7717722236917
0.847174786540071
