0.796877584247581
1.1906211791838
2.21176568759405
1.36827872009211
1.06294684683349
2.97344457110757
0.564392262018461
0.205010983633699
0.0546493032095162
0.481344840061944
1.50112923640137
0.169374751062217
1.01052813450354
0.852864456482718
2.52458426266281
0.421481428579836
0.752560691093316
2.58117488540442
0.911174376560355
0.599808208111301
1.04669113922823
0.422740602652223
0.580952686052332
1.08919530229873
1.47116199821655
1.58518519774525
0.568402316775056
0.0738450605519537
0.244023839327885
1.06808484375575
2.00677743593492
2.14657310218736
2.48338451656032
1.43282774506337
0.62879415706268
0.778172378495469
2.60387423188372
1.48777425707813
1.18435159989938
0.0824453493941284
0.384094530822844
1.00871477721511
0.966242365781893
3.01982482125728
1.00262983393382
2.57626868289389
0.499987224469267
0.809895189392263
0.919702150098522
0.345396677721289
