0 0 0 0 0 0 0 0 0 0 0 0 0 0 0 0 0 0 0 0 0 0 0 0 -0.715213203866924 0 0 0 0 0 0 0 0 0 0 0 0 -0.65109145139428 -1.70821375879717 0 0 0 0 0 0 0 0 0 0 0
0 0 0 0 -2.4790644365095 0 0 -0.572010675800418 0 0 0 0 -0.620402908179762 0 0 0 0 0 0 0 0 0 0 0 -1.43136030305297 0 0 0 0 0 0 0 0 0 0 0 0 -1.28898020039892 0 0 0 0 0 0 0 0 0 0 0 0
0 0 0 0 -3.61400557792435 0 0 0 0 0 0 0 -0.580476975442844 0 0 0 0 0 0 0 0 0 0 0 -1.44580463631333 0 0 0 0 0 0 0 0 0 0 0 0 -0.09973705980474 0 0 0 0 0 0 0 0 0 0 0 0
0 0 0 0 -1.18845521433262 0 0 0 0 0 0 0 0 0 0 0 0 0 0 0 -1.36366543869686 0 0 0 -1.94913110322201 0 0 0 0 0 0 0 0 0 0 0 0 0 0 0 0 0 0 0 0 0 0 -1.36038346577754 0 0
0 0.456742568863732 0.737943568780173 0.254861884361782 0 0 0 0 0 0 -3.06694598894157 0 0 -0.692800368366797 0 0 0 0 0 0 -0.275005607248239 0 0 0 0 0 0 0 0 0 0 0 0 0 0 0 0 0 0 0 0 0 0 -0.964818783937365 0 0 0 0 0 0
0 0 0 0 0 0 0 0 0 0 -0.831639545651818 0 0 0 0 0 0 0 0 0 -1.28385940160399 0 0 0 0 0 0 0 0 0 0 0 0 0 0 0 0 0 0 0 0 0 0 -0.291799965952735 0 0 0 0 0 0
0 0 0 0 0 0 0 0 0 0 0 0 0 0 -1.56982522237231 0 0 0 0 0 -0.28119479356914 0 0 0 0 0 0 0 0 0 0 0 0 0 0 0 0 0 0 0 0 0 0 -0.205387331585703 0 0 0 0 0 0
0 0.122507162340816 0 0 0 0 0 0 0 0 0 0 0 0 -0.684447487759635 0 0 0 0 0 -0.192359488577351 0 0 0 0 0 0 0 0 0 0 0 0 0 0 0 0 0 0 0 0 0 0 -1.13819219415991 0 0 0 0 0 0
0 0 0 0 0 0 0 0 0 0 0 0 0 0 0 -1.48023182022557 0 0 0 0 0 0 0 0 0 0 0 -0.0522312698861699 0 0 0 0 0 0 0 0 0 0 0 0 0 0 0 -0.301591596263994 0 0 0 0 -0.681875276789221 0
0 0 0 0 0 0 0 0 0 0 0 0 0 0 0 -0.926704472139993 0 0 0 0 0 0 0 0 0 0 0 0 0 0 0 0 0 0 0 0 0 0 0 0 -0.108244917529503 0 0 0 0 0 -0.545666942253009 0 -1.07262297784616 0
0 0 0 0 0.669667238427269 0.175706613771928 0 0 0 0 0 0 0 0 0 -2.94254330249286 0 0 0 0 0 0 0 0 0 0 0 0 0 0 0 0 0 0 0 0 0 0 0 0 -3.44222114099309 0 0 0 0 0 -1.37973110730413 0 -0.867498799868839 0
0 0 0 0 0 0 0 0 0 0 0 0 0 0 0 -1.53750317050521 0 0 0 0 0 0 0 0 0 0 0 0 0 0 0 0 0 0 0 0 0 0 0 0 -0.458929365837745 0 0 0 0 0 -0.116987422587352 0 0 0
0 0.114427699079238 0.107207873239905 0 0 0 0 0 0 0 0 0 0 0 0 0 0 -0.282235615298066 0 0 0 0 0 0 0 0 0 0 0 0 0 0 0 0 0 0 0 0 0 0 -0.276783383883054 0 0 0 0 0 -0.695183418073774 0 0 0
0 0 0 0 0.147454540733267 0 0 0 0 0 0 0 0 0 0 0 0 -3.50670065014983 0 0 0 0 0 0 0 0 0 0 0 0 0 0 0 0 0 0 0 0 0 0 -1.19274328007399 0 0 0 0 0 -3.50121725555655 0 0 0
0 0 0 0 0 0 0.342080962483262 0.151025276328198 0 0 0 0 0 0 0 0 0 -0.618270257663266 0 0 0 0 0 0 0 0 0 0 0 0 0 0 0 0 0 0 0 0 0 0 -3.19215420515648 0 0 0 0 0 -7.99761850853194 0 0 0
0 0 0 0 0 0 0 0 0.324969027731475 0.17388225101555 0.570712467363266 0.311498693834999 0 0 0 0 0 0 0 0 0 0 0 0 0 0 0 0 0 0 -1.57628092267372 0 0 0 0 0 0 0 0 0 -0.373657265348142 0 0 0 0 0 0 0 0 0
0 0 0 0 0 0 0 0 0 0 0 0 0 0 0 0 0 0 0 0 0 0 0 0 0 0 0 0 0 0 -1.43319106662836 0 0 0 0 0 0 0 0 0 -0.640620103356294 0 0 0 0 0 0 0 0 0
0 0 0 0 0 0 0 0 0 0 0 0 0.0596652529337414 0.703096384192454 0.114839095052442 0 0 0 -1.01464471877797 0 0 0 0 0 0 0 0 0 0 0 -2.40904392723685 0 0 0 0 0 0 0 0 0 -4.796608925186 0 0 0 0 0 0 0 0 0
0 0 0 0 0 0 0 0 0 0 0 0 0 0 0 0 0 0.196990964885039 0 0 0 0 0 0 0 0 0 0 0 -1.01403827563181 -0.372881212542524 0 0 0 0 0 0 0 0 0 -0.344700365877792 0 0 0 0 0 0 0 0 -0.182015701206478
0 0 0 0 0 0 0 0 0 0 0 0 0 0 0 0 0 0 0 0 0 0 0 0 0 0 0 0 0 -1.03616111504215 -1.8785069533834 0 0 0 0 0 0 0 0 0 -0.130965205865888 0 0 0 0 0 0 0 0 -0.621022116811135
0 0 0 0.280885899452481 0.0487938717195814 0.245602550487795 0.0553754983117124 0.0375622715570538 0 0 0 0 0 0 0 0 0 0 0 0 0 0 0 0 0 0 -0.449234829792681 0 0 0 -9.48591478992096 0 0 0 0 0 0 0 0 0 -1.36243437754638 0 0 0 0 0 0 0 0 -2.05720793765671
0 0 0 0 0 0 0 0 0 0 0 0 0 0 0 0 0 0 0 0 0 0 0 0 0 -0.455482111642557 -0.295302296304853 0 0 0 -0.791044292393475 0 0 0 0 0 0 0 0 0 -0.491625803834873 -0.89600930586331 0 0 0 0 0 0 0 -0.223567228685606
0 0 0 0 0 0 0 0 0 0 0 0 0 0 0 0 0 0 0 0 0 0 0 0 0 -0.428420524370561 -0.46912110293015 0 0 0 -0.333200691073836 0 0 0 0 0 0 0 0 0 -1.43448608077035 -0.378268249936968 0 0 0 0 0 0 0 -4.36712611220163
0 0 0 0 0 0 0 0 0 0 0 0 0 0 0 0 0 0 0 0 0 0 0 0 0 -0.179141024521727 -0.759077882135112 0 0 0 -3.85115557749978 -1.47807172722637 0 0 0 0 0 0 0 0 -0.332110941238262 -0.233370653092016 0 0 0 0 0 0 0 -4.82474005215133
0.135788958593047 0.266666251104604 0.292185984559752 0.379420567206517 0 0 0 0 0 0 0 0 0 0 0 0 0 0 0 0 0 0 0 0 0 -1.19853866861377 -0.439243154412498 0 0 0 0 0 0 0 0 0 0 0 0 0 -1.12097146465161 -6.10995128769202 0 0 0 0 0 0 0 -0.626645846234556
0 0 0 0 0 0 0 0 0 0 0 0 0 0 0 0 0 0 0 0 0 0.094467989914633 0.0861748664826486 0.0394295587133586 0.239885414239905 0 -0.564227811979779 0 -1.65174028744388 0 0 0 0 0 0 0 0 0 0 0 0 0 0 0 0 0 0 0 0 -1.57994128084285
0 0 0 0 0 0 0 0 0 0 0 0 0 0 0 0 0 0 0 0 0.0896527210146738 0.0668155994377749 0.0920075672152125 0.154556315967764 0.0886728587609698 0.107786226899314 0 0 -0.549605726715358 0 0 0 0 0 0 0 0 0 0 0 0 0 0 0 0 0 0 0 0 0
0 0 0 0 0 0 0 0 0.0105602780649454 0 0 0 0 0 0 0 0 0 0 0 0 0 0 0 0 0 0 0 -1.32909090306098 0 0 0 0 0 0 0 0 0 0 0 0 0 0 0 0 0 0 0 0 0
0 0 0 0 0 0 0 0 0 0 0 0 0 0 0 0 0 0 0 0 0 0 0 0 0 0.300777928766486 0.105974005930597 0.267133534278877 0 0 0 0 0 0 0 0 0 0 0 0 0 0 0 0 0 0 0 0 0 0
0 0 0 0 0 0 0 0 0 0 0 0 0 0 0 0 0 0 0.20231736469917 0.209919836054311 0 0 0 0 0 0 0 0 0 0 0 0 0 0 0 0 0 0 0 0 0 0 0 0 0 -1.30449969464771 0 0 0 0
0 0 0 0 0 0 0 0 0 0 0 0 0 0 0 0.311350699264744 0.297391054292032 0.488842007737057 0.0655595264933868 0.351314274523441 1.9153222148279 0.159103759792241 0.0631164663822475 0.75436691693239 0 0 0 0 0 0 0 0 0 0 0 0 0 0 0 0 0 0 0 0 0 -0.241878900370081 0 0 0 0
0 0 0 0 0 0 0 0 0 0 0 0 0 0 0 0 0 0 0 0 0 0 0 0.294218492836548 0 0 0 0 0 0 0 0 0 0 0 0 0 0 0 0 0 0 0 0 0 -0.275482640557569 0 0 0 0
0 0 0 0 0 0 0 0 0 0 0 0 0 0 0 0 0 0 0 0 0 0 0 0 0 0 0 0 0 0 0 0 0 0 0 0 0 0 0 0 0 0 0 0 0 -0.443427325599946 0 0 0 0
0 0 0 0 0 0 0 0 0 0 0 0 0 0 0 0 0 0 0 0 0 0 0 0 0 0 0 0 0 0 0 0 0 0 0 0 0 0 0 0 0 0 0 0 0 -0.984769957819579 0 0 0 0
0 0 0 0 0 0 0 0 0 0 0 0 0 0 0 0 0 0 0 0 0 0 0 0 0 0 0 0 0 0 0 0 0 0 0 0 0 0 0 0 0 0 0 0 0 -0.795180676772554 0 0 0 0
0 0 0 0 0 0 0 0 0 0 0 0 0 0 0 0 0 0 0 0 0 0 0 0 0 0 0 0 0 0 0 0 0 0 0 0 0 0 0 0 0 0 0 0 0 -0.40267748161251 0 0 0 0
0 0 0 0 0 0 0 0 0 0 0 0 0 0 0 0 0 0 0 0 0 0 0 0 0 0 0 0 0 0 0 0 0 0 0 0 0 0 0 0 0 0 0 0 0 -2.93925993478032 0 0 0 0
0.115590032664118 0.25438105563772 0.0209841359581326 0 0 0 0 0 0 0 0 0 0 0 0 0 0 0 0 0 0 0 0 0 0 0 0 0 0 0 0 0 0 0 0 0 0 0 0 0 0 0 0 0 0 -1.20145285200051 0 0 0 0
0.320894930571462 0 0 0 0 0 0 0 0 0 0 0 0 0 0 0 0 0 0 0 0 0 0 0 0 0 0 0 0 0 0 0 0 0 0 0 0 0 0 0 0 0 0 0 0 -0.345945457550141 0 0 0 0
0 0 0 0 0 0 0 0 0 0 0 0 0 0 0 0 0 0 0 0 0 0 0 0 0 0 0 0 0 0 0 0 0 0 0 0 0 0 0 0 0 0 0 0 0 -1.38842596774329 0 0 0 0
0 0 0 0 0 0 0 0 0 0.0221005155384627 0.697024179688843 0.0905937994359116 0.0578198472115523 0.241003420104197 0.605641446576281 0.0736044418134314 0.129561731885655 0.95678193948152 0.0676938981428957 0.0251545986385251 0.275361902640311 0.100085462555502 0.292011501814114 0.0650144975094558 0.237965871851511 0 0 0 0 0 0 0 0 0 0 0 0 0 0 0 0 0 0 0 0 -1.6466723090664 0 0 0 0
0 0 0 0 0 0 0 0 0 0 0 0 0 0 0 0 0 0 0 0 0 0.172760096329444 0.0747465524515774 0.0493726994241779 1.26038544909413 0 0 0 0 0 0 0 0 0 0 0 0 0 0 0 0 0 0 0 0 -1.73389569006484 0 0 0 0
0 0 0 0 0 0 0 0 0 0 0 0 0 0 0 0 0 0 0 0 0 0 0 0 0 0 0 0 0 0 0 0 0 0 0 0 0 0 0 0 0 0 0 0 0 -0.584574996186418 0 0 0 0
0 0 0 0 0.190397273794182 0.0584234179814041 0.0388991905579524 0.230793096102263 0.0634279305415717 0 0 0 0 0 0 0 0 0 0 0 0 0 0 0 0 0 0 0 0 0 0 0 0 0 0 0 0 0 0 0 0 0 0 0 0 -0.749363782345766 0 0 0 0
0 0 0 0 0 0 0 0 0 0 0 0 0 0 0 0 0 0 0 0 0 0 0 0 0 0 0 0 0 0 0 0 0 0 0 0 0 0 0 0 0 0 0 0 0 -0.873352428715057 0 0 0 0
0 0 0 0 0 0 0 0 0 0 0 0 0 0 0 0 0 0 0 0 0 0 0 0 0 0 0 0 0 0.288141668778451 0.0487979742470046 0.0529976120920127 0.084319504285313 0.189260932808785 0.169667393439009 0.0799217357292417 0.586317032448993 0.204877816274259 0.0653578627933265 0.267207419699613 0.341122646803576 0.36033008740007 0.124148936828321 0.14792272445257 0.164238715310266 0 0.805264368205726 0 0 0
0 0 0 0 0 0 0 0 0 0.11358099113407 0.26051823674459 0.0213799873864247 0.144099136942429 0.699615033972521 1.59926889201153 0 0 0 0 0 0 0 0 0 0 0 0 0 0 0 0 0 0 0 0 0 0 0 0 0 0 0 0 0 0 -4.18155509193283 0 0 0 0
0 0 0 0.274959394496418 0 0 0 0 0 0 0 0 0 0 0 0 0 0 0 0 0 0 0 0 0 0 0 0 0 0 0 0 0 0 0 0 0 0 0 0 0 0 0 0 0 0 0 0 0 0
0 0 0 0 0 0 0 0 0.137059771019194 0.22072789484245 0.194817568492391 0 0 0 0 0 0 0 0 0 0 0 0 0 0 0 0 0 0 0 0 0 0 0 0 0 0 0 0 0 0 0 0 0 0 0 0 0 0 0
0 0 0 0 0 0 0 0 0 0 0 0 0 0 0 0 0 0 0.0406324190664317 0.120763778881255 0.419057120193081 0.0469559315469128 0.90905000359976 1.01434889035586 0.128979318396867 0.306264710172294 0 0 0 0 0 0 0 0 0 0 0 0 0 0 0 0 0 0 0 0 0 0 0 0
