1.16961329321036
0.977644341250348
1.22865695548727
0.191846613028902
0.899266082137746
0.227294881773684
0.153071757756094
0.917980298350704
0.111410343604421
0.143482839525781
0.455210096134764
0.352904991505065
0.144133674217539
0.239063531002675
0.316074483207212
0.341507668116419
0.859289086017129
0.384135384936818
0.25691326494069
0.204481089372725
0.188444520694349
0.45863632081819
0.110384554296963
0.748197151977556
0.0673509482247041
0.134707006959798
0.403512202457293
0.0832171429131987
0.112564895839073
0.661950338470148
0.0513101880697031
0.451421852231253
0.316500920183224
0.154209544854568
0.152305216399463
0.418037061783247
0.258586833194171
0.177274761427286
0.173230328931141
0.119692652208087
0.0599455849409276
0.485910245840177
0.403454965494158
0.190192700241295
0.524489465866906
0.547588104923265
0.812349183403495
0.688118936110881
0.0560467344863513
0.282019137458739
