0.903178174104818
0.680548631191075
1.75668351412107
0.620377165005983
0.382729871569518
0.223553665417888
2.31160085841909
4.53705904684627
1.13926830425278
0.118803544615706
0.28798929058107
0.836113136796452
0.252601319772409
4.92325531272679
0.323677472150315
0.424077805701046
0.840942446306027
0.963758427465842
2.25845030107938
1.24918881690732
0.54834785714173
2.1045799993534
1.71910489007049
0.350108651159624
0.617824473643743
1.19071127005559
0.743424240546353
1.08521584136315
0.115379206643648
2.18927298361052
6.00934293290988
0.225686405896739
0.396097875037587
0.0615394619096644
0.980530481685837
0.473601187135163
1.04322528888104
0.148789747000489
0.295513827243455
1.45864624577761
0.022722726154001
0.45895970850786
0.282092591098935
0.405816703245674
0.110240394962874
0.153947620862899
0.0995639158395454
0.0332394491771017
3.25673359047755
0.134730344011218
