0.263268639506338
1.89029333031581
1.60680390259873
0.0553541214614238
2.4506312694288
2.49303837566222
1.73240172122248
0.449686702696474
1.73100284610907
3.36053815108978
2.61392629788445
0.159374874360832
0.917390355926466
1.44850249573843
2.32836481723376
0.984318676572992
0.353393553586749
0.619563710592282
0.297630211030858
1.77753250193812
1.63234134543786
0.752637224421648
0.225111586503581
0.491265142352063
0.469930775842123
2.19729773879806
0.424067966905985
1.48880030025055
3.79306812215985
1.25126678848759
0.610445559600745
3.25717375369167
3.14383559027963
0.94314882236981
3.3773787093102
0.353073162644934
0.835453551791977
0.468531251595595
0.261700839350161
0.800989336964467
0.0808248412444417
2.80530507877181
0.484533614202167
0.0607209380659162
0.581672780751088
1.2733853687573
0.548096874770287
0.861341924910491
0.204366643617864
0.949264414955353
