0.619973828811381
1.01391982651788
1.60098919988444
1.28335369320064
3.74939376734114
0.98116849549027
0.376447359631943
0.131563377424887
3.23994762723361
0.563333163991426
0.884612503011407
1.27549059353702
1.51055768338137
1.31506074447586
0.74628133795358
0.862493302543259
3.11814475841474
0.284710754359841
1.62290467574283
1.69905890047985
0.607801316158084
0.952406692793982
0.925667122788832
0.294578366100308
3.01365018991308
1.46384273988922
1.43171272960721
1.31720348922636
2.54716364945073
0.197948554696233
1.45792375379222
0.410522719170143
0.288601226573269
0.805621793853214
2.57797334940995
1.37778744672608
1.72398354091782
0.2867059526847
0.0965930134691428
1.86817334238752
2.73692804727261
0.319343903761607
0.704000974235286
1.93854668085385
1.16531942527366
1.47214085012084
0.228856218731216
1.3296828618727
0.305721637399332
1.89587872506963
