0 0 -1.56022487202021 0 -0.427103207052084 0 0 0 0 0 0 0 0 0 0 0 0 0 0 -2.37656444686278 0 0 0 0 0 0 -0.541712301510956 0 0 0 0 0 -5.09903935856235 0 0 0 0 0 0 0 0 0 0 0 0 0 0 0 0 0
0 0 0 0 0 0 0 0 0 0 0 0 0 0 0 0 0 0 0 -0.260594707115397 0 0 0 0 0 0 -0.385524156922917 0 0 0 0 0 -0.575062795798408 0 0 0 0 0 0 0 0 0 0 0 0 0 0 0 0 0
0.316387653736313 0 0 -0.456861938632825 0 0 0 0 0 -2.56834984147761 -0.652683996547755 -0.255522008985746 0 -1.04469857211361 0 -3.3368178740961 0 0 0 0 0 0 0 0 0 0 0 -1.3510448057838 0 0 0 0 -2.49723030350114 0 0 0 0 0 0 0 0 0 0 0 0 0 0 0 0 0
0 0 0.0922780098721563 0 0 0 0 0 0 -2.07467680488274 -0.216772199499382 -1.16333065302067 0 -1.00473817206038 0 -0.777419955393213 0 0 0 0 0 0 0 0 0 0 0 -1.45459220712442 0 0 -3.78900270448583 0 -0.963829495908098 0 0 0 0 0 0 0 0 0 0 0 0 0 0 0 0 0
0.0850890045557238 0 0 0 0 0 -3.45017163399779 0 0 0 0 0 0 0 0 0 0 0 0 0 0 0 0 0 0 0 0 0 0 0 0 0 -0.635037811285979 0 0 0 0 0 0 0 0 0 0 0 0 0 0 0 0 0
0 0 0 0 0 0 0 0 -1.76176287349677 0 0 0 0 0 0 0 0 -0.833318015967704 0 0 0 0 -0.987426685899192 0 0 0 0 0 0 0 0 0 -5.00540459030298 0 0 0 0 0 0 0 0 0 0 0 0 0 0 0 0 0
0 0 0 0 0.669796640502538 0 0 0 -2.44734039687465 0 0 0 0 0 0 0 0 -0.662493463754071 0 0 0 0 -1.11642537588387 0 0 0 0 0 0 0 0 0 -1.2516907127302 0 0 0 0 0 0 0 0 0 0 0 0 0 0 0 0 0
0 0 0 0 0 0 0 0 -1.87127238896542 0 0 0 0 0 0 0 0 -5.61767847082992 0 0 0 0 -1.62843947744886 0 0 0 0 0 0 0 0 0 -5.34534695325725 0 0 0 0 0 0 0 0 0 -1.09633428714008 0 0 0 0 0 0 0
0 0 0 0 0 0.35033322275484 0.511894873751019 0.349279693936092 0 0.541450842033174 0.401850562030445 0 0 0 0 0 0 -0.858768212867432 0 0 0 0 -3.30276709999076 0 0 0 0 0 0 0 0 0 -2.53682390098569 0 0 0 0 0 0 0 0 0 -0.261264487752156 0 0 0 0 0 0 0
0 0 0.541788228183288 0.423154833279285 0 0 0 0 -2.62376485382979 0 0 0 0 0 0 0 0 -0.962013988654949 0 0 0 0 0 0 0 0 0 0 0 0 0 0 -1.78118831453744 0 0 0 0 0 0 0 0 0 -2.31967743442122 0 0 0 0 0 0 0
0 0 0.124652022837412 0.0449565089449828 0 0 0 0 -1.90139214336754 0 0 0 0 0 0 0 0 -1.70315532040661 0 0 0 0 0 0 0 0 0 0 0 0 0 0 -1.10697342246193 0 0 0 0 0 0 0 0 0 -0.953645226131599 0 0 0 0 0 0 0
0 0 0.0514174350161653 0.234140531234935 0 0 0 0 0 0 0 0 0 0 0 0 0 0 0 0 0 0 0 0 0 0 0 0 0 0 0 0 0 0 0 0 0 0 0 0 0 0 -1.56502210970466 0 0 0 0 0 0 0
0 0 0 0 0 0 0 0 0 0 0 0 0 0 -1.15192990918125 0 0 0 0 0 0 0 0 0 0 0 0 0 0 0 0 0 0 0 0 0 0 0 0 0 0 0 -1.39493421848406 0 0 0 0 0 0 0
0 0 0.218893002890639 0.192913736711808 0 0 0 0 0 0 0 0 0 0 0 0 -1.3222988789 0 0 0 0 0 0 0 -0.943373827934145 0 0 0 0 0 0 0 0 0 0 0 0 0 0 0 0 0 -1.02798299561265 0 0 0 0 0 0 0
0 0 0 0 0 0 0 0 0 0 0 0 0.255337787979036 0 0 0 -0.40080223909062 0 0 0 0 0 0 0 -1.07446976661098 0 0 0 0 0 0 0 0 0 0 0 0 0 0 0 0 0 -0.514572310732109 0 0 0 0 0 0 0
0 0 0.658365887542221 0.153639082026228 0 0 0 0 0 0 0 0 0 0 0 0 0 0 0 0 0 0 0 0 -1.33209373742013 0 0 0 0 0 0 0 0 0 0 0 0 0 0 0 0 0 -0.42236464603922 0 -0.534675889214551 0 0 0 0 0
0 0 0 0 0 0 0 0 0 0 0 0 0 0.26707915757749 0.0755623639478865 0 0 0 -0.466321582481203 0 0 0 0 0 -1.1691048179833 0 0 0 0 0 0 -1.7777147213784 0 0 0 0 0 0 0 0 0 0 -0.52952719958184 0 -0.0661486914837778 0 0 0 0 0
0 0 0 0 0 0.16554327426482 0.140806581443196 1.04293080059566 0.152669163857071 0.194582647018293 0.355997764146967 0 0 0 0 0 0 0 0 0 0 0 0 0 0 0 0 0 0 0 0 -0.219593289424516 0 0 0 0 0 0 -0.595197394232368 0 0 0 -0.673633122859808 0 0 0 0 0 0 0
0 0 0 0 0 0 0 0 0 0 0 0 0 0 0 0 0.0926867206046756 0 0 0 0 0 0 0 0 0 0 0 0 0 0 0 0 0 0 0 0 0 -2.06965716026623 0 0 0 0 0 0 0 0 0 0 0
0.457679568430522 0.0531700256089966 0 0 0 0 0 0 0 0 0 0 0 0 0 0 0 0 0 0 -1.54890235710443 0 0 0 0 0 0 0 0 0 0 0 0 0 0 0 0 0 0 0 0 0 0 -0.907318371143296 0 0 0 0 -1.15778240442373 0
0 0 0 0 0 0 0 0 0 0 0 0 0 0 0 0 0 0 0 0.295641431828851 0 0 0 0 0 0 0 0 0 0 0 0 0 0 0 0 0 0 0 0 0 0 0 0 0 0 0 0 -0.0862174651427455 0
0 0 0 0 0 0 0 0 0 0 0 0 0 0 0 0 0 0 0 0 0 0 0 0 0 0 0 0 0 0 0 0 0 0 0 0 0 0 0 0 0 0 0 0 0 0 0 0 -0.209216573869487 0
0 0 0 0 0 0.190384172369669 0.208359249285705 0.333015434718645 0.74041223077243 0 0 0 0 0 0 0 0 0 0 0 0 0 0 0 0 0 0 0 0 0 0 0 0 0 0 0 0 0 0 0 0 0 0 0 0 0 0 0 -0.87101819993485 -0.244611562918839
0 0 0 0 0 0 0 0 0 0 0 0 0 0 0 0 0 0 0 0 0 0 0 0 0 0 0 0 0 0 0 0 0 0 0 0 0 0 0 0 0 0 0 0 0 0 0 0 -2.04295816686671 -2.711022119833
0 0 0 0 0 0 0 0 0 0 0 0 0 0.20575530808075 0.222257856669282 0.253038669613819 0.236015347332317 0 0 0 0 0 0 0 0 0 0 0 0 0 0 0 0 0 0 0 0 0 0 0 0 0 0 0 0 0 0 0 -1.10375243266816 0
0 0 0 0 0 0 0 0 0 0 0 0 0 0 0 0 0 0 0 0 0 0 0 0 0 0 0 0 0 0 0 0 0 0 0 0 0 0 0 0 0 0 0 0 0 0 0 0 -0.959491660589339 0
0.111505154775005 0.0728399821321429 0 0 0 0 0 0 0 0 0 0 0 0 0 0 0 0 0 0 0 0 0 0 0 0 0 0 0 0 0 0 0 0 0 0 0 0 0 0 0 0 0 0 0 0 0 0 -0.627680558400506 0
0 0 0.26833627422088 0.290094950059705 0 0 0 0 0 0 0 0 0 0 0 0 0 0 0 0 0 0 0 0 0 0 0 0 0 0 0 0 0 0 0 0 0 0 0 0 0 0 0 0 0 0 0 0 -1.37820774215522 0
0 0 0 0 0 0 0 0 0 0 0 0 0 0 0 0 0 0 0 0 0 0 0 0 0 0 0 0 0 0 0 0 0 0 0 -1.10580263189416 0 0 0 0 0 0 0 0 0 0 0 0 -0.224064977254243 0
0 0 0 0 0 0 0 0 0 0 0 0 0 0 0 0 0 0 0 0 0 0 0 0 0 0 0 0 0 0 0 0 0 0 -0.835845326955151 -0.608800769345527 0 0 0 0 0 0 0 0 0 0 0 0 0 0
0 0 0 0.738690021984652 0 0 0 0 0 0 0 0 0 0 0 0 0 0 0 0 0 0 0 0 0 0 0 0 0 0 0 0 0 -0.46799642604485 -2.0627451804976 -2.39651620201393 -2.11680276782943 0 0 0 0 0 0 0 0 0 0 0 0 0
0 0 0 0 0 0 0 0 0 0 0 0 0 0 0 0 0.373131965790492 0.0472785144999005 0 0 0 0 0 0 0 0 0 0 0 0 0 0 0 -0.787970251038208 -0.607175364813642 -0.725166551220204 -10.6572788349462 0 0 0 0 0 0 0 0 0 0 0 0 0
0.973627684519783 0.11548613190471 0.488571970460138 0.185956826303019 0.12225734604408 1.00771384175684 0.254334967151505 1.10298588079977 0.500781554718307 0.345278350199989 0.217977325049883 0 0 0 0 0 0 0 0 0 0 0 0 0 0 0 0 0 0 0 0 0 0 -0.1664681285585 -0.199253159358171 -2.41153961058783 -1.02628964353071 0 0 0 0 0 0 0 0 0 0 0 0 0
0 0 0 0 0 0 0 0 0 0 0 0 0 0 0 0 0 0 0 0 0 0 0 0 0 0 0 0 0 0 0.103047456638918 0.161325191996709 0.0330962924014094 0 0.457954075683482 0 0 0 0 0 0 0 0 0 0 0 -0.340252807472641 -0.138876706125307 0 0
0 0 0 0 0 0 0 0 0 0 0 0 0 0 0 0 0 0 0 0 0 0 0 0 0 0 0 0 0 0.165234095519099 0.413971787247989 0.110293654467201 0.0391571198093929 -2.33099163826473 0 0 0 0 0 0 0 0 0 0 0 0 -1.30389638987668 -0.963978167882915 0 0
0 0 0 0 0 0 0 0 0 0 0 0 0 0 0 0 0 0 0 0 0 0 0 0 0 0 0 0 0.22937306300314 0.119981046442342 0.479726155540683 0.148279605364751 0.515936874368179 0 0 0 0 0 0 -0.318176128763726 0 0 0 0 0 0 0 -0.56453355062335 0 0
0 0 0 0 0 0 0 0 0 0 0 0 0 0 0 0 0 0 0 0 0 0 0 0 0 0 0 0 0 0 0.380628873881519 2.16165516293293 0.209020343722079 0 0 0 0 -1.04798443212921 0 -2.35578793053054 0 0 0 0 0 -0.570369846425587 0 -2.49348808837091 0 0
0 0 0 0 0 0 0 0 0 0 0 0 0 0 0 0 0 0 0 0 0 0 0 0 0 0 0 0 0 0 0 0 0 0 0 0 0.207946024802576 0 0 0 -0.0730840552070817 -0.62297740566731 0 0 0 -0.629016465946684 0 0 0 0
0 0 0 0 0 0 0 0 0 0 0 0 0 0 0 0 0 0.12071596274163 0.390432633380401 0 0 0 0 0 0 0 0 0 0 0 0 0 0 0 0 0 0 0 0 0 -1.84502960176237 -0.864380821831021 0 0 0 -1.26253509226125 0 0 0 0
0 0 0 0 0 0 0 0 0 0 0 0 0 0 0 0 0 0 0 0 0 0 0 0 0 0 0 0 0 0 0 0 0 0 0 0.0556675284223273 0.475358975832826 0 0 0 0 0 0 0 0 -0.313439439222298 0 0 0 0
0 0 0 0 0 0 0 0 0 0 0 0 0 0 0 0 0 0 0 0 0 0 0 0 0 0 0 0 0 0 0 0 0 0 0 0 0 0.0152313439536219 0.382875555042313 0 0 0 0 0 0 -0.511750059067107 0 0 0 0
0 0 0 0 0 0 0 0 0 0 0 0 0 0 0 0 0 0 0 0 0 0 0 0 0 0 0 0 0 0 0 0 0 0 0 0 0 0.11799902009758 0.181841450365374 0 0 0 0 0 0 -0.347139395469121 0 0 0 0
0 0 0 0 0 0 0 0.223467543607189 0.0494291295941156 0.45205951123775 0.190326993771553 0.308081893661046 0.291038096419409 0.210548199559116 0.11273451879759 0.0823049680495145 0.106399317943334 0.138193036772456 0 0 0 0 0 0 0 0 0 0 0 0 0 0 0 0 0 0 0 0 0 0 0 0 0 0 0 0 0 0 0 0
0 0 0 0 0 0 0 0 0 0 0 0 0 0 0 0 0 0 0 0.18077883950793 0 0 0 0 0 0 0 0 0 0 0 0 0 0 0 0 0 0 0 0 0 0 0 0 0 0 0 0 0 0
0 0 0 0 0 0 0 0 0 0 0 0 0 0 0 0.108029953777923 0.0136026953991693 0 0 0 0 0 0 0 0 0 0 0 0 0 0 0 0 0 0 0 0 0 0 0 0 0 0 0 0 0 0 0 0 0
0 0 0 0 0 0 0 0 0 0 0 0 0 0 0 0 0 0 0 0 0 0 0 0 0 0 0 0 0 0 0 0 0 0 0 0 0.114794620224321 0.116965448137514 0.257940624696765 0.0610147462402717 0.104379423859233 0.0777574355836906 0 0 0 0 0 0 0 0
0 0 0 0 0 0 0 0 0 0 0 0 0 0 0 0 0 0 0 0 0 0 0 0 0 0 0 0 0 0 0 0 0 0.063510027710173 0.268818336541469 0 0 0 0 0 0 0 0 0 0 0 0 0 0 0
0 0 0 0 0 0 0 0 0 0 0 0 0 0 0 0 0 0 0 0 0 0 0 0 0 0 0 0 0 0 0 0 0 0.0274057323317989 0.198782384278259 0.119314042012912 0.483193883756866 0 0 0 0 0 0 0 0 0 0 0 0 0
0 0 0 0 0 0 0 0 0 0 0 0 0 0 0 0 0 0 0 0.241248030642102 0.0175218113027113 0.0405470211298511 0.175496255663656 0.422619861556798 0.205947173702942 0.190937246588 0.123658550925201 0.259549516194632 0.0468748330385327 0 0 0 0 0 0 0 0 0 0 0 0 0 0 0 0 0 0 0 0 0
0 0 0 0 0 0 0 0 0 0 0 0 0 0 0 0 0 0 0 0 0 0 0.0488862643086636 0.586738622432091 0 0 0 0 0 0 0 0 0 0 0 0 0 0 0 0 0 0 0 0 0 0 0 0 0 0
