0 0 0 -0.336659850006617 0 0 0 0 0 0 0 0 0 0 0 0 0 0 0 0 0 0 0 0 0 0 0 0 0 0 0 0 0 0 0 0 0 0 0 0 0 0 0 0 0 0 0 0 0 0
0 0 0 -1.38986488015942 0 0 0 0 0 0 0 0 0 0 0 0 0 0 0 0 0 0 0 0 0 0 0 0 0 0 0 0 0 0 0 0 0 0 0 0 0 0 0 0 0 0 0 0 0 0
0 0 0 0 0 0 0 0 0 -0.111858147538319 -1.50598490138871 0 0 0 0 0 0 0 -1.16466444174953 0 0 0 0 0 0 0 0 0 0 0 0 0 -0.26468100906307 0 0 0 0 0 0 0 0 0 0 0 0 0 0 0 0 0
0.0595792888845541 0.289833646211922 0 0 0 0 0 0 0 0 0 -0.386241392531287 0 0 0 0 0 0 -1.14904907891943 0 0 0 0 0 0 0 0 0 0 0 0 0 -0.88977000479586 0 0 0 0 0 0 0 0 0 0 0 0 0 0 0 0 0
0 0 0 0 0 0 0 0 0 0 0 0 0 0 0 0 0 0 -2.11502793098026 0 0 0 0 0 0 0 0 0 0 0 0 0 0 0 0 0 0 0 0 0 0 0 0 0 0 0 0 0 0 0
0 0 0 0 0 0 0 -0.182702574736742 0 0 0 0 0 0 0 0 0 0 -0.231199366835924 0 0 0 0 0 0 0 0 0 0 0 0 0 0 0 0 0 0 0 -1.35819634216309 0 0 0 0 0 0 0 0 0 0 0
0 0 0 0 0 0 0 -2.54409045087908 0 0 0 0 0 -0.612578428514589 0 0 0 0 0 0 0 0 0 0 0 0 0 0 0 0 0 0 0 0 0 0 0 0 -1.05377648064662 0 -0.8839470624535 0 0 0 0 0 0 0 0 0
0 0 0 0 0 0.0360378776987869 0.509845561222271 0 0.218363126665491 0 0 0 0 -0.567200258700745 0 0 0 0 0 0 0 0 0 0 0 0 0 0 0 0 0 0 0 0 0 0 0 0 -1.86710217400608 0 0 0 0 0 0 0 0 0 0 0
0 0 0 0 0 0 0 -1.02725636113209 0 0 0 0 0 -0.374838207011881 0 0 0 0 0 0 0 0 0 0 0 0 0 0 0 0 0 0 0 0 0 0 0 0 -0.876076640803707 0 0 0 0 0 0 0 0 0 0 0
0 0 0.0227073303191678 0 0 0 0 0 0 0 0 0 0 -0.0477312302933276 0 0 0 0 0 0 0 0 0 0 -0.0888114978773984 0 0 0 0 0 0 0 0 0 0 0 0 0 -0.463877332231031 0 0 0 0 0 0 0 0 0 0 0
0 0 0.316487854954211 0 0 0 0 0 0 0 0 0 0 -1.80425955968331 0 0 0 0 0 0 0 -2.40540001385463 0 0 0 0 0 0 0 0 0 0 0 0 0 0 0 0 0 0 0 0 0 0 0 0 0 0 0 0
0 0 0 0.0776728608450272 0 0 0 0 0 0 0 0 0 0 0 0 0 0 0 0 -1.46574935906686 0 -1.23054439443366 0 0 0 0 0 0 0 0 0 0 0 0 0 0 0 0 0 0 0 -0.653549699564888 0 0 0 0 0 0 0
0 0 0 0 0 0 0 0 0 0 0 0 0 0 0 0 0 0 0 0 -1.70121592597522 0 -6.56241830449656 0 0 0 0 0 0 0 0 0 0 0 0 0 0 0 0 0 0 0 -1.81400903518449 0 -0.556694317377373 0 0 0 0 0
0 0 0 0 0 0 0.127266821106555 0.0990229251390878 0.0755746977802925 0.00976030892928098 0.405248046284989 0 0 0 0 0 0 0 0 0 -1.41192534021931 0 0 -0.264157898075343 0 0 0 -0.226335393237985 0 0 0 0 0 0 0 0 -2.22108481486749 -1.93375875305021 0 -0.472511314631838 0 0 -0.147339411166596 0 -1.32577607972306 0 0 0 0 0
0 0 0 0 0 0 0 0 0 0 0 0 0 0 0 0 0 0 0 0 -0.35613393354446 0 0 -1.38252891908618 0 0 0 -1.57272833844184 0 0 0 0 0 0 0 0 -1.6896638443171 -1.61646744491042 0 -0.159332512167975 0 0 0 0 -0.430123967271661 0 0 0 0 0
0 0 0 0 0 0 0 0 0 0 0 0 0 0 0 0 0 0 0 0 -1.01193584293689 0 0 -2.1304579159494 0 -0.775049772268419 0 -0.490081019020837 0 0 0 0 0 0 0 0 -1.67672501958099 -1.93456799473891 0 -0.472988812823622 0 0 0 0 -1.47889751023366 0 0 0 0 0
0 0 0 0 0 0 0 0 0 0 0 0 0 0 0 0 0 -0.811424085413542 0 0 -0.419798417263454 0 0 -1.09076410388044 0 -0.621277019564418 0 -0.155053360054151 0 0 0 0 0 0 0 0 0 -0.829906431137187 0 -0.387039843416574 0 0 0 0 0 0 0 0 0 0
0 0 0 0 0 0 0 0 0 0 0 0 0 0 0 0 0.163009304950768 0 0 0 0 0 0 -2.27498839896121 0 0 0 -0.585648386237063 0 0 0 0 0 0 0 0 0 -0.34199460327778 0 -0.74729522102837 0 0 0 0 0 0 0 0 0 0
0 0 0.238192421215407 0.224127966017977 0.440967162933432 0.0453613020383272 0 0 0 0 0 0 0 0 0 0 0 0 0 0 0 0 0 0 0 0 0 0 0 0 0 0 0 0 0 0 0 -0.50091941419199 0 0 0 0 0 0 0 0 0 0 0 0
0 0 0 0 0 0 0 0 0 0 0 0 0 0 0 0 0 0 0 0 0 0 0 0 0 0 0 0 0 0 0 0 0 0 0 0 0 -2.14762323032275 0 0 0 0 0 0 0 0 0 0 0 0
0 0 0 0 0 0 0 0 0 0 0 0.289696017022957 0.362207751540946 0.282213518593451 0.0741107297747186 0.194700945588607 0.085958964844485 0 0 0 0 0 0 0 0 0 0 0 0 0 0 0 0 0 0 0 0 -2.73409536048366 0 0 0 0 0 0 0 0 0 0 0 0
0 0 0 0 0 0 0 0 0 0 0.463552219534592 0 0 0 0 0 0 0 0 0 0 0 0 0 0 0 0 0 0 0 0 0 0 0 0 0 0 -0.371253489046397 0 0 0 0 0 0 0 0 0 0 0 0
0 0 0 0 0 0 0 0 0 0 0 0.246497068174267 1.23968751434896 0 0 0 0 0 0 0 0 0 0 0 0 0 0 0 -0.221777274445041 0 0 0 0 0 0 0 0 -0.493840836829581 0 0 0 0 0 0 0 0 0 0 0 0
0 0 0 0 0 0 0 0 0 0 0 0 0 0.0540042929085785 0.276457262532234 0.4441961282248 0.2231464126022 0.461955015624321 0 0 0 0 0 0 0 0 0 0 0 0 0 0 0 0 0 -2.7835533057253 0 -0.0963762092365129 0 0 0 0 0 0 0 0 0 0 0 0
0 0 0 0 0 0 0 0 0 0.0176246012519978 0 0 0 0 0 0 0 0 0 0 0 0 0 0 0 0 0 0 0 0 -1.07922232390831 0 0 0 0 -1.36669702409275 0 -1.28963188010285 0 0 0 0 0 0 0 0 0 0 0 0
0 0 0 0 0 0 0 0 0 0 0 0 0 0 0 0.164232796350073 0.132702297075692 0 0 0 0 0 0 0 0 0 0 0 0 0 -2.63820151212446 0 0 0 0 -0.829457598534121 0 -0.593887025697704 0 0 0 0 0 0 0 0 -2.36750951419096 0 0 -0.269454549787315
0 0 0 0 0 0 0 0 0 0 0 0 0 0 0 0 0 0 0 0 0 0 0 0 0 0 0 0 0 0 0 0 0 0 0 -0.663546699494618 0 -1.47018462559892 0 0 0 0 0 0 0 0 -3.6884639339254 0 0 -1.35446831699518
0 0 0 0 0 0 0 0 0 0 0 0 0 0.0474084274457248 0.308134069917124 0.0883220614465083 0.0335994519851535 0.114367598516766 0 0 0 0 0 0 0 0 0 0 0 0 0 -0.954856397761413 0 0 -0.521362681249641 -0.130571456062971 0 -0.418181604191947 0 0 0 0 0 0 0 0 -0.386106044340108 0 0 -0.475047052640036
0 0 0 0 0 0 0 0 0 0 0 0 0 0 0 0 0 0 0 0 0 0 0.0431238857113143 0 0 0 0 0 0 0 0 -0.569169955861674 0 -0.496431365959957 0 -0.671938783046359 0 -2.50712135772067 0 0 0 0 0 0 0 0 -0.12813966233489 0 0 -1.12587285729175
0 0 0 0 0 0 0 0 0 0 0 0 0 0 0 0 0 0 0 0 0 0 0 0 0 0 0 0 0 0 0 -0.623747377211767 0 -4.60213693438598 0 -5.16113579576549 0 -1.32330628012426 0 0 0 0 0 -1.34921711750129 0 0 -0.92606787215553 0 0 -1.07333763977418
0 0 0 0 0 0 0 0 0 0 0 0 0 0 0 0 0 0 0 0 0 0 0 0 0.216269735076877 0.501362834756272 0 0 0 0 0 -1.0774585029134 0 -0.164351402833391 0 -0.352829713476536 0 -0.775665992743686 0 0 0 0 0 -0.834511614466158 0 0 0 0 0 -0.337367931940952
0 0 0 0 0 0 0 0 0 0 0 0 0 0 0 0 0 0 0 0 0 0 0 0 0 0 0 0.204191480148516 0.111375645080948 0.128720273616931 0.222582708187694 0 0 -2.06142899739632 0 -0.440377334779101 0 -1.14764108807446 0 0 0 0 0 -0.648234719414617 0 0 0 0 0 -0.164461651441549
0 0 0.0528604330516466 0.171404979261925 0 0 0 0 0 0 0 0 0 0 0 0 0 0 0 0 0 0 0 0 0 0 0 0 0 0 0 0 0 0 0 -0.487239171149815 0 -1.6265873302742 0 0 0 0 0 -4.61494861642415 0 0 0 0 0 0
0 0 0 0 0 0 0 0 0 0 0 0 0 0 0 0 0 0 0 0 0 0 0 0 0 0 0 0 0.104416880837041 0.936823890090177 0.0305490568092726 0.419390833942497 0 0 0 -0.402101059224549 0 -1.22224944448771 0 0 0 0 0 -0.910673701915975 0 0 0 0 0 0
0 0 0 0 0 0 0 0 0 0 0 0 0 0 0 0 0 0 0 0 0 0 0 0 0 0 0 0.106639911940041 0 0 0 0 0 0 0 -3.87175724381386 0 -1.13246762662663 0 0 0 0 0 -2.06314120651794 0 0 0 0 0 0
0 0 0 0 0 0 0 0 0 0 0 0 0 0 0 0 0 0 0 0 0 0 0 0.578362479458814 0.275736435103874 0.164874830312045 0.131114168883049 0.0281276661769392 0.125995559921934 1.00891238273161 0.0658837801057073 0.0910664854142069 0.0983286662866543 0.0829573539815399 0.813739047387373 0 0.0969162056444713 0.27000566762762 0 0 0 0 0 -3.55438281251415 0 0 0 0 0 0
0 0 0 0 0 0 0 0 0 0 0 0 0 0.428958918357349 0.335004556701148 0.358636110579181 0 0 0 0 0 0 0 0 0 0 0 0 0 0 0 0 0 0 0 -0.539939731654697 0 0 0 0 0 0 0 -2.23722864385698 0 0 0 0 0 0
0 0 0 0 0 0 0 0 0 0 0 0 0 0.373249315684612 0.317242895258326 0.409316129150471 0.166229403314231 0.0662362662276581 0.102707780456456 0.435172705013141 0.561395945474352 0.0775730679411972 0.100091876455068 0.0188949539818122 0.246329779870602 0.120001494492116 0.287766708527793 0.0775450735166053 0.512283780379746 0.265729090353944 0.164385237389992 0.225325082294968 0.301078194352448 0.249593486874314 0.218075864232429 -1.35798619459277 0 0 0 0 0 0 0 -0.647814466149836 0 0 0 0 0 0
0 0 0 0 0 0.242178845769058 0.202879224456429 0.369263167786089 0.17457318516261 0.0862710531920967 0 0 0 0 0 0 0 0 0 0 0 0 0 0 0 0 0 0 0 0 0 0 0 0 0 0 0 0 0 0 0 0 0 0 0 0 0 0 0 0
0 0 0 0 0 0 0 0 0 0 0 0 0 0.0931183386306659 0.0323649116765174 0.0898740459934326 0.0761851602774722 0.146546297837125 0 0 0 0 0 0 0 0 0 0 0 0 0 0 0 0 0 0 0 0 0 0 0 0 0 0 0 0 0 0 0 0
0 0 0 0 0 0 0.15212413147592 0 0 0 0 0 0 0 0 0 0 0 0 0 0 0 0 0 0 0 0 0 0 0 0 0 0 0 0 0 0 0 0 0 0 0 0 0 0 0 0 0 0 0
0 0 0 0 0 0 0 0 0 0 0 0 0 0 0 0 0 0 0 0 0 0 0 0 0 0 0 0 0 0 0 0 0 0 0 0 0 0 0 0 0 0 0 0 0 0 0 -1.0906848203843 0 0
0 0 0 0 0 0 0 0 0 0 0 0.130943338507006 0.341065531722287 0.0278775255759064 0 0 0 0 0 0 0 0 0 0 0 0 0 0 0 0 0 0 0 0 0 0 0 0 0 0 0 0 0 0 0 0 0 -1.29614629835707 0 0
0 0 0 0 0 0 0 0 0 0 0 0 0 0 0 0 0 0 0 0 0 0 0 0 0 0 0 0 0 0.269845494148825 0.157977542377963 0.124367516161237 0.914010869556275 0.179675425000212 0.455949440906057 0.684281703824139 0.458907192570897 0.130426500192464 0 0 0 0 0 0 0 0 0 -0.866561697709371 0 0
0 0 0 0 0 0 0 0 0 0 0 0 0.116693884169033 0.259651611774228 0.0930622408202366 0.310597989892467 0 0 0 0 0 0 0 0 0 0 0 0 0 0 0 0 0 0 0 0 0 0 0 0 0 0 0 0 0 0 0 -8.95343260706478 0 0
0 0 0 0 0 0 0 0 0 0 0 0 0 0 0 0 0 0 0 0 0 0 0 0 0 0 0 0 0 0 0 0 0 0 0 0 0 0 0 0 0 0 0 0 0 0 0 -1.40281135725141 0 0
0 0 0 0 0 0 0 0 0 0 0 0 0 0 0 0 0 0 0 0 0 0 0 0 0 0.441023930380287 0.753819474490479 0.0741780837099044 0.0268715969358032 0.205205721011371 0 0 0 0 0 0 0 0 0 0 0 0 0 0 0 0 0 -0.351729211562874 0 0
0 0 0 0 0 0 0 0 0 0 0 0 0 0 0 0 0 0 0 0 0 0 0 0 0 0 0 0 0 0 0 0 0 0 0 0 0 0 0 0 0 0.229540062300476 0.258652637924901 0.181914969723676 1.8247584973587 0.279120633830757 0.0689214676871581 0 0.546674419049897 0.235832224507948
0 0 0 0 0 0 0 0 0 0 0 0 0 0 0 0 0 0 0 0 0 0 0 0 0 0 0 0 0 0 0 0 0 0 0 0 0 0 0 0 0 0 0 0 0 0 0 -2.70491750019849 0 0
0 0 0 0 0 0 0 0 0 0 0 0 0 0 0 0 0 0 0 0 0 0 0 0 0 0.0555350660809947 0.279862979176727 0.0919258402256877 0.208893780323562 0.2185039269553 0.0640577157379992 0.0339909590473234 0 0 0 0 0 0 0 0 0 0 0 0 0 0 0 -1.21123541306114 0 0
