0.266157692439756
1.16872317452487
1.56129501372015
0.0775242959631317
1.05437360000932
0.0878499891427158
3.08763768813585
0.4991144846052
0.723776486473389
0.482929244526974
0.558463940801434
0.410676506845822
0.150678663130894
0.184093568910457
0.417178173823944
0.0206650976981375
0.404840797882937
1.65451346225359
1.12428341162722
0.0651775375591546
0.450528260510605
0.108540187054824
0.301668151343641
0.165928122916542
0.257602068327891
0.592787730613314
0.419293201195345
0.778734121495831
0.0057310570004324
3.1482928190523
0.917792364681286
0.228963225833688
1.20479797091166
0.108035846688027
0.152670306563554
0.287253291398173
0.365233902635721
0.132804034088105
0.186319147776421
0.407839266741063
1.60944295567009
1.54416451367971
1.87974524606921
2.19019973272379
0.710647345860658
0.352400099081049
1.29862672023463
1.5075001432829
0.443223944366103
1.23304555275224
