0.266334165165903
0.204884577537561
0.890023474734636
0.0762162965148633
0.219139362158343
0.14733074715554
0.135735323311411
0.011098561101546
1.21027604559292
0.0795088363912484
0.0625566266030123
1.12593855618117
0.127955880876371
1.26905115731474
0.380713395782233
0.0782518225266617
0.180484193408231
0.455536578224536
0.804418324397122
0.622985860645573
0.0864188595323209
0.67962487959468
0.140151984670919
0.185894593114885
0.280012848647554
0.524938907411702
0.0554482381938129
1.26734162395807
0.568915439106232
0.773314867644089
0.569132704786813
1.06426512847117
0.669845026714837
0.931503788970665
0.043735042717673
0.316611220136479
0.417586886694716
0.0862062502665092
1.00463545716445
1.06876435763633
0.473517451708775
0.284085531461303
0.222456653814112
0.167133974320956
0.394302221151921
0.883772867636106
0.500134179316474
0.828874629076481
1.01358113809832
0.0326098283477434
