0 0 0 0 0 0 0 0 0 0 0 0 0 0 -0.350050930355969 0 0 0 0 0 0 0 0 0 0 0 0 0 0 0 0 0 0 0 0 0 0 0 0 0 0 0 0 0 0 0 0 0 0 0
0 0 0 0 0 0 0 0 0 0 0 0 0 0 0 0 0 0 0 0 0 0 0 0 -0.979195872371784 0 0 0 0 0 0 0 0 0 0 0 0 0 0 0 0 0 0 0 0 -0.58217718561968 0 0 0 0
0 0 0 -0.165367586910172 0 0 0 0 0 0 0 -0.658176155554163 0 0 0 0 0 0 0 0 0 0 0 0 -3.27780510164731 0 0 0 0 0 0 0 0 0 0 0 0 0 0 0 0 0 0 0 0 -1.20107674769492 -2.0249489948756 0 0 0
0 0 0.0337505966996984 0 0 0 0 0 0 0 0 0 0 0 0 0 -0.902942961351234 0 0 0 0 0 0 0 -0.425631856182977 0 0 0 0 0 0 0 0 0 0 0 0 0 0 0 0 0 -0.851314903969116 0 0 0 -0.70735384659618 0 0 0
0 0 0 0 0 0 0 0 -1.7810808472628 0 0 0 0 0 0 0 -0.308144952719496 0 0 -0.31072029151915 0 0 0 0 -1.69599256340189 0 0 0 -0.435867535783106 0 0 0 0 0 0 0 0 0 0 0 0 0 -2.04984796659976 0 0 0 0 -0.95359127051897 0 0
0 0 0 0 0 0 0 0 -3.70676799918326 0 0 0 0 0 0 0 0 0 0 -5.20177951320407 0 0 0 0 0 -6.52238998107357 0 0 -0.925783767975743 0 0 0 0 0 0 0 0 0 0 -1.32372540420601 0 0 -2.55566735699494 0 0 0 0 -0.728433914751213 0 0
0 0 0 0 0 0 0 0 -0.541523405397885 0 0 0 0 0 0 0 0 0 0 -4.86750899011871 0 0 0 0 0 -0.365861390532365 -1.26870200041773 0 -1.06196367315724 0 0 0 0 0 0 0 0 0 0 -1.11182620940646 0 0 -1.14899745423005 0 0 0 0 -0.219116491944181 0 0
0 0 0 0 0 0 0 0 0 0 0 0 0 0 0 0 0 0 0 -0.65845407731071 -0.391233812483357 0 0 0 0 -0.932982704722062 -0.110137241922766 0 0 0 0 0 0 0 0 0 0 -0.957995770121789 -7.56282170167245 -2.86363789586108 0 0 0 0 0 0 0 0 0 0
0 0 0 0 0.366512261999167 0.729174755209235 0.105674089371127 0 0 0 0 0 0 0 0 0 0 0 0 -3.74511164207555 -0.814388769810037 0 0 0 0 0 -0.618328503826516 0 0 0 0 0 0 0 0 0 0 -3.37830029090671 -1.85474636256213 -0.313057829302064 0 0 0 0 0 0 0 0 0 0
0 0 0 0 0 0 0 0 0 0 0 0 0 0 0 0 0 0 0 0 0 0 0 0 0 0 0 -0.511462209619602 0 0 0 0 0 0 0 0 0 -3.47000406205733 -4.44201124802495 -0.574982685917753 0 0 0 0 0 0 0 0 0 0
0 0 0 0 0 0 0 0 0 0 0 0 0 0 0 0 0 0 0 0 0 0 0 0 0 0 0 -0.402685104289739 0 0 0 0 0 0 0 0 0 -0.473951985836696 -2.70522874576463 -0.272491485662139 0 0 0 0 0 0 0 0 0 0
0 0 0.123887945257248 0 0 0 0 0 0 0 0 0 0 -0.365716199580623 0 0 0 0 0 0 0 0 0 0 0 0 0 0 0 0 0 0 0 0 0 0 0 -0.43277197828641 -3.52232592408577 0 0 0 0 0 0 0 0 0 0 0
0 0 0 0 0 0 0 0 0 0 0 0 0 -1.6410944602467 0 0 0 0 0 0 0 0 0 0 0 0 0 0 0 0 0 0 0 0 0 0 0 -0.394172994092609 -5.08302582818076 0 0 0 0 0 0 0 0 0 0 0
0 0 0 0 0 0 0 0 0 0 0 0.0713713494984111 0.329019133582749 0 0 0 0 0 0 0 0 0 0 0 0 0 0 0 0 0 0 0 0 0 0 0 0 -0.899043553420057 -4.75464217823472 0 0 0 0 0 0 0 0 0 0 0
0.0710958513394623 0 0 0 0 0 0 0 0 0 0 0 0 0 0 0 0 0 -1.23488849027629 0 0 0 0 0 0 0 0 0 0 0 0 0 0 0 0 0 0 0 0 0 0 0 0 0 0 0 0 0 0 0
0 0 0 0 0 0 0 0 0 0 0 0 0 0 0 0 0 -0.929299062609994 -0.291796425685494 0 0 0 0 0 0 0 0 0 0 0 0 -1.50439084519569 0 0 0 0 0 0 0 0 -1.38339656259931 0 0 0 0 0 0 0 0 0
0 0 0 0.168721556896727 0.062328056668475 0 0 0 0 0 0 0 0 0 0 0 0 -1.16720800395358 -0.810246763228773 0 0 0 0 0 0 0 0 0 0 0 0 -1.10247067284253 0 0 0 0 0 0 0 0 -0.187350498852376 0 0 0 0 0 0 0 0 0
0 0 0 0 0 0 0 0 0 0 0 0 0 0 0 0.189833027113866 0.24666514172631 0 0 0 0 0 0 0 0 0 0 0 0 0 0 -2.5589588041992 0 0 0 0 0 0 0 0 -0.72375290222329 0 0 0 0 0 0 0 -0.313015762179217 0
0 0 0 0 0 0 0 0 0 0 0 0 0 0 0.24647729042886 0.0593874476562615 0.167859888327345 0 0 0 0 0 0 0 0 0 0 0 0 0 0 -1.20791913697737 0 0 0 0 0 0 0 0 -0.673095740626704 0 0 0 0 0 0 0 -0.659184522831158 0
0 0 0 0 0.0593567258949672 0.983097452614351 1.01156548842672 0.128887946766062 0.750619868522689 0 0 0 0 0 0 0 0 0 0 0 0 0 0 0 0 0 0 0 0 0 0 -0.403776065520543 0 0 0 0 -1.26669162606262 0 0 0 -0.352748905396479 0 0 0 0 0 0 0 -1.56529769389986 0
0 0 0 0 0 0 0 0.0800114304165271 0.171795283619299 0 0 0 0 0 0 0 0 0 0 0 0 0 0 0 0 0 0 0 0 0 0 -1.57274756417757 0 0 0 0 -0.637912007025817 0 0 0 -1.10376562800527 0 0 0 0 0 0 0 -0.760742412370509 0
0 0 0 0 0 0 0 0 0 0 0 0 0 0 0 0 0 0 0 0 0 0 0 0 0 0 0 0 0 0 0 -0.456736159736672 0 0 0 0 -1.71696907959902 0 0 0 -4.16473034478942 0 0 0 0 0 0 0 -0.289869902627101 0
0 0 0 0 0 0 0 0 0 0 0 0 0 0 0 0 0 0 0 0 0 0 0 0 0 0 0 0 0 0 0 -1.18653104671093 0 0 0 0 -4.68508171601177 0 0 0 -2.33760149186283 0 0 0 0 0 0 0 -1.9627701140452 0
0 0 0 0 0 0 0 0 0 0 0 0 0 0 0 0 0 0 0 0 0 0 0 0 0 0 0 0 0 0 0 -0.897944587382608 0 0 0 0 -0.297389934932013 0 0 0 -0.349292939590291 0 0 0 0 0 0 0 -2.70679217636349 0
0 0.186161080121923 0.654439917439558 0.0877096940609736 0.328825090476816 0 0 0 0 0 0 0 0 0 0 0 0 0 0 0 0 0 0 0 0 0 0 0 0 0 0 0 0 0 0 0 -1.4288361990312 0 0 0 -3.87776960628859 0 0 -0.336840351307498 -5.17200477876568 0 0 0 -0.472034925593494 0
0 0 0 0 0 1.33042470946436 0.0734643627309603 0.187106392704272 0 0 0 0 0 0 0 0 0 0 0 0 0 0 0 0 0 0 0 0 0 -8.43597886050655 0 0 0 0 0 0 0 0 0 0 -5.49379018465314 0 0 -0.259386969646036 0 0 0 0 -0.231004230893382 0
0 0 0 0 0 0 0.231444493492514 0.0210335747002724 0.126305611562004 0 0 0 0 0 0 0 0 0 0 0 0 0 0 0 0 0 0 0 0 -1.44177596098831 0 0 0 0 0 0 0 0 0 0 -2.25193792731617 0 0 -1.46390272196215 0 0 0 0 -0.32732951739144 0
0 0 0 0 0 0 0 0 0 0.103312327510165 0.0873673438472367 0 0 0 0 0 0 0 0 0 0 0 0 0 0 0 0 0 0 0 0 0 0 0 0 0 0 0 0 0 0 0 0 0 0 0 0 0 0 0
0 0 0 0 0.080050958194622 0.167987570887726 0.221646681080976 0 0 0 0 0 0 0 0 0 0 0 0 0 0 0 0 0 0 0 0 0 0 0 0 0 0 0 0 0 0 0 0 0 0 0 0 0 0 0 0 0 0 0
0 0 0 0 0 0 0 0 0 0 0 0 0 0 0 0 0 0 0 0 0 0 0 0 0 1.70832048203962 0.277152808151617 0 0 0 0 0 0 0 0 0 0 0 0 0 0 0 0 0 0 0 0 0 0 -7.85018035075266
0 0 0 0 0 0 0 0 0 0 0 0 0 0 0 0 0 0 0 0 0 0 0 0 0 0 0 0 0 0 0 0 0 -4.20540978263088 0 0 0 0 0 0 0 0 0 0 0 0 0 0 0 -1.14840142433516
0 0 0 0 0 0 0 0 0 0 0 0 0 0 0 0.30742262644395 0.214469719988786 0.457973766548722 0.238059941223648 0.081722824342212 0.307109569314622 0.0949924707077576 0.223561277061908 0.180143165534274 0 0 0 0 0 0 0 0 0 -1.3986508010458 0 0 0 0 0 0 0 0 0 0 0 0 0 0 0 -7.2281249761764
0 0 0 0 0 0 0 0 0 0 0 0 0 0 0 0 0 0 0 0 0 0 0 0 0 0 0 0 0 0 0 0 0 0 0 0 0 0 0 0 0 0 0 0 0 0 0 0 0 -3.10170707400009
0 0 0 0 0 0 0 0 0 0 0 0 0 0 0 0 0 0 0 0 0 0 0 0 0 0 0 0 0 0 0.734682356017047 0.254198921653599 0 0 0 0 0 0 0 0 0 0 0 0 0 0 0 0 0 -0.681481741620227
0 0 0 0 0 0 0 0 0 0 0 0 0 0 0 0 0 0 0 0 0 0 0 0 0 0 0 0 0 0 0 0 0 0 0 0 0 0 0 0 0 0 0 0 0 0 0 0 0 -0.411984507035943
0 0 0 0 0 0 0 0 0 0 0 0 0 0 0 0 0 0 0 0 0 0 0 0 0 0 0 0 0 0 0 0 0 0 0 0 0 0 0 0 0 0 0 0 0 0 0 0 0 -4.8470694724047
0 0 0 0 0 0 0 0 0 0 0 0 0 0 0 0 0 0 0 0.240485397759586 0.11993500290813 0.356975369172329 0.912782681799124 0.058456116981882 0.268223766654518 0 0 0 0 0 0 0 0 0 0 0 0 0 0 0 0 0 0 0 0 0 0 0 0 -0.520760102232826
0 0 0 0 0 0 0 0.181502917787854 0.709304580282919 0.734929168524248 0.0919851215817939 0.083897101997186 0.0750340006426023 0.179678954433002 0 0 0 0 0 0 0 0 0 0 0 0 0 0 0 0 0 0 0 0 0 0 0 0 0 0 0 0 0 0 0 0 0 0 0 -0.566009275759487
0 0 0 0 0 0 0 1.65823326959359 0.387081543750372 0.929382074991873 0.584582342854712 0.708135512457319 0.966806337570367 0.959831495072469 0 0 0 0 0 0 0 0 0 0 0 0 0 0 0 0 0 0 0 0 0 0 0 0 0 0 0 0 0 0 0 0 0 0 0 -6.62999333877706
0 0 0 0 0 0.29479025660091 0.209247935440468 0.528054356707233 0.0613722176768998 0.11748563861457 0.0591403487123615 0 0 0 0 0 0 0 0 0 0 0 0 0 0 0 0 0 0 0 0 0 0 0 0 0 0 0 0 0 0 0 0 0 0 0 0 0 0 -0.895353141278971
0 0 0 0 0 0 0 0 0 0 0 0 0 0 0 0.291205386343359 0.0396016741165741 0.145134239948646 0.135331599568448 0.0631536403770234 0.206509724992164 0.796831452086761 0.419381854088601 0.0677563877370735 0.748402641632771 0.990295364400033 0.443186943492858 0 0 0 0 0 0 0 0 0 0 0 0 0 0 0 0 0 0 0 0 0 0 -1.98413804620833
0 0 0 0 0 0 0 0 0 0 0 0 0 0 0 0 0 0 0 0 0 0 0 0 0 0 0 0 0 0 0 0 0 0 0 0 0 0 0 0 0 0 0 0 0 0 0 0 0 -3.89649627518782
0 0 0 0.176485374051631 0.407084293039494 0.51774828293295 0.219002413846642 0 0 0 0 0 0 0 0 0 0 0 0 0 0 0 0 0 0 0 0 0 0 0 0 0 0 0 0 0 0 0 0 0 0 0 0 0 0 0 0 0 0 0
0 0 0 0 0 0 0 0 0 0 0 0 0 0 0 0 0 0 0 0 0 0 0 0 0.0644827439909891 0.0537562878341622 0.306694147333308 0 0 0 0 0 0 0 0 0 0 0 0 0 0 0 0 0 0 0 0 0 0 0
0 0 0 0 0 0 0 0 0 0 0 0 0 0 0 0 0 0 0 0 0 0 0 0 1.01141636024154 0 0 0 0 0 0 0 0 0 0 0 0 0 0 0 0 0 0 0 0 0 0 0 0 0
0 0.121429908594565 0.228350732301029 0 0 0 0 0 0 0 0 0 0 0 0 0 0 0 0 0 0 0 0 0 0 0 0 0 0 0 0 0 0 0 0 0 0 0 0 0 0 0 0 0 0 0 0 0 0 0
0 0 0.430139706590571 0.135618363598583 0 0 0 0 0 0 0 0 0 0 0 0 0 0 0 0 0 0 0 0 0 0 0 0 0 0 0 0 0 0 0 0 0 0 0 0 0 0 0 0 0 0 0 0 0 0
0 0 0 0 0.176221970112616 0.142513864455464 0.0441412268495037 0 0 0 0 0 0 0 0 0 0 0 0 0 0 0 0 0 0 0 0 0 0 0 0 0 0 0 0 0 0 0 0 0 0 0 0 0 0 0 0 0 0 0
0 0 0 0 0 0 0 0 0 0 0 0 0 0 0 0 0 0.0610184999011911 0.138183234002935 0.310939520258968 0.160759125084301 0.052788497850487 0.408386649792793 0.529726997113404 0.0931415956269429 0.0459493519967808 0.0651975108096183 0 0 0 0 0 0 0 0 0 0 0 0 0 0 0 0 0 0 0 0 0 0 0
0 0 0 0 0 0 0 0 0 0 0 0 0 0 0 0 0 0 0 0 0 0 0 0 0 0 0 0 0 1.49571588781197 0.231250139887585 1.50341405489568 0.654906225828709 0.12797120796504 0.0882297886868449 0.996897300746499 0.105593656638383 0.119842897988449 1.24842333137468 0.190406734504657 0.414117768360206 0.749749277842735 0 0 0 0 0 0 0 0
