1.98066696522997
0.417870498301128
0.692602815881558
0.256056103278949
1.14225876176108
0.332900049009954
1.8928661365488
0.342676518750218
0.682067390489735
0.101879854641583
0.958160837598207
0.679420465577647
0.523134906283856
0.951231390240996
0.908601385459593
1.23835373755398
1.08353367993855
0.804585224971953
0.906704797714147
0.0424469402323422
0.635661480233168
1.13103358486507
0.0427745701592116
0.513742352878322
0.483849796829743
0.560258384839257
1.27892968467862
0.278179513288592
1.29232994178259
0.260973382670101
0.153374666461033
0.547533859360045
1.73398514002705
2.32315392834816
1.84768177417023
1.09056220092351
0.29810468760243
0.594854886223297
1.25875326685816
1.84572674619773
1.52628397700497
0.189419420326032
0.138778667836818
0.229554200802976
0.89801748782926
1.74025150003702
1.37434584059133
1.03789668800551
0.809679624091271
0.706584366238461
