0 0 0 0 0 0 0 0 0 0 0 0 0 0 0 0 0 0 0 -0.989765990223233 0 0 0 0 0 0 0 0 0 0 0 0 0 0 -2.25273246668909 0 0 0 0 0 0 0 0 0 0 0 0 0 0 0
0 0 0 0 0 0 0 0 0 0 0 0 0 0 0 0 0 0 0 0 0 0 0 0 0 0 0 0 0 0 0 0 0 0 -6.02633048470622 0 0 0 0 0 0 0 0 0 0 0 0 0 0 0
0 0 0 0 0 0 0 0 0 0 0 0 0 0 0 0 0 0 0 0 0 0 0 0 0 0 0 0 0 0 0 0 0 0 -0.801142924485247 0 0 0 0 0 0 0 0 0 0 0 0 0 0 0
0 0 0 0 0 0 0 0 0 0 0 0 0 0 0 0 0 0 0 0 0 0 0 0 0 -1.24299020018836 0 0 0 0 0 0 0 0 -4.07725890952739 0 0 0 0 0 0 0 0 0 0 0 0 0 0 0
0 0 0 0 0 0 0 0 -0.256979463234855 0 0 0 0 0 0 0 0 0 0 0 0 0 0 0 0 -0.094943980132594 0 0 0 0 0 0 0 0 -0.452022672190978 0 0 0 0 0 0 0 0 0 0 0 0 0 0 0
0 0 0 0 0 0 -0.528507268549662 0 0 0 -0.675777305675181 0 0 0 0 0 0 0 0 0 0 0 0 0 0 -2.19897711985353 0 0 0 0 0 0 0 0 0 0 0 0 0 0 0 0 0 0 0 0 0 0 0 0
0 0 0 0 0 0.105672827954907 0 0 0 0 0 0 0 0 -0.398335176904168 0 0 0 0 0 0 0 0 0 0 -5.04326442997512 0 -9.68740643258917 -4.94796833390483 0 0 0 0 0 0 0 0 0 0 0 0 0 0 0 0 0 0 0 0 0
0 0 0 0 0 0 0 0 0 -0.500339911985275 0 0 0 0 -0.594852304267265 0 0 0 0 0 0 0 0 0 0 -2.88396644165577 0 -2.14041829184965 -5.05604080193915 0 0 0 0 0 0 0 0 0 0 0 0 0 0 0 0 0 0 0 0 0
0 0 0 0 0.049929637629081 0 0 0 0 0 0 0 -1.75061402830549 0 0 0 -1.98026539366481 0 0 0 0 0 0 -1.61726895879114 0 -1.33857677058324 0 -1.24193311183271 -0.840522514211974 0 0 0 0 0 0 0 0 0 0 0 0 0 0 -1.651760555672 0 -0.357398165527634 0 -0.52009470641455 0 0
0 0 0 0 0 0 0 0.0975202425186362 0 0 0 0 -0.14294468251544 0 0 0 0 0 0 0 0 0 0 0 0 -0.340654619441189 0 -0.394147507826329 -0.85599775246849 0 0 0 0 0 0 -0.496317723489193 0 0 0 0 0 0 0 -1.49907126157652 0 0 0 -0.289049545060444 0 0
0 0 0 0 0 0.134538246404667 0 0 0 0 0 0 -1.21777989830913 0 0 0 0 0 0 0 0 0 0 0 0 -0.375304989619033 0 -0.384333729039932 -0.194429908167683 0 0 0 0 0 0 -2.08389851164878 0 0 0 0 0 0 0 -0.220240433948698 0 0 0 -0.401467608396875 0 0
0 0 0 0 0 0 0 0 0 0 0 0 -0.838091060316995 0 0 0 0 0 0 0 0 0 0 0 0 -1.30776396596674 0 -0.809236839147839 -2.35579701478157 0 0 0 0 0 0 -0.647632202429217 0 0 0 0 0 0 0 -10.6670078603271 0 0 0 -2.27329218864811 0 0
0 0 0 0 0 0 0 0 0.351729508060331 0.0287230184029876 0.253847951363858 0.16634190946522 0 0 0 0 0 0 0 0 0 0 -0.744534069654772 0 0 0 0 -0.847114963844432 -1.33408796877263 0 0 0 0 0 0 0 0 0 0 0 0 0 0 -0.364877669994977 0 0 0 -1.43464641777251 0 0
0 0 0 0 0 0 0 0 0 0 0 0 0 0 0 0 0 0 0 0 0 0 -2.76994996528879 0 0 0 0 -3.04493233458918 0 0 0 0 0 0 0 0 0 0 0 0 0 0 0 -0.32321406831289 0 0 0 -1.66905864732571 0 0
0 0 0 0 0 0 0.0815760039831927 0.12659486853159 0 0 0 0 0 0 0 0 0 0 0 0 -0.292172077211546 0 -1.03484501197088 0 0 0 0 -1.39154556345695 0 0 0 0 0 0 0 0 0 0 0 0 -0.744221553728398 0 0 0 0 0 0 0 -0.262663292066522 0
0 0 0 0 0 0 0 0 0 0 0 0 0 0 0 0 0 0 0 0 -1.07385873503582 0 -0.703167264951395 0 0 0 0 0 0 0 0 0 0 0 0 0 0 0 0 0 -6.07537657489059 0 0 0 0 0 0 0 -1.42504914463891 0
0 0 0 0 0 0 0 0 0.40026905124397 0 0 0 0 0 0 0 0 0 0 0 -0.264859283214175 0 -7.29839117901429 0 0 0 0 0 0 0 0 0 0 0 0 0 0 0 0 0 -1.33819070904686 0 -0.358002764631518 0 0 0 0 0 0 0
0 0 0 0 0 0 0 0 0 0 0 0 0 0 0 0 0 0 0 0 -1.14146971214956 -5.53087417869293 -2.21253871120478 0 0 0 0 0 0 0 0 0 0 0 0 0 0 0 0 0 -0.810772147270803 0 -0.40894010743488 0 0 0 0 0 0 0
0 0 0 0 0 0 0 0 0 0 0 0 0 0 0 0 0 0 0 0 -2.38009518658748 -0.558406204928066 -1.58800789900846 0 0 0 0 0 0 0 0 0 0 0 0 0 0 0 0 0 -1.2843205855141 0 -1.83243873621394 0 0 0 0 0 0 0
0.194803813296078 0 0 0 0 0 0 0 0 0 0 0 0 0 0 0 0 0 0 0 0 -1.72206498068358 -1.33558140301173 0 0 0 0 0 0 -0.238218940417378 0 0 0 0 0 0 0 0 0 0 -0.0968193700279322 0 -0.763425387252599 0 0 0 0 0 0 0
0 0 0 0 0 0 0 0 0 0 0 0 0 0 0.0573861118974231 0.209356980394584 0.0546493869564807 0.222832053337092 0.469524675708154 0 0 -1.89203382347325 -2.48853360878589 0 0 0 0 0 0 -1.35789244428733 0 0 0 0 0 0 0 0 0 0 -0.499778327648623 0 -0.873866637451425 0 0 0 0 0 0 0
0 0 0 0 0 0 0 0 0 0 0 0 0 0 0 0 0 1.15110965290202 0.109045648107803 0.331714970829483 0.383184655281075 0 -0.884040110348103 0 0 0 0 0 0 -1.16828797943257 0 0 0 0 0 0 0 0 0 0 -0.800472036409925 0 -1.35067055092216 0 0 0 0 0 0 0
0 0 0 0 0 0 0 0 0 0 0 0 0.148093372408736 0.541175514941673 0.225449603483155 0.140525629119313 1.3294727418655 0.470010096267721 0.331865206537309 0.256357196556551 0.472844111753605 0.179310451797007 0 0 0 0 -1.34032717492752 0 0 -3.16338792487764 0 0 -0.316805077383736 0 0 0 0 0 0 0 -1.35045160292619 0 0 0 -1.05101925648547 0 0 0 0 0
0 0 0 0 0 0 0 0 0.328842173459646 0 0 0 0 0 0 0 0 0 0 0 0 0 0 0 0 0 -1.20242915362033 0 0 -3.33036098427963 0 0 0 0 0 0 -1.95052913053759 0 0 0 -1.56038982960123 0 0 0 -0.30452809938067 0 0 0 0 0
0 0 0 0 0 0 0 0 0 0 0 0 0 0 0 0 0 0 0 0 0 0 0 0 0 0 -0.571287896070442 0 0 -7.02260602531662 0 0 0 0 0 0 -0.774946543789478 0 0 0 -0.340822284259765 0 0 0 -1.21540727677137 0 0 0 0 0
0 0 0 0.252768868593064 0.0193583622072166 0.450851720795024 0.995015060138147 0.596978600323117 0.263782435162044 0.06746956287894 0.076074282633053 0.27837468380656 0 0 0 0 0 0 0 0 0 0 0 0 0 0 0 0 0 -1.01963955526177 0 -0.305126564014833 0 0 0 0 -0.586941321337837 0 0 0 -1.70129609643271 0 0 0 0 0 0 0 0 0
0 0 0 0 0 0 0 0 0 0 0 0 0 0 0 0 0 0 0 0 0 0 0.252248215422979 0.24559222153135 0.123367901313581 0 0 0 0 0 0 -0.25772964861336 0 0 0 0 -3.31326312302013 0 0 0 -1.67223786433967 0 0 0 0 0 0 0 0 0
0 0 0 0 0 0 2.10614322637193 0.409458863776948 0.257181169445946 0.0845853265162432 0.0728510378379073 0.150588018629074 0.171613620753057 0.615804888413249 0.265155029653496 0 0 0 0 0 0 0 0 0 0 0 0 0 0 0 0 0 0 0 0 0 -1.48384983119348 0 0 0 -2.21273024795429 0 0 0 0 0 0 0 0 0
0 0 0 0 0 0 1.03965856135049 1.02472936335733 0.179378608613319 0.162852093239159 0.0382157584287904 0.484167697534942 0.252230968244949 0 0 0 0 0 0 0 0 0 0 0 0 0 0 0 0 0 0 0 0 0 0 0 -0.84643986264383 0 0 0 -2.34570477979864 0 0 0 0 0 0 0 0 0
0 0 0 0 0 0 0 0 0 0 0 0 0 0 0 0 0 0 0 0.0472522876644676 0.267630377867514 0.209395730463665 0.621783741894276 0.64613290719966 1.2931234773026 0.197518937840287 0 0 0 0 0 0 0 0 0 0 0 0 0 0 -1.44065190812565 0 0 0 0 0 0 0 0 0
0 0 0 0 0 0 0 0 0 0 0 0 0 0 0 0 0 0 0 0 0 0 0 0 0 0 0 0 0 0 0 0 0 0 0 0 0 0 0 0 -0.506865420699191 0 0 0 0 0 0 0 0 0
0 0 0 0 0 0 0 0 0 0 0 0 0 0 0 0 0 0 0 0 0 0 0 0 0 0.0569823718624173 0.0528299654588992 0 0 0 0 0 0 0 0 0 0 0 0 0 -0.780771915078428 0 0 0 0 0 0 0 0 0
0 0 0 0 0 0 0 0 0 0 0 0 0 0 0 0 0 0 0 0 0 0 0.0666830990815683 0 0 0 0 0 0 0 0 0 0 -2.1941793617108 0 0 0 0 0 0 0 0 0 0 0 0 0 0 0 0
0 0 0 0 0 0 0 0 0 0 0 0 0 0 0 0 0 0 0 0 0 0 0 0 0 0 0 0 0 0 0 0 0.455131103129181 0 0 0 0 0 0 0 0 0 0 0 0 0 -1.03833937821902 0 0 -1.16520233972877
0.464384406520356 1.22680875220094 0.164324290303931 0.74766941601759 0.088473789086722 0 0 0 0 0 0 0 0 0 0 0 0 0 0 0 0 0 0 0 0 0 0 0 0 0 0 0 0 0 0 0 0 0 -1.06544002420206 0 0 0 0 0 0 0 -1.34335618105828 0 0 -0.601777477980892
0 0 0 0 0 0 0 0 0 0.0969619347183267 0.401104801163385 0.137702866238289 0 0 0 0 0 0 0 0 0 0 0 0 0 0 0 0 0 0 0 0 0 0 0 0 0 0 0 0 0 0 0 0 0 0 -5.37838186283502 0 0 -0.91680182750423
0 0 0 0 0 0 0 0 0 0 0 0 0 0 0 0 0 0 0 0 0 0 0 0.38982360269127 0.157289527703316 0.116907433398765 0.623103110226847 0.312525716506424 0.176137870051145 0 0 0 0 0 0 0 0 0 0 0 0 0 0 0 0 0 -0.114634184469105 0 0 -0.874179717098403
0 0 0 0 0 0 0 0 0 0 0 0 0 0 0 0 0 0 0 0 0 0 0 0 0 0 0 0 0 0 0 0 0 0 0 0 0 0 0 0 0 0 0 0 0 0 -0.390802873471513 0 0 0
0 0 0 0 0 0 0 0 0 0 0 0 0 0 0 0 0 0 0 0 0 0 0 0 0 0 0 0 0 0 0 0 0 0 0.203030899429682 0 0 0 0 0 0 0 0 0 0 0 -2.23295532795929 0 0 0
0 0 0 0 0 0 0 0 0 0 0 0 0 0 0 0 0 0 0 0 0 0 0 0 0 0 0 0 0 0 0 0 0 0 0 0 0 0 0 0 0 0 0 0 0 0 -0.460709792746639 0 0 0
0 0 0 0 0 0 0 0 0 0 0 0 0 0 0.153827192804509 1.25762202218578 0.249092358737119 0.168934551648812 0.253311256817265 0.0193880561659611 0.10105639773242 0.170869375709027 0.265425804400712 0.305956199969358 0.0766559910775322 0.345038441916144 0.331000894932065 0.455913901743803 0.464369090135984 0.306482858866634 0.0967412732528551 0.159049086791204 0 0 0 0 0 0 0 0 0 0 0 0 0 0 -3.31731102297967 0 0 0
0 0 0 0 0 0 0 0 0 0 0 0 0 0 0 0 0 0 0 0 0 0 0 0 0 0 0 0 0 0 0 0 0 0 0 0 0 0 0 0 0 0 0 0 0 0 -1.56395059803192 0 0 0
0 0 0 0 0 0 0 0 0 0 0 0 0 0 0 0 0.0704643329726462 0.0787205043712548 0.38242222547569 0.165987715532778 0.181711743018725 0.294708201147514 0 0 0 0 0 0 0 0 0 0 0 0 0 0 0 0 0 0 0 0 0 0 0 0 0 0 0 0
0 0 0 0 0 0 0 0 0.341118291576353 0.297275346142121 0.0436449321396149 2.00734738256627 0.0704163156424432 0.0662140957389404 0 0 0 0 0 0 0 0 0 0 0 0 0 0 0 0 0 0 0 0 0 0 0 0 0 0 0 0 0 0 0 0 0 0 0 0
0 0 0 0 0 0 0 0 0 0 0 0 0 0 0 0 0 0 0 0 0 0 0.20390225810797 0.0622254739607105 0.250593881221203 0 0 0 0 0 0 0 0 0 0 0 0 0 0 0 0 0 0 0 0 0 0 0 0 0
0 0 0 0 0 0 0 0 0.0723145786487124 0 0 0 0 0 0 0 0 0 0 0 0 0 0 0 0 0 0 0 0 0 0 0 0 0 0 0 0 0 0 0 0 0 0 0 0 0 0 0 0 0
0 0 0 0 0 0 0 0 0 0 0 0 0 0 0 0 0 0 0 0 0 0 0 0 0 0 0 0 0 0 0 0 0 0.210388267079468 0.249130909473535 1.03420385228462 0.0226874775876186 0.0819226816577936 0.451807412340943 0.0894259320158972 0.623121492043494 0.322341171734121 0 0 0 0 0 0 0 0
0 0 0 0 0 0 0 0 0.109336210131092 0.0548343106864537 0.0778793077855643 0.413256091985269 0.266205963052417 0.345957188857708 0 0 0 0 0 0 0 0 0 0 0 0 0 0 0 0 0 0 0 0 0 0 0 0 0 0 0 0 0 0 0 0 0 0 0 0
0 0 0 0 0 0 0 0 0 0 0 0 0 0 0.0510712657765841 0.270755083321402 0 0 0 0 0 0 0 0 0 0 0 0 0 0 0 0 0 0 0 0 0 0 0 0 0 0 0 0 0 0 0 0 0 0
0 0 0 0 0 0 0 0 0 0 0 0 0 0 0 0 0 0 0 0 0 0 0 0 0 0 0 0 0 0 0 0 0 0.232381667859691 0.128766803320771 0.173797222554384 0.175586037159117 0 0 0 0 0 0 0 0 0 0 0 0 0
