0 0 -0.632295988397676 0 -1.13865259905174 0 0 0 0 0 0 0 0 0 0 0 -3.97276916966106 0 0 0 0 0 0 0 0 0 0 0 0 0 -0.836745209144848 0 0 0 0 0 0 0 0 0 0 0 0 0 0 0 0 0 0 0
0 0 0 0 -2.04390080366166 0 0 0 0 0 0 0 0 0 0 0 -2.69135491384133 0 0 0 0 0 0 0 0 0 0 0 0 0 -0.979987599716318 0 0 0 0 0 0 0 0 0 0 0 0 0 0 0 0 0 0 0
0.130737426110161 0 0 0 -0.25747840402076 -0.90097747888114 0 0 0 0 0 0 0 0 0 0 -0.138680590286718 0 0 0 0 0 0 0 0 0 0 0 0 0 -2.04716282704647 0 0 0 0 0 0 0 0 0 0 0 0 -0.762252336301743 0 0 0 0 0 0
0 0 0 0 0 0 0 0 0 0 0 0 -0.377585903051806 0 0 0 -0.106664705190565 0 0 0 0 0 0 0 0 0 0 0 0 0 0 0 0 0 0 0 0 0 0 0 0 0 0 0 0 0 0 0 0 0
0.242383408925775 0.397312881614322 0.0509505003822096 0 0 0 0 0 0 0 0 0 0 0 0 0 -2.43066354663758 0 -2.41707153886881 0 0 0 0 0 0 0 0 0 0 0 0 0 0 0 0 0 0 0 0 0 0 0 0 0 0 0 0 0 0 0
0 0 0.185232792862346 0 0 0 0 0 0 0 0 0 0 0 0 0 -0.198213084069697 0 0 0 0 0 0 0 0 0 0 0 0 0 0 0 0 0 0 0 0 0 0 0 0 0 0 0 0 0 0 0 0 0
0 0 0 0 0 0 0 0 0 0 0 0 0 0 0 0 -0.931494967305539 0 0 0 0 0 -2.65183920631082 0 0 0 0 0 0 0 0 0 0 0 0 0 0 0 0 0 0 0 0 0 0 0 0 0 0 0
0 0 0 0 0 0 0 0 -0.299464115588101 0 0 0 0 0 0 0 0 0 0 0 0 0 -2.73610991686173 0 0 0 0 0 0 0 0 0 0 0 0 0 0 0 0 0 0 0 0 0 0 0 0 0 0 0
0 0 0 0 0 0 0 0.0671249338962128 0 0 0 0 0 0 0 0 0 0 0 0 0 0 -1.16877665107522 0 0 0 0 0 0 0 0 0 0 0 0 0 0 0 0 0 0 0 0 0 0 0 0 0 0 0
0 0 0 0 0 0 0 0 0 0 -1.98324304537465 0 0 0 0 -1.61914870082111 0 0 0 0 0 0 -3.87424793842038 0 0 0 0 0 0 0 0 0 0 0 0 0 0 0 0 0 0 0 0 0 0 0 0 0 0 -0.786292028660821
0 0 0 0 0 0 0 0 0 0.386139854512958 0 -0.552951197769933 0 0 -0.21578380737728 0 0 0 0 -0.245413990457222 0 0 0 0 0 0 0 0 0 0 0 0 0 0 0 -0.258701485500594 0 0 0 0 0 0 0 0 0 0 0 0 0 0
0 0 0 0 0 0 0 0 0 0 0.110945352801585 0 0 0 0 0 0 0 0 0 0 -4.80229358362037 0 -2.24632351053345 0 0 0 0 -1.48753932676177 0 0 0 0 0 -3.26538109964187 0 0 0 0 0 0 0 0 0 0 0 0 0 0 0
0 0 0 0.0735661533837946 0 0 0 0 0 0 0 0 0 0 0 0 0 0 0 0 0 -0.362083253256349 0 -1.33877476899897 0 0 0 0 -2.24277600545736 0 0 0 0 0 -0.160565940981001 0 0 0 0 0 0 0 0 0 0 0 0 0 0 0
0 0 0 0 0 0 0 0 0 0 0 0 0 0 0 0 0 -0.220733325628144 0 0 0 -0.363316180321874 0 -0.986772405524267 0 -1.36932249323897 0 0 -1.85876842352208 0 0 0 0 0 -0.917788711131688 0 0 0 0 0 0 0 0 0 0 0 0 0 0 0
0 0 0 0 0 0 0 0 0 0 0.0423348005746491 0 0 0 0 0 0 -0.482470970625041 0 0 0 -0.722054690036211 0 -5.52463373551538 0 -1.64271428289362 0 0 -1.38272238792314 0 0 0 0 0 -2.17494280313979 0 0 0 0 0 0 0 0 0 0 0 0 0 0 0
0 0 0 0 0 0 0 0 0 0.301528484473537 0 0 0 0 0 0 0 -0.290177881488212 0 0 0 -6.04699924528444 0 -0.236566092472316 0 -1.77099348215735 0 0 -2.04118243230783 0 0 0 0 0 -0.460076066591652 0 0 0 0 0 0 0 0 0 0 0 0 0 0 0
0.837806048298446 0.482899599523757 0.0278649121160821 0.0194892831021191 0.516492507176362 0.0400629488709904 0.1953704034792 0 0 0 0 0 0 0 0 0 0 -0.443271628894443 0 0 0 -1.64104723536215 0 -1.21992101505231 -1.5594765989273 -0.334313791220057 0 0 0 0 0 0 0 0 -0.979787569783818 0 0 0 0 0 0 0 0 0 0 0 0 0 0 0
0 0 0 0 0 0 0 0 0 0 0 0 0 0.0450970045956191 0.0907177784680112 0.0614945108364684 0.0828230493096312 0 0 0 0 0 0 0 0 -0.92628898333866 0 0 0 0 0 0 -2.21182671684931 0 -1.05019055896119 0 0 -0.685112881011399 0 0 0 0 0 0 0 0 0 0 0 0
0 0 0 0 0.546430777904401 0 0 0 0 0 0 0 0 0 0 0 0 0 0 0 0 0 0 0 0 -0.569564349757835 0 0 0 0 0 0 -0.517483371829069 0 -0.95750738995608 0 0 -0.351990413777316 0 0 0 0 0 0 0 0 0 0 0 0
0 0 0 0 0 0 0 0 0 0 0.0439072738117179 0 0 0 0 0 0 0 0 0 0 0 0 0 0 0 0 0 0 0 0 0 0 0 -0.289439295777279 0 0 -0.777431082589164 0 0 0 0 0 0 0 0 0 0 0 0
0 0 0 0 0 0 0 0 0 0 0 0 0 0 0 0 0 0 0 0 0 0 0 0 0 0 0 0 0 0 0 0 0 0 -0.213336689240873 0 0 -1.42518481397901 0 0 0 0 0 0 0 0 0 0 0 0
0 0 0 0 0 0 0 0 0 0 0 0.999050474978239 0.076002226762542 0.0785639678317899 0.151890041767496 1.106174184854 0.337574490784893 0 0 0 0 0 0 0 0 0 0 0 0 -0.222112554229994 0 0 0 0 -0.616881899931397 0 0 0 0 0 0 0 0 0 0 0 0 0 0 0
0 0 0 0 0 0 0.527108057959314 0.50598530150133 0.212953457883706 0.781897201153464 0 0 0 0 0 0 0 0 0 0 0 0 0 0 0 0 0 0 0 -8.1806344943552 0 0 0 0 -2.55304756022038 0 0 0 0 0 0 0 0 0 0 0 0 0 0 0
0 0 0 0 0 0 0 0 0 0 0 0.453901846995988 0.269883094447182 0.20335568097796 1.13214970454185 0.0475211877127572 0.241908035334177 0 0 0 0 0 0 0 0 0 0 0 0 -0.293887650159952 0 0 0 0 -0.442342157871523 0 0 0 -1.06579229767957 0 0 0 0 0 0 0 0 0 0 0
0 0 0 0 0 0 0 0 0 0 0 0 0 0 0 0 0.311064913218153 0 0 0 0 0 0 0 0 0 0 0 0 0 0 0 0 0 -0.955851981231013 0 0 0 0 0 0 0 0 0 -0.146099968413803 0 0 0 0 0
0 0 0 0 0 0 0 0 0 0 0 0 0 0.280730200606448 0.336909572370779 0.355837401675634 0.0627895311941328 0.182379924601842 0.104891082971143 0 0 0 0 0 0 0 0 0 0 0 0 0 0 0 -0.220312543447911 0 0 0 0 0 0 0 0 0 -1.65667514078301 0 0 0 0 0
0 0 0 0 0 0 0 0 0 0 0 0 0 0 0 0 0 0 0 0 0 0 0 0 0 0 0 -4.36208110002655 0 0 0 0 0 0 0 0 0 0 0 0 0 0 0 0 -1.72278409799578 0 0 0 0 0
0 0 0 0 0 0 0 0 0 0 0 0 0 0 0 0 0 0 0 0 0 0 0 0 0 0 0.87731990801701 0 0 0 0 0 0 0 0 0 0 0 0 0 0 0 0 0 -1.79933986720104 0 0 0 0 0
0 0 0 0 0 0 0 0 0 0 0 0.314467668803569 0.447047684136677 0.357809561306587 0.269191556177192 0.371958478492472 0 0 0 0 0 0 0 0 0 0 0 0 0 0 0 0 0 0 0 0 0 0 0 0 0 0 0 0 -0.777627266788759 0 0 0 0 0
0 0 0 0 0 0 0 0 0 0 0 0 0 0 0 0 0 0 0 0 0 0.0470496104192959 1.70372593461076 0.0592782796811252 0 0 0 0 0 0 0 0 0 0 0 0 0 0 0 0 0 0 0 0 -1.15292233550574 0 0 0 0 0
0.166654095545211 0.198885335371378 0.443092992908669 0 0 0 0 0 0 0 0 0 0 0 0 0 0 0 0 0 0 0 0 0 0 0 0 0 0 0 0 0 0 0 0 0 0 0 0 0 0 0 0 0 -0.134366525844579 -1.58566410162795 -0.934569382708665 0 0 0
0 0 0 0 0 0 0 0 0 0 0 0 0 0 0 0 0 0 0 0 0 0 0 0 0 0 0 0 0 0 0 0 0 0 0 0 0 0 0 -0.316057018167734 0 0 0 0 -4.18332538347466 -3.34167884840847 -0.312539590937984 0 0 0
0 0 0 0 0 0 0 0 0 0 0 0 0 0 0 0 0 0.450857940301081 0.0994931521936685 0 0 0 0 0 0 0 0 0 0 0 0 0 0 0 0 0 -0.583053109115089 0 0 0 0 0 0 0 0 0 -0.876664444677626 0 0 0
0 0 0 0 0 0 0 0 0 0 0 0 0 0 0 0 0 0 0 0 0 0 0 0 0 0 0 0 0 0 0 0 0 0 0 0 -0.862330986666129 0 0 0 0 0 0 0 0 0 -1.71705384365449 0 0 0
0 0 0 0 0 0 0 0 0 0 0 0.599373271158717 0.0286624490571311 0.186302018659188 0.450600225542602 0.0897285848472113 0.187354711536736 0.206230822112052 0.184757719334929 0.0488273438739073 0.0427266240260347 0.122023100399272 0.530070306891978 0.0914456274124673 0.190544570345553 0.0415834753700719 0 0 0 0 0 0 0 0 0 0 0 0 0 0 0 0 0 0 0 0 -1.65452644480866 0 0 0
0 0 0 0 0 0 0 0 0 0 0.0526356488688114 0 0 0 0 0 0 0 0 0 0 0 0 0 0 0 0 0 0 0 0 0 0 0 0 0 0 0 0 0 -1.64922271739415 0 0 0 0 0 -0.23041490108838 0 0 0
0 0 0 0 0 0 0 0 0 0 0 0 0 0 0 0 0 0 0 0 0 0 0 0 0 0 0 0 0 0 0 0 0.112000613041724 0.168833783446178 0 0 0 0 0 0 0 -0.0652587847708526 0 0 0 0 -0.478251193669077 -0.68102095558438 0 0
0 0 0 0 0 0 0 0 0 0 0 0 0 0 0 0 0 0.147965065962081 0.0706257845101427 0.168443148133072 0.301070139611845 0 0 0 0 0 0 0 0 0 0 0 0 0 0 0 0 0 0 0 0 -0.963561274276678 0 0 0 0 -2.37118148605722 -3.75394373405081 0 0
0 0 0 0 0 0 0 0 0 0 0 0 0 0 0 0 0 0 0 0 0 0 0 0.206134799787723 0 0 0 0 0 0 0 0 0 0 0 0 0 0 0 0 0 -1.84684097572938 0 0 0 0 0 -1.85732571529396 0 0
0 0 0 0 0 0 0 0 0 0 0 0 0 0 0 0 0 0 0 0 0 0 0 0 0 0 0 0 0 0 0 0.0617594869016382 0 0 0 0 0 0 0 0 0 -0.941614119563171 0 0 0 0 0 -0.704211720854755 -2.46372939132964 0
0 0 0 0 0 0 0 0 0 0 0 0 0 0 0 0 0 0 0 0 0 0 0 0 0 0 0 0 0 0 0 0 0 0 0 0.339198293812177 0 0 0 0 0 0 0 0 0 0 0 -2.35882049061846 0 0
0 0 0 0 0 0 0 0 0 0 0 0 0 0 0 0 0 0 0 0 0 0 0 0 0 0 0 0 0 0 0 0 0 0 0 0 0.0129182306993346 0.190648008196364 0.363959043577754 0.198847320803918 0 0 0 0 0 0 0 -4.75506853416012 0 0
0 0 0 0 0 0 0 0 0 0 0 0 0 0 0 0 0 0 0 0 0 0 0 0 0 0 0 0 0 0 0 0 0 0 0 0 0 0 0 0 0 0 0 0 0 0 0 -0.876619730170884 0 0
0 0 0.16174738977101 0 0 0 0 0 0 0 0 0 0 0 0 0 0 0 0 0 0 0 0 0 0 0 0 0 0 0 0 0 0 0 0 0 0 0 0 0 0 0 0 0 0 0 0 -0.624093778999443 0 0
0 0 0 0 0 0 0 0 0 0 0 0 0 0 0 0 0 0 0 0 0 0 0 0 0.0301526581224803 0.323018732098016 0.351174953911592 0.370658281799574 0.157417188298069 0.222558524881971 0.0256720120406547 0.868774971767897 0 0 0 0 0 0 0 0 0 0 0 0 0 0 0 -0.204099418652712 0 0
0 0 0 0 0 0 0 0 0 0 0 0 0 0 0 0 0 0 0 0 0 0 0 0 0 0 0 0 0 0 0.328065125479567 0.730263437794197 0 0 0 0 0 0 0 0 0 0 0 0 0 0 0 0 0 0
0 0 0 0 0 0 0 0 0 0 0 0 0 0 0 0 0 0 0 0 0 0 0 0 0 0 0 0 0 0 0.175428744053674 0.0589149188478777 0.172096043146216 0.341604474490166 0.326093447102593 0.048846764472108 0.100224413871874 0.49965010219603 0 0 0 0 0 0 0 0 0 0 0 0
0 0 0 0 0 0 0 0 0 0 0 0 0 0 0 0 0 0 0 0 0 0 0 0 0 0 0 0 0 0 0 0 0 0 0 0 0.142854593533697 0.7008498714753 0.373878179338371 0.14760207957843 0.466879297469816 0.889802928637646 0.183546869227547 0.123493895026041 0.0346833641234311 0 0 0 0 0
0 0 0 0 0 0 0 0 0 0 0 0 0 0 0 0 0 0 0 0 0 0 0 0 0 0 0 0 0 0 0 0 0 0 0 0 0 0 0 0.476566950580205 0 0 0 0 0 0 0 0 0 0
0 0 0 0 0 0 0 0 0 0.164783995500318 0 0 0 0 0 0 0 0 0 0 0 0 0 0 0 0 0 0 0 0 0 0 0 0 0 0 0 0 0 0 0 0 0 0 0 0 0 0 0 0
