1.09210552111738
0.730300303387032
0.108775098510909
0.522115118297862
0.684924449732622
0.207313257707275
2.67492416479652
0.122031109664408
1.92601805068516
0.37871561346506
0.271635213123977
0.189078418712191
0.223413212706121
0.125647007883606
0.244467472205588
0.63689378686375
0.156198767642067
0.768178798901627
0.563590500939552
0.0801671953287221
0.102914747378563
0.256350266232659
0.879034926186402
0.376461155715729
0.870858739121146
0.39482283845388
0.255596677054449
0.314955183850472
1.27732655319869
0.293012042616302
0.388909356757064
2.59189712809744
0.227269598091907
0.123667242053982
0.685893559360323
0.103976290592008
0.190178308307076
0.0484232462228481
0.187266237414355
0.296011778458476
0.325975533697767
0.0143852776311709
0.152586203192315
0.629858626330693
1.43350275972852
0.347049953843275
1.83958145175764
0.199257061586958
0.127381480415479
0.28989181407161
