1.37261971668416
0.379323930029653
1.71745087004706
0.130555577123495
0.77807801427432
1.22724212599526
0.529501601634932
0.525947895734907
1.07197577161429
2.0014023633215
0.598248731228817
4.00959476747657
1.29008495291479
0.409913282380441
1.06901865885532
0.360559246337977
1.88531946730901
3.82626311114329
0.709225280188392
0.825832824470238
0.884483466173008
0.625148805617106
0.436600067008829
0.397620693796066
1.90191334042264
0.773147523622308
2.41476008671279
0.678860045375441
0.298629188265283
1.69716450012592
0.575584247118923
1.28316677723441
1.10252043302885
1.18949146092581
2.03148220648845
2.26409217069541
4.66523987343702
0.476005887543539
0.820193371414943
1.12364296431615
1.14926007000252
0.490292160264451
0.447670171152542
5.74859152774763
2.04186406184067
1.90129026104139
0.884175255115651
0.923746865212597
2.22299597718271
0.348343948005851
