0 0 0 0 0 0 -1.6664438169781 0 0 0 0 0 0 0 0 0 0 0 0 0 0 0 -0.375360048928621 0 0 0 0 0 0 0 0 0 0 0 0 0 0 0 0 0 0 0 0 0 0 0 0 0 0 0
0 0 0 0 0 0 0 0 0 0 0 0 -0.737923312453817 0 0 0 0 0 0 0 0 0 0 0 0 -1.59855840359903 0 -0.543720486414691 0 0 0 0 0 0 0 0 0 0 0 0 0 0 0 0 0 0 0 0 0 0
0 0 0 0 0 0 0 0 0 0 0 0 0 -2.62898586587337 0 0 0 0 0 0 0 0 0 0 0 -0.390325953046577 0 -0.466776762688688 0 0 0 -0.275416684189152 0 0 0 0 0 0 0 0 0 0 0 0 0 0 0 0 0 0
0 0 0 0 0 0 0 -3.3660842655969 0 -0.14203904237223 0 0 0 -0.660031144313373 0 0 0 0 0 0 0 0 0 0 0 -3.40988849800841 0 0 0 0 0 0 0 0 0 0 0 0 0 0 0 0 0 0 0 0 0 0 0 0
0 0 0 0 0 -0.212794948509678 0 0 0 0 0 0 0 -0.418136609773894 0 0 0 0 0 0 0 0 0 0 0 -3.31813259814493 0 0 0 0 0 0 0 0 0 0 0 0 0 0 0 0 0 0 0 0 0 0 0 0
0 0 0 0 0.0441493979024843 0 0 0 0 0 -0.0546224385193865 -6.37087124868622 0 0 0 0 -1.41231213882248 0 0 0 0 -0.275384801600067 0 -0.770401039083738 -3.23077504066504 -0.956254572295609 0 0 0 -0.521461502727617 0 0 0 -0.595122143248066 0 0 0 0 0 0 0 -7.7583340854346 0 0 0 0 0 0 0 0
0.341688594527363 0 0 0 0 0 0 0 -0.657703152357518 0 -1.6383097627241 0 0 0 0 0 0 0 0 0 0 -1.24372753452457 0 -0.673855247056351 -5.84163031878903 0 0 0 0 0 0 0 0 0 0 0 0 0 0 0 0 -0.418681652227994 0 0 0 -11.4681654442158 0 0 0 0
0 0 0 0.693440915857329 0 0 0 0 -5.77021322825994 0 -0.596966648442841 0 0 0 0 0 0 0 0 0 0 -0.631436021994215 0 -1.80125232814507 -1.00898918125626 0 0 0 0 0 0 0 0 0 0 0 0 0 0 0 0 -1.63564098405758 0 0 0 -0.204249907015365 0 0 0 0
0 0 0 0 0 0 0.126482696275765 1.2433120774616 0 0 0 0 0 0 0 0 0 0 0 -1.59785398828542 0 0 0 -1.05009299503859 0 0 0 0 0 0 0 0 0 0 0 0 0 -0.672912253807564 0 0 0 0 0 0 0 0 0 0 0 0
0 0 0 0.0285393883362607 0 0 0 0 0 0 0 0 0 0 0 0 0 0 0 -0.196040490254682 0 0 0 -0.397412682083539 0 0 0 0 0 0 0 0 0 0 0 0 0 -1.98461686534739 0 0 0 0 0 0 0 0 0 0 0 0
0 0 0 0 0 0.0119492740872946 0.320848845178283 0.117875424588948 0 0 0 0 0 0 0 0 0 0 0 -0.387177337318226 0 0 0 -1.05870233583344 0 0 0 0 0 0 0 0 0 0 0 0 0 -5.16267243415582 0 0 0 0 0 0 0 0 0 0 0 0
0 0 0 0 0 1.26406922801021 0 0 0 0 0 0 0 0 0 0 0 0 0 -1.40239541685289 0 0 0 -0.474072223889413 0 0 0 0 0 0 0 0 0 0 0 0 0 -1.47785085447573 0 0 0 0 0 0 -3.85259638790793 0 0 0 0 0
0 0.149701519893008 0 0 0 0 0 0 0 0 0 0 0 0 0 0 0 0 0 0 0 0 0 0 0 0 0 0 0 0 0 0 -1.943646007277 0 0 0 0 -0.633213837022918 0 0 0 0 0 0 0 0 0 0 0 0
0 0 0.516402881483271 0.138294792346435 0.073914719687236 0 0 0 0 0 0 0 0 0 0 -0.418917491758211 0 0 0 0 0 0 0 0 0 0 0 0 0 0 0 0 -11.1994755822138 0 0 0 0 -0.610088829075092 0 0 0 0 0 0 0 0 0 0 0 0
0 0 0 0 0 0 0 0 0 0 0 0 0 0 0 0 0 0 -0.100793578027025 0 0 0 0 0 0 0 0 0 0 0 0 0 0 0 0 0 0 0 0 0 0 0 0 0 0 0 0 0 0 0
0 0 0 0 0 0 0 0 0 0 0 0 0 0.0840989047540346 0 0 0 0 -4.27193072768101 0 0 0 0 0 0 0 0 0 0 0 0 0 0 0 0 0 0 0 0 0 0 0 0 0 0 0 0 0 0 0
0 0 0 0 0 0.281779280693713 0 0 0 0 0 0 0 0 0 0 0 0 -0.340383100210888 0 0 0 0 0 0 0 0 0 0 0 0 0 0 0 0 0 0 0 0 0 0 0 0 0 0 0 0 0 0 0
0 0 0 0 0 0 0 0 0 0 0 0 0 0 0 0 0 0 -0.797973373595014 0 0 0 0 0 0 0 -0.562297927814466 0 0 0 0 0 0 0 0 0 0 0 0 0 0 0 0 0 0 0 0 0 0 0
0 0 0 0 0 0 0 0 0 0 0 0 0 0 0.0201862231594811 0.854480260122746 0.061899390635375 0.154241720890076 0 0.0440671082749837 0 0 0 0 0 0 -0.595650855296828 0 0 0 0 0 0 0 0 0 0 0 0 0 0 0 0 0 0 0 0 0 0 0
0 0 0 0 0 0 0 0 0.321979266284341 0.0366461809987003 0.081799110338224 0.294594133799263 0 0 0 0 0 0 -0.247510554333347 0 0 0 0 0 0 0 -0.514661834849601 0 0 0 0 0 0 0 0 0 0 0 0 0 0 0 0 0 0 0 0 0 0 0
0 0 0 0 0 0 0 0 0 0 0 0 0 0 0 0 0 0 0 0 0 0 0 0 0 0 -0.249821612791698 0 0 0 0 0 0 0 0 0 0 0 0 0 0 0 -3.87532727672782 0 0 0 0 0 0 0
0 0 0 0 0 0.0537656479746959 0.259004099656284 0.124781772559439 0 0 0 0 0 0 0 0 0 0 0 0 0 0 0 0 0 0 -0.403155883670451 0 0 0 0 0 0 0 0 0 0 0 0 0 0 0 -3.03675317297909 0 0 0 0 0 0 0
0.0754395144110351 0 0 0 0 0 0 0 0 0 0 0 0 0 0 0 0 0 0 0 0 0 0 0 0 0 -0.300311997773973 0 -1.88576878534378 0 0 0 0 0 0 0 0 0 0 0 0 0 -0.687118020785918 0 0 0 0 0 0 0
0 0 0 0 0 0.155358358666262 0.127127019695587 0.354289060416652 0.195703060385771 0.0806123318348525 0.208457418473759 0.0872341676928836 0 0 0 0 0 0 0 0 0 0 0 0 0 0 -1.28887270335342 0 0 0 0 0 0 0 0 0 0 0 0 0 0 0 -0.242133764941889 0 0 0 0 0 0 0
0 0 0 0 0 0.598325863122723 1.1564479805121 0.20364047206028 0 0 0 0 0 0 0 0 0 0 0 0 0 0 0 0 0 0 0 0 0 0 0 0 0 0 0 0 0 0 0 0 0 0 -0.236699372926907 0 0 0 0 0 0 0
0 0.307835597130356 0.0754817775951761 0.627406284475356 0.702747842812516 0.213825663936448 0 0 0 0 0 0 0 0 0 0 0 0 0 0 0 0 0 0 0 0 0 0 0 0 -1.51555534578757 0 0 0 0 0 0 0 0 0 0 0 -0.313191589192952 0 0 0 0 0 0 0
0 0 0 0 0 0 0 0 0 0 0 0 0 0 0 0 0 0.117929477896145 0.121984415519518 0.102631421739434 0.0478271747798351 0.0790962934946624 0.053719096825348 0.277758095784486 0 0 0 0 0 0 -2.0864485701645 0 0 0 0 0 0 0 0 0 0 0 -1.60759565150231 0 0 0 0 0 0 0
0 0.110048227235672 0.10324918285791 0 0 0 0 0 0 0 0 0 0 0 0 0 0 0 0 0 0 0 0 0 0 0 0 0 0 0 -2.46368309620653 0 0 0 0 0 0 0 0 0 0 0 0 0 0 0 0 0 0 0
0 0 0 0 0 0 0 0 0 0 0 0 0 0 0 0 0 0 0 0 0 0 0.357409555646763 0 0 0 0 0 0 0 0 0 0 0 -0.237427982817045 0 -0.98926697771767 0 0 0 0 0 0 0 0 0 0 -0.148300975130501 0 -0.272817548901721
0 0 0 0 0 0.107804172079258 0 0 0 0 0 0 0 0 0 0 0 0 0 0 0 0 0 0 0 0 0 0 0 0 0 0 0 0 -1.29460232759489 0 -1.93129806058514 0 0 0 0 0 0 0 0 0 0 -0.339514963580002 0 -1.84483350727804
0 0 0 0 0 0 0 0 0 0 0 0 0 0 0 0 0 0 0 0 0 0 0 0 0 0.31657839319391 0.399325277027946 0.442679936194534 0 0 0 0 0 0 -0.283021556642392 0 -2.95259602108165 0 0 0 0 0 0 0 0 0 0 -4.29818389900456 0 -3.79922256819385
0 0 0.0545601697008329 0 0 0 0 0 0 0 0 0 0 0 0 0 0 0 0 0 0 0 0 0 0 0 0 0 0 0 0 0 0 0 -0.751135205044002 0 -0.966524497331024 0 0 0 0 0 0 0 0 0 0 -0.168520396661449 0 0
0 0 0 0 0 0 0 0 0 0 0 0 0.395301250756656 2.17614625973138 0 0 0 0 0 0 0 0 0 0 0 0 0 0 0 0 0 0 0 0 -0.203322265638914 0 -1.235274684406 0 0 0 0 0 0 -2.37954547255887 0 0 -1.64509002057354 0 0 0
0 0 0 0 0 0.118052279009646 0 0 0 0 0 0 0 0 0 0 0 0 0 0 0 0 0 0 0 0 0 0 0 0 0 0 0 0 -4.3056249144868 0 -0.401948116447994 0 0 0 -1.24195502956478 0 0 0 0 0 -0.553569978832454 0 0 0
0 0 0 0 0 0 0 0 0 0 0 0 0 0 0 0 0 0 0 0 0 0 0 0 0 0 0 0 0.0469240319199951 0.262265661389578 0.0599102802193125 0.152050045902564 0.0434854547671878 0.848083964866021 0 0 0 0 0 0 -0.30327326480336 0 0 0 0 0 -2.22179795351608 0 -0.201265969202791 0
0 0 0 0 0 0 0 0 0 0 0 0 0 0 0 0 0 0 0 0 0 0 0 0 0 0 0 0 0 0 0 0 0 0 0 0 0 0 0 0 -0.487410006276669 0 0 0 0 0 -0.480670297479624 0 -2.00296886961813 0
0 0 0 0 0 0 0 0 0 0 0 0 0 0 0 0 0 0 0 0 0 0 0 0 0 0 0 0 0.192027457578191 0.406094147650843 0.628431969672793 0.195612855631123 0.247928086879495 0.0822403764141812 0 0 0 0 0 0 -1.2296475858838 0 0 0 0 0 -0.707540841565735 0 -0.445829584387314 0
0 0 0 0 0 0 0 0 0.134879889272115 0.38730814168842 1.12102852755268 0.319181718262786 0.128613948408719 0.113043728294489 0 0 0 0 0 0 0 0 0 0 0 0 0 0 0 0 0 0 0 0 0 0 0 0 -0.536553022183535 0 0 0 0 0 0 0 -1.54944050704496 0 0 0
0 0 0 0 0 0 0 0 0 0 0 0 0 0 0 0 0 0 0 0 0 0 0 0 0 0 0 0 0 0 0 0 0 0 0 0 0 0.111536280454733 0 0 0 0 0 0 0 0 -1.89316944841625 0 0 0
0 0 0 0 0 0 0 0 0 0 0 0 0 0 0 0 0 0 0 0 0 0 0 0 0 0 0 0 0 0 0 0 0 0 0 0 0 0 0 0 0 0 0 0 0 0 -6.44682857829561 0 0 0
0 0 0 0 0 0 0 0 0 0 0 0 0 0 0 0 0 0 0 0 0 0 0 0 0 0 0 0 0 0 0 0 0 0.258271798537111 0.0610879859803419 0.0952153181300368 0.246538486013183 0 0 0 0 0 0 0 0 0 -1.20391743999536 0 0 0
0 0 0 0 0 1.68540100357205 0.0794833929371171 0.296899428585099 0 0 0 0 0 0 0 0 0 0 0 0 0 0 0 0 0 0 0 0 0 0 0 0 0 0 0 0 0 0 0 0 0 0 0 0 0 0 -2.24100607798392 0 0 0
0 0 0 0 0 0 0 0 0 0 0 0 0 0 0 0 0 0 0 0 0.745574767454427 0.542479811060641 0.136664295562623 0.0529597021159538 0.0469846177577503 0.0613473017466841 0.312328458354628 0 0 0 0 0 0 0 0 0 0 0 0 0 0 0 0 0 0 0 -4.61803509364064 0 0 0
0 0 0 0 0 0 0 0 0 0 0 0 0 0 0 0 0 0 0 0 0 0 0 0 0 0 0 0 0 0 0 0 0.485843463488007 0 0 0 0 0 0 0 0 0 0 0 0 0 -2.20678449871757 0 0 0
0 0 0 0 0 0 0 0 0 0 0 0.720719239809201 0 0 0 0 0 0 0 0 0 0 0 0 0 0 0 0 0 0 0 0 0 0 0 0 0 0 0 0 0 0 0 0 0 0 -0.679586069384485 0 0 0
0 0 0 0 0 0 2.42381842739449 0.0418351013605541 0 0 0 0 0 0 0 0 0 0 0 0 0 0 0 0 0 0 0 0 0 0 0 0 0 0 0 0 0 0 0 0 0 0 0 0 0 0 -2.67916956498522 0 0 0
0 0 0 0 0 0 0 0 0 0 0 0 0 0 0 0 0 0 0 0 0 0 0 0 0 0 0 0 0 0 0 0 0.341634770691162 0.10554002717422 0.44271379574736 0.0957444424210939 0.141001490360072 0.328560560840789 0.338291295343389 1.28997691662886 0.228482167005994 0.466696195126869 0.863264328430019 0.461251211369526 0.129707895409552 0.526957166559529 0 0 0 0
0 0 0 0 0 0 0 0 0 0 0 0 0 0 0 0 0 0 0 0 0 0 0 0 0 0 0 0 0.0290766745061144 0.066102241445101 0.879669148856715 0.0317361185272849 0 0 0 0 0 0 0 0 0 0 0 0 0 0 0 0 0 0
0 0 0 0 0 0 0 0 0 0 0 0 0 0 0 0 0 0 0 0 0 0 0 0 0 0 0 0 0 0 0 0 0 0 0.0403234911296102 0.39985067408373 0.0934588755970813 0 0 0 0 0 0 0 0 0 0 0 0 0
0 0 0 0 0 0 0 0 0 0 0 0 0 0 0 0 0 0 0 0 0 0 0 0 0 0 0 0 0.0547374113653952 0.359973626957881 0.79342574141274 0 0 0 0 0 0 0 0 0 0 0 0 0 0 0 0 0 0 0
