0 0 0 0 0 0 0 -2.25582638950141 0 0 0 0 0 0 0 0 0 0 0 0 0 0 0 0 0 0 0 0 0 0 0 0 0 0 0 0 0 0 0 0 0 0 0 0 0 0 0 0 0 0
0 0 0 0 -4.79729120435027 0 0 -0.137530597121026 0 0 0 0 0 0 0 0 0 0 0 0 0 0 0 0 0 0 0 0 0 0 0 0 0 0 0 0 0 0 0 0 0 0 0 0 0 0 0 0 0 0
0 0 0 0 0 0 0 0 0 0 0 0 -1.09781200251687 0 0 0 0 0 0 0 0 0 0 0 0 0 0 0 0 0 0 0 0 0 0 0 0 0 0 0 0 0 0 0 0 0 0 0 0 0
0 0 0 0 0 0 0 0 0 0 0 -5.977829171242 -3.10199064867706 0 0 0 0 0 0 0 0 0 0 0 0 0 0 0 0 0 0 0 0 0 0 0 0 0 0 0 0 0 0 0 0 0 0 0 0 0
0 0.983378636931678 0 0 0 0 0 0 0 0 0 -0.405745709987705 -1.54233986276611 0 0 0 0 0 0 0 0 0 0 0 0 0 0 0 0 0 0 0 0 0 0 0 0 0 0 0 0 0 0 0 0 0 0 0 0 0
0 0 0 0 0 0 0 0 0 0 0 -0.34265249637171 0 0 0 0 0 0 0 0 0 0 0 0 0 0 0 0 0 0 0 0 0 0 0 0 0 0 0 0 0 0 0 0 0 0 0 0 0 0
0 0 0 0 0 0 0 0 0 0 0 -0.565997963326313 0 0 0 -0.424372310272355 0 0 0 0 0 0 0 0 0 0 0 0 0 0 0 0 0 0 0 0 0 0 0 0 0 0 0 0 0 0 0 0 0 -2.02078381889328
0.476104154944991 0.0268876040938726 0 0 0 0 0 0 0 -2.45355155162387 0 0 0 0 0 0 0 -8.51069617186438 0 0 0 0 0 0 0 0 0 0 0 0 0 0 0 0 0 0 0 0 0 0 -1.51241697552498 0 0 0 0 0 0 0 0 -0.573095060908281
0 0 0 0 0 0 0 0 0 0 0 0 0 0 0 0 0 -1.77082769128939 0 0 -0.403579328680848 0 0 -0.950493078687543 0 0 0 0 0 0 0 0 -0.718664402501641 0 0 0 0 -0.434999676822191 -1.66358922395929 0 0 0 0 0 0 0 0 0 0 -0.67052321080538
0 0 0 0 0 0 0 0.480086996035539 0 0 0 0 0 0 0 0 -1.3737953450691 -1.03647476379958 0 0 0 0 0 -1.61661336470914 0 0 0 0 0 0 0 0 -2.19672762537809 -0.352154681976442 0 0 0 -0.810024581690765 0 0 0 0 0 0 0 -0.131456966317921 0 0 0 -2.17616490836146
0 0 0 0 0 0 0 0 0 0 0 0 0 -0.453824007144294 0 0 0 0 0 0 0 0 0 0 -0.614439507144192 0 -0.503454017690831 0 0 0 0 0 0 0 0 0 0 -0.236486988667831 0 0 0 0 0 0 0 0 0 0 0 0
0 0 0 1.28314108130165 0.0842529483454228 0.0727037031250621 0.116994144386089 0 0 0 0 0 0 -1.48052977211516 0 0 0 0 0 0 0 0 0 0 -0.400202891980674 0 -1.04523790112433 0 0 0 0 0 0 0 0 0 0 -0.0531480929224642 0 0 0 0 0 0 0 0 0 0 -1.04630235163289 0
0 0 0.241338688452906 0.610288726066865 0.320313506154019 0 0 0 0 0 0 0 0 -0.920953610162124 0 0 0 0 0 0 0 0 0 0 -1.31763068280422 0 -0.269826003404617 0 0 0 0 0 0 0 0 0 0 -0.37591469923985 0 0 0 0 0 0 0 0 0 0 -3.45403335927039 0
0 0 0 0 0 0 0 0 0 0 0.0915246435463368 0.28950822013122 0.184673211144465 0 0 0 0 0 0 0 0 0 0 0 -0.553843570324448 0 -0.439695480130802 0 0 0 0 0 0 0 0 0 0 -1.32321239114064 0 0 0 0 0 0 0 0 0 0 -3.41049435345254 0
0 0 0 0 0 0 0 0 0 0 0 0 0 0 0 0 0 0 0 0 0 0 0 0 -0.70176402068234 0 0 0 -4.78751832080333 0 0 0 0 0 0 0 0 -0.883129017752276 0 0 0 0 0 0 0 0 0 0 -1.00213883422423 0
0 0 0 0 0 0 0.0757881160498585 0 0 0 0 0 0 0 0 0 0 0 0 -3.13904045992403 0 0 0 0 0 -0.613104312409923 0 0 0 -6.81656723919815 0 0 0 0 0 0 0 0 0 -1.48252929879541 0 0 0 0 0 0 0 0 -0.106207200304779 0
0 0 0 0 0 0 0 0 0 0.26240089317531 0 0 0 0 0 0 0 0 0 -0.339363018507281 0 0 0 0 0 0 0 0 0 -0.261305044466349 0 0 0 0 0 0 0 0 0 -4.43803876634994 0 0 0 0 0 0 0 0 0 0
0 0 0 0 0 0 0 1.60891108849041 0.337888625157533 0.206256462499809 0 0 0 0 0 0 0 0 0 -2.23087708811163 0 0 0 0 0 0 0 0 0 -0.63050081074162 0 0 0 0 0 0 0 0 0 -0.211077969247196 0 0 0 0 0 0 0 0 0 0
0 0 0 0 0 0 0 0 0 0 0 0 0 0 0 0 0 0 0 -8.86140956125202 0 0 0 0 0 0 0 0 0 -1.67767401687518 0 0 0 0 0 0 0 0 0 -0.333369533224875 0 0 0 0 0 0 0 0 0 0
0 0 0 0 0 0 0 0 0 0 0 0 0 0 0 0.625158317041941 0.0735169273370408 0.484884352458835 1.67386759596435 0 0 0 0 0 0 0 0 0 0 -0.666893124881903 -2.34341338243359 -0.196914691363014 0 0 0 0 0 0 0 -1.01370220652687 0 0 0 0 0 0 0 0 0 0
0 0 0 0 0 0 0 0 0.0752505342555907 0 0 0 0 0 0 0 0 0 0 0 0 0 0 0 0 0 0 0 0 -1.13234205193707 0 -2.72508952162372 0 0 -0.170827832604972 0 0 0 0 0 0 0 0 0 0 0 0 0 0 0
0 0 0 0 0 0 0 0 0 0 0 0 0 0 0 0 0 0 0 0 0 0 0 0 0 0 0 0 0 -8.20637999903011 0 -2.02748275201327 0 0 -0.206001519512669 0 0 0 0 0 0 0 0 0 0 0 0 0 0 0
0 0 0 0 0 0 0 0 0 0 0 0 0 0 0 0 0 0 0 0 0 0 0 0 0 0 0 0 0 -0.267435504439731 0 -0.367330576831666 0 0 -0.917442592074492 0 0 0 0 0 0 0 0 0 0 0 0 0 0 0
0 0 0 0 0 0 0 0 0.186396220164155 0.34884250236101 0 0 0 0 0 0 0 0 0 0 0 0 0 0 0 0 0 0 0 -1.02531340542337 0 0 0 0 -0.586758616386367 0 0 0 0 0 0 0 0 0 0 0 0 0 0 0
0 0 0 0 0 0 0 0 0 0 0.118395991153722 0.0745497672576685 0.263248685912808 0.105962108508355 0.143642680846261 0 0 0 0 0 0 0 0 0 0 0 0 0 0 -3.7696132608585 0 0 0 0 -1.58592218158386 0 0 0 0 0 0 0 0 0 0 0 0 0 0 0
0 0 0 0 0 0 0 0 0 0 0 0 0 0 0 0.123621691631507 0 0 0 0 0 0 0 0 0 0 0 0 0 0 0 0 0 0 -0.112896194688614 0 0 0 0 0 0 0 0 0 0 0 0 0 0 0
0 0 0 0 0 0 0 0 0 0 0.100924968534524 0.213720837776302 0.0482422642576252 0.0880260356069515 0 0 0 0 0 0 0 0 0 0 0 0 0 0 0 0 0 0 0 0 -2.18611883663821 0 0 0 0 0 0 0 0 0 0 0 0 0 0 0
0 0 0 0 0 0 0 0 0 0 0 0 0 0 0 0 0 0 0 0 0 0 0 0 0 0 0 0 0 0 0 0 0 0 -0.412422949674483 0 0 0 0 0 0 0 0 0 0 0 0 0 0 0
0 0 0 0 0 0 0 0 0 0 0 0 0 0 0.910378544977739 0 0 0 0 0 0 0 0 0 0 0 0 0 0 0 0 0 0 0 -2.30798851625378 0 0 0 0 0 0 0 0 0 0 0 0 0 0 0
0 0 0 0 0 0 0 0 0 0 0 0 0 0 0 1.34411526336188 0.0525192376159174 0.13553483377321 0.348569108001994 0.126107371327005 0.227410588971166 1.60221127004655 0.0516229633212093 0.209126533096361 0.792738698062998 0 0 0 0 0 0 0 0 0 -4.41574758780424 0 0 0 0 0 0 0 0 0 0 0 0 0 0 0
0 0 0 0 0 0 0 0 0 0 0 0 0 0 0 0 0 0 0 0.47002801442817 0 0 0 0 0 0 0 0 0 0 0 0 0 0 -0.753617940936424 0 0 0 0 0 0 0 0 0 0 0 0 0 0 0
0 0 0 0 0 0 0 0 0 0 0 0 0 0 0 0 0 0 0 0.0380232565740114 0.560925914725632 0.410529413290004 0.0734933496133851 0 0 0 0 0 0 0 0 0 0 0 0 0 0 0 0 0 0 -0.597691554505776 0 0 0 0 -1.91017956060294 0 0 0
0 0 0 0 0 0 0 0 0.144040475341741 0.439945821130908 0 0 0 0 0 0 0 0 0 0 0 0 0 0 0 0 0 0 0 0 0 0 0 0 0 0 0 0 0 0 0 -5.39443174594895 0 0 0 0 -1.59442257844862 0 0 0
0 0 0 0 0 0 0 0 0 0.0683837336386382 0 0 0 0 0 0 0 0 0 0 0 0 0 0 0 0 0 0 0 0 0 0 0 0 0 0 0 0 0 0 0 -0.759080016906816 0 0 0 0 -2.15875998492774 0 0 0
0 0 0 0 0 0 0 0 0 0 0 0 0 0 0 0 0 0 0 0 0.0344144655626113 0.0428602202310788 0.181988556102983 0.115087416885096 0.330098726907607 0.0225417832741721 0.437168281455794 0.0807091685455426 0.457381932789595 0.852106982526758 0.165815131052364 0 0 0 0 0 -0.333861431942186 0 0 0 0 -1.10346211873848 0 0 0 0 -0.33096189633888 -1.20591782564143 0 0
0 0 0 0 0 0 0 0 0 0 0 0 0 0 0 0 0 0 0 0 0 0 0 0 0 0 0 0 0 0 0 0 0 0 0 0 -0.685405918598263 0 0 0 0 -1.863546357704 0 0 0 0 -3.34631518339695 -3.0348637613201 0 0
0 0 0 0 0 0 0 0 0 0 0 0 0 0 0 0 0 0 0 0 0 0 0 0 0 0 0 0 0 0 0 0 0 0 0.0701313318630066 0.14490105709064 0 0.0322057471610537 0.0378721934308085 0.416436705893698 0 -0.579179998573889 0 0 0 0 0 0 0 0
0 0 0 0 0 0 0 0 0.0920366108388939 0.150573531630877 0.0453398391123068 0.0108590388283339 0.0756153817457298 0.253660307914325 0.192309149487994 0 0 0 0 0 0 0 0 0 0 0 0 0 0 0 0 0 0 0 0 0 -0.161257899238529 0 0 0 0 -1.93505612551172 0 0 0 0 0 0 0 0
0 0 0 0 0 0 0 0 0.319611126065279 0 0 0 0 0 0 0 0 0 0 0 0 0 0 0 0 0 0 0 0 0 0 0 0 0 0 0 -0.186688415824416 0 0 0 0 -1.14622995709973 0 0 0 0 0 0 0 0
0 0 0 0 0 0 0 0 0 0 0 0 0 0 0 0.29890945888365 0.923828936283646 0.039285979726425 0.0636307922325187 0.216461581377065 0 0 0 0 0 0 0 0 0 0 0 0 0 0 0 0 -2.04076925963984 0 0 0 0 -3.65463878532697 0 0 0 0 0 0 0 0
0 0 0 0 0 0 0 0.27407109526537 0 0 0 0 0 0 0 0 0 0 0 0 0 0 0 0 0 0 0 0 0 0 0 0 0 0 0 0 0 0 0 0 0 -7.55060775236449 0 0 0 0 0 0 0 0
0 0 0 0 0 0 0 0 0 0 0 0 0 0 0 0 0 0 0 0 0 0 0 0 0 0 0 0 0 0 0 0.123915001042316 1.11740980851976 0.154438188938521 0.217615621957635 0.401641439481033 0.12741815384405 0.3767620210212 0.226981012133894 0.747627996150905 1.48025107501117 0 0.224187671054904 0 0 0 0 0 0 0
0 0 0 0 0 0 0 0 0 0 0 0 0 0 0 0 0 0 0 0 0 0 0 0 0 0 0 0 0 0 0 0 0 0 0 0 0 0 0 0 0 -1.12233278525153 0 0 -1.89220943597492 0 0 0 0 0
0 0 0 0 0 0 0 0 0 0 0 0 0 0 0 0 0 0 0 0 0 0 0 0 0 0 0 0 0 0 0 0 0 0 0 0 0 0 0 0 0 0 0 0 -1.44710571879573 0 0 0 0 0
0 0 0 0 0 0 0 0 0 0 0 0 0 0 0 0 0 0 0 0 0 0 0 0 0 0 0 0 0 0 0 0 0 0 0 0 0 0 0 0 0 0 0.358805301754718 0.303843998506579 0 0 0 0 0 0
0 0 0 0 0 0 0 0 0 0.0251035539580959 0 0 0 0 0 0 0 0 0 0 0 0 0 0 0 0 0 0 0 0 0 0 0 0 0 0 0 0 0 0 0 0 0 0 0 0 0 0 0 0
0 0 0 0 0 0 0 0 0 0 0 0 0 0 0 0 0 0 0 0 0 0 0 0 0 0 0 0 0 0 0 0.366615900677943 0.342570653767958 0.468928860991611 0.0643537132000454 0.645491054867915 0 0 0 0 0 0 0 0 0 0 0 0 0 0
0 0 0 0 0 0 0 0 0 0 0 0 0 0 0 0 0 0 0 0 0 0 0 0 0 0 0 0 0 0 0 0 0 0 0.244881134292372 0.573964112377589 0 0 0 0 0 0 0 0 0 0 0 0 0 0
0 0 0 0 0 0 0 0 0 0 0 0.214983807952887 0.643721290493119 0.645085967191218 0.215718313731111 0.0201719437004863 0 0 0 0 0 0 0 0 0 0 0 0 0 0 0 0 0 0 0 0 0 0 0 0 0 0 0 0 0 0 0 0 0 0
0 0 0 0 0 0 0.411757193299421 0.119816466152105 0.128461387744207 0.428209564535975 0 0 0 0 0 0 0 0 0 0 0 0 0 0 0 0 0 0 0 0 0 0 0 0 0 0 0 0 0 0 0 0 0 0 0 0 0 0 0 0
