1.01290069601165
0.80356946719997
6.89422030791891
0.991160693779925
0.881998911670129
2.42485752559402
0.174156830239999
6.86664475040697
1.1861597569125
1.20014462172313
6.29625230445986
0.704043080595175
0.732274679325563
5.41420135913832
1.11820985956585
0.409217181193132
1.26956798115291
1.42214475397172
1.02684054203109
1.14164040106151
0.584616440650545
0.567464306230795
0.602092957644391
1.91639270597514
0.684473245806215
2.5847645143412
1.28366372985103
1.39397314951867
3.28133244898389
1.77644891802437
0.3423222180231
0.192913503481218
2.45933325583895
1.74084819164429
0.226745212139383
1.11336069859642
0.896165124682928
5.70594763539618
0.329602713465273
0.821515954210201
0.330243896542104
0.122256705637646
0.433033856941653
0.417352348402633
0.925279224675987
2.37432320798862
0.783778009150958
1.02803115268178
2.37564134700666
0.375554366266378
