0 0 0 0 0 0 0 0 0 0 0 0 0 0 -0.631983572036752 0 0 0 0 0 0 0 0 0 0 0 0 0 0 0 0 0 0 0 0 0 0 0 0 0 0 0 0 0 0 0 0 0 0 0
0 0 0 0 0 0 0 0 0 0 0 0 0 0 0 0 0 0 0 0 0 0 0 0 -7.0840671892783 0 0 0 0 0 0 0 0 0 0 0 0 0 0 0 0 0 0 0 0 -2.6333419629475 0 0 0 0
0 0 0 -0.203349258360958 0 0 0 0 0 0 0 -0.844305252596589 0 0 0 0 0 0 0 0 0 0 0 0 -0.181447639507483 0 0 0 0 0 0 0 0 0 0 0 0 0 0 0 0 0 0 0 0 -0.188268462198131 -0.424413916359388 0 0 0
0 0 0.0382778198138818 0 0 0 0 0 0 0 0 0 0 0 0 0 -0.125201725926744 0 0 0 0 0 0 0 -3.27158544559951 0 0 0 0 0 0 0 0 0 0 0 0 0 0 0 0 0 -2.55117316028175 0 0 0 -0.474920958518763 0 0 0
0 0 0 0 0 0 0 0 -1.42545112590332 0 0 0 0 0 0 0 -1.02666335740797 0 0 -0.324438480484309 0 0 0 0 -0.545556475739854 0 0 0 -1.31943877670925 0 0 0 0 0 0 0 0 0 0 0 0 0 -0.439213922372676 0 0 0 0 -0.177432455288765 0 0
0 0 0 0 0 0 0 0 -4.38217621439972 0 0 0 0 0 0 0 0 0 0 -0.504251114686576 0 0 0 0 0 -5.03086980539015 0 0 -0.463933063607179 0 0 0 0 0 0 0 0 0 0 -0.210047156703403 0 0 -0.415632654238774 0 0 0 0 -2.03827072089027 0 0
0 0 0 0 0 0 0 0 -0.761611820962016 0 0 0 0 0 0 0 0 0 0 -1.1315634410766 0 0 0 0 0 -0.792278714185895 -1.0296939496977 0 -0.692437874532909 0 0 0 0 0 0 0 0 0 0 -0.489684137846804 0 0 -0.278034678620423 0 0 0 0 -1.59607544314577 0 0
0 0 0 0 0 0 0 0 0 0 0 0 0 0 0 0 0 0 0 -1.7887904201379 -0.738526333520604 0 0 0 0 -1.00105150533515 -1.32285967559351 0 0 0 0 0 0 0 0 0 0 -1.36613511678575 -0.945328817230027 -5.1139069478671 0 0 0 0 0 0 0 0 0 0
0 0 0 0 0.264766146177464 0.820047466532116 0.158448373641546 0 0 0 0 0 0 0 0 0 0 0 0 -0.0879314092389765 -1.85768885122924 0 0 0 0 0 -2.74186934185201 0 0 0 0 0 0 0 0 0 0 -1.5350523173274 -0.246153185990841 -0.205224984181029 0 0 0 0 0 0 0 0 0 0
0 0 0 0 0 0 0 0 0 0 0 0 0 0 0 0 0 0 0 0 0 0 0 0 0 0 0 -0.451956977723404 0 0 0 0 0 0 0 0 0 -3.03720213489989 -0.572316119934497 -1.18671635966474 0 0 0 0 0 0 0 0 0 0
0 0 0 0 0 0 0 0 0 0 0 0 0 0 0 0 0 0 0 0 0 0 0 0 0 0 0 -2.79954634558254 0 0 0 0 0 0 0 0 0 -3.29221018539357 -5.39183685498536 -0.525434259094427 0 0 0 0 0 0 0 0 0 0
0 0 0.176248079714992 0 0 0 0 0 0 0 0 0 0 -0.508663118796134 0 0 0 0 0 0 0 0 0 0 0 0 0 0 0 0 0 0 0 0 0 0 0 -2.30189199249001 -5.66741360856621 0 0 0 0 0 0 0 0 0 0 0
0 0 0 0 0 0 0 0 0 0 0 0 0 -0.529107256333352 0 0 0 0 0 0 0 0 0 0 0 0 0 0 0 0 0 0 0 0 0 0 0 -3.35187166396538 -6.42554306177247 0 0 0 0 0 0 0 0 0 0 0
0 0 0 0 0 0 0 0 0 0 0 0.103876689270856 0.113530080839683 0 0 0 0 0 0 0 0 0 0 0 0 0 0 0 0 0 0 0 0 0 0 0 0 -11.0575440480958 -0.545766101915036 0 0 0 0 0 0 0 0 0 0 0
0.129219637653436 0 0 0 0 0 0 0 0 0 0 0 0 0 0 0 0 0 -1.30545638060839 0 0 0 0 0 0 0 0 0 0 0 0 0 0 0 0 0 0 0 0 0 0 0 0 0 0 0 0 0 0 0
0 0 0 0 0 0 0 0 0 0 0 0 0 0 0 0 0 -1.12111477546809 -10.4886170470479 0 0 0 0 0 0 0 0 0 0 0 0 -1.03351181458748 0 0 0 0 0 0 0 0 -0.528262885618655 0 0 0 0 0 0 0 0 0
0 0 0 0.0273714000541975 0.191052005702745 0 0 0 0 0 0 0 0 0 0 0 0 -3.3793852602767 -0.182734362559483 0 0 0 0 0 0 0 0 0 0 0 0 -0.36613246670111 0 0 0 0 0 0 0 0 -0.74434669619795 0 0 0 0 0 0 0 0 0
0 0 0 0 0 0 0 0 0 0 0 0 0 0 0 0.225147350112661 0.620805434448602 0 0 0 0 0 0 0 0 0 0 0 0 0 0 -0.439249058679544 0 0 0 0 0 0 0 0 -0.583508454912203 0 0 0 0 0 0 0 -0.699059878003351 0
0 0 0 0 0 0 0 0 0 0 0 0 0 0 0.262120872318297 1.94940315061494 0.0372507799264045 0 0 0 0 0 0 0 0 0 0 0 0 0 0 -1.52796612623183 0 0 0 0 0 0 0 0 -0.416617000815797 0 0 0 0 0 0 0 -2.24687481100822 0
0 0 0 0 0.0709693056395031 0.091883571397987 0.238612773162825 0.346721721382532 0.0168664110832613 0 0 0 0 0 0 0 0 0 0 0 0 0 0 0 0 0 0 0 0 0 0 -1.63741869778521 0 0 0 0 -0.251670640693478 0 0 0 -0.913582448886208 0 0 0 0 0 0 0 -2.36243380675297 0
0 0 0 0 0 0 0 0.139212191614318 0.35044845901816 0 0 0 0 0 0 0 0 0 0 0 0 0 0 0 0 0 0 0 0 0 0 -1.15565957084483 0 0 0 0 -0.58806271531525 0 0 0 -2.81897934773691 0 0 0 0 0 0 0 -0.719661851049855 0
0 0 0 0 0 0 0 0 0 0 0 0 0 0 0 0 0 0 0 0 0 0 0 0 0 0 0 0 0 0 0 -0.925192448515155 0 0 0 0 -2.67728946583922 0 0 0 -0.374351713555887 0 0 0 0 0 0 0 -0.382320571828206 0
0 0 0 0 0 0 0 0 0 0 0 0 0 0 0 0 0 0 0 0 0 0 0 0 0 0 0 0 0 0 0 -0.720557077473591 0 0 0 0 -0.948005785063829 0 0 0 -4.47347832970682 0 0 0 0 0 0 0 -1.35039173819246 0
0 0 0 0 0 0 0 0 0 0 0 0 0 0 0 0 0 0 0 0 0 0 0 0 0 0 0 0 0 0 0 -0.573008062159345 0 0 0 0 -0.80617452093668 0 0 0 -2.08237526242476 0 0 0 0 0 0 0 -0.637158546045719 0
0 1.33340942272115 0.0390868759330263 0.699858518193128 0.104851129689752 0 0 0 0 0 0 0 0 0 0 0 0 0 0 0 0 0 0 0 0 0 0 0 0 0 0 0 0 0 0 0 -2.57317020196773 0 0 0 -2.26981983835675 0 0 -1.01553023105434 -4.28554106305312 0 0 0 -0.2384010859593 0
0 0 0 0 0 0.938423166949239 0.157501348225076 0.216388611143929 0 0 0 0 0 0 0 0 0 0 0 0 0 0 0 0 0 0 0 0 0 -2.37578203617877 0 0 0 0 0 0 0 0 0 0 -2.59116702842632 0 0 -0.447036758007068 0 0 0 0 -7.00717640519845 0
0 0 0 0 0 0 0.238307767228978 0.276459570318804 0.564651682485149 0 0 0 0 0 0 0 0 0 0 0 0 0 0 0 0 0 0 0 0 -0.389313289363933 0 0 0 0 0 0 0 0 0 0 -2.33055180153252 0 0 -0.454492219340044 0 0 0 0 -2.09453510352013 0
0 0 0 0 0 0 0 0 0 0.101482900772074 0.567364805864537 0 0 0 0 0 0 0 0 0 0 0 0 0 0 0 0 0 0 0 0 0 0 0 0 0 0 0 0 0 0 0 0 0 0 0 0 0 0 0
0 0 0 0 0.262671256396738 0.0865333139370414 0.14259469118338 0 0 0 0 0 0 0 0 0 0 0 0 0 0 0 0 0 0 0 0 0 0 0 0 0 0 0 0 0 0 0 0 0 0 0 0 0 0 0 0 0 0 0
0 0 0 0 0 0 0 0 0 0 0 0 0 0 0 0 0 0 0 0 0 0 0 0 0 0.504536285763802 0.0764885016632741 0 0 0 0 0 0 0 0 0 0 0 0 0 0 0 0 0 0 0 0 0 0 -0.88528665426089
0 0 0 0 0 0 0 0 0 0 0 0 0 0 0 0 0 0 0 0 0 0 0 0 0 0 0 0 0 0 0 0 0 -0.621013247683786 0 0 0 0 0 0 0 0 0 0 0 0 0 0 0 -0.874271544982072
0 0 0 0 0 0 0 0 0 0 0 0 0 0 0 0.223609614929954 0.0736851090456712 0.101899106903983 0.28871452911677 0.316567600004803 0.234095914472838 0.192323727628992 0.144648012519135 0.121759614656275 0 0 0 0 0 0 0 0 0 -0.905799886701881 0 0 0 0 0 0 0 0 0 0 0 0 0 0 0 -1.56887816987664
0 0 0 0 0 0 0 0 0 0 0 0 0 0 0 0 0 0 0 0 0 0 0 0 0 0 0 0 0 0 0 0 0 0 0 0 0 0 0 0 0 0 0 0 0 0 0 0 0 -2.22403530975852
0 0 0 0 0 0 0 0 0 0 0 0 0 0 0 0 0 0 0 0 0 0 0 0 0 0 0 0 0 0 0.132425768206712 0.160215334201973 0 0 0 0 0 0 0 0 0 0 0 0 0 0 0 0 0 -0.630274467022835
0 0 0 0 0 0 0 0 0 0 0 0 0 0 0 0 0 0 0 0 0 0 0 0 0 0 0 0 0 0 0 0 0 0 0 0 0 0 0 0 0 0 0 0 0 0 0 0 0 -0.489848471083204
0 0 0 0 0 0 0 0 0 0 0 0 0 0 0 0 0 0 0 0 0 0 0 0 0 0 0 0 0 0 0 0 0 0 0 0 0 0 0 0 0 0 0 0 0 0 0 0 0 -2.72339392975462
0 0 0 0 0 0 0 0 0 0 0 0 0 0 0 0 0 0 0 0.0514704715023992 0.11111744187442 0.555144785094165 0.196213486074099 0.171979544435025 0.533059235074129 0 0 0 0 0 0 0 0 0 0 0 0 0 0 0 0 0 0 0 0 0 0 0 0 -3.30899588238864
0 0 0 0 0 0 0 0.259776713645234 0.2932839298515 0.605298302310851 0.687425572294072 0.514899412367906 0.678574585535364 2.33494864678648 0 0 0 0 0 0 0 0 0 0 0 0 0 0 0 0 0 0 0 0 0 0 0 0 0 0 0 0 0 0 0 0 0 0 0 -2.85795282732489
0 0 0 0 0 0 0 0.199247546537969 0.048762020866801 0.113443739358136 1.04678196352128 1.05563339277706 1.29591050298872 0.106606242107594 0 0 0 0 0 0 0 0 0 0 0 0 0 0 0 0 0 0 0 0 0 0 0 0 0 0 0 0 0 0 0 0 0 0 0 -0.422827690899443
0 0 0 0 0 0.0413809958104056 0.0953381389409492 1.04807656327096 0.0403130553070063 0.225653556860901 0.108662206258308 0 0 0 0 0 0 0 0 0 0 0 0 0 0 0 0 0 0 0 0 0 0 0 0 0 0 0 0 0 0 0 0 0 0 0 0 0 0 -2.69247436420687
0 0 0 0 0 0 0 0 0 0 0 0 0 0 0 0.102409449926405 0.136842776903118 0.124688088660699 0.0808225117202401 0.168817622944858 0.55632402558966 0.0784109354446971 0.783210221791076 0.414968908642934 0.414993566337759 0.533033340939425 0.444874191869194 0 0 0 0 0 0 0 0 0 0 0 0 0 0 0 0 0 0 0 0 0 0 -1.42546190096992
0 0 0 0 0 0 0 0 0 0 0 0 0 0 0 0 0 0 0 0 0 0 0 0 0 0 0 0 0 0 0 0 0 0 0 0 0 0 0 0 0 0 0 0 0 0 0 0 0 -0.187011959526877
0 0 0 0.503066500176449 0.0867036240710948 0.0865430679424819 0.0573741157134174 0 0 0 0 0 0 0 0 0 0 0 0 0 0 0 0 0 0 0 0 0 0 0 0 0 0 0 0 0 0 0 0 0 0 0 0 0 0 0 0 0 0 0
0 0 0 0 0 0 0 0 0 0 0 0 0 0 0 0 0 0 0 0 0 0 0 0 0.201462763077166 0.0893256452823414 0.0914366274508781 0 0 0 0 0 0 0 0 0 0 0 0 0 0 0 0 0 0 0 0 0 0 0
0 0 0 0 0 0 0 0 0 0 0 0 0 0 0 0 0 0 0 0 0 0 0 0 0.89320130938022 0 0 0 0 0 0 0 0 0 0 0 0 0 0 0 0 0 0 0 0 0 0 0 0 0
0 0.528801804023767 0.0372869815601411 0 0 0 0 0 0 0 0 0 0 0 0 0 0 0 0 0 0 0 0 0 0 0 0 0 0 0 0 0 0 0 0 0 0 0 0 0 0 0 0 0 0 0 0 0 0 0
0 0 0.0807519376263475 0.0934249923524605 0 0 0 0 0 0 0 0 0 0 0 0 0 0 0 0 0 0 0 0 0 0 0 0 0 0 0 0 0 0 0 0 0 0 0 0 0 0 0 0 0 0 0 0 0 0
0 0 0 0 0.0346811928927644 0.392487021616183 0.277203529436558 0 0 0 0 0 0 0 0 0 0 0 0 0 0 0 0 0 0 0 0 0 0 0 0 0 0 0 0 0 0 0 0 0 0 0 0 0 0 0 0 0 0 0
0 0 0 0 0 0 0 0 0 0 0 0 0 0 0 0 0 0.147491044785043 0.467056873398063 0.435720514594585 0.134930334207793 0.0767719961809982 0.25446809738315 0.121106083313105 0.0483526143520352 1.46415669155645 0.411149708391802 0 0 0 0 0 0 0 0 0 0 0 0 0 0 0 0 0 0 0 0 0 0 0
0 0 0 0 0 0 0 0 0 0 0 0 0 0 0 0 0 0 0 0 0 0 0 0 0 0 0 0 0 0.176014947137887 0.181795739752513 0.307891079615945 0.48440260999593 0.131591369682479 0.0961295997004138 0.526532962865673 0.669067120169277 0.593045642635256 0.0767977511661756 0.509931133200415 0.26436657631054 0.0358723193342193 0 0 0 0 0 0 0 0
