0.74720385727954
0.559435668505098
1.00587611499969
0.258605989004653
0.233598002136169
0.213852218935621
0.983158139888714
0.125887733612897
0.266785248006648
2.10359425754375
0.295940710140966
0.254736500606782
1.27086593035804
1.51252084502083
0.152123537691136
0.934075140074795
0.426636400729082
0.250085664742747
0.0921840355098145
0.555642741738226
0.195117735942473
0.377054419035717
0.620140664558078
0.112770017545753
1.18155412463544
0.116958702934221
0.639064219121148
0.244256958158301
0.107501499361882
0.599818700498214
0.0838715235806236
0.298394051379866
0.115812631914875
8.02271651063722
0.406683205013195
1.00475569036525
2.65671853541344
0.692633077825199
0.00656620382975663
0.457196969234794
0.0260459297542533
1.86864587383809
0.880047381818037
0.193553915225036
3.26544148452402
0.202204089348922
1.92554661536004
0.354897263928244
0.827277828406554
0.158816542234362
