0.0680063644832826
0.368634697201267
5.05002706358607
1.11498029723821
1.35137856778453
0.676460856990408
2.35688747101106
0.929534474547512
1.23823784847992
0.559940350167178
5.31646465690681
6.61748616241218
2.35050503323656
0.316524987862229
0.770152553390399
0.808383748103211
2.27377400731293
1.32748294895169
3.42120099562513
3.43977464688723
0.546578680002756
0.544252379303851
1.26746835601565
0.626173672289555
1.87411278455551
1.71376791253978
0.254687913512206
0.0838567053142972
0.842599337671458
1.54958829913833
2.46644101138979
1.4942275770852
0.401434666160821
2.48444648647429
2.12848499581494
0.506589345783273
0.446655714512548
1.39411634714418
0.0508754141097
0.536870790581599
0.195885381462256
0.389362872326725
0.760286278791616
0.377820308699308
3.33074055059602
0.0817315516726951
1.6828384501892
0.659437507525406
0.419774289668202
1.8016354298105
