0 0 0 0 0 0 0 0 0 0 0 0 0 0 -0.660306956611918 0 0 0 0 0 0 0 0 0 0 0 0 0 0 0 0 0 0 0 0 0 0 0 0 0 0 0 0 0 0 0 0 0 0 0
0 0 0 0 0 0 0 0 0 0 0 0 0 0 0 0 0 0 0 0 0 0 0 0 -1.54037340370654 0 0 0 0 0 0 0 0 0 0 0 0 0 0 0 0 0 0 0 0 -2.74010503234318 0 0 0 0
0 0 0 -1.12346327283046 0 0 0 0 0 0 0 -0.503976482698742 0 0 0 0 0 0 0 0 0 0 0 0 -2.36628827128977 0 0 0 0 0 0 0 0 0 0 0 0 0 0 0 0 0 0 0 0 -0.847482125208672 -0.228574493282852 0 0 0
0 0 0.229308097533171 0 0 0 0 0 0 0 0 0 0 0 0 0 -0.654144128477554 0 0 0 0 0 0 0 -0.0455893005300727 0 0 0 0 0 0 0 0 0 0 0 0 0 0 0 0 0 -0.537486495946122 0 0 0 -1.73866849814919 0 0 0
0 0 0 0 0 0 0 0 -6.77261479953055 0 0 0 0 0 0 0 -0.821116811524997 0 0 -0.339145577557386 0 0 0 0 -0.375301083498798 0 0 0 -1.16699694704405 0 0 0 0 0 0 0 0 0 0 0 0 0 -6.02161744602877 0 0 0 0 -0.254154572837018 0 0
0 0 0 0 0 0 0 0 -0.727412773446101 0 0 0 0 0 0 0 0 0 0 -3.02615761490502 0 0 0 0 0 -0.774298408229381 0 0 -3.24919052506264 0 0 0 0 0 0 0 0 0 0 -0.175835025843689 0 0 -3.03314676817176 0 0 0 0 -0.411037849321549 0 0
0 0 0 0 0 0 0 0 -0.30320970880792 0 0 0 0 0 0 0 0 0 0 -6.86549243790667 0 0 0 0 0 -1.92648057689611 -0.686660381034742 0 -0.493561611220599 0 0 0 0 0 0 0 0 0 0 -0.6237914766145 0 0 -0.846146665043083 0 0 0 0 -0.841323356708047 0 0
0 0 0 0 0 0 0 0 0 0 0 0 0 0 0 0 0 0 0 -0.584546671848965 -0.650965571414745 0 0 0 0 -1.81657891143815 -0.921793591315059 0 0 0 0 0 0 0 0 0 0 -0.236287258953394 -0.977131621201096 -0.147662063365876 0 0 0 0 0 0 0 0 0 0
0 0 0 0 1.38115565880453 0.147804319151431 0.0619772384808204 0 0 0 0 0 0 0 0 0 0 0 0 -1.96153200913279 -1.0972641580522 0 0 0 0 0 -1.26996148787162 0 0 0 0 0 0 0 0 0 0 -3.25087668014833 -0.495069401317062 -1.56663849555015 0 0 0 0 0 0 0 0 0 0
0 0 0 0 0 0 0 0 0 0 0 0 0 0 0 0 0 0 0 0 0 0 0 0 0 0 0 -0.709891952333316 0 0 0 0 0 0 0 0 0 -0.375504204337197 -0.461562243131944 -0.0457286932730027 0 0 0 0 0 0 0 0 0 0
0 0 0 0 0 0 0 0 0 0 0 0 0 0 0 0 0 0 0 0 0 0 0 0 0 0 0 -1.3876332382702 0 0 0 0 0 0 0 0 0 -0.500051563019396 -0.443519540230205 -4.68023730290388 0 0 0 0 0 0 0 0 0 0
0 0 0.0995637281792652 0 0 0 0 0 0 0 0 0 0 -1.23731669962693 0 0 0 0 0 0 0 0 0 0 0 0 0 0 0 0 0 0 0 0 0 0 0 -0.880461761750864 -1.28897304616789 0 0 0 0 0 0 0 0 0 0 0
0 0 0 0 0 0 0 0 0 0 0 0 0 -1.22021342995555 0 0 0 0 0 0 0 0 0 0 0 0 0 0 0 0 0 0 0 0 0 0 0 -1.1058177273243 -0.854335401495535 0 0 0 0 0 0 0 0 0 0 0
0 0 0 0 0 0 0 0 0 0 0 0.231709176681925 0.259989771479594 0 0 0 0 0 0 0 0 0 0 0 0 0 0 0 0 0 0 0 0 0 0 0 0 -0.345484383070354 -0.830633817337853 0 0 0 0 0 0 0 0 0 0 0
0.112309083381899 0 0 0 0 0 0 0 0 0 0 0 0 0 0 0 0 0 -6.56174792013012 0 0 0 0 0 0 0 0 0 0 0 0 0 0 0 0 0 0 0 0 0 0 0 0 0 0 0 0 0 0 0
0 0 0 0 0 0 0 0 0 0 0 0 0 0 0 0 0 -2.19195859165871 -1.18163456042053 0 0 0 0 0 0 0 0 0 0 0 0 -0.264275001788597 0 0 0 0 0 0 0 0 -0.400443667810015 0 0 0 0 0 0 0 0 0
0 0 0 0.136238656556043 0.161570233220384 0 0 0 0 0 0 0 0 0 0 0 0 -4.49224283343662 -0.683323748497929 0 0 0 0 0 0 0 0 0 0 0 0 -0.132701545004557 0 0 0 0 0 0 0 0 -0.308745976828685 0 0 0 0 0 0 0 0 0
0 0 0 0 0 0 0 0 0 0 0 0 0 0 0 0.448707230724436 0.923879667475804 0 0 0 0 0 0 0 0 0 0 0 0 0 0 -2.23441740927129 0 0 0 0 0 0 0 0 -0.0857486642392212 0 0 0 0 0 0 0 -0.422146509947697 0
0 0 0 0 0 0 0 0 0 0 0 0 0 0 1.24454894691481 0.23747718300726 0.142652361510356 0 0 0 0 0 0 0 0 0 0 0 0 0 0 -0.301121021046857 0 0 0 0 0 0 0 0 -0.0977175910612168 0 0 0 0 0 0 0 -1.54298928493073 0
0 0 0 0 0.071765436865482 0.617867929067974 1.4241413909401 0.111870376723495 0.422347067223369 0 0 0 0 0 0 0 0 0 0 0 0 0 0 0 0 0 0 0 0 0 0 -1.27491163610628 0 0 0 0 -2.24941173851499 0 0 0 -1.62861838754786 0 0 0 0 0 0 0 -2.30878775870089 0
0 0 0 0 0 0 0 0.133260892075307 0.246936564321404 0 0 0 0 0 0 0 0 0 0 0 0 0 0 0 0 0 0 0 0 0 0 -3.09345483967373 0 0 0 0 -0.203377187778532 0 0 0 -1.45849081565706 0 0 0 0 0 0 0 -2.10108700738937 0
0 0 0 0 0 0 0 0 0 0 0 0 0 0 0 0 0 0 0 0 0 0 0 0 0 0 0 0 0 0 0 -1.21773995564415 0 0 0 0 -2.3252838009765 0 0 0 -1.53111809859217 0 0 0 0 0 0 0 -1.05144745720204 0
0 0 0 0 0 0 0 0 0 0 0 0 0 0 0 0 0 0 0 0 0 0 0 0 0 0 0 0 0 0 0 -0.720100812286031 0 0 0 0 -0.110541747151035 0 0 0 -0.294173718981787 0 0 0 0 0 0 0 -0.587454893027902 0
0 0 0 0 0 0 0 0 0 0 0 0 0 0 0 0 0 0 0 0 0 0 0 0 0 0 0 0 0 0 0 -0.841703637741575 0 0 0 0 -0.89296719055218 0 0 0 -1.65584876739172 0 0 0 0 0 0 0 -0.943015749136172 0
0 0.305290791646163 0.437827268682155 0.00864701194741665 0.074208376986851 0 0 0 0 0 0 0 0 0 0 0 0 0 0 0 0 0 0 0 0 0 0 0 0 0 0 0 0 0 0 0 -0.403982226143793 0 0 0 -3.57774906810105 0 0 -0.963430676117971 -4.50827169950512 0 0 0 -0.583915410148922 0
0 0 0 0 0 0.14748478719801 0.368037758159252 0.393668740393803 0 0 0 0 0 0 0 0 0 0 0 0 0 0 0 0 0 0 0 0 0 -0.200533152304306 0 0 0 0 0 0 0 0 0 0 -2.04332570993884 0 0 -0.591290079318231 0 0 0 0 -0.851686703551731 0
0 0 0 0 0 0 0.13288250636583 0.178075484564808 0.256208328857981 0 0 0 0 0 0 0 0 0 0 0 0 0 0 0 0 0 0 0 0 -1.92403568131663 0 0 0 0 0 0 0 0 0 0 -0.29622703360494 0 0 -8.63479051350676 0 0 0 0 -0.403727835879548 0
0 0 0 0 0 0 0 0 0 0.149967640189661 0.262682799313984 0 0 0 0 0 0 0 0 0 0 0 0 0 0 0 0 0 0 0 0 0 0 0 0 0 0 0 0 0 0 0 0 0 0 0 0 0 0 0
0 0 0 0 0.234374296663885 0.624734576520485 0.0959355513893139 0 0 0 0 0 0 0 0 0 0 0 0 0 0 0 0 0 0 0 0 0 0 0 0 0 0 0 0 0 0 0 0 0 0 0 0 0 0 0 0 0 0 0
0 0 0 0 0 0 0 0 0 0 0 0 0 0 0 0 0 0 0 0 0 0 0 0 0 0.0442032799160474 0.390617469833684 0 0 0 0 0 0 0 0 0 0 0 0 0 0 0 0 0 0 0 0 0 0 -0.770388398059369
0 0 0 0 0 0 0 0 0 0 0 0 0 0 0 0 0 0 0 0 0 0 0 0 0 0 0 0 0 0 0 0 0 -1.24284502336024 0 0 0 0 0 0 0 0 0 0 0 0 0 0 0 -1.44790840511746
0 0 0 0 0 0 0 0 0 0 0 0 0 0 0 0.0526041609110722 0.0239554899166259 0.447449561455153 0.061065845954805 0.270966029505122 0.615874639923328 0.255468874438491 0.138689350076964 0.165078701050572 0 0 0 0 0 0 0 0 0 -3.22507956804732 0 0 0 0 0 0 0 0 0 0 0 0 0 0 0 -2.68848568254816
0 0 0 0 0 0 0 0 0 0 0 0 0 0 0 0 0 0 0 0 0 0 0 0 0 0 0 0 0 0 0 0 0 0 0 0 0 0 0 0 0 0 0 0 0 0 0 0 0 -1.61042381407392
0 0 0 0 0 0 0 0 0 0 0 0 0 0 0 0 0 0 0 0 0 0 0 0 0 0 0 0 0 0 0.27316298771517 0.624534599811836 0 0 0 0 0 0 0 0 0 0 0 0 0 0 0 0 0 -1.21880272197379
0 0 0 0 0 0 0 0 0 0 0 0 0 0 0 0 0 0 0 0 0 0 0 0 0 0 0 0 0 0 0 0 0 0 0 0 0 0 0 0 0 0 0 0 0 0 0 0 0 -2.02488101561373
0 0 0 0 0 0 0 0 0 0 0 0 0 0 0 0 0 0 0 0 0 0 0 0 0 0 0 0 0 0 0 0 0 0 0 0 0 0 0 0 0 0 0 0 0 0 0 0 0 -1.14443139528426
0 0 0 0 0 0 0 0 0 0 0 0 0 0 0 0 0 0 0 0.45599799549803 0.0366894043542243 0.506730083356471 0.0212573296834711 0.187818603708316 0.0814334831465524 0 0 0 0 0 0 0 0 0 0 0 0 0 0 0 0 0 0 0 0 0 0 0 0 -0.621585504014623
0 0 0 0 0 0 0 0.0408737159030951 0.631659286914402 0.0720289143937635 0.100216582606758 0.179986698859786 0.216201327154541 0.0667906897957881 0 0 0 0 0 0 0 0 0 0 0 0 0 0 0 0 0 0 0 0 0 0 0 0 0 0 0 0 0 0 0 0 0 0 0 -1.10469878203859
0 0 0 0 0 0 0 0.192666078770483 0.0939166930864863 0.0914211605320257 0.0891964912220278 0.264635836271194 0.168573456001774 0.167852021384087 0 0 0 0 0 0 0 0 0 0 0 0 0 0 0 0 0 0 0 0 0 0 0 0 0 0 0 0 0 0 0 0 0 0 0 -7.40464263895436
0 0 0 0 0 0.0331189146395627 0.12383965837686 0.0300916448086408 0.296036628782244 0.00902678488337868 0.900993346261544 0 0 0 0 0 0 0 0 0 0 0 0 0 0 0 0 0 0 0 0 0 0 0 0 0 0 0 0 0 0 0 0 0 0 0 0 0 0 -1.20781484587397
0 0 0 0 0 0 0 0 0 0 0 0 0 0 0 0.0797352520563004 0.0610421026178891 0.0157088955753389 0.0188160902719519 0.322803887755103 0.303151436706509 0.290415082819574 0.057863070247165 0.317216967326488 0.720283160762699 0.405388792965748 0.0591004022029251 0 0 0 0 0 0 0 0 0 0 0 0 0 0 0 0 0 0 0 0 0 0 -0.885665392071097
0 0 0 0 0 0 0 0 0 0 0 0 0 0 0 0 0 0 0 0 0 0 0 0 0 0 0 0 0 0 0 0 0 0 0 0 0 0 0 0 0 0 0 0 0 0 0 0 0 -0.723832900904271
0 0 0 0.102483622721547 1.34700179102019 0.603888974616046 0.172095254052265 0 0 0 0 0 0 0 0 0 0 0 0 0 0 0 0 0 0 0 0 0 0 0 0 0 0 0 0 0 0 0 0 0 0 0 0 0 0 0 0 0 0 0
0 0 0 0 0 0 0 0 0 0 0 0 0 0 0 0 0 0 0 0 0 0 0 0 0.192107782121111 0.119927820272225 1.82028775344223 0 0 0 0 0 0 0 0 0 0 0 0 0 0 0 0 0 0 0 0 0 0 0
0 0 0 0 0 0 0 0 0 0 0 0 0 0 0 0 0 0 0 0 0 0 0 0 0.885134198355055 0 0 0 0 0 0 0 0 0 0 0 0 0 0 0 0 0 0 0 0 0 0 0 0 0
0 0.545665841445515 0.175566695479472 0 0 0 0 0 0 0 0 0 0 0 0 0 0 0 0 0 0 0 0 0 0 0 0 0 0 0 0 0 0 0 0 0 0 0 0 0 0 0 0 0 0 0 0 0 0 0
0 0 0.0482971370556379 0.334805240909233 0 0 0 0 0 0 0 0 0 0 0 0 0 0 0 0 0 0 0 0 0 0 0 0 0 0 0 0 0 0 0 0 0 0 0 0 0 0 0 0 0 0 0 0 0 0
0 0 0 0 0.0539932697939976 0.0837387117145788 0.175319075955558 0 0 0 0 0 0 0 0 0 0 0 0 0 0 0 0 0 0 0 0 0 0 0 0 0 0 0 0 0 0 0 0 0 0 0 0 0 0 0 0 0 0 0
0 0 0 0 0 0 0 0 0 0 0 0 0 0 0 0 0 0.0882571780335697 0.314994276871471 0.456749726119298 0.399252861044714 0.225922527664771 0.124000411379722 0.190818089208934 0.115701935724315 0.155848807259901 0.0798964141739117 0 0 0 0 0 0 0 0 0 0 0 0 0 0 0 0 0 0 0 0 0 0 0
0 0 0 0 0 0 0 0 0 0 0 0 0 0 0 0 0 0 0 0 0 0 0 0 0 0 0 0 0 0.165132427806987 0.283713951753557 0.535396742126388 0.320038222489077 0.243336609628399 0.408066884021235 0.229764802602435 0.117480673446036 0.207809550041945 1.38720126017735 0.243376073109878 0.199295230719664 0.131346236510042 0 0 0 0 0 0 0 0
