0.0688262008145007
0.603776193183299
1.18501152618572
0.529199559570961
0.294141068139476
0.208937845230419
0.332045880705941
0.0296787119034989
0.0622315676276189
0.636328180167723
0.924890919005209
4.41537815268968
0.0233561877845369
0.617149403070234
0.204063298846634
1.27806809429449
3.45953053394705
0.449255421387633
0.69783943873042
0.302368954343048
3.23542280402191
3.48420310257181
0.531431624992009
3.61373176981595
2.52885149447753
0.0896098488930618
0.786129435738711
0.389399464765216
1.05102686922116
0.436506154611846
0.667345159819098
0.632819529401237
0.0598100388715384
0.103912862332436
0.0708355428419666
4.82899469989314
0.113740212249311
0.147516626150627
1.1793830763752
0.301147514242416
1.16691675274447
0.415308130470541
0.0809984922913134
1.04836485650447
1.09565575098845
0.529351076756993
3.68192280411324
0.205003666442241
0.292617695970925
0.484457494072665
