0 0 0 0 0 0 0 -1.82171964913219 0 0 0 0 0 0 0 0 0 0 0 0 -0.678452098246169 0 0 0 0 0 0 0 0 0 0 0 0 0 0 0 0 0 0 0 0 0 0 -0.0999165201177247 0 0 0 0 0 0
0 0 0 0 0 0 0 -0.673436169395576 0 0 0 0 0 0 0 0 0 0 0 0 -0.638078412170901 0 0 0 0 0 0 0 0 0 0 0 0 0 0 0 0 0 0 0 0 0 0 -1.45512277730872 0 0 0 0 0 0
0 0 0 0 0 0 0 0 0 0 0 0 0 -1.45238680499335 0 0 -1.58229072439393 0 0 0 0 0 0 0 0 0 0 0 0 0 0 0 0 0 0 -0.61435975033805 0 0 0 0 -1.80830515614601 0 0 0 0 0 0 0 0 0
0 0 0 0 0 0 0 0 0 0 0 0 -0.221849417090433 -2.01798912185583 0 0 -1.7601571764307 0 0 0 0 0 0 0 0 0 0 0 0 0 0 0 0 0 0 -1.30497073145413 0 0 0 0 -4.81791240819256 0 0 0 0 0 0 0 0 0
0 0 0 0 0 0 0 0 0 0 0 0 0 -1.93008484875455 -2.55440779966939 0 0 0 0 0 0 0 0 0 0 0 0 0 0 0 0 0 0 0 0 -0.839111039300997 0 0 0 0 -0.805945801629752 0 0 0 0 0 0 0 0 0
0 0 0 0 0 0 -0.2844135514963 0 0 0 0 0 0 -0.835743264260383 0 0 0 0 0 0 0 0 0 0 0 0 0 0 0 0 0 0 0 0 0 -0.298686083444938 0 0 0 -3.7639885119808 -0.463833997346079 0 0 0 0 0 0 0 0 0
0 0 0 0 0 0.0480812546706959 0 0 0 0 0 0 0 -0.839090637868376 0 0 0 0 0 0 0 0 0 0 0 0 0 0 0 0 0 0 0 0 0 -0.494132608889005 0 0 0 -0.394818291134472 -0.372755960291225 0 0 0 0 0 0 0 0 0
0.354558419330818 0.132484689346358 0 0 0 0 0 0 0 0 0 0 0 0 0 0 0 0 -0.722144439523488 0 0 0 0 0 0 0 0 0 0 0 0 0 0 0 0 -0.476280554974343 0 0 0 -1.43457766022875 -1.71896949721955 0 0 0 0 0 0 0 0 0
0 0 0 0 0 0 0 0 0 0 0 0 0 0 0 0 0 0 -0.361584965696158 0 0 0 0 0 0 0 0 0 0 -0.0986291010387754 0 0 0 0 0 0 0 0 0 -0.531018288291787 -0.597953283292275 0 0 0 0 0 0 0 0 0
0 0 0 0 0 0 0 0 0 0 -0.838315857826054 0 0 0 0 0 0 0 -0.536926645542108 0 0 0 0 -0.2224835426344 0 0 0 0 0 0 0 0 -0.749981978487909 0 0 0 0 0 0 -0.211983708434922 0 0 0 0 0 0 0 0 0 0
0 0 0 0 0 0 0 0 0 0.148006404790105 0 1.10205746404785 0 0 0 0 0 0 -1.39281162069702 0 0 0 0 -0.377105489044637 0 0 0 0 0 0 0 0 -0.262458034822376 0 0 0 0 0 0 -0.245756988788722 0 0 0 0 0 0 0 0 0 0
0 0 0 0 0 0 0 0 0 0 -5.40914243625927 0 0 0 0 0 0 0 -2.13150873760265 0 0 0 0 -3.49767071109634 0 0 0 0 0 0 0 0 -0.2481892937899 0 0 0 0 0 0 0 0 0 0 0 0 0 0 0 0 0
0 0 0 0.0435735619729077 0 0 0 0 0 0 0 0 0 0 0 0 0 0 -3.89349886812222 0 0 0 0 -0.0738614335485281 0 0 0 0 0 0 0 0 -2.33064345429215 -0.211848330420281 0 0 0 0 0 0 0 0 0 0 0 0 0 0 0 0
0 0 0.303095402910445 0.380907580828363 0.370295137889958 0.144759222647543 0.161100727130336 0 0 0 0 0 0 0 0 0 0 0 -1.28447835197108 0 0 0 0 -0.517975989313258 0 0 0 0 0 0 0 0 -1.86508694195219 -0.403609917630034 0 0 0 0 0 0 0 0 0 0 0 0 0 0 0 0
0 0 0 0 0.531017973156412 0 0 0 0 0 0 0 0 0 0 0 0 0 -0.20923762856856 0 0 -0.903822226263985 0 -0.741548804283664 0 0 0 0 0 0 0 0 -0.375181632546312 -0.119417392842391 0 0 0 0 0 0 0 0 0 0 0 0 0 0 0 0
0 0 0 0 0 0 0 0 0 0 0 0 0 0 0 0 0 0 0 0 0 0 0 -1.8674643134741 0 -1.42474232082346 0 0 0 0 0 0 -0.0862998862155263 -0.442925792797541 0 0 0 0 0 0 0 0 -1.18048030447647 0 0 0 0 0 0 0
0 0 0.305409115754342 0.35903935081276 0 0 0 0 0 0 0 0 0 0 0 0 0 0 0 0 0 0 -0.368718709007534 0 0 0 0 0 0 0 0 0 -0.955448491250978 0 0 0 0 0 0 0 0 0 0 0 -2.78573079332575 0 0 0 0 0
0 0 0 0 0 0 0 0 0 0 0 0 0 0 0 0 0 0 0 0 0 0 0 0 0 0 0 0 0 0 0 0 -0.241101129733322 0 0 0 0 0 0 0 0 0 0 0 -2.64427930091076 0 0 0 0 0
0 0 0 0 0 0 0 0.141882289299957 0.0736488546227228 0.0990535156663018 0.280416487986655 0.389037649945232 0.794851270942397 0.256945723766601 0.039897376420731 0 0 0 0 0 0 0 0 0 -1.1468563900094 0 0 0 0 0 0 0 -0.508741210944462 0 0 0 0 0 -1.38716228083159 0 0 0 0 0 -1.30213928617178 0 -4.54120302519295 0 0 -1.25886205949969
0 0 0 0 0 0 0 0 0 0 0 0 0 0 0 0 0 0 0 0 0 0 0 0 -0.502481194315922 0 0 0 0 0 0 0 -0.461616449272337 0 0 0 0 0 -0.916559073984499 0 0 0 0 0 -1.1814708984327 0 -7.83395274726346 0 0 -0.579695768662025
0.142004098356895 0.142355920176268 0 0 0 0 0 0 0 0 0 0 0 0 0 0 0 0 0 0 0 0 0 0 0 0 0 0 0 0 0 0 -1.98821036624261 0 0 0 0 0 -1.27442549857504 0 0 0 0 0 -0.480648726228568 0 -2.97595331455721 0 0 0
0 0 0 0 0 0 0 0 0 0 0 0 0 0 0.171292876681632 0 0 0 0 0 0 0 0 0 0 0 0 0 0 0 0 0 0 0 0 0 -1.77170640331294 -0.259421516244224 0 0 0 0 0 0 -0.193837129985825 0 -0.63789068503295 0 0 0
0 0 0 0 0 0 0 0 0 0 0 0 0 0 0 0 0.0742984834662531 0 0 0 0 0 0 0 0 0 0 0 0 0 0 0 0 0 0 0 -1.08783961250765 -4.08698280531814 0 0 0 0 0 0 -2.67073652070852 0 -1.39973829131708 0 0 0
0 0 0 0 0 0 0 0 0 0.0468640779004622 0.0748767224567472 0.685631533843046 0.0150617346017973 0.105486644255046 0.150799314213887 0.374401538634332 0 0 0 0 0 0 0 0 0 0 0 0 0 0 0 0 0 0 0 0 -0.880457275884535 0 0 0 0 0 0 0 0 0 -0.786336584788999 0 -0.30534530569538 0
0 0 0 0 0 0 0 0 0 0 0 0 0 0 0 0 0 0 0.218258802000578 0.101992308841843 0 0 0 0 0 0 0 0 0 0 0 0 0 0 0 0 -0.338072127763868 0 0 0 0 0 0 0 0 0 -11.0122640403616 0 -3.21807910842594 0
0 0 0 0 0 0 0 0 0 0 0 0 0 0 0 0.298311341157939 0 0 0 0 0 0 0 0 0 0 0 0 0 0 0 0 0 0 0 0 -1.08067176743451 0 0 0 0 0 0 0 0 0 -0.841523732277637 0 -1.07283467911651 0
0 0 0 0 0 0 0 0 0 0 0 0 0 0 0 0 0 0 0 0 0 0 0 0 0 0 0 0 0 0 0 0 0 0 0 0 -0.86871286508905 0 0 0 0 0 0 0 0 0 -1.26014518967048 0 -1.19004460749605 0
0 0 0 0 0 0 0 0 0 0 0 0 0 0 0 0 0 0 0 0 0 0 0 0 0 0 0 0 0 0 0 0 0 0 0 0 -0.211256698539052 0 0 0 0 0 0 0 0 0 -4.09991180699004 0 -0.510424139935824 0
0 0 0 0 0 0 0 0 0 0 0 0 0 0 0 0 0 0 0 0 0 0 0 0 0 0 0 0 0 0 0 -3.22321545601228 0 0 0 0 -0.766496664280289 0 0 0 0 -0.992372540709455 0 0 0 0 0 0 0 0
0 0 0 0 0 0 0 0 0.020860128105693 0 0 0 0 0 0 0 0 0 0 0 0 0 0 0 0 0 0 0 0 0 0 0 0 0 0 0 -2.2607538970351 0 0 0 0 -0.0418395420102352 0 0 0 0 0 0 0 0
0 0 0 0 0 0 0 0 0 0 0 0 0 0 0 0 0 0 0 0 0 0 0 0 0 0 0 0 0 0 0 0 0 0 0 0 0 0 0 0 0 -4.63294614407513 0 0 0 0 0 -0.199622036491263 0 0
0 0 0 0 0 0 0 0 0 0 0 0 0 0 0 0 0 0 0 0 0 0 0 0 0 0 0 0 0.602551080956505 0 0 0 0 0 0 0 0 0 0 0 0 -1.85891892745179 0 0 0 0 0 -0.483676892811805 0 0
0 0 0 0 0 0 0 0 0 0.159400239076099 0.053459280119437 0.0551206805548978 0.476857116334645 0.366255695751288 0.0771369539971499 0.0184817833009234 0.183717014176004 0.0518835233550856 0.103147843789577 0.0805604623039927 0.415265022625492 0 0 0 0 0 0 0 0 0 0 0 0 0 0 0 0 0 0 0 0 -1.40726507751002 0 0 0 0 0 -0.457373702154639 0 0
0 0 0 0 0 0 0 0 0 0 0 0 0.0445833431016253 0.0849700453134629 0.0225827585368489 0.0759607384359901 0 0 0 0 0 0 0 0 0 0 0 0 0 0 0 0 0 0 0 0 0 0 0 0 0 -1.91985034959846 0 0 0 0 0 -2.68825208103728 0 0
0 0 0 0 0 0 0 0 0 0 0 0 0 0 0 0 0 0 0 0 0 0 0 0 0 0 0 0 0 0 0 0 0 0 0 0 0 0 0 0 0 -2.28380757317976 0 0 0 0 0 0 0 0
0 0 0.125963015398357 0.250078218933855 0.186727910727575 0.0640361678811118 0.0997725538011809 0.0939088712539379 0 0 0 0 0 0 0 0 0 0 0 0 0 0 0 0 0 0 0 0 0 0 0 0 0 0 0 0 0 0 0 0 0 0 0 0 0 0 0 0 0 0
0 0 0 0 0 0 0 0 0 0 0 0 0 0 0 0 0 0 0 0 0 0.366830389579377 0.225871798686913 0.157773162429446 0.065839046463416 0.221118298151794 0.179827399249717 0.042335286918939 0.143184526004335 0.459774252602621 0 0 0 0 0 0 0 0 0 0 0 0 0 0 0 0 0 0 0 0
0 0 0 0 0 0 0 0 0 0 0 0 0 0 0 0 0 0 0 0 0 0.0537104495930226 0.797746185888922 0 0 0 0 0 0 0 0 0 0 0 0 0 0 0 0 0 0 0 0 0 0 0 0 0 0 0
0 0 0 0 0 0 0 0 0 0 0 0 0 0 0 0 0 0 0.279851806458293 0.173414801998193 0.275555612761417 0 0 0 0 0 0 0 0 0 0 0 0 0 0 0 0 0 0 0 0 0 0 0 0 0 0 0 0 0
0 0 0 0 0 0.685231755421852 0.0833115454716264 0.309728474510161 0.11183439638808 0.0365138350807433 0.0481052043450335 0 0 0 0 0 0 0 0 0 0 0 0 0 0 0 0 0 0 0 0 0 0 0 0 0 0 0 0 0 0 0 0 0 0 -1.43851581482653 0 0 0 0
0 0 0.336392983690975 0.912484122991847 0.155987282636142 0.104723723468662 0.069103568169223 0.358107710800492 0.122896291190265 0 0 0 0 0 0 0 0 0 0 0 0 0 0 0 0 0 0 0 0 0 0 0 0 0 0 0 0 0 0 0 0 0 0 0 0 -1.24995720799455 0 0 0 0
0 0 0 0 0 0 0 0 0 0 0 0 0 0 0 0 0 0 0 0 0 0 0 0 0 0 0 0 0.196894212334385 0.00716255785890371 0.894863113546606 0.3921053818747 0.27972419414686 0.409122119456795 0.4390720856891 0 0 0 0 0 0 0 0 0 0 0 0 0 0 0
0 0 0 0 0 0 0 0 0 0 0 0 0 0 0 0.221815235061191 0 0 0 0 0 0 0 0 0 0 0 0 0 0 0 0 0 0 0 0 0 0 0 0 0 0 0 0 0 0 0 0 0 0
0.020609992247546 0.289771782480678 0 0 0 0 0 0 0 0 0 0 0 0 0 0 0 0 0 0 0 0 0 0 0 0 0 0 0 0 0 0 0 0 0 0 0 0 0 0 0 0 0 0 0 0 0 0 0 0
0 0 0 0 0 0 0 0 0 0 0 0 0 0 0 0 0.559099023989269 0.46647894630772 0.253850483322948 0.225191602291431 0.0883495978805006 0.0376348127484673 0.500741401446451 0 0 0 0 0 0 0 0 0 0 0 0 0 0 0 0 0 0 0 0 0 0 0 0 0 0 0
0 0 0 0 0 0 0 0 0 0 0 0 0 0 0 0 0 0 0 0 0 0 0 0 0 0 0 0 0 0 0 0 0 0 0 0 0 0 0 0.294550245763909 0.229617988012841 0 0 0 0 0 0 0 0 0
0 0 0 0 0 0 0 0 0 0 0 0 0 0 0 0 0 0 0.945525654819284 1.42289642179738 0.670611820382075 0.119325222466679 0.266769819660224 0.150163477103515 2.27243417065666 0.168564953411241 0.259330324838935 0.779884787231875 0 0 0 0 0 0 0 0 0 0 0 0 0 0 0 0 0 0 0 0 0 0
0 0 0 0 0 0 0 0 0 0 0 0 0 0 0 0 0 0 0 0 0 0 0 0 0 0 0 0 0 0 0.0433180633924933 0.0955177737057461 0.0927450503976069 0.534155976330657 0 0 0 0 0 0 0 0 0 0 0 0 0 0 0 0
0 0 0 0 0 0 0 0 0 0 0 0 0 0 0 0 0 0 0 0 0 0 0 0.0614765778268245 0.606122435762528 0.227607088093868 0.245776701304922 0.0980563870958824 0 0 0 0 0 0 0 0 0 0 0 0 0 0 0 0 0 0 0 0 0 0
0 0 0 0 0 0 0 0 0 0 0 0 0 0 0 0 0 0 0.259779449242258 0.10665394749777 0 0 0 0 0 0 0 0 0 0 0 0 0 0 0 0 0 0 0 0 0 0 0 0 0 0 0 0 0 0
