0.16550493196264
0.827424851534063
0.306397040340854
1.05478739039828
0.357026034497086
0.167802875429011
0.0479602421527393
2.64093514683913
0.170567412918221
0.167342920947769
2.41302041971127
0.0535139540377721
0.581455772745273
0.547984537902949
1.25449905789996
1.621946508853
0.462905457457202
0.554550689029907
0.28333451208897
0.306759975170971
0.646532458974198
2.4743160134006
0.0959818319481293
0.575332202180795
1.3373153783581
1.28906252337775
0.242227222263583
0.309854181304879
0.548191593510547
0.792486221631578
0.189373900366089
1.41438258491746
0.990493884588316
3.99298946060202
0.218213924201693
1.32266085868235
0.287412430654431
0.316158701768444
1.75973962021524
0.311725911881312
0.245981259113453
0.890919301543942
0.587042264834677
0.457420489960129
0.855972268479727
1.57364320010976
0.415161119138569
1.97288322662658
0.767982265634767
0.443586983803403
