0 0 0 -0.622500656208232 0 -1.67106781497445 0 0 0 0 0 0 0 0 0 0 0 0 -1.90804653120799 -0.750980942436907 0 0 0 0 0 0 0 0 0 0 0 0 0 0 0 -0.797932551717815 0 0 0 -0.180870319191758 0 0 0 0 0 0 0 0 0 0
0 0 0 0 -2.06561486850079 0 0 0 0 0 0 0 0 0 0 0 -1.49972555639956 0 0 0 0 0 0 0 0 0 0 0 0 0 -1.47513327583063 0 0 0 0 -0.512435391222495 0 0 0 -1.28591404183333 0 0 0 0 0 0 0 0 0 -0.96382028494313
0 0 0 0 0 0 -0.654930737401986 0 0 0 0 0 0 0 0 -2.94497082381662 0 0 0 0 0 0 0 -4.16981912283947 0 0 0 0 0 0 -0.91966707607175 0 0 0 0 0 0 0 0 -0.545932006021146 0 0 0 0 0 0 0 0 0 -0.450662773999377
0.127782210832814 0 0 0 0 0 0 0 0 0 0 0 0 0 0 -8.0097843597044 0 0 0 0 0 0 0 -0.766644432061473 0 0 0 -0.315141692853589 0 0 -1.8171187889439 0 0 0 0 0 0 0 0 -0.105716091039217 0 0 0 0 0 0 0 0 0 -1.80443533983851
0 0.4244265361233 0 0 0 0 0 0 0 0 0 0 -3.3923170705158 0 0 0 0 0 0 0 -1.79954644922612 0 0 0 0 0 0 -0.598420334863306 0 0 0 -3.40575279963486 0 0 0 0 0 0 0 0 0 0 0 0 0 0 0 -3.39060029658216 0 -3.2392858841966
0.343554110141334 0 0 0 0 0 0 0 0 0 0 0 -1.26898582151701 0 0 0 0 0 0 0 -0.436541457169603 0 0 0 0 0 0 -0.952611812444355 0 0 0 -3.76126603458844 0 0 0 0 0 0 0 0 0 0 0 0 0 0 0 -0.803148214514201 0 -1.41381398690963
0 0 0.12642850502386 0 0 0 0 0 0 0 0 0 -1.63143324663692 0 0 0 0 0 0 0 -0.964867166873549 0 0 0 0 0 0 -1.19602768620955 0 0 0 -2.93263183047627 0 0 0 0 0 0 0 0 0 0 0 0 0 0 0 -2.22521268909078 0 -0.378555239360671
0 0 0 0 0 0 0 0 0 0 0 0 -0.738512775032079 0 0 0 0 0 0 0 -1.23109236525452 0 0 0 0 0 0 -0.440090128336263 0 0 0 -4.53843997888442 0 0 0 0 0 0 0 0 0 0 0 0 0 0 0 -1.83681200163685 0 -2.89927530517516
0 0 0 0 0 0 0 0 0 0 0 0 -0.734870700642945 0 0 0 0 0 0 0 -0.325089382572435 0 0 0 0 0 0 -0.328422699635367 0 0 0 0 0 0 0 0 0 0 0 0 0 0 0 0 0 0 0 -7.4854102205844 0 -0.886873607647321
0 0 0 0 0 0 0 0 0 0 0 0 -0.799106932185769 0 0 0 0 0 0 0 -2.15444956554129 0 0 0 0 0 0 -2.65794136871923 0 0 0 0 0 0 0 0 0 0 0 0 0 0 0 0 0 0 0 -5.88334474807734 0 -0.384228306338273
0 0 0 0 0 0 0 0 0 0 0 0 0 0 0 0 0 -2.62696071086423 0 0 -0.510722869300822 0 0 0 0 0 0 -0.351054393131566 0 0 0 0 0 0 0 0 0 0 0 0 0 0 0 0 0 0 0 -3.79706460018958 0 -0.407597781905476
0 0 0 0 0 0 0 0 0 0 0 0 0.394643205922428 0 -0.598562433974921 0 0 0 0 0 0 0 0 0 0 0 0 -0.438245219887282 0 0 0 0 0 0 0 0 0 0 0 0 0 0 0 0 0 0 0 0 0 0
0 0 0 0 0.702775818857476 0.275717605706384 0.331284728907428 0.142921251326381 0.142435599546411 0.147354111870917 0 -2.18663767587062 0 0 -0.207682250253029 0 0 0 0 0 0 0 0 0 0 0 0 -4.58956167039804 0 0 0 0 0 0 0 0 0 0 0 0 0 0 0 0 0 0 0 0 0 0
0 0 0 0 0 0 0 0 0 0 0 0 0 0 -0.158886428535407 0 0 0 0 0 0 0 0 0 0 -0.397726528702549 0 -0.158102836789883 0 0 0 0 0 0 0 0 0 0 -0.430207054032465 0 0 0 0 0 0 0 0 0 0 0
0 0 0 0 0 0 0 0 0 0 0 0.112774454942862 0.0422609602998087 0.0334730806249833 0 0 0 0 0 0 0 0 0 0 0 -0.520658299538853 0 -2.81771391995565 0 0 0 0 0 0 0 0 0 0 0 0 0 0 0 0 0 0 0 0 0 0
0 0 0.603388494926788 1.46730572281183 0 0 0 0 0 0 0 0 0 0 0 0 0 0 0 0 0 0 0 0 0 -0.924674199013917 0 -0.981005315800671 0 0 0 0 0 0 0 0 0 0 0 0 0 0 0 0 0 0 0 0 0 0
0 0.286798761734208 0 0 0 0 0 0 0 0 0 0 0 0 0 0 0 0 0 0 0 0 0 0 0 0 0 0 0 0 0 0 0 0 0 0 0 0 0 0 0 0 0 0 0 0 0 0 0 0
0 0 0 0 0 0 0 0 0 0 0.541484410358625 0 0 0 0 0 0 0 0 0 0 0 0 0 0 0 0 0 0 0 0 0 0 0 0 0 0 0 0 0 0 0 0 0 0 0 0 0 0 0
0.397891947905871 0 0 0 0 0 0 0 0 0 0 0 0 0 0 0 0 0 0 0 0 0 0 0 0 0 0 0 0 0 0 0 0 0 0 0 0 0 0 0 0 0 0 0 0 0 0 0 0 0
0.139632671806283 0 0 0 0 0 0 0 0 0 0 0 0 0 0 0 0 0 0 0 0 0 0 0 0 0 0 0 0 0 0 0 0 0 0 0 0 0 0 0 0 0 0 0 0 0 0 0 0 0
0 0 0 0 0.353587153597737 0.0856732185750789 0.202798689842519 0.244143926443802 0.0596682686340983 0.424194707642317 0.106625211802918 0 0 0 0 0 0 0 0 0 0 0 0 0 0 0 -5.14699267523013 0 0 0 0 0 0 0 0 0 0 0 0 0 0 0 0 0 0 0 0 0 0 0
0 0 0 0 0 0 0 0 0 0 0 0 0 0 0 0 0 0 0 0 0 0 0 0 -2.13280611148946 0 -0.337084245670556 0 0 0 0 0 -0.289819079755881 0 0 0 0 0 0 0 0 0 0 0 0 0 0 0 0 0
0 0 0 0 0 0 0 0 0 0 0 0 0 0 0 0 0 0 0 0 0 0 0 0 -0.210827968222736 0 -0.317154980557925 0 0 0 0 0 -2.69282368340092 0 0 0 0 0 0 0 0 0 0 0 0 0 0 0 0 0
0 0 0.790543696577301 0.14578211528768 0 0 0 0 0 0 0 0 0 0 0 0 0 0 0 0 0 0 0 0 0 0 -1.50123446538826 0 0 0 0 0 -1.99074723694793 0 0 0 0 0 0 0 0 0 0 0 0 0 0 0 0 0
0 0 0 0 0 0 0 0 0 0 0 0 0 0 0 0 0 0 0 0 0 0.451175748043603 0.040241695656759 0 0 0 -0.200997047036687 0 0 0 0 0 0 0 -1.51916404349688 0 0 -0.621522354530966 0 0 0 0 0 0 0 0 0 0 -4.94904052415109 0
0 0 0 0 0 0 0 0 0 0 0 0 0 0.0829355316116278 0.106961687915838 0.19085335983296 0 0 0 0 0 0 0 0 0 0 -0.709758854202599 0 0 0 0 0 0 0 -0.619760440848872 0 0 -1.62923594749899 0 0 0 0 0 0 0 0 0 0 -1.10756765916439 0
0 0 0 0 0 0 0 0 0 0 0 0 0 0 0 0 0 0 0 0 0.953992379569247 0.0685498940095822 0.067134383282307 0.291313404580131 0.042344442822752 0.138264914256509 0 0 0 0 0 0 0 0 -0.0996476121670419 0 0 0 0 0 0 0 0 0 0 0 0 0 -1.76243105803117 0
0 0 0 0.0601932379541968 0.106464686854643 0.204210144445656 0.22762623742043 0.0932973703681235 0.0626855484355503 0.556873607243922 0.0739430253336214 0.0844006872527109 0.863381211655543 0.0348107837477177 0.59210787072113 0.205875528809307 0 0 0 0 0 0 0 0 0 0 0 0 0 0 0 0 0 0 -1.2219783275692 0 0 0 0 0 0 0 0 0 0 0 0 0 -1.23995308762311 0
0 0 0 0 0 0 0 0 0 0 0 0 0 0 0 0 0 0 0 0 0 0 0 0 0 0 0 0 0 0 0 0 0 0 0 0 0 0 0 0 0 0 0 0 0 0 0 0 -0.303110099028691 0
0 0 0 0 0 0 0 0 0 0 0 0 0 0 0 0 0 0 0 0 0 0 0 0 0 0 0 0 0 0 0 0 0 0 0 0 0 0 0 0 0 0 0 0 0 0 0 0 -3.79520386408761 0
0 0.285738836109174 0.187046653605875 0.353999018628051 0 0 0 0 0 0 0 0 0 0 0 0 0 0 0 0 0 0 0 0 0 0 0 0 0 0 0 0 0 0 0 0 0 0 0 0 0 0 0 0 0 0 0 0 -1.67389617549874 0
0 0 0 0 0.652945772870723 0.784448099960983 0.624648135705089 0.870354010116546 0 0 0 0 0 0 0 0 0 0 0 0 0 0 0 0 0 0 0 0 0 0 0 0 0 0 0 0 0 0 0 0 0 0 -5.35876416675929 0 0 0 0 0 -0.736062278049949 0
0 0 0 0 0 0 0 0 0 0 0 0 0 0 0 0 0 0 0 0 0 0.0585118769104206 0.550442567790778 0.411553185941854 0 0 0 0 0 0 0 0 0 0 0 0 0 0 0 0 0 0 -2.9274468764025 0 0 0 0 0 -0.851303950118418 0
0 0 0 0 0 0 0 0 0 0 0 0 0 0 0 0 0 0 0 0 0 0 0 0 0 0 0 0 0 0 0 0 0 0 0 0 0 0 0 0 -0.781622899537138 0 -0.951160026099912 0 0 0 0 0 -2.42028594384262 0
0 0 0 0 0 0 0 0 0 0 0 0 0 0 0 0 0 0 0 0 0 0 0 0 0.299986456490349 0.130751489940898 0.0210551873931166 0.259599760703615 0 0 0 0 0 0 0 0 0 0 0 0 -0.424299037194707 0 -0.277350269651313 0 0 0 0 0 -1.430087752154 0
0.163438970526939 0.107647406840576 0 0 0 0 0 0 0 0 0 0 0 0 0 0 0 0 0 0 0 0 0 0 0 0 0 0 0 0 0 0 0 0 0 0 0 0 0 0 -0.412923529856068 0 -2.50667750454925 0 -0.631873948491149 0 0 0 -0.719987267121533 0
0 0 0 0 0 0 0 0 0 0 0 0 0 0 0 0 0 0 0 0 0 0 0 0 0 0 0 0 0 0 0 0 0 0 0 0 0 0 0 0 -6.62904380233667 0 -0.929290025519039 0 -0.882798717012231 0 0 0 -0.61321618412263 0
0 0 0 0 0 0 0 0 0 0 0 0 0 0 0 0 0 0 0 0 0 0 0 0 0.123076115908328 0.325307106204871 0 0 0 0 0 0 0 0 0 0 0 0 0 0 -3.01708322276729 0 -0.207896324732009 0 -0.592679034435771 0 0 0 -0.427070668857126 0
0 0 0 0 0 0 0 0 0 0 0 0 0 0.0877645843400513 0 0 0 0 0 0 0 0 0 0 0 0 0 0 0 0 0 0 0 0 0 0 0 0 0 0 -0.858094249830767 -12.2316820696553 0 0 -1.1881655991351 0 0 0 -2.24348187731588 0
0.033894971605725 0.244175916661247 0.110729543059434 0.0224969221024353 0 0 0 0 0 0 0 0 0 0 0 0 0 0 0 0 0 0 0 0 0 0 0 0 0 0 0 0 0 0 0 0 0 0 0 0 -5.38960023527582 0 0 0 -0.532473515589057 0 0 0 0 0
0 0 0 0 0 0 0 0 0 0 0 0 0 0 0 0 0 0 0 0 0 0 0 0 0 0 0 0 0 0 0 0 0 0.15694732701383 0.0803455737902094 0.083209590951749 1.381987223256 0.578096298435458 0.160210358605007 1.08419486267519 0 0.56275384706975 0.106099328074999 -0.651786661665959 0 0 0 0 0 0
0 0 0 0 0 0 0 0 0 0 0 0 0 0 0 0 0 0 0 0 0 0 0 0 0 0 0 0 0 0 0 0 0 0 0 0 0 0 2.54396728810612 0 -2.6215410811687 0 0 -0.474904613383074 0 0 0 0 0 0
0 0 0 0 0 0 0 0 0 0 0 0 0 0 0 0 0 0 0 0 0 0 0 0 0 0 0 0 0 0 0 1.07201191067175 0.638414963440714 0.195445201505574 0.0539589966796261 0.51513106495182 0.180003520601991 0.0397515758494848 0 0 -0.509292153055334 0 0 0 0 0 0 0 0 0
0 0 0 0 0 0 0 0 0 0 0 0 0 0 0 0 0 0 0 0 0 0 0 0 0 0 0 0 0 0 0 0 0 0 0 0 0 0 0 0 0.125181356291299 0.092691118460227 0 0 0 0 0 0 0 0
0 0 0 0 0 0 0 0 0 0 0 0 0 0 0 0 0 0 0 0 0 0 0 0 0 0 0 0 0 0 0 0 0 0 0 0.132468933327423 0.188699568600114 0.121040393404989 0.233514568011009 0.108510492274299 0 0 0 0 0 0 -0.846853364274812 0 0 0
0 0 0 0 0 0 0 0 0 0 0 0 0 0 0 0 0 0 0 0 0 0 0 0 0 0 0 0 0 0 0 0 0 0 0 0 0 0 0 0 0 0 0 0 0 0 -2.79085704370803 0 0 0
0 0 0 0 0 0 0 0 0 0 0 0 0 0 0 0 0 0 0 0 0 0 0 0 0 0 0 0 0 0 0 0 0 0 0 0 0 0 0 0 0 0 0 0 0.156273462898597 0.507122536085398 0 0 0 0
0 0 0 0 0.68928402214518 0.171249880903158 0.468844650413603 0.373454792433263 1.55888459182444 1.16527717237613 0.774951625453964 0 0 0 0 0 0 0 0 0 0 0 0 0 0 0 0 0 0 0 0 0 0 0 0 0 0 0 0 0 0 0 0 0 0 0 0 0 0 0
0 0 0 0 0 0 0 0 0 0 0 0 0 0 0 0 0 0 0 0 0 0 0 0 1.09648763047514 0.213370128913342 0.357476483926034 0.246556053692294 0.0651665682619731 0.746355775936062 0.358838245956375 0.147488477871369 0.177016843275948 0.471247580482649 0.282182881915454 0.150054690966793 0.121094132192007 0.0858967408414693 0.430076663412549 0 0 0 0 0 0 0 0 0 0 0
0 0.202378697195884 0.0911617730727814 0.372416951916288 0.659540192748746 0.292241370813529 0.0780905793706705 0.579333543106781 0.175416031777577 0.0790432640134451 0.0841757344074485 0 0 0 0 0 0 0 0 0 0 0 0 0 0 0 0 0 0 0 0 0 0 0 0 0 0 0 0 0 0 0 0 0 0 0 0 0 0 0
