1.6443685069504
1.09722692758439
1.57248504815424
1.17194342801819
0.700782961184363
0.716518776237446
0.856329716896635
0.367610347347511
0.810439259099652
0.4000389977465
0.252837651210692
1.22577137753046
0.689850950225127
0.597982342895009
0.509794911247298
0.652378158184188
0.503763396581965
0.797695827041734
1.56984339753276
0.387434153682936
0.256547483030283
0.516754898016031
0.405043178310907
0.907438154353609
1.58714385284791
1.70168082587149
1.15900370558269
1.58180154180598
0.18837040637522
0.504036110283096
1.35529603291399
0.378189286343577
0.747284868838337
0.372059361905248
0.319771869130628
0.624020922442704
0.227768829761626
0.635497586349172
0.658397927045469
1.46526334380909
0.151873752252094
0.549587688881895
0.222755398573336
0.386984806829708
0.29785291239476
0.532665126124702
1.70668762710327
1.75060159645711
0.264993921245658
1.15327436578683
