0.564191143997795
0.790817432021863
0.246874490730452
0.150009078009902
1.03506606782707
0.981248345403837
1.05659658114627
1.30647842689718
1.58292151066435
2.73437061528507
0.461353198598878
0.121856455054533
0.325147490864865
0.271448150166281
2.00638747888277
0.631437288997029
2.23153786721259
2.99560159238364
2.20316282331617
0.288015922108019
1.43607739535535
0.570879009594518
1.79526012125397
1.88373046701863
0.668906214647726
0.504181231430138
0.755963294831747
1.13263101289132
1.32280157677357
0.688299917783715
0.568156118070676
0.0779496666761144
1.85578388239549
2.04172705125382
0.459440796300164
0.678888039425979
0.606559485331287
0.596640550664074
0.244214072217238
1.40212291628166
0.65114279756777
0.927787304521262
0.77014885030948
2.53697385970176
0.413101258988186
1.92312058590423
0.346914107570016
2.4684284631179
0.517281463361366
0.4770752365508
