0 0 0 0 0 0 0 0 0 0 0 0 0 -1.12184865686567 0 0 0 0 0 0 0 0 0 0 0 0 0 0 -1.24692107281278 0 0 0 0 0 0 0 0 0 0 0 0 0 0 0 0 0 0 0 0 0
0 0 0 0 -3.8289379077952 0 0 0 0 0 0 -1.74193431597566 0 -0.191255824443647 0 0 0 0 0 0 0 0 0 0 0 0 0 0 -0.451291394177266 0 0 0 0 0 0 0 0 0 0 0 0 0 0 0 0 0 0 0 0 0
0 0 0 0 0 0 0 -0.117123137332759 0 0 0 0 0 0 0 0 0 0 0 0 0 0 0 0 0 0 0 0 0 0 0 0 0 0 0 0 0 0 0 0 0 0 0 0 0 0 0 0 0 0
0 0 0 0 0 0 0 -0.384192801196575 0 0 0 0 0 0 0 0 0 0 0 0 0 0 0 0 0 0 0 0 0 0 0 0 0 0 0 0 0 0 0 0 0 0 0 0 0 0 0 0 0 0
0 0.810593431178845 0 0 0 0 0 -8.4153038096499 0 0 0 0 0 0 0 0 0 0 0 0 -1.97692656336513 0 0 0 0 0 0 0 0 0 0 0 0 0 0 0 0 0 0 0 0 0 0 0 0 0 0 0 0 0
0 0 0 0 0 0 0 -1.44481492280093 0 0 0 0 0 0 0 0 0 0 0 0 -0.446707685490445 0 0 0 0 0 0 0 0 0 0 0 0 0 0 0 0 0 0 0 0 0 0 0 0 0 0 0 0 0
0 0 0 0 0 0 0 0 0 0 0 0 0 0 0 0 0 0 0 0 -0.420074605827268 0 0 0 0 0 0 0 0 0 0 0 0 0 0 0 0 0 0 0 0 0 0 0 0 0 0 0 0 0
0 0 0.0220979129429906 0.0765173986036332 1.58286553121795 0.2994387569568 0 0 0 0 0 0 0 0 0 0 -0.418273923181724 0 0 -0.828987710081861 -1.38990072842313 0 0 0 0 -0.636419602271756 0 0 0 0 0 0 0 0 0 0 0 0 0 0 0 0 0 0 0 0 0 0 0 0
0 0 0 0 0 0 0 0 0 0 0 0 -5.28257589289184 0 0 0 0 0 0 -0.284554357303734 -1.14974706016492 0 0 0 0 -0.375759746636314 0 -2.19652239382804 0 -2.11985207248717 0 0 0 0 0 0 0 0 0 0 -11.4934467190798 0 0 0 0 0 0 0 0 0
0 0 0 0 0 0 0 0 0 0 -2.69277792966817 0 -0.300765652891427 0 0 -0.314514207774413 0 0 0 -0.719401233971283 0 0 0 0 0 -0.819018391706863 0 -0.133614131421143 0 0 0 0 0 0 0 0 0 0 0 0 -0.0712418732748075 0 0 0 0 0 0 0 0 0
0 0 0 0 0 0 0 0 0 0.561664461338664 0 0 0 0 0 -0.486387315684203 0 0 0 -1.67531733099562 0 0 0 0 0 -3.72448683286063 0 -2.394035903933 0 0 0 0 0 0 0 0 0 0 0 0 0 0 0 0 0 0 0 0 0 0
0 0.345651576461347 0 0 0 0 0 0 0 0 0 0 0 0 0 -0.758012524982437 0 0 0 0 0 0 0 0 0 -4.18502883666654 0 -1.30083732623241 0 0 0 0 0 0 0 0 -4.75963261964001 0 0 0 0 0 0 0 0 0 0 0 0 0
0 0 0 0 0 0 0 0 1.03917243323145 0.0595263351144388 0 0 0 0 -2.95902192393995 0 0 -1.03811849041162 0 0 0 0 0 0 0 0 0 -0.837894733747923 0 0 0 0 0 0 0 0 -0.75561805074772 0 0 0 0 0 0 0 0 0 0 0 0 0
0.241945228020649 0.037551155483966 0 0 0 0 0 0 0 0 0 0 0 0 -0.842112422019881 0 0 -0.587863633757885 0 0 0 0 0 0 0 0 0 -1.53642298803186 0 0 0 0 0 0 0 0 -1.07139043463611 0 0 0 0 0 0 0 0 0 0 0 0 0
0 0 0 0 0 0 0 0 0 0 0 0 0.590856367837083 0.177478459843379 0 0 0 0 0 0 0 0 0 -1.15221750455476 0 0 0 -9.9971033032207 0 0 0 0 0 0 0 0 -0.870599025852169 0 -1.72782637540271 0 0 0 0 0 0 0 -2.06670034281034 0 0 0
0 0 0 0 0 0 0 0 0 0.0603669141603392 0.100371746899437 0.137451309261468 0 0 0 0 0 0 0 0 0 0 0 -0.297878418188706 0 0 0 -0.341737088975109 0 0 0 0 0 0 0 0 -0.626817176928066 0 -0.149625667815328 0 0 0 0 0 0 0 -0.219004402805948 0 0 0
0 0 0 0 0 0 0 0.0845477792993465 0 0 0 0 0 0 0 0 0 0 0 0 0 0 0 0 0 0 0 -1.29514753839719 0 0 -2.95288336756106 0 0 0 0 0 -1.36732313325449 0 -6.27803267689827 0 0 0 0 0 0 0 -0.860605034084734 0 0 0
0 0 0 0 0 0 0 0 0 0 0 0 0.221619788297128 0.116902678413274 0 0 0 0 -1.69605739800109 0 0 0 0 0 0 0 0 0 0 0 -1.89770852025626 0 0 0 0 0 -0.905075845526547 0 -0.826336663150084 0 0 0 0 0 0 0 -0.909690798678835 0 0 0
0 0 0 0 0 0 0 0 0 0 0 0 0 0 0 0 0 0.320929479686534 0 0 0 0 0 0 0 0 0 0 0 0 -1.00960114539236 -3.93942054817845 0 0 0 0 -0.393279836395191 0 0 0 0 0 0 0 0 0 0 0 0 0
0 0 0 0 0 0 0 0.166454573009841 0.0610503440260829 0.152809382335951 0.313268244075935 0 0 0 0 0 0 0 0 0 0 0 -1.61996856038461 0 0 0 0 0 0 0 -0.0736910649550922 -0.283074707379873 0 0 0 0 0 0 0 0 0 0 0 0 -0.544518635328558 0 0 0 0 0
0 0 0 0 0.407291762909249 0.0822589809409196 0.0816797383693673 0.284238567009647 0.218534228958083 0 0 0 0 0 0 0 0 0 0 0 0 0 -1.9399107244105 0 0 0 0 0 0 0 -0.316771775334193 -0.954412616959558 0 0 0 0 0 0 0 0 0 0 0 0 -1.77223601022364 0 0 0 0 0
0 0 0 0 0 0 0 0 0 0 0 0 0 0 0 0 0 0 0 0 0 0 -3.02516625720204 0 0 0 0 0 0 0 -2.26354359540765 -0.223679957809359 0 0 0 0 0 0 0 0 0 0 0 0 0 0 0 0 0 0
0 0 0 0 0 0 0 0 0 0 0 0 0 0 0 0 0 0 0 0.315512841760247 0.386329912395482 0.585871143087073 0 0 0 0 0 0 0 0 0 0 -0.516099545097967 0 0 0 0 0 0 0 0 0 0 0 0 -0.678567113468709 0 0 0 -1.55644792058102
0 0 0 0 0 0 0 0 0 0 0 0 0 0 0.248605591996464 0.0639905995235477 0 0 0 0 0 0 0 0 0 0 0 0 0 0 0 0 0 0 0 0 0 0 0 0 0 0 0 0 0 0 0 0 0 -1.21431829752469
0 0 0 0 0 0 0 0 0 0 0 0 0 0 0 0 0 0 0 0 0 0 0 0 0 0 0 0 0 0 0 0 0 0 0 0 0 0 0 0 0 0 0 0 0 0 0 0 0 -1.41399958731948
0 0 0 0 0 0 0 0.129281551125742 0.0753829177962251 0.167899340933911 0.699986180426092 0.768614743821821 0 0 0 0 0 0 0 0 0 0 0 0 0 0 0 0 0 0 0 0 0 0 0 0 0 0 0 0 0 0 0 0 0 0 0 0 -0.707211103116731 -1.0792367910902
0 0 0 0 0 0 0 0 0 0 0 0 0 0 0 0 0 0 0 0 0 0 0 0 0 0 0 0 0 0 0 0 0 0 0 0 0 0 0 0 0 0 0 0 0 0 0 0 -1.1880608703 -1.27892443040337
0 0 0 0 0 0 0 0 0.4768381024001 0.0268399275529279 0.517632149673038 0.275202842863559 0.185363863688979 0.314850598384294 1.87889135045573 0.0674539577065716 0.269910156123814 0 0 0 0 0 0 0 0 0 0 0 0 0 0 0 0 0 0 0 0 0 0 0 0 0 0 0 0 0 0 0 0 -1.51710275388068
0.256066124752096 0.0904339776241907 0 0 0 0 0 0 0 0 0 0 0 0 0 0 0 0 0 0 0 0 0 0 0 0 0 0 0 0 0 0 0 0 0 0 0 0 0 -2.45822423875493 0 0 0 0 0 0 0 0 0 -2.53801679235086
0 0 0 0 0 0 0 0 0.412242934604098 0 0 0 0 0 0 0 0 0 0 0 0 0 0 0 0 0 0 0 0 0 0 0 0 0 0 0 0 0 0 -2.20647535915283 0 0 0 0 0 0 0 0 0 -9.25826164584554
0 0 0 0 0 0 0 0 0 0 0 0 0 0 0 0 0.610838621125365 0.403651977199778 0.183350601449499 0.014436866384301 0.0645093292206395 0.469811912978674 0 0 0 0 0 0 0 0 0 0 0 0 0 0 0 0 0 0 0 0 0 0 0 0 0 0 0 0
0 0 0 0 0 0 0 0 0 0 0 0 0 0 0 0 0 0 0.826843405992678 0.0585027294789965 0.186973269061021 0.0433177226341094 0 0 0 0 0 0 0 0 0 0 0 0 0 0 0 0 0 0 0 0 0 0 0 0 0 0 0 0
0 0 0 0 0 0 0 0 0 0 0 0 0 0 0 0 0 0 0 0 0 0 0.102835156110498 0 0 0 0 0 0 0 0 0 0 0 0 0 0 0 0 0 0 0 0 0 0 0 0 0 0 0
0 0 0 0 0 0 0 0 0 0 0 0 0 0 0 0 0 0 0 0 0 0 0 0 0 0 0 0 0 0 0 0 0 0 0 0 0 0 0 0 0 0 -0.751831599864361 0 0 0 0 0 0 0
0 0 0 0 0 0 0 0 0 0 0 0 0 0 0 0 0 0 0 0 0 0 0 0 0 0 0 0 0 0 0 0 0 0 0 0 0 0 0 0 0 0 -0.629399291941447 0 0 0 0 0 0 0
0 0 0 0 0 0 0 0 0 0 0 0 0 0 0 0 0 0 0 0 0 0 0 0 0 0 0 0 0 0 0 0 0 0 0 0 0 0 0 0 0 0 -0.589801299772194 0 0 0 0 0 0 0
0 0 0 0 0 0 0 0 0 0 0 0.952224830328643 0.147799979222191 0.209325899164931 0.166665405123894 0.117227922924869 0.267650601771898 0.177346115085846 0.0787611523394983 0 0 0 0 0 0 0 0 0 0 0 0 0 0 0 0 0 0 0 0 0 0 0 -5.21753654759977 0 0 0 0 0 0 0
0 0 0 0 0 0 0 0 0 0 0 0 0 0 0 0 0 0 0 0 0 0 0 0 0 0 0 0 0 0 0 0 0 0 0 0 0 0 0 0 0 0 -1.36208697147176 0 0 0 0 0 0 0
0 0 0 0 0 0 0 0 0 0 0 0 0 0 0.328089752963371 0.0297022541923023 1.25500061844662 0.172973164121392 0 0 0 0 0 0 0 0 0 0 0 0 0 0 0 0 0 0 0 0 0 0 0 0 -5.15963331299243 0 0 0 0 0 0 0
0 0 0 0 0 0 0 0 0 0 0 0 0 0 0 0 0 0 0 0 0 0 0 0 0 0 0 0 0.476566823516174 0.434898965968417 0 0 0 0 0 0 0 0 0 0 0 0 0 0 0 0 0 0 0 0
0 0 0 0 0 0 0 0 2.28671237796207 0.0165094685377039 0 0 0 0 0 0 0 0 0 0 0 0 0 0 0 0 0 0 0 0 0 0 0 0 0 0 0 0 0 0 0 0 0 -2.13082682005803 0 0 0 -1.8528876354986 0 0
0 0 0 0 0 0 0 0 0 0 0 0 0 0 0 0 0 0 0 0 0 0 0 0 0 0 0 0 0 0 0 0 0 0 0 0 0 0 0 0 0 0 0 -0.677756512519476 0 0 0 -2.95073250424742 0 0
0 0 0 0 0 0 0 0 0 0 0 0 0 0 0 0 0 0 0 0 0 0 0 0 0 0 0 0 0 0 0 0 0 0.142133525706616 0.128160947765249 0.125260922100192 1.06116355095528 0.278582356328612 0.903222591612114 0 0 0 0 -0.746414557133223 0 0 0 -0.941028610516797 0 0
0 0 0 0 0 0 0 0 0 0 0 0 0 0 0 0 0 0 0 0 0 0 0 0 0 0 0 0 0 0 0 0 0 0 0 0 0 0 0 0 0.442050515620072 0.133683630129354 0.149732451579186 0 0 0 0 0 0 0
0 0 0 0 0 0 0 0 0 0 0 0 0 0 0 0 0 0 0 0.102057872641359 0.364234530721471 0 0 0 0 0 0 0 0 0 0 0 0 0 0 0 0 0 0 0 0 0 0 0 0 0 0 0 0 0
0 0 0 0 0 0 0 0 0 0 0 0 0 0 0 0 0 0 0 0 0 0 0.143139494350126 0 0 0 0 0 0 0 0 0 0 0 0 0 0 0 0 0 0 0 0 0 0 0 0 0 0 0
0 0 0 0 0 0 0 0 0 0 0 0 0 0 0.465932785743587 0.044662405038941 0.171798841826108 0.165570316103686 0 0 0 0 0 0 0 0 0 0 0 0 0 0 0 0 0 0 0 0 0 0 0 0 0 0 0 0 0 0 0 0
0 0 0 0 0 0 0 0 0 0 0 0 0 0 0 0 0 0 0 0 0 0 0 0 0 0 0 0 0 0 0 0 0 0 0 0 0 0 0 0 0.388609738080554 0.634037070635306 0.197152248208479 0 0 0 0 0 0 0
0 0 0 0 0 0 0 0 0 0 0 0 0 0 0 0 0 0 0 0 0 0 0 0 0 0.138938234564645 0.228703449158029 0 0 0 0 0 0 0 0 0 0 0 0 0 0 0 0 0 0 0 0 0 0 0
0 0 0 0 0 0 0 0 0 0 0 0 0 0 0 0 0 0 0 0 0 0 0.325361326234363 0.248509620445199 0.284981869869075 0.221024194594553 0.255334564832334 0.312499098027961 0.488180279650446 1.84721659341462 0 0 0 0 0 0 0 0 0 0 0 0 0 0 0 0 0 0 0 0
