0.637196694015406
1.48245425360485
0.948121426753881
2.17352814132491
0.644772033152762
2.02273704103267
0.958710126444091
1.49793816304627
5.7549357082245
4.68335411839466
0.45893771434569
0.253436282511988
0.361259357987376
0.29426521128116
0.562088475349802
0.384106474106831
1.61530288272773
2.18487300614242
0.31622195017318
2.29617951942862
3.89227460342242
2.50842322079871
1.22255589327265
1.19510562297418
0.620463074746551
1.53130510815737
0.632520334035348
1.12609618725335
0.258201514514058
1.13167726472707
2.02505030214285
1.03504380581256
1.36648991243807
0.658267561057322
2.41589498733593
0.978039960649494
0.283923214285283
0.628175602592642
2.35187527189988
0.167782209956373
1.4725003174475
0.850304356168687
0.145220209020746
0.0966057119664221
1.10311972104668
2.93471063204324
0.502413384613819
0.928009515459308
0.141338512600436
1.39091134557654
