0.911594783629223
2.79556053840774
0.377261983481137
1.41722004139777
0.469130577564901
1.10166554359907
0.587804634312541
0.87749949342588
1.29806337480982
0.462937124425822
1.93040205529716
1.9573813150007
0.210453637050289
0.0538445184543029
0.283490305045914
2.29176920889854
2.49311556097144
0.302078836198379
0.75116682037267
0.623422096930652
0.771033595597302
0.85940738316558
1.64196364213649
3.17529048442973
2.08255720291129
0.516355680006845
1.9290962448047
0.571294252116517
0.852183548177195
1.88815355246962
0.847718557204892
0.698678341003431
2.15236002839747
0.728005018939586
2.66378272943882
3.04878776088515
1.67103654840021
0.849454226365807
0.272904253784701
0.378602758522994
0.374003182645838
1.05394460359215
0.410187122604189
0.537152044898428
0.568137649737623
0.387676672594273
0.24353151898339
0.934162500685857
2.62622184776256
0.348258976898421
