0.657579192496373
0.926193455720573
0.505370076291377
0.322702358096588
6.1757154481242
0.184329747659618
5.63194580890811
0.198125950941255
0.166586457955557
0.295365213488294
0.0107154067206668
0.385756635295364
0.152095743357601
0.249062886605874
0.322481164225822
0.89055971662769
2.15127019893873
1.24310410517559
1.41498930232265
0.600413869928498
1.31633146074659
0.923364720203697
0.0724067173561936
1.88229281322579
0.192542439399427
0.0978524528726582
0.846572829705452
0.221109061809939
5.651106824822
0.124041178539024
0.55187546689088
0.855647623919995
0.090999321994836
0.162420098235222
0.964829979453058
5.32083611375114
1.04196378680692
1.38615765112148
1.02058360000533
0.425459914257794
0.518816537862149
0.170180787641049
1.62018681518235
0.863220596049791
0.118900425890617
3.89458045184026
1.62442059488426
0.137664611925214
1.70596542908643
0.0385231643909741
