0.0523743535900159
0.937283579658491
0.360296676558893
0.871096934749526
0.162677229641813
0.331723803984459
0.186163353711155
0.486038512771511
1.38962827784886
0.0385621121164932
0.486045859645121
0.905486387097777
0.255102539611635
0.730391180548703
0.924770762586115
0.430075464569295
0.258115513342359
0.091327792898091
0.31507234140414
0.579436162136383
0.187886691290706
0.617795126220812
0.441257127009897
0.653619409279896
1.31029243096994
0.764487855579634
1.25166131538853
0.609574221596079
0.308408460348825
1.54751966619933
0.262284041163871
0.593303495427328
0.159281310106736
1.08020046151929
0.0780330967629663
0.228927813791359
0.615104009323291
1.21486094464977
0.835058166293097
0.144232580238125
0.305951826088836
0.130249857884173
0.173406979505843
0.249928272239455
0.27921552985036
0.388037719443531
0.950203579200874
0.989840535089359
0.392443448859625
0.45025442298042
