1.66444567772109
2.68915285788565
0.739536520323596
4.47157644261261
0.592676013519108
0.988945598583763
1.47201790278011
0.595657046805718
0.15062531907657
0.679159056321645
1.02135932836569
0.977422969029115
0.061580155834665
0.70530049586222
0.258887897437033
0.574717240264832
0.439980136553906
1.00173142054512
1.0757294345569
0.0360635536720474
0.95170021341425
0.282944016016054
0.870606349392205
0.573305486324935
0.734470136256067
1.69557161064681
0.0663519254705579
0.107335538718184
1.95993017348258
0.872645043029935
1.69707773232518
3.05018095354119
0.0997360361623265
0.399650743909778
0.0224572724667298
0.695063525557296
0.0453931235006407
0.103318892265109
0.311931576140993
1.58861960627408
0.803158117362247
0.180531419750115
0.482809311660611
0.124590128367468
0.922140783990785
1.00171154585924
0.287639112627074
1.33265608950743
1.17117763578784
0.38892555368955
