0.161046866701667
0.200457900358017
0.0861998720009741
1.53794220323582
0.951047347816455
0.438126408672497
0.793992774796886
0.713675663337231
0.428845024955861
0.0487201592995067
1.37990693456424
0.392212015348659
0.609985034323697
0.92806238636815
0.343593455245102
0.331604272664048
0.559835046752803
0.150512456835865
0.946239789660913
1.42486735608088
0.499774803965258
1.5213999749277
0.27025086646049
0.991476207680588
1.02635162651689
0.0590337275616324
0.108844112464329
0.232879415072307
0.139168432210085
0.689873552314962
1.13464303639693
1.05982338939015
0.973700887588269
0.848625753278352
0.760209245901018
1.17309908019924
0.324343517031928
0.839535341962434
0.466150235349768
0.903408020009718
0.567164702121622
0.151661724431002
0.297506374120964
0.17559360453178
0.197799279593568
1.50849387299032
0.354293506004142
0.338480800502688
0.33688558253179
0.705023099703604
