0.965531397664241
5.01314599064395
0.37918147616533
1.77035273633633
1.25624446356532
3.87338771966567
0.545066590735716
0.739695520440508
0.889485879603472
0.361028191578718
0.441278596982245
0.138525348101931
0.275861775191761
1.76889074941108
0.143162344285891
1.79656966778806
0.380835217914318
0.417155704238749
1.25075153305176
0.159872937592205
1.08260377590794
3.49671232170438
0.350900360964689
0.174631585120179
0.372582040491005
0.366410537579055
1.89597538697504
0.99742682576112
0.285338496598465
1.85596354711157
3.61575407558663
0.97385347946425
2.71860558126599
0.117312280405667
1.27702479438635
1.15656113488006
2.56174890945346
0.547818713651016
3.89031229268874
0.686858350876711
0.996838611447831
0.698124059713493
0.388743752380047
1.29819391863454
0.946055309446777
3.32504331493959
0.69112977695549
4.09252456288376
2.89449028668786
0.588833373713643
