3.80742050700962
1.43799900576695
1.19351189538165
2.27051783916656
1.23348286345309
0.989591506730667
1.08199873925647
0.697842640530549
0.556540127110415
0.800170373075525
0.685730819793578
1.59817524054403
3.81183544289103
0.471034765856222
2.6017798617319
0.666086096741233
0.499846197927025
0.621165649809191
0.433573601448513
0.418003399292094
0.543210443364235
1.08606469593786
0.321275191848505
0.144235536987811
0.963851374383745
0.829410652633905
2.07683264765449
0.153593961162487
2.10443489549255
0.410638347234661
0.614177850207322
1.09308213830276
0.539613160739267
3.02958648426947
0.376485435253041
0.103742450493194
3.35489965283954
0.539650008213829
0.483363353761283
0.203089124170188
0.0560476006179452
1.35493283281991
0.359768431157956
0.584301519401049
1.16703484630634
3.35185553282266
0.616730954947951
0.138862599174311
0.216389207362121
0.500210819999952
