3.64117923066213
0.525202181612959
2.80386694692261
0.680717058213141
0.955277460695035
1.01850951753998
1.03122699122945
0.97266664014402
0.60565797039624
3.17405931628111
2.48931281325217
0.940052358560587
1.233804723005
1.89681171625652
0.0840890596915068
1.7702564034571
0.677862177319064
0.740122823068419
0.581810436972201
0.0423914520521277
0.232063409769502
0.182956022458221
2.56757372020454
0.672575112176735
0.270172504600376
0.117564016436266
0.351479518499911
2.80021855595262
0.239679099391354
0.494335507405481
2.34961133531206
1.31437306446252
1.63641936702884
1.08232324204935
0.253958229961841
0.790214650395589
0.716211171307609
0.51822641511106
3.26503117369926
1.57996866383812
1.61714097217023
0.563742032514193
0.867323483524685
0.955343199116443
1.07320622945684
0.722698296109463
0.413547807764357
2.41560273473983
0.949037902539099
2.18154370286525
