4.83311653131906
0.280565720048538
0.517250814217342
0.609749150916175
0.00379237391629684
0.442139063420476
0.0996319346932194
0.0642923076483402
4.15586378268422
2.34983811242069
0.298007031896548
0.457230513896988
1.66183898444919
5.70955963654163
0.331229138983578
0.747490632723361
0.302266547199751
0.145308643467407
0.75374390631512
0.256489877948129
0.157285457338277
0.285175560381423
0.0225733165025359
0.302430483420225
4.42352705825256
0.287665199811602
1.00214341098326
0.67374781705598
0.93138063527773
0.424932058557732
0.496376997536054
0.307128506013477
0.180060541926274
0.125726100672594
0.274907321990182
0.309060302539676
0.0916977049749309
0.517830487327997
0.551582213876559
0.549061417579127
0.123100347969826
0.491234373203456
0.757866088032283
0.509041400057535
1.34169677816123
2.10894185511586
1.60014834778882
0.101322912148475
0.159623726875669
0.563796835596561
