0.0655852424341992
0.506316784964119
1.42177108895472
1.50930585158196
0.559720597481498
0.43136803943392
0.104719640373477
0.117234172408566
0.766316005514786
0.822602723672021
0.153937723072878
0.329833186563378
0.266535871370423
0.699700567822599
0.623676793797593
0.313036165462217
0.0787930676406466
0.166772656539785
0.569304074079067
0.974565432929366
1.94380156571906
0.544793061583371
1.83491263563373
1.1060363982673
0.0519662087852991
0.797785284531777
0.56034121359863
0.678503870892951
0.521404729323364
0.153688154357667
0.508052838061725
0.920735666462419
0.344910244546854
1.56411498586623
0.0443537108559364
1.08123610332924
0.775797349896796
1.26882250101697
1.60489667242908
1.3437781956868
0.21398070663279
0.4233891631675
1.48854923226842
1.62551726588658
1.24677423574604
0.741213099364735
0.814495032531189
0.133684410888396
0.0516612206654383
0.658926722443979
