0 0 0 0 -1.64542442462506 0 0 0 0 0 0 0 0 0 0 0 0 0 0 0 0 0 0 0 0 0 0 0 0 0 0 0 0 0 0 0 0 0 0 0 0 0 0 0 0 0 0 0 0 0
0 0 0 0 0 0 0 0 0 0 0 0 0 -0.327365215986716 0 0 0 0 0 0 0 0 0 0 0 0 0 0 0 0 0 0 0 -0.25999552721567 0 0 0 0 0 0 0 0 0 0 0 0 0 0 0 0
0 0 0 -1.24124271860388 0 0 0 0 0 0 0 0 0 -4.08069238225897 0 0 0 0 0 0 0 0 0 0 0 0 0 0 0 0 0 0 0 -1.40615236171595 0 0 0 0 0 0 0 0 0 0 0 0 0 0 0 0
0 0 0.238279043960137 0 0 0 0 0 0 0 0 0 0 -0.521408354189342 0 0 0 0 0 0 0 0 0 0 0 0 0 0 0 0 0 0 0 -0.880726305188449 0 0 0 0 0 0 0 0 0 0 0 0 0 0 0 0
0.363421103398798 0 0 0 0 0 -0.558170856963194 -1.38684713101519 0 0 0 0 0 0 0 -0.557154125425571 0 0 0 0 0 0 0 -1.78706421563746 0 0 0 0 0 0 0 0 0 -1.87401505975395 0 0 0 0 0 0 0 0 0 0 0 0 0 0 0 0
0 0 0 0 0 0 0 0 0 0 0 0 0 0 0 0 0 0 0 0 0 0 0 -2.16090352837437 0 -3.67361019263821 0 0 0 0 0 0 0 0 0 0 0 0 0 0 0 0 0 0 0 0 0 0 0 0
0 0 0 0 0.107147236820213 0 0 0 0 0 0 -1.20030086799294 0 0 0 0 -2.99528247900115 -0.295325544065975 0 0 0 0 0 0 0 -0.462039958981487 0 0 0 0 0 -2.10363038542816 0 0 0 0 -5.46780007922754 0 0 0 0 0 0 0 0 0 0 0 0 0
0 0 0 0 0.282910752829542 0 0 0 0 0 0 0 0 0 0 0 -2.50359814517162 -0.677831128509284 0 0 0 0 0 0 0 0 0 0 0 0 0 -1.17676944059746 0 0 0 0 -1.00589058358882 0 0 -8.89321034512444 0 0 0 0 0 0 0 0 0 0
0 0 0 0 0 0 0 0 0 0 0 0 0 0 0 0 -4.59181441217595 -2.51276400289562 0 0 0 0 0 0 0 0 0 -0.435666552035185 0 -1.89147396702125 0 -1.76056918147857 0 0 0 0 0 0 0 -1.40530445320548 0 0 0 0 0 0 0 0 0 0
0 0 0 0 0 0 0 0 0 0 0 0 0 0 0 0 -2.62027964501177 -5.22768374957904 0 0 0 -1.53682381975737 0 0 0 0 0 -0.497912770122383 0 -6.91434479871508 0 -1.49879532802855 0 0 0 0 0 0 0 -0.601347329480568 0 0 0 0 0 0 0 0 0 0
0 0 0 0 0 0 0 0 0 0 0 0 0 0 0 0 0 0 0 0 0 0 0 0 0 0 0 0 0 0 0 0 0 0 0 0 0 0 0 -0.876612247620567 0 0 0 0 0 0 0 0 0 0
0 0 0 0 0 0 0.236508628454166 0 0 0 0 0 0 0 -5.57523669364979 0 0 0 0 0 0 0 0 0 0 0 0 0 0 0 0 0 0 0 0 0 0 0 0 -0.255289173290686 0 0 0 0 0 0 0 0 0 0
0 0 0 0 0 0 0 0 0 0 0 0 0 0 -1.02986804985437 0 0 0 0 0 0 0 0 0 -0.39030407482736 0 0 0 0 0 0 0 0 0 0 0 0 0 0 -1.41479307059823 0 0 0 0 0 0 0 0 0 0
0 0.0647525819443108 0.771931947567259 0.0993669994315445 0 0 0 0 0 0 0 0 0 0 -0.104854289080153 0 0 0 0 0 0 0 0 0 -1.3013137571542 0 0 0 0 0 -2.6625321136596 0 0 0 0 0 0 0 0 0 0 0 0 0 0 0 0 0 0 0
0 0 0 0 0 0 0 0 0 0 0 1.06222846180958 0.19740426810844 0.0190097195182676 0 0 0 0 0 0 0 0 0 0 -1.79775471583602 0 0 0 0 0 -1.16474310550803 0 0 0 0 0 0 0 0 0 0 0 0 0 0 0 0 0 0 0
0 0 0 0 0.106774667399211 0 0 0 0 0 0 0 0 0 0 0 0 0 0 0 0 0 0 0 0 0 0 0 0 0 -1.16730073791512 0 0 0 0 0 0 0 -0.286068276307284 0 0 0 0 0 0 0 0 0 0 0
0 0 0 0 0 0 0.583968335531664 0.502268764610198 0.906423429697213 0.503145592759873 0 0 0 0 0 0 0 0 0 -0.644474047134816 0 0 0 0 0 0 0 0 0 0 -0.362003159300702 0 0 0 0 0 0 0 -0.422707259076298 0 0 0 0 0 0 0 0 0 0 0
0 0 0 0 0 0 0.0592508073878015 0.131077061386728 0.547153636040091 0.921029530462762 0 0 0 0 0 0 0 0 0 -3.45644312391281 0 0 0 0 0 0 -2.07396876121827 0 0 0 -2.10870680669815 0 0 0 0 0 0 0 -1.26027560631561 0 0 0 0 0 0 0 0 0 0 0
0 0 0 0 0 0 0 0 0 0 0 0 0 0 0 0 0 0 0 -0.262089528604859 0 0 0 0 0 0 -0.895988232028504 0 0 0 -0.20061311494008 0 0 0 0 0 0 0 -0.278810431588806 0 0 0 0 0 0 0 0 0 0 0
0 0 0 0 0 0 0 0 0 0 0 0 0 0 0 0 0.123283180447248 0.730360739585546 0.0491732935027983 0 0 0 -2.4661882554043 0 0 0 -0.523128219623081 0 0 0 -1.2116721160063 0 0 0 0 0 0 0 -0.744384360765118 0 0 0 0 0 0 0 0 0 0 0
0 0 0 0 0 0 0 0 0 0 0 0 0 0 0 0 0 0 0 0 0 0 -4.05006564234309 0 0 0 -2.91587668418447 0 0 0 -0.205477119103584 0 0 0 0 0 0 0 -1.80332667527944 0 0 0 0 0 0 0 0 0 0 0
0 0 0 0 0 0 0 0 0 0.318145460698688 0 0 0 0 0 0 0 0 0 0 0 0 0 0 0 0 0 0 0 0 -0.58915830293944 0 0 0 0 0 0 0 0 0 0 0 0 0 0 0 -0.827347033029201 0 0 0
0 0 0 0 0 0 0 0 0 0 0 0 0 0 0 0 0 0 0 0.480449545370016 0.861395515532563 0 0 0 0 0 0 0 0 0 -1.31372925430297 0 0 0 0 0 0 0 0 0 0 0 0 0 0 0 -0.817819489204467 0 0 0
0 0 0 0 0.386619312382226 0.418441948803905 0 0 0 0 0 0 0 0 0 0 0 0 0 0 0 0 0 0 0 0 0 0 0 0 -0.581077769877993 0 0 0 0 0 0 0 0 0 0 0 0 0 0 0 -2.8554871522669 0 0 0
0 0 0 0 0 0 0 0 0 0 0 0 0.0810821361870932 0.273085275489495 0.363435368514642 0 0 0 0 0 0 0 0 0 0 0 0 0 0 0 0 0 0 0 0 0 0 0 0 0 0 0 0 0 0 0 -1.51893594575312 0 0 0
0 0 0 0 0 0.693527119468988 0.0946982117901025 0 0 0 0 0 0 0 0 0 0 0 0 0 0 0 0 0 0 0 0 0 0 0 0 0 0 0 0 0 0 0 0 0 0 0 0 0 0 0 -0.850779105702872 0 0 0
0 0 0 0 0 0 0 0 0 0 0 0 0 0 0 0 0 0.454703139224449 0.163919710565569 0.0942656164403518 0.51293806549451 0 0 0 0 0 0 0 0 0 0 0 0 0 0 0 0 0 0 0 0 0 0 0 0 0 0 0 0 0
0 0 0 0 0 0 0 0 0.0899425887613374 0.0989255102273774 0 0 0 0 0 0 0 0 0 0 0 0 0 0 0 0 0 0 0 0 0 0 0 0 0 0 0 0 0 0 0 0 0 0 0 0 0 0 -0.211098294766929 0
0 0 0 0 0 0 0 0 0 0 0 0 0 0 0 0 0 0 0 0 0 0 0 0 0 0 0 0 0 0 0 0 0 0 0 0 0 0 0 0 0 0 0 0 0 0 0 0 -5.25930254460622 0
0 0 0 0 0 0 0 0 0.387856810037867 1.42006728205686 0 0 0 0 0 0 0 0 0 0 0 0 0 0 0 0 0 0 0 0 0 0 0 0 0 0 0 0 0 0 0 0 0 -1.17576532967042 0 0 0 0 -0.468875829046862 0
0 0 0 0 0 0 0 0 0 0 0 0 0 0.551308365229566 0.246936402572619 0.248290037769012 0.0791994383491889 0.382629411681927 0.0399373614423507 0.246725873779603 0.041623465991663 0.118973086451739 0.258280617674141 0.100793066855306 0 0 0 0 0 0 0 0 0 0 0 -3.1656586182412 0 0 0 0 0 0 0 0 0 0 0 0 0 0
0 0 0 0 0 0 0.370087161644646 0.23760875253549 0.378924113517052 0.296244955845291 0 0 0 0 0 0 0 0 0 0 0 0 0 0 0 0 0 0 0 0 0 0 0 0 0 -1.57606545697888 0 0 0 0 0 0 0 0 0 0 0 0 0 -3.4458802249367
0 0 0 0 0 0 0 0 0 0 0 0 0 0 0 0 0 0 0 0 0 0 0 0 0 0 0 0 0 0 0 0 0 0 0 -0.431908110315448 0 0 0 0 -1.17023296402601 0 -2.90615459617147 0 0 0 0 -0.451226239284843 0 0
0 0.0513013131600728 0.305457821236408 0.171233129195326 0.416568693447785 0 0 0 0 0 0 0 0 0 0 0 0 0 0 0 0 0 0 0 0 0 0 0 0 0 0 0 0 0 0 0 0 0 0 0 0 0 -11.0140471597431 0 0 0 0 -2.25857497904451 0 0
0 0 0 0 0 0 0 0 0 0 0 0 0 0 0 0 0 0 0 0 0 0 0 0 0 0 0 0 0 0 0 0 0 0 0 0 0 0 0 0 0 0 -0.229988092947954 0 0 0 0 -0.984109592703106 0 0
0 0 0 0 0 0 0 0 0 0 0 0 0 0 0 0 0 0 0 0 0 0 0 0 0 0 0 0 0 0 0.617760399936785 0.319391719039918 0.0879919525461985 0 0 0 0 0 0 0 0 0 -0.356914283246998 0 0 0 0 -0.199119441502247 0 0
0 0 0 0 0 0 1.07586462427294 0.196023252360519 0 0 0 0 0 0 0 0 0 0 0 0 0 0 0 0 0 0 0 0 0 0 0 0 0 0 0 0 0 0 0 0 0 0 -0.612297566407619 0 0 0 0 0 0 0
0 0 0 0 0 0 0 0 0 0 0 0 0 0 0 0 0 0 0 0 0 0 0 0 0 0 0 0 0 0 0 0 0 0 0 0 0 0 0.144551784009062 0 0 0 -0.895996387099427 0 0 0 0 0 0 0
0 0 0 0 0 0 0 0 0 0 0 0 0 0 0 0.0551137538751933 0.0871823483285448 0.251558125118054 0.0587454451385206 0.143012055900878 0.364400165300763 0 0 0 0 0 0 0 0 0 0 0 0 0 0 0 0 -0.698185078973676 0 0 0 0 -0.119300563863882 0 0 0 0 0 0 0
0 0 0 0 0 0 0 1.75373049545208 0.282794809540252 0.118940628712298 0.190185667458423 0.0518614694405203 0.306409889083164 0 0 0 0 0 0 0 0 0 0 0 0 0 0 0 0 0 0 0 0 0 0 0 0 0 0 0 0 0 -0.575641006231226 0 0 0 0 0 0 0
0 0 0 0 0 0 0 0 0 0 0 0 0 0 0 0 0 0 0 0 0 0 0 0 0 0 0 0 0 0 0 0 0.221674569008691 0 0 0 0 0 0 0 0 0 -0.697330044516262 0 0 0 0 0 0 0
0 0 0 0 0 0 0 0 0 0 0 0 0 0 0 0 0 0 0 0 0 0 0 0 0 0 0 0 0 0 0 0 0 0 0 0 0 0 0 0 0 0 -1.43077991788971 0 -2.49741551472297 0 0 0 0 0
0 0 0 0 0 0 0 0 0 0 0 0 0 0 0 0 0 0 0 0 0 0 0 0 0 0 0 0 0 0 0 0 0.644501582756563 2.1372796080615 0.0488042895105866 0.0666264158219419 0.115593803634358 0.172542782593111 0.0228679574755965 0.116074578089454 0.140613029782749 0.298226444709462 0 0.767456822938117 -0.596753208361106 0 0 0 0 0
0 0 0 0 0 0 0 0 0 0 0 0 0 0 0 0 0 0 0 0 0 0 0 0 0 0 0 0 0 0.239961130413027 0 0 0 0 0 0 0 0 0 0 0 0 -3.58555725390306 0 -2.73339755031108 0 0 0 0 0
0 0 0 0 0 0 0 0 0 0 0 0 0 0 0 0 0 0 0 0 0 0 0 0 0 0 0 0 0 0 0 0 0 0 0 0 0 0 0 0 0 0.496160431548604 0.119974935877781 0.568289878380838 0 0.168643051753577 0 0 0 0
0 0 0 0 0 0 0 0 0 0 0 0 0 0 0 0 0 0 0 0 0 0 0 0 0 0 0 0 0 0 0 0 0 0 0 0 0 0 0 0 0 0 0 0 -0.900471868682836 0 0 0 0 0
0 0 0 0 0 0 0 0 0 0 0 0 0 0 0 0 0 0 0 0 0 0.151843410791076 0.158471363331324 0.554789599404667 0.304430560588613 0.168491621167724 0 0 0 0 0 0 0 0 0 0 0 0 0 0 0 0 0 0 0 0 0 0 0 0
0 0 0 0 0 0 0 0 0 0 0 0 0 0 0 0 0 0 0 0 0 0 0 0 0 0 0 0 0 0 0 0 0.0909719852004754 0.419001791392352 0.194663224003843 0.0386447432228826 0 0 0 0 0 0 0 0 0 0 0 0 0 0
0 0 0 0 0 0 0 0 0 0 0 0 0 0 0 0 0 0 0 0 0 0 0 0 0 0 0 0.0421267415213354 1.05409017263407 0.0919429653680415 0 0 0 0 0 0 0 0 0 0 0 0 0 0 0 0 0 0 0 0
0 0 0 0 0 0 0 0 0 0 0 0 0 0 0 0 0 0 0 0 0 0 0 0 0 0 0 0 0 0 0 0.663732379787183 0 0 0 0 0 0 0 0 0 0 0 0 0 0 0 0 0 0
