0 0 0 0 0 0 0 0 0 0 0 0 0 -2.94389574620139 0 0 0 0 0 0 0 0 0 0 0 0 0 0 0 0 0 0 0 0 0 0 0 0 0 0 0 0 0 0 0 0 0 0 0 0
0 0 0 0 0 0 0 -0.761339715756219 -1.11239465726678 0 0 0 0 0 0 0 0 -0.671778815446839 0 0 0 0 0 0 0 0 0 0 0 0 0 0 0 0 0 0 0 0 0 0 -0.57580735741001 0 0 0 0 0 0 0 0 0
0 0 0 0 0 0 0 -0.364457790965891 -0.451543693197286 0 0 0 0 0 0 0 0 -0.863881010536518 0 0 0 0 0 -3.02746462975734 0 0 -3.67017018189732 0 0 0 0 0 0 0 0 0 0 0 0 0 -1.40087795941263 0 0 0 0 0 0 0 0 0
0 0 0 0 0 0 0 -1.53204909745127 -0.153884691400994 0 0 -1.77092696860208 0 0 0 0 0 -1.88138353423675 0 0 0 0 0 -2.13600590575809 0 0 -1.31423853413879 0 0 0 0 0 0 0 0 0 -0.30737734549745 0 0 0 -0.713011507524259 0 0 0 0 0 0 0 0 0
0 0 0 0 0 0 0 0 -0.487792194168217 0 0 -0.247041237882453 0 0 0 0 0 0 -0.762876955493379 0 0 0 0 -4.47595000481389 0 0 -2.3872269763275 0 0 0 0 0 0 0 0 0 -0.865941018037871 0 0 0 -1.40135914159702 0 0 0 0 0 -0.206465851273211 0 0 0
0 0 0 0 0 0 -0.421838822338798 0 0 0 0 0 0 0 0 0 0 0 -1.91857607974027 0 0 0 0 -3.32868523358785 0 0 0 0 0 0 0 0 0 0 0 0 -1.49494518708206 0 0 0 0 0 0 0 0 0 -0.560343856870928 0 0 0
0 0 0 0 0 0.0869453256188849 0 0 0 -0.219169522777526 0 0 0 0 0 0 0 0 0 0 0 0 0 0 0 0 0 0 0 0 0 -10.1363437327405 0 0 0 0 -3.77333225085404 0 0 0 0 0 0 0 0 0 -0.282069266715263 -1.9345260883773 -1.24122639616547 0
0 0.143563492545463 0.0634062447838398 0.315030987890084 0 0 0 0 0 -0.646559271256101 0 0 0 0 0 0 0 0 0 0 0 0 0 0 0 0 0 0 0 0 0 -0.879095262456362 0 0 0 0 -0.50301377586529 0 0 0 0 0 0 0 0 0 -0.680088678403552 -0.213277856260192 -0.830284686594626 0
0 0.211912360272055 0.0880414933931771 0.0304764207587958 0.0929923020428624 0 0 0 0 0 0 0 0 0 0 -0.264313281144508 0 0 0 0 0 0 0 0 0 0 0 0 0 0 0 0 0 0 0 0 -0.0151310326052327 0 0 0 0 0 0 0 0 0 -1.67047257244683 -5.88328900985312 -1.43497138487207 0
0 0 0 0 0 0 0.0456987997952574 0.13589466228041 0 0 0 0 0 0 0 -4.01791554928029 0 0 0 0 0 0 0 0 0 0 0 0 0 0 0 0 0 0 0 0 0 0 0 0 0 0 0 0 0 0 -3.99864285055056 -0.52281626172382 -2.14647082146275 0
0 0 0 0 0 0 0 0 0 0 0 0 0 0 0 0 0 0 0 0 0 0 0 0 0 0 0 0 0 0 0 0 -3.37805318419259 0 0 0 0 0 0 0 0 0 0 0 0 0 0 -0.875188720563641 0 0
0 0 0 0.371874791776857 0.048173455520051 0 0 0 0 0 0 0 0 0 0 0 0 0 0 0 0 0 0 0 0 0 0 0 0 0 0 0 -2.08858579139857 0 0 0 0 0 0 0 0 0 0 0 0 0 0 0 0 0
0 0 0 0 0 0 0 0 0 0 0 0 0 0 0 0 0 0 0 0 0 0 0 0 0 0 0 0 -2.13906925582858 0 0 0 0 0 0 0 0 0 0 0 0 0 0 -0.182852028164976 0 0 0 0 0 0
0.586499979307781 0 0 0 0 0 0 0 0 0 0 0 0 0 0 0 0 0 0 0 0 0 0 0 0 0 0 0 -0.988664624875226 0 0 0 0 0 0 0 0 0 0 0 0 0 0 -1.26902243063264 0 0 0 0 0 0
0 0 0 0 0 0 0 0 0 0 0 0 0 0 0 0 0 0 0 0 0 0 0 0 0 0 0 0 -2.00504023805006 0 0 0 0 0 0 0 0 0 0 0 0 0 0 -1.05607682824076 0 0 0 0 0 0
0 0 0 0 0 0 0 0 0.054911076380836 0.845887885799286 0 0 0 0 0 0 0 0 0 0 0 0 0 0 0 0 0 0 -0.182665038888819 0 0 0 0 0 0 0 0 0 0 0 0 -3.30947945863286 0 -1.48919695670377 0 0 0 0 0 0
0 0 0 0 0 0 0 0 0 0 0 0 0 0 0 0 0 0 0 0 0 0 0 0 0 0 0 0 -1.28919938084505 0 0 0 0 0 0 0 0 0 0 0 0 -0.687647543793575 0 0 0 0 0 0 0 0
0 0.127851566661973 0.167795944282078 0.388263862817429 0 0 0 0 0 0 0 0 0 0 0 0 0 0 0 0 0 0 0 0 0 0 0 0 -0.284897957699043 0 0 0 0 0 0 0 0 0 0 0 0 -1.97483389786475 0 0 0 0 0 0 0 0
0 0 0 0 0.149408315200502 0.387598324991947 0 0 0 0 0 0 0 0 0 0 0 0 0 0 0 0 0 0 0 0 0 0 -6.42048663237902 0 0 0 0 0 0 0 0 0 0 0 0 -1.27508896655273 0 0 0 0 0 0 0 0
0 0 0 0 0 0 0 0 0 0 0 0 0 0 0 0 0 0 0 0 0 0 0 0 0 0 0 0 -0.545298810869766 0 0 0 0 0 0 0 0 0 0 0 0 -0.907384041669069 0 0 0 0 0 0 0 0
0 0 0 0 0 0 0 0 0 0 0 0 0 0 0 0 0 0 0 0 0 0 0 0 -0.704742540769631 0 0 -0.293765867418652 0 0 0 0 0 -0.222068012024768 -0.95959111356388 0 0 0 0 0 0 -8.75804186550963 0 0 0 0 0 0 0 -5.87812863521217
0 0 0 0 0 0 0 0 0 0 0 0 0 0 0 0 0 0 0 0 0 0 0 0 0 0 0 0 0 0 0 0 0 -0.630513180965928 -0.887166099313946 0 0 0 0 0 0 0 0 0 0 0 0 0 0 -2.54135678147736
0 0 0 0 0 0 0 0 0 0 0 0 0 0 0 0 0 0 0 0 0 0 0 0 0 0 0 0 0 0 0 0 0 0 -0.70503288534677 0 0 0 0 0 0 0 0 0 0 0 0 0 0 0
0 0 0.609869263974567 0.402494304524649 0.843802398296242 0.679798482163047 0 0 0 0 0 0 0 0 0 0 0 0 0 0 0 0 0 0 0 0 0 0 0 0 -4.31173369815012 0 0 0 0 0 0 0 0 0 0 0 0 0 0 -0.132597359459671 0 0 0 0
0 0 0 0 0 0 0 0 0 0 0 0 0 0 0 0 0 0 0 0 0.135686034938233 0 0 0 0 0 0 0 0 0 -0.782871138497556 0 0 0 0 0 0 0 0 0 0 0 0 0 0 -0.333934188174628 0 0 0 0
0 0 0 0 0 0 0 0 0 0 0 0 0 0 0 0 0 0 0 0 0 0 0 0 0 0 0 0 0 0 -1.87672619110998 0 0 0 0 0 0 0 0 0 0 0 0 0 0 -1.11556377101395 0 0 0 0
0 0 0.695335674525534 0.256977656438889 0.487329487002751 0 0 0 0 0 0 0 0 0 0 0 0 0 0 0 0 0 0 0 0 0 0 0 0 0 -0.352499400696681 0 0 0 0 0 0 0 0 0 0 0 0 0 0 -1.24848714117871 0 0 0 0
0 0 0 0 0 0 0 0 0 0 0 0 0 0 0 0 0 0 0 0 0.062913673246561 0 0 0 0 0 0 0 0 -0.372067229137267 -1.22454973653616 0 0 0 0 0 0 0 0 0 0 0 -1.41448994536908 0 0 0 0 0 0 0
0 0 0 0 0 0 0 0 0 0 0 0 0.422594721728545 0.214208175485834 0.405110952266345 0.0382080759850599 0.295410370770134 0.0552854934491424 1.27872089991436 0.112278301735799 0 0 0 0 0 0 0 0 0 0 -0.806743647915184 0 0 0 0 0 0 0 0 0 0 0 -0.181933109560123 0 0 0 0 0 0 0
0 0 0 0 0 0 0 0 0 0 0 0 0 0 0 0 0 0 0 0 0 0 0 0 0 0 0 0.0755497006369074 0 0 -1.47685755558105 0 0 0 0 0 0 0 0 0 0 0 -0.194659750814777 0 0 0 0 0 0 0
0 0 0 0 0 0 0 0 0 0 0 0 0 0 0 0 0 0 0 0 0 0 0 0.746918703412218 0.16321148926408 0.40192819426322 0.072571410342286 0.229654825427624 0.164414223627546 0.284450003547986 0 0.183791917310704 0.430403178599757 0.0274910468277692 0.455332044184552 0.256077915543356 0 0 0 0 0 0 -0.416766791110027 0 0 0 0 0 0 0
0 0 0 0 0 0 1.9763891842262 0.177551918071564 0 0 0 0 0 0 0 0 0 0 0 0 0 0 0 0 0 0 0 0 0 0 -0.965023949803381 0 0 0 0 0 0 0 0 0 0 0 -0.590723960396135 0 0 0 0 0 0 0
0 0 0 0 0 0 0 0 0 0 0.734300296909086 0.415477560115196 0 0 0 0 0 0 0 0 0 0 0 0 0 0 0 0 0 0 -2.21073622715894 0 0 0 0 0 0 0 0 0 0 0 -0.524655715933522 0 0 0 0 0 0 0
0 0 0 0 0 0 0 0 0 0 0 0 0 0 0 0 0 0 0 0 0.0501547204265708 0.116037024813895 0 0 0 0 0 0 0 0 -0.139940171358765 0 0 0 0 0 0 0 0 0 0 0 -1.56875774673131 0 0 0 0 0 0 0
0 0 0 0 0 0 0 0 0 0 0 0 0 0 0 0 0 0 0 0 0.197171472922347 0.181979704034749 0.131374289259128 0 0 0 0 0 0 0 -2.18657821575421 0 0 0 0 0 0 0 0 -1.28894143681803 0 0 0 0 -0.576834137453456 0 0 0 0 0
0 0 0 0 0 0 0 0 0 0 0 0 0 0 0 0 0 0 0 0 0 0 0 0 0 0 0 0 0 0 -1.29925824212559 0 0 0 0 0 0 0 0 -6.18403647334693 0 0 0 0 -1.3348637713013 0 0 0 0 0
0 0 0 0.0622875036498163 0.180560225912449 0.277566489175184 0.753890441789718 0.102180638261195 0.00266901383062686 0 0 0 0 0 0 0 0 0 0 0 0 0 0 0 0 0 0 0 0 0 0 0 0 0 0 0 0 0 -1.4411013257261 0 0 0 0 0 -1.36144032744696 0 0 0 0 0
0 0 0 0 0 0 0 0 0 0 0 0 0 0 0 0 0 0 0 0 0 0 0 0 0 0 0 0 0 0 0 0 0 0 0 0 0 0 -0.737143237607279 0 0 0 0 0 -1.0319294572927 0 0 0 0 0
0 0 0 0 0 0 0 0 0 0 0 0 0 0 0 0 0 0 0 0 0 0 0 0 0 0 0 0 0 0 0 0 0 0 0 0 0.261404111281299 0.150922173252678 0 0.237652229262493 0 0 0 0 -1.4881243128278 0 0 0 0 0
0 0 0 0 0 0 0 0 0 0 0 0 0 0 0 0 0 0 0 0 0 0 0 0 0 0 0 0 0 0 0 0 0 0 0.251371075484974 1.29233614050956 0 0 -1.10531499157442 0 0 0 0 0 -0.735468233733449 0 0 0 0 0
0 0.115690752521189 0.29312774255132 0.136322330352282 0.255318796394303 0 0 0 0 0 0 0 0 0 0 0 0 0 0 0 0 0 0 0 0 0 0 0 0 0 0 0 0 0 0 0 0 0 0 0 0 0 0 0 -0.385029958127819 0 0 0 0 0
0 0 0 0 0 0 0 0 0 0 0 0 0 0 0 0.630327109824807 0.134998513389232 0.385604629482192 0.263238549265271 0.182271539947495 1.79165415514424 0 0 0 0 0 0 0 0 0 0 0 0 0 0 0 0 0 0 0 0 0 0 0 -1.02857318725418 0 0 0 0 0
0 0 0 0 0 0 0 0 0 0 0 0 0 0 0 0 0 0 0 0 0 0 0 0 0 0 0 0.270145251020024 0.0373518206525093 0.0353795640167086 0.0849740939853782 0.117184490480816 0.101939571767539 0.319982447286016 0 0 0 0 0 0 0 0 0 0 -0.43731622633624 0 0 0 0 0
0 0 0 0 0 0 0 0 0 0 0 0 0.0373823023195285 0.265275866577514 0.201521673762943 0.297480427686594 0 0 0 0 0 0 0 0 0 0 0 0 0 0 0 0 0 0 0 0 0 0 0 0 0 0 0 0 -2.35052791763568 0 0 0 0 0
0 0 0 0 0 0 0 0 0 0 0 0 0 0 0 0 0 0 0 0 0 0 0 0 0 0 0 0 0 0 0 0 0 0 0.126294906097853 0.269187019090452 0.284551874902585 0.202140177958892 0.289960184953719 0.152951628703464 0.0792710426796983 0.21641651250811 0.0875528358854684 0.485202283380534 0 0.0524923154732754 0.960851934471274 0.515536372539109 0.199911835505939 0.215169293565291
0 0 0 0 0 0 0 0 0 0 0 0 0 0 0 0 0 0 0 0 0 0 0 0.0238814129504665 0.0668974156688712 0.227316830451375 0.23234035385494 0 0 0 0 0 0 0 0 0 0 0 0 0 0 0 0 0 -0.267524033876666 0 0 0 0 0
0 0 0 0 0.0422951292162885 0.10896979304978 0.0601746784087103 0.136577649112367 0.320858530267932 0.837867850416637 0 0 0 0 0 0 0 0 0 0 0 0 0 0 0 0 0 0 0 0 0 0 0 0 0 0 0 0 0 0 0 0 0 0 -4.8797390204687 0 0 0 0 0
0 0 0 0 0 0 0.404559754906027 0.0427238796464482 1.18474573238576 0.0980919844830031 0.180869373302251 0 0 0 0 0 0 0 0 0 0 0 0 0 0 0 0 0 0 0 0 0 0 0 0 0 0 0 0 0 0 0 0 0 -2.46676302039907 0 0 0 0 0
0 0 0 0 0 0 0.250532676886885 0.17424123640698 0.282761013394533 0.447667312736441 0 0 0 0 0 0 0 0 0 0 0 0 0 0 0 0 0 0 0 0 0 0 0 0 0 0 0 0 0 0 0 0 0 0 -0.917374827854749 0 0 0 0 0
0 0 0 0 0 0 0 0 0 0 0 0 0 0 0 0 0 0 0 0 1.33612292089449 0.486416518530865 0 0 0 0 0 0 0 0 0 0 0 0 0 0 0 0 0 0 0 0 0 0 -1.09192887988145 0 0 0 0 0
