0.125362569339432
1.60561926192472
1.21453382215133
0.465883632303368
1.73713861489202
0.26719439019272
0.486171073682748
0.80754477381494
1.33842274972622
1.33611509978736
0.37565722147203
0.904921126363192
0.659387618645791
0.325893069353014
3.82592056633129
0.509449940746978
1.78142580609999
3.29690036964641
0.608848601484463
0.545934905153282
0.569487102333646
1.26459431935839
0.680237671962109
0.709432130325672
2.44091734586489
0.48450750324634
0.954000994140974
1.23960073748532
0.631809714571551
0.396547393828552
0.607752884464257
0.295701443641114
2.6515089109125
0.814506713940889
1.01235357702033
0.952062858439911
2.79321619710559
0.639291393530996
0.8575325633765
2.51928138949773
0.249173104289185
1.53374357281809
1.20226952651029
0.749513418871389
0.801441804673398
0.161461570092557
0.385346726303164
0.593547974731418
0.250460200154643
0.194823395906172
