0.829066309034302
0.196560867871312
0.612722186377434
0.455803985225487
1.60910387999558
0.735975821559653
0.306483335877482
1.09575549522038
1.393982189627
3.32438937415742
1.85218035071954
0.335999676929422
1.47195080139819
0.395386999768564
2.26945586911831
1.54175119445083
3.50657826658428
1.56512729991182
2.72689608562077
0.149860494551911
0.916378586078098
1.06732990568998
0.547442748397004
0.521738030153957
0.464794719518866
0.991312085901553
2.84465297894939
3.46747011290497
1.05002693580947
2.16869352569339
0.520699655829342
0.607619178407252
0.755372712773444
0.70264917598342
0.575256125654337
2.64858558811365
1.9708036877023
1.19947535102388
0.235517559711476
0.671895321289224
2.0413525961756
0.501622363668976
0.252125991257817
0.655609506886076
1.44863749529183
1.42252304259239
1.31399456017602
0.591154811993122
1.27549402025924
0.247726364745852
