0.0725949500838377
0.547254471971015
0.0835998252621987
0.282008973759649
0.144744542380492
0.691296609391289
1.13494931106889
1.86671595999345
0.0396819167894532
2.75016306209941
0.117399483034517
0.677203585773312
0.0864734389978411
0.10932014635694
0.410543719831999
0.356771026496661
3.46505645343467
0.929730716852442
1.9875454211799
0.364534988402785
0.275486675966537
0.992140068741902
0.223332723751028
6.8266691655083
0.101585516813556
2.48341913902975
0.262301586519115
0.582843631657826
0.977158132258617
2.50215563165348
0.774061916098898
1.74500831233843
3.41639451538647
0.602204880109246
1.25081613670179
0.500385244032984
0.681450715116226
6.75154931344136
1.71746197843128
2.08882152187084
0.122837002952078
0.160040659872831
0.116102725370725
0.354251434498265
0.198459062023911
0.466443626650495
2.83015145736137
3.22607903550557
0.370302816377152
0.267046311168509
