0.200104349641231
0.241371052060582
0.312013095820423
0.112340253299611
0.177021357109359
0.625180785187718
0.374442567259819
0.208363422012809
0.0622448579914871
0.345874080695535
4.92073041374423
1.61374170915856
0.553807475997994
1.04294798171849
0.385729653528643
0.275757136825946
0.258974124905042
0.430414075705356
0.126466968106003
0.285999033372223
0.349072216307564
0.165104287766599
1.15168473931781
2.24082791365577
0.106072603671344
5.74853018765662
0.890810623364868
1.2895618661482
0.185142149843129
2.6248536781639
0.487045499071006
0.256236745737944
0.355203530473945
0.390573819106901
0.489630225446505
0.586938372578272
0.109387792880523
0.177278511881528
0.573247327640168
0.344508109119544
0.414972696471048
0.305376252316621
0.138481982159411
2.15097833923468
1.43395693256306
2.20023359028287
0.0610630413038452
0.0636116573807245
0.04154978778104
0.116310514710064
