0 0 0 0 0 0 0 0 0 0 0 -1.05847936807213 0 0 0 0 -1.1000975198363 0 0 0 0 0 0 -0.365812486973262 0 -0.442624370197818 0 -0.322810600530939 0 0 0 0 0 0 0 0 0 0 0 -0.325233485946432 0 0 0 0 0 0 0 0 0 0
0 0 0 0 0 0 0 0 0 0 0 -1.38247559524541 0 0 0 0 -0.573348350257225 0 0 0 0 0 0 -0.661329858828535 0 -0.872826660155259 0 -4.91085351691549 0 0 0 0 0 0 -0.258664479941968 0 0 0 0 -0.305554583088276 0 0 0 0 0 0 0 0 0 0
0 0 0 0 0 -0.442772827292677 0 0 0 0 0 0 0 0 0 0 -2.92894707531844 0 0 0 0 0 0 -1.61232060428928 0 0 0 -2.65096460853449 0 0 0 0 0 0 -0.799991453071881 0 0 0 0 -0.83637651858335 0 0 0 0 0 0 0 0 0 0
0 0 0 0 0 -0.32452717500603 0 0 0 0 0 0 0 0 0 0 -0.202269871343933 0 0 0 0 0 0 -3.22905962185998 0 0 0 -2.58758841234656 0 0 0 0 0 0 -0.837417329637726 0 0 0 0 -0.485349735257675 0 0 0 0 0 0 0 0 0 0
0 0 0 0 0 0 0 0 0 0 -0.376587273629877 0 0 0 0 0 -0.824071138583464 0 -3.68669558813275 0 0 0 0 -0.583549767285852 0 0 0 0 0 0 0 0 0 0 -1.13783546488037 0 0 0 0 -0.568632419979729 0 0 0 0 -0.185823566350619 0 0 0 0 0
0 0 0.0906482449634934 0.0570727385381425 0 0 0 0 0 0 -1.15635897074996 0 0 0 0 0 -0.819595192070955 0 -1.34016495306433 0 0 0 0 -1.54714519761482 0 0 0 0 0 0 0 0 0 0 -0.283712659649864 0 0 0 0 -0.652071064768251 0 0 0 0 -1.9563094821243 0 0 0 0 0
0 0 0 0 0 0 0 0 0 -0.619580393754787 0 0 0 0 0 0 -1.66678507717365 0 -4.42321929643913 0 0 0 0 -0.746449157961694 0 0 0 0 0 0 0 0 0 0 -5.13127120858929 0 0 0 0 -1.13968561763343 0 0 0 0 -3.55457803982296 0 0 0 0 0
0 0 0 0 0 0 0 0 -2.34279345595828 0 0 0 0 0 -0.633238029401281 0 -0.929643778525964 0 0 0 0 0 -1.09186463530317 0 0 0 0 0 0 0 0 0 0 0 0 0 0 0 0 -2.00864127584081 0 0 0 0 -0.445942294843052 0 0 0 0 0
0 0 0 0 0 0 0 0.479697490276341 0 0 0 0 0 0 0 0 0 0 0 0 0 0 -1.70143444270013 0 0 0 0 0 0 0 0 0 0 0 0 0 0 0 0 -0.510594714135312 0 0 0 0 -0.54895803925069 0 0 0 0 0
0 0 0 0 0 0 0.128105318741209 0 0 0 0 0 0 0 0 0 0 0 0 0 0 0 -2.88624751060002 0 0 0 0 0 0 0 0 0 0 0 0 0 0 0 0 -1.66431389661249 0 0 0 0 -0.766470219960947 0 0 0 0 0
0 0 0 0 0.0765777778676038 0.241033120814894 0 0 0 0 0 0 0 0 0 0 0 0 0 0 0 0 -1.70240294859389 0 0 0 0 0 0 0 0 0 0 0 0 0 0 0 0 -0.35897113264127 0 0 0 0 -1.89191316520985 0 0 0 0 0
0.212343698814031 0.275698179523719 0 0 0 0 0 0 0 0 0 0 -2.26768871582176 0 0 0 0 0 0 0 0 0 0 0 0 0 0 0 0 0 0 0 -0.496053793368957 0 0 0 0 0 0 -7.34468428058809 0 0 0 0 0 -0.38502931013601 0 -0.355616862453435 0 0
0 0 0 0 0 0 0 0 0 0 0 0.443742017453677 0 -1.30069866206075 0 0 0 0 0 0 0 0 0 0 0 0 0 0 0 0 0 0 0 0 0 0 0 0 0 -0.244157777613219 0 0 0 0 0 -0.345232301077282 0 -0.518545673975166 0 0
0 0 0 0 0 0 0 0 0 0 0 0 0.266861052860108 0 0 0 0 0 0 0 0 0 0 0 0 0 0 0 0 -0.972199750473559 0 0 0 0 0 0 0 0 0 -0.943182177483753 0 0 0 0 0 -1.97237640718478 0 0 0 0
0 0 0 0 0 0 0 0.133890488278762 0 0 0 0 0 0 0 0 0 0 0 0 0 0 0 0 0 0 0 0 0 -2.47703189308806 0 0 0 0 0 0 0 0 0 -0.562606843278622 0 0 0 0 0 -1.25521636584428 0 0 0 0
0 0 0 0 0 0 0 0 0 0 0 0 0 0 0 0 0 0 0 0 0 0 0 0 0 0 -9.26125277153741 0 0 0 0 0 0 0 0 0 0 0 0 0 -1.13566313661756 0 0 0 0 0 0 0 0 0
0.21666039737075 0.106654509930062 0.570338802522179 0.0422122007764372 0.166797609759532 0.1667438494783 0.340527205142828 0.174335774080116 0 0 0 0 0 0 0 0 0 0 0 0 0 0 0 0 -0.902717434213141 0 -1.32786702487323 0 0 0 0 0 0 0 0 0 0 0 0 0 -0.610671994417065 0 0 0 0 0 0 0 0 0
0 0 0 0 0 0 0 0 0 0 0 0 0 0 0 0 0 0 0 0 0 0 0 0 -0.45375791537957 0 -0.516980528656189 0 0 0 0 0 0 0 0 -0.235448706848211 0 0 0 0 -0.429445259615053 0 0 0 0 0 0 0 0 0
0 0 0 0 0.76827536126174 0.274286323929673 0.902888171627027 0 0 0 0 0 0 0 0 0 0 0 0 0 0 0 0 0 -0.222261808934293 0 -1.35752343057363 0 0 0 0 0 0 0 0 -0.295898270855207 0 0 0 0 -1.48173719573211 0 0 0 0 0 0 0 -1.53032270257875 0
0 0 0 0 0 0 0 0 0 0 0 0 0 0 0 0 0 0 0 0 0 0 0 0 -1.50567447631391 0 -1.23442657207982 0 0 0 0 0 0 0 0 -0.555244526557011 0 0 0 0 -1.04028833413971 0 0 0 0 0 0 0 -1.14934743167432 0
0 0 0 0 0 0 0 0 0 0 0 0 0 0 0 0 0 0 0 0 0 0 0 0 -1.26760289770468 0 -3.47759861348404 0 0 0 0 0 0 0 0 -11.129576646842 0 0 0 0 -0.689038266457692 0 0 0 0 0 0 0 -0.109345700278366 0
0 0 0 0 0 0 0 0 0 0 0 0 0 0 0 0 0 0 0 0 0 0 0 0 0 0 0 0 0 0 0 0 0 -0.821427881754549 0 -0.899884174786743 0 -2.77031395000809 0 0 0 0 0 0 0 0 0 0 -0.339262253636859 -3.2700464002619
0 0 0 0 0 0 0 0.213639127856 0.341692376223855 0.641684900752853 0.356295628421141 0 0 0 0 0 0 0 0 0 0 0 0 0 0 0 0 0 0 0 0 0 0 -0.959999191672133 0 0 0 -0.703379358705647 -0.227635229204805 0 0 0 0 0 0 0 0 0 -1.05795417275102 0
0.0745295980737141 0.125917850631082 0.336894461365979 0.683933489389417 0.119019810528997 0.316120213812701 0.139111561860064 0 0 0 0 0 0 0 0 0 0 0 0 0 0 0 0 0 0 0 0 0 0 0 0 0 0 0 0 0 0 0 -1.00700358355268 0 0 0 0 0 0 0 0 0 -0.573699477728637 0
0 0 0 0 0 0 0 0 0 0 0 0 0 0 0 0 0.199322721519068 0.0922954356058971 0.0488511254309323 0.318363874686423 0.245909772785347 0 0 0 0 0 0 0 0 0 0 0 0 0 0 0 0 0 -0.607173506886783 0 0 0 -0.155357320331408 0 0 0 0 0 -0.231247461137002 0
0.0917890609245823 0.172011320026138 0 0 0 0 0 0 0 0 0 0 0 0 0 0 0 0 0 0 0 0 0 0 0 0 0 0 0 0 0 0 0 0 0 0 0 0 0 0 0 0 -0.543931636654658 -4.89655525276621 0 0 0 0 0 0
0 0 0 0 0 0 0 0 0 0 0 0 0 0 0 1.79551693619616 0.254513920462631 0.0952467427823074 0.272012677451768 0.275011054675037 0.727004789367851 0 0 0 0 0 0 0 0 0 0 0 0 0 0 0 0 0 0 0 0 0 -1.11149053199279 -3.80069902059044 0 0 0 0 0 0
0.0618650952697525 1.02306722422074 0.484776243219215 0.520598754370019 0 0 0 0 0 0 0 0 0 0 0 0 0 0 0 0 0 0 0 0 0 0 0 0 0 0 0 0 0 0 0 0 0 0 0 0 0 0 -1.86290770546113 -3.50349502848463 0 0 0 0 0 0
0 0 0 0 0 0 0 0 0 0 0 0 0 0 0 0 0 0 0 0 0 0 0 0 0 0 0 0 0 0 0 0 0 0 0 0 0 0 0 0 0 0 -1.75956954254987 -0.571944299857438 0 0 0 0 0 0
0 0 0 0 0 0 0 0 0 0 0 0 0 0.177306559088566 0.509792576156752 0 0 0 0 0 0 0 0 0 0 0 0 0 0 0 0 0 0 0 0 0 0 0 0 0 0 0 -2.69829279934515 -1.90156137595478 0 0 0 0 0 0
0 0 0 0 0 0 0 0 0 0 0 0 0 0 0 0 0 0 0 0 0 0 0 0 0 0 0 0 0 0 0 0 0 0 0 0 0 0 0 0 0 0 -0.720099991454823 -4.37695719799358 0 0 0 0 0 0
0 0 0 0 0 0 0 0 0 0 0 0 0 0 0 0 0 0 0 0 0 0 0 0 0 0 0 0 0 0 0 0 0 0 0 0 0 0 0 0 0 0 0 -1.38443100933615 0 0 0 0 0 0
0 0 0 0 0 0 0 0 0 0 0 0.101382184510289 0 0 0 0 0 0 0 0 0 0 0 0 0 0 0 0 0 0 0 0 0 0 0 0 0 0 0 0 0 0 0 -0.363109529996532 0 0 0 0 0 0
0 0 0 0 0 0 0 0 0 0 0 0 0 0 0 0 0 0 0 0 0 0.177225460784891 0.174123159594182 0 0 0 0 0 0 0 0 0 0 0 0 0 0 0 0 0 0 0 0 -7.53093016117133 0 0 0 0 0 0
0 0.0521942860145575 0.151753859036569 0.155780611839163 0.230051066405872 0.0589599019805631 1.01768579593799 0 0 0 0 0 0 0 0 0 0 0 0 0 0 0 0 0 0 0 0 0 0 0 0 0 0 0 0 0 0 0 0 0 0 0 0 -1.57930654188734 0 0 0 0 0 0
0 0 0 0 0 0 0 0 0 0 0 0 0 0 0 0 0 0.046345160717965 0.0549518722146467 0.110416276153012 2.1737355253018 0.190982815096732 0 0 0 0 0 0 0 0 0 0 0 0 0 0 0 0 0 0 0 -1.7242328740143 0 -0.631545950210741 0 0 0 0 0 0
0 0 0 0 0 0 0 0 0 0 0 0 0 0 0 0 0 0 0 0 0 0 0 0 0 0 0 0 0 0 0 0 0 0 0 0 0 0 0 0 0 -1.59175432442422 0 -0.621118123568985 0 0 0 0 0 0
0 0 0 0 0 0 0 0 0 0 0 0 0 0 0 0 0 0 0 0 0 0.568149664997924 0.134193678588047 0 0 0 0 0 0 0 0 0 0 0 0 0 0 0 0 0 0 0 0 0 0 0 0 0 0 0
0 0 0 0 0 0 0 0 0 0 0 0 0 0 0 0 0 0 0 0 0 0 0.0466812760760774 0.192838964063466 0.1295011819929 0 0 0 0 0 0 0 0 0 0 0 0 0 0 0 0 0 0 0 0 0 0 0 0 0
0.0668534138252026 0.0625537146162473 0.17068623924992 0.090547245661584 0.11404045937925 0.134475176908361 0.218274012645657 0.416622203982759 0.099268456517487 0.344759493415073 0.0752565420943629 1.48919258444052 0.0501887221989202 0.198755757659705 0.0993803011500887 0 0 0 0 0 0 0 0 0 0 0 0 0 0 0 0 0 0 0 0 0 0 0 0 0 0 0 0 0 0 0 0 0 0 0
0 0 0 0 0 0 0 0 0 0 0 0 0 0 0 0.234941773265446 0.112764860279631 0.0841872864512061 0.291248296243435 0.218165198932483 0.141112519034161 0 0 0 0 0 0 0 0 0 0 0 0 0 0 0 0 0 0 0 0 0 0 0 0 0 0 0 0 0
0 0 0 0 0 0 0 0 0 0 0 0 0 0 0 0 0 0 0 0 0 0 0 0 0 0 0 0 0 0 0 0 0 0 0 0.349390877988287 0.311590613003482 0 0 0 0 0 0 0 0 0 0 0 0 0
0 0 0 0 0 0 0 0 0 0 0 0 0 0 0 0 0 0 0 0 0 0 0 0 0.0316940092320936 0.114060906967009 0.22475362623705 0.353453167507711 0.370665305606446 0.486303027153356 0.131021339045382 0 0 0 0 0 0 0 0 0 0 0 0 0 0 0 0 0 0 0
0 0 0 0 0 0 0 0 0 0 0 0 0 0 0 0 0 0 0 0 0 0 0 0 0 1.03255154167144 0.74682051253017 0.75707552920851 0.114833387362698 0.372961238388474 0.856411879546962 0.272532675290072 0.0690513188187544 1.44450009660431 0.29493914699042 0.116609650065971 0.123207122303712 0 0 0 0 0 0 0 0 0 0 0 0 0
0 0 0 0 0.035468915338095 0.364790770400062 0.644606948468626 0.0839871525529019 0.118677864946408 0.138685051544789 0.403342027179261 0 0 0 0 0 0 0 0 0 0 0 0 0 0 0 0 0 0 0 0 0 0 0 0 0 0 0 0 0 0 0 0 0 0 0 -0.123437305315923 0 0 0
0 0 0 0 0 0 0 0 0 0 0 0.0853071536776708 0.0727421468213775 0.39941225391071 0.230358926218701 0 0 0 0 0 0 0 0 0 0 0 0 0 0 0 0 0 0 0 0 0 0 0 0 0 0 0 0 0 0 0 -0.192179929078447 0 0 0
0 0 0 0 0 0 0 0 0 0 0 0 0 0 0 0 0 0 0 0 0 0 0 0 0 0 0 0 0 0 0 0 0 0 0 0 0 0 0 0 0 0 0 0 0.0258358993396851 0.0370215850753532 0 0.550641104768476 0 0
0 0 0 0 0 0 0 0 0 0 0 0.0743369562225196 0.094977827427649 0 0 0 0 0 0 0 0 0 0 0 0 0 0 0 0 0 0 0 0 0 0 0 0 0 0 0 0 0 0 0 0 0 -2.75539549894174 0 0 0
0 0 0 0 0 0 0 0 0 0 0 0 0 0 0 0 0 0 0.332545474833484 0.235707867242262 0.0215294976546466 0.0675693303034158 0.184583265521459 0.10996946072723 0.0449277196895533 0 0 0 0 0 0 0 0 0 0 0 0 0 0 0 0 0 0 0 0 0 0 0 0 0
0 0 0 0 0 0 0 0 0 0 0 0 0 0 0 0 0 0 0 0 0 0.632424628277081 0 0 0 0 0 0 0 0 0 0 0 0 0 0 0 0 0 0 0 0 0 0 0 0 0 0 0 0
