0 0 0 0 0 0 0 0 0 0 0 0 0 0 0 0 0 0 0 0 0 0 0 0 -1.71956221658211 0 0 0 0 0 0 0 0 0 0 0 0 -0.456083210978406 -0.772771241114372 0 0 0 0 0 0 0 0 0 0 0
0 0 0 0 -0.701828771464182 0 0 -1.62206132211832 0 0 0 0 -1.08598645743229 0 0 0 0 0 0 0 0 0 0 0 -0.950068311200782 0 0 0 0 0 0 0 0 0 0 0 0 -1.58560992296885 0 0 0 0 0 0 0 0 0 0 0 0
0 0 0 0 -0.710010829377323 0 0 0 0 0 0 0 -0.981835081558655 0 0 0 0 0 0 0 0 0 0 0 -0.679131852779365 0 0 0 0 0 0 0 0 0 0 0 0 -3.05969432385212 0 0 0 0 0 0 0 0 0 0 0 0
0 0 0 0 -0.481959984517738 0 0 0 0 0 0 0 0 0 0 0 0 0 0 0 -2.31875461553896 0 0 0 -0.825419063985404 0 0 0 0 0 0 0 0 0 0 0 0 0 0 0 0 0 0 0 0 0 0 -0.759788366995444 0 0
0 0.125476221429433 0.138334259437359 0.101600780896632 0 0 0 0 0 0 -0.675276645973151 0 0 -3.26070400967779 0 0 0 0 0 0 -0.690152337937468 0 0 0 0 0 0 0 0 0 0 0 0 0 0 0 0 0 0 0 0 0 0 -0.863994347768803 0 0 0 0 0 0
0 0 0 0 0 0 0 0 0 0 -0.626254243853518 0 0 0 0 0 0 0 0 0 -5.79164014788604 0 0 0 0 0 0 0 0 0 0 0 0 0 0 0 0 0 0 0 0 0 0 -2.17257278630979 0 0 0 0 0 0
0 0 0 0 0 0 0 0 0 0 0 0 0 0 -0.836197507049594 0 0 0 0 0 -1.97258394746358 0 0 0 0 0 0 0 0 0 0 0 0 0 0 0 0 0 0 0 0 0 0 -1.22040257907189 0 0 0 0 0 0
0 0.308196937401589 0 0 0 0 0 0 0 0 0 0 0 0 -1.59022197643491 0 0 0 0 0 -3.3273563244661 0 0 0 0 0 0 0 0 0 0 0 0 0 0 0 0 0 0 0 0 0 0 -5.80118867611392 0 0 0 0 0 0
0 0 0 0 0 0 0 0 0 0 0 0 0 0 0 -1.83162129953629 0 0 0 0 0 0 0 0 0 0 0 -0.945165218189803 0 0 0 0 0 0 0 0 0 0 0 0 0 0 0 -0.395179171324763 0 0 0 0 -0.450570853678016 0
0 0 0 0 0 0 0 0 0 0 0 0 0 0 0 -1.31466711730156 0 0 0 0 0 0 0 0 0 0 0 0 0 0 0 0 0 0 0 0 0 0 0 0 -0.356494110505922 0 0 0 0 0 -0.845238901640331 0 -1.36551061121708 0
0 0 0 0 0.132375546424431 0.130651647021705 0 0 0 0 0 0 0 0 0 -1.98026566468684 0 0 0 0 0 0 0 0 0 0 0 0 0 0 0 0 0 0 0 0 0 0 0 0 -1.50790405326444 0 0 0 0 0 -1.38319892312412 0 -0.262040762895737 0
0 0 0 0 0 0 0 0 0 0 0 0 0 0 0 -0.314410914434884 0 0 0 0 0 0 0 0 0 0 0 0 0 0 0 0 0 0 0 0 0 0 0 0 -1.49295605347448 0 0 0 0 0 -2.85848558464933 0 0 0
0 0.212335904314313 0.202846332028846 0 0 0 0 0 0 0 0 0 0 0 0 0 0 -0.0835058183793555 0 0 0 0 0 0 0 0 0 0 0 0 0 0 0 0 0 0 0 0 0 0 -0.726599300435828 0 0 0 0 0 -1.03881844777464 0 0 0
0 0 0 0 0.643334269135558 0 0 0 0 0 0 0 0 0 0 0 0 -1.3038086507452 0 0 0 0 0 0 0 0 0 0 0 0 0 0 0 0 0 0 0 0 0 0 -1.29525790990147 0 0 0 0 0 -1.00566847269485 0 0 0
0 0 0 0 0 0 0.183573265339717 0.342911258705165 0 0 0 0 0 0 0 0 0 -0.758112755358148 0 0 0 0 0 0 0 0 0 0 0 0 0 0 0 0 0 0 0 0 0 0 -2.04224460356777 0 0 0 0 0 -1.00563496867365 0 0 0
0 0 0 0 0 0 0 0 0.327473941237289 0.253548786611446 0.373762763511225 0.0629782602794901 0 0 0 0 0 0 0 0 0 0 0 0 0 0 0 0 0 0 -8.9327831376193 0 0 0 0 0 0 0 0 0 -0.312129655543396 0 0 0 0 0 0 0 0 0
0 0 0 0 0 0 0 0 0 0 0 0 0 0 0 0 0 0 0 0 0 0 0 0 0 0 0 0 0 0 -0.724954961035407 0 0 0 0 0 0 0 0 0 -0.501578586312912 0 0 0 0 0 0 0 0 0
0 0 0 0 0 0 0 0 0 0 0 0 0.0170756106649092 0.254375057682245 0.15727982909548 0 0 0 -3.05641175378706 0 0 0 0 0 0 0 0 0 0 0 -1.33440467195817 0 0 0 0 0 0 0 0 0 -1.45614598363802 0 0 0 0 0 0 0 0 0
0 0 0 0 0 0 0 0 0 0 0 0 0 0 0 0 0 0.668844906481875 0 0 0 0 0 0 0 0 0 0 0 -0.387898233843802 -0.063075366729895 0 0 0 0 0 0 0 0 0 -0.762408708046481 0 0 0 0 0 0 0 0 -1.68491518840087
0 0 0 0 0 0 0 0 0 0 0 0 0 0 0 0 0 0 0 0 0 0 0 0 0 0 0 0 0 -1.10221471069863 -1.0777871356263 0 0 0 0 0 0 0 0 0 -0.0536920293090666 0 0 0 0 0 0 0 0 -0.373061123270366
0 0 0 0.470355327827779 0.139907244560552 1.15517490483836 0.38466398845138 0.700713731970333 0 0 0 0 0 0 0 0 0 0 0 0 0 0 0 0 0 0 -1.30565934995434 0 0 0 -0.167951911189995 0 0 0 0 0 0 0 0 0 -0.588087835769407 0 0 0 0 0 0 0 0 -0.847317429393408
0 0 0 0 0 0 0 0 0 0 0 0 0 0 0 0 0 0 0 0 0 0 0 0 0 -0.245687134089198 -1.52600556609297 0 0 0 -0.253652035177244 0 0 0 0 0 0 0 0 0 -2.3012519783799 -1.48054050942248 0 0 0 0 0 0 0 -3.41512780423571
0 0 0 0 0 0 0 0 0 0 0 0 0 0 0 0 0 0 0 0 0 0 0 0 0 -1.31483769447165 -4.44877406779798 0 0 0 -1.61136337333094 0 0 0 0 0 0 0 0 0 -2.2595541326755 -1.27108366466191 0 0 0 0 0 0 0 -0.942075843205036
0 0 0 0 0 0 0 0 0 0 0 0 0 0 0 0 0 0 0 0 0 0 0 0 0 -1.00350126789 -0.359142362021129 0 0 0 -1.45936311359834 -2.84318645065158 0 0 0 0 0 0 0 0 -0.745717323554821 -2.01042597308613 0 0 0 0 0 0 0 -0.891246962952569
0.352081251043573 0.184509934967283 0.1334944284805 0.164263198130556 0 0 0 0 0 0 0 0 0 0 0 0 0 0 0 0 0 0 0 0 0 -0.114917194228006 -4.17583450111725 0 0 0 0 0 0 0 0 0 0 0 0 0 -2.48224069157461 -0.557352008932483 0 0 0 0 0 0 0 -8.57841171450348
0 0 0 0 0 0 0 0 0 0 0 0 0 0 0 0 0 0 0 0 0 0.0489881725994185 0.278647947897288 0.203519986442011 0.0232582870654607 0 -1.16762833160895 0 -2.09807501227856 0 0 0 0 0 0 0 0 0 0 0 0 0 0 0 0 0 0 0 0 -0.321295599020526
0 0 0 0 0 0 0 0 0 0 0 0 0 0 0 0 0 0 0 0 0.25785829417132 0.321350616898579 0.939349675393551 0.0736821473434155 0.839851037825877 0.242796714934306 0 0 -0.166443060788607 0 0 0 0 0 0 0 0 0 0 0 0 0 0 0 0 0 0 0 0 0
0 0 0 0 0 0 0 0 0.188087159453364 0 0 0 0 0 0 0 0 0 0 0 0 0 0 0 0 0 0 0 -0.198882735107681 0 0 0 0 0 0 0 0 0 0 0 0 0 0 0 0 0 0 0 0 0
0 0 0 0 0 0 0 0 0 0 0 0 0 0 0 0 0 0 0 0 0 0 0 0 0 0.384160531642704 0.0310539662953689 0.0380588037856554 0 0 0 0 0 0 0 0 0 0 0 0 0 0 0 0 0 0 0 0 0 0
0 0 0 0 0 0 0 0 0 0 0 0 0 0 0 0 0 0 0.0730762308518807 0.21728802873243 0 0 0 0 0 0 0 0 0 0 0 0 0 0 0 0 0 0 0 0 0 0 0 0 0 -1.11691424985393 0 0 0 0
0 0 0 0 0 0 0 0 0 0 0 0 0 0 0 1.87033272424275 0.144554274739251 0.275425143314483 0.0130665490002265 0.214788057992457 0.0329832130730975 0.0499827690721979 0.290756216916235 0.295651416971992 0 0 0 0 0 0 0 0 0 0 0 0 0 0 0 0 0 0 0 0 0 -0.927879277597855 0 0 0 0
0 0 0 0 0 0 0 0 0 0 0 0 0 0 0 0 0 0 0 0 0 0 0 0.561962279404325 0 0 0 0 0 0 0 0 0 0 0 0 0 0 0 0 0 0 0 0 0 -1.77438074469713 0 0 0 0
0 0 0 0 0 0 0 0 0 0 0 0 0 0 0 0 0 0 0 0 0 0 0 0 0 0 0 0 0 0 0 0 0 0 0 0 0 0 0 0 0 0 0 0 0 -1.71286792690452 0 0 0 0
0 0 0 0 0 0 0 0 0 0 0 0 0 0 0 0 0 0 0 0 0 0 0 0 0 0 0 0 0 0 0 0 0 0 0 0 0 0 0 0 0 0 0 0 0 -0.166092805873242 0 0 0 0
0 0 0 0 0 0 0 0 0 0 0 0 0 0 0 0 0 0 0 0 0 0 0 0 0 0 0 0 0 0 0 0 0 0 0 0 0 0 0 0 0 0 0 0 0 -0.188418194383626 0 0 0 0
0 0 0 0 0 0 0 0 0 0 0 0 0 0 0 0 0 0 0 0 0 0 0 0 0 0 0 0 0 0 0 0 0 0 0 0 0 0 0 0 0 0 0 0 0 -0.784128352677755 0 0 0 0
0 0 0 0 0 0 0 0 0 0 0 0 0 0 0 0 0 0 0 0 0 0 0 0 0 0 0 0 0 0 0 0 0 0 0 0 0 0 0 0 0 0 0 0 0 -0.721870112688414 0 0 0 0
0.0876210218541118 0.329421329393827 0.621384199718019 0 0 0 0 0 0 0 0 0 0 0 0 0 0 0 0 0 0 0 0 0 0 0 0 0 0 0 0 0 0 0 0 0 0 0 0 0 0 0 0 0 0 -1.1286439603999 0 0 0 0
0.141279437965799 0 0 0 0 0 0 0 0 0 0 0 0 0 0 0 0 0 0 0 0 0 0 0 0 0 0 0 0 0 0 0 0 0 0 0 0 0 0 0 0 0 0 0 0 -0.415071204549972 0 0 0 0
0 0 0 0 0 0 0 0 0 0 0 0 0 0 0 0 0 0 0 0 0 0 0 0 0 0 0 0 0 0 0 0 0 0 0 0 0 0 0 0 0 0 0 0 0 -1.1086852521831 0 0 0 0
0 0 0 0 0 0 0 0 0 0.077172933383444 0.294133741990874 0.294779789843584 0.149070450695918 0.255380977495471 0.398506105166093 0.0621653912524709 0.101999437006261 0.305468812234375 0.152978180655337 0.0105481808724411 0.112354920418769 0.477477477034332 0.447810025378598 0.140190862275683 0.463789378798102 0 0 0 0 0 0 0 0 0 0 0 0 0 0 0 0 0 0 0 0 -1.38971410801973 0 0 0 0
0 0 0 0 0 0 0 0 0 0 0 0 0 0 0 0 0 0 0 0 0 0.280435130634522 0.272402928792626 0.416175940442082 0.113514336913929 0 0 0 0 0 0 0 0 0 0 0 0 0 0 0 0 0 0 0 0 -0.325378517560722 0 0 0 0
0 0 0 0 0 0 0 0 0 0 0 0 0 0 0 0 0 0 0 0 0 0 0 0 0 0 0 0 0 0 0 0 0 0 0 0 0 0 0 0 0 0 0 0 0 -0.487973188815162 0 0 0 0
0 0 0 0 0.180532603454361 0.421366786815818 0.240032620239838 1.28427035890244 0.0777848395829241 0 0 0 0 0 0 0 0 0 0 0 0 0 0 0 0 0 0 0 0 0 0 0 0 0 0 0 0 0 0 0 0 0 0 0 0 -2.05816599517141 0 0 0 0
0 0 0 0 0 0 0 0 0 0 0 0 0 0 0 0 0 0 0 0 0 0 0 0 0 0 0 0 0 0 0 0 0 0 0 0 0 0 0 0 0 0 0 0 0 -1.32244958577054 0 0 0 0
0 0 0 0 0 0 0 0 0 0 0 0 0 0 0 0 0 0 0 0 0 0 0 0 0 0 0 0 0 0.24495875900894 0.173533924935519 0.367647399663659 0.350915050155345 0.0309231974308792 0.0385749823584575 0.151491627748782 0.137769132424417 0.230246167303767 0.0849856574389104 0.219307946428267 0.273143482613294 0.0642590834964125 0.0961779042816833 0.387132752078812 0.262303330003398 0 0.0845905587104665 0 0 0
0 0 0 0 0 0 0 0 0 0.168866108456761 0.288916460728331 0.576738512389707 0.206418726113917 0.196194915611342 0.214778514424204 0 0 0 0 0 0 0 0 0 0 0 0 0 0 0 0 0 0 0 0 0 0 0 0 0 0 0 0 0 0 -0.4084634730143 0 0 0 0
0 0 0 0.153196213669086 0 0 0 0 0 0 0 0 0 0 0 0 0 0 0 0 0 0 0 0 0 0 0 0 0 0 0 0 0 0 0 0 0 0 0 0 0 0 0 0 0 0 0 0 0 0
0 0 0 0 0 0 0 0 0.0981857301055105 0.271130491455732 0.0539030983582727 0 0 0 0 0 0 0 0 0 0 0 0 0 0 0 0 0 0 0 0 0 0 0 0 0 0 0 0 0 0 0 0 0 0 0 0 0 0 0
0 0 0 0 0 0 0 0 0 0 0 0 0 0 0 0 0 0 0.314273929503185 0.0759060627146745 0.166250109797552 0.633148692643701 0.177306517608674 0.171003998977553 1.74484239612797 0.0652922487705589 0 0 0 0 0 0 0 0 0 0 0 0 0 0 0 0 0 0 0 0 0 0 0 0
