2.52231072954716
1.00273542647767
1.2472602066345
1.51835325467207
1.26725524209877
1.93348361825321
0.475592666268005
1.81800584576065
0.2424218967056
0.402831100507842
0.164695014444934
1.11829269687326
0.59989628832592
0.595186850822743
3.13648893976253
0.152927405006431
0.315228681140897
0.601968594891918
1.94489713546129
0.553421708141737
3.78232911466645
2.29120918569733
1.30403803712009
0.4898341392076
1.45702036382111
0.472647368186613
2.00087318488747
0.358239168275139
0.714666284970978
2.70691959847717
0.441490218749331
2.13858201374268
0.908033939006931
0.511299856388207
2.26183704397394
0.454919569165792
1.04972440914986
3.82907121451962
2.67831707704212
0.774566365513529
1.71177850171822
1.85299298434782
1.99029047556153
2.00976507638955
0.173219701343132
3.26062689963531
0.576668402275192
0.561858402579149
0.566906546805735
1.1272322590252
