0.0133612025142556
0.0469173154475355
1.55304797600574
5.9922450142229
0.476789115614427
0.558875054300119
0.00872940974621425
0.294228572443497
0.346564540302383
0.1069603703381
0.957883888532168
0.0712005670522941
0.712533375568939
0.0999755985106682
0.857799272455051
2.3834989220828
0.565680582621716
0.275692825028973
0.766406955530974
2.52751110720708
0.211221340049415
0.892342405293439
0.0301475348107661
0.12890478688482
0.957684349856452
1.13984114677442
0.326997418564535
1.1510547639872
3.59637102792269
0.0908844856594712
0.387467177423312
0.028921572747208
1.70955774464398
2.37197787995486
0.646511185362649
0.111795443205119
0.772396067852413
3.79981522846052
0.213823914514642
0.0990257368780921
0.100513591603418
0.343311771432456
1.75844622430915
0.620852730150857
4.75571885516982
0.693708530476951
0.789866886364969
0.110083760752806
0.455127428638923
0.368937025540896
