0 0 0 0 0 0 0 0 0 0 0 0 0 -0.111406280722779 0 0 0 0 0 0 0 0 0 0 0 0 0 0 -0.723581992007585 0 0 0 0 0 0 0 0 0 0 0 0 0 0 0 0 0 0 0 0 0
0 0 0 0 -2.7249803375967 0 0 0 0 0 0 -2.08350524396917 0 -0.661376680253153 0 0 0 0 0 0 0 0 0 0 0 0 0 0 -0.7135634794019 0 0 0 0 0 0 0 0 0 0 0 0 0 0 0 0 0 0 0 0 0
0 0 0 0 0 0 0 -4.22891276071508 0 0 0 0 0 0 0 0 0 0 0 0 0 0 0 0 0 0 0 0 0 0 0 0 0 0 0 0 0 0 0 0 0 0 0 0 0 0 0 0 0 0
0 0 0 0 0 0 0 -0.762155001997599 0 0 0 0 0 0 0 0 0 0 0 0 0 0 0 0 0 0 0 0 0 0 0 0 0 0 0 0 0 0 0 0 0 0 0 0 0 0 0 0 0 0
0 0.582306998734988 0 0 0 0 0 -2.0207929182268 0 0 0 0 0 0 0 0 0 0 0 0 -3.20153645533381 0 0 0 0 0 0 0 0 0 0 0 0 0 0 0 0 0 0 0 0 0 0 0 0 0 0 0 0 0
0 0 0 0 0 0 0 -1.29872166192686 0 0 0 0 0 0 0 0 0 0 0 0 -1.79012164219809 0 0 0 0 0 0 0 0 0 0 0 0 0 0 0 0 0 0 0 0 0 0 0 0 0 0 0 0 0
0 0 0 0 0 0 0 0 0 0 0 0 0 0 0 0 0 0 0 0 -3.12666301929771 0 0 0 0 0 0 0 0 0 0 0 0 0 0 0 0 0 0 0 0 0 0 0 0 0 0 0 0 0
0 0 0.866234686032924 0.142215064434163 0.430272810588796 0.25589578801203 0 0 0 0 0 0 0 0 0 0 -0.6281161209979 0 0 -4.10678385193609 -0.405710378643675 0 0 0 0 -2.32682871267637 0 0 0 0 0 0 0 0 0 0 0 0 0 0 0 0 0 0 0 0 0 0 0 0
0 0 0 0 0 0 0 0 0 0 0 0 -0.371249819509259 0 0 0 0 0 0 -0.451859718114222 -0.126619610182603 0 0 0 0 -4.58772248502837 0 -0.773015748971011 0 -0.55151097462159 0 0 0 0 0 0 0 0 0 0 -2.82697772737905 0 0 0 0 0 0 0 0 0
0 0 0 0 0 0 0 0 0 0 -0.527220771501554 0 -3.0975320528771 0 0 -0.403610948681437 0 0 0 -0.0967667396949319 0 0 0 0 0 -0.209818415016463 0 -0.260227643996258 0 0 0 0 0 0 0 0 0 0 0 0 -6.27967966092264 0 0 0 0 0 0 0 0 0
0 0 0 0 0 0 0 0 0 0.110937837601168 0 0 0 0 0 -0.626655106067193 0 0 0 -2.8048892704517 0 0 0 0 0 -1.99833693602874 0 -1.01561812713997 0 0 0 0 0 0 0 0 0 0 0 0 0 0 0 0 0 0 0 0 0 0
0 0.436294287817113 0 0 0 0 0 0 0 0 0 0 0 0 0 -1.46292528875734 0 0 0 0 0 0 0 0 0 -0.330200420008994 0 -1.54329439319799 0 0 0 0 0 0 0 0 -1.53177357409539 0 0 0 0 0 0 0 0 0 0 0 0 0
0 0 0 0 0 0 0 0 0.0752761703759996 0.561305142810723 0 0 0 0 -0.50468384377199 0 0 -0.245006404231884 0 0 0 0 0 0 0 0 0 -0.459862936104269 0 0 0 0 0 0 0 0 -0.938970499634909 0 0 0 0 0 0 0 0 0 0 0 0 0
0.0228287485940148 0.127879133186167 0 0 0 0 0 0 0 0 0 0 0 0 -1.52316452999306 0 0 -0.411283924937305 0 0 0 0 0 0 0 0 0 -5.88967507157594 0 0 0 0 0 0 0 0 -3.31784951902482 0 0 0 0 0 0 0 0 0 0 0 0 0
0 0 0 0 0 0 0 0 0 0 0 0 0.102305966614374 0.310780829107463 0 0 0 0 0 0 0 0 0 -1.33380251011144 0 0 0 -1.31767834356023 0 0 0 0 0 0 0 0 -2.14462458943581 0 -2.34654490807659 0 0 0 0 0 0 0 -0.648708758689718 0 0 0
0 0 0 0 0 0 0 0 0 0.0821741825066461 0.129735284034664 0.314965716227374 0 0 0 0 0 0 0 0 0 0 0 -0.712933015610939 0 0 0 -1.58863861766625 0 0 0 0 0 0 0 0 -0.273779633012811 0 -2.73581238120328 0 0 0 0 0 0 0 -0.248370132924671 0 0 0
0 0 0 0 0 0 0 0.122422926626499 0 0 0 0 0 0 0 0 0 0 0 0 0 0 0 0 0 0 0 -1.30256076662755 0 0 -1.3072639394678 0 0 0 0 0 -1.57733668667327 0 -2.635314097609 0 0 0 0 0 0 0 -0.557991247418803 0 0 0
0 0 0 0 0 0 0 0 0 0 0 0 0.0523365359375122 0.0761734686121751 0 0 0 0 -1.47540193477536 0 0 0 0 0 0 0 0 0 0 0 -3.50332302192646 0 0 0 0 0 -0.628352881670216 0 -0.872440140372153 0 0 0 0 0 0 0 -0.87993754219978 0 0 0
0 0 0 0 0 0 0 0 0 0 0 0 0 0 0 0 0 0.315229245466174 0 0 0 0 0 0 0 0 0 0 0 0 -3.08157911113534 -0.862337602980443 0 0 0 0 -1.54344663867554 0 0 0 0 0 0 0 0 0 0 0 0 0
0 0 0 0 0 0 0 0.848572011708923 0.095746889916799 0.017722268947711 0.577219142157636 0 0 0 0 0 0 0 0 0 0 0 -1.53514517144316 0 0 0 0 0 0 0 -0.607167331563089 -1.67494832628303 0 0 0 0 0 0 0 0 0 0 0 0 -0.0670310712445838 0 0 0 0 0
0 0 0 0 0.650388328541672 0.366491330971972 0.67718650894548 0.0789064320475423 0.0276512536139128 0 0 0 0 0 0 0 0 0 0 0 0 0 -5.07741511333923 0 0 0 0 0 0 0 -0.909016950720125 -0.882918192344606 0 0 0 0 0 0 0 0 0 0 0 0 -3.21448046050859 0 0 0 0 0
0 0 0 0 0 0 0 0 0 0 0 0 0 0 0 0 0 0 0 0 0 0 -0.672842186013649 0 0 0 0 0 0 0 -1.92143527557795 -1.43700742737735 0 0 0 0 0 0 0 0 0 0 0 0 0 0 0 0 0 0
0 0 0 0 0 0 0 0 0 0 0 0 0 0 0 0 0 0 0 0.316597565839004 1.03641044866607 0.127825432999478 0 0 0 0 0 0 0 0 0 0 -0.449626776304798 0 0 0 0 0 0 0 0 0 0 0 0 -0.612375612694868 0 0 0 -6.399433637
0 0 0 0 0 0 0 0 0 0 0 0 0 0 0.282392996662261 0.141423672296497 0 0 0 0 0 0 0 0 0 0 0 0 0 0 0 0 0 0 0 0 0 0 0 0 0 0 0 0 0 0 0 0 0 -2.74077255743318
0 0 0 0 0 0 0 0 0 0 0 0 0 0 0 0 0 0 0 0 0 0 0 0 0 0 0 0 0 0 0 0 0 0 0 0 0 0 0 0 0 0 0 0 0 0 0 0 0 -1.99214679260999
0 0 0 0 0 0 0 0.457889352488204 0.989596239818306 0.0382084569511618 0.383548603119582 0.0739841391636096 0 0 0 0 0 0 0 0 0 0 0 0 0 0 0 0 0 0 0 0 0 0 0 0 0 0 0 0 0 0 0 0 0 0 0 0 -3.71329029766996 -0.750738191662648
0 0 0 0 0 0 0 0 0 0 0 0 0 0 0 0 0 0 0 0 0 0 0 0 0 0 0 0 0 0 0 0 0 0 0 0 0 0 0 0 0 0 0 0 0 0 0 0 -0.505737129380146 -0.394399176056814
0 0 0 0 0 0 0 0 0.161288683238358 0.055443157219708 0.202427394764777 0.334325998202037 0.0947993440133085 1.09666917437861 0.249232716256373 0.319356771540233 0.239754877778938 0 0 0 0 0 0 0 0 0 0 0 0 0 0 0 0 0 0 0 0 0 0 0 0 0 0 0 0 0 0 0 0 -0.989408827001063
0.152846744091846 0.140015075984125 0 0 0 0 0 0 0 0 0 0 0 0 0 0 0 0 0 0 0 0 0 0 0 0 0 0 0 0 0 0 0 0 0 0 0 0 0 -0.299000952590804 0 0 0 0 0 0 0 0 0 -0.535586032040119
0 0 0 0 0 0 0 0 0.109747609123678 0 0 0 0 0 0 0 0 0 0 0 0 0 0 0 0 0 0 0 0 0 0 0 0 0 0 0 0 0 0 -1.99991906145583 0 0 0 0 0 0 0 0 0 -5.07014790998983
0 0 0 0 0 0 0 0 0 0 0 0 0 0 0 0 0.234598010967965 0.763334486053224 0.626008769356995 0.111410556628962 0.172808705759443 0.366858599957826 0 0 0 0 0 0 0 0 0 0 0 0 0 0 0 0 0 0 0 0 0 0 0 0 0 0 0 0
0 0 0 0 0 0 0 0 0 0 0 0 0 0 0 0 0 0 0.181307902429027 0.347410857051102 0.192699442903627 0.278854502524339 0 0 0 0 0 0 0 0 0 0 0 0 0 0 0 0 0 0 0 0 0 0 0 0 0 0 0 0
0 0 0 0 0 0 0 0 0 0 0 0 0 0 0 0 0 0 0 0 0 0 0.0924994144198822 0 0 0 0 0 0 0 0 0 0 0 0 0 0 0 0 0 0 0 0 0 0 0 0 0 0 0
0 0 0 0 0 0 0 0 0 0 0 0 0 0 0 0 0 0 0 0 0 0 0 0 0 0 0 0 0 0 0 0 0 0 0 0 0 0 0 0 0 0 -0.66342066600165 0 0 0 0 0 0 0
0 0 0 0 0 0 0 0 0 0 0 0 0 0 0 0 0 0 0 0 0 0 0 0 0 0 0 0 0 0 0 0 0 0 0 0 0 0 0 0 0 0 -0.67554105507453 0 0 0 0 0 0 0
0 0 0 0 0 0 0 0 0 0 0 0 0 0 0 0 0 0 0 0 0 0 0 0 0 0 0 0 0 0 0 0 0 0 0 0 0 0 0 0 0 0 -3.62608816902284 0 0 0 0 0 0 0
0 0 0 0 0 0 0 0 0 0 0 0.314414138514138 0.181258185321057 0.664381363657895 0.421176075403559 0.0597036775353378 0.334414538920346 0.117958243481845 0.294682788267449 0 0 0 0 0 0 0 0 0 0 0 0 0 0 0 0 0 0 0 0 0 0 0 -4.02466632202513 0 0 0 0 0 0 0
0 0 0 0 0 0 0 0 0 0 0 0 0 0 0 0 0 0 0 0 0 0 0 0 0 0 0 0 0 0 0 0 0 0 0 0 0 0 0 0 0 0 -1.25651184151469 0 0 0 0 0 0 0
0 0 0 0 0 0 0 0 0 0 0 0 0 0 0.473043650183463 0.548397495605736 0.522885652262148 0.175416689394071 0 0 0 0 0 0 0 0 0 0 0 0 0 0 0 0 0 0 0 0 0 0 0 0 -1.08351754988966 0 0 0 0 0 0 0
0 0 0 0 0 0 0 0 0 0 0 0 0 0 0 0 0 0 0 0 0 0 0 0 0 0 0 0 0.0634210951456205 0.39300706370424 0 0 0 0 0 0 0 0 0 0 0 0 0 0 0 0 0 0 0 0
0 0 0 0 0 0 0 0 0.602012448289228 1.2412281309831 0 0 0 0 0 0 0 0 0 0 0 0 0 0 0 0 0 0 0 0 0 0 0 0 0 0 0 0 0 0 0 0 0 -2.46718032153677 0 0 0 -3.01246982808185 0 0
0 0 0 0 0 0 0 0 0 0 0 0 0 0 0 0 0 0 0 0 0 0 0 0 0 0 0 0 0 0 0 0 0 0 0 0 0 0 0 0 0 0 0 -0.63011040302535 0 0 0 -1.03752141724474 0 0
0 0 0 0 0 0 0 0 0 0 0 0 0 0 0 0 0 0 0 0 0 0 0 0 0 0 0 0 0 0 0 0 0 0.127937525745478 0.121603290248037 0.802905191663497 0.766330083299676 0.250393039103152 0.218933005193092 0 0 0 0 -0.1379255959841 0 0 0 -4.27451819331878 0 0
0 0 0 0 0 0 0 0 0 0 0 0 0 0 0 0 0 0 0 0 0 0 0 0 0 0 0 0 0 0 0 0 0 0 0 0 0 0 0 0 0.489444000237094 0.131445737891728 0.0258479831250669 0 0 0 0 0 0 0
0 0 0 0 0 0 0 0 0 0 0 0 0 0 0 0 0 0 0 0.0134426518997121 0.632719777785702 0 0 0 0 0 0 0 0 0 0 0 0 0 0 0 0 0 0 0 0 0 0 0 0 0 0 0 0 0
0 0 0 0 0 0 0 0 0 0 0 0 0 0 0 0 0 0 0 0 0 0 0.121452070434123 0 0 0 0 0 0 0 0 0 0 0 0 0 0 0 0 0 0 0 0 0 0 0 0 0 0 0
0 0 0 0 0 0 0 0 0 0 0 0 0 0 0.132140745062364 0.0491313025866805 0.109624160012139 0.18081546744967 0 0 0 0 0 0 0 0 0 0 0 0 0 0 0 0 0 0 0 0 0 0 0 0 0 0 0 0 0 0 0 0
0 0 0 0 0 0 0 0 0 0 0 0 0 0 0 0 0 0 0 0 0 0 0 0 0 0 0 0 0 0 0 0 0 0 0 0 0 0 0 0 0.60411463455589 0.200478653055907 0.844439084720614 0 0 0 0 0 0 0
0 0 0 0 0 0 0 0 0 0 0 0 0 0 0 0 0 0 0 0 0 0 0 0 0 0.738440819082521 0.0906562844975494 0 0 0 0 0 0 0 0 0 0 0 0 0 0 0 0 0 0 0 0 0 0 0
0 0 0 0 0 0 0 0 0 0 0 0 0 0 0 0 0 0 0 0 0 0 1.3346221783801 0.577821602196192 0.406893360831881 0.138280222373717 0.0834661490137629 0.1864259251721 0.0969259319846084 1.04703291977781 0 0 0 0 0 0 0 0 0 0 0 0 0 0 0 0 0 0 0 0
