2.53080700181452
0.43445853380078
0.0509627229779999
0.130907759941212
0.210293955376321
0.987126228045377
2.08674236301083
0.219449630923189
5.41542514851513
4.3204638047405
0.418129834980698
0.348632309152593
1.4650571885908
1.32326401585272
2.96089435199651
0.220951267687753
0.0469691639403437
0.477242793995427
0.772188069071599
5.82864851107174
3.63605401519738
2.94840639601515
1.40067468360697
0.0640559531281359
0.115773069126064
0.567206542838776
0.398640035895416
0.736039742313009
0.124871934242237
0.454983752994268
2.25408661276514
0.471601329073281
0.31971860482048
0.537072744659954
2.79579002271336
0.246657345772536
2.38123111831078
1.29456324216553
1.19060185718222
1.34447864002443
2.03674234518434
2.03103330321245
0.882691270674114
0.285322812823577
0.578141000040888
0.115818290809297
0.0791809394171713
1.54883869965452
0.646020626552856
1.24304827275264
