0.845369352924892
0.0344256884505554
1.05370914754318
1.92908098068308
0.414000963423645
0.123911135982454
0.205118220038468
0.175580832443918
0.0400520775032143
0.696009001176096
0.0896538346695698
1.04971656973196
0.173067356378841
0.154474166838696
0.562132557236249
0.178792135082187
0.0450087465245213
0.999988494637883
1.48832401070043
0.393116107544493
0.0288242660526727
0.0688761137757036
0.0979103779203488
0.340859706093591
0.11763299240073
0.45693641435518
0.0785006465811793
8.41646247827185
2.68670028494533
3.00977307214563
0.330936178699958
2.22771043428194
0.125994078395471
0.929730088658833
2.79372787188855
0.172988507048433
1.7085197845626
1.12408202133223
0.2122461064347
1.03528782212024
1.27490075649915
0.073894384034524
2.05441221454453
0.699165005596984
0.187335011456314
1.80305490183741
4.01751217234313
0.267720877241206
0.366574184786453
5.31663021607256
