0.319671258597142
1.07269123387876
1.05815098657501
0.277759247050197
3.55230160501545
0.590181422729928
1.66481232306054
1.62174039513913
1.11182711659151
0.748842571092659
0.719189253257497
2.95848474529202
2.56788807855288
0.21216076788677
0.596295712179377
0.441636899955459
3.24136973936822
1.37399984697355
2.87677422351319
2.6672873510227
1.74654204792637
0.858827582837714
0.296241036579095
1.00889884701793
2.1563076556466
1.96219455874163
0.238719001377027
3.53127144028854
0.882619025211293
0.892791918524467
1.49733247340306
0.160453446037317
0.731073883168034
1.88714217095626
2.43667875272765
1.12031395870195
3.16528389053083
1.28740380494777
0.431182453826221
0.823825374631932
1.56792642960784
0.830396913301932
0.207342067788648
0.671766908469592
1.32160022396972
1.16437175507507
0.389777517899534
0.1820245893787
2.4097268440653
0.470575470408732
