0.278880718870956
1.07050073518509
0.162215155581669
0.386948845106362
0.835441847724655
0.716020247588346
0.147960035156736
0.00656994461016673
0.457406957820076
1.71023119260365
0.373823521679671
0.197513700832453
1.55362533296691
2.58923422800194
1.62147382015538
0.020577320379678
0.704345553099104
1.63025294340373
0.341115198916608
1.68077232868841
1.65473282405896
0.212725033986248
1.68082611110587
0.165176399693613
0.802744658500295
2.40033186482233
1.28985857166149
0.933359995584521
0.947396609490717
0.440430947216888
1.24569182946307
0.616306117528815
5.71994938047108
0.292236556020479
1.3651172397097
0.293688967512054
0.47219984033094
1.09484486356321
0.976281070848283
0.409897315584667
1.31915021579345
0.254364522486158
2.03587088869106
0.147448027477384
0.183481267665944
0.219225024825078
2.54832995840581
0.242169756424578
2.5526388787777
1.08488588942259
