1.78828260707698
3.70693410050165
3.80117786686338
1.31349377776193
0.544326573190937
0.366897872483133
1.04078140509619
0.172099837162216
2.65850912138971
0.206941037305295
0.677994153294979
1.46289347191277
0.871486405035265
3.09687980269058
1.03171680506271
0.840988459322332
0.488037447435076
0.677978828318208
0.265593378398422
0.209516189169161
0.556055769264254
2.07306191216802
7.56072857406887
0.841826391701772
0.352627712587235
1.05002982407596
2.41170580233265
0.494058906422064
1.36404372555346
1.33111600501158
1.66194597810823
0.86838325243685
1.32161758956164
4.99055457090283
0.134552536890548
0.457069242614145
2.97429653967711
0.294399917605776
1.34323214991642
6.9822798304786
0.195498663140884
3.07201314814497
0.359164714312466
1.30616172628021
2.32165052800195
1.10145470403981
0.298496834171659
1.42235073957054
0.930498663580717
0.577649775859992
