0.248356929685655
3.40064692205377
0.0817782995785957
0.120268954552111
0.0518222508241985
1.0545619492182
0.672476085689018
0.368349672957766
0.806348409208512
0.171525179891598
0.391466694708088
0.241325732100419
1.11922408191899
1.70826513665271
0.411873577973706
0.797887536956174
0.428567854168196
0.157144473836572
0.17655395356603
0.482153220340535
0.325057517405843
0.216912246051119
0.211486623047726
0.0901019221645253
3.62613447422878
0.351731135047743
0.907974015478293
0.134530879274054
0.373869886559087
2.3612675207186
0.768817886582706
2.43222360453743
0.170880988906968
0.22746296510215
0.343948032094715
0.222329728080381
0.138333656215483
0.836034158642525
0.333429368379947
0.555838297537188
1.1940318867758
0.217612457663398
0.199139933926977
4.14152216907022
0.38160003057846
0.339387694876028
1.02511038486809
1.90710992385625
0.235077755059623
1.16081170110889
