2.62774419305488
1.28961121182416
0.114893421759855
0.245759103301737
0.0863605724006193
0.00948529627264427
0.140884791470811
1.63417360523593
0.298166213675121
0.588375451773813
0.529468380379713
0.725259941132239
1.81267279300578
0.943459594247843
1.98031632639676
0.257471852671949
0.0440901956195798
0.650645909711239
0.460382847009774
0.53542604698139
0.75140767935449
3.89832886580538
0.666884563478971
0.187660693837584
0.355089313921689
0.0243412386002056
0.32554734026715
2.2099415011492
1.56779031562911
0.279545946175949
0.0599632470413278
2.33106184016201
0.0733492797372169
1.01013780499775
0.631823828665773
1.69550908607375
0.0941294492365624
0.170936074051175
3.14911664226961
1.61230508910071
0.490837771230434
0.0225243425051793
0.240872777969757
0.224428321732894
1.32665836757226
0.0263702146232231
0.156577004223107
2.99927487111108
0.315254913321443
0.282555107526865
