1.56723671780888
2.03881579779974
1.76639903236825
1.96610585800684
1.83482426252598
0.830756264770622
0.322053973635957
0.992857126316001
0.423544734538986
1.08029580285375
1.37408103869599
1.51462738660285
0.770768908963999
2.02472655484833
2.13290563096582
1.31097681153489
0.616767300219152
0.684731991685124
0.635172577818044
1.89327033523893
0.363145186127778
1.86385099314576
0.726337052225767
1.08784430538861
1.66698532606342
0.210754678918859
0.834103427205201
0.880060077781887
0.581838605712098
0.760032627688167
1.97242544804141
0.393916779386736
2.06671440772894
1.32288036631098
0.629034002450239
0.795420397601324
0.502620043951026
0.649879758710098
1.1866965870966
1.15592694122578
2.58017973105979
1.40278670984862
1.17926535546037
0.799490438199396
0.291728107574182
0.555885967363178
0.233743591205485
0.744465778835767
0.741611558435734
1.27980707740695
