0.254138297570081
1.25653025251417
0.557312500499663
2.23862463069755
0.426988375252739
0.115946408127591
0.922305873868406
1.0109228214022
0.442565110101995
0.431305542652896
1.06502578774101
0.312607939891159
0.905010678106375
0.257801662889651
0.578560084313471
1.64821866494783
0.0715501393877316
0.716552610537002
0.598501134555086
1.10147785855906
0.214611929234327
0.702279886091772
0.0434614654557775
0.291122141720045
0.127667575738447
0.191282374987907
1.05330950215251
1.08734012474572
1.81576388298013
0.801829413270641
0.50277911348471
1.41480932560644
2.27872399612633
1.31399350733661
0.175073106629395
1.37108147679983
0.20830023852959
0.629133593996439
0.620569621939809
1.45891904328685
1.28853953459968
0.436474091797267
0.30735871768848
1.930289901999
1.69842855617398
0.292068421767939
0.134061250757309
0.147826192906238
1.02642192113126
0.560550429986095
