2.17232824238083
0.851626099707647
1.54818952950525
0.225227084277811
1.14365039385648
5.1076272495586
0.865345293648282
0.436044558946962
1.97704709555086
0.46392107398606
3.95222790854145
1.04525584476578
1.00764661937277
1.43937511837522
0.500603716260973
1.16438278689753
0.563403037963863
0.761433608984414
3.96340230855206
0.332058672070717
0.169649461647743
0.557317711345366
0.824157791594941
0.276028177946748
1.7823352649564
4.46704647876527
0.173451990901995
0.188071825068725
1.16722617710134
1.05624166835807
0.837680717012777
0.987322466840324
0.763457586571139
0.486765048725745
1.20485217714745
0.758689215373955
0.136291849905648
0.331984393458875
1.69232221600045
0.207645298322557
0.22851569847906
0.387821271566877
0.852490555875448
1.07764986148825
0.583862778724201
1.34214915410703
2.82105562867603
0.686094038831652
0.372659342382823
1.72274344184046
