0.0868711297206667
1.12771868383282
0.803647312079172
0.870513260362535
0.241340246564194
1.85219488959341
0.380749285252369
2.76653131920664
1.15297232295483
0.425641428004752
0.696383075867593
0.992115116277841
0.344425963569947
1.26150902356073
1.45192825188106
0.168819630490155
0.740010823538764
1.80627201233962
1.01519956817775
0.461161137492347
1.68848234000703
0.446513141467282
0.298047988931882
0.590272252471663
2.43247243054156
2.54757332417174
0.843764885922039
0.500968839099873
2.34344241709702
2.6083952486647
0.0843840953384657
0.475546844621661
0.496443195143153
1.43195626025447
1.69025899671281
0.20099739480897
0.540229980611326
1.16284018652367
0.502003358321347
0.276826608071154
0.0538778939463902
0.219010966857676
0.456726975025833
0.575100358290031
0.489171813378331
1.64124474679672
1.90963477789677
0.236369834524665
0.174133252995753
0.599276642815628
