0.0795132740334613
0.396951906652627
1.83786834611664
0.715815285254374
2.04800560322336
0.263401862218094
0.708195967398449
0.738644259739732
1.43460470897837
0.229369833021132
1.40235115145127
0.374884752193197
0.227086700068649
0.123865939034732
1.23390904296234
1.06150318455997
0.381296230338181
0.31240374328766
0.267077756795758
0.0669799071172563
1.54809098832713
0.0830723397890837
3.25944497437643
0.306176076833651
0.349320837729003
0.913208360646623
3.37002225268257
0.314437186650373
1.12181766002378
0.431557766389925
0.234742931438372
0.342259186928607
0.338439766814208
0.904241120912359
0.946170858125687
2.4315396281093
0.170490188251079
0.415128765792735
0.0381987027462762
0.564603961952648
0.406638000529263
1.59503275707839
0.272219934609362
0.0650790028274258
1.10301233524247
0.830952942705544
0.589540094801736
0.281900504937868
0.248467083271546
0.810575420947879
