5.96517754399279
0.302204947266744
0.937549445846943
2.4662505622035
0.619421421347275
1.04327706569167
1.15093748637327
0.839825546583469
0.51518064605331
1.57967244669773
0.374754331344603
0.30589679151218
1.35302424892147
0.655713545608151
0.555811004093468
0.760309960340343
0.97711539197488
2.36046696044895
0.332117767538159
1.35973519010782
0.166622251084439
4.41448825575353
0.801259706934927
0.406059468480529
3.25990740289386
0.551227904359584
0.902753517138848
0.461448254604385
3.03475676508985
1.08327777704332
0.507095028633385
1.1232331563616
7.8621269148464
0.335281412841575
2.6768361586612
0.609180920747338
1.73708357960031
1.43544644341635
0.137425863118122
1.01701814106106
0.0794299596492711
1.21622142831391
0.558562734250318
0.969061251771319
3.58057339933199
0.765400851148971
0.201091582420431
0.321032934387488
0.234492138235787
1.0337898579924
