0.2563740110198
0.443221455894956
1.59803064876193
0.84586116409463
3.68987104372831
0.810114810155287
0.156324014900315
0.0615631269770444
2.98719332484673
0.39248793956559
0.549216146599722
0.927480631730458
1.48864303229029
1.18926521085079
0.579120585122089
0.642892369552367
2.70447327344935
0.081042994014798
0.855159332532245
1.37368581013827
0.253810610132602
0.351264803823379
0.789598328909629
0.188145544798364
2.51597737742393
0.836591036971027
1.02902846175267
1.25873956317247
1.75834090863153
0.0408005398279464
0.642161807522779
0.0927582658210284
0.068987011244882
0.405108937508369
2.28950174867685
1.35670797315163
0.99081846144876
0.168533325926726
0.0139363958569867
1.61467175294587
2.56970305818987
0.288243424159482
0.373739015696226
1.33723208576565
0.645622233374604
1.0147506922973
0.16946492864903
0.53934162515958
0.0391386487864928
1.32004550426978
