3.19753290944965
1.62202891800538
0.585782104751238
2.73005719171058
1.54417599729618
1.98469390072038
1.72400582545902
0.677190143323391
0.0495664674139072
0.896221405191047
0.523266620684044
1.99661447791971
3.75344401044436
0.377729103847722
1.72692307033305
1.24282439635309
0.263085234656763
1.77951435796682
1.9626495295963
1.18492133831584
0.14017175516165
3.10117453595225
2.12806799446856
3.04248547298461
1.03990273833029
0.74372712603187
1.03861081503989
2.33080561179567
1.89441853265795
0.99910085158031
0.519930342138201
0.916594755150064
2.91026259981274
2.03496787896559
1.97983781859833
0.682666594030327
0.71645370443696
0.177409857537635
0.246846210034192
1.9875400380309
0.384859421862218
3.15677638604666
0.0889316838750683
0.487723568048455
0.602451990784885
0.808378411524567
1.22189615892271
2.95245741091133
0.336126464478373
0.105965450475625
