1.95860868300756
0.283766591126592
0.326365882837822
0.0595660141965383
0.162747277379338
3.27135863442647
1.49131309048432
1.22798426599438
1.96710245890866
2.09917503548404
0.180444428642837
0.562326947235232
0.66591081714145
0.0736965058245596
5.4011140515941
0.220786087607966
2.46079831048998
0.207353295517854
0.284587873979688
0.72625219575033
0.808229704548729
0.543686717382182
0.604888779711464
0.271061268742035
0.35267830888592
0.0525301170208757
0.115630803266683
0.0744094541997516
0.29919676548118
0.24400553744705
1.59577912624701
0.0168929365106243
4.29475717376812
0.891319961373266
0.0645115248929008
1.12304973203916
1.39473238840565
0.426147251814958
0.24050893750516
0.887444052270494
0.650609443559025
0.744383930028123
0.182097065598009
0.714434776916443
1.31527175391355
0.0762754604146029
0.700805958903441
0.595610235656378
1.09868114028412
0.240375757738086
