0 0 0 -0.990693003788851 0 0 -4.98361947327162 0 0 0 0 0 0 0 0 0 0 0 0 0 0 0 0 0 0 0 0 0 0 0 0 0 0 0 0 0 0 0 0 0 0 0 0 0 0 0 0 0 0 0
0 0 0 0 0 0 0 0 -4.0466001182495 0 0 0 0 0 0 0 0 0 0 0 0 0 0 0 0 0 0 0 0 0 0 0 0 0 0 0 0 0 0 0 0 0 0 0 0 0 0 0 0 0
0 0 0 0 0 0 0 0 -1.18229096931592 0 0 0 0 0 0 0 0 0 0 0 0 0 0 0 0 0 0 0 0 0 0 0 0 0 0 0 0 0 0 0 0 0 0 0 0 0 0 0 0 0
0.20310479708106 0 0 0 0 0 0 0 0 0 0 0 0 0 0 -0.658639618432708 0 0 0 0 0 0 0 0 -0.299257894780669 -3.55154694387487 0 0 -2.12273660878277 0 0 0 0 0 0 -0.913649540165721 0 0 0 0 0 0 0 0 0 0 0 0 0 0
0 0 0 0 0 0 0 0 0 0 0 -5.88850005609673 0 0 0 0 0 0 0 0 0 0 0 0 0 -0.499652162506565 0 0 -1.97946051915897 0 0 0 0 0 0 -2.06492592860768 0 0 0 0 0 0 0 0 0 0 0 0 0 0
0 0 0 0 0 0 0 0 0 0 0 -0.730236532405178 0 0 0 0 0 0 0 0 0 0 0 0 0 -0.429590794206549 0 0 -2.57637814149175 0 0 0 0 0 -1.37160337249143 -1.4563958622166 0 0 0 0 0 0 0 -1.29787361010415 0 0 0 0 0 0
1.04468680186578 0 0 0 0 0 0 0 0 -0.479747708194914 0 0 0 -3.76845704838643 -1.6526418407685 0 0 0 0 0 0 0 0 0 0 -2.05837306952363 0 0 0 0 0 0 0 0 0 0 0 0 0 0 0 0 0 0 0 0 0 0 0 0
0 0 0 0 0 0 0 0 0 0 0 0 0 0 -2.10914172324941 0 0 0 0 0 0 0 0 -0.28361855094743 0 0 0 0 0 0 0 0 0 0 0 0 0 0 0 0 0 0 0 0 0 0 0 0 0 0
0 0.800408703353738 0.207592892429355 0 0 0 0 0 0 0 0 0 0 0 0 0 0 0 0 0 0 0 0 -2.60409471176104 0 0 0 0 0 0 -0.345632953708691 0 0 0 0 0 0 0 0 0 0 0 0 0 0 0 0 0 0 0
0 0 0 0 0 0 0.0976397567874612 0 0 0 0 0 0 0 0 0 0 0 0 0 0 0 0 -0.569202066216333 0 0 0 0 0 0 0 0 0 0 0 0 0 0 0 0 0 0 0 0 0 0 0 0 0 0
0 0 0 0 0 0 0 0 0 0 0 0 0 0 0 0 -1.07497063616971 0 0 0 0 0 0 0 0 0 0 0 0 0 0 0 0 0 0 0 0 0 0 0 0 0 0 0 0 0 0 0 0 0
0 0 0 0 1.1271473418429 0.154097919697871 0 0 0 0 0 0 0 0 0 0 -1.16546600724312 0 0 0 0 0 0 0 0 0 0 0 0 0 0 0 0 0 0 0 0 0 0 0 0 0 0 0 0 0 0 0 0 0
0 0 0 0 0 0 0 0 0 0 0 0 0 0 0 0 -1.86601246569426 0 0 0 0 -3.07822748750994 0 0 0 0 0 0 0 0 0 0 0 -1.35323371193979 0 0 0 0 0 0 0 0 0 0 0 0 -0.682333733734192 0 0 0
0 0 0 0 0 0 0.729083876813493 0 0 0 0 0 0 0 0 0 -0.184290700757214 0 -3.49896912465165 0 0 -3.71225958719028 0 0 0 0 0 0 0 0 0 0 0 -0.747193248411787 0 0 0 0 0 0 0 0 0 0 0 0 -3.26162503416664 0 0 0
0 0 0 0 0 0 0.344526711623634 0.469417234542467 0 0 0 0 0 0 0 0 0 0 -3.78345592916789 0 0 -0.273932293223452 0 0 0 0 -0.186540391142731 0 0 0 0 0 0 -4.41366971373908 0 0 0 0 0 0 0 0 0 0 0 0 -0.16129518761894 0 0 0
0 0 0 0.126300834673145 0 0 0 0 0 0 0 0 0 0 0 0 0 0 0 0 0 -0.809114395586848 0 0 0 0 -0.460589638282733 0 0 0 0 0 0 -0.800818367976493 0 0 0 0 0 0 0 0 0 0 0 0 -0.373411652438221 0 0 0
0 0 0 0 0 0 0 0 0 0 0.203248419551112 0.237639985046008 0.372239901562892 0.0400928435233471 0 0 0 -0.600376592621362 0 0 0 -2.79174778184712 0 0 0 0 0 0 0 0 0 0 0 -5.36142321129398 0 0 0 -2.59051422008345 0 0 -0.252212068569067 0 0 0 0 0 -2.9756821526101 0 0 0
0 0 0 0 0 0 0 0 0 0 0 0 0 0 0 0 0.117444053224859 0 0 0 0 0 0 0 0 0 0 0 0 0 0 0 0 0 0 0 0 -0.438182419765365 -0.678717291138228 0 -0.399325344780133 0 0 0 0 0 0 0 0 0
0 0 0 0 0 0 0 0 0 0 0 0 0 0.703342745691602 0.73076271273366 0 0 0 0 0 0 0 0 0 0 0 0 0 0 0 0 0 0 0 0 0 0 -3.43294790138851 -0.331382349139529 0 0 0 0 0 0 0 0 0 0 0
0 0 0 0 0 0 0 0 0 0 0 0 0 0 0 0 0 0 0 0 0 0 0 0 0 0 0 0 0 0 0 0 0 0 0 0 0 -2.63539792741476 -3.47605743587251 -0.158480314578347 0 0 0 0 0 0 0 0 0 0
0 0 0 0 0 0 0 0 0 0 0 0 0 0 0 0 0 0 0 0 0 0 0 0 0 0 0 0 0 0 0 0 0 0 0 0 0 -0.205274258149804 -1.81798428767798 -10.9828396790644 0 0 0 0 0 0 0 0 0 0
0 0 0 0 0 0 0 0 0 0 0 0 0.588994746670219 0.7717832735333 0.0516952903570541 0.155784143655595 0.548140280993734 0 0 0 0 0 0 0 0 0 0 -7.10235406342867 0 0 0 0 0 0 0 0 0 -1.02812897137528 0 -1.09243136132851 0 0 0 0 0 0 0 0 0 0
0 0 0 0 0 0 0 0 0 0 0 0 0 0 0 0 0 0 0 0 0 0 0 0 0 0 0 -0.539558224934952 0 0 0 0 0 0 0 0 0 -1.1170362342241 0 -0.335631656707784 0 0 0 0 0 0 0 0 0 0
0 0 0 0 0 0 0 0.0575185822274571 0.566094130109094 0.108924785241909 0 0 0 0 0 0 0 0 0 0 0 0 0 0 0 0 0 -0.359401342612725 0 0 0 -0.677180713946985 0 0 0 0 0 0 0 -0.221251533321072 0 -1.07452806968059 0 0 0 0 0 0 0 0
0 0 0 0.0647968535835561 0 0 0 0 0 0 0 0 0 0 0 0 0 0 0 0 0 0 0 0 0 0 0 0 0 0 0 0 -3.77868701639209 0 0 0 0 0 0 -0.483041091122783 0 -1.48310137636146 0 0 0 0 0 -1.52878746024273 0 0
0 0 0 0.701418101141923 0.107884369434372 0.0821053145641499 0.405194549987124 0 0 0 0 0 0 0 0 0 0 0 0 0 0 0 0 0 0 0 0 0 0 0 0 0 -1.15366922821828 0 0 0 0 0 0 0 0 -0.910426371680642 0 0 0 0 0 -3.42232317876633 0 0
0 0 0 0 0 0 0 0 0 0 0 0 0 0 0.0341601768819136 0.0984074175356602 0 0 0 0 0 0 0 0 0 0 0 0 0 -1.27315087063174 0 0 -5.48224597650241 0 0 0 0 0 0 0 0 0 0 0 0 0 0 -1.10706083377637 0 0
0 0 0 0 0 0 0 0 0 0 0 0 0 0 0 0 0 0 0 0 0 1.37915636096452 0.109103111340795 0.0691021695016989 0 0 0 0 0 0 0 0 0 0 0 0 0 0 0 0 0 0 0 0 0 0 0 0 0 0
0 0 0 0.392186649449194 0.388806096455107 0.490049893918006 0 0 0 0 0 0 0 0 0 0 0 0 0 0 0 0 0 0 0 0 0 0 0 0 0 0 0 0 0 0 0 0 0 0 0 0 0 0 0 0 0 0 0 0
0 0 0 0 0 0 0 0 0 0 0 0 0 0 0 0 0 0 0 0 0 0 0 0 0 0 0.247141794306328 0 0 0 0 0 0 0 0 0 0 0 0 0 0 0 0 0 0 0 0 0 0 -1.17405291505909
0 0 0 0 0 0 0 0 0.0694547021422923 0 0 0 0 0 0 0 0 0 0 0 0 0 0 0 0 0 0 0 0 0 0 0 0 0 0 0 0 0 0 0 0 0 0 0 0 0 0 0 0 -0.142237898842154
0 0 0 0 0 0 0 0 0 0 0 0 0 0 0 0 0 0 0 0 0 0 0 0.130582787999332 0 0 0 0 0 0 0 0 0 0 0 0 0 0 0 0 0 0 0 0 0 0 0 0 0 -2.46084182666336
0 0 0 0 0 0 0 0 0 0 0 0 0 0 0 0 0 0 0 0 0 0 0 0 0.836934983755711 0.217340954933148 1.04983281846409 0 0 0 0 0 0 0 0 0 0 0 0 0 0 0 0 0 0 0 0 0 0 -1.36827656859423
0 0 0 0 0 0 0 0 0 0 0 0 0.288656666616314 0.140462457994753 0.89087891954282 0.168534781477698 1.05034929701298 0 0 0 0 0 0 0 0 0 0 0 0 0 0 0 0 0 0 0 0 0 0 0 0 0 0 0 0 0 0 0 -1.03462306752262 -1.16127985949862
0 0 0 0 0 0.272362958267259 0 0 0 0 0 0 0 0 0 0 0 0 0 0 0 0 0 0 0 0 0 0 0 0 0 0 0 0 0 0 0 0 0 0 0 0 0 0 0 0 0 0 -0.684570346926519 -1.69164400506324
0 0 0 0.184439471554644 0.406536999587625 0.303534337883518 0 0 0 0 0 0 0 0 0 0 0 0 0 0 0 0 0 0 0 0 0 0 0 0 0 0 0 0 0 0 0 0 0 0 0 0 0 0 -0.560176388709296 0 0 0 -2.36437712223157 -0.434026386222712
0 0 0 0 0 0 0 0 0 0 0 0 0 0 0 0 0 0 0 0 0 0 0 0 0 0 0 0 0 0 0 0 0 0 0 0 0 0 0 0 0 0 0 0 -5.33946153703189 0 0 0 -0.323616523830183 -0.0800206225724155
0 0 0 0 0 0 0 0 0 0 0 0 0 0 0 0 0.484037109336532 0.0844691833081602 0.740459364576044 0.559169356571173 0.0450029072793136 0.214046339352217 0.232048008279151 0 0 0 0 0 0 0 0 0 0 0 0 0 0 0 0 0 0 0 0 0 0 -0.351663906397262 0 0 -0.686167649970227 -4.08910055779593
0 0 0 0 0 0 0 0 0 0 0 0 0 0 0 0 0 0.128351500173519 0.0608738716668196 0.653525298652729 0.351445753986468 0 0 0 0 0 0 0 0 0 0 0 0 0 0 0 0 0 0 0 0 0 0 0 0 -0.495926343422791 0 0 -1.69601634935082 -2.03175670114167
0 0 0 0 0 0 0 0 0 0 0 0 0 0 0 0 0 0 0 0.0328681353821042 2.1091503997897 0.213024997565222 0.0691969386978457 0.0454638548264627 0.0935849403731999 0 0 0 0 0 0 0 0 0 0 0 0 0 0 0 0 0 0 0 0 -1.04310258748503 0 0 0 -0.13432833829941
0 0 0 0 0 0 0 0 0 0 0 0 0 0 0 0 0.0464898934771945 0.0887565751615017 0 0 0 0 0 0 0 0 0 0 0 0 0 0 0 0 0 0 0 0 0 0 0 0 0 0 0 -0.813095456626807 0 0 0 -0.3744490679827
0 0 0 0 0 0 0 0 0 0 0 0 0 0 0 0 0 0 0 0 0 0 0 0.213359313846591 0.277902138572739 0.185464906869724 0 0 0 0 0 0 0 0 0 0 0 0 0 0 0 0 0 0 0 -0.459573438281709 0 0 0 -0.647664945815921
0 0 0 0 0 0 0 0 0 0 0 0 0 0 0 0 0 0 0 0 0 0 0 0 0 0 0 0 0 0 0 0 0 0 0 0 0 0 0 0 0 0 0 0 0 -0.414484079271682 0 0 0 0
0 0 0 0 0 0.258272636263088 0 0 0 0 0 0 0 0 0 0 0 0 0 0 0 0 0 0 0 0 0 0 0 0 0 0 0 0 0 0 0 0 0 0 0 0 0 0 0 -1.07389305218705 0 0 0 0
0 0 0 0 0 0 0 0 0 0 0 0 0 0 0 0 0 0 0 0 0 0 0 0 0 0 0 0 0 0 0 0 0 0 0 0.119690646130133 1.0184341579779 0 0 0 0 0 0 0 0 -8.66543609054731 0 0 0 0
0 0 0 0 0 0 0 0 0 0 0 0 0 0 0 0 0 0 0 0 0 0 0 0 0 0 0 0 0 0 0 0 0 0 0 0 0 0.0690137030649617 0.101290401235666 0.220559200971796 0.153629105241567 0.0892502885432726 0.0838870364374459 0.203864502233447 1.78347178168195 0 0 0 0 0
0 0 0 0 0 0 0 0 0 0 0 0 0.137390472403958 0.628716961703976 0.0314772752948847 0.0734050408271215 0.646597472250818 0 0 0 0 0 0 0 0 0 0 0 0 0 0 0 0 0 0 0 0 0 0 0 0 0 0 0 0 0 0 0 0 0
0 0 0 0 0 0 0 0 0 0 0 0 0 0 0 0 0 0 0 0 0 0 0 0 0.295978056886671 0.662883077229614 0.232744950786355 0 0 0 0 0 0 0 0 0 0 0 0 0 0 0 0 0 0 0 0 0 0 0
0 0 0 0 0 0 0 0 0 0 0 0 0 0 0 0 0 0 0 0 0 0 0 0 0 0 0 0 0 0 0 0 0 0.203401954305057 0.13399764160065 0.431693845595788 0.0699372386177571 0.144380358691305 0.342218784442248 0 0 0 0 0 0 0 0 0 0 0
0 0 0 0 0 0 0 0 0 0 0 0 0 0 0 0 0 0 0 0 0 0 0 0 0 0 0 0 0 0.230725952273035 0.0279520720124022 0.483911412914206 0.27802810776241 0.221839041614743 0.333689370344728 0.0860494142365589 0.0168326538102194 0.821333849819193 0.391256377041663 0.0285187171868819 0.0781708818167772 0.132694611912301 0 0 0 0 0 0 0 0
