0.20384849136633
1.36024825248802
0.334794528837918
0.617434954452865
0.53972624307091
1.06116462359444
4.29131563753362
0.607237097111303
0.690514608221879
1.86382302578239
1.86964380102372
8.93496741111747
0.589403987570502
1.14727693853217
2.08010005646809
0.241087761311228
1.64286913530593
1.05524781727503
0.38749120009244
0.379475680612903
1.18776335041568
0.266175477639281
2.16395376530561
0.742900475061722
2.06191721868026
1.22685471383115
4.15236297827666
0.310939818133419
0.54053159947572
0.778018586337166
0.432791019696254
3.09894982409726
0.369327491532938
1.04241230548387
2.16143825995135
0.389433872960294
0.489290328334454
1.33207981540227
2.55375437011359
0.559628415553943
0.266736357190264
3.14132997858911
1.31210366687808
0.386759037654355
0.267028053346989
9.10309386094758
0.177357854255251
1.73903962842553
5.21881857532806
0.760363674993772
