0 0 0 -2.1105736368987 0 -0.67517843149024 0 0 0 0 0 0 0 0 0 0 0 0 -3.37540062435958 -0.306923007994129 0 0 0 0 0 0 0 0 0 0 0 0 0 0 0 -0.429734308494279 0 0 0 -4.2246004401121 0 0 0 0 0 0 0 0 0 0
0 0 0 0 -0.327061228254986 0 0 0 0 0 0 0 0 0 0 0 -0.192618156414339 0 0 0 0 0 0 0 0 0 0 0 0 0 -0.514461511978534 0 0 0 0 -3.12847646937648 0 0 0 -0.813546837884491 0 0 0 0 0 0 0 0 0 -0.355095981416212
0 0 0 0 0 0 -0.774178918083828 0 0 0 0 0 0 0 0 -1.18633008128937 0 0 0 0 0 0 0 -0.563011017006193 0 0 0 0 0 0 -2.13662225391154 0 0 0 0 0 0 0 0 -6.87388139208904 0 0 0 0 0 0 0 0 0 -5.43575449772858
0.402869002532955 0 0 0 0 0 0 0 0 0 0 0 0 0 0 -0.363467653075732 0 0 0 0 0 0 0 -0.69607407307078 0 0 0 -2.95021685801945 0 0 -0.14826398149616 0 0 0 0 0 0 0 0 -0.896867295321848 0 0 0 0 0 0 0 0 0 -0.207046966302604
0 0.0670999840511921 0 0 0 0 0 0 0 0 0 0 -0.694423404326338 0 0 0 0 0 0 0 -0.688804341631352 0 0 0 0 0 0 -3.51325241210172 0 0 0 -0.490304628509817 0 0 0 0 0 0 0 0 0 0 0 0 0 0 0 -0.241326017479786 0 -1.06571529575741
0.13269279377378 0 0 0 0 0 0 0 0 0 0 0 -0.338800599821389 0 0 0 0 0 0 0 -4.46442845796273 0 0 0 0 0 0 -0.264658549269887 0 0 0 -0.316075682039756 0 0 0 0 0 0 0 0 0 0 0 0 0 0 0 -0.606681542692565 0 -0.92499523469107
0 0 0.151901391604685 0 0 0 0 0 0 0 0 0 -0.942798317568133 0 0 0 0 0 0 0 -1.49070085305888 0 0 0 0 0 0 -0.384799576400108 0 0 0 -6.22225185135216 0 0 0 0 0 0 0 0 0 0 0 0 0 0 0 -0.71759655042877 0 -1.3859851127517
0 0 0 0 0 0 0 0 0 0 0 0 -1.20655276092099 0 0 0 0 0 0 0 -2.04667873608533 0 0 0 0 0 0 -0.264384937261811 0 0 0 -4.14383728652579 0 0 0 0 0 0 0 0 0 0 0 0 0 0 0 -1.28378442057635 0 -1.58137983961917
0 0 0 0 0 0 0 0 0 0 0 0 -6.13870188399266 0 0 0 0 0 0 0 -7.63245946936766 0 0 0 0 0 0 -0.675219937242302 0 0 0 0 0 0 0 0 0 0 0 0 0 0 0 0 0 0 0 -0.293624578968127 0 -7.62622642252347
0 0 0 0 0 0 0 0 0 0 0 0 -3.26144717930377 0 0 0 0 0 0 0 -0.992519736249421 0 0 0 0 0 0 -0.540199876309267 0 0 0 0 0 0 0 0 0 0 0 0 0 0 0 0 0 0 0 -3.32250281233629 0 -0.58012495819162
0 0 0 0 0 0 0 0 0 0 0 0 0 0 0 0 0 -4.09752737645522 0 0 -2.50977585149524 0 0 0 0 0 0 -0.338413797827233 0 0 0 0 0 0 0 0 0 0 0 0 0 0 0 0 0 0 0 -1.53033621153869 0 -1.04444668436154
0 0 0 0 0 0 0 0 0 0 0 0 0.837527180525543 0 -0.501947009749539 0 0 0 0 0 0 0 0 0 0 0 0 -4.3356265937358 0 0 0 0 0 0 0 0 0 0 0 0 0 0 0 0 0 0 0 0 0 0
0 0 0 0 0.139578723041188 0.0718883065309987 0.191437916284337 0.256278479035586 1.29772788506955 0.670048969340571 0 -4.1980546263404 0 0 -3.22723181572862 0 0 0 0 0 0 0 0 0 0 0 0 -3.73405749833485 0 0 0 0 0 0 0 0 0 0 0 0 0 0 0 0 0 0 0 0 0 0
0 0 0 0 0 0 0 0 0 0 0 0 0 0 -1.20817498663218 0 0 0 0 0 0 0 0 0 0 -1.11673224530869 0 -3.76435120005708 0 0 0 0 0 0 0 0 0 0 -0.128008173080117 0 0 0 0 0 0 0 0 0 0 0
0 0 0 0 0 0 0 0 0 0 0 0.0890080076453717 0.635865216117005 0.241989205796901 0 0 0 0 0 0 0 0 0 0 0 -0.559635310090183 0 -0.240302136661435 0 0 0 0 0 0 0 0 0 0 0 0 0 0 0 0 0 0 0 0 0 0
0 0 0.217878629958329 0.0670082065252295 0 0 0 0 0 0 0 0 0 0 0 0 0 0 0 0 0 0 0 0 0 -2.04281036982078 0 -2.89437795124913 0 0 0 0 0 0 0 0 0 0 0 0 0 0 0 0 0 0 0 0 0 0
0 0.0364982556259898 0 0 0 0 0 0 0 0 0 0 0 0 0 0 0 0 0 0 0 0 0 0 0 0 0 0 0 0 0 0 0 0 0 0 0 0 0 0 0 0 0 0 0 0 0 0 0 0
0 0 0 0 0 0 0 0 0 0 0.81111612975363 0 0 0 0 0 0 0 0 0 0 0 0 0 0 0 0 0 0 0 0 0 0 0 0 0 0 0 0 0 0 0 0 0 0 0 0 0 0 0
0.641901623494907 0 0 0 0 0 0 0 0 0 0 0 0 0 0 0 0 0 0 0 0 0 0 0 0 0 0 0 0 0 0 0 0 0 0 0 0 0 0 0 0 0 0 0 0 0 0 0 0 0
0.0627419647128482 0 0 0 0 0 0 0 0 0 0 0 0 0 0 0 0 0 0 0 0 0 0 0 0 0 0 0 0 0 0 0 0 0 0 0 0 0 0 0 0 0 0 0 0 0 0 0 0 0
0 0 0 0 0.138568435910002 0.932390950296264 0.303599118814475 0.438343502639905 1.63588683819492 0.185811852528214 0.479427843929008 0 0 0 0 0 0 0 0 0 0 0 0 0 0 0 -0.712534119176997 0 0 0 0 0 0 0 0 0 0 0 0 0 0 0 0 0 0 0 0 0 0 0
0 0 0 0 0 0 0 0 0 0 0 0 0 0 0 0 0 0 0 0 0 0 0 0 -0.697829386787646 0 -0.26623812866619 0 0 0 0 0 -0.225753327620373 0 0 0 0 0 0 0 0 0 0 0 0 0 0 0 0 0
0 0 0 0 0 0 0 0 0 0 0 0 0 0 0 0 0 0 0 0 0 0 0 0 -0.287903193631841 0 -0.425357284041525 0 0 0 0 0 -0.511620732906053 0 0 0 0 0 0 0 0 0 0 0 0 0 0 0 0 0
0 0 0.113994401505072 0.133373758528009 0 0 0 0 0 0 0 0 0 0 0 0 0 0 0 0 0 0 0 0 0 0 -0.092456176385817 0 0 0 0 0 -3.17015589212998 0 0 0 0 0 0 0 0 0 0 0 0 0 0 0 0 0
0 0 0 0 0 0 0 0 0 0 0 0 0 0 0 0 0 0 0 0 0 0.152789364503618 0.056079095106763 0 0 0 -1.2545702774202 0 0 0 0 0 0 0 -0.165101218700088 0 0 -0.282226755644218 0 0 0 0 0 0 0 0 0 0 -0.307196435710572 0
0 0 0 0 0 0 0 0 0 0 0 0 0 0.231115005858846 0.106767642973288 0.412660628388549 0 0 0 0 0 0 0 0 0 0 -0.711361011763338 0 0 0 0 0 0 0 -0.553868455421895 0 0 -0.540844583129294 0 0 0 0 0 0 0 0 0 0 -2.04085115378516 0
0 0 0 0 0 0 0 0 0 0 0 0 0 0 0 0 0 0 0 0 0.137821579212609 0.0545468420968394 0.0867048225954861 0.020085115238795 0.258375328663989 0.155355422161505 0 0 0 0 0 0 0 0 -2.87215114696779 0 0 0 0 0 0 0 0 0 0 0 0 0 -0.99348992242239 0
0 0 0 0.58168219295595 0.708209967653669 0.051854486998492 0.0787678838695086 0.0551251175249817 0.133157265935098 0.11373883195427 0.0690475732437302 0.810669021643103 0.754553560981821 0.766506900174369 0.0504812634747097 0.57976453429085 0 0 0 0 0 0 0 0 0 0 0 0 0 0 0 0 0 0 -3.30177264243633 0 0 0 0 0 0 0 0 0 0 0 0 0 -2.23060914992812 0
0 0 0 0 0 0 0 0 0 0 0 0 0 0 0 0 0 0 0 0 0 0 0 0 0 0 0 0 0 0 0 0 0 0 0 0 0 0 0 0 0 0 0 0 0 0 0 0 -1.14587341676285 0
0 0 0 0 0 0 0 0 0 0 0 0 0 0 0 0 0 0 0 0 0 0 0 0 0 0 0 0 0 0 0 0 0 0 0 0 0 0 0 0 0 0 0 0 0 0 0 0 -2.40426185768456 0
0 0.103400872544821 0.462849701257357 0.0288376670244236 0 0 0 0 0 0 0 0 0 0 0 0 0 0 0 0 0 0 0 0 0 0 0 0 0 0 0 0 0 0 0 0 0 0 0 0 0 0 0 0 0 0 0 0 -1.21441499470392 0
0 0 0 0 0.0871667954395994 0.0625139195415944 1.2487385563587 0.881124474584331 0 0 0 0 0 0 0 0 0 0 0 0 0 0 0 0 0 0 0 0 0 0 0 0 0 0 0 0 0 0 0 0 0 0 -1.20514869923125 0 0 0 0 0 -0.224784395236397 0
0 0 0 0 0 0 0 0 0 0 0 0 0 0 0 0 0 0 0 0 0 0.0466146510420899 0.0926776392962265 0.614138920822034 0 0 0 0 0 0 0 0 0 0 0 0 0 0 0 0 0 0 -0.132265582210547 0 0 0 0 0 -0.126713898231547 0
0 0 0 0 0 0 0 0 0 0 0 0 0 0 0 0 0 0 0 0 0 0 0 0 0 0 0 0 0 0 0 0 0 0 0 0 0 0 0 0 -0.902321062252882 0 -1.82351399477893 0 0 0 0 0 -0.365123256129537 0
0 0 0 0 0 0 0 0 0 0 0 0 0 0 0 0 0 0 0 0 0 0 0 0 0.0308386200936316 0.102781256560928 0.57112471645534 0.699964983651569 0 0 0 0 0 0 0 0 0 0 0 0 -0.316403903419576 0 -0.329477964559937 0 0 0 0 0 -5.36218219054154 0
0.0822541871695018 0.628680167820327 0 0 0 0 0 0 0 0 0 0 0 0 0 0 0 0 0 0 0 0 0 0 0 0 0 0 0 0 0 0 0 0 0 0 0 0 0 0 -4.16188139399114 0 -0.180698002301236 0 -0.220383176615251 0 0 0 -0.683605156393689 0
0 0 0 0 0 0 0 0 0 0 0 0 0 0 0 0 0 0 0 0 0 0 0 0 0 0 0 0 0 0 0 0 0 0 0 0 0 0 0 0 -0.814674653198237 0 -0.687979353242798 0 -2.07071792979998 0 0 0 -2.05528128933542 0
0 0 0 0 0 0 0 0 0 0 0 0 0 0 0 0 0 0 0 0 0 0 0 0 0.0539904943694629 0.098943981666912 0 0 0 0 0 0 0 0 0 0 0 0 0 0 -0.447293290284729 0 -0.014417230541354 0 -0.330472061137804 0 0 0 -1.62220695796026 0
0 0 0 0 0 0 0 0 0 0 0 0 0 0.0245888887529551 0 0 0 0 0 0 0 0 0 0 0 0 0 0 0 0 0 0 0 0 0 0 0 0 0 0 -0.553891474493498 -0.471889954797139 0 0 -0.921421129840359 0 0 0 -2.87199222981932 0
0.843058040759311 0.169745679933228 1.28716245008261 0.186404353444404 0 0 0 0 0 0 0 0 0 0 0 0 0 0 0 0 0 0 0 0 0 0 0 0 0 0 0 0 0 0 0 0 0 0 0 0 -0.307572987174 0 0 0 -0.475388650772805 0 0 0 0 0
0 0 0 0 0 0 0 0 0 0 0 0 0 0 0 0 0 0 0 0 0 0 0 0 0 0 0 0 0 0 0 0 0 0.17105928054756 0.0600716961556785 0.820341855510991 0.166714408570726 0.0879710520018506 0.1078500658539 0.063330232420787 0 0.190477778083426 0.787890876510272 -2.62450336403783 0 0 0 0 0 0
0 0 0 0 0 0 0 0 0 0 0 0 0 0 0 0 0 0 0 0 0 0 0 0 0 0 0 0 0 0 0 0 0 0 0 0 0 0 0.0873003531863921 0 -0.956907913862906 0 0 -0.842736974835377 0 0 0 0 0 0
0 0 0 0 0 0 0 0 0 0 0 0 0 0 0 0 0 0 0 0 0 0 0 0 0 0 0 0 0 0 0 0.206660404818817 0.0259902934330073 0.372273309319298 0.0613248404129335 0.0360108091355828 0.130408709323188 0.00270768286080611 0 0 -3.76071971070288 0 0 0 0 0 0 0 0 0
0 0 0 0 0 0 0 0 0 0 0 0 0 0 0 0 0 0 0 0 0 0 0 0 0 0 0 0 0 0 0 0 0 0 0 0 0 0 0 0 0.467932734352967 0.172468657012971 0 0 0 0 0 0 0 0
0 0 0 0 0 0 0 0 0 0 0 0 0 0 0 0 0 0 0 0 0 0 0 0 0 0 0 0 0 0 0 0 0 0 0 0.0405445491013265 0.397081838273388 0.0601351041568297 0.18725868757187 0.0941847616551739 0 0 0 0 0 0 -1.13882855571809 0 0 0
0 0 0 0 0 0 0 0 0 0 0 0 0 0 0 0 0 0 0 0 0 0 0 0 0 0 0 0 0 0 0 0 0 0 0 0 0 0 0 0 0 0 0 0 0 0 -1.08252276480389 0 0 0
0 0 0 0 0 0 0 0 0 0 0 0 0 0 0 0 0 0 0 0 0 0 0 0 0 0 0 0 0 0 0 0 0 0 0 0 0 0 0 0 0 0 0 0 0.238099229813532 0.249289861090219 0 0 0 0
0 0 0 0 0.0467250097638848 0.115824974725394 0.146384922481468 0.237889813778725 0.0548688702581724 0.679372375537719 0.295608632455929 0 0 0 0 0 0 0 0 0 0 0 0 0 0 0 0 0 0 0 0 0 0 0 0 0 0 0 0 0 0 0 0 0 0 0 0 0 0 0
0 0 0 0 0 0 0 0 0 0 0 0 0 0 0 0 0 0 0 0 0 0 0 0 0.0585434770528322 0.368823858872412 0.197345750564159 0.442902752304486 0.250858476884626 0.521193957393115 0.246222574823918 0.043132035109645 0.0251047236397741 0.0734735625530899 1.06226095474232 0.135196624754294 0.44036156774132 0.313046052356713 0.567570121262765 0 0 0 0 0 0 0 0 0 0 0
0 0.0706433552733254 1.08368695718302 0.0427620468174917 0.199967795854126 0.17646862143205 0.268699289322275 0.303415378397906 1.59724009064824 0.120960758399839 0.217180087229978 0 0 0 0 0 0 0 0 0 0 0 0 0 0 0 0 0 0 0 0 0 0 0 0 0 0 0 0 0 0 0 0 0 0 0 0 0 0 0
