1.06518374485693
0.474943563543359
0.85729076587576
1.09992490236387
1.97195162500574
0.372524961511835
0.181973349148793
0.151884784380622
2.63036517144857
0.292142592200137
2.29106120949431
1.50267876403581
1.63795627917317
1.42996840095921
0.133642151338685
0.267491365455175
0.540964393271046
0.490309006819425
0.36112575906276
2.8790381086947
0.583383522069457
0.103299101552943
1.38726009824923
0.560273725737997
0.58037984310808
0.459623870643304
1.07360640187593
0.51898304425642
0.0981991803214326
2.9027039611258
0.48932350328098
0.91624547272655
0.6516391749221
0.781311079550237
1.33501691230254
2.35646707085811
1.39415787562886
0.86317469233236
0.053995547271963
0.456560717020941
0.462945617307963
1.98409708559307
0.716227186337458
0.382732099253466
0.433458211114549
2.72176362243759
1.33159987326452
0.412294396556221
0.329067024008111
0.744229330980185
