0 0 0 0 0 0 0 0 0 0 0 0 0 0 0 0 0 0 0 0 -1.30291118911066 0 0 -1.23594615150347 0 0 0 0 0 0 0 0 0 0 0 0 0 0 0 0 0 0 0 0 0 0 0 0 0 0
0 0 0 0 0 0 0 0 0 0 0 0 0 0 0 0 0 0 0 0 -2.03130191235904 0 0 -1.00831085966249 0 0 0 0 0 0 0 0 0 0 0 0 0 0 0 0 0 0 0 0 0 0 0 0 0 0
0 0 0 0 0 0 0 0 0 0 0 -1.25372095073164 0 0 0 0 0 0 0 0 0 0 0 -3.29472112219384 0 0 0 0 0 0 0 0 0 0 -2.52363260552531 0 0 0 0 0 0 0 0 0 0 0 0 0 0 0
0 0 0 0 -1.67397157282746 0 0 0 0 0 0 0 0 0 0 0 0 0 0 0 0 0 0 -0.932726038357815 0 0 0 0 0 0 0 -1.55019934315038 0 0 0 0 -0.851655840619989 0 0 0 0 0 0 0 0 0 0 0 0 0
0 0 0 0.314691536428898 0 0 -0.186822012171323 -0.325406650058245 0 0 0 0 0 -0.389450608194917 0 0 0 0 0 0 0 0 0 -1.5608475535431 0 0 0 0 0 0 -0.382775565837955 -4.3278190657321 0 -5.32206141604932 0 0 -3.38998304400462 0 0 0 0 0 0 0 0 0 0 0 0 0
0 0 0 0 0 0 0 0 0 0 0 0 -5.39832315720536 0 0 0 0 0 -1.28600405794203 -1.30837487688468 0 0 0 0 -1.36770635889188 0 0 0 0 0 0 0 0 -0.123209114237505 0 0 -0.935047997187642 0 0 0 0 0 0 0 -0.2703152538659 0 0 -1.67872007598216 0 0
0 0 0 0 0.0390918974232728 0 0 0 0 0 0 0 -2.26025235212078 0 0 0 0 0 -0.250449080692439 -0.689310975432196 0 0 0 0 -0.78586361045693 0 0 0 0 0 0 0 0 -0.798308425326778 0 0 -0.277318967209824 0 0 0 0 0 0 0 -0.300034734559129 0 0 -1.26494496897334 0 0
0 0 0 0 0.0648232168229237 0 0 0 0 0 0 0 0 0 0 0 0 0 -0.474221198401267 0 0 0 0 0 -1.18649767045694 0 0 0 0 0 0 0 0 -0.579369882294109 0 0 -0.80397917358756 0 0 0 0 0 0 0 -0.368571844578749 0 0 -0.438064228069214 0 0
0 0 0 0 0 0 0 0 0 0 0 0 0 0 0 0 0 0 -1.92206661558763 0 0 0 0 0 -2.29860342272731 0 0 0 0 0 0 0 0 0 0 0 -1.4796788155972 0 0 0 0 0 0 0 -0.368517390741851 -7.3748609774379 0 -0.324236231656856 0 0
0 0 0 0 0 0 0 0 0 0 0 0 0 0 0 0 0 0 -1.86867758620589 0 0 0 0 0 -6.46960547137467 0 0 0 0 0 0 0 0 0 0 0 -1.50638741024257 0 0 0 0 0 0 0 -0.985214962829317 -0.431780502448059 0 -0.43243872616885 0 0
0 0 0 0 0 0 0 0 0 0 0 0 0 0 0 0 0 0 0 0 0 0 0 0 0 0 0 0 0 0 0 0 0 0 0 0 0 0 0 0 0 0 0 0 -0.209289577773025 0 0 0 0 0
0 0 0.25372123596025 0 0 0 0 0 0 0 0 0 0 0 0 0 0 0 0 0 0 0 0 0 0 0 0 0 0 0 0 0 0 0 0 -1.71025695815928 0 0 0 0 0 0 0 0 -0.854352035247391 0 0 0 0 0
0 0 0 0 0 1.03266479262592 0.418850890799951 0 0 0 0 0 0 0 0 0 0 0 0 0 0 0 0 0 0 0 0 0 0 0 0 0 0 0 0 -0.864353585979255 0 0 0 0 0 0 0 0 -1.96781354495526 0 0 0 0 0
0 0 0 0 0.0727075283042437 0 0 0 0 0 0 0 0 0 0 0 0 -1.87582477718742 0 0 0 0 0 0 0 0 0 -0.577640696393284 0 0 0 0 0 0 0 -2.25806623377056 0 0 0 0 0 0 -0.896908916645014 0 0 0 0 0 0 0
0 0 0 0 0 0 0 0 0 0 0 0 0 0 0 0 0 0 0 0 0 0 0 0 0 0 0 0 0 0 0 0 0 0 0 -1.15127057405712 0 0 0 0 0 0 0 0 0 0 0 0 0 0
0 0 0 0 0 0 0 0 0 0 0 0 0 0 0 0 0 0 0 0 0 0 0 0 0 0 0 0 -0.868589816217897 0 0 0 0 0 0 -0.684212229989793 0 -4.22664004534648 0 0 0 0 0 0 0 0 0 0 0 0
0 0 0 0 0 0 0 0 0 0 0 0 0 0 0 0 0 0 0 0 0 0 0 0 0 0 0 0 -0.691865903749432 0 0 0 0 0 0 -0.801064535065889 0 -0.589208343544519 0 0 0 0 0 0 0 0 0 0 0 0
0 0 0 0 0 0 0 0 0 0 0 0 0 0.333666923186818 0 0 0 0 0 0 0 0 0 0 0 0 0 0 -0.81872312162083 0 0 0 0 0 0 -0.384251298281371 0 -3.56382862585284 0 0 0 0 0 0 0 0 0 0 0 0
0 0 0 0 0 0.235739651219631 0.0496825268812727 0.095782601341414 0.354448414586659 0.385513246039574 0 0 0 0 0 0 0 0 0 0 0 0 0 0 0 0 0 0 0 0 0 0 0 0 0 -2.06337247546326 0 -0.307392357205404 0 0 0 0 0 0 0 0 0 0 0 0
0 0 0 0 0 0.269328796036496 0.141245939870307 0 0 0 0 0 0 0 0 0 0 0 0 0 0 -2.86431027007479 0 0 0 0 0 0 0 0 0 0 0 0 0 -0.0515263783407673 0 -0.446240415457248 0 0 0 0 0 0 0 0 0 0 0 0
0.247116271069788 0.373122123577579 0 0 0 0 0 0 0 0 0 0 0 0 0 0 0 0 0 0 0 -1.77277575176373 0 0 0 0 0 0 0 0 0 0 0 0 0 -0.768202265757577 0 -0.428607135296627 0 0 0 0 0 0 0 0 0 0 0 0
0 0 0 0 0 0 0 0 0 0 0 0 0 0 0 0 0 0 0 0.629169403525809 0.355601319017584 0 0.395989706988631 0 0 0 0 0 0 0 0 0 0 0 0 -1.64255738098281 0 -0.265418445514344 0 0 0 0 0 0 0 0 0 0 0 0
0 0 0 0 0 0 0 0 0 0 0 0 0 0 0 0 0 0 0 0 0 -2.02218911840558 0 0 0 0 0 0 0 0 0 0 0 0 0 -0.474336032935788 0 -1.3212911650619 0 0 0 0 0 0 0 0 0 0 0 0
0.249096773968628 0.193272610437255 0.632713696894136 0.185190559119071 0.338435863458448 0 0 0 0 0 0 0 0 0 0 0 0 0 0 0 0 0 0 0 0 0 -0.956876108986835 0 0 -1.97678578444201 0 0 0 0 0 -0.657914191183367 0 -0.154514827283821 0 0 0 -1.56726805972357 0 0 0 0 0 0 0 0
0 0 0 0 0 0.276575683207908 0.159788346364231 0.258951255453437 0.456892004541786 1.11132164082694 0 0 0 0 0 0 0 0 0 0 0 0 0 0 0 0 -1.43655529776143 0 0 -0.961138904911214 0 0 0 0 0 0 0 0 0 0 0 0 0 0 0 0 0 0 0 0
0 0 0 0 0 0 0 0 0 0 0 0 0 0 0 0 0 0 0 0 0 0 0 0 0 0 -0.649811227453965 0 0 -1.28481530959312 0 0 0 0 0 0 0 0 0 0 0 0 0 0 0 0 0 0 0 0
0 0 0 0 0 0 0 0 0 0 0 0 0 0 0 0 0 0 0 0 0 0 0 0.178431808100486 0.27032984056965 0.131626932489875 0 0.659402307427981 0 -0.59466043583165 0 0 0 0 0 0 0 0 0 0 0 0 0 0 0 0 0 0 0 0
0 0 0 0 0 0 0 0 0 0 0 0 0 0.113632874694934 0 0 0 0 0 0 0 0 0 0 0 0 -3.1800495938628 0 0 -0.555615087834883 0 0 0 0 0 0 0 0 0 0 0 0 0 0 0 0 0 0 0 0
0 0 0 0 0 0 0 0 0 0 0 0 0 0 0 0.170842481964358 0.142413870261571 0.161940189318258 0 0 0 0 0 0 0 0 0 0 0 0 0 0 0 0 0 0 0 0 0 0 -4.95405186556895 0 0 0 0 0 0 0 0 0
0 0 0 0 0 0 0 0 0 0 0 0 0 0 0 0 0 0 0 0 0 0 0 0.378452856283723 0.205563280038685 0.247477462875164 0.115307837669201 0.116178038083957 0 0 0 0 -0.215059125497795 0 0 0 0 0 0 0 -0.132163786874925 0 0 0 0 0 0 0 0 0
0 0 0 0 0.0722404143366002 0 0 0 0 0 0 0 0 0 0 0 0 0 0 0 0 0 0 0 0 0 0 0 0 0 0 0 -0.463780685889027 0 0 0 0 0 0 0 0 0 0 0 0 0 0 0 0 0
0 0 0 0.309598861144446 0.874016649213747 0 0 0 0 0 0 0 0 0 0 0 0 0 0 0 0 0 0 0 0 0 0 0 0 0 0 0 -1.03832668113198 0 0 0 0 0 0 0 0 0 0 0 0 0 0 0 -0.068724488415801 -0.143205095917289
0 0 0 0 0 0 0 0 0 0 0 0 0 0 0 0 0 0 0 0 0 0 0 0 0 0 0 0 0 0.0457863239136868 0.091258552088722 0.212288036435569 0 0 0 0 0 0 0 0 0 0 0 0 0 0 0 0 -1.27898606846815 -0.665950349918971
0 0 0 0 1.03856949643789 0.0255822853844623 0.157597590613943 0.122456410078491 0 0 0 0 0 0 0 0 0 0 0 0 0 0 0 0 0 0 0 0 0 0 0 0 0 0 0 0 0 0 0 0 0 0 0 0 0 0 0 0 -0.868542220226126 0
0 0 0.506897237906791 0 0 0 0 0 0 0 0 0 0 0 0 0 0 0 0 0 0 0 0 0 0 0 0 0 0 0 0 0 0 0 0 0 0 0 0 0 0 0 0 0 0 0 -0.306151427233478 0 0 0
0 0 0 0 0 0 0 0 0 0 0 0.381695694483378 0.176544455042323 0.43449258831347 0.240248616598001 0.144679135628711 0.152128301291521 0.0735665977010994 0.41354022757448 0.00986207588601075 0.139985279142955 0.341297598999341 0.0941094790652358 0.123911641551315 0 0 0 0 0 0 0 0 0 0 0 0 0 0 -1.8821674321153 0 0 0 0 0 0 0 -0.994007395077243 0 0 0
0 0 0 0.161671165086069 0.695667464335963 0.169262393254524 0.0524794276656377 0.168899638210904 0.278387519881497 0.277399932665191 0 0 0 0 0 0 0 0 0 0 0 0 0 0 0 0 0 0 0 0 0 0 0 0 0 0 0 0 -0.621945542975604 0 0 0 0 0 0 0 -0.370099581204366 0 0 0
0 0 0 0 0 0 0 0 0 0 0 0 0 0 0 0.806309939353248 0.116984341091637 0.707426750331288 0.0615377777127755 0.0824190017831908 0.085396102811912 0.0508217343230294 0.281793181451526 0.0310133938019292 0 0 0 0 0 0 0 0 0 0 0 0 0 0 -0.687761284734817 0 0 0 0 0 0 0 0 0 0 0
0 0 0 0 0 0 0 0 0 0 0 0 0 0 0 0 0 0 0 0 0 0 0 0 0 0 0 0 0 0 0 0 0 0 0 0.363217050407305 0.122817589079426 0.137390905841386 0 0.163956004449128 0.272744438460183 0.092284720943809 0.285005294911999 0.216190556852024 0.100843240263463 0 0 0 0 0
0 0 0 0 0 0 0 0 0 0 0 0 0 0 0 0 0 0 0 0 0 0 0 0 0 0 0 0 0 0 0 0 0 0 0 0 0 0 -0.840317291506971 0 0 0 0 0 0 0 0 0 0 0
0 0 0 0 0 0 0 0 0 0 0 0 0 0 0 0 0 0 0 0 0 0 0 0 0 0 0 0 1.02724374498543 0.0258970337174314 0 0 0 0 0 0 0 0 -1.37047248200595 0 0 0 0 0 0 0 0 0 0 0
0 0 0 0 0 0 0 0 0 0 0 0 0 0 0 0 0 0 0 0 0 0 0 0.311207853770213 0 0 0 0 0 0 0 0 0 0 0 0 0 0 -0.483888934110347 0 0 0 0 0 0 0 0 0 0 0
0 0 0 0 0 0 0 0 0 0 0 0 0 0.178826615179108 0 0 0 0 0 0 0 0 0 0 0 0 0 0 0 0 0 0 0 0 0 0 0 0 -1.55150437586721 0 0 0 0 0 0 0 0 0 0 0
0 0 0 0 0 0 0 0 0 0 0 0 0 0 0 0 0 0 0 0 0 0 0 0 0 0 0 0 0 0 0 0 0 0 0 0 0 0 -1.04096418193544 0 0 0 0 0 0 0 0 0 0 0
0 0 0 0 0 0.0487526604718197 0.0593584211963595 0.0719538765139538 0.074168762044302 0.172881098651895 0.0441589930405269 0.155898345454271 0.40754404242105 0 0 0 0 0 0 0 0 0 0 0 0 0 0 0 0 0 0 0 0 0 0 0 0 0 -0.498952075692887 0 0 0 0 0 0 0 0 0 0 0
0 0 0 0 0 0 0 0 1.58037719943886 0.0826004623794972 0 0 0 0 0 0 0 0 0 0 0 0 0 0 0 0 0 0 0 0 0 0 0 0 0 0 0 0 0 0 0 0 0 0 0 0 0 0 0 0
0 0 0 0 0 0 0 0 0 0 0 0 0 0 0 0 0 0 0 0 0 0 0 0 0 0 0 0 0 0 0 0 0 0 0.059852194276468 0.20207966357567 0.0678751446598191 0 0 0 0 0 0 0 0 0 0 0 0 0
0 0 0 0 0 0.334379656194872 0.253358855427428 0.0888100558466982 0.059651605525459 0.0826531408085545 0 0 0 0 0 0 0 0 0 0 0 0 0 0 0 0 0 0 0 0 0 0 0 0 0 0 0 0 0 0 0 0 0 0 0 0 0 0 0 0
0 0 0 0 0 0 0 0 0 0 0 0 0 0 0 0 0 0 0 0 0 0 0 0 0 0 0 0 0 0 0 0.0142620224802311 0.271867212398658 0.189388118227013 0 0 0 0 0 0 0 0 0 0 0 0 0 0 0 0
0 0 0 0 0 0 0 0 0 0 0 0 0 0 0 0 0 0 0 0 0 0 0 0 0 0 0 0 0 0 0 0.0276362468324182 0.139211887048488 0 0 0 0 0 0 0 0 0 0 0 0 0 0 0 0 0
