0 0 0 0 0 0 0 0 0 0 0 0 0 0 0 0 0 0 0 0 0 0 0 0 0 0 0 0 0 0 -4.06842692619786 0 0 0 0 0 0 0 0 0 0 0 0 0 0 0 0 0 0 0
0 0 0 0 0 0 0 0 0 0 0 0 0 0 0 0 0 0 0 0 0 0 0 0 0 0 0 0 0 0 -1.3339134742378 0 0 0 0 0 0 0 0 0 0 0 0 0 0 0 0 0 0 0
0 0 0 0 0 0 0 0 0 0 0 0 0 -1.03193740664732 0 0 0 0 -0.540549777806536 0 0 0 0 0 0 0 0 0 0 0 -0.975070575954824 0 0 0 0 0 0 0 0 0 0 0 0 0 0 0 0 0 0 0
0 0 0 0 0 0 0 0 0 0 0 0 0 -0.790180961736408 0 0 0 0 -2.06315906357128 0 0 0 0 0 0 0 0 0 0 0 -1.10321511545894 0 0 0 0 0 0 0 0 0 0 0 0 0 0 0 0 0 0 0
0 0 0 0 0 0 0 0 0 -3.41609382313517 -2.76816664038323 0 0 0 -1.94338670544607 0 0 0 0 0 0 0 0 0 -2.04708395443974 0 0 0 0 0 0 0 0 0 -0.414635067618057 0 0 0 0 0 0 0 -2.29646204393836 0 0 0 0 0 0 0
0 0 0 0 0 0 0 0 0 -0.493107018030242 -0.675272703666241 0 0 0 -4.81870878444941 0 0 0 0 0 0 0 0 0 -0.616519654057869 0 0 0 0 0 0 0 0 0 -1.20962277426557 0 0 0 0 0 0 0 -2.50635578541666 0 0 0 0 0 0 0
0 0 0 0 0 0 0 0 0 0 -2.0503366496008 0 0 0 -0.796992504715575 0 0 0 0 0 0 0 0 0 -0.763750148954267 0 0 0 0 0 0 0 0 0 -1.47194719965113 0 0 0 0 0 0 0 -1.87908383100488 0 0 0 0 0 0 0
0 0 0 0 0 0 0 0 0 0 0 0 0 0 0 0 -0.330809673608997 0 0 -1.30519155345139 0 0 0 0 0 0 0 0 0 0 0 0 0 0 -1.20345415629067 0 0 0 0 0 0 0 -0.646846030778495 0 0 0 0 0 0 0
0 0 0 0 0 0 0 0 0 0 0 0 0 0 0 0 -0.548144529502187 0 0 -0.659281112843577 0 0 0 0 0 0 0 0 0 0 0 0 0 0 -3.10939891904158 0 0 0 0 0 0 0 -1.43051924600743 0 0 0 0 0 0 0
0 0 0 0 0.608734712796465 0.097049332634848 0 0 0 0 0 0 0 0 0 0 -1.24009146116909 0 0 -0.150967364734379 0 0 0 0 0 0 0 0 0 0 0 0 0 0 -0.834063200850327 -1.36614610758065 0 0 0 0 0 0 -8.17902416621608 0 0 0 0 0 0 0
0 0 0 0 0.610835705741779 0.126882027853945 0.36695642917716 0 0 0 0 0 0 0 0 0 -1.51552078064829 0 0 -1.18092428148651 0 0 0 0 0 0 0 0 0 0 0 0 0 0 -6.69012454821501 -3.43076307510474 0 0 0 0 0 0 -0.622874399851397 0 0 0 0 0 0 0
0 0 0 0 0 0 0 0 0 0 0 0 0 0 0 0 0 0 0 -1.69866024996459 0 0 0 0 0 0 0 0 0 0 0 0 0 0 -0.281075822412146 -0.81203068934109 0 0 0 0 0 0 -0.294044346495567 0 0 0 0 0 0 0
0 0 0 0 0 0 0 0 0 0 0 0 0 0 0 0 0 0 0 0 0 0 0 -0.296027084591144 0 0 0 0 0 0 0 0 0 0 0 -0.308770094299438 0 0 0 0 0 0 -0.628647016417126 0 0 0 0 0 0 0
0 0 0.216980559193007 0.162282920488719 0 0 0 0 0 0 0 0 0 0 0 -0.371466738032027 0 0 0 0 0 0 0 0 0 0 0 0 0 0 0 0 -1.17111284791779 0 0 -0.8180745792176 0 0 0 0 0 0 -9.32158705212352 0 0 0 0 0 0 0
0 0 0 0 0.378475705701309 0.939487484456315 0.152844441954418 0 0 0 0 0 0 0 0 0 0 0 0 0 0 0 0 0 0 0 0 0 0 0 0 0 0 0 0 0 0 -5.0001379893132 0 0 0 0 0 0 0 -1.61127333881967 0 0 0 0
0 0 0 0 0 0 0 0 0 0 0 0 0 0.0735349934813483 0 0 0 0 0 0 0 0 -3.17062551950653 0 0 0 0 0 -2.41465884711342 0 0 0 0 0 0 0 0 -1.71953935426514 0 0 0 0 0 0 0 -0.139879070874566 0 0 0 0
0 0 0 0 0 0 0 0.0675376132204205 0.102403878026242 0.247131075669967 0.325274839829131 0 0 0 0 0 0 0 0 0 0 0 -0.366374216467891 0 0 0 0 0 0 0 0 0 0 0 0 0 0 -0.132613847556318 0 0 0 0 0 0 0 -0.27058835339046 0 0 0 0
0 0 0 0 0 0 0 0 0 0 0 0 0 0 0 0 0 0 0 0 0 0 -0.216695112229212 0 0 0 0 0 0 0 0 0 0 0 0 0 0 -1.03494859367555 0 0 0 0 0 0 0 -0.210189233075079 0 0 0 0
0 0 0.103397038623613 0.428309677844391 0 0 0 0 0 0 0 0 0 0 0 0 0 0 0 0 0 0 -0.758240169145658 0 0 0 0 0 0 0 0 0 0 0 0 0 0 0 0 0 0 0 0 -1.46737288459805 0 0 0 -0.337834045634924 0 0
0 0 0 0 0 0 0 0.28434976088593 0.133294709865388 0.0306597376930436 0.230513545464626 0.337956221457404 0 0 0 0 0 0 0 0 0 0 -0.759339392009548 0 0 0 0 0 0 0 0 0 0 0 0 0 0 0 0 0 0 0 0 -0.79286801381012 0 0 0 -0.198753900116738 0 0
0 0 0 0 0 0 0 0 0 0 0 0 0 0 0 0 0 0 0 0 0 0 0 0 0 -1.83008857646898 0 0 0 0 0 0 0 0 0 0 0 0 0 -1.57633546762967 0 0 0 -1.49374574169808 0 0 0 0 0 0
0 0 0 0 0 0 0 0 0 0 0 0 0 0 0 0 0 0 0 0 0 0 0 0 0 0 0 0 0 0 0 0 0 0 0 0 0 0 0 -4.12381838032044 0 0 0 -0.9635042687001 0 0 0 0 0 0
0 0 0 0 0 0 0 0 0 0 0 0 0 0 0 0.617673409109917 0.0729620589831583 0.0433521499793501 0.151821956201199 0.169193584135806 0 0 0 0 0 0 -0.926977022470799 -0.792236165521174 0 0 0 0 0 0 0 0 0 0 0 0 0 0 0 -2.68415817753795 0 0 0 0 0 0
0 0 0 0 0 0 0 0 0 0 0 0 0.0589130246294668 0 0 0 0 0 0 0 0 0 0 0 0 0 -0.682685811774362 -1.82280907549434 0 0 0 0 0 0 0 0 0 0 0 0 0 0 0 -0.576454689416478 0 0 0 0 0 0
0 0 0 0 0.44506755820415 0.130418748203299 0.145695190259976 0 0 0 0 0 0 0 0 0 0 0 0 0 0 0 0 0 0 0 0 -2.37239836132105 0 0 0 0 0 0 0 0 0 0 0 0 0 0 0 -12.2376000152349 0 0 0 0 0 0
0 0 0 0 0 0 0 0 0 0 0 0 0 0 0 0 0 0 0 0 0.358047585755469 0 0 0 0 0 0 -1.22015051078108 0 0 0 0 0 0 0 0 0 0 -1.25771795167024 0 0 0 0 -0.962908186596246 0 0 0 0 0 0
0 0 0 0 0 0 0 0 0 0 0 0 0 0 0 0 0 0 0 0 0 0 0.190409820163151 0.13786176807938 0 0 0 -1.44519761508879 0 0 0 -10.0419504608282 0 0 0 0 0 0 -0.551368190414053 0 0 0 0 -1.38371173441153 0 0 0 0 0 0
0 0 0 0 0 0 0 0 0 0 0 0 0 0 0 0 0 0 0 0 0 0 0.15965581260772 0.332195794563661 0.444587309931408 0.220087742458517 0.294205955998638 0 0 0 0 0 0 -0.538825293663885 0 0 0 0 0 0 0 0 0 -1.06935981666359 0 0 0 0 0 0
0 0 0 0 0 0 0 0 0 0 0 0 0 0 0 0.471635636185664 0 0 0 0 0 0 0 0 0 0 0 0 0 0 0 0 0 -0.296583748348752 0 0 0 0 0 0 0 0 0 -3.10157422397804 0 0 0 0 0 0
0 0 0 0 0 0 0 0 0 0 0 0 0 0 0 0 0 0 0 0 0 0 0 0 0 0 0 0 0 0 0 0 0 0 0 0 0 0 0 0 0 0 0 0 0 0 0 0 -0.623232788511439 0
0.848615824823093 0.270141794835185 0.195092627372682 0.227848940755407 0 0 0 0 0 0 0 0 0 0 0 0 0 0 0 0 0 0 0 0 0 0 0 0 0 0 0 0 0 0 0 0 0 0 0 0 0 0 0 0 0 0 0 0 -0.754690119536546 0
0 0 0 0 0 0 0 0 0 0 0 0 0 0 0 0 0 0 0 0 0 0 0 0 0 0 1.92508519989769 0 0 0 0 0 0 0 0 0 0 0 0 0 0 0 0 0 0 0 0 0 -2.24364415829395 0
0 0 0 0 0 0 0 0 0 0 0 0 0 0.239399892681851 0 0 0 0 0 0 0 0 0 0 0 0 0 0 0 0 0 0 0 0 0 0 0 0 0 0 0 0 0 0 0 0 0 0 0 0
0 0 0 0 0 0 0 0 0 0 0 0 0 0 0 0 0 0 0 0 0 0 0 0 0 0 0 0.107932349408271 0.0598611574084501 0 0 0 0 0 0 0 0 0 0 0 0 0 0 0 0 0 0 0 0 0
0 0 0 0 0.0848253602057177 0.243030315006366 0.283937679112415 0.228110956300642 0.586225795118453 0.181010912926511 1.22704550710373 0.0530762992621106 0 0 0 0 0 0 0 0 0 0 0 0 0 0 0 0 0 0 0 0 0 0 0 0 0 0 0 0 0 -1.37648712554374 0 0 0 0 -0.679111381079024 0 0 0
0 0 0 0 0 0 0 0 0 0.275269663560551 0.657203148560589 0.16222065975158 0.0556125649919461 0.163854888047349 0 0 0 0 0 0 0 0 0 0 0 0 0 0 0 0 0 0 0 0 0 0 0 0 0 0 0 0 0 0 0 0 0 0 0 0
0 0 0 0 0 0 0 0 0 0 0 0 0 0 0 0 0 0 0 0 0 0 0 0 0 0 0 0 0 0 0 0 0 0 0 0 0 0 0 0 0 0 0 0 -0.356516312276928 0 0 0 0 0
0 0 0 0 0 0 0 0 0 0 0 0 0 0 1.05055537503359 0.373823609034632 0.0281582788030674 0.205180977336395 0 0 0 0 0 0 0 0 0 0 0 0 0 0 0 0 0 0 0 0 0 0 0 0 0 0 -1.6556413041238 0 0 0 0 0
0 0 0 0 0 0 0 0 0 0 0 0 0 0 0 0 0 0 0 0 0 0 0 0 0 0.241690391351191 0.112053137852323 0 0 0 0 0 0 0 0 0 0 0 0 0 0 0 0 0 -2.82311904479663 0 0 0 0 -3.05243777370972
0 0 0 0 0 0 0 0 0 0 0 0 0 0 0 0 0 0 0 0 0.325883886538604 0.782949251708079 0 0 0 0 0 0 0 0 0 0 0 0 0 0 0 0 0 0 0 0 0 0 -1.18189196543106 0 0 0 0 -1.29293495240805
0 0 0 0 0 0 0 0 0 0 0 0 0 0 0 0 0 0 0 0 0 0 0 0 0 0 0 0 0 0 0 0 0 0 0 0 0 0 0 0 0 0 0 0 -0.90096177450118 0 0 0 0 -0.294211486499731
0 0 0 0 0 0 0 0 0 0 0 0 0 0 0 0 0 0 0 0 0 0 0 0 0 0 0 0 0 0 0 0 0 0 0.282867815099933 0 0 0 0 0 0 0 0 0 -0.169785825901174 0 0 0 0 -0.94159068284726
0 0 0 0 0.479492430552943 0.495701814789384 0.369009391963127 0.123540998539671 0.29033494121551 1.70913687805512 0.115421092852384 0.0584034240323761 0.117980660129073 1.8470070315046 0 0 0 0 0 0 0 0 0 0 0 0 0 0 0 0 0 0 0 0 0 0 0 0 0 0 0 0 0 0 -0.437112446314213 0 0 0 0 -1.40860810453568
0 0 0 0 0 0 0 0 0 0 0 0 0 0 0 0 0 0 0.296626830527256 0.152242402755501 0.299323164625951 0.178180237767068 0.586904335586991 0.116377089164412 2.55994566389343 0.193965793264731 0.281578341107891 0.199143995691243 0.591232534073108 0 0 0 0 0 0 0 0 0 0 0 0 0 0 0 0 0 0 0 0 0
0 0 0 0 0 0 0 0 0 0 0 0 0 0 0 0 0 0 0 0 0 0 0 0 0 0 0 0 0 0 0 0 0 0 0 0 0.0686265724862143 0.360535243952832 0.576087015319313 0.241393385541313 0.187073045454902 0.0362938269793681 0.0900864717702847 0 0 0 0 0 0 0
0 0 0 0 0 0 0 0 0 0 0 0 0 0 0.313833603145721 0.0271218940849578 0.0483864705704351 0.0391858626648294 0 0 0 0 0 0 0 0 0 0 0 0 0 0 0 0 0 0 0 0 0 0 0 0 0 0 0 0 0 0 0 0
0 0 0 0 0 0 0 0 0 0 0 0 0 0 0 0 0 0 0 0 0 0 0 0 0 0 0 0 0 0 0 0 0 0 0.14380858502551 0 0 0 0 0 0 0 0 0 0 0 0 0 0 0
0 0 0 0 0 0 0 0 0 0 0 0 0 0 0 0 0 0 0.0685399290229096 0.0395996891502703 0 0 0 0 0 0 0 0 0 0 0 0 0 0 0 0 0 0 0 0 0 0 0 0 0 0 0 0 0 0
0 0 0 0 0 0 0 0 0 0 0 0 0 0 0 0 0 0 0 0 0 0 0 0 0 0 0 0 0 0.114859378159164 0.1519775811502 0.454135065185054 0 0 0 0 0 0 0 0 0 0 0 0 0 0 0 0 0 0
0 0 0 0 0 0 0 0 0 0 0 0 0 0 0 0 0 0 0 0 0 0 0 0 0 0 0 0 0 0 0 0 0 0 0 0 0 0 0.56142085310878 0.269372615952583 0.0552572181296192 0.202039461415038 0.277558561675864 0 0 0 0 0 0 0
