0 0 0 0 -1.31243369981258 0 0 0 0 0 0 0 0 0 0 0 0 0 0 0 0 0 0 0 0 0 0 0 0 0 0 0 0 0 0 0 0 0 0 0 0 0 0 0 0 0 0 0 0 0
0 0 0 0 0 0 0 0 0 0 0 0 0 -0.186566028172152 0 0 0 0 0 0 0 0 0 0 0 0 0 0 0 0 0 0 0 -0.456656802257599 0 0 0 0 0 0 0 0 0 0 0 0 0 0 0 0
0 0 0 -1.28284215789568 0 0 0 0 0 0 0 0 0 -0.662835046753364 0 0 0 0 0 0 0 0 0 0 0 0 0 0 0 0 0 0 0 -1.01281211127721 0 0 0 0 0 0 0 0 0 0 0 0 0 0 0 0
0 0 0.242303720689469 0 0 0 0 0 0 0 0 0 0 -2.83080845221222 0 0 0 0 0 0 0 0 0 0 0 0 0 0 0 0 0 0 0 -1.22774032783197 0 0 0 0 0 0 0 0 0 0 0 0 0 0 0 0
0.247152564272323 0 0 0 0 0 -0.999953254313357 -0.482300875129608 0 0 0 0 0 0 0 -1.89921826194539 0 0 0 0 0 0 0 -0.396848760042532 0 0 0 0 0 0 0 0 0 -0.244280037974722 0 0 0 0 0 0 0 0 0 0 0 0 0 0 0 0
0 0 0 0 0 0 0 0 0 0 0 0 0 0 0 0 0 0 0 0 0 0 0 -0.544326117112125 0 -0.462478857786886 0 0 0 0 0 0 0 0 0 0 0 0 0 0 0 0 0 0 0 0 0 0 0 0
0 0 0 0 0.210869943359991 0 0 0 0 0 0 -0.962027258716046 0 0 0 0 -1.38949530519765 -0.158408274749218 0 0 0 0 0 0 0 -1.57438225869332 0 0 0 0 0 -0.455938710386525 0 0 0 0 -0.923753921822699 0 0 0 0 0 0 0 0 0 0 0 0 0
0 0 0 0 0.10263423041718 0 0 0 0 0 0 0 0 0 0 0 -3.3107374658314 -0.311544726203174 0 0 0 0 0 0 0 0 0 0 0 0 0 -0.668261925704873 0 0 0 0 -0.219047163714379 0 0 -1.72897068092604 0 0 0 0 0 0 0 0 0 0
0 0 0 0 0 0 0 0 0 0 0 0 0 0 0 0 -0.987662053362606 -0.0547597691859979 0 0 0 0 0 0 0 0 0 -0.512129989319112 0 -0.664629829242979 0 -0.476583003450716 0 0 0 0 0 0 0 -0.821124798207138 0 0 0 0 0 0 0 0 0 0
0 0 0 0 0 0 0 0 0 0 0 0 0 0 0 0 -0.389819312597237 -1.15633522066493 0 0 0 -7.2380538949245 0 0 0 0 0 -0.543153751653164 0 -4.55140105207551 0 -0.799359944890239 0 0 0 0 0 0 0 -1.41640413247429 0 0 0 0 0 0 0 0 0 0
0 0 0 0 0 0 0 0 0 0 0 0 0 0 0 0 0 0 0 0 0 0 0 0 0 0 0 0 0 0 0 0 0 0 0 0 0 0 0 -1.06807259787118 0 0 0 0 0 0 0 0 0 0
0 0 0 0 0 0 0.196156368410149 0 0 0 0 0 0 0 -0.328742971255491 0 0 0 0 0 0 0 0 0 0 0 0 0 0 0 0 0 0 0 0 0 0 0 0 -0.478040973858082 0 0 0 0 0 0 0 0 0 0
0 0 0 0 0 0 0 0 0 0 0 0 0 0 -0.251462315033708 0 0 0 0 0 0 0 0 0 -0.160498870144878 0 0 0 0 0 0 0 0 0 0 0 0 0 0 -0.532265671559806 0 0 0 0 0 0 0 0 0 0
0 0.0365971807824995 0.13107832627978 0.571770360905334 0 0 0 0 0 0 0 0 0 0 -3.64606459289283 0 0 0 0 0 0 0 0 0 -1.35988912584871 0 0 0 0 0 -3.09544587950211 0 0 0 0 0 0 0 0 0 0 0 0 0 0 0 0 0 0 0
0 0 0 0 0 0 0 0 0 0 0 0.0708471749205623 0.049290081724773 0.707438190153477 0 0 0 0 0 0 0 0 0 0 -7.15814846796821 0 0 0 0 0 -1.52108510583784 0 0 0 0 0 0 0 0 0 0 0 0 0 0 0 0 0 0 0
0 0 0 0 0.368711512103211 0 0 0 0 0 0 0 0 0 0 0 0 0 0 0 0 0 0 0 0 0 0 0 0 0 -6.65332592902138 0 0 0 0 0 0 0 -3.4680929788076 0 0 0 0 0 0 0 0 0 0 0
0 0 0 0 0 0 0.27661408473558 0.648968375876948 0.199312099085959 0.0806197062538866 0 0 0 0 0 0 0 0 0 -0.646319665183323 0 0 0 0 0 0 0 0 0 0 -1.13622094567165 0 0 0 0 0 0 0 -1.31727500473233 0 0 0 0 0 0 0 0 0 0 0
0 0 0 0 0 0 0.0323565277416973 0.0608214721026701 0.0109919538370995 0.219212202367157 0 0 0 0 0 0 0 0 0 -0.433890132973054 0 0 0 0 0 0 -0.851213643822858 0 0 0 -0.558395373630821 0 0 0 0 0 0 0 -0.959803032686174 0 0 0 0 0 0 0 0 0 0 0
0 0 0 0 0 0 0 0 0 0 0 0 0 0 0 0 0 0 0 -1.96121567903788 0 0 0 0 0 0 -0.322876085515176 0 0 0 -2.24896596245693 0 0 0 0 0 0 0 -1.06510213969376 0 0 0 0 0 0 0 0 0 0 0
0 0 0 0 0 0 0 0 0 0 0 0 0 0 0 0 0.131925913829504 0.0858607247877663 0.397356477916807 0 0 0 -6.92115840702884 0 0 0 -1.11095127104358 0 0 0 -1.64844526833231 0 0 0 0 0 0 0 -1.26493968982631 0 0 0 0 0 0 0 0 0 0 0
0 0 0 0 0 0 0 0 0 0 0 0 0 0 0 0 0 0 0 0 0 0 -1.29353949949498 0 0 0 -2.06751195935895 0 0 0 -0.343308131449336 0 0 0 0 0 0 0 -1.09228002169297 0 0 0 0 0 0 0 0 0 0 0
0 0 0 0 0 0 0 0 0 1.40496260357083 0 0 0 0 0 0 0 0 0 0 0 0 0 0 0 0 0 0 0 0 -0.965442501660219 0 0 0 0 0 0 0 0 0 0 0 0 0 0 0 -2.09962254493773 0 0 0
0 0 0 0 0 0 0 0 0 0 0 0 0 0 0 0 0 0 0 1.38422143431474 0.22957419837749 0 0 0 0 0 0 0 0 0 -0.584710965406772 0 0 0 0 0 0 0 0 0 0 0 0 0 0 0 -1.0131331971775 0 0 0
0 0 0 0 0.0757314754412092 0.111974552056621 0 0 0 0 0 0 0 0 0 0 0 0 0 0 0 0 0 0 0 0 0 0 0 0 -0.888141790962539 0 0 0 0 0 0 0 0 0 0 0 0 0 0 0 -2.29479087267032 0 0 0
0 0 0 0 0 0 0 0 0 0 0 0 0.033374701158409 0.259059989695628 1.41946720349595 0 0 0 0 0 0 0 0 0 0 0 0 0 0 0 0 0 0 0 0 0 0 0 0 0 0 0 0 0 0 0 -1.91498187602378 0 0 0
0 0 0 0 0 0.092613853585035 0.299838193804683 0 0 0 0 0 0 0 0 0 0 0 0 0 0 0 0 0 0 0 0 0 0 0 0 0 0 0 0 0 0 0 0 0 0 0 0 0 0 0 -0.690094997437814 0 0 0
0 0 0 0 0 0 0 0 0 0 0 0 0 0 0 0 0 0.177905876969854 0.0702886403664202 0.220156066532684 0.402994939751388 0 0 0 0 0 0 0 0 0 0 0 0 0 0 0 0 0 0 0 0 0 0 0 0 0 0 0 0 0
0 0 0 0 0 0 0 0 0.110119359431232 0.109977390449037 0 0 0 0 0 0 0 0 0 0 0 0 0 0 0 0 0 0 0 0 0 0 0 0 0 0 0 0 0 0 0 0 0 0 0 0 0 0 -0.462701351825538 0
0 0 0 0 0 0 0 0 0 0 0 0 0 0 0 0 0 0 0 0 0 0 0 0 0 0 0 0 0 0 0 0 0 0 0 0 0 0 0 0 0 0 0 0 0 0 0 0 -0.960114814543484 0
0 0 0 0 0 0 0 0 0.124858087962451 0.991202535026683 0 0 0 0 0 0 0 0 0 0 0 0 0 0 0 0 0 0 0 0 0 0 0 0 0 0 0 0 0 0 0 0 0 -6.68239936249717 0 0 0 0 -0.215972762208365 0
0 0 0 0 0 0 0 0 0 0 0 0 0 0.609009896304004 0.294488138936238 1.34747713337987 0.216459364496821 0.113998178225441 0.428074478667725 0.306667657556135 0.0687452290889378 0.186858674588564 0.114253975856712 0.181288481292926 0 0 0 0 0 0 0 0 0 0 0 -1.3325462948098 0 0 0 0 0 0 0 0 0 0 0 0 0 0
0 0 0 0 0 0 0.0961038235323859 0.125731639425985 0.0984028647885305 0.165892812557411 0 0 0 0 0 0 0 0 0 0 0 0 0 0 0 0 0 0 0 0 0 0 0 0 0 -1.07418357484761 0 0 0 0 0 0 0 0 0 0 0 0 0 -0.292875192144868
0 0 0 0 0 0 0 0 0 0 0 0 0 0 0 0 0 0 0 0 0 0 0 0 0 0 0 0 0 0 0 0 0 0 0 -1.39344994909498 0 0 0 0 -2.56961850536866 0 -0.350849231079175 0 0 0 0 -2.22011388039898 0 0
0 0.0874979529498824 0.199286009870484 0.232176547007064 0.0520823120097673 0 0 0 0 0 0 0 0 0 0 0 0 0 0 0 0 0 0 0 0 0 0 0 0 0 0 0 0 0 0 0 0 0 0 0 0 0 -1.32758498355558 0 0 0 0 -1.66479249200364 0 0
0 0 0 0 0 0 0 0 0 0 0 0 0 0 0 0 0 0 0 0 0 0 0 0 0 0 0 0 0 0 0 0 0 0 0 0 0 0 0 0 0 0 -0.116961537876824 0 0 0 0 -0.528665594003538 0 0
0 0 0 0 0 0 0 0 0 0 0 0 0 0 0 0 0 0 0 0 0 0 0 0 0 0 0 0 0 0 0.282318044376503 0.21047931799915 0.278946286596283 0 0 0 0 0 0 0 0 0 -0.648687845099219 0 0 0 0 -2.44861603183566 0 0
0 0 0 0 0 0 0.171506230714615 0.0448782836237608 0 0 0 0 0 0 0 0 0 0 0 0 0 0 0 0 0 0 0 0 0 0 0 0 0 0 0 0 0 0 0 0 0 0 -0.413818907615488 0 0 0 0 0 0 0
0 0 0 0 0 0 0 0 0 0 0 0 0 0 0 0 0 0 0 0 0 0 0 0 0 0 0 0 0 0 0 0 0 0 0 0 0 0 0.367334458325094 0 0 0 -0.41644812902021 0 0 0 0 0 0 0
0 0 0 0 0 0 0 0 0 0 0 0 0 0 0 0.677328153664829 0.282716805774188 0.187011033677526 0.199357533359818 0.244982025319244 0.195058726645174 0 0 0 0 0 0 0 0 0 0 0 0 0 0 0 0 -1.75332492942933 0 0 0 0 -0.261977812145898 0 0 0 0 0 0 0
0 0 0 0 0 0 0 0.350504332995983 0.172730309821522 0.272098762123118 0.203530829197829 0.091469787759621 0.100836773998649 0 0 0 0 0 0 0 0 0 0 0 0 0 0 0 0 0 0 0 0 0 0 0 0 0 0 0 0 0 -4.38687977219992 0 0 0 0 0 0 0
0 0 0 0 0 0 0 0 0 0 0 0 0 0 0 0 0 0 0 0 0 0 0 0 0 0 0 0 0 0 0 0 0.492219515509657 0 0 0 0 0 0 0 0 0 -0.925399914388666 0 0 0 0 0 0 0
0 0 0 0 0 0 0 0 0 0 0 0 0 0 0 0 0 0 0 0 0 0 0 0 0 0 0 0 0 0 0 0 0 0 0 0 0 0 0 0 0 0 -0.580483826746674 0 -0.714840640012351 0 0 0 0 0
0 0 0 0 0 0 0 0 0 0 0 0 0 0 0 0 0 0 0 0 0 0 0 0 0 0 0 0 0 0 0 0 0.0655371571325653 0.278753261874575 0.0225861249416923 0.121868457008018 0.0884625376601559 0.0848381458195325 0.0505432018603297 0.969584714691268 0.184252067139187 0.107342785898833 0 0.158939570933536 -0.336228979211112 0 0 0 0 0
0 0 0 0 0 0 0 0 0 0 0 0 0 0 0 0 0 0 0 0 0 0 0 0 0 0 0 0 0 1.34573167162354 0 0 0 0 0 0 0 0 0 0 0 0 -0.790491615956609 0 -1.99147170033834 0 0 0 0 0
0 0 0 0 0 0 0 0 0 0 0 0 0 0 0 0 0 0 0 0 0 0 0 0 0 0 0 0 0 0 0 0 0 0 0 0 0 0 0 0 0 0.147236730868443 0.0654083185238942 0.444803442706688 0 0.464997621385625 0 0 0 0
0 0 0 0 0 0 0 0 0 0 0 0 0 0 0 0 0 0 0 0 0 0 0 0 0 0 0 0 0 0 0 0 0 0 0 0 0 0 0 0 0 0 0 0 -2.18173130141292 0 0 0 0 0
0 0 0 0 0 0 0 0 0 0 0 0 0 0 0 0 0 0 0 0 0 0.449301319025093 0.196087131622116 0.427532795274245 0.385587409511103 0.132655266932799 0 0 0 0 0 0 0 0 0 0 0 0 0 0 0 0 0 0 0 0 0 0 0 0
0 0 0 0 0 0 0 0 0 0 0 0 0 0 0 0 0 0 0 0 0 0 0 0 0 0 0 0 0 0 0 0 0.416017514359645 0.315011133674735 0.102971603241219 0.505523293178797 0 0 0 0 0 0 0 0 0 0 0 0 0 0
0 0 0 0 0 0 0 0 0 0 0 0 0 0 0 0 0 0 0 0 0 0 0 0 0 0 0 0.0904403770253182 0.194823398712303 0.0444802929500442 0 0 0 0 0 0 0 0 0 0 0 0 0 0 0 0 0 0 0 0
0 0 0 0 0 0 0 0 0 0 0 0 0 0 0 0 0 0 0 0 0 0 0 0 0 0 0 0 0 0 0 0.0555127377740348 0 0 0 0 0 0 0 0 0 0 0 0 0 0 0 0 0 0
