0 0 -0.354893711960714 0 -2.0007611760824 0 0 0 0 0 0 0 0 0 0 0 -2.07292162366182 0 0 0 0 0 0 0 0 0 0 0 0 0 -3.823939662231 0 0 0 0 0 0 0 0 0 0 0 0 0 0 0 0 0 0 0
0 0 0 0 -2.23119678932112 0 0 0 0 0 0 0 0 0 0 0 -1.25785294172637 0 0 0 0 0 0 0 0 0 0 0 0 0 -0.29953065777901 0 0 0 0 0 0 0 0 0 0 0 0 0 0 0 0 0 0 0
0.0728126362671117 0 0 0 -0.661812365954147 -1.71713625476575 0 0 0 0 0 0 0 0 0 0 -0.601117762166986 0 0 0 0 0 0 0 0 0 0 0 0 0 -0.966760680231322 0 0 0 0 0 0 0 0 0 0 0 0 -1.1535944024429 0 0 0 0 0 0
0 0 0 0 0 0 0 0 0 0 0 0 -1.03273319166871 0 0 0 -2.42253680312124 0 0 0 0 0 0 0 0 0 0 0 0 0 0 0 0 0 0 0 0 0 0 0 0 0 0 0 0 0 0 0 0 0
0.416385343796596 0.441391051841639 0.136297630064693 0 0 0 0 0 0 0 0 0 0 0 0 0 -0.661264006485555 0 -1.78530113650195 0 0 0 0 0 0 0 0 0 0 0 0 0 0 0 0 0 0 0 0 0 0 0 0 0 0 0 0 0 0 0
0 0 0.334439076350391 0 0 0 0 0 0 0 0 0 0 0 0 0 -2.27364261429627 0 0 0 0 0 0 0 0 0 0 0 0 0 0 0 0 0 0 0 0 0 0 0 0 0 0 0 0 0 0 0 0 0
0 0 0 0 0 0 0 0 0 0 0 0 0 0 0 0 -0.515524294243659 0 0 0 0 0 -3.48205791668043 0 0 0 0 0 0 0 0 0 0 0 0 0 0 0 0 0 0 0 0 0 0 0 0 0 0 0
0 0 0 0 0 0 0 0 -0.1386054524291 0 0 0 0 0 0 0 0 0 0 0 0 0 -1.79196419139623 0 0 0 0 0 0 0 0 0 0 0 0 0 0 0 0 0 0 0 0 0 0 0 0 0 0 0
0 0 0 0 0 0 0 0.0281394281362297 0 0 0 0 0 0 0 0 0 0 0 0 0 0 -0.340179175901459 0 0 0 0 0 0 0 0 0 0 0 0 0 0 0 0 0 0 0 0 0 0 0 0 0 0 0
0 0 0 0 0 0 0 0 0 0 -0.287657735073233 0 0 0 0 -1.28838841878773 0 0 0 0 0 0 -2.1365793067504 0 0 0 0 0 0 0 0 0 0 0 0 0 0 0 0 0 0 0 0 0 0 0 0 0 0 -0.43692486772606
0 0 0 0 0 0 0 0 0 0.0612761285319748 0 -0.831757937322555 0 0 -0.591680416864633 0 0 0 0 -0.82093876330094 0 0 0 0 0 0 0 0 0 0 0 0 0 0 0 -0.755673747046111 0 0 0 0 0 0 0 0 0 0 0 0 0 0
0 0 0 0 0 0 0 0 0 0 0.163715988014154 0 0 0 0 0 0 0 0 0 0 -3.00202890378528 0 -0.0791544449959415 0 0 0 0 -1.17177398961444 0 0 0 0 0 -0.675417062024438 0 0 0 0 0 0 0 0 0 0 0 0 0 0 0
0 0 0 0.204710525777701 0 0 0 0 0 0 0 0 0 0 0 0 0 0 0 0 0 -1.4366716942459 0 -0.0377550740501455 0 0 0 0 -0.0809217676396504 0 0 0 0 0 -0.925844022346493 0 0 0 0 0 0 0 0 0 0 0 0 0 0 0
0 0 0 0 0 0 0 0 0 0 0 0 0 0 0 0 0 -1.38708172920532 0 0 0 -1.00676590126706 0 -0.540303694648706 0 -0.726733929754359 0 0 -0.869666083672761 0 0 0 0 0 -1.60321437996361 0 0 0 0 0 0 0 0 0 0 0 0 0 0 0
0 0 0 0 0 0 0 0 0 0 0.119213132213164 0 0 0 0 0 0 -0.666669969161057 0 0 0 -2.4171353360114 0 -3.18292807235701 0 -0.369855575083586 0 0 -1.19410903195868 0 0 0 0 0 -0.950330486624845 0 0 0 0 0 0 0 0 0 0 0 0 0 0 0
0 0 0 0 0 0 0 0 0 0.260645034704352 0 0 0 0 0 0 0 -1.03792920044241 0 0 0 -4.55921844103017 0 -0.701219225923658 0 -0.25401219055651 0 0 -4.97911636000361 0 0 0 0 0 -0.308992862455666 0 0 0 0 0 0 0 0 0 0 0 0 0 0 0
0.401405792166083 0.273236891379768 0.122925407186001 0.463471101976964 0.133645016741739 0.475368211060152 0.107042872344655 0 0 0 0 0 0 0 0 0 0 -2.22875981669045 0 0 0 -1.10461257675159 0 -0.0776898309883184 -1.05235584870242 -0.678772847398948 0 0 0 0 0 0 0 0 -1.92587132088788 0 0 0 0 0 0 0 0 0 0 0 0 0 0 0
0 0 0 0 0 0 0 0 0 0 0 0 0 0.269585665538132 0.134883725431646 0.219416950754405 0.441143853404029 0 0 0 0 0 0 0 0 -3.39548074320173 0 0 0 0 0 0 -2.00378706989815 0 -0.319485034310193 0 0 -0.580438292112757 0 0 0 0 0 0 0 0 0 0 0 0
0 0 0 0 0.375181747562972 0 0 0 0 0 0 0 0 0 0 0 0 0 0 0 0 0 0 0 0 -0.743299637304653 0 0 0 0 0 0 -0.0848736557643646 0 -2.73843969230719 0 0 -2.03049873384952 0 0 0 0 0 0 0 0 0 0 0 0
0 0 0 0 0 0 0 0 0 0 0.160030991386273 0 0 0 0 0 0 0 0 0 0 0 0 0 0 0 0 0 0 0 0 0 0 0 -4.16196643520788 0 0 -3.04735848912511 0 0 0 0 0 0 0 0 0 0 0 0
0 0 0 0 0 0 0 0 0 0 0 0 0 0 0 0 0 0 0 0 0 0 0 0 0 0 0 0 0 0 0 0 0 0 -0.642884629082325 0 0 -0.17550209061094 0 0 0 0 0 0 0 0 0 0 0 0
0 0 0 0 0 0 0 0 0 0 0 0.617930885076107 0.279146855349286 0.215938611539508 0.466937163329674 0.84562782050385 0.226407486696579 0 0 0 0 0 0 0 0 0 0 0 0 -0.799885977119395 0 0 0 0 -1.6289233352272 0 0 0 0 0 0 0 0 0 0 0 0 0 0 0
0 0 0 0 0 0 0.705746576369652 0.337625631215621 0.0671825437132852 0.389462929302473 0 0 0 0 0 0 0 0 0 0 0 0 0 0 0 0 0 0 0 -1.5504996792412 0 0 0 0 -1.72536346740147 0 0 0 0 0 0 0 0 0 0 0 0 0 0 0
0 0 0 0 0 0 0 0 0 0 0 0.0180232870958105 0.0075010326597285 0.11386311088239 0.661915227496374 0.149434640128664 0.0149696006137595 0 0 0 0 0 0 0 0 0 0 0 0 -0.67938184172841 0 0 0 0 -0.58538291418211 0 0 0 -9.73316200424621 0 0 0 0 0 0 0 0 0 0 0
0 0 0 0 0 0 0 0 0 0 0 0 0 0 0 0 0.198194704093334 0 0 0 0 0 0 0 0 0 0 0 0 0 0 0 0 0 -0.753148586383729 0 0 0 0 0 0 0 0 0 -1.19827376975625 0 0 0 0 0
0 0 0 0 0 0 0 0 0 0 0 0 0 0.149872978132949 0.0755656386786952 0.0522817122333882 0.141021943768478 0.688886245895074 0.145638176284777 0 0 0 0 0 0 0 0 0 0 0 0 0 0 0 -1.08047347634792 0 0 0 0 0 0 0 0 0 -0.342065670592777 0 0 0 0 0
0 0 0 0 0 0 0 0 0 0 0 0 0 0 0 0 0 0 0 0 0 0 0 0 0 0 0 -0.552999653601209 0 0 0 0 0 0 0 0 0 0 0 0 0 0 0 0 -1.10884195783404 0 0 0 0 0
0 0 0 0 0 0 0 0 0 0 0 0 0 0 0 0 0 0 0 0 0 0 0 0 0 0 0.112646708009018 0 0 0 0 0 0 0 0 0 0 0 0 0 0 0 0 0 -1.73257958712358 0 0 0 0 0
0 0 0 0 0 0 0 0 0 0 0 0.228831569385709 0.0157236994936776 0.180838016552547 0.255956201577086 0.936667994553846 0 0 0 0 0 0 0 0 0 0 0 0 0 0 0 0 0 0 0 0 0 0 0 0 0 0 0 0 -0.966897082083235 0 0 0 0 0
0 0 0 0 0 0 0 0 0 0 0 0 0 0 0 0 0 0 0 0 0 0.150894187731104 0.327025302126719 0.138683908071885 0 0 0 0 0 0 0 0 0 0 0 0 0 0 0 0 0 0 0 0 -0.476460745063199 0 0 0 0 0
0.770125355142449 0.0638534825142354 0.209434366600306 0 0 0 0 0 0 0 0 0 0 0 0 0 0 0 0 0 0 0 0 0 0 0 0 0 0 0 0 0 0 0 0 0 0 0 0 0 0 0 0 0 -8.78444312527511 -1.79094243471258 -5.10210537793261 0 0 0
0 0 0 0 0 0 0 0 0 0 0 0 0 0 0 0 0 0 0 0 0 0 0 0 0 0 0 0 0 0 0 0 0 0 0 0 0 0 0 -3.16444666161296 0 0 0 0 -1.86973516697129 -0.947180250328947 -3.25026183121507 0 0 0
0 0 0 0 0 0 0 0 0 0 0 0 0 0 0 0 0 0.409807462591458 0.0175094969871023 0 0 0 0 0 0 0 0 0 0 0 0 0 0 0 0 0 -1.79059928736749 0 0 0 0 0 0 0 0 0 -1.18881663130763 0 0 0
0 0 0 0 0 0 0 0 0 0 0 0 0 0 0 0 0 0 0 0 0 0 0 0 0 0 0 0 0 0 0 0 0 0 0 0 -3.60482245997442 0 0 0 0 0 0 0 0 0 -0.554865879795433 0 0 0
0 0 0 0 0 0 0 0 0 0 0 0.14140174726598 0.171005911915927 0.32633856157053 0.195735558979644 0.0587157883299213 0.375861958034921 0.0680722105592192 0.554761075296534 0.904661363034235 0.142717426696015 0.345977834866959 0.334335163983995 0.117279194493547 0.149659016239303 0.21234999953112 0 0 0 0 0 0 0 0 0 0 0 0 0 0 0 0 0 0 0 0 -0.212685836333248 0 0 0
0 0 0 0 0 0 0 0 0 0 0.145550236572111 0 0 0 0 0 0 0 0 0 0 0 0 0 0 0 0 0 0 0 0 0 0 0 0 0 0 0 0 0 -0.321145874382274 0 0 0 0 0 -0.246762229517206 0 0 0
0 0 0 0 0 0 0 0 0 0 0 0 0 0 0 0 0 0 0 0 0 0 0 0 0 0 0 0 0 0 0 0 0.381338080553326 0.695901600756824 0 0 0 0 0 0 0 -1.119102812471 0 0 0 0 -0.712343362503817 -0.670875972321591 0 0
0 0 0 0 0 0 0 0 0 0 0 0 0 0 0 0 0 0.11496211819571 0.415864269075504 0.62023297496173 0.0355210182981437 0 0 0 0 0 0 0 0 0 0 0 0 0 0 0 0 0 0 0 0 -2.20998274429613 0 0 0 0 -0.581573941774668 -3.18184914466829 0 0
0 0 0 0 0 0 0 0 0 0 0 0 0 0 0 0 0 0 0 0 0 0 0 1.96442111269459 0 0 0 0 0 0 0 0 0 0 0 0 0 0 0 0 0 -0.847604417621685 0 0 0 0 0 -0.694746383573293 0 0
0 0 0 0 0 0 0 0 0 0 0 0 0 0 0 0 0 0 0 0 0 0 0 0 0 0 0 0 0 0 0 0.605648282910057 0 0 0 0 0 0 0 0 0 -0.42979822986245 0 0 0 0 0 -0.520632529144746 -3.55924222583405 0
0 0 0 0 0 0 0 0 0 0 0 0 0 0 0 0 0 0 0 0 0 0 0 0 0 0 0 0 0 0 0 0 0 0 0 0.065951556588856 0 0 0 0 0 0 0 0 0 0 0 -0.13661675406411 0 0
0 0 0 0 0 0 0 0 0 0 0 0 0 0 0 0 0 0 0 0 0 0 0 0 0 0 0 0 0 0 0 0 0 0 0 0 0.220599446484537 0.414948304349878 0.174983828523252 0.0890635071627204 0 0 0 0 0 0 0 -0.204550578845859 0 0
0 0 0 0 0 0 0 0 0 0 0 0 0 0 0 0 0 0 0 0 0 0 0 0 0 0 0 0 0 0 0 0 0 0 0 0 0 0 0 0 0 0 0 0 0 0 0 -1.74164730304983 0 0
0 0 0.22838836402826 0 0 0 0 0 0 0 0 0 0 0 0 0 0 0 0 0 0 0 0 0 0 0 0 0 0 0 0 0 0 0 0 0 0 0 0 0 0 0 0 0 0 0 0 -0.385515185959122 0 0
0 0 0 0 0 0 0 0 0 0 0 0 0 0 0 0 0 0 0 0 0 0 0 0 0.257120931828706 0.071846169950117 0.218413982886492 0.319292848142995 0.174097605913678 0.0892703743768776 1.73272762762049 0.379605075702467 0 0 0 0 0 0 0 0 0 0 0 0 0 0 0 -3.6363273050907 0 0
0 0 0 0 0 0 0 0 0 0 0 0 0 0 0 0 0 0 0 0 0 0 0 0 0 0 0 0 0 0 0.373917924007991 0.186542828070318 0 0 0 0 0 0 0 0 0 0 0 0 0 0 0 0 0 0
0 0 0 0 0 0 0 0 0 0 0 0 0 0 0 0 0 0 0 0 0 0 0 0 0 0 0 0 0 0 1.06014047000616 0.60653778912136 0.242302925197331 0.110103385193159 0.0407019848318951 0.0512260190852738 0.13305487502696 0.124436967304205 0 0 0 0 0 0 0 0 0 0 0 0
0 0 0 0 0 0 0 0 0 0 0 0 0 0 0 0 0 0 0 0 0 0 0 0 0 0 0 0 0 0 0 0 0 0 0 0 0.137265868587886 0.637669528481501 0.132796551772089 0.098843001103599 0.0280865534776749 0.0420101407678367 0.363419200590706 0.0814133881602783 0.748614945492584 0 0 0 0 0
0 0 0 0 0 0 0 0 0 0 0 0 0 0 0 0 0 0 0 0 0 0 0 0 0 0 0 0 0 0 0 0 0 0 0 0 0 0 0 0.685831576903139 0 0 0 0 0 0 0 0 0 0
0 0 0 0 0 0 0 0 0 0.0843532805865317 0 0 0 0 0 0 0 0 0 0 0 0 0 0 0 0 0 0 0 0 0 0 0 0 0 0 0 0 0 0 0 0 0 0 0 0 0 0 0 0
