0.259052174375599
4.97276439610627
1.10310687541276
0.771371454254242
0.808661797946571
1.26589709971648
1.86469880437039
1.17919497365779
0.722371983987908
2.2216322420748
0.880428942424188
1.38725611184298
1.27740696270065
1.0746218270953
1.82936206390109
2.24408302184048
0.891629719663256
0.343195159016996
0.388871979589517
3.58040598821396
0.831277379540766
0.409311853240603
0.585124981725326
1.72773587653023
5.74688289887521
0.550897808015318
0.137449006651192
1.95577524751948
1.3320384601906
0.540949368513408
0.0511941426234674
2.66004328447947
0.663238531545781
6.62091070289272
1.57571795688983
3.90471390025623
0.722099535430629
5.5733520303611
0.398841695344455
0.577253155194674
0.436897915808186
0.619020402161187
0.513942979898546
0.604765665631397
0.201634976769016
1.09938016499367
4.09510851854485
1.81919924932563
1.64101279859716
0.486380582078937
