0 0 0 -2.6137452849376 0 0 0 0 0 0 0 0 0 0 0 0 0 0 0 0 0 0 0 0 0 0 0 0 0 0 0 0 0 0 0 0 0 0 0 0 0 0 0 0 0 0 0 0 0 0
0 0 0 -0.547070625750923 0 0 0 0 0 0 0 0 0 0 0 0 0 0 0 0 0 0 0 0 0 0 0 0 0 0 0 0 0 0 0 0 0 0 0 0 0 0 0 0 0 0 0 0 0 0
0 0 0 0 0 0 0 0 0 -1.40320793333322 -1.84183878725495 0 0 0 0 0 0 0 -0.437378497331811 0 0 0 0 0 0 0 0 0 0 0 0 0 -1.79933128525107 0 0 0 0 0 0 0 0 0 0 0 0 0 0 0 0 0
0.544319701232715 0.104413732903698 0 0 0 0 0 0 0 0 0 -0.815660455437646 0 0 0 0 0 0 -0.363191076980046 0 0 0 0 0 0 0 0 0 0 0 0 0 -0.636738657843861 0 0 0 0 0 0 0 0 0 0 0 0 0 0 0 0 0
0 0 0 0 0 0 0 0 0 0 0 0 0 0 0 0 0 0 -1.55308614313569 0 0 0 0 0 0 0 0 0 0 0 0 0 0 0 0 0 0 0 0 0 0 0 0 0 0 0 0 0 0 0
0 0 0 0 0 0 0 -0.114064522204204 0 0 0 0 0 0 0 0 0 0 -0.358998724150053 0 0 0 0 0 0 0 0 0 0 0 0 0 0 0 0 0 0 0 -0.459179904870042 0 0 0 0 0 0 0 0 0 0 0
0 0 0 0 0 0 0 -0.409402389390469 0 0 0 0 0 -0.665458433262844 0 0 0 0 0 0 0 0 0 0 0 0 0 0 0 0 0 0 0 0 0 0 0 0 -3.40562968088494 0 -1.19288001315056 0 0 0 0 0 0 0 0 0
0 0 0 0 0 0.0222004138320325 0.0837796609242446 0 0.0829952397520605 0 0 0 0 -0.753381126790353 0 0 0 0 0 0 0 0 0 0 0 0 0 0 0 0 0 0 0 0 0 0 0 0 -0.717315827447949 0 0 0 0 0 0 0 0 0 0 0
0 0 0 0 0 0 0 -0.394794418523095 0 0 0 0 0 -0.875826060322686 0 0 0 0 0 0 0 0 0 0 0 0 0 0 0 0 0 0 0 0 0 0 0 0 -1.22805532819726 0 0 0 0 0 0 0 0 0 0 0
0 0 0.305725572826183 0 0 0 0 0 0 0 0 0 0 -1.14140311455879 0 0 0 0 0 0 0 0 0 0 -1.45597991297593 0 0 0 0 0 0 0 0 0 0 0 0 0 -2.81206867341392 0 0 0 0 0 0 0 0 0 0 0
0 0 0.369497932451622 0 0 0 0 0 0 0 0 0 0 -0.304672239198606 0 0 0 0 0 0 0 -3.90857305807428 0 0 0 0 0 0 0 0 0 0 0 0 0 0 0 0 0 0 0 0 0 0 0 0 0 0 0 0
0 0 0 0.159304528620636 0 0 0 0 0 0 0 0 0 0 0 0 0 0 0 0 -2.49280667657131 0 -0.1129521465147 0 0 0 0 0 0 0 0 0 0 0 0 0 0 0 0 0 0 0 -0.57797077050486 0 0 0 0 0 0 0
0 0 0 0 0 0 0 0 0 0 0 0 0 0 0 0 0 0 0 0 -0.745636657657061 0 -1.4918078825634 0 0 0 0 0 0 0 0 0 0 0 0 0 0 0 0 0 0 0 -0.36983744812461 0 -5.01513757064512 0 0 0 0 0
0 0 0 0 0 0 0.132997616335898 0.161760100899215 0.1812735745596 0.213398955253221 0.0650193206449466 0 0 0 0 0 0 0 0 0 -1.37196133730571 0 0 -0.558542719271384 0 0 0 -5.54094418045315 0 0 0 0 0 0 0 0 -2.382260386234 -1.28053195834519 0 -2.14035420143369 0 0 -0.664637100252018 0 -2.0964827280594 0 0 0 0 0
0 0 0 0 0 0 0 0 0 0 0 0 0 0 0 0 0 0 0 0 -0.320596133811896 0 0 -2.12700573446993 0 0 0 -1.42622402429161 0 0 0 0 0 0 0 0 -1.62510274683608 -0.426992147764269 0 -1.85219104836418 0 0 0 0 -0.44840284081175 0 0 0 0 0
0 0 0 0 0 0 0 0 0 0 0 0 0 0 0 0 0 0 0 0 -1.51615161287796 0 0 -1.99756076646935 0 -0.400347383502696 0 -0.913587533330579 0 0 0 0 0 0 0 0 -8.1653646251344 -0.530701993488975 0 -0.394550573746192 0 0 0 0 -8.77466026033057 0 0 0 0 0
0 0 0 0 0 0 0 0 0 0 0 0 0 0 0 0 0 -0.834648183151441 0 0 -1.32262967788733 0 0 -0.692080988452894 0 -4.26116708969981 0 -0.313849183763743 0 0 0 0 0 0 0 0 0 -4.04668000387663 0 -0.557026009899291 0 0 0 0 0 0 0 0 0 0
0 0 0 0 0 0 0 0 0 0 0 0 0 0 0 0 0.176095671264739 0 0 0 0 0 0 -1.48421840129752 0 0 0 -0.198299239993546 0 0 0 0 0 0 0 0 0 -1.55024533854167 0 -0.917331182945839 0 0 0 0 0 0 0 0 0 0
0 0 0.0937694272979524 0.0723077572032531 0.326648685581244 0.0729387613337553 0 0 0 0 0 0 0 0 0 0 0 0 0 0 0 0 0 0 0 0 0 0 0 0 0 0 0 0 0 0 0 -0.426301622907525 0 0 0 0 0 0 0 0 0 0 0 0
0 0 0 0 0 0 0 0 0 0 0 0 0 0 0 0 0 0 0 0 0 0 0 0 0 0 0 0 0 0 0 0 0 0 0 0 0 -1.99911440611411 0 0 0 0 0 0 0 0 0 0 0 0
0 0 0 0 0 0 0 0 0 0 0 0.489113416637751 0.142911468616092 0.274902997580592 0.0625875101830934 0.31658145920491 0.281305656378003 0 0 0 0 0 0 0 0 0 0 0 0 0 0 0 0 0 0 0 0 -1.18037436720268 0 0 0 0 0 0 0 0 0 0 0 0
0 0 0 0 0 0 0 0 0 0 0.784096834330955 0 0 0 0 0 0 0 0 0 0 0 0 0 0 0 0 0 0 0 0 0 0 0 0 0 0 -1.36431511264988 0 0 0 0 0 0 0 0 0 0 0 0
0 0 0 0 0 0 0 0 0 0 0 0.0224643666027383 0.29316264575787 0 0 0 0 0 0 0 0 0 0 0 0 0 0 0 -0.529877910364948 0 0 0 0 0 0 0 0 -0.488297751189947 0 0 0 0 0 0 0 0 0 0 0 0
0 0 0 0 0 0 0 0 0 0 0 0 0 0.1080548030013 0.384984429972217 0.40852091520311 0.136930604467481 0.294860701361246 0 0 0 0 0 0 0 0 0 0 0 0 0 0 0 0 0 -3.08024943284572 0 -1.21341323233094 0 0 0 0 0 0 0 0 0 0 0 0
0 0 0 0 0 0 0 0 0 0.295460004338565 0 0 0 0 0 0 0 0 0 0 0 0 0 0 0 0 0 0 0 0 -1.22659657400276 0 0 0 0 -0.936802260657013 0 -0.126275700860514 0 0 0 0 0 0 0 0 0 0 0 0
0 0 0 0 0 0 0 0 0 0 0 0 0 0 0 0.0781776195299037 0.885746136888604 0 0 0 0 0 0 0 0 0 0 0 0 0 -0.783191883006828 0 0 0 0 -0.263842711389116 0 -1.20177989964978 0 0 0 0 0 0 0 0 -0.438140155370254 0 0 -0.538728426354551
0 0 0 0 0 0 0 0 0 0 0 0 0 0 0 0 0 0 0 0 0 0 0 0 0 0 0 0 0 0 0 0 0 0 0 -0.598809595972855 0 -0.597648080078421 0 0 0 0 0 0 0 0 -0.503253338896602 0 0 -0.877197477383695
0 0 0 0 0 0 0 0 0 0 0 0 0 1.1276535736134 0.27390299737192 0.195223606184889 0.0638679883069768 0.0398545624982743 0 0 0 0 0 0 0 0 0 0 0 0 0 -3.02125686220963 0 0 -2.30632355653942 -0.944678585365153 0 -1.51576228765253 0 0 0 0 0 0 0 0 -1.15909994023353 0 0 -0.677989668074326
0 0 0 0 0 0 0 0 0 0 0 0 0 0 0 0 0 0 0 0 0 0 0.103779290814152 0 0 0 0 0 0 0 0 -0.322369411080524 0 -1.86349449257327 0 -1.28744762122005 0 -1.24234148746496 0 0 0 0 0 0 0 0 -1.16032979124309 0 0 -0.486413639626674
0 0 0 0 0 0 0 0 0 0 0 0 0 0 0 0 0 0 0 0 0 0 0 0 0 0 0 0 0 0 0 -4.77380874007581 0 -0.879944058555167 0 -4.34970347734687 0 -0.227052712043796 0 0 0 0 0 -3.15906214534422 0 0 -1.11107545393299 0 0 -1.13542057689167
0 0 0 0 0 0 0 0 0 0 0 0 0 0 0 0 0 0 0 0 0 0 0 0 0.233755654177192 0.160532370272139 0 0 0 0 0 -0.778811200548272 0 -1.89542673282838 0 -0.999947616197147 0 -0.702524644403455 0 0 0 0 0 -0.751395795044281 0 0 0 0 0 -0.820890488790763
0 0 0 0 0 0 0 0 0 0 0 0 0 0 0 0 0 0 0 0 0 0 0 0 0 0 0 0.659493048806422 0.0671501581386948 0.975785720962688 0.147379823394415 0 0 -6.48368018569474 0 -1.5919624948443 0 -0.69633148155953 0 0 0 0 0 -0.889408864015337 0 0 0 0 0 -1.46206916991013
0 0 0.36521600894326 0.125765499695071 0 0 0 0 0 0 0 0 0 0 0 0 0 0 0 0 0 0 0 0 0 0 0 0 0 0 0 0 0 0 0 -0.353433219283673 0 -1.405032184026 0 0 0 0 0 -0.500315532073957 0 0 0 0 0 0
0 0 0 0 0 0 0 0 0 0 0 0 0 0 0 0 0 0 0 0 0 0 0 0 0 0 0 0 0.381791245627115 0.174097674478198 0.383068833106707 1.19816678476414 0 0 0 -1.22160783805255 0 -0.294171892700081 0 0 0 0 0 -0.597080024788087 0 0 0 0 0 0
0 0 0 0 0 0 0 0 0 0 0 0 0 0 0 0 0 0 0 0 0 0 0 0 0 0 0 0.445841521521654 0 0 0 0 0 0 0 -0.126332679058851 0 -0.148810111088094 0 0 0 0 0 -0.416362461021951 0 0 0 0 0 0
0 0 0 0 0 0 0 0 0 0 0 0 0 0 0 0 0 0 0 0 0 0 0 0.641046446594186 0.173715769689616 0.0505805253165826 0.114895098696336 0.199439986405419 0.235758483674598 0.881428434143233 0.206610163657317 0.341495357497468 0.0697336645008648 0.258635462469103 0.027423565818237 0 0.36608569668038 0.305107650361474 0 0 0 0 0 -2.82921535379257 0 0 0 0 0 0
0 0 0 0 0 0 0 0 0 0 0 0 0 0.4875648417019 0.324590447480802 1.797185048085 0 0 0 0 0 0 0 0 0 0 0 0 0 0 0 0 0 0 0 -1.89147129783733 0 0 0 0 0 0 0 -1.32787637843321 0 0 0 0 0 0
0 0 0 0 0 0 0 0 0 0 0 0 0 0.232115556481358 0.0820025835113133 0.104092548835296 0.796495605596447 0.308179814751105 0.082854827189176 0.35973219525051 0.254238598600626 0.274698729969054 0.0892694946871167 0.245284876098755 0.0260276521406927 0.25179777100094 0.127337752018127 0.284171065118051 0.233391052865724 0.0452685305999131 0.140062381190229 0.137287426771213 0.263992845828927 0.0561114930697838 0.0266447136186943 -1.60677087337569 0 0 0 0 0 0 0 -0.567466501987952 0 0 0 0 0 0
0 0 0 0 0 0.0960106059017206 0.709183148968286 0.135893983707736 0.241302449823397 0.548213043911539 0 0 0 0 0 0 0 0 0 0 0 0 0 0 0 0 0 0 0 0 0 0 0 0 0 0 0 0 0 0 0 0 0 0 0 0 0 0 0 0
0 0 0 0 0 0 0 0 0 0 0 0 0 0.386385992126539 0.383376345610215 0.0779815399468073 0.116739530557479 0.179552860516884 0 0 0 0 0 0 0 0 0 0 0 0 0 0 0 0 0 0 0 0 0 0 0 0 0 0 0 0 0 0 0 0
0 0 0 0 0 0 0.239435309122823 0 0 0 0 0 0 0 0 0 0 0 0 0 0 0 0 0 0 0 0 0 0 0 0 0 0 0 0 0 0 0 0 0 0 0 0 0 0 0 0 0 0 0
0 0 0 0 0 0 0 0 0 0 0 0 0 0 0 0 0 0 0 0 0 0 0 0 0 0 0 0 0 0 0 0 0 0 0 0 0 0 0 0 0 0 0 0 0 0 0 -0.204492952215016 0 0
0 0 0 0 0 0 0 0 0 0 0 0.118466976591498 0.0719848141220086 0.128231095651451 0 0 0 0 0 0 0 0 0 0 0 0 0 0 0 0 0 0 0 0 0 0 0 0 0 0 0 0 0 0 0 0 0 -4.88749764139171 0 0
0 0 0 0 0 0 0 0 0 0 0 0 0 0 0 0 0 0 0 0 0 0 0 0 0 0 0 0 0 0.584852009324962 0.139301825872325 0.19571071070052 0.103214223771854 0.119698888671453 0.0832687983016334 0.59924579103174 0.248560558019784 0.112299036005647 0 0 0 0 0 0 0 0 0 -0.199003817991071 0 0
0 0 0 0 0 0 0 0 0 0 0 0 0.979403874945017 0.429081179393146 0.0917099673733387 1.52182506216566 0 0 0 0 0 0 0 0 0 0 0 0 0 0 0 0 0 0 0 0 0 0 0 0 0 0 0 0 0 0 0 -0.928363110400415 0 0
0 0 0 0 0 0 0 0 0 0 0 0 0 0 0 0 0 0 0 0 0 0 0 0 0 0 0 0 0 0 0 0 0 0 0 0 0 0 0 0 0 0 0 0 0 0 0 -1.86495191546798 0 0
0 0 0 0 0 0 0 0 0 0 0 0 0 0 0 0 0 0 0 0 0 0 0 0 0 0.0814077294100031 0.103408887698369 0.250430540598208 0.225646770235774 0.209575372350905 0 0 0 0 0 0 0 0 0 0 0 0 0 0 0 0 0 -2.50492316227234 0 0
0 0 0 0 0 0 0 0 0 0 0 0 0 0 0 0 0 0 0 0 0 0 0 0 0 0 0 0 0 0 0 0 0 0 0 0 0 0 0 0 0 0.0391489605707425 1.00434479359386 0.0407224189578801 0.172268507790035 0.376755060676524 0.465278994191784 0 0.100380920179964 0.151398867488917
0 0 0 0 0 0 0 0 0 0 0 0 0 0 0 0 0 0 0 0 0 0 0 0 0 0 0 0 0 0 0 0 0 0 0 0 0 0 0 0 0 0 0 0 0 0 0 -0.444020805492279 0 0
0 0 0 0 0 0 0 0 0 0 0 0 0 0 0 0 0 0 0 0 0 0 0 0 0 0.106025208266466 0.181240979776239 0.131506704679975 0.0873282746579309 0.205473927156269 0.164659300577025 0.274253893927075 0 0 0 0 0 0 0 0 0 0 0 0 0 0 0 -0.712791085733883 0 0
