0.898297035418285
0.840231633077622
1.54243881504009
0.327149089116708
0.190188778340542
1.81496775805018
0.199291519254695
0.353422801607207
1.35076368280167
2.40335122227232
0.116977294393461
0.129092745159044
0.689009386428947
1.59335498283843
0.142607343322208
0.14851309441964
2.07781373855712
0.600464692372473
0.300162854667179
0.904635780350582
0.307624520187962
0.193398984587996
1.14631583233537
1.06733925212365
0.843316491107572
0.278032041303214
0.0991072161713717
0.258451179796455
0.430164530183059
1.68125956512326
0.299906435243764
0.276675020327146
0.0316105409646555
0.0431225707031055
1.77624143092171
0.531899142472893
0.984897714632004
0.753222193020469
0.464669406548888
0.271772080617165
0.512217779442936
0.0534307178342536
0.0286645095985753
0.28107382795282
0.382919931644533
0.436158514468158
0.122226468035995
1.16825476738542
0.107867700500289
1.06044900520881
