0.135141671680682
0.703882279453852
0.128528331573189
1.86737384721127
0.681216838318945
0.47188991233964
0.228116388023689
0.521415653193512
1.17494786280842
0.0524110628417141
1.87766358027019
0.285329075753892
1.96592775237264
0.906859639074065
1.87496438585012
0.525069183610126
0.310427127297626
0.133299287242507
0.278293257559687
0.0784495112330531
0.432593007147214
0.12079648245345
0.592898489675695
0.889282116060104
0.376157023850221
1.96089258190788
0.0806279979946399
0.438690331534488
2.19442706591543
5.01889995730358
0.582764875760631
3.22409653686908
1.06859284942951
0.648181290781962
0.7701249278255
0.563024754554381
1.31540586435624
1.61217775844972
0.589873801448585
2.02474551325072
0.215334267720407
0.175026769763033
1.56914935847665
4.34418270001222
0.582403955055067
2.7884274873508
0.670202414852143
3.07276825130125
0.632363212888241
0.223121089510262
