0.648429662942922
0.460086246670873
2.91029717976495
0.378529332455621
0.680339378862282
1.34527676742952
0.854798891149166
1.42208997680449
2.46129084490125
0.261724324129912
2.08712721085983
0.17159094926559
0.186000262377644
1.30068516699735
1.47705285385586
0.320188239985157
2.28957606469729
0.286486817139804
0.17438179891201
2.12813479160027
0.698365742876053
1.28776687092728
1.21098655294874
2.66814061085669
0.686529925557928
0.770954081515076
1.42143957781446
0.505332192944998
0.304231482233954
1.77269072966274
0.408093899560752
1.7614594560967
0.851857906304302
0.579060507881716
1.27629121506545
0.731258187612586
1.29363512700216
1.60958726618819
1.1760837813982
0.539876693970218
0.950643289512459
0.307315298212833
2.22903725544749
2.63442130736555
3.74847426273043
2.75809263507826
3.53435895779986
3.72551138603977
1.85916010557066
1.31325188613545
