0.780214855975578
0.986536796636525
0.518101329997006
2.27914709157523
0.208857133500403
2.13923302794951
0.253685138326183
0.198602040744179
0.0270334600608276
0.484832459539695
0.636748447279586
0.259484478408392
0.373967924448521
1.23512316795908
0.241178108121343
0.107454508603161
0.347838192996357
2.65044935710899
0.38808060593454
0.492440753221728
0.343202060079696
0.164991777681204
0.0768175126552842
1.0571014724239
0.376392670214986
0.471407680807879
0.502434804086491
0.422637192339659
0.279680943179001
0.702841229692856
0.198862805346447
0.253901424019739
1.11942355058203
1.08418543161003
0.363051523726943
1.30761156807131
0.302899026134498
0.834350568375236
1.05682841237736
0.117689875025099
0.634965671073055
0.0646442907596166
0.0845432975594157
1.55223304727611
0.619983158098682
0.775345784533945
0.76420463923817
1.90848292594148
0.0362831216435102
0.58804740999062
