0 0 0 0 0 0 0 0 0 0 0 0 0 -9.40043184959943 0 0 0 0 0 0 0 0 0 0 0 0 0 0 0 0 0 0 0 0 0 0 0 0 0 0 0 0 0 0 0 0 0 0 0 0
0 0 0 0 0 0 0 -1.58207214998112 -2.94141116550185 0 0 0 0 0 0 0 0 -0.236965062728353 0 0 0 0 0 0 0 0 0 0 0 0 0 0 0 0 0 0 0 0 0 0 -2.25073191101343 0 0 0 0 0 0 0 0 0
0 0 0 0 0 0 0 -1.07616814556934 -0.719287940074603 0 0 0 0 0 0 0 0 -5.40020971331548 0 0 0 0 0 -0.695804955542741 0 0 -0.771545529803402 0 0 0 0 0 0 0 0 0 0 0 0 0 -0.98238509976175 0 0 0 0 0 0 0 0 0
0 0 0 0 0 0 0 -0.868111263489195 -0.147262146165838 0 0 -0.180416584673912 0 0 0 0 0 -7.99247627733737 0 0 0 0 0 -0.7105788659284 0 0 -0.909451933374173 0 0 0 0 0 0 0 0 0 -0.240294891534148 0 0 0 -0.399161728993558 0 0 0 0 0 0 0 0 0
0 0 0 0 0 0 0 0 -5.29314654034539 0 0 -0.75614312634127 0 0 0 0 0 0 -0.856206209362272 0 0 0 0 -0.267349229475223 0 0 -0.942185733071073 0 0 0 0 0 0 0 0 0 -0.839258061222884 0 0 0 -0.117207347197677 0 0 0 0 0 -0.794651817080452 0 0 0
0 0 0 0 0 0 -0.106545709773136 0 0 0 0 0 0 0 0 0 0 0 -3.98343813001577 0 0 0 0 -5.57466831580805 0 0 0 0 0 0 0 0 0 0 0 0 -1.33156131909597 0 0 0 0 0 0 0 0 0 -0.827104761219029 0 0 0
0 0 0 0 0 0.0237662453963416 0 0 0 -0.526198685342257 0 0 0 0 0 0 0 0 0 0 0 0 0 0 0 0 0 0 0 0 0 -0.41379939098036 0 0 0 0 -4.25321949039498 0 0 0 0 0 0 0 0 0 -1.72216010824883 -2.93716272963515 -1.44729852061062 0
0 0.327117812943392 0.214252886280548 0.176101686569623 0 0 0 0 0 -1.90266646495789 0 0 0 0 0 0 0 0 0 0 0 0 0 0 0 0 0 0 0 0 0 -0.734767201272645 0 0 0 0 -2.91636701533732 0 0 0 0 0 0 0 0 0 -2.53992358762125 -4.02252434697867 -0.797354882709521 0
0 0.550348991010653 0.144396653853258 0.0323913261172449 1.0792611268135 0 0 0 0 0 0 0 0 0 0 -0.437969008752789 0 0 0 0 0 0 0 0 0 0 0 0 0 0 0 0 0 0 0 0 -1.24487940714256 0 0 0 0 0 0 0 0 0 -0.853667410677237 -0.690980240943777 -0.543108636626696 0
0 0 0 0 0 0 0.102777043921363 0.41088818810601 0 0 0 0 0 0 0 -0.552133899587188 0 0 0 0 0 0 0 0 0 0 0 0 0 0 0 0 0 0 0 0 0 0 0 0 0 0 0 0 0 0 -3.38733506381844 -6.13662466874511 -0.408908617769009 0
0 0 0 0 0 0 0 0 0 0 0 0 0 0 0 0 0 0 0 0 0 0 0 0 0 0 0 0 0 0 0 0 -1.65276428679564 0 0 0 0 0 0 0 0 0 0 0 0 0 0 -0.620882396872542 0 0
0 0 0 0.0386979625087931 0.164549857223101 0 0 0 0 0 0 0 0 0 0 0 0 0 0 0 0 0 0 0 0 0 0 0 0 0 0 0 -0.208758823835008 0 0 0 0 0 0 0 0 0 0 0 0 0 0 0 0 0
0 0 0 0 0 0 0 0 0 0 0 0 0 0 0 0 0 0 0 0 0 0 0 0 0 0 0 0 -0.265240185878986 0 0 0 0 0 0 0 0 0 0 0 0 0 0 -1.4477598782635 0 0 0 0 0 0
1.95568696297365 0 0 0 0 0 0 0 0 0 0 0 0 0 0 0 0 0 0 0 0 0 0 0 0 0 0 0 -1.12376332645069 0 0 0 0 0 0 0 0 0 0 0 0 0 0 -0.637773116602854 0 0 0 0 0 0
0 0 0 0 0 0 0 0 0 0 0 0 0 0 0 0 0 0 0 0 0 0 0 0 0 0 0 0 -0.158912431211357 0 0 0 0 0 0 0 0 0 0 0 0 0 0 -1.20356861745891 0 0 0 0 0 0
0 0 0 0 0 0 0 0 0.0826969083416063 0.108242575146541 0 0 0 0 0 0 0 0 0 0 0 0 0 0 0 0 0 0 -0.494134622308874 0 0 0 0 0 0 0 0 0 0 0 0 -1.68094124672482 0 -5.07213546589684 0 0 0 0 0 0
0 0 0 0 0 0 0 0 0 0 0 0 0 0 0 0 0 0 0 0 0 0 0 0 0 0 0 0 -2.62769948842587 0 0 0 0 0 0 0 0 0 0 0 0 -1.00493083241936 0 0 0 0 0 0 0 0
0 0.0465602097598917 1.04912670763027 1.44598321895632 0 0 0 0 0 0 0 0 0 0 0 0 0 0 0 0 0 0 0 0 0 0 0 0 -1.38873194301412 0 0 0 0 0 0 0 0 0 0 0 0 -0.518441003647407 0 0 0 0 0 0 0 0
0 0 0 0 0.16212785532905 0.776197972483124 0 0 0 0 0 0 0 0 0 0 0 0 0 0 0 0 0 0 0 0 0 0 -0.784976199893123 0 0 0 0 0 0 0 0 0 0 0 0 -1.52613731774757 0 0 0 0 0 0 0 0
0 0 0 0 0 0 0 0 0 0 0 0 0 0 0 0 0 0 0 0 0 0 0 0 0 0 0 0 -0.681319630999926 0 0 0 0 0 0 0 0 0 0 0 0 -3.41156686835309 0 0 0 0 0 0 0 0
0 0 0 0 0 0 0 0 0 0 0 0 0 0 0 0 0 0 0 0 0 0 0 0 -0.848870286465829 0 0 -0.14808646207642 0 0 0 0 0 -1.10756223874075 -0.566611909639294 0 0 0 0 0 0 -0.306127839495851 0 0 0 0 0 0 0 -1.03178688895337
0 0 0 0 0 0 0 0 0 0 0 0 0 0 0 0 0 0 0 0 0 0 0 0 0 0 0 0 0 0 0 0 0 -0.529212134300698 -1.1230002580915 0 0 0 0 0 0 0 0 0 0 0 0 0 0 -0.585569160142426
0 0 0 0 0 0 0 0 0 0 0 0 0 0 0 0 0 0 0 0 0 0 0 0 0 0 0 0 0 0 0 0 0 0 -3.06242807928687 0 0 0 0 0 0 0 0 0 0 0 0 0 0 0
0 0 0.144529077987309 0.13823108621101 0.055098412492755 1.19080645587802 0 0 0 0 0 0 0 0 0 0 0 0 0 0 0 0 0 0 0 0 0 0 0 0 -0.575142345227842 0 0 0 0 0 0 0 0 0 0 0 0 0 0 -1.18406924305193 0 0 0 0
0 0 0 0 0 0 0 0 0 0 0 0 0 0 0 0 0 0 0 0 0.174696516345287 0 0 0 0 0 0 0 0 0 -2.10416289315064 0 0 0 0 0 0 0 0 0 0 0 0 0 0 -7.07183765023045 0 0 0 0
0 0 0 0 0 0 0 0 0 0 0 0 0 0 0 0 0 0 0 0 0 0 0 0 0 0 0 0 0 0 -0.251562395439683 0 0 0 0 0 0 0 0 0 0 0 0 0 0 -0.732228232485458 0 0 0 0
0 0 0.169739049062073 0.191418404698756 0.180947202649356 0 0 0 0 0 0 0 0 0 0 0 0 0 0 0 0 0 0 0 0 0 0 0 0 0 -2.22192202170151 0 0 0 0 0 0 0 0 0 0 0 0 0 0 -0.613193999223101 0 0 0 0
0 0 0 0 0 0 0 0 0 0 0 0 0 0 0 0 0 0 0 0 0.0313805011342151 0 0 0 0 0 0 0 0 -1.03901574300745 -0.887767001204531 0 0 0 0 0 0 0 0 0 0 0 -0.929485220801991 0 0 0 0 0 0 0
0 0 0 0 0 0 0 0 0 0 0 0 0.0525923078253765 0.234023952698139 0.0323939683279593 0.0935216524364099 0.54037738245953 0.294039038839976 0.15194866192653 0.132508949989232 0 0 0 0 0 0 0 0 0 0 -2.23707810420954 0 0 0 0 0 0 0 0 0 0 0 -0.556750956722857 0 0 0 0 0 0 0
0 0 0 0 0 0 0 0 0 0 0 0 0 0 0 0 0 0 0 0 0 0 0 0 0 0 0 0.18496178790744 0 0 -0.844780438241466 0 0 0 0 0 0 0 0 0 0 0 -0.652244935801793 0 0 0 0 0 0 0
0 0 0 0 0 0 0 0 0 0 0 0 0 0 0 0 0 0 0 0 0 0 0 0.123824681079308 0.421065550745051 0.0493535683517153 0.460618139669215 0.182558347922855 0.475941793386644 0.163173454727176 0 0.0960686198503249 0.0456727769553509 0.168206685921616 0.198059112088615 0.175276557809278 0 0 0 0 0 0 -1.19755650407887 0 0 0 0 0 0 0
0 0 0 0 0 0 0.0910541602745864 0.150595195795712 0 0 0 0 0 0 0 0 0 0 0 0 0 0 0 0 0 0 0 0 0 0 -0.452953904188167 0 0 0 0 0 0 0 0 0 0 0 -4.9573445259532 0 0 0 0 0 0 0
0 0 0 0 0 0 0 0 0 0 0.349200646916225 0.0448611067671598 0 0 0 0 0 0 0 0 0 0 0 0 0 0 0 0 0 0 -0.221763104784147 0 0 0 0 0 0 0 0 0 0 0 -0.607785152601761 0 0 0 0 0 0 0
0 0 0 0 0 0 0 0 0 0 0 0 0 0 0 0 0 0 0 0 0.245955477669899 0.119833936858832 0 0 0 0 0 0 0 0 -0.8530007700201 0 0 0 0 0 0 0 0 0 0 0 -1.35750750790387 0 0 0 0 0 0 0
0 0 0 0 0 0 0 0 0 0 0 0 0 0 0 0 0 0 0 0 0.116204247584884 0.227517605455402 0.591664250002688 0 0 0 0 0 0 0 -0.919636136223288 0 0 0 0 0 0 0 0 -3.15702383600832 0 0 0 0 -0.351608662186942 0 0 0 0 0
0 0 0 0 0 0 0 0 0 0 0 0 0 0 0 0 0 0 0 0 0 0 0 0 0 0 0 0 0 0 -0.832977201473981 0 0 0 0 0 0 0 0 -0.215470464849924 0 0 0 0 -0.288407880456628 0 0 0 0 0
0 0 0 0.0442022224318974 0.164904908386384 0.25602072654466 0.872364538136563 0.607298811718743 0.239989565569278 0 0 0 0 0 0 0 0 0 0 0 0 0 0 0 0 0 0 0 0 0 0 0 0 0 0 0 0 0 -2.66017611953738 0 0 0 0 0 -0.361956307658253 0 0 0 0 0
0 0 0 0 0 0 0 0 0 0 0 0 0 0 0 0 0 0 0 0 0 0 0 0 0 0 0 0 0 0 0 0 0 0 0 0 0 0 -1.83467309208988 0 0 0 0 0 -1.60257213974846 0 0 0 0 0
0 0 0 0 0 0 0 0 0 0 0 0 0 0 0 0 0 0 0 0 0 0 0 0 0 0 0 0 0 0 0 0 0 0 0 0 0.491152189690156 0.375671050828226 0 0.44203395566261 0 0 0 0 -1.62299271351072 0 0 0 0 0
0 0 0 0 0 0 0 0 0 0 0 0 0 0 0 0 0 0 0 0 0 0 0 0 0 0 0 0 0 0 0 0 0 0 0.585549252343976 0.0413112731411799 0 0 -2.16064841425079 0 0 0 0 0 -1.95309800537225 0 0 0 0 0
0 0.452430009894563 0.204513105065612 0.0846335220485387 0.0235538790557962 0 0 0 0 0 0 0 0 0 0 0 0 0 0 0 0 0 0 0 0 0 0 0 0 0 0 0 0 0 0 0 0 0 0 0 0 0 0 0 -0.171126729633177 0 0 0 0 0
0 0 0 0 0 0 0 0 0 0 0 0 0 0 0 0.341664532393574 0.210438138129175 0.111173798488261 0.311452350432463 0.645667397712171 0.0647876011389241 0 0 0 0 0 0 0 0 0 0 0 0 0 0 0 0 0 0 0 0 0 0 0 -0.634597448673734 0 0 0 0 0
0 0 0 0 0 0 0 0 0 0 0 0 0 0 0 0 0 0 0 0 0 0 0 0 0 0 0 0.1926579724031 0.116178878638228 0.13157633028747 0.221109137749766 0.949434605597796 0.118791099837248 0.266533987294906 0 0 0 0 0 0 0 0 0 0 -2.74694689678339 0 0 0 0 0
0 0 0 0 0 0 0 0 0 0 0 0 0.301337535090786 0.112273673507968 0.236222469002412 1.05973402538407 0 0 0 0 0 0 0 0 0 0 0 0 0 0 0 0 0 0 0 0 0 0 0 0 0 0 0 0 -2.66556545860535 0 0 0 0 0
0 0 0 0 0 0 0 0 0 0 0 0 0 0 0 0 0 0 0 0 0 0 0 0 0 0 0 0 0 0 0 0 0 0 0.0742336454482036 0.0614157715573196 0.0637223447240194 0.333738100952454 0.298571274992893 0.388721297169519 0.0336297899535736 0.126805968286199 0.535708170859285 0.553164454074096 0 0.205035236972324 0.12261275835478 0.19059848948688 0.14829529065898 1.20813477251779
0 0 0 0 0 0 0 0 0 0 0 0 0 0 0 0 0 0 0 0 0 0 0 0.235000270229047 1.30001699550303 0.139133448469652 0.122944341285612 0 0 0 0 0 0 0 0 0 0 0 0 0 0 0 0 0 -1.06899277122925 0 0 0 0 0
0 0 0 0 0.161771209639338 0.170306167756286 0.353704878152909 0.545948100690084 0.160760303683891 0.636677451135621 0 0 0 0 0 0 0 0 0 0 0 0 0 0 0 0 0 0 0 0 0 0 0 0 0 0 0 0 0 0 0 0 0 0 -0.619808999201219 0 0 0 0 0
0 0 0 0 0 0 0.609085869250691 0.810135531146938 0.147341796038241 1.20446009615904 0.1313685133909 0 0 0 0 0 0 0 0 0 0 0 0 0 0 0 0 0 0 0 0 0 0 0 0 0 0 0 0 0 0 0 0 0 -0.970848075863661 0 0 0 0 0
0 0 0 0 0 0 0.32094809135556 0.155468315624397 0.117589792993298 0.0772481660221917 0 0 0 0 0 0 0 0 0 0 0 0 0 0 0 0 0 0 0 0 0 0 0 0 0 0 0 0 0 0 0 0 0 0 -0.697092565705004 0 0 0 0 0
0 0 0 0 0 0 0 0 0 0 0 0 0 0 0 0 0 0 0 0 0.185500322332501 0.104951942879458 0 0 0 0 0 0 0 0 0 0 0 0 0 0 0 0 0 0 0 0 0 0 -6.02208059032477 0 0 0 0 0
