1.09521630143406
1.87970200964764
0.695952066889005
3.77982690252493
0.363459759226105
0.871770607634089
1.52254930956466
0.48616708174612
1.40428134361664
0.883202322954726
4.19683686859903
2.0989527454671
0.325788801885765
1.50575373341376
3.04259168180123
0.708852079979001
5.46182080879277
1.92947899706148
3.39542462178944
1.80948809114859
3.98958735884132
0.274737364660613
1.05782688215334
3.60038318173879
0.739968117112326
0.505998012096198
1.61122762349238
0.980129391407806
0.108416991813531
1.26770595359682
2.1185662852231
0.659642771944366
3.77260062421625
0.371906915790352
0.720528570941045
1.32784203996274
1.19044715929561
0.606464961125311
0.871697195844832
2.85283125856047
0.40483963111016
1.82909021236648
2.11908722225334
4.98428119045794
1.83692780812186
0.58993830409568
2.41615428013239
0.748975461198653
0.679941978199442
6.32625460798147
