0.097800943041017
0.162503775495641
0.709777130852435
0.152287547464177
0.647873491677949
0.250320251275806
2.06756963107414
0.130076335206613
2.42842240821935
0.10395556725775
0.830460986263148
1.77102841304287
1.03188840327447
0.192030076301225
0.879053017050335
1.26357938596758
0.815943050181313
0.40417638995132
1.05144788598499
1.11774864098439
0.369367952619517
5.03788136960998
0.691259409790323
0.280328325480514
1.74051100829671
1.28350256053143
2.14952345052227
0.138359474110866
0.869420388898532
0.759313688323991
2.95005536271005
0.503418778765066
0.282444499917301
0.397282523855285
0.218999651658859
2.24176179296961
2.10768383350556
0.0685371919665631
0.610058682774203
0.472868138311986
0.0581764116525032
1.11226961390388
0.754413101318582
0.878538475115875
1.65018362983495
0.192709856518081
0.0825584738829012
0.31761972726185
0.804901482647363
0.230417583445691
