0.362055214765804
0.610494411361366
0.400874075107613
0.078329487935114
2.74718334111977
0.38199446820344
0.776889029051183
0.217314079419558
2.17362396607132
0.232643305382017
1.0347301525314
0.672209142194444
0.497607898389218
1.29285390570292
2.11201875583127
2.69225817279728
0.0449766912959493
0.159036735699696
1.6848662253346
0.0511310444044873
0.158026860932984
1.77123155402131
0.315118676156495
0.0394910466451791
0.074733304106034
1.79397839006566
0.363354375984827
0.405278498869019
0.0166860910125364
0.733524800551993
0.0723916131998368
0.448949288286203
0.013853965366612
0.664287744900495
0.478927640799914
0.0450070470852654
2.88732590236308
0.983362658888969
0.649968900371404
1.00120763131154
0.242141800284499
0.506033827904552
0.26545370963706
0.0816432314742
1.17319467074639
0.441529985589105
0.748462402436763
0.23896504971701
0.481255262953085
1.17630441596787
