0 0 0 -4.65482291531098 0 0 0 0 0 0 0 0 0 0 0 0 0 0 0 0 0 0 0 0 0 0 0 0 0 0 0 0 0 0 0 0 0 0 0 0 0 0 0 0 0 0 0 0 0 0
0 0 0 0 0 0 0 -0.398450438014134 0 0 0 0 0 0 0 0 0 0 -1.11793346667651 0 0 -1.47201835706557 0 0 0 0 0 0 0 0 0 -3.35581023807271 0 0 0 0 0 0 0 0 0 0 0 0 0 0 0 0 0 0
0 0 0 0 0 0 0 0 0 -1.25656073417228 0 0 0 0 0 0 0 0 0 0 0 -0.94370403798842 0 0 0 0 0 0 0 0 0 -5.69236944227356 0 0 0 0 0 0 0 0 0 -1.05217262904455 0 0 0 0 0 0 0 0
0.962103509382817 0 0 0 0 0 0 0 0 0 0 0 0 0 0 0 0 0 0 0 0 -0.776275003242564 0 0 0 0 0 0 0 0 0 -1.06458458869321 0 0 0 0 0 0 0 0 0 -0.741879798323795 0 0 0 0 0 0 0 0
0 0 0 0 0 0 0 0 0 0 0 0 0 0 0 0 0 0 0 0 0 -0.863312006108448 0 0 0 0 0 0 0 0 0 -0.2335682061885 0 0 0 0 0 0 0 0 0 -1.65176517979034 0 0 0 0 0 0 0 0
0 0 0 0 0 0 0 0 0 0 0 0 0 0 0 0 0 0 0 0 0 -0.465268833914602 0 0 0 0 0 0 0 0 0 -0.392931859936857 0 0 0 0 0 0 0 0 0 -1.50815621173398 0 0 0 0 0 0 0 0
0 0 0 0 0 0 0 0 0 0 0 0 0 0 0 0 0 0 0 0 -0.70353083288087 -1.93015203965884 0 0 0 0 0 0 0 0 0 -2.11667971503164 0 0 0 0 0 0 0 0 0 -5.08479728888711 0 0 0 0 0 0 0 0
0 0.0775110940296224 0 0 0 0 0 0 0 0 0 0 0 0 -1.17725012734414 -1.11661905932314 0 0 0 0 -0.626650865028561 0 0 0 0 0 0 0 0 0 0 -1.77178079771126 0 0 -0.184268060872494 0 0 0 0 0 0 -0.783617777562411 0 0 0 0 0 0 0 0
0 0 0 0 0 0 0 0 0 0 0 0 0 0 -4.14166872096489 -1.98042206591502 0 0 0 -0.0576862551226955 -1.03703806685417 0 0 0 0 0 0 0 0 0 0 -4.05438051838875 0 0 -1.26830515316604 0 0 0 0 0 0 -5.27848760618122 0 0 0 0 0 0 0 0
0 0 0.259198454780047 0 0 0 0 0 0 0 0 0 0 0 0 0 0 0 0 -0.855924402838243 -2.82203996073729 0 0 0 0 0 0 0 0 0 0 0 0 0 0 0 0 0 0 0 0 -0.523249451928898 0 0 0 -2.05054482949979 0 0 0 0
0 0 0 0 0 0 0 0 0 0 0 -0.280939944375533 0 0 0 0 0 0 0 -1.694149186264 0 0 0 0 0 0 -0.294172305214012 0 0 0 0 0 0 0 0 0 0 0 0 0 0 -0.39149508642623 0 0 0 -0.492132191804817 0 0 0 0
0 0 0 0 0 0 0 0 0 0 0.0598598437703755 0 0 0 0 0 0 -0.298976390347915 0 -1.85314746755509 0 0 0 0 0 0 -0.447180346138196 0 0 0 0 0 0 0 0 0 0 0 0 0 0 -0.567959627425853 0 0 0 -0.490406660381963 0 0 0 0
0 0 0 0 0 0 0 0 0 0 0 0 0 0 0 0 0 -1.36584106069676 0 0 0 0 0 0 -2.11150386393476 0 -0.430596323725611 0 0 0 0 0 0 0 0 0 0 0 0 0 0 -1.46472245524269 0 0 0 -0.330408667638813 0 0 0 0
0 0 0 0 0 0 0 0 0 0 0 0 0 0 0 0 0 -0.382099143651743 0 0 0 0 0 0 -0.659825844618844 0 0 0 0 0 0 0 0 -0.509941528405285 0 0 0 0 0 0 0 -2.24080036777766 0 0 0 -3.62114100181617 0 0 -4.70510821688535 0
0 0 0 0 0 0 0 0.228890896270339 0.816656911925611 0 0 0 0 0 0 0 0 -0.254457284193433 0 0 0 0 0 0 -0.886362170561084 0 0 0 0 0 0 0 0 -0.15098830429355 0 0 0 0 0 0 0 -1.1582173356958 0 0 0 -0.476877114384498 0 0 -0.0936570735066607 0
0 0 0 0 0 0 0 0.216496279584765 0.390772305256037 0 0 0 0 0 0 0 0 0 0 0 0 0 0 0 -0.235253772233171 -1.77507770474129 0 0 0 0 0 0 0 -0.307422266089507 0 0 0 0 0 0 0 -1.17573043984592 0 0 0 -0.0910896808019952 0 0 0 0
0 0 0 0 0 0 0 0 0 0 0 0 0 0 0 0 0 0 0 0 0 0 0 0 0 -1.23086764084595 0 0 0 0 0 0 0 -0.80071153994082 0 0 0 0 0 0 0 -0.470365795450636 0 0 0 -3.25787126069335 0 0 0 0
0 0 0 0 0 0 0 0 0 0 0 0.0602805860277449 0.289512724662593 0.0767041896569867 0.0504815398178752 0 0 0 0 0 0 0 0 0 0 -0.437196617121507 0 0 0 0 0 0 0 -2.12760851697354 0 0 -0.149411150338672 0 0 0 0 0 0 0 0 -1.15584054676859 0 0 0 0
0 0.230387468542018 0 0 0 0 0 0 0 0 0 0 0 0 0 0 0 0 0 0 0 0 0 0 0 -4.37613042771938 0 -1.76566721489701 0 0 0 0 0 0 0 0 -0.649719982017694 0 0 0 0 0 0 0 0 0 0 0 0 -0.591968946531861
0 0 0 0 0 0 0 0 0.0120202748902008 0.173715015836443 0.362746894587494 0.35202656435298 0 0 0 0 0 0 0 0 0 0 0 0 0 -0.81802314395744 0 0 -0.593072284078528 0 0 0 0 0 0 0 -0.328621615066007 0 0 0 0 0 0 0 0 0 0 0 0 0
0 0 0 0 0 0 0.142966692692152 0.124808858968315 0.217822341826907 0.509673962403649 0 0 0 0 0 0 0 0 0 0 0 0 0 0 0 -1.53740638944925 0 0 -1.67231704813571 -1.5533419279519 0 0 0 0 0 0 0 0 0 0 0 0 -1.83537425883095 0 0 0 0 0 0 0
0 0.297225811433356 0.185043970996832 0.155677346431121 0.161106164895289 0.0913189039516163 0.399675045480457 0 0 0 0 0 0 0 0 0 0 0 0 0 0 0 0 0 0 -1.34156609161021 0 0 -0.503674115128352 -0.588357657282235 0 0 0 0 0 0 0 0 0 0 0 0 -0.273233758162196 0 0 0 0 0 0 0
0 0 0 0 0 0 0 0 0 0 0 0 0 0 0 0 0 0 0 0 0 0 0 0 0 0 0 0 0 0 0 0 -0.621967612859625 0 0 0 0 0 0 0 0 0 -0.739725199316945 0 0 0 0 0 0 0
0 0 0 0 0 0 0 0 0 0 0 0 0 0 0 0 0 0 0 0 0 0 0 0 0 0 0 0 0 0 0 0 -0.759886240751773 0 0 0 0 0 0 0 0 0 -0.875343119788262 0 0 0 0 0 0 0
0 0 0 0 0 0 0 0 0 0 0 0 0.412512811805275 0.132508648598726 0.174301670812065 0.0479441009003125 0 0 0 0 0 0 0 0 0 0 0 0 0 0 0 0 -0.584736159104152 0 0 0 0 0 0 0 0 0 -0.610500594651004 0 0 0 0 0 0 0
0 0 0 0 0 0 0 0 0 0 0 0 0 0 0 0.346665712728022 0.249056822383692 0.088024184775956 0.813481384885556 0.16750700766525 0.308291452671922 0.26845133531135 0 0 0 0 0 0 0 0 0 0 0 0 0 -0.203609262330237 0 0 0 0 0 0 0 0 0 0 -0.665825955062517 0 0 0
0 0 0 0 0 0 0 0 0 0 0.0577057030926181 0.0943359456080632 0.0868242911132776 0 0 0 0 0 0 0 0 0 0 0 0 0 0 0 0 0 0 0 0 0 0 -0.686035206899214 0 0 0 0 0 0 0 0 -0.867333693114497 0 -0.960849384121532 0 0 0
0 0 0 0 0 0 0 0 0 0 0 0 0 0 0 0 0 0 0.328106948718398 0 0 0 0 0 0 0 0 0 0 0 0 0 0 0 0 0 0 0 0 -1.26472884668414 0 0 0 -0.811273421575853 0 0 -2.02777832173179 0 0 0
0 0 0 0 0 0 0 0 0 0 0 0 0 0 0 0 0 0 0 0.122429546335721 0.33336068359294 0.105040786572331 0 0 0 0 0 0 0 0 0 0 0 0 0 0 0 0 0 -0.539588522854459 0 0 0 -3.55985750605411 0 0 -0.523031164972743 0 0 0
0 0 0 0 0 0 0 0 0 0 0 0 0 0 0 0 0 0 0 0 0.315546563248217 0.119675316287628 0 0 0 0 0 0 0 0 0 0 0 0 0 0 0 0 0 -1.4668147132395 0 0 0 -0.981278308320505 0 0 -1.48536164656471 0 0 0
0 0 0 0 0 0 0 0 0 0 0 0 0 0 0 0 0 0 0 0 0 0 0 0 0 0 0 0 0 0 0 0 0 0 0 0 0 0 0 0 0 0 0 0 0 0 -3.25191073662129 0 0 0
0 0.675182118040714 1.13507436986624 0.19367790877254 0.0467484432108127 0.0685551715923745 0.452498681310301 0.36382667273255 0.672386200909936 0 0 0 0 0 0 0 0 0 0 0 0 0 0 0 0 0 0 0 0 0 0 0 0 0 0 0 0 0 0 0 0 0 0 0 0 0 -0.898726026569351 0 0 0
0 0 0 0 0 0 0 0 0 0 0 0 0 0 0 0 0 0 0 0 0 0 0.124620296930283 0.172637028603202 0.1167869597126 0 0 0 0 0 0 0 0 0 0 0 0 0 0 0 0 0 0 0 0 0 -1.22907406308335 0 0 0
0 0 0 0 0 0 0 0 0 0 0 0 0 0.101096519992648 0.0268217532181431 0.052593507037748 0.163918444538952 0.463270974924768 0 0 0 0 0 0 0 0 0 0 0 0 0 0 0 0 0 0 0 0 0 0 0 0 0 0 0 0 -0.473504449913634 0 0 0
0 0 0 0 0 0 0 0.0364515654254926 0.260669341028954 0 0 0 0 0 0 0 0 0 0 0 0 0 0 0 0 0 0 0 0 0 0 0 0 0 0 0 0 0 0 0 0 0 0 0 0 0 -0.452933309728672 -1.3597528174661 0 0
0 0 0 0 0 0 0 0 0 0 0 0 0 0 0 0 0 0 0 0 0 0 0 0 0 0.0395701239750818 0.131811467217494 0 0 0 0 0 0 0 0 0 0 0 0 0 0 0 0 0 0 0 -1.20610125180985 -0.123891616210829 0 0
0 0 0 0 0 0 0 0 0 0 0 0 0 0 0 0 0 0.0313356095507914 0.126529231063349 0.0714011516766711 0 0 0 0 0 0 0 0 0 0 0 0 0 0 0 0 0 0 0 0 0 0 0 0 0 0 -1.60200405748559 -1.10510308881686 0 0
0 0 0 0 0 0 0 0 0 0 0 0 0 0 0 0 0 0 0 0 0 0 0 0 0 0 0 0 0 0 0 0 0 0 0 0 0 0 0 0 -0.996431851422066 0 0 0 0 0 0 -0.42468894208716 0 0
0 0 0 0 0 0 0 0 0 0 0 0 0 0 0 0 0 0 0 0 0 0 0 0 0 0 0 0 0 0 0 0 0 0 0 0 0 0 0 0 -2.98939884774638 0 0 0 0 0 0 -2.22717464954219 0 0
0 0 0 0 0 0 0 0 0 0 0 0 0 0 0 0 0 0 0 0 0 0 0 0 0 0 0 0.25999651922509 0.0962285894696069 0.330346976259871 0 0 0 0 0 0 0 0 0 0 -4.1355638105121 0 0 0 0 0 0 -0.749932465581604 0 0
0 0 0 0 0 0 0 0 0 0 0 0 0 0 0 0 0 0 0 0 0 0 0 0 0 0 0 0 0 0 0 0 0 0 0 0 0 0.193137187045824 0.604191624344523 0.852843068983639 0 0 0 0 0 0 0 -1.85319873709639 0 0
0 0 0.215876926350859 0.158698938305328 0.344301728990556 0.271331426747526 0.988002104257548 0.158911019558499 1.00323037234457 0.105127299969032 0.0807967399698123 0.112206720739163 0.303142988780683 0.458130840639543 0.229592348315925 0.240318744706697 0.094847222251244 0 0 0 0 0 0 0 0 0 0 0 0 0 0 0 0 0 0 0 0 0 0 0 0 0 0 0 0 0 0 0 0 0
0 0 0 0 0 0 0 0 0 0 0 0 0 0 0 0 0 0 0 0 0.352355832875299 0.0568362240368365 0.139035642907686 0.179696487908191 0.125920948318439 0 0 0 0 0 0 0 0 0 0 0 0 0 0 0 0 0 0 0 0 0 0 0 0 0
0 0 0 0 0 0 0 0 0 0 0 0 0 0 0 0 0 0 0 0 0 0 0 0 0 0 0 0.157097792027902 0.709928034667695 0.190941225944268 0 0 0 0 0 0 0 0 0 0 0 0 0 0 0 0 0 0 0 0
0 0 0 0 0 0 0 0 0 0 0 0 0 0 0 0 0 0 0 0 0 0 0 0 0 0 0.172804038130864 0 0 0 0 0 0 0 0 0 0 0 0 0 0 0 0 0 0 0 0 0 0 0
0 0 0 0 0 0 0 0 0 0.404626889319767 0.0866741464601597 0.100817587786885 0.0707416027977344 0.737659329175253 0.0890113442951039 0.0164270151219388 0.681850733589578 0.251808161774231 0 0 0 0 0 0 0 0 0 0 0 0 0 0 0 0 0 0 0 0 0 0 0 0 0 0 0 0 0 0 0 0
0 0 0 0 0 0 0 0 0 0 0 0 0 0 0 0 0 0 0 0 0 0 0 0 0 0.116606210233555 0.1898305999341 0.410157899847329 0.110751788551526 0.315602820763434 0.653221710867947 0.191296044520994 0.250578813681668 0.0916673817818848 0.0885507182018933 0.2565442556595 0.333158958972678 0 0 0 0 0 0 0 0 0 0 0 0 0
0 0 0 0 0 0 0 0 0 0 0 0 0 0 0 0 0 0 0 0 0 0 0 0 0 0 0 0 0 0 0 0 0 0 0.267542580525936 0.0234430102372202 0.217643501992512 0.085153856937096 0.463527983329097 0.147126750479895 0.356567034041654 0 0 0 0 0 0 0 0 0
0 0 0 0 0 0 0 0 0 0 0 0 0 0.935562534585726 0.0184173750324242 0 0 0 0 0 0 0 0 0 0 0 0 0 0 0 0 0 0 0 0 0 0 0 0 0 0 0 0 0 0 0 0 0 0 0
0 0 0 0 0 0 0 0 0 0 0 0 0 0 0 0 0 0 0.121696622608854 0 0 0 0 0 0 0 0 0 0 0 0 0 0 0 0 0 0 0 0 0 0 0 0 0 0 0 0 0 0 0
