4.0568558004412
0.430601286655413
0.788267380872178
1.57042145331334
0.540641863976276
0.646810148855762
0.245788749446072
2.06202543491535
1.35043504208244
0.252436928765448
0.526803213949825
1.92993160049274
0.884776402470492
2.47228811050064
0.793743104561617
1.35033365601752
0.888905550228135
0.205792986640598
0.0918736425219385
1.27064563198969
0.05307813260184
0.118334387238975
0.683517766685938
1.21731746822194
0.777855234629041
1.75720933709262
3.41789615267103
0.437774031357123
0.709137064173907
0.177728549662565
0.300151971797341
1.05754731966546
0.192862449116525
0.610746676358879
0.707225672788873
0.115030014989063
0.289187624617801
1.61738759803349
1.80334608624155
2.62537410219924
0.0653494101308048
0.152719055265199
3.01963917207157
0.167871114085159
0.280401032596064
0.747540079798504
2.21417098277405
2.0681138333688
0.295726207784364
0.611263473932047
