1.53178096795108
1.22846116442538
0.203777533422968
0.946005208535871
0.0722938482641933
0.136651801244037
0.12535739945098
0.5800097975115
0.558854246734892
1.48046335060412
2.03602909490806
1.20952429158104
1.74437402454362
0.0815094731152075
0.500064081324574
0.0977603676834487
1.41983232664928
0.254893017750855
0.663999547698057
1.53132401984106
0.834825944956399
1.15152404865852
0.190324384772433
0.261108443632619
1.01141060166616
0.447059110366357
0.412590713684454
0.214043976915981
0.164510841434134
1.42834752985139
1.68503339230533
1.09259435481107
0.10140246839842
0.33294627443711
1.54210720759572
0.513273814964535
1.5731349374223
0.374795812826781
0.19401982556252
0.892699717091098
0.960069510870605
1.68688236892635
0.280477948936269
1.44889311141067
0.90558546451121
0.308454979347589
1.22063522278331
0.677511591385215
0.235206106298033
0.355742774241899
0.320962136889228
0.0345917641526413
0.369145049198603
0.323743542046709
0.414900511350605
0.582258346268011
0.282683748813022
0.339018769269345
1.94044093836989
2.06378406131627
0.415103374734787
1.01589773645325
1.17079452086245
0.107805303275404
1.45395283376246
0.385396246809047
0.0979895942508633
0.274924665625808
0.872681203838548
0.843653309761478
0.214180570658211
0.50572602079749
1.7445015881893
0.2301912002245
1.28470562694202
0.493553258647311
0.28601316685163
0.108003083539921
0.302552417660135
0.374546329195386
0.344779438855304
0.155653364256997
0.134086584698163
0.104966192739048
0.176002028292227
0.485343978162788
0.647359010991817
0.393004702553861
0.198003832211529
2.02428108689701
0.0804725211444853
0.413180832850818
0.454126263145592
0.223715853680761
0.274231326595943
0.753198150080038
0.314838259320129
0.725796398132198
0.154981931310669
0.0905878479694342
0.239508375084482
0.403348991413218
0.300715224661732
0.056250889586359
0.294671863870673
0.707111301849624
0.130457852293949
1.17833680892966
0.0503099301028312
1.89503897459466
