0.441668636010698
0.419640709463335
1.49331399189846
0.358345820882823
2.02542416170921
0.90691589575141
0.41558258842714
0.0800643370658458
0.121008036236672
0.302604205363906
1.3456641845852
0.686813953585007
0.430789370006328
0.57275341928219
0.476890955827316
0.595313834219278
0.202185389435789
0.115641441820852
1.25889814206953
1.53840090427557
0.792129193237377
1.18199158138012
0.68320125270466
0.341681513470049
1.97952152079797
0.2102560415097
0.408022492352349
0.631571172051592
0.522578262225186
0.235301836800049
0.208289048594173
2.09273755482379
1.62524500007595
1.03831275176917
0.149940082922254
0.564148509079699
0.269686388025234
0.551830734222767
0.232820614907408
0.262179737782625
0.197593051432112
0.793626362794924
1.4075923027199
0.264264358639156
1.63500998344948
0.294044941902896
0.13237932177131
0.168541119570671
1.394745241116
1.37546779481027
0.186790930136178
0.896629048414899
1.38452119636728
0.48023659369967
0.494220683903663
1.15251917387223
0.543174529662025
1.77906615014668
0.821152625474989
0.35791117703127
0.150668589360848
1.93112372949856
0.367741283884417
1.67800510624146
1.30531299475244
0.453931811113834
1.2253114287165
0.407712414288844
0.395005380332363
0.0578279155819522
0.550846312090674
0.604446970107975
0.427161763877016
0.0860078225827952
1.23604626088061
0.0718014396222237
0.95813816307421
0.249598514405627
0.368213195951036
0.353962246100556
0.422888226753159
0.0507270088080183
0.793820940073534
0.879723748878581
0.0809843961262287
0.251424736342424
1.31594707702462
0.939999290263828
0.640091778417316
0.472051444804996
0.155563053786878
0.145489313673079
0.196171113607179
0.475178906661989
0.706735120361395
0.982512904476117
0.632830624705151
0.535634423523318
0.371728404491992
0.13828183320942
1.20484393256406
0.60467248493677
2.06786286714862
0.317994879998048
0.0897076000026533
0.364139190267921
0.0951781771625418
0.380212872029016
0.699382531488314
1.69509344575709
