0.204055269129104
1.59110128799946
0.434146604246951
0.666117817756408
0.325392019493952
0.114672889923271
0.575265472490517
0.715042102150103
0.29312391623856
0.392431877826719
0.16562269521256
0.243940578424698
0.813373727975958
1.24452671990631
1.4708782784095
1.38309671870224
0.837408202433866
0.529617196634309
0.686129742248884
0.0429942196422925
1.06002132791411
0.111825154119008
0.713047707242468
1.14195165314198
0.509031223304815
0.549315373857936
0.153925406795192
1.51658468695389
1.16142296418905
0.9623982384682
0.568343432489472
0.5306634273827
1.94252730426886
1.71510990093126
0.0558265632177358
1.10755159365438
0.212141546950051
0.540085731422928
0.199071007015929
0.237382645920592
0.200506576567371
0.875626868543982
0.698155220090439
0.492143186979405
0.0753775172955161
0.682965121446081
0.856482684845045
0.0402440803521435
0.106133020870892
1.06785156890382
0.682042310230784
0.150396644891822
0.679316382385045
0.0688348079489422
1.10374681965154
1.01459310602292
1.53710324010722
0.384545091782369
0.599631326738148
0.290580736007213
1.57038935747218
1.12716545529537
0.421536862455415
0.0602131675025329
0.192319050459978
0.0763143132674739
0.502372613620406
0.161423805947031
1.80106698255515
0.221118724278025
1.53531769603703
0.149839779196667
0.522988572370381
1.56768778272663
0.0949737380228823
0.577814297891593
0.0356113484721214
0.815141877486473
0.519995697280726
0.619743685942179
0.747671613472471
0.25806723549542
0.0909291244380758
1.0314073249824
0.409617766640509
0.627953385551933
0.240212140972705
0.110896191308091
0.418101980125898
0.345974581937145
0.940063155601556
0.220661046614306
0.0988655145853451
0.615529837262273
0.314601520468648
1.02793288595819
1.34272571580549
1.45659381021503
0.0626483081278127
0.354477931566931
0.219614513158571
0.683787554016585
0.325333834220999
0.303516052092389
0.144310396366917
0.289217993436771
0.373581085282352
0.634963702159405
0.297680447498779
1.01853009970871
