0.509449020603816
0.940368630585464
0.276461117139477
0.573892716761387
0.75832246073815
0.297080504163445
0.699375964373443
0.564376955420961
0.327478952451734
0.818295314046263
0.370099405367631
0.660894209921645
0.549921972147974
0.519449187337444
0.255173683917502
0.708653867153318
0.976079208348339
0.273074827304374
0.128410135327326
0.424019063074744
0.751876356869736
0.735159870864534
0.0567038672116024
0.348695837694404
0.576805321654223
0.436247407615793
0.125891332917213
0.451560980870685
0.535494818594555
0.804545946097792
0.848817992165811
0.768543900512603
0.790747749718758
0.350982833225654
0.835834026284962
0.668610571701009
0.654775326562012
0.248803745128718
0.31110015769494
0.737023176874617
0.321042978780908
0.361081959171661
0.540461468270064
0.697319402991485
0.673705963782853
0.346109428673196
0.409082742117814
0.456895360739533
0.702603829595225
0.433892783454884
0.82850487885047
0.313179199374826
0.736717695788723
0.438250763827438
0.496178505620215
0.513659266229268
0.406202938429643
0.275242390201392
0.716671676916715
0.22094091969965
0.0598346808736953
0.379503707317038
0.640336084822605
0.371952095621325
0.293616306845433
0.64660846448977
0.356826174807958
0.363045677132949
0.755628199062319
0.125028635921245
0.504260643024906
0.351823382604842
0.879448231643188
0.223889557923253
0.487357709472751
0.917815634241329
0.560174816625616
0.811842155514326
0.765130979996482
0.332597423033243
0.507026638224412
0.52516386884951
0.722681275116907
0.43796536086503
0.527938770106961
0.577739822709758
0.78698798194985
0.359783880491709
0.186080525343829
0.443163824087618
0.6459623604695
0.377206858905823
0.357242415674287
0.875666364639521
0.582388207243563
0.196847893066446
0.486513401336998
0.32525524311616
0.676090700429448
0.915691445468394
0.131792375339355
0.325650743473437
0.19376426946941
0.234319584526264
0.107437283963413
0.731187847477643
0.731339970412614
0.697002716435021
0.908966255929406
0.600591015250636
0.508018308413502
0.216377956766659
0.117176899117588
0.508013475604743
0.326148014130204
0.693163849996201
0.377628265883454
0.4157162340732
0.366523900277383
0.621212937941077
0.195264304890098
0.118872362843813
0.786559511541022
0.938182650905805
0.77618039487321
0.220260236134546
0.171100126078387
0.175488314419659
0.482457201313151
0.0910838531281842
0.200436067733177
0.884608531493959
0.260464390165281
0.527212303047736
0.474881564856029
0.293204803638182
0.165358196457343
0.197107532839405
0.360508703949595
0.591365241453385
0.992458224355814
0.167159659209618
0.7703216720731
0.466928663383708
0.530429657782161
0.576726460440352
0.629862940669459
0.843752952780465
0.189769670182412
0.106224400258122
0.184463992117389
0.178286304493378
0.290457279748835
0.441070373105808
0.680698886502668
0.35221237545194
0.225892126243683
0.385555073009682
0.543639148113044
0.520959574753766
0.98810046450544
0.219405851050298
0.91881778176714
