1.00108425791775
0.0366375797295285
0.162858012371709
0.547484054422813
0.0540479180447583
0.823093137892436
0.404094730746141
1.16543727008004
0.516868929971422
0.088108506227512
1.06719654143784
0.508822423502294
0.332983902219234
0.265036974570919
0.127339268627056
0.995290305648262
0.665784127376614
0.422429584252867
0.283112350689056
0.178650695029938
0.249936414180941
1.11269418951578
0.43032372571947
1.09444082694808
0.193716846541794
0.816965144866635
0.974110563414405
0.406227228702907
0.238663807196737
0.0148150986739148
0.193901407821271
0.74053510223958
0.143187086529857
0.116090237009528
0.612382536101163
0.830130844432219
0.784720699616829
0.212968021677286
0.15104792092022
0.71841481219529
1.08377587692615
0.11795126243822
0.150340225286607
0.281912472557413
0.781966962006545
0.370365447560007
0.0878082410140349
0.434526303500796
0.594245510347704
0.945800210133598
0.688220426353944
0.85455684234737
0.499617756999869
0.942359474266983
0.411141837649455
0.117470295817953
1.10269043851717
0.544977982817872
0.206900280781243
0.474036575861158
0.326734704334231
0.605264678425127
0.19661780734338
0.0638074889324042
0.620437281912826
1.02590402985689
0.368031225920668
0.090617983455336
0.0871848350101299
0.0952412815039115
0.289009886037384
1.1540717126088
0.484285596115338
0.910376472341614
0.232062874710769
0.0560059086670587
0.556193194086705
0.118399400879687
0.165324465936965
0.24820740350577
1.08521120065058
0.310411017153455
0.185919400334876
0.202532963752934
0.972585578304518
0.389253240417981
0.917541482519839
0.510938746953677
1.02901020398663
0.0742110846531863
0.471788895366498
0.36530223106067
0.0502631614167764
0.375030795759157
0.875651077777497
1.14274726095555
0.0242574373219371
0.175687359486699
0.398440914646076
0.101601405618234
1.15372912287251
0.822906592130103
0.473130692901973
0.145543055306283
0.386802443888566
0.362263287375163
0.447921987636191
0.0265637002848596
0.504610415259308
0.069609953177669
1.0248868328203
0.258523639190499
0.79561090652364
0.499055149605301
0.894242505454357
0.585283372344009
0.761226537404897
0.936980443655447
0.564435289875631
0.143061188810496
0.798747060800338
0.0611454793420026
0.238950704696827
0.3507823021688
0.509773907663734
0.285383093660266
0.042962420932462
1.16456521364098
0.115204115609074
1.09857466752711
0.712576644401939
0.0268130948984636
0.0487415807667569
0.0924669017788421
0.52978298272977
1.0296725415778
0.294038851694909
0.80119690163431
0.535312181857858
0.332481308925548
0.755724045410897
0.446503306884904
0.474947125095688
0.0253301711373566
0.543424890675493
0.491748866592783
0.69203178891503
0.168743199609922
1.00182879820377
0.204547893566756
0.210456641750873
0.30267667760097
0.130435607727403
0.921521638078348
0.54856199651512
0.460916533023649
1.06095192441892
0.703048439767856
1.14582165314574
1.14013034653
1.13142497582169
0.227180596664371
0.267182816003224
