0.652856539790061
0.483499125245149
0.25911368190619
0.323788286371381
0.828772033871277
0.67902175436359
0.0980026296413794
0.575754570748112
0.519282660898226
0.97733323301712
0.954209151596746
0.802096324736848
0.499241419179614
0.339466859994282
0.624269913209815
0.68286415437074
0.717717878291836
0.531135595598793
0.299402766657758
0.734414070464892
0.579494311079769
0.301855301708774
0.716533879076689
0.965436574489678
0.156055701972635
0.54827827363603
0.609139876524228
0.800994327085864
0.199375850412998
0.252561281819643
0.574992120950314
0.622728000862916
0.322738025270517
0.590495164607357
0.579493276538571
0.28055647562566
0.825072402463179
0.403192585062597
0.421986226992067
0.992834716712424
0.83707307147799
0.665137177906299
0.536278578868244
0.566302122888297
0.696981182733769
0.247604736962606
0.198344130425777
0.698127916537632
0.210672322204414
0.492419754964043
0.283846666809913
0.797042359358652
0.348271445673229
0.593756586106743
0.575212019758341
0.181378064341814
0.705435324607302
0.529129209039013
0.104211241424897
0.195284971053222
0.419497700390773
0.712971488923674
0.748361037965866
0.677329008086482
0.157223793231798
0.858749720043292
0.609723034948291
0.098897743575477
0.437269606164307
0.651531672264746
0.841255803869734
0.246858428728949
0.219587057926247
0.356259240502766
0.267397635019244
0.444615985915318
0.875901285671147
0.338180177490398
0.6878240471097
0.452729562778995
0.585893581071254
0.614480261467439
0.518091728817611
0.667527527941623
0.58199834650279
0.861913885464182
0.448972023379448
0.982175341018327
0.419819127559427
0.396875967426098
0.835765957052242
0.326457139101413
0.242662373569734
0.733191203576247
0.476774571447586
0.453655920060507
0.251193534661513
1.0001233993727
0.499215812911708
0.342504349545756
0.866594776354419
0.577398586374388
0.39066680054042
0.162297994536873
0.328557123556613
0.255330136229659
0.264075414194212
0.786249548431205
0.425922915263134
0.623325192832156
0.802498546068001
0.603807823088149
0.606090371746079
0.338340963223759
0.222364153053479
0.662671221775447
0.487596273078504
0.66861391590786
0.198592654840966
0.648991728603918
0.839950950670593
0.0793010214957706
0.53035752822339
0.410202245611811
0.90958460580959
0.438506958410189
0.251402642960344
0.727057431268257
0.21390021706186
0.956783983720528
0.850907851721387
0.321567448817458
0.365152771685997
0.703139635044375
0.38135798431914
0.55124991671909
0.804586454693015
0.461156695317687
0.165771784367555
0.305827139895328
0.445480090466213
0.979445307978037
0.690753161480254
0.317803558229451
0.401323938114253
0.299921974149183
0.330256410027495
0.325383588173449
0.632541868330026
0.35609565601709
0.743399533761509
0.758768217691487
0.83451637621724
0.212870922934024
0.305471445957546
0.859868973264779
0.123538381308372
0.900786044551514
0.485715042091645
0.947351311638294
0.920487109519115
0.472620675462734
0.767193169610887
