0.827382557580203
0.788934377223437
0.184067791507302
0.325717235645407
0.559874227574442
0.45124245371778
0.685247360434192
0.296636093393076
0.447043991677748
0.294818839932063
0.240009414989361
0.593488916394855
0.414752306060644
0.45058869696494
0.712610384226988
0.18777119817274
0.372890712070316
0.406934145331642
0.307700732970283
0.752428909997646
0.677064291729235
0.77953028024861
0.415232062846872
0.153731445302621
0.584791396639273
0.592975624471233
0.286952055192683
0.096072264743997
0.728105294045072
0.590477618387902
0.202806556823132
0.613016477665287
0.681206145367831
0.478027131330008
0.675896029032324
0.218993513753988
0.809203648245229
0.161500470990388
0.248923248648824
0.72567884109526
0.353715647456382
0.331882905592864
0.853409384887414
0.609250428646914
0.772214405278673
0.494400208477725
0.285284501714535
0.250323879943827
0.773509939911804
0.643483770419083
0.735077505997506
0.364218361630184
0.749267909196932
0.334130906442226
0.634936054471748
0.458132619078599
0.440322517182073
0.442459212229944
0.442859738200814
0.284016298197186
0.732850470979795
0.159498024974558
0.764273634619655
0.561285495689052
0.25730634763533
0.17644969219429
0.687478499753682
0.387313514288999
0.624402134708191
0.125762519783352
0.285581853124228
0.274767615626267
0.474400147667734
0.52849372154117
0.842183930285109
0.477373930199352
0.817266100742697
0.334194160688854
0.311227549041621
0.36443778848399
0.196576959578071
0.314580769162213
0.271506023415409
0.218942648875062
0.36654148831222
0.680107199996243
0.43846664519632
0.342688339278606
0.624574310372361
0.211362462175912
0.460360743598444
0.509740558016948
0.212372533279707
0.490842141306449
0.623219120458718
0.498009092780042
0.468909538752432
0.213866469701138
0.745963910151974
0.720583409315579
0.730088756353261
0.74346354138568
0.80643890811805
0.215449713378637
0.134343028240736
0.654743185950722
0.326891370946752
0.82858174770506
0.315627748548587
0.53607498403653
0.497787096575707
0.576652389086433
0.803090027761031
0.699050475220923
0.347985405046042
0.575070052694273
0.476708981397585
0.786660592313552
0.669406200329265
0.680769181920737
0.318290007045564
0.755299565277566
0.471400913452407
0.231698887436344
0.868164512730581
0.375984427201594
0.364486427359635
0.610772608449328
0.838106957739368
0.191483390631971
0.0495968554766658
0.228962302310283
0.498063106408589
0.322324326661509
0.484537883259052
0.600289328525653
0.28321589113292
0.442787679689182
0.237294539032307
0.561418760652134
0.378262221167397
0.224279380357592
0.441414927070615
0.103257624894922
0.378552304252646
0.107660614036108
0.313848644928913
0.151499916973596
0.537506913885057
0.825242319436056
0.434654701936464
0.799270702387807
0.61370181638813
0.471810957345563
0.73283673759557
0.171793204938525
0.58825567525412
0.587090068715907
0.757519274341024
0.638930459068595
0.613622502292206
0.213601088519273
0.635702095964803
