0.295196625125294
0.462857340857346
0.28063784265655
0.593633762430812
0.827893174573771
0.490007281073532
0.825304334962953
0.438198559543588
0.653314878403324
0.0847022342289021
0.847431408280323
0.199124363718791
0.54607562614702
0.881230006702549
0.377892927818985
0.355629337570526
0.305787487269103
0.412229046971253
0.0989081256946503
0.734455106460735
0.615267761110656
0.333976892557292
0.86152217969738
0.111578283010376
1.00091501745352
0.160681940909411
0.521496232857858
0.790517247076312
0.396609245167236
0.310279009961637
0.931000168754721
0.959781143786129
0.57428650260722
0.573140237495469
0.294490506182037
0.391913279301674
0.656753600096587
0.540498916419789
0.768509587580493
0.33521594339753
0.364459977081745
0.668108308433901
0.427648484731467
0.815495552627072
0.398228051561572
0.443695847022804
0.296757531827695
0.274308636482555
0.818318292110942
0.895686505979358
0.925767779705686
0.270623294961839
0.605794917234442
0.379342696866953
0.831920594803881
0.861007692254555
0.0940058905822585
0.43363260606702
0.333953129598007
0.559400037929093
0.241000444515224
0.601382369101422
0.403515107156656
0.167683594766669
0.56919173538464
0.343836861345859
0.255946791829225
0.72429165952614
0.180594450072121
0.384419495768515
0.507829913958877
0.939647661243149
0.420469581388685
0.688688548527093
0.541366515314269
0.819042432416283
0.390526007138657
0.43895500740961
0.531204168861327
0.407291092730688
0.306078631514668
0.235171865902576
0.862507083102601
0.503135474082887
0.712192769739504
0.676298571353623
0.285321167536004
0.359433951943534
0.454980322947585
0.084213270618301
0.60100577909625
0.124829433144837
0.834535739064108
0.966315889144927
0.9239438777169
0.634951843039425
0.575996255329915
0.25176330798554
0.589349456281923
1.04278236933748
0.450008431055618
0.363853885531303
0.49656528379598
0.309516469921747
0.19100199281016
0.716424164166465
0.909976344850663
0.360827649131806
0.361697225409109
0.394607604864912
0.411578255699394
1.03552590456914
0.708668041785915
0.0713048984037153
0.284377579372779
0.693566025051387
0.430325087116932
0.826238226718878
0.915618244986243
0.443473442599897
0.189637591439158
0.274243273847555
0.0958693128677283
0.336456438077299
0.294587441577311
0.13361251197269
0.469374167702926
0.316864408452977
0.582198442174385
0.436170435097963
1.03403170682762
0.902957366710379
0.913482127145827
0.407636867384471
0.297107252962251
0.133969501768071
0.60833797872146
0.232820462258355
0.506756834670282
0.352060761835265
0.657213354482199
0.492868563027194
0.980027136629735
0.302536908493428
0.577753686856712
0.376946162728916
0.783097451861282
0.220384210042381
0.412007281758855
0.389888277443116
0.157447062415797
0.189131164513055
0.20092829122251
0.649606218799371
0.708580001833936
0.541669505574109
0.262230782565104
0.235472491729019
0.640038571775877
0.259161540860187
0.442544552442297
0.382296916286186
0.182128773099262
