0.85500884658691
3.37738138188476
2.03146268856851
0.983356643870471
0.296866753931206
0.739833958248857
2.13177556064844
0.773624687952361
2.69518833454173
0.598431778577742
0.80295977605834
0.812030507903866
0.259979484955146
0.788010705442344
0.285736789438143
0.830087338583118
1.24717814211637
0.114556574612187
0.516339847572805
1.80169374907634
1.59162513030636
3.34667829869573
1.43239770057219
1.71296138025049
0.479868151530474
2.09620858243319
3.09408206467793
1.28097080717067
0.58495904242083
0.161539824779929
2.52188207527958
0.237737037396813
1.87537043718695
0.914938192141227
6.6657930009644
1.35833383378196
1.27018667716734
0.536374382172092
0.658798932470603
6.32248643589
1.55456132560426
1.80119101564027
0.258809173968246
0.554418998244631
1.62842134330331
0.760854341349281
0.390026714152392
0.966919746189366
1.81110387243611
0.890633691705601
3.89472001972853
0.872636034759547
0.306502050199333
2.62707163867602
2.9390340249724
6.86438998882943
0.269856773846555
4.26772258488765
1.02892350648048
2.04847607660132
0.480722878368723
3.07581854204032
2.54906851768043
1.45719152949548
1.37428842615866
5.19264317550881
0.289097401516876
3.2385576403399
0.108721923757655
0.492290933404061
0.272376451787015
0.481681070195883
0.714946269453668
9.11249332716198
0.47989588278896
2.36057931226274
0.65712897808443
0.27006200387209
3.21616019095005
0.494136537203952
4.61399935687969
1.161823529835
0.194996592673959
0.716743351412303
0.459212969317625
1.49276212436178
1.97904413296907
1.06731198746598
1.1277345244993
2.90319064556586
1.15331749854685
4.90031750533192
1.06679296552679
6.86438244827118
2.31128282207669
0.146728339113663
0.775864034495811
0.922192169356466
3.30340278666938
2.98652640928144
0.929859570175626
0.829685649138961
0.595109943947171
2.39915589271457
1.4065303318652
0.262442420163751
3.27558556232123
1.12264509268739
1.18791526847942
0.557991607589277
2.18143689624029
1.9823034362045
0.785710928363865
1.55688368972119
0.14266781265682
1.24237349294632
2.94755701147904
0.280715648391338
0.521274419151822
1.68852404358807
0.301297755992534
5.60110696296875
7.9349784570084
0.336760739238811
0.31696934581438
0.35342940189439
0.571123297870291
1.65952683562926
2.03718382321551
0.140225853179688
0.555072275873407
0.90962421926715
8.82750502524368
0.429867636874286
0.557221212252669
0.495980934146096
1.30748501365825
0.352579358250737
1.33949350715308
1.2487043147161
3.64002574368573
0.876860261959362
5.10944610017145
0.516259603719241
1.24704932901692
1.61247533148883
0.544228747643713
6.28253373515193
5.27600870811016
2.09709704060825
2.07347989221357
0.710546255012476
1.24477361819763
0.528545401168804
0.508805495931004
0.307722923076665
0.350740348590773
0.550834556856336
1.77352829883454
0.250454177775873
6.05673058376003
2.33600728975811
2.3163173246305
0.544804080050886
0.204123911861055
0.580456827283393
0.660303327154956
2.15686469346765
1.29654157385562
1.3730414590032
0.711183812623443
2.24204914151522
7.13110719716368
0.785108553978276
0.698773598897932
4.85392361029212
2.04572874133444
0.469398078707608
1.16920684493835
1.03455202421868
1.67240736558832
0.398461969128487
0.172869099827778
0.119778858110151
0.512555061325994
3.97442195681484
1.25480009699007
1.96384682277844
2.24194583488377
0.788880803937142
3.61081765105662
1.16043878474434
0.695516834064146
2.77501493011614
3.62754126919514
11.6000198537378
4.25341361929613
4.96211162471069
1.00462860249547
3.13851191422091
2.2117618294782
0.514383104245652
1.71144550182748
1.06865583106281
0.254806475585684
5.61889068946118
0.58660895057579
3.30372489997386
0.511041721821042
1.62771392733226
1.21824054493383
2.7761709263707
0.325514641485243
2.76909368902562
1.48561690391476
0.357257170804574
5.02172056338938
0.362420724004516
0.594780920588836
1.67709871583526
1.89041047471942
3.43495850991221
0.271607614179906
0.162176550364285
0.351274136948917
3.12423687259171
0.280117448580773
0.752661778920493
5.813254518364
0.566885668396102
0.540173598756675
2.94499263008039
0.494620291788394
0.680905966279874
1.39942053816423
2.43960998831431
0.678060243751576
0.607223146326491
0.974410529786186
0.430480180801062
0.591880160765936
1.96590927911222
1.01148049450552
0.442898216946076
0.0958920312114392
2.00326959065122
3.83846459719761
0.231018058466149
0.985014463994167
