8.01115828055712
0.558251436383289
0.161417061398774
0.637868123117649
0.242599554886394
1.14744768600756
1.74831346189765
3.74058925627189
0.372916555386791
2.25866251170518
0.71720403456438
1.89572273677066
1.30858541793788
0.66020587077932
0.645437527973338
5.71550004541602
1.83547807835754
0.239668990918985
0.505206031619202
0.239166650482064
0.361970524391027
1.05189669913771
1.84812161066752
0.912031814537622
3.70221587086626
0.424798997783441
3.49969668263325
2.15400834302374
0.909349569086299
0.417630233240935
0.154928889609392
0.570891615960497
0.18019533921008
1.5793547433593
3.94314771112428
10.9944617276205
0.193896378268558
3.51291422359873
1.21912106083574
0.771235886090141
1.38525705168338
6.06290773392223
0.415036245628412
1.03225685694161
0.372846076620749
0.29532977632153
0.518649536494853
2.28749550744535
0.286567292951493
0.404684837905901
0.247637368099262
3.06355896160083
2.21249656707947
0.259055090541044
1.65683096245712
1.42708640082331
0.871223686889901
1.02456273366679
0.994256557097969
1.78726536061588
0.161911501598192
5.10012834022194
0.877593671884721
0.591741389026281
0.180612147121906
2.81226745947375
5.29722042209092
1.80736157469582
1.15020071480124
0.812914598375886
4.81755742025019
0.759503335505926
1.21006334789416
4.76930950748138
0.153222673539065
1.07695827943025
0.820018709954005
1.35760682777634
0.34131443321338
0.132427939885416
1.2585002285737
2.03531465248929
0.369445233650388
3.39762229455096
0.916127628545675
0.856893336579087
5.48579268767051
0.542347758444573
0.0874534650357054
2.24516088585498
1.01021650143025
0.478887859074379
0.0668030044539616
1.96555288442715
0.448343829299211
0.392055918881168
4.96609287834123
0.948021123177168
0.214003122130117
1.1057697107033
1.05890230319074
2.69091996719212
1.37976041885382
0.642916589302849
1.69906321896195
1.36092899726385
1.60988500091304
0.773075541212244
0.285950051236876
0.544248916294815
0.669001660653449
1.01058131834036
0.423136846852641
0.287698467375509
0.895215512058496
0.306668775632462
0.442210981319872
1.22553623742654
1.89609891271122
1.52965200050701
1.33297145780723
2.55568703234979
0.489189208577856
0.513098759151847
0.0954007130731211
1.31457880956185
0.710230459376506
2.04269193213585
0.267221886000158
1.21473295664704
1.23149571998127
0.300789161585533
0.51887394482003
0.160639500764915
0.571981413484741
0.850068237906111
0.165082977935529
0.717562803819646
0.786243331851795
0.388027140546156
1.73204671280925
0.52525380152384
1.20904944042175
0.973890053490027
0.42463783230261
3.0634521116154
4.02407813530228
1.2045519698942
0.147622054065299
3.15227645468155
1.88945137115523
0.889834184288096
0.806222218034168
0.168990386559717
0.122219819145591
5.97581769078117
0.691590054792132
0.481892274249488
0.19375520358266
0.446866837244312
1.10142517890969
2.05497630325395
3.72362566621222
2.157152369913
2.06623033465052
2.63030530535736
2.5326331677931
1.10254674150261
3.03489392238645
0.974103601110406
1.10994593048043
1.50280068251561
1.88260935571579
0.941194817665307
2.54461464805381
1.06488789839966
0.854409542518219
0.804065241171662
5.22605573680889
1.42532552089954
2.55596214762611
2.57775186355413
1.8993399766114
1.18849483728114
0.183302551569311
2.6694152875016
1.5541973533777
0.940377723086181
0.271604673388465
7.81882061371289
0.767561654136039
3.16041245682668
0.923329464494439
6.41892352807415
1.18497367301179
1.10046308915528
0.880014934536006
9.58290490397542
0.347825527182945
0.93686821463749
3.83943738760178
0.154136269473484
0.671253592444424
1.41266121013858
0.211798470876821
0.448524106512123
0.280759285259106
0.918444750356284
0.27673168350799
2.87381797121847
0.351355613057094
3.75802290873011
0.480125134619482
0.544454062164504
0.660098462647591
1.1334506486939
4.8835718848984
0.135762779677653
0.338611984933456
1.2196925278458
1.89405573501038
0.240600873619904
0.138030808240367
0.633359204435429
0.969407795194136
1.27854629191655
0.341307959238559
0.496889083624125
0.525087291022909
0.671172609257558
1.93787131448251
1.59646197135771
0.202971347297663
10.1617419154846
0.242311370304741
0.312253871168655
5.58555927927032
1.13544205888452
0.313798059571839
0.808162600371873
1.41424507141768
0.297299556458392
1.97274425516497
0.51911607692517
0.702469066186404
0.889097000399556
0.869124029631857
3.60306070119491
2.40955825444894
