1.4250537512203
0.149129560619779
1.2249827465476
8.601937321759
3.59379245824319
2.01294007619864
0.685515268675928
1.36985561178893
0.662814863868799
0.513546333792646
0.0222970847420952
1.86086835685663
1.69626231347727
1.14377741370655
2.89389086210546
0.379795438105222
1.99600831853394
0.309297306959906
1.58877883420118
0.642790753603822
0.0815854745606644
1.44567483246438
0.0730735057279534
0.569871387905791
1.81888912105446
3.12349817092307
1.61662330795249
0.291599347735278
0.992337338363429
0.450435082754919
5.6118353051564
0.55509745696938
3.32493012434228
1.04153411058692
0.151889947718632
2.27538478620808
1.96596359052585
3.11156364143916
1.5520002544708
0.449820755876218
0.966544890415197
0.870854486291933
0.274292454432782
3.89551443846578
0.266290600540652
3.7557298712919
1.56056407390989
1.9240976850428
0.186546325705624
0.572204310026446
0.343289052467315
0.99221699739151
0.245263388988978
0.580670015683483
0.271017202617357
0.734742532329901
0.421910387666799
0.45537369345952
1.85389497140831
0.514997766289245
0.543759724575033
1.51937265550274
1.0634786630984
1.64009245623553
0.520399807915456
2.09149787935693
0.44808790231737
0.373246445073297
1.09045540962265
1.03199841147073
2.00096781204425
2.08662514534932
12.2058348320208
0.400639770697787
0.594494994919303
1.84638087545387
2.23593056591544
1.53375023873308
1.09046369771755
0.42293068006994
1.17958247915592
0.827567596470107
5.10143916262712
0.704460049442162
1.88811152329145
3.43882850123449
0.869257730500867
0.919161983323407
1.87414139138182
0.528456591042794
1.11263458932689
1.76792893563164
