1.986795986035
0.79706181660348
1.24002170914571
1.18529783536554
0.363616603108907
1.43874091750593
0.490996577527753
0.652495504034835
0.729121600169507
1.2285692555844
1.56344610311073
0.260336310269445
0.921358134407166
5.17579533588669
0.329068979314316
0.25817951854065
0.991364687997857
1.9141441626267
5.02368379438123
5.69187936033015
2.27088057054223
3.78239387448376
2.06387868654388
0.941541057289458
0.287822866080893
1.45500572975209
0.64899535115716
0.566167175589884
0.44275750887034
1.82548706000324
0.530141033597668
2.19246790196291
1.35324025387965
0.414989598519916
0.410918766895688
0.85647993699003
0.224576225404978
2.30308558736792
1.32690970683508
1.07568840258834
0.688184199899653
9.42041002627947
0.176320623569307
0.393085456593084
1.18844370619406
2.08210191795196
0.229840521776332
0.579516714768202
1.66047247547444
0.490613161297513
