1.6689329917755
0.389652626817636
1.44765250760959
1.16629431830353
8.8534762425106
0.896724797162458
0.820217114731981
3.69421362737715
3.25358351872041
2.27023415668104
1.43601253262884
1.89337588237425
0.828881635148346
0.358830028770792
0.98166557621781
2.9094214407112
0.120170014563882
0.81813326433532
0.148154168807281
0.242088423402155
0.669965777018289
0.121158518597577
4.49590685092437
1.19371370140445
0.98842433880454
10.3120562681379
0.224935583012976
1.95173910211337
2.63895295817733
0.29205488318014
0.636226692029612
0.635342013208263
0.66550147324576
0.280128163380659
7.25257973748066
0.245156438355943
0.608772972517733
0.160580333409004
1.54595512358353
3.12206579831053
0.679759120778591
2.14358288348978
0.656331521306833
1.0228248438052
4.98473961975086
0.388576028121541
1.50917878865983
1.01551583176291
2.35247264656637
2.02014903559377
