0.987167672257936
2.01832381071962
1.4708177784268
5.66477405627997
0.190938083616886
0.92241607064196
0.825071099066525
2.14177378990575
1.16552587903612
1.47998962419882
1.22220759721239
0.927642804485239
0.377555590998151
0.826956623949405
0.569818842662833
0.272437591719711
0.289258601841074
1.53784599410086
0.840431357755123
3.61115865722042
1.09130869561595
1.54958843011967
0.840785114035045
1.59638885461906
0.26273672247391
2.17846023865609
0.60612854667358
0.607012611173904
1.64206538091408
2.25392967629032
0.850959207755264
7.89880578372361
2.09297003870699
0.598262689736476
0.755206101762603
0.364031274751362
0.882275487068246
0.792242064643349
1.35726629675391
2.0763833435286
0.230759586737716
0.170450709108772
1.92597861739113
0.724993940569645
0.974066146657428
0.768490051817228
1.44124488600112
0.0718923479298409
2.02926536176827
0.229523241546487
