0.569677878067455
0.973590728012018
0.894709371288034
0.551632738628006
1.90955774406972
0.186824749980611
0.555373230375626
2.68064190149106
0.303478587387179
2.13671151940375
0.398576978271253
4.33347401683489
0.978355806844646
1.45965288012343
1.71957456340471
0.311071833550424
0.193091232539097
1.58300432480853
1.21554902885114
2.95719932930593
3.16577022638232
0.272802878955426
0.143348046372641
0.291844617652119
2.88157740344556
3.61291892073007
0.939893207599193
0.379264348173973
2.14089208077915
0.373017569064846
0.310519369516016
7.20388345557157
2.90300001151208
0.482513604411568
1.92342016298566
9.04267505669691
0.68610038644262
1.1892543439106
2.89319803600627
1.90231676292205
4.92512695854362
1.06069493404119
0.228529316928529
0.470263667999886
3.69714687483253
0.851837444489909
0.293310824822635
1.88300760411156
1.10282170574966
1.62129029846821
