-0.634166273274912 0 -1.24651368957196 0 0 0 0 0 0 0 0 0 0 0 0 0 0 0 0 0 0 0 0 0 0 0 0 0 0 0 0 0 0 0 0 0 0 0 0 0 0 -0.645717103985525 0 0 0 0 0 0 0 0
0 -0.634166273274912 0 0 0 0 0 -0.993086535873635 0 0 -1.02791467452855 0 0 0 0 0 0 0 -2.46416151092929 0 0 0 0 0 0 0 0 0 -0.530134876958765 0 0 0 0 0 0 0 0 0 0 0 0 -2.1961081007236 0 0 0 0 0 0 0 0
0.235490082296976 0 -0.634166273274912 0 0 0 0 0 0 0 0 0 0 0 0 0 0 0 -1.5517352462722 0 0 0 0 0 0 0 0 0 0 0 0 0 0 0 0 0 0 0 0 0 0 0 0 0 0 0 0 0 0 0
0 0 0 -0.634166273274912 0 0 0 0 0 0 0 0 0 0 0 0 0 0 0 0 0 0 0 0 0 0 0 0 0 0 0 0 0 0 0 0 -0.823381610409977 0 0 0 0 0 0 0 0 0 0 0 0 0
0 0 0 0 -0.634166273274912 0 0 0 0 -1.09908421040057 0 0 0 0 0 -0.670092152708297 0 0 0 -0.281186707481042 0 0 0 0 0 0 0 0 0 0 0 0 0 0 0 0 -2.45266849433783 0 0 0 0 0 -0.543823584404825 0 0 0 0 0 0 0
0 0 0 0 0 -0.634166273274912 0 0 0 0 0 0 0 0 0 -5.65700226158303 0 0 0 -0.502204614992624 0 0 0 0 0 0 0 0 0 0 0 0 0 0 0 0 -0.673732620420716 0 0 0 0 0 -1.82884876595126 0 0 0 0 0 0 0
0 0 0 0 0 0 -0.634166273274912 0 0 0 0 0 0 0 0 -0.472059063011551 0 0 0 -0.641591353830509 0 0 0 0 0 0 0 0 0 0 0 0 0 0 0 0 -0.357062747691072 0 0 0 0 0 -0.237781741789885 0 0 0 0 0 0 0
0 0.187414815956322 0 0 0 0 0 -0.634166273274912 0 0 0 0 0 0 0 -0.269266308388647 0 0 0 0 0 0 0 0 0 0 0 0 0 0 0 0 0 0 0 0 -1.30795887351554 0 0 0 0 0 0 0 0 0 0 0 0 0
0 0 0 0 0 0 0 0 -0.634166273274912 0 0 0 0 0 0 -0.481215677829928 0 0 0 0 0 0 0 0 0 0 0 0 0 0 0 0 0 0 0 0 -1.51716590088437 0 0 0 0 0 0 0 0 0 0 0 0 0
0 0 0 0 0.223079741328755 0 0 0 0 -0.634166273274912 0 -1.53688614568943 0 0 0 0 0 0 0 0 0 0 0 0 0 0 0 0 0 0 0 0 0 0 0 0 -2.27189452315394 0 0 0 0 0 0 0 0 0 0 0 0 0
0 0.203625605225504 0 0 0 0 0 0 0 0 -0.634166273274912 -1.44616434980391 -3.54412287906635 0 0 0 0 0 0 0 0 0 0 0 0 0 0 0 0 0 0 0 0 0 0 0 -8.69693383947727 0 0 0 0 0 0 0 0 0 0 0 0 0
0 0 0 0 0 0 0 0 0 0.285291492521481 0.306671627306897 -0.634166273274912 -1.33410542724281 0 0 0 0 -2.8639289336263 0 0 0 0 0 0 0 0 0 0 0 0 0 0 0 0 0 0 -0.730446275487428 0 0 0 0 0 0 0 0 0 0 0 0 0
0 0 0 0 0 0 0 0 0 0 0.69964379714795 0.259877688868241 -0.634166273274912 0 0 0 0 0 0 0 0 0 0 0 0 0 0 0 0 0 0 0 0 0 0 0 -0.173310264380123 0 0 0 0 0 0 0 0 0 0 0 0 0
0 0 0 0 0 0 0 0 0 0 0 0 0 -0.634166273274912 -1.33845331120461 0 0 0 0 0 0 0 0 0 0 0 0 0 0 0 0 0 0 0 0 0 0 0 0 0 0 0 0 0 0 0 0 0 0 0
0 0 0 0 0 0 0 0 0 0 0 0 0 0.255584553853347 -0.634166273274912 0.566587289767159 0 0 0 0 0 0 0 0 0 0 0 0 0 0 0 0 0 0 0 0 0 0 0 -0.444011745951296 0 0 0 0 0 0 0 0 0 0
0 0 0 0 0.137347595412268 1.05090834526974 0.0968990765226216 0.0582564318672727 0.0959364509399116 0 0 0 0 0 -3.15275437289751 -0.634166273274912 0 0 0 0 0 0 0 0 0 0 0 0 0 0 0 0 0 0 0 0 0 0 0 -0.607334660628545 0 0 0 0 0 0 0 0 0 0
0 0 0 0 0 0 0 0 0 0 0 0 0 0 0 0 -0.634166273274912 0 0 0 0 0 0 0 0 0 0 0 0 0 0 0 0 0 0 0 0 0 0 -0.315845674763728 0 0 0 0 0 0 0 0 0 0
0 0 0 0 0 0 0 0 0 0 0 0.596054529142086 0 0 0 0 0 -0.634166273274912 0 0 0 0 0 0 0 0 0 0 0 0 0 0 0 0 0 0 0 0 0 -0.620554137805349 0 0 0 0 0 0 0 0 0 0
0 0.501231378518253 0.295248801033216 0 0 0 0 0 0 0 0 0 0 0 0 0 0 0 -0.634166273274912 0 0 0 0 0 0 0 0 0 0 0 0 0 0 0 0 0 0 0 0 -1.92777557753409 0 0 0 0 0 0 0 0 0 0
0 0 0 0 0.0557781514568912 0.0991681176162049 0.140640119318482 0 0 0 0 0 0 0 0 0 0 0 0 -0.634166273274912 0 0 0 0 0 0 0 0 0 0 0 0 0 0 0 0 0 0 0 -1.26289603488497 0 0 0 0 0 0 0 0 0 0
0 0 0 0 0 0 0 0 0 0 0 0 0 0 0 0 0 0 0 0 -0.634166273274912 0 0 0 0 0 -0.832129426619132 0 0 0 0 0 0 0 -1.84967150123225 0 0 0 0 -0.739317347139712 0 0 0 0 -0.961026728906494 0 0 0 0 0
0 0 0 0 0 0 0 0 0 0 0 0 0 0 0 0 0 0 0 0 0 -0.634166273274912 -1.8557491767306 0 0 0 0 0 0 -0.895297697209334 0 0 -0.143797444656798 0 0 0 0 0 0 0 0 0 0 0 -0.684581872130284 0 0 0 -1.08146033752103 0
0 0 0 0 0 0 0 0 0 0 0 0 0 0 0 0 0 0 0 0 0 0.340440999587171 -0.634166273274912 0.773021765889704 0.146186834891396 0.0904035891413617 0.216817716706067 0 0 0 0 0 0 0 0 0 0 0 0 0 -1.54945302816941 0 0 0 -0.40873046626528 -0.0865720193110108 0 0 0 0
0 0 0 0 0 0 0 0 0 0 0 0 0 0 0 0 0 0 0 0 0 0 -3.82799359099814 -0.634166273274912 0 0 0 0 0 0 0 0 0 -0.561578977154793 0 0 0 0 0 0 -0.461450493022531 0 0 0 -1.08037761481631 -8.21639192617774 0 0 0 0
0 0 0 0 0 0 0 0 0 0 0 0 0 0 0 0 0 0 0 0 0 0 -0.773081013153613 0 -0.634166273274912 0 0 0 0 0 0 0 0 -0.264819539125124 0 0 0 0 0 0 -1.9550882320728 0 0 0 -7.03650642703229 -0.821624073192179 0 0 0 0
0 0 0 0 0 0 0 0 0 0 0 0 0 0 0 0 0 0 0 0 0 0 -0.410112069293953 0 0 -0.634166273274912 0 0 0 0 0 0 0 -0.567506979195456 0 0 0 0 0 0 -3.38888969540676 0 0 0 -0.63938635775417 -0.76134747645298 0 -0.426963702244648 0 0
0 0 0 0 0 0 0 0 0 0 0 0 0 0 0 0 0 0 0 0 0.166016425744058 0 -1.06324820750414 0 0 0 -0.634166273274912 0 0 0 0 0 0 -1.19048723356782 0 0 0 0 0 0 0 0 0 0 -2.41172542324466 -3.30235410286932 0 -1.92153055005365 0 0
0 0 0 0 0 0 0 0 0 0 0 0 0 0 0 0 0 0 0 0 0 0 0 0 0 0 0 -0.634166273274912 0 0 0 0 0 -0.142806464753283 0 0 0 0 0 0 0 0 0 0 -7.31559121317144 -1.23612238066614 0 -0.53831815346119 0 0
0 0.0998615137348202 0 0 0 0 0 0 0 0 0 0 0 0 0 0 0 0 0 0 0 0 0 0 0 0 0 0 -0.634166273274912 0 0 0 0 -0.484190245245912 0 0 0 0 0 0 0 0 0 -1.49745945653759 0 -5.78580167199883 0 0 0 0
0 0 0 0 0 0 0 0 0 0 0 0 0 0 0 0 0 0 0 0 0 0.175536953305242 0 0 0 0 0 0 0 -0.634166273274912 0 0 0 -0.702649947548078 0 0 0 0 0 0 0 0 0 -0.234729060200067 0 -5.56217405428939 0 0 0 0
0 0 0 0 0 0 0 0 0 0 0 0 0 0 0 0 0 0 0 0 0 0 0 0 0 0 0 0 0 0 -0.634166273274912 0 0 -10.0166170773018 0 0 0 0 0 0 0 0 0 -2.60913365182596 0 -3.43051829436381 0 0 0 0
0 0 0 0 0 0 0 0 0 0 0 0 0 0 0 0 0 0 0 0 0 0 0 0 0 0 0 0 0 0 0 -0.634166273274912 0 -2.49780637282526 0 0 0 0 0 0 0 0 0 -1.66975860995653 0 -1.77320359367966 0 0 0 0
0 0 0 0 0 0 0 0 0 0 0 0 0 0 0 0 0 0 0 0 0 0.0280155563248467 0 0 0 0 0 0 0 0 0 0 -0.634166273274912 -0.305568989516081 0 0 0 0 0 0 0 0 0 -0.600057386870166 0 -0.693562989169199 0 0 0 0
0 0 0 0 0 0 0 0 0 0 0 0 0 0 0 0 0 0 0 0 0 0 0 0.117927500607433 0.0550795821827901 0.115727681152299 0.226709037180883 0.0272802559215944 0.103040283591782 0.142986125093275 2.13909162424281 0.508056295960919 0.0647136521791815 -0.634166273274912 0.23634822022171 0 0 0 0 0 0 0 0 -0.366007555768669 0 -4.99928805125176 0 0 0 0
0 0 0 0 0 0 0 0 0 0 0 0 0 0 0 0 0 0 0 0 0.380205668971743 0 0 0 0 0 0 0 0 0 0 0 0 -1.15560844173994 -0.634166273274912 0 0 0 0 0 0 0 0 -1.04983357457755 0 -0.363514155691801 0 0 0 0
0 0 0 0 0 0 0 0 0 0 0 0 0 0 0 0 0 0 0 0 0 0 0 0 0 0 0 0 0 0 0 0 0 0 0 -0.634166273274912 0 0 0 0 0 0 0 0 0 -0.807106050024796 0 0 0 0
0 0 0 0.169122302107712 0.497492028911005 0.129365879467621 0.0703726984072211 0.252070076530585 0.308064892737004 0.454779633466476 1.68151240524054 0.148392469193313 0.0341574710637336 0 0 0 0 0 0 0 0 0 0 0 0 0 0 0 0 0 0 0 0 0 0 0 -0.634166273274912 0 0 0 0 0 0 0 0 -0.188956268473532 0 0 0 0
0 0 0 0 0 0 0 0 0 0 0 0 0 0 0 0 0 0 0 0 0 0 0 0 0 0 0 0 0 0 0 0 0 0 0 0 0 -0.634166273274912 0 0 0 0 0 0 0 -1.81242698042906 0 0 0 0
0 0 0 0 0 0 0 0 0 0 0 0 0 0 0 0 0 0 0 0 0 0 0 0 0 0 0 0 0 0 0 0 0 0 0 0 0 0 -0.634166273274912 0 0 0 0 0 0 -0.49439826032729 0 0 0 -2.86082885355252
0 0 0 0 0 0 0 0 0 0 0 0 0 0 0.0943072469382873 0.12314567236889 0.0641414060584548 0.113777033276191 0.385564218327596 0.247929362197013 0.145328173844797 0 0 0 0 0 0 0 0 0 0 0 0 0 0 0 0 0 0 -0.634166273274912 0 0 0 0 0 -0.769090576073456 0 0 0 -4.36503324690571
0 0 0 0 0 0 0 0 0 0 0 0 0 0 0 0 0 0 0 0 0 0 0.315467836777917 0.100815610918639 0.399918720668879 0.697569837305241 0 0 0 0 0 0 0 0 0 0 0 0 0 0 -0.634166273274912 0 0 0 0 -2.60698042336196 0 0 0 -0.959165355612289
0.126410209039962 0.437066368042767 0 0 0 0 0 0 0 0 0 0 0 0 0 0 0 0 0 0 0 0 0 0 0 0 0 0 0 0 0 0 0 0 0 0 0 0 0 0 0 -0.634166273274912 0 0 0 0 0 0 0 -0.355776209981301
0 0 0 0 0.111194590406903 0.364790221607113 0.0508752564770163 0 0 0 0 0 0 0 0 0 0 0 0 0 0 0 0 0 0 0 0 0 0 0 0 0 0 0 0 0 0 0 0 0 0 0 -0.634166273274912 0 0 0 0 0 0 -1.35208784275504
0 0 0 0 0 0 0 0 0 0 0 0 0 0 0 0 0 0 0 0 0 0 0 0 0 0 0 0 0.303110463241865 0.0461433214689129 0.524629956116707 0.366050440245106 0.118225084022601 0.0663941912994528 0.20371423396336 0 0 0 0 0 0 0 0 -0.634166273274912 0 0 -0.858804196442968 0 0 -1.74738658005734
0 0 0 0 0 0 0 0 0 0 0 0 0 0 0 0 0 0 0 0 0.181331655245285 0.134190369318439 0.0814727737174445 0.211255207201036 1.46207847605641 0.128107681717609 0.50342251345926 1.4261959687485 0 0 0 0 0 0 0 0 0 0 0 0 0 0 0 0 -0.634166273274912 0 -0.405067336144846 0 0 -2.22281428358676
0 0 0 0 0 0 0 0 0 0 0 0 0 0 0 0 0 0 0 0 0 0 0.0170167721721622 1.74266577883992 0.154465460676049 0.153362325487058 0.606520255955718 0.244536500420126 1.14036136744932 1.17179287493464 0.712079057042751 0.325118736663962 0.141360244193189 1.01119268289364 0.0721381740235289 0.170245236196243 0.0359819065956395 0.394207636506892 0.0976836080335827 0.138267252319877 0.527936813875223 0 0 0 0 -0.634166273274912 -1.48053795337793 0 0 0
0 0 0 0 0 0 0 0 0 0 0 0 0 0 0 0 0 0 0 0 0 0 0 0 0 0 0 0 0 0 0 0 0 0 0 0 0 0 0 0 0 0 0 0.171979469849073 0.0715496365709686 0.301115886008874 -0.634166273274912 0 0 0
0 0 0 0 0 0 0 0 0 0 0 0 0 0 0 0 0 0 0 0 0 0 0 0 0 0.0844755101018151 0.374211659140235 0.104387397285334 0 0 0 0 0 0 0 0 0 0 0 0 0 0 0 0 0 0 0 -0.634166273274912 0 0
0 0 0 0 0 0 0 0 0 0 0 0 0 0 0 0 0 0 0 0 0 0.219673649475857 0 0 0 0 0 0 0 0 0 0 0 0 0 0 0 0 0 0 0 0 0 0 0 0 0 0 -0.634166273274912 0
0 0 0 0 0 0 0 0 0 0 0 0 0 0 0 0 0 0 0 0 0 0 0 0 0 0 0 0 0 0 0 0 0 0 0 0 0 0 0.529490784105138 0.899341926625679 0.189102534632048 0.0775683642463476 0.262819231497933 0.327515533502716 0.439303620510457 0 0 0 0 -0.634166273274912
