-0.105847508269317 0 0 0 0 0 0 0 0 0 0 0 0 0 -0.527342881145928 0 0 0 0 0 0 0 0 0 0 0 0 0 0 0 0 0 0 0 0 0 0 0 0 0 0 0 0 0 0 0 0 0 0 0
0 -0.105847508269317 0 0 0 -0.726890460882585 0 0 0 0 0 0 0 0 0 0 0 0 0 0 0 0 0 0 0 0 0 0 0 0 0 0 -3.30887670864602 0 0 0 0 0 0 0 -0.866876234726831 0 0 0 0 0 0 0 0 0
0 0 -0.105847508269317 0 0 0 0 0 0 0 0 0 0 -0.32931259125892 0 0 0 0 0 0 0 -0.674186604564987 0 0 0 0 0 0 0 0 0 0 -0.679100096365633 0 0 0 0 0 0 0 -4.39709743867037 -5.96599852659738 0 0 0 0 0 0 0 0
0 0 0 -0.105847508269317 0 0 0 0 0 0 0 0 0 -0.40035349973124 0 0 0 -0.64224214989405 0 0 0 -0.0538151155413199 0 0 0 0 0 0 0 0 0 0 -0.218705439918089 0 0 0 0 0 0 0 -0.427725969868464 -0.587555513880643 0 0 0 0 0 0 0 0
0 0 0 0 -0.105847508269317 0 0 0 0 -1.60057775899522 0 0 0 -0.430524700960852 0 0 0 -0.270085206247602 -0.364966059431211 0 0 -2.49019900016582 0 0 0 0 0 0 0 0 0 0 -0.993080729794427 0 0 0 0 0 0 0 -2.57041144498203 -0.606826217563793 0 0 0 0 0 0 0 0
0 0.147059379106073 0 0 0 -0.105847508269317 0 0 0 0 0 0 0 -1.45572269341079 0 0 0 -1.5835096067377 -0.845053041083394 0 0 0 0 0 0 0 0 0 0 0 0 0 -0.512664104244291 0 0 0 0 0 0 0 -1.03875965150343 0 0 0 0 0 0 0 0 0
0 0 0 0 0 0 -0.105847508269317 0 0 0 0 0 0 -10.2307992006963 0 0 0 -0.391806378635737 -0.885463933894084 0 0 0 0 0 0 0 0 0 0 0 0 0 -1.2473820121611 0 0 0 0 0 0 0 -1.31277214588219 0 0 0 0 0 0 0 0 0
0 0 0 0 0 0 0 -0.105847508269317 -1.37671002132604 0 -4.60298218260933 0 0 -1.02696222296116 0 0 0 -0.333507987685222 -0.495698393096819 0 0 0 0 0 0 0 0 0 0 0 0 0 -8.56138480396881 0 0 0 0 0 0 0 -0.978125123514332 0 0 0 0 0 0 0 0 0
0 0 0 0 0 0 0 0.265703006872492 -0.105847508269317 0 -1.75873572383463 0 0 -0.616260103205254 0 0 -1.59814392476262 -1.33931245930707 -0.758193599095309 0 0 0 0 0 0 0 0 0 0 0 0 0 -1.22800406446549 0 -0.870381083290214 0 0 0 0 0 -0.39171581106231 0 0 0 0 0 0 0 0 0
0 0 0 0 0.302133282283875 0 0 0 0 -0.105847508269317 0 0 0 0 0 0 0 0 0 -0.744722525562205 0 0 0 0 0 0 0 0 0 0 0 0 0 0 0 0 0 -1.76635621483634 -0.342708566740359 0 0 0 0 -0.378071883812253 0 0 0 0 0 0
0 0 0 0 0 0 0 0.825732572599177 0.350494226997176 0 -0.105847508269317 0 0 0 0 0 0 0 0 -1.81432662269177 0 0 0 0 0 0 0 0 0 0 0 0 0 0 0 0 0 -0.867856950111544 0 0 0 0 0 -1.0505085618735 0 0 0 0 0 0
0 0 0 0 0 0 0 0 0 0 0 -0.105847508269317 0 0 0 0 0 0 0 -1.81464294420042 0 0 0 0 0 0 0 0 0 0 0 0 0 0 0 0 0 -1.36934350030806 0 0 0 0 0 -1.33982397281297 0 0 0 0 0 0
0 0 0 0 0 0 0 0 0 0 0 0 -0.105847508269317 0 0 0 0 0 0 -2.03039675801852 0 0 0 0 0 0 0 0 0 0 -0.202796295350426 0 0 0 0 0 0 -0.650919052693532 0 -0.167793229062087 0 0 0 -1.53339323863975 0 0 0 0 0 0
0 0 0.0678572118712406 0.078067616064482 0.0872391564006196 0.282929583063905 2.27811622061637 0.190997745064214 0.125126977949981 0 0 0 0 -0.105847508269317 0 0 0 0 0 -1.24304131691461 0 0 0 0 0 0 0 0 0 0 -0.836311688886672 0 0 0 0 0 0 -1.06231147525308 0 -0.857425227087597 0 0 0 0 0 0 0 0 0 -0.542290744792603
0.108163253346405 0 0 0 0 0 0 0 0 0 0 0 0 0 -0.105847508269317 0 0 0 0 -2.08208437104711 0 0 0 0 0 0 0 -3.29809006328341 0 0 -4.86463426852877 0 0 0 0 0 0 -1.14440664618142 0 0 0 0 0 0 0 0 0 0 0 -2.09146900251565
0 0 0 0 0 0 0 0 0 0 0 0 0 0 0 -0.105847508269317 0 0 0 -3.79361701298875 0 0 0 0 0 0 0 -1.1293150366332 0 0 -0.389501965415492 0 0 0 0 0 0 -0.957652668026716 0 0 0 0 0 0 0 0 0 0 0 -0.594096838160091
0 0 0 0 0 0 0 0 0.301549554484744 0 0 0 0 0 0 0 -0.105847508269317 0 0 -2.72057532145684 0 0 0 0 0 0 0 -0.284790767780038 0 0 -0.928595416739698 0 0 0 0 0 0 0 0 0 0 0 0 0 0 0 0 0 0 -0.813272044947613
0 0 0 0.133519657124953 0.0524008932856915 0.341763556024213 0.0821812119700863 0.0720947634685863 0.258787238485337 0 0 0 0 0 0 0 0 -0.105847508269317 0 -1.02239067756419 0 0 0 0 0 0 -0.75391432157844 0 0 0 -0.928451812409531 0 0 0 0 0 0 0 0 0 0 0 0 0 0 0 0 0 0 0
0 0 0 0 0.0714112340019123 0.158312979662922 0.186725343229281 0.0985949764563806 0.155215071928427 0 0 0 0 0 0 0 0 0 -0.105847508269317 0 0 0 0 -3.60895956049737 0 0 0 0 0 0 0 0 0 0 0 0 0 0 0 0 0 0 0 0 0 0 0 0 0 0
0 0 0 0 0 0 0 0 0 0.147758188488133 0.346719203642155 0.36783204509966 0.408151922366235 0.24054228348984 0.418489624518598 0.766617547502389 0.601466543774656 0.202752421923807 0 -0.105847508269317 0 0 0 -0.118352127708379 0 0 0 0 0 0 0 0 0 0 0 0 0 0 0 0 0 0 0 0 0 0 0 0 0 0
0 0 0 0 0 0 0 0 0 0 0 0 0 0 0 0 0 0 0 0 -0.105847508269317 0 -2.01841190044671 -1.49425689942219 0 0 0 0 0 0 0 0 0 0 0 0 0 0 0 0 0 0 0 0 0 0 0 0 0 0
0 0 0.133389912220168 0.0109409398678107 0.526786757312203 0 0 0 0 0 0 0 0 0 0 0 0 0 0 0 0 -0.105847508269317 0 -0.555100738745189 0 0 0 0 0 0 0 0 0 0 0 0 0 0 0 0 0 0 0 0 0 0 0 0 0 0
0 0 0 0 0 0 0 0 0 0 0 0 0 0 0 0 0 0 0 0 0.400165237647122 0 -0.105847508269317 0 0 0 0 0 0 0 0 0 0 0 0 0 0 0 0 0 0 0 0 0 0 0 0 0 0 0
0 0 0 0 0 0 0 0 0 0 0 0 0 0 0 0 0 0 0.707682701117739 0.025528684055266 0.289164128796319 0.113108545924119 0 -0.105847508269317 0 0 0 0 0 0 0 0 0 0 0 0 0 0 0 0 0 0 0 0 0 0 0 0 0 0
0 0 0 0 0 0 0 0 0 0 0 0 0 0 0 0 0 0 0 0 0 0 0 0 -0.105847508269317 0 0 0 -0.271959908266771 0 0 0 0 0 0 0 0 0 0 0 0 0 -2.25837433267093 0 0 0 -4.10110161286878 0 0 0
0 0 0 0 0 0 0 0 0 0 0 0 0 0 0 0 0 0 0 0 0 0 0 0 0 -0.105847508269317 0 0 0 0 0 0 0 0 0 0 -1.27853879335814 0 0 0 0 0 -0.387672267399182 0 0 0 -0.386795558696084 0 0 0
0 0 0 0 0 0 0 0 0 0 0 0 0 0 0 0 0 0.155049161603743 0 0 0 0 0 0 0 0 -0.105847508269317 0 0 0 0 0 0 0 0 0 -0.411466919857638 0 0 0 0 0 -0.533240037627698 0 0 0 -1.77041612426246 0 0 0
0 0 0 0 0 0 0 0 0 0 0 0 0 0 0.602222420703341 0.203451792334362 0.0548640476690904 0 0 0 0 0 0 0 0 0 0 -0.105847508269317 0 0 0 0 0 0 0 -2.54999030301314 0 0 0 0 0 0 -1.30042843418255 0 -3.36192216856589 0 -1.1852667553407 0 0 0
0 0 0 0 0 0 0 0 0 0 0 0 0 0 0 0 0 0 0 0 0 0 0 0 0.0544924725528121 0 0 0 -0.105847508269317 0 0 0 0 0 0 -0.274885571801487 0 0 0 0 0 0 -0.0998517878767187 0 0 0 0 0 0 0
0 0 0 0 0 0 0 0 0 0 0 0 0 0 0 0 0 0 0 0 0 0 0 0 0 0 0 0 0 -0.105847508269317 0 0 0 0 0 -1.0892057634279 0 0 0 0 0 0 -1.07474823787675 0 0 0 0 0 0 0
0 0 0 0 0 0 0 0 0 0 0 0 0.0402081387520557 0.151852140418541 0.973376623964662 0.075980531486166 0.183110682235762 0.173412189775115 0 0 0 0 0 0 0 0 0 0 0 0 -0.105847508269317 0 0 0 0 -3.65482229121204 0 0 0 0 0 0 -0.180936035731415 0 0 0 0 0 -1.79487873783847 0
0 0 0 0 0 0 0 0 0 0 0 0 0 0 0 0 0 0 0 0 0 0 0 0 0 0 0 0 0 0 0 -0.105847508269317 0 0 0 -0.499772633291404 0 0 0 0 0 0 -0.708123702882161 0 0 -0.874644091957708 0 0 -1.90459123558333 0
0 0.687798214083926 0.12813681825673 0.048111724678957 0.210682035261058 0.093774959689201 0.227544309562163 1.82270662993342 0.235189364322964 0 0 0 0 0 0 0 0 0 0 0 0 0 0 0 0 0 0 0 0 0 0 0 -0.105847508269317 0 0 0 0 0 0 0 0 0 -0.719398416623881 0 0 -1.07436742950791 0 0 0 0
0 0 0 0 0 0 0 0 0 0 0 0 0 0 0 0 0 0 0 0 0 0 0 0 0 0 0 0 0 0 0 0 0 -0.105847508269317 0 0 0 0 0 0 0 0 -1.63854188214801 0 0 -0.247809052534931 0 0 0 0
0 0 0 0 0 0 0 0 0.169595536380418 0 0 0 0 0 0 0 0 0 0 0 0 0 0 0 0 0 0 0 0 0 0 0 0 0 -0.105847508269317 0 0 0 0 0 0 0 0 0 0 -1.67956571051265 0 0 0 0
0 0 0 0 0 0 0 0 0 0 0 0 0 0 0 0 0 0 0 0 0 0 0 0 0 0 0 0.516045354423643 0.0523787651350123 0.224528434005422 0.734896998928049 0.0960365084401649 0 0 0 -0.105847508269317 0 0 0 0 0 0 0 0 0 -0.40323115038383 0 0 0 0
0 0 0 0 0 0 0 0 0 0 0 0 0 0 0 0 0 0 0 0 0 0 0 0 0 0.250712738191834 0.0817406227224675 0 0 0 0 0 0 0 0 0 -0.105847508269317 0 0 0 0 0 0 0 0 -1.72761244406992 0 0 0 0
0 0 0 0 0 0 0 0 0 0.334769612777516 0.182294127352655 0.257963664039573 0.130538771068617 0.197026867521583 0.24614301420381 0.184866539421743 0 0 0 0 0 0 0 0 0 0 0 0 0 0 0 0 0 0 0 0 0 -0.105847508269317 0 0 0 0 0 0 0 0 0 0 0 0
0 0 0 0 0 0 0 0 0 0.0662709583467718 0 0 0 0 0 0 0 0 0 0 0 0 0 0 0 0 0 0 0 0 0 0 0 0 0 0 0 0 -0.105847508269317 0 0 0 0 0 0 0 0 0 0 0
0 0 0 0 0 0 0 0 0 0 0 0 0.0351257369742554 0.179495091793986 0 0 0 0 0 0 0 0 0 0 0 0 0 0 0 0 0 0 0 0 0 0 0 0 0 -0.105847508269317 0 0 0 0 0 0 0 -1.37539176748457 0 0
0 0.164993430837073 0.803554101518137 0.0866431006167253 0.528579870310489 0.178244364139764 0.252029520462205 0.188552927140586 0.0752493968805286 0 0 0 0 0 0 0 0 0 0 0 0 0 0 0 0 0 0 0 0 0 0 0 0 0 0 0 0 0 0 0 -0.105847508269317 0 0 0 0 0 0 -0.606584103098332 0 0
0 0 1.10474729797906 0.124328232012193 0.122061062785539 0 0 0 0 0 0 0 0 0 0 0 0 0 0 0 0 0 0 0 0 0 0 0 0 0 0 0 0 0 0 0 0 0 0 0 0 -0.105847508269317 0 0 0 0 0 -1.6197285757278 0 0
0 0 0 0 0 0 0 0 0 0 0 0 0 0 0 0 0 0 0 0 0 0 0 0 0.414679195474507 0.0791041823629216 0.110348387794965 0.280856625317286 0.0197115665329683 0.221509150337117 0.0371927233849431 0.143354599509276 0.1450570329397 0.336808594897884 0 0 0 0 0 0 0 0 -0.105847508269317 0 0 0 0 0 0 0
0 0 0 0 0 0 0 0 0 0.0793199744090704 0.215332436448019 0.24993452922501 0.32373153868106 0 0 0 0 0 0 0 0 0 0 0 0 0 0 0 0 0 0 0 0 0 0 0 0 0 0 0 0 0 0 -0.105847508269317 0 0 0 0 0 0
0 0 0 0 0 0 0 0 0 0 0 0 0 0 0 0 0 0 0 0 0 0 0 0 0 0 0 0.646809866104728 0 0 0 0 0 0 0 0 0 0 0 0 0 0 0 0 -0.105847508269317 0 0 0 0 0
0 0 0 0 0 0 0 0 0 0 0 0 0 0 0 0 0 0 0 0 0 0 0 0 0 0 0 0 0 0 0 0.171234711712549 0.23829820393198 0.0436142576783718 0.328962696964137 0.0836687571533426 0.359700665544584 0 0 0 0 0 0 0 0 -0.105847508269317 0 0 0 0
0 0 0 0 0 0 0 0 0 0 0 0 0 0 0 0 0 0 0 0 0 0 0 0 0.859020427580828 0.0752407529921276 0.336216202045366 0.2349445659017 0 0 0 0 0 0 0 0 0 0 0 0 0 0 0 0 0 0 -0.105847508269317 0 0 0
0 0 0 0 0 0 0 0 0 0 0 0 0 0 0 0 0 0 0 0 0 0 0 0 0 0 0 0 0 0 0 0 0 0 0 0 0 0 0 0.277167537436009 0.124449367160561 0.321923748983846 0 0 0 0 0 -0.105847508269317 0 0
0 0 0 0 0 0 0 0 0 0 0 0 0 0 0 0 0 0 0 0 0 0 0 0 0 0 0 0 0 0 0.356938491254295 0.381950547071468 0 0 0 0 0 0 0 0 0 0 0 0 0 0 0 0 -0.105847508269317 0
0 0 0 0 0 0 0 0 0 0 0 0 0 0.104673793801256 0.424634697426608 0.120494138989159 0.155578366494164 0 0 0 0 0 0 0 0 0 0 0 0 0 0 0 0 0 0 0 0 0 0 0 0 0 0 0 0 0 0 0 0 -0.105847508269317
