2.68063362550411
2.13059404823824
4.11698951628915
0.179604635879572
0.733444034103542
0.6317992903216
0.231859673949523
0.234217151320743
1.05125969749821
1.05929972388615
3.21103933577671
0.662357746580465
1.66663512247589
7.22768831154059
2.75450159902337
3.57049452038013
2.50468138942486
0.555639817040259
1.70714055399297
2.86004014461419
3.55735330028572
3.24495304995968
3.16458168004647
7.16888205247694
2.31076383493359
0.403709348553619
0.243715130580614
0.0862047507404802
0.990951371521389
2.04015752027716
0.464514171268287
0.121480901315656
0.797803685060877
3.03590415799148
0.494652712460709
0.91042854648251
0.596606706725181
2.96458796221632
0.356617586618424
1.90673038291507
0.703572099218742
1.67883317640037
1.16095905533915
2.292660225053
0.467123163289325
0.260368790168091
0.339711337533341
2.4118860530204
2.81760546508199
1.5538251268163
