-0.172496395337435 -1.14441814554795 -1.9917624983504 0 0 0 0 0 0 0 0 0 0 0 0 0 0 0 0 0 0 0 0 0 0 0 0 0 0 0 0 0 0 0 0 0 0 0 0 0 0 0 0 0 0 0 0 0 0 0
0.236134119854417 -0.172496395337435 -0.5335120316407 -2.785121998217 0 0 0 0 0 0 0 0 -1.78592585495057 0 0 0 0 0 0 0 0 0 0 0 0 0 0 0 0 0 0 0 0 0 0 0 0 0 0 0 0 0 0 0 0 0 0 0 0 0
0.397672908581795 0.105249848731815 -0.172496395337435 0 0 0 0 0 0 0 0 0 0 0 0 0 0 0 -0.71379559918828 0 0 -0.337518368037125 0 -1.2601114828052 0 0 0 0 0 0 0 0 0 0 0 0 0 0 0 0 0 0 0 0 0 0 0 0 0 0
0 0.559724073003165 0 -0.172496395337435 0 0 0 0 0 0 0 0 0 0 0 0 0 0 -0.595360279103069 0 0 -1.33199313651912 0 -1.98437850562975 0 0 0 0 0 -2.31149428316846 0 0 0 0 0 0 0 0 0 0 0 0 0 0 0 0 0 0 0 0
0 0 0 0 -0.172496395337435 0 0 0 0 0 0 0 0 0 0 0 0 0 -0.767533873138885 0 0 -1.42380609263151 0 -1.38994893261798 0 0 0 0 0 -0.825634033250751 0 0 0 0 0 0 0 0 0 0 0 -0.90388308613606 0 0 0 0 0 0 0 0
0 0 0 0 0 -0.172496395337435 0 0 0 0 0 0 0 0 0 0 -3.317408167555 0 -3.4765070780023 -0.400613654222329 0 -0.508971908930068 0 0 -0.397644624501404 0 0 0 0 -1.10895493748093 0 0 0 0 0 0 0 0 0 0 0 -1.56812553288367 0 0 0 0 0 0 0 0
0 0 0 0 0 0 -0.172496395337435 0 0 0 0 0 0 0 0 0 0 0 0 0 0 0 0 0 0 0 0 0 0 0 0 0 0 0 0 -2.12388790355288 0 0 0 0 0 0 0 0 0 0 0 0 0 0
0 0 0 0 0 0 0 -0.172496395337435 0 0 0 0 0 0 0 0 0 0 0 0 0 0 0 0 0 0 0 0 0 0 0 0 0 0 0 -0.78742185240776 0 0 0 0 0 0 0 0 0 0 0 0 0 0
0 0 0 0 0 0 0 0 -0.172496395337435 0 0 0 0 0 0 -1.12248254540389 0 0 0 0 0 0 -1.07547486779956 0 0 0 0 0 -2.95589329379649 0 0 0 0 0 0 -1.1045315721892 0 0 0 0 0 0 0 0 0 -0.850327667017477 0 -0.440388130812207 0 0
0 0 0 0 0 0 0 0 0 -0.172496395337435 0 0 0 0 0 -0.654258121083096 0 0 0 0 0 0 -0.612136392594035 0 0 0 0 0 -0.787978560338318 0 0 0 0 0 0 -0.658916123238808 0 0 0 0 0 0 0 0 0 -0.532129852755624 0 0 0 0
0 0 0 0 0 0 0 0 0 0 -0.172496395337435 0 0 0 0 -0.587644597860063 0 0 0 0 0 0 -1.74566766224252 0 0 0 0 0 -0.187807901032543 0 0 0 0 0 0 -0.781734348952814 0 0 0 0 0 0 0 0 0 -0.870908133953831 0 0 0 0
0 0 0 0 0 0 0 0 0 0 0 -0.172496395337435 0 -0.797986365980146 0 0 0 0 0 0 0 0 -0.160353166040889 0 0 0 0 0 -2.42543711855703 0 0 0 0 0 0 0 0 0 0 0 0 0 0 0 0 -1.42186599937956 0 0 0 0
0 0.350793366092622 0 0 0 0 0 0 0 0 0 0 -0.172496395337435 -3.25039955741792 0 0 0 0 0 0 0 0 -0.645687722146116 0 0 0 0 0 -3.39251229782506 0 0 0 0 0 0 0 0 0 0 0 0 0 0 0 0 -0.871894281454334 0 0 0 0
0 0 0 0 0 0 0 0 0 0 0 0.163458259072428 0.667861843178676 -0.172496395337435 0 0 0 0 0 0 0 0 0 0 0 0 0 0 -0.606693897874302 0 0 0 0 0 0 0 0 0 0 0 0 0 0 0 0 -0.808712643044607 0 0 0 -1.06298843603427
0 0 0 0 0 0 0 0 0 0 0 0 0 0 -0.172496395337435 0 0 0 0 0 0 0 0 0 0 0 0 0 -1.30305944361027 0 0 0 0 0 0 0 0 0 0 0 0 0 0 0 0 -1.76621055390568 0 0 0 0
0 0 0 0 0 0 0 0 0.213093929093205 0.126541791410402 0.112873670845646 0 0 0 0 -0.172496395337435 0 0 0 0 0 0 0 0 0 0 0 0 -2.07714096132797 0 0 0 0 0 0 0 0 0 0 0 0 0 0 0 0 -3.3702496681269 0 0 0 0
0 0 0 0 0 0.673985635028235 0 0 0 0 0 0 0 0 0 0 -0.172496395337435 0 0 0 0 0 0 0 0 0 0 0 -1.47331614862162 0 0 0 0 0 0 0 0 0 0 0 0 0 0 0 0 -2.29877476298001 0 0 0 0
0 0 0 0 0 0 0 0 0 0 0 0 0 0 0 0 0 -0.172496395337435 0 0 -1.7248634651443 0 0 0 0 0 0 0 -0.991033651045791 0 0 0 0 0 0 0 0 0 0 0 0 0 0 0 0 -1.37371437285338 0 0 0 0
0 0 0.152901552569065 0.12998725726794 0.146337123622547 0.756530232001037 0 0 0 0 0 0 0 0 0 0 0 0 -0.172496395337435 0 0 0 0 0 0 -0.440592346424544 0 -0.639020362508289 -1.40085648312204 0 0 0 -1.03080937444181 0 0 0 0 0 0 0 0 0 0 0 0 -2.88996044365996 0 0 0 0
0 0 0 0 0 0.0746902377257836 0 0 0 0 0 0 0 0 0 0 0 0 0 -0.172496395337435 0 0 0 0 0 -0.325905281428159 0 -0.243419586138704 -0.23812123912804 0 0 0 -1.65610288212987 0 0 0 0 0 0 0 0 0 0 0 0 -0.246609579860527 0 0 0 0
0 0 0 0 0 0 0 0 0 0 0 0 0 0 0 0 0 0.328423985831965 0 0 -0.172496395337435 0 0 0 0 -3.0968319100564 0 -1.04388363691325 -0.714405480324948 0 0 0 -1.71345994971933 0 0 0 0 0 0 0 0 0 0 0 0 0 0 0 0 0
0 0 0.0659178213045597 0.264368004139355 0.287113364064947 0.11245971830647 0 0 0 0 0 0 0 0 0 0 0 0 0 0 0 -0.172496395337435 0 0 0 0 0 -1.0916381751531 -2.08423391757741 0 0 0 -1.89621449125169 0 0 0 0 0 0 0 0 0 0 0 0 0 0 0 0 0
0 0 0 0 0 0 0 0 0.223763896685796 0.124956580876581 0.359380740546302 0.0280740601794142 0.13527633702606 0 0 0 0 0 0 0 0 0 -0.172496395337435 0 0 0 0 -1.2725066998778 -0.212840676398543 0 0 0 -2.56009082825679 0 0 0 0 0 0 0 0 0 0 0 0 0 0 0 0 0
0 0 0.234839570816857 0.375221647875332 0.275001007929821 0 0 0 0 0 0 0 0 0 0 0 0 0 0 0 0 0 0 -0.172496395337435 0 0 0 0 0 0 0 0 0 0 0 0 0 0 0 0 0 0 0 0 0 0 0 0 0 0
0 0 0 0 0 0.0670566848510189 0 0 0 0 0 0 0 0 0 0 0 0 0 0 0 0 0 0 -0.172496395337435 0 0 0 0 0 0 0 0 0 0 0 0 0 0 0 0 0 0 0 0 0 0 0 0 0
0 0 0 0 0 0 0 0 0 0 0 0 0 0 0 0 0 0 0.0928913275234048 0.0655753481583451 0.643653033521136 0 0 0 0 -0.172496395337435 0 0 0 0 0 0 0 -2.54607037164664 -0.153019467438733 0 0 0 0 0 0 0 0 0 0 0 -3.05800439287781 0 0 0
0 0 0 0 0 0 0 0 0 0 0 0 0 0 0 0 0 0 0 0 0 0 0 0 0 0 -0.172496395337435 0 0 0 0 0 0 -0.152540811894113 0 0 0 -1.66182314777321 0 0 0 0 0 0 0 0 0 0 0 0
0 0 0 0 0 0 0 0 0 0 0 0 0 0 0 0 0 0 0.133610529048408 0.0507428485024592 0.199022067135726 0.21158010270552 0.264162464333522 0 0 0 0 -0.172496395337435 0 0 0 0 0 0 0 0 0 -0.660152844793429 0 0 -1.16547110142012 0 0 0 0 0 0 0 0 0
0 0 0 0 0 0 0 0 0.618556708916504 0.155932869239418 0.0381684536071178 0.484175346738631 0.62607603365329 0.11113749446102 0.250891242137225 0.419315461136273 0.309152085031811 0.195155529647895 0.299018314032713 0.0482031035579989 0.150359690364673 0.44139966192049 0.0401121470040966 0 0 0 0 0 -0.172496395337435 0 0 0 0 0 0 0 0 -0.731153118385712 -1.34994434077096 0 -3.48682691795202 0 0 0 0 0 0 0 0 0
0 0 0 0.488948101712056 0.164430204469362 0.222734211383534 0 0 0 0 0 0 0 0 0 0 0 0 0 0 0 0 0 0 0 0 0 0 0 -0.172496395337435 0 0 0 0 0 0 0 -0.122808290460388 -0.285957808390166 0 -7.50010197752367 0 0 0 0 0 0 0 0 0
0 0 0 0 0 0 0 0 0 0 0 0 0 0 0 0 0 0 0 0 0 0 0 0 0 0 0 0 0 0 -0.172496395337435 0 0 0 0 0 0 -4.02354505825347 -0.831033696538307 0 -2.01358863650558 0 0 0 0 0 0 0 0 0
0 0 0 0 0 0 0 0 0 0 0 0 0 0 0 0 0 0 0 0 0 0 0 0 0 0 0 0 0 0 0 -0.172496395337435 0 0 0 0 -2.78309276729938 -7.55203456892989 -1.45689709460961 0 -0.955014688458592 0 0 0 0 0 0 0 0 0
0 0 0 0 0 0 0 0 0 0 0 0 0 0 0 0 0 0 0.22250698299431 0.290028233521035 0.33315520212374 0.361965889619299 0.545330102302126 0 0 0 0 0 0 0 0 0 -0.172496395337435 0 0 0 0 -0.349771275016282 -2.6625826253826 -1.04884538623931 -1.52889001595278 0 0 0 0 0 0 0 0 0
0 0 0 0 0 0 0 0 0 0 0 0 0 0 0 0 0 0 0 0 0 0 0 0 0 0.524518223395057 0.0284000266791193 0 0 0 0 0 0 -0.172496395337435 0 0 0 -3.73570522852714 -0.671812815759109 -2.75946982019476 -0.120649973190005 0 0 0 0 0 0 0 0 0
0 0 0 0 0 0 0 0 0 0 0 0 0 0 0 0 0 0 0 0 0 0 0 0 0 0.0318828185685781 0 0 0 0 0 0 0 0 -0.172496395337435 0 0 -2.50962868443523 -0.972272771833501 -4.66915257085698 -0.500980244997588 0 0 0 0 0 0 0 0 0
0 0 0 0 0 0 0.457959603089622 0.146318762753602 0.230960558147385 0.132246417034453 0.163399456414781 0 0 0 0 0 0 0 0 0 0 0 0 0 0 0 0 0 0 0 0 0 0 0 0 -0.172496395337435 0 -0.0802149566288912 -0.480525263290258 -1.49174442713433 -3.90866535795493 0 0 0 0 0 0 0 0 0
0 0 0 0 0 0 0 0 0 0 0 0 0 0 0 0 0 0 0 0 0 0 0 0 0 0 0 0 0 0 0 0.5385815444902 0 0 0 0 -0.172496395337435 0 0 0 -0.36608629241397 0 0 0 0 0 0 0 0 0
0 0 0 0 0 0 0 0 0 0 0 0 0 0 0 0 0 0 0 0 0 0 0 0 0 0 0.32733356865112 0.126688066044619 0.14261917822728 0.0261390039213663 0.797390031945713 1.48077696338205 0.0680439860931188 0.695097435985298 0.475394348089003 0.0167668035091759 0 -0.172496395337435 0 0 -1.00475275406161 0 0 0 0 0 0 0 0 0
0 0 0 0 0 0 0 0 0 0 0 0 0 0 0 0 0 0 0 0 0 0 0 0 0 0 0 0 0.261863013117308 0.0554517123448797 0.168213756775614 0.302695003510084 0.560535688765762 0.140433785598852 0.192174153288183 0.0866902819616261 0 0 -0.172496395337435 0 -0.108078163300111 0 0 0 0 0 0 0 0 0
0 0 0 0 0 0 0 0 0 0 0 0 0 0 0 0 0 0 0 0 0 0 0 0 0 0 0 0 0 0 0 0 0.206815324909049 0.567131551077642 0.965135812698929 0.306446810966216 0 0 0 -0.172496395337435 -0.396537356467083 0 0 0 0 0 0 0 0 0
0 0 0 0 0 0 0 0 0 0 0 0 0 0 0 0 0 0 0 0 0 0 0 0 0 0 0 0.212113514005058 0.724412948832213 1.33777807452521 0.442684805445622 0.194515876187796 0.294303636088901 0.0241345668851445 0.0994079869821209 0.788705499645287 0.0707059515732488 0.198227597213051 0.020650225650669 0.0824311169106924 -0.172496395337435 0.197043733350349 0.517778063461923 0 0 0 0 0 0 0
0 0 0 0 0.169288179694858 0.313589533826523 0 0 0 0 0 0 0 0 0 0 0 0 0 0 0 0 0 0 0 0 0 0 0 0 0 0 0 0 0 0 0 0 0 0 -0.982621805767082 -0.172496395337435 0 0 0 0 0 0 0 0
0 0 0 0 0 0 0 0 0 0 0 0 0 0 0 0 0 0 0 0 0 0 0 0 0 0 0 0 0 0 0 0 0 0 0 0 0 0 0 0 -2.7975511608601 0 -0.172496395337435 0 0 0 0 0 -0.867449483799382 0
0 0 0 0 0 0 0 0 0 0 0 0 0 0 0 0 0 0 0 0 0 0 0 0 0 0 0 0 0 0 0 0 0 0 0 0 0 0 0 0 0 0 0 -0.172496395337435 1.06555648762766 0.18913474541753 0 0 0 0
0 0 0 0 0 0 0 0 0 0 0 0 0 0 0 0 0 0 0 0 0 0 0 0 0 0 0 0 0 0 0 0 0 0 0 0 0 0 0 0 0 0 0 -5.19282035629821 -0.172496395337435 0 0 0 0 0
0 0 0 0 0 0 0 0 0.172795881103565 0.104404302217159 0.171822270082707 0.265151821106469 0.185159719770194 0.158700601361836 0.363230596636302 0.698047403652631 0.485160116779143 0.270471420281143 0.526263621409317 0.0490797020240101 0 0 0 0 0 0 0 0 0 0 0 0 0 0 0 0 0 0 0 0 0 0 0 -0.967681243621477 0 -0.172496395337435 0 0 0 0
0 0 0 0 0 0 0 0 0 0 0 0 0 0 0 0 0 0 0 0 0 0 0 0 0 0.603733093635052 0 0 0 0 0 0 0 0 0 0 0 0 0 0 0 0 0 0 0 0 -0.172496395337435 0 0 0
0 0 0 0 0 0 0 0 0.0870495686412087 0 0 0 0 0 0 0 0 0 0 0 0 0 0 0 0 0 0 0 0 0 0 0 0 0 0 0 0 0 0 0 0 0 0 0 0 0 0 -0.172496395337435 0 0
0 0 0 0 0 0 0 0 0 0 0 0 0 0 0 0 0 0 0 0 0 0 0 0 0 0 0 0 0 0 0 0 0 0 0 0 0 0 0 0 0 0 0.164432610533671 0 0 0 0 0 -0.172496395337435 0
0 0 0 0 0 0 0 0 0 0 0 0 0 0.196942601583212 0 0 0 0 0 0 0 0 0 0 0 0 0 0 0 0 0 0 0 0 0 0 0 0 0 0 0 0 0 0 0 0 0 0 0 -0.172496395337435
