-0.0818846369186132 0 0 0 0 0 0 0 0 0 0 -2.63717606930678 0 0 0 0 0 0 0 0 0 0 0 0 0 0 0 0 0 0 0 0 0 0 0 0 0 0 0 0 0 0 0 0 0 0 0 0 0 0
0 -0.0818846369186132 0 0 0 0 -8.1587369676081 -0.513580465812374 0 0 0 0 0 0 0 0 0 0 0 -0.697510009160254 0 0 0 0 -0.453439143843451 -1.03567323770405 0 0 0 0 0 0 0 0 0 0 0 0 0 -0.915221461403011 0 0 0 0 0 0 0 0 0 0
0 0 -0.0818846369186132 0 0 0 0 0 0 0 0 0 0 0 0 0 0 0 0 -4.30829566471545 0 0 0 0 0 -0.572499164032236 0 0 0 0 0 0 0 0 0 0 0 0 0 0 0 0 0 0 0 0 0 0 0 0
0 0 0 -0.0818846369186132 0 0 0 0 0 0 0 0 0 0 0 0 0 0 0 -1.86990377175311 0 0 0 -2.34968759013632 0 0 0 0 0 0 0 0 0 0 0 0 0 0 0 0 0 0 0 0 0 0 0 0 0 0
0 0 0 0 -0.0818846369186132 0 0 0 0 0 0 0 0 0 0 0 0 0 0 -1.52793428007297 0 0 0 -2.49922668380202 0 0 0 0 0 0 0 0 0 0 0 0 0 0 0 0 0 0 0 0 0 0 0 -1.8079100561257 0 0
0 0 0 0 0 -0.0818846369186132 0 0 0 0 0 0 -1.29443525990779 0 0 0 0 -0.478648429827001 0 -0.329694913059904 0 0 0 -2.23733432700989 0 0 0 0 0 0 0 0 0 0 0 0 0 0 0 0 0 0 0 0 0 0 0 0 0 0
0 1.61692743544924 0 0 0 0 -0.0818846369186132 0 0 0 0 0 -1.99154747340574 0 0 0 0 -0.671826517706269 0 0 -0.300412202583881 0 0 0 0 0 0 0 0 0 0 0 0 0 0 0 0 0 0 0 0 0 0 0 0 0 0 0 0 0
0 0.0981674501231563 0 0 0 0 0 -0.0818846369186132 0 0 0 0 -0.223300028079153 0 0 0 0 -0.184676631950449 0 0 -0.364258345108309 0 0 0 0 0 0 0 0 0 0 0 0 0 0 0 0 0 0 0 0 0 0 0 0 0 0 0 0 0
0 0 0 0 0 0 0 0 -0.0818846369186132 0 0 0 -0.451237978639167 0 0 0 0 0 0 0 -0.290733214179463 0 0 0 0 0 0 0 0 0 0 0 0 0 0 0 0 0 0 0 0 0 0 0 0 0 0 0 0 0
0 0 0 0 0 0 0 0 0 -0.0818846369186132 0 0 -1.26537647366672 0 0 0 0 0 0 0 0 0 0 0 0 0 0 0 0 0 0 0 0 0 0 0 0 0 0 0 0 0 0 0 0 0 0 0 0 0
0 0 0 0 0 0 0 0 0 0 -0.0818846369186132 0 0 -0.260812103999017 -2.24112525785736 0 0 0 0 0 0 0 0 0 0 0 0 0 0 0 0 0 0 0 0 0 0 0 0 0 0 0 0 0 0 0 0 0 0 0
0.50552676395904 0 0 0 0 0 0 0 0 0 0 -0.0818846369186132 0 0 -0.536873485440668 0 -1.76739711578715 0 -0.31634431296162 0 0 0 0 0 0 0 0 0 0 0 -0.252166659396401 0 0 0 -1.51799771420099 0 0 0 0 0 0 0 0 0 0 0 0 0 0 0
0 0 0 0 0 0.258611810018989 0.39035900411511 0.0468742458649697 0.0844082754153922 0.25941254525435 0 0 -0.0818846369186132 0 -3.93881575952667 0 -0.676658514474452 0 -0.491914918897712 0 0 0 0 0 0 0 0 0 0 0 -0.551715037351864 0 0 0 -0.694439971859074 0 0 0 0 0 0 0 0 0 0 0 0 0 0 0
0 0 0 0 0 0 0 0 0 0 0.0513888856246541 0 0 -0.0818846369186132 0 0 -0.437723703063486 0 0 0 0 0 0 0 0 0 0 0 0 0 -1.32687402831627 0 0 0 -2.74007278309129 0 0 0 0 0 0 0 0 0 0 0 0 0 0 -0.658181399057307
0 0 0 0 0 0 0 0 0 0 0.40040595401332 0.0972583184184997 0.842493345869619 0 -0.0818846369186132 0 0 0 0 0 0 0 0 0 0 0 0 0 0 0 -0.187577244315622 0 0 0 -2.92161147773029 0 0 0 0 0 0 0 0 0 0 0 0 0 0 -0.291148210207624
0 0 0 0 0 0 0 0 0 0 0 0 0 0 0 -0.0818846369186132 0 0 0 0 0 -4.75535187644728 0 0 0 0 0 0 0 0 0 -1.38176094488629 -1.16356436515567 0 -1.44879917017397 0 0 0 0 0 0 0 0 0 0 0 0 0 0 0
0 0 0 0 0 0 0 0 0 0 0 0.366768036498668 0.137173137322272 0.0850890224935707 0 0 -0.0818846369186132 0 0 0 0 -0.955896870054481 0 0 0 0 0 0 0 0 0 0 -0.54111320768204 0 -2.7431790091354 0 0 0 0 0 0 0 0 0 0 0 0 0 0 0
0 0 0 0 0 0.0962502568043618 0.136577245929333 0.0357242584287304 0 0 0 0 0 0 0 0 0 -0.0818846369186132 0 0 0 -0.257600226109164 0 0 0 0 0 0 0 0 0 0 -1.03157827782109 0 -0.287157764585045 0 0 0 0 0 0 0 0 0 0 0 0 0 0 0
0 0 0 0 0 0 0 0 0 0 0 0.0608182027265813 0.0986409700636821 0 0 0 0 0 -0.0818846369186132 0 0 0 0 0 0 0 -0.247617825646014 0 0 0 0 0 -0.0920194387619554 0 0 0 0 0 0 0 0 0 0 0 -3.31732211629808 0 0 0 -1.28551929567919 0
0 0.145529837482091 0.942449445680269 0.351516226654809 0.304747429203573 0.0681733648902152 0 0 0 0 0 0 0 0 0 0 0 0 0 -0.0818846369186132 0 0 0 0 0 0 0 -0.728785327480607 0 0 0 0 0 0 0 0 0 0 0 0 0 0 0 0 -5.42187816951124 0 0 0 -0.991401037474245 0
0 0 0 0 0 0 0.0591504096624716 0.0725928619882136 0.0581012730780843 0 0 0 0 0 0 0 0 0 0 0 -0.0818846369186132 0 0 0 0 0 0 -0.925325493601737 0 0 0 0 0 0 0 0 0 0 0 0 0 0 0 0 -2.87652129843058 0 0 0 -1.14584391795662 0
0 0 0 0 0 0 0 0 0 0 0 0 0 0 0 1.0308513442923 0.165792232735148 0.0559456972480928 0 0 0 -0.0818846369186132 0 0 0 0 0 -1.57149241921783 0 0 0 0 0 0 0 0 -5.64221869626545 0 0 0 0 0 0 0 -0.238997562282006 0 0 0 -1.68548158733585 0
0 0 0 0 0 0 0 0 0 0 0 0 0 0 0 0 0 0 0 0 0 0 -0.0818846369186132 0 0 0 0 -3.61712796003619 0 0 0 0 0 0 0 0 -1.10405641205978 0 0 0 0 0 0 0 -2.39395649180917 0 0 0 -3.68833838912071 0
0 0 0 0.489170815414828 0.507794835062468 0.443480602547803 0 0 0 0 0 0 0 0 0 0 0 0 0 0 0 0 0 -0.0818846369186132 0 0 0 -1.47466024229423 0 0 0 0 0 0 0 0 -3.40998693511517 0 0 0 0 0 0 0 -0.195126119886654 0 0 0 -2.03912615489421 0
0 0.0974798143923842 0 0 0 0 0 0 0 0 0 0 0 0 0 0 0 0 0 0 0 0 0 0 -0.0818846369186132 0 0 -0.432306678078267 0 0 0 0 0 0 0 0 -2.22709121230618 0 0 0 0 0 0 0 -0.293702097000862 0 0 0 -0.413839716915991 0
0 0.217130942546748 0.113450540577001 0 0 0 0 0 0 0 0 0 0 0 0 0 0 0 0 0 0 0 0 0 0 -0.0818846369186132 0 0 0 0 0 0 0 0 0 0 0 0 0 0 0 0 0 0 -1.17009186289894 0 0 0 -1.99860161047094 0
0 0 0 0 0 0 0 0 0 0 0 0 0 0 0 0 0 0 0.0511436512619127 0 0 0 0 0 0 0 -0.0818846369186132 0 0 0 0 0 0 0 0 0 0 0 0 0 0 0 0 0 -5.70713961969882 0 0 0 -6.43650520177193 0
0 0 0 0 0 0 0 0 0 0 0 0 0 0 0 0 0 0 0 0.140779722865282 0.168938296529861 0.317935516395952 0.691883303367655 0.31598739300302 0.0897621539613091 0 0 -0.0818846369186132 0 0 0 0 0 0 0 0 0 0 0 0 0 0 0 0 -0.431216437673719 0 0 0 -0.191912789665251 0
0 0 0 0 0 0 0 0 0 0 0 0 0 0 0 0 0 0 0 0 0 0 0 0 0 0 0 0 -0.0818846369186132 0 0 0 0 0 0 0 0 0 0 0 0 0 0 0 0 0 0 0 -0.223974679777411 0
0 0 0 0 0 0 0 0 0 0 0 0 0 0 0 0 0 0 0 0 0 0 0 0 0 0 0 0 0 -0.0818846369186132 0 0 0 0 0 -0.526972387711544 0 0 0 0 0 0 0 -1.41751230805855 0 0 0 0 -2.97374415041619 0
0 0 0 0 0 0 0 0 0 0 0 0.0530133081133089 0.106359726851363 0.248990522803587 0.0389813658650145 0 0 0 0 0 0 0 0 0 0 0 0 0 0 0 -0.0818846369186132 0 0 0 0 -0.152531212568867 0 0 0 0 0 0 0 -0.195837868227222 0 0 0 0 0 0
0 0 0 0 0 0 0 0 0 0 0 0 0 0 0 0.260136835331691 0 0 0 0 0 0 0 0 0 0 0 0 0 0 0 -0.0818846369186132 0 0 0 0 0 0 0 0 0 0 -1.08879883827262 -2.40979256300683 0 0 0 0 0 0
0 0 0 0 0 0 0 0 0 0 0 0 0 0 0 0.221276837507819 0.121457358271862 0.216450818003071 0.0177169948180464 0 0 0 0 0 0 0 0 0 0 0 0 0 -0.0818846369186132 0 0 0 0 0 0 0 0 0 -0.249849000507574 -1.43670818336643 0 0 0 0 0 0
0 0 0 0 0 0 0 0 0 0 0 0 0 0 0 0 0 0 0 0 0 0 0 0 0 0 0 0 0 0 0 0 0 -0.0818846369186132 0 0 0 -0.598469356282814 0 0 -2.63653146883435 -0.184909484327388 -0.72003039525268 0 0 0 -1.06299028426399 0 0 0
0 0 0 0 0 0 0 0 0 0 0 0.290246223471016 0.146555321875015 0.542657147449565 0.586452054369559 0.267437134562344 0.615181245359384 0.0590625779847328 0 0 0 0 0 0 0 0 0 0 0 0 0 0 0 0 -0.0818846369186132 0 0 -0.254503893690299 0 0 -3.82752506016336 -1.01378251177431 -3.87925653211949 0 0 0 -0.456066466424899 0 0 0
0 0 0 0 0 0 0 0 0 0 0 0 0 0 0 0 0 0 0 0 0 0 0 0 0 0 0 0 0 0.100620716655203 0.0311961998906971 0 0 0 0 -0.0818846369186132 0 0 0 0 -2.05550188152989 0 -1.91068388319931 0 0 0 0 0 0 0
0 0 0 0 0 0 0 0 0 0 0 0 0 0 0 0 0 0 0 0 0 1.11212020133145 0.217727849406603 0.657811816341958 0.436719889022138 0 0 0 0 0 0 0 0 0 0 0 -0.0818846369186132 0 0 0 -2.08137647743136 0 0 0 0 0 0 0 0 0
0 0 0 0 0 0 0 0 0 0 0 0 0 0 0 0 0 0 0 0 0 0 0 0 0 0 0 0 0 0 0 0 0 0.113559835860602 0.0486550366033178 0 0 -0.0818846369186132 0 0 0 0 0 0 0 -1.1888910664245 0 0 0 0
0 0 0 0 0 0 0 0 0 0 0 0 0 0 0 0 0 0 0 0 0 0 0 0 0 0 0 0 0 0 0 0 0 0 0 0 0 0 -0.0818846369186132 0 0 0 0 0 0 -5.14964371958575 0 0 0 0
0 0.194497863489493 0 0 0 0 0 0 0 0 0 0 0 0 0 0 0 0 0 0 0 0 0 0 0 0 0 0 0 0 0 0 0 0 0 0 0 0 0 -0.0818846369186132 0 0 0 0 0 -1.82674765154968 0 0 0 0
0 0 0 0 0 0 0 0 0 0 0 0 0 0 0 0 0 0 0 0 0 0 0 0 0 0 0 0 0 0 0 0 0 0.53298535597419 0.762582682537244 0.41596202373667 0.38686915810774 0 0 0 -0.0818846369186132 0 0 0 0 0 0 0 0 0
0 0 0 0 0 0 0 0 0 0 0 0 0 0 0 0 0 0 0 0 0 0 0 0 0 0 0 0 0 0 0 0 0 0.0373355562409892 0.20854882793154 0 0 0 0 0 0 -0.0818846369186132 0 0 0 0 0 0 0 0
0 0 0 0 0 0 0 0 0 0 0 0 0 0 0 0 0 0 0 0 0 0 0 0 0 0 0 0 0 0 0 0.208346874477622 0.0481611358331325 0.140193034706581 0.785348170165973 0.337438880630175 0 0 0 0 0 0 -0.0818846369186132 0 0 0 0 0 0 0
0 0 0 0 0 0 0 0 0 0 0 0 0 0 0 0 0 0 0 0 0 0 0 0 0 0 0 0 0 0.293760839764804 0.0411168292920907 0.480805691807972 0.285850563893436 0 0 0 0 0 0 0 0 0 0 -0.0818846369186132 0 0 0 0 0 0
0 0 0 0 0 0 0 0 0 0 0 0 0 0 0 0 0 0 0.727226437537417 1.0487799689407 0.610254359468318 0.0464542278331309 0.460437876098572 0.039218356539684 0.0630956897080126 0.217270811488246 1.19717561169465 0.0852961156021675 0 0 0 0 0 0 0 0 0 0 0 0 0 0 0 0 -0.0818846369186132 0 0 0 0 0
0 0 0 0 0 0 0 0 0 0 0 0 0 0 0 0 0 0 0 0 0 0 0 0 0 0 0 0 0 0 0 0 0 0 0 0 0 0.221650817372094 1.02312596172408 0.398857285122048 0 0 0 0 0 -0.0818846369186132 0 0 0 0
0 0 0 0 0 0 0 0 0 0 0 0 0 0 0 0 0 0 0 0 0 0 0 0 0 0 0 0 0 0 0 0 0 0.200143698047923 0.101391835513741 0 0 0 0 0 0 0 0 0 0 0 -0.0818846369186132 0 0 0
0 0 0 0 0.386073383625041 0 0 0 0 0 0 0 0 0 0 0 0 0 0 0 0 0 0 0 0 0 0 0 0 0 0 0 0 0 0 0 0 0 0 0 0 0 0 0 0 0 0 -0.0818846369186132 0 0
0 0 0 0 0 0 0 0 0 0 0 0 0 0 0 0 0 0 0.248288798056891 0.200804520165656 0.235771128491326 0.351775042053676 0.715424585117265 0.419488042566008 0.0793185662826433 0.393711033127307 1.29218974717055 0.03965764942716 0.0392992989698172 0.559310679352659 0 0 0 0 0 0 0 0 0 0 0 0 0 0 0 0 0 0 -0.0818846369186132 0
0 0 0 0 0 0 0 0 0 0 0 0 0 0.124776200315661 0.0589019344379903 0 0 0 0 0 0 0 0 0 0 0 0 0 0 0 0 0 0 0 0 0 0 0 0 0 0 0 0 0 0 0 0 0 0 -0.0818846369186132
