0.590995772992966
3.25144395313063
0.996422939388634
1.00684919135157
0.969225528189186
1.10935430006329
0.296528992628763
1.05168924321528
0.828893176168818
3.75761652903365
0.625669563496013
0.109994492597608
0.238880816990781
1.20276952716828
0.169403537263775
0.387873036660081
1.14926661724637
0.317287676096749
1.1201684841044
0.870552035012629
1.42063858026419
1.39822324937802
1.93751029813167
2.93255543871971
0.526755953957436
0.576253390933002
1.53126983661141
0.701806120048387
1.35611184182101
3.88784824988841
1.43816282311007
0.837080540970326
0.295591307807067
2.32055689576455
0.508584145898601
1.45131145695647
0.528165670030039
1.22570124221679
2.02930960722009
2.26431283796905
2.74830369455703
0.0790627750180293
1.7941299686034
3.51289899121601
1.58063469634386
1.54612512573084
3.96566413480699
0.488044651925263
0.701647001830008
0.466291240078406
