0.333397332102444
4.01917031498278
3.63381125107021
0.222117629690128
0.515286455389371
0.526567054833966
0.196460504054509
0.640960448965669
0.716473870104345
0.611802448178856
0.216146533939004
0.69179646587043
3.02945039627415
0.261202433178403
0.771893876550081
9.45737963623274
1.6601964559251
0.471283453135957
1.10214123831405
1.67805519006031
2.64498574591831
0.428985946907467
5.75112042754688
0.843014333566484
0.353008336744135
1.29862142300954
0.210723141207683
0.658783144285342
0.68704610171309
0.372443065450043
1.18571100916974
0.256782306624031
2.0944326651452
1.97912161694078
5.34898435558387
2.09343535997565
0.741714843506961
0.172709259066286
0.167762404414615
2.97785405894516
0.335391505173376
0.814923906981269
1.06206601047478
0.347696416570263
0.632138193278867
2.90327446487144
0.463931130247186
0.724394842208844
1.6748322809216
1.83353673662293
