1.20276021609286
0.311477440560872
0.103095723580349
0.266877732081178
2.85794056630285
2.36745691250505
2.94421886208581
4.33816794698066
0.76173581120708
4.99445100788385
1.96979036292975
0.228175646266638
0.637238905177794
0.146725778199786
0.333181271577772
0.0866434900235742
0.387701560921777
2.49099746514713
0.908327735211154
0.793514590520116
1.31137861491372
0.735474292033127
0.989128725166188
1.67855389084809
0.725626359253742
2.59244404623943
2.4565355222365
0.126795907728828
2.05579530225818
1.23945984509576
2.27243397008687
0.680012093960816
0.356536469224593
0.937546120092001
0.640107809741852
0.242993672155359
3.22016188434113
0.240252149202683
4.39389762392252
3.83557086093506
0.462548929987557
0.260463498154199
1.35873218642347
3.59409936330537
0.785496189401845
4.07601294902468
1.48130520978356
0.242176318836489
1.5134238607448
0.376909511898964
