-0.485989409988892 -1.91122151020454 0 0 0 -0.46409933692645 0 0 0 0 0 0 0 0 0 0 0 0 0 0 0 0 0 0 0 0 0 0 0 0 0 0 0 0 0 0 0 0 0 0 0 0 0 0 0 0 0 0 0 0
0.387721547083083 -0.485989409988892 0 0 0 -0.685182966171574 0 0 0 0 0 0 0 -0.84764835788884 0 0 0 0 -0.630557115853466 0 0 0 0 0 0 0 0 0 0 0 0 0 0 0 0 0 0 0 0 0 -3.31381855077284 0 0 0 0 0 0 0 0 0
0 0 -0.485989409988892 0 0 0 0 0 -0.295357891462164 0 0 0 0 0 0 0 0 0 0 0 0 0 0 0 0 -0.700792622788288 -0.305458375995881 0 0 0 0 0 0 0 0 0 0 0 0 -0.855871326749784 0 0 0 0 0 0 0 0 0 0
0 0 0 -0.485989409988892 0 0 0 0 0 0 0 0 0 0 -0.664407677428608 0 0 0 0 0 0 0 0 0 0 -0.959912793660998 -1.57783686059379 0 0 0 0 0 0 0 0 0 0 0 0 -1.35211444243408 0 0 0 0 0 0 0 0 0 0
0 0 0 0 -0.485989409988892 0 0 0 0 0 0 0 0 0 0 0 0 0 0 0 0 0 0 0 0 0 -0.965799013255079 0 0 0 0 0 0 0 0 0 0 0 0 0 0 -1.30758089632096 0 0 0 0 0 0 0 0
0.104692705717114 0.134903728941891 0 0 0 -0.485989409988892 0 -1.39819994461283 0 0 -0.587806643015715 -1.95387638240272 0 0 0 0 0 0 0 0 0 0 0 -0.27239946467151 0 0 0 0 0 0 0 0 0 0 0 0 0 0 0 0 0 0 0 0 0 0 0 0 0 0
0 0 0 0 0 0 -0.485989409988892 0 0 0 0 0 0 0 0 0 0 0 0 0 0 0 0 -1.01791971209126 0 0 0 0 0 0 0 0 0 0 0 0 0 0 0 0 0 0 0 0 0 0 0 0 0 0
0 0 0 0 0 0.269431580099155 0 -0.485989409988892 0 0 0 0 0 0 0 0 0 0 0 0 0 0 0 -0.383042444459855 0 0 0 -1.31360182550145 0 0 0 0 0 0 0 0 0 0 0 0 0 0 0 0 -1.70664693165805 0 0 0 0 0
0 0 0.0609867956410938 0 0 0 0 0 -0.485989409988892 0 0 0 0 0 0 0 0 0 0 0 -0.81979052622641 0 0 0 0 0 0 0 0 0 0 0 0 0 0 0 0 0 0 0 0 0 -4.07848833035237 0 -0.329365062691467 0 0 0 0 0
0 0 0 0 0 0 0 0 0 -0.485989409988892 0 0 0 0 0 0 0 0 0 0 -5.29260381598614 0 0 0 0 0 0 0 0 0 0 0 0 0 0 0 0 0 0 0 0 0 -0.272764350623609 0 -0.190067647568113 0 0 0 0 0
0 0 0 0 0 0.124970360809425 0 0 0 0 -0.485989409988892 0 0 0 0 0 0 -3.97879280307837 0 0 -1.23433658321117 0 0 0 0 0 0 0 0 0 0 0 0 0 0 0 0 0 0 0 0 0 -11.6488305448593 0 -2.03321803822948 0 0 0 0 0
0 0 0 0 0 0.353018670829895 0 0 0 0 0 -0.485989409988892 0 0 0 -0.756921935315844 0 -0.601911473414419 0 0 -0.492713291275809 -0.470612600931248 0 0 0 0 0 0 0 0 -0.171162561787571 0 0 0 0 0 0 0 0 0 0 0 -0.459426495569979 0 -0.293505011873946 0 0 0 0 0
0 0 0 0 0 0 0 0 0 0 0 0 -0.485989409988892 0 0 -8.67639411946092 0 0 0 0 0 -0.214501905217216 -2.86342386392383 0 0 0 0 0 0 0 -0.727391544282873 0 -1.02224381011445 0 0 0 0 0 0 0 0 0 -1.28873152896197 0 0 0 0 0 0 0
0 0.164797723461707 0 0 0 0 0 0 0 0 0 0 0 -0.485989409988892 0 -2.46174674660197 0 0 0 0 0 -1.10906223332107 0 0 0 0 0 0 0 0 -0.451347974950897 0 0 0 0 0 0 0 0 0 0 0 -0.0317528827044655 0 0 0 0 0 0 0
0 0 0 0.125573149898826 0 0 0 0 0 0 0 0 0 0 -0.485989409988892 -3.30694217109163 0 0 0 0 0 -0.509778388067951 0 0 0 0 0 0 0 0 -1.80214806998553 0 0 0 -0.524596090345306 0 0 0 0 0 0 0 -4.94490627687462 0 0 0 0 0 0 0
0 0 0 0 0 0 0 0 0 0 0 0.150568457363055 1.68851520256854 0.476049618276376 0.694524225815641 -0.485989409988892 0.238160884216785 1.0765923682 0.168404690150376 0.0396109932570619 0 -2.91361714933139 0 0 0 0 0 0 0 0 -0.354229398811878 0 0 0 -2.89481721430646 0 0 0 0 0 0 0 -1.23754775588411 0 0 0 0 0 0 0
0 0 0 0 0 0 0 0 0 0 0 0 0 0 0 -1.094558517683 -0.485989409988892 0 0 0 0 -4.27167571859485 0 0 0 0 0 0 0 0 -1.22590095573234 0 0 0 0 0 0 0 0 0 0 0 -0.330397392106884 0 0 0 0 0 0 0
0 0 0 0 0 0 0 0 0 0 0.783635138410794 0.121347044037019 0 0 0 -5.6561758659144 0 -0.485989409988892 0 0 0 -5.83118050710775 0 0 0 0 0 0 0 0 -10.032140914007 0 0 0 0 0 0 0 0 0 0 0 -1.52183099472948 0 0 0 0 0 0 0
0 0.130745741386578 0 0 0 0 0 0 0 0 0 0 0 0 0 -0.860634880517964 0 0 -0.485989409988892 0 0 -5.99206016226927 0 0 0 0 0 0 0 0 -1.30109406547744 0 0 0 0 0 0 0 0 0 0 0 -0.895316915979193 0 0 0 0 0 0 0
0 0 0 0 0 0 0 0 0 0 0 0 0 0 0 -0.184919105849518 0 0 0 -0.485989409988892 0 -2.98814723909701 0 0 0 0 0 0 0 0 -0.95683081919467 0 0 0 0 0 0 0 0 0 0 0 -1.51861481812864 0 0 0 0 0 0 0
0 0 0 0 0 0 0 0 0.163896778661791 1.01946322455756 0.226267937310248 0.10207125148661 0 0 0 0 0 0 0 0 -0.485989409988892 0 0 0 0 0 0 0 0 0 -1.04468009953326 0 0 0 0 0 0 0 -0.153106917367262 0 0 0 0 0 0 0 0 0 0 0
0 0 0 0 0 0 0 0 0 0 0 0.0958334619406151 0.0433746518284125 0.206230000763114 0.102113979787279 0.597326204192827 0.894996701087365 1.08014421933693 1.16457169240715 0.61132503683383 0 -0.485989409988892 0 0 0 0 0 0 -1.64029415484978 0 -1.20622980722143 0 0 0 0 0 0 0 0 0 0 0 0 0 0 0 0 0 0 0
0 0 0 0 0 0 0 0 0 0 0 0 0.582503564529955 0 0 0 0 0 0 0 0 0 -0.485989409988892 0 0 0 0 0 -0.919352839007003 0 0 0 0 0 0 0 0 0 0 0 0 0 0 0 0 0 0 0 0 0
0 0 0 0 0 0.0505624337052109 0.214622879633991 0.0721114369737441 0 0 0 0 0 0 0 0 0 0 0 0 0 0 0 -0.485989409988892 0 0 0 0 -1.33078960477002 0 0 0 0 0 0 0 0 0 0 0 0 0 0 0 0 0 0 0 0 0
0 0 0 0 0 0 0 0 0 0 0 0 0 0 0 0 0 0 0 0 0 0 0 0 -0.485989409988892 0 0 0 -2.23511039426568 -1.22084536049941 0 0 0 -1.49724853129258 0 0 0 0 0 0 0 0 0 0 0 0 0 0 0 0
0 0 0.146401734170559 0.177921146329065 0 0 0 0 0 0 0 0 0 0 0 0 0 0 0 0 0 0 0 0 0 -0.485989409988892 0 0 -1.53059158955392 0 0 0 0 -0.530161871133153 0 0 0 0 0 0 0 0 0 0 0 0 0 0 0 0
0 0 0.0621424059827799 0.311911511268836 0.176952628895021 0 0 0 0 0 0 0 0 0 0 0 0 0 0 0 0 0 0 0 0 0 -0.485989409988892 0 -4.4628434331431 0 0 0 0 -4.97038508783994 0 0 0 0 0 0 0 0 0 0 0 0 0 0 0 0
0 0 0 0 0 0 0 0.26266195751007 0 0 0 0 0 0 0 0 0 0 0 0 0 0 0 0 0 0 0 -0.485989409988892 0 0 0 0 0 -0.359581845048786 0 0 0 0 0 0 0 0 0 0 0 0 0 0 0 0
0 0 0 0 0 0 0 0 0 0 0 0 0 0 0 0 0 0 0 0 0 0.316811515917261 0.188086229894205 0.26991287238119 0.459206160181289 0.310082684323052 0.869716015974272 0 -0.485989409988892 0 0 0 0 0 0 0 0 0 0 0 0 0 0 0 0 0 0 -4.653490905517 0 0
0 0 0 0 0 0 0 0 0 0 0 0 0 0 0 0 0 0 0 0 0 0 0 0 0.254413088393417 0 0 0 0 -0.485989409988892 0 0 0 0 0 0 -3.54100313429542 0 0 0 0 0 0 0 0 0 0 -1.90260936600756 0 0
0 0 0 0 0 0 0 0 0 0 0 0.0342154899955702 0.152683476834099 0.0889355282701865 0.370351813063903 0.0759189273081894 0.235336734093855 2.10170029232877 0.280778928206428 0.193080348007319 0.216785725765455 0.264753079194508 0 0 0 0 0 0 0 0 -0.485989409988892 0 0 0 0 -0.115347082548417 -1.62156112139753 0 0 0 0 0 0 0 0 0 -0.149698543682519 -0.62108333035738 0 0
0 0 0 0 0 0 0 0 0 0 0 0 0 0 0 0 0 0 0 0 0 0 0 0 0 0 0 0 0 0 0 -0.485989409988892 0 0 0 0 -0.871560366172975 0 0 0 0 0 0 0 0 0 -0.853874040243901 -0.717684779394306 0 0
0 0 0 0 0 0 0 0 0 0 0 0 0.206875294042697 0 0 0 0 0 0 0 0 0 0 0 0 0 0 0 0 0 0 0 -0.485989409988892 0 0 0 0 0 0 0 0 0 0 0 0 0 0 0 0 0
0 0 0 0 0 0 0 0 0 0 0 0 0 0 0 0 0 0 0 0 0 0 0 0 0.311568216637399 0.104442247033442 0.920939429873951 0.0719263148975119 0 0 0 0 0 -0.485989409988892 0 0 0 0 0 0 0 0 0 0 0 0 0 0 0 0
0 0 0 0 0 0 0 0 0 0 0 0 0 0 0.103410166636056 0.525935809686771 0 0 0 0 0 0 0 0 0 0 0 0 0 0 0 0 0 0 -0.485989409988892 0 0 0 0 0 0 0 0 0 0 0 0 0 -0.131601683118726 0
0 0 0 0 0 0 0 0 0 0 0 0 0 0 0 0 0 0 0 0 0 0 0 0 0 0 0 0 0 0 0.0224775801844346 0 0 0 0 -0.485989409988892 0 0 0 0 0 0 0 0 0 0 0 0 -0.416026791702604 0
0 0 0 0 0 0 0 0 0 0 0 0 0 0 0 0 0 0 0 0 0 0 0 0 0 0 0 0 0 0.743551102647697 0.29306373133279 0.168272427556631 0 0 0 0 -0.485989409988892 0 0 0 0 0 0 0 0 0 0 0 -1.0962898261408 0
0 0 0 0 0 0 0 0 0 0 0 0 0 0 0 0 0 0 0 0 0 0 0 0 0 0 0 0 0 0 0 0 0 0 0 0 0 -0.485989409988892 0 0 0 0 0 0 0 0 0 0 -0.591148460176998 0
0 0 0 0 0 0 0 0 0 0 0 0 0 0 0 0 0 0 0 0 0.0291955501288048 0 0 0 0 0 0 0 0 0 0 0 0 0 0 0 0 0 -0.485989409988892 0 0 0 0 0 0 0 0 0 0 -0.280457587199831
0 0 0.174857979758441 0.246818179933177 0 0 0 0 0 0 0 0 0 0 0 0 0 0 0 0 0 0 0 0 0 0 0 0 0 0 0 0 0 0 0 0 0 0 0 -0.485989409988892 0 0 0 0 0 0 0 0 0 -0.219981274378693
0 0.619264204912111 0 0 0 0 0 0 0 0 0 0 0 0 0 0 0 0 0 0 0 0 0 0 0 0 0 0 0 0 0 0 0 0 0 0 0 0 0 0 -0.485989409988892 0 0 0 0 0 0 0 0 -0.945330050978981
0 0 0 0 0.277254727779766 0 0 0 0 0 0 0 0 0 0 0 0 0 0 0 0 0 0 0 0 0 0 0 0 0 0 0 0 0 0 0 0 0 0 0 0 -0.485989409988892 0 0 0 0 0 0 0 -0.507766082324589
0 0 0 0 0 0 0 0 0.851248390286024 0.050001920671833 2.36119966435682 0.0938218726505854 0.262230181671763 0.00685089219461517 1.0241975013489 0.239804189400924 0.0689695047489393 0.294480673739387 0.157842733132668 0.308173048762134 0 0 0 0 0 0 0 0 0 0 0 0 0 0 0 0 0 0 0 0 0 0 -0.485989409988892 0 0 0 0 0 0 -1.22334741410312
0 0 0 0 0 0 0 0 0 0 0 0 0 0 0 0 0 0 0 0 0 0 0 0 0 0 0 0 0 0 0 0 0 0 0 0 0 0 0 0 0 0 0 -0.485989409988892 0 -1.03604063969161 0 0 0 0
0 0 0 0 0 0 0 0.344707772780322 0.0706014492382841 0.0359159472677111 0.419845078132585 0.0534796987654515 0 0 0 0 0 0 0 0 0 0 0 0 0 0 0 0 0 0 0 0 0 0 0 0 0 0 0 0 0 0 0 0 -0.485989409988892 -1.7702749572231 0 0 0 0
0 0 0 0 0 0 0 0 0 0 0 0 0 0 0 0 0 0 0 0 0 0 0 0 0 0 0 0 0 0 0 0 0 0 0 0 0 0 0 0 0 0 0 0.203074315871801 0.368715612934969 -0.485989409988892 0 0 0 0
0 0 0 0 0 0 0 0 0 0 0 0 0 0 0 0 0 0 0 0 0 0 0 0 0 0 0 0 0 0 0.0298958382354909 0.175989165227266 0 0 0 0 0 0 0 0 0 0 0 0 0 0 -0.485989409988892 0 0 0
0 0 0 0 0 0 0 0 0 0 0 0 0 0 0 0 0 0 0 0 0 0 0 0 0 0 0 0 0.901534131953358 0.356325887612832 0.125709261156427 0.140800943859816 0 0 0 0 0 0 0 0 0 0 0 0 0 0 0 -0.485989409988892 0 0
0 0 0 0 0 0 0 0 0 0 0 0 0 0 0 0 0 0 0 0 0 0 0 0 0 0 0 0 0 0 0 0 0 0 0.0264786937529146 0.089764227196384 0.198064234784722 0.125932919214718 0 0 0 0 0 0 0 0 0 0 -0.485989409988892 0
0 0 0 0 0 0 0 0 0 0 0 0 0 0 0 0 0 0 0 0 0 0 0 0 0 0 0 0 0 0 0 0 0 0 0 0 0 0 0.0566666532959858 0.0470270685942344 0.186287520968307 0.101251760321254 0.255840761000902 0 0 0 0 0 0 -0.485989409988892
