-0.342461680808762 0 0 0 0 0 -0.633125752531915 0 0 0 -0.935544885531471 -0.724751980323135 0 0 0 0 0 0 0 0 -2.88314116667619 0 0 0 0 0 0 0 0 0 0 0 0 0 0 0 0 0 0 0 0 0 0 0 0 0 0 0 0 0
0 -0.342461680808762 0 0 0 0 0 0 0 0 -1.43311423333645 -0.30115266202665 0 0 0 0 0 0 0 0 -4.16324480606205 0 0 0 0 0 0 0 0 0 0 0 0 0 0 0 0 0 0 0 0 0 0 0 0 0 0 0 0 0
0 0 -0.342461680808762 -0.424151203091436 0 0 0 0 0 0 -3.64471302790617 -0.484363535043396 0 0 0 0 0 0 0 0 -3.28459665952877 0 0 0 0 0 0 0 0 0 0 0 0 0 0 0 0 0 0 0 0 0 0 0 0 0 0 0 0 0
0 0 0.0841829672845678 -0.342461680808762 0 0 0 0 0 0 -2.7635933941363 -3.43458277585562 0 0 0 0 0 0 0 0 0 0 0 0 0 0 0 0 0 0 0 0 0 0 0 0 -7.58193328542358 0 0 0 0 0 0 0 0 0 0 0 0 0
0 0 0 0 -0.342461680808762 0 0 0 -1.91919366589517 0 0 0 0 0 0 0 0 0 -0.494321086861856 0 0 0 0 0 0 0 0 0 0 0 0 0 0 0 0 0 0 0 0 0 0 0 0 0 0 0 0 0 0 0
0 0 0 0 0 -0.342461680808762 0 0 -0.426015319925192 0 0 0 0 0 0 0 0 0 -0.686846061639599 0 0 0 0 0 0 0 0 0 0 0 0 0 0 0 0 0 0 0 0 0 0 0 0 0 0 0 0 0 0 0
0.124443136184645 0 0 0 0 0 -0.342461680808762 0 -2.55032357787999 0 0 0 0 0 0 0 0 -1.50733898152416 0 0 0 0 0 0 0 0 0 0 0 0 0 0 0 0 0 0 0 0 0 0 0 0 0 0 -1.638501968262 -0.780236551500205 0 0 0 0
0 0 0 0 0 0 0 -0.342461680808762 0 0 0 0 0 0 0 0 0 -0.222032774177866 0 -0.434917367505158 0 0 0 -1.28260087813081 0 0 0 0 0 0 0 0 0 0 0 0 0 0 0 0 0 0 0 0 0 -1.52857080393256 0 0 0 0
0 0 0 0 0.391817166999395 0.0823214480419834 0.503696397121994 0 -0.342461680808762 0 0 0 0 0 -3.01617049721267 0 0 -3.9049603601133 0 -0.119699085005316 0 0 0 -1.94799842810245 0 0 -1.338839760818 0 0 0 0 0 0 0 0 0 0 0 0 0 0 0 0 0 0 -3.6680924071676 0 0 0 0
0 0 0 0 0 0 0 0 0 -0.342461680808762 0 0 0 0 -0.226457663429281 0 0 -0.320328985695778 0 -0.856286113623194 0 0 0 -1.65780282457594 0 0 -2.68993303984929 0 0 0 0 0 0 0 0 0 0 0 0 0 0 0 0 0 0 0 0 0 0 0
0.188434827222477 0.269402992768138 0.747279036936277 0.583214803392866 0 0 0 0 0 0 -0.342461680808762 0 0 0 -1.35909547978433 0 0 0 0 -0.234179258947227 0 0 0 -1.05453272343779 0 0 -1.36121755887568 0 0 0 0 0 0 0 0 0 0 0 0 0 0 0 0 0 0 0 0 0 0 0
0.142451901193074 0.0625450946450774 0.100108867727813 0.686321760561126 0 0 0 0 0 0 0 -0.342461680808762 0 0 0 0 0 0 0 0 0 0 -1.580268485395 0 -5.40664936266849 -0.327978233938614 0 0 0 -0.672586922972885 0 0 0 0 0 0 0 0 0 0 0 0 0 0 0 0 0 0 0 0
0 0 0 0 0 0 0 0 0 0 0 0 -0.342461680808762 0 0 0 0 0 0 0 0 0 -0.593181457783451 0 -1.53847507566568 -1.54307297552825 0 0 0 -4.72509245880665 0 0 0 0 0 0 0 0 0 0 0 0 0 0 0 0 0 0 0 0
0 0 0 0 0 0 0 0 0 0 0 0 0 -0.342461680808762 0 0 0 0 0 0 0 -0.465319189980428 0 0 0 -1.7297167504667 0 0 -0.513419162719122 0 0 0 0 0 0 0 0 0 0 0 0 0 0 0 0 0 0 0 -0.422741636113759 0
0 0 0 0 0 0 0 0 0.576341672259366 0.0459117031151509 0.263099506062109 0 0 0 -0.342461680808762 0 0 0 0 0 0 -5.95709139626058 0 0 0 -0.806342711283964 0 0 -0.123427492741704 0 0 0 0 0 0 0 0 0 0 0 0 0 0 0 0 0 0 0 -1.10925019855308 0
0 0 0 0 0 0 0 0 0 0 0 0 0 0 0 -0.342461680808762 0 0 0 0 0 -0.577064351262554 0 0 0 -3.73643778879648 0 0 -0.312077610965596 0 0 0 0 0 0 0 0 0 0 0 0 0 0 0 0 0 0 0 -1.75318892536538 0
0 0 0 0 0 0 0 0 0 0 0 0 0 0 0 0 -0.342461680808762 0 0 0 0 -2.07711368698127 0 0 0 -1.93626252473517 0 0 -0.521216003920191 0 0 0 0 0 0 0 0 0 0 0 0 0 0 0 0 0 0 0 -0.192925542509781 0
0 0 0 0 0 0 0.310605374647026 0.0453104116958001 0.785391604574108 0.0596269197250353 0 0 0 0 0 0 0 -0.342461680808762 0 0 0 -1.05442859708491 0 0 0 -0.25781259615137 0 0 0 0 0 0 0 0 0 0 0 0 0 0 0 0 0 0 0 0 0 0 -3.26981096480875 0
0 0 0 0 0.0972261272415412 0.140263412542056 0 0 0 0 0 0 0 0 0 0 0 0 -0.342461680808762 0 0 -0.760566249060645 0 0 0 -0.352902968081461 0 0 0 0 0 0 0 0 0 -3.59711894272857 0 0 0 0 0 0 0 0 0 0 0 0 -0.0911140702669141 0
0 0 0 0 0 0 0 0.0800261370474618 0.0243168203456754 0.168362096133406 0.0504092787498314 0 0 0 0 0 0 0 0 -0.342461680808762 0 -0.313157125982948 0 0 0 -2.91667859010472 0 0 0 0 0 0 0 0 0 -0.752860090503662 0 0 0 0 0 0 0 0 0 0 0 0 -1.73473999830116 0
0.568398406456799 0.81118951210766 0.653083458109173 0 0 0 0 0 0 0 0 0 0 0 0 0 0 0 0 0 -0.342461680808762 -3.41901764687038 0 0 0 -2.83329336732045 0 0 0 0 0 0 0 0 0 -4.23743530985173 0 0 0 0 0 0 0 0 0 0 0 0 -1.09492932176207 0
0 0 0 0 0 0 0 0 0 0 0 0 0 0.0913094447653939 1.16718421205013 0.100916913061594 0.377302891904191 0.22350458937946 0.156338626183529 0.0619578743860201 0.70373172433235 -0.342461680808762 0 0 0 -2.84181596950813 0 0 0 0 0 0 0 0 0 -1.65197363512648 0 0 0 0 0 0 0 0 0 0 0 0 0 0
0 0 0 0 0 0 0 0 0 0 0 0.302750380404722 0.125640990609611 0 0 0 0 0 0 0 0 0 -0.342461680808762 0 0 0 0 0 0 0 0 0 0 0 0 -0.578668495270463 0 0 0 0 0 0 0 0 0 0 0 0 0 0
0 0 0 0 0 0 0 0.247929789162136 0.363707493749547 0.306450460404734 0.214295788566044 0 0 0 0 0 0 0 0 0 0 0 0 -0.342461680808762 0 0 0 0 0 0 0 0 0 0 0 -1.04501392589887 0 0 0 0 0 0 0 0 0 0 0 0 0 0
0 0 0 0 0 0 0 0 0 0 0 0.984382134481032 0.285762726411234 0 0 0 0 0 0 0 0 0 0 0 -0.342461680808762 0 0 0 0 0 0 0 0 0 0 -0.63711964170978 0 0 0 0 0 0 0 0 0 0 0 0 0 0
0 0 0 0 0 0 0 0 0 0 0 0.0652825578577944 0.295563677614421 0.369654349732539 0.177263562294021 0.765014053366196 0.392322492392413 0.0503712704555913 0.0747602701963279 0.603552435186312 0.535411457864786 0.575441278342869 0 0 0 -0.342461680808762 0 0 0 0 0 0 0 0 0 -3.15122733532053 0 0 0 -1.29020763829863 0 -0.35648946412348 0 0 0 0 0 0 0 0
0 0 0 0 0 0 0 0 0.273880751960488 0.571447133945093 0.282836570800395 0 0 0 0 0 0 0 0 0 0 0 0 0 0 0 -0.342461680808762 0 0 0 0 0 0 0 0 0 0 0 0 -3.41691512126421 0 -1.31109134063542 0 0 0 0 0 0 0 0
0 0 0 0 0 0 0 0 0 0 0 0 0 0 0 0 0 0 0 0 0 0 0 0 0 0 0 -0.342461680808762 0 0 0 0 0 0 0 0 0 0 0 -2.94896460933496 0 -3.06628811320979 0 0 0 0 0 0 0 0
0 0 0 0 0 0 0 0 0 0 0 0 0 0.117237698948639 0.0247066529697823 0.05870782815246 0.0982460837944769 0 0 0 0 0 0 0 0 0 0 0 -0.342461680808762 0 0 0 0 0 0 0 0 0 0 -0.276419382511596 0 0 0 0 0 0 0 0 0 0
0 0 0 0 0 0 0 0 0 0 0 0.135661810274257 0.916598747383345 0 0 0 0 0 0 0 0 0 0 0 0 0 0 0 0 -0.342461680808762 0 0 0 0 0 0 0 0 0 -0.949628337272484 0 0 0 0 0 0 0 0 0 0
0 0 0 0 0 0 0 0 0 0 0 0 0 0 0 0 0 0 0 0 0 0 0 0 0 0 0 0 0 0 -0.342461680808762 0 0 0 0 0 0 0 0 -2.93078899885059 0 0 0 0 0 0 0 0 0 0
0 0 0 0 0 0 0 0 0 0 0 0 0 0 0 0 0 0 0 0 0 0 0 0 0 0 0 0 0 0 0 -0.342461680808762 -1.6486776200489 0 0 0 0 -1.2165376835886 0 0 0 0 0 0 0 0 -0.883938085416541 0 0 -2.15009702243036
0 0 0 0 0 0 0 0 0 0 0 0 0 0 0 0 0 0 0 0 0 0 0 0 0 0 0 0 0 0 0 0.322686575180506 -0.342461680808762 0.183035418482865 0 0 0 0 0 0 0 0 0 0 0 0 -1.72351334589656 0 0 -2.8135516653458
0 0 0 0 0 0 0 0 0 0 0 0 0 0 0 0 0 0 0 0 0 0 0 0 0 0 0 0 0 0 0 0 -0.877521230881696 -0.342461680808762 0 0 0 0 0 0 0 0 0 0 0 0 -1.24240158889753 0 0 -1.5329065064995
0 0 0 0 0 0 0 0 0 0 0 0 0 0 0 0 0 0 0 0 0 0 0 0 0 0 0 0 0 0 0 0 0 0 -0.342461680808762 0 0 0 0 0 -1.49526913395171 0 0 0 0 0 -0.333922800524167 0 0 -0.597371122780644
0 0 0 0 0 0 0 0 0 0 0 0 0 0 0 0 0 0 0.680718892919973 0.14532077884487 0.859430671382347 0.332905299179397 0.119030440885421 0.201354094052206 0.127325983508411 0.653331790354389 0 0 0 0 0 0 0 0 0 -0.342461680808762 0 0 0 0 -0.227261981173211 0 0 0 0 0 -2.56911041763919 0 0 -2.51191079339201
0 0 0 1.42009788118577 0 0 0 0 0 0 0 0 0 0 0 0 0 0 0 0 0 0 0 0 0 0 0 0 0 0 0 0 0 0 0 0 -0.342461680808762 0 0 0 -0.816094535286681 0 0 0 0 0 -0.721324555473851 0 0 -0.709003447048713
0 0 0 0 0 0 0 0 0 0 0 0 0 0 0 0 0 0 0 0 0 0 0 0 0 0 0 0 0 0 0 0.247057010412429 0 0 0 0 0 -0.342461680808762 0 0 -0.239508559917708 0 0 0 0 0 -0.0867847403644107 0 0 -1.30350607755271
0 0 0 0 0 0 0 0 0 0 0 0 0 0 0 0 0 0 0 0 0 0 0 0 0 0 0 0 0 0 0 0 0 0 0 0 0 0 -0.342461680808762 0 -0.341258851755423 0 0 0 0 0 -4.2183751181441 0 0 -0.385213898443254
0 0 0 0 0 0 0 0 0 0 0 0 0 0 0 0 0 0 0 0 0 0 0 0 0 0.249900237286539 0.640459504456542 0.602103192989668 0.0496300769473386 0.197234956116011 0.562060747280615 0 0 0 0 0 0 0 0 -0.342461680808762 0 0 0 0 0 0 -0.0729335022268447 0 0 -0.346408709872669
0 0 0 0 0 0 0 0 0 0 0 0 0 0 0 0 0 0 0 0 0 0 0 0 0 0 0 0 0 0 0 0 0 0 0.302193479197772 0.0471749811594856 0.174548767540684 0.0488775907763341 0.0722555024445168 0 -0.342461680808762 0 0 0 0 0 -1.39725359496296 0 0 -0.515211259639915
0 0 0 0 0 0 0 0 0 0 0 0 0 0 0 0 0 0 0 0 0 0 0 0 0 0.0677221035984498 0.268170712765522 0.603408188074247 0 0 0 0 0 0 0 0 0 0 0 0 0 -0.342461680808762 0 0 0 0 -0.976488152616859 0 0 -0.462684978795106
0 0 0 0 0 0 0 0 0 0 0 0 0 0 0 0 0 0 0 0 0 0 0 0 0 0 0 0 0 0 0 0 0 0 0 0 0 0 0 0 0 0 -0.342461680808762 0 0 0 -1.50855315520777 -1.75988720935933 0 -1.26785451939101
0 0 0 0 0 0 0 0 0 0 0 0 0 0 0 0 0 0 0 0 0 0 0 0 0 0 0 0 0 0 0 0 0 0 0 0 0 0 0 0 0 0 0 -0.342461680808762 0 0 -2.96325712398524 -0.366147616130404 0 -2.32750927095306
0 0 0 0 0 0 0.367892282412512 0 0 0 0 0 0 0 0 0 0 0 0 0 0 0 0 0 0 0 0 0 0 0 0 0 0 0 0 0 0 0 0 0 0 0 0 0 -0.342461680808762 0 -0.0280607942490787 -5.43104164710211 0 -1.56631912500955
0 0 0 0 0 0 0.148887828569434 0.321099610179077 0.760275271313486 0 0 0 0 0 0 0 0 0 0 0 0 0 0 0 0 0 0 0 0 0 0 0 0 0 0 0 0 0 0 0 0 0 0 0 0 -0.342461680808762 -0.463356478372095 -0.845162761490981 0 -0.860521819440835
0 0 0 0 0 0 0 0 0 0 0 0 0 0 0 0 0 0 0 0 0 0 0 0 0 0 0 0 0 0 0 0.166728385676677 0.333601823091964 0.276470077550349 0.0701063988438726 0.521209235071395 0.151540301835492 0.0171515873314555 0.837058565146544 0.0138861748815883 0.279475564283712 0.211965756536984 0.301533727957434 0.559674255621789 0.00616285868998964 0.0924857425677619 -0.342461680808762 0 0 -1.93221830712872
0 0 0 0 0 0 0 0 0 0 0 0 0 0 0 0 0 0 0 0 0 0 0 0 0 0 0 0 0 0 0 0 0 0 0 0 0 0 0 0 0 0 0.342875516567887 0.0708416134348297 1.09901578010742 0.164732384225448 0 -0.342461680808762 0 0
0 0 0 0 0 0 0 0 0 0 0 0 0 0.0770312442779599 0.19367105375872 0.34746703417225 0.0377487372168566 0.62977744504428 0.0187554421713445 0.336099354925599 0.200399168851014 0 0 0 0 0 0 0 0 0 0 0 0 0 0 0 0 0 0 0 0 0 0 0 0 0 0 0 -0.342461680808762 0
0 0 0 0 0 0 0 0 0 0 0 0 0 0 0 0 0 0 0 0 0 0 0 0 0 0 0 0 0 0 0 0.442650006921066 0.570540761757143 0.339130727159317 0.12762937318714 0.496131632455167 0.150685286472257 0.257872136985651 0.078899113165098 0.0722217506208972 0.099736993730339 0.0851342766010649 0.246387171329567 0.439115217561528 0.3067670907166 0.181534140918246 0.366561581471775 0 0 -0.342461680808762
