3.48545384866978
4.08085474509361
0.746457076645925
0.801989126718041
0.894332161651682
0.705694438216347
1.82601401139998
0.681910056863945
1.08140940273476
1.26171498064237
0.718203345532978
0.718695447374324
3.66185097056003
2.3818630367722
7.53190430342315
1.11246242057592
0.936652640323489
0.359767977404754
1.67326099578336
0.759105976075055
0.10993612026157
2.32839702075284
0.73272935794568
0.506574697533436
2.48188155250405
1.08461362192688
2.7402168524582
0.698481140479874
0.910957525685698
2.61549243919204
0.69711845113062
1.96288348231041
0.443873183727829
0.857400250416905
0.976204141907074
1.14320959113953
0.975812598387151
1.00728263356325
0.619480219788134
4.08503160144672
0.17037651607803
1.82467956733912
0.59426284297763
0.494129098365405
2.63330291452573
0.704268738827719
0.86751133115423
0.362795711705849
0.619249649788385
4.11587850606151
