-0.166365784475442 0 0 0 -0.603922076058499 0 0 0 0 0 0 -2.01188667551096 0 0 -0.455261849174362 0 0 0 0 0 0 0 0 0 0 0 0 0 0 0 0 0 0 -0.501593831628949 0 0 0 0 0 0 0 -0.459396088320913 0 0 0 0 -2.40206244083034 0 0 0
0 -0.166365784475442 0 0 0 0 0 0 0 0 0 -6.87398681459458 0 0 -0.358718858097888 0 0 0 0 -0.374702485468137 0 0 0 0 0 0 0 0 0 0 0 0 0 -0.826056343566583 0 0 0 0 0 0 0 -2.78759439915882 0 0 0 0 -0.135103452804016 0 0 0
0 0 -0.166365784475442 0 0 0 0 0 0 0 0 0 0 0 0 -0.729858450615745 0 0 0 0 0 0 0 0 0 0 0 0 0 0 0 0 0 -1.00027425741689 0 0 0 0 0 0 0 -0.863897738458825 0 0 0 0 -1.43662268201007 0 0 0
0 0 0 -0.166365784475442 0 -1.70462998787162 0 0 0 -2.19857460226959 0 0 0 -0.57782144877329 0 -1.76332865044046 0 0 0 0 0 0 0 0 0 0 0 0 0 0 0 0 0 -0.446987065535751 0 0 -0.079623159772898 0 0 0 0 -2.39518541420824 0 0 0 0 0 0 0 0
0.118724138738264 0 0 0 -0.166365784475442 0 0 0 0 -0.547243415285274 0 0 0 -0.48348385048382 0 -0.962510586524402 0 0 0 0 0 0 0 0 0 0 0 0 0 0 0 0 0 -2.32469807061165 0 0 -0.322520610726473 0 0 0 0 -2.02628597310575 0 0 0 0 0 0 0 0
0 0 0 0.338179856603784 0 -0.166365784475442 0 0 0 0 0 0 0 0 0 0 0 0 0 0 0 0 0 0 0 0 0 0 0 0 0 0 0 -1.21573057591648 0 0 -0.259527738177771 0 0 0 0 0 0 0 0 0 0 0 0 0
0 0 0 0 0 0 -0.166365784475442 0 0 0 0 0 -0.291235527993853 0 0 0 0 0 0 0 0 0 0 0 0 0 0 0 0 0 0 0 0 -0.608082899181096 0 0 -1.86096903789599 0 0 0 0 0 0 0 0 0 0 0 0 0
0 0 0 0 0 0 0 -0.166365784475442 0.0461055287940478 0 0 0 -0.708468373073794 0 0 0 0 0 0 0 0 0 0 0 0 0 0 -0.70804262681555 0 0 0 0 0 -1.00144815761294 0 0 -0.445850668910007 0 0 0 0 0 0 0 0 0 0 0 0 0
0 0 0 0 0 0 0 -0.218317669528531 -0.166365784475442 0 0 0 0 0 0 0 0 0 0 0 0 0 0 0 0 0 0 -1.67876431539339 0 0 0 0 0 -0.142766331302982 0 0 -0.307726243134852 0 0 0 0 0 0 0 0 0 0 0 0 0
0 0 0 0.44275298596879 0.111614997830376 0 0 0 0 -0.166365784475442 0 0 0 0 0 0 -1.67925365822952 0 0 0 0 0 0 0 0 0 0 -0.15797613892736 0 0 0 0 0 0 0 0 -2.80562212737738 0 0 -1.08296915669857 0 0 0 0 0 0 0 0 0 0
0 0 0 0 0 0 0 0 0 0 -0.166365784475442 0 0 0 0 0 -1.21526289279871 -0.431792957590796 0 0 0 0 0 0 0 0 0 -0.734612544052186 0 0 0 0 0 0 0 0 -4.44919088949109 0 0 -2.46677212916625 0 0 0 0 0 0 0 0 0 0
0.373925057029163 1.24015573194415 0 0 0 0 0 0 0 0 0 -0.166365784475442 0 0 0 0 -1.62215894865858 -0.695396374370633 0 0 0 0 0 0 0 0 0 -0.245851020268547 0 0 0 0 0 0 0 0 -6.35074893017353 0 0 -0.319017444987172 0 0 0 0 0 0 0 0 0 0
0 0 0 0 0 0 0.0620580529641422 0.15080314676927 0 0 0 0 -0.166365784475442 0 0 0 -1.47298329911399 -0.264456837313317 0 0 -1.13299960043785 0 0 0 0 0 0 -0.685564695381994 0 0 0 0 0 0 0 0 -2.32588097781435 0 0 -0.412459488051287 0 0 0 0 0 0 0 0 0 0
0 0 0 0.109844128217647 0.0938529688962291 0 0 0 0 0 0 0 0 -0.166365784475442 0 0 0 -2.21597213997594 0 0 -0.833007783822462 0 0 0 0 0 0 -0.736944649603411 0 0 0 0 0 0 0 0 0 0 0 -1.4452375626981 0 0 0 0 0 -2.26339046946459 0 0 0 0
0.0916536206006739 0.0744992827175116 0 0 0 0 0 0 0 0 0 0 0 0 -0.166365784475442 0 0 0 0 0 0 0 0 0 -0.642144032182616 0 0 0 0 0 0 0 -1.74278904193907 0 0 0 0 0 0 -1.14052542652633 0 0 0 0 0 -2.41691592637903 0 0 0 0
0 0 0.148288620341316 0.327991081826895 0.200338580657213 0 0 0 0 0 0 0 0 0 0 -0.166365784475442 0 0 0 0 0 0 0 0 -0.530962885539153 0 0 0 0 0 0 0 -1.1400499154949 0 0 0 0 0 0 -2.17662857415539 0 0 0 0 0 -2.24819421333404 0 0 0 0
0 0 0 0 0 0 0 0 0 0.339585999539227 0.234347425297209 0.32887675142454 0.269039181669794 0 0 0 -0.166365784475442 0 -1.06497755053358 0 0 0 0 0 -3.87680894242596 0 0 0 0 0 0 0 -2.73541711805324 0 0 0 0 -1.49312042047906 0 0 0 0 0 0 0 0 0 0 0 0
0 0 0 0 0 0 0 0 0 0 0.0874899624638832 0.131239162142919 0.0552095229737031 0.476148693692235 0 0 0 -0.166365784475442 0 0 0 0 0 0 -2.12103982071306 0 0 0 0 0 0 0 0 0 0 -0.573959923093722 0 -1.98667483889235 0 0 0 0 0 0 0 0 0 0 0 0
0 0 0 0 0 0 0 0 0 0 0 0 0 0 0 0 0.215226417387283 0 -0.166365784475442 0 0 0 -1.1192149871787 0 0 0 0 0 0 0 0 0 0 0 0 -0.951139801144356 0 0 0 0 0 0 0 0 0 0 0 0 0 0
0 0.0743546264727123 0 0 0 0 0 0 0 0 0 0 0 0 0 0 0 0 0 -0.166365784475442 0 0 -0.270024258999723 0 0 0 0 0 0 0 0 0 0 0 0 -0.441639621973161 0 0 0 0 0 0 0 0 0 0 0 0 0 0
0 0 0 0 0 0 0 0 0 0 0 0 0.227891974895584 0.164111384884316 0 0 0 0 0 0 -0.166365784475442 0 0 0 0 0 -0.548394114868314 0 0 -0.863291855732131 0 0 0 0 0 -0.308076455266787 0 0 0 0 0 0 0 0 0 0 0 0 0 0
0 0 0 0 0 0 0 0 0 0 0 0 0 0 0 0 0 0 0 0 0 -0.166365784475442 0 0 0 0 -0.31705014785324 0 0 -0.775084338286251 -5.93745821288345 0 0 0 0 0 0 0 0 0 0 0 0 0 0 0 0 0 0 0
0 0 0 0 0 0 0 0 0 0 0 0 0 0 0 0 0 0 0.236105625945481 0.055870415002632 0 0 -0.166365784475442 0 0 0 0 0 0 -0.471108497649806 -1.25228537308795 0 0 0 0 0 0 0 0 0 0 0 0 0 0 0 0 0 0 0
0 0 0 0 0 0 0 0 0 0 0 0 0 0 0 0 0 0 0 0 0 0 0 -0.166365784475442 0 0 0 0 0 -1.74219954285038 0 0 0 0 0 0 0 0 0 0 0 0 0 0 0 0 0 0 0 0
0 0 0 0 0 0 0 0 0 0 0 0 0 0 0.128798646513668 0.111398111810291 0.779753730285767 0.41929432009296 0 0 0 0 0 0 -0.166365784475442 -0.676551347745866 0 0 0 0 0 0 0 0 0 0 0 0 0 0 -7.27601057969569 0 0 0 0 0 0 0 0 0
0 0 0 0 0 0 0 0 0 0 0 0 0 0 0 0 0 0 0 0 0 0 0 0 0.128747509081104 -0.166365784475442 0.38400420362651 0 0 0 0 0 0 0 -0.450405573269416 0 0 0 0 0 -0.386384312295186 0 0 0 0 0 0 0 0 0
0 0 0 0 0 0 0 0 0 0 0 0 0 0 0 0 0 0 0 0 0.103654872475479 0.0669074577767969 0 0 0 -1.88021499785026 -0.166365784475442 0 0 0 0 0 0 0 -0.890982070336189 0 0 0 0 0 -3.11933022787635 0 0 0 0 0 0 0 0 0
0 0 0 0 0 0 0 0.140535068337559 0.309757934879407 0.0299548192735099 0.141607415439054 0.0486441244375174 0.131422240208898 0.15506457156713 0 0 0 0 0 0 0 0 0 0 0 0 0 -0.166365784475442 0 0 0 0 0 0 -1.04749779985356 0 0 0 0 0 -0.34229088658339 0 0 0 0 0 0 0 0 0
0 0 0 0 0 0 0 0 0 0 0 0 0 0 0 0 0 0 0 0 0 0 0 0 0 0 0 0 -0.166365784475442 0 0 0 0 0 -0.795290672150606 0 0 0 0 0 -1.64818517256492 0 0 0 0 0 0 0 0 0
0 0 0 0 0 0 0 0 0 0 0 0 0 0 0 0 0 0 0 0 0.165626112786176 0.164831694573016 0.0950438917746756 0.336248904148239 0 0 0 0 0 -0.166365784475442 0 0 0 0 -0.600726042711021 0 0 0 0 0 0 0 0 0 0 0 0 0 0 0
0 0 0 0 0 0 0 0 0 0 0 0 0 0 0 0 0 0 0 0 0 1.18195962559857 0.245665847572322 0 0 0 0 0 0 0 -0.166365784475442 0 0 0 -0.149691988592722 0 0 0 0 0 0 0 0 -1.5585455673192 0 0 0 0 0 0
0 0 0 0 0 0 0 0 0 0 0 0 0 0 0 0 0 0 0 0 0 0 0 0 0 0 0 0 0 0 0 -0.166365784475442 0 0 -0.203592877395077 0 0 0 0 0 0 0 0 -0.848111158929025 0 0 0 0 0 0
0 0 0 0 0 0 0 0 0 0 0 0 0 0 0.356330720659453 0.226711183590162 0.553706503340322 0 0 0 0 0 0 0 0 0 0 0 0 0 0 0 -0.166365784475442 0 0 0 0 0 0 0 0 0 0 -0.221268497264176 -1.43963886580983 0 0 0 0 0
0.102909759123874 0.175262525544987 0.195220337350351 0.0992008014135068 0.468095127478052 0.232623594152134 0.11728358483046 0.199944569003653 0.0295643410843687 0 0 0 0 0 0 0 0 0 0 0 0 0 0 0 0 0 0 0 0 0 0 0 0 -0.166365784475442 0 0 0 0 0 0 0 0 0 0 -0.422607016706957 0 0 0 0 0
0 0 0 0 0 0 0 0 0 0 0 0 0 0 0 0 0 0 0 0 0 0 0 0 0 0.0915557344393607 0.170645542365674 0.20673144626974 0.161505784760263 0.126903262661004 0.0292602394112463 0.0452022445197364 0 0 -0.166365784475442 0 0 0 0 0 0 0 0 0 -1.67807347323028 0 0 0 0 0
0 0 0 0 0 0 0 0 0 0 0 0 0 0 0 0 0 0.110857575272158 0.190292212595625 0.0875614435140489 0.061047163655259 0 0 0 0 0 0 0 0 0 0 0 0 0 0 -0.166365784475442 0 0 -0.908776031829526 0 0 0 0 0 -1.80224269136052 0 0 -1.28266578947441 0 0
0 0 0 0.0160707737477493 0.065323312766597 0.0495769344623873 0.375800830135959 0.090420037504041 0.0607404615463914 0.57444444003527 0.929893687813395 1.31333465448366 0.445611545302227 0 0 0 0 0 0 0 0 0 0 0 0 0 0 0 0 0 0 0 0 0 0 0 -0.166365784475442 0 -1.05688696879681 0 0 0 0 0 -1.82179857717163 0 0 -0.657006908501855 0 0
0 0 0 0 0 0 0 0 0 0 0 0 0 0 0 0 0.305680450369589 0.387384112486464 0 0 0 0 0 0 0 0 0 0 0 0 0 0 0 0 0 0 0 -0.166365784475442 -1.4661527573707 0 0 0 0 0 -1.18252649389015 0 0 -0.214901343970517 0 0
0 0 0 0 0 0 0 0 0 0 0 0 0 0 0 0 0 0 0 0 0 0 0 0 0 0 0 0 0 0 0 0 0 0 0 0.183329205180876 0.218434800962822 0.283698050131054 -0.166365784475442 0 0 0 0 0 0 0 0 -0.726990455712272 0 0
0 0 0 0 0 0 0 0 0 0.226469928849565 0.539764041325809 0.0662950732156951 0.0779317977904856 0.291042570411546 0.244268786224792 0.432129302296628 0 0 0 0 0 0 0 0 0 0 0 0 0 0 0 0 0 0 0 0 0 0 0 -0.166365784475442 0 0 0 0 0 0 0 -2.95997091460154 0 0
0 0 0 0 0 0 0 0 0 0 0 0 0 0 0 0 0 0 0 0 0 0 0 0 1.59358232154486 0.0756545341670411 0.591988808076548 0.0655559549208341 0.344421919157248 0 0 0 0 0 0 0 0 0 0 0 -0.166365784475442 0 -1.6985120351348 0 0 0 0 0 0 -2.85810254383453
0.0835116436146573 0.54258999916398 0.177748610516275 0.462791274733016 0.412874381793038 0 0 0 0 0 0 0 0 0 0 0 0 0 0 0 0 0 0 0 0 0 0 0 0 0 0 0 0 0 0 0 0 0 0 0 0 -0.166365784475442 -0.293428095497347 0 0 0 0 0 0 0
0 0 0 0 0 0 0 0 0 0 0 0 0 0 0 0 0 0 0 0 0 0 0 0 0 0 0 0 0 0 0 0 0 0 0 0 0 0 0 0 0.325054656904311 0.06138681657131 -0.166365784475442 0 0 0 0 0 0 0
0 0 0 0 0 0 0 0 0 0 0 0 0 0 0 0 0 0 0 0 0 0 0 0 0 0 0 0 0 0 0.308510209730326 0.172761026977959 0.0418520479910989 0 0 0 0 0 0 0 0 0 0 -0.166365784475442 0 0 0 0 -2.8535915494398 0
0 0 0 0 0 0 0 0 0 0 0 0 0 0 0 0 0 0 0 0 0 0 0 0 0 0 0 0 0 0 0 0 0.293043419979682 0.0893947872816466 0.321453931198814 0.378899143897182 0.360631362110918 0.243091355086263 0 0 0 0 0 0 -0.166365784475442 0 0 0 0 0
0 0 0 0 0 0 0 0 0 0 0 0 0 0.444525301006129 0.500180879325651 0.464070925406641 0 0 0 0 0 0 0 0 0 0 0 0 0 0 0 0 0 0 0 0 0 0 0 0 0 0 0 0 0 -0.166365784475442 0 0 0 0
0.489544733518715 0.0291533844707882 0.291532962663502 0 0 0 0 0 0 0 0 0 0 0 0 0 0 0 0 0 0 0 0 0 0 0 0 0 0 0 0 0 0 0 0 0 0 0 0 0 0 0 0 0 0 0 -0.166365784475442 0 0 0
0 0 0 0 0 0 0 0 0 0 0 0 0 0 0 0 0 0 0 0 0 0 0 0 0 0 0 0 0 0 0 0 0 0 0 0.271209977063908 0.131598311412425 0.0447322909616882 0.161855034396183 0.612452255604356 0 0 0 0 0 0 0 -0.166365784475442 0 0
0 0 0 0 0 0 0 0 0 0 0 0 0 0 0 0 0 0 0 0 0 0 0 0 0 0 0 0 0 0 0 0 0 0 0 0 0 0 0 0 0 0 0 0.617102118495897 0 0 0 0 -0.166365784475442 0
0 0 0 0 0 0 0 0 0 0 0 0 0 0 0 0 0 0 0 0 0 0 0 0 0 0 0 0 0 0 0 0 0 0 0 0 0 0 0 0 0.566425708819149 0 0 0 0 0 0 0 0 -0.166365784475442
