-0.211818548320543 0 0 0 0 0 0 0 0 0 0 0 0 0 0 0 0 0 0 0 0 0 0 0 -0.317625947107185 0 0 0 -5.32955297186673 0 0 0 0 0 0 0 0 0 0 0 0 0 0 0 0 0 0 0 0 0
0 -0.211818548320543 0 0 0 0 0 0 0 0 0 0 0 0 0 0 0 0 0 0 0 0 0 0 -0.938410622892926 0 0 0 -0.629789478498593 0 0 0 0 0 0 0 0 0 0 0 0 0 0 0 0 0 0 0 0 0
0 0 -0.211818548320543 0 0 0 0 0 0 0 0 0 -0.420452316103966 0 0 0 0 0 0 0 0 0 0 -2.44797003751505 0 0 0 0 0 0 0 0 0 0 0 -0.679992756155478 0 0 0 0 0 0 0 0 0 0 0 0 0 0
0 0 0 -0.211818548320543 0 0 0 0 0 0 0 0 0 0 0 0 0 0 0 0 0 0 0 -0.642900424232183 0 0 0 0 0 0 -1.16111737962635 0 0 0 0 0 0 -0.601630260590333 0 0 0 0 0 0 0 0 0 0 0 0
0 0 0 0 -0.211818548320543 0 0 0 0 0 0 -0.0955145499706058 0 0 -2.59727590421994 0 0 0 0 0 -1.57293594013162 0 0 -0.733918243579084 0 0 0 0 0 0 -0.401734606669898 0 0 0 0 0 0 -0.343855989306879 0 0 0 0 0 0 0 0 0 0 0 0
0 0 0 0 0 -0.211818548320543 0 0 0 0 0 -0.568455549099112 0 0 -1.46324017060465 0 0 0 0 0 -0.235012512316197 0 0 -9.53530810079943 0 0 0 0 0 0 -0.809068027625325 0 0 0 0 0 0 -0.610776592127309 0 0 0 0 0 0 0 0 0 0 0 0
0 0 0 0 0 0 -0.211818548320543 0 0 0 0 0 0 0 -1.45182487578682 0 0 0 0 0 -2.70330533162025 0 0 0 0 0 0 0 0 0 0 0 0 0 0 0 0 -6.42389371013735 0 0 0 0 0 0 -7.01002823119086 0 0 0 0 0
0 0 0 0 0 0 0 -0.211818548320543 0 0 0 0 0 0 -11.0644778177689 0 0 0 0 0 -1.83888354873893 0 0 0 0 0 0 0 0 0 0 0 0 0 0 0 0 0 0 0 0 0 0 0 -0.398454670827894 0 0 0 0 0
0 0 0 0 0 0 0 0 -0.211818548320543 0 0 0 0 0 -1.54395213304746 0 0 0 0 0 -0.383256248660014 0 0 0 0 0 0 0 0 0 0 0 0 0 0 0 0 0 0 0 0 -2.30223274839027 0 0 -0.583992531403126 0 0 -10.8768237606657 0 0
0 0 0 0 0 0 0 0 0 -0.211818548320543 0 0 0 0 -0.453386769819224 0 0 0 0 0 -0.401387121330546 0 0 0 0 0 0 0 0 0 0 0 0 0 0 0 0 0 0 0 0 -0.897999829540103 0 0 0 0 0 -0.782181357141055 0 0
0 0 0 0 0 0 0 0 0 0 -0.211818548320543 0 0 0 0 0 0 0 0 -1.53996747688459 -1.49126331069929 0 0 0 0 0 0 0 0 0 0 0 0 0 0 0 0 0 0 0 0 -0.65174258740985 0 0 0 0 0 -0.51257289433154 0 0
0 0 0 0 0.0181557980019683 0.108119653061421 0 0 0 0 0 -0.211818548320543 0 0 0 0 0 0 0 -1.99298492974701 -2.58222892215941 0 0 0 0 0 0 0 0 0 0 0 -0.201894430721643 0 0 0 0 0 0 0 0 -2.17815522001153 0 0 0 0 0 -0.635855635570189 0 0
0 0 0.0803125260455764 0 0 0 0 0 0 0 0 0 -0.211818548320543 0 0 0 0 0 0 -1.81158882272373 0 0 0 0 0 0 0 0 0 0 0 0 -1.77403958058757 0 0 0 0 0 0 0 0 -1.22736382946636 0 0 0 0 0 0 0 0
0 0 0 0 0 0 0 0 0 0 0 0 0 -0.211818548320543 0 0 0 0 0 0 0 -2.79766857145309 0 0 0 0 0 0 0 0 0 0 0 0 -0.49326433980105 0 0 0 0 0 0 -0.346489013445345 0 -0.897762741740123 0 0 0 0 -1.12938219520661 0
0 0 0 0 0.532443917043235 0.291384724302795 0.286693511636491 2.25689555029022 0.296095378175782 0.0897001275567477 0 0 0 0 -0.211818548320543 0 0 -0.753649624010173 0 0 0 -0.334540115714726 0 0 0 0 0 0 0 0 0 0 0 0 -4.8675425487889 0 0 0 0 0 0 -0.137320081245205 0 -0.704877258740035 0 0 0 0 -0.137019853725748 0
0 0 0 0 0 0 0 0 0 0 0 0 0 0 0 -0.211818548320543 0 0 0 0 0 -0.97830644368513 0 0 0 0 -4.95732807204283 0 0 0 0 0 0 0 -1.72497948350246 0 0 0 0 0 0 -1.59030775685029 0 -0.308851952940221 0 0 0 0 -1.28478782705842 0
0 0 0 0 0 0 0 0 0 0 0 0 0 0 0 0 -0.211818548320543 0 0 0 0 0 0 0 0 0 -1.76391781770288 0 0 0 0 0 0 0 -1.04454759596275 0 0 0 0 0 0 -1.94860428745407 0 -0.153509793371932 0 0 0 0 0 0
0 0 0 0 0 0 0 0 0 0 0 0 0 0 0.163890597674666 0 0 -0.211818548320543 -3.22325845155641 0 0 0 0 0 0 0 -0.535158803413174 0 0 -1.05811147185641 0 0 0 0 -0.474906471142718 0 0 0 0 0 -0.596315984753614 0 0 0 0 0 0 0 0 0
0 0 0 0 0 0 0 0 0 0 0 0 0 0 0 0 0 0.645921006656819 -0.211818548320543 0 0 0 0 0 0 0 -0.19245192757324 0 0 -9.51233540700316 0 0 0 0 -1.05825181254612 0 0 0 0 0 -1.60043951795174 0 0 0 0 0 0 0 0 0
0 0 0 0 0 0 0 0 0 0 0.326769261338169 0.374658189174706 0.367094327532027 0 0 0 0 0 0 -0.211818548320543 0 0 0 0 0 0 -2.9491161406865 -6.15513628289011 0 0 0 0 0 0 -1.31634738754691 0 -0.264936041496551 0 0 0 -2.95199605470313 0 0 0 0 -7.91167906467682 0 0 0 0
0 0 0 0 0.325286804044154 0.0469327403423819 0.536521046580152 0.385946194865107 0.0813639655798185 0.0783124547511623 0.291220331636507 0.483054240175098 0 0 0 0 0 0 0 0 -0.211818548320543 0 0 0 0 0 -1.45930992988003 -0.364987792690063 0 0 0 0 0 0 -3.45280015614394 0 -0.325237398407458 0 0 0 -0.428961581514946 0 0 0 0 -1.84137807784232 0 0 0 0
0 0 0 0 0 0 0 0 0 0 0 0 0 0.599486124907537 0.070006533344785 0.193288464630202 0 0 0 0 0 -0.211818548320543 0 0 0 0 -3.58963609542921 -5.22868642651986 0 0 0 0 0 0 -1.43346880284516 0 -2.65551671632355 0 0 0 -3.31756137234206 0 0 0 0 -1.00207981546397 0 0 0 0
0 0 0 0 0 0 0 0 0 0 0 0 0 0 0 0 0 0 0 0 0 0 -0.211818548320543 0 0 -0.392492707893865 0 0 0 0 0 0 0 0 0 0 0 0 0 0 0 0 0 0 0 0 0 0 0 0
0 0 0.535417756408817 0.128787927795725 0.149033878050229 1.76328553622053 0 0 0 0 0 0 0 0 0 0 0 0 0 0 0 0 0 -0.211818548320543 0 -0.401471465680773 0 0 0 0 0 0 0 0 0 0 0 0 0 0 0 0 0 0 0 0 0 0 0 0
0.0647671962565981 0.17793965996568 0 0 0 0 0 0 0 0 0 0 0 0 0 0 0 0 0 0 0 0 0 0 -0.211818548320543 -5.66660749951017 0 0 0 0 0 0 0 0 0 0 0 0 0 0 0 0 0 0 0 0 0 0 0 0
0 0 0 0 0 0 0 0 0 0 0 0 0 0 0 0 0 0 0 0 0 0 0.0813382408911011 0.0852990399792049 1.0641060478534 -0.211818548320543 0.511887357142631 2.01777787612754 0 0 0 0 0 0 0 0 0 0 0 0 0 0 0 0 0 0 -0.622432743042011 0 0 0
0 0 0 0 0 0 0 0 0 0 0 0 0 0 0 0.953851721432745 0.342266345594837 0.104847914162273 0.0427402950239784 0.532296593861238 0.285432634400586 0.705989452449131 0 0 0 -2.32745002934872 -0.211818548320543 0 0 0 0 0 0 0 0 0 0 0 0 0 0 0 0 0 0 0 0 0 0 -0.200979445413949
0 0 0 0 0 0 0 0 0 0 0 0 0 0 0 0 0 0 0 1.2828669233328 0.0772955567958489 1.06054335750327 0 0 0 -10.6358417156203 0 -0.211818548320543 0 0 0 0 0 -1.22747410433295 0 0 0 0 0 0 0 0 0 0 0 0 0 0 0 -1.05665249121225
1.06228991451534 0.135749612784407 0 0 0 0 0 0 0 0 0 0 0 0 0 0 0 0 0 0 0 0 0 0 0 0 0 0 -0.211818548320543 0 0 0 0 -2.09388724959483 0 0 0 0 0 0 0 0 0 0 0 0 0 0 0 -5.7240546533439
0 0 0 0 0 0 0 0 0 0 0 0 0 0 0 0 0 0.199398550120192 1.80619451779804 0 0 0 0 0 0 0 0 0 0 -0.211818548320543 0 0 0 0 0 0 0 0 0 0 0 0 0 0 0 0 0 0 0 -0.47473400431346
0 0 0 0.233428162368619 0.0782854770873126 0.166112621650398 0 0 0 0 0 0 0 0 0 0 0 0 0 0 0 0 0 0 0 0 0 0 0 0 -0.211818548320543 0 0 0 0 0 0 0 0 0 0 0 0 0 0 0 0 0 0 -2.25338386223655
0 0 0 0 0 0 0 0 0 0 0 0 0 0 0 0 0 0 0 0 0 0 0 0 0 0 0 0 0 0 0 -0.211818548320543 0 0 0 0 0 0 0 0 0 0 -5.12000450312567 0 0 0 0 0 0 -0.951320626472377
0 0 0 0 0 0 0 0 0 0 0 0.0345700310254299 0.365846733893847 0 0 0 0 0 0 0 0 0 0 0 0 0 0 0 0 0 0 0 -0.211818548320543 0 0 0 0 0 0 0 0 0 -9.98440395703696 0 0 0 0 0 0 -0.237765908480904
0 0 0 0 0 0 0 0 0 0 0 0 0 0 0 0 0 0 0 0 0 0 0 0 0 0 0 0.241344194480529 0.432886117674398 0 0 0 0 -0.211818548320543 0 0 0 0 0 0 0 0 -0.230648043750523 0 0 0 0 0 0 -0.451079985321927
0 0 0 0 0 0 0 0 0 0 0 0 0 0.0930216588149587 1.04544898574954 0.335447019898545 0.209997105917575 0.100415024936912 0.224487723884141 0.255286446381346 0.66474677152606 0.293595703605917 0 0 0 0 0 0 0 0 0 0 0 0 -0.211818548320543 0 0 0 0 0 0 0 -2.38334099281283 0 0 0 0 0 0 -0.680310402012417
0 0 0.119167611545623 0 0 0 0 0 0 0 0 0 0 0 0 0 0 0 0 0 0 0 0 0 0 0 0 0 0 0 0 0 0 0 0 -0.211818548320543 0 0 0 0 0 0 0 0 0 0 0 0 0 -0.690349264313198
0 0 0 0 0 0 0 0 0 0 0 0 0 0 0 0 0 0 0 0.0526299954384126 0.0673239791876946 0.503893045240609 0 0 0 0 0 0 0 0 0 0 0 0 0 0 -0.211818548320543 0 0 0 0 0 0 0 0 0 0 0 0 -0.769699743925074
0 0 0 0.123142633965976 0.0724279279245789 0.119447713770341 1.39197338138851 0 0 0 0 0 0 0 0 0 0 0 0 0 0 0 0 0 0 0 0 0 0 0 0 0 0 0 0 0 0 -0.211818548320543 -3.29959691808736 0 0 0 0 0 0 0 0 0 0 0
0 0 0 0 0 0 0 0 0 0 0 0 0 0 0 0 0 0 0 0 0 0 0 0 0 0 0 0 0 0 0 0 0 0 0 0 0 0.654264286327614 -0.211818548320543 0.152868594322529 0 0 0 0 0 0 0 0 0 0
0 0 0 0 0 0 0 0 0 0 0 0 0 0 0 0 0 0 0 0 0 0 0 0 0 0 0 0 0 0 0 0 0 0 0 0 0 0 -0.769960057453913 -0.211818548320543 0 0 0 0 0 0 0 0 0 0
0 0 0 0 0 0 0 0 0 0 0 0 0 0 0 0 0 0.115941559984166 0.318144948726375 0.611939202121411 0.0790551589523143 0.651835652819878 0 0 0 0 0 0 0 0 0 0 0 0 0 0 0 0 0 0 -0.211818548320543 0 0 0 0 0 0 0 0 0
0 0 0 0 0 0 0 0 0.448677972686521 0.190419084442147 0.135680157424507 0.472002355196035 0.250912304877183 0.0630616167677106 0.0259737102865792 0.322199165969171 0.382557959589534 0 0 0 0 0 0 0 0 0 0 0 0 0 0 0 0 0 0 0 0 0 0 0 0 -0.211818548320543 0 0 0 0 0 0 0 0
0 0 0 0 0 0 0 0 0 0 0 0 0 0 0 0 0 0 0 0 0 0 0 0 0 0 0 0 0 0 0 1.08859931492867 1.93757157152423 0.0438669779667313 0.459333442063153 0 0 0 0 0 0 0 -0.211818548320543 0 0 0 0 0 0 0
0 0 0 0 0 0 0 0 0 0 0 0 0 0.177787178630724 0.137440779498353 0.0582517935794872 0.0313359911160337 0 0 0 0 0 0 0 0 0 0 0 0 0 0 0 0 0 0 0 0 0 0 0 0 0 0 -0.211818548320543 0 0 0 0 0 0
0 0 0 0 0 0 1.52659699485195 0.078084208393282 0.107450293443827 0 0 0 0 0 0 0 0 0 0 0 0 0 0 0 0 0 0 0 0 0 0 0 0 0 0 0 0 0 0 0 0 0 0 0 -0.211818548320543 0 0 0 0 0
0 0 0 0 0 0 0 0 0 0 0 0 0 0 0 0 0 0 0 1.53762526621716 0.365467709873659 0.197031245298072 0 0 0 0 0 0 0 0 0 0 0 0 0 0 0 0 0 0 0 0 0 0 0 -0.211818548320543 0 0 0 0
0 0 0 0 0 0 0 0 0 0 0 0 0 0 0 0 0 0 0 0 0 0 0 0 0 0.113571995418207 0 0 0 0 0 0 0 0 0 0 0 0 0 0 0 0 0 0 0 0 -0.211818548320543 0 0 0
0 0 0 0 0 0 0 0 2.04959593651454 0.163214329509128 0.103239404265493 0.122247357974318 0 0 0 0 0 0 0 0 0 0 0 0 0 0 0 0 0 0 0 0 0 0 0 0 0 0 0 0 0 0 0 0 0 0 0 -0.211818548320543 0 0
0 0 0 0 0 0 0 0 0 0 0 0 0 0.220040629274419 0.0284076063234199 0.274596148544821 0 0 0 0 0 0 0 0 0 0 0 0 0 0 0 0 0 0 0 0 0 0 0 0 0 0 0 0 0 0 0 0 -0.211818548320543 0
0 0 0 0 0 0 0 0 0 0 0 0 0 0 0 0 0 0 0 0 0 0 0 0 0 0 0.0402228115574629 0.219652407476105 1.12916688511888 0.0982686932828186 0.444281570326625 0.186222601601656 0.0544159028874942 0.0905035104165916 0.142897896117225 0.136719500656579 0.156387373770184 0 0 0 0 0 0 0 0 0 0 0 0 -0.211818548320543
