-0.421703039596069 0 0 -3.19235036670709 0 0 0 0 0 0 0 0 0 0 0 0 0 0 0 0 0 0 0 0 0 0 0 0 0 0 -0.458432779360925 0 0 0 0 0 0 0 0 0 0 0 0 0 0 0 0 0 0 0
0 -0.421703039596069 0 -1.10907316746638 0 -1.62242099471128 0 0 0 -1.35604553143806 0 0 0 0 0 0 0 0 0 0 0 0 0 0 0 0 0 0 0 0 -5.80880625344912 0 0 0 0 0 0 0 0 0 0 0 0 0 0 0 0 0 0 0
0 0 -0.421703039596069 0 0 0 -5.10720865324502 0 0 -0.502423948298289 0 0 -1.59509205831442 0 0 0 0 0 0 0 0 0 0 0 0 0 0 0 0 0 -0.340403724043847 0 0 0 0 0 0 0 0 0 0 0 0 0 0 0 0 -1.19819870146975 0 0
0.687588282082565 0.214955570239254 0 -0.421703039596069 0 0 -0.755052225069368 0 0 -1.51097225887408 0 0 -0.20015500763282 0 0 0 0 0 0 0 0 0 0 0 0 0 0 0 -2.14345574251898 0 0 0 0 0 0 0 0 0 0 0 0 0 0 0 0 0 0 -1.36858507370965 0 0
0 0 0 0 -0.421703039596069 0 0 0 0 0 0 -1.26295593445956 0 0 0 0 0 0 0 0 0 0 0 0 0 0 0 0 -1.27768173933895 0 0 0 0 0 0 0 0 0 0 0 -0.473611282195508 0 0 0 0 0 0 -0.924535837658348 0 0
0 0.320605238614167 0 0 0 -0.421703039596069 0 0 -1.43691233336279 0 0 -0.535472660042828 0 0 0 0 0 0 0 0 0 0 0 0 0 0 0 0 -1.14876277420436 0 0 0 0 0 0 0 0 0 0 0 -0.136356234767479 0 0 0 0 0 0 -1.9641204493466 0 0
0 0 1.01771545627651 0.148687782401009 0 0 -0.421703039596069 0 0 0 0 -1.40284021376022 0 0 0 0 0 0 0 0 0 0 0 0 0 0 0 0 -0.907854957378837 0 0 0 0 0 0 0 0 0 0 0 0 0 0 0 0 0 0 -0.884440904080847 0 0
0 0 0 0 0 0 0 -0.421703039596069 0 0 0 0 0 0 0 0 0 0 0 0 0 0 0 0 0 0 0 0 0 0 0 0 0 0 -0.635478713436907 0 -0.93356922544457 0 0 0 0 0 0 0 0 0 0 -0.518864351070042 0 0
0 0 0 0 0 0.271571035524003 0 0 -0.421703039596069 0 0 0 0 0 0 0 0 0 0 0 0 0 0 0 0 0 0 0 0 0 0 0 0 0 0 0 -0.734022744960118 0 0 0 0 0 0 0 0 0 0 -0.168655122849372 0 0
0 0.263720906574513 0.101035570236706 0.291056598566834 0 0 0 0 0 -0.421703039596069 0 0 0 0 -2.27286995030572 0 0 0 0 0 0 0 0 0 0 0 0 0 0 0 0 0 0 0 0 0 0 -0.700055214856164 0 0 0 0 0 0 0 0 0 -1.76430781082293 0 0
0 0 0 0 0 0 0 0 0 0 -0.421703039596069 0 0 0 -1.69990212948878 0 0 0 0 0 0 0 0 0 0 0 0 0 0 0 0 0 0 0 0 0 0 -0.202251543086413 0 0 0 0 0 0 0 0 0 -0.127237052820536 0 0
0 0 0 0 0.251327915109056 0.104695819651899 0.275726455672584 0 0 0 0 -0.421703039596069 0 0 -1.21711291620944 0 0 0 0 0 0 0 0 0 0 0 0 0 0 0 0 0 0 0 0 0 0 -0.970016561934506 0 0 0 0 0 0 0 0 0 -6.02010668950761 0 0
0 0 0.312734530734833 0.0417743326945551 0 0 0 0 0 0 0 0 -0.421703039596069 0 0 0 0 0 -1.74208654276205 0 0 0 0 0 -0.493000659031857 -1.83770678101397 0 0 0 0 0 0 -6.34749713513485 0 0 0 0 0 0 -0.17885277395817 0 0 0 0 0 0 0 -1.52126004319813 0 0
0 0 0 0 0 0 0 0 0 0 0 0 0 -0.421703039596069 0 0 0 0 -8.73189811844213 0 -1.8892960687418 0 -0.357909686891539 0 0 -0.216108865594944 0 0 0 0 0 0 0 0 0 0 0 0 0 0 0 0 0 0 -1.03634977084278 0 0 -0.377738377259299 0 0
0 0 0 0 0 0 0 0 0 0.476219110743685 0.341578378809728 0.238723636390164 0 0 -0.421703039596069 0 0 0 -0.863684839872853 0 -1.22435573538478 0 -0.251499242403011 0 0 -0.624860777171725 0 0 0 0 0 0 0 0 0 0 0 0 0 0 0 0 0 0 -0.476713336535522 0 0 0 0 0
0 0 0 0 0 0 0 0 0 0 0 0 0 0 0 -0.421703039596069 0 0 0 0 -0.280284172126983 0 0 -6.91374112516344 0 0 0 -0.244123721837056 0 0 0 0 0 0 0 0 0 0 0 0 0 0 0 0 -1.66468973856685 -1.00318336944017 0 0 0 0
0 0 0 0 0 0 0 0 0 0 0 0 0 0 0 0 -0.421703039596069 0 0 0 -0.320454463316685 0 0 0 0 0 0 -3.67219572111263 0 0 0 0 0 0 0 0 0 0 0 0 0 0 0 0 -0.495145653939062 -0.975575089755334 0 0 0 0
0 0 0 0 0 0 0 0 0 0 0 0 0 0 0 0 0 -0.421703039596069 0 0 -1.01369788798455 0 0 0 0 0 0 -0.4006975693297 0 0 0 0 0 0 0 0 0 0 0 0 0 0 0 0 -0.518955250406149 -0.559254186403093 0 0 0 0
0 0 0 0 0 0 0 0 0 0 0 0 0.315533927365014 1.62752630280528 0.170109721847858 0 0 0 -0.421703039596069 0 -0.586909543476971 0 0 0 0 0 0 -2.7276298391034 0 0 0 0 0 0 0 0 0 0 0 0 0 0 0 0 -0.122354289146768 -3.99743092246338 0 0 0 0
0 0 0 0 0 0 0 0 0 0 0 0 0 0 0 0 0 0 0 -0.421703039596069 0 0 0 0 0 0 0 0 0 0 0 0 0 0 0 0 0 0 0 0 0 0 0 0 -0.896564976210048 -0.77045639443396 0 0 0 0
0 0 0 0 0 0 0 0 0 0 0 0 0 0.394098412692789 0.252968237674877 0.0616607634474161 0.0613364819903476 0.211277995962244 0.110588514488762 0 -0.421703039596069 0 0 0 0 0 0 0 0 0 0 0 0 0 0 0 0 0 0 0 0 0 0 0 -0.57203361918621 -1.56242381291717 0 0 0 0
0 0 0 0 0 0 0 0 0 0 0 0 0 0 0 0 0 0 0 0 0 -0.421703039596069 0 0 0 0 0 0 0 0 0 0 0 0 0 0 0 0 -7.24591925734921 0 0 0 0 0 -0.634194080503365 -1.85756422013917 0 0 0 0
0 0 0 0 0 0 0 0 0 0 0 0 0 0.0713632423343982 0.0496140705275779 0 0 0 0 0 0 0 -0.421703039596069 0 0 0 0 0 0 0 0 0 0 0 0 0 0 0 -1.23844359292447 0 0 0 0 0 -1.09824143831991 -0.396686430281645 0 0 0 0
0 0 0 0 0 0 0 0 0 0 0 0 0 0 0 1.39169460837968 0 0 0 0 0 0 0 -0.421703039596069 0 0 0 0 0 0 0 0 0 0 0 0 0 0 -1.45314710340502 0 0 0 0 0 -0.561671347047032 -4.35065290243726 0 0 0 0
0 0 0 0 0 0 0 0 0 0 0 0 0.102259572011716 0 0 0 0 0 0 0 0 0 0 0 -0.421703039596069 0 0 0 0 0 0 0 0 0 0 0 0 0 -0.35541300718737 0 0 0 0 0 -0.798477369732277 0 -0.96794680387502 0 0 -1.85725624265025
0 0 0 0 0 0 0 0 0 0 0 0 0.368519318524297 0.0435780096786496 0.125909350114603 0 0 0 0 0 0 0 0 0 0 -0.421703039596069 0 0 0 0 0 0 0 0 0 0 0 0 -0.168003369648904 0 0 0 0 0 -2.86802062499351 0 -1.12202897531283 0 0 -5.53864902814052
0 0 0 0 0 0 0 0 0 0 0 0 0 0 0 0 0 0 0 0 0 0 0 0 0 0 -0.421703039596069 0 0 0 0 0 0 -1.01131688371254 0 0 0 0 -0.475612305361779 0 0 0 0 0 -0.123027735836645 0 0 0 0 -0.390102729254312
0 0 0 0 0 0 0 0 0 0 0 0 0 0 0 0.0496565247240901 0.774800803263335 0.0804902310709429 0.560723856539712 0 0 0 0 0 0 0 0 -0.421703039596069 0 0 0 0 0 -3.59766695383367 0 0 0 0 -0.359088193084865 0 0 0 0 0 -1.73599445195221 0 0 0 0 -0.913187953048734
0 0 0 0.462202319994955 0.26887800851634 0.214362144537102 0.169222277219408 0 0 0 0 0 0 0 0 0 0 0 0 0 0 0 0 0 0 0 0 0 -0.421703039596069 0 0 0 0 0 0 0 0 0 0 0 0 0 0 0 -0.614905393367634 0 0 0 0 -0.209353849853355
0 0 0 0 0 0 0 0 0 0 0 0 0 0 0 0 0 0 0 0 0 0 0 0 0 0 0 0 0 -0.421703039596069 0 0 0 0 0 0 0 0 0 0 0 0 0 0 -1.98450917969427 0 0 0 0 -2.37673872470522
0.0905624578827412 1.19082879095715 0.0672022305175629 0 0 0 0 0 0 0 0 0 0 0 0 0 0 0 0 0 0 0 0 0 0 0 0 0 0 0 -0.421703039596069 0 0 0 0 0 0 0 0 0 0 0 -8.93057751736812 0 -1.46409427929587 0 0 0 0 -4.40625215540649
0 0 0 0 0 0 0 0 0 0 0 0 0 0 0 0 0 0 0 0 0 0 0 0 0 0 0 0 0 0 0 -0.421703039596069 0 0 0 0 0 0 0 0 0 0 -3.85293058108245 0 -0.114075502785422 0 0 0 0 -1.68047118868092
0 0 0 0 0 0 0 0 0 0 0 0 1.19648697812826 0 0 0 0 0 0 0 0 0 0 0 0 0 0 0 0 0 0 0 -0.421703039596069 0 0 0 0 0 0 0 0 0 -3.15217504480238 0 -1.38886017986702 0 0 0 0 -3.91580479785281
0 0 0 0 0 0 0 0 0 0 0 0 0 0 0 0 0 0 0 0 0 0 0 0 0 0 0.219453291057419 0.685088123861882 0 0 0 0 0 -0.421703039596069 0 0 0 0 0 0 0 0 -0.809294865902719 0 -0.68321505688074 0 0 0 -1.60550502639284 -5.52560192714871
0 0 0 0 0 0 0 0.131739460107816 0 0 0 0 0 0 0 0 0 0 0 0 0 0 0 0 0 0 0 0 0 0 0 0 0 0 -0.421703039596069 0 0 0 0 0 0 0 0 0 -2.16717886729898 0 0 0 -1.10940356692612 -1.63044753199272
0 0 0 0 0 0 0 0 0 0 0 0 0 0 0 0 0 0 0 0 0 0 0 0 0 0 0 0 0 0 0 0 0 0 0 -0.421703039596069 0 0 0 0 0 0 0 0 0 0 0 0 -0.734242446531684 0
0 0 0 0 0 0 0 0.180599458666729 0.170512676669356 0 0 0 0 0 0 0 0 0 0 0 0 0 0 0 0 0 0 0 0 0 0 0 0 0 0 0 -0.421703039596069 0 0 0 0 0 0 0 0 0 0 0 -1.99975440859533 0
0 0 0 0 0 0 0 0 0 0.140996688599191 0.0411519743883299 0.21003742095464 0 0 0 0 0 0 0 0 0 0 0 0 0 0 0 0 0 0 0 0 0 0 0 0 0 -0.421703039596069 0 0 0 0 0 0 0 0 0 0 -0.0674662422850755 0
0 0 0 0 0 0 0 0 0 0 0 0 0 0 0 0 0 0 0 0 0 1.52143792359859 0.249356093280661 0.296784807890586 0.0701053937538861 0.0338065785883144 0.099541434440959 0.0718319648252815 0 0 0 0 0 0 0 0 0 0 -0.421703039596069 0 0 0 0 0 0 0 0 0 -0.660622145677832 0
0 0 0 0 0 0 0 0 0 0 0 0 0.0363725811571672 0 0 0 0 0 0 0 0 0 0 0 0 0 0 0 0 0 0 0 0 0 0 0 0 0 0 -0.421703039596069 0 0 0 0 0 0 0 0 -0.448861759477488 0
0 0 0 0 0.0885860527487158 0.0257068018238668 0 0 0 0 0 0 0 0 0 0 0 0 0 0 0 0 0 0 0 0 0 0 0 0 0 0 0 0 0 0 0 0 0 0 -0.421703039596069 0 0 0 0 0 0 0 -0.436368155346919 0
0 0 0 0 0 0 0 0 0 0 0 0 0 0 0 0 0 0 0 0 0 0 0 0 0 0 0 0 0 0 0 0 0 0 0 0 0 0 0 0 0 -0.421703039596069 0 0 0 0 0 0 -1.06803108519268 0
0 0 0 0 0 0 0 0 0 0 0 0 0 0 0 0 0 0 0 0 0 0 0 0 0 0 0 0 0 0 1.80445562360104 0.686799810557665 0.620006546876123 0.150208827412928 0 0 0 0 0 0 0 0 -0.421703039596069 0 0 0 0 0 -1.48049025720958 0
0 0 0 0 0 0 0 0 0 0 0 0 0 0 0 0 0 0 0 0 0 0 0 0 0 0 0 0 0 0 0 0 0 0 0 0 0 0 0 0 0 0 0 -0.421703039596069 0 0 0 0 -0.440798424122646 0
0 0 0 0 0 0 0 0 0 0 0 0 0 0.206337574057247 0.0994604726762858 0.33249478888209 0.106776622626588 0.106477917818187 0.0225790538099418 0.176555047119634 0.12201678408123 0.114634086349495 0.224669975090322 0.117285031501667 0.165830702553978 0.531524463766915 0.0256004600655371 0.317889167209441 0.106378450268363 0.419285671230464 0.287703015820706 0.0216954097706529 0.28332083185925 0.135811299109195 0.425766694411977 0 0 0 0 0 0 0 0 0 -0.421703039596069 0 0 0 -0.148363735728896 0
0 0 0 0 0 0 0 0 0 0 0 0 0 0 0 0.19885125902876 0.195772432490111 0.112416201985483 0.778813407434563 0.142447966551598 0.295230023373085 0.355725457081524 0.0821219237714767 0.821200818722461 0 0 0 0 0 0 0 0 0 0 0 0 0 0 0 0 0 0 0 0 0 -0.421703039596069 0 0 -1.316259805645 0
0 0 0 0 0 0 0 0 0 0 0 0 0 0 0 0 0 0 0 0 0 0 0 0 0.194277329835524 0.228955719853177 0 0 0 0 0 0 0 0 0 0 0 0 0 0 0 0 0 0 0 0 -0.421703039596069 0 0 0
0 0 0.225201962077237 0.251742584121864 0.17566092332619 0.409405181088102 0.19310546289737 0.110425925094696 0.0301782111573163 0.345560941382268 0.0247431729376835 1.16598114890425 0.320756321511519 0.0789854030875362 0 0 0 0 0 0 0 0 0 0 0 0 0 0 0 0 0 0 0 0 0 0 0 0 0 0 0 0 0 0 0 0 0 -0.421703039596069 0 0
0 0 0 0 0 0 0 0 0 0 0 0 0 0 0 0 0 0 0 0 0 0 0 0 0 0 0 0 0 0 0 0 0 0.337076246052397 0.226184038389822 0.152909304838413 0.427415997388531 0.0131378615068888 0.135450496923351 0.0873519358367873 0.0862303925821489 0.217165782021532 0.282569996544113 0.0883424312318364 0.0285234606670257 0.269247210637887 0 0 -0.421703039596069 0
0 0 0 0 0 0 0 0 0 0 0 0 0 0 0 0 0 0 0 0 0 0 0 0 0.370933575148143 1.17762264098969 0.0814546607516499 0.181400845086436 0.0434500720697777 0.468891458255524 0.833032297504329 0.333802888400187 0.783460618673099 1.13067265206614 0.346725692210425 0 0 0 0 0 0 0 0 0 0 0 0 0 0 -0.421703039596069
