0.111094548978635
0.959294097161749
2.20292759621003
0.524359709212715
3.29787384947776
2.63052387123214
1.54823768895837
2.47459295313192
0.787329569743656
2.77487121677901
3.81280630446117
3.79349630477043
0.267459194732767
0.474298435855728
0.129317848625631
0.412226143856061
0.488124489617587
0.536371045963125
0.287961102705449
1.45067782077216
1.16684495882811
0.100853624188257
0.310563298406536
1.38681218838419
0.658576145309815
0.402071020229193
1.68608131257504
2.08821365957798
2.44366929644517
0.599139566407236
0.215703378426266
3.52751207195971
0.590014726051016
0.475277992915242
0.982767614715952
1.357398047782
1.03330033019067
1.12074032638964
0.897801908985235
2.96692359678352
2.21425602827316
1.25867219668299
0.295944625992333
0.503266629432847
0.340605862554194
3.11442581480577
1.33162657029565
0.983605314026379
0.15324133449882
1.21297832493131
