0.147706713963625
0.506405906926096
5.41846050856333
0.202243484393119
0.504998089531435
1.58867502651727
1.19978142612959
2.06254424086001
0.813479986348192
0.294903621957089
2.59587334254333
0.294753587988245
1.14379208190117
4.92182869725873
0.235681664235932
1.64539059996689
1.08004545182533
0.156306420784511
0.346014734975346
1.11707694319915
0.249833183622519
1.57510027816676
0.295585291958121
1.62659690343736
3.87689318504024
1.41907026860716
0.847976784205384
3.37394342237955
0.328969535494145
1.17772608318378
1.82289846495189
0.474313616539217
0.615294364771863
1.35911865767197
2.44130776689511
0.976595649633278
1.34382202267506
1.21181272228718
0.532770325710784
0.678827991815055
0.346658287696628
1.95184045644447
0.971894751471962
0.377586468521184
0.492500178098715
11.4486395055225
1.10401540368147
2.18025067900214
0.247718741227758
7.66991649802263
