0.121340408241498
0.135538911630493
2.27675399132586
1.13032520759351
0.625472055232473
0.413937494898981
0.433275578983649
2.17152337250542
2.4210023896083
0.571278764583564
1.79322039543202
0.157928567367168
1.41799745245399
1.18809864233838
1.89137555067073
2.58317905059468
2.73034058267733
0.487357016598933
1.79061305829071
2.66698403040829
0.844986884392117
0.632104161967817
0.176405535302927
1.26878708403358
0.26264355617837
0.613520911306455
0.693755151561552
2.82192990601915
1.24611220140071
1.77593920076861
0.55817065009879
3.9173531580357
1.15232806985999
2.84843141053393
0.478123516537856
0.37815621588119
0.616569156237187
0.992866775679157
1.46628115106613
3.13560205743418
0.922183972597322
5.74596317772211
3.62824644581205
0.0935560196831376
0.554639119313098
1.57894572992326
0.919096090608002
1.27485150770414
0.434623791377403
0.814746989590972
