-0.120254895717497 0 0 0 0 0 0 0 0 0 0 -0.192617755320214 0 0 0 0 0 0 0 0 0 0 0 0 0 0 0 0 0 0 0 0 0 0 0 0 0 0 0 0 0 0 0 0 0 0 0 0 0 0
0 -0.120254895717497 0 0 0 0 -1.50771502983489 -1.44247089857602 0 0 0 0 0 0 0 0 0 0 0 -1.22470902380657 0 0 0 0 -6.23731959488628 -0.794310278022539 0 0 0 0 0 0 0 0 0 0 0 0 0 -1.23360802755683 0 0 0 0 0 0 0 0 0 0
0 0 -0.120254895717497 0 0 0 0 0 0 0 0 0 0 0 0 0 0 0 0 -0.936719283848869 0 0 0 0 0 -2.79927413272962 0 0 0 0 0 0 0 0 0 0 0 0 0 0 0 0 0 0 0 0 0 0 0 0
0 0 0 -0.120254895717497 0 0 0 0 0 0 0 0 0 0 0 0 0 0 0 -3.3065825974977 0 0 0 -2.6463690801958 0 0 0 0 0 0 0 0 0 0 0 0 0 0 0 0 0 0 0 0 0 0 0 0 0 0
0 0 0 0 -0.120254895717497 0 0 0 0 0 0 0 0 0 0 0 0 0 0 -1.76854826418176 0 0 0 -1.58586738724027 0 0 0 0 0 0 0 0 0 0 0 0 0 0 0 0 0 0 0 0 0 0 0 -1.75029350168046 0 0
0 0 0 0 0 -0.120254895717497 0 0 0 0 0 0 -0.898100204685817 0 0 0 0 -2.33228029092176 0 -1.98219740169196 0 0 0 -0.91479481082451 0 0 0 0 0 0 0 0 0 0 0 0 0 0 0 0 0 0 0 0 0 0 0 0 0 0
0 0.312725141916398 0 0 0 0 -0.120254895717497 0 0 0 0 0 -0.466584644968534 0 0 0 0 -1.781032026581 0 0 -3.10618841787181 0 0 0 0 0 0 0 0 0 0 0 0 0 0 0 0 0 0 0 0 0 0 0 0 0 0 0 0 0
0 0.281008084340883 0 0 0 0 0 -0.120254895717497 0 0 0 0 -2.5611272610203 0 0 0 0 -0.166072091093544 0 0 -0.483322891507093 0 0 0 0 0 0 0 0 0 0 0 0 0 0 0 0 0 0 0 0 0 0 0 0 0 0 0 0 0
0 0 0 0 0 0 0 0 -0.120254895717497 0 0 0 -0.761623642931464 0 0 0 0 0 0 0 -4.72021742497105 0 0 0 0 0 0 0 0 0 0 0 0 0 0 0 0 0 0 0 0 0 0 0 0 0 0 0 0 0
0 0 0 0 0 0 0 0 0 -0.120254895717497 0 0 -0.452200540517047 0 0 0 0 0 0 0 0 0 0 0 0 0 0 0 0 0 0 0 0 0 0 0 0 0 0 0 0 0 0 0 0 0 0 0 0 0
0 0 0 0 0 0 0 0 0 0 -0.120254895717497 0 0 -0.695013418878809 -1.60757026085789 0 0 0 0 0 0 0 0 0 0 0 0 0 0 0 0 0 0 0 0 0 0 0 0 0 0 0 0 0 0 0 0 0 0 0
0.0386545112931349 0 0 0 0 0 0 0 0 0 0 -0.120254895717497 0 0 -1.29712905130088 0 -1.77937046220868 0 -3.77218350210331 0 0 0 0 0 0 0 0 0 0 0 -0.33001477483365 0 0 0 -0.916220502940824 0 0 0 0 0 0 0 0 0 0 0 0 0 0 0
0 0 0 0 0 0.183752628413907 0.092472321867665 0.565626540406498 0.156970309631818 0.0953502640490018 0 0 -0.120254895717497 0 -2.30882550658116 0 -0.197304216561298 0 -1.03396177578609 0 0 0 0 0 0 0 0 0 0 0 -0.646467019678945 0 0 0 -0.488979667371563 0 0 0 0 0 0 0 0 0 0 0 0 0 0 0
0 0 0 0 0 0 0 0 0 0 0.141003024471563 0 0 -0.120254895717497 0 0 -0.224517375457243 0 0 0 0 0 0 0 0 0 0 0 0 0 -0.450414713685315 0 0 0 -1.61778949802503 0 0 0 0 0 0 0 0 0 0 0 0 0 0 -1.39711361279253
0 0 0 0 0 0 0 0 0 0 0.335550318945664 0.251503015565923 0.44794830153796 0 -0.120254895717497 0 0 0 0 0 0 0 0 0 0 0 0 0 0 0 -2.01938869414256 0 0 0 -0.803890156407745 0 0 0 0 0 0 0 0 0 0 0 0 0 0 -1.37963714539095
0 0 0 0 0 0 0 0 0 0 0 0 0 0 0 -0.120254895717497 0 0 0 0 0 -3.01338059390645 0 0 0 0 0 0 0 0 0 -0.81783004101022 -0.710925388589369 0 -1.87318833786034 0 0 0 0 0 0 0 0 0 0 0 0 0 0 0
0 0 0 0 0 0 0 0 0 0 0 0.344698779363252 0.0385605196517028 0.0426622823457939 0 0 -0.120254895717497 0 0 0 0 -0.619336092345844 0 0 0 0 0 0 0 0 0 0 -1.32316220426233 0 -2.76965578978847 0 0 0 0 0 0 0 0 0 0 0 0 0 0 0
0 0 0 0 0 0.490467857226493 0.364216333294192 0.0356240424865297 0 0 0 0 0 0 0 0 0 -0.120254895717497 0 0 0 -5.42312572624561 0 0 0 0 0 0 0 0 0 0 -0.622257982947803 0 -1.54639885750897 0 0 0 0 0 0 0 0 0 0 0 0 0 0 0
0 0 0 0 0 0 0 0 0 0 0 0.768648933397323 0.195578167835183 0 0 0 0 0 -0.120254895717497 0 0 0 0 0 0 0 -0.793765528107975 0 0 0 0 0 -2.75589658067161 0 0 0 0 0 0 0 0 0 0 0 -0.435610929738131 0 0 0 -1.59111684979982 0
0 0.264594287805032 0.191625397862153 0.679226418711125 0.346293783590766 0.382046463193755 0 0 0 0 0 0 0 0 0 0 0 0 0 -0.120254895717497 0 0 0 0 0 0 0 -1.82341356600157 0 0 0 0 0 0 0 0 0 0 0 0 0 0 0 0 -3.32096199288137 0 0 0 -0.612764154968747 0
0 0 0 0 0 0 0.608468721867393 0.0999861141894716 1.00123428531083 0 0 0 0 0 0 0 0 0 0 0 -0.120254895717497 0 0 0 0 0 0 -3.29176689796998 0 0 0 0 0 0 0 0 0 0 0 0 0 0 0 0 -1.00581145915261 0 0 0 -0.911330880838315 0
0 0 0 0 0 0 0 0 0 0 0 0 0 0 0 0.620021456503084 0.125649023061616 1.10816130667925 0 0 0 -0.120254895717497 0 0 0 0 0 -1.5499484708283 0 0 0 0 0 0 0 0 -0.228307528170693 0 0 0 0 0 0 0 -2.01205911812079 0 0 0 -0.812151925861156 0
0 0 0 0 0 0 0 0 0 0 0 0 0 0 0 0 0 0 0 0 0 0 -0.120254895717497 0 0 0 0 -2.31688625892478 0 0 0 0 0 0 0 0 -0.328928610506685 0 0 0 0 0 0 0 -3.83851471270769 0 0 0 -0.772536671217559 0
0 0 0 0.535085320995347 0.310867954774789 0.157819045539691 0 0 0 0 0 0 0 0 0 0 0 0 0 0 0 0 0 -0.120254895717497 0 0 0 -1.64022987508911 0 0 0 0 0 0 0 0 -0.168588996033061 0 0 0 0 0 0 0 -0.300333329629061 0 0 0 -0.766878942245485 0
0 1.18819142361345 0 0 0 0 0 0 0 0 0 0 0 0 0 0 0 0 0 0 0 0 0 0 -0.120254895717497 0 0 -0.290402247729456 0 0 0 0 0 0 0 0 -0.455648908616147 0 0 0 0 0 0 0 -0.140814653344281 0 0 0 -0.576365161668045 0
0 0.153191340608373 0.601400169748801 0 0 0 0 0 0 0 0 0 0 0 0 0 0 0 0 0 0 0 0 0 0 -0.120254895717497 0 0 0 0 0 0 0 0 0 0 0 0 0 0 0 0 0 0 -0.386545938268381 0 0 0 -2.17868158673104 0
0 0 0 0 0 0 0 0 0 0 0 0 0 0 0 0 0 0 0.16008209640567 0 0 0 0 0 0 0 -0.120254895717497 0 0 0 0 0 0 0 0 0 0 0 0 0 0 0 0 0 -2.12432720518149 0 0 0 -1.50597330466648 0
0 0 0 0 0 0 0 0 0 0 0 0 0 0 0 0 0 0 0 0.374861771513608 0.687818719588759 0.300850808182804 0.437321532337488 0.319050202621165 0.0559151905625658 0 0 -0.120254895717497 0 0 0 0 0 0 0 0 0 0 0 0 0 0 0 0 -0.288901905501584 0 0 0 -2.36315017765087 0
0 0 0 0 0 0 0 0 0 0 0 0 0 0 0 0 0 0 0 0 0 0 0 0 0 0 0 0 -0.120254895717497 0 0 0 0 0 0 0 0 0 0 0 0 0 0 0 0 0 0 0 -1.11587988966206 0
0 0 0 0 0 0 0 0 0 0 0 0 0 0 0 0 0 0 0 0 0 0 0 0 0 0 0 0 0 -0.120254895717497 0 0 0 0 0 -1.81664166820876 0 0 0 0 0 0 0 -0.766604469510226 0 0 0 0 -2.89929457375141 0
0 0 0 0 0 0 0 0 0 0 0 0.0678029685519225 0.133606771038144 0.0880668882560088 0.385104917701257 0 0 0 0 0 0 0 0 0 0 0 0 0 0 0 -0.120254895717497 0 0 0 0 -1.84621277464502 0 0 0 0 0 0 0 -4.18890798044769 0 0 0 0 0 0
0 0 0 0 0 0 0 0 0 0 0 0 0 0 0 0.158886775467445 0 0 0 0 0 0 0 0 0 0 0 0 0 0 0 -0.120254895717497 0 0 0 0 0 0 0 0 0 0 -2.08487478218511 -1.05367202357475 0 0 0 0 0 0
0 0 0 0 0 0 0 0 0 0 0 0 0 0 0 0.145833120906066 0.263937688057793 0.125069296055483 0.525220832705035 0 0 0 0 0 0 0 0 0 0 0 0 0 -0.120254895717497 0 0 0 0 0 0 0 0 0 -0.435675910961644 -0.971526376084429 0 0 0 0 0 0
0 0 0 0 0 0 0 0 0 0 0 0 0 0 0 0 0 0 0 0 0 0 0 0 0 0 0 0 0 0 0 0 0 -0.120254895717497 0 0 0 -0.0562352723910639 0 0 -4.68894857665331 -1.58497433971442 -0.638495524932501 0 0 0 -3.03177863224122 0 0 0
0 0 0 0 0 0 0 0 0 0 0 0.171825387463922 0.0954232695972126 0.320489220063419 0.139138525147228 0.358668505261241 0.507411258979985 0.306346740086277 0 0 0 0 0 0 0 0 0 0 0 0 0 0 0 0 -0.120254895717497 0 0 -1.28129673207415 0 0 -0.491556298880695 -0.823037825884339 -0.408727963262838 0 0 0 -0.904144326731106 0 0 0
0 0 0 0 0 0 0 0 0 0 0 0 0 0 0 0 0 0 0 0 0 0 0 0 0 0 0 0 0 0.367357717669829 0.369936194547535 0 0 0 0 -0.120254895717497 0 0 0 0 -0.2067601873764 0 -0.204600305691166 0 0 0 0 0 0 0
0 0 0 0 0 0 0 0 0 0 0 0 0 0 0 0 0 0 0 0 0 0.0410399426678775 0.0627011118091614 0.0380486016411737 0.0917878987027122 0 0 0 0 0 0 0 0 0 0 0 -0.120254895717497 0 0 0 -2.39481018889043 0 0 0 0 0 0 0 0 0
0 0 0 0 0 0 0 0 0 0 0 0 0 0 0 0 0 0 0 0 0 0 0 0 0 0 0 0 0 0 0 0 0 0.0107461720251675 0.245794892120261 0 0 -0.120254895717497 0 0 0 0 0 0 0 -4.14517285865931 0 0 0 0
0 0 0 0 0 0 0 0 0 0 0 0 0 0 0 0 0 0 0 0 0 0 0 0 0 0 0 0 0 0 0 0 0 0 0 0 0 0 -0.120254895717497 0 0 0 0 0 0 -1.47083746422094 0 0 0 0
0 0.237226589336575 0 0 0 0 0 0 0 0 0 0 0 0 0 0 0 0 0 0 0 0 0 0 0 0 0 0 0 0 0 0 0 0 0 0 0 0 0 -0.120254895717497 0 0 0 0 0 -0.886954366217421 0 0 0 0
0 0 0 0 0 0 0 0 0 0 0 0 0 0 0 0 0 0 0 0 0 0 0 0 0 0 0 0 0 0 0 0 0 0.924165072698288 0.101181635677504 0.0428623778279994 0.472232857259559 0 0 0 -0.120254895717497 0 0 0 0 0 0 0 0 0
0 0 0 0 0 0 0 0 0 0 0 0 0 0 0 0 0 0 0 0 0 0 0 0 0 0 0 0 0 0 0 0 0 0.309335693195659 0.163004096558195 0 0 0 0 0 0 -0.120254895717497 0 0 0 0 0 0 0 0
0 0 0 0 0 0 0 0 0 0 0 0 0 0 0 0 0 0 0 0 0 0 0 0 0 0 0 0 0 0 0 0.416281470223674 0.0824894615856447 0.124498986144881 0.0876311924783614 0.042063997993065 0 0 0 0 0 0 -0.120254895717497 0 0 0 0 0 0 0
0 0 0 0 0 0 0 0 0 0 0 0 0 0 0 0 0 0 0 0 0 0 0 0 0 0 0 0 0 0.153270435802144 0.902774283082058 0.212308817739466 0.210038897344472 0 0 0 0 0 0 0 0 0 0 -0.120254895717497 0 0 0 0 0 0
0 0 0 0 0 0 0 0 0 0 0 0 0 0 0 0 0 0 0.0926551184026281 0.699519460506743 0.183770304082299 0.41746171271948 0.80085044689705 0.0571198714137535 0.0299193494137385 0.0780455856465851 0.429539437882094 0.0582016420300497 0 0 0 0 0 0 0 0 0 0 0 0 0 0 0 0 -0.120254895717497 0 0 0 0 0
0 0 0 0 0 0 0 0 0 0 0 0 0 0 0 0 0 0 0 0 0 0 0 0 0 0 0 0 0 0 0 0 0 0 0 0 0 0.897711074676999 0.274096860164706 0.182851357830208 0 0 0 0 0 -0.120254895717497 0 0 0 0
0 0 0 0 0 0 0 0 0 0 0 0 0 0 0 0 0 0 0 0 0 0 0 0 0 0 0 0 0 0 0 0 0 0.643022805576499 0.18507041247871 0 0 0 0 0 0 0 0 0 0 0 -0.120254895717497 0 0 0
0 0 0 0 0.349206946982093 0 0 0 0 0 0 0 0 0 0 0 0 0 0 0 0 0 0 0 0 0 0 0 0 0 0 0 0 0 0 0 0 0 0 0 0 0 0 0 0 0 0 -0.120254895717497 0 0
0 0 0 0 0 0 0 0 0 0 0 0 0 0 0 0 0 0 0.322246864238305 0.122949072660065 0.17463834592845 0.168637935156664 0.164485606079402 0.173503955676439 0.10770871473987 0.444069819327369 0.310436517294866 0.487153608297505 0.229892098768083 0.50524933401706 0 0 0 0 0 0 0 0 0 0 0 0 0 0 0 0 0 0 -0.120254895717497 0
0 0 0 0 0 0 0 0 0 0 0 0 0 0.276913837425863 0.276817475017273 0 0 0 0 0 0 0 0 0 0 0 0 0 0 0 0 0 0 0 0 0 0 0 0 0 0 0 0 0 0 0 0 0 0 -0.120254895717497
