0.300857917299718
0.5065091826887
0.523205504486862
1.30609370462437
0.276630535864212
0.335386496937723
4.57653107150099
1.6304864309208
1.04295401506812
2.45055035772546
3.15124555271858
1.64982515836465
0.742913240748912
1.77350026602621
1.1738074060633
0.50700757607079
3.79665328219269
0.232253297862422
1.63176335213728
0.48256646474251
0.575707098119853
1.0608609790231
7.89307350963232
1.3034081039264
1.85653496127469
2.99189530131032
0.503327336893691
4.67527365151699
5.05021675708031
1.85030941380517
0.407532217494586
2.8893678853935
0.214568433022418
3.08225459330638
3.21077268964587
0.405395312944777
0.830704649403572
0.773881140965868
1.15979788373412
1.38618164949217
0.333168358409057
1.25560959299874
0.429056524789756
0.521874925450384
3.37552701044146
0.414888404627112
3.69005233848645
0.284021376393989
1.03876144428192
0.238320100082146
