4.89772142759237
0.291536188929449
0.380359247068979
1.56072429484556
2.24324305009465
7.90395819052362
0.745670189274908
0.531614873632668
0.786241493225462
0.443759161460563
1.14183432600428
4.74206918617662
0.170400200034963
0.466241816088864
2.08119899551105
0.857240284376072
1.52031257181127
0.4200979842072
0.301218451277381
0.976592335224073
0.185543151071759
2.19450132118475
0.601196972464394
0.941375557431959
1.20865155687045
0.252439680307644
0.268159797704254
1.41183430974847
3.83787446534224
5.24337238089983
0.892641626268445
7.98402649724436
5.27390126212447
4.21975843205181
1.66805220092222
2.89678576236513
2.53442607670084
4.895766452125
2.9815163673593
1.08278997913068
0.58304440190982
6.34631353926822
4.66056563588559
2.03792726146215
2.15918532665014
1.10245021499727
1.25722355846585
0.226717925553805
0.551260476303769
0.815475470672699
