-0.387369941112784 0 -0.464085962213092 0 0 0 0 0 0 0 0 0 0 0 0 0 0 0 0 0 0 0 0 0 0 0 0 0 0 0 0 0 0 0 0 0 0 0 0 0 0 -0.179065604020743 0 0 0 0 0 0 0 0
0 -0.387369941112784 0 0 0 0 0 -4.0410967401704 0 0 -1.02877518397551 0 0 0 0 0 0 0 -1.6907763253853 0 0 0 0 0 0 0 0 0 -1.14522086791536 0 0 0 0 0 0 0 0 0 0 0 0 -0.217451199684101 0 0 0 0 0 0 0 0
0.0971120331272737 0 -0.387369941112784 0 0 0 0 0 0 0 0 0 0 0 0 0 0 0 -1.81720964040191 0 0 0 0 0 0 0 0 0 0 0 0 0 0 0 0 0 0 0 0 0 0 0 0 0 0 0 0 0 0 0
0 0 0 -0.387369941112784 0 0 0 0 0 0 0 0 0 0 0 0 0 0 0 0 0 0 0 0 0 0 0 0 0 0 0 0 0 0 0 0 -0.832576061614081 0 0 0 0 0 0 0 0 0 0 0 0 0
0 0 0 0 -0.387369941112784 0 0 0 0 -0.129030348173082 0 0 0 0 0 -0.257679928622128 0 0 0 -1.28878546231852 0 0 0 0 0 0 0 0 0 0 0 0 0 0 0 0 -0.948281982925943 0 0 0 0 0 -0.955638964043927 0 0 0 0 0 0 0
0 0 0 0 0 -0.387369941112784 0 0 0 0 0 0 0 0 0 -1.78457873255656 0 0 0 -2.8675986062035 0 0 0 0 0 0 0 0 0 0 0 0 0 0 0 0 -0.97953797712864 0 0 0 0 0 -0.499257085274441 0 0 0 0 0 0 0
0 0 0 0 0 0 -0.387369941112784 0 0 0 0 0 0 0 0 -4.15638022580457 0 0 0 -1.02338835670848 0 0 0 0 0 0 0 0 0 0 0 0 0 0 0 0 -5.94307647675298 0 0 0 0 0 -0.465050138060702 0 0 0 0 0 0 0
0 0.737031641530701 0 0 0 0 0 -0.387369941112784 0 0 0 0 0 0 0 -0.0775026224299059 0 0 0 0 0 0 0 0 0 0 0 0 0 0 0 0 0 0 0 0 -0.420469713009789 0 0 0 0 0 0 0 0 0 0 0 0 0
0 0 0 0 0 0 0 0 -0.387369941112784 0 0 0 0 0 0 -0.8638022308273 0 0 0 0 0 0 0 0 0 0 0 0 0 0 0 0 0 0 0 0 -0.309156814064715 0 0 0 0 0 0 0 0 0 0 0 0 0
0 0 0 0 0.02419059418508 0 0 0 0 -0.387369941112784 0 -0.460358794844059 0 0 0 0 0 0 0 0 0 0 0 0 0 0 0 0 0 0 0 0 0 0 0 0 -0.477625795474594 0 0 0 0 0 0 0 0 0 0 0 0 0
0 0.203827766206719 0 0 0 0 0 0 0 0 -0.387369941112784 -0.416841426518402 -0.731325753283087 0 0 0 0 0 0 0 0 0 0 0 0 0 0 0 0 0 0 0 0 0 0 0 -0.997519701884508 0 0 0 0 0 0 0 0 0 0 0 0 0
0 0 0 0 0 0 0 0 0 0.0865290797700847 0.0828125920336375 -0.387369941112784 -2.56118010753636 0 0 0 0 -2.01322536293749 0 0 0 0 0 0 0 0 0 0 0 0 0 0 0 0 0 0 -3.15748890936495 0 0 0 0 0 0 0 0 0 0 0 0 0
0 0 0 0 0 0 0 0 0 0 0.156863018000097 0.517998399655164 -0.387369941112784 0 0 0 0 0 0 0 0 0 0 0 0 0 0 0 0 0 0 0 0 0 0 0 -0.888898087088303 0 0 0 0 0 0 0 0 0 0 0 0 0
0 0 0 0 0 0 0 0 0 0 0 0 0 -0.387369941112784 -2.6600902087425 0 0 0 0 0 0 0 0 0 0 0 0 0 0 0 0 0 0 0 0 0 0 0 0 0 0 0 0 0 0 0 0 0 0 0
0 0 0 0 0 0 0 0 0 0 0 0 0 0.498601137973212 -0.387369941112784 0.171046410046457 0 0 0 0 0 0 0 0 0 0 0 0 0 0 0 0 0 0 0 0 0 0 0 -0.411262929650468 0 0 0 0 0 0 0 0 0 0
0 0 0 0 0.0564857500916931 0.355708608485856 0.856955945027747 0.0141845156560976 0.179351462812273 0 0 0 0 0 -0.822766830245033 -0.387369941112784 0 0 0 0 0 0 0 0 0 0 0 0 0 0 0 0 0 0 0 0 0 0 0 -0.842697979026461 0 0 0 0 0 0 0 0 0 0
0 0 0 0 0 0 0 0 0 0 0 0 0 0 0 0 -0.387369941112784 0 0 0 0 0 0 0 0 0 0 0 0 0 0 0 0 0 0 0 0 0 0 -2.06517048879413 0 0 0 0 0 0 0 0 0 0
0 0 0 0 0 0 0 0 0 0 0 0.438493517736012 0 0 0 0 0 -0.387369941112784 0 0 0 0 0 0 0 0 0 0 0 0 0 0 0 0 0 0 0 0 0 -0.897063853666362 0 0 0 0 0 0 0 0 0 0
0 0.322872440770141 0.383700768773778 0 0 0 0 0 0 0 0 0 0 0 0 0 0 0 -0.387369941112784 0 0 0 0 0 0 0 0 0 0 0 0 0 0 0 0 0 0 0 0 -0.81440801517306 0 0 0 0 0 0 0 0 0 0
0 0 0 0 0.267371571333857 0.579216453379082 0.206978269820387 0 0 0 0 0 0 0 0 0 0 0 0 -0.387369941112784 0 0 0 0 0 0 0 0 0 0 0 0 0 0 0 0 0 0 0 -2.78033027584007 0 0 0 0 0 0 0 0 0 0
0 0 0 0 0 0 0 0 0 0 0 0 0 0 0 0 0 0 0 0 -0.387369941112784 0 0 0 0 0 -1.19936218943849 0 0 0 0 0 0 0 -0.183392836778677 0 0 0 0 -0.844379855311464 0 0 0 0 -2.41796494691856 0 0 0 0 0
0 0 0 0 0 0 0 0 0 0 0 0 0 0 0 0 0 0 0 0 0 -0.387369941112784 -1.00835902008748 0 0 0 0 0 0 -1.45389859703771 0 0 -1.08486420253565 0 0 0 0 0 0 0 0 0 0 0 -1.74405341944815 0 0 0 -0.429157082727112 0
0 0 0 0 0 0 0 0 0 0 0 0 0 0 0 0 0 0 0 0 0 0.20566373366651 -0.387369941112784 0.163108211489691 0.39948623417725 0.238806920496531 0.088236383095002 0 0 0 0 0 0 0 0 0 0 0 0 0 -2.58565532652116 0 0 0 -0.948266682905247 -0.836211502098379 0 0 0 0
0 0 0 0 0 0 0 0 0 0 0 0 0 0 0 0 0 0 0 0 0 0 -0.732941115139911 -0.387369941112784 0 0 0 0 0 0 0 0 0 -0.170039266225604 0 0 0 0 0 0 -0.154493614104073 0 0 0 -0.963332036727617 -0.982686416430551 0 0 0 0
0 0 0 0 0 0 0 0 0 0 0 0 0 0 0 0 0 0 0 0 0 0 -2.03586490386348 0 -0.387369941112784 0 0 0 0 0 0 0 0 -0.260001510782557 0 0 0 0 0 0 -2.0317008029964 0 0 0 -0.281868936952743 -0.360513621299948 0 0 0 0
0 0 0 0 0 0 0 0 0 0 0 0 0 0 0 0 0 0 0 0 0 0 -1.11766098968024 0 0 -0.387369941112784 0 0 0 0 0 0 0 -1.71628958300579 0 0 0 0 0 0 -1.84198234166634 0 0 0 -0.845530317610636 -1.39124867131156 0 -1.17745759803775 0 0
0 0 0 0 0 0 0 0 0 0 0 0 0 0 0 0 0 0 0 0 0.243457645898829 0 -0.415549222737088 0 0 0 -0.387369941112784 0 0 0 0 0 0 -0.942219385232385 0 0 0 0 0 0 0 0 0 0 -0.992789412269723 -0.693963697371488 0 -1.82671658921612 0 0
0 0 0 0 0 0 0 0 0 0 0 0 0 0 0 0 0 0 0 0 0 0 0 0 0 0 0 -0.387369941112784 0 0 0 0 0 -1.52995240329641 0 0 0 0 0 0 0 0 0 0 -0.819714255823216 -0.174930888829866 0 -0.721872947199443 0 0
0 0.230067412396436 0 0 0 0 0 0 0 0 0 0 0 0 0 0 0 0 0 0 0 0 0 0 0 0 0 0 -0.387369941112784 0 0 0 0 -0.933643989429938 0 0 0 0 0 0 0 0 0 -1.00675238037582 0 -0.784570772289229 0 0 0 0
0 0 0 0 0 0 0 0 0 0 0 0 0 0 0 0 0 0 0 0 0 0.265854350662084 0 0 0 0 0 0 0 -0.387369941112784 0 0 0 -2.19565795067774 0 0 0 0 0 0 0 0 0 -0.742867300344717 0 -2.50132474383285 0 0 0 0
0 0 0 0 0 0 0 0 0 0 0 0 0 0 0 0 0 0 0 0 0 0 0 0 0 0 0 0 0 0 -0.387369941112784 0 0 -5.46870180010277 0 0 0 0 0 0 0 0 0 -0.793649249276365 0 -0.599387744242326 0 0 0 0
0 0 0 0 0 0 0 0 0 0 0 0 0 0 0 0 0 0 0 0 0 0 0 0 0 0 0 0 0 0 0 -0.387369941112784 0 -0.347728519112012 0 0 0 0 0 0 0 0 0 -1.23210963071682 0 -0.453680069137336 0 0 0 0
0 0 0 0 0 0 0 0 0 0 0 0 0 0 0 0 0 0 0 0 0 0.233466437648143 0 0 0 0 0 0 0 0 0 0 -0.387369941112784 -2.32665392961621 0 0 0 0 0 0 0 0 0 -0.618034340302517 0 -0.450709192122963 0 0 0 0
0 0 0 0 0 0 0 0 0 0 0 0 0 0 0 0 0 0 0 0 0 0 0 0.0361530472022174 0.056078218668243 0.395699183310751 0.198530959961747 0.302313229366361 0.198911943467677 0.429459143748247 1.03974461237036 0.0692028146120234 0.471551513838278 -0.387369941112784 0.17191916824001 0 0 0 0 0 0 0 0 -0.267947393039364 0 -0.293926903510585 0 0 0 0
0 0 0 0 0 0 0 0 0 0 0 0 0 0 0 0 0 0 0 0 0.0376899005935955 0 0 0 0 0 0 0 0 0 0 0 0 -0.93309352630377 -0.387369941112784 0 0 0 0 0 0 0 0 -3.27950976476952 0 -0.337557096072482 0 0 0 0
0 0 0 0 0 0 0 0 0 0 0 0 0 0 0 0 0 0 0 0 0 0 0 0 0 0 0 0 0 0 0 0 0 0 0 -0.387369941112784 0 0 0 0 0 0 0 0 0 -0.685500623838968 0 0 0 0
0 0 0 0.168812200533213 0.187738167577885 0.204234109384678 1.23789897700532 0.0786686868216097 0.0620032062138699 0.0957459026716171 0.208732249902452 0.60617768142994 0.170451412536168 0 0 0 0 0 0 0 0 0 0 0 0 0 0 0 0 0 0 0 0 0 0 0 -0.387369941112784 0 0 0 0 0 0 0 0 -2.91779358932615 0 0 0 0
0 0 0 0 0 0 0 0 0 0 0 0 0 0 0 0 0 0 0 0 0 0 0 0 0 0 0 0 0 0 0 0 0 0 0 0 0 -0.387369941112784 0 0 0 0 0 0 0 -0.06737497021679 0 0 0 0
0 0 0 0 0 0 0 0 0 0 0 0 0 0 0 0 0 0 0 0 0 0 0 0 0 0 0 0 0 0 0 0 0 0 0 0 0 0 -0.387369941112784 0 0 0 0 0 0 -2.25598216377717 0 0 0 -6.33530887863786
0 0 0 0 0 0 0 0 0 0 0 0 0 0 0.0900615500155945 0.164349490323477 0.414694802358385 0.169278706138671 0.165516768756326 0.594383469141673 0.166208764234304 0 0 0 0 0 0 0 0 0 0 0 0 0 0 0 0 0 0 -0.387369941112784 0 0 0 0 0 -0.107514589833656 0 0 0 -0.530766894707273
0 0 0 0 0 0 0 0 0 0 0 0 0 0 0 0 0 0 0 0 0 0 0.532621344157196 0.0315173831748952 0.384789783137949 0.372940291947755 0 0 0 0 0 0 0 0 0 0 0 0 0 0 -0.387369941112784 0 0 0 0 -0.384549678570027 0 0 0 -5.75506316273122
0.0371528641540694 0.0408604284787503 0 0 0 0 0 0 0 0 0 0 0 0 0 0 0 0 0 0 0 0 0 0 0 0 0 0 0 0 0 0 0 0 0 0 0 0 0 0 0 -0.387369941112784 0 0 0 0 0 0 0 -1.16431409825714
0 0 0 0 0.209026030099224 0.0974280597072397 0.08927559837679 0 0 0 0 0 0 0 0 0 0 0 0 0 0 0 0 0 0 0 0 0 0 0 0 0 0 0 0 0 0 0 0 0 0 0 -0.387369941112784 0 0 0 0 0 0 -0.355970272418441
0 0 0 0 0 0 0 0 0 0 0 0 0 0 0 0 0 0 0 0 0 0 0 0 0 0 0 0 0.198038243846078 0.154714132715316 0.161434924895485 0.24856021841634 0.117649354605685 0.0545539470477053 0.64243630128018 0 0 0 0 0 0 0 0 -0.387369941112784 0 0 -2.88084126133163 0 0 -0.789245910598187
0 0 0 0 0 0 0 0 0 0 0 0 0 0 0 0 0 0 0 0 0.464230856954982 0.335317945755242 0.193219933375837 0.200012070055201 0.0539941974900348 0.153361132627042 0.203633943712885 0.169873848257294 0 0 0 0 0 0 0 0 0 0 0 0 0 0 0 0 -0.387369941112784 0 -2.84211215339198 0 0 -1.38303836278058
0 0 0 0 0 0 0 0 0 0 0 0 0 0 0 0 0 0 0 0 0 0 0.157306191726218 0.201175509920851 0.0722669591004902 0.265154360347571 0.131585644803586 0.0371176687539152 0.152283976506153 0.523872955282298 0.130356167928623 0.0909919521939547 0.0870518035795691 0.0586709586804219 0.0706523753184572 0.139207606282913 0.598443837198785 0.0139286923755721 0.465832681531941 0.0208444953726381 0.0789209694057094 0 0 0 0 -0.387369941112784 -1.02005159437053 0 0 0
0 0 0 0 0 0 0 0 0 0 0 0 0 0 0 0 0 0 0 0 0 0 0 0 0 0 0 0 0 0 0 0 0 0 0 0 0 0 0 0 0 0 0 0.541502605585433 0.580338433791684 0.217984204929078 -0.387369941112784 0 0 0
0 0 0 0 0 0 0 0 0 0 0 0 0 0 0 0 0 0 0 0 0 0 0 0 0 0.234502053163573 0.373211906456706 0.134029663436396 0 0 0 0 0 0 0 0 0 0 0 0 0 0 0 0 0 0 0 -0.387369941112784 0 0
0 0 0 0 0 0 0 0 0 0 0 0 0 0 0 0 0 0 0 0 0 0.0855526030569631 0 0 0 0 0 0 0 0 0 0 0 0 0 0 0 0 0 0 0 0 0 0 0 0 0 0 -0.387369941112784 0
0 0 0 0 0 0 0 0 0 0 0 0 0 0 0 0 0 0 0 0 0 0 0 0 0 0 0 0 0 0 0 0 0 0 0 0 0 0 1.40863472172592 0.109616392640973 1.18613095747408 0.22663149020115 0.0707483897157299 0.171127871140354 0.293636964109848 0 0 0 0 -0.387369941112784
