-0.322654941240063 -1.0558435787007 -0.335830226546581 0 0 0 0 0 0 0 0 0 0 0 0 0 0 0 0 0 0 0 0 0 0 0 0 0 0 0 0 0 0 0 0 0 0 0 0 0 0 0 0 0 0 0 0 0 0 0
0.200236442104264 -0.322654941240063 -2.12845545808419 -0.5017128624118 0 0 0 0 0 0 0 0 -0.180371384895761 0 0 0 0 0 0 0 0 0 0 0 0 0 0 0 0 0 0 0 0 0 0 0 0 0 0 0 0 0 0 0 0 0 0 0 0 0
0.0707325030306478 0.447250111306787 -0.322654941240063 0 0 0 0 0 0 0 0 0 0 0 0 0 0 0 -1.23679171872648 0 0 -2.96687001976939 0 -1.52532218582143 0 0 0 0 0 0 0 0 0 0 0 0 0 0 0 0 0 0 0 0 0 0 0 0 0 0
0 0.0889908578932056 0 -0.322654941240063 0 0 0 0 0 0 0 0 0 0 0 0 0 0 -0.182358336109415 0 0 -2.12966422312093 0 -3.37110075222998 0 0 0 0 0 -1.74307098072713 0 0 0 0 0 0 0 0 0 0 0 0 0 0 0 0 0 0 0 0
0 0 0 0 -0.322654941240063 0 0 0 0 0 0 0 0 0 0 0 0 0 -0.814559612758636 0 0 -0.999951822215787 0 -0.421827084599175 0 0 0 0 0 -5.25121000722511 0 0 0 0 0 0 0 0 0 0 0 -3.34382499730479 0 0 0 0 0 0 0 0
0 0 0 0 0 -0.322654941240063 0 0 0 0 0 0 0 0 0 0 -0.752602065791181 0 -0.298015047158317 -0.303207257573125 0 -0.209752194110156 0 0 -4.48301565773391 0 0 0 0 -0.891440303794164 0 0 0 0 0 0 0 0 0 0 0 -0.819286918260028 0 0 0 0 0 0 0 0
0 0 0 0 0 0 -0.322654941240063 0 0 0 0 0 0 0 0 0 0 0 0 0 0 0 0 0 0 0 0 0 0 0 0 0 0 0 0 -1.42099047341792 0 0 0 0 0 0 0 0 0 0 0 0 0 0
0 0 0 0 0 0 0 -0.322654941240063 0 0 0 0 0 0 0 0 0 0 0 0 0 0 0 0 0 0 0 0 0 0 0 0 0 0 0 -0.194112319236294 0 0 0 0 0 0 0 0 0 0 0 0 0 0
0 0 0 0 0 0 0 0 -0.322654941240063 0 0 0 0 0 0 -3.53928209402641 0 0 0 0 0 0 -1.0842005256979 0 0 0 0 0 -0.958108811064595 0 0 0 0 0 0 -0.484788325930682 0 0 0 0 0 0 0 0 0 -5.01100411547742 0 -0.932059198310443 0 0
0 0 0 0 0 0 0 0 0 -0.322654941240063 0 0 0 0 0 -1.04240663169441 0 0 0 0 0 0 -1.79022182152746 0 0 0 0 0 -1.08441783626979 0 0 0 0 0 0 -1.54646695445558 0 0 0 0 0 0 0 0 0 -1.4542763103247 0 0 0 0
0 0 0 0 0 0 0 0 0 0 -0.322654941240063 0 0 0 0 -2.61896267070321 0 0 0 0 0 0 -0.815239222560476 0 0 0 0 0 -3.85231359155714 0 0 0 0 0 0 -1.9353263381966 0 0 0 0 0 0 0 0 0 -0.109105610358266 0 0 0 0
0 0 0 0 0 0 0 0 0 0 0 -0.322654941240063 0 -0.606648910275869 0 0 0 0 0 0 0 0 -0.437380380332634 0 0 0 0 0 -11.5729624137046 0 0 0 0 0 0 0 0 0 0 0 0 0 0 0 0 -0.212754765134625 0 0 0 0
0 0.0368662883851972 0 0 0 0 0 0 0 0 0 0 -0.322654941240063 -0.478280322934584 0 0 0 0 0 0 0 0 -1.35531154892617 0 0 0 0 0 -1.48091545399704 0 0 0 0 0 0 0 0 0 0 0 0 0 0 0 0 -0.280894785956112 0 0 0 0
0 0 0 0 0 0 0 0 0 0 0 0.107093532109085 0.0972834741269304 -0.322654941240063 0 0 0 0 0 0 0 0 0 0 0 0 0 0 -0.354137739303135 0 0 0 0 0 0 0 0 0 0 0 0 0 0 0 0 -0.951695734310727 0 0 0 -0.633961187763873
0 0 0 0 0 0 0 0 0 0 0 0 0 0 -0.322654941240063 0 0 0 0 0 0 0 0 0 0 0 0 0 -1.02478812080841 0 0 0 0 0 0 0 0 0 0 0 0 0 0 0 0 -0.525617513352352 0 0 0 0
0 0 0 0 0 0 0 0 0.658013821958928 0.222190172072551 0.523518457031487 0 0 0 0 -0.322654941240063 0 0 0 0 0 0 0 0 0 0 0 0 -0.577793867581623 0 0 0 0 0 0 0 0 0 0 0 0 0 0 0 0 -0.272428192995176 0 0 0 0
0 0 0 0 0 0.144928987736051 0 0 0 0 0 0 0 0 0 0 -0.322654941240063 0 0 0 0 0 0 0 0 0 0 0 -1.14210444589501 0 0 0 0 0 0 0 0 0 0 0 0 0 0 0 0 -1.02096550939985 0 0 0 0
0 0 0 0 0 0 0 0 0 0 0 0 0 0 0 0 0 -0.322654941240063 0 0 -1.24905556550579 0 0 0 0 0 0 0 -1.71225231383355 0 0 0 0 0 0 0 0 0 0 0 0 0 0 0 0 -1.94728513346901 0 0 0 0
0 0 0.240656578544387 0.0363140683130926 0.175284709738333 0.0598042970029685 0 0 0 0 0 0 0 0 0 0 0 0 -0.322654941240063 0 0 0 0 0 0 -1.25573719252101 0 -1.98914973391689 -3.11460733971323 0 0 0 -0.994778942839031 0 0 0 0 0 0 0 0 0 0 0 0 -1.01160148734633 0 0 0 0
0 0 0 0 0 0.0617966643073466 0 0 0 0 0 0 0 0 0 0 0 0 0 -0.322654941240063 0 0 0 0 0 -2.18510388706223 0 -1.02384040557095 -1.08742790462798 0 0 0 -0.380964292133373 0 0 0 0 0 0 0 0 0 0 0 0 -1.83850398258979 0 0 0 0
0 0 0 0 0 0 0 0 0 0 0 0 0 0 0 0 0 0.253732977304138 0 0 -0.322654941240063 0 0 0 0 -2.10550393971199 0 -3.33147985237635 -1.57587850759023 0 0 0 -3.70362990519007 0 0 0 0 0 0 0 0 0 0 0 0 0 0 0 0 0
0 0 0.629184585101523 0.388719815808356 0.214440753574878 0.0454217961501812 0 0 0 0 0 0 0 0 0 0 0 0 0 0 0 -0.322654941240063 0 0 0 0 0 -1.27943795505071 -0.569189648905016 0 0 0 -1.18206485798107 0 0 0 0 0 0 0 0 0 0 0 0 0 0 0 0 0
0 0 0 0 0 0 0 0 0.215538358988122 0.311715843229273 0.163437282145307 0.0868229714793833 0.279691613376494 0 0 0 0 0 0 0 0 0 -0.322654941240063 0 0 0 0 -1.98722749717169 -0.414990274630553 0 0 0 -0.274920553011184 0 0 0 0 0 0 0 0 0 0 0 0 0 0 0 0 0
0 0 0.305754292842525 0.691954074138932 0.0869704338459546 0 0 0 0 0 0 0 0 0 0 0 0 0 0 0 0 0 0 -0.322654941240063 0 0 0 0 0 0 0 0 0 0 0 0 0 0 0 0 0 0 0 0 0 0 0 0 0 0
0 0 0 0 0 0.960862083647743 0 0 0 0 0 0 0 0 0 0 0 0 0 0 0 0 0 0 -0.322654941240063 0 0 0 0 0 0 0 0 0 0 0 0 0 0 0 0 0 0 0 0 0 0 0 0 0
0 0 0 0 0 0 0 0 0 0 0 0 0 0 0 0 0 0 0.254877944803419 0.428380984822672 0.425748307476151 0 0 0 0 -0.322654941240063 0 0 0 0 0 0 0 -0.254042215205402 -3.28499849438181 0 0 0 0 0 0 0 0 0 0 0 -2.44567459069938 0 0 0
0 0 0 0 0 0 0 0 0 0 0 0 0 0 0 0 0 0 0 0 0 0 0 0 0 0 -0.322654941240063 0 0 0 0 0 0 -2.28157731615782 0 0 0 -1.45339851005459 0 0 0 0 0 0 0 0 0 0 0 0
0 0 0 0 0 0 0 0 0 0 0 0 0 0 0 0 0 0 0.398072178737446 0.193778936987831 0.598049937285944 0.270017493110058 0.406683297638669 0 0 0 0 -0.322654941240063 0 0 0 0 0 0 0 0 0 -0.428360178412651 0 0 -0.122102708725858 0 0 0 0 0 0 0 0 0
0 0 0 0 0 0 0 0 0.192571589911239 0.215447326498593 0.747634329647861 2.36168927897614 0.270219848551556 0.0671870789034439 0.21794688917435 0.108033132677249 0.253680229719078 0.365900703162381 0.669334904426589 0.204148342035555 0.305977365855126 0.111264569733337 0.0835450823377503 0 0 0 0 0 -0.322654941240063 0 0 0 0 0 0 0 0 -1.7697315317638 -0.169127797025012 0 -1.32569311620642 0 0 0 0 0 0 0 0 0
0 0 0 0.358918809651194 0.995809519225208 0.183828763030482 0 0 0 0 0 0 0 0 0 0 0 0 0 0 0 0 0 0 0 0 0 0 0 -0.322654941240063 0 0 0 0 0 0 0 -2.15353660028375 -1.49591234515095 0 -4.71752363988727 0 0 0 0 0 0 0 0 0
0 0 0 0 0 0 0 0 0 0 0 0 0 0 0 0 0 0 0 0 0 0 0 0 0 0 0 0 0 0 -0.322654941240063 0 0 0 0 0 0 -2.39716998158685 -0.28941578464287 0 -0.583427909376491 0 0 0 0 0 0 0 0 0
0 0 0 0 0 0 0 0 0 0 0 0 0 0 0 0 0 0 0 0 0 0 0 0 0 0 0 0 0 0 0 -0.322654941240063 0 0 0 0 -3.51295022277706 -0.468348112896472 -1.38573120170364 0 -1.38339168269219 0 0 0 0 0 0 0 0 0
0 0 0 0 0 0 0 0 0 0 0 0 0 0 0 0 0 0 0.193785993521326 0.0724850500304539 0.730638940713953 0.230691214164142 0.0579935002270677 0 0 0 0 0 0 0 0 0 -0.322654941240063 0 0 0 0 -0.624316768302497 -0.178899824862266 -0.522069753441592 -0.257133536786801 0 0 0 0 0 0 0 0 0
0 0 0 0 0 0 0 0 0 0 0 0 0 0 0 0 0 0 0 0 0 0 0 0 0 0.0538386531851094 0.445853622384298 0 0 0 0 0 0 -0.322654941240063 0 0 0 -0.712643926666698 -0.365822510173938 -2.48270081538791 -0.832971935841497 0 0 0 0 0 0 0 0 0
0 0 0 0 0 0 0 0 0 0 0 0 0 0 0 0 0 0 0 0 0 0 0 0 0 0.642955332662678 0 0 0 0 0 0 0 0 -0.322654941240063 0 0 -2.25211096559596 -1.51087788827489 -2.70667204848286 -0.445221504895781 0 0 0 0 0 0 0 0 0
0 0 0 0 0 0 0.247381370341964 0.037604238335688 0.100471549829161 0.319181205746175 0.397664386405226 0 0 0 0 0 0 0 0 0 0 0 0 0 0 0 0 0 0 0 0 0 0 0 0 -0.322654941240063 0 -0.446814470689843 -0.835484098683729 -0.563540282926934 -6.84971456106658 0 0 0 0 0 0 0 0 0
0 0 0 0 0 0 0 0 0 0 0 0 0 0 0 0 0 0 0 0 0 0 0 0 0 0 0 0 0 0 0 0.681635274651377 0 0 0 0 -0.322654941240063 0 0 0 -0.293010252031238 0 0 0 0 0 0 0 0 0
0 0 0 0 0 0 0 0 0 0 0 0 0 0 0 0 0 0 0 0 0 0 0 0 0 0 0.283077907761731 0.0883179500329279 0.331082572837038 0.428064982570369 0.461599593728752 0.0918045014145204 0.126823523732392 0.150842769455053 0.481527410298174 0.0910830940729659 0 -0.322654941240063 0 0 -1.50000921734003 0 0 0 0 0 0 0 0 0
0 0 0 0 0 0 0 0 0 0 0 0 0 0 0 0 0 0 0 0 0 0 0 0 0 0 0 0 0.0313541195683829 0.312890378234383 0.0548906583124985 0.271915609482662 0.0357016308965936 0.0725300347819652 0.297474642623348 0.171905163707521 0 0 -0.322654941240063 0 -0.826263176556544 0 0 0 0 0 0 0 0 0
0 0 0 0 0 0 0 0 0 0 0 0 0 0 0 0 0 0 0 0 0 0 0 0 0 0 0 0 0 0 0 0 0.106583057544102 0.526724370005075 0.531960713013368 0.121794889701478 0 0 0 -0.322654941240063 -1.56955850849521 0 0 0 0 0 0 0 0 0
0 0 0 0 0 0 0 0 0 0 0 0 0 0 0 0 0 0 0 0 0 0 0 0 0 0 0 0.0243586753167937 0.248127941156333 0.937555763639606 0.119450754325541 0.267434890109637 0.0494796129664222 0.180860874288727 0.0849864826325218 1.36080607821682 0.0562002560049313 0.302404311813039 0.167921615080584 0.320321635682005 -0.322654941240063 0.0315810241190492 0.67007435187607 0 0 0 0 0 0 0
0 0 0 0 0.688847239937612 0.162105910851551 0 0 0 0 0 0 0 0 0 0 0 0 0 0 0 0 0 0 0 0 0 0 0 0 0 0 0 0 0 0 0 0 0 0 -0.158669985465368 -0.322654941240063 0 0 0 0 0 0 0 0
0 0 0 0 0 0 0 0 0 0 0 0 0 0 0 0 0 0 0 0 0 0 0 0 0 0 0 0 0 0 0 0 0 0 0 0 0 0 0 0 -3.49726606364491 0 -0.322654941240063 0 0 0 0 0 -2.74441399798849 0
0 0 0 0 0 0 0 0 0 0 0 0 0 0 0 0 0 0 0 0 0 0 0 0 0 0 0 0 0 0 0 0 0 0 0 0 0 0 0 0 0 0 0 -0.322654941240063 0.105923309898494 0.107856617039995 0 0 0 0
0 0 0 0 0 0 0 0 0 0 0 0 0 0 0 0 0 0 0 0 0 0 0 0 0 0 0 0 0 0 0 0 0 0 0 0 0 0 0 0 0 0 0 -0.519221833624992 -0.322654941240063 0 0 0 0 0
0 0 0 0 0 0 0 0 1.01238815873658 0.262191734657967 0.0202440330701666 0.0424239186876883 0.0542248043082748 0.201926072767964 0.106171953522676 0.057686041757918 0.20341037485749 0.392020946147825 0.209779364842138 0.361800184089896 0 0 0 0 0 0 0 0 0 0 0 0 0 0 0 0 0 0 0 0 0 0 0 -0.502671545923453 0 -0.322654941240063 0 0 0 0
0 0 0 0 0 0 0 0 0 0 0 0 0 0 0 0 0 0 0 0 0 0 0 0 0 0.501627324079131 0 0 0 0 0 0 0 0 0 0 0 0 0 0 0 0 0 0 0 0 -0.322654941240063 0 0 0
0 0 0 0 0 0 0 0 0.193315785335353 0 0 0 0 0 0 0 0 0 0 0 0 0 0 0 0 0 0 0 0 0 0 0 0 0 0 0 0 0 0 0 0 0 0 0 0 0 0 -0.322654941240063 0 0
0 0 0 0 0 0 0 0 0 0 0 0 0 0 0 0 0 0 0 0 0 0 0 0 0 0 0 0 0 0 0 0 0 0 0 0 0 0 0 0 0 0 0.576539744504221 0 0 0 0 0 -0.322654941240063 0
0 0 0 0 0 0 0 0 0 0 0 0 0 0.121006443006254 0 0 0 0 0 0 0 0 0 0 0 0 0 0 0 0 0 0 0 0 0 0 0 0 0 0 0 0 0 0 0 0 0 0 0 -0.322654941240063
