0.412459304309792
1.79690786710314
4.3673115307452
1.16788607880254
1.17663360181634
2.10598708010081
1.03319296493262
0.921256247035746
0.601400084329489
1.89984756156877
0.602327177876031
0.140944980882686
0.141176805136556
3.62313653762238
0.452795310196786
1.08820547464279
2.5869235743364
1.53477648062035
6.29719237563897
0.291433206415069
0.750763374764206
2.15441970042704
0.251010873021117
0.390318324660781
4.02622597141113
1.30561357135111
1.47900833145353
0.130319131549222
1.64293420467763
0.319757127552633
0.374340106765303
1.24982978152184
2.19143904296252
0.53931876195092
0.997352857171051
1.09592670714883
0.333269226108748
0.420108013358027
1.1006384750384
4.28860979119463
0.760132465650777
1.37001201516639
1.94980674350631
1.06174287313366
0.58471801224039
1.8054949806336
2.94361294653036
0.980374335277554
2.75541269360696
0.763539513838051
