1.21102075218686
1.70206925861793
1.99362443274681
1.95164678471145
0.414180776489685
0.970700249775665
0.626894222202943
1.42297696671766
0.115178643156753
0.774732505029218
1.69942326156412
0.671007474544297
8.81605749733507
0.827997976326951
0.691875677107047
3.84768377188029
5.11092477741178
0.501364363864135
2.15853970190716
0.700802588347554
0.488389943769789
3.49694072355089
0.547354005928518
0.0884565754489169
9.27217997650864
1.33323231746573
1.38943214330151
1.2389305477402
0.215371595709102
0.229961507780227
0.699923516956566
0.504437602143682
1.12268222314508
3.51432496150778
1.15129594459247
2.64281164413087
3.07125867627399
1.64261519832585
2.0529167855903
1.46184191563119
3.30487050744152
4.58356191714238
4.03317544079378
0.103307254473845
0.561562186887305
0.96927973253791
3.22961316608573
0.661362117541902
4.73749732426859
2.10470805066927
