-0.156676230471717 0 0 0 0 0 0 0 -1.90517102352036 0 0 0 0 0 0 0 0 0 0 0 0 0 0 0 0 0 0 0 0 0 0 0 0 0 0 0 0 0 0 0 -0.37137190820322 0 0 0 0 0 0 0 0 0
0 -0.156676230471717 0 0 0 0 0 0 -0.962149382199184 0 0 0 0 0 0 0 0 0 0 0 0 0 0 0 0 0 0 0 0 0 -0.56549720440402 0 0 0 0 0 0 0 0 0 -0.369237830510272 0 0 0 0 0 0 0 0 0
0 0 -0.156676230471717 -1.16290802120819 -0.236721789406766 0 0 0 -0.12733065843827 0 0 0 0 0 0 0 -0.828154187309403 0 0 0 0 0 0 0 0 0 0 0 0 0 -0.502547088894832 0 0 0 0 0 0 0 0 -1.62477459139858 -2.48064480177857 0 0 0 0 0 0 0 0 0
0 0 0.239309916079317 -0.156676230471717 0 -1.83943119269687 0 0 -0.125906579813973 0 0 0 0 0 0 0 -2.68427199000335 0 0 0 0 0 0 0 0 0 0 0 0 0 -0.456707346760075 0 0 0 0 0 0 0 0 0 -0.493113493027646 0 0 0 0 0 0 0 0 0
0 0 0.0445136251300989 0 -0.156676230471717 0 0 0 0 0 0 0 0 0 -0.857339980092541 0 0 0 -2.72626823516783 0 0 0 0 0 0 0 0 0 0 -0.830654431902292 0 0 -0.209494574380589 0 0 0 0 0 0 0 -0.424047637891924 0 0 0 0 0 0 0 0 0
0 0 0 0.38707649105487 0 -0.156676230471717 0 0 0 0 0 0 0 0 -0.297084918652873 0 0 0 -9.97611488533533 0 0 0 0 0 -3.3177994347017 0 0 0 0 -2.03297447482799 0 0 -2.4262514889867 0 0 0 0 0 0 0 -0.853529492593069 0 0 0 0 0 0 0 0 0
0 0 0 0 0 0 -0.156676230471717 0 0 0 -0.540727945974601 0 0 0 0 0 0 0 -0.923234577873024 0 0 0 0 0 -6.42879489365882 0 0 0 0 -0.536557507702724 0 0 -0.464503162801071 0 0 0 0 -0.88666161023666 0 0 -2.98189191683577 0 0 0 0 0 0 0 0 0
0 0 0 0 0 0 0 -0.156676230471717 0 0 0 0 0 0 0 0 0 0 0 0 0 0 0 0 -0.54054560845828 0 0 0 0 -1.04599012663563 0 0 -3.22802272701534 0 0 0 0 -5.17940100457803 0 0 -0.306289793230252 0 0 0 0 0 0 0 0 0
0.36067430318147 0.190760888741079 0.0253581968150189 0.0269936222045772 0 0 0 0 -0.156676230471717 0 0 0 0 -0.351667973700503 0 0 0 0 0 0 0 0 0 0 -0.876487769108843 0 0 0 0 0 0 0 0 0 0 0 0 -0.549660695553241 0 0 0 0 0 0 0 0 0 0 0 0
0 0 0 0 0 0 0 0 0 -0.156676230471717 0 0 0 -0.778091966240976 0 0 0 0 0 0 0 0 0 0 0 0 0 0 0 0 0 0 0 0 0 0 0 -1.63786478528404 0 0 0 0 0 0 0 0 0 0 0 0
0 0 0 0 0 0 0.110491089628472 0 0 0 -0.156676230471717 0 0 0 0 0 0 0 0 -2.13938691345025 0 0 0 0 0 0 0 0 0 0 0 0 0 0 0 0 0 -5.67629600922838 0 0 0 0 0 0 0 0 0 0 -3.23381572857177 0
0 0 0 0 0 0 0 0 0 0 0 -0.156676230471717 0 0 0 0 0 0 0 -3.2355601507327 0 0 0 0 0 -8.59920651657195 0 0 0 0 0 0 0 0 0 0 0 0 0 0 0 0 0 0 0 0 0 0 0 0
0 0 0 0 0 0 0 0 0 0 0 0 -0.156676230471717 0 0 0 0 0 0 0 0 0 0 0 0 -2.35123616954433 0 0 0 0 0 0 0 0 0 0 -1.30871371193897 0 0 0 0 0 0 0 0 0 0 0 0 0
0 0 0 0 0 0 0 0 0.0705128392732324 0.155101601460047 0 0 0 -0.156676230471717 0 0 0 0 0 0 -1.26610957350672 0 0 0 0 -1.5750460454277 0 0 0 0 0 0 0 0 0 0 -4.11998460963146 0 0 0 0 0 0 0 0 0 0 0 0 0
0 0 0 0 0.191205887985444 0.0619064100379638 0 0 0 0 0 0 0 0 -0.156676230471717 -0.889588063916959 0 0 0 0 -5.77384968287558 0 0 0 0 -4.78977387625 0 0 0 0 0 0 0 0 0 0 0 0 0 0 0 0 0 0 0 0 0 0 0 0
0 0 0 0 0 0 0 0 0 0 0 0 0 0 0.178724543451342 -0.156676230471717 0 0 0 0 0 0 0 0 0 -1.49018064802888 -0.996123476376885 0 0 0 0 0 0 0 0 0 0 0 0 0 0 0 0 0 0 0 0 0 0 0
0 0 0.169939451955934 0.536785817307053 0 0 0 0 0 0 0 0 0 0 0 0 -0.156676230471717 -0.648837355953193 0 0 0 0 0 0 0 0 -1.97790495334644 0 0 0 0 0 0 0 0 0 0 0 0 0 0 0 0 0 0 0 0 0 0 -0.803284236744591
0 0 0 0 0 0 0 0 0 0 0 0 0 0 0 0 0.128653703571649 -0.156676230471717 0 0 0 -3.53614589462944 -1.3258377039852 0 0 0 -1.05102027655762 0 -3.46614632931768 0 0 0 0 0 0 0 0 0 0 0 0 0 0 0 0 0 0 0 0 -1.04295321869739
0 0 0 0 0.548525902928904 2.16837565971113 0.182587295475745 0 0 0 0 0 0 0 0 0 0 0 -0.156676230471717 0 0 0 -0.155820917317864 0 0 0 -0.745906569290315 0 -1.16080257926391 0 0 0 0 0 0 0 0 0 0 0 0 -1.85053917323039 0 0 0 0 0 0 0 -3.13411104108495
0 0 0 0 0 0 0 0 0 0 0.414332610184764 0.637654665741613 0 0 0 0 0 0 0 -0.156676230471717 0 0 -0.444255937196931 0 0 0 -0.556141586797521 0 -0.633808847740346 0 0 0 0 0 0 0 0 0 0 0 0 -1.00091367289453 0 0 0 0 0 0 0 -0.556779792432488
0 0 0 0 0 0 0 0 0 0 0 0 0 0.258336569774704 1.23845684367002 0 0 0 0 0 -0.156676230471717 0 -3.29016184923955 0 0 0 -0.707168775825311 0 0 0 0 0 0 0 0 -3.27837901474596 0 0 0 0 0 -0.569667751020374 0 0 0 0 -0.239262869504374 0 0 0
0 0 0 0 0 0 0 0 0 0 0 0 0 0 0 0 0 0.741136200352244 0 0 0 -0.156676230471717 -0.297105002398927 0 0 0 0 -1.09281565699011 0 0 0 0 0 0 0 0 0 0 0 0 0 0 0 0 0 0 -1.21087455627784 0 0 0
0 0 0 0 0 0 0 0 0 0 0 0 0 0 0 0 0 0.241354321464485 0.0306665841470492 0.0958775775646906 0.680261682846149 0.0616648424614911 -0.156676230471717 -0.510216082505165 0 0 0 -0.445447306713917 0 0 0 0 0 0 0 0 0 0 0 0 0 0 0 0 0 0 -3.8402754835067 0 0 0
0 0 0 0 0 0 0 0 0 0 0 0 0 0 0 0 0 0 0 0 0 0 0.100855148925318 -0.156676230471717 0 0 0 -1.76538775696947 0 0 0 0 0 0 0 0 0 0 0 0 0 0 0 0 0 0 -0.896941367266376 0 0 0
0 0 0 0 0 0.659624482905723 1.32169745015935 0.116656028193309 0.173729599272474 0 0 0 0 0 0 0 0 0 0 0 0 0 0 0 -0.156676230471717 0 0 -1.78105002872786 0 0 0 0 0 0 0 0 0 0 0 0 0 0 0 0 0 0 -0.445015263210918 0 0 0
0 0 0 0 0 0 0 0 0 0 0 1.7288453495188 0.432645189945063 0.299956584235918 0.933229019353392 0.280881415728481 0 0 0 0 0 0 0 0 0 -0.156676230471717 0 0 0 0 0 0 0 0 0 0 0 0 0 0 0 0 0 -0.91724214501002 0 0 -1.06322047963905 0 0 0
0 0 0 0 0 0 0 0 0 0 0 0 0 0 0 0.20266200010211 0.358654302318046 0.205342079430437 0.150296749804717 0.113457122875732 0.14680878944499 0 0 0 0 0 -0.156676230471717 0 0 0 0 0 0 0 0 0 0 0 0 0 0 0 0 -1.30459130733316 0 0 -3.10245370098424 0 0 0
0 0 0 0 0 0 0 0 0 0 0 0 0 0 0 0 0 0 0 0 0 0.214991962559118 0.0964613640557246 0.348582809878851 0.356773761365056 0 0 -0.156676230471717 0 0 0 0 0 0 0 0 0 0 0 0 0 0 0 -0.244509658071753 0 0 -0.810984386282079 0 0 0
0 0 0 0 0 0 0 0 0 0 0 0 0 0 0 0 0 0.683836126979445 0.220153679967187 0.123865710456871 0 0 0 0 0 0 0 0 -0.156676230471717 0 0 0 0 0 -0.362142837430089 0 0 0 0 0 0 0 0 -0.448251277437985 0 0 -0.403912943780181 0 0 0
0 0 0 0 0.153844316822062 0.420582695474394 0.106352546620619 0.207408757459683 0 0 0 0 0 0 0 0 0 0 0 0 0 0 0 0 0 0 0 0 0 -0.156676230471717 0 0 0 0 -0.526396651457904 0 0 0 0 0 0 0 0 -2.647239687422 0 0 -0.55060901913391 0 0 0
0 0.129550657224329 0.101077601834373 0.10302859044924 0 0 0 0 0 0 0 0 0 0 0 0 0 0 0 0 0 0 0 0 0 0 0 0 0 0 -0.156676230471717 0 0 0 -0.634213749137995 0 0 0 0 0 0 0 0 -2.55297930458559 0 0 -0.331174480175269 0 0 0
0 0 0 0 0 0 0 0 0 0 0 0 0 0 0 0 0 0 0 0 0 0 0 0 0 0 0 0 0 0 0 -0.156676230471717 0 0 -1.26715368078058 0 0 0 0 0 0 0 0 -4.04780331334438 0 0 -0.362034221727291 0 0 0
0 0 0 0 0.0430315782246777 0.481445036338755 0.0993519288866999 0.646813382773596 0 0 0 0 0 0 0 0 0 0 0 0 0 0 0 0 0 0 0 0 0 0 0 0 -0.156676230471717 0 0 0 0 0 0 0 0 0 0 -0.52934874535899 -0.945026043905195 0 -2.47512033405338 0 0 0
0 0 0 0 0 0 0 0 0 0 0 0 0 0 0 0 0 0 0 0 0 0 0 0 0 0 0 0 0 0 0 0 0 -0.156676230471717 0 0 0 0 0 0 0 0 0 -0.617956917849189 0 0 -7.84717543705724 0 0 0
0 0 0 0 0 0 0 0 0 0 0 0 0 0 0 0 0 0 0 0 0 0 0 0 0 0 0 0 0.0728745365523449 0.105033000331665 0.124757647110147 0.234762108698304 0 0 -0.156676230471717 0 0 0 0 0 0 0 0 -1.44962826870214 0 0 -2.5522221012901 0 0 0
0 0 0 0 0 0 0 0 0 0 0 0 0 0 0 0 0 0 0 0 0.664423756374293 0 0 0 0 0 0 0 0 0 0 0 0 0 0 -0.156676230471717 0 0 -0.213451359947385 0 0 0 -2.05881361722938 -4.46533869350734 0 -4.22566239255197 -4.27256035182625 0 0 0
0 0 0 0 0 0 0 0 0 0 0 0 0.250511555095931 0.773240281438353 0 0 0 0 0 0 0 0 0 0 0 0 0 0 0 0 0 0 0 0 0 0 -0.156676230471717 0 -0.301025204025776 0 0 0 -1.6319045741954 -5.02968226486093 0 -3.11275723033628 -0.573100399342457 0 0 0
0 0 0 0 0 0 0.182818845090548 1.03071337919475 0.105630092526561 0.336932730380773 1.14897514541079 0 0 0 0 0 0 0 0 0 0 0 0 0 0 0 0 0 0 0 0 0 0 0 0 0 0 -0.156676230471717 -0.487421234341984 0 0 0 -1.48558024971655 0 0 -0.602731783729579 -3.92857156079501 0 0 0
0 0 0 0 0 0 0 0 0 0 0 0 0 0 0 0 0 0 0 0 0 0 0 0 0 0 0 0 0 0 0 0 0 0 0 0.0398923916663281 0.0655786887214034 0.0951440294642257 -0.156676230471717 0 0 0 -0.711009106480885 0 0 -1.41064169112748 0 0 0 0
0 0 0.334278766274357 0 0 0 0 0 0 0 0 0 0 0 0 0 0 0 0 0 0 0 0 0 0 0 0 0 0 0 0 0 0 0 0 0 0 0 0 -0.156676230471717 0 0 -0.808476602962417 0 0 -0.243438441054594 0 0 0 0
0.0785700019293596 0.0691889660517838 0.525469134617141 0.0966494333868067 0.0808057454269087 0.16996270213497 0.59921348776409 0.0604858367060249 0 0 0 0 0 0 0 0 0 0 0 0 0 0 0 0 0 0 0 0 0 0 0 0 0 0 0 0 0 0 0 0 -0.156676230471717 0 -2.28429724005006 0 0 -0.618669010166296 0 0 0 0
0 0 0 0 0 0 0 0 0 0 0 0 0 0 0 0 0 0 0.370691500725994 0.202236734276245 0.10884308925199 0 0 0 0 0 0 0 0 0 0 0 0 0 0 0 0 0 0 0 0 -0.156676230471717 -1.38325139515387 0 0 -0.956390733920357 0 0 0 0
0 0 0 0 0 0 0 0 0 0 0 0 0 0 0 0 0 0 0 0 0 0 0 0 0 0 0 0 0 0 0 0 0 0 0 0.408146572890426 0.321991438279204 0.291213043114005 0.149709546629272 0.151887316863821 0.477913016719381 0.300182256143581 -0.156676230471717 0 0 -1.17093954089022 0 0 0 0
0 0 0 0 0 0 0 0 0 0 0 0 0 0 0 0 0 0 0 0 0 0 0 0 0 0.175970199532466 0.276682812399922 0.0469805232483241 0.0934218951548539 0.585632245555718 0.534304333127685 0.813391577611303 0.10582051535732 0.112062432891009 0.289219757981616 0.847353294335372 0.967773215639969 0 0 0 0 0 0 -0.156676230471717 0 0 0 -0.943835758263368 0 0
0 0 0 0 0 0 0 0 0 0 0 0 0 0 0 0 0 0 0 0 0 0 0 0 0 0 0 0 0 0 0 0 0.178016813870067 0 0 0 0 0 0 0 0 0 0 0 -0.156676230471717 0 0 0 0 0
0 0 0 0 0 0 0 0 0 0 0 0 0 0 0 0 0 0 0 0 0 0 0 0 0 0 0 0 0 0 0 0 0 0 0 0.92748780990472 0.583912618285081 0.119578437434795 0.278955074508554 0.0490104204687865 0.125164241388163 0.183757894629811 0.232741753837201 0 0 -0.156676230471717 0 0 0 0
0 0 0 0 0 0 0 0 0 0 0 0 0 0 0 0 0 0 0 0 0.0495559759557245 0.247179222044594 0.809713966629394 0.184003643032013 0.0870983291188356 0.223085060925362 0.659457737138307 0.156189344187712 0.0858873854291307 0.111917746680589 0.0649415183775781 0.0736242196268647 0.491663319108686 1.48933239780673 0.523923237196608 0.734693933918272 0.117019512971742 0.796122520849061 0 0 0 0 0 0 0 0 -0.156676230471717 0 0 0
0 0 0 0 0 0 0 0 0 0 0 0 0 0 0 0 0 0 0 0 0 0 0 0 0 0 0 0 0 0 0 0 0 0 0 0 0 0 0 0 0 0 0 0.180322701587579 0 0 0 -0.156676230471717 0 0
0 0 0 0 0 0 0 0 0 0 0.67685910556132 0 0 0 0 0 0 0 0 0 0 0 0 0 0 0 0 0 0 0 0 0 0 0 0 0 0 0 0 0 0 0 0 0 0 0 0 0 -0.156676230471717 0
0 0 0 0 0 0 0 0 0 0 0 0 0 0 0 0 0.168223594627953 0.216098127486722 0.630136149562093 0.108063192579264 0 0 0 0 0 0 0 0 0 0 0 0 0 0 0 0 0 0 0 0 0 0 0 0 0 0 0 0 0 -0.156676230471717
