-0.0599815192699892 0 0 0 0 0 0 0 0 0 0 0 0 0 0 0 0 0 0 0 0 0 -2.05675691297701 0 0 0 0 0 0 0 0 0 0 0 0 0 0 0 0 0 0 0 0 0 0 0 0 0 0 0
0 -0.0599815192699892 0 0 0 0 0 0 0 0 0 0 0 0 0 0 0 0 0 0 0 0 -0.34596264663595 0 0 0 0 0 0 0 0 0 0 0 0 0 0 0 0 0 0 0 0 0 -2.49244698112935 0 0 0 0 0
0 0 -0.0599815192699892 0 0 0 0 0 0 -0.601278171389785 -2.24211656000431 0 0 -3.11535518651167 0 0 -0.330206230839658 0 0 0 0 0 -4.27998945783663 0 0 0 0 0 0 0 0 0 0 0 0 0 0 0 0 0 0 0 0 0 -3.94955862737455 0 0 0 0 0
0 0 0 -0.0599815192699892 0 0 0 0 0 0 0 0 0 0 0 0 0 0 0 0 0 0 0 0 0 0 -0.31896991427711 -1.51416954667856 0 0 0 0 0 0 0 0 0 0 0 0 0 0 0 0 0 0 0 0 0 0
0 0 0 0 -0.0599815192699892 0 0 0 0 0 0 0 0 0 0 0 0 0 0 0 0 0 0 0 0 0 -0.929783590455622 -2.16466950980754 0 0 0 0 0 0 0 0 0 0 0 0 0 0 0 0 0 0 0 0 0 0
0 0 0 0 0 -0.0599815192699892 0 0 0 0 0 0 0 0 0 0 0 0 0 0 0 0 0 0 0 0 -0.661517285758762 -0.351081846880619 0 0 0 0 0 0 0 0 0 0 0 0 0 0 0 -5.29613724973182 0 0 0 0 0 0
0 0 0 0 0 0 -0.0599815192699892 0 0 0 0 0 0 0 0 0 0 0 0 0 0 0 0 -2.93876789771291 0 0 0 0 0 0 0 0 0 0 0 0 0 0 0 0 0 0 0 -2.86834168869761 0 0 0 -0.110025202289743 0 0
0 0 0 0 0 0 0 -0.0599815192699892 0 0 0 0 0 0 -1.08819495826067 0 0 0 0 0 0 0 0 -2.78074005259854 0 0 0 0 0 0 0 0 0 0 0 0 0 0 0 0 0 0 0 -0.275203560031384 0 0 0 -0.323579351154309 0 0
0 0 0 0 0 0 0 0 -0.0599815192699892 0 0 0 0 0 0 0 0 -2.42463370424249 -0.808135811058636 0 0 0 0 -0.417174939767912 0 0 0 0 0 0 0 0 0 0 0 -2.84400449554879 0 0 0 0 0 0 0 0 0 0 0 -6.54702120158456 0 0
0 0 0.12341489608466 0 0 0 0 0 0 -0.0599815192699892 0 0 0 0 0 0 0 0 0 0 0 0 0 -1.31044203024661 0 -2.01179941729074 0 0 0 0 0 0 0 0 0 -0.360749315859357 0 0 0 0 0 0 0 0 0 0 0 -9.2290626844525 -1.83587550562134 0
0 0 0.487320093844981 0 0 0 0 0 0 0 -0.0599815192699892 0 0 0 0 0 0 0 0 0 0 0 0 -2.35503780556086 0 -6.91535292164865 0 0 0 0 -1.37069802940873 0 0 0 0 -3.32064726475382 0 0 0 0 0 0 0 0 0 0 0 -0.512899414392542 -0.108863279879444 0
0 0 0 0 0 0 0 0 0 0 0 -0.0599815192699892 -3.40106201316568 0 0 0 0 0 0 0 0 0 0 -1.01438663726402 0 -0.976326146490279 0 0 0 0 0 0 0 0 0 -1.98668882720464 0 0 0 0 0 0 0 0 0 0 0 -0.629874766274119 0 0
0 0 0 0 0 0 0 0 0 0 0 0.71503403958131 -0.0599815192699892 0 0 0 0 0 0 0 0 0 0 0 0 -2.20899926906185 0 0 0 0 0 0 0 0 0 -3.02639068096513 0 0 0 0 0 0 0 0 0 0 0 -0.749197105770996 0 -0.74082159906041
0 0 0.59087301652217 0 0 0 0 0 0 0 0 0 0 -0.0599815192699892 0 0 0 0 0 0 0 0 0 0 0 -7.36112142581741 0 0 0 0 0 0 0 0 0 -2.28919623433475 0 0 0 0 0 0 0 0 0 0 0 -4.49698987649406 0 -0.35483012523955
0 0 0 0 0 0 0 0.227140784410092 0 0 0 0 0 0 -0.0599815192699892 0 0 0 0 0 0 0 0 0 0 -0.671515640845802 0 0 0 0 0 0 0 0 0 -2.14458672198597 0 0 0 0 0 0 0 0 0 0 0 -2.92719710546017 0 -1.4260225228728
0 0 0 0 0 0 0 0 0 0 0 0 0 0 0 -0.0599815192699892 0 0 0 0 0 0 0 0 0 -3.19079554141224 0 0 0 0 0 0 0 0 0 -1.23457409791396 0 0 0 0 0 0 0 0 0 0 0 0 0 -0.597865931054211
0 0 0.0662959065183244 0 0 0 0 0 0 0 0 0 0 0 0 0 -0.0599815192699892 0 0 0 0 0 0 0 0 0 0 0 0 0 0 0 0 -1.09206370481363 0 -0.389365946870477 0 0 0 0 0 0 0 0 0 0 0 0 0 0
0 0 0 0 0 0 0 0 0.545293444912997 0 0 0 0 0 0 0 0 -0.0599815192699892 0 0 0 0 0 0 -0.899102143775112 0 0 0 0 0 0 0 0 -0.498923699185188 0 -0.631661060132676 0 0 0 0 0 0 0 0 0 0 0 0 0 0
0 0 0 0 0 0 0 0 0.162866805471851 0 0 0 0 0 0 0 0 0 -0.0599815192699892 0 0 0 0 0 0 0 0 0 0 -0.45384247531578 0 -0.275776968237354 0 0 0 0 0 0 0 -0.139413559864539 -1.00242159897244 0 0 0 0 0 0 0 0 0
0 0 0 0 0 0 0 0 0 0 0 0 0 0 0 0 0 0 0 -0.0599815192699892 0 0 0 0 0 0 0 0 0 -3.3145101830235 0 -0.536748557300067 0 0 0 0 0 0 0 -2.47600891449907 -0.219295135040946 0 0 0 0 0 0 0 0 0
0 0 0 0 0 0 0 0 0 0 0 0 0 0 0 0 0 0 0 0 -0.0599815192699892 0 0 0 0 0 0 0 0 -3.6071848017361 0 -0.079743529772796 0 0 0 0 0 0 0 -0.36908102640765 -0.603115193086995 0 0 0 0 0 0 0 0 0
0 0 0 0 0 0 0 0 0 0 0 0 0 0 0 0 0 0 0 0 0 -0.0599815192699892 0 0 0 0 0 0 0 -1.40840455482742 0 0 0 0 0 0 0 0 0 -1.30110541232399 0 0 0 0 0 0 0 0 0 0
0.422010372736889 0.0690940566554783 0.892773983862294 0 0 0 0 0 0 0 0 0 0 0 0 0 0 0 0 0 0 0 -0.0599815192699892 0 0 0 0 0 0 -0.993195860224061 0 0 0 0 0 0 0 0 0 -0.460380257880052 0 0 0 0 0 0 0 0 0 0
0 0 0 0 0 0 0.564218861919385 0.555654718484678 0.0875704710549936 0.271283804105653 0.456173396449268 0.194729037235812 0 0 0 0 0 0 0 0 0 0 0 -0.0599815192699892 0 0 0 0 0 -0.262984734064154 0 0 0 0 0 0 0 0 0 -3.45061322837224 0 0 0 0 0 0 0 0 0 0
0 0 0 0 0 0 0 0 0 0 0 0 0 0 0 0 0 0.190106542271474 0 0 0 0 0 0 -0.0599815192699892 0 0 0 0 0 0 0 0 0 0 0 0 0 0 -0.708183886076672 0 0 0 0 0 0 0 0 0 0
0 0 0 0 0 0 0 0 0 0.387436739414067 1.28317687146529 0.196452828602299 0.424208148204391 1.57676936729791 0.131475586104579 0.65314340880563 0 0 0 0 0 0 0 0 0 -0.0599815192699892 0 0 0 0 0 0 -0.95514423290352 0 0 0 0 0 0 -0.406567312241494 0 0 0 0 0 0 0 0 0 0
0 0 0 0.0587729608520443 0.187273147280717 0.129742396414431 0 0 0 0 0 0 0 0 0 0 0 0 0 0 0 0 0 0 0 0 -0.0599815192699892 0 0 0 0 0 -1.11557354886915 0 0 0 0 0 0 -0.270745751748773 0 0 0 0 0 0 0 0 0 0
0 0 0 0.290734271655615 0.46075008993139 0.0670157321806771 0 0 0 0 0 0 0 0 0 0 0 0 0 0 0 0 0 0 0 0 0 -0.0599815192699892 0 0 0 0 -2.35296686019198 0 0 0 0 0 0 -1.72221354804691 0 0 0 0 0 0 0 0 0 0
0 0 0 0 0 0 0 0 0 0 0 0 0 0 0 0 0 0 0 0 0 0 0 0 0 0 0 0 -0.0599815192699892 0 0 0 -0.312314660111352 0 0 0 0 0 0 -3.16853908883809 0 0 0 0 0 0 0 0 0 0
0 0 0 0 0 0 0 0 0 0 0 0 0 0 0 0 0 0 0.0897256034362999 0.658220633903224 0.735774824937286 0.294253958912231 0.208272934257932 0.0539374000557987 0 0 0 0 0 -0.0599815192699892 0 0 -1.58147066024655 0 0 0 0 0 0 0 0 0 0 0 0 0 0 0 0 0
0 0 0 0 0 0 0 0 0 0 0.262959948506665 0 0 0 0 0 0 0 0 0 0 0 0 0 0 0 0 0 0 0 -0.0599815192699892 0 -6.5964117826608 0 0 0 0 -1.01399087846626 0 0 0 0 0 0 0 0 0 0 0 0
0 0 0 0 0 0 0 0 0 0 0 0 0 0 0 0 0 0 0.0544028229443346 0.103035421338676 0.0148730240062531 0 0 0 0 0 0 0 0 0 0 -0.0599815192699892 -0.847373741422195 0 0 0 0 -1.21798172066899 0 0 0 0 0 0 0 0 0 0 0 0
0 0 0 0 0 0 0 0 0 0 0 0 0 0 0 0 0 0 0 0 0 0 0 0 0 0.186934464406956 0.226071871937805 0.501384922063204 0.0606479221571641 0.31383050226651 1.36811216840827 0.157664258617328 -0.0599815192699892 0 -1.44658633108526 0 -3.57060515368312 0 -4.90142018661331 0 0 0 0 0 0 0 0 0 0 0
0 0 0 0 0 0 0 0 0 0 0 0 0 0 0 0 0.213897176547049 0.0991229522372307 0 0 0 0 0 0 0 0 0 0 0 0 0 0 0 -0.0599815192699892 -0.596995463483635 0 -4.85681584141489 0 -0.955064215437456 0 0 0 0 0 0 0 0 0 0 0
0 0 0 0 0 0 0 0 0 0 0 0 0 0 0 0 0 0 0 0 0 0 0 0 0 0 0 0 0 0 0 0 0.289095676147063 0.120090663067132 -0.0599815192699892 0 -0.476760001912148 0 0 0 0 0 0 0 0 0 0 0 0 0
0 0 0 0 0 0 0 0 0.593982800024604 0.0693370335027647 0.666477793254772 0.407556004864382 0.555212673088006 0.442876658275804 0.464970012400404 0.25013132365458 0.0755539434876641 0.121344862085127 0 0 0 0 0 0 0 0 0 0 0 0 0 0 0 0 0 -0.0599815192699892 -0.787768970781501 0 0 0 0 0 0 0 0 0 0 0 0 0
0 0 0 0 0 0 0 0 0 0 0 0 0 0 0 0 0 0 0 0 0 0 0 0 0 0 0 0 0 0 0 0 0.687457069668801 0.973270524831629 0.102463517042486 0.150660754101679 -0.0599815192699892 0.142588147845609 0.0286979568555704 0.162074364262397 0 0 0 0 0 0 0 0 0 0
0 0 0 0 0 0 0 0 0 0 0 0 0 0 0 0 0 0 0 0 0 0 0 0 0 0 0 0 0 0 0.207619155343173 0.253999094651587 0 0 0 0 -0.653566019868277 -0.0599815192699892 0 0 0 0 0 0 0 0 0 0 0 0
0 0 0 0 0 0 0 0 0 0 0 0 0 0 0 0 0 0 0 0 0 0 0 0 0 0 0 0 0 0 0 0 0.952647181612236 0.183581550296438 0 0 -0.143857419057082 0 -0.0599815192699892 0 0 0 0 0 0 0 0 0 0 0
0 0 0 0 0 0 0 0 0 0 0 0 0 0 0 0 0 0 0.0263280314864793 0.525217709016596 0.0721981300830264 0.240820262946526 0.0965336747604405 0.72801184369051 0.139697395965241 0.078097499942304 0.057047125480215 0.353221660785642 0.632913734120002 0 0 0 0 0 0 0 -0.79838888049372 0 0 -0.0599815192699892 0 0 0 0 0 0 -0.218762810242128 0 0 0
0 0 0 0 0 0 0 0 0 0 0 0 0 0 0 0 0 0 0.218105895737783 0.0422462948569015 0.130426639372622 0 0 0 0 0 0 0 0 0 0 0 0 0 0 0 0 0 0 0 -0.0599815192699892 0 0 0 0 0 -0.912711238683277 0 0 0
0 0 0 0 0 0 0 0 0 0 0 0 0 0 0 0 0 0 0 0 0 0 0 0 0 0 0 0 0 0 0 0 0 0 0 0 0 0 0 0 0 -0.0599815192699892 0 0 0 0 -0.385981733455221 0 0 0
0 0 0 0 0 0 0 0 0 0 0 0 0 0 0 0 0 0 0 0 0 0 0 0 0 0 0 0 0 0 0 0 0 0 0 0 0 0 0 0 0 0 -0.0599815192699892 0 0 0 -2.58413817133793 0 0 0
0 0 0 0 0 1.10586953723247 0.564324939725059 0.0531339993087706 0 0 0 0 0 0 0 0 0 0 0 0 0 0 0 0 0 0 0 0 0 0 0 0 0 0 0 0 0 0 0 0 0 0 0 -0.0599815192699892 0 0 -0.565723294347909 0 0 0
0 0.471895436642838 0.786701923519788 0 0 0 0 0 0 0 0 0 0 0 0 0 0 0 0 0 0 0 0 0 0 0 0 0 0 0 0 0 0 0 0 0 0 0 0 0 0 0 0 0 -0.0599815192699892 -6.68990029012287 0 0 0 0
0 0 0 0 0 0 0 0 0 0 0 0 0 0 0 0 0 0 0 0 0 0 0 0 0 0 0 0 0 0 0 0 0 0 0 0 0 0 0 0 0 0 0 0 1.32004739775494 -0.0599815192699892 0.334473162373021 0 0 0
0 0 0 0 0 0 0 0 0 0 0 0 0 0 0 0 0 0 0 0 0 0 0 0 0 0 0 0 0 0 0 0 0 0 0 0 0 0 0 0.0417843571128664 0.179707739102398 0.0817798829633655 0.474423423775775 0.117288680954314 0 -1.59248287217344 -0.0599815192699892 0 0 0
0 0 0 0 0 0 0.021403914504193 0.0625352803771883 1.27787639312449 1.80226440466616 0.0903366361095927 0.119920328243255 0.157862298059503 0.922454809369017 0.527971330121153 0 0 0 0 0 0 0 0 0 0 0 0 0 0 0 0 0 0 0 0 0 0 0 0 0 0 0 0 0 0 0 0 -0.0599815192699892 0 0
0 0 0 0 0 0 0 0 0 0.350050660885704 0.0199551751220749 0 0 0 0 0 0 0 0 0 0 0 0 0 0 0 0 0 0 0 0 0 0 0 0 0 0 0 0 0 0 0 0 0 0 0 0 0 -0.0599815192699892 0
0 0 0 0 0 0 0 0 0 0 0 0 0.146194936449025 0.0670391152168648 0.290729923648716 0.118707858151573 0 0 0 0 0 0 0 0 0 0 0 0 0 0 0 0 0 0 0 0 0 0 0 0 0 0 0 0 0 0 0 0 0 -0.0599815192699892
