1.38060303395771
0.784003687542307
7.47559202571722
3.57380898073143
0.82764201001093
2.61333872519762
3.28486941073078
0.462241157222545
5.03196121723743
0.964230851072193
2.2195626990137
4.24587897329118
0.660278365568858
0.492095011219375
2.07156318766447
0.140722287017544
0.637601741979985
1.59144191471069
0.641670962293066
0.264518599723429
0.208103156197066
0.837391278634749
2.63714274290777
10.3345183209247
0.508768076014067
0.349491727984247
0.913962043326924
5.47457179331383
3.41360970626971
2.13340548276799
2.36763951808841
0.439269124867597
0.844952367529768
0.357143543411544
0.928889035751088
7.48548662851078
0.547031600973672
0.27570946188445
0.110953333296196
0.863874468994009
0.971250184177831
0.642336509229625
0.653748681651124
0.687374522505079
1.98027475434307
0.898907283899447
0.540661358483507
0.281366464188108
0.201216569427261
0.796563023510169
