2.57384153758035
0.666308287340123
0.790645653332615
0.547706054173242
0.308913380202458
1.21321756863337
2.4033202506215
1.52021578852501
0.605652584155552
1.44949179886319
0.358090828606983
2.79956326919947
6.5534411478539
3.36924464528224
0.854956627214255
3.82190714012465
1.01986802633936
0.625762090950374
0.443082858930154
2.3910793825213
1.56536017695948
0.39934306205813
2.25276552968681
1.38225699181752
1.11625672004261
2.05752789712495
0.394995071855685
1.07478905183107
0.737634398549161
3.1422011800429
1.13158805876834
1.28167599192249
0.716003483370599
1.16698702877317
0.463704003592737
3.15633036726468
0.38615467223668
1.14411563389977
0.913031969831523
1.6534848612655
1.00716484434699
0.903730292276351
2.843462613257
0.141508291373777
0.321389248991482
1.29098277755264
1.89853690598271
2.14636840369963
0.295741770964419
0.336752264739199
