1.10219810125171
0.40125294248805
0.635241702763386
0.432092324318864
0.386996594550176
4.45825967660304
0.781608729247938
0.440040494047106
0.665090985070879
0.800813350285216
0.418156681547735
0.640974348889783
1.09538486704575
0.204455903425956
4.43428769530509
9.08203862382074
0.179683330305434
1.22566440573677
0.442548902815883
0.459636119408746
2.19051809282513
0.103794134032623
0.712317936796325
1.03690951382047
4.66281845503671
0.229618021788041
3.99958442956292
0.0816574157459506
1.96294309999202
2.27989166781904
1.23568760349052
1.6910342777788
5.53820378629888
0.412749047154086
4.08876403356251
2.4982909906988
0.927955583245425
0.103662970374766
1.13173179076515
0.235696897771759
3.85962173018354
1.50548874724044
0.249573259702678
0.537989113609261
5.54158834449276
0.352485374673125
2.71507321254194
1.58320203295948
0.631017176685202
3.50717205109223
