-0.129251924718083 0 0 0 0 0 0 0 0 0 0 -1.11168058810985 0 0 0 0 0 0 0 0 0 0 0 0 0 0 0 0 0 0 0 0 0 0 0 0 0 0 0 0 0 0 0 0 0 0 0 0 0 0
0 -0.129251924718083 0 0 0 0 -0.401877014144403 -0.326874985944149 0 0 0 0 0 0 0 0 0 0 0 -1.17390592359203 0 0 0 0 -2.9696008668382 -1.48215338854881 0 0 0 0 0 0 0 0 0 0 0 0 0 -0.662581480219331 0 0 0 0 0 0 0 0 0 0
0 0 -0.129251924718083 0 0 0 0 0 0 0 0 0 0 0 0 0 0 0 0 -0.267267384191856 0 0 0 0 0 -1.64662257635382 0 0 0 0 0 0 0 0 0 0 0 0 0 0 0 0 0 0 0 0 0 0 0 0
0 0 0 -0.129251924718083 0 0 0 0 0 0 0 0 0 0 0 0 0 0 0 -2.61248450822376 0 0 0 -0.327673734660335 0 0 0 0 0 0 0 0 0 0 0 0 0 0 0 0 0 0 0 0 0 0 0 0 0 0
0 0 0 0 -0.129251924718083 0 0 0 0 0 0 0 0 0 0 0 0 0 0 -1.68714460327902 0 0 0 -0.9632217309014 0 0 0 0 0 0 0 0 0 0 0 0 0 0 0 0 0 0 0 0 0 0 0 -0.982282874355683 0 0
0 0 0 0 0 -0.129251924718083 0 0 0 0 0 0 -0.825525867413705 0 0 0 0 -0.566347836255703 0 -1.04162124945164 0 0 0 -2.7813547070481 0 0 0 0 0 0 0 0 0 0 0 0 0 0 0 0 0 0 0 0 0 0 0 0 0 0
0 0.0818984199492198 0 0 0 0 -0.129251924718083 0 0 0 0 0 -1.24040555829651 0 0 0 0 -0.297886659949764 0 0 -6.9623857682372 0 0 0 0 0 0 0 0 0 0 0 0 0 0 0 0 0 0 0 0 0 0 0 0 0 0 0 0 0
0 0.0680816299524241 0 0 0 0 0 -0.129251924718083 0 0 0 0 -0.272774257874649 0 0 0 0 -0.526548167328329 0 0 -0.872619872922176 0 0 0 0 0 0 0 0 0 0 0 0 0 0 0 0 0 0 0 0 0 0 0 0 0 0 0 0 0
0 0 0 0 0 0 0 0 -0.129251924718083 0 0 0 -0.268630399862837 0 0 0 0 0 0 0 -2.53573276320716 0 0 0 0 0 0 0 0 0 0 0 0 0 0 0 0 0 0 0 0 0 0 0 0 0 0 0 0 0
0 0 0 0 0 0 0 0 0 -0.129251924718083 0 0 -0.190288261595475 0 0 0 0 0 0 0 0 0 0 0 0 0 0 0 0 0 0 0 0 0 0 0 0 0 0 0 0 0 0 0 0 0 0 0 0 0
0 0 0 0 0 0 0 0 0 0 -0.129251924718083 0 0 -6.25090778185072 -2.23759120632524 0 0 0 0 0 0 0 0 0 0 0 0 0 0 0 0 0 0 0 0 0 0 0 0 0 0 0 0 0 0 0 0 0 0 0
0.211743115272156 0 0 0 0 0 0 0 0 0 0 -0.129251924718083 0 0 -0.483709827692681 0 -1.12891337996748 0 -2.06218955916875 0 0 0 0 0 0 0 0 0 0 0 -7.28055603546493 0 0 0 -0.204183011026067 0 0 0 0 0 0 0 0 0 0 0 0 0 0 0
0 0 0 0 0 0.165108684263627 0.242577791679747 0.0546431567109955 0.0531878299854342 0.0408353827566016 0 0 -0.129251924718083 0 -0.618780315210284 0 -1.57193264142402 0 -1.14412967616449 0 0 0 0 0 0 0 0 0 0 0 -2.52204566415437 0 0 0 -0.578529971469347 0 0 0 0 0 0 0 0 0 0 0 0 0 0 0
0 0 0 0 0 0 0 0 0 0 1.22218551367153 0 0 -0.129251924718083 0 0 -2.09139608552322 0 0 0 0 0 0 0 0 0 0 0 0 0 -3.15902178051624 0 0 0 -1.13606650236926 0 0 0 0 0 0 0 0 0 0 0 0 0 0 -5.87051593381916
0 0 0 0 0 0 0 0 0 0 0.455412374775283 0.102347824725204 0.114541072370399 0 -0.129251924718083 0 0 0 0 0 0 0 0 0 0 0 0 0 0 0 -3.30017552867898 0 0 0 -1.35230315904521 0 0 0 0 0 0 0 0 0 0 0 0 0 0 -1.20229717195802
0 0 0 0 0 0 0 0 0 0 0 0 0 0 0 -0.129251924718083 0 0 0 0 0 -0.285067352405872 0 0 0 0 0 0 0 0 0 -0.448035223252101 -0.0617660271973909 0 -2.79855047130085 0 0 0 0 0 0 0 0 0 0 0 0 0 0 0
0 0 0 0 0 0 0 0 0 0 0 0.2342488452597 0.319665601302416 0.408468565870557 0 0 -0.129251924718083 0 0 0 0 -6.36818775836958 0 0 0 0 0 0 0 0 0 0 -0.19067426315646 0 -1.07681562008431 0 0 0 0 0 0 0 0 0 0 0 0 0 0 0
0 0 0 0 0 0.124997547851533 0.059395150644407 0.113272931399307 0 0 0 0 0 0 0 0 0 -0.129251924718083 0 0 0 -4.11510875398864 0 0 0 0 0 0 0 0 0 0 -0.182227325211378 0 -1.02817649317579 0 0 0 0 0 0 0 0 0 0 0 0 0 0 0
0 0 0 0 0 0 0 0 0 0 0 0.40080916807588 0.233479004694139 0 0 0 0 0 -0.129251924718083 0 0 0 0 0 0 0 -1.66613616385512 0 0 0 0 0 -4.00507035359605 0 0 0 0 0 0 0 0 0 0 0 -0.657564739290878 0 0 0 -0.195671260904419 0
0 0.219419994303944 0.0559174293400611 0.524896785076577 0.367631355312946 0.206019022664389 0 0 0 0 0 0 0 0 0 0 0 0 0 -0.129251924718083 0 0 0 0 0 0 0 -1.18955646572567 0 0 0 0 0 0 0 0 0 0 0 0 0 0 0 0 -1.93107996538021 0 0 0 -0.405614833198116 0
0 0 0 0 0 0 1.35158790637 0.180079293447272 0.485090429652017 0 0 0 0 0 0 0 0 0 0 0 -0.129251924718083 0 0 0 0 0 0 -1.80664032398726 0 0 0 0 0 0 0 0 0 0 0 0 0 0 0 0 -3.80925027521828 0 0 0 -2.13877032602028 0
0 0 0 0 0 0 0 0 0 0 0 0 0 0 0 0.0566291478137049 1.30314395063936 0.847320631739478 0 0 0 -0.129251924718083 0 0 0 0 0 -1.80364703226421 0 0 0 0 0 0 0 0 -0.286068187417274 0 0 0 0 0 0 0 -1.08595770202515 0 0 0 -0.93140104163135 0
0 0 0 0 0 0 0 0 0 0 0 0 0 0 0 0 0 0 0 0 0 0 -0.129251924718083 0 0 0 0 -0.455061486249749 0 0 0 0 0 0 0 0 -0.0730763359834634 0 0 0 0 0 0 0 -1.64592349279377 0 0 0 -0.537947957417748 0
0 0 0 0.0689829879249994 0.208803993354142 0.556345766840318 0 0 0 0 0 0 0 0 0 0 0 0 0 0 0 0 0 -0.129251924718083 0 0 0 -0.490430001195089 0 0 0 0 0 0 0 0 -1.70645859554947 0 0 0 0 0 0 0 -0.888952011351114 0 0 0 -0.665692351230383 0
0 0.595652563184543 0 0 0 0 0 0 0 0 0 0 0 0 0 0 0 0 0 0 0 0 0 0 -0.129251924718083 0 0 -5.24507832973139 0 0 0 0 0 0 0 0 -5.36926612564891 0 0 0 0 0 0 0 -1.22445979240485 0 0 0 -1.07195320638231 0
0 0.29444397867019 0.346157646247683 0 0 0 0 0 0 0 0 0 0 0 0 0 0 0 0 0 0 0 0 0 0 -0.129251924718083 0 0 0 0 0 0 0 0 0 0 0 0 0 0 0 0 0 0 -1.95571647790724 0 0 0 -0.189634023081101 0
0 0 0 0 0 0 0 0 0 0 0 0 0 0 0 0 0 0 0.366251973506907 0 0 0 0 0 0 0 -0.129251924718083 0 0 0 0 0 0 0 0 0 0 0 0 0 0 0 0 0 -0.28893996413484 0 0 0 -0.304886755266764 0
0 0 0 0 0 0 0 0 0 0 0 0 0 0 0 0 0 0 0 0.241140711352971 0.37947658325305 0.353974893544242 0.0852743445883384 0.0990352525657036 1.00994767952349 0 0 -0.129251924718083 0 0 0 0 0 0 0 0 0 0 0 0 0 0 0 0 -0.772345956645057 0 0 0 -2.36256004141385 0
0 0 0 0 0 0 0 0 0 0 0 0 0 0 0 0 0 0 0 0 0 0 0 0 0 0 0 0 -0.129251924718083 0 0 0 0 0 0 0 0 0 0 0 0 0 0 0 0 0 0 0 -0.254663407344338 0
0 0 0 0 0 0 0 0 0 0 0 0 0 0 0 0 0 0 0 0 0 0 0 0 0 0 0 0 0 -0.129251924718083 0 0 0 0 0 -1.29164404538651 0 0 0 0 0 0 0 -1.98353587336228 0 0 0 0 -1.45904076851931 0
0 0 0 0 0 0 0 0 0 0 0 1.44727525936244 0.499017668123564 0.651886762691638 0.675483566421358 0 0 0 0 0 0 0 0 0 0 0 0 0 0 0 -0.129251924718083 0 0 0 0 -1.09686039569169 0 0 0 0 0 0 0 -1.52581552470868 0 0 0 0 0 0
0 0 0 0 0 0 0 0 0 0 0 0 0 0 0 0.0948671918612708 0 0 0 0 0 0 0 0 0 0 0 0 0 0 0 -0.129251924718083 0 0 0 0 0 0 0 0 0 0 -0.931452577944496 -2.18129966083153 0 0 0 0 0 0
0 0 0 0 0 0 0 0 0 0 0 0 0 0 0 0.0131026035345178 0.0366544524265859 0.0372204571469984 0.706324272410472 0 0 0 0 0 0 0 0 0 0 0 0 0 -0.129251924718083 0 0 0 0 0 0 0 0 0 -0.945668943017942 -2.76237435467764 0 0 0 0 0 0
0 0 0 0 0 0 0 0 0 0 0 0 0 0 0 0 0 0 0 0 0 0 0 0 0 0 0 0 0 0 0 0 0 -0.129251924718083 0 0 0 -0.643597482755275 0 0 -2.43523146698577 -1.39169086650703 -0.360928470908629 0 0 0 -1.65218802156959 0 0 0
0 0 0 0 0 0 0 0 0 0 0 0.0434584904620231 0.114195951586711 0.229675437485093 0.276421712226911 0.515712268177492 0.195408466941928 0.212805227219499 0 0 0 0 0 0 0 0 0 0 0 0 0 0 0 0 -0.129251924718083 0 0 -0.851734972138298 0 0 -0.84970359844555 -1.32413671330934 -1.09610424664625 0 0 0 -2.92125393255148 0 0 0
0 0 0 0 0 0 0 0 0 0 0 0 0 0 0 0 0 0 0 0 0 0 0 0 0 0 0 0 0 0.269701941315519 0.208005362110427 0 0 0 0 -0.129251924718083 0 0 0 0 -0.890510369947426 0 -0.389266113475044 0 0 0 0 0 0 0
0 0 0 0 0 0 0 0 0 0 0 0 0 0 0 0 0 0 0 0 0 0.0578528711404209 0.0150254397138722 0.359839401303466 1.06873923237972 0 0 0 0 0 0 0 0 0 0 0 -0.129251924718083 0 0 0 -0.33839978361738 0 0 0 0 0 0 0 0 0
0 0 0 0 0 0 0 0 0 0 0 0 0 0 0 0 0 0 0 0 0 0 0 0 0 0 0 0 0 0 0 0 0 0.137531259782234 0.153469300276763 0 0 -0.129251924718083 0 0 0 0 0 0 0 -2.6716268561033 0 0 0 0
0 0 0 0 0 0 0 0 0 0 0 0 0 0 0 0 0 0 0 0 0 0 0 0 0 0 0 0 0 0 0 0 0 0 0 0 0 0 -0.129251924718083 0 0 0 0 0 0 -0.319815647620631 0 0 0 0
0 0.137364761258939 0 0 0 0 0 0 0 0 0 0 0 0 0 0 0 0 0 0 0 0 0 0 0 0 0 0 0 0 0 0 0 0 0 0 0 0 0 -0.129251924718083 0 0 0 0 0 -0.474988114029641 0 0 0 0
0 0 0 0 0 0 0 0 0 0 0 0 0 0 0 0 0 0 0 0 0 0 0 0 0 0 0 0 0 0 0 0 0 0.533152505994669 0.162005191947597 0.17893400523191 0.0664287057949937 0 0 0 -0.129251924718083 0 0 0 0 0 0 0 0 0
0 0 0 0 0 0 0 0 0 0 0 0 0 0 0 0 0 0 0 0 0 0 0 0 0 0 0 0 0 0 0 0 0 0.272883332817687 0.264972782673094 0 0 0 0 0 0 -0.129251924718083 0 0 0 0 0 0 0 0
0 0 0 0 0 0 0 0 0 0 0 0 0 0 0 0 0 0 0 0 0 0 0 0 0 0 0 0 0 0 0 0.189005032107497 0.189559976378664 0.0720634671018999 0.220200000282874 0.076006733184758 0 0 0 0 0 0 -0.129251924718083 0 0 0 0 0 0 0
0 0 0 0 0 0 0 0 0 0 0 0 0 0 0 0 0 0 0 0 0 0 0 0 0 0 0 0 0 0.410993781928142 0.276266355724356 0.460346588106138 0.507328981063503 0 0 0 0 0 0 0 0 0 0 -0.129251924718083 0 0 0 0 0 0
0 0 0 0 0 0 0 0 0 0 0 0 0 0 0 0 0 0 0.127814888108462 0.39549605302241 0.764696611235425 0.199844854849809 0.315590297729732 0.179580148234461 0.245017921725842 0.394595797377204 0.0517161800229037 0.15532057195765 0 0 0 0 0 0 0 0 0 0 0 0 0 0 0 0 -0.129251924718083 0 0 0 0 0
0 0 0 0 0 0 0 0 0 0 0 0 0 0 0 0 0 0 0 0 0 0 0 0 0 0 0 0 0 0 0 0 0 0 0 0 0 0.532105657660664 0.0687814666304328 0.0944919441600272 0 0 0 0 0 -0.129251924718083 0 0 0 0
0 0 0 0 0 0 0 0 0 0 0 0 0 0 0 0 0 0 0 0 0 0 0 0 0 0 0 0 0 0 0 0 0 0.356288069268951 0.549267531526915 0 0 0 0 0 0 0 0 0 0 0 -0.129251924718083 0 0 0
0 0 0 0 0.201625019258661 0 0 0 0 0 0 0 0 0 0 0 0 0 0 0 0 0 0 0 0 0 0 0 0 0 0 0 0 0 0 0 0 0 0 0 0 0 0 0 0 0 0 -0.129251924718083 0 0
0 0 0 0 0 0 0 0 0 0 0 0 0 0 0 0 0 0 0.0384555940570622 0.0848789398722146 0.439606600285665 0.186342938062167 0.103255489024774 0.125644227740134 0.221272463650891 0.0380791099059725 0.0619920805817065 0.478477017874011 0.0531241006656903 0.304839602429179 0 0 0 0 0 0 0 0 0 0 0 0 0 0 0 0 0 0 -0.129251924718083 0
0 0 0 0 0 0 0 0 0 0 0 0 0 1.17556787476983 0.258288997054534 0 0 0 0 0 0 0 0 0 0 0 0 0 0 0 0 0 0 0 0 0 0 0 0 0 0 0 0 0 0 0 0 0 0 -0.129251924718083
