0.587873533940411
7.86704985024115
0.782281738887851
0.257100655220857
3.9547026330463
0.995537463985221
0.686634808596689
1.41445922301547
7.53539801555246
2.50881724034757
2.20084436104685
2.17952977748636
2.2860148214211
0.438793273016604
0.883508741696436
1.09624193920481
0.352427031601883
0.183019811725219
0.431862331387859
0.374751658690792
1.01271893805792
3.61612419805684
0.202377541491864
0.421665906886981
0.709045615586034
0.608286533238497
4.85306700649149
1.12386221929078
1.88056916307262
0.487286901444515
0.262714148251058
0.733101541820078
1.87689355438977
0.5107649214349
2.55863085113209
3.61093935237007
1.62303901746489
3.60306634481886
2.01317014441851
0.708629446091798
0.466280235029206
0.962628679175542
1.36981361184516
0.373086268427783
2.4048459915801
9.00992515499308
2.36641218996124
0.605034306888259
1.03212176262602
1.94280139587642
