2.49405921678698
2.55827626207467
0.670038086094076
2.1984494842172
0.0878902007172408
0.478028752640244
3.2070081104787
3.90997546287745
1.70962588060813
1.38039922002448
0.9730203509664
2.03816959186083
0.94822181544359
2.97983689144988
0.269934029915158
0.31150461628447
0.520185674308991
0.529501206884654
2.69731564865501
2.59848993679403
1.34980095422905
0.649919434816294
1.46167895301343
0.794511575406852
3.88336203821009
0.661405639552861
1.56991338805472
0.41614660273561
1.40102204278856
0.207094833882051
0.275366396306937
0.10569243233148
1.12069703399435
0.336490319420352
0.274752534118654
0.251932245146057
1.07757302441243
0.202957065444429
0.291548565313399
1.26097405736585
2.03629088703387
1.97106258098009
0.424307546374152
1.27093276821602
5.48993160856122
0.161351505254078
3.12570324927331
1.07945045132029
5.59377175567526
2.54748483683932
