-0.277173304779176 0 -0.481204980412842 0 0 0 0 0 0 0 0 0 0 0 0 0 0 0 0 0 0 0 0 0 0 0 0 0 0 0 0 0 0 0 0 0 0 0 0 0 0 -1.22963719357821 0 0 0 0 0 0 0 0
0 -0.277173304779176 0 0 0 0 0 -0.255438718205122 0 0 -0.160517520084569 0 0 0 0 0 0 0 -0.212927231839021 0 0 0 0 0 0 0 0 0 -1.32303361164014 0 0 0 0 0 0 0 0 0 0 0 0 -0.599453094689319 0 0 0 0 0 0 0 0
0.0890483035381733 0 -0.277173304779176 0 0 0 0 0 0 0 0 0 0 0 0 0 0 0 -0.166323639794366 0 0 0 0 0 0 0 0 0 0 0 0 0 0 0 0 0 0 0 0 0 0 0 0 0 0 0 0 0 0 0
0 0 0 -0.277173304779176 0 0 0 0 0 0 0 0 0 0 0 0 0 0 0 0 0 0 0 0 0 0 0 0 0 0 0 0 0 0 0 0 -2.4083939892095 0 0 0 0 0 0 0 0 0 0 0 0 0
0 0 0 0 -0.277173304779176 0 0 0 0 -0.779606808660835 0 0 0 0 0 -0.271932129805338 0 0 0 -0.114545444131947 0 0 0 0 0 0 0 0 0 0 0 0 0 0 0 0 -1.7231628258553 0 0 0 0 0 -4.0037761979636 0 0 0 0 0 0 0
0 0 0 0 0 -0.277173304779176 0 0 0 0 0 0 0 0 0 -0.304971579442126 0 0 0 -0.364613002146243 0 0 0 0 0 0 0 0 0 0 0 0 0 0 0 0 -4.43407986823077 0 0 0 0 0 -1.82359807056095 0 0 0 0 0 0 0
0 0 0 0 0 0 -0.277173304779176 0 0 0 0 0 0 0 0 -0.417272030688234 0 0 0 -0.65606344654349 0 0 0 0 0 0 0 0 0 0 0 0 0 0 0 0 -2.1778748122665 0 0 0 0 0 -0.153791071680049 0 0 0 0 0 0 0
0 0.0519043035447472 0 0 0 0 0 -0.277173304779176 0 0 0 0 0 0 0 -1.45859512125437 0 0 0 0 0 0 0 0 0 0 0 0 0 0 0 0 0 0 0 0 -3.41879227701652 0 0 0 0 0 0 0 0 0 0 0 0 0
0 0 0 0 0 0 0 0 -0.277173304779176 0 0 0 0 0 0 -0.218565993143843 0 0 0 0 0 0 0 0 0 0 0 0 0 0 0 0 0 0 0 0 -0.584031490209896 0 0 0 0 0 0 0 0 0 0 0 0 0
0 0 0 0 0.156422015260517 0 0 0 0 -0.277173304779176 0 -0.64359865326591 0 0 0 0 0 0 0 0 0 0 0 0 0 0 0 0 0 0 0 0 0 0 0 0 -0.145518408393788 0 0 0 0 0 0 0 0 0 0 0 0 0
0 0.0331337535732823 0 0 0 0 0 0 0 0 -0.277173304779176 -0.347996459608189 -1.27473393914878 0 0 0 0 0 0 0 0 0 0 0 0 0 0 0 0 0 0 0 0 0 0 0 -1.76003355796494 0 0 0 0 0 0 0 0 0 0 0 0 0
0 0 0 0 0 0 0 0 0 0.147064567018215 0.0727594506777258 -0.277173304779176 -0.913314938100295 0 0 0 0 -1.73737901585829 0 0 0 0 0 0 0 0 0 0 0 0 0 0 0 0 0 0 -0.6570170838506 0 0 0 0 0 0 0 0 0 0 0 0 0
0 0 0 0 0 0 0 0 0 0 0.263207877466246 0.180868968995681 -0.277173304779176 0 0 0 0 0 0 0 0 0 0 0 0 0 0 0 0 0 0 0 0 0 0 0 -1.1817636459733 0 0 0 0 0 0 0 0 0 0 0 0 0
0 0 0 0 0 0 0 0 0 0 0 0 0 -0.277173304779176 -0.570978314565986 0 0 0 0 0 0 0 0 0 0 0 0 0 0 0 0 0 0 0 0 0 0 0 0 0 0 0 0 0 0 0 0 0 0 0
0 0 0 0 0 0 0 0 0 0 0 0 0 0.109302324622988 -0.277173304779176 0.0956279671049485 0 0 0 0 0 0 0 0 0 0 0 0 0 0 0 0 0 0 0 0 0 0 0 -0.0896801656105621 0 0 0 0 0 0 0 0 0 0
0 0 0 0 0.051208451351844 0.0644967995169765 0.0844215200151129 0.270602973993077 0.0431246884852814 0 0 0 0 0 -0.536044334963703 -0.277173304779176 0 0 0 0 0 0 0 0 0 0 0 0 0 0 0 0 0 0 0 0 0 0 0 -0.975227685628091 0 0 0 0 0 0 0 0 0 0
0 0 0 0 0 0 0 0 0 0 0 0 0 0 0 0 -0.277173304779176 0 0 0 0 0 0 0 0 0 0 0 0 0 0 0 0 0 0 0 0 0 0 -1.58212234495807 0 0 0 0 0 0 0 0 0 0
0 0 0 0 0 0 0 0 0 0 0 0.349910243059187 0 0 0 0 0 -0.277173304779176 0 0 0 0 0 0 0 0 0 0 0 0 0 0 0 0 0 0 0 0 0 -3.80088528975375 0 0 0 0 0 0 0 0 0 0
0 0.0416613208082729 0.0319351866250509 0 0 0 0 0 0 0 0 0 0 0 0 0 0 0 -0.277173304779176 0 0 0 0 0 0 0 0 0 0 0 0 0 0 0 0 0 0 0 0 -1.46521956901318 0 0 0 0 0 0 0 0 0 0
0 0 0 0 0.0249840825341724 0.0722202684760816 0.123999538798784 0 0 0 0 0 0 0 0 0 0 0 0 -0.277173304779176 0 0 0 0 0 0 0 0 0 0 0 0 0 0 0 0 0 0 0 -4.99332755215836 0 0 0 0 0 0 0 0 0 0
0 0 0 0 0 0 0 0 0 0 0 0 0 0 0 0 0 0 0 0 -0.277173304779176 0 0 0 0 0 -5.17644752323193 0 0 0 0 0 0 0 -1.1713119748172 0 0 0 0 -0.514793055833082 0 0 0 0 -0.946274201169352 0 0 0 0 0
0 0 0 0 0 0 0 0 0 0 0 0 0 0 0 0 0 0 0 0 0 -0.277173304779176 -0.685734106588192 0 0 0 0 0 0 -2.22147024030195 0 0 -1.56911478020165 0 0 0 0 0 0 0 0 0 0 0 -3.70615418594081 0 0 0 -0.246846340076578 0
0 0 0 0 0 0 0 0 0 0 0 0 0 0 0 0 0 0 0 0 0 0.146610644783342 -0.277173304779176 0.0843100821506025 0.1143935015299 0.0706950090144543 0.154615491901552 0 0 0 0 0 0 0 0 0 0 0 0 0 -0.275661799084927 0 0 0 -0.254746912666269 -0.417873832635905 0 0 0 0
0 0 0 0 0 0 0 0 0 0 0 0 0 0 0 0 0 0 0 0 0 0 -0.41853897269102 -0.277173304779176 0 0 0 0 0 0 0 0 0 -3.11366118299171 0 0 0 0 0 0 -0.896221279654036 0 0 0 -1.2026325692955 -3.66132270386599 0 0 0 0
0 0 0 0 0 0 0 0 0 0 0 0 0 0 0 0 0 0 0 0 0 0 -0.62680781851858 0 -0.277173304779176 0 0 0 0 0 0 0 0 -1.56460313803504 0 0 0 0 0 0 -0.984634884091742 0 0 0 -2.25775986661509 -0.520925378537484 0 0 0 0
0 0 0 0 0 0 0 0 0 0 0 0 0 0 0 0 0 0 0 0 0 0 -0.333718362806605 0 0 -0.277173304779176 0 0 0 0 0 0 0 -1.33750464457215 0 0 0 0 0 0 -0.984090801847337 0 0 0 -0.689072783514231 -0.503818690621668 0 -0.926586516204288 0 0
0 0 0 0 0 0 0 0 0 0 0 0 0 0 0 0 0 0 0 0 1.10759868556234 0 -0.810639461175023 0 0 0 -0.277173304779176 0 0 0 0 0 0 -0.636089083434665 0 0 0 0 0 0 0 0 0 0 -1.46107873984635 -3.67962225887082 0 -0.238758397420358 0 0
0 0 0 0 0 0 0 0 0 0 0 0 0 0 0 0 0 0 0 0 0 0 0 0 0 0 0 -0.277173304779176 0 0 0 0 0 -0.132331999319663 0 0 0 0 0 0 0 0 0 0 -0.783349784771666 -2.29428041139653 0 -0.53382043187743 0 0
0 0.258098296980843 0 0 0 0 0 0 0 0 0 0 0 0 0 0 0 0 0 0 0 0 0 0 0 0 0 0 -0.277173304779176 0 0 0 0 -0.720674397895217 0 0 0 0 0 0 0 0 0 -0.890831472745396 0 -0.344397007974263 0 0 0 0
0 0 0 0 0 0 0 0 0 0 0 0 0 0 0 0 0 0 0 0 0 0.482775444534576 0 0 0 0 0 0 0 -0.277173304779176 0 0 0 -3.65065723101525 0 0 0 0 0 0 0 0 0 -1.68137748405636 0 -1.89362416622636 0 0 0 0
0 0 0 0 0 0 0 0 0 0 0 0 0 0 0 0 0 0 0 0 0 0 0 0 0 0 0 0 0 0 -0.277173304779176 0 0 -0.883232909452951 0 0 0 0 0 0 0 0 0 -0.392614572779086 0 -0.199487983079538 0 0 0 0
0 0 0 0 0 0 0 0 0 0 0 0 0 0 0 0 0 0 0 0 0 0 0 0 0 0 0 0 0 0 0 -0.277173304779176 0 -1.64426170090028 0 0 0 0 0 0 0 0 0 -0.188868106370709 0 -2.85536000001683 0 0 0 0
0 0 0 0 0 0 0 0 0 0 0 0 0 0 0 0 0 0 0 0 0 0.29335619347187 0 0 0 0 0 0 0 0 0 0 -0.277173304779176 -0.802011350170173 0 0 0 0 0 0 0 0 0 -1.37778885812377 0 -1.96080213876465 0 0 0 0
0 0 0 0 0 0 0 0 0 0 0 0 0 0 0 0 0 0 0 0 0 0 0 0.626928201237658 0.331790922039041 0.248500517067458 0.117129068140662 0.0263396741803842 0.149501617327486 0.758271267140957 0.178868741689624 0.333267230970961 0.171261094290493 -0.277173304779176 0.644127109094334 0 0 0 0 0 0 0 0 -1.86659072536869 0 -1.39742108321992 0 0 0 0
0 0 0 0 0 0 0 0 0 0 0 0 0 0 0 0 0 0 0 0 0.214592376415941 0 0 0 0 0 0 0 0 0 0 0 0 -3.37783969936349 -0.277173304779176 0 0 0 0 0 0 0 0 -0.830776652549259 0 -1.62495291267375 0 0 0 0
0 0 0 0 0 0 0 0 0 0 0 0 0 0 0 0 0 0 0 0 0 0 0 0 0 0 0 0 0 0 0 0 0 0 0 -0.277173304779176 0 0 0 0 0 0 0 0 0 -1.92491645367435 0 0 0 0
0 0 0 0.471853385434795 0.380112397948959 0.868866849491908 0.440284166600097 0.665534367104032 0.127306773977694 0.030392696212962 0.352120981344009 0.133587391765422 0.220448368599323 0 0 0 0 0 0 0 0 0 0 0 0 0 0 0 0 0 0 0 0 0 0 0 -0.277173304779176 0 0 0 0 0 0 0 0 -0.96456184805709 0 0 0 0
0 0 0 0 0 0 0 0 0 0 0 0 0 0 0 0 0 0 0 0 0 0 0 0 0 0 0 0 0 0 0 0 0 0 0 0 0 -0.277173304779176 0 0 0 0 0 0 0 -2.10521090545673 0 0 0 0
0 0 0 0 0 0 0 0 0 0 0 0 0 0 0 0 0 0 0 0 0 0 0 0 0 0 0 0 0 0 0 0 0 0 0 0 0 0 -0.277173304779176 0 0 0 0 0 0 -0.962878087262168 0 0 0 -0.722547499314343
0 0 0 0 0 0 0 0 0 0 0 0 0 0 0.0179625624033891 0.184549570917641 0.330500681181386 0.774030625764047 0.30659413467109 1.00350427080221 0.101324429677327 0 0 0 0 0 0 0 0 0 0 0 0 0 0 0 0 0 0 -0.277173304779176 0 0 0 0 0 -1.41488144910202 0 0 0 -1.13244106050719
0 0 0 0 0 0 0 0 0 0 0 0 0 0 0 0 0 0 0 0 0 0 0.0534870512163967 0.177018820031305 0.1900307821011 0.173678522630737 0 0 0 0 0 0 0 0 0 0 0 0 0 0 -0.277173304779176 0 0 0 0 -0.820204048733984 0 0 0 -11.0418188170842
0.21339092700347 0.118564438888226 0 0 0 0 0 0 0 0 0 0 0 0 0 0 0 0 0 0 0 0 0 0 0 0 0 0 0 0 0 0 0 0 0 0 0 0 0 0 0 -0.277173304779176 0 0 0 0 0 0 0 -0.452916166989374
0 0 0 0 0.854601160434763 0.366773780334214 0.0313184819950074 0 0 0 0 0 0 0 0 0 0 0 0 0 0 0 0 0 0 0 0 0 0 0 0 0 0 0 0 0 0 0 0 0 0 0 -0.277173304779176 0 0 0 0 0 0 -2.45502571982235
0 0 0 0 0 0 0 0 0 0 0 0 0 0 0 0 0 0 0 0 0 0 0 0 0 0 0 0 0.169917769878822 0.328940827311186 0.0780413766194157 0.0394291673871762 0.26815555376096 0.380973926200918 0.155416719891109 0 0 0 0 0 0 0 0 -0.277173304779176 0 0 -5.21326935099536 0 0 -2.03913867663134
0 0 0 0 0 0 0 0 0 0 0 0 0 0 0 0 0 0 0 0 0.176921187729886 0.76504199547356 0.0501092067050447 0.238797271141062 0.432402027731564 0.128708410135323 0.304727590998204 0.162703595653821 0 0 0 0 0 0 0 0 0 0 0 0 0 0 0 0 -0.277173304779176 0 -1.58420514863505 0 0 -0.602562715931903
0 0 0 0 0 0 0 0 0 0 0 0 0 0 0 0 0 0 0 0 0 0 0.0786585754440071 0.73612117878023 0.108917620007889 0.108910289856638 0.702963163401881 0.438271438482103 0.0653064670428413 0.398681188346981 0.0401089168965527 0.537280643236764 0.393834377606859 0.279165180835203 0.327610397955174 0.400590061951277 0.195814617833928 0.423184447916038 0.185425435588698 0.28288974387438 0.166307005950071 0 0 0 0 -0.277173304779176 -0.274181323970157 0 0 0
0 0 0 0 0 0 0 0 0 0 0 0 0 0 0 0 0 0 0 0 0 0 0 0 0 0 0 0 0 0 0 0 0 0 0 0 0 0 0 0 0 0 0 1.01090966446746 0.313451010566767 0.0563929300948251 -0.277173304779176 0 0 0
0 0 0 0 0 0 0 0 0 0 0 0 0 0 0 0 0 0 0 0 0 0 0 0 0 0.181894593993178 0.0464481103028626 0.103973670785589 0 0 0 0 0 0 0 0 0 0 0 0 0 0 0 0 0 0 0 -0.277173304779176 0 0
0 0 0 0 0 0 0 0 0 0 0 0 0 0 0 0 0 0 0 0 0 0.0498120038094481 0 0 0 0 0 0 0 0 0 0 0 0 0 0 0 0 0 0 0 0 0 0 0 0 0 0 -0.277173304779176 0
0 0 0 0 0 0 0 0 0 0 0 0 0 0 0 0 0 0 0 0 0 0 0 0 0 0 0 0 0 0 0 0 0 0 0 0 0 0 0.139552345148764 0.209119215445731 2.31655870250347 0.0858688630340674 0.510786832924679 0.371324199821589 0.112729847934074 0 0 0 0 -0.277173304779176
