0.122512876748473
0.933442656206247
8.24362159380877
0.629833991876041
0.474028758674288
1.01113501222203
0.174403541083054
0.932736805563497
0.890788319954792
1.77927562208076
1.77023094928165
1.24855460774171
4.32168110779173
0.221864981476564
4.3659534099259
1.4128221975428
0.628358636244004
1.83072111613624
0.798665830181597
0.152508443990334
0.252885279350668
1.86506186116202
1.25896071745305
1.20700358909916
1.67478525267395
0.953133935446215
3.6587304300829
1.07665262485006
0.610339070525023
1.46060326411737
1.39433423915892
0.418983440695302
0.315934140913604
1.11910347389604
0.288737193450655
0.722154846765908
3.03797192530231
1.1697673972384
4.04898827110635
1.94082854970948
0.115027224906485
0.504602146425059
2.46761927796966
1.87819488312217
0.354593145559178
3.30464722589624
0.198836829830785
0.818123696950385
1.68176093760238
0.343221396876301
