1.03117929380925
4.07095974323239
0.965420286508611
3.2689601210767
0.221195468084564
0.835179052319882
0.625286211969273
0.420028225536443
2.41286693835912
0.31845979324617
0.159550223993259
2.47249065930366
1.30978322024661
5.01115171833023
6.72156771737416
0.929696819747098
3.62238211630673
0.117688811295966
0.837971905591573
1.40805242582933
0.800941103290142
1.53687938607912
0.468535452561507
1.02129144747099
1.5000587733305
9.5935226981495
1.50291097404516
0.968328399001353
1.40245541276473
0.60738824531839
3.54728191125872
1.48646663201988
5.91744924988214
2.35152456630501
0.224375486075525
1.24432676951998
0.800813187024685
0.488921701911619
0.524912824953693
0.321953824226635
0.733456410259088
0.970521929825807
4.79293865929766
1.67404038793347
0.642248681539664
0.156685725786273
0.443520779999278
4.02964434999653
1.68680898079831
0.122894554171359
