-0.143341555949687 0 0 0 0 0 0 0 -2.12156662658817 0 0 0 0 0 0 0 0 0 0 0 -2.72634853059008 0 0 0 0 0 0 0 0 0 0 0 0 0 0 0 0 0 0 -1.3391620200381 0 0 0 0 0 0 0 0 0 0
0 -0.143341555949687 0 0 0 0 0 0 0 0 0 0 0 0 0 0 0 0 0 0 0 0 0 0 -0.455876294109758 0 0 0 0 0 0 0 0 0 0 0 0 0 0 -0.224293900983403 0 0 0 -1.70003458839466 0 0 0 0 0 0
0 0 -0.143341555949687 0 0 0 0 -1.01242633357518 0 0 0 0 0 0 0 0 0 0 0 0 0 0 0 0 -0.90085660290987 0 0 0 0 0 0 0 0 0 0 0 0 0 0 -0.421824849527933 0 0 0 -0.364691530305165 0 0 0 0 0 0
0 0 0 -0.143341555949687 0 0 0 0 0 0 0 0 0 0 0 0 0 0 0 0 0 -0.515557770468109 0 0 0 0 0 0 0 0 0 0 0 0 0 0 0 0 0 -2.18765975688108 0 0 0 -0.524785344858699 0 0 0 0 0 0
0 0 0 0 -0.143341555949687 0 0 0 0 0 0 0 0 0 0 0 0 -6.10701151591919 0 0 0 0 0 0 0 0 0 0 0 0 0 0 0 0 0 0 0 0 0 -0.304435797169349 0 0 0 0 0 0 0 -0.462150901052013 0 0
0 0 0 0 0 -0.143341555949687 0 0 0 0 0 0 0 0 0 0 0 -0.787989903923507 0 0 0 0 0 0 0 0 0 0 0 0 0 0 0 0 0 0 0 0 0 -0.717434603708144 0 0 0 0 0 0 0 -0.410983231010152 0 0
0 0 0 0 0 0 -0.143341555949687 0 0 0 0 0 0 0 -4.2972273153579 0 0 0 0 0 0 0 -2.16008842650556 0 0 0 0 0 0 0 0 0 0 0 0 0 0 0 0 0 0 0 0 0 0 0 0 0 0 0
0 0 0.200080421566414 0 0 0 0 -0.143341555949687 0 0 0 0 0 0 -2.58376955469228 0 0 0 -0.262704547000684 0 0 0 -1.56342316490233 0 0 0 0 0 0 0 0 0 0 0 0 0 0 0 0 0 0 0 0 0 0 0 0 0 0 0
0.371628535908072 0 0 0 0 0 0 0 -0.143341555949687 0 0 0 0 0 -0.673201688208911 0 0 0 -0.783913689450772 0 0 0 -1.05228653532028 0 0 0 0 0 0 0 0 0 0 0 0 0 0 0 0 0 0 0 0 0 0 0 0 0 0 0
0 0 0 0 0 0 0 0 0 -0.143341555949687 0 0 0 -1.05305091006802 0 0 0 0 -1.98549038417715 0 0 0 -0.308715567164701 0 0 -1.29147790114819 0 0 0 0 0 0 0 0 0 0 0 0 0 0 0 0 -0.553741843138145 0 0 0 0 0 0 0
0 0 0 0 0 0 0 0 0 0 -0.143341555949687 -0.205578498960418 0 0 0 0 0 0 -1.26453823631945 0 0 0 0 0 0 -3.46432335891864 0 0 0 0 0 0 0 0 0 0 0 0 0 0 0 0 -1.07474163437859 0 0 0 0 0 0 0
0 0 0 0 0 0 0 0 0 0 0.0419223335546186 -0.143341555949687 0 0 0 0 0 0 -0.31247516836796 0 0 0 0 0 0 -0.512487696099804 0 0 0 0 0 0 0 0 0 0 0 0 0 0 0 0 -0.732331432465357 0 0 0 0 0 0 0
0 0 0 0 0 0 0 0 0 0 0 0 -0.143341555949687 0 0 0 0 0 -0.871028243230484 0 0 0 0 0 0 -0.72970398484202 0 0 0 0 0 0 0 0 0 0 0 0 0 0 0 0 -0.184019854223992 0 0 0 0 0 0 0
0 0 0 0 0 0 0 0 0 0.211469771053758 0 0 0 -0.143341555949687 0 0 0 0 -0.864409257255577 0 0 0 0 0 0 -0.384019871693347 0 0 0 0 0 0 0 0 0 0 0 0 0 0 0 0 -1.90986375306898 0 0 0 0 0 0 0
0 0 0 0 0 0 0.908479591497365 0.542023128842503 0.142343746504379 0 0 0 0 0 -0.143341555949687 0 0 0 -1.33544420872587 0 0 0 0 0 0 -0.647475958073283 0 0 0 0 0 0 0 0 0 0 0 0 0 0 0 0 -0.820787268870613 0 0 0 0 0 0 0
0 0 0 0 0 0 0 0 0 0 0 0 0 0 0 -0.143341555949687 0 0 0 0 0 0 0 0 0 0 0 0 -0.870639977194869 -0.741935284887434 -0.0866869377545216 0 0 0 0 0 0 0 0 0 0 0 0 0 0 0 0 0 0 0
0 0 0 0 0 0 0 0 0 0 0 0 0 0 0 0 -0.143341555949687 0.409763266761286 0 0 0 0 0 0 0 0 0 0 0 -2.49446145267504 0 0 0 0 0 0 0 0 0 0 0 0 0 0 0 0 0 0 0 0
0 0 0 0 1.22991730518044 0.16263351234308 0 0 0 0 0 0 0 0 0 0 -2.16076420903531 -0.143341555949687 0 0 0 0 0 0 0 0 0 0 0 -3.13203773172327 0 0 0 0 0 0 0 0 0 0 0 0 0 0 0 0 0 0 0 0
0 0 0 0 0 0 0 0.0508410669386088 0.152054186605716 0.404643992854025 0.245799963776358 0.0579033938136519 0.175663321898155 0.166203120397874 0.263431818465932 0 0 0 -0.143341555949687 0 0 0 0 0 0 0 0 0 0 -0.431540365156434 0 -1.85224774643646 0 0 0 0 0 0 0 0 0 0 0 0 0 0 0 0 0 0
0 0 0 0 0 0 0 0 0 0 0 0 0 0 0 0 0 0 0 -0.143341555949687 0 0 0 0 0 0 0 0 0 -10.8496135465593 0 -0.829355502177434 0 -1.1499408716771 0 0 0 0 0 0 0 0 0 0 0 0 0 0 0 0
0.55587962900352 0 0 0 0 0 0 0 0 0 0 0 0 0 0 0 0 0 0 0 -0.143341555949687 0 0 0 0 0 0 0 0 -0.701983750978915 0 -1.07009829537035 0 -1.01319203237049 0 0 0 0 0 0 0 0 0 0 0 0 0 0 0 0
0 0 0 0.0999356030206173 0 0 0 0 0 0 0 0 0 0 0 0 0 0 0 0 0 -0.143341555949687 0 0 0 0 0 0 0 -0.810195360447008 0 -0.0734187474926066 0 -0.57457742101967 0 0 0 0 0 0 0 0 0 0 0 0 0 0 0 0
0 0 0 0 0 0 0.434881014007093 0.300854017056273 0.219626807650157 0.0595535800087999 0 0 0 0 0 0 0 0 0 0 0 0 -0.143341555949687 0 0 0 0 0 0 -1.20499111287643 0 -0.233233768465782 0 -0.177394077051385 0 0 0 0 0 0 0 0 0 0 0 0 0 0 0 0
0 0 0 0 0 0 0 0 0 0 0 0 0 0 0 0 0 0 0 0 0 0 0 -0.143341555949687 0 0 -1.09400813087507 0 0 0 0 -1.27356135466344 0 0 0 0 0 0 0 0 0 0 0 0 0 0 0 0 0 0
0 0.0894929020980018 0.17633341041662 0 0 0 0 0 0 0 0 0 0 0 0 0 0 0 0 0 0 0 0 0 -0.143341555949687 0 -2.66929773263274 0 0 0 0 0 0 0 0 0 0 0 0 0 0 0 0 0 0 0 0 0 0 0
0 0 0 0 0 0 0 0 0 0.236452354164569 0.71930313853339 0.0960907415152239 0.140155713079021 0.0810208872721712 0.127867833725243 0 0 0 0 0 0 0 0 0 0 -0.143341555949687 0 0 0 0 0 0 0 0 -7.80453911518516 0 0 0 0 0 0 0 0 0 0 0 0 0 0 0
0 0 0 0 0 0 0 0 0 0 0 0 0 0 0 0 0 0 0 0 0 0 0 0.239955317666057 0.528731337291895 0 -0.143341555949687 0 0 0 0 0 0 0 0 0 0 0 0 0 0 0 0 0 0 0 0 0 0 0
0 0 0 0 0 0 0 0 0 0 0 0 0 0 0 0 0 0 0 0 0 0 0 0 0 0 0 -0.143341555949687 0 0 0 0 -0.14229117683132 0 0 -0.878404150083775 0 0 0 0 0 0 0 0 0 0 0 0 0 0
0 0 0 0 0 0 0 0 0 0 0 0 0 0 0 0.180185457946548 0 0 0 0 0 0 0 0 0 0 0 0 -0.143341555949687 0 0 0 -0.142752693121437 0 0 -0.652307345201732 0 0 0 0 0 0 0 0 0 0 0 0 0 0
0 0 0 0 0 0 0 0 0 0 0 0 0 0 0 0.143971077787675 0.469861073201548 0.594135539583147 0.0779507480555992 2.13542195053474 0.138699566341134 0.163105600971413 0.223862007561307 0 0 0 0 0 0 -0.143341555949687 0 0 0 0 0 -1.02893256067956 0 0 0 0 -2.71139025528672 0 0 0 0 0 0 0 0 0
0 0 0 0 0 0 0 0 0 0 0 0 0 0 0 0.0192086698040781 0 0 0 0 0 0 0 0 0 0 0 0 0 0 -0.143341555949687 0 0 0 0 -1.3133568708691 0 0 0 0 -0.93127314715923 0 0 0 0 0 0 0 0 0
0 0 0 0 0 0 0 0 0 0 0 0 0 0 0 0 0 0 0.36008428770049 0.163353576206438 0.216332853834654 0.0135566811889023 0.0460513089537749 0.245943957777204 0 0 0 0 0 0 0 -0.143341555949687 0 0 0 -1.00377719826247 0 0 -0.823416532014085 0 -0.248039830833776 0 0 0 0 -0.286832614361901 0 0 0 0
0 0 0 0 0 0 0 0 0 0 0 0 0 0 0 0 0 0 0 0 0 0 0 0 0 0 0 0.0253648376655763 0.0281308159118927 0 0 0 -0.143341555949687 0 0 -2.92551427334348 0 0 -0.475387581374216 0 -1.29219615216755 0 0 0 0 -0.713078662870158 0 0 0 0
0 0 0 0 0 0 0 0 0 0 0 0 0 0 0 0 0 0 0 0.229578909082014 0.200896797963658 0.118879965602432 0.0345216122310235 0 0 0 0 0 0 0 0 0 0 -0.143341555949687 0 0 0 0 -0.289623377577428 0 0 0 0 0 0 0 0 0 0 0
0 0 0 0 0 0 0 0 0 0 0 0 0 0 0 0 0 0 0 0 0 0 0 0 0 1.59585540869464 0 0 0 0 0 0 0 0 -0.143341555949687 0 0 0 -1.11253549313001 0 0 -0.960739418329602 0 0 0 0 0 0 0 0
0 0 0 0 0 0 0 0 0 0 0 0 0 0 0 0 0 0 0 0 0 0 0 0 0 0 0 0.17456677542596 0.131577333879103 0.197526278557393 0.276135482183114 0.197528025490783 0.523460420799696 0 0 -0.143341555949687 0 -1.85420862635571 -1.621310059901 0 0 0 0 0 -0.272366083077401 0 0 0 0 0
0 0 0 0 0 0 0 0 0 0 0 0 0 0 0 0 0 0 0 0 0 0 0 0 0 0 0 0 0 0 0 0 0 0 0 0 -0.143341555949687 -0.174410434334135 -0.313379683785107 0 0 0 0 0 -0.347644241673879 0 0 0 -3.33596251210086 0
0 0 0 0 0 0 0 0 0 0 0 0 0 0 0 0 0 0 0 0 0 0 0 0 0 0 0 0 0 0 0 0 0 0 0 0.354527316004228 0.0381115966839476 -0.143341555949687 0.0526175492108804 0.0842322559390306 0 0 0 0 0 0 0 0 -2.46469056856019 0
0 0 0 0 0 0 0 0 0 0 0 0 0 0 0 0 0 0 0 0 0 0 0 0 0 0 0 0 0 0 0 0.174158175098812 0.095336020898974 0.055227730007971 0.225056959093779 0.315895444431282 0.0616225473187406 -0.277597126086981 -0.143341555949687 0 0 0 0 0 0 0 0 0 -0.183350070087568 0
0.282876654747959 0.0444954882043849 0.0854463074327222 0.446508760490347 0.062734031482887 0.14709116151281 0 0 0 0 0 0 0 0 0 0 0 0 0 0 0 0 0 0 0 0 0 0 0 0 0 0 0 0 0 0 0 -0.477713827497658 0 -0.143341555949687 0 0 0 0 0 0 -0.547234366213376 0 -5.89850419044066 0
0 0 0 0 0 0 0 0 0 0 0 0 0 0 0 0 0 0 0 0 0 0 0 0 0 0 0 0 0 0.505879225216405 0.198934518644602 0.0516220426565946 0.235958715119029 0 0 0 0 0 0 0 -0.143341555949687 0 0 0 0 0 0 0 0 -0.257818072386405
0 0 0 0 0 0 0 0 0 0 0 0 0 0 0 0 0 0 0 0 0 0 0 0 0 0 0 0 0 0 0 0 0 0 0.1928110998112 0 0 0 0 0 0 -0.143341555949687 0 0 0 0 0 0 0 0
0 0 0 0 0 0 0 0 0 0.1089384513176 0.209192777197194 0.155139922064751 0.0364354287647386 0.412735496773404 0.181484472436072 0 0 0 0 0 0 0 0 0 0 0 0 0 0 0 0 0 0 0 0 0 0 0 0 0 0 0 -0.143341555949687 0 0 0 0 0 0 0
0 0.349865310225264 0.0762843810523177 0.106416991355544 0 0 0 0 0 0 0 0 0 0 0 0 0 0 0 0 0 0 0 0 0 0 0 0 0 0 0 0 0 0 0 0 0 0 0 0 0 0 0 -0.143341555949687 0 0 0 0 0 0
0 0 0 0 0 0 0 0 0 0 0 0 0 0 0 0 0 0 0 0 0 0 0 0 0 0 0 0 0 0 0 0 0 0 0 0.0534594706455074 0.0720669318491007 0 0 0 0 0 0 0 -0.143341555949687 0 0 0 0 0
0 0 0 0 0 0 0 0 0 0 0 0 0 0 0 0 0 0 0 0 0 0 0 0 0 0 0 0 0 0 0 0.0608043382148954 0.139261486752186 0 0 0 0 0 0 0 0 0 0 0 0 -0.143341555949687 0 0 0 0
0 0 0 0 0 0 0 0 0 0 0 0 0 0 0 0 0 0 0 0 0 0 0 0 0 0 0 0 0 0 0 0 0 0 0 0 0 0 0 0.102728922083262 0 0 0 0 0 0 -0.143341555949687 0 0 0
0 0 0 0 0.0821068705839457 0.089581110851958 0 0 0 0 0 0 0 0 0 0 0 0 0 0 0 0 0 0 0 0 0 0 0 0 0 0 0 0 0 0 0 0 0 0 0 0 0 0 0 0 0 -0.143341555949687 0 0
0 0 0 0 0 0 0 0 0 0 0 0 0 0 0 0 0 0 0 0 0 0 0 0 0 0 0 0 0 0 0 0 0 0 0 0 0.638009707572168 0.475927004372416 0.0357587935842088 1.25321682626632 0 0 0 0 0 0 0 0 -0.143341555949687 0
0 0 0 0 0 0 0 0 0 0 0 0 0 0 0 0 0 0 0 0 0 0 0 0 0 0 0 0 0 0 0 0 0 0 0 0 0 0 0 0 0.0528430783112608 0 0 0 0 0 0 0 0 -0.143341555949687
