0.189175373135323
0.310027129792758
0.585439240113901
0.423402136369098
3.00035393984911
0.772615806653338
0.556148117579602
0.389718539334146
0.603825081877111
1.08241846269752
0.138580180790054
0.392113773124892
0.51257168032183
0.339734611145211
0.699036382568205
0.541935909444116
0.616116844291871
1.18317873124493
0.733110538336804
0.673059840386466
4.7756190818656
2.51425210053355
0.940669124967405
1.37058069392117
2.01247128874994
0.845917774149079
0.395674773809886
1.51394282462737
3.12588185911506
1.06640833109948
3.98871295428419
0.256877890027997
11.7392201886347
0.619070975161073
0.629891843042444
0.687200423795496
0.686407505554924
3.71786288525637
0.518337099038277
0.485518862177217
0.410639949003816
1.09641014349048
1.24217577199468
3.38130826016573
2.24746499383852
0.244122326216683
0.144412604924182
1.1401785374786
1.19517570116667
0.45207595015569
