-0.175451722057775 0 0 0 0 0 0 0 0 0 0 0 0 0 0 0 0 0 0 0 0 -0.221542525115128 0 0 0 0 0 0 0 0 0 0 0 0 0 0 0 0 0 -0.364590740521175 0 0 0 0 0 0 0 0 0 0
0 -0.175451722057775 0 0 0 0 0 0 0 0 0 0 0 0 0 -0.751663521386742 0 0 0 0 0 0 0 0 0 0 0 0 0 0 0 0 0 0 0 0 0 0 0 -2.76946346523505 0 0 0 0 0 0 0 0 0 0
0 0 -0.175451722057775 0 0 0 0 0 0 0 0 0 -1.71267668643454 -0.885276486772877 -0.151868116222257 0 0 0 0 0 0 0 0 -0.393936928908534 -1.11637502855783 0 0 0 -2.18240989946979 0 0 -0.886625950436889 0 0 0 0 0 0 0 0 0 0 0 0 0 0 0 0 0 0
0 0 0 -0.175451722057775 0 0 0 0 0 0 0 -0.42710589096072 -0.894741169275886 0 -0.265360327029582 0 0 0 0 0 0 0 -0.978552857296804 0 -4.77420147680421 0 0 0 -0.503500722603902 0 0 -0.480288585612405 0 0 0 0 0 0 0 0 0 0 0 0 0 0 0 0 0 0
0 0 0 0 -0.175451722057775 0 -0.935740389947563 0 0 0 0 -5.06653663896521 0 0 0 0 0 0 0 0 0 0 -0.272963009621417 0 -0.519513138287032 0 0 0 0 0 0 -1.17528956176725 0 0 0 0 0 0 0 0 0 0 0 0 0 0 0 0 0 0
0 0 0 0 0 -0.175451722057775 -3.58420447339868 0 0 0 0 -0.963684910091634 0 0 0 0 0 0 0 0 0 0 -1.45226142927845 0 -2.66064506168628 0 0 0 0 0 0 -1.06434561866472 0 0 0 0 0 0 0 0 0 0 -0.890624182225024 0 0 0 0 0 0 0
0 0 0 0 0.195332481736015 0.747826916586597 -0.175451722057775 0 0 0 0 -0.45105889334619 0 0 0 0 -2.46839447179948 0 0 0 0 0 -2.52622423140421 0 -0.537694615586479 0 0 0 0 0 0 -2.58690980792341 -1.1097111812552 0 0 0 0 0 0 0 0 0 -0.46877947360288 0 0 0 0 0 0 0
0 0 0 0 0 0 0 -0.175451722057775 0 0 0 0 0 0 0 0 0 0 0 0 0 0 0 0 0 0 0 0 0 0 0 -0.294362824081875 -2.04745846890098 0 0 0 0 0 0 0 0 0 0 0 0 0 0 0 0 0
0 0 0 0 0 0 0 0 -0.175451722057775 0 0 0 0 0 0 0 0 0 0 0 0 0 0 0 0 0 0 0 0 0 0 -0.244292057816122 -1.28737194348163 0 0 0 0 0 0 0 0 0 0 0 0 0 0 0 0 0
0 0 0 0 0 0 0 0 0 -0.175451722057775 0 0 0 0 0 0 0 0 0 0 0 0 0 0 0 0 -1.15062826329636 0 0 0 0 -1.04348843546139 -1.69879979864894 0 0 0 0 0 0 0 0 0 0 0 0 0 0 0 0 0
0 0 0 0 0 0 0 0 0 0 -0.175451722057775 0 0 0 0 0 0 -0.642840541036337 0 0 0 0 0 0 0 0 -6.78235544897208 0 0 0 0 0 -2.3896381845698 0 0 0 0 0 0 0 0 0 0 0 0 0 0 0 0 0
0 0 0 0.0831622858633228 0.942703814056234 0.211765141908831 0.104977429204606 0 0 0 0 -0.175451722057775 0 0 0 0 0 0 0 0 0 0 0 0 0 0 -0.443355135083885 0 0 -0.464855103266175 0 0 -0.349220594440215 0 0 0 0 0 0 0 0 0 0 0 0 0 0 0 0 0
0 0 0.320619873918123 0.165812101840473 0 0 0 0 0 0 0 0 -0.175451722057775 0 0 0 0 0 0 0 0 0 0 0 0 0 -0.722439810255149 0 0 -3.95294689351914 -0.936751809846152 0 0 0 0 0 0 0 0 0 0 0 0 0 0 0 0 0 0 0
0 0 0.179591063985894 0 0 0 0 0 0 0 0 0 0 -0.175451722057775 0 0 0 0 0 0 0 0 0 0 0 0 0 0 0 -2.73995420085159 -3.3044422392511 0 0 0 0 0 0 0 0 0 0 0 0 0 0 0 0 0 0 0
0 0 0.0277714890724414 0.0530473379201212 0 0 0 0 0 0 0 0 0 0 -0.175451722057775 0 0 0 0 0 0 0 0 0 0 0 0 0 0 -1.45997205992752 -0.343503848559856 0 0 0 0 0 -10.9657744280338 0 0 0 0 0 0 0 0 0 0 0 0 0
0 0.150780470681968 0 0 0 0 0 0 0 0 0 0 0 0 0 -0.175451722057775 0 0 0 0 0 0 0 0 0 -0.343942621033887 0 0 0 -2.42933286878859 -3.20161935848092 0 0 0 0 0 -0.902119818979119 0 0 0 0 0 0 0 0 0 0 0 0 0
0 0 0 0 0 0 0.525879242634402 0 0 0 0 0 0 0 0 0 -0.175451722057775 0 0 0 0 0 0 0 0 -1.34720705846936 0 0 0 -0.526616394019351 -4.48450474608953 0 0 0 0 -3.76707111101406 -1.51163022274871 0 0 0 0 0 0 0 0 0 0 0 0 0
0 0 0 0 0 0 0 0 0 0 0.118084712785303 0 0 0 0 0 0 -0.175451722057775 0 0 0 0 0 0 0 -0.444924454372138 0 -0.341784043128144 0 -0.562765026639402 -2.71211647878869 0 0 0 0 -1.11915456556427 -4.03548133740907 0 0 0 0 0 0 0 0 0 0 0 0 0
0 0 0 0 0 0 0 0 0 0 0 0 0 0 0 0 0 0 -0.175451722057775 0 0 0 0 0 0 -0.172281970760593 0 -0.212391162752679 0 0 0 0 0 0 0 -0.146686746651645 -1.12613110059734 0 0 0 0 0 0 0 0 0 0 0 0 0
0 0 0 0 0 0 0 0 0 0 0 0 0 0 0 0 0 0 0 -0.175451722057775 0 0 0 0 0 0 0 -2.33326483385219 0 0 0 0 0 0 0 -0.501456780593303 0 0 0 0 0 0 0 0 0 0 0 0 -0.572885400248938 0
0 0 0 0 0 0 0 0 0 0 0 0 0 0 0 0 0 0 0 0 -0.175451722057775 0 0 0 0 0 0 -1.93188825243745 0 0 0 0 0 0 0 0 0 0 0 0 0 0 0 0 0 0 0 0 0 0
0.0504776028044464 0 0 0 0 0 0 0 0 0 0 0 0 0 0 0 0 0 0 0 0 -0.175451722057775 0 0 0 0 0 -0.524967654884643 0 0 0 0 0 0 0 0 0 0 0 0 0 0 0 0 0 0 0 0 0 0
0 0 0 0.185785024654044 0.0526146022089825 0.316222020638232 0.502523976883471 0 0 0 0 0 0 0 0 0 0 0 0 0 0 0 -0.175451722057775 0 0 0 0 -0.948292794311164 0 0 0 0 0 0 0 0 0 0 0 0 0 0 0 0 0 0 0 -0.270403819091978 0 0
0 0 0.0885606057587715 0 0 0 0 0 0 0 0 0 0 0 0 0 0 0 0 0 0 0 0 -0.175451722057775 0 0 0 -1.13224403825546 0 0 0 0 0 0 0 0 0 0 0 0 0 0 0 0 0 0 0 -0.270574163613589 0 0
0 0 0.220599990825857 0.983926184730121 0.104551401560861 0.536820890525751 0.106757749385174 0 0 0 0 0 0 0 0 0 0 0 0 0 0 0 0 0 -0.175451722057775 0 0 -1.19944617370018 0 0 0 0 0 0 0 0 0 0 0 0 0 0 0 0 0 0 0 -2.2544398645151 0 0
0 0 0 0 0 0 0 0 0 0 0 0 0 0 0 0.0705752405879023 0.27770878847696 0.0886182718879916 0.0361033705420931 0 0 0 0 0 0 -0.175451722057775 0 -1.29836041355446 0 0 0 0 0 0 0 0 0 0 0 0 0 0 0 0 0 0 0 -0.421120254148722 0 0
0 0 0 0 0 0 0 0 0 0.215124481546849 1.42601519612437 0.0839314640131991 0.141866669215028 0 0 0 0 0 0 0 0 0 0 0 0 0 -0.175451722057775 0 0 0 0 0 0 0 0 0 0 0 0 0 0 0 0 0 0 0 0 -0.528006684593231 0 0
0 0 0 0 0 0 0 0 0 0 0 0 0 0 0 0 0 0.0685451725260922 0.0447168127547423 0.495171782316919 0.396785519259564 0.116795421049056 0.191795421781032 0.236830537404993 0.242242216959122 0.250799817508013 0 -0.175451722057775 0 0 0 0 0 0 0 0 0 0 0 0 0 -0.696444925330665 0 0 0 0 0 -0.810082001051207 0 0
0 0 0.437440550507311 0.102195304616118 0 0 0 0 0 0 0 0 0 0 0 0 0 0 0 0 0 0 0 0 0 0 0 0 -0.175451722057775 0 0 0 0 0 0 0 0 0 0 0 0 -2.50822916826807 0 0 0 -0.779357151975027 0 -0.464535541003509 0 0
0 0 0 0 0 0 0 0 0 0 0 0.0870207434521264 0.799517745125424 0.557955787017394 0.306658462286856 0.474758113294867 0.119709943719879 0.119213176824451 0 0 0 0 0 0 0 0 0 0 0 -0.175451722057775 0 0 0 0 0 0 0 0 0 0 0 -0.633459340765992 0 0 0 -0.182157674216984 0 0 0 0
0 0 0 0 0 0 0 0 0 0 0 0 0.178937783012138 0.674320981497683 0.0707468762610148 0.664581518986993 0.886749796422539 0.569680903826778 0 0 0 0 0 0 0 0 0 0 0 0 -0.175451722057775 0 0 0 0 0 0 0 0 0 0 -0.770728587769026 0 0 0 -2.7127770775889 0 0 0 0
0 0 0.164837823450833 0.0988227015567771 0.253114102189437 0.204032411744589 0.495794556165879 0.0548335018415574 0.0477678417475295 0.207684452397218 0 0 0 0 0 0 0 0 0 0 0 0 0 0 0 0 0 0 0 0 0 -0.175451722057775 0 0 0 0 0 0 0 0 0 -2.08798630481967 0 0 0 -2.34252230621014 0 0 0 0
0 0 0 0 0 0 0.210126075188889 0.442402602038175 0.274280816831866 0.36281030142207 0.498719194674058 0.0684132296605928 0 0 0 0 0 0 0 0 0 0 0 0 0 0 0 0 0 0 0 0 -0.175451722057775 0 0 0 0 0 0 0 0 -0.184385441469129 0 0 0 -1.75476467173248 -5.07060137694142 0 0 0
0 0 0 0 0 0 0 0 0 0 0 0 0 0 0 0 0 0 0 0 0 0 0 0 0 0 0 0 0 0 0 0 0 -0.175451722057775 0 0 0 0 0 0 0 -2.02265865924441 0 0 0 -0.763898825878238 -0.805730198438099 0 0 0
0 0 0 0 0 0 0 0 0 0 0 0 0 0 0 0 0 0 0 0 0 0 0 0 0 0 0 0 0 0 0 0 0 0 -0.175451722057775 0 0 0 0 0 0 -1.34326904135822 0 -0.500571073022789 0 -0.874113395150337 -1.42195176288359 0 0 0
0 0 0 0 0 0 0 0 0 0 0 0 0 0 0 0 0.730099050222761 0.231048455657169 0.0277095020857746 0.100058149645191 0 0 0 0 0 0 0 0 0 0 0 0 0 0 0 -0.175451722057775 0 0 0 0 -2.6423752345358 0 0 -0.648437661692676 0 0 -0.472343701543408 0 0 0
0 0 0 0 0 0 0 0 0 0 0 0 0 0 2.3158184333174 0.169392763230898 0.302487099547743 0.831681218227851 0.226318304969326 0 0 0 0 0 0 0 0 0 0 0 0 0 0 0 0 0 -0.175451722057775 0 0 0 -0.744080751627205 0 0 -0.536873915377526 0 0 -1.88808961277754 0 0 0
0 0 0 0 0 0 0 0 0 0 0 0 0 0 0 0 0 0 0 0 0 0 0 0 0 0 0 0 0 0 0 0 0 0 0 0 0 -0.175451722057775 0 0 -0.341495378405735 0 0 -0.172052368671064 0 0 -0.284242885910228 0 0 0
0 0 0 0 0 0 0 0 0 0 0 0 0 0 0 0 0 0 0 0 0 0 0 0 0 0 0 0 0 0 0 0 0 0 0 0 0 0 -0.175451722057775 0 0 0 0 0 0 0 -0.306422302478102 0 0 0
0.0770483675373936 0.540833384299772 0 0 0 0 0 0 0 0 0 0 0 0 0 0 0 0 0 0 0 0 0 0 0 0 0 0 0 0 0 0 0 0 0 0 0 0 0 -0.175451722057775 0 0 0 0 0 0 -0.34476939945255 0 0 0
0 0 0 0 0 0 0 0 0 0 0 0 0 0 0 0 0 0 0 0 0 0 0 0 0 0 0 0 0 0 0 0 0 0 0 0.524971787886951 0.163538937278441 0.0726980263459806 0 0 -0.175451722057775 0 0 0 0 0 -0.795172619317104 0 0 0
0 0 0 0 0 0 0 0 0 0 0 0 0 0 0 0 0 0 0 0 0 0 0 0 0 0 0 0.14031766307405 0.532139321393694 0.116025789236102 0.154204457627385 0.416238625150654 0.033336910317371 0.401663835018375 0.28277566663202 0 0 0 0 0 0 -0.175451722057775 0 0 0 0 -0.677450690525083 0 0 0
0 0 0 0 0 0.175196993607315 0.0898973097881984 0 0 0 0 0 0 0 0 0 0 0 0 0 0 0 0 0 0 0 0 0 0 0 0 0 0 0 0 0 0 0 0 0 0 0 -0.175451722057775 0 0 0 -0.330788585966909 0 0 0
0 0 0 0 0 0 0 0 0 0 0 0 0 0 0 0 0 0 0 0 0 0 0 0 0 0 0 0 0 0 0 0 0 0 0.0965301075708492 0.132338573781852 0.114408097292279 0.0349450480901 0 0 0 0 0 -0.175451722057775 0 0 -0.220967633316175 0 0 0
0 0 0 0 0 0 0 0 0 0 0 0 0 0 0 0 0 0 0 0 0 0 0 0 0 0 0 0 0 0 0 0 0 0 0 0 0 0 0 0 0 0 0 0 -0.175451722057775 0 -0.427162917238971 0 0 0
0 0 0 0 0 0 0 0 0 0 0 0 0 0 0 0 0 0 0 0 0 0 0 0 0 0 0 0 0.166565624674655 0.0372628553931082 0.520638347027955 0.407253813796761 0.345270585980266 0.161563948797429 0.179859258734979 0 0 0 0 0 0 0 0 0 0 -0.175451722057775 0 0 0 -0.330261850650488
0 0 0 0 0 0 0 0 0 0 0 0 0 0 0 0 0 0 0 0 0 0 0 0 0 0 0 0 0 0 0 0 0.977159477497064 0.164692438213154 0.275840808037245 0.0919560325973369 0.401961251940234 0.0514005684712235 0.0618512428332008 0.063681758271796 0.15928003441236 0.139382178705692 0.0709266555378755 0.0418513024372819 0.0885499959427464 0 -0.175451722057775 0 0 -5.89373734043739
0 0 0 0 0 0 0 0 0 0 0 0 0 0 0 0 0 0 0 0 0 0 0.0561864614615091 0.0558121770976176 0.458282027415131 0.0880299849022464 0.110122073907956 0.153247553303624 0.086497694767801 0 0 0 0 0 0 0 0 0 0 0 0 0 0 0 0 0 0 -0.175451722057775 0 -0.594559773105453
0 0 0 0 0 0 0 0 0 0 0 0 0 0 0 0 0 0 0 0.111566400191934 0 0 0 0 0 0 0 0 0 0 0 0 0 0 0 0 0 0 0 0 0 0 0 0 0 0 0 0 -0.175451722057775 0
0 0 0 0 0 0 0 0 0 0 0 0 0 0 0 0 0 0 0 0 0 0 0 0 0 0 0 0 0 0 0 0 0 0 0 0 0 0 0 0 0 0 0 0 0 0.0684283680728987 1.08206496854193 0.12958456026766 0 -0.175451722057775
