-0.104912298949731 0 0 0 0 0 0 0 0 0 0 0 0 0 0 0 0 0 0 0 0 0 -0.380047162267843 0 0 0 0 0 0 0 0 0 0 0 0 0 0 0 0 0 0 0 0 0 0 0 0 0 0 0
0 -0.104912298949731 0 0 0 0 0 0 0 0 0 0 0 0 0 0 0 0 0 0 0 0 -1.92740946227367 0 0 0 0 0 0 0 0 0 0 0 0 0 0 0 0 0 0 0 0 0 -3.54527014162224 0 0 0 0 0
0 0 -0.104912298949731 0 0 0 0 0 0 -1.31329460586137 -9.08839597316276 0 0 -0.216643727318822 0 0 -0.546427925316419 0 0 0 0 0 -0.53895464847809 0 0 0 0 0 0 0 0 0 0 0 0 0 0 0 0 0 0 0 0 0 -1.40055877382503 0 0 0 0 0
0 0 0 -0.104912298949731 0 0 0 0 0 0 0 0 0 0 0 0 0 0 0 0 0 0 0 0 0 0 -0.139310904525605 -3.67327230377158 0 0 0 0 0 0 0 0 0 0 0 0 0 0 0 0 0 0 0 0 0 0
0 0 0 0 -0.104912298949731 0 0 0 0 0 0 0 0 0 0 0 0 0 0 0 0 0 0 0 0 0 -0.382515031440729 -0.517027411089233 0 0 0 0 0 0 0 0 0 0 0 0 0 0 0 0 0 0 0 0 0 0
0 0 0 0 0 -0.104912298949731 0 0 0 0 0 0 0 0 0 0 0 0 0 0 0 0 0 0 0 0 -1.78916153137688 -0.0830604893326365 0 0 0 0 0 0 0 0 0 0 0 0 0 0 0 -1.06408290787149 0 0 0 0 0 0
0 0 0 0 0 0 -0.104912298949731 0 0 0 0 0 0 0 0 0 0 0 0 0 0 0 0 -3.49484362053981 0 0 0 0 0 0 0 0 0 0 0 0 0 0 0 0 0 0 0 -1.81231776696645 0 0 0 -1.90855314872475 0 0
0 0 0 0 0 0 0 -0.104912298949731 0 0 0 0 0 0 -0.650913948420111 0 0 0 0 0 0 0 0 -0.553516350399057 0 0 0 0 0 0 0 0 0 0 0 0 0 0 0 0 0 0 0 -0.335255822088907 0 0 0 -1.22280913410898 0 0
0 0 0 0 0 0 0 0 -0.104912298949731 0 0 0 0 0 0 0 0 -3.56802142464059 -2.76485604211192 0 0 0 0 -0.724782925096625 0 0 0 0 0 0 0 0 0 0 0 -1.11737595091036 0 0 0 0 0 0 0 0 0 0 0 -5.22201801498154 0 0
0 0 0.262767465419995 0 0 0 0 0 0 -0.104912298949731 0 0 0 0 0 0 0 0 0 0 0 0 0 -0.592719467350251 0 -0.253828855867633 0 0 0 0 0 0 0 0 0 -0.336838563684405 0 0 0 0 0 0 0 0 0 0 0 -2.92396317256233 -1.78021918065056 0
0 0 1.75686241132387 0 0 0 0 0 0 0 -0.104912298949731 0 0 0 0 0 0 0 0 0 0 0 0 -1.07472787485895 0 -1.42305335479702 0 0 0 0 -0.411373166585472 0 0 0 0 -0.10673250216489 0 0 0 0 0 0 0 0 0 0 0 -1.29858918157303 -1.16708242653593 0
0 0 0 0 0 0 0 0 0 0 0 -0.104912298949731 -3.96240922063684 0 0 0 0 0 0 0 0 0 0 -0.820138766322372 0 -1.21206168589925 0 0 0 0 0 0 0 0 0 -0.158342890727254 0 0 0 0 0 0 0 0 0 0 0 -1.88976288023538 0 0
0 0 0 0 0 0 0 0 0 0 0 0.814688829934358 -0.104912298949731 0 0 0 0 0 0 0 0 0 0 0 0 -0.632483458504395 0 0 0 0 0 0 0 0 0 -2.79275893749569 0 0 0 0 0 0 0 0 0 0 0 -1.51338443804719 0 -1.44466767756941
0 0 0.0423055089670501 0 0 0 0 0 0 0 0 0 0 -0.104912298949731 0 0 0 0 0 0 0 0 0 0 0 -0.208614889226162 0 0 0 0 0 0 0 0 0 -10.0820226059267 0 0 0 0 0 0 0 0 0 0 0 -0.759401317329271 0 -6.01977071975848
0 0 0 0 0 0 0 0.124590485815523 0 0 0 0 0 0 -0.104912298949731 0 0 0 0 0 0 0 0 0 0 -1.33936014178978 0 0 0 0 0 0 0 0 0 -1.56468886867376 0 0 0 0 0 0 0 0 0 0 0 -3.55009139057321 0 -1.70673370768222
0 0 0 0 0 0 0 0 0 0 0 0 0 0 0 -0.104912298949731 0 0 0 0 0 0 0 0 0 -0.748045161013132 0 0 0 0 0 0 0 0 0 -0.0364071587761334 0 0 0 0 0 0 0 0 0 0 0 0 0 -0.76195602921979
0 0 0.108978585568792 0 0 0 0 0 0 0 0 0 0 0 0 0 -0.104912298949731 0 0 0 0 0 0 0 0 0 0 0 0 0 0 0 0 -0.626710551869476 0 -0.449054881732832 0 0 0 0 0 0 0 0 0 0 0 0 0 0
0 0 0 0 0 0 0 0 0.728275150470317 0 0 0 0 0 0 0 0 -0.104912298949731 0 0 0 0 0 0 -1.69551497602841 0 0 0 0 0 0 0 0 -3.33134292770473 0 -0.415981702278294 0 0 0 0 0 0 0 0 0 0 0 0 0 0
0 0 0 0 0 0 0 0 0.544026936387646 0 0 0 0 0 0 0 0 0 -0.104912298949731 0 0 0 0 0 0 0 0 0 0 -2.13465175666149 0 -2.71925725886834 0 0 0 0 0 0 0 -0.456834983077066 -2.01814221454582 0 0 0 0 0 0 0 0 0
0 0 0 0 0 0 0 0 0 0 0 0 0 0 0 0 0 0 0 -0.104912298949731 0 0 0 0 0 0 0 0 0 -0.651166403398733 0 -1.51854140633076 0 0 0 0 0 0 0 -0.27329148892554 -0.428229578859171 0 0 0 0 0 0 0 0 0
0 0 0 0 0 0 0 0 0 0 0 0 0 0 0 0 0 0 0 0 -0.104912298949731 0 0 0 0 0 0 0 0 -3.92939375103896 0 -0.481772682539605 0 0 0 0 0 0 0 -1.16236273303066 -2.09590000450955 0 0 0 0 0 0 0 0 0
0 0 0 0 0 0 0 0 0 0 0 0 0 0 0 0 0 0 0 0 0 -0.104912298949731 0 0 0 0 0 0 0 -1.78444195931421 0 0 0 0 0 0 0 0 0 -1.41115798521081 0 0 0 0 0 0 0 0 0 0
0.068204407628351 0.420345791237869 0.109749880839088 0 0 0 0 0 0 0 0 0 0 0 0 0 0 0 0 0 0 0 -0.104912298949731 0 0 0 0 0 0 -1.27130342937835 0 0 0 0 0 0 0 0 0 -2.03771547201066 0 0 0 0 0 0 0 0 0 0
0 0 0 0 0 0 0.726064087181298 0.0928401215156225 0.147115943151068 0.108334003243877 0.209871167128875 0.178487395870102 0 0 0 0 0 0 0 0 0 0 0 -0.104912298949731 0 0 0 0 0 -0.370860362463309 0 0 0 0 0 0 0 0 0 -2.28197249549171 0 0 0 0 0 0 0 0 0 0
0 0 0 0 0 0 0 0 0 0 0 0 0 0 0 0 0 0.332116331618643 0 0 0 0 0 0 -0.104912298949731 0 0 0 0 0 0 0 0 0 0 0 0 0 0 -1.54136917902022 0 0 0 0 0 0 0 0 0 0
0 0 0 0 0 0 0 0 0 0.0544453209696513 0.312367729868376 0.257134079475006 0.136012153505478 0.0420284212052391 0.26665395420306 0.157748541864565 0 0 0 0 0 0 0 0 0 -0.104912298949731 0 0 0 0 0 0 -2.20191514603205 0 0 0 0 0 0 -2.717734804871 0 0 0 0 0 0 0 0 0 0
0 0 0 0.0270972531365418 0.0821828306686443 0.336739529828374 0 0 0 0 0 0 0 0 0 0 0 0 0 0 0 0 0 0 0 0 -0.104912298949731 0 0 0 0 0 -0.776307235940264 0 0 0 0 0 0 -1.09793470543406 0 0 0 0 0 0 0 0 0 0
0 0 0 0.729073871960058 0.104439595534602 0.0180251139949453 0 0 0 0 0 0 0 0 0 0 0 0 0 0 0 0 0 0 0 0 0 -0.104912298949731 0 0 0 0 -0.787243857443863 0 0 0 0 0 0 -0.810067484680734 0 0 0 0 0 0 0 0 0 0
0 0 0 0 0 0 0 0 0 0 0 0 0 0 0 0 0 0 0 0 0 0 0 0 0 0 0 0 -0.104912298949731 0 0 0 -0.507688137726036 0 0 0 0 0 0 -2.01061640149529 0 0 0 0 0 0 0 0 0 0
0 0 0 0 0 0 0 0 0 0 0 0 0 0 0 0 0 0 0.439009579609172 0.125316004597855 0.690214669935524 0.359319965969252 0.250143630013508 0.0830027041870703 0 0 0 0 0 -0.104912298949731 0 0 -2.55389575614238 0 0 0 0 0 0 0 0 0 0 0 0 0 0 0 0 0
0 0 0 0 0 0 0 0 0 0 0.0828800614255242 0 0 0 0 0 0 0 0 0 0 0 0 0 0 0 0 0 0 0 -0.104912298949731 0 -2.04093195981987 0 0 0 0 -0.699945102394927 0 0 0 0 0 0 0 0 0 0 0 0
0 0 0 0 0 0 0 0 0 0 0 0 0 0 0 0 0 0 0.526532203877604 0.282920874716913 0.0917838957285802 0 0 0 0 0 0 0 0 0 0 -0.104912298949731 -2.85542220684165 0 0 0 0 -0.382995711895564 0 0 0 0 0 0 0 0 0 0 0 0
0 0 0 0 0 0 0 0 0 0 0 0 0 0 0 0 0 0 0 0 0 0 0 0 0 0.445638135455001 0.154877765132675 0.161766528875133 0.102717899033142 0.506292816367351 0.427650400949407 0.611946912601541 -0.104912298949731 0 -1.23624262381624 0 -9.9502959577842 0 -1.9849909481809 0 0 0 0 0 0 0 0 0 0 0
0 0 0 0 0 0 0 0 0 0 0 0 0 0 0 0 0.119439266617331 0.684292610774766 0 0 0 0 0 0 0 0 0 0 0 0 0 0 0 -0.104912298949731 -1.01547708225235 0 -2.89255664493667 0 -1.37908880062063 0 0 0 0 0 0 0 0 0 0 0
0 0 0 0 0 0 0 0 0 0 0 0 0 0 0 0 0 0 0 0 0 0 0 0 0 0 0 0 0 0 0 0 0.271647243585736 0.206795081157174 -0.104912298949731 0 -7.93187255277361 0 0 0 0 0 0 0 0 0 0 0 0 0
0 0 0 0 0 0 0 0 0.218132926946711 0.0676764905158642 0.0223877165834334 0.0342385725884859 0.547332552387679 2.08982087144091 0.291564080992196 0.00730169351589348 0.103987237844973 0.0817047718655786 0 0 0 0 0 0 0 0 0 0 0 0 0 0 0 0 0 -0.104912298949731 -1.04033162974809 0 0 0 0 0 0 0 0 0 0 0 0 0
0 0 0 0 0 0 0 0 0 0 0 0 0 0 0 0 0 0 0 0 0 0 0 0 0 0 0 0 0 0 0 0 1.90607481956014 0.582508134163424 1.57391267106314 0.208154276611742 -0.104912298949731 0.462677335578706 0.265897527234303 0.221063582699888 0 0 0 0 0 0 0 0 0 0
0 0 0 0 0 0 0 0 0 0 0 0 0 0 0 0 0 0 0 0 0 0 0 0 0 0 0 0 0 0 0.132778418357601 0.0841770649548248 0 0 0 0 -2.14247462256512 -0.104912298949731 0 0 0 0 0 0 0 0 0 0 0 0
0 0 0 0 0 0 0 0 0 0 0 0 0 0 0 0 0 0 0 0 0 0 0 0 0 0 0 0 0 0 0 0 0.418846317272561 0.275734058285564 0 0 -1.27647209057555 0 -0.104912298949731 0 0 0 0 0 0 0 0 0 0 0
0 0 0 0 0 0 0 0 0 0 0 0 0 0 0 0 0 0 0.0864501559176097 0.0535508063420145 0.251038226487092 0.287776487120775 0.395092789514877 0.406144420874013 0.32496118671443 0.578359131699121 0.208208028048204 0.156429341240294 0.413199532004285 0 0 0 0 0 0 0 -1.0372811537469 0 0 -0.104912298949731 0 0 0 0 0 0 -3.34211689815091 0 0 0
0 0 0 0 0 0 0 0 0 0 0 0 0 0 0 0 0 0 0.40001236018047 0.0961375795477453 0.412073571967676 0 0 0 0 0 0 0 0 0 0 0 0 0 0 0 0 0 0 0 -0.104912298949731 0 0 0 0 0 -1.87498832308443 0 0 0
0 0 0 0 0 0 0 0 0 0 0 0 0 0 0 0 0 0 0 0 0 0 0 0 0 0 0 0 0 0 0 0 0 0 0 0 0 0 0 0 0 -0.104912298949731 0 0 0 0 -0.714392150152363 0 0 0
0 0 0 0 0 0 0 0 0 0 0 0 0 0 0 0 0 0 0 0 0 0 0 0 0 0 0 0 0 0 0 0 0 0 0 0 0 0 0 0 0 0 -0.104912298949731 0 0 0 -1.30324785266358 0 0 0
0 0 0 0 0 0.215038696080509 0.334373661695802 0.0675219850663941 0 0 0 0 0 0 0 0 0 0 0 0 0 0 0 0 0 0 0 0 0 0 0 0 0 0 0 0 0 0 0 0 0 0 0 -0.104912298949731 0 0 -0.98029371681861 0 0 0
0 0.648131532987755 0.27865547503694 0 0 0 0 0 0 0 0 0 0 0 0 0 0 0 0 0 0 0 0 0 0 0 0 0 0 0 0 0 0 0 0 0 0 0 0 0 0 0 0 0 -0.104912298949731 -0.0922212359158656 0 0 0 0
0 0 0 0 0 0 0 0 0 0 0 0 0 0 0 0 0 0 0 0 0 0 0 0 0 0 0 0 0 0 0 0 0 0 0 0 0 0 0 0 0 0 0 0 0.0190215028479904 -0.104912298949731 0.271070097577033 0 0 0
0 0 0 0 0 0 0 0 0 0 0 0 0 0 0 0 0 0 0 0 0 0 0 0 0 0 0 0 0 0 0 0 0 0 0 0 0 0 0 0.667032793692814 0.40052580231117 0.12710566893725 0.257066318072052 0.19472505238386 0 -1.45950514612511 -0.104912298949731 0 0 0
0 0 0 0 0 0 0.350492401164094 0.251092977145958 0.976771634397843 0.572368693747305 0.253773063855361 0.370904445726638 0.327691285976765 0.150539253878396 0.668158208742304 0 0 0 0 0 0 0 0 0 0 0 0 0 0 0 0 0 0 0 0 0 0 0 0 0 0 0 0 0 0 0 0 -0.104912298949731 0 0
0 0 0 0 0 0 0 0 0 0.35607298657015 0.211701866485835 0 0 0 0 0 0 0 0 0 0 0 0 0 0 0 0 0 0 0 0 0 0 0 0 0 0 0 0 0 0 0 0 0 0 0 0 0 -0.104912298949731 0
0 0 0 0 0 0 0 0 0 0 0 0 0.314189653243877 1.10610236843739 0.364242960702943 0.150686955990648 0 0 0 0 0 0 0 0 0 0 0 0 0 0 0 0 0 0 0 0 0 0 0 0 0 0 0 0 0 0 0 0 0 -0.104912298949731
