0.355405114592333
1.493506437988
1.06421575953176
0.610407169944461
2.57846741019078
1.47852052727608
1.1664271063704
0.523653222238752
1.6517891282726
0.628764624790281
3.08858048190778
0.331838298474403
3.77110805089173
0.819948443858464
0.306510747757607
3.49822277933238
0.429329924834487
0.76763707603321
0.178920410318169
0.562033669472516
1.22285493275354
0.524233090281411
1.28605144856672
0.446696080161698
3.71023108409071
0.966248790647088
1.13727817825411
1.26140020123172
3.26425229467639
2.68469315871652
1.04747574460411
5.58560993699317
0.155911893176603
0.779960605887414
0.2905702106402
0.908547066717706
1.51683026242688
0.745844809270306
2.48923422374618
0.343610172024616
1.09834539799611
2.99165294434689
0.362695487142764
1.13231402136073
0.259092951592409
0.354644514788419
0.52597540508787
2.09110410666363
0.615885169801623
0.4665183950665
