1.122096911468
1.88034914355866
1.07424716986582
0.34558089824226
2.5108572111486
0.914625590586555
1.12505639583303
2.29955500749977
0.189012561148025
0.707309232357073
0.545941345253059
0.643315460027655
0.472461223329808
0.753478097035742
0.781289481871852
0.460264180764698
3.59541749656285
1.54409216754401
1.12838717499947
0.251284855050907
0.207057321608106
1.08148020193493
6.22034798382258
5.42327654922517
0.421725459989307
0.160958427199425
0.29325560992914
0.505002704042623
0.882109921574724
8.02299437356823
8.41049485386016
0.415714996491057
0.49637502260692
0.928361099816076
1.80305481747614
1.8461116006577
0.825743554296668
0.486675729923718
4.4382783088942
4.67070112077152
2.16470517139362
0.323343902753784
0.15068544320756
1.22064426893294
1.70178005502365
0.718093194695463
2.37533017087572
0.934796364757895
3.94429604739489
1.37425339266675
