0.410700486362114
3.26448257304439
0.920572705933335
0.161686526088294
11.0193665980047
0.28489545606286
2.02642454966875
3.08212387086882
0.982157727976904
0.657515817166344
0.365194262925587
2.25044232096283
0.864397691185898
3.27798889307322
1.99251937839405
0.945842480185899
0.779435760398442
1.10217224941584
0.86959847102153
1.14845804094379
1.23874930599273
2.10747277491657
0.352255408953162
0.26789402778677
1.61913755207994
0.418223331473365
6.58126318964312
0.828001693567739
1.804847838866
0.597243838385248
2.2285168317268
1.15775707814772
0.461481384816683
1.70930603487926
5.32150778727759
1.04222088140917
0.482323402352079
0.276061756340227
0.21347732042239
1.4337471555686
0.784455512218627
1.95992701844414
2.19706735298193
0.412933429016104
0.251832488526046
0.473164791296924
1.24255799353852
2.85346918640763
0.204957139015235
2.22123802638463
