1.17398721916971
0.640076845036793
2.29342850968593
2.85223404901662
0.786112265470997
3.86004420164531
1.59548998860807
0.20814068031239
1.0195601776488
6.74598222264195
0.215675432256433
0.112022139075954
1.8099896494308
0.994355434077374
1.52180522677097
1.63064484214312
4.13308582256578
0.289382971099502
2.11318306385424
6.59985505144522
4.33788202876265
0.32848634159454
1.3302189985506
8.00472835148331
1.85529922483306
0.395459665414018
1.53982062514604
0.177336707741165
0.617262385988743
1.0416314303909
3.10363964505582
8.02964522976289
1.58834987495572
0.864732555078874
0.969888782697568
0.519828698514696
1.56811098138526
0.797293132072862
2.31084901528602
0.866001275580817
1.82399411295141
2.11774553019122
3.37454553471486
8.92405924462982
0.366741336607892
1.871866025537
0.320880497972114
0.9624303239592
0.43176562957812
1.86429271526597
