-0.324676436048925 0 0 0 0 0 0 0 0 0 0 0 0 0 0 0 0 0 0 0 0 0 0 0 0 0 -0.699189426672577 0 0 0 0 0 0 0 0 0 0 0 0 0 0 0 0 0 0 0 0 0 0 0
0 -0.324676436048925 0 0 0 0 0 0 0 0 0 0 0 0 0 0 0 0 0 0 0 0 0 0 0 0 -1.68444473151639 0 0 0 0 0 0 0 0 0 0 0 0 0 0 0 0 0 0 0 0 0 0 0
0 0 -0.324676436048925 0 0 0 0 0 0 0 -2.43061781178476 0 0 0 0 0 0 0 0 0 0 0 0 0 0 0 -0.518176608136895 0 0 0 0 0 0 0 0 0 0 0 0 0 0 0 0 0 0 0 0 0 0 0
0 0 0 -0.324676436048925 -0.859097252165683 -0.494008200975375 0 0 0 0 -0.423646488375766 0 0 0 0 0 0 0 0 0 0 0 0 0 0 0 -1.01526717030649 0 0 0 0 0 0 0 0 0 0 0 0 0 0 0 0 0 0 0 0 0 0 0
0 0 0 0.160597833852319 -0.324676436048925 0 -0.515407289998292 0 0 0 -2.20367303019654 0 0 0 0 0 0 0 0 0 0 0 0 0 0 0 -0.139118111982036 0 0 0 0 0 0 0 0 0 0 0 0 0 0 0 0 0 0 0 0 0 0 0
0 0 0 0.0969681325888749 0 -0.324676436048925 -0.68020924843087 0 0 0 -2.94020416007649 0 0 0 0 0 0 0 0 0 0 0 0 0 0 0 -2.50344249435818 0 0 0 0 0 0 0 0 0 0 0 0 0 0 0 0 0 0 0 0 0 0 0
0 0 0 0 0.0994400194629802 0.145278939675476 -0.324676436048925 0 0 0 0 0 0 0 0 0 0 0 0 0 0 0 0 0 0 -5.75835027767165 -0.454187755372353 0 0 0 0 0 0 0 0 0 0 0 -4.7355837963591 0 0 -1.68820086018973 0 0 0 0 0 0 0 0
0 0 0 0 0 0 0 -0.324676436048925 0 0 0 0 0 0 0 -1.32453400899795 0 0 0 0 0 0 0 0 0 -0.856850390392531 -3.53858317569192 0 -1.29345168766056 0 -7.48823676575487 0 0 0 0 0 0 0 -2.46053813159269 0 0 0 0 0 0 0 0 0 0 0
0 0 0 0 0 0 0 0 -0.324676436048925 0 0 0 0 0 0 0 0 0 0 0 0 0 0 0 0 -1.29987382135614 0 0 0 0 0 0 0 0 -0.865308503546695 0 0 0 -0.723769026812289 0 0 0 0 0 0 0 0 0 0 0
0 0 0 0 0 0 0 0 0 -0.324676436048925 0 0 -0.541483778897415 0 0 0 0 0 0 0 0 0 0 0 0 -5.93131167318343 0 0 0 0 0 0 0 0 -7.84899108293421 0 0 0 0 0 0 0 0 0 0 0 0 0 0 0
0 0 0.458430954109049 0.0789111582901543 0.440603331070832 0.629486995778924 0 0 0 0 -0.324676436048925 0 0 0 0 0 0 0 0 -0.558809417694018 0 0 0 -0.739075006563037 0 0 0 0 0 0 0 0 0 0 0 0 0 0 0 0 0 0 0 0 -1.16789192377416 0 0 0 0 0
0 0 0 0 0 0 0 0 0 0 0 -0.324676436048925 0 0 0 0 -1.43073226018676 -0.864244874888755 0 -3.54726678576139 0 0 0 0 0 0 0 0 0 0 0 0 0 0 0 0 0 0 0 0 0 0 0 0 -1.95768382164931 0 0 0 0 0
0 0 0 0 0 0 0 0 0 0.110836532233057 0 0 -0.324676436048925 0 0 0 -3.25294356781981 -0.7718344153499 0 -0.291123328011641 0 0 0 0 0 0 0 0 0 0 0 0 0 0 0 0 0 0 0 0 0 0 0 0 -4.17161682502031 0 0 0 0 0
0 0 0 0 0 0 0 0 0 0 0 0 0 -0.324676436048925 0 0 -0.440069840874728 -2.04394876241292 0 0 0 0 0 0 0 0 0 0 0 0 0 0 0 0 0 0 0 0 0 0 0 0 0 0 -0.94537355757971 0 0 0 0 0
0 0 0 0 0 0 0 0 0 0 0 0 0 0 -0.324676436048925 0 0 -0.854616883851708 0 0 0 0 -1.36629509438311 0 0 0 0 0 0 0 0 0 0 0 0 0 0 0 0 0 0 0 0 0 -3.58414457477896 0 0 0 0 0
0 0 0 0 0 0 0 0.24746534391828 0 0 0 0 0 0 0 -0.324676436048925 0 -3.13983618008557 0 0 -1.75188643891268 0 -0.21513561372577 0 0 0 0 0 0 0 0 0 0 0 0 0 0 0 0 0 0 0 0 0 -2.54763020261726 0 0 0 0 0
0 0 0 0 0 0 0 0 0 0 0 0.272638774746608 0.632097995558936 0.077127214318305 0 0 -0.324676436048925 -6.58490686162983 0 0 -0.11691635880619 0 -11.4338785713231 0 0 0 0 0 0 0 0 0 0 0 0 0 0 0 0 0 0 0 0 0 -3.3633683769554 0 0 0 0 0
0 0 0 0 0 0 0 0 0 0 0 0.177327357150645 0.136635357203553 0.366379055444955 0.157548985324513 0.617925070645891 1.35350638710004 -0.324676436048925 0 0 -0.409473685557957 0 0 0 0 0 0 0 0 0 0 0 0 0 0 0 0 0 0 0 0 0 0 0 -0.468619026882168 0 0 -0.971148711441623 0 0
0 0 0 0 0 0 0 0 0 0 0 0 0 0 0 0 0 0 -0.324676436048925 0 -0.551461526118047 0 0 0 0 0 0 0 0 0 0 0 0 0 0 0 0 0 0 0 0 0 0 0 -2.13154274506481 0 0 -0.399575446878759 0 0
0 0 0 0 0 0 0 0 0 0 0.11328232326408 0.636758938732885 0.061015453135649 0 0 0 0 0 0 -0.324676436048925 -0.660839929612504 0 0 0 0 0 0 0 0 0 0 0 0 0 0 0 0 0 0 0 0 0 0 0 -2.19516666926006 0 0 -2.58408892951986 0 0
0 0 0 0 0 0 0 0 0 0 0 0 0 0 0 0.383882549321396 0.0214215446364911 0.0769712850829706 0.0972309623423892 0.143367629797959 -0.324676436048925 0.703648789524549 0.16270332808223 0 0 0 0 0 0 0 0 0 0 0 0 0 0 0 0 -0.846961697469837 0 0 0 0 -1.59068819750132 0 0 -0.958593529260568 0 0
0 0 0 0 0 0 0 0 0 0 0 0 0 0 0 0 0 0 0 0 -3.27459080997326 -0.324676436048925 0 0 0 0 0 0 0 0 0 0 0 0 0 0 0 0 0 -0.492583968079202 0 0 0 0 -0.665720595117053 0 -1.36560132728858 -0.28954304834987 0 0
0 0 0 0 0 0 0 0 0 0 0 0 0 0 0.257846309681477 0.0429521098914533 2.42650823861 0 0 0 -0.826205023104644 0 -0.324676436048925 0 0 0 0 0 0 0 0 0 0 0 0 0 0 0 0 -1.61834183533996 0 0 0 0 -0.316022040754244 0 -0.578802174612857 -0.209906911282296 0 0
0 0 0 0 0 0 0 0 0 0 0.14848610851571 0 0 0 0 0 0 0 0 0 0 0 0 -0.324676436048925 0 0 0 0 0 0 0 0 0 0 0 0 0 0 0 -3.01030624173256 0 0 0 0 -1.6627799651475 0 -0.825033270639151 -2.13058663410868 0 0
0 0 0 0 0 0 0 0 0 0 0 0 0 0 0 0 0 0 0 0 0 0 0 0 -0.324676436048925 0 0 0 0 0 0 0 0 0 0 0 0 0 0 -0.863571224554855 0 0 0 0 0 -3.02486990353583 -0.639676784320446 0 0 0
0 0 0 0 0 0 1.16494042136684 0.167662883548573 0.251287559587612 1.12638543934047 0 0 0 0 0 0 0 0 0 0 0 0 0 0 0 -0.324676436048925 0 0 0 0 0 0 0 0 0 0 0 0 0 -0.725728829016132 0 0 0 0 0 -1.37010394098918 -3.70516022081167 0 0 0
0.140254734721133 0.35815399700447 0.102932690294183 0.202018057779879 0.0295469480060324 0.501190771176854 0.0937139334659336 0.660145114108985 0 0 0 0 0 0 0 0 0 0 0 0 0 0 0 0 0 0 -0.324676436048925 0 0 0 0 0 0 0 0 0 0 0 0 -2.44329868959726 0 0 0 0 0 -0.269677302243444 -0.253457397686823 0 0 0
0 0 0 0 0 0 0 0 0 0 0 0 0 0 0 0 0 0 0 0 0 0 0 0 0 0 0 -0.324676436048925 0 0 0 0 0 -2.18178247350146 0 0 -0.479581785314322 0 0 0 0 0 0 0 0 0 0 0 -1.31269872334795 0
0 0 0 0 0 0 0 0.251108468578422 0 0 0 0 0 0 0 0 0 0 0 0 0 0 0 0 0 0 0 0 -0.324676436048925 0 0 0 0 0 0 0 -0.245337497620151 0 0 0 0 0 0 0 0 0 0 0 -2.43174053085112 0
0 0 0 0 0 0 0 0 0 0 0 0 0 0 0 0 0 0 0 0 0 0 0 0 0 0 0 0 0 -0.324676436048925 0 0 0 0 0 0 -8.70613948156495 0 0 0 0 0 -3.22804207785739 0 0 0 0 0 -2.8168647454951 0
0 0 0 0 0 0 0 1.50269722758199 0 0 0 0 0 0 0 0 0 0 0 0 0 0 0 0 0 0 0 0 0 0 -0.324676436048925 0 0 0 0 0 0 0 0 0 0 0 -0.864746623210594 0 0 0 0 0 -1.70792481726519 0
0 0 0 0 0 0 0 0 0 0 0 0 0 0 0 0 0 0 0 0 0 0 0 0 0 0 0 0 0 0 0 -0.324676436048925 0 0 0 0 0 0 0 0 0 0 -0.250298755145347 0 0 0 0 0 -4.09898838365599 0
0 0 0 0 0 0 0 0 0 0 0 0 0 0 0 0 0 0 0 0 0 0 0 0 0 0 0 0 0 0 0 0 -0.324676436048925 0 0 0 0 0 0 0 0 0 0 0 0 0 0 0 -1.58956511262072 0
0 0 0 0 0 0 0 0 0 0 0 0 0 0 0 0 0 0 0 0 0 0 0 0 0 0 0 0.44837018112505 0 0 0 0 0 -0.324676436048925 0 0 0 0 0 0 0 0 0 0 0 0 0 0 -1.84203942552438 0
0 0 0 0 0 0 0 0 0.174167066899191 1.62785151044308 0 0 0 0 0 0 0 0 0 0 0 0 0 0 0 0 0 0 0 0 0 0 0 0 -0.324676436048925 0 0 0 0 0 0 0 0 0 0 0 0 0 -3.74488589758015 0
0 0 0 0 0 0 0 0 0 0 0 0 0 0 0 0 0 0 0 0 0 0 0 0 0 0 0 0 0 0 0 0 0 0 0 -0.324676436048925 0 0 0 0 0 0 0 0 0 0 0 0 -0.782145720029634 0
0 0 0 0 0 0 0 0 0 0 0 0 0 0 0 0 0 0 0 0 0 0 0 0 0 0 0 0.0990213820289995 0.0496912826972097 1.77150467546909 0 0 0 0 0 0 -0.324676436048925 0 0 0 0 0 0 0 0 0 0 0 -0.16219871473758 0
0 0 0 0 0 0 0 0 0 0 0 0 0 0 0 0 0 0 0 0 0 0 0 0 0 0 0 0 0 0 0 0 0 0 0 0 0 -0.324676436048925 0 0 0 0 0 0 0 0 0 0 -1.99121592120774 0
0 0 0 0 0 0 1.02449467923927 0.466321027588489 0.141170746268559 0 0 0 0 0 0 0 0 0 0 0 0 0 0 0 0 0 0 0 0 0 0 0 0 0 0 0 0 0 -0.324676436048925 0 0 0 0 0 0 0 0 0 -0.440911615555547 0
0 0 0 0 0 0 0 0 0 0 0 0 0 0 0 0 0 0 0 0 0.167733097574849 0.103332265549741 0.350613328736623 0.636582343202498 0.16436361982262 0.146569145082954 0.472543285930236 0 0 0 0 0 0 0 0 0 0 0 0 -0.324676436048925 0 0 0 0 0 0 0 0 -3.60255845564553 0
0 0 0 0 0 0 0 0 0 0 0 0 0 0 0 0 0 0 0 0 0 0 0 0 0 0 0 0 0 0 0 0 0 0 0 0 0 0 0 0 -0.324676436048925 0 0 0 0 0 0 0 -1.09111920277189 0
0 0 0 0 0 0 0.329801678470974 0 0 0 0 0 0 0 0 0 0 0 0 0 0 0 0 0 0 0 0 0 0 0 0 0 0 0 0 0 0 0 0 0 0 -0.324676436048925 0 0 0 0 0 0 -1.26292666739943 0
0 0 0 0 0 0 0 0 0 0 0 0 0 0 0 0 0 0 0 0 0 0 0 0 0 0 0 0 0 0.632137757493555 0.165778495219594 0.0515253331717003 0 0 0 0 0 0 0 0 0 0 -0.324676436048925 0 0 0 0 0 -7.49772701178333 0
0 0 0 0 0 0 0 0 0 0 0 0 0 0 0 0 0 0 0 0 0 0 0 0 0 0 0 0 0 0 0 0 0 0 0 0 0 0 0 0 0 0 0 -0.324676436048925 0 0 0 0 -0.454635777194962 0
0 0 0 0 0 0 0 0 0 0 0.24063189891003 0.38042231966228 0.816551220459109 0.197296972915938 0.691958091134002 0.517789950370628 0.664227251306436 0.0914243901262927 0.463628638680203 0.404687307939166 0.302252257140788 0.125945576507924 0.0673977899267325 0.343673094036017 0 0 0 0 0 0 0 0 0 0 0 0 0 0 0 0 0 0 0 0 -0.324676436048925 0 0 0 0 0
0 0 0 0 0 0 0 0 0 0 0 0 0 0 0 0 0 0 0 0 0 0 0 0 0.647702345701457 0.262278848721805 0.0552602557362833 0 0 0 0 0 0 0 0 0 0 0 0 0 0 0 0 0 0 -0.324676436048925 0 0 0 0
0 0 0 0 0 0 0 0 0 0 0 0 0 0 0 0 0 0 0 0 0 0.29325998670956 0.118067707291166 0.160701770097014 0.132790099811837 0.743116814468825 0.0511398232665099 0 0 0 0 0 0 0 0 0 0 0 0 0 0 0 0 0 0 0 -0.324676436048925 0 0 0
0 0 0 0 0 0 0 0 0 0 0 0 0 0 0 0 0 0.190031842836222 0.082853506278829 0.509831390269743 0.183704099558501 0.0576641334480578 0.0422237003258533 0.439714718664395 0 0 0 0 0 0 0 0 0 0 0 0 0 0 0 0 0 0 0 0 0 0 0 -0.324676436048925 0 -0.955879118405841
0 0 0 0 0 0 0 0 0 0 0 0 0 0 0 0 0 0 0 0 0 0 0 0 0 0 0 0.262273082953214 0.485402951441185 0.570121873887778 0.337631075948848 0.899819559663833 0.322007899720258 0.369905180769309 0.741807532175524 0.173233940569234 0.0334362737851243 0.402017334943514 0.0813092993465098 0.675583722617138 0.229103263503608 0.26599409556209 1.49422092902533 0.0859449301398579 0 0 0 0 -0.324676436048925 0
0 0 0 0 0 0 0 0 0 0 0 0 0 0 0 0 0 0 0 0 0 0 0 0 0 0 0 0 0 0 0 0 0 0 0 0 0 0 0 0 0 0 0 0 0 0 0 0.191302393771679 0 -0.324676436048925
