-0.205045928963854 0 0 0 0 0 -4.36754407907995 0 0 0 0 0 0 0 0 0 0 0 0 0 0 0 0 0 0 0 0 0 0 0 0 0 0 0 0 0 0 0 0 0 0 0 0 0 0 0 0 0 0 0
0 -0.205045928963854 -0.567025512106471 0 0 0 0 0 0 0 0 0 0 0 0 0 0 0 0 0 0 0 0 0 0 0 -0.434874766774338 0 0 0 0 0 0 0 0 0 0 0 0 0 0 0 0 0 0 0 0 0 0 0
0 0.119740744339135 -0.205045928963854 0 0 0 0 0 0 0 -1.37502631524698 0 0 0 0 -1.47361409716348 0 0 0 0 0 0 0 0 0 0 0 0 0 0 0 0 0 0 0 0 0 0 0 0 -0.747848296507172 0 0 0 0 0 0 0 0 0
0 0 0 -0.205045928963854 0 0 0 0 0 0 -0.315066620163842 0 0 0 0 -0.794850103446332 0 0 0 0 0 0 0 0 0 0 0 0 0 0 0 0 0 0 0 0 0 0 0 0 0 0 0 0 0 0 0 0 0 0
0 0 0 0 -0.205045928963854 0 0 0 -0.899422995560509 0 0 0 0 0 0 -3.15823765388661 0 0 0 0 -0.175413867723975 0 0 0 0 0 0 0 0 0 0 0 0 0 0 0 0 0 0 0 0 0 0 0 0 0 0 0 0 0
0 0 0 0 0 -0.205045928963854 0 0 -3.28507927797742 0 0 0 0 0 0 -0.458237004710802 0 0 0 0 -0.0890458343830163 0 0 0 0 0 0 0 0 0 0 0 0 0 0 0 0 0 0 0 0 0 0 0 0 0 0 0 0 0
0.905794096895215 0 0 0 0 0 -0.205045928963854 0 -0.777512337173739 0 0 0 0 0 0 -1.34578866345598 0 0 0 0 -0.36416728322639 0 0 0 0 0 0 0 0 0 0 0 0 0 0 0 0 0 0 0 0 0 0 0 0 0 0 0 0 0
0 0 0 0 0 0 0 -0.205045928963854 0 -1.54351394607908 0 -2.45543242395274 0 0 0 0 0 0 0 0 -0.608174689718465 -1.56205707186178 0 0 0 0 0 0 0 0 0 0 0 0 -1.90190929371068 0 0 0 0 0 0 0 -3.81633164587946 0 0 0 0 0 0 0
0 0 0 0 0.166531511306793 0.692618400414171 0.14387447359481 0 -0.205045928963854 0 0 0 0 0 0 0 -4.17923994841782 0 0 0 -0.182470101784016 0 0 0 0 0 0 0 0 0 -0.917082292830869 0 0 0 -0.331074713634868 0 0 0 0 0 0 0 0 0 0 0 0 0 0 -0.802984226846098
0 0 0 0 0 0 0 0.303601785153697 0 -0.205045928963854 0 0 0 0 0 0 -1.84965844253398 0 0 0 0 0 0 0 0 0 0 0 0 0 -3.75732592923423 0 0 0 -0.67749948342844 0 0 0 0 0 0 0 0 0 0 0 0 0 0 -0.83270777905124
0 0 0.285923643090953 0.0651933949103382 0 0 0 0 0 0 -0.205045928963854 0 0 0 0 0 0 -0.124538309054739 0 0 0 0 0 0 0 0 0 0 0 0 -2.52799525193089 0 0 0 -6.89224108254204 0 0 0 0 -0.689573406448641 0 0 0 0 -1.33939062032735 0 0 0 0 -4.01949505114407
0 0 0 0 0 0 0 0.498015216040675 0 0 0 -0.205045928963854 0 0 0 0 0 0 0 -1.21756127060401 0 0 -0.230188858113794 0 0 0 0 0 0 0 -1.34668226821518 0 0 0 -1.01511722185492 0 0 0 0 0 0 0 0 0 -0.674554370172156 0 0 0 0 -2.51988973926221
0 0 0 0 0 0 0 0 0 0 0 0 -0.205045928963854 0 0 0 0 0 0 -0.941105472210606 0 0 -0.509208600387806 0 -0.201049380140021 0 0 0 0 0 -0.752261660024592 0 0 0 -0.873131091592792 0 0 0 0 0 0 0 0 0 -1.36981209897555 -1.8181836207701 0 0 0 -2.40708320990957
0 0 0 0 0 0 0 0 0 0 0 0 0 -0.205045928963854 0 0 0 0 0 0 0 0 -1.3156037306455 0 -2.28558998111902 0 0 0 0 0 0 0 0 0 -0.206519154444834 0 0 0 0 0 0 0 0 0 -0.585514387288522 -0.84226773639654 0 0 0 -1.50835902607785
0 0 0 0 0 0 0 0 0 0 0 0 0 0 -0.205045928963854 0 0 0 0 0 0 0 -0.193904687125034 0 -4.15491798854025 0 0 0 0 0 0 0 0 0 -0.103027350849053 0 0 0 0 0 0 0 0 0 -0.771576507424847 -1.21739069859562 0 0 0 -1.72373313308697
0 0 0.309588141633598 0.160409127883592 0.606522278443804 0.0922190182151533 0.274439512679317 0 0 0 0 0 0 0 0 -0.205045928963854 0 0 0 0 0 0 -0.564372950061127 0 -0.0553729467378477 0 0 0 0 0 0 0 0 0 -0.8592506785536 0 0 0 0 0 0 0 0 0 -1.11298436803007 -0.723398147219713 0 0 0 -0.590553930495594
0 0 0 0 0 0 0 0 0.810103736248993 0.368978368900221 0 0 0 0 0 0 -0.205045928963854 0 -2.84914576480269 0 0 0 -0.256772576407934 0 -0.277704843932672 0 0 0 0 0 0 0 0 0 -4.61110304965136 0 0 0 0 0 0 0 0 0 -3.23191002078623 -1.37462157297437 0 0 0 -0.594953597881872
0 0 0 0 0 0 0 0 0 0 0.0233627365743867 0 0 0 0 0 0 -0.205045928963854 -0.278942517079673 0 0 0 -0.175660315020727 0 -4.85593377022958 0 0 0 0 0 0 0 0 0 -1.04166398883232 0 0 0 0 0 0 0 0 0 -0.728824789514454 -0.616634014685475 0 0 0 -0.766350617504543
0 0 0 0 0 0 0 0 0 0 0 0 0 0 0 0 0.585028534035935 0.0524637529168543 -0.205045928963854 0 0 0 0 0 -1.80474289806184 0 0 0 0 0 0 0 0 0 0 0 0 0 0 0 0 0 0 0 0 -1.54124772290006 0 0 0 -0.505849582989438
0 0 0 0 0 0 0 0 0 0 0 0.252141383185583 0.199088188546814 0 0 0 0 0 0 -0.205045928963854 0 0 0 0 0 0 0 0 0 0 0 0 0 0 0 0 0 -0.559785009992958 0 0 0 0 0 0 0 -0.24762653836527 0 0 0 -0.185564042803011
0 0 0 0 0.0331605313931121 0.0183318278550674 0.0729953704874984 0.130536684893154 0.0375722084666295 0 0 0 0 0 0 0 0 0 0 0 -0.205045928963854 0 0 0 0 0 0 0 0 0 0 0 0 0 0 0 0 -0.90282417123752 0 0 0 0 0 0 0 -2.06223571403913 0 0 0 -0.937689941577493
0 0 0 0 0 0 0 0.334652685781679 0 0 0 0 0 0 0 0 0 0 0 0 0 -0.205045928963854 0 0 0 0 0 0 0 0 0 0 0 0 0 0 0 -1.72927469667984 0 0 0 0 0 0 0 -1.99333765364047 0 0 0 -0.233727012970788
0 0 0 0 0 0 0 0 0 0 0 0.045707059323953 0.10644343414277 0.241218893484017 0.038876477506412 0.122941088338626 0.0511629042102428 0.0358381377117831 0 0 0 0 -0.205045928963854 0 0 0 0 0 0 0 0 0 0 0 0 0 0 -2.80079355605329 0 0 0 0 0 0 0 -1.42427299068349 0 0 0 -0.937877407426944
0 0 0 0 0 0 0 0 0 0 0 0 0 0 0 0 0 0 0 0 0 0 0 -0.205045928963854 0 -0.507203648739988 0 0 0 -1.30764373293971 0 0 0 0 0 0 0 0 0 0 0 0 0 -1.30711509390185 0 0 0 0 0 0
0 0 0 0 0 0 0 0 0 0 0 0 0.0429141692368485 0.45778510695755 0.842533958026732 0.0114823586207191 0.0536100053502718 0.997027329515961 0.317303179512971 0 0 0 0 0 -0.205045928963854 -0.327442344281794 0 0 0 -4.01266993583381 0 0 0 0 0 0 0 0 0 0 0 0 0 -0.999532816232665 0 0 0 0 0 0
0 0 0 0 0 0 0 0 0 0 0 0 0 0 0 0 0 0 0 0 0 0 0 0.0997911099507072 0.0615322904816463 -0.205045928963854 0 0 0 0 0 0 -1.41589887468615 0 0 0 0 0 0 0 0 0 0 -1.37541115852364 0 0 0 0 0 0
0 0.0916324639734151 0 0 0 0 0 0 0 0 0 0 0 0 0 0 0 0 0 0 0 0 0 0 0 0 -0.205045928963854 0 0 0 0 0 -0.68505481780411 0 0 0 0 0 0 0 0 0 0 -3.27186971418293 0 0 0 0 0 0
0 0 0 0 0 0 0 0 0 0 0 0 0 0 0 0 0 0 0 0 0 0 0 0 0 0 0 -0.205045928963854 0 0 0 0 -0.199514829848436 0 0 0 0 0 0 0 0 0 0 -1.37129122388071 0 0 0 0 0 0
0 0 0 0 0 0 0 0 0 0 0 0 0 0 0 0 0 0 0 0 0 0 0 0 0 0 0 0 -0.205045928963854 0 0 0 0 0 0 0 0 0 0 0 0 0 0 0 0 0 0 0 -1.52543378018441 0
0 0 0 0 0 0 0 0 0 0 0 0 0 0 0 0 0 0 0 0 0 0 0 0.260208244787257 0.780237101007881 0 0 0 0 -0.205045928963854 0 0 0 0 0 0 0 0 0 0 0 0 0 0 0 0 0 0 -0.311071399848569 0
0 0 0 0 0 0 0 0 0.188116597519325 0.702466344388631 0.523936945583228 0.262817799611781 0.127338633153373 0 0 0 0 0 0 0 0 0 0 0 0 0 0 0 0 0 -0.205045928963854 0 0 0 0 0 0 0 0 0 0 0 0 0 0 0 0 0 -0.376858825019032 0
0 0 0 0 0 0 0 0 0 0 0 0 0 0 0 0 0 0 0 0 0 0 0 0 0 0 0 0 0 0 0 -0.205045928963854 0 -1.33472929955958 0 0 -2.03539139769707 0 0 0 0 0 0 0 0 0 0 0 -0.0815700288381825 0
0 0 0 0 0 0 0 0 0 0 0 0 0 0 0 0 0 0 0 0 0 0 0 0 0 0.249521961873027 0.141577221250167 0.0404373247551778 0 0 0 0 -0.205045928963854 0 0 -0.35435008329163 0 0 0 0 0 0 0 0 0 0 0 0 0 0
0 0 0 0 0 0 0 0 0 0 0 0 0 0 0 0 0 0 0 0 0 0 0 0 0 0 0 0 0 0 0 0.274295942331185 0 -0.205045928963854 0 0 0 0 0 0 0 0 0 0 0 0 0 0 0 0
0 0 0 0 0 0 0 0.362808505128691 0.0704239986701328 0.140468663031709 1.41091176566517 0.203737918243617 0.169069761601086 0.0381943064662537 0.0209444898752225 0.163299340444575 0.891921084013934 0.212069232519173 0 0 0 0 0 0 0 0 0 0 0 0 0 0 0 0 -0.205045928963854 0 0 0 0 0 0 0 0 0 0 0 0 0 0 0
0 0 0 0 0 0 0 0 0 0 0 0 0 0 0 0 0 0 0 0 0 0 0 0 0 0 0 0 0 0 0 0 0.070837273011644 0 0 -0.205045928963854 0 0 0 0 0 0 0 0 0 0 0 0 0 0
0 0 0 0 0 0 0 0 0 0 0 0 0 0 0 0 0 0 0 0 0 0 0 0 0 0 0 0 0 0 0 0.420947472672237 0 0 0 0 -0.205045928963854 0 0 0 0 0 0 0 0 0 0 0 0 0
0 0 0 0 0 0 0 0 0 0 0 0 0 0 0 0 0 0 0 0.116650961445126 0.190416115763512 0.375049037739025 0.564266825752556 0 0 0 0 0 0 0 0 0 0 0 0 0 0 -0.205045928963854 0 0 0 0 0 0 0 0 0 0 0 0
0 0 0 0 0 0 0 0 0 0 0 0 0 0 0 0 0 0 0 0 0 0 0 0 0 0 0 0 0 0 0 0 0 0 0 0 0 0 -0.205045928963854 0 0 0 0 0 0 0 0 -0.960085588157681 0 0
0 0 0 0 0 0 0 0 0 0 0.138235166420804 0 0 0 0 0 0 0 0 0 0 0 0 0 0 0 0 0 0 0 0 0 0 0 0 0 0 0 0 -0.205045928963854 0 0 0 0 0 0 -1.69079139057415 -0.37356543515439 0 0
0 0 0.137174111828145 0 0 0 0 0 0 0 0 0 0 0 0 0 0 0 0 0 0 0 0 0 0 0 0 0 0 0 0 0 0 0 0 0 0 0 0 0 -0.205045928963854 0 0 0 0 0 -0.843972125313408 -1.49579067104795 0 0
0 0 0 0 0 0 0 0 0 0 0 0 0 0 0 0 0 0 0 0 0 0 0 0 0 0 0 0 0 0 0 0 0 0 0 0 0 0 0 0 0 -0.205045928963854 0 0 0 0 -3.10765091689438 -2.09411528314561 0 0
0 0 0 0 0 0 0 0.841457655598219 0 0 0 0 0 0 0 0 0 0 0 0 0 0 0 0 0 0 0 0 0 0 0 0 0 0 0 0 0 0 0 0 0 0 -0.205045928963854 0 0 0 -0.199139454915745 -5.69690334703611 0 0
0 0 0 0 0 0 0 0 0 0 0 0 0 0 0 0 0 0 0 0 0 0 0 0.267606927582202 0.208935639834297 0.277318041485206 0.644656683338153 0.28358514013227 0 0 0 0 0 0 0 0 0 0 0 0 0 0 0 -0.205045928963854 0 0 -1.07167907167293 -0.68409815023996 0 0
0 0 0 0 0 0 0 0 0 0 0.25328789968971 0.134213289866433 0.272044203453892 0.116895257446538 0.151331033330987 0.209146449093397 0.667278784018966 0.148118849680769 0 0 0 0 0 0 0 0 0 0 0 0 0 0 0 0 0 0 0 0 0 0 0 0 0 0 -0.205045928963854 0 0 -1.77176607155092 0 0
0 0 0 0 0 0 0 0 0 0 0 0 0.360271382117958 0.171747103382396 0.24126131905842 0.134779038370614 0.277392242759709 0.119660165120369 0.304613137587711 0.0464860623058818 0.380852528915194 0.410724387704921 0.27882007854038 0 0 0 0 0 0 0 0 0 0 0 0 0 0 0 0 0 0 0 0 0 0 -0.205045928963854 0 0 0 0
0 0 0 0 0 0 0 0 0 0 0 0 0 0 0 0 0 0 0 0 0 0 0 0 0 0 0 0 0 0 0 0 0 0 0 0 0 0 0 0.326335542543525 0.176420518878129 0.606903475478766 0.0397584497318567 0.219499037850551 0 0 -0.205045928963854 0 0 0
0 0 0 0 0 0 0 0 0 0 0 0 0 0 0 0 0 0 0 0 0 0 0 0 0 0 0 0 0 0 0 0 0 0 0 0 0 0 0.193864586721665 0.0732272939833012 0.288775212461895 0.420444313953553 1.16589282999624 0.153209247184435 0.366393940308006 0 0 -0.205045928963854 0 0
0 0 0 0 0 0 0 0 0 0 0 0 0 0 0 0 0 0 0 0 0 0 0 0 0 0 0 0 0.298100675651498 0.066436388686676 0.0813299591208243 0.0172332328562662 0 0 0 0 0 0 0 0 0 0 0 0 0 0 0 0 -0.205045928963854 0
0 0 0 0 0 0 0 0 0.169432494398822 0.15812891807256 0.809555494222855 0.473658128322768 0.507402694545755 0.314650110193045 0.326662402787741 0.129597526485151 0.110441828557133 0.164438106112865 0.0921005941443911 0.0364375864202394 0.186021517010949 0.0435499459667622 0.168516974085552 0 0 0 0 0 0 0 0 0 0 0 0 0 0 0 0 0 0 0 0 0 0 0 0 0 0 -0.205045928963854
