-0.20675491269526 0 0 0 0 0 0 0 0 0 0 0 0 0 0 0 0 0 0 0 0 0 0 0 0 0 -0.474820827394883 0 0 0 0 0 0 0 0 0 0 0 0 0 0 0 0 0 0 0 0 0 0 0
0 -0.20675491269526 0 0 0 0 0 0 0 0 0 0 0 0 0 0 0 0 0 0 0 0 0 0 0 0 -0.159186980008319 0 0 0 0 0 0 0 0 0 0 0 0 0 0 0 0 0 0 0 0 0 0 0
0 0 -0.20675491269526 0 0 0 0 0 0 0 -1.1176267139077 0 0 0 0 0 0 0 0 0 0 0 0 0 0 0 -0.188545940205202 0 0 0 0 0 0 0 0 0 0 0 0 0 0 0 0 0 0 0 0 0 0 0
0 0 0 -0.20675491269526 -0.711115512557412 -1.86931822048024 0 0 0 0 -0.326280233402086 0 0 0 0 0 0 0 0 0 0 0 0 0 0 0 -1.72645256199051 0 0 0 0 0 0 0 0 0 0 0 0 0 0 0 0 0 0 0 0 0 0 0
0 0 0 0.166960754128624 -0.20675491269526 0 -0.42529555433977 0 0 0 -0.485960400622575 0 0 0 0 0 0 0 0 0 0 0 0 0 0 0 -0.600415554322022 0 0 0 0 0 0 0 0 0 0 0 0 0 0 0 0 0 0 0 0 0 0 0
0 0 0 0.386577898291534 0 -0.20675491269526 -0.919463675743386 0 0 0 -0.181680805040947 0 0 0 0 0 0 0 0 0 0 0 0 0 0 0 -0.830219524838974 0 0 0 0 0 0 0 0 0 0 0 0 0 0 0 0 0 0 0 0 0 0 0
0 0 0 0 0.094365152353126 0.177551384260747 -0.20675491269526 0 0 0 0 0 0 0 0 0 0 0 0 0 0 0 0 0 0 -1.26850971480246 -0.858338341371071 0 0 0 0 0 0 0 0 0 0 0 -1.10778653924562 0 0 -0.549006198883183 0 0 0 0 0 0 0 0
0 0 0 0 0 0 0 -0.20675491269526 0 0 0 0 0 0 0 -1.46566625633358 0 0 0 0 0 0 0 0 0 -0.256654489531085 -0.518132003291083 0 -4.62655118542681 0 -0.707534069140981 0 0 0 0 0 0 0 -0.19991846035765 0 0 0 0 0 0 0 0 0 0 0
0 0 0 0 0 0 0 0 -0.20675491269526 0 0 0 0 0 0 0 0 0 0 0 0 0 0 0 0 -0.714638686713202 0 0 0 0 0 0 0 0 -0.690276165269047 0 0 0 -0.305368511610311 0 0 0 0 0 0 0 0 0 0 0
0 0 0 0 0 0 0 0 0 -0.20675491269526 0 0 -0.707842623532472 0 0 0 0 0 0 0 0 0 0 0 0 -0.302541188751394 0 0 0 0 0 0 0 0 -1.4046388101838 0 0 0 0 0 0 0 0 0 0 0 0 0 0 0
0 0 0.226659007133777 0.0668917163803036 0.0941294813578629 0.0368372011910346 0 0 0 0 -0.20675491269526 0 0 0 0 0 0 0 0 -0.105052848789923 0 0 0 -0.510077186484669 0 0 0 0 0 0 0 0 0 0 0 0 0 0 0 0 0 0 0 0 -3.98636372116401 0 0 0 0 0
0 0 0 0 0 0 0 0 0 0 0 -0.20675491269526 0 0 0 0 -1.15680483058398 -1.35433339343553 0 -0.412836286402862 0 0 0 0 0 0 0 0 0 0 0 0 0 0 0 0 0 0 0 0 0 0 0 0 -0.331323415393494 0 0 0 0 0
0 0 0 0 0 0 0 0 0 0.127388727021415 0 0 -0.20675491269526 0 0 0 -4.48244811834421 -2.18255536636813 0 -0.297397905147249 0 0 0 0 0 0 0 0 0 0 0 0 0 0 0 0 0 0 0 0 0 0 0 0 -1.58205140323435 0 0 0 0 0
0 0 0 0 0 0 0 0 0 0 0 0 0 -0.20675491269526 0 0 -2.00159164411598 -2.64715715104228 0 0 0 0 0 0 0 0 0 0 0 0 0 0 0 0 0 0 0 0 0 0 0 0 0 0 -0.71836387415848 0 0 0 0 0
0 0 0 0 0 0 0 0 0 0 0 0 0 0 -0.20675491269526 0 0 -0.500567352757753 0 0 0 0 -0.582864339792312 0 0 0 0 0 0 0 0 0 0 0 0 0 0 0 0 0 0 0 0 0 -1.55859682450457 0 0 0 0 0
0 0 0 0 0 0 0 0.296502697526327 0 0 0 0 0 0 0 -0.20675491269526 0 -2.79071169093607 0 0 -0.19132649419339 0 -0.347757482562287 0 0 0 0 0 0 0 0 0 0 0 0 0 0 0 0 0 0 0 0 0 -0.613553731647573 0 0 0 0 0
0 0 0 0 0 0 0 0 0 0 0 0.202433015173244 0.890598844063948 0.390165437447129 0 0 -0.20675491269526 -1.42888774720459 0 0 -0.0867456146114587 0 -0.398472363546472 0 0 0 0 0 0 0 0 0 0 0 0 0 0 0 0 0 0 0 0 0 -2.47052967054844 0 0 0 0 0
0 0 0 0 0 0 0 0 0 0 0 0.259274719125929 0.412133837943253 0.506010749924607 0.107636529620919 0.582844108231657 0.287312700295368 -0.20675491269526 0 0 -0.645312294242395 0 0 0 0 0 0 0 0 0 0 0 0 0 0 0 0 0 0 0 0 0 0 0 -0.881552341468613 0 0 -3.26868910575699 0 0
0 0 0 0 0 0 0 0 0 0 0 0 0 0 0 0 0 0 -0.20675491269526 0 -0.485044520928551 0 0 0 0 0 0 0 0 0 0 0 0 0 0 0 0 0 0 0 0 0 0 0 -1.46904466671287 0 0 -1.15268992386685 0 0
0 0 0 0 0 0 0 0 0 0 0.0207218146880429 0.0788725757605122 0.0554101305751648 0 0 0 0 0 0 -0.20675491269526 -1.27561761694502 0 0 0 0 0 0 0 0 0 0 0 0 0 0 0 0 0 0 0 0 0 0 0 -1.04938511790225 0 0 -0.281697761094775 0 0
0 0 0 0 0 0 0 0 0 0 0 0 0 0 0 0.0396456958895434 0.0164380080808367 0.127534180662432 0.0989660084247918 0.237732037530661 -0.20675491269526 0.0949269865919352 0.256652600227865 0 0 0 0 0 0 0 0 0 0 0 0 0 0 0 0 -3.05218138685483 0 0 0 0 -0.295849529640272 0 0 -0.963883751587314 0 0
0 0 0 0 0 0 0 0 0 0 0 0 0 0 0 0 0 0 0 0 -0.447318083040049 -0.20675491269526 0 0 0 0 0 0 0 0 0 0 0 0 0 0 0 0 0 -0.705874405259906 0 0 0 0 -0.582528692148339 0 -4.07703050979905 -1.51190572851975 0 0
0 0 0 0 0 0 0 0 0 0 0 0 0 0 0.116699204799085 0.0695706806390351 0.0822514853876416 0 0 0 -1.37631490442179 0 -0.20675491269526 0 0 0 0 0 0 0 0 0 0 0 0 0 0 0 0 -0.314689617744064 0 0 0 0 -1.5693925024828 0 -1.20321464468795 -0.387959789102198 0 0
0 0 0 0 0 0 0 0 0 0 0.109051658184269 0 0 0 0 0 0 0 0 0 0 0 0 -0.20675491269526 0 0 0 0 0 0 0 0 0 0 0 0 0 0 0 -3.35191619776589 0 0 0 0 -1.34520434304215 0 -1.11819365549963 -0.26955537272817 0 0
0 0 0 0 0 0 0 0 0 0 0 0 0 0 0 0 0 0 0 0 0 0 0 0 -0.20675491269526 0 0 0 0 0 0 0 0 0 0 0 0 0 0 -0.753816626691662 0 0 0 0 0 -1.09687908766746 -0.381115455131405 0 0 0
0 0 0 0 0 0 0.248405765589233 0.0543676559887281 0.142547576895725 0.0599108848109125 0 0 0 0 0 0 0 0 0 0 0 0 0 0 0 -0.20675491269526 0 0 0 0 0 0 0 0 0 0 0 0 0 -1.0676861072777 0 0 0 0 0 -2.12527885712175 -1.11223978172866 0 0 0
0.093698005858532 0.0337038170158718 0.0360501117019737 0.321782274434719 0.115431433545297 0.164097081095561 0.169162160378591 0.104067431553475 0 0 0 0 0 0 0 0 0 0 0 0 0 0 0 0 0 0 -0.20675491269526 0 0 0 0 0 0 0 0 0 0 0 0 -0.837349150750094 0 0 0 0 0 -4.87184005758319 -1.58932599500062 0 0 0
0 0 0 0 0 0 0 0 0 0 0 0 0 0 0 0 0 0 0 0 0 0 0 0 0 0 0 -0.20675491269526 0 0 0 0 0 -1.14348597069301 0 0 -2.49261105265267 0 0 0 0 0 0 0 0 0 0 0 -1.65944056503443 0
0 0 0 0 0 0 0 0.796818351583675 0 0 0 0 0 0 0 0 0 0 0 0 0 0 0 0 0 0 0 0 -0.20675491269526 0 0 0 0 0 0 0 -0.607183670215404 0 0 0 0 0 0 0 0 0 0 0 -4.70805399941749 0
0 0 0 0 0 0 0 0 0 0 0 0 0 0 0 0 0 0 0 0 0 0 0 0 0 0 0 0 0 -0.20675491269526 0 0 0 0 0 0 -1.42584985111205 0 0 0 0 0 -0.38453999517541 0 0 0 0 0 -0.571808775054949 0
0 0 0 0 0 0 0 0.141566606074411 0 0 0 0 0 0 0 0 0 0 0 0 0 0 0 0 0 0 0 0 0 0 -0.20675491269526 0 0 0 0 0 0 0 0 0 0 0 -0.273289491226112 0 0 0 0 0 -0.7109531196207 0
0 0 0 0 0 0 0 0 0 0 0 0 0 0 0 0 0 0 0 0 0 0 0 0 0 0 0 0 0 0 0 -0.20675491269526 0 0 0 0 0 0 0 0 0 0 -0.361321334713855 0 0 0 0 0 -0.308602265043835 0
0 0 0 0 0 0 0 0 0 0 0 0 0 0 0 0 0 0 0 0 0 0 0 0 0 0 0 0 0 0 0 0 -0.20675491269526 0 0 0 0 0 0 0 0 0 0 0 0 0 0 0 -0.150893049603652 0
0 0 0 0 0 0 0 0 0 0 0 0 0 0 0 0 0 0 0 0 0 0 0 0 0 0 0 0.235187608703569 0 0 0 0 0 -0.20675491269526 0 0 0 0 0 0 0 0 0 0 0 0 0 0 -1.20415409334138 0
0 0 0 0 0 0 0 0 0.14809632950523 0.268041076353868 0 0 0 0 0 0 0 0 0 0 0 0 0 0 0 0 0 0 0 0 0 0 0 0 -0.20675491269526 0 0 0 0 0 0 0 0 0 0 0 0 0 -4.64251883560522 0
0 0 0 0 0 0 0 0 0 0 0 0 0 0 0 0 0 0 0 0 0 0 0 0 0 0 0 0 0 0 0 0 0 0 0 -0.20675491269526 0 0 0 0 0 0 0 0 0 0 0 0 -0.472731528641748 0
0 0 0 0 0 0 0 0 0 0 0 0 0 0 0 0 0 0 0 0 0 0 0 0 0 0 0 0.525619008940556 0.112864615832573 0.305622316601032 0 0 0 0 0 0 -0.20675491269526 0 0 0 0 0 0 0 0 0 0 0 -2.47848488216409 0
0 0 0 0 0 0 0 0 0 0 0 0 0 0 0 0 0 0 0 0 0 0 0 0 0 0 0 0 0 0 0 0 0 0 0 0 0 -0.20675491269526 0 0 0 0 0 0 0 0 0 0 -3.83741544504121 0
0 0 0 0 0 0 0.228707364512081 0.0415183409585203 0.0598192716820558 0 0 0 0 0 0 0 0 0 0 0 0 0 0 0 0 0 0 0 0 0 0 0 0 0 0 0 0 0 -0.20675491269526 0 0 0 0 0 0 0 0 0 -0.64009853881651 0
0 0 0 0 0 0 0 0 0 0 0 0 0 0 0 0 0 0 0 0 0.624544623771539 0.143338471976866 0.0645986924709751 0.673411274214305 0.149558165108465 0.20071644771843 0.165154994943566 0 0 0 0 0 0 0 0 0 0 0 0 -0.20675491269526 0 0 0 0 0 0 0 0 -1.98728013075861 0
0 0 0 0 0 0 0 0 0 0 0 0 0 0 0 0 0 0 0 0 0 0 0 0 0 0 0 0 0 0 0 0 0 0 0 0 0 0 0 0 -0.20675491269526 0 0 0 0 0 0 0 -0.387161688455303 0
0 0 0 0 0 0 0.108560341067708 0 0 0 0 0 0 0 0 0 0 0 0 0 0 0 0 0 0 0 0 0 0 0 0 0 0 0 0 0 0 0 0 0 0 -0.20675491269526 0 0 0 0 0 0 -0.145408802908615 0
0 0 0 0 0 0 0 0 0 0 0 0 0 0 0 0 0 0 0 0 0 0 0 0 0 0 0 0 0 0.0782352845426132 0.0545997091432277 0.0754607608516605 0 0 0 0 0 0 0 0 0 0 -0.20675491269526 0 0 0 0 0 -1.25158718403274 0
0 0 0 0 0 0 0 0 0 0 0 0 0 0 0 0 0 0 0 0 0 0 0 0 0 0 0 0 0 0 0 0 0 0 0 0 0 0 0 0 0 0 0 -0.20675491269526 0 0 0 0 -0.802324071407337 0
0 0 0 0 0 0 0 0 0 0 0.840806483117294 0.0740720690954889 0.322443206042053 0.140234703635916 0.320923437223458 0.126610919692595 0.503164748918167 0.166348578093831 0.304256230063213 0.218204197407294 0.0573709508793789 0.108885436982872 0.306479645055391 0.271628533663105 0 0 0 0 0 0 0 0 0 0 0 0 0 0 0 0 0 0 0 0 -0.20675491269526 0 0 0 0 0
0 0 0 0 0 0 0 0 0 0 0 0 0 0 0 0 0 0 0 0 0 0 0 0 0.215088137482711 0.471568568518088 0.979636958562955 0 0 0 0 0 0 0 0 0 0 0 0 0 0 0 0 0 0 -0.20675491269526 0 0 0 0
0 0 0 0 0 0 0 0 0 0 0 0 0 0 0 0 0 0 0 0 0 0.836060889247509 0.256083099016905 0.220749911280599 0.0753692088744345 0.247049291697149 0.311663784934809 0 0 0 0 0 0 0 0 0 0 0 0 0 0 0 0 0 0 0 -0.20675491269526 0 0 0
0 0 0 0 0 0 0 0 0 0 0 0 0 0 0 0 0 0.701689287141048 0.22236789123841 0.0568038324138237 0.195099786105852 0.321259316765925 0.0781547151842602 0.0542511486320997 0 0 0 0 0 0 0 0 0 0 0 0 0 0 0 0 0 0 0 0 0 0 0 -0.20675491269526 0 -3.80703063060833
0 0 0 0 0 0 0 0 0 0 0 0 0 0 0 0 0 0 0 0 0 0 0 0 0 0 0 0.334555069614811 0.930595527354985 0.104693981926932 0.145983182010365 0.0599996065147512 0.0293774566738363 0.244648359292594 0.946823522400767 0.0924616784018909 0.476458713435561 0.75803257247979 0.125680447257345 0.362774799493809 0.0772636599499375 0.0283889342593255 0.262162657413789 0.161070214449139 0 0 0 0 -0.20675491269526 0
0 0 0 0 0 0 0 0 0 0 0 0 0 0 0 0 0 0 0 0 0 0 0 0 0 0 0 0 0 0 0 0 0 0 0 0 0 0 0 0 0 0 0 0 0 0 0 0.748884007448893 0 -0.20675491269526
