-0.130533833010863 0 0 0 0 0 0 0 0 0 0 0 0 0 0 0 0 0 0 0 0 0 -1.33977616822104 0 0 0 0 0 0 0 0 0 0 0 0 0 0 0 0 0 0 0 0 0 0 0 0 0 0 0
0 -0.130533833010863 0 0 0 0 0 0 0 0 0 0 0 0 0 0 0 0 0 0 0 0 -0.339985401713189 0 0 0 0 0 0 0 0 0 0 0 0 0 0 0 0 0 0 0 0 0 -2.90323031606012 0 0 0 0 0
0 0 -0.130533833010863 0 0 0 0 0 0 -3.12728668847004 -0.710300421326581 0 0 -1.6804889899504 0 0 -2.04270003983392 0 0 0 0 0 -1.16031719759409 0 0 0 0 0 0 0 0 0 0 0 0 0 0 0 0 0 0 0 0 0 -0.232540434077679 0 0 0 0 0
0 0 0 -0.130533833010863 0 0 0 0 0 0 0 0 0 0 0 0 0 0 0 0 0 0 0 0 0 0 -1.60719589813875 -2.26467604081209 0 0 0 0 0 0 0 0 0 0 0 0 0 0 0 0 0 0 0 0 0 0
0 0 0 0 -0.130533833010863 0 0 0 0 0 0 0 0 0 0 0 0 0 0 0 0 0 0 0 0 0 -1.228328631427 -0.405291432993633 0 0 0 0 0 0 0 0 0 0 0 0 0 0 0 0 0 0 0 0 0 0
0 0 0 0 0 -0.130533833010863 0 0 0 0 0 0 0 0 0 0 0 0 0 0 0 0 0 0 0 0 -1.27370027399072 -1.92917485751767 0 0 0 0 0 0 0 0 0 0 0 0 0 0 0 -0.631997112824484 0 0 0 0 0 0
0 0 0 0 0 0 -0.130533833010863 0 0 0 0 0 0 0 0 0 0 0 0 0 0 0 0 -3.98420280255104 0 0 0 0 0 0 0 0 0 0 0 0 0 0 0 0 0 0 0 -2.0825957066097 0 0 0 -0.47704826784151 0 0
0 0 0 0 0 0 0 -0.130533833010863 0 0 0 0 0 0 -2.82165644146698 0 0 0 0 0 0 0 0 -1.00580471151719 0 0 0 0 0 0 0 0 0 0 0 0 0 0 0 0 0 0 0 -4.88004316758748 0 0 0 -0.512038141425547 0 0
0 0 0 0 0 0 0 0 -0.130533833010863 0 0 0 0 0 0 0 0 -0.151503297912127 -1.03661057020711 0 0 0 0 -1.63651828525455 0 0 0 0 0 0 0 0 0 0 0 -2.30363700569209 0 0 0 0 0 0 0 0 0 0 0 -0.669903677643925 0 0
0 0 0.631744380577962 0 0 0 0 0 0 -0.130533833010863 0 0 0 0 0 0 0 0 0 0 0 0 0 -1.45937124125386 0 -1.14756458517848 0 0 0 0 0 0 0 0 0 -0.455820287945106 0 0 0 0 0 0 0 0 0 0 0 -1.08428618553516 -1.82807267381504 0
0 0 0.151078258557254 0 0 0 0 0 0 0 -0.130533833010863 0 0 0 0 0 0 0 0 0 0 0 0 -0.155282548014673 0 -2.10016934980573 0 0 0 0 -5.84094382616841 0 0 0 0 -2.05634753855785 0 0 0 0 0 0 0 0 0 0 0 -0.898725949105186 -1.0358170805879 0
0 0 0 0 0 0 0 0 0 0 0 -0.130533833010863 -0.305314492340562 0 0 0 0 0 0 0 0 0 0 -2.86448179616653 0 -2.33969627662548 0 0 0 0 0 0 0 0 0 -0.766944589635766 0 0 0 0 0 0 0 0 0 0 0 -1.12284953367841 0 0
0 0 0 0 0 0 0 0 0 0 0 0.0639180070506301 -0.130533833010863 0 0 0 0 0 0 0 0 0 0 0 0 -0.622013625562783 0 0 0 0 0 0 0 0 0 -0.699237451914129 0 0 0 0 0 0 0 0 0 0 0 -0.755492717324384 0 -1.85157449949991
0 0 0.339507473124978 0 0 0 0 0 0 0 0 0 0 -0.130533833010863 0 0 0 0 0 0 0 0 0 0 0 -0.622375756072448 0 0 0 0 0 0 0 0 0 -0.109684378330516 0 0 0 0 0 0 0 0 0 0 0 -3.64930759245523 0 -0.454242408118296
0 0 0 0 0 0 0 0.557213882219375 0 0 0 0 0 0 -0.130533833010863 0 0 0 0 0 0 0 0 0 0 -0.790194264558455 0 0 0 0 0 0 0 0 0 -0.386110287982683 0 0 0 0 0 0 0 0 0 0 0 -0.109481139530669 0 -0.452922710491988
0 0 0 0 0 0 0 0 0 0 0 0 0 0 0 -0.130533833010863 0 0 0 0 0 0 0 0 0 -0.9913075011412 0 0 0 0 0 0 0 0 0 -1.47773254325459 0 0 0 0 0 0 0 0 0 0 0 0 0 -1.09474946841579
0 0 0.414514231877624 0 0 0 0 0 0 0 0 0 0 0 0 0 -0.130533833010863 0 0 0 0 0 0 0 0 0 0 0 0 0 0 0 0 -6.06494023412469 0 -0.612658279658463 0 0 0 0 0 0 0 0 0 0 0 0 0 0
0 0 0 0 0 0 0 0 0.029917357753487 0 0 0 0 0 0 0 0 -0.130533833010863 0 0 0 0 0 0 -0.655383839917557 0 0 0 0 0 0 0 0 -0.669187666683534 0 -0.181264061758372 0 0 0 0 0 0 0 0 0 0 0 0 0 0
0 0 0 0 0 0 0 0 0.218628668158255 0 0 0 0 0 0 0 0 0 -0.130533833010863 0 0 0 0 0 0 0 0 0 0 -0.411544915702683 0 -0.654814989965483 0 0 0 0 0 0 0 -1.40985239701924 -1.20573459251889 0 0 0 0 0 0 0 0 0
0 0 0 0 0 0 0 0 0 0 0 0 0 0 0 0 0 0 0 -0.130533833010863 0 0 0 0 0 0 0 0 0 -11.1560045038594 0 -0.477585677533608 0 0 0 0 0 0 0 -0.59386945607039 -0.386532289758237 0 0 0 0 0 0 0 0 0
0 0 0 0 0 0 0 0 0 0 0 0 0 0 0 0 0 0 0 0 -0.130533833010863 0 0 0 0 0 0 0 0 -1.27202734275201 0 -3.03528529701709 0 0 0 0 0 0 0 -0.0984752707248216 -2.48527526061209 0 0 0 0 0 0 0 0 0
0 0 0 0 0 0 0 0 0 0 0 0 0 0 0 0 0 0 0 0 0 -0.130533833010863 0 0 0 0 0 0 0 -0.5495607105433 0 0 0 0 0 0 0 0 0 -0.195838700419217 0 0 0 0 0 0 0 0 0 0
0.259632468892079 0.0658103370178081 0.24817593004669 0 0 0 0 0 0 0 0 0 0 0 0 0 0 0 0 0 0 0 -0.130533833010863 0 0 0 0 0 0 -1.41846735633994 0 0 0 0 0 0 0 0 0 -0.884522723333929 0 0 0 0 0 0 0 0 0 0
0 0 0 0 0 0 0.841306644960203 0.202209748948319 0.325707099684032 0.291972104986139 0.0317968905607271 0.534953762977138 0 0 0 0 0 0 0 0 0 0 0 -0.130533833010863 0 0 0 0 0 -1.18855605682748 0 0 0 0 0 0 0 0 0 -1.26182597184078 0 0 0 0 0 0 0 0 0 0
0 0 0 0 0 0 0 0 0 0 0 0 0 0 0 0 0 0.124120877752908 0 0 0 0 0 0 -0.130533833010863 0 0 0 0 0 0 0 0 0 0 0 0 0 0 -1.58288164492459 0 0 0 0 0 0 0 0 0 0
0 0 0 0 0 0 0 0 0 0.229371273135787 0.415994582051447 0.480508834069192 0.111052645404829 0.125495494626126 0.163477294056636 0.205679274126609 0 0 0 0 0 0 0 0 0 -0.130533833010863 0 0 0 0 0 0 -3.70607155949714 0 0 0 0 0 0 -1.51201169632536 0 0 0 0 0 0 0 0 0 0
0 0 0 0.314186970706811 0.243824259766828 0.24866417048067 0 0 0 0 0 0 0 0 0 0 0 0 0 0 0 0 0 0 0 0 -0.130533833010863 0 0 0 0 0 -0.324351909267563 0 0 0 0 0 0 -0.672714694108265 0 0 0 0 0 0 0 0 0 0
0 0 0 0.471145503207256 0.0832076630617577 0.368999394858732 0 0 0 0 0 0 0 0 0 0 0 0 0 0 0 0 0 0 0 0 0 -0.130533833010863 0 0 0 0 -0.375056513722666 0 0 0 0 0 0 -2.30624785017861 0 0 0 0 0 0 0 0 0 0
0 0 0 0 0 0 0 0 0 0 0 0 0 0 0 0 0 0 0 0 0 0 0 0 0 0 0 0 -0.130533833010863 0 0 0 -7.77981358837797 0 0 0 0 0 0 -0.914593769503729 0 0 0 0 0 0 0 0 0 0
0 0 0 0 0 0 0 0 0 0 0 0 0 0 0 0 0 0 0.0784692417454934 2.20155984343243 0.25458098360797 0.10969239779751 0.286019581406943 0.213464512834818 0 0 0 0 0 -0.130533833010863 0 0 -1.64045711771836 0 0 0 0 0 0 0 0 0 0 0 0 0 0 0 0 0
0 0 0 0 0 0 0 0 0 0 1.21934462213424 0 0 0 0 0 0 0 0 0 0 0 0 0 0 0 0 0 0 0 -0.130533833010863 0 -0.673119885686321 0 0 0 0 -0.420870414076087 0 0 0 0 0 0 0 0 0 0 0 0
0 0 0 0 0 0 0 0 0 0 0 0 0 0 0 0 0 0 0.124019978372897 0.0955705483485769 0.646462606989864 0 0 0 0 0 0 0 0 0 0 -0.130533833010863 -0.271574512413414 0 0 0 0 -1.95311040054877 0 0 0 0 0 0 0 0 0 0 0 0
0 0 0 0 0 0 0 0 0 0 0 0 0 0 0 0 0 0 0 0 0 0 0 0 0 0.76674982053504 0.0649117259138593 0.0755623986634305 1.51769979008156 0.334909097899935 0.123392775362368 0.0552414014778125 -0.130533833010863 0 -2.50833936037402 0 -0.304060309592339 0 -0.756840844210081 0 0 0 0 0 0 0 0 0 0 0
0 0 0 0 0 0 0 0 0 0 0 0 0 0 0 0 1.1614604320101 0.154726040335848 0 0 0 0 0 0 0 0 0 0 0 0 0 0 0 -0.130533833010863 -0.591771948128598 0 -2.29343689880478 0 -0.586904476965283 0 0 0 0 0 0 0 0 0 0 0
0 0 0 0 0 0 0 0 0 0 0 0 0 0 0 0 0 0 0 0 0 0 0 0 0 0 0 0 0 0 0 0 0.506022043680029 0.121416496261094 -0.130533833010863 0 -0.586246807373054 0 0 0 0 0 0 0 0 0 0 0 0 0
0 0 0 0 0 0 0 0 0.507904455357746 0.0873616002474936 0.423826078544777 0.163841652247375 0.1441907110203 0.0230484542648665 0.0774268564761891 0.295647010802417 0.111734912970525 0.0340263168966113 0 0 0 0 0 0 0 0 0 0 0 0 0 0 0 0 0 -0.130533833010863 -9.51024065183386 0 0 0 0 0 0 0 0 0 0 0 0 0
0 0 0 0 0 0 0 0 0 0 0 0 0 0 0 0 0 0 0 0 0 0 0 0 0 0 0 0 0 0 0 0 0.0603211390957282 0.46431354548167 0.112048659675253 2.01320702834347 -0.130533833010863 0.392928243295502 0.970270479597253 0.219505305459852 0 0 0 0 0 0 0 0 0 0
0 0 0 0 0 0 0 0 0 0 0 0 0 0 0 0 0 0 0 0 0 0 0 0 0 0 0 0 0 0 0.0902088310958702 0.391530720297958 0 0 0 0 -2.03699835123059 -0.130533833010863 0 0 0 0 0 0 0 0 0 0 0 0
0 0 0 0 0 0 0 0 0 0 0 0 0 0 0 0 0 0 0 0 0 0 0 0 0 0 0 0 0 0 0 0 0.155041564880252 0.118810005147658 0 0 -4.3012663839502 0 -0.130533833010863 0 0 0 0 0 0 0 0 0 0 0
0 0 0 0 0 0 0 0 0 0 0 0 0 0 0 0 0 0 0.281082022779558 0.123469919085081 0.0203798024095016 0.0370618512355665 0.173784480549005 0.257475472764795 0.322980084283319 0.301230681684291 0.138067061449776 0.448694344444167 0.175055043344996 0 0 0 0 0 0 0 -1.13596571439466 0 0 -0.130533833010863 0 0 0 0 0 0 -3.49078176994931 0 0 0
0 0 0 0 0 0 0 0 0 0 0 0 0 0 0 0 0 0 0.248716486021572 0.081181435526575 0.497818297200888 0 0 0 0 0 0 0 0 0 0 0 0 0 0 0 0 0 0 0 -0.130533833010863 0 0 0 0 0 -3.43268029115729 0 0 0
0 0 0 0 0 0 0 0 0 0 0 0 0 0 0 0 0 0 0 0 0 0 0 0 0 0 0 0 0 0 0 0 0 0 0 0 0 0 0 0 0 -0.130533833010863 0 0 0 0 -0.665043723221382 0 0 0
0 0 0 0 0 0 0 0 0 0 0 0 0 0 0 0 0 0 0 0 0 0 0 0 0 0 0 0 0 0 0 0 0 0 0 0 0 0 0 0 0 0 -0.130533833010863 0 0 0 -0.233849797842877 0 0 0
0 0 0 0 0 0.120750429695618 0.415849317423647 1.01679783798424 0 0 0 0 0 0 0 0 0 0 0 0 0 0 0 0 0 0 0 0 0 0 0 0 0 0 0 0 0 0 0 0 0 0 0 -0.130533833010863 0 0 -5.15004848256182 0 0 0
0 0.595875400668492 0.0457169947576311 0 0 0 0 0 0 0 0 0 0 0 0 0 0 0 0 0 0 0 0 0 0 0 0 0 0 0 0 0 0 0 0 0 0 0 0 0 0 0 0 0 -0.130533833010863 -1.59552735117981 0 0 0 0
0 0 0 0 0 0 0 0 0 0 0 0 0 0 0 0 0 0 0 0 0 0 0 0 0 0 0 0 0 0 0 0 0 0 0 0 0 0 0 0 0 0 0 0 0.288744071208869 -0.130533833010863 0.13033746630697 0 0 0
0 0 0 0 0 0 0 0 0 0 0 0 0 0 0 0 0 0 0 0 0 0 0 0 0 0 0 0 0 0 0 0 0 0 0 0 0 0 0 0.730661535012714 0.697799811245975 0.13033034491528 0.0480500187707606 1.03401921758596 0 -0.614148276108412 -0.130533833010863 0 0 0
0 0 0 0 0 0 0.0999078302097089 0.102395767746118 0.146900991073217 0.202932537875089 0.184571087101619 0.22762397135959 0.147179950906689 0.842588559657427 0.0211523654293233 0 0 0 0 0 0 0 0 0 0 0 0 0 0 0 0 0 0 0 0 0 0 0 0 0 0 0 0 0 0 0 0 -0.130533833010863 0 0
0 0 0 0 0 0 0 0 0 0.360160268672766 0.216467278598067 0 0 0 0 0 0 0 0 0 0 0 0 0 0 0 0 0 0 0 0 0 0 0 0 0 0 0 0 0 0 0 0 0 0 0 0 0 -0.130533833010863 0
0 0 0 0 0 0 0 0 0 0 0 0 0.350933839582219 0.093342366532252 0.0907737990586313 0.208711552567042 0 0 0 0 0 0 0 0 0 0 0 0 0 0 0 0 0 0 0 0 0 0 0 0 0 0 0 0 0 0 0 0 0 -0.130533833010863
