-0.231869769101241 0 0 0 0 0 0 0 0 0 0 0 0 0 0 0 0 0 0 0 0 0 0 0 0 -7.31036123260205 0 0 0 0 0 0 0 0 0 0 0 0 0 0 0 0 0 0 0 0 0 -1.06896008144208 -1.25137549633087 0
0 -0.231869769101241 0 0 0 -0.714161729419254 0 0 0 0 -1.05646035712164 0 0 0 0 0 0 0 0 0 0 0 0 0 0 -1.16228224655639 0 0 0 0 0 0 0 -0.312573220292373 0 0 0 0 0 0 0 0 0 0 0 0 0 -0.166961051704555 -0.363952532189895 0
0 0 -0.231869769101241 0 0 0 0 0 0 0 0 0 0 0 0 0 0 0 0 0 0 0 -0.759438912531772 0 0 -1.08360779786569 0 0 0 0 0 0 0 0 0 0 0 0 0 0 0 -3.69221770039516 0 0 0 0 0 -2.07677909469447 -2.2117680366337 0
0 0 0 -0.231869769101241 0 0 0 0 0 0 0 0 0 0 0 0 0 0 0 0 0 0 -0.446869903682955 0 0 -0.50758016753407 0 0 0 0 0 0 0 0 0 0 0 0 0 0 0 -0.271742442750226 0 0 0 0 0 -0.809917291688621 -1.81407231064435 0
0 0 0 0 -0.231869769101241 0 0 0 0 0 0 0 0 0 -3.19515875113385 0 0 0 0 0 0 0 0 0 0 -1.52595898416796 0 0 -4.19647953894421 0 0 0 0 0 0 0 0 0 0 0 0 -0.734976723954761 0 0 0 0 0 -1.32188416437633 -4.32640481469475 0
0 0.151241771056239 0 0 0 -0.231869769101241 0 0 0 0 0 0 0 0 -0.490840985984914 0 0 0 0 0 0 0 0 0 0 -0.568735188774211 0 0 -1.12247661188053 0 0 0 0 0 0 0 0 0 0 0 0 -1.68151712614852 0 0 0 0 0 -0.593948724352428 -1.23605208790849 0
0 0 0 0 0 0 -0.231869769101241 0 0 0 0 0 0 0 -0.31989287857075 0 0 0 0 0 0 0 0 0 0 -0.338011810860456 0 0 -1.25104471016809 0 0 0 0 0 0 0 0 0 0 0 0 -0.480088751639093 0 0 0 0 0 -1.7437336980335 -1.27365504240561 0
0 0 0 0 0 0 0 -0.231869769101241 0 0 0 0 0 0 0 0 0 0 0 0 0 0 0 -1.16572341353711 0 0 0 0 0 0 0 0 0 0 0 0 0 0 0 0 0 0 0 0 0 0 0 0 -2.18637673910659 0
0 0 0 0 0 0 0 0 -0.231869769101241 -5.41485476126729 0 0 0 0 0 0 0 0 0 0 0 0 0 -0.833235984959359 0 0 0 0 0 0 0 0 0 0 0 0 0 0 0 0 0 0 0 0 0 0 0 0 0 0
0 0 0 0 0 0 0 0 1.07408579266945 -0.231869769101241 0 0 0 0 0 -0.386206110164639 0 -5.92279781834934 -1.82646923880819 0 0 0 0 0 0 0 0 0 0 0 -0.651143490682576 0 0 0 0 0 0 0 0 0 0 0 0 0 0 0 0 0 0 0
0 0.202886044478656 0 0 0 0 0 0 0 0 -0.231869769101241 0 0 0 0 0 0 0 -4.25462102197664 0 0 0 0 0 0 0 0 0 0 0 -0.483912586744209 0 -0.908878095093278 0 0 0 0 0 0 0 0 0 0 0 0 0 0 0 0 0
0 0 0 0 0 0 0 0 0 0 0 -0.231869769101241 0 0 0 0 0 0 -0.0460124129919192 0 0 0 0 0 0 0 0 0 0 0 0 0 -1.24797761924171 0 0 0 0 0 0 0 0 0 0 0 0 0 0 0 0 0
0 0 0 0 0 0 0 0 0 0 0 0 -0.231869769101241 0 0 0 0 0 -4.03991560915542 0 0 0 0 0 0 0 0 0 0 0 0 0 -0.629728967545949 0 0 0 0 0 0 0 0 0 0 0 0 0 0 0 0 0
0 0 0 0 0 0 0 0 0 0 0 0 0 -0.231869769101241 0 0 0 0 -0.384373522625794 0 0 0 0 0 -0.740738612876648 0 0 0 0 0 0 0 -0.922144499032528 0 0 0 0 0 0 0 0 0 0 0 0 0 0 0 0 0
0 0 0 0 0.634349605165857 0.097572080719523 0.0660851825712763 0 0 0 0 0 0 0 -0.231869769101241 0 0 0 -0.24424346380576 -0.912182786564809 0 0 0 0 -7.05421620812043 0 0 0 0 0 0 0 0 0 0 0 0 0 0 0 0 0 0 0 0 0 0 0 0 0
0 0 0 0 0 0 0 0 0 0.0764033128757663 0 0 0 0 0 -0.231869769101241 -0.325712298200521 0 0 0 0 0 0 0 -2.92743441981535 0 0 0 0 0 0 0 0 0 0 0 -0.108231332156391 0 0 0 0 0 0 0 0 0 0 0 0 0
0 0 0 0 0 0 0 0 0 0 0 0 0 0 0 0.063412151805209 -0.231869769101241 0 0 0 0 0 0 0 -0.78734569577871 0 0 0 0 0 0 0 0 0 0 0 -2.22169390514755 0 0 0 0 0 0 0 0 -2.02461858046071 0 0 0 0
0 0 0 0 0 0 0 0 0 1.20235766326859 0 0 0 0 0 0 0 -0.231869769101241 0 0 0 0 0 0 -0.674586276871349 0 0 0 0 0 0 0 0 0 0 0 -0.341658477568061 0 0 0 -0.700159070918441 0 0 0 0 -0.246137595623204 0 0 0 0
0 0 0 0 0 0 0 0 0 0.363098725432985 0.87936373901999 0.00860520303985786 0.801844895376802 0.0753485703814486 0.0451468947733814 0 0 0 -0.231869769101241 0 0 0 0 0 -2.1150856907374 0 0 0 0 0 0 0 0 0 0 0 -0.470303174786446 0 0 0 -3.42092773931253 0 0 0 0 -2.59374666818091 0 0 0 0
0 0 0 0 0 0 0 0 0 0 0 0 0 0 0.179227441403528 0 0 0 0 -0.231869769101241 0 0 0 0 0 0 0 -1.49367493694385 0 0 0 0 0 0 -0.214196341806381 0 0 0 0 0 0 0 0 -1.84075689383061 0 0 0 0 0 0
0 0 0 0 0 0 0 0 0 0 0 0 0 0 0 0 0 0 0 0 -0.231869769101241 0 0 0 0 0 0 -0.2392824786341 0 0 0 0 0 0 -0.745643224058073 0 0 0 0 -0.367275999845778 0 0 0 -3.60780257223473 0 0 0 0 0 0
0 0 0 0 0 0 0 0 0 0 0 0 0 0 0 0 0 0 0 0 0 -0.231869769101241 0 0 0 0 -4.1710551701749 -3.0326312864454 0 0 0 0 0 0 -1.56445505934269 0 0 0 0 -2.61671039941552 0 0 0 0 0 0 0 0 0 0
0 0 0.139332736043437 0.092774879436277 0 0 0 0 0 0 0 0 0 0 0 0 0 0 0 0 0 0 -0.231869769101241 0 0 0 -0.289566751163168 0 0 0 0 0 0 0 -0.603750148183478 0 0 0 0 -0.438898744305014 0 0 0 0 0 0 0 0 0 0
0 0 0 0 0 0 0 0.23055511410677 0.173375937253027 0 0 0 0 0 0 0 0 0 0 0 0 0 0 -0.231869769101241 0 0 -3.1705156288898 0 0 0 0 0 0 0 -0.709083364005955 0 0 0 0 -0.252617057707563 0 0 0 0 0 0 0 0 0 0
0 0 0 0 0 0 0 0 0 0 0 0 0 0.157490903809441 1.40157392538031 0.630485777891816 0.156856666702476 0.136134142923705 0.416332856273126 0 0 0 0 0 -0.231869769101241 0 -2.22207021830561 0 0 0 0 -0.317159927358678 0 0 0 0 0 0 -0.619424332701965 -2.50459758703033 0 0 0 0 0 0 0 0 0 0
1.47559976785646 0.224905194283658 0.207766072712744 0.0956969448514151 0.310495800850144 0.118203203229395 0.0659335031849559 0 0 0 0 0 0 0 0 0 0 0 0 0 0 0 0 0 0 -0.231869769101241 -0.750179714544076 0 0 0 0 0 0 0 0 -0.332482575772186 0 0 0 0 0 0 -1.37401379532658 0 0 0 0 0 0 0
0 0 0 0 0 0 0 0 0 0 0 0 0 0 0 0 0 0 0 0 0 0.79244505941624 0.0542317576544204 0.645096184604014 0.421155670573701 0.151342558230102 -0.231869769101241 0.322028066010006 0.0916707482500088 0.0643152361514363 0.0461481780974317 0.889984325791042 0 0 0 -0.635439730421976 0 0 0 0 0 0 -2.85316383041844 0 0 0 0 0 0 0
0 0 0 0 0 0 0 0 0 0 0 0 0 0 0 0 0 0 0 0.290864807983853 0.0445761818110267 0.587759258628497 0 0 0 0 -1.61165143062077 -0.231869769101241 0 0 0 0 0 0 0 -0.791780738738846 0 0 0 0 0 0 0 0 0 0 0 0 0 0
0 0 0 0 0.861775462235973 0.223040181877143 0.245530357996252 0 0 0 0 0 0 0 0 0 0 0 0 0 0 0 0 0 0 0 -0.475467439575921 0 -0.231869769101241 -0.298972304574174 0 0 0 0 0 -0.0737404586462932 0 0 0 0 0 0 0 0 0 0 0 0 0 0
0 0 0 0 0 0 0 0 0 0 0 0 0 0 0 0 0 0 0 0 0 0 0 0 0 0 -0.36355992401788 0 0.0616302003905233 -0.231869769101241 0 0 0 0 0 -0.771100350574629 0 0 0 0 0 0 0 0 0 0 0 0 0 -1.52697853105239
0 0 0 0 0 0 0 0 0 0.124002501248468 0.0942076349256745 0 0 0 0 0 0 0 0 0 0 0 0 0 0 0 -0.23698393500864 0 0 0 -0.231869769101241 0 0 0 0 -0.266241683826122 0 0 0 0 0 0 0 0 0 0 0 0 0 -1.09953191529691
0 0 0 0 0 0 0 0 0 0 0 0 0 0 0 0 0 0 0 0 0 0 0 0 0.0633136856118786 0 -4.55203814466832 0 0 0 0 -0.231869769101241 0 0 0 0 0 0 0 0 0 0 0 0 0 0 0 0 0 -4.65827872394851
0 0 0 0 0 0 0 0 0 0 0.179217252265416 0.243200287690214 0.127712195649336 0.182742021308787 0 0 0 0 0 0 0 0 0 0 0 0 0 0 0 0 0 0 -0.231869769101241 0 0 0 0 0 0 0 0 0 0 0 0 0 0 0 0 -0.577787208566613
0 0.0634261499752451 0 0 0 0 0 0 0 0 0 0 0 0 0 0 0 0 0 0 0 0 0 0 0 0 0 0 0 0 0 0 0 -0.231869769101241 0 0 0 0 0 0 0 0 0 0 0 0 -1.52946786141497 0 0 -2.05959450841487
0 0 0 0 0 0 0 0 0 0 0 0 0 0 0 0 0 0 0 0.0442181108888146 0.149758211098291 0.315075058058879 0.11488022050432 0.146211357558489 0 0 0 0 0 0 0 0 0 0 -0.231869769101241 0 0 -1.12969908422011 0 0 0 0 0 0 0 0 -0.600167374292344 0 0 -0.471331881550768
0 0 0 0 0 0 0 0 0 0 0 0 0 0 0 0 0 0 0 0 0 0 0 0 0 0.0683830717648041 0.131615444591235 0.161252199626706 0.0147757798795299 0.158953247568921 0.0527861741178099 0 0 0 0 -0.231869769101241 0 -0.152909684937191 0 0 0 0 0 0 0 0 0 0 0 -1.40228500299468
0 0 0 0 0 0 0 0 0 0 0 0 0 0 0 0.0210906634250455 0.415415258202705 0.0703208174541048 0.0905174188908363 0 0 0 0 0 0 0 0 0 0 0 0 0 0 0 0 0 -0.231869769101241 -7.52141202032513 0 0 0 0 0 0 0 0 0 0 0 -2.2663093029578
0 0 0 0 0 0 0 0 0 0 0 0 0 0 0 0 0 0 0 0 0 0 0 0 0 0 0 0 0 0 0 0 0 0 0.233675673565483 0.0318994379973303 1.50404202007992 -0.231869769101241 0.543731358069073 0 0 0 0 0 0 0 0 0 0 -6.40517493907743
0 0 0 0 0 0 0 0 0 0 0 0 0 0 0 0 0 0 0 0 0 0 0 0 0.131214197831341 0 0 0 0 0 0 0 0 0 0 0 0 -2.85700834004266 -0.231869769101241 0 0 0 0 0 0 0 0 0 0 -0.31965288219132
0 0 0 0 0 0 0 0 0 0 0 0 0 0 0 0 0 0 0 0 0.0693616344345542 0.55248038915625 0.0895399629538939 0.0534602253224711 0.527398251888127 0 0 0 0 0 0 0 0 0 0 0 0 0 0 -0.231869769101241 0 0 0 0 0 0 0 0 0 0
0 0 0 0 0 0 0 0 0 0 0 0 0 0 0 0 0 0.139881217285984 0.700719645880835 0 0 0 0 0 0 0 0 0 0 0 0 0 0 0 0 0 0 0 0 0 -0.231869769101241 0 0 0 -0.438110647860853 0 0 0 0 0
0 0 0.702075533007666 0.0549702831575224 0.130373481239715 0.350463097925314 0.091131877593933 0 0 0 0 0 0 0 0 0 0 0 0 0 0 0 0 0 0 0 0 0 0 0 0 0 0 0 0 0 0 0 0 0 0 -0.231869769101241 0 0 -1.15742364388757 0 0 0 0 0
0 0 0 0 0 0 0 0 0 0 0 0 0 0 0 0 0 0 0 0 0 0 0 0 0 0.273394386419985 0.61699317383858 0 0 0 0 0 0 0 0 0 0 0 0 0 0 0 -0.231869769101241 0 -1.01884058513845 0 0 0 0 0
0 0 0 0 0 0 0 0 0 0 0 0 0 0 0 0 0 0 0 0.357164458534732 0.774581555543547 0 0 0 0 0 0 0 0 0 0 0 0 0 0 0 0 0 0 0 0 0 0 -0.231869769101241 -2.47917380524073 0 0 0 0 0
0 0 0 0 0 0 0 0 0 0 0 0 0 0 0 0 0 0 0 0 0 0 0 0 0 0 0 0 0 0 0 0 0 0 0 0 0 0 0 0 0.0811825653115654 0.226715191044186 0.205007249863688 0.470978641172605 -0.231869769101241 0 0 0 0 0
0 0 0 0 0 0 0 0 0 0 0 0 0 0 0 0 0.404532790968825 0.0471288106588336 0.529004999770723 0 0 0 0 0 0 0 0 0 0 0 0 0 0 0 0 0 0 0 0 0 0 0 0 0 0 -0.231869769101241 0 0 0 0
0 0 0 0 0 0 0 0 0 0 0 0 0 0 0 0 0 0 0 0 0 0 0 0 0 0 0 0 0 0 0 0 0 0.304081599151974 0.114724953719875 0 0 0 0 0 0 0 0 0 0 0 -0.231869769101241 0 0 0
0.224123853406789 0.0322444353888414 0.393210736067329 0.162992344776836 0.279360717348149 0.117357769250094 0.331237928850352 0 0 0 0 0 0 0 0 0 0 0 0 0 0 0 0 0 0 0 0 0 0 0 0 0 0 0 0 0 0 0 0 0 0 0 0 0 0 0 0 -0.231869769101241 0 0
0.253699353011288 0.0664179572185961 0.435656967423555 0.373667726443621 0.841487965198093 0.257019308117563 0.24587836955645 0.450755488458409 0 0 0 0 0 0 0 0 0 0 0 0 0 0 0 0 0 0 0 0 0 0 0 0 0 0 0 0 0 0 0 0 0 0 0 0 0 0 0 0 -0.231869769101241 0
0 0 0 0 0 0 0 0 0 0 0 0 0 0 0 0 0 0 0 0 0 0 0 0 0 0 0 0 0 0.290223832853413 0.213409123069198 0.941989071815322 0.121180908369339 0.431754779266899 0.0957676014077254 0.28194461036735 0.438429613488398 1.29558051408988 0.0661295581468487 0 0 0 0 0 0 0 0 0 0 -0.231869769101241
