-0.160346261991715 0 0 0 0 0 0 0 0 0 0 0 0 0 0 0 0 0 0 0 0 -0.672585852414876 0 0 0 0 0 0 0 0 0 0 0 0 0 0 0 0 0 -0.534547252511621 0 0 0 0 0 0 0 0 0 0
0 -0.160346261991715 0 0 0 0 0 0 0 0 0 0 0 0 0 -0.368222601375449 0 0 0 0 0 0 0 0 0 0 0 0 0 0 0 0 0 0 0 0 0 0 0 -0.699212830568244 0 0 0 0 0 0 0 0 0 0
0 0 -0.160346261991715 0 0 0 0 0 0 0 0 0 -1.37514608283513 -1.48888729562681 -0.636104446778656 0 0 0 0 0 0 0 0 -3.92678965021779 -1.39943427850308 0 0 0 -2.33913717988566 0 0 -0.696166188299343 0 0 0 0 0 0 0 0 0 0 0 0 0 0 0 0 0 0
0 0 0 -0.160346261991715 0 0 0 0 0 0 0 -2.30329199779592 -0.44480505490523 0 -0.354133136446142 0 0 0 0 0 0 0 -7.7254753182605 0 -0.855522720458373 0 0 0 -0.361967715633636 0 0 -0.255284308328132 0 0 0 0 0 0 0 0 0 0 0 0 0 0 0 0 0 0
0 0 0 0 -0.160346261991715 0 -0.276276457215503 0 0 0 0 -0.314115209487433 0 0 0 0 0 0 0 0 0 0 -0.627541260983048 0 -3.58735380002688 0 0 0 0 0 0 -0.938270541378361 0 0 0 0 0 0 0 0 0 0 0 0 0 0 0 0 0 0
0 0 0 0 0 -0.160346261991715 -0.0928702700689617 0 0 0 0 -0.888220350859039 0 0 0 0 0 0 0 0 0 0 -1.742677991963 0 -0.254345029132434 0 0 0 0 0 0 -0.161762585337272 0 0 0 0 0 0 0 0 0 0 -0.142179164623679 0 0 0 0 0 0 0
0 0 0 0 0.0555222922340837 0.0188705052370434 -0.160346261991715 0 0 0 0 -0.669217344160135 0 0 0 0 -0.476153764309896 0 0 0 0 0 -0.569642259857586 0 -0.238603739580697 0 0 0 0 0 0 -1.5073272583409 -0.757135694174395 0 0 0 0 0 0 0 0 0 -0.167195799479928 0 0 0 0 0 0 0
0 0 0 0 0 0 0 -0.160346261991715 0 0 0 0 0 0 0 0 0 0 0 0 0 0 0 0 0 0 0 0 0 0 0 -0.579930401392246 -2.27703385913014 0 0 0 0 0 0 0 0 0 0 0 0 0 0 0 0 0
0 0 0 0 0 0 0 0 -0.160346261991715 0 0 0 0 0 0 0 0 0 0 0 0 0 0 0 0 0 0 0 0 0 0 -1.01446888991704 -0.770754795543207 0 0 0 0 0 0 0 0 0 0 0 0 0 0 0 0 0
0 0 0 0 0 0 0 0 0 -0.160346261991715 0 0 0 0 0 0 0 0 0 0 0 0 0 0 0 0 -0.803090693680402 0 0 0 0 -1.0351794830117 -1.47224900118307 0 0 0 0 0 0 0 0 0 0 0 0 0 0 0 0 0
0 0 0 0 0 0 0 0 0 0 -0.160346261991715 0 0 0 0 0 0 -4.34207482236579 0 0 0 0 0 0 0 0 -3.63419469350816 0 0 0 0 0 -3.1944391488869 0 0 0 0 0 0 0 0 0 0 0 0 0 0 0 0 0
0 0 0 0.457906593769141 0.0617040146125264 0.17600440435547 0.14127738627232 0 0 0 0 -0.160346261991715 0 0 0 0 0 0 0 0 0 0 0 0 0 0 -0.811152888573233 0 0 -1.9394169049776 0 0 -3.44664914741514 0 0 0 0 0 0 0 0 0 0 0 0 0 0 0 0 0
0 0 0.269772147401921 0.0920793525611529 0 0 0 0 0 0 0 0 -0.160346261991715 0 0 0 0 0 0 0 0 0 0 0 0 0 -1.23071674160573 0 0 -2.02780603981962 -0.538138781098293 0 0 0 0 0 0 0 0 0 0 0 0 0 0 0 0 0 0 0
0 0 0.306016439497643 0 0 0 0 0 0 0 0 0 0 -0.160346261991715 0 0 0 0 0 0 0 0 0 0 0 0 0 0 0 -0.613518531551654 -0.200656227448273 0 0 0 0 0 0 0 0 0 0 0 0 0 0 0 0 0 0 0
0 0 0.125744959100657 0.0728625787918261 0 0 0 0 0 0 0 0 0 0 -0.160346261991715 0 0 0 0 0 0 0 0 0 0 0 0 0 0 -0.454609346265548 -1.77963772536469 0 0 0 0 0 -1.77326610954351 0 0 0 0 0 0 0 0 0 0 0 0 0
0 0.0773551436542932 0 0 0 0 0 0 0 0 0 0 0 0 0 -0.160346261991715 0 0 0 0 0 0 0 0 0 -1.85390323410997 0 0 0 -1.21097868666263 -0.455810563689279 0 0 0 0 0 -1.0704549588053 0 0 0 0 0 0 0 0 0 0 0 0 0
0 0 0 0 0 0 0.0955508761075795 0 0 0 0 0 0 0 0 0 -0.160346261991715 0 0 0 0 0 0 0 0 -0.367559670521302 0 0 0 -0.845038830412878 -1.12055108519809 0 0 0 0 -0.626062639021906 -0.0855136431294833 0 0 0 0 0 0 0 0 0 0 0 0 0
0 0 0 0 0 0 0 0 0 0 0.904385833133692 0 0 0 0 0 0 -0.160346261991715 0 0 0 0 0 0 0 -0.479961342110491 0 -0.245791690654558 0 -3.32274018516928 -1.65121786856565 0 0 0 0 -0.808584340487351 -0.814716390093798 0 0 0 0 0 0 0 0 0 0 0 0 0
0 0 0 0 0 0 0 0 0 0 0 0 0 0 0 0 0 0 -0.160346261991715 0 0 0 0 0 0 -0.509246397487295 0 -0.391955937752796 0 0 0 0 0 0 0 -1.24187314964064 -2.9783912456951 0 0 0 0 0 0 0 0 0 0 0 0 0
0 0 0 0 0 0 0 0 0 0 0 0 0 0 0 0 0 0 0 -0.160346261991715 0 0 0 0 0 0 0 -2.24929959047377 0 0 0 0 0 0 0 -0.730145662248406 0 0 0 0 0 0 0 0 0 0 0 0 -0.794867725286353 0
0 0 0 0 0 0 0 0 0 0 0 0 0 0 0 0 0 0 0 0 -0.160346261991715 0 0 0 0 0 0 -0.105086010394067 0 0 0 0 0 0 0 0 0 0 0 0 0 0 0 0 0 0 0 0 0 0
0.132705629310578 0 0 0 0 0 0 0 0 0 0 0 0 0 0 0 0 0 0 0 0 -0.160346261991715 0 0 0 0 0 -0.385338802182849 0 0 0 0 0 0 0 0 0 0 0 0 0 0 0 0 0 0 0 0 0 0
0 0 0 1.63764608529129 0.117375016118569 0.391341167779178 0.119459714892115 0 0 0 0 0 0 0 0 0 0 0 0 0 0 0 -0.160346261991715 0 0 0 0 -1.28909434285408 0 0 0 0 0 0 0 0 0 0 0 0 0 0 0 0 0 0 0 -0.570199522735255 0 0
0 0 0.747551798483287 0 0 0 0 0 0 0 0 0 0 0 0 0 0 0 0 0 0 0 0 -0.160346261991715 0 0 0 -7.62639233148628 0 0 0 0 0 0 0 0 0 0 0 0 0 0 0 0 0 0 0 -0.850436187404025 0 0
0 0 0.274780100598182 0.169712801640902 0.727831239432324 0.053909075196941 0.0492386490630414 0 0 0 0 0 0 0 0 0 0 0 0 0 0 0 0 0 -0.160346261991715 0 0 -0.745232312814852 0 0 0 0 0 0 0 0 0 0 0 0 0 0 0 0 0 0 0 -0.203922638366178 0 0
0 0 0 0 0 0 0 0 0 0 0 0 0 0 0 0.383947460600872 0.0770591821975327 0.0962959441449384 0.0991861877568572 0 0 0 0 0 0 -0.160346261991715 0 -0.274507309507853 0 0 0 0 0 0 0 0 0 0 0 0 0 0 0 0 0 0 0 -2.65357557741409 0 0
0 0 0 0 0 0 0 0 0 0.160363283543126 0.774125045100501 0.163292524365933 0.241450722836281 0 0 0 0 0 0 0 0 0 0 0 0 0 -0.160346261991715 0 0 0 0 0 0 0 0 0 0 0 0 0 0 0 0 0 0 0 0 -1.70272511837075 0 0
0 0 0 0 0 0 0 0 0 0 0 0 0 0 0 0 0 0.0458876565291807 0.0841569326087388 0.443043906328802 0.0200002322514176 0.0715952325564405 0.236436551464661 1.63796186911784 0.150125870025725 0.0578051080131307 0 -0.160346261991715 0 0 0 0 0 0 0 0 0 0 0 0 0 -0.364038299033631 0 0 0 0 0 -0.530412315794208 0 0
0 0 0.46327200605474 0.0729007440735862 0 0 0 0 0 0 0 0 0 0 0 0 0 0 0 0 0 0 0 0 0 0 0 0 -0.160346261991715 0 0 0 0 0 0 0 0 0 0 0 0 -2.03243477690375 0 0 0 -0.42625988629656 0 -0.983093799169386 0 0
0 0 0 0 0 0 0 0 0 0 0 0.347691686963113 0.402484714467101 0.131512823082583 0.0908280072450838 0.243396737067001 0.166699426640577 0.674894425581532 0 0 0 0 0 0 0 0 0 0 0 -0.160346261991715 0 0 0 0 0 0 0 0 0 0 0 -0.505151109709951 0 0 0 -1.12112441732429 0 0 0 0
0 0 0 0 0 0 0 0 0 0 0 0 0.106045823941402 0.0385904450394213 0.381386247158533 0.0845279225140287 0.226433251756744 0.337156505965988 0 0 0 0 0 0 0 0 0 0 0 0 -0.160346261991715 0 0 0 0 0 0 0 0 0 0 -1.21319639171526 0 0 0 -1.02553833521141 0 0 0 0
0 0 0.137939100564158 0.0463096532225107 0.203142689634095 0.0306164048557267 0.313518278726459 0.114202556422159 0.204304491825241 0.203276384870248 0 0 0 0 0 0 0 0 0 0 0 0 0 0 0 0 0 0 0 0 0 -0.160346261991715 0 0 0 0 0 0 0 0 0 -0.508563421552142 0 0 0 -1.13185752434561 0 0 0 0
0 0 0 0 0 0 0.160198252670261 0.430611428844227 0.157344473182458 0.316390471173494 0.663644671888172 0.699711245029522 0 0 0 0 0 0 0 0 0 0 0 0 0 0 0 0 0 0 0 0 -0.160346261991715 0 0 0 0 0 0 0 0 -11.3306990413045 0 0 0 -1.78361041251526 -2.32356911396748 0 0 0
0 0 0 0 0 0 0 0 0 0 0 0 0 0 0 0 0 0 0 0 0 0 0 0 0 0 0 0 0 0 0 0 0 -0.160346261991715 0 0 0 0 0 0 0 -1.32593439277149 0 0 0 -3.91590669276766 -0.379032667006725 0 0 0
0 0 0 0 0 0 0 0 0 0 0 0 0 0 0 0 0 0 0 0 0 0 0 0 0 0 0 0 0 0 0 0 0 0 -0.160346261991715 0 0 0 0 0 0 -0.355073402233726 0 -1.20795655132031 0 -0.181599586259602 -0.838069336741834 0 0 0
0 0 0 0 0 0 0 0 0 0 0 0 0 0 0 0 0.126915198061928 0.151471041361356 0.277777850922612 0.144529594081856 0 0 0 0 0 0 0 0 0 0 0 0 0 0 0 -0.160346261991715 0 0 0 0 -0.14894543055234 0 0 -2.0330930414245 0 0 -0.701294870180481 0 0 0
0 0 0 0 0 0 0 0 0 0 0 0 0 0 0.377085862984879 0.216470224339068 0.0174221716445468 0.161657851128995 0.645230077580892 0 0 0 0 0 0 0 0 0 0 0 0 0 0 0 0 0 -0.160346261991715 0 0 0 -1.15837171316091 0 0 -1.10943389915021 0 0 -0.290235483582552 0 0 0
0 0 0 0 0 0 0 0 0 0 0 0 0 0 0 0 0 0 0 0 0 0 0 0 0 0 0 0 0 0 0 0 0 0 0 0 0 -0.160346261991715 0 0 -1.87322300668832 0 0 -1.77797043909925 0 0 -1.42982417269196 0 0 0
0 0 0 0 0 0 0 0 0 0 0 0 0 0 0 0 0 0 0 0 0 0 0 0 0 0 0 0 0 0 0 0 0 0 0 0 0 0 -0.160346261991715 0 0 0 0 0 0 0 -2.51238056977671 0 0 0
0.108470358165089 0.136185219273911 0 0 0 0 0 0 0 0 0 0 0 0 0 0 0 0 0 0 0 0 0 0 0 0 0 0 0 0 0 0 0 0 0 0 0 0 0 -0.160346261991715 0 0 0 0 0 0 -1.18946161225167 0 0 0
0 0 0 0 0 0 0 0 0 0 0 0 0 0 0 0 0 0 0 0 0 0 0 0 0 0 0 0 0 0 0 0 0 0 0 0.0309984929562064 0.227597752829638 0.40017202700251 0 0 -0.160346261991715 0 0 0 0 0 -0.259389531927476 0 0 0
0 0 0 0 0 0 0 0 0 0 0 0 0 0 0 0 0 0 0 0 0 0 0 0 0 0 0 0.0793376852510616 0.392630788605104 0.105190297688482 0.251812234441609 0.0966405115614072 2.22726160774144 0.278370846520859 0.0715594434175889 0 0 0 0 0 0 -0.160346261991715 0 0 0 0 -1.03145135121962 0 0 0
0 0 0 0 0 0.0290044796231667 0.034731370703997 0 0 0 0 0 0 0 0 0 0 0 0 0 0 0 0 0 0 0 0 0 0 0 0 0 0 0 0 0 0 0 0 0 0 0 -0.160346261991715 0 0 0 -0.322782798804672 0 0 0
0 0 0 0 0 0 0 0 0 0 0 0 0 0 0 0 0 0 0 0 0 0 0 0 0 0 0 0 0 0 0 0 0 0 0.247442407709214 0.390066166046925 0.225458646964565 0.359782385196242 0 0 0 0 0 -0.160346261991715 0 0 -1.85683173275912 0 0 0
0 0 0 0 0 0 0 0 0 0 0 0 0 0 0 0 0 0 0 0 0 0 0 0 0 0 0 0 0 0 0 0 0 0 0 0 0 0 0 0 0 0 0 0 -0.160346261991715 0 -0.418996521997087 0 0 0
0 0 0 0 0 0 0 0 0 0 0 0 0 0 0 0 0 0 0 0 0 0 0 0 0 0 0 0 0.0880070043390206 0.224882510451312 0.212737041451514 0.232766058186983 0.313395391511279 0.806286011458624 0.0369654514928774 0 0 0 0 0 0 0 0 0 0 -0.160346261991715 0 0 0 -7.80671896494162
0 0 0 0 0 0 0 0 0 0 0 0 0 0 0 0 0 0 0 0 0 0 0 0 0 0 0 0 0 0 0 0 0.447005772884476 0.0779852480183151 0.159977168177701 0.147408995619771 0.0535104311497886 0.28912113542601 0.523552987081313 0.2401095499779 0.0524811884013885 0.20909159883221 0.0673973267393772 0.349207010692792 0.078460446779706 0 -0.160346261991715 0 0 -0.828687518820608
0 0 0 0 0 0 0 0 0 0 0 0 0 0 0 0 0 0 0 0 0 0 0.115561184222904 0.176529053416099 0.0412516132914468 0.521373030741459 0.375610091625917 0.102573708499525 0.205032104701814 0 0 0 0 0 0 0 0 0 0 0 0 0 0 0 0 0 0 -0.160346261991715 0 -1.23262767254735
0 0 0 0 0 0 0 0 0 0 0 0 0 0 0 0 0 0 0 0.148864389262636 0 0 0 0 0 0 0 0 0 0 0 0 0 0 0 0 0 0 0 0 0 0 0 0 0 0 0 0 -0.160346261991715 0
0 0 0 0 0 0 0 0 0 0 0 0 0 0 0 0 0 0 0 0 0 0 0 0 0 0 0 0 0 0 0 0 0 0 0 0 0 0 0 0 0 0 0 0 0 1.54843764010806 0.161638670388566 0.234721043652989 0 -0.160346261991715
