-0.325739540231898 0 0 -0.36238646273381 0 0 0 0 0 0 0 0 -0.928639057200822 0 0 0 0 0 0 0 0 0 0 0 0 0 0 0 0 0 0 0 0 0 0 0 0 0 0 0 0 0 0 0 0 0 0 0 0 0
0 -0.325739540231898 0 0 0 -0.532563011506149 0 0 0 0 0 0 -1.27593901985088 0 0 0 0 0 0 0 0 0 0 0 0 0 0 0 0 0 0 0 0 0 0 0 0 0 0 0 0 0 0 0 0 0 0 0 0 0
0 0 -0.325739540231898 0 0 0 0 0 0 0 0 0 -0.309571638543012 0 0 0 0 0 0 0 0 0 0 0 0 0 0 0 0 0 0 0 0 0 0 0 0 0 0 0 0 0 0 0 0 0 0 0 0 0
0.0777356228242687 0 0 -0.325739540231898 0 0 0 -0.840612747176618 0 0 0 0 -0.40354301847901 0 0 0 0 0 0 0 0 0 0 0 0 0 0 0 0 0 0 0 0 0 0 0 0 0 0 0 0 0 0 0 0 0 0 0 0 0
0 0 0 0 -0.325739540231898 0 0 0 0 0 0 0 -0.808425466454556 0 0 0 0 0 0 0 0 0 0 0 0 0 0 0 -4.04351747156711 0 0 0 0 0 0 0 0 0 0 0 0 0 0 -1.51675815282817 0 0 0 0 0 0
0 0.112713630807101 0 0 0 -0.325739540231898 0 0 0 0 0 0 0 0 0 -2.73216804732486 0 0 0 0 0 0 0 0 0 0 0 0 -0.90762807130256 0 0 0 0 0 0 0 0 0 0 0 0 0 0 -1.22934998018112 0 0 0 0 0 0
0 0 0 0 0 0 -0.325739540231898 0 0 0 0 0 0 0 0 -2.21223490710084 0 0 0 0 0 0 0 0 0 0 0 0 -0.898877084040779 0 0 0 0 0 0 0 0 0 0 0 0 0 0 -1.21563988568223 0 0 0 0 0 0
0 0 0 0.15210503538463 0 0 0 -0.325739540231898 0 -1.79952784595118 0 0 0 0 0 -0.460271925362615 0 0 0 0 0 0 0 0 0 0 0 0 0 0 0 0 0 0 0 0 0 0 0 0 0 -0.0295454441327834 0 0 0 0 0 0 0 0
0 0 0 0 0 0 0 0 -0.325739540231898 0 0 0 0 0 0 -0.962262727516594 0 0 0 0 0 0 0 0 0 0 0 0 0 0 0 -0.998676487897653 0 0 0 0 0 0 0 0 0 -0.522141236042137 0 0 0 0 0 0 -0.260349856194877 0
0 0 0 0 0 0 0 0.369716654438028 0 -0.325739540231898 0 0 0 0 0 0 0 0 0 0 0 0 0 0 0 0 0 0 0 0 0 0 0 0 0 0 0 0 0 0 0 -0.819446143602472 0 0 0 0 0 0 -0.0589221255516719 0
0 0 0 0 0 0 0 0 0 0 -0.325739540231898 0 0 0 0 0 0 0 0 0 0 0 0 0 0 0 0 0 0 0 0 0 0 0 0 0 0 0 0 0 0 -0.311181284280518 0 0 0 0 0 0 -0.64772598456346 0
0 0 0 0 0 0 0 0 0 0 0 -0.325739540231898 0 0 0 0 0 0 0 0 0 0 0 0 0 0 0 0 0 0 0 0 0 0 0 0 0 0 0 0 0 -0.551665510735446 0 0 0 0 0 0 -0.750497804059884 0
0.189541878075983 0.268733248033433 0.0617246552661356 0.0869129394471708 0.164908062215423 0 0 0 0 0 0 0 -0.325739540231898 0 -0.173119774103313 0 0 0 0 0 0 0 0 0 0 0 0 0 0 -0.385174650321642 -4.88010717164399 0 0 0 0 0 0 0 0 0 0 -1.56711089828124 0 0 0 0 0 0 -0.949035991161753 0
0 0 0 0 0 0 0 0 0 0 0 0 0 -0.325739540231898 -0.454696736459518 0 0 0 0 0 0 0 0 0 0 0 0 0 0 0 -0.761686977168575 0 0 0 0 0 0 0 0 0 0 -0.927405643656478 0 0 0 0 0 0 0 0
0 0 0 0 0 0 0 0 0 0 0 0 0.0344314946832228 0.0859697267786792 -0.325739540231898 0 0 0 0 -0.69743295979108 0 0 0 0 0 0 0 0 0 0 -2.20481535869819 0 0 -0.305833224482606 0 0 0 0 0 0 0 -1.14084628838688 0 0 0 0 0 0 0 0
0 0 0 0 0 0.575559627594637 0.438852227576597 0.0905509018749221 0.203656595862016 0 0 0 0 0 0 -0.325739540231898 0 0 0 0 0 0 0 0 0 -1.36408431938337 0 0 0 0 0 0 -3.2458013714865 0 0 0 0 0 0 -0.984219892757307 -0.325992990026406 0 -0.270078899719368 0 0 0 0 0 0 0
0 0 0 0 0 0 0 0 0 0 0 0 0 0 0 0 -0.325739540231898 0 0 0 0 0 0 0 0 -0.578509324572838 0 0 0 0 0 0 -1.49411091216214 0 0 0 0 0 0 -2.43200527678508 -8.91940899221798 0 -0.136218708203186 0 0 0 0 0 0 0
0 0 0 0 0 0 0 0 0 0 0 0 0 0 0 0 0 -0.325739540231898 0 0 0 0 0 0 0 -1.47786837685903 0 0 0 0 0 0 -0.471721733466962 0 0 0 0 0 0 -1.42341886325628 -0.0623390563934369 0 -2.07970977467418 0 0 0 0 0 0 0
0 0 0 0 0 0 0 0 0 0 0 0 0 0 0 0 0 0 -0.325739540231898 0 0 0 0 -2.12608909559095 0 0 -0.671609912525014 0 0 0 0 0 0 0 0 0 0 0 0 -0.605622275237661 0 0 0 0 0 0 0 0 0 0
0 0 0 0 0 0 0 0 0 0 0 0 0 0 0.138570903014589 0 0 0 0 -0.325739540231898 0 0 0 -2.15201800425836 0 0 -0.427925620357235 0 0 0 0 0 0 0 0 0 0 0 0 -0.448897719179107 0 0 0 0 0 0 0 0 0 0
0 0 0 0 0 0 0 0 0 0 0 0 0 0 0 0 0 0 0 0 -0.325739540231898 0 0 -0.449425461997564 -0.702741021880883 0 -1.4059333292914 0 0 0 0 0 0 0 0 0 0 0 0 -2.60422780366995 0 0 0 0 0 0 0 0 0 0
0 0 0 0 0 0 0 0 0 0 0 0 0 0 0 0 0 0 0 0 0 -0.325739540231898 0 0 -0.150586378160059 0 0 -2.61308133084118 0 0 0 0 0 0 0 0 0 0 0 -3.82037466874604 0 0 0 0 0 0 0 0 0 0
0 0 0 0 0 0 0 0 0 0 0 0 0 0 0 0 0 0 0 0 0 0 -0.325739540231898 0 0 0 0 -0.776164476363968 0 0 0 0 0 0 0 0 0 0 0 0 0 0 0 0 0 0 0 0 0 0
0 0 0 0 0 0 0 0 0 0 0 0 0 0 0 0 0 0 0.422033046752911 0.472226749135147 0.0834275910723281 0 0 -0.325739540231898 0 0 0 -0.926832832182823 0 0 0 0 0 0 0 0 0 0 0 0 0 0 0 0 0 0 0 0 0 0
0 0 0 0 0 0 0 0 0 0 0 0 0 0 0 0 0 0 0 0 0.136658693916215 0.0326786581869861 0 0 -0.325739540231898 0 0 -1.26634899575031 0 0 0 0 0 0 0 0 0 0 0 0 0 0 0 0 0 0 0 0 0 -1.58149786658212
0 0 0 0 0 0 0 0 0 0 0 0 0 0 0 0.268881705788043 0.118874930624428 0.293750427555798 0 0 0 0 0 0 0 -0.325739540231898 0 -3.82235685746266 0 0 0 0 0 0 0 0 0 0 0 0 0 0 0 0 0 0 0 -1.29068613682566 0 -1.81373764164426
0 0 0 0 0 0 0 0 0 0 0 0 0 0 0 0 0 0 0.126986862805633 0.0771225137250738 0.283096783043018 0 0 0 0 0 -0.325739540231898 0 0 0 0 0 0 0 0 0 0 0 0 0 0 0 0 0 0 0 0 -1.83666777655562 0 -0.581721692286993
0 0 0 0 0 0 0 0 0 0 0 0 0 0 0 0 0 0 0 0 0 0.500173044865484 0.150565001722601 0.188010637267137 0.241432930600454 0.830464367960649 0 -0.325739540231898 0 0 0 0 0 0 0 0 0 0 0 0 0 0 0 0 0 0 0 -5.5558667319574 0 -1.51852656968622
0 0 0 0 0.860982455473875 0.187044704926713 0.203412165841901 0 0 0 0 0 0 0 0 0 0 0 0 0 0 0 0 0 0 0 0 0 -0.325739540231898 0 0 0 0 0 0 0 0 0 0 0 0 0 0 0 0 -0.808689025660733 0 -0.717827041089827 0 -0.433223760066911
0 0 0 0 0 0 0 0 0 0 0 0 0.0830446996954362 0 0 0 0 0 0 0 0 0 0 0 0 0 0 0 0 -0.325739540231898 0 0 0 0 0 0 -4.31505370314976 0 0 0 0 0 0 0 0 -0.845622631087714 0 0 0 0
0 0 0 0 0 0 0 0 0 0 0 0 0.928886842008631 0.154347867155739 0.453162694528525 0 0 0 0 0 0 0 0 0 0 0 0 0 0 0 -0.325739540231898 0 0 0 0 0 -1.4496188568895 0 0 0 0 0 0 0 -3.95461046720042 -9.57280196343017 0 0 0 0
0 0 0 0 0 0 0 0 0.195087701460234 0 0 0 0 0 0 0 0 0 0 0 0 0 0 0 0 0 0 0 0 0 0 -0.325739540231898 0 0 0 0 -0.593213639445039 0 0 0 0 0 0 0 -0.799969032267592 -2.98268292464884 0 0 0 0
0 0 0 0 0 0 0 0 0 0 0 0 0 0 0 0.643227074784121 0.316063936544404 0.0953768506358481 0 0 0 0 0 0 0 0 0 0 0 0 0 0 -0.325739540231898 0 0 0 0 0 0 0 0 0 0 0 -2.15710005083544 -11.1831106861615 0 0 0 0
0 0 0 0 0 0 0 0 0 0 0 0 0 0 0.0638799865734126 0 0 0 0 0 0 0 0 0 0 0 0 0 0 0 0 0 0 -0.325739540231898 0 0 0 0 0 0 0 0 0 0 -0.90626383125373 -0.539588884637016 0 0 0 0
0 0 0 0 0 0 0 0 0 0 0 0 0 0 0 0 0 0 0 0 0 0 0 0 0 0 0 0 0 0 0 0 0 0 -0.325739540231898 0 0 0 0 0 0 0 0 0 -1.00983463712379 -0.888635398988216 -4.6602345328543 0 0 0
0 0 0 0 0 0 0 0 0 0 0 0 0 0 0 0 0 0 0 0 0 0 0 0 0 0 0 0 0 0 0 0 0 0 0 -0.325739540231898 0 0 0 0 0 0 0 0 -0.785268311446315 -0.47384560092757 -5.23498555628032 0 0 0
0 0 0 0 0 0 0 0 0 0 0 0 0 0 0 0 0 0 0 0 0 0 0 0 0 0 0 0 0 0.907476772513975 0.325363157733281 0.119978020778794 0 0 0 0 -0.325739540231898 0 0 0 0 0 0 0 -4.02963761180518 -1.33273722393719 -2.73914637582598 0 0 0
0 0 0 0 0 0 0 0 0 0 0 0 0 0 0 0 0 0 0 0 0 0 0 0 0 0 0 0 0 0 0 0 0 0 0 0 0 -0.325739540231898 0 0 0 0 0 0 -6.2516777229559 -0.193133896204197 -0.904848493631777 0 0 0
0 0 0 0 0 0 0 0 0 0 0 0 0 0 0 0 0 0 0 0 0 0 0 0 0 0 0 0 0 0 0 0 0 0 0 0 0 0 -0.325739540231898 0 0 0 0 0 -0.526194052203625 -0.364703768454956 -1.69038010836372 0 0 0
0 0 0 0 0 0 0 0 0 0 0 0 0 0 0 0.170164774918472 0.438283299809319 0.276506701823728 0.124127430581635 0.0909604561726862 0.529198652585593 0.802042434231381 0 0 0 0 0 0 0 0 0 0 0 0 0 0 0 0 0 -0.325739540231898 0 0 0 0 -0.686702743444372 -0.863221351037129 -0.80784375973641 0 0 0
0 0 0 0 0 0 0 0 0 0 0 0 0 0 0 0.0677879693678266 1.88373767922004 0.0122483748834619 0 0 0 0 0 0 0 0 0 0 0 0 0 0 0 0 0 0 0 0 0 0 -0.325739540231898 0 0 0 -2.94419559697062 0 -0.357380062724396 0 0 0
0 0 0 0 0 0 0 0.0062437809208609 0.0952325935276219 0.166715119754434 0.0601424753941725 0.111560401374002 0.296052125349243 0.196655603872948 0.234232620728088 0 0 0 0 0 0 0 0 0 0 0 0 0 0 0 0 0 0 0 0 0 0 0 0 0 0 -0.325739540231898 0 0 -6.25304101016173 0 -0.0696755227182618 0 0 0
0 0 0 0 0 0 0 0 0 0 0 0 0 0 0 0.05661157749746 0.0268746184732478 0.387633600143646 0 0 0 0 0 0 0 0 0 0 0 0 0 0 0 0 0 0 0 0 0 0 0 0 -0.325739540231898 0 -0.232788765475917 0 -1.03623991290035 0 0 0
0 0 0 0 0.276181856920937 0.239168055462491 0.244727462499591 0 0 0 0 0 0 0 0 0 0 0 0 0 0 0 0 0 0 0 0 0 0 0 0 0 0 0 0 0 0 0 0 0 0 0 0 -0.325739540231898 -1.45726459969757 0 0 0 0 0
0 0 0 0 0 0 0 0 0 0 0 0 0 0 0 0 0 0 0 0 0 0 0 0 0 0 0 0 0 0 0.776289438423872 0.159723608570214 0.43943458403534 0.175242273436947 0.205811632100558 0.157043093275938 0.767562312754937 1.27662315733563 0.107306980671699 0.136266944779494 0.623905202445232 1.24537607795236 0.0469618034630624 0.274787318529496 -0.325739540231898 0.420379484180937 0.638634803202413 0.197627253647143 0 0
0 0 0 0 0 0 0 0 0 0 0 0 0 0 0 0 0 0 0 0 0 0 0 0 0 0 0 0 0.154055526083552 0.155210102422627 2.08369142172162 0.58951528674612 2.10138507682968 0.107482870262856 0.167338084722546 0.0877075592696279 0.282073298209956 0.0357475410627265 0.0729619313434523 0.186169916838088 0 0 0 0 -2.1739368243336 -0.325739540231898 0 0 0 0
0 0 0 0 0 0 0 0 0 0 0 0 0 0 0 0 0 0 0 0 0 0 0 0 0 0 0 0 0 0 0 0 0 0 0.862167112852962 0.993656695710208 0.56257191849294 0.194262665571405 0.34059462894743 0.159953199251623 0.0642118595205823 0.0132232257066783 0.182889708900769 0 -3.52077782393485 0 -0.325739540231898 0 0 0
0 0 0 0 0 0 0 0 0 0 0 0 0 0 0 0 0 0 0 0 0 0 0 0 0 0.26870431556132 0.361458563979544 1.08360611417502 0.144475662266993 0 0 0 0 0 0 0 0 0 0 0 0 0 0 0 -1.03724563940708 0 0 -0.325739540231898 0 0
0 0 0 0 0 0 0 0 0.0532554538096553 0.0119178994641872 0.134900777201817 0.141346043888109 0.197663929871243 0 0 0 0 0 0 0 0 0 0 0 0 0 0 0 0 0 0 0 0 0 0 0 0 0 0 0 0 0 0 0 0 0 0 0 -0.325739540231898 0
0 0 0 0 0 0 0 0 0 0 0 0 0 0 0 0 0 0 0 0 0 0 0 0 0.324665606158563 0.347353626674221 0.110279072082588 0.303262493391727 0.0916908943090509 0 0 0 0 0 0 0 0 0 0 0 0 0 0 0 0 0 0 0 0 -0.325739540231898
