0.414358009810775
8.07098549164527
3.08590393017232
1.05931323055652
0.495467644064154
0.71928432104183
1.77261413649444
0.884713633954736
1.39080596003405
1.82157801174667
0.210172913617118
0.104904468889917
1.07322705881942
0.317228697433529
0.907547476866823
1.61405801551619
3.08450630658672
3.64515620214136
0.984664755377129
1.14997953364117
0.103812763002905
0.579876929947835
1.23336585322548
4.44911653567397
0.596502226134809
0.672240918344079
0.56045041218504
0.551461453739704
3.91230036194638
1.98910650728259
2.33507746333787
3.04006078130767
0.6871770989585
7.53010096721963
8.55683527364389
1.14000110614669
3.92125516108996
1.68465756453264
0.240228965236335
1.30681213719522
1.08404561205405
3.08871473662158
0.865126617889668
0.896733536966105
0.706471790051402
3.19601942438118
0.848572736986008
3.79475249799279
0.741005173594695
0.990687324292062
