2.32731240944417
0.600313750023565
0.165994853681874
0.78168394881255
0.661329067544262
1.6554135547483
1.66638144804363
1.42667430603624
1.45396976587353
0.653701509603887
2.10760211571336
1.40481131807292
0.245091691262508
2.32889912981876
0.659959468286155
0.184934836875554
1.54035174942099
2.02583449684104
0.39448250148148
1.05720842047791
2.83444436052729
0.431764139648219
1.22218126532013
4.65568183423587
2.06470880021419
8.7112492165558
0.678509030594855
0.254656714144639
1.49392960454179
2.03029866176544
0.702494069542147
0.777431635366555
0.201365908275997
0.947529456445113
1.71701459640431
1.94338111286571
6.03248396570478
0.910710145313782
0.839029527018184
0.878763261659984
0.485946263150508
1.49776755375461
0.783055368023603
6.76679133868805
1.09280670690028
0.334347964289596
0.901091833609514
2.57174457116326
0.0743498608380719
1.79571315618568
