-0.0895784999010035 0 0 -0.809836765657184 0 0 0 0 0 0 0 0 -0.105631000353913 0 0 0 0 0 0 0 0 0 0 0 0 0 0 0 0 0 0 0 0 0 0 0 0 0 0 0 0 0 0 0 0 0 0 0 0 0
0 -0.0895784999010035 0 0 0 -0.555944451414695 0 0 0 0 0 0 -1.53013227421412 0 0 0 0 0 0 0 0 0 0 0 0 0 0 0 0 0 0 0 0 0 0 0 0 0 0 0 0 0 0 0 0 0 0 0 0 0
0 0 -0.0895784999010035 0 0 0 0 0 0 0 0 0 -0.516697685095538 0 0 0 0 0 0 0 0 0 0 0 0 0 0 0 0 0 0 0 0 0 0 0 0 0 0 0 0 0 0 0 0 0 0 0 0 0
0.152841882596791 0 0 -0.0895784999010035 0 0 0 -1.25248951600712 0 0 0 0 -1.77769017968042 0 0 0 0 0 0 0 0 0 0 0 0 0 0 0 0 0 0 0 0 0 0 0 0 0 0 0 0 0 0 0 0 0 0 0 0 0
0 0 0 0 -0.0895784999010035 0 0 0 0 0 0 0 -0.598415053973832 0 0 0 0 0 0 0 0 0 0 0 0 0 0 0 -1.54071595500164 0 0 0 0 0 0 0 0 0 0 0 0 0 0 -0.49465265468495 0 0 0 0 0 0
0 0.111817744082615 0 0 0 -0.0895784999010035 0 0 0 0 0 0 0 0 0 -1.24465147631613 0 0 0 0 0 0 0 0 0 0 0 0 -0.23973756019813 0 0 0 0 0 0 0 0 0 0 0 0 0 0 -0.401326394995919 0 0 0 0 0 0
0 0 0 0 0 0 -0.0895784999010035 0 0 0 0 0 0 0 0 -2.41750416568627 0 0 0 0 0 0 0 0 0 0 0 0 -0.799905990766516 0 0 0 0 0 0 0 0 0 0 0 0 0 0 -2.38591000642172 0 0 0 0 0 0
0 0 0 0.246387522155592 0 0 0 -0.0895784999010035 0 -1.03050056920423 0 0 0 0 0 -0.548653365547575 0 0 0 0 0 0 0 0 0 0 0 0 0 0 0 0 0 0 0 0 0 0 0 0 0 -2.2284980755213 0 0 0 0 0 0 0 0
0 0 0 0 0 0 0 0 -0.0895784999010035 0 0 0 0 0 0 -1.10466850005983 0 0 0 0 0 0 0 0 0 0 0 0 0 0 0 -1.49724982331228 0 0 0 0 0 0 0 0 0 -1.43362117357791 0 0 0 0 0 0 -0.726762189358629 0
0 0 0 0 0 0 0 0.20532743270791 0 -0.0895784999010035 0 0 0 0 0 0 0 0 0 0 0 0 0 0 0 0 0 0 0 0 0 0 0 0 0 0 0 0 0 0 0 -0.181789253649715 0 0 0 0 0 0 -0.832491961488509 0
0 0 0 0 0 0 0 0 0 0 -0.0895784999010035 0 0 0 0 0 0 0 0 0 0 0 0 0 0 0 0 0 0 0 0 0 0 0 0 0 0 0 0 0 0 -4.03836442382091 0 0 0 0 0 0 -0.690688573213581 0
0 0 0 0 0 0 0 0 0 0 0 -0.0895784999010035 0 0 0 0 0 0 0 0 0 0 0 0 0 0 0 0 0 0 0 0 0 0 0 0 0 0 0 0 0 -0.815591219342646 0 0 0 0 0 0 -0.68351730881112 0
0.023347271489047 0.318766677115382 0.104280819005731 0.321801004434452 0.113652325983098 0 0 0 0 0 0 0 -0.0895784999010035 0 -0.125502027850084 0 0 0 0 0 0 0 0 0 0 0 0 0 0 -0.551091348418714 -0.73366251329332 0 0 0 0 0 0 0 0 0 0 -2.90062184523262 0 0 0 0 0 0 -0.706330909288359 0
0 0 0 0 0 0 0 0 0 0 0 0 0 -0.0895784999010035 -2.34837205537088 0 0 0 0 0 0 0 0 0 0 0 0 0 0 0 -0.0648113574578312 0 0 0 0 0 0 0 0 0 0 -0.659830965084218 0 0 0 0 0 0 0 0
0 0 0 0 0 0 0 0 0 0 0 0 0.0245129048730765 0.472179787604605 -0.0895784999010035 0 0 0 0 -0.68934637851305 0 0 0 0 0 0 0 0 0 0 -2.60927403575095 0 0 -0.272849485964628 0 0 0 0 0 0 0 -0.0905642332424475 0 0 0 0 0 0 0 0
0 0 0 0 0 0.248984143079433 0.450054633379503 0.106667983534116 0.220271570401406 0 0 0 0 0 0 -0.0895784999010035 0 0 0 0 0 0 0 0 0 -1.13578877879 0 0 0 0 0 0 -0.908749527067423 0 0 0 0 0 0 -0.474999125759362 -6.3672895885184 0 -0.676951636937419 0 0 0 0 0 0 0
0 0 0 0 0 0 0 0 0 0 0 0 0 0 0 0 -0.0895784999010035 0 0 0 0 0 0 0 0 -0.491440012757033 0 0 0 0 0 0 -2.07570322240729 0 0 0 0 0 0 -3.66523644199918 -0.70576458449534 0 -2.06059719523269 0 0 0 0 0 0 0
0 0 0 0 0 0 0 0 0 0 0 0 0 0 0 0 0 -0.0895784999010035 0 0 0 0 0 0 0 -1.01910542317397 0 0 0 0 0 0 -7.18498170859152 0 0 0 0 0 0 -0.57599299990554 -3.14459156895735 0 -1.12773336844256 0 0 0 0 0 0 0
0 0 0 0 0 0 0 0 0 0 0 0 0 0 0 0 0 0 -0.0895784999010035 0 0 0 0 -1.53045301002026 0 0 -0.839487807640379 0 0 0 0 0 0 0 0 0 0 0 0 -3.65044588885349 0 0 0 0 0 0 0 0 0 0
0 0 0 0 0 0 0 0 0 0 0 0 0 0 0.13999363649202 0 0 0 0 -0.0895784999010035 0 0 0 -0.267379587428366 0 0 -0.718213472251172 0 0 0 0 0 0 0 0 0 0 0 0 -2.83487733439274 0 0 0 0 0 0 0 0 0 0
0 0 0 0 0 0 0 0 0 0 0 0 0 0 0 0 0 0 0 0 -0.0895784999010035 0 0 -0.921886049073367 -0.64679214635642 0 -1.84002428831778 0 0 0 0 0 0 0 0 0 0 0 0 -1.12505165933864 0 0 0 0 0 0 0 0 0 0
0 0 0 0 0 0 0 0 0 0 0 0 0 0 0 0 0 0 0 0 0 -0.0895784999010035 0 0 -1.2725198833337 0 0 -0.381605264119998 0 0 0 0 0 0 0 0 0 0 0 -1.61518564714849 0 0 0 0 0 0 0 0 0 0
0 0 0 0 0 0 0 0 0 0 0 0 0 0 0 0 0 0 0 0 0 0 -0.0895784999010035 0 0 0 0 -1.02540687608718 0 0 0 0 0 0 0 0 0 0 0 0 0 0 0 0 0 0 0 0 0 0
0 0 0 0 0 0 0 0 0 0 0 0 0 0 0 0 0 0 0.292021953956565 0.049096452736101 0.178714325326551 0 0 -0.0895784999010035 0 0 0 -0.237527443172506 0 0 0 0 0 0 0 0 0 0 0 0 0 0 0 0 0 0 0 0 0 0
0 0 0 0 0 0 0 0 0 0 0 0 0 0 0 0 0 0 0 0 0.127869267506132 0.246264467400016 0 0 -0.0895784999010035 0 0 -0.694600844022826 0 0 0 0 0 0 0 0 0 0 0 0 0 0 0 0 0 0 0 0 0 -0.816530413712559
0 0 0 0 0 0 0 0 0 0 0 0 0 0 0 0.246348826521084 0.102931746102996 0.224008289526316 0 0 0 0 0 0 0 -0.0895784999010035 0 -0.640894365649837 0 0 0 0 0 0 0 0 0 0 0 0 0 0 0 0 0 0 0 -1.54779439076951 0 -0.629212519204318
0 0 0 0 0 0 0 0 0 0 0 0 0 0 0 0 0 0 0.175527096244185 0.15036513659917 0.376203895469369 0 0 0 0 0 -0.0895784999010035 0 0 0 0 0 0 0 0 0 0 0 0 0 0 0 0 0 0 0 0 -0.604262828724775 0 -2.07979647387514
0 0 0 0 0 0 0 0 0 0 0 0 0 0 0 0 0 0 0 0 0 0.0744424210276605 0.199871360472562 0.0487888318598162 0.135952576664032 0.133939652956227 0 -0.0895784999010035 0 0 0 0 0 0 0 0 0 0 0 0 0 0 0 0 0 0 0 -1.1132826481199 0 -0.0622815336280155
0 0 0 0 0.294207561788127 0.0503034683479992 0.152546929066953 0 0 0 0 0 0 0 0 0 0 0 0 0 0 0 0 0 0 0 0 0 -0.0895784999010035 0 0 0 0 0 0 0 0 0 0 0 0 0 0 0 0 -4.7670301999217 0 -0.997806999842862 0 -0.925758620126976
0 0 0 0 0 0 0 0 0 0 0 0 0.111363680485052 0 0 0 0 0 0 0 0 0 0 0 0 0 0 0 0 -0.0895784999010035 0 0 0 0 0 0 -7.42552691592009 0 0 0 0 0 0 0 0 -0.247179751220617 0 0 0 0
0 0 0 0 0 0 0 0 0 0 0 0 0.148887773631285 0.0122992750046465 0.544261884512355 0 0 0 0 0 0 0 0 0 0 0 0 0 0 0 -0.0895784999010035 0 0 0 0 0 -0.397804883038213 0 0 0 0 0 0 0 -4.48905755266116 -0.575871156573753 0 0 0 0
0 0 0 0 0 0 0 0 0.312900610292881 0 0 0 0 0 0 0 0 0 0 0 0 0 0 0 0 0 0 0 0 0 0 -0.0895784999010035 0 0 0 0 -0.610447255855295 0 0 0 0 0 0 0 -1.79628394686498 -0.30088689956232 0 0 0 0
0 0 0 0 0 0 0 0 0 0 0 0 0 0 0 0.184184278401251 0.442373974519502 1.32936147151281 0 0 0 0 0 0 0 0 0 0 0 0 0 0 -0.0895784999010035 0 0 0 0 0 0 0 0 0 0 0 -0.230964515751011 -0.291018830733603 0 0 0 0
0 0 0 0 0 0 0 0 0 0 0 0 0 0 0.05318826465661 0 0 0 0 0 0 0 0 0 0 0 0 0 0 0 0 0 0 -0.0895784999010035 0 0 0 0 0 0 0 0 0 0 -2.16954405012892 -2.59187841371565 0 0 0 0
0 0 0 0 0 0 0 0 0 0 0 0 0 0 0 0 0 0 0 0 0 0 0 0 0 0 0 0 0 0 0 0 0 0 -0.0895784999010035 0 0 0 0 0 0 0 0 0 -0.221804059660022 -0.436061145034307 -1.50518708720475 0 0 0
0 0 0 0 0 0 0 0 0 0 0 0 0 0 0 0 0 0 0 0 0 0 0 0 0 0 0 0 0 0 0 0 0 0 0 -0.0895784999010035 0 0 0 0 0 0 0 0 -0.150338614576685 -5.76438357094959 -0.112685776518627 0 0 0
0 0 0 0 0 0 0 0 0 0 0 0 0 0 0 0 0 0 0 0 0 0 0 0 0 0 0 0 0 1.57064229966592 0.0757641551959495 0.118040813373516 0 0 0 0 -0.0895784999010035 0 0 0 0 0 0 0 -0.623228483215915 -2.35549410930356 -0.87523954608802 0 0 0
0 0 0 0 0 0 0 0 0 0 0 0 0 0 0 0 0 0 0 0 0 0 0 0 0 0 0 0 0 0 0 0 0 0 0 0 0 -0.0895784999010035 0 0 0 0 0 0 -0.568412163214159 -0.542285831350474 -0.620945372199567 0 0 0
0 0 0 0 0 0 0 0 0 0 0 0 0 0 0 0 0 0 0 0 0 0 0 0 0 0 0 0 0 0 0 0 0 0 0 0 0 0 -0.0895784999010035 0 0 0 0 0 -3.55904126556037 -10.1796253817655 -0.471370102178503 0 0 0
0 0 0 0 0 0 0 0 0 0 0 0 0 0 0 0.0936407671335759 0.702047769875349 0.122291796887374 0.687029947183897 0.597041820894447 0.213349709322075 0.30371441634734 0 0 0 0 0 0 0 0 0 0 0 0 0 0 0 0 0 -0.0895784999010035 0 0 0 0 -0.722089714166794 -0.78258925699883 -0.835443015713483 0 0 0
0 0 0 0 0 0 0 0 0 0 0 0 0 0 0 1.3239426753655 0.144041197631029 0.605330127988229 0 0 0 0 0 0 0 0 0 0 0 0 0 0 0 0 0 0 0 0 0 0 -0.0895784999010035 0 0 0 -0.599382098064208 0 -2.17634150807979 0 0 0
0 0 0 0 0 0 0 0.433178896330381 0.272746681507094 0.0357114214288671 0.743815747275457 0.177763418660895 0.577441973242489 0.133973800012519 0.0189806044868671 0 0 0 0 0 0 0 0 0 0 0 0 0 0 0 0 0 0 0 0 0 0 0 0 0 0 -0.0895784999010035 0 0 -0.786028155619647 0 -0.44585415157736 0 0 0
0 0 0 0 0 0 0 0 0 0 0 0 0 0 0 0.138168085136039 0.440922306134738 0.237365731615004 0 0 0 0 0 0 0 0 0 0 0 0 0 0 0 0 0 0 0 0 0 0 0 0 -0.0895784999010035 0 -0.584818743210472 0 -1.44830566595875 0 0 0
0 0 0 0 0.0990143632341616 0.0854731602977718 0.464715013159261 0 0 0 0 0 0 0 0 0 0 0 0 0 0 0 0 0 0 0 0 0 0 0 0 0 0 0 0 0 0 0 0 0 0 0 0 -0.0895784999010035 -2.46439915719807 0 0 0 0 0
0 0 0 0 0 0 0 0 0 0 0 0 0 0 0 0 0 0 0 0 0 0 0 0 0 0 0 0 0 0 0.895783259054114 0.367777932996201 0.0467271534871064 0.414897749712541 0.0470227097908434 0.0307995220842694 0.118904187668298 0.106249994522497 0.72021037003108 0.132467457652182 0.112189935834 0.160479728227464 0.116939322589526 0.504122052460796 -0.0895784999010035 0.115651033722545 0.360831863214176 0.249171111102515 0 0
0 0 0 0 0 0 0 0 0 0 0 0 0 0 0 0 0 0 0 0 0 0 0 0 0 0 0 0 0.912746192047356 0.0471218743290574 0.104692667275926 0.065057149621012 0.0625838342695473 0.495675558769758 0.0824856604252147 1.2264609331435 0.423668481119379 0.0981278345831626 1.93440867636306 0.144032978966102 0 0 0 0 -0.556843437414695 -0.0895784999010035 0 0 0 0
0 0 0 0 0 0 0 0 0 0 0 0 0 0 0 0 0 0 0 0 0 0 0 0 0 0 0 0 0 0 0 0 0 0 0.321728351490167 0.0214400309686181 0.179646286528318 0.143001869516963 0.0912406687368443 0.175142054400656 0.419901092985978 0.0976390325176174 0.304490082763687 0 -1.83627728558158 0 -0.0895784999010035 0 0 0
0 0 0 0 0 0 0 0 0 0 0 0 0 0 0 0 0 0 0 0 0 0 0 0 0 0.327961162688718 0.124017678882883 0.226078183882956 0.192605515617381 0 0 0 0 0 0 0 0 0 0 0 0 0 0 0 -1.22409073119657 0 0 -0.0895784999010035 0 0
0 0 0 0 0 0 0 0 0.153424052908071 0.174721741481055 0.144217905008791 0.142283101846274 0.134780517356669 0 0 0 0 0 0 0 0 0 0 0 0 0 0 0 0 0 0 0 0 0 0 0 0 0 0 0 0 0 0 0 0 0 0 0 -0.0895784999010035 0
0 0 0 0 0 0 0 0 0 0 0 0 0 0 0 0 0 0 0 0 0 0 0 0 0.16588759507064 0.119789230593545 0.40697625062002 0.0126471887926658 0.175527629572356 0 0 0 0 0 0 0 0 0 0 0 0 0 0 0 0 0 0 0 0 -0.0895784999010035
