0.157057373568012
5.01729604357509
0.918592749970138
0.496492085852097
0.260399448031541
1.06673466519004
1.25207673953444
1.4986017730853
1.82149826520667
0.913363314539473
0.312706039435575
2.48064538581681
0.602118951938261
0.85694588278741
1.53388549919944
0.807076908317917
0.0888945708892095
2.40477449878129
0.463917690744225
0.554370588421673
3.23375866148002
2.27807780028468
2.2567205942928
3.93906639666809
0.293458339361778
0.964090407910727
1.23719797682567
0.673430448101187
0.166514850653292
1.30263809316965
0.937726782041468
0.0930046265449865
0.369718001956424
0.914247085868656
0.137480673239919
0.250582053570339
1.01233275332143
1.86091848173608
0.504008765963603
3.72673491894886
0.689182148331012
1.89176785533217
0.557620393660907
1.60511315540674
0.370782484784865
1.28586134643944
2.623987275876
0.614510896238011
3.276731422921
0.301200270688415
