0.817484680028117
2.2549917118644
2.70865640732198
0.987570279550344
0.28563645279516
1.0774734485858
0.640270842007191
0.665720775361569
0.310000212707028
1.9484275118111
1.44053791938282
1.55762001109938
0.462336150510363
0.872141722265593
0.0905021323913737
0.794491183485873
1.11153782302852
2.12803068543329
0.841342485140717
1.36305061005092
2.0122157213738
0.809221597586317
3.38308810588321
0.302258186629226
1.30530763731576
0.194846542024456
2.82132616504049
0.905209935889736
2.84990156153476
0.834773244190935
1.7392062575326
0.552615274265398
1.11367468046885
0.939396469944607
0.762187831845283
0.53092744952084
3.69889518783399
0.919686008295321
0.592964027647291
0.390098500269078
0.662827305442132
0.619541158502136
2.57176581579449
1.92296447489829
0.298142286239176
0.483487793268923
4.96818978749384
0.778644822584558
1.98986071660938
1.26273326055109
