1.30631031575005
1.13536189344036
1.19507708680575
0.625764501860515
7.31047802850716
7.65081282330701
0.392749487240913
0.374153035664519
1.05262539186077
2.27418060258259
2.37155728081431
0.80628749483604
1.24888237101437
0.524656660863272
1.71722538416466
0.607895258974691
2.84909134271787
2.32869114117145
0.654173440835248
0.412196652015813
1.42171722431583
0.569890104842105
1.47499963996021
0.582479098956524
0.873573564794099
0.53525176039886
0.561056761870456
0.635397519502684
1.61212786666291
1.80794150936886
0.38561405866186
0.295843942404339
0.690305656402894
0.730944784237724
0.712924956230392
1.62493444661393
2.12522214703962
1.41602299965904
3.93282562598857
1.28175179553944
0.555603767013552
1.65417417304829
5.12585744496187
7.10473726820632
0.186238565085895
0.433791903436738
1.08499873921356
0.311703916488051
0.498007347729963
1.5140785346728
