1.05551194661099
1.0471173842946
3.49996396456207
0.492137255606881
1.55490340878494
0.325340619782331
0.76605863159462
1.69010746757382
0.737918548419699
1.47946361127503
0.230478091375362
0.157695237839434
0.583460188423074
2.96993796069226
0.31763726071062
3.10137478756211
6.01957768696341
0.747214780695746
0.448766231631725
1.38358370034243
0.539444780159701
1.01392178308543
2.02254087583049
2.38389478382293
0.693707529146441
0.515499425645772
1.98997324706673
0.331719726768103
3.83189422711304
3.16726280927765
0.910963021269867
1.06035296289604
1.85443892147101
0.532746033579121
2.84501934929107
1.02632113885324
1.82404385202947
0.0944980313677562
2.30758976163545
0.758726747658671
6.84420123041984
0.926169213158912
0.719651025075886
0.368570536281237
0.162875763502727
3.60100881781996
3.08915198344824
1.51266603925361
5.38299982806957
5.98123189517264
