-0.116051884820314 0 0 0 0 0 0 0 0 0 0 0 0 0 0 0 0 0 0 0 0 0 0 0 -1.77406873947151 0 0 0 -0.521400381080375 0 0 0 0 0 0 0 0 0 0 0 0 0 0 0 0 0 0 0 0 0
0 -0.116051884820314 0 0 0 0 0 0 0 0 0 0 0 0 0 0 0 0 0 0 0 0 0 0 -1.6784012010414 0 0 0 -10.1089602993586 0 0 0 0 0 0 0 0 0 0 0 0 0 0 0 0 0 0 0 0 0
0 0 -0.116051884820314 0 0 0 0 0 0 0 0 0 -0.185173469513181 0 0 0 0 0 0 0 0 0 0 -0.46323670137338 0 0 0 0 0 0 0 0 0 0 0 -0.793468765066569 0 0 0 0 0 0 0 0 0 0 0 0 0 0
0 0 0 -0.116051884820314 0 0 0 0 0 0 0 0 0 0 0 0 0 0 0 0 0 0 0 -2.43378836725102 0 0 0 0 0 0 -1.74303027016852 0 0 0 0 0 0 -1.67688942064107 0 0 0 0 0 0 0 0 0 0 0 0
0 0 0 0 -0.116051884820314 0 0 0 0 0 0 -0.982349053319666 0 0 -0.297458785410055 0 0 0 0 0 -1.08462070806778 0 0 -2.5160485430179 0 0 0 0 0 0 -3.66609839784933 0 0 0 0 0 0 -0.776262469674372 0 0 0 0 0 0 0 0 0 0 0 0
0 0 0 0 0 -0.116051884820314 0 0 0 0 0 -0.473213947115215 0 0 -0.524814243998867 0 0 0 0 0 -4.45335946796449 0 0 -0.801510736066474 0 0 0 0 0 0 -0.393201788502028 0 0 0 0 0 0 -0.631873261782583 0 0 0 0 0 0 0 0 0 0 0 0
0 0 0 0 0 0 -0.116051884820314 0 0 0 0 0 0 0 -0.0845551384976233 0 0 0 0 0 -0.438449892394368 0 0 0 0 0 0 0 0 0 0 0 0 0 0 0 0 -3.32355874621547 0 0 0 0 0 0 -1.91459714188159 0 0 0 0 0
0 0 0 0 0 0 0 -0.116051884820314 0 0 0 0 0 0 -3.28045992521068 0 0 0 0 0 -0.109069489495139 0 0 0 0 0 0 0 0 0 0 0 0 0 0 0 0 0 0 0 0 0 0 0 -0.657985063415734 0 0 0 0 0
0 0 0 0 0 0 0 0 -0.116051884820314 0 0 0 0 0 -0.530932409804662 0 0 0 0 0 -0.219307857327128 0 0 0 0 0 0 0 0 0 0 0 0 0 0 0 0 0 0 0 0 -1.21453011076576 0 0 -0.808110291711211 0 0 -0.498308048593261 0 0
0 0 0 0 0 0 0 0 0 -0.116051884820314 0 0 0 0 -0.729997306993854 0 0 0 0 0 -3.92797944038115 0 0 0 0 0 0 0 0 0 0 0 0 0 0 0 0 0 0 0 0 -0.258315155977657 0 0 0 0 0 -0.490177125265027 0 0
0 0 0 0 0 0 0 0 0 0 -0.116051884820314 0 0 0 0 0 0 0 0 -0.727808441455643 -0.537056093171504 0 0 0 0 0 0 0 0 0 0 0 0 0 0 0 0 0 0 0 0 -2.16436402517644 0 0 0 0 0 -4.31593917580382 0 0
0 0 0 0 0.195131967280705 0.0910355408173038 0 0 0 0 0 -0.116051884820314 0 0 0 0 0 0 0 -1.90406010543905 -0.0879608226523336 0 0 0 0 0 0 0 0 0 0 0 -2.27148703637156 0 0 0 0 0 0 0 0 -0.263361923914259 0 0 0 0 0 -1.75657652496029 0 0
0 0 0.0394473909559159 0 0 0 0 0 0 0 0 0 -0.116051884820314 0 0 0 0 0 0 -5.56217587829402 0 0 0 0 0 0 0 0 0 0 0 0 -1.15437071127187 0 0 0 0 0 0 0 0 -5.8248036193675 0 0 0 0 0 0 0 0
0 0 0 0 0 0 0 0 0 0 0 0 0 -0.116051884820314 0 0 0 0 0 0 0 -0.693411376914685 0 0 0 0 0 0 0 0 0 0 0 0 -0.584769225500006 0 0 0 0 0 0 -0.460083248619725 0 -10.304627576658 0 0 0 0 -0.889678585494589 0
0 0 0 0 0.0541251927068843 0.106407426973453 0.0174473381243714 0.700312746169111 0.111106567897974 0.140033541224992 0 0 0 0 -0.116051884820314 0 0 -0.854290558274286 0 0 0 -4.05802903706036 0 0 0 0 0 0 0 0 0 0 0 0 -0.609834519745293 0 0 0 0 0 0 -0.402444693869003 0 -0.275897458243955 0 0 0 0 -1.20222472011906 0
0 0 0 0 0 0 0 0 0 0 0 0 0 0 0 -0.116051884820314 0 0 0 0 0 -1.322684948706 0 0 0 0 -3.67321258794038 0 0 0 0 0 0 0 -0.429219958344889 0 0 0 0 0 0 -0.535784710997212 0 -1.81235402804881 0 0 0 0 -0.114753630664822 0
0 0 0 0 0 0 0 0 0 0 0 0 0 0 0 0 -0.116051884820314 0 0 0 0 0 0 0 0 0 -1.11525499597559 0 0 0 0 0 0 0 -0.627146399272842 0 0 0 0 0 0 -1.3325469910195 0 -0.768898176265776 0 0 0 0 0 0
0 0 0 0 0 0 0 0 0 0 0 0 0 0 0.165240176492508 0 0 -0.116051884820314 -1.59793464738349 0 0 0 0 0 0 0 -0.402706927771846 0 0 -4.92064152312477 0 0 0 0 -1.28402860719208 0 0 0 0 0 -0.595422689987947 0 0 0 0 0 0 0 0 0
0 0 0 0 0 0 0 0 0 0 0 0 0 0 0 0 0 0.306493951475918 -0.116051884820314 0 0 0 0 0 0 0 -1.34821893877288 0 0 -1.41024974917318 0 0 0 0 -3.52391743285605 0 0 0 0 0 -0.811120430966968 0 0 0 0 0 0 0 0 0
0 0 0 0 0 0 0 0 0 0 0.144287174433222 0.344409203436414 0.971132662519069 0 0 0 0 0 0 -0.116051884820314 0 0 0 0 0 0 -0.70589077357534 -1.32405090378767 0 0 0 0 0 0 -0.741636192020114 0 -1.00382399160656 0 0 0 -1.35832709979553 0 0 0 0 -5.65682569116791 0 0 0 0
0 0 0 0 0.221943030882579 0.914375554501027 0.0884599869208192 0.0214778988211753 0.0416608508920627 0.866564050341054 0.107833078649396 0.018117731022695 0 0 0 0 0 0 0 0 -0.116051884820314 0 0 0 0 0 -1.39831308739771 -0.234063313646428 0 0 0 0 0 0 -0.311908540895393 0 -8.55522735758458 0 0 0 -2.98212583378282 0 0 0 0 -12.4310393154446 0 0 0 0
0 0 0 0 0 0 0 0 0 0 0 0 0 0.141111165971156 0.798396342257086 0.266526469172785 0 0 0 0 0 -0.116051884820314 0 0 0 0 -1.85778827843262 -0.435945261294527 0 0 0 0 0 0 -3.1373898875321 0 -1.28068250813488 0 0 0 -1.36477938717369 0 0 0 0 -0.893824276813785 0 0 0 0
0 0 0 0 0 0 0 0 0 0 0 0 0 0 0 0 0 0 0 0 0 0 -0.116051884820314 0 0 -2.62870669727039 0 0 0 0 0 0 0 0 0 0 0 0 0 0 0 0 0 0 0 0 0 0 0 0
0 0 0.0900061355047134 0.454916130432067 0.525272434499203 0.163185287891072 0 0 0 0 0 0 0 0 0 0 0 0 0 0 0 0 0 -0.116051884820314 0 -2.71823610309093 0 0 0 0 0 0 0 0 0 0 0 0 0 0 0 0 0 0 0 0 0 0 0 0
0.376350334510491 0.325219077067561 0 0 0 0 0 0 0 0 0 0 0 0 0 0 0 0 0 0 0 0 0 0 -0.116051884820314 -3.36947733386552 0 0 0 0 0 0 0 0 0 0 0 0 0 0 0 0 0 0 0 0 0 0 0 0
0 0 0 0 0 0 0 0 0 0 0 0 0 0 0 0 0 0 0 0 0 0 0.464007201914398 0.566765725696184 0.652642742299435 -0.116051884820314 0.249051898477099 0.101620529243896 0 0 0 0 0 0 0 0 0 0 0 0 0 0 0 0 0 0 -0.35201685778018 0 0 0
0 0 0 0 0 0 0 0 0 0 0 0 0 0 0 0.797809457780365 0.219123806266366 0.0865433725297924 0.254202853140031 0.136997995926021 0.263115781457275 0.346325216614729 0 0 0 -1.2478664357009 -0.116051884820314 0 0 0 0 0 0 0 0 0 0 0 0 0 0 0 0 0 0 0 0 0 0 -0.512294038176835
0 0 0 0 0 0 0 0 0 0 0 0 0 0 0 0 0 0 0 0.260665738126109 0.0494815041468093 0.0859266768541277 0 0 0 -0.473629690282681 0 -0.116051884820314 0 0 0 0 0 -0.125801037368657 0 0 0 0 0 0 0 0 0 0 0 0 0 0 0 -4.46087609889838
0.108032498796148 1.8867851900157 0 0 0 0 0 0 0 0 0 0 0 0 0 0 0 0 0 0 0 0 0 0 0 0 0 0 -0.116051884820314 0 0 0 0 -0.396619565465597 0 0 0 0 0 0 0 0 0 0 0 0 0 0 0 -4.29872718123643
0 0 0 0 0 0 0 0 0 0 0 0 0 0 0 0 0 0.919456445444054 0.257011072838814 0 0 0 0 0 0 0 0 0 0 -0.116051884820314 0 0 0 0 0 0 0 0 0 0 0 0 0 0 0 0 0 0 0 -3.90333864230667
0 0 0 0.35988130409456 0.764717904108541 0.0886886875079188 0 0 0 0 0 0 0 0 0 0 0 0 0 0 0 0 0 0 0 0 0 0 0 0 -0.116051884820314 0 0 0 0 0 0 0 0 0 0 0 0 0 0 0 0 0 0 -0.571023203314689
0 0 0 0 0 0 0 0 0 0 0 0 0 0 0 0 0 0 0 0 0 0 0 0 0 0 0 0 0 0 0 -0.116051884820314 0 0 0 0 0 0 0 0 0 0 -0.1768152354567 0 0 0 0 0 0 -1.54218743427352
0 0 0 0 0 0 0 0 0 0 0 0.465824733736592 0.226122967626378 0 0 0 0 0 0 0 0 0 0 0 0 0 0 0 0 0 0 0 -0.116051884820314 0 0 0 0 0 0 0 0 0 -0.462469510472003 0 0 0 0 0 0 -2.14926575812863
0 0 0 0 0 0 0 0 0 0 0 0 0 0 0 0 0 0 0 0 0 0 0 0 0 0 0 0.0253596280483524 0.0806326083326286 0 0 0 0 -0.116051884820314 0 0 0 0 0 0 0 0 -1.10104616879134 0 0 0 0 0 0 -0.382869915611676
0 0 0 0 0 0 0 0 0 0 0 0 0 0.118365689006109 0.125731122671386 0.0802588995701573 0.123334834957347 0.257032452267795 0.713215597511107 0.150919970621088 0.0632826656131605 0.615222517298286 0 0 0 0 0 0 0 0 0 0 0 0 -0.116051884820314 0 0 0 0 0 0 0 -5.22883925586084 0 0 0 0 0 0 -2.0631504638995
0 0 0.160630932006663 0 0 0 0 0 0 0 0 0 0 0 0 0 0 0 0 0 0 0 0 0 0 0 0 0 0 0 0 0 0 0 0 -0.116051884820314 0 0 0 0 0 0 0 0 0 0 0 0 0 -1.56120359410114
0 0 0 0 0 0 0 0 0 0 0 0 0 0 0 0 0 0 0 0.208155751873934 1.70424391937029 0.274079475552867 0 0 0 0 0 0 0 0 0 0 0 0 0 0 -0.116051884820314 0 0 0 0 0 0 0 0 0 0 0 0 -1.13060440209413
0 0 0 0.31482939163192 0.137595970609437 0.123327152144436 0.623870105066812 0 0 0 0 0 0 0 0 0 0 0 0 0 0 0 0 0 0 0 0 0 0 0 0 0 0 0 0 0 0 -0.116051884820314 -4.34039897333125 0 0 0 0 0 0 0 0 0 0 0
0 0 0 0 0 0 0 0 0 0 0 0 0 0 0 0 0 0 0 0 0 0 0 0 0 0 0 0 0 0 0 0 0 0 0 0 0 0.887153553166517 -0.116051884820314 0.123822070948255 0 0 0 0 0 0 0 0 0 0
0 0 0 0 0 0 0 0 0 0 0 0 0 0 0 0 0 0 0 0 0 0 0 0 0 0 0 0 0 0 0 0 0 0 0 0 0 0 -0.583172342474145 -0.116051884820314 0 0 0 0 0 0 0 0 0 0
0 0 0 0 0 0 0 0 0 0 0 0 0 0 0 0 0 0.109174386027376 0.157244748576475 0.26107171973248 0.581965665426724 0.263506568583263 0 0 0 0 0 0 0 0 0 0 0 0 0 0 0 0 0 0 -0.116051884820314 0 0 0 0 0 0 0 0 0
0 0 0 0 0 0 0 0 0.261811088006072 0.0531912206657212 0.437265742928758 0.049317266220689 1.12122560337814 0.0907033655620799 0.0849781268063814 0.113915563073115 0.257845193104643 0 0 0 0 0 0 0 0 0 0 0 0 0 0 0 0 0 0 0 0 0 0 0 0 -0.116051884820314 0 0 0 0 0 0 0 0
0 0 0 0 0 0 0 0 0 0 0 0 0 0 0 0 0 0 0 0 0 0 0 0 0 0 0 0 0 0 0 0.0367636382674067 0.0831737685134858 0.213982963846897 1.1266234093633 0 0 0 0 0 0 0 -0.116051884820314 0 0 0 0 0 0 0
0 0 0 0 0 0 0 0 0 0 0 0 0 2.10122548376212 0.0513015198683286 0.379169056299982 0.160406745590917 0 0 0 0 0 0 0 0 0 0 0 0 0 0 0 0 0 0 0 0 0 0 0 0 0 0 -0.116051884820314 0 0 0 0 0 0
0 0 0 0 0 0 0.411332604132553 0.128090521326133 0.16967342448789 0 0 0 0 0 0 0 0 0 0 0 0 0 0 0 0 0 0 0 0 0 0 0 0 0 0 0 0 0 0 0 0 0 0 0 -0.116051884820314 0 0 0 0 0
0 0 0 0 0 0 0 0 0 0 0 0 0 0 0 0 0 0 0 1.1145797458269 2.48063765091417 0.181084414655814 0 0 0 0 0 0 0 0 0 0 0 0 0 0 0 0 0 0 0 0 0 0 0 -0.116051884820314 0 0 0 0
0 0 0 0 0 0 0 0 0 0 0 0 0 0 0 0 0 0 0 0 0 0 0 0 0 0.0713700460953763 0 0 0 0 0 0 0 0 0 0 0 0 0 0 0 0 0 0 0 0 -0.116051884820314 0 0 0
0 0 0 0 0 0 0 0 0.0975553404626974 0.094621611318439 0.877654443316293 0.356074105630236 0 0 0 0 0 0 0 0 0 0 0 0 0 0 0 0 0 0 0 0 0 0 0 0 0 0 0 0 0 0 0 0 0 0 0 -0.116051884820314 0 0
0 0 0 0 0 0 0 0 0 0 0 0 0 0.176635601458192 0.260471247772662 0.0202276189274567 0 0 0 0 0 0 0 0 0 0 0 0 0 0 0 0 0 0 0 0 0 0 0 0 0 0 0 0 0 0 0 0 -0.116051884820314 0
0 0 0 0 0 0 0 0 0 0 0 0 0 0 0 0 0 0 0 0 0 0 0 0 0 0 0.104850536905879 0.864606382575203 0.82227671051757 0.775072154946012 0.115064943664908 0.299109019065345 0.428403042382194 0.0702179915076982 0.419872248092305 0.32662841037859 0.205980165994171 0 0 0 0 0 0 0 0 0 0 0 0 -0.116051884820314
