-0.47117492842291 -1.90292256546682 0 0 0 0 0 0 0 0 0 0 0 0 0 0 0 0 0 0 0 0 0 0 0 0 0 0 0 0 0 -3.28425686870171 0 0 0 0 0 0 0 -1.30675873162452 0 0 0 0 0 0 0 0 0 0
0.393719061105683 -0.47117492842291 0 0 0 0 0 0 0 0 0 0 0 0 0 0 0 0 0 0 0 0 0 0 -5.70861077574681 0 0 0 0 0 0 -2.72363646530676 0 0 0 0 0 0 0 -0.621962917746748 0 0 0 0 0 0 0 0 0 0
0 0 -0.47117492842291 0 0 0 0 -0.474294474146136 -1.39540025509363 0 0 0 0 0 0 0 0 0 0 0 0 0 0 0 -1.35203600644878 0 0 0 0 0 0 -0.190553207507758 0 0 0 0 0 0 0 -0.567202587447086 0 0 0 0 0 0 0 0 0 0
0 0 0 -0.47117492842291 0 0 0 -0.426777345851887 -3.6445938330336 0 0 0 0 0 0 0 0 0 0 0 0 0 0 0 -2.46751379753958 0 0 0 0 0 0 -0.718360089411081 0 0 0 0 0 0 0 -3.1229016986726 0 0 0 0 0 0 0 0 0 0
0 0 0 0 -0.47117492842291 0 -2.26986763532789 -2.00442229051205 -3.20919375191522 -1.0312289384411 0 0 0 0 0 0 0 0 0 0 0 0 0 0 -0.945954539478421 -0.193426065391495 0 0 0 0 0 0 0 0 0 0 0 0 0 -1.62604546518751 0 0 0 0 0 0 0 0 0 0
0 0 0 0 0 -0.47117492842291 -0.441283927605105 0 0 0 0 0 0 0 0 0 0 0 0 0 0 0 0 0 -0.477953267797415 -1.76063080137254 0 0 0 0 0 0 0 0 0 0 0 0 0 -1.41292281947897 0 0 0 0 0 0 0 0 0 0
0 0 0 0 0.498473181949126 0.0860839424696342 -0.47117492842291 0 0 0 -1.05315716467701 0 0 0 0 0 0 0 0 0 0 0 0 0 -8.79961425922326 -3.02587652525257 0 0 0 0 0 0 0 0 0 0 0 0 0 -0.538939258282619 0 0 0 0 0 0 0 0 0 0
0 0 0.0988089502757664 0.0851873929112059 0.402368440477461 0 0 -0.47117492842291 0 0 -3.75305038268436 0 0 0 0 0 0 0 0 0 0 0 0 0 0 -1.24723447845128 0 0 0 0 0 0 0 0 0 0 0 0 0 -0.502796454099034 0 0 0 0 0 0 0 0 0 0
0 0 0.267133716832369 0.773585882073936 0.638014841010263 0 0 0 -0.47117492842291 0 0 0 0 0 0 0 0 0 -2.79478056020151 0 0 0 0 0 0 -3.0366608838666 0 0 0 0 0 0 0 0 0 0 -0.820957680037573 0 0 -1.52143854444487 0 0 0 0 0 0 0 0 0 0
0 0 0 0 0.207825943318083 0 0 0 0 -0.47117492842291 0 0 0 0 0 0 0 0 -1.91849011860624 0 0 0 0 0 0 -0.735245306081492 0 0 0 0 0 0 0 0 0 0 -0.576730970151882 0 0 0 0 0 0 0 0 0 0 0 0 0
0 0 0 0 0 0 0.218329642830174 0.756008865247488 0 0 -0.47117492842291 0 0 0 0 0 0 0 -0.607308154360716 0 0 0 0 0 0 -2.59010093268807 0 0 0 0 0 0 0 0 -0.869661365878755 0 -5.13690903734719 0 0 0 0 0 0 0 0 -0.608828444571262 0 0 0 0
0 0 0 0 0 0 0 0 0 0 0 -0.47117492842291 0 0 0 0 0 0 -1.12534308884781 0 0 0 0 0 0 -0.286680101380966 0 0 0 0 0 0 0 0 -0.770670673142607 0 -0.234000108002108 0 0 0 0 0 0 0 0 -0.566918967441126 0 0 0 0
0 0 0 0 0 0 0 0 0 0 0 0 -0.47117492842291 0 0 0 0 0 -0.714347388706025 0 0 0 0 0 0 -1.46158935085406 0 0 0 0 0 0 0 0 -1.30424365950199 0 -1.65696087698082 0 0 0 0 0 0 0 0 -1.84413512413702 0 0 0 0
0 0 0 0 0 0 0 0 0 0 0 0 0 -0.47117492842291 0 0 0 -0.188653275474857 -1.21313200657436 0 0 0 0 0 0 0 0 0 0 -1.7096043963627 -0.761288422480056 0 0 0 -0.637533456793596 0 0 0 0 0 0 0 0 0 0 0 0 0 0 0
0 0 0 0 0 0 0 0 0 0 0 0 0 0 -0.47117492842291 0 0 -1.29263095575267 0 0 0 0 0 0 0 0 0 0 0 0 -0.508782073504473 0 0 0 -2.8444584818182 0 0 0 0 0 0 0 0 0 0 0 0 0 0 0
0 0 0 0 0 0 0 0 0 0 0 0 0 0 0 -0.47117492842291 0 -0.100274837987216 0 0 0 0 0 0 0 0 -0.62701507118377 0 0 0 -1.214590088202 0 0 0 -0.660582613962292 0 0 0 0 0 0 0 0 0 0 0 0 0 0 0
0 0 0 0 0 0 0 0 0 0 0 0 0 0 0 0 -0.47117492842291 0 0 0 -0.523878775368392 0 0 -1.79060630278538 0 0 0 0 0 0 0 0 0 0 0 0 0 0 0 0 0 0 0 0 0 0 0 0 -0.272699075748117 0
0 0 0 0 0 0 0 0 0 0 0 0 0 0.0377119742901857 0.250652701865404 0.0195708456379213 0 -0.47117492842291 0 0 -2.09446334020938 0 0 -0.158617499532411 0 0 0 0 0 0 0 0 0 -0.32778320929341 0 0 0 0 0 0 0 0 0 0 0 0 0 0 -1.25093194201427 0
0 0 0 0 0 0 0 0 0.518661505584479 0.366324361166438 0.121943836488366 0.223420230366446 0.148089034617171 0.246483780819824 0 0 0 0 -0.47117492842291 0 0 0 0 -0.315507910313246 0 0 0 0 0 0 0 0 0 -1.02616637675964 0 0 0 0 0 0 0 0 0 0 0 0 0 0 -1.29836166198064 0
0 0 0 0 0 0 0 0 0 0 0 0 0 0 0 0 0 0 0 -0.47117492842291 0 0 0 -0.641375009648366 0 0 0 0 0 0 0 0 0 -5.17202490121566 0 0 0 0 0 0 0 0 0 0 0 0 0 0 0 0
0 0 0 0 0 0 0 0 0 0 0 0 0 0 0 0 0.103928617151613 0.446425276990214 0 0 -0.47117492842291 0 -0.784200079437978 -4.87770906872402 0 0 0 0 0 0 0 0 0 -0.461507706977653 0 0 0 0 0 0 0 0 -1.57375695630051 0 0 0 0 0 0 0
0 0 0 0 0 0 0 0 0 0 0 0 0 0 0 0 0 0 0 0 0 -0.47117492842291 -2.37808596105107 -0.117299467102122 0 0 0 0 0 0 0 0 0 -2.11880882263612 0 0 0 0 0 0 0 0 -0.301480951624247 0 0 0 0 0 0 0
0 0 0 0 0 0 0 0 0 0 0 0 0 0 0 0 0 0 0 0 0.139897688805629 0.435383531441946 -0.47117492842291 -1.49650333302931 0 0 0 0 0 0 0 0 0 -0.637400426373663 0 0 0 0 0 0 0 -0.358893398986126 -0.7822916978111 -3.46367316062432 0 0 0 0 0 0
0 0 0 0 0 0 0 0 0 0 0 0 0 0 0 0 0.360253688960822 0.0326144070767107 0.0686101062095015 0.131956144540779 1.0056291136496 0.025989817109714 0.292635443318729 -0.47117492842291 0 0 0 0 0 0 0 0 0 -0.257320875173359 0 0 0 0 0 0 0 -1.89231221251956 -3.35107304576941 -0.554711551895358 0 0 0 0 0 0
0 1.10585467653378 0.285169029067571 0.491549238267037 0.173036337865267 0.095711825817309 1.69928986426811 0 0 0 0 0 0 0 0 0 0 0 0 0 0 0 0 0 -0.47117492842291 0 0 0 0 0 0 0 0 0 0 0 0 0 0 0 0 -0.148729546220693 -2.272532733602 0 0 0 0 0 0 0
0 0 0 0 0.0404735023051252 0.354832980785954 0.583766950933958 0.257036494730146 0.608623180654444 0.134142544227282 0.545349499304453 0.0587694305437428 0.310306950649525 0 0 0 0 0 0 0 0 0 0 0 0 -0.47117492842291 0 0 0 0 0 0 0 0 0 0 0 0 0 0 0 -1.13878304417538 -11.8922106890526 0 0 0 0 0 0 0
0 0 0 0 0 0 0 0 0 0 0 0 0 0 0 0.131592338701299 0 0 0 0 0 0 0 0 0 0 -0.47117492842291 0 0 0 0 0 0 0 0 0 0 0 0 0 -0.582283259559246 -0.0943363527985451 -2.48541213125532 0 0 0 0 0 0 0
0 0 0 0 0 0 0 0 0 0 0 0 0 0 0 0 0 0 0 0 0 0 0 0 0 0 0 -0.47117492842291 0 0 0 0 -1.04373488451172 0 0 0 0 0 0 0 -2.80578815595917 -5.57059664370072 0 0 -0.374680043691482 0 0 0 0 0
0 0 0 0 0 0 0 0 0 0 0 0 0 0 0 0 0 0 0 0 0 0 0 0 0 0 0 0 -0.47117492842291 0 0 0 0 0 0 -0.159132764263834 0 0 0 0 -0.697764347747369 0 0 0 -0.131994945423578 0 0 0 0 0
0 0 0 0 0 0 0 0 0 0 0 0 0 0.327980617452838 0 0 0 0 0 0 0 0 0 0 0 0 0 0 0 -0.47117492842291 0 0 0 0 0 -2.53741686929725 0 0 0 0 -3.01437439711692 0 0 0 -1.13274893378497 0 0 0 0 0
0 0 0 0 0 0 0 0 0 0 0 0 0 0.143868378879334 0.106905383244435 0.241167463138899 0 0 0 0 0 0 0 0 0 0 0 0 0 0 -0.47117492842291 0 0 0 0 -0.768661453230594 0 0 0 0 -0.791703046600383 0 0 0 -0.204592519548296 0 0 0 0 0
0.683781095009919 0.514313652606013 0.0372476235292232 0.145428885816488 0 0 0 0 0 0 0 0 0 0 0 0 0 0 0 0 0 0 0 0 0 0 0 0 0 0 0 -0.47117492842291 0 0 0 0 0 0 -0.64105261856053 0 -0.520937764505951 0 0 0 -0.235608342816832 0 0 0 0 0
0 0 0 0 0 0 0 0 0 0 0 0 0 0 0 0 0 0 0 0 0 0 0 0 0 0 0 0.182201418401313 0 0 0 0 -0.47117492842291 0 0 0 0 0 -1.10243193426601 0 -0.27479465160527 0 0 0 -1.22170543736149 0 0 0 0 0
0 0 0 0 0 0 0 0 0 0 0 0 0 0 0 0 0 0.0710419214483954 0.186290483345365 1.0929402799206 0.0927060824933043 0.421942853777899 0.146436022209299 0.05296955232812 0 0 0 0 0 0 0 0 0 -0.47117492842291 0 0 0 0 -0.620909126225453 0 -0.20129548723399 0 0 0 -0.3768189900768 0 0 0 0 0
0 0 0 0 0 0 0 0 0 0 0.158344637305384 0.146025857690537 0.274283560525296 0.122737635215233 0.591037313596684 0.134838488565271 0 0 0 0 0 0 0 0 0 0 0 0 0 0 0 0 0 0 -0.47117492842291 0 0 0 -2.29449436688395 0 -1.45321717097576 0 0 0 -0.857045674608561 0 0 0 0 0
0 0 0 0 0 0 0 0 0 0 0 0 0 0 0 0 0 0 0 0 0 0 0 0 0 0 0 0 0.0319368479698086 0.490977048189575 0.154174188834586 0 0 0 0 -0.47117492842291 0 0 -0.880080855253351 0 0 0 0 0 0 0 0 0 0 0
0 0 0 0 0 0 0 0 0.156462802102743 0.13093746712329 1.03004644072683 0.04985561022524 0.318047967713183 0 0 0 0 0 0 0 0 0 0 0 0 0 0 0 0 0 0 0 0 0 0 0 -0.47117492842291 0 -1.44584203267421 0 0 0 0 0 0 0 0 0 0 0
0 0 0 0 0 0 0 0 0 0 0 0 0 0 0 0 0 0 0 0 0 0 0 0 0 0 0 0 0 0 0 0 0 0 0 0 0 -0.47117492842291 -0.871890748084756 0 0 0 0 0 0 0 0 0 0 0
0 0 0 0 0 0 0 0 0 0 0 0 0 0 0 0 0 0 0 0 0 0 0 0 0 0 0 0 0 0 0 0.128305066030441 0.220944306802088 0.134803462585862 0.458133619269843 0.199215632946036 0.242790057619064 0.169756480165341 -0.47117492842291 0 0 0 0 0 0 0 -0.379748216699464 0 0 0
0.26919538219859 0.124825003570133 0.114344404600429 0.59833393595849 0.302188229421134 0.302399158782056 0.106790642917321 0.0981887481254971 0.307613610607194 0 0 0 0 0 0 0 0 0 0 0 0 0 0 0 0 0 0 0 0 0 0 0 0 0 0 0 0 0 0 -0.47117492842291 0 0 0 0 0 0 -3.03749412445025 0 0 0
0 0 0 0 0 0 0 0 0 0 0 0 0 0 0 0 0 0 0 0 0 0 0 0 0 0 0.113430501816168 0.593058297631417 0.131382211688171 0.638664080701331 0.155271434433213 0.101258603472337 0.0518572309411709 0.0410236345124745 0.302711233939754 0 0 0 0 0 -0.47117492842291 0 0 0 0 0 -6.63608245569564 0 0 0
0 0 0 0 0 0 0 0 0 0 0 0 0 0 0 0 0 0 0 0 0 0 0.0754162314929348 0.33941880060841 0.0305112338420062 0.230330649878969 0.0181124558142391 1.11459179941991 0 0 0 0 0 0 0 0 0 0 0 0 0 -0.47117492842291 0 0 0 0 0 -0.938757848028052 0 0
0 0 0 0 0 0 0 0 0 0 0 0 0 0 0 0 0 0 0 0 0.281040411756598 0.0622639933267786 0.151332529165484 0.676083166171066 0.463332066790435 2.19968054186442 0.494062386823744 0 0 0 0 0 0 0 0 0 0 0 0 0 0 0 -0.47117492842291 0 0 0 0 -0.44754821064508 0 0
0 0 0 0 0 0 0 0 0 0 0 0 0 0 0 0 0 0 0 0 0 0 0.646089093763756 0.098351664703421 0 0 0 0 0 0 0 0 0 0 0 0 0 0 0 0 0 0 0 -0.47117492842291 0 0 0 -3.4321339849738 0 0
0 0 0 0 0 0 0 0 0 0 0 0 0 0 0 0 0 0 0 0 0 0 0 0 0 0 0 0.0690552634762411 0.0260056457748393 0.214826738956889 0.0407192137086186 0.0461333189654421 0.253868642630652 0.0780251035320268 0.171680331913502 0 0 0 0 0 0 0 0 0 -0.47117492842291 0 0 -1.71532076694017 0 0
0 0 0 0 0 0 0 0 0 0 0.114204724718571 0.109321066037756 0.378071465240517 0 0 0 0 0 0 0 0 0 0 0 0 0 0 0 0 0 0 0 0 0 0 0 0 0 0 0 0 0 0 0 0 -0.47117492842291 0 -1.67889123464187 0 0
0 0 0 0 0 0 0 0 0 0 0 0 0 0 0 0 0 0 0 0 0 0 0 0 0 0 0 0 0 0 0 0 0 0 0 0 0 0 0.0712934986718006 0.620489797828021 1.32100508274487 0 0 0 0 0 -0.47117492842291 -0.136537490328665 0 0
0 0 0 0 0 0 0 0 0 0 0 0 0 0 0 0 0 0 0 0 0 0 0 0 0 0 0 0 0 0 0 0 0 0 0 0 0 0 0 0 0 0.198926335869577 0.0968116133746897 0.619019468035381 0.339322865481208 0.357596330570167 0.0290679892839736 -0.47117492842291 0.184572997815807 0.367867254831453
0 0 0 0 0 0 0 0 0 0 0 0 0 0 0 0 0.0513602814725027 0.266402315576074 0.267943431943635 0 0 0 0 0 0 0 0 0 0 0 0 0 0 0 0 0 0 0 0 0 0 0 0 0 0 0 0 -0.931749448548009 -0.47117492842291 0
0 0 0 0 0 0 0 0 0 0 0 0 0 0 0 0 0 0 0 0 0 0 0 0 0 0 0 0 0 0 0 0 0 0 0 0 0 0 0 0 0 0 0 0 0 0 0 -1.82755674487502 0 -0.47117492842291
