0.18494061241866
2.84178757598358
6.2707895648663
4.11905100088459
1.78561133559963
0.772685411336312
0.607494792021667
4.99559206874406
0.689610896408716
1.02462680067424
0.907077155940567
0.229612698395026
0.298752659293265
0.737744099449273
0.350292376553021
0.928492075654557
1.51440803655631
0.36370244411905
6.24003683288731
0.63541300221577
1.27259382207647
2.25631413189571
4.13545323990127
1.28382007357089
1.50302155076761
0.532053011158076
0.448663607410835
1.12277719366264
4.60669207181012
0.712298254564546
0.789970446533517
1.43948047376543
0.89939280005762
0.107145660873621
0.854709967073228
7.69008375500982
0.765886882771616
1.45260116183624
0.534689010036188
2.84387443936725
1.16888075632757
1.05317662192382
1.354106087737
0.808461209755772
0.229511287233697
0.465482345229027
0.223213462036683
2.20310677052372
0.724135307223167
1.43083781992511
