-0.196274158979382 0 0 0 -0.465863483562101 0 0 0 0 0 0 0 0 0 0 0 0 0 0 0 0 0 0 0 0 0 -0.683573944071441 0 0 0 0 0 -0.831810695381499 0 0 0 0 0 0 0 0 0 0 0 0 0 0 0 0 0
0 -0.196274158979382 0 0 -0.629725948087277 0 0 0 0 0 0 0 0 0 0 0 0 0 0 0 0 0 0 0 0 0 0 0 0 0 0 0 -0.835822689525375 0 0 0 0 0 0 0 0 0 0 0 0 0 0 0 0 0
0 0 -0.196274158979382 0 0 0 0 0 0 0 -0.639577651977179 0 0 0 0 0 0 0 0 0 0 0 0 0 0 0 0 0 0 0 0 0 -1.36653018033745 0 0 0 0 0 0 0 0 -0.671644624348978 0 0 0 0 0 0 0 -0.420180679631283
0 0 0 -0.196274158979382 0 -2.01410828936967 0 0 0 0 0 0 0 0 0 0 0 0 0 -1.57448399617901 0 0 0 0 0 0 0 0 0 0 0 0 -2.69335654343268 0 0 0 0 -1.14847287142931 0 0 0 -2.49391548045247 0 0 0 0 0 0 0 -0.681880530228531
0.0936646070461119 0.125652400904771 0 0 -0.196274158979382 -1.53331198548249 0 0 0 0 0 0 0 0 0 0 0 0 0 0 0 0 0 0 0 0 0 0 0 0 0 0 -0.150283513827099 0 0 0 0 -0.304431217417603 0 0 0 -0.71794852221478 0 0 0 0 0 0 0 -0.231777481163442
0 0 0 0.396537656288837 0.306631570989376 -0.196274158979382 0 0 0 0 0 0 0 0 0 0 -2.08321469839792 0 0 0 0 0 0 0 0 0 0 0 0 0 0 0 -0.711129322936667 0 0 0 0 -0.103052824668423 0 0 0 -0.963980757099157 0 0 0 0 0 0 0 -1.8054929189204
0 0 0 0 0 0 -0.196274158979382 0 -1.45348873358075 0 0 0 0 0 0 0 0 0 0 0 0 0 0 0 0 0 0 0 0 0 0 0 -1.88237277418897 0 0 0 0 0 0 0 0 -0.956658296047319 0 0 0 0 0 0 0 0
0 0 0 0 0 0 0 -0.196274158979382 0 0 0 0 0 -0.970312961519702 -2.91031439240293 0 0 0 0 0 0 0 0 0 0 0 0 -1.76377013081231 0 0 0 0 0 0 0 0 0 0 0 0 0 0 0 0 0 0 0 0 0 0
0 0 0 0 0 0 0.270929070946164 0 -0.196274158979382 0 0 0 0 -0.304200639133702 -0.889758441041762 0 0 0 0 0 0 0 0 0 0 0 0 -0.0652779958451069 0 0 0 0 0 0 0 0 0 0 0 0 0 0 0 0 0 0 0 0 0 0
0 0 0 0 0 0 0 0 0 -0.196274158979382 0.0865785172538816 0 -0.906800570059221 0 -0.280490228056479 0 0 0 -0.200730964627824 0 -0.756968232650331 0 0 0 0 -5.03594657909701 0 -0.872922273267945 0 0 0 0 0 0 0 0 0 0 0 0 0 0 0 0 0 0 0 -0.220305127092585 0 0
0 0 0.134219399179582 0 0 0 0 0 0 -0.44742511484328 -0.196274158979382 0 -0.388979923297876 0 -0.799300645517664 0 0 0 -2.12672004659761 0 -1.67837077687501 0 0 0 0 -1.34058319066196 0 -4.26829775138455 0 0 0 0 0 0 0 0 0 0 0 0 0 0 0 0 0 0 0 -1.15175275372019 0 0
0 0 0 0 0 0 0 0 0 0 0 -0.196274158979382 -1.82030839290096 0 -1.24706568695181 0 0 0 -2.14892075074169 0 0 0 -2.32148567984903 0 0 -0.758344137534148 0 -0.584081451246482 0 0 0 0 0 0 0 0 0 0 0 0 0 0 0 0 0 -1.24855833334266 0 0 0 0
0 0 0 0 0 0 0 0 0 0.169672932899374 0.0793235267546214 0.389018885713553 -0.196274158979382 0.0849599192152397 -0.476245141441589 0 0 0 0 0 0 0 0 0 0 -7.94701371273553 0 -0.968211186348167 0 0 0 0 0 0 0 0 0 0 0 0 0 0 0 0 0 -1.63252096418097 0 0 0 0
0 0 0 0 0 0 0 0.207428704864437 0.0565849039588564 0 0 0 -0.443510488907332 -0.196274158979382 -0.240438241586153 0 0 0 0 0 0 0 0 0 0 -0.0971894724110338 0 -0.615039971524855 0 0 0 0 0 0 0 0 0 0 0 0 0 0 0 0 0 -4.76999420535031 0 0 0 0
0 0 0 0 0 0 0 0.572221678093121 0.177196044228161 0.055220456467236 0.15631107594875 0.251927464212331 0.0912160396048346 0.0477918608354122 -0.196274158979382 0 0 0 0 0 0 0 0 0 0 -4.23917877860969 0 0 0 0 0 0 0 0 0 0 0 0 0 0 0 0 0 0 0 0 0 0 0 0
0 0 0 0 0 0 0 0 0 0 0 0 0 0 0 -0.196274158979382 0 0 0 0 0 0 0 0 0 -0.0984282500933873 0 0 0 0 0 0 0 0 0 0 0 0 0 0 0 0 0 0 0 0 0 0 0 0
0 0 0 0 0 0.434063467662616 0 0 0 0 0 0 0 0 0 0 -0.196274158979382 0 0 0 0 0 0 0 0 -1.32060175166797 0 0 0 0 0 0 0 0 0 0 0 0 0 0 0 0 0 0 0 0 0 0 0 0
0 0 0 0 0 0 0 0 0 0 0 0 0 0 0 0 0 -0.196274158979382 0 0 0 0 0 0 0 -0.856565763988821 0 0 0 0 0 0 0 0 0 0 0 0 0 0 0 0 0 0 0 0 0 0 0 0
0 0 0 0 0 0 0 0 0 0.036486961257854 0.401140124728429 0.421514353869339 0 0 0 0 0 0 -0.196274158979382 0 0 0 0 0 0 -1.17478483509123 0 0 0 0 0 0 0 0 0 0 0 0 -0.646340253847942 0 0 0 0 0 0 0 0 0 0 0
0 0 0 0.316024476091931 0 0 0 0 0 0 0 0 0 0 0 0 0 0 0 -0.196274158979382 0 0 0 0 0 -2.36517185253419 0 0 0 0 0 0 0 0 0 0 0 0 -1.04572551796344 0 0 0 0 0 0 0 0 0 0 0
0 0 0 0 0 0 0 0 0 0.149911519592829 0.312217798589713 0 0 0 0 0 0 0 0 0 -0.196274158979382 0 0 0 0 -0.403404288683365 0 0 0 0 0 0 0 0 0 0 0 0 -4.99279305658967 0 0 0 0 0 0 0 0 0 0 0
0 0 0 0 0 0 0 0 0 0 0 0 0 0 0 0 0 0 0 0 0 -0.196274158979382 0 0 0 -4.12789067753581 0 0 0 0 0 0 0 0 0 0 0 0 -0.376472352097235 0 -2.27101862586208 0 0 0 0 0 0 0 0 0
0 0 0 0 0 0 0 0 0 0 0 0.45596731020313 0 0 0 0 0 0 0 0 0 0 -0.196274158979382 -2.28003677603316 0 -0.0878515310626072 0 0 0 0 0 0 0 0 0 0 0 0 0 0 0 0 0 0 0 0 0 0 0 0
0 0 0 0 0 0 0 0 0 0 0 0 0 0 0 0 0 0 0 0 0 0 0.444591485510234 -0.196274158979382 0 0 0 0 -2.3409164392306 0 0 -0.554130407897531 0 0 0 0 0 0 0 0 0 0 0 0 0 0 0 0 0 0
0 0 0 0 0 0 0 0 0 0 0 0 0 0 0 0 0 0 0 0 0 0 0 0 -0.196274158979382 0 0 0 0 0 0 -2.00767469192818 0 0 0 0 0 0 0 0 0 0 0 0 0 0 0 0 0 0
0 0 0 0 0 0 0 0 0 0.977596032231914 0.25895207684977 0.158575443375522 1.49550465636628 0.019089548213056 0.835341730265242 0.0187803747301158 0.274025601208322 0.150947856612517 0.245137673116289 0.465508858594248 0.0748343952952383 0.857541618185103 0.0174382669066922 0 0 -0.196274158979382 0 0 0 0 0 -2.95222255842715 0 0 0 -2.24433959308914 0 0 0 0 0 0 0 0 0 0 0 0 0 0
0.140087153207403 0 0 0 0 0 0 0 0 0 0 0 0 0 0 0 0 0 0 0 0 0 0 0 0 0 -0.196274158979382 0 0 0 0 -0.273910638278624 0 0 0 -1.44431434451755 0 0 0 -0.138681301208489 0 0 0 0 0 0 0 0 0 0
0 0 0 0 0 0 0 0.317777921311036 0.012185151490746 0.169877735710955 0.821417265741617 0.121142557542697 0.182713211713735 0.122932547446004 0 0 0 0 0 0 0 0 0 0 0 0 0 -0.196274158979382 0 0 0 -3.00101195380515 0 0 0 -0.608106604851173 0 0 0 -0.298106017339768 0 0 0 0 0 0 0 0 0 0
0 0 0 0 0 0 0 0 0 0 0 0 0 0 0 0 0 0 0 0 0 0 0 0.449108600313513 0 0 0 0 -0.196274158979382 0 0 0 0 0 0 0 0 0 0 -2.70151572779603 0 0 0 0 0 0 0 0 0 0
0 0 0 0 0 0 0 0 0 0 0 0 0 0 0 0 0 0 0 0 0 0 0 0 0 0 0 0 0 -0.196274158979382 0 0 0 0 0 0 -0.689715029660177 0 0 -0.480640274210968 0 0 0 0 0 0 0 0 0 0
0 0 0 0 0 0 0 0 0 0 0 0 0 0 0 0 0 0 0 0 0 0 0 0 0 0 0 0 0 0 -0.196274158979382 0 0 0 0 0 -7.41403405842185 0 0 0 0 0 0 0 0 0 0 0 0 0
0 0 0 0 0 0 0 0 0 0 0 0 0 0 0 0 0 0 0 0 0 0 0 0.116283040990108 0.371321988204531 0.621589708884283 0.0576733811582044 0.633992267536665 0 0 0 -0.196274158979382 0 0 0 0 -1.15035437749348 0 0 0 0 0 0 0 0 0 0 0 0 0
0.16622645134424 0.158058467852145 0.245842234571583 0.504157988791509 0.0304301573748463 0.144748108367872 0.411711848658775 0 0 0 0 0 0 0 0 0 0 0 0 0 0 0 0 0 0 0 0 0 0 0 0 0 -0.196274158979382 0 0 0 -3.04312607236013 0 0 0 0 0 0 0 0 0 0 0 0 0
0 0 0 0 0 0 0 0 0 0 0 0 0 0 0 0 0 0 0 0 0 0 0 0 0 0 0 0 0 0 0 0 0 -0.196274158979382 0 0 -0.320991416288537 0 0 0 0 0 0 0 0 0 0 0 0 0
0 0 0 0 0 0 0 0 0 0 0 0 0 0 0 0 0 0 0 0 0 0 0 0 0 0 0 0 0 0 0 0 0 0 -0.196274158979382 0 -2.13683695605876 0 0 0 0 0 0 0 0 0 0 0 0 0
0 0 0 0 0 0 0 0 0 0 0 0 0 0 0 0 0 0 0 0 0 0 0 0 0 0.423767955300966 0.303198431439869 0.119353250482992 0 0 0 0 0 0 0 -0.196274158979382 0 0 0 0 0 0 0 0 0 0 0 0 -0.182162174539304 0
0 0 0 0 0 0 0 0 0 0 0 0 0 0 0 0 0 0 0 0 0 0 0 0 0 0 0 0 0 0.140435757922431 1.48323541444791 0.251424241327451 0.608029098852045 0.0590494281184454 0.430769329368498 0 -0.196274158979382 0 0 0 0 0 0 0 0 0 0 0 -0.912310238748851 0
0 0 0 0.247016347806431 0.0591418583779739 0.018804831280979 0 0 0 0 0 0 0 0 0 0 0 0 0 0 0 0 0 0 0 0 0 0 0 0 0 0 0 0 0 0 0 -0.196274158979382 0 0 0 0 0 0 0 0 0 0 -5.3295282873314 0
0 0 0 0 0 0 0 0 0 0 0 0 0 0 0 0 0 0 0.1188775428985 0.200881832300397 0.978911079309141 0.0782892077395447 0 0 0 0 0 0 0 0 0 0 0 0 0 0 0 0 -0.196274158979382 0 0 0 0 0 0 0 0 0 -1.16014023427629 0
0 0 0 0 0 0 0 0 0 0 0 0 0 0 0 0 0 0 0 0 0 0 0 0 0 0 0.0282361308187286 0.0600153218038494 0.529039885895427 0.0985721985002621 0 0 0 0 0 0 0 0 0 -0.196274158979382 0 0 0 0 0 0 0 0 0 0
0 0 0 0 0 0 0 0 0 0 0 0 0 0 0 0 0 0 0 0 0 0.466410250498522 0 0 0 0 0 0 0 0 0 0 0 0 0 0 0 0 0 0 -0.196274158979382 0 0 0 -0.697548333135707 0 0 0 0 0
0 0 0.136204787836932 0.507358188109951 0.150815246609226 0.187528490963329 0.185934470261638 0 0 0 0 0 0 0 0 0 0 0 0 0 0 0 0 0 0 0 0 0 0 0 0 0 0 0 0 0 0 0 0 0 0 -0.196274158979382 0 0 0 0 0 0 0 0
0 0 0 0 0 0 0 0 0 0 0 0 0 0 0 0 0 0 0 0 0 0 0 0 0 0 0 0 0 0 0 0 0 0 0 0 0 0 0 0 0 0 -0.196274158979382 0 0 0 -0.952841570222934 0 0 0
0 0 0 0 0 0 0 0 0 0 0 0 0 0 0 0 0 0 0 0 0 0 0 0 0 0 0 0 0 0 0 0 0 0 0 0 0 0 0 0 0 0 0 -0.196274158979382 0 0 -6.90878963530152 0 0 0
0 0 0 0 0 0 0 0 0 0 0 0 0 0 0 0 0 0 0 0 0 0 0 0 0 0 0 0 0 0 0 0 0 0 0 0 0 0 0 0 0.153746742683752 0 0 0 -0.196274158979382 0 -0.0963217367582435 0 0 0
0 0 0 0 0 0 0 0 0 0 0 0.24605895559318 0.322679893342703 0.890986146622037 0 0 0 0 0 0 0 0 0 0 0 0 0 0 0 0 0 0 0 0 0 0 0 0 0 0 0 0 0 0 0 -0.196274158979382 -1.0999586416517 0 0 0
0 0 0 0 0 0 0 0 0 0 0 0 0 0 0 0 0 0 0 0 0 0 0 0 0 0 0 0 0 0 0 0 0 0 0 0 0 0 0 0 0 0 0.182468341124748 1.30826418460267 0.0180840233797507 0.232835903223066 -0.196274158979382 0 0 0
0 0 0 0 0 0 0 0 0 0.0444370700033671 0.254163235194014 0 0 0 0 0 0 0 0 0 0 0 0 0 0 0 0 0 0 0 0 0 0 0 0 0 0 0 0 0 0 0 0 0 0 0 0 -0.196274158979382 0 0
0 0 0 0 0 0 0 0 0 0 0 0 0 0 0 0 0 0 0 0 0 0 0 0 0 0 0 0 0 0 0 0 0 0 0 0.0348087835838843 0.179128885997883 1.04621510475762 0.209892754961891 0 0 0 0 0 0 0 0 0 -0.196274158979382 0
0 0 0.0874239632388779 0.130294708910394 0.0447503513195631 0.327375642057581 0 0 0 0 0 0 0 0 0 0 0 0 0 0 0 0 0 0 0 0 0 0 0 0 0 0 0 0 0 0 0 0 0 0 0 0 0 0 0 0 0 0 0 -0.196274158979382
