0.555001834317785
0.192044234376292
0.692946747197948
0.319319703132022
1.28178653556721
0.166669606302461
1.02684779607991
0.743947820153691
1.29001985257264
1.53779227946453
1.31903783829543
0.581870623419649
0.810026552973803
3.94178240299575
0.253018083651523
1.4527198673112
3.39707427957655
1.03101048791539
0.31234652378034
0.55637345047738
0.635112241227809
1.62634896934288
0.261092191456818
0.799545689559418
6.37749441028904
2.64142132722985
4.78973105848887
1.84866953857879
3.52247372582535
2.15302257474974
2.95850243236852
6.49163513796987
0.556546049177537
0.340764924657169
0.670324008746914
0.688398878791353
0.266578268685034
0.263494870046389
6.89183844526377
1.63919082811847
0.125438129852692
0.129968125675561
1.70248637897131
0.861226504582183
1.35816656096383
5.25493557697154
0.627832804496389
1.11616317828623
0.454430726173592
1.68115224612533
