0.100088035841107
3.88620955392259
0.876615150703121
0.981173012603402
0.776314025430898
0.469804247349936
0.852024118987091
1.20357036167188
0.484594550715881
2.61888645103912
2.20709219182999
0.457567888406244
2.30426823759147
2.24822491218004
0.92572465217056
1.70491836284891
1.97509721929995
0.614916226430631
0.461437376983622
0.247187826161495
3.19452924838199
0.473544602742868
0.433522216882475
0.438955530890354
0.233672978337315
0.331723296446017
0.118741019742189
4.44517076625317
0.524933659855038
1.73874775194976
0.38410971251124
0.761715981047997
1.26565701956992
0.774602133427873
2.11483716185959
1.19540083381269
0.280195296956008
1.79184278004301
0.823789447145991
0.8892375710789
0.387271205079051
0.56368932446388
0.756334542016695
2.68059947952265
0.474695478066273
0.445298417431293
1.50997522767026
4.11871590557078
1.11064462031044
12.1130720762936
