0.73800879532612
0.627887258154719
1.73092841954353
0.46993429900494
2.66991113680622
0.940343929731404
2.48331737837883
0.430030213997725
0.680112029205955
1.40188113823319
0.971649719080803
0.0932299750192459
1.13288171872742
0.362099976164691
0.371952619404906
1.76130601049664
1.15167364838627
3.69046379655956
0.123005008132986
0.623912627952198
0.769103630703879
0.909401077676911
1.62057411383158
1.62540814213935
0.171367244951708
1.01392959600603
2.1154954778204
0.808191498459627
0.119608509565449
0.0931329173163327
0.647516778380335
6.32292312460514
3.24297527765891
1.53042956700997
5.51565553290685
0.605977012392872
6.66201877779467
3.1226776839612
1.12998532403555
0.191893273593694
0.441466542628412
1.71044126333884
0.422260817184363
1.51416785082803
0.596659847039599
1.80608917127072
0.560749349323665
2.48666191333601
0.805891767565602
1.22217323605926
