0.719273000113254
0.678379962457828
1.19131389513405
1.4663925940231
0.266998320722236
2.83158534500037
2.59814360132624
4.55373234354944
1.60946826548368
2.10995762025103
0.417327184673304
2.99832990736821
2.83058744768444
0.622916066258424
10.1504980872515
0.636190807376564
3.42763308691983
0.219056500962086
0.316127709995492
2.56254712162207
9.08381334523331
3.52559259406452
1.15838453831836
0.816983462321309
2.26944443991412
0.7059934541343
2.39387111971208
3.22832836032548
0.364932291807854
0.382557718467318
0.341576228905519
0.350017463759008
11.6353608373531
0.703351596334039
1.30462954165997
0.647755100037318
0.984129793994878
0.187674893218319
1.66400780930379
1.04430719115963
1.15199629985182
2.21103590329934
2.44412352968245
0.268200774218833
2.72812090662791
1.1461483242637
1.41406233049019
11.7186021141168
4.16108883801738
1.55521473709185
