2.09367716516786
0.806615675493142
0.708947661730995
0.199303911500942
1.00010002389543
2.65356718296224
0.367362017631408
1.84753205480086
0.940199967595858
0.693146197289441
0.267463550758534
0.509600038431869
0.925305456615703
0.0473430042372588
2.27654758731889
0.912955661560242
0.192222870947891
2.20954121151138
0.511702471717771
0.860789865664305
0.347624172360914
0.277912073277424
0.47938501304881
1.2885015885505
1.29739730565584
0.301557581618214
0.633682248765595
0.539818080913951
1.17174525453974
0.193347096836186
1.64680763989246
0.670239443257289
1.0012733860494
0.394537690785778
0.572094471002361
0.910325534325079
1.40466384567389
0.213923286633152
0.882104809027107
0.295899094375124
3.30393635756638
0.381878378216029
0.613545755765716
1.86351552825529
2.18098238465664
1.6930164075721
0.409190176744898
2.1444206015779
1.05109316507612
1.78654345471869
