-0.27963587876574 0 0 0 0 0 0 0 0 0 0 -1.86772822875942 0 0 0 0 0 0 0 0 0 0 0 0 0 0 0 0 0 0 0 0 0 0 0 0 0 0 0 0 0 0 0 0 0 0 0 0 0 0
0 -0.27963587876574 0 0 0 0 -2.02340260943375 -1.22306258132985 0 0 0 0 0 0 0 0 0 0 0 -0.803614293378826 0 0 0 0 -0.238633193684288 -0.284245665768527 0 0 0 0 0 0 0 0 0 0 0 0 0 -1.20371728918413 0 0 0 0 0 0 0 0 0 0
0 0 -0.27963587876574 0 0 0 0 0 0 0 0 0 0 0 0 0 0 0 0 -0.6156792776425 0 0 0 0 0 -3.08348424978328 0 0 0 0 0 0 0 0 0 0 0 0 0 0 0 0 0 0 0 0 0 0 0 0
0 0 0 -0.27963587876574 0 0 0 0 0 0 0 0 0 0 0 0 0 0 0 -2.30638786511505 0 0 0 -2.24986931244425 0 0 0 0 0 0 0 0 0 0 0 0 0 0 0 0 0 0 0 0 0 0 0 0 0 0
0 0 0 0 -0.27963587876574 0 0 0 0 0 0 0 0 0 0 0 0 0 0 -1.86768990065448 0 0 0 -10.3982455034712 0 0 0 0 0 0 0 0 0 0 0 0 0 0 0 0 0 0 0 0 0 0 0 -0.600035047917559 0 0
0 0 0 0 0 -0.27963587876574 0 0 0 0 0 0 -1.48857892536392 0 0 0 0 -1.0916877398521 0 -0.714567290116341 0 0 0 -1.52186579669371 0 0 0 0 0 0 0 0 0 0 0 0 0 0 0 0 0 0 0 0 0 0 0 0 0 0
0 0.43709091960793 0 0 0 0 -0.27963587876574 0 0 0 0 0 -1.16068280489806 0 0 0 0 -0.605146104390726 0 0 -0.152146923939877 0 0 0 0 0 0 0 0 0 0 0 0 0 0 0 0 0 0 0 0 0 0 0 0 0 0 0 0 0
0 0.255874261292659 0 0 0 0 0 -0.27963587876574 0 0 0 0 -0.900857537771433 0 0 0 0 -2.76121396233119 0 0 -0.192814262574303 0 0 0 0 0 0 0 0 0 0 0 0 0 0 0 0 0 0 0 0 0 0 0 0 0 0 0 0 0
0 0 0 0 0 0 0 0 -0.27963587876574 0 0 0 -0.700910952531999 0 0 0 0 0 0 0 -1.09557267729659 0 0 0 0 0 0 0 0 0 0 0 0 0 0 0 0 0 0 0 0 0 0 0 0 0 0 0 0 0
0 0 0 0 0 0 0 0 0 -0.27963587876574 0 0 -0.578115904420568 0 0 0 0 0 0 0 0 0 0 0 0 0 0 0 0 0 0 0 0 0 0 0 0 0 0 0 0 0 0 0 0 0 0 0 0 0
0 0 0 0 0 0 0 0 0 0 -0.27963587876574 0 0 -1.52960602393203 -0.218916421635825 0 0 0 0 0 0 0 0 0 0 0 0 0 0 0 0 0 0 0 0 0 0 0 0 0 0 0 0 0 0 0 0 0 0 0
0.373983742655196 0 0 0 0 0 0 0 0 0 0 -0.27963587876574 0 0 -0.457553962926743 0 -6.74111446772344 0 -0.47090919640124 0 0 0 0 0 0 0 0 0 0 0 -0.400886058231841 0 0 0 -1.38971239828898 0 0 0 0 0 0 0 0 0 0 0 0 0 0 0
0 0 0 0 0 0.279594170790298 0.248689325806934 0.175773668971761 0.125196121412969 0.107085755394326 0 0 -0.27963587876574 0 -1.55878752259632 0 -0.448587816851866 0 -0.303441836791601 0 0 0 0 0 0 0 0 0 0 0 -0.633248534445099 0 0 0 -0.425279261359074 0 0 0 0 0 0 0 0 0 0 0 0 0 0 0
0 0 0 0 0 0 0 0 0 0 0.316600160606382 0 0 -0.27963587876574 0 0 -3.02272334897819 0 0 0 0 0 0 0 0 0 0 0 0 0 -0.610348071845441 0 0 0 -10.9940076088424 0 0 0 0 0 0 0 0 0 0 0 0 0 0 -4.99235557933356
0 0 0 0 0 0 0 0 0 0 0.0459976293823819 0.091080788262148 0.304850837818215 0 -0.27963587876574 0 0 0 0 0 0 0 0 0 0 0 0 0 0 0 -0.706612790855075 0 0 0 -2.73275515324283 0 0 0 0 0 0 0 0 0 0 0 0 0 0 -0.323576779656289
0 0 0 0 0 0 0 0 0 0 0 0 0 0 0 -0.27963587876574 0 0 0 0 0 -1.04289913915967 0 0 0 0 0 0 0 0 0 -0.340513863044087 -0.151755931125954 0 -0.305898717869743 0 0 0 0 0 0 0 0 0 0 0 0 0 0 0
0 0 0 0 0 0 0 0 0 0 0 1.35210145264693 0.0922875444622689 0.602827268139657 0 0 -0.27963587876574 0 0 0 0 -4.68118935687603 0 0 0 0 0 0 0 0 0 0 -0.906726713254401 0 -2.42155329881653 0 0 0 0 0 0 0 0 0 0 0 0 0 0 0
0 0 0 0 0 0.2296170197732 0.1194222766988 0.547541850113128 0 0 0 0 0 0 0 0 0 -0.27963587876574 0 0 0 -2.24947607518064 0 0 0 0 0 0 0 0 0 0 -0.88543457253411 0 -2.76463607258859 0 0 0 0 0 0 0 0 0 0 0 0 0 0 0
0 0 0 0 0 0 0 0 0 0 0 0.0967649281855573 0.0591683009332183 0 0 0 0 0 -0.27963587876574 0 0 0 0 0 0 0 -1.15326963737347 0 0 0 0 0 -0.698729667177595 0 0 0 0 0 0 0 0 0 0 0 -0.368995560312002 0 0 0 -0.0702582461395442 0
0 0.167578489646345 0.131383716860028 0.466687444223912 0.37915231572711 0.129958700668191 0 0 0 0 0 0 0 0 0 0 0 0 0 -0.27963587876574 0 0 0 0 0 0 0 -2.13928084958935 0 0 0 0 0 0 0 0 0 0 0 0 0 0 0 0 -5.38663916644496 0 0 0 -1.17967622490197 0
0 0 0 0 0 0 0.0287353322777161 0.0367190897690771 0.224504954159562 0 0 0 0 0 0 0 0 0 0 0 -0.27963587876574 0 0 0 0 0 0 -0.507861483111303 0 0 0 0 0 0 0 0 0 0 0 0 0 0 0 0 -0.374539631302627 0 0 0 -1.66529767500832 0
0 0 0 0 0 0 0 0 0 0 0 0 0 0 0 0.212466732066509 1.03870540603357 0.397328709921434 0 0 0 -0.27963587876574 0 0 0 0 0 -4.42706210290504 0 0 0 0 0 0 0 0 -1.02883077649616 0 0 0 0 0 0 0 -1.01709849199083 0 0 0 -0.504585726945599 0
0 0 0 0 0 0 0 0 0 0 0 0 0 0 0 0 0 0 0 0 0 0 -0.27963587876574 0 0 0 0 -2.13908967032693 0 0 0 0 0 0 0 0 -6.00280191699113 0 0 0 0 0 0 0 -1.00575589480606 0 0 0 -0.447125987801319 0
0 0 0 0.458109441796037 1.99965624571637 0.312155946856849 0 0 0 0 0 0 0 0 0 0 0 0 0 0 0 0 0 -0.27963587876574 0 0 0 -1.2801276543796 0 0 0 0 0 0 0 0 -2.16416543570645 0 0 0 0 0 0 0 -0.88003091306621 0 0 0 -3.45069997374473 0
0 0.0499465810162769 0 0 0 0 0 0 0 0 0 0 0 0 0 0 0 0 0 0 0 0 0 0 -0.27963587876574 0 0 -0.457230016279453 0 0 0 0 0 0 0 0 -0.274653572076945 0 0 0 0 0 0 0 -0.209499807341664 0 0 0 -0.256126226038545 0
0 0.0557823164916492 0.610410956345117 0 0 0 0 0 0 0 0 0 0 0 0 0 0 0 0 0 0 0 0 0 0 -0.27963587876574 0 0 0 0 0 0 0 0 0 0 0 0 0 0 0 0 0 0 -1.1195738660116 0 0 0 -0.625151159141467 0
0 0 0 0 0 0 0 0 0 0 0 0 0 0 0 0 0 0 0.232037861549138 0 0 0 0 0 0 0 -0.27963587876574 0 0 0 0 0 0 0 0 0 0 0 0 0 0 0 0 0 -0.807120698591831 0 0 0 -0.842844658194832 0
0 0 0 0 0 0 0 0 0 0 0 0 0 0 0 0 0 0 0 0.429683536516494 0.104555890388775 0.829953881887711 0.428515128654912 0.256273820218287 0.0873861387257193 0 0 -0.27963587876574 0 0 0 0 0 0 0 0 0 0 0 0 0 0 0 0 -0.344887791450078 0 0 0 -3.73360938449435 0
0 0 0 0 0 0 0 0 0 0 0 0 0 0 0 0 0 0 0 0 0 0 0 0 0 0 0 0 -0.27963587876574 0 0 0 0 0 0 0 0 0 0 0 0 0 0 0 0 0 0 0 -0.500575787342915 0
0 0 0 0 0 0 0 0 0 0 0 0 0 0 0 0 0 0 0 0 0 0 0 0 0 0 0 0 0 -0.27963587876574 0 0 0 0 0 -0.631437837967005 0 0 0 0 0 0 0 -3.24039956529287 0 0 0 0 -0.513859304430381 0
0 0 0 0 0 0 0 0 0 0 0 0.0873831612415377 0.121677491544596 0.116463606474558 0.141796434599412 0 0 0 0 0 0 0 0 0 0 0 0 0 0 0 -0.27963587876574 0 0 0 0 -2.57926303092134 0 0 0 0 0 0 0 -0.193261258158565 0 0 0 0 0 0
0 0 0 0 0 0 0 0 0 0 0 0 0 0 0 0.0682877251947238 0 0 0 0 0 0 0 0 0 0 0 0 0 0 0 -0.27963587876574 0 0 0 0 0 0 0 0 0 0 -0.709971243017826 -1.90263667555087 0 0 0 0 0 0
0 0 0 0 0 0 0 0 0 0 0 0 0 0 0 0.0297947877216814 0.19940455814596 0.168612491812289 0.14436143926237 0 0 0 0 0 0 0 0 0 0 0 0 0 -0.27963587876574 0 0 0 0 0 0 0 0 0 -0.975208732360964 -2.08906605856017 0 0 0 0 0 0
0 0 0 0 0 0 0 0 0 0 0 0 0 0 0 0 0 0 0 0 0 0 0 0 0 0 0 0 0 0 0 0 0 -0.27963587876574 0 0 0 -1.99579766883477 0 0 -0.331227305911494 -1.58695363520047 -9.01620052106118 0 0 0 -1.76606933562364 0 0 0
0 0 0 0 0 0 0 0 0 0 0 0.273583872019565 0.089271821227739 2.03977339484119 0.541884835764858 0.0637186817333407 0.48827356119929 0.562477058914108 0 0 0 0 0 0 0 0 0 0 0 0 0 0 0 0 -0.27963587876574 0 0 -0.117488886595396 0 0 -1.56062550892347 -3.65103651530534 -1.86414122059697 0 0 0 -0.606547317103707 0 0 0
0 0 0 0 0 0 0 0 0 0 0 0 0 0 0 0 0 0 0 0 0 0 0 0 0 0 0 0 0 0.123671067092065 0.573715336235248 0 0 0 0 -0.27963587876574 0 0 0 0 -2.29384287073601 0 -11.7805711974299 0 0 0 0 0 0 0
0 0 0 0 0 0 0 0 0 0 0 0 0 0 0 0 0 0 0 0 0 0.210642876357273 1.15032603906957 0.419396372264041 0.0528430013486285 0 0 0 0 0 0 0 0 0 0 0 -0.27963587876574 0 0 0 -3.4783641175795 0 0 0 0 0 0 0 0 0
0 0 0 0 0 0 0 0 0 0 0 0 0 0 0 0 0 0 0 0 0 0 0 0 0 0 0 0 0 0 0 0 0 0.421275080104336 0.0221286189920021 0 0 -0.27963587876574 0 0 0 0 0 0 0 -1.74523523926385 0 0 0 0
0 0 0 0 0 0 0 0 0 0 0 0 0 0 0 0 0 0 0 0 0 0 0 0 0 0 0 0 0 0 0 0 0 0 0 0 0 0 -0.27963587876574 0 0 0 0 0 0 -0.145047154809467 0 0 0 0
0 0.241090919435944 0 0 0 0 0 0 0 0 0 0 0 0 0 0 0 0 0 0 0 0 0 0 0 0 0 0 0 0 0 0 0 0 0 0 0 0 0 -0.27963587876574 0 0 0 0 0 -3.17579027194061 0 0 0 0
0 0 0 0 0 0 0 0 0 0 0 0 0 0 0 0 0 0 0 0 0 0 0 0 0 0 0 0 0 0 0 0 0 0.0629472694960002 0.325655422353061 0.454864577591912 0.716643033633793 0 0 0 -0.27963587876574 0 0 0 0 0 0 0 0 0
0 0 0 0 0 0 0 0 0 0 0 0 0 0 0 0 0 0 0 0 0 0 0 0 0 0 0 0 0 0 0 0 0 0.280008945536228 0.689904343836468 0 0 0 0 0 0 -0.27963587876574 0 0 0 0 0 0 0 0
0 0 0 0 0 0 0 0 0 0 0 0 0 0 0 0 0 0 0 0 0 0 0 0 0 0 0 0 0 0 0 0.149441851030773 0.20184802619523 1.86689850942482 0.361491935264106 2.1870226759173 0 0 0 0 0 0 -0.27963587876574 0 0 0 0 0 0 0
0 0 0 0 0 0 0 0 0 0 0 0 0 0 0 0 0 0 0 0 0 0 0 0 0 0 0 0 0 0.680148656362012 0.0387866388593061 0.385075650275641 0.419339021980297 0 0 0 0 0 0 0 0 0 0 -0.27963587876574 0 0 0 0 0 0
0 0 0 0 0 0 0 0 0 0 0 0 0 0 0 0 0 0 0.0730583065166644 1.17937162559582 0.072491264447864 0.188937568324303 0.214595670147614 0.169669676533657 0.0426523834245204 0.237384986763046 0.155031971328872 0.067131975029438 0 0 0 0 0 0 0 0 0 0 0 0 0 0 0 0 -0.27963587876574 0 0 0 0 0
0 0 0 0 0 0 0 0 0 0 0 0 0 0 0 0 0 0 0 0 0 0 0 0 0 0 0 0 0 0 0 0 0 0 0 0 0 0.344929160721351 0.0303683669137285 0.661975444916522 0 0 0 0 0 -0.27963587876574 0 0 0 0
0 0 0 0 0 0 0 0 0 0 0 0 0 0 0 0 0 0 0 0 0 0 0 0 0 0 0 0 0 0 0 0 0 0.354502458436272 0.125749972017024 0 0 0 0 0 0 0 0 0 0 0 -0.27963587876574 0 0 0
0 0 0 0 0.116268538997474 0 0 0 0 0 0 0 0 0 0 0 0 0 0 0 0 0 0 0 0 0 0 0 0 0 0 0 0 0 0 0 0 0 0 0 0 0 0 0 0 0 0 -0.27963587876574 0 0
0 0 0 0 0 0 0 0 0 0 0 0 0 0 0 0 0 0 0.014477289745823 0.22684347767467 0.336991115297505 0.0965836876909995 0.0823812089956754 0.68206494998343 0.0500984470244144 0.130143078463989 0.169823710137651 0.738968478308429 0.101489844479005 0.106238706783828 0 0 0 0 0 0 0 0 0 0 0 0 0 0 0 0 0 0 -0.27963587876574 0
0 0 0 0 0 0 0 0 0 0 0 0 0 0.938530291319627 0.0649175659995562 0 0 0 0 0 0 0 0 0 0 0 0 0 0 0 0 0 0 0 0 0 0 0 0 0 0 0 0 0 0 0 0 0 0 -0.27963587876574
