1.61812560653674
0.773092278803861
1.28025712075615
0.647615603673519
1.45663874999273
1.4904426399412
0.20165655080936
0.572645323579113
0.706214776965013
0.377475098863826
0.170943380665144
0.455189311289928
0.184863785870175
0.541420618364217
3.04582790784873
1.0067518157103
0.385965721880331
0.357518608056362
0.496293894930783
4.3212934699941
1.28934667639449
1.37755020772833
0.130940538085679
1.26910039658141
8.37477512621233
4.1405831056126
1.62542641455867
1.38145655804472
3.75293874548376
5.24474606808692
0.841643419933821
0.387592415436285
0.282606649846132
2.16125113121862
2.46251240188874
0.865933166906171
0.22494683492616
5.81732129721274
0.851795047638711
1.36707989023655
0.694725907394617
7.35868809033043
0.629212834951463
2.53610352254672
1.10399671135775
0.261193882551061
4.30980496381617
2.8610175337608
1.1128118312484
1.86433616519767
