0.140409410463742
0.446981821764321
2.85723613912884
1.15349103275743
0.307412744487722
2.13374471352932
0.689892225006658
0.42376285763185
1.12548731543689
0.797252185811263
1.68457015864193
0.744463024433483
0.936937525380984
2.7833396387011
1.25634951557654
2.26210492339012
1.45946190878635
3.27462703307796
6.1084055255212
0.454081967967768
0.166818986438234
0.417545387030916
0.383456058891073
1.16666771880683
1.50683737775299
0.473023051798606
2.47752778982486
7.78746691186008
3.8812505327315
0.819414586760812
1.36640599012944
3.92849695109422
1.95633808955571
0.526266288066496
0.221034266932623
3.09707844839016
0.459060092608296
6.41944923763832
0.93307972344014
0.655253447307419
0.479195924993595
0.908481905070847
0.824633205083015
0.947420011128586
1.42102759467577
0.583241119061755
0.96013506781149
0.811025416276492
0.465635749331675
1.29509894800883
