1.31491658599914
1.00299197734198
0.468658071695287
0.2907183966365
0.317885095925816
0.254561211595562
0.504390771344004
3.46563809774777
0.480524232710188
5.35640966976762
1.22119593452468
1.96514225188135
0.167319167935884
4.01675644788842
3.99371740097648
0.0977962249033478
0.656901307726383
0.408444139626109
1.0218407822697
0.676577030884759
0.337998227467232
0.727768087281016
0.857567049373403
2.74098344222282
0.761945192564509
5.99589325606653
1.269396440444
0.266108241665263
0.0438461291325766
0.497984285213593
0.905632452939403
1.14224094649377
4.08105713527823
3.65697982486051
1.51362514093798
2.25486582001404
0.141751041660235
1.51339347176726
0.172921737002348
0.328371137476762
0.829534012855205
0.716717527280248
1.46971565894765
0.826069736471091
3.19229843468458
4.84960872544405
0.988166932148396
0.43821451207987
0.666294940584721
3.68354716287344
