0.590426455351334
0.807005491634582
0.57863965128519
0.226177781169118
0.376737009242971
1.0651151933897
2.02248247221392
0.543674011867851
12.390361921254
1.54278334945874
0.703867499939
0.520013560323236
0.316799886433913
1.68989043141444
1.01707554642745
0.827473809016581
0.570411043240111
1.58675336657496
5.20060716250418
0.264461264098615
1.38041872924123
0.0523464426324571
3.20072386460884
1.01343110851697
1.5957860059558
0.647307837631758
0.79670716697075
8.81400321949926
1.97912945019769
2.28325946625261
1.7749378505701
1.84508960856894
0.37948962550342
1.2325540628582
0.381312007045036
5.66041696214365
0.271059448729071
1.93403619077677
0.435994280741908
0.646181416481006
2.7315173885098
3.59045674884331
1.66590459625544
2.60818897273734
0.218453203561845
0.852312093763398
1.28690274533256
0.194551922223295
0.519077349870299
0.659777124612992
