-0.168078830057461 0 0 -0.346053159185459 0 0 0 0 0 0 0 0 -1.54417850502025 0 0 0 0 0 0 0 0 0 0 0 0 0 0 0 0 0 0 0 0 0 0 0 0 0 0 0 0 0 0 0 0 0 0 0 0 0
0 -0.168078830057461 0 0 0 -1.46124584984334 0 0 0 0 0 0 -1.27974602561476 0 0 0 0 0 0 0 0 0 0 0 0 0 0 0 0 0 0 0 0 0 0 0 0 0 0 0 0 0 0 0 0 0 0 0 0 0
0 0 -0.168078830057461 0 0 0 0 0 0 0 0 0 -0.281117939203057 0 0 0 0 0 0 0 0 0 0 0 0 0 0 0 0 0 0 0 0 0 0 0 0 0 0 0 0 0 0 0 0 0 0 0 0 0
0.0675004398410258 0 0 -0.168078830057461 0 0 0 -0.152303737771113 0 0 0 0 -0.27607607747713 0 0 0 0 0 0 0 0 0 0 0 0 0 0 0 0 0 0 0 0 0 0 0 0 0 0 0 0 0 0 0 0 0 0 0 0 0
0 0 0 0 -0.168078830057461 0 0 0 0 0 0 0 -1.53957035415373 0 0 0 0 0 0 0 0 0 0 0 0 0 0 0 -1.21287453405241 0 0 0 0 0 0 0 0 0 0 0 0 0 0 -0.870849359463813 0 0 0 0 0 0
0 0.276810043906976 0 0 0 -0.168078830057461 0 0 0 0 0 0 0 0 0 -2.38465660101964 0 0 0 0 0 0 0 0 0 0 0 0 -2.33405374064092 0 0 0 0 0 0 0 0 0 0 0 0 0 0 -3.92994956850849 0 0 0 0 0 0
0 0 0 0 0 0 -0.168078830057461 0 0 0 0 0 0 0 0 -1.91760608946617 0 0 0 0 0 0 0 0 0 0 0 0 -0.207867884808932 0 0 0 0 0 0 0 0 0 0 0 0 0 0 -2.11207543451362 0 0 0 0 0 0
0 0 0 0.0298310781768844 0 0 0 -0.168078830057461 0 -1.72698055890723 0 0 0 0 0 -1.10878502941579 0 0 0 0 0 0 0 0 0 0 0 0 0 0 0 0 0 0 0 0 0 0 0 0 0 -0.303937495802874 0 0 0 0 0 0 0 0
0 0 0 0 0 0 0 0 -0.168078830057461 0 0 0 0 0 0 -0.438381083478152 0 0 0 0 0 0 0 0 0 0 0 0 0 0 0 -1.76947075944028 0 0 0 0 0 0 0 0 0 -0.758902519437569 0 0 0 0 0 0 -2.34262582159311 0
0 0 0 0 0 0 0 0.342598771592059 0 -0.168078830057461 0 0 0 0 0 0 0 0 0 0 0 0 0 0 0 0 0 0 0 0 0 0 0 0 0 0 0 0 0 0 0 -2.24183461613374 0 0 0 0 0 0 -0.49581407155831 0
0 0 0 0 0 0 0 0 0 0 -0.168078830057461 0 0 0 0 0 0 0 0 0 0 0 0 0 0 0 0 0 0 0 0 0 0 0 0 0 0 0 0 0 0 -3.35434486669314 0 0 0 0 0 0 -0.937176491511072 0
0 0 0 0 0 0 0 0 0 0 0 -0.168078830057461 0 0 0 0 0 0 0 0 0 0 0 0 0 0 0 0 0 0 0 0 0 0 0 0 0 0 0 0 0 -0.512201904338222 0 0 0 0 0 0 -1.7466303034509 0
0.301297598825049 0.255597362685888 0.0606377947140166 0.055098152215171 0.318947005754235 0 0 0 0 0 0 0 -0.168078830057461 0 -0.757547318401175 0 0 0 0 0 0 0 0 0 0 0 0 0 0 -5.23231952464967 -0.314271354681857 0 0 0 0 0 0 0 0 0 0 -3.2319060511435 0 0 0 0 0 0 -0.15006954119845 0
0 0 0 0 0 0 0 0 0 0 0 0 0 -0.168078830057461 -1.17753512027396 0 0 0 0 0 0 0 0 0 0 0 0 0 0 0 -0.351967197726881 0 0 0 0 0 0 0 0 0 0 -2.61233735677152 0 0 0 0 0 0 0 0
0 0 0 0 0 0 0 0 0 0 0 0 0.149744874910933 0.224509272721553 -0.168078830057461 0 0 0 0 -0.960163750990423 0 0 0 0 0 0 0 0 0 0 -3.99254167461209 0 0 -0.426515284661176 0 0 0 0 0 0 0 -0.793351540061157 0 0 0 0 0 0 0 0
0 0 0 0 0 0.490512352590595 0.40369355229074 0.216811278177896 0.0919793753641719 0 0 0 0 0 0 -0.168078830057461 0 0 0 0 0 0 0 0 0 -0.728152211106375 0 0 0 0 0 0 -2.10603119085138 0 0 0 0 0 0 -2.48722302571975 -0.750730370653083 0 -0.168261630613827 0 0 0 0 0 0 0
0 0 0 0 0 0 0 0 0 0 0 0 0 0 0 0 -0.168078830057461 0 0 0 0 0 0 0 0 -2.40577668354421 0 0 0 0 0 0 -1.05307336095778 0 0 0 0 0 0 -3.49705653154744 -0.630759362331302 0 -1.82251957228438 0 0 0 0 0 0 0
0 0 0 0 0 0 0 0 0 0 0 0 0 0 0 0 0 -0.168078830057461 0 0 0 0 0 0 0 -0.285864546278221 0 0 0 0 0 0 -0.561255559802525 0 0 0 0 0 0 -3.18323131772164 -0.925116574387143 0 -0.326722302315678 0 0 0 0 0 0 0
0 0 0 0 0 0 0 0 0 0 0 0 0 0 0 0 0 0 -0.168078830057461 0 0 0 0 -0.57780616091353 0 0 -5.30181218359296 0 0 0 0 0 0 0 0 0 0 0 0 -1.22608030510101 0 0 0 0 0 0 0 0 0 0
0 0 0 0 0 0 0 0 0 0 0 0 0 0 0.185941863910988 0 0 0 0 -0.168078830057461 0 0 0 -0.476526307430063 0 0 -2.98466100650406 0 0 0 0 0 0 0 0 0 0 0 0 -0.822721104649608 0 0 0 0 0 0 0 0 0 0
0 0 0 0 0 0 0 0 0 0 0 0 0 0 0 0 0 0 0 0 -0.168078830057461 0 0 -0.514931970858126 -1.1659916012203 0 -3.99871933137052 0 0 0 0 0 0 0 0 0 0 0 0 -0.161603338584165 0 0 0 0 0 0 0 0 0 0
0 0 0 0 0 0 0 0 0 0 0 0 0 0 0 0 0 0 0 0 0 -0.168078830057461 0 0 -1.47933067889924 0 0 -0.260671729318304 0 0 0 0 0 0 0 0 0 0 0 -1.15862750998684 0 0 0 0 0 0 0 0 0 0
0 0 0 0 0 0 0 0 0 0 0 0 0 0 0 0 0 0 0 0 0 0 -0.168078830057461 0 0 0 0 -0.396767739110761 0 0 0 0 0 0 0 0 0 0 0 0 0 0 0 0 0 0 0 0 0 0
0 0 0 0 0 0 0 0 0 0 0 0 0 0 0 0 0 0 0.124516970572902 0.0960383930757812 0.102167358351293 0 0 -0.168078830057461 0 0 0 -3.21483123114502 0 0 0 0 0 0 0 0 0 0 0 0 0 0 0 0 0 0 0 0 0 0
0 0 0 0 0 0 0 0 0 0 0 0 0 0 0 0 0 0 0 0 0.223811703538924 0.298476233428706 0 0 -0.168078830057461 0 0 -4.28398537129059 0 0 0 0 0 0 0 0 0 0 0 0 0 0 0 0 0 0 0 0 0 -0.500272122587839
0 0 0 0 0 0 0 0 0 0 0 0 0 0 0 0.161123512831392 0.481979453261829 0.0616216137213773 0 0 0 0 0 0 0 -0.168078830057461 0 -1.16903206053849 0 0 0 0 0 0 0 0 0 0 0 0 0 0 0 0 0 0 0 -1.76564567790625 0 -0.0407408123503232
0 0 0 0 0 0 0 0 0 0 0 0 0 0 0 0 0 0 1.03020994699168 0.634063640879313 0.773054654750844 0 0 0 0 0 -0.168078830057461 0 0 0 0 0 0 0 0 0 0 0 0 0 0 0 0 0 0 0 0 -0.778811201184024 0 -0.432985439786872
0 0 0 0 0 0 0 0 0 0 0 0 0 0 0 0 0 0 0 0 0 0.0537050528542194 0.0875370905281623 0.653047080816958 0.870344644614013 0.238626852361514 0 -0.168078830057461 0 0 0 0 0 0 0 0 0 0 0 0 0 0 0 0 0 0 0 -0.180303561858803 0 -0.671711415551498
0 0 0 0 0.235185940542861 0.485412647382205 0.0382267590661845 0 0 0 0 0 0 0 0 0 0 0 0 0 0 0 0 0 0 0 0 0 -0.168078830057461 0 0 0 0 0 0 0 0 0 0 0 0 0 0 0 0 -2.67953429195078 0 -0.433525034403054 0 -3.61171701280493
0 0 0 0 0 0 0 0 0 0 0 0 1.08945671649061 0 0 0 0 0 0 0 0 0 0 0 0 0 0 0 0 -0.168078830057461 0 0 0 0 0 0 -2.77321232890287 0 0 0 0 0 0 0 0 -0.174497562238867 0 0 0 0
0 0 0 0 0 0 0 0 0 0 0 0 0.0647900965798728 0.0679608524914937 0.776946431871372 0 0 0 0 0 0 0 0 0 0 0 0 0 0 0 -0.168078830057461 0 0 0 0 0 -0.695134619010908 0 0 0 0 0 0 0 -0.885202392144262 -1.59474527455125 0 0 0 0
0 0 0 0 0 0 0 0 0.361361488523229 0 0 0 0 0 0 0 0 0 0 0 0 0 0 0 0 0 0 0 0 0 0 -0.168078830057461 0 0 0 0 -0.452966259559828 0 0 0 0 0 0 0 -1.40453391962649 -0.692680362980811 0 0 0 0
0 0 0 0 0 0 0 0 0 0 0 0 0 0 0 0.453861268802834 0.196525224222647 0.110204833551972 0 0 0 0 0 0 0 0 0 0 0 0 0 0 -0.168078830057461 0 0 0 0 0 0 0 0 0 0 0 -1.62921133905677 -0.794251399502331 0 0 0 0
0 0 0 0 0 0 0 0 0 0 0 0 0 0 0.0886402743237526 0 0 0 0 0 0 0 0 0 0 0 0 0 0 0 0 0 0 -0.168078830057461 0 0 0 0 0 0 0 0 0 0 -4.76319211973142 -0.142934587744723 0 0 0 0
0 0 0 0 0 0 0 0 0 0 0 0 0 0 0 0 0 0 0 0 0 0 0 0 0 0 0 0 0 0 0 0 0 0 -0.168078830057461 0 0 0 0 0 0 0 0 0 -0.16516950742198 -4.9520136190734 -1.1677719319351 0 0 0
0 0 0 0 0 0 0 0 0 0 0 0 0 0 0 0 0 0 0 0 0 0 0 0 0 0 0 0 0 0 0 0 0 0 0 -0.168078830057461 0 0 0 0 0 0 0 0 -0.516590109304687 -1.14913494223287 -1.83733964371057 0 0 0
0 0 0 0 0 0 0 0 0 0 0 0 0 0 0 0 0 0 0 0 0 0 0 0 0 0 0 0 0 0.540834480570098 0.142663693358862 0.0914472070630297 0 0 0 0 -0.168078830057461 0 0 0 0 0 0 0 -3.77104527232174 -2.61915477187972 -1.40354568763694 0 0 0
0 0 0 0 0 0 0 0 0 0 0 0 0 0 0 0 0 0 0 0 0 0 0 0 0 0 0 0 0 0 0 0 0 0 0 0 0 -0.168078830057461 0 0 0 0 0 0 -1.93891688848448 -1.53253482451245 -0.714451321831089 0 0 0
0 0 0 0 0 0 0 0 0 0 0 0 0 0 0 0 0 0 0 0 0 0 0 0 0 0 0 0 0 0 0 0 0 0 0 0 0 0 -0.168078830057461 0 0 0 0 0 -0.797775790836309 -1.71383379685446 -0.282747342112092 0 0 0
0 0 0 0 0 0 0 0 0 0 0 0 0 0 0 0.4436561644327 0.732694891485675 0.656730124845404 0.247585820348253 0.167677194546029 0.0303575946271586 0.225245124475127 0 0 0 0 0 0 0 0 0 0 0 0 0 0 0 0 0 -0.168078830057461 0 0 0 0 -0.61633981463657 -1.45629212774295 -1.4444248092112 0 0 0
0 0 0 0 0 0 0 0 0 0 0 0 0 0 0 0.149550887569286 0.1340016937289 0.181796362194775 0 0 0 0 0 0 0 0 0 0 0 0 0 0 0 0 0 0 0 0 0 0 -0.168078830057461 0 0 0 -2.28016917167896 0 -0.914317485313896 0 0 0
0 0 0 0 0 0 0 0.0549918711814893 0.149128940636392 0.487758465770902 0.682717293230236 0.115347073944603 0.685551399246787 0.489596649563047 0.1464707638529 0 0 0 0 0 0 0 0 0 0 0 0 0 0 0 0 0 0 0 0 0 0 0 0 0 0 -0.168078830057461 0 0 -1.80657441822858 0 -0.61795992238553 0 0 0
0 0 0 0 0 0 0 0 0 0 0 0 0 0 0 0.0347328675634713 0.363712519280364 0.0681814426454176 0 0 0 0 0 0 0 0 0 0 0 0 0 0 0 0 0 0 0 0 0 0 0 0 -0.168078830057461 0 -0.603070718608816 0 -0.156334364112769 0 0 0
0 0 0 0 0.179098207187303 0.774639560903184 0.397558772301826 0 0 0 0 0 0 0 0 0 0 0 0 0 0 0 0 0 0 0 0 0 0 0 0 0 0 0 0 0 0 0 0 0 0 0 0 -0.168078830057461 -1.24728130406665 0 0 0 0 0
0 0 0 0 0 0 0 0 0 0 0 0 0 0 0 0 0 0 0 0 0 0 0 0 0 0 0 0 0 0 0.181251741096421 0.271427359045721 0.316987815997401 0.933653257217995 0.0364918455626722 0.0984152407841755 0.792851007470159 0.374809904489876 0.152711085776529 0.115938113569517 0.480838415766839 0.35281906239714 0.120567007013714 0.267676115073179 -0.168078830057461 0.290784082891502 0.238499150600676 0.649916622084251 0 0
0 0 0 0 0 0 0 0 0 0 0 0 0 0 0 0 0 0 0 0 0 0 0 0 0 0 0 0 0.520843160063703 0.0376689108005074 0.340334568855601 0.132608492258609 0.170392181898245 0.0287281746912797 0.890284716008429 0.224664537194323 0.533505533607319 0.335548665468716 0.340679053060121 0.287067518378042 0 0 0 0 -1.43386674960572 -0.168078830057461 0 0 0 0
0 0 0 0 0 0 0 0 0 0 0 0 0 0 0 0 0 0 0 0 0 0 0 0 0 0 0 0 0 0 0 0 0 0 0.251957599694686 0.364203767718323 0.286685363331023 0.141472489327934 0.0570675856974004 0.294672243113191 0.184092246788338 0.128978388818822 0.0308170039057543 0 -1.27126754282401 0 -0.168078830057461 0 0 0
0 0 0 0 0 0 0 0 0 0 0 0 0 0 0 0 0 0 0 0 0 0 0 0 0 0.33263561883544 0.16302239823838 0.0339619521094126 0.0897700769214431 0 0 0 0 0 0 0 0 0 0 0 0 0 0 0 -3.232525975671 0 0 -0.168078830057461 0 0
0 0 0 0 0 0 0 0 0.49096064517364 0.0975396391229256 0.17866121164755 0.362486821404839 0.0308134951533276 0 0 0 0 0 0 0 0 0 0 0 0 0 0 0 0 0 0 0 0 0 0 0 0 0 0 0 0 0 0 0 0 0 0 0 -0.168078830057461 0
0 0 0 0 0 0 0 0 0 0 0 0 0 0 0 0 0 0 0 0 0 0 0 0 0.0907415814777769 0.00817861640927412 0.0869814978195762 0.13447084305927 0.759816036733438 0 0 0 0 0 0 0 0 0 0 0 0 0 0 0 0 0 0 0 0 -0.168078830057461
