1.4041591737874
0.391316381478794
1.62949714704942
0.387518781849808
0.496561933708908
0.280463296663802
1.07622866406754
0.132212216656725
3.1219132212372
0.892429679200644
1.76122378204348
0.841366745656056
0.842230686397695
0.443883413455632
1.40512467959123
1.39173893472776
0.338714593970565
4.95173863267684
1.81740275333629
0.158097078795168
0.63630114564565
0.403043935381591
1.06993889582618
0.341566304284273
3.40668281354828
3.59817007143185
0.551684525068388
1.40027839111208
1.73297496961209
2.27412879585668
0.422299819027856
1.38818826373186
1.83437336960873
0.571664506123498
0.422171051173291
1.10254881073912
3.28185989980953
0.291161316569074
0.360540078953722
0.493053876198822
8.48486110207711
2.89513819233741
3.40017493884648
1.51819009435394
0.122517739377938
1.19837014900327
1.37108937319283
2.37621476124451
1.19435542296876
0.51577932438035
