-0.162720176574576 0 0 0 0 0 -0.563453802073151 0 0 0 -1.31018735037121 -0.281108123219875 0 0 0 0 0 0 0 0 -0.418288742936145 0 0 0 0 0 0 0 0 0 0 0 0 0 0 0 0 0 0 0 0 0 0 0 0 0 0 0 0 0
0 -0.162720176574576 0 0 0 0 0 0 0 0 -0.522535506048136 -4.37989873304259 0 0 0 0 0 0 0 0 -0.184276586039022 0 0 0 0 0 0 0 0 0 0 0 0 0 0 0 0 0 0 0 0 0 0 0 0 0 0 0 0 0
0 0 -0.162720176574576 -0.674417296737864 0 0 0 0 0 0 -3.32717615824879 -2.44010218571553 0 0 0 0 0 0 0 0 -0.330967525182538 0 0 0 0 0 0 0 0 0 0 0 0 0 0 0 0 0 0 0 0 0 0 0 0 0 0 0 0 0
0 0 0.138400626844237 -0.162720176574576 0 0 0 0 0 0 -0.398055066709982 -1.36200528011615 0 0 0 0 0 0 0 0 0 0 0 0 0 0 0 0 0 0 0 0 0 0 0 0 -0.445114917809987 0 0 0 0 0 0 0 0 0 0 0 0 0
0 0 0 0 -0.162720176574576 0 0 0 -2.88819640163595 0 0 0 0 0 0 0 0 0 -1.50783843914023 0 0 0 0 0 0 0 0 0 0 0 0 0 0 0 0 0 0 0 0 0 0 0 0 0 0 0 0 0 0 0
0 0 0 0 0 -0.162720176574576 0 0 -1.0379116582894 0 0 0 0 0 0 0 0 0 -0.0931546244677453 0 0 0 0 0 0 0 0 0 0 0 0 0 0 0 0 0 0 0 0 0 0 0 0 0 0 0 0 0 0 0
0.101420784104388 0 0 0 0 0 -0.162720176574576 0 -1.046882091857 0 0 0 0 0 0 0 0 -0.666210146401166 0 0 0 0 0 0 0 0 0 0 0 0 0 0 0 0 0 0 0 0 0 0 0 0 0 0 -1.65276000022541 -2.98867892827446 0 0 0 0
0 0 0 0 0 0 0 -0.162720176574576 0 0 0 0 0 0 0 0 0 -0.671489351539782 0 -0.9148156071042 0 0 0 -0.278472832851033 0 0 0 0 0 0 0 0 0 0 0 0 0 0 0 0 0 0 0 0 0 -0.474631892558794 0 0 0 0
0 0 0 0 0.576281061776942 0.2167041100909 0.202774623471587 0 -0.162720176574576 0 0 0 0 0 -0.325691991804004 0 0 -0.58318861493037 0 -0.232364167641653 0 0 0 -0.205354290344526 0 0 -0.480830788739798 0 0 0 0 0 0 0 0 0 0 0 0 0 0 0 0 0 0 -1.33160284769475 0 0 0 0
0 0 0 0 0 0 0 0 0 -0.162720176574576 0 0 0 0 -2.15742947357413 0 0 -0.195112170027351 0 -2.33248651412707 0 0 0 -6.18769612620296 0 0 -0.883092364009956 0 0 0 0 0 0 0 0 0 0 0 0 0 0 0 0 0 0 0 0 0 0 0
0.269252058051375 0.0968491748908557 0.699405979277282 0.0804510528930561 0 0 0 0 0 0 -0.162720176574576 0 0 0 -1.31094451279984 0 0 0 0 -0.478856976952398 0 0 0 -0.586240390915058 0 0 -4.55725071947498 0 0 0 0 0 0 0 0 0 0 0 0 0 0 0 0 0 0 0 0 0 0 0
0.0529123788684047 0.921465914255518 0.478920639195885 0.269924649716148 0 0 0 0 0 0 0 -0.162720176574576 0 0 0 0 0 0 0 0 0 0 -1.88606890288327 0 -0.275044909400072 -1.30330537356122 0 0 0 -0.520986619345781 0 0 0 0 0 0 0 0 0 0 0 0 0 0 0 0 0 0 0 0
0 0 0 0 0 0 0 0 0 0 0 0 -0.162720176574576 0 0 0 0 0 0 0 0 0 -0.619845914345093 0 -4.67732301017922 -1.30492128607659 0 0 0 -2.2887246540239 0 0 0 0 0 0 0 0 0 0 0 0 0 0 0 0 0 0 0 0
0 0 0 0 0 0 0 0 0 0 0 0 0 -0.162720176574576 0 0 0 0 0 0 0 -3.19186447646382 0 0 0 -2.02025282339667 0 0 -7.95017250003588 0 0 0 0 0 0 0 0 0 0 0 0 0 0 0 0 0 0 0 -0.279210275565564 0
0 0 0 0 0 0 0 0 0.0692507060376512 0.409576880601105 0.250075651743471 0 0 0 -0.162720176574576 0 0 0 0 0 0 -1.52406425203441 0 0 0 -1.45070545769508 0 0 -1.62661116049977 0 0 0 0 0 0 0 0 0 0 0 0 0 0 0 0 0 0 0 -1.02831500383895 0
0 0 0 0 0 0 0 0 0 0 0 0 0 0 0 -0.162720176574576 0 0 0 0 0 -0.337797342707953 0 0 0 -0.211999808505998 0 0 -0.719080065227607 0 0 0 0 0 0 0 0 0 0 0 0 0 0 0 0 0 0 0 -0.795300031783744 0
0 0 0 0 0 0 0 0 0 0 0 0 0 0 0 0 -0.162720176574576 0 0 0 0 -0.399944942942282 0 0 0 -1.78536279994158 0 0 -1.83122421018854 0 0 0 0 0 0 0 0 0 0 0 0 0 0 0 0 0 0 0 -1.17616667284409 0
0 0 0 0 0 0 0.122430118527794 0.128910515712389 0.111749918490735 0.0394186724405304 0 0 0 0 0 0 0 -0.162720176574576 0 0 0 -0.579034743069807 0 0 0 -0.822341944712382 0 0 0 0 0 0 0 0 0 0 0 0 0 0 0 0 0 0 0 0 0 0 -2.03089781761945 0
0 0 0 0 0.296774197421403 0.018314239398136 0 0 0 0 0 0 0 0 0 0 0 0 -0.162720176574576 0 0 -1.49152944906821 0 0 0 -0.234218134456154 0 0 0 0 0 0 0 0 0 -0.462369516669234 0 0 0 0 0 0 0 0 0 0 0 0 -1.12514721564394 0
0 0 0 0 0 0 0 0.185653989184821 0.0488110667056497 0.433879410375578 0.0926784145110774 0 0 0 0 0 0 0 0 -0.162720176574576 0 -0.878630396589983 0 0 0 -0.822135555727703 0 0 0 0 0 0 0 0 0 -0.504001155878942 0 0 0 0 0 0 0 0 0 0 0 0 -2.0062974450024 0
0.0820476542966875 0.0362368197395264 0.0662740283798925 0 0 0 0 0 0 0 0 0 0 0 0 0 0 0 0 0 -0.162720176574576 -0.900202725227365 0 0 0 -0.840302679974884 0 0 0 0 0 0 0 0 0 -1.01501807117241 0 0 0 0 0 0 0 0 0 0 0 0 -5.77327162952135 0
0 0 0 0 0 0 0 0 0 0 0 0 0 0.684027256585903 0.285671826913877 0.0680816303073175 0.0729775333126115 0.121608108812142 0.253953540375937 0.19267517046484 0.18285529113408 -0.162720176574576 0 0 0 -0.930293478545447 0 0 0 0 0 0 0 0 0 -0.549507357320677 0 0 0 0 0 0 0 0 0 0 0 0 0 0
0 0 0 0 0 0 0 0 0 0 0 0.383028450756628 0.127175471440965 0 0 0 0 0 0 0 0 0 -0.162720176574576 0 0 0 0 0 0 0 0 0 0 0 0 -1.44639789291632 0 0 0 0 0 0 0 0 0 0 0 0 0 0
0 0 0 0 0 0 0 0.0556803975970838 0.0406454825321513 1.22065585442544 0.122178357180562 0 0 0 0 0 0 0 0 0 0 0 0 -0.162720176574576 0 0 0 0 0 0 0 0 0 0 0 -0.656600926646697 0 0 0 0 0 0 0 0 0 0 0 0 0 0
0 0 0 0 0 0 0 0 0 0 0 0.0570096743402929 0.933900727988109 0 0 0 0 0 0 0 0 0 0 0 -0.162720176574576 0 0 0 0 0 0 0 0 0 0 -1.5213921724666 0 0 0 0 0 0 0 0 0 0 0 0 0 0
0 0 0 0 0 0 0 0 0 0 0 0.275600205212507 0.262201426135669 0.397364217855606 0.278006711718484 0.0453084191641237 0.375635743241824 0.166421886626986 0.0419929874349998 0.178321230531677 0.160367514574885 0.17886981463824 0 0 0 -0.162720176574576 0 0 0 0 0 0 0 0 0 -2.18072548007996 0 0 0 -0.755077668380542 0 -4.48440122148395 0 0 0 0 0 0 0 0
0 0 0 0 0 0 0 0 0.10135728780186 0.172262121988047 0.893359742729738 0 0 0 0 0 0 0 0 0 0 0 0 0 0 0 -0.162720176574576 0 0 0 0 0 0 0 0 0 0 0 0 -0.0750301476397738 0 -0.155928186912168 0 0 0 0 0 0 0 0
0 0 0 0 0 0 0 0 0 0 0 0 0 0 0 0 0 0 0 0 0 0 0 0 0 0 0 -0.162720176574576 0 0 0 0 0 0 0 0 0 0 0 -2.5171088451833 0 -1.29842156880566 0 0 0 0 0 0 0 0
0 0 0 0 0 0 0 0 0 0 0 0 0 1.61338573374379 0.352770035103374 0.144247732691654 0.384653708805947 0 0 0 0 0 0 0 0 0 0 0 -0.162720176574576 0 0 0 0 0 0 0 0 0 0 -3.93029078195242 0 0 0 0 0 0 0 0 0 0
0 0 0 0 0 0 0 0 0 0 0 0.0981305364916944 0.427366858099332 0 0 0 0 0 0 0 0 0 0 0 0 0 0 0 0 -0.162720176574576 0 0 0 0 0 0 0 0 0 -0.744527175308042 0 0 0 0 0 0 0 0 0 0
0 0 0 0 0 0 0 0 0 0 0 0 0 0 0 0 0 0 0 0 0 0 0 0 0 0 0 0 0 0 -0.162720176574576 0 0 0 0 0 0 0 0 -0.657345082467877 0 0 0 0 0 0 0 0 0 0
0 0 0 0 0 0 0 0 0 0 0 0 0 0 0 0 0 0 0 0 0 0 0 0 0 0 0 0 0 0 0 -0.162720176574576 -0.957688216932541 0 0 0 0 -2.40504571302771 0 0 0 0 0 0 0 0 -1.64891747043078 0 0 -0.932155673480473
0 0 0 0 0 0 0 0 0 0 0 0 0 0 0 0 0 0 0 0 0 0 0 0 0 0 0 0 0 0 0 0.20558349029852 -0.162720176574576 0.10677767842277 0 0 0 0 0 0 0 0 0 0 0 0 -0.171222389803239 0 0 -2.37323906477607
0 0 0 0 0 0 0 0 0 0 0 0 0 0 0 0 0 0 0 0 0 0 0 0 0 0 0 0 0 0 0 0 -0.517817402372718 -0.162720176574576 0 0 0 0 0 0 0 0 0 0 0 0 -0.355767323553998 0 0 -1.77489051451484
0 0 0 0 0 0 0 0 0 0 0 0 0 0 0 0 0 0 0 0 0 0 0 0 0 0 0 0 0 0 0 0 0 0 -0.162720176574576 0 0 0 0 0 -2.12782676355068 0 0 0 0 0 -5.06163047239251 0 0 -1.63281695623695
0 0 0 0 0 0 0 0 0 0 0 0 0 0 0 0 0 0 0.0878433777398523 0.0980935534702098 0.207928716136171 0.118739807094782 0.28818899332633 0.113840857181853 0.313729733183224 0.443384021078205 0 0 0 0 0 0 0 0 0 -0.162720176574576 0 0 0 0 -0.981990807802807 0 0 0 0 0 -1.65652949286179 0 0 -0.459527509904083
0 0 0 0.0860327829515651 0 0 0 0 0 0 0 0 0 0 0 0 0 0 0 0 0 0 0 0 0 0 0 0 0 0 0 0 0 0 0 0 -0.162720176574576 0 0 0 -4.21106039569546 0 0 0 0 0 -4.47275251944373 0 0 -0.367513351592418
0 0 0 0 0 0 0 0 0 0 0 0 0 0 0 0 0 0 0 0 0 0 0 0 0 0 0 0 0 0 0 0.47415175724492 0 0 0 0 0 -0.162720176574576 0 0 -1.96891698697535 0 0 0 0 0 -0.212691669607222 0 0 -0.456096280407146
0 0 0 0 0 0 0 0 0 0 0 0 0 0 0 0 0 0 0 0 0 0 0 0 0 0 0 0 0 0 0 0 0 0 0 0 0 0 -0.162720176574576 0 -0.414225641597103 0 0 0 0 0 -0.685777586359838 0 0 -0.141088398171782
0 0 0 0 0 0 0 0 0 0 0 0 0 0 0 0 0 0 0 0 0 0 0 0 0 0.145726886816659 0.014741505578767 0.462521036478966 0.779841017341475 0.14316490293416 0.126950048924535 0 0 0 0 0 0 0 0 -0.162720176574576 0 0 0 0 0 0 -0.982986621386877 0 0 -0.475421278776329
0 0 0 0 0 0 0 0 0 0 0 0 0 0 0 0 0 0 0 0 0 0 0 0 0 0 0 0 0 0 0 0 0 0 0.447751807130804 0.182398709804277 0.828232477663812 0.408434467430193 0.0724352225057411 0 -0.162720176574576 0 0 0 0 0 -0.248266180330559 0 0 -0.796960646757747
0 0 0 0 0 0 0 0 0 0 0 0 0 0 0 0 0 0 0 0 0 0 0 0 0 0.939010368185307 0.0301584584859725 0.249069468234876 0 0 0 0 0 0 0 0 0 0 0 0 0 -0.162720176574576 0 0 0 0 -0.582151788058666 0 0 -0.625854103395399
0 0 0 0 0 0 0 0 0 0 0 0 0 0 0 0 0 0 0 0 0 0 0 0 0 0 0 0 0 0 0 0 0 0 0 0 0 0 0 0 0 0 -0.162720176574576 0 0 0 -2.44478404565124 -1.82419716042802 0 -1.76522189626412
0 0 0 0 0 0 0 0 0 0 0 0 0 0 0 0 0 0 0 0 0 0 0 0 0 0 0 0 0 0 0 0 0 0 0 0 0 0 0 0 0 0 0 -0.162720176574576 0 0 -1.15553246393391 -2.3281545611499 0 -0.687721391574404
0 0 0 0 0 0 0.360446447769532 0 0 0 0 0 0 0 0 0 0 0 0 0 0 0 0 0 0 0 0 0 0 0 0 0 0 0 0 0 0 0 0 0 0 0 0 0 -0.162720176574576 0 -0.533057544253158 -0.710811566366511 0 -0.415892529553766
0 0 0 0 0 0 0.596017554414363 0.0990656660959412 0.271149254072255 0 0 0 0 0 0 0 0 0 0 0 0 0 0 0 0 0 0 0 0 0 0 0 0 0 0 0 0 0 0 0 0 0 0 0 0 -0.162720176574576 -1.78619117498579 -0.35952952494276 0 -1.77428908114749
0 0 0 0 0 0 0 0 0 0 0 0 0 0 0 0 0 0 0 0 0 0 0 0 0 0 0 0 0 0 0 0.28196013964655 0.0347059546664668 0.076004238144923 1.06138008627492 0.318818587942207 0.832852971874011 0.0415518139359281 0.133175302017261 0.197995402686472 0.0481744859962471 0.11221885361798 0.474635328335713 0.24744739036321 0.110183215560609 0.346896687805114 -0.162720176574576 0 0 -0.60079182760203
0 0 0 0 0 0 0 0 0 0 0 0 0 0 0 0 0 0 0 0 0 0 0 0 0 0 0 0 0 0 0 0 0 0 0 0 0 0 0 0 0 0 0.346801150355873 0.476410954379038 0.144263614130473 0.0743185907555931 0 -0.162720176574576 0 0
0 0 0 0 0 0 0 0 0 0 0 0 0 0.0563160251248402 0.198843917376506 0.163294480494382 0.229197326796529 0.399594244570862 0.214955243249974 0.394083697083512 1.06286177462603 0 0 0 0 0 0 0 0 0 0 0 0 0 0 0 0 0 0 0 0 0 0 0 0 0 0 0 -0.162720176574576 0
0 0 0 0 0 0 0 0 0 0 0 0 0 0 0 0 0 0 0 0 0 0 0 0 0 0 0 0 0 0 0 0.190393686942662 0.474750751148159 0.348591144610065 0.323080028025363 0.0950063834161026 0.080268292053297 0.0910685953079709 0.0282748558162586 0.094907135736925 0.152083866770593 0.133906834740254 0.340268285287441 0.126064908992825 0.0791504424791739 0.341010616011664 0.118681122475065 0 0 -0.162720176574576
