1.69955191276012
0.424396699913829
0.219647817794472
1.13883015102197
0.343880282442269
0.977424765637569
1.37064090209825
11.5107218757752
0.54665338132129
5.65307542547252
0.413427830577279
1.06428597826743
1.28215775757785
1.0465461289725
0.264450996307132
2.55167392128867
0.610077527797549
1.00623417714997
0.365131143144307
0.66165318132384
0.544053534030813
0.248420590279851
0.472987213629001
0.327637365073059
5.26752091779692
0.578367062869416
5.08983388434461
0.137491107119878
2.86377359321106
0.801196315728745
0.204075807837863
5.19451347055911
0.756652313329768
1.26854370554459
1.80025571404936
0.490365264958461
3.36003526050001
0.508198520197304
1.20713512244862
0.924015350550218
1.14700579801645
1.66348348454275
0.987647364386374
1.88400608083188
0.236341034515954
0.202667615292822
1.29417845966909
0.281159293378936
1.40093810941778
0.561412036379448
