-0.11797951209309 0 0 0 -1.37780687689379 0 0 0 0 0 0 -1.26937837450528 0 0 -0.767908686590215 0 0 0 0 0 0 0 0 0 0 0 0 0 0 0 0 0 0 -1.58692256078846 0 0 0 0 0 0 0 -0.835471049770245 0 0 0 0 -0.376525950382496 0 0 0
0 -0.11797951209309 0 0 0 0 0 0 0 0 0 -1.15305674810338 0 0 -2.19084965852275 0 0 0 0 -5.95118044484684 0 0 0 0 0 0 0 0 0 0 0 0 0 -3.29242757288466 0 0 0 0 0 0 0 -4.09531354394874 0 0 0 0 -1.49323762981649 0 0 0
0 0 -0.11797951209309 0 0 0 0 0 0 0 0 0 0 0 0 -0.414812216866159 0 0 0 0 0 0 0 0 0 0 0 0 0 0 0 0 0 -0.436758847764271 0 0 0 0 0 0 0 -2.48224818796511 0 0 0 0 -0.349327637552723 0 0 0
0 0 0 -0.11797951209309 0 -0.719143623521318 0 0 0 -1.61582792077913 0 0 0 -0.749468942222306 0 -1.74690080679861 0 0 0 0 0 0 0 0 0 0 0 0 0 0 0 0 0 -1.23648724603492 0 0 -2.0638619269695 0 0 0 0 -0.815280904506528 0 0 0 0 0 0 0 0
0.268561420087705 0 0 0 -0.11797951209309 0 0 0 0 -0.548838149703088 0 0 0 -2.0615070345398 0 -3.85551582418413 0 0 0 0 0 0 0 0 0 0 0 0 0 0 0 0 0 -8.11711893330599 0 0 -1.11584505698503 0 0 0 0 -2.42703383249844 0 0 0 0 0 0 0 0
0 0 0 0.142713549203773 0 -0.11797951209309 0 0 0 0 0 0 0 0 0 0 0 0 0 0 0 0 0 0 0 0 0 0 0 0 0 0 0 -1.37433220030292 0 0 -1.78928522031726 0 0 0 0 0 0 0 0 0 0 0 0 0
0 0 0 0 0 0 -0.11797951209309 0 0 0 0 0 -1.27128644939124 0 0 0 0 0 0 0 0 0 0 0 0 0 0 0 0 0 0 0 0 -8.67221340443569 0 0 -1.68914511209328 0 0 0 0 0 0 0 0 0 0 0 0 0
0 0 0 0 0 0 0 -0.11797951209309 0.2097934152052 0 0 0 -1.04704333943598 0 0 0 0 0 0 0 0 0 0 0 0 0 0 -1.47097026743865 0 0 0 0 0 -2.10341296121916 0 0 -0.422370436392232 0 0 0 0 0 0 0 0 0 0 0 0 0
0 0 0 0 0 0 0 -1.05864454846391 -0.11797951209309 0 0 0 0 0 0 0 0 0 0 0 0 0 0 0 0 0 0 -1.16180817815768 0 0 0 0 0 -3.25969807403436 0 0 -2.51836907115137 0 0 0 0 0 0 0 0 0 0 0 0 0
0 0 0 0.304809435230136 0.106504831082607 0 0 0 0 -0.11797951209309 0 0 0 0 0 0 -1.30132566847311 0 0 0 0 0 0 0 0 0 0 -0.463976023895269 0 0 0 0 0 0 0 0 -0.455794478822137 0 0 -1.30967205116258 0 0 0 0 0 0 0 0 0 0
0 0 0 0 0 0 0 0 0 0 -0.11797951209309 0 0 0 0 0 -1.70754366576274 -0.164880691696678 0 0 0 0 0 0 0 0 0 -0.137661878851301 0 0 0 0 0 0 0 0 -1.78114303579242 0 0 -0.820726717938826 0 0 0 0 0 0 0 0 0 0
0.254977604758615 0.230033783692977 0 0 0 0 0 0 0 0 0 -0.11797951209309 0 0 0 0 -0.639719499026693 -1.26829657537939 0 0 0 0 0 0 0 0 0 -5.38783988669595 0 0 0 0 0 0 0 0 -0.203222873278176 0 0 -0.465517937321253 0 0 0 0 0 0 0 0 0 0
0 0 0 0 0 0 0.244542253952843 0.211091640434102 0 0 0 0 -0.11797951209309 0 0 0 -0.34993625074344 -3.13084994134021 0 0 -3.26550488975571 0 0 0 0 0 0 -1.01322959986826 0 0 0 0 0 0 0 0 -2.27867414664748 0 0 -0.311745141087793 0 0 0 0 0 0 0 0 0 0
0 0 0 0.144897710016749 0.399946884940623 0 0 0 0 0 0 0 0 -0.11797951209309 0 0 0 -1.03718126928103 0 0 -3.13184910268169 0 0 0 0 0 0 -3.65026117972541 0 0 0 0 0 0 0 0 0 0 0 -0.58040471056504 0 0 0 0 0 -1.96495927967648 0 0 0 0
0.158200559380525 0.403352016907615 0 0 0 0 0 0 0 0 0 0 0 0 -0.11797951209309 0 0 0 0 0 0 0 0 0 -0.706632600728647 0 0 0 0 0 0 0 -0.487283041909419 0 0 0 0 0 0 -0.0818855702310374 0 0 0 0 0 -1.04513660178047 0 0 0 0
0 0 0.0863913052227851 0.375852071073871 0.711313411528831 0 0 0 0 0 0 0 0 0 0 -0.11797951209309 0 0 0 0 0 0 0 0 -1.85756941637963 0 0 0 0 0 0 0 -1.43862552943022 0 0 0 0 0 0 -0.770741513325566 0 0 0 0 0 -0.194147185865238 0 0 0 0
0 0 0 0 0 0 0 0 0 0.253697484651835 0.344882337685945 0.13499307654285 0.0694697275722836 0 0 0 -0.11797951209309 0 -2.21076541245792 0 0 0 0 0 -0.973929793636942 0 0 0 0 0 0 0 -0.875151929051864 0 0 0 0 -1.15916853421069 0 0 0 0 0 0 0 0 0 0 0 0
0 0 0 0 0 0 0 0 0 0 0.0326372857836624 0.272388919953116 0.61165106588059 0.207591602332874 0 0 0 -0.11797951209309 0 0 0 0 0 0 -1.59419414479211 0 0 0 0 0 0 0 0 0 0 -4.13264864150001 0 -0.897551957605441 0 0 0 0 0 0 0 0 0 0 0 0
0 0 0 0 0 0 0 0 0 0 0 0 0 0 0 0 0.45556735853516 0 -0.11797951209309 0 0 0 -0.640872923356697 0 0 0 0 0 0 0 0 0 0 0 0 -2.38360084046691 0 0 0 0 0 0 0 0 0 0 0 0 0 0
0 1.14742435045152 0 0 0 0 0 0 0 0 0 0 0 0 0 0 0 0 0 -0.11797951209309 0 0 -1.28988439608297 0 0 0 0 0 0 0 0 0 0 0 0 -1.61662236754662 0 0 0 0 0 0 0 0 0 0 0 0 0 0
0 0 0 0 0 0 0 0 0 0 0 0 0.70220313973825 0.653247934593213 0 0 0 0 0 0 -0.11797951209309 0 0 0 0 0 -1.72558423648626 0 0 -0.528936936407102 0 0 0 0 0 -0.375313399997076 0 0 0 0 0 0 0 0 0 0 0 0 0 0
0 0 0 0 0 0 0 0 0 0 0 0 0 0 0 0 0 0 0 0 0 -0.11797951209309 0 0 0 0 -1.18592721913646 0 0 -0.341208943592323 -0.401263248947318 0 0 0 0 0 0 0 0 0 0 0 0 0 0 0 0 0 0 0
0 0 0 0 0 0 0 0 0 0 0 0 0 0 0 0 0 0 0.133275638409365 0.245358551116911 0 0 -0.11797951209309 0 0 0 0 0 0 -1.32408863611466 -0.423787636515308 0 0 0 0 0 0 0 0 0 0 0 0 0 0 0 0 0 0 0
0 0 0 0 0 0 0 0 0 0 0 0 0 0 0 0 0 0 0 0 0 0 0 -0.11797951209309 0 0 0 0 0 -4.10296688979151 0 0 0 0 0 0 0 0 0 0 0 0 0 0 0 0 0 0 0 0
0 0 0 0 0 0 0 0 0 0 0 0 0 0 0.146561813769806 0.353399321747976 0.191910233303162 0.316325586680559 0 0 0 0 0 0 -0.11797951209309 -0.832491562082838 0 0 0 0 0 0 0 0 0 0 0 0 0 0 -0.535822769787744 0 0 0 0 0 0 0 0 0
0 0 0 0 0 0 0 0 0 0 0 0 0 0 0 0 0 0 0 0 0 0 0 0 0.162235287020432 -0.11797951209309 0.484039653675179 0 0 0 0 0 0 0 -2.11894943372922 0 0 0 0 0 -0.652323348296239 0 0 0 0 0 0 0 0 0
0 0 0 0 0 0 0 0 0 0 0 0 0 0 0 0 0 0 0 0 0.353451468425379 0.228820887242169 0 0 0 -2.26218204342265 -0.11797951209309 0 0 0 0 0 0 0 -1.55560703534073 0 0 0 0 0 -1.38432691319612 0 0 0 0 0 0 0 0 0
0 0 0 0 0 0 0 0.314526802693858 0.237033038674419 0.0844728278053834 0.0269193719420277 1.05079308218944 0.201585936482661 0.751300327530652 0 0 0 0 0 0 0 0 0 0 0 0 0 -0.11797951209309 0 0 0 0 0 0 -0.647213850134965 0 0 0 0 0 -1.818049751602 0 0 0 0 0 0 0 0 0
0 0 0 0 0 0 0 0 0 0 0 0 0 0 0 0 0 0 0 0 0 0 0 0 0 0 0 0 -0.11797951209309 0 0 0 0 0 -0.17358167913014 0 0 0 0 0 -0.504849462858108 0 0 0 0 0 0 0 0 0
0 0 0 0 0 0 0 0 0 0 0 0 0 0 0 0 0 0 0 0 0.110077823881085 0.0716984227913776 0.257565349690729 0.815035460754878 0 0 0 0 0 -0.11797951209309 0 0 0 0 -0.863778488301113 0 0 0 0 0 0 0 0 0 0 0 0 0 0 0
0 0 0 0 0 0 0 0 0 0 0 0 0 0 0 0 0 0 0 0 0 0.0771420076844427 0.0806042290558611 0 0 0 0 0 0 0 -0.11797951209309 0 0 0 -0.373079762672767 0 0 0 0 0 0 0 0 -1.93887752205193 0 0 0 0 0 0
0 0 0 0 0 0 0 0 0 0 0 0 0 0 0 0 0 0 0 0 0 0 0 0 0 0 0 0 0 0 0 -0.11797951209309 0 0 -0.554124507752918 0 0 0 0 0 0 0 0 -0.732541325028647 0 0 0 0 0 0
0 0 0 0 0 0 0 0 0 0 0 0 0 0 0.0903605429203805 0.260497030172181 0.175121268236697 0 0 0 0 0 0 0 0 0 0 0 0 0 0 0 -0.11797951209309 0 0 0 0 0 0 0 0 0 0 -1.14124168590287 -1.38595673169029 0 0 0 0 0
0.297491289192701 0.649599347880072 0.0882069435974911 0.242568923235568 1.58738985931179 0.294691443843992 1.69711339233662 0.437537869167536 0.658932965283254 0 0 0 0 0 0 0 0 0 0 0 0 0 0 0 0 0 0 0 0 0 0 0 0 -0.11797951209309 0 0 0 0 0 0 0 0 0 0 -1.00492399805854 0 0 0 0 0
0 0 0 0 0 0 0 0 0 0 0 0 0 0 0 0 0 0 0 0 0 0 0 0 0 0.41549864238252 0.296883103363946 0.124341435528167 0.0322065909627596 0.19650942334762 0.0789670364955963 0.107823022698578 0 0 -0.11797951209309 0 0 0 0 0 0 0 0 0 -0.124179281512125 0 0 0 0 0
0 0 0 0 0 0 0 0 0 0 0 0 0 0 0 0 0 0.839853680679161 0.46293840354819 0.30997351998331 0.0771933962808444 0 0 0 0 0 0 0 0 0 0 0 0 0 0 -0.11797951209309 0 0 -1.56724346420272 0 0 0 0 0 -0.553795550134533 0 0 -0.4514083598704 0 0
0 0 0 0.417778838040021 0.221391601246654 0.366576502535737 0.325531823610328 0.085280649780502 0.477680482883154 0.0895487592767243 0.382276621410165 0.0421038725220053 0.436405623749322 0 0 0 0 0 0 0 0 0 0 0 0 0 0 0 0 0 0 0 0 0 0 0 -0.11797951209309 0 -0.220135566680429 0 0 0 0 0 -1.1752641052228 0 0 -1.73208265328075 0 0
0 0 0 0 0 0 0 0 0 0 0 0 0 0 0 0 0.245610110524281 0.184091904696568 0 0 0 0 0 0 0 0 0 0 0 0 0 0 0 0 0 0 0 -0.11797951209309 -4.34328869620309 0 0 0 0 0 -1.13312694519942 0 0 -1.93830207302332 0 0
0 0 0 0 0 0 0 0 0 0 0 0 0 0 0 0 0 0 0 0 0 0 0 0 0 0 0 0 0 0 0 0 0 0 0 0.337506577508974 0.0423769790884723 0.802677332910615 -0.11797951209309 0 0 0 0 0 0 0 0 -0.321805752476392 0 0
0 0 0 0 0 0 0 0 0 0.260154860976599 0.166975583832072 0.0860183618541283 0.0659095252613571 0.112035848349734 0.016245398697002 0.159218001122777 0 0 0 0 0 0 0 0 0 0 0 0 0 0 0 0 0 0 0 0 0 0 0 -0.11797951209309 0 0 0 0 0 0 0 -0.856014153576246 0 0
0 0 0 0 0 0 0 0 0 0 0 0 0 0 0 0 0 0 0 0 0 0 0 0 0.104381606910195 0.130371614349859 0.289837029513562 0.358858637565011 0.107811252873911 0 0 0 0 0 0 0 0 0 0 0 -0.11797951209309 0 -0.6513604608621 0 0 0 0 0 0 -1.5371274351424
0.163534281968714 0.841143110272245 0.5151020487643 0.169515787231035 0.460979697816033 0 0 0 0 0 0 0 0 0 0 0 0 0 0 0 0 0 0 0 0 0 0 0 0 0 0 0 0 0 0 0 0 0 0 0 0 -0.11797951209309 -0.612299020096012 0 0 0 0 0 0 0
0 0 0 0 0 0 0 0 0 0 0 0 0 0 0 0 0 0 0 0 0 0 0 0 0 0 0 0 0 0 0 0 0 0 0 0 0 0 0 0 0.142012906851577 0.139436302575482 -0.11797951209309 0 0 0 0 0 0 0
0 0 0 0 0 0 0 0 0 0 0 0 0 0 0 0 0 0 0 0 0 0 0 0 0 0 0 0 0 0 0.42483208102945 0.139792223964357 0.227993794476909 0 0 0 0 0 0 0 0 0 0 -0.11797951209309 0 0 0 0 -0.772101670554462 0
0 0 0 0 0 0 0 0 0 0 0 0 0 0 0 0 0 0 0 0 0 0 0 0 0 0 0 0 0 0 0 0 0.253365518407389 0.207590897670242 0.025925733742085 0.108050564488185 0.240470764106178 0.213146618782452 0 0 0 0 0 0 -0.11797951209309 0 0 0 0 0
0 0 0 0 0 0 0 0 0 0 0 0 0 0.393796368747604 0.198633910012843 0.0379156981368278 0 0 0 0 0 0 0 0 0 0 0 0 0 0 0 0 0 0 0 0 0 0 0 0 0 0 0 0 0 -0.11797951209309 0 0 0 0
0.0718268600665504 0.314367637980675 0.0670378968977532 0 0 0 0 0 0 0 0 0 0 0 0 0 0 0 0 0 0 0 0 0 0 0 0 0 0 0 0 0 0 0 0 0 0 0 0 0 0 0 0 0 0 0 -0.11797951209309 0 0 0
0 0 0 0 0 0 0 0 0 0 0 0 0 0 0 0 0 0 0 0 0 0 0 0 0 0 0 0 0 0 0 0 0 0 0 0.0898444501655952 0.331544894659701 0.405750458126702 0.0629213447619461 0.173993595031579 0 0 0 0 0 0 0 -0.11797951209309 0 0
0 0 0 0 0 0 0 0 0 0 0 0 0 0 0 0 0 0 0 0 0 0 0 0 0 0 0 0 0 0 0 0 0 0 0 0 0 0 0 0 0 0 0 0.162483787170286 0 0 0 0 -0.11797951209309 0
0 0 0 0 0 0 0 0 0 0 0 0 0 0 0 0 0 0 0 0 0 0 0 0 0 0 0 0 0 0 0 0 0 0 0 0 0 0 0 0 0.31670669684693 0 0 0 0 0 0 0 0 -0.11797951209309
