-0.210429762532504 0 0 0 0 0 0 0 0 0 0 0 0 0 0 0 0 0 0 0 0 0 0 0 0 0 0 0 0 0 0 0 0 0 0 0 0 -2.36907720223945 0 0 0 0 0 0 0 0 0 0 0 0
0 -0.210429762532504 0 0 0 0 0 0 0 0 0 0 0 0 0 0 0 0 0 0 0 0 0 0 0 0 0 0 0 0 0 0 0 0 0 0 0 -0.269479421525651 0 0 0 0 0 0 0 0 0 0 0 0
0 0 -0.210429762532504 0 0 0 0 0 0 0 0 -0.669699130081777 0 0 0 0 0 0 0 0 0 0 0 0 0 0 0 0 0 0 0 0 0 0 0 0 0 -0.663346594774383 0 0 0 0 0 0 0 -1.13166820125057 0 0 0 0
0 0 0 -0.210429762532504 0 -1.41444136205149 0 0 0 0 0 0 0 0 0 0 0 0 0 0 0 0 0 0 0 0 0 0 0 -1.73430047802869 0 0 0 -0.121428800604388 0 0 0 -1.13769772396376 0 0 0 -1.89228290561449 0 0 0 0 0 0 0 0
0 0 0 0 -0.210429762532504 -0.935420848764022 0 0 0 0 0 0 0 0 0 0 0 0 0 0 0 0 0 0 0 0 0 0 0 -2.13699209778328 0 0 0 -0.0795293503197531 0 0 0 -2.14654589879556 0 0 0 -3.27655152017102 0 0 0 0 0 0 0 0
0 0 0 0.286466805558465 0.202503594684519 -0.210429762532504 0 0 0 -2.50970898235542 0 0 -0.437751460735748 0 0 0 0 0 0 0 0 0 0 0 0 0 0 0 0 -2.19626232721488 0 0 0 -0.558694588264852 -0.913460888870976 0 0 -1.42838007581401 0 0 0 0 0 0 0 0 0 0 0 0
0 0 0 0 0 0 -0.210429762532504 -0.935033248376096 0 -0.806201275195435 0 0 0 0 -2.11979481463675 0 0 0 0 0 0 0 -4.22877010942599 0 0 0 0 0 0 -0.138677494039514 0 0 0 -8.44118469787479 0 0 0 0 0 0 0 0 -2.50864515263516 0 0 0 0 0 0 0
0 0 0 0 0 0 0.178110949992958 -0.210429762532504 0 -1.82752819747537 -0.326425888822376 0 0 0 -0.220943678606583 0 0 0 0 0 0 0 -0.631620399860386 0 0 0 0 0 0 -0.40527739403435 0 0 0 -0.372835813834032 0 0 0 0 0 0 0 0 0 0 0 0 0 0 0 0
0 0 0 0 0 0 0 0 -0.210429762532504 -3.36146776690117 0 0 0 0 -1.58994452771631 0 0 0 0 0 0 0 0 0 0 0 0 0 0 0 0 0 0 -2.7545589761637 0 0 0 0 0 0 0 0 0 0 0 0 0 0 0 0
0 0 0 0 0 0.498214403874601 0.161844511929591 0.398013829985435 0.680814179016194 -0.210429762532504 0 0 0 0 -5.53622111298852 0 0 0 0 0 0 0 0 0 0 0 0 0 0 0 0 0 0 -1.91325412073626 0 0 0 0 0 0 0 0 0 0 0 0 0 0 0 0
0 0 0 0 0 0 0 0.0617368974946603 0 0 -0.210429762532504 0 0 0 -0.141173121815665 0 0 0 0 0 0 0 0 0 0 0 0 0 -8.49941028285955 0 0 0 0 -4.01254854463183 0 0 0 0 0 0 0 0 0 0 0 0 0 0 0 0
0 0 0.124911834350706 0 0 0 0 0 0 0 0 -0.210429762532504 0 0 -1.05689051925159 0 0 0 0 0 0 0 0 0 0 0 0 -6.71815738682075 -2.55534640782869 0 0 0 0 -3.16571007728419 0 0 0 0 0 0 0 0 0 0 0 0 0 0 0 0
0 0 0 0 0 0.0916872226227845 0 0 0 0 0 0 -0.210429762532504 0 0 -0.226761629456483 0 0 0 0 -1.28565822393899 0 0 0 0 0 0 -0.213143039541075 -3.3113766832813 0 0 0 0 -1.67206812096132 0 0 0 0 0 0 0 0 0 0 0 0 0 0 0 0
0 0 0 0 0 0 0 0 0 0 0 0 0 -0.210429762532504 0 -0.703034176969266 0 0 0 0 0 -1.2676779128109 0 0 0 0 0 -0.992379759199178 0 0 0 0 0 0 0 0 0 0 0 0 0 0 0 0 0 0 0 0 0 0
0 0 0 0 0 0 0.420718720508743 0.0392575322083147 0.335889148456355 1.060241774031 0.0257832373045502 0.2074798605261 0 0 -0.210429762532504 0 0 0 0 0 0 0 0 -3.66224052827869 0 0 0 0 0 0 0 0 0 0 0 0 0 0 0 0 0 0 0 0 0 0 0 0 0 0
0 0 0 0 0 0 0 0 0 0 0 0 0.0425266068597915 0.133917945864523 0 -0.210429762532504 0 0 0 0 0 0 0 0 0 0 -2.80080616500432 0 0 0 0 0 0 0 0 0 0 0 0 0 0 0 0 0 0 0 0 0 0 -0.534099183108215
0 0 0 0 0 0 0 0 0 0 0 0 0 0 0 0 -0.210429762532504 0 0 0 0 0 0 0 0 0 -0.520805867576231 0 0 0 0 0 0 0 0 0 0 0 0 0 0 0 0 0 0 0 0 0 0 -0.868846869614961
0 0 0 0 0 0 0 0 0 0 0 0 0 0 0 0 0 -0.210429762532504 0 0 0 0 0 0 0 0 -1.48032516524201 0 0 0 0 0 0 0 0 0 0 0 0 0 0 0 0 0 0 0 0 0 0 -1.55595565185487
0 0 0 0 0 0 0 0 0 0 0 0 0 0 0 0 0 0 -0.210429762532504 0 0 0 0 0 0 0 -0.933510710482719 0 0 0 0 0 0 0 0 0 0 0 0 0 0 0 0 0 0 0 0 0 0 -0.342290654034965
0 0 0 0 0 0 0 0 0 0 0 0 0 0 0 0 0 0 0 -0.210429762532504 0 0 0 0 0 0 -2.32219163198288 0 0 0 0 0 0 0 0 0 0 0 0 0 0 0 0 0 0 0 0 0 0 -0.956217636803604
0 0 0 0 0 0 0 0 0 0 0 0 0.262747309195686 0 0 0 0 0 0 0 -0.210429762532504 0 0 0 0 0 0 0 0 0 0 0 0 0 0 0 0 0 0 0 0 0 0 0 0 0 0 0 0 -0.300989487381715
0 0 0 0 0 0 0 0 0 0 0 0 0 0.230903104628921 0 0 0 0 0 0 0 -0.210429762532504 0 0 0 0 0 0 0 0 0 0 0 0 0 0 0 0 0 0 0 0 0 0 0 0 0 0 0 -0.259941140279842
0 0 0 0 0 0 0.890282627585125 0.122157426030312 0 0 0 0 0 0 0 0 0 0 0 0 0 0 -0.210429762532504 0 0 0 0 0 0 0 0 0 0 0 0 0 -0.435185302213978 0 0 0 0 0 0 0 0 0 0 0 0 -2.82541129484953
0 0 0 0 0 0 0 0 0 0 0 0 0 0 0.792117310332208 0 0 0 0 0 0 0 0 -0.210429762532504 0 0 0 0 0 0 0 0 0 0 0 0 0 0 0 0 0 0 0 0 0 0 0 0 0 -0.486201620096388
0 0 0 0 0 0 0 0 0 0 0 0 0 0 0 0 0 0 0 0 0 0 0 0 -0.210429762532504 0 0 0 0 0 0 0 0 0 0 0 0 0 0 -0.324915540909505 0 0 0 0 -0.439909199817142 0 0 -1.86726831487855 0 0
0 0 0 0 0 0 0 0 0 0 0 0 0 0 0 0 0 0 0 0 0 0 0 0 0 -0.210429762532504 0 0 0 0 0 0 0 0 0 0 0 0 0 -1.39676531328801 0 0 0 0 -1.09590549042614 0 -1.74557657332612 -1.05537468489484 0 0
0 0 0 0 0 0 0 0 0 0 0 0 0 0 0 0.550705623883896 0.104862977003675 0.300089647241896 0.175212079531505 0.451689000549757 0 0 0 0 0 0 -0.210429762532504 0 0 0 0 0 0 0 0 0 0 0 0 -2.65739145188957 0 0 0 0 -2.92397723184096 0 -0.722223715758068 -0.585357963470225 0 0
0 0 0 0 0 0 0 0 0 0 0 1.45460841713469 0.0449048172608478 0.210643915362708 0 0 0 0 0 0 0 0 0 0 0 0 0 -0.210429762532504 0 0 0 0 0 0 0 0 0 0 0 -0.991203505405692 0 0 0 0 -1.41409223800995 0 -0.624216503412398 -0.420438088223221 0 0
0 0 0 0 0 0 0 0 0 0 1.77217421125156 0.541549877484786 0.601265668013681 0 0 0 0 0 0 0 0 0 0 0 0 0 0 0 -0.210429762532504 0 0 0 0 0 0 0 0 0 0 -0.255921878058805 0 0 0 0 -0.573639009310347 0 -0.152382084134776 -0.496090203933879 0 0
0 0 0 0.361568031699367 0.451494632301399 0.457837034411637 0.0314298871693173 0.0820891924007842 0 0 0 0 0 0 0 0 0 0 0 0 0 0 0 0 0 0 0 0 0 -0.210429762532504 0 0 0 0 0 0 0 0 0 -0.45861291537058 0 0 0 0 -1.26908872940616 0 -2.03522936405925 -1.48750567618558 0 0
0 0 0 0 0 0 0 0 0 0 0 0 0 0 0 0 0 0 0 0 0 0 0 0 0 0 0 0 0 0 -0.210429762532504 0 0 0 0 0 0 0 0 -2.78204845313773 0 0 0 0 -2.27945108058963 0 -3.75980025486659 -0.18299851527658 0 0
0 0 0 0 0 0 0 0 0 0 0 0 0 0 0 0 0 0 0 0 0 0 0 0 0 0 0 0 0 0 0 -0.210429762532504 0 0 0 0 0 0 0 -1.19707067110401 0 0 0 0 -10.1244682746926 0 -1.3824996695311 -0.509732467549207 0 0
0 0 0 0 0 0 0 0 0 0 0 0 0 0 0 0 0 0 0 0 0 0 0 0 0 0 0 0 0 0 0 0 -0.210429762532504 0 0 0 0 0 0 -1.79691545734926 0 0 0 0 -2.64042303691207 0 -0.559091525940532 -0.687046370837504 0 0
0 0 0 0.0256672571484924 0.0160372048167051 0.115844603895095 1.71770013575231 0.0778228263035296 0.560524069853344 0.387924656387854 0.768724820801629 0.651441808750474 0.31707583895596 0 0 0 0 0 0 0 0 0 0 0 0 0 0 0 0 0 0 0 0 -0.210429762532504 0 0 0 0 0 -1.84253247331349 0 0 0 0 -0.384929999251146 0 -1.16281967893848 -0.199206285255033 -1.1853072408043 0
0 0 0 0 0 0.166678351917656 0 0 0 0 0 0 0 0 0 0 0 0 0 0 0 0 0 0 0 0 0 0 0 0 0 0 0 0 -0.210429762532504 0 0 0 0 -1.36188682318634 0 0 0 0 -0.355560792377563 0 -0.696498608707219 -0.895509409514121 -2.74117888618914 0
0 0 0 0 0 0 0 0 0 0 0 0 0 0 0 0 0 0 0 0 0 0 0 0 0 0 0 0 0 0 0 0 0 0 0 -0.210429762532504 0 0 0 -0.454247882339739 0 0 0 0 -1.5597932398663 0 -0.0763714526595964 -0.476225801340957 0 0
0 0 0 0 0 0 0 0 0 0 0 0 0 0 0 0 0 0 0 0 0 0 0.084690787862164 0 0 0 0 0 0 0 0 0 0 0 0 0 -0.210429762532504 0 0 0 0 0 0 0 0 0 0 0 0 0
0.505201256356106 0.0521866765869503 0.126770701325856 0.211597302719455 0.456927092499542 0.271751877135161 0 0 0 0 0 0 0 0 0 0 0 0 0 0 0 0 0 0 0 0 0 0 0 0 0 0 0 0 0 0 0 -0.210429762532504 0 0 0 0 0 -2.06308089303039 0 0 0 0 0 0
0 0 0 0 0 0 0 0 0 0 0 0 0 0 0 0 0 0 0 0 0 0 0 0 0 0 0 0 0 0 0 0 0 0 0 0 0 0 -0.210429762532504 0 0 0 0 -0.188087296316438 0 0 0 0 0 0
0 0 0 0 0 0 0 0 0 0 0 0 0 0 0 0 0 0 0 0 0 0 0 0 0.0636287598147827 0.284692648333461 0.556858860542795 0.203289335069829 0.0479752571889115 0.0900178769525767 0.520559509101964 0.23291528882079 0.343644616870834 0.367103120495474 0.27979238231999 0.0856924383242826 0 0 0 -0.210429762532504 0 0 0 -2.91507288937919 0 0 0 0 0 0
0 0 0 0 0 0 0 0 0 0 0 0 0 0 0 0 0 0 0 0 0 0 0 0 0 0 0 0 0 0 0 0 0 0 0 0 0 0 0 0 -0.210429762532504 0 0 -2.0421956851083 0 0 0 0 0 0
0 0 0 0.372813464094364 0.65715131610123 0 0 0 0 0 0 0 0 0 0 0 0 0 0 0 0 0 0 0 0 0 0 0 0 0 0 0 0 0 0 0 0 0 0 0 0 -0.210429762532504 0 -0.815841981571932 0 0 0 0 0 0
0 0 0 0 0 0 0.490722865774504 0 0 0 0 0 0 0 0 0 0 0 0 0 0 0 0 0 0 0 0 0 0 0 0 0 0 0 0 0 0 0 0 0 0 0 -0.210429762532504 0 0 0 0 0 0 0
0 0 0 0 0 0 0 0 0 0 0 0 0 0 0 0 0 0 0 0 0 0 0 0 0 0 0 0 0 0 0 0 0 0 0 0 0 0.367532558435955 0.0343411262935092 0.532538449520175 0.423096771860475 0.160814776106038 0 -0.210429762532504 0 0 0 0 0 0
0 0 0 0 0 0 0 0 0 0 0 0 0 0 0 0 0 0 0 0 0 0 0 0 0.0955760456726069 0.21754471676197 0.620187225086363 0.268144421131105 0.119932331456413 0.262638238905946 0.488398847659144 1.74376834343537 0.528636354948042 0.0836309392748363 0.0709393789630211 0.332148782286187 0 0 0 0 0 0 0 0 -0.210429762532504 0 0 0 0 0
0 0 0.236599339988997 0 0 0 0 0 0 0 0 0 0 0 0 0 0 0 0 0 0 0 0 0 0 0 0 0 0 0 0 0 0 0 0 0 0 0 0 0 0 0 0 0 0 -0.210429762532504 0 0 0 0
0 0 0 0 0 0 0 0 0 0 0 0 0 0 0 0 0 0 0 0 0 0 0 0 0 0.370072168278725 0.147593673065074 0.128165331725695 0.0317275587679799 0.406743479579134 0.661879798315907 0.283109217870317 0.0981899433912947 0.233224156297137 0.14038892058703 0.0145720760927255 0 0 0 0 0 0 0 0 0 0 -0.210429762532504 0 0 0
0 0 0 0 0 0 0 0 0 0 0 0 0 0 0 0 0 0 0 0 0 0 0 0 0.375484358018598 0.202421669173246 0.109018889157991 0.0852449629704628 0.102180919036766 0.310949775140712 0.0380209506294056 0.092269413511426 0.13887905934083 0.0383813745884027 0.188466680964966 0.105477522017103 0 0 0 0 0 0 0 0 0 0 0 -0.210429762532504 0 0
0 0 0 0 0 0 0 0 0 0 0 0 0 0 0 0 0 0 0 0 0 0 0 0 0 0 0 0 0 0 0 0 0 0.232601573076041 0.510071875102809 0 0 0 0 0 0 0 0 0 0 0 0 0 -0.210429762532504 0
0 0 0 0 0 0 0 0 0 0 0 0 0 0 0 0.105132150180378 0.181118448907967 0.297266060069559 0.0648127396726798 0.199550504625631 0.0608967690621076 0.0485177772740889 0.545106746910659 0.093870202013896 0 0 0 0 0 0 0 0 0 0 0 0 0 0 0 0 0 0 0 0 0 0 0 0 0 -0.210429762532504
