-0.234826642386027 0 0 0 0 0 0 0 0 0 0 -1.00642163814903 0 0 0 0 0 0 0 0 0 0 0 0 0 0 0 0 0 0 0 0 0 0 0 0 0 0 0 0 0 0 0 0 0 0 0 0 0 0
0 -0.234826642386027 0 -0.147386534489173 0 0 0 0 0 0 0 0 -1.04550921951789 0 -1.03622450041388 0 0 0 0 0 0 0 0 0 0 0 0 0 0 0 0 0 0 0 0 -0.381027627699035 0 0 0 0 0 0 0 0 0 0 0 0 0 0
0 0 -0.234826642386027 0 0 0 0 0 0 -2.21680055159124 0 0 0 0 -2.11754201312878 0 0 0 0 0 0 0 0 0 0 0 0 0 0 0 0 0 0 0 0 -0.405467543633721 0 0 0 0 0 0 0 0 0 0 0 -2.13902535741005 0 0
0 0.0302798259363942 0 -0.234826642386027 0 0 0 0 -0.54641791519807 0 0 0 0 0 -0.464250768389029 0 0 0 0 0 -0.239383888456648 0 0 0 0 0 0 0 0 0 0 0 0 0 0 -11.1129850297801 0 0 0 0 0 0 0 0 0 0 0 0 0 0
0 0 0 0 -0.234826642386027 0 0 -0.222234462390279 0 0 0 0 0 -2.12507351463035 0 0 0 0 0 0 0 -0.391555390491572 0 0 -0.438898277806261 0 0 0 0 0 0 0 0 0 -0.268957943026542 0 -1.45431248246574 0 0 0 0 0 0 0 0 0 0 0 0 0
0 0 0 0 0 -0.234826642386027 0 -2.51572973687022 0 0 0 0 0 -0.822314425152916 0 0 0 0 0 0 0 -1.79366761567376 0 0 -1.88595300649713 0 0 -11.4529284519969 0 0 0 0 0 0 -0.509578365759679 0 -1.69747001648427 0 0 0 0 0 0 0 0 0 0 0 0 0
0 0 0 0 0 0 -0.234826642386027 0 0 0 0 0 0 -1.88378276235859 0 0 0 0 0 0 0 -0.720404635503778 0 0 -0.136069618860913 0 0 -5.78339091612663 0 0 0 0 0 0 -2.13488140678173 0 -1.84632623763301 0 0 0 0 0 0 0 0 0 0 0 0 0
0 0 0 0 0.0443743873799143 0.502951239473399 0 -0.234826642386027 0 0 0 0 0 -1.57190159042579 0 0 0 -3.0787820627322 0 0 0 -0.780208068116344 0 0 -1.15730181961844 0 0 -1.08268947859315 -2.56113454684876 0 0 0 0 0 0 0 -1.21221713319651 0 0 0 0 0 0 0 0 0 0 0 0 0
0 0 0 0.109436736087614 0 0 0 0 -0.234826642386027 0 0 0 0 0 0 0 0 -1.15128187878212 0 0 0 0 0 0 0 0 0 0 -0.813583203148599 -4.82353070453061 0 0 0 0 0 0 -9.92138429404321 0 0 0 0 0 0 0 0 0 0 0 0 0
0 0 0.438904031920844 0 0 0 0 0 0 -0.234826642386027 0 0 0 0 0 0 0 0 -3.71515174603038 0 0 0 0 -1.0342990405125 0 -2.25931520975973 0 0 -0.385822189239747 0 0 0 0 0 0 0 0 0 0 0 0 0 -0.645241504167201 0 0 0 0 0 0 0
0 0 0 0 0 0 0 0 0 0 -0.234826642386027 0 0 0 0 0 0 0 -0.930474458083063 0 0 0 0 -1.11595662636125 0 -0.413835866628464 0 0 -0.928548892344005 0 0 0 0 0 0 0 0 0 0 0 0 0 -2.0138403803014 0 0 0 0 0 0 0
0.19644409631305 0 0 0 0 0 0 0 0 0 0 -0.234826642386027 0 0 0 0 0 0 -2.33143366500669 0 0 0 0 0 0 -1.4130110435565 -3.66217483019953 0 0 0 0 0 0 0 0 0 0 0 0 0 0 0 -2.29313453394684 0 0 0 0 0 0 0
0 0.194476669055321 0 0 0 0 0 0 0 0 0 0 -0.234826642386027 0 0 0 0 0 -1.29391354935187 0 0 0 0 0 0 0 -1.71581371651983 0 0 0 0 0 0 0 0 0 0 0 0 0 0 0 -0.932711297554013 0 0 0 0 0 0 0
0 0 0 0 0.424555282052846 0.158557736045335 0.362999063204909 0.282491274926619 0 0 0 0 0 -0.234826642386027 0 0 0 0 -1.72766251983179 0 0 0 0 0 0 0 -4.42947904745132 0 0 0 0 0 0 0 0 0 0 0 0 0 0 0 -1.56375229520259 -2.52959927683447 0 0 0 0 0 -0.309324527095374
0 0.210751307419532 0.443052681580933 0.0884450800436192 0 0 0 0 0 0 0 0 0 0 -0.234826642386027 0 0 0 0 0 0 0 0 0 0 0 0 0 0 0 0 0 0 0 0 0 0 0 0 0 0 0 -0.793026844492771 -0.242994778272408 0 0 0 0 0 -5.69514050716113
0 0 0 0 0 0 0 0 0 0 0 0 0 0 0 -0.234826642386027 0 0 0 0 0 0 0 0 0 0 0 0 0 0 0 0 0 0 0 0 0 0 0 0 0 0 -1.46374431849534 -0.504776865258034 0 0 0 0 0 -1.49224108203523
0 0 0 0 0 0 0 0 0 0 0 0 0 0 0 0 -0.234826642386027 0 0 0 0 0 0 0 0 0 0 0 0 0 0 0 0 0 0 0 0 0 0 0 0 0 -0.714243831186024 -3.16329063288428 0 0 0 0 0 -1.30278039718958
0 0 0 0 0 0 0 0.574034687135374 0.238879739123301 0 0 0 0 0 0 0 0 -0.234826642386027 0 0 0 0 0 0 0 0 0 0 0 0 0 0 0 0 0 0 0 -2.35313310997243 -1.73360871810093 0 0 0 0 0 0 0 0 0 0 -0.607204454561939
0 0 0 0 0 0 0 0 0 0.716209958508334 0.184918845601296 0.452698009634412 0.25397502911911 0.317060124415168 0 0 0 0 -0.234826642386027 0 0 0 0 0 0 0 0 0 0 0 0 0 0 0 0 0 0 -0.754500193498463 -0.571696312002548 0 0 0 0 0 0 0 0 0 0 -2.46685845547836
0 0 0 0 0 0 0 0 0 0 0 0 0 0 0 0 0 0 0 -0.234826642386027 0 0 0 0 0 0 0 0 0 0 0 0 0 0 0 0 0 0 0 0 0 0 0 0 0 0 0 0 0 -1.05848231617382
0 0 0 0.0452863475096656 0 0 0 0 0 0 0 0 0 0 0 0 0 0 0 0 -0.234826642386027 0 0 0 0 0 0 0 0 0 -0.366687143695189 0 0 0 0 0 0 0 0 0 0 0 0 0 0 0 0 0 0 -1.58587686431475
0 0 0 0 0.0818324588651622 0.314583249914751 0.138643301804978 0.157333178660235 0 0 0 0 0 0 0 0 0 0 0 0 0 -0.234826642386027 0 0 0 0 0 0 0 0 -2.28261666975833 0 0 0 0 0 0 0 0 0 0 0 0 0 0 0 0 0 0 -0.345078612913581
0 0 0 0 0 0 0 0 0 0 0 0 0 0 0 0 0 0 0 0 0 0 -0.234826642386027 0 0 0 0 0 0 0 -0.506318101399748 0 0 0 0 0 0 0 0 0 0 0 0 0 0 0 0 0 0 0
0 0 0 0 0 0 0 0 0 0.213491497433604 0.220932952632084 0 0 0 0 0 0 0 0 0 0 0 0 -0.234826642386027 0 0 0 0 0 0 -0.267471738672378 0 0 0 0 0 0 0 0 0 0 0 0 0 0 0 0 0 0 0
0 0 0 0 0.0905646582772404 0.351060090670941 0.0272249585858425 0.232669614401688 0 0 0 0 0 0 0 0 0 0 0 0 0 0 0 0 -0.234826642386027 0 0 0 0 0 0 0 0 0 0 0 0 0 0 0 0 0 0 0 0 0 0 0 0 0
0 0 0 0 0 0 0 0 0 0.443352690636201 0.0810893903686127 0.278038621723648 0 0 0 0 0 0 0 0 0 0 0 0 0 -0.234826642386027 0 0 0 0 0 -2.53137680819371 0 0 0 0 0 0 0 0 0 -0.539578697485569 0 0 0 0 0 0 0 0
0 0 0 0 0 0 0 0 0 0 0 0.79658539449672 0.332052667958087 0.857397002276194 0 0 0 0 0 0 0 0 0 0 0 0 -0.234826642386027 0 0 0 0 -0.208373268996202 0 0 0 0 0 0 0 0 0 -1.92921982234745 0 0 0 0 0 0 0 0
0 0 0 0 0 2.11832914461005 1.19816958145 0.229014910438621 0 0 0 0 0 0 0 0 0 0 0 0 0 0 0 0 0 0 0 -0.234826642386027 0 0 0 -1.48511746058297 0 0 0 0 0 0 0 0 -2.3018169018617 -2.54289197683872 0 0 0 0 0 0 0 0
0 0 0 0 0 0 0 0.524642059024896 0.157658121110117 0.0823279693452659 0.185688742639028 0 0 0 0 0 0 0 0 0 0 0 0 0 0 0 0 0 -0.234826642386027 0 0 -2.49090078396817 0 0 0 0 0 0 0 -0.786460889295669 -4.8531592852626 -0.959210011976046 0 0 0 -2.9798916315741 -0.846796414323092 0 0 0
0 0 0 0 0 0 0 0 0.894347771209611 0 0 0 0 0 0 0 0 0 0 0 0 0 0 0 0 0 0 0 0 -0.234826642386027 0 0 0 0 0 0 0 0 0 -0.692069523713029 -2.59900104355477 -1.68533821119124 0 0 0 0 -0.680830516972989 0 -1.72506613830965 0
0 0 0 0 0 0 0 0 0 0 0 0 0 0 0 0 0 0 0 0 0.0783886659524615 0.454943022076222 0.0937307346076162 0.0514146181335299 0 0 0 0 0 0 -0.234826642386027 0 0 0 0 0 0 0 0 0 -1.18205303957631 -0.991859397245741 0 0 0 0 -2.09854197173651 0 -1.03665646849144 0
0 0 0 0 0 0 0 0 0 0 0 0 0 0 0 0 0 0 0 0 0 0 0 0 0 0.491400104447377 0.0434182807838935 0.312012389992702 0.434845162024721 0 0 -0.234826642386027 0 0 0 0 0 0 0 0 -0.559559826776091 -0.107333344493614 0 0 0 0 -1.02591931515012 0 -2.62499421102542 0
0 0 0 0 0 0 0 0 0 0 0 0 0 0 0 0 0 0 0 0 0 0 0 0 0 0 0 0 0 0 0 0 -0.234826642386027 0 0 0 0 0 0 0 -2.46883232153908 -0.548429565589812 0 0 0 0 -3.74396623297367 0 0 0
0 0 0 0 0 0 0 0 0 0 0 0 0 0 0 0 0 0 0 0 0 0 0 0 0 0 0 0 0 0 0 0 0 -0.234826642386027 0 0 0 0 0 0 -0.858104286617646 -1.01263188412891 0 0 0 0 -0.979125854735574 0 0 0
0 0 0 0 0.0545508758985416 0.0964853918022193 0.402338770611899 0 0 0 0 0 0 0 0 0 0 0 0 0 0 0 0 0 0 0 0 0 0 0 0 0 0 0 -0.234826642386027 0 0 0 0 0 -2.34455110103075 -1.82075623343993 0 0 0 0 -2.24308291550861 0 0 0
0 0.0767921208029698 0.0812121148738042 2.20167767352001 0 0 0 0 0 0 0 0 0 0 0 0 0 0 0 0 0 0 0 0 0 0 0 0 0 0 0 0 0 0 0 -0.234826642386027 0 0 0 0 -1.18711398409731 0 0 0 0 0 -1.34285004548962 0 0 0
0 0 0 0 0.301784157904533 0.4049536562228 0.356846173059529 0.220182563073714 2.0081145544109 0 0 0 0 0 0 0 0 0 0 0 0 0 0 0 0 0 0 0 0 0 0 0 0 0 0 0 -0.234826642386027 0 0 0 -0.345642409101117 0 0 0 0 0 0 0 0 0
0 0 0 0 0 0 0 0 0 0 0 0 0 0 0 0 0 0.491499372264513 0.146558734265909 0 0 0 0 0 0 0 0 0 0 0 0 0 0 0 0 0 0 -0.234826642386027 0 0 0 0 0 0 0 0 0 0 0 0
0 0 0 0 0 0 0 0 0 0 0 0 0 0 0 0 0 0.319895145883104 0.109837279035066 0 0 0 0 0 0 0 0 0 0 0 0 0 0 0 0 0 0 0 -0.234826642386027 0 0 0 0 0 0 0 0 0 0 0
0 0 0 0 0 0 0 0 0 0 0 0 0 0 0 0 0 0 0 0 0 0 0 0 0 0 0 0 0.161844659557676 0.14561097824238 0 0 0 0 0 0 0 0 0 -0.234826642386027 0 0 0 0 0 0 0 0 0 0
0 0 0 0 0 0 0 0 0 0 0 0 0 0 0 0 0 0 0 0 0 0 0 0 0 0 0 0.463870281572101 0.904371669882896 0.513996620143303 0.238863415361806 0.110180883090515 0.493452636782116 0.186034640857088 0.429038004701323 0.213082202722592 0.0708689963111111 0 0 0 -0.234826642386027 0 0 0 -1.1274367437701 0 0 0 0 0
0 0 0 0 0 0 0 0 0 0 0 0 0 0 0 0 0 0 0 0 0 0 0 0 0 0.115592029827628 0.401264224253006 0.506042151641464 0.177382879404779 0.323781925172406 0.202865273317988 0.0209867231945509 0.105170418457667 0.190831342163522 0.351553516993312 0 0 0 0 0 0 -0.234826642386027 0 0 -1.35521105179843 0 0 0 0 0
0 0 0 0 0 0 0 0 0 0.118811537597501 0.36542728319279 0.46053693919297 0.175524425513564 0.313510505772759 0.144770280208627 0.281379369352522 0.155956665663935 0 0 0 0 0 0 0 0 0 0 0 0 0 0 0 0 0 0 0 0 0 0 0 0 0 -0.234826642386027 0 -0.348353475330515 0 0 0 0 0
0 0 0 0 0 0 0 0 0 0 0 0 0 0.465458010741006 0.0490259211393421 0.0965039980145089 0.608176879323647 0 0 0 0 0 0 0 0 0 0 0 0 0 0 0 0 0 0 0 0 0 0 0 0 0 0 -0.234826642386027 -4.59089892005825 0 0 0 0 0
0 0 0 0 0 0 0 0 0 0 0 0 0 0 0 0 0 0 0 0 0 0 0 0 0 0 0 0 0 0 0 0 0 0 0 0 0 0 0 0 0.229274927372385 0.271357318655648 0.0766884341041623 0.836386012076602 -0.234826642386027 0.374769640075879 0.0337291084137783 0.0807852010744692 0 0
0 0 0 0 0 0 0 0 0 0 0 0 0 0 0 0 0 0 0 0 0 0 0 0 0 0 0 0 0.61715566097039 0 0 0 0 0 0 0 0 0 0 0 0 0 0 0 -1.85969274503112 -0.234826642386027 0 0 0 0
0 0 0 0 0 0 0 0 0 0 0 0 0 0 0 0 0 0 0 0 0 0 0 0 0 0 0 0 0.172092589821468 0.140538953834393 0.409546156817482 0.20349852339914 0.770322804238082 0.196638718347528 0.448121935733625 0.276243992972832 0 0 0 0 0 0 0 0 -0.182240696635383 0 -0.234826642386027 0 0 0
0 0 0.400726967364244 0 0 0 0 0 0 0 0 0 0 0 0 0 0 0 0 0 0 0 0 0 0 0 0 0 0 0 0 0 0 0 0 0 0 0 0 0 0 0 0 0 -0.371543640234719 0 0 -0.234826642386027 0 0
0 0 0 0 0 0 0 0 0 0 0 0 0 0 0 0 0 0 0 0 0 0 0 0 0 0 0 0 0 0.364758132751525 0.202890225203469 0.513383477651243 0 0 0 0 0 0 0 0 0 0 0 0 0 0 0 0 -0.234826642386027 0
0 0 0 0 0 0 0 0 0 0 0 0 0 0.0644413270989279 1.09696091365048 0.303499964181774 0.251157821658383 0.111971236772069 0.50645180698296 0.20823743500919 0.314073985873232 0.0683473157145357 0 0 0 0 0 0 0 0 0 0 0 0 0 0 0 0 0 0 0 0 0 0 0 0 0 0 0 -0.234826642386027
