0.192702013055544
0.54713798002021
0.114226389400782
1.11119606778558
0.973967156246504
1.61374677730794
0.612706388583252
0.722343013265754
4.36353107206792
0.497994144077387
1.97103450238143
0.367768209064407
0.971363371833135
0.706212258980243
0.622124063010304
0.24738008955811
0.772939373965308
0.762650342263661
1.02730347001865
1.81184807169013
1.27087706260542
0.953531688613301
2.92167889495819
1.53023879973027
0.20690996704997
0.742905414390341
1.49875330157172
0.372594772724426
2.15771109351246
4.412009911298
1.76359100439753
0.492066052451173
1.43870242704092
4.19625852576315
1.06955802560731
0.982543615271918
1.50165402392832
0.515101808178438
0.370526690164314
0.423555604108967
0.346791347359973
1.58299439396105
4.47421427371141
0.873119241538413
2.70106197324395
5.47506532135928
0.317704035594019
0.522312501776768
2.61232786451543
1.58584333059808
