0.476469081426118
1.48363553249461
1.91791490851357
0.859501675557084
1.10101809101342
4.16180166362172
2.99111297521433
0.949929514330853
1.37769981946321
0.308068903158971
2.09098753062922
4.56207259220569
0.457220003453804
3.80010105259694
2.40824256251264
2.5311282592899
0.289055325923745
0.242108867535161
0.479768619612292
1.04482649825611
6.2938676416363
0.855032387941281
0.579102259459556
0.511091459663892
0.482856540291754
1.49557110011409
1.42203362004434
1.30931609947512
0.867771587333414
1.65579796961885
0.88320656746429
0.690749045892588
1.14206827955308
0.207340516649882
0.32294788131518
0.919355919149943
2.03303910465769
0.642988594096336
0.496564985531616
0.50755858390146
2.96136886827836
1.72598286403382
0.0923319421263059
1.33419762989797
0.740337763121482
0.223941921403701
2.3602300248124
2.35304916461692
1.01433239207495
0.27217013941902
