0.461505896410855
0.616469178011302
0.6907097827441
0.474571631030733
0.493680247730846
0.297753735251261
1.74140847699246
0.716025785336312
0.175741140408707
1.18690790700342
0.38746026017057
0.586491077004939
3.2148142285025
0.769260540625279
0.920818040990462
3.85527839639065
3.24901481719089
0.277282969712291
0.475041720927374
1.05463273234708
0.741568673891823
5.32631629183693
1.39157553171841
1.39163247993633
1.17005816793927
0.0816705482430466
4.81409758643794
2.99711194086328
0.810473931628806
0.835415547010584
0.161124866219685
0.610340224613847
0.45791213256179
0.600537687324255
0.372955036353452
1.53618770670047
2.73906871124423
2.87290645758072
0.838798296535257
1.00950383638302
0.774072943741582
0.30818423277274
5.71444746910633
1.22494238672621
0.235810319582412
3.71574340276923
2.78712301158094
2.59129718872444
3.49075799468309
1.04922466004939
