-0.144657373244617 0 -0.150837071887407 0 0 0 0 0 0 0 0 0 0 0 0 0 0 0 0 0 0 0 0 0 0 0 0 0 0 0 0 0 0 0 0 0 0 0 0 0 0 -0.438661711088336 0 0 0 0 0 0 0 0
0 -0.144657373244617 0 0 0 0 0 -0.945969290313593 0 0 -0.521378301043516 0 0 0 0 0 0 0 -0.766628664465929 0 0 0 0 0 0 0 0 0 -0.346661663226407 0 0 0 0 0 0 0 0 0 0 0 0 -2.27701110958667 0 0 0 0 0 0 0 0
0.0313707027923173 0 -0.144657373244617 0 0 0 0 0 0 0 0 0 0 0 0 0 0 0 -0.358304390354107 0 0 0 0 0 0 0 0 0 0 0 0 0 0 0 0 0 0 0 0 0 0 0 0 0 0 0 0 0 0 0
0 0 0 -0.144657373244617 0 0 0 0 0 0 0 0 0 0 0 0 0 0 0 0 0 0 0 0 0 0 0 0 0 0 0 0 0 0 0 0 -1.26222512901998 0 0 0 0 0 0 0 0 0 0 0 0 0
0 0 0 0 -0.144657373244617 0 0 0 0 -0.492916329489271 0 0 0 0 0 -4.93852043516816 0 0 0 -1.8529018989034 0 0 0 0 0 0 0 0 0 0 0 0 0 0 0 0 -0.144670856225434 0 0 0 0 0 -0.740977920362414 0 0 0 0 0 0 0
0 0 0 0 0 -0.144657373244617 0 0 0 0 0 0 0 0 0 -1.86022509927045 0 0 0 -3.10638485306505 0 0 0 0 0 0 0 0 0 0 0 0 0 0 0 0 -0.085908898660261 0 0 0 0 0 -1.8222968885867 0 0 0 0 0 0 0
0 0 0 0 0 0 -0.144657373244617 0 0 0 0 0 0 0 0 -0.769136439878293 0 0 0 -2.96638058061581 0 0 0 0 0 0 0 0 0 0 0 0 0 0 0 0 -0.422523593469938 0 0 0 0 0 -0.908375545641096 0 0 0 0 0 0 0
0 0.182484648089431 0 0 0 0 0 -0.144657373244617 0 0 0 0 0 0 0 -1.68883085006247 0 0 0 0 0 0 0 0 0 0 0 0 0 0 0 0 0 0 0 0 -1.33097480339912 0 0 0 0 0 0 0 0 0 0 0 0 0
0 0 0 0 0 0 0 0 -0.144657373244617 0 0 0 0 0 0 -0.658929014312986 0 0 0 0 0 0 0 0 0 0 0 0 0 0 0 0 0 0 0 0 -0.848516407929107 0 0 0 0 0 0 0 0 0 0 0 0 0
0 0 0 0 0.102406693451325 0 0 0 0 -0.144657373244617 0 -0.645078288259652 0 0 0 0 0 0 0 0 0 0 0 0 0 0 0 0 0 0 0 0 0 0 0 0 -0.531437206577936 0 0 0 0 0 0 0 0 0 0 0 0 0
0 0.105909537478072 0 0 0 0 0 0 0 0 -0.144657373244617 -1.36013929545219 -0.823990544594349 0 0 0 0 0 0 0 0 0 0 0 0 0 0 0 0 0 0 0 0 0 0 0 -0.5203313090117 0 0 0 0 0 0 0 0 0 0 0 0 0
0 0 0 0 0 0 0 0 0 0.141477799363776 0.281717500900969 -0.144657373244617 -1.07324494179893 0 0 0 0 -0.492153054143965 0 0 0 0 0 0 0 0 0 0 0 0 0 0 0 0 0 0 -2.1228650817709 0 0 0 0 0 0 0 0 0 0 0 0 0
0 0 0 0 0 0 0 0 0 0 0.177275744111078 0.221838706736897 -0.144657373244617 0 0 0 0 0 0 0 0 0 0 0 0 0 0 0 0 0 0 0 0 0 0 0 -0.730203571102249 0 0 0 0 0 0 0 0 0 0 0 0 0
0 0 0 0 0 0 0 0 0 0 0 0 0 -0.144657373244617 -2.6944006308196 0 0 0 0 0 0 0 0 0 0 0 0 0 0 0 0 0 0 0 0 0 0 0 0 0 0 0 0 0 0 0 0 0 0 0
0 0 0 0 0 0 0 0 0 0 0 0 0 0.581903913743447 -0.144657373244617 1.36413986799138 0 0 0 0 0 0 0 0 0 0 0 0 0 0 0 0 0 0 0 0 0 0 0 -0.757462488904096 0 0 0 0 0 0 0 0 0 0
0 0 0 0 0.91376947798527 0.335661046451809 0.149514970291654 0.347051043028755 0.136874121811294 0 0 0 0 0 -6.88557270015193 -0.144657373244617 0 0 0 0 0 0 0 0 0 0 0 0 0 0 0 0 0 0 0 0 0 0 0 -2.94811696856759 0 0 0 0 0 0 0 0 0 0
0 0 0 0 0 0 0 0 0 0 0 0 0 0 0 0 -0.144657373244617 0 0 0 0 0 0 0 0 0 0 0 0 0 0 0 0 0 0 0 0 0 0 -2.59448013544421 0 0 0 0 0 0 0 0 0 0
0 0 0 0 0 0 0 0 0 0 0 0.0933882579653773 0 0 0 0 0 -0.144657373244617 0 0 0 0 0 0 0 0 0 0 0 0 0 0 0 0 0 0 0 0 0 -1.36709899665478 0 0 0 0 0 0 0 0 0 0
0 0.147116069938939 0.0740585328449885 0 0 0 0 0 0 0 0 0 0 0 0 0 0 0 -0.144657373244617 0 0 0 0 0 0 0 0 0 0 0 0 0 0 0 0 0 0 0 0 -4.94157522746869 0 0 0 0 0 0 0 0 0 0
0 0 0 0 0.392528334875638 0.585141149100328 0.619932667662182 0 0 0 0 0 0 0 0 0 0 0 0 -0.144657373244617 0 0 0 0 0 0 0 0 0 0 0 0 0 0 0 0 0 0 0 -0.908882621751389 0 0 0 0 0 0 0 0 0 0
0 0 0 0 0 0 0 0 0 0 0 0 0 0 0 0 0 0 0 0 -0.144657373244617 0 0 0 0 0 -0.140186026560054 0 0 0 0 0 0 0 -0.207342462118349 0 0 0 0 -0.670974435380182 0 0 0 0 -0.878197610030461 0 0 0 0 0
0 0 0 0 0 0 0 0 0 0 0 0 0 0 0 0 0 0 0 0 0 -0.144657373244617 -1.02094675829336 0 0 0 0 0 0 -2.73991255763452 0 0 -0.228370219819627 0 0 0 0 0 0 0 0 0 0 0 -1.95956633187701 0 0 0 -3.5834626065119 0
0 0 0 0 0 0 0 0 0 0 0 0 0 0 0 0 0 0 0 0 0 0.206521198352259 -0.144657373244617 0.66755081580967 0.0593123759562347 0.181532473002601 0.55738132388866 0 0 0 0 0 0 0 0 0 0 0 0 0 -0.474568163590708 0 0 0 -1.24139463752929 -0.510959193898297 0 0 0 0
0 0 0 0 0 0 0 0 0 0 0 0 0 0 0 0 0 0 0 0 0 0 -3.44013766477277 -0.144657373244617 0 0 0 0 0 0 0 0 0 -0.944014133365468 0 0 0 0 0 0 -1.2560927678493 0 0 0 -1.5966329556286 -0.994964910155036 0 0 0 0
0 0 0 0 0 0 0 0 0 0 0 0 0 0 0 0 0 0 0 0 0 0 -0.302115112769066 0 -0.144657373244617 0 0 0 0 0 0 0 0 -0.758145768718445 0 0 0 0 0 0 -1.37510512969179 0 0 0 -1.62858256537951 -1.22542793862809 0 0 0 0
0 0 0 0 0 0 0 0 0 0 0 0 0 0 0 0 0 0 0 0 0 0 -0.86810109738599 0 0 -0.144657373244617 0 0 0 0 0 0 0 -1.23993802646138 0 0 0 0 0 0 -4.25725742774938 0 0 0 -0.841294949994896 -1.54672282211548 0 -1.3661289722827 0 0
0 0 0 0 0 0 0 0 0 0 0 0 0 0 0 0 0 0 0 0 0.029000971705299 0 -2.5047952765125 0 0 0 -0.144657373244617 0 0 0 0 0 0 -1.87007060319044 0 0 0 0 0 0 0 0 0 0 -0.172407167288598 -2.4645220696443 0 -0.999998846384678 0 0
0 0 0 0 0 0 0 0 0 0 0 0 0 0 0 0 0 0 0 0 0 0 0 0 0 0 0 -0.144657373244617 0 0 0 0 0 -0.809617413460792 0 0 0 0 0 0 0 0 0 0 -4.69668347804348 -0.640099602854915 0 -5.40435209505253 0 0
0 0.0649947153775008 0 0 0 0 0 0 0 0 0 0 0 0 0 0 0 0 0 0 0 0 0 0 0 0 0 0 -0.144657373244617 0 0 0 0 -2.05563909108092 0 0 0 0 0 0 0 0 0 -1.66444215850121 0 -1.63242658936152 0 0 0 0
0 0 0 0 0 0 0 0 0 0 0 0 0 0 0 0 0 0 0 0 0 0.530684313479256 0 0 0 0 0 0 0 -0.144657373244617 0 0 0 -0.689100766383783 0 0 0 0 0 0 0 0 0 -0.414811649916143 0 -0.34987980028767 0 0 0 0
0 0 0 0 0 0 0 0 0 0 0 0 0 0 0 0 0 0 0 0 0 0 0 0 0 0 0 0 0 0 -0.144657373244617 0 0 -0.309061202801678 0 0 0 0 0 0 0 0 0 -0.517715854588388 0 -1.42296996222141 0 0 0 0
0 0 0 0 0 0 0 0 0 0 0 0 0 0 0 0 0 0 0 0 0 0 0 0 0 0 0 0 0 0 0 -0.144657373244617 0 -1.20455484511182 0 0 0 0 0 0 0 0 0 -0.986580077823171 0 -0.266852076433127 0 0 0 0
0 0 0 0 0 0 0 0 0 0 0 0 0 0 0 0 0 0 0 0 0 0.0453127760072895 0 0 0 0 0 0 0 0 0 0 -0.144657373244617 -1.87898099156428 0 0 0 0 0 0 0 0 0 -0.99391709074429 0 -0.336121636273985 0 0 0 0
0 0 0 0 0 0 0 0 0 0 0 0 0 0 0 0 0 0 0 0 0 0 0 0.163093555083688 0.14310482404413 0.236690768570757 0.382702902493681 0.16137282582691 0.427243845978112 0.135184831380949 0.0651947672297045 0.248047333303198 0.352952701074771 -0.144657373244617 0.248994707918581 0 0 0 0 0 0 0 0 -1.44389247372466 0 -3.80677619377024 0 0 0 0
0 0 0 0 0 0 0 0 0 0 0 0 0 0 0 0 0 0 0 0 0.0439206656146714 0 0 0 0 0 0 0 0 0 0 0 0 -1.32409038384224 -0.144657373244617 0 0 0 0 0 0 0 0 -0.963518199782971 0 -0.249631570850307 0 0 0 0
0 0 0 0 0 0 0 0 0 0 0 0 0 0 0 0 0 0 0 0 0 0 0 0 0 0 0 0 0 0 0 0 0 0 0 -0.144657373244617 0 0 0 0 0 0 0 0 0 -0.393543626480252 0 0 0 0
0 0 0 0.26612232123964 0.0296925798209056 0.016519240351428 0.0894399214915569 0.258162073106781 0.162713190513281 0.113160012006107 0.106170709383465 0.4128587867859 0.15377635014053 0 0 0 0 0 0 0 0 0 0 0 0 0 0 0 0 0 0 0 0 0 0 0 -0.144657373244617 0 0 0 0 0 0 0 0 -0.747460931048574 0 0 0 0
0 0 0 0 0 0 0 0 0 0 0 0 0 0 0 0 0 0 0 0 0 0 0 0 0 0 0 0 0 0 0 0 0 0 0 0 0 -0.144657373244617 0 0 0 0 0 0 0 -5.31074911722955 0 0 0 0
0 0 0 0 0 0 0 0 0 0 0 0 0 0 0 0 0 0 0 0 0 0 0 0 0 0 0 0 0 0 0 0 0 0 0 0 0 0 -0.144657373244617 0 0 0 0 0 0 -4.44518449174992 0 0 0 -1.95571807834891
0 0 0 0 0 0 0 0 0 0 0 0 0 0 0.146546544954675 0.621525985238803 0.539855278365089 0.27826732847303 0.931233583105446 0.178185498946428 0.137976079281595 0 0 0 0 0 0 0 0 0 0 0 0 0 0 0 0 0 0 -0.144657373244617 0 0 0 0 0 -1.15904479465017 0 0 0 -6.13044480995484
0 0 0 0 0 0 0 0 0 0 0 0 0 0 0 0 0 0 0 0 0 0 0.0998564096329682 0.249490385187958 0.259337515829805 0.814261381129067 0 0 0 0 0 0 0 0 0 0 0 0 0 0 -0.144657373244617 0 0 0 0 -0.63766469970019 0 0 0 -1.54917039893998
0.0787880774473432 0.430322063524087 0 0 0 0 0 0 0 0 0 0 0 0 0 0 0 0 0 0 0 0 0 0 0 0 0 0 0 0 0 0 0 0 0 0 0 0 0 0 0 -0.144657373244617 0 0 0 0 0 0 0 -0.613939756376007
0 0 0 0 0.151440062721233 0.352599033130903 0.176149984163678 0 0 0 0 0 0 0 0 0 0 0 0 0 0 0 0 0 0 0 0 0 0 0 0 0 0 0 0 0 0 0 0 0 0 0 -0.144657373244617 0 0 0 0 0 0 -1.36765454335525
0 0 0 0 0 0 0 0 0 0 0 0 0 0 0 0 0 0 0 0 0 0 0 0 0 0 0 0 0.322894515883969 0.0836499975691664 0.102812106019736 0.188269470174446 0.219963552519455 0.260497579749701 0.199463490896488 0 0 0 0 0 0 0 0 -0.144657373244617 0 0 -0.294627849991505 0 0 -4.02573858218271
0 0 0 0 0 0 0 0 0 0 0 0 0 0 0 0 0 0 0 0 0.199712477169229 0.341151270307984 0.238945646576823 0.313474630301752 0.334290965145231 0.169118283445652 0.0327184333270563 0.896072621198105 0 0 0 0 0 0 0 0 0 0 0 0 0 0 0 0 -0.144657373244617 0 -0.166999613005913 0 0 -3.6198376978109
0 0 0 0 0 0 0 0 0 0 0 0 0 0 0 0 0 0 0 0 0 0 0.110667114910175 0.210649630767512 0.264362839212518 0.314667529052234 0.460876567258307 0.133083177628457 0.328685475182955 0.06617591586963 0.265458882621636 0.0530717237028465 0.0629111079108928 0.81750506052582 0.0463118536839724 0.077584049283232 0.158865555441441 1.05489916918207 0.936051206489392 0.201597953420772 0.117245773938336 0 0 0 0 -0.144657373244617 -7.40408537993076 0 0 0
0 0 0 0 0 0 0 0 0 0 0 0 0 0 0 0 0 0 0 0 0 0 0 0 0 0 0 0 0 0 0 0 0 0 0 0 0 0 0 0 0 0 0 0.0618956478807288 0.032565079572582 1.67154773908554 -0.144657373244617 0 0 0
0 0 0 0 0 0 0 0 0 0 0 0 0 0 0 0 0 0 0 0 0 0 0 0 0 0.249435902301166 0.202511659586983 1.08526162572817 0 0 0 0 0 0 0 0 0 0 0 0 0 0 0 0 0 0 0 -0.144657373244617 0 0
0 0 0 0 0 0 0 0 0 0 0 0 0 0 0 0 0 0 0 0 0 0.777648464217621 0 0 0 0 0 0 0 0 0 0 0 0 0 0 0 0 0 0 0 0 0 0 0 0 0 0 -0.144657373244617 0
0 0 0 0 0 0 0 0 0 0 0 0 0 0 0 0 0 0 0 0 0 0 0 0 0 0 0 0 0 0 0 0 0 0 0 0 0 0 0.393708978168776 1.24894377331256 0.296072033376656 0.127126116003971 0.278122015461375 0.810544391056079 0.703469249483692 0 0 0 0 -0.144657373244617
