-0.442673082326798 0 0 0.487541176793874 0.305235802618718 0 0 0 1.75197393219957 0 0 0 0 0 0 0.122961006042264 0 0 -4.09379059709347 0 0.040687290515512 0 0 0.0987816578464259 0 1.91765894627112 0 0 0 0 0 0.12852304350924 0 0 0 0 0 0 0 0 0 -0.394955566528639 -1.68762591318756 -1.3464567733577 0 0 0 0 0 0 0 0 0 0 0 0 0 0 -0.719188152981763 0 0 0 0 0 0 0 0 0 0 0 0 0 0 0 0 0 0 0 0 0 0 -0.535673702666931 -1.08794846664692 0 0 -0.298057361849338 0 0 -0.457545062938052 -0.183666270869719 0 0 0 0 0 0 0 -5.54351728111822 -2.19873919053333 -0.249501257391092 0 -0.935021407536859 0.216866275359194 0 0.166617861614781 0 0 0 0 0
0 -0.442673082326798 0 0.266482221528243 0.0345258374356721 0 0 0 0.361879182976746 0 0 0 0 0 0 0.32693562362454 0 0 0 0 0.639954588273386 0 0 0.198749447018752 0 0.159926911093388 0 0 0 0 0 0.510273585683614 0 0 0 0 0 0 0 0 0 -0.32678719475589 -1.46105198932445 -0.165314311194842 0 0 0 0 0 0 0 0 0 0 0 0 0 0 -0.166072285754484 0 0 0 0 0 0 0 0 0 0 -2.63680455751054 0 0 0 0 -0.307585143347384 0 0 0 0 0 0 -2.74603523378234 -3.0609073403566 0 0 -0.8325904287191 0 0 -2.14825455447847 -0.130669741421593 0 0 0 0 0 0 0 -1.72188403117806 -0.625750108940147 -0.771666489375522 0 -11.8206661830624 0.684756532128033 0 0.164836109575363 0 0 0 0 0
0 0 -0.442673082326798 0 0 0 0 0 0 0 0 0 0 0 0 0 0 0 0 0 0.323025422578566 0 0 0 0 0 0 0 0 0 0 0 0 0 0 0 0 0 0 0 0 -0.674069601724326 -1.14174774276783 -1.39466295751419 0 -0.689480495824594 0 0 0 0 0 0 0 0 0 0 0 0 -2.72028158523716 0 0 0 0 0 0 0 0 0 0 0 0 0 0 0 -1.37818390360787 0 0 0 0 0 0 0 0 0 0 -9.2059615385005 0 0 -0.956791427757248 -0.121432194253594 0 0 0 0 0 0 0 -0.545205218117061 -0.529658207222016 -1.07248793968486 -0.0824654379199152 0 0 0 0.308232663413374 0 0 0 0 0
-2.21518528413083 -1.4063575833539 0 -0.442673082326798 0 0 0 0 0 0 0 0 0 0 -6.19282667867947 0 0 0 0 0 0 0 0 0 0 0 0 0 0 0 0 0 0 0 0 0 0 0 -0.223606486086766 0 0 -1.55539025587696 -0.95938809228096 -0.400654666867869 0 -3.03888528240863 -0.80939753015104 0 0 0 0 0 0 0 0 0 0 0 -1.8675181364238 0 0 0 0 0 0 0 0 0 0 -3.77545190021114 0 0 0 0 -4.10862742688224 0 0 0 0 0 0 0 0 0 0 -1.9864512081082 0 -3.39474640673979 -0.530757136324338 -2.85949714865148 0 0 0 0 0 0 0 -0.26451126864288 0 0 0 -2.70641467676546 0.339307430761063 0 0.205188262800432 0 0 0 0 0
-1.51798472869461 -0.164835660668239 0 0 -0.442673082326798 0 0 0 0 0 0 0 0 0 -2.02234047176979 0 0 0 0 0 0 0 0 0 0 0 0 0 0 0 0 0 0 0 0 0 0 0 -0.76824160260871 0 0 -0.278745656921731 -0.323447508505035 -0.838848726845939 0 0 0 0 0 0 0 0 -0.591364678741663 0 0 0 0 0 -2.01199603169892 0 0 0 0 0 0 0 0 0 0 -0.445075927677704 0 0 0 0 -0.839344400678897 0 0 0 0 0 0 0 0 0 0 -1.16008310631755 0 0 -1.61922077556028 -0.253019219871037 0 0 0 0 0 0 0 -0.819714401112466 0 0 0 -2.85795192677261 0.0332702652681746 0 0.399126675290616 0 0 0 0 0
0 0 0 0 0 -0.442673082326798 0 0 0 0 0 0 0 0 0 0 0 0 0 0 0 0 0 0 0 0 0 0 0 0 0 0 0 0 0 0 0 0 0 0 0 0 0 0 -1.14291884026172 -1.08233342025084 -0.756836898585148 -1.07307150419785 0 -3.59092100131874 -1.04788740390143 0 0 -9.11260200525805 -0.69629840245267 -4.83219633657565 -0.183773991108789 -1.20463617633192 0 -0.347349414508362 0 -2.08190193473355 0 0 0 0 0 0 0 0 0 -1.68797460657197 0 0 0 0 -4.35002614018551 0 0 0 0 0 0 0 0 0 0 0 0 0 0 0 0 0 0 0 0 0 0 0 0 0 0 0 0 0 0 0 0 0
0 0 0 0 0 0 -0.442673082326798 0 0 0 0 0 0 0 0 0 0 0 0 0 0 0 0 0 0 0 0 0 0 0 0 0 0 0 0 0 0 0 0 0 0 0 0 0 -2.29271655423361 -0.633186031652584 -0.783590086079102 -2.60992567321235 0 -0.239715198009287 -0.668227470253828 0 0 -0.496765526601699 -0.999037032973438 -0.393234315186653 -2.75298121133187 -0.481735299564745 0 -7.1108972093412 0 -0.286034576095158 0 0 0 0 0 0 0 0 0 -2.03295787485319 0 0 0 0 -0.655398188679172 0 0 0 0 0 0 0 0 0 0 0 0 0 0 -0.388785731452007 0 0 0 0 0 0 0 0 0 0 0 0 0 0 0 0 0 0
0 0 0 0 0 0 0 -0.442673082326798 0 0 0 0 0 0 0 0 -0.371106383212865 0 0 0 0 0 0 0 0 0 0 0 0 0 0 0 0 0 0 0 -1.74724925137795 0 0 0 0 0 0 0 0 0 0 0 0 -3.90323254684047 0 0 0 0 0 -0.431711837721162 -0.161963250246948 -1.30143693771185 0 0 0 0 0 0 -2.70199562087815 0 0 0 0 0 0 0 0 0 0 0 0 0 0 0 0 0 0 0 0 0 0 0 0 0 0 0 0 0 0 0 0 0 0 0 0 -2.95304086003358 0 0 0 0 0 0 0 0
-8.69992889836941 -1.78437782931668 0 0 0 0 0 0 -0.442673082326798 0 0 0 0 0 0 0 0 0 0 0 0 0 0 0 0 0 0 0 0 0 0 0 0 0 0 0 0 0 0 0 0 0 0 0 -1.72759196805437 -0.549459237789417 -0.752201767928019 -2.11879498555426 0 -1.60516634415243 -0.246458002483197 0 0 -0.662735426696361 -0.254631481855584 -7.45708883956478 -1.39111628976949 -1.93416187808457 0 -0.459525449856493 0 0 0 0 0 0 0 0 0 0 0 -0.483275759172508 0 0 0 0 0 0 0 0 0 0 0 0 0 0 0 0 0 0 0 -0.572184646154929 0 0 0 0 0 0 0 0 0 0 0 0 0 0 0 0 0 0
0 0 0 0 0 0 0 0 0 -0.442673082326798 0 0 0 0 0 0 0 0 0 0 0 0 0 0 0 0 0 0 0 0 0 0 0 0 0 0 0 0 0 0 0 0 0 0 -0.34443639713566 -0.736635900105942 -3.47056008242524 -0.168132761740262 -0.766595938164637 -0.19299615610686 -4.10287954933422 -0.842142346385455 0 -0.693377990965758 -1.14386980763539 -0.396011592489832 -0.432526416216488 -6.32000137638983 0 -0.802278832875589 0 -0.613540877336156 0 0 0 0 0 0 0 0 0 -0.370833333434579 -1.84563827820633 0 0 0 -0.991680860680899 0 0 0 0 0 0 0 0 0 0 0 0 0 0 -0.194641756014668 0 0 -0.330874196976089 0 0 0 0 0 0 0 0 0 0 0 0 0 0 0
0 0 0 0 0 0 0 0 0 0 -0.442673082326798 0 0 0 0 0 0 0 0 0 0 0 0 0 0 0 0 0 0 0 0 0 0 0 0 0 0 0 0 0 0 0 0 0 -0.870306136492016 -4.88475904166887 -1.18019636125279 -5.0188835995702 0 -1.38391096858068 -0.811332734960293 -2.29085967002087 0 -1.76684691325854 -0.132331974355062 -1.38823836660551 -0.656704332852 -5.87207910915533 0 -0.0698688729153339 0 -1.6160410785392 0 0 0 0 0 0 0 0 0 -0.274288658184434 -0.335926659672049 0 0 0 -1.10065981988595 0 0 0 0 0 0 0 0 0 0 0 0 0 0 -1.03883668699461 0 0 -5.82962211655668 0 0 0 0 0 0 0 0 0 0 0 0 0 0 0
0 0 0 0 0 0 0 0 0 0 0 -0.442673082326798 0 0 0 0 0 0 0 0 0 0 0 0 0 0 0 0 0 0 0 0 0 0 0 0 0 0 0 0 0 0 0 0 0 0 0 -3.78233287519661 0 0 0 0 0 0 0 0 0 0 0 0 0 0 0 0 0 0 0 0 0 0 0 0 0 0 0 0 0 0 0 0 0 0 0 0 0 0 0 0 0 0 0 0 0 0 0 0 0 0 0 0 0 0 0 0 0 0 0 0 0 0
0 0 0 0 0 0 0 0 0 0 0 0 -0.442673082326798 0 0 0 0 0 0 0 0 0 0 0 0 0 0 0 0 0 0 0 0 0 0 0 0 0 0 0 0 0 0 0 -0.163409978459317 -1.71694886606089 -0.309119873768802 -0.413971851841511 -0.130811472807061 -6.64925406461068 -1.83119206908324 0 0 -2.30379756185947 -1.00478578801637 -0.84099465642752 -3.37381520731741 -1.3032508627639 0 -0.574996688946882 0 -0.209447539572743 0 0 0 0 0 0 0 0 0 -0.441500228424127 0 0 0 0 -0.935575407307806 0 0 0 0 0 0 0 0 0 0 0 0 0 0 0 0 0 0 0 0 0 0 0 0 0 0 0 0 0 0 0 0 0
0 0 0 0 0 0 0 0 0 0 0 0 0 -0.442673082326798 0 0 0 0 0 0 0 0 0 0 0 0 0 0 0 0 0 0 0 0 0 0 0 0 0 0 0 0 0 0 -0.722996351824653 -1.54762981439319 -0.339774546464997 -0.638421939312209 -3.47616476633649 -0.176233396898463 -3.54133554923982 -1.68363986277725 0 -0.997087080138066 -1.64674086660571 -5.33458063608355 -0.910534747428119 -2.32775335879163 0 -0.712353272794541 -0.413543904944732 -1.02124948239899 -0.976612349301613 -0.525258441121333 -1.29595886274007 -0.397215838731822 -0.515423344710805 -0.198758957519872 -0.369588023996416 0 0 -1.69727190787968 -2.17006693774507 0 0 0 -1.02681057934449 0 -0.964098481200053 0 0 0 0 0 0 0 0 0 0 0 -0.74743782132825 -1.11326752891263 -2.25724437669704 0 0 -0.699625845671674 0 0 0 0 0 0 0 0 0 0 0 0 0 0
0 0 0 1.19599633217168 0.419464448674834 0 0 0 0 0 0 0 0 0 -0.442673082326798 0 0 0 0 0 0 0 0 0 0 0 0 0 0 0 0 0 0 0 0 0 0 0 0 0 0 0 0 0 -1.45600149273914 -0.912615118060782 -0.655073919076996 -0.34460353448342 -0.56933793437794 -1.70766721554142 -0.234502395456324 0 0 -4.99803225591123 -1.03133095644367 -1.67890221217495 -0.412067567189725 -2.2049667714397 0 -2.10073135465644 0 -0.0922074672139823 0 0 0 0 0 0 0 0 0 -0.661083531460611 -0.94260175371854 0 0 0 -0.858570103332866 0 0 0 0 0 0 0 0 0 0 0 0 0 0 -1.36613866521078 0 0 0 0 0 0 0 0 0 0 0 0 0 0 0 0 0 0
-0.614216120935619 -1.65802119824133 0 0 0 0 0 0 0 0 0 0 0 0 0 -0.442673082326798 0 0 0 0 0 0 0 0 0 0 0 0 0 0 0 0 0 0 0 0 -2.90632454209673 0 0 0 0 0 0 0 -0.847226619468748 -3.9258067025317 -1.18048821740888 -0.411205696050696 -0.706580327785472 -3.74584808405742 -1.01756463190654 0 0 -1.46981530096806 -9.3728538819253 -0.342126528132702 -0.350992132644413 -0.421943465400664 0 -0.569246105990039 0 -4.06942395540072 0 0 0 0 0 0 0 0 0 -0.153268351263862 0 0 0 0 0 0 0 0 0 0 0 0 0 0 0 0 0 0 0 -0.495984305066854 0 0 0 0 0 0 0 0 0 0 0 0 0 0 0 0 0 0
0 0 0 0 0 0 0 0.0692628673752595 0 0 0 0 0 0 0 0 -0.442673082326798 0 0 0 0 0 0 0 0 0 0 0 0 0 0 0 0 0 0 0.0886054245831068 0.301959396743666 0 0 0 0 0 0 0 0 0 0 0 0 0 0 0 0 0 0 0 0 0 0 0 0 0 0 0 0 -1.78064400373395 0 0 0 0 0 0 0 0 0 0 0 -1.93935681241924 0 -0.337826695945777 0 0 0 0 -1.20587160039311 0 0 0 0 0 0 0 0 0 0 0 0 0 0 0 0 -4.76277470854674 0.909411599507939 0 0.148308607689434 0 0 0 0 0
0 0 0 0 0 0 0 0 0 0 0 0 0 0 0 0 0 -0.442673082326798 0 0 0.430289340053554 0 0 0 0 0 0 0 0 0 0 0 0 0 0 0 0 0 0 0 0 0 0 0 -2.30965780702485 0 0 -2.78296237762237 0 -7.03550713244767 -0.421750690220613 0 0 0 0 -0.368761035905557 -1.15948675619242 -0.654274736827634 0 -0.99551329815179 0 -0.706057046270519 0 0 0 0 0 0 0 0 0 0 -0.698048868396325 0 0 0 0 0 0 0 -0.329620067355856 0 0 0 0 0 0 0 0 0 0 0 0 0 0 0 0 0 0 0 0 0 0 0 0 0 0 0 0 0
0.849295965057652 0 0 0 0 0 0 0 0 0 0 0 0 0 0 0 0 0 -0.442673082326798 0 0 0 0 0 0 0 0 0 0 0 0 0 0 0 0 0 0 0 0 0 0 0.375430278670355 0.192793422939133 0.0903865134180868 0.0307792813469572 0.697221766477831 0.251137063253067 0.215928280491668 0 0 0 0 0 0.0774978857614426 0.193608114569835 0.729996207075718 0.121072307922091 0 0 0.0571855462936275 0.131274163794957 0.133827991834356 1.45464811330279 0 0 0.625720949463332 0.890689170816184 0 0 0.479116122326525 0.0132477354626277 0.0162030455572526 0.415112840824402 0 0 0 0 0 0.227978240334204 0 0.330576925897298 0 0.060264230609111 0 0 0 -0.53360929872131 0.132748849841058 0 0 0 0 0.0336014737385997 0 0 0 -1.5191672774908 0 0 0 0 0 0 0 0 0 0 0 0 0
0 0 0 0 0 0 0 0 0 0 0 0 0 0 0 0 0 0 0 -0.442673082326798 0 0 0 0 0 0 0 0 0 0 0 0 0 0 0 0 0 0 0 0 0 0 0 0 -1.55301072960779 -0.496262236229457 -1.76339788293672 -1.56798109586741 -0.745739674241077 -0.538505014460158 -2.16085417068576 0 0 -0.107776024820859 -0.614884592211272 -1.84085552689989 -1.18890734199321 -0.384220885493566 0 -0.717602128746651 0 -0.942017288776794 0 0 0 0 0 0 0 0 0 -3.15535582945575 -1.69918401997548 0 0 0 -4.54062496462454 0 0 0 0 0 0 0 0 0 0 0 0 0 0 -4.60796464294007 0 0 0 0 0 0 0 0 0 0 0 0 0 0 0 0 0 0
-0.233560559579802 -3.12346332531249 -1.49148617879263 0 0 0 0 0 0 0 0 0 0 0 0 0 0 -2.15112568516852 0 0 -0.442673082326798 0 0 0 0 0 0 -0.973686933336669 -2.5911984518083 -0.457551287053858 0 0 0 0 0 0 0 0 0 0 0 0 -1.95407185102277 -0.197262479414862 0 0 0 0 0 0 0 0 -1.04927567510348 0 0 0 0 0 -1.33120422335409 0 0 0 0 0 0 0 0 0 0 0 0 0 0 0 -0.89254105566594 0 0 0 0 0 0 0 0 0 0 0 0 -1.34733303883795 -1.1872227481577 -1.25159173271455 0 0 0 0 0 0 0 0 0 0 0 0 0.0992530153986555 0 0.0535788252646693 0 0 0 0 0
0 0 0 0 0 0 0 0 0 0 0 0 0 0 0 0 0 0 0 0 0 -0.442673082326798 0 0 0 0 0 0 0 0 0 0 0 0 0 0 0 0 0 0 0 0 0 0 0 0 0 0 0 0 0 0 -0.684524720992262 0 0 0 0 0 -2.07505727954063 0 0 0 0 0 0 0 0 0 0 0 0 0 0 0 -0.729434040886067 0 0 0 0 0 0 0 0 0 0 0 0 0 0 0 0 0 0 0 0 0 0 0 0 0 0 0 0.0808782622518905 0 0.0540835696602421 0 0 0 0 0
0 0 0 0 0 0 0 0 0 0 0 0 0 0 0 0 0 0 0 0 0 0 -0.442673082326798 0 0 0 0 0 0 0 0 0 0 0 0 0 0 0 0 0 0 0 0 0 -0.406805628578181 -0.710262445386275 -0.666661792856749 -1.49637974169777 0 -2.1519796738552 -0.617931724249182 0 0 0 0 -3.88452024029861 -0.34891166976237 -0.357704086463547 0 -1.42807907067699 0 -1.25403269675038 0 0 0 0 0 0 0 0 0 -3.49582398393238 0 0 0 0 -3.09769896420206 0 0 0 0 0 0 0 0 0 0 0 0 0 0 0 0 0 0 0 0 0 0 0 0 0 0 0 0 0 0 0 0 0
-0.483054391520933 -1.0236426366329 0 0 0 0 0 0 0 0 0 0 0 0 0 0 0 0 0 0 0 0 0 -0.442673082326798 0 0 0 0 0 0 0 0 0 0 0 0 -2.26223549613783 0 0 0 0 0 0 0 -1.90269135180082 -0.724741896470161 -8.44596111489536 -0.255170003333676 0 -0.87598948912612 -0.58905391624197 0 0 -0.108942730520317 -0.688121920387045 -0.369797573849284 -5.35254295718521 -0.566861940429758 0 -2.42860002119888 0 -0.68424143130593 0 0 0 0 0 0 0 0 0 -1.03230179913418 0 0 0 0 0 0 0 0 0 0 0 0 0 0 0 0 0 0 0 -1.95583413675566 0 0 0 0 0 0 0 0 0 0 0 0 0 0 0 0 0 0
0 0 0 0 0 0 0 0 0 0 0 0 0 0 0 0 0 0 0 0 0 0 0 0 -0.442673082326798 0 0 0 0 0 0 0 0 0 0 0 0 0 0 0 0 -2.41698609785865 -0.299384743599362 -0.897383295789903 0 0 0 0 0 0 0 0 0 0 0 0 0 0 -0.764920573243831 0 0 0 0 0 0 0 0 0 0 -1.09903279544132 0 0 0 0 0 0 0 0 0 0 0 0 -0.157480608221425 0 0 0 0 0 -1.497395793605 0 0 0 0 0 0 0 0 0 0 -0.934144110197645 0 0 0.339992635641255 0 0.495214915227696 0 0 0 0 0
-9.25054731891046 -0.859112622994143 0 0 0 0 0 0 0 0 0 0 0 0 0 0 0 0 0 0 0 0 0 0 0 -0.442673082326798 0 0 0 0 0 0 0 0 0 0 -0.789530692380885 0 0 0 0 0 0 0 -0.703359625732647 -0.111412254661484 -0.58369602171083 -3.41985038009339 0 -0.356924420590303 -0.691444848184205 0 0 -0.834892729902624 -1.08753666085192 -1.40927959050295 -1.40083124999171 -0.69384562547706 0 -1.36187412483276 0 -0.674217106000472 0 0 0 0 0 0 0 0 0 -1.40596000932244 -2.71203478954249 0 0 0 0 0 0 0 0 0 0 0 0 0 0 0 0 0 0 -0.477009094600514 0 0 0 0 0 0 0 0 0 0 0 0 0 0 0 0 0 0
0 0 0 0 0 0 0 0 0 0 0 0 0 0 0 0 0 0 0 0 0 0 0 0 0 0 -0.442673082326798 0 0 0 0 0 0 0 0 0 0 0 0 0 0 0 0 0 -0.250221019853003 -2.60334155004264 -0.463170375472488 -1.46974203938457 0 -1.94110638831126 -0.526121264368262 0 0 -1.32313205380345 -0.968723232199695 -1.926690915289 -1.71368808079661 -2.53269739820685 0 -0.532464083421187 0 -0.820893338576573 0 0 0 0 0 0 0 0 0 -0.807702247288435 0 0 0 0 -2.75851318454778 0 0 0 0 0 0 0 0 0 0 0 0 0 0 0 0 0 0 0 0 0 0 0 0 0 0 0 0 0 0 0 0 0
0 0 0 0 0 0 0 0 0 0 0 0 0 0 0 0 0 0 0 0 0.172500109180272 0 0 0 0 0 0 -0.442673082326798 0 0 0 0 0 0 0 0 0 0 0 0 0 0 0 0 -1.52277254743806 0 0 -0.761539729725789 0 -0.984499662116721 -0.536380050153574 0 0 0 0 -0.604119650719106 -0.390308261122032 -2.22947125066899 0 -3.5679309608287 0 -0.196388944379847 0 0 0 0 0 0 0 0 0 -0.60751113573529 -2.80447279547395 0 0 0 0 0 0 0 -0.481401625292907 0 0 0 0 0 0 0 0 0 0 0 0 0 0 0 0 0 0 0 0 0 0 0 0 0 0 0 0 0
0 0 0 0 0 0 0 0 0 0 0 0 0 0 0 0 0 0 0 0 0.547407062157835 0 0 0 0 0 0 0 -0.442673082326798 0 0 0 0 0 0 0 0 0 0 0 0 0 0 0 -1.97117499661778 0 0 -0.670771968189797 0 -0.113844463740422 -0.321845627626797 0 0 0 0 -0.977303184309154 -1.23749071606283 -0.454654744326662 0 0 0 -1.0733768371228 0 0 0 0 0 0 0 0 0 -0.468665948229128 -1.26559823703802 0 0 0 0 0 0 0 0 0 0 0 0 0 0 0 0 0 0 0 0 0 0 0 0 0 0 0 0 0 0 0 0 0 0 0 0 0
0 0 0 0 0 0 0 0 0 0 0 0 0 0 0 0 0 0 0 0 0.101414183617024 0 0 0 0 0 0 0 0 -0.442673082326798 0 0 0 0 0 0 0 0 0 0 0 0 0 0 -4.70554239502911 0 0 -1.52618735811281 0 -6.72394396223888 -0.205853303196317 0 0 0 0 -0.404231052936224 -1.35214768203034 -0.348355798938083 0 -0.645310630785055 0 -0.402658173567367 0 0 0 0 0 0 0 0 0 -1.52424148044096 -1.04130864562312 0 0 0 0 0 0 0 0 0 0 0 0 0 0 0 0 0 0 0 0 0 0 0 0 0 0 0 0 0 0 0 0 0 0 0 0 0
0 0 0 0 0 0 0 0 0 0 0 0 0 0 0 0 0 0 0 0 0 0 0 0 0 0 0 0 0 0 -0.442673082326798 0 0 0 0 0 0 0 0 0 0 0 0 0 -1.1089155901696 -2.23179712281307 -1.02780983327043 -1.5235688754615 0 -0.684240943612668 -0.476504927800981 0 0 -3.01097966102768 -1.25234235465371 -3.04616212023873 -1.96622312272786 -2.01264819358716 0 -1.29272835886172 0 -1.35041933131481 0 0 0 0 0 0 0 0 0 -1.59405793055638 0 0 0 0 -1.62465495784876 0 0 0 0 0 0 0 0 0 0 0 0 0 0 -2.83117732876608 0 0 0 0 0 0 0 0 0 0 0 0 0 0 0 0 0 0
-0.665640543005189 -2.63268001445548 0 0 0 0 0 0 0 0 0 0 0 0 0 0 0 0 0 0 0 0 0 0 0 0 0 0 0 0 0 -0.442673082326798 0 0 0 0 -4.87490108827061 0 0 0 0 0 0 0 -10.8684348551071 -3.6770530016965 -1.56129482550693 -1.30282718328459 0 -0.628633295856593 -2.34754124527334 0 0 -0.842818291300315 -0.627158605102929 -0.731747106327641 -1.6816558119374 -0.336705481103977 0 -0.758913529970189 0 -0.672991618125155 0 0 0 0 0 0 0 0 0 -0.506575488867074 0 0 0 0 0 0 0 0 0 0 0 0 0 0 0 0 0 0 0 -7.29866640136744 0 0 0 0 0 0 0 0 0 0 0 0 0 0 0 0 0 0
0 0 0 0 0 0 0 0 0 0 0 0 0 0 0 0 0 0 0 0 0 0 0 0 0 0 0 0 0 0 0 0 -0.442673082326798 0 0 0 0 0 0 0 0 0 0 0 -0.991339557448356 -3.52247334405448 -0.153027589915513 -0.298404863693586 0 -2.38304952134167 -1.17594670516975 0 0 -0.0741795884321238 -0.47125000745516 -1.96797898603951 -1.34627761808702 -0.483798482474296 0 -0.229938668646013 0 -4.68346768893522 0 0 0 0 0 0 0 0 0 -0.711994750067401 0 0 0 0 -0.243347050979058 0 0 0 0 0 0 0 0 0 0 0 0 0 0 0 0 0 0 0 0 0 0 0 0 0 0 0 0 0 0 0 0 0
0 0 0 0 0 0 0 0 0 0 0 0 0 0 0 0 0 0 0 0 0 0 0 0 0 0 0 0 0 0 0 0 0 -0.442673082326798 0 0 0 0 0 0 0 -0.415855020121857 -0.201536705570519 -0.6130662640908 0 0 0 0 0 0 0 0 -0.381160862242898 0 0 0 0 0 -0.898504916153767 0 0 0 0 0 0 0 0 0 0 -2.52888268825599 0 0 0 0 0 0 0 0 0 0 0 0 0 0 0 -1.53677959508956 0 0 0 -0.184493054878887 0 0 0 0 0 0 0 -1.17266761634079 0 0 0 0 0.0260106270639724 0 0.609188326707526 -0.745844360498654 0 0 0 0
0 0 0 0 0 0 0 0 0 0 0 0 0 0 0 0 0 0 0 0 0 0 0 0 0 0 0 0 0 0 0 0 0 0 -0.442673082326798 0 0 0 0 0 0 0 0 0 -0.754907799786186 -0.980164162696147 -0.933944921685054 -1.94566232505063 0 -1.21599167171945 -1.11925377297744 0 0 -1.11248507828166 -0.599074838651884 -1.28589689788663 -4.08023763627221 -1.0519820206968 0 -0.51907967691537 0 -1.03328415431826 0 0 0 0 0 0 0 0 0 -0.760806031295147 0 0 0 0 -1.15699500170949 0 0 0 0 0 0 0 0 0 0 0 0 0 0 -3.28232304905725 0 0 0 0 0 0 0 0 0 0 0 0 0 0 0 0 0 0
0 0 0 0 0 0 0 0 0 0 0 0 0 0 0 0 -0.504537225411994 0 0 0 0 0 0 0 0 0 0 0 0 0 0 0 0 0 0 -0.442673082326798 -1.06249141243063 0 0 0 0 0 0 0 0 0 0 0 0 -3.45507025818778 0 0 0 0 0 -5.68494960108761 -4.48684179667949 0 0 0 0 0 0 0 -0.688305111904718 0 0 0 0 0 0 0 0 0 0 0 0 0 0 0 0 0 0 0 0 0 0 0 0 0 0 0 0 0 0 0 0 0 0 0 0 -1.40272391111455 0 0 0 0 0 0 0 0
0 0 0 0 0 0 0 0.349980553590482 0 0 0 0 0 0 0 0.575462349583503 -1.50539377960222 0 0 0 0 0 0 0.509786743669435 0 0.159878695647843 0 0 0 0 0 1.01341417742508 0 0 0 0.223159298711291 -0.442673082326798 0 0 0 0 0 0 0 0 0 0 0 0 0 0 0 0 0 0 -0.658455570634565 -0.607754696869187 -0.493546457098519 0 0 0 0 0 0 0 0 0 0 0 0 0 0 0 0 0 0 0 0 0 0 0 0 0 0 0 0 0 0 0 0 0 0 0 0 0 0 0 0 0 0 0 0 0 0 0 0 0 0 0 0
0 0 0 0 0 0 0 0 0 0 0 0 0 0 0 0 0 0 0 0 0 0 0 0 0 0 0 0 0 0 0 0 0 0 0 0 0 -0.442673082326798 0 0 0 0 0 -1.00695512392992 0 0 0 0 0 0 0 0 -0.53032906619548 0 0 0 0 0 0 0 0 0 0 0 0 0 0 0 0 -1.03118607901733 0 0 0 0 0 0 0 0 0 0 0 0 0 0 0 -3.23831149356966 0 0 -0.711181547029592 -0.845432131191197 0 0 0 0 0 0 0 -0.969321779748307 -1.24546449980957 0 -0.656786621425207 0 0.05922399879832 0 0.259101291006853 -1.78129845393094 0 0 0 0
0 0 0 0.0419652007782377 0.154391904129049 0 0 0 0 0 0 0 0 0 0 0 0 0 0 0 0 0 0 0 0 0 0 0 0 0 0 0 0 0 0 0 0 0 -0.442673082326798 0 0 0 0 0 -4.93928677712968 -0.879831634048536 -0.640706445132191 -1.86874852407641 0 -3.03901832611993 -0.494767654895576 0 0 0 0 -3.43030459265218 -0.681703371001105 -0.433532661757653 0 -2.62419000494662 0 -2.07177182119967 0 0 0 0 0 0 0 0 0 0 0 0 0 0 0 0 0 0 0 0 0 0 0 0 0 0 0 0 0 0 0 0 0 0 0 0 0 0 0 0 0 0 0 0 0 0 0 0
0 0 0 0 0 0 0 0 0 0 0 0 0 0 0 0 0 0 0 0 0 0 0 0 0 0 0 0 0 0 0 0 0 0 0 0 0 0 0 -0.442673082326798 0 0 0 0 -0.572280280003992 -1.13683119017949 -0.673170409828542 -0.418501913605605 0 -0.434651459138153 -0.896199347195122 0 0 -4.54253640293431 -1.34326483254345 -1.81803979019464 -2.53292713491447 -0.710691320296322 0 -0.236526329562203 0 -1.16583099651278 0 0 0 0 0 0 0 0 0 -0.892552265144821 0 0 0 0 -0.894249560244952 0 0 0 0 0 0 0 0 0 0 0 0 0 0 -3.40253535504246 0 0 0 0 0 0 0 0 0 0 0 0 0 0 0 0 0 0
0 0 0 0 0 0 0 0 0 0 0 0 0 0 0 0 0 0 0 0 0 0 0 0 0 0 0 0 0 0 0 0 0 0 0 0 0 0 0 0 -0.442673082326798 0 0 0 -0.434820074938428 -0.323329615618129 -4.57419812319783 -1.34044114002247 0 -2.18178366466911 -7.37767920471467 -2.89402714134393 0 -2.00687694589226 -0.366391726958977 -1.98690885390024 -0.426447103155113 -0.555249048895144 0 -0.353109266155446 0 -1.54342797483036 0 -0.33739016909129 0 0 0 0 0 0 0 -1.00289033615311 0 0 0 0 -3.85737181364769 0 0 0 0 0 0 0 0 0 0 0 0 0 0 -0.338370382165376 0 0 -0.239078682984503 0 0 0 0 0 0 0 0 0 0 0 0 0 0 0
0.0722274929255868 0.0633124476907435 0.141311982285477 0.299239236692404 0.0576686609521269 0 0 0 0 0 0 0 0 0 0 0 0 0 -1.74777760535321 0 0 0 0 0 0.459700025466078 0 0 0 0 0 0 0 0 0.082857698191724 0 0 0 0 0 0 0 -0.442673082326798 0 0 0.559832201347711 0.241088003707431 0.485876295348319 0.125690758730004 0 0 0 0 -0.739096521461476 0 0 0 0 0 -0.301150480134261 0 0 -2.98935684774674 0 0 0 0 0 0 0 0 0 0 0 0 -0.503404220049423 0 0 0 0 0 0 0 0 0 0 -1.39200015537424 0 0 -1.61183876633874 -0.971960050319292 0 0 0 0 0 0 0 -0.372297454692377 -1.05280225364815 -3.65013348584215 -5.73972807134975 0 0 0 0 0 0 0 0 0
0.364434806981077 0.306633231013483 0.239563961361565 0.181902284977885 0.0712366101125136 0 0 0 0 0 0 0 0 0 0 0 0 0 -0.93100890089206 0 0.378477899939898 0 0 0 0.05840140215772 0 0 0 0 0 0 0 0 0.0420012724323437 0 0 0 0 0 0 0 0 -0.442673082326798 0 0.195147408364258 0.0476719256121963 0.748058638616919 0.233708945836546 0 0 -0.110416269649617 0 -1.24175143584414 0 0 0 0 0 -1.17607275579121 0 0 -1.60862992260005 0 0 0.307024205497254 0 0 0 0 0 0 0 0 0 -1.21999462944399 0 0 0 0 0 0 0 0 0 0 -0.173388557440433 0 0 -1.70700537501534 -4.77964198038695 0 0 0 0 0 0 0 -3.89610208129786 -0.536506844218214 -0.200991345907881 -8.94409555210312 0 0 0 0 0 0 0 0 0
0.25779340598199 0.0329855753449161 0.278087822820855 0.0777774745365417 0.168034208084348 0 0 0 0 0 0 0 0 0 0 0 0 0 -0.454826419021349 0 0.0391198168316003 0 0 0 0.178248976397894 0 0 0 0 0 0 0 0 0.118433134945494 0 0 0 0.192078224483052 0 0 0 0 0 -0.442673082326798 1.3147873999998 0.0546180237806855 0.283852953503434 0.250425939691146 0 0 0 0 -1.19757681825675 0 0 0 0 0 -0.77027805030179 0 0 -0.14282789445835 0 0 0 0 0 0 0 0 0 0 0 0 -0.658678378088335 0 0.0570358281012395 0 0 0 0 0 0 0 0 0 0 0 -0.771165309457616 0 0 0 0 0 0 0 0 0 -1.27100549321134 -2.63727456959914 -0.0284530867397323 0 0 0 0 0 0 0 0 0
0 0 0 0 0 0.214502707607785 0.474483108344031 0 0.332642568103035 0.0711015380504111 0.17288548515365 0 0.0357917018710959 0.148302997552213 0.277324838733513 0.16221313852753 0 0.480524580387139 -0.14035550148612 0.313498982913296 0 0 0.0766040411607416 0.364057923950525 0 0.133109013656346 0.0482265580481666 0.297898533579253 0.400446419381087 0.970816104274923 0.198721052664727 2.04200286980844 0.171951377750228 0 0.159188380263507 0 0 0 1.02851074117142 0.11895095253504 0.0834507702299258 -2.71364684014432 -0.956147503579756 -6.17962208854605 -0.442673082326798 0 0 0 0 0 0 0 -0.381053256871615 0 0 0 0 0 -2.06733259443305 0 0 0 0 0 0 0 0 0 0 -0.430396952240868 0 0 0 0 -3.13134805737582 0 0 0 0 0 0 0 0 0 0 -3.71577537990693 0 0 -0.119226255896658 -0.979956741753721 0 0 0 0 0 0 0 -0.340817260561445 -1.14197393347904 -0.363093338117665 -0.375158914945046 0 0 0 0 0 0 0 0 0
0 0 0.130671415388741 0.565289103527662 0 0.203109015185844 0.129136864323869 0 0.112099867988878 0.146045341502039 0.980766415686816 0 0.326184471943027 0.305149109400574 0.161922277419672 0.804285910278626 0 0 -3.40561376820642 0.0945258298591374 0 0 0.143738013769464 0.133278628997364 0 0.0236538035744694 0.519350318945551 0 0 0 0.422397117168251 0.716132248372287 0.725022144159727 0 0.200541401215006 0 0 0 0.190519226177495 0.249638707153368 0.068386793162158 -1.18757413005497 -0.260398555506193 -0.28511051665835 0 -0.442673082326798 0 0 0 0 0 0 -0.552068776684308 0 0 0 0 0 -0.611610304887113 0 0 0 0 0 0 0 0 0 0 -1.47030551210139 0 0 0 0 -0.375604992116428 0 0 0 0 0 0 0 0 0 0 -1.31540463978279 0 0 -1.46129696991979 -7.20138557366469 0 0 0 0 0 0 0 -0.837553701072459 -1.70329816203062 -9.56202487708351 -0.633685555115302 0 0 0 0 0 0 0 0 0
0 0 0 0.170515287929109 0 0.157205916650277 0.163999883642021 0 0.151760190292794 0.69614409537827 0.242178496048333 0 0.0581234566499279 0.0684316812683888 0.137746602488101 0.244639540363987 0 0 -1.32664740277308 0.349549964588423 0 0 0.150214517625825 1.88434380115535 0 0.119646101407381 0.106202692281958 0 0 0 0.201888741443948 0.305772979129573 0.031754427861971 0 0.195903369179732 0 0 0 0.135086079924748 0.136172060696827 0.887883271056875 -2.7283193047179 -3.71433802553867 -1.46875155898072 0 0 -0.442673082326798 0 0 0 0 0 -0.490195392125012 0 0 0 0 0 -3.84665208628512 0 0 0 0 0 0 0 0 0 0 -0.270642230174569 0 0 0 0 -0.337713726629116 0 0 0 0 0 0 0 0 0 0 -1.00008797815525 0 0 -0.606542132913797 -0.636004754224678 0 0 0 0 0 0 0 -2.12655580957052 0 0 0 0 0 0 0 0 0 0 0 0
0 0 0 0 0 0.210027636969755 0.53096551661389 0 0.379215821388167 0.0334525158381043 1.05731200677149 0.779900884075267 0.0829186078085549 0.131176366066728 0.0665758411239609 0.0796363362544574 0 0.554228044220489 -0.980333956902286 0.321903996151728 0 0 0.309847227377095 0.0525978853906782 0 0.620856637563608 0.302385280026301 0.162469987436825 0.130706512308577 0.301056452956446 0.319723638413613 0.26303843285445 0.056736555156499 0 0.430147483483579 0 0 0 0.369359534856903 0.0797314892838784 0.277743309548448 -0.625837992843826 -1.11345004550762 -1.32957890753956 0 0 0 -0.442673082326798 0 0 0 0 -4.21837221589015 0 0 0 0 0 -3.127688570966 0 0 0 0 0 0 0 0 0 0 -0.160220729011224 0 0 0 0 -6.43120324171543 0 0 0 0 0 0 0 0 0 0 -0.559024620566874 0 0 -1.39385064031832 -1.80241198224843 0 0 0 0 0 0 0 -0.47781053397326 -2.32015518722599 -1.06935105898187 -0.191273216961207 0 0 0 0 0 0 0 0 0
0 0 0 0 0 0 0 0 0 0.156795635275434 0 0 0.0279999272736274 0.697114785823033 0.110512185713676 0.13239579128954 0 0 0 0.167876183975012 0 0 0 0 0 0 0 0 0 0 0 0 0 0 0 0 0 0 0 0 0 0 0 0 0 0 0 0 -0.442673082326798 0 0 0 0 0 0 0 0 0 0 0 0 0 0 0 0 0 0 0 0 0 0 0 0 0 0 0 0 0 0 0 0 0 0 0 0 0 0 0 0 0 0 0 0 0 0 0 0 0 0 0 0 0 0 0 0 0 0 0 0 0
0 0 0 0 0 0.730989996788465 0.0537079071757991 0.812059731882615 0.299582935364974 0.0402035922676915 0.261384814390783 0 1.23389097856198 0.0340041007313483 0.326557136015676 0.78343176987222 0 1.34282754535129 0 0.10218264693673 0 0 0.417924777352941 0.185344852747393 0 0.0669173898363884 0.381076528516087 0.2039799583182 0.0226976046661535 1.3082012274157 0.152218640311542 0.127387633574189 0.474986558288901 0 0.252262738191746 0.685685191058354 0 0 0.596226223593449 0.0938636566068159 0.462759786579146 0 0 0 0 0 0 0 0 -0.442673082326798 0 0 0 0 0 0 0 0 -0.451264199686538 0 0 0 0 0 0 0 0 0 0 0 0 0 0 0 0 0 0 0 0 0 0 0 0 0 0 0 0 0 -2.47094159958606 0 0 0 0 0 0 0 0 0 -0.696906885541763 -0.612053126961583 0 0 0 0 0 0 0 0 0 0
0 0 0 0 0 0.214600924692072 0.141905344758773 0 0.0476761602385217 0.776547920978903 0.163043997691565 0 0.365955264624853 0.746057457712165 0.045166188634355 0.196549525346968 0 0.0880101747440385 0 0.432586690411986 0 0 0.136219022885467 0.112857555891075 0 0.138514578680886 0.10950138935689 0.0918468526777901 0.0657372947833978 0.0367475691951731 0.101190032740162 0.487441990695541 0.245473774334712 0 0.222430535741051 0 0 0 0.0986307159587868 0.173842052241701 1.39011756722359 0 0.0216573873133212 0 0 0 0 0 0 0 -0.442673082326798 0 0 0 0 0 0 0 0 0 0 0 0 0 0 0 0 0 0 -1.20299405029336 0 0 0 0 0 0 0 0 0 0 0 0 0 0 0 0 0 0 -2.71980603287279 0 0 0 0 0 0 0 0 0 -4.25785866369379 -0.526797943510383 -1.52125730348506 0 0 0 0 0 0 0 0 0
0 0 0 0 0 0 0 0 0 0.167219225625007 0.450488061835696 0 0 0.352720605081185 0 0 0 0 0 0 0 0 0 0 0 0 0 0 0 0 0 0 0 0 0 0 0 0 0 0 0.506533331053382 0 0 0 0 0 0 0 0 0 0 -0.442673082326798 -0.792202987497957 0 0 0 0 0 0 0 0 0 0 0 0 0 0 0 0 0 0 0 0 0 0 0 0 0 0 0 0 0 0 0 0 -1.12103874125753 0 0 0 -4.58522928428264 0 0 0 0 0 0 0 -3.74949909140272 -0.814401514832565 -0.642156831658712 -1.48833408063848 0 0 0 0 -0.500191722498371 0 0 0 0
0 0 0 0 0.106843484996216 0 0 0 0 0 0 0 0 0 0 0 0 0 0 0 0.199530522466932 0.135273163986386 0 0 0 0 0 0 0 0 0 0 0 0.0765646015910946 0 0 0 0.110480730148427 0 0 0 0.139178293955633 0.258340769370538 0.238753958590722 0.0763412540928198 0.114216090004839 0.0932947654576949 0.845860201725841 0 0 0 0.159053534083971 -0.442673082326798 0 0 0 0 0 0 0 0 0 0 0 0 0 0 0 0 0 0 0 0 0 0 0.154526716486977 0 0 0 0 0 0 0 0 0 0 0 0 0 0 0 0 0 0.155509529342397 0 0 0 0 -2.13903745082137 0 -0.841550655053397 0 0 0 0 0 0 0 0 0
0 0 0 0 0 1.86818395235178 0.0915879660298429 0 0.120492563038239 0.143790578407209 0.376532430911526 0 0.444652140224571 0.198204935827859 1.03866270808837 0.281507167373726 0 0 -0.405368572059411 0.022943136756083 0 0 0 0.0206872671856201 0 0.18274541445783 0.257020101523091 0 0 0 0.553598783247888 0.182511983948462 0.0152550094091875 0 0.218350942498564 0 0 0 0 0.916993079455733 0.3661672741927 0 0 0 0 0 0 0 0 0 0 0 0 -0.442673082326798 0 0 0 0 -0.871889251125748 0 0 0 0 0 0 0 0 0 0 0 0 0 0 0 -3.3746967584252 0 0 0 0 0 0 0 0 0 0 -2.52911823580616 0 0 0 -0.988196144681964 0 0 0 0 0 0 0 -2.65868437840362 0 0 0 0 0 0 0 0 0 0 0 0
0 0 0 0 0 0.138308432268013 0.188756486364567 0 0.0493576082846897 0.21480886446639 0.027287234273927 0 0.215617127206443 0.328502930187962 0.208395405995742 1.86495541210595 0 0 -0.920019141495821 0.12914737499061 0 0 0 0.132943972592793 0 0.217562522366904 0.192332184681831 0 0 0 0.235749722139405 0.126519602675265 0.0972554524462471 0 0.129808849109964 0 0 0 0 0.263840746569069 0.0696777239264439 0 0 0 0 0 0 0 0 0 0 0 0 0 -0.442673082326798 0 0 0 -0.832044954980355 0 0 0 0 0 0 0 0 0 0 0 0 0 0 0 -0.221446613988103 0 0 0 0 0 0 0 0 0 0 -1.37460465338761 0 0 0 -0.723419637053748 0 0 0 0 0 0 0 -5.75102702860694 0 0 0 0 0 0 0 0 0 0 0 0
0 0 0 0 0 0.98690688414728 0.0786177543719435 0.085246615015829 1.49919621185389 0.0805719792967518 0.263270597471573 0 0.166714695276921 1.09294438381531 0.337018131722186 0.0645982025203569 0 0.0719680125454541 -3.74164849386462 0.380044900419987 0 0 0.808280243535931 0.0779720751260777 0 0.265588052247458 0.370075900037025 0.116515255374532 0.199742884158602 0.0753550989149702 0.60658717470671 0.13264740822339 0.365629179016034 0 0.256672807063224 1.12807886428459 0.131498273817225 0 0.634197959593264 0.357508393295907 0.386320012182663 0 0 0 0 0 0 0 0 0 0 0 0 0 0 -0.442673082326798 0 0 0 0 0 0 0 0 0 0 0 0 0 0 0 0 0 0 0 0 0 0 0 0 0 0 0 0 0 0 0 0 0 0 0 0 0 0 0 0 0 0 -0.378002421289411 -4.10017955582242 -2.80543725900523 0 0 0 0 0 0 0 0 0
0 0 0 0 0 0.0386345002476861 0.553819751492374 0.0329331719361207 0.273472383303986 0.0847693256606539 0.133264388385198 0 0.656543201603236 0.161827429361454 0.0783785573422267 0.0753738234800986 0 0.232974956136184 -0.569699692143664 0.234633856379249 0 0 0.0679562227950865 1.02593531706246 0 0.263711184121457 0.372856212344935 0.0805528450308979 0.252086946201931 0.261268224355846 0.397556167596569 0.328697594546256 0.259868110881024 0 0.849153742089316 0.99743167890133 0.113342882491176 0 0.135610196839085 0.514603995353751 0.0804148608377522 0 0 0 0 0 0 0 0 0 0 0 0 0 0 0 -0.442673082326798 0 0 0 0 0 0 0 0 0 0 0 0 0 0 0 0 0 0 0 0 0 0 0 0 0 0 0 0 0 0 0 0 0 0 0 0 0 0 0 0 0 -1.1974203343226 -0.279586206036923 -2.84520515725623 0 0 0 0 0 0 0 0 0
0 0 0 0 0 0.255772954056273 0.101580068427838 0.251321576805147 0.354809121427573 1.36503073104073 1.17282625452837 0 0.277493807904603 0.454713441132152 0.468365032472373 0.0821079250498697 0 0.132392627974569 0 0.0808289844390807 0 0 0.0730521274387023 0.104853534654249 0 0.143508554353768 0.530637498178919 0.410911660656789 0.0867705691207512 0.0659012256706057 0.426957247629523 0.0609305337842261 0.0886088363371096 0 0.216241915538503 0 0.0971514005726383 0 0.0848748582926982 0.143455194982471 0.108285679483403 0 0 0 0 0 0 0 0 0 0 0 0 0 0 0 0 -0.442673082326798 0 0 0 0 0 0 0 0 0 0 0 0 0 0 0 0 0 0 0 0 0 0 0 0 0 0 0 0 0 0 0 0 0 0 0 0 0 0 0 0 -0.213050109785344 -0.378638499633663 -1.12987781596448 0 0 0 0 0 0 0 0 0
0.145108162376511 0.0361125712074059 0.550609962245635 0.356045265637052 0.418245084872482 0 0 0 0 0 0 0 0 0 0 0 0 0 0 0 0.275332545161682 0.424411432972356 0 0 0.160317194644265 0 0 0 0 0 0 0 0 0.184632760282958 0 0 0 0 0 0 0 0.0590173319590487 0.234789387078041 0.148171267648629 0.408154167324201 0.123193208732137 0.735953201038322 0.598245492878498 0 0.0907844757836735 0 0 0 0.187573680224483 0.170483567825943 0 0 0 -0.442673082326798 0 0.0751662763102881 0 0 0 0.0568002540247923 0.592364266746873 0 0 0 0.549547884973145 0 0.523703239171578 0.614831953081803 0 0 0 0.233700349696473 0 0.328513511068381 0 0 0 0.286402351346627 0 0 0 0 1.10465944681597 0 0 0 0 0 0 0 0 0.959800155845188 0 -1.36709041673579 0 0 0 0 0 0 0 0 0 0 0
0 0 0 0 0 0.075352081142 1.45402130735987 0 0.0986883542321599 0.163221194790611 0.013942028097569 0 0.1222486560641 0.140535600854058 0.372792236508394 0.122030351257704 0 0.195568624393894 -0.291627717994879 0.147925504625658 0 0 0.28356248991078 0.460940627756239 0 0.252550915073881 0.104131568766653 0.711799463687592 0 0.132875584466156 0.282374545123992 0.152798527867047 0.0438010943676913 0 0.102908747115146 0 0 0 0.534045967441161 0.0460634815616019 0.0677055352508597 0 0 0 0 0 0 0 0 0 0 0 0 0 0 0 0 0 0 -0.442673082326798 0 0 0 0 0 0 0 0 0 0 0 0 0 0 -2.42138293346653 0 0 0 0 0 0 0 0 0 0 -0.300146427394849 0 0 0 -1.073818605391 -0.378851599169803 0 0 0 0 0 0 -0.473041211192768 -2.80868536694141 -0.277243048921674 -2.53223126773882 0 0 0 0 0 -1.10380721966974 0 0 0
0 0 0 0 0 0 0 0 0 0 0 0 0 0.0807573750846906 0 0 0 0 -0.59791064580005 0 0 0 0 0 0 0 0 0 0 0 0 0 0 0 0 0 0 0 0 0 0 0 0 0 0 0 0 0 0 0 0 0 0 0 0 0 0 0 -0.372050159820011 0 -0.442673082326798 0 0 0 0 0 0 0 0 0 0 0 0 0 0 0 0 0 0 0 0 0 0 0 0 0 0 0 -0.622552400659438 0 0 0 0 0 0 0 0 0 0 0 0 0.110776245245276 0 0 0 0 0 0 0 0
0 0 0 0 0 0.413512343830045 0.059177744991688 0 0 0.123420519680398 0.305218141322618 0 0.040055581020711 0.189276240387009 0.0190828885408826 0.885059713258477 0 0.132054247689816 -0.632998100791038 0.195533643725038 0 0 0.262862362225887 0.141413587842657 0 0.132388733176547 0.159091183031127 0.0380233338124119 0.203915270649498 0.0809933836736281 0.277843251935954 0.131552604480148 0.958736713025069 0 0.211524263029613 0 0 0 0.393432209947317 0.25974525144542 0.323588863983078 0.633561122363056 0.315731961547797 0.0272934265923845 0 0 0 0 0 0 0 0 0 0 0 0 0 0 0 0 0 -0.442673082326798 0 0 0 0 0 0 0 0 0 0 0 0 0 0 0 0 0 0 0 0 0 0 0 -1.34124638779284 0 0 0 -0.432563166893768 0 0 0 0 0 0 0 -0.717191623625022 -4.68438396631039 -0.560947908987357 -1.63516634193285 0 0 0 0 0 0 0 0 0
0 0 0 0 0 0 0 0 0 0 0 0 0 0.203656464164198 0 0 0 0 -7.32019068534872 0 0 0 0 0 0 0 0 0 0 0 0 0 0 0 0 0 0 0 0 0 0 0 0 0 0 0 0 0 0 0 0 0 0 0 0 0 0 0 0 0 0 0 -0.442673082326798 0 0 0 0 0 0 0 0 0 0 0 -0.758541648468204 0 0 0 0 0 0 0 0 0 0 -0.395215019200484 0 0 -1.98650223243852 -0.219747415518766 0 0 0 0 0 0 0 -0.877477922093091 0 0 0 0.10773616383343 0 0 0 0 0 0 0 0
0 0 0 0 0 0 0 0 0 0 0 0 0 0.102848399915451 0 0 0 0 0 0 0 0 0 0 0 0 0 0 0 0 0 0 0 0 0 0 0 0 0 0 0.0643543793745501 0 0 0 0 0 0 0 0 0 0 0 0 0 0 0 0 0 0 0 0 0 0 -0.442673082326798 0 0 0 0 0 0 0 0 0 0 -6.96284833273214 0 0 0 0 0 0 0 0 0 0 -0.7082650862345 0 0 0 -1.70539921660397 0 0 0 0 0 0 0 -0.338711090881047 0 0 0 0 0 0 0 0 0 0 0 0
0 0 0 0 0 0 0 0.554802413432395 0 0 0 0 0 0.26256615805112 0 0 0 0 0 0 0 0 0 0 0 0 0 0 0 0 0 0 0 0 0 0.142249268969261 0 0 0 0 0 0 -1.50738095958067 0 0 0 0 0 0 0 0 0 0 0 0 0 0 0 -0.302355125621397 0 0 0 0 0 -0.442673082326798 0 0 0 0 -1.03011657878431 0 0 0 0 0 0 0 0 0 0 0 0 0 0 0 0 0 0 -0.726117661988083 0 0 0 0 0 0 0 0 0 -0.223013344617933 -0.234903427599009 0 0 0 0 0 0 0 0 0 0
0 0 0 0 0 0 0 0 0 0 0 0 0 0.0772311321699323 0 0 0.343046213907792 0 -2.76383332365907 0 0 0 0 0 0 0 0 0 0 0 0 0 0 0 0 0 0 0 0 0 0 0 0 0 0 0 0 0 0 0 0 0 0 0 0 0 0 0 -2.85256353081314 0 0 0 0 0 0 -0.442673082326798 0 0 0 0 0 0 0 0 0 0 0 0 0 0 0 0 0 0 0 0 0 0 -3.55304134782861 0 0 0 0 0 0 0 0 0 0 0 0 0.0453373716158614 0 0 0 0 0 0 0 0
0 0 0 0 0 0 0 0 0 0 0 0 0 0.100270490525039 0 0 0 0 -4.13686883987978 0 0 0 0 0 0 0 0 0 0 0 0 0 0 0 0 0 0 0 0 0 0 0 0 0 0 0 0 0 0 0 0 0 0 0 0 0 0 0 0 0 0 0 0 0 0 0 -0.442673082326798 0 0 0 0 0 0 0 0 0 0 0 0 0 0 0 0 0 0 -9.16975967615238 0 0 -4.19488693281153 -0.331886317586977 0 0 0 0 0 0 0 -0.905449535351357 -0.588862841199968 -1.7604289211397 -0.319626073805639 0 0 0 0 0 0 0 0 0
0 0 0 0 0 0 0 0 0 0 0 0 0 0.0346202470817647 0 0 0 0 0 0 0 0 0 0 0 0 0 0 0 0 0 0 0 0 0 0 0 0 0 0 0 0 0 0 0 0 0 0 0 0 0 0 0 0 0 0 0 0 0 0 0 0 0 0 0 0 0 -0.442673082326798 0 0 0 0 0 0 0 0 0 0 0 0 0 0 0 0 0 0 0 0 0 0 0 0 0 0 0 0 0 0 -8.83805610385791 0 -0.504603259984837 0.673215088887441 0 0 0 0 0 0 0 0
0 0 0 0 0 0 0 0 0 0 0 0 0 0.0757961954981633 0 0 0 0 0 0 0 0 0 0 0 0 0 0 0 0 0 0 0 0 0 0 0 0 0 0 0 0 0 0 0 0 0 0 0 0 0 0 0 0 0 0 0 0 0 0 0 0 0 0 0 0 0 0 -0.442673082326798 0 0 0 0 0 0 0 0 0 0 0 0 0 0 0 0 0 0 0 0 0 0 0 0 0 0 0 0 0 -0.252496949217531 0 -8.40754204514787 0.637609956102407 0 0 0 0 0 0 0 0
0 0.487277802029237 0 0.736309790458245 0.0866534324951551 0 0 0 0 0 0 0 0 0 0 0 0 0 -2.55417258520722 0 0 0 0 0 0.245107487785947 0 0 0 0 0 0 0 0 0.503243876114652 0 0 0 0.202649022223845 0 0 0 0 0 0 0.0906924897213234 0.283951390691643 0.0481185486797749 0.028904478093818 0 0 0.238599402917219 0 0 0 0 0 0 0 -2.86041463958695 0 0 0 0 0 0.212560670709356 0 0 0 0 -0.442673082326798 0 0 0 0 -0.283141163238194 0 0.173109880839492 0 0 0 0 0 0 0 0 -0.955605684866232 0 0 -0.468604222073224 -0.478348851521978 0 0 0 0 0 0 0 -1.39312545264065 -3.96533618957293 -0.929949166608909 -0.599264906873584 0 0 0 0 0 0 0 0 0
0 0 0 0 0 0 0 0 0 0 0 0 0 0 0 0 0 0 -0.0626546877375726 0 0 0 0 0 0 0 0 0 0 0 0 0 0 0 0 0 0 0 0 0 0 0 0 0 0 0 0 0 0 0 0 0 0 0 0 0 0 0 0 0 0 0 0 0 0 0 0 0 0 0 -0.442673082326798 0 0 0 0 0 0 0 0 0 0 0 0 0 0 0 0 0 0 0 0 0 0 0 0 0 0 0 -1.09433013325515 -0.580037335994749 -2.68022832030424 1.22797698236617 0 0 0 0 0 0 0 0
0 0 0 0 0 0.323392794974279 0.364670216660489 0 0.0866931678443841 0.0734564832510578 0.0546979016350511 0 0.0818377154114143 0.328548960465432 0.137451105213588 0.031972759115169 0 0 -0.0803719109443094 0.629294617775491 0 0 0.775212158266064 0.199083252872478 0 0.274966187918725 0.170485964531342 0.125722887027686 0.092942332643421 0.306140221774278 0.329938104073319 0.105610762429555 0.138907520534005 0 0.157458586823081 0 0 0 0 0.171776912746745 0.217979204774369 0 0 0 0 0 0 0 0 0 0 0 0 0 0 0 0 0 -2.546215080714 0 0 0 0 0 0 0 0 0 0 0 0 -0.442673082326798 0 0 0 0 0 0 0 0 0 0 0 0 0 0 0 0 -1.24739500478161 0 0 0 0 0 0 0 0 0 -0.999200875040548 -2.35933310859112 -2.81487768583353 0 0 0 0 0 0 0 0 0
0 0 0 0 0 0 0 0 0 0.366750103217197 0.0678991547725698 0 0 0.463445523534746 0.186058217292296 0 0 0.14387847630764 -2.09570224808058 0.306230516482693 0 0 0 0 0 0.512038163479612 0 0.53818221689563 0.242961031904339 0.212384722375154 0 0 0 0 0 0 0 0 0 0 0 0 0 0 0 0 0 0 0 0 0 0 0 0 0 0 0 0 -3.08332236408375 0 0 0 0 0 0 0 0 0 0 0 0 0 -0.442673082326798 0 0 0 0 0 0 0 0 0 0 0 0 0 0 0 0 0 0 0 0 0 0 0 0 0 0 0 0 0 0 0 0 0 0 0 0 0
0 0 0 0 0 0 0 0 0 0 0 0 0 0 0 0 0 0 0 0 0 0 0 0 0 0 0 0 0 0 0 0 0 0 0 0 0 0 0 0 0 0 0 0 0 0 0 0 0 0 0 0 0 0 0 0 0 0 0 0 0 0 0 0 0 0 0 0 0 0 0 0 0 -0.442673082326798 0 0 0 0 0 0 0 0 0 0 0 -3.11142753270819 0 0 0 -0.360999392969971 0 0 0 0 0 0 0 -0.894508825712277 0 0 0 0.159346561864373 1.34345369102096 0 0.0455733911854185 0 0 0 0 0
0 0.0557137843162067 0.272139716733033 0.837461594310465 0.177858923800741 0 0 0 0 0 0 0 0 0 0 0 0 0 0 0 0.191817004315095 0.156462697792369 0 0 0 0 0 0 0 0 0 0 0 0 0 0 0 0 0 0 0 0.0985537700055956 0.259318982431708 0.12463673381741 0.651104959568881 0.0766498559123819 0.067537900370015 1.36151939168432 0 0 0 0 0 0.644615592849996 0.0437787605684458 0 0 0 0 0.487831018960333 0 0 0.15375426654581 1.39623015648662 0 0 0 0 0 0.0552033088088329 0 0 0 0 -0.442673082326798 0 0 0 0 0 0 0 0 0 0 0 0 0 0 0 0 0 0 0 0 0 0 0 0 0 -0.848368247515807 0 0 0 0 0 0 0 0 0
0 0 0 0 0 0 0 0 0 0 0 0 0 0 0 0 0 0 0 0 0 0 0 0 0 0 0 0 0 0 0 0 0 0 0 0 0 0 0 0 0 0 0 0 0 0 0 0 0 0 0 0 -0.774397962666973 0 0 0 0 0 0 0 0 0 0 0 0 0 0 0 0 0 0 0 0 0 0 -0.442673082326798 0 0 0 0 0 0 0 0 0 -1.9545019679176 0 0 0 -1.70180495492243 0 0 0 0 0 0 0 -0.33096232120602 -0.820395857245418 -0.56711703335869 -1.13872271300912 0 0 0 0 -1.04566577117182 0 0 0 0
0 0 0 0 0 0.862699078365354 0.125090887452762 0 0 0.180947061995464 0.214177679162907 0 0.18175895542855 0.202063669802014 0.152603108466847 0 0 0 0 0.890307052533342 0 0 0.637120516514331 0 0 0 0.554102691165516 0 0 0 0.299687509591086 0 0.0444813226591966 0 0.218377214072426 0 0 0 0 0.174061456184595 0.801097451701608 0 0 -0.277446270683454 0 0 0 0 0 0 0 0 0 0 0 0 0 0 -1.03094758390837 0 0 0 0 0 0 0 0 0 0 -0.871553334329217 0 0 0 0 0 0 -0.442673082326798 0 0 0 0 0 0 0 0 0 0 0 -3.28506082441278 0 0 0 0 0 0 0 0 0 0 0 0 0 0 0 0 0 0 0 0 0
0 0 0 0 0 0 0 0 0 0 0 0 0 0 0 0 0.385810138328829 0 0 0 0 0 0 0 0 0 0 0 0 0 0 0 0 0 0 0 0 0 0 0 0 0 0 0 0 0 0 0 0 0 0 0 0 0 0 0 0 0 0 0 0 0 0 0 0 0 0 0 0 0 0 0 0 0 0 0 0 -0.442673082326798 0 0 0 0 0 0 0 0 0 0 0 0 0 0 0 0 0 0 0 0 0 0 0 0 0 0 0 0 0 0 0 0
0 0 0 0 0 0 0 0 0 0 0 0 0 0.188839681150803 0 0 0 0 -1.03795325195267 0 0 0 0 0 0 0 0 0 0 0 0 0 0 0 0 0 0 0 0 0 0 0 0 0 0 0 0 0 0 0 0 0 0 0 0 0 0 0 -1.65844786585462 0 0 0 0 0 0 0 0 0 0 0 0 0 0 0 0 0 0 0 -0.442673082326798 0 0 0 0 0 0 0 0 0 0 0 0 0 0 0 0 0 0 0 0 0 0 0 0 0 0 0 0 0 0 0
0 0 0 0 0 0 0 0 0 0 0 0 0 0 0 0 0.067147243781642 0 0 0 0 0 0 0 0 0 0 0 0 0 0 0 0 0 0 0 0 0 0 0 0 0 0 0 0 0 0 0 0 0 0 0 0 0 0 0 0 0 0 0 0 0 0 0 0 0 0 0 0 0 0 0 0 0 0 0 0 0 0 -0.442673082326798 0 0 0 0 0 0 0 0 0 0 0 0 0 0 0 0 0 0 0 0 0 0 0 0 0 0 0 0 0 0
0 0 0 0 0 0 0 0 0 0 0 0 0 0 0 0 0 0.0618220223187718 -1.7121177132462 0 0 0 0 0 0 0 0 0.0971013484344395 0 0 0 0 0 0 0 0 0 0 0 0 0 0 0 0 0 0 0 0 0 0 0 0 0 0 0 0 0 0 0 0 0 0 0 0 0 0 0 0 0 0 0 0 0 0 0 0 0 0 0 0 -0.442673082326798 0 0 0 0 0 0 0 0 0 0 0 0 0 0 0 0 0 -0.290466163485738 -0.55424826319193 -0.568087721256978 0.0858684168291371 0 0 0 0 0 0 0 0
0.107685151307669 0.525297300391558 0 0 0 0 0 0 0 0 0 0 0 0 0 0 0 0 0 0 0 0 0 0 0 0 0 0 0 0 0 0 0 0 0 0 0 0 0 0 0 0 0 0 0 0 0 0 0 0 0 0 0 0 0 0 0 0 0 0 0 0 0 0 0 0 0 0 0 0 0 0 0 0 0 0 0 0 0 0 0 -0.442673082326798 0 0 0 0 0 0 0 0 0 0 0 0 0 0 0 0 0 0 0 0 0 0 0 0 0 0 0 0
0.210677183543997 0.647420442341763 0 0 0 0 0 0 0 0 0 0 0 0 0 0 0 0 -0.30548159150315 0 0 0 0 0 0.030018133053186 0 0 0 0 0 0 0 0 0 0 0 0 0 0 0 0 0 0 0 0 0 0 0 0 0 0 0 0 0 0 0 0 0 -1.35391800901782 0 0 0 0 0 0 0 0 0 0 0 0 0 0 0 0 0 0 0 0 0 0 0 -0.442673082326798 0 0 0 0 0 0 0 0 0 0 0 0 0 0 0 0 0 0 0 0 0 0 0 0 0 0 0
0 0 0 0 0 0 0 0 0 0 0 0 0 0 0 0 0 0 0 0 0 0 0 0 0 0 0 0 0 0 0 0 0 0 0 0 0 0 0 0 0 0 0 0 0 0 0 0 0 0 0 0 0 0 0 0 0 0 0 0 0 0 0 0 0 0 0 0 0 0 0 0 0 0 0 0 0 0 0 0 0 0 0 -0.442673082326798 0 -7.33642688750934 0 0 0 -0.182600327894526 0 0 0 0 0 0 0 -1.07906064276804 0 0 0 0 0 0 0.295241285343351 -0.159856795268833 0 0 0 0
0 0 0 0 0 0 0 0 0 0 0 0 0 0 0 0 0.244385429373616 0 0 0 0 0 0 0 0 0 0 0 0 0 0 0 0 0 0 0 0 0 0 0 0 0 0 0 0 0 0 0 0 0 0 0 0 0 0 0 0 0 0 0 0 0 0 0 0 0 0 0 0 0 0 0 0 0 0 0 0 0 0 0 0 0 0 0 -0.442673082326798 0 0 0 -0.264596865578054 0 0 0 0 0 0 0 0 0 0 0 0 0 0 0 0 0 0 0 0 0
0.0639685094120842 0.16934596178947 1.87294216684227 0.370333128705791 0.221415404404266 0 0 0 0 0 0 0 0 0 0 0 0 0 0 0 0 0 0 0 0 0 0 0 0 0 0 0 0 0.290893449011685 0 0 0 0.628435488882915 0 0 0 0.292400667307616 0.0378511268824655 0 0.710746121365696 0.259607374843337 0.199794334043899 0.104424696003627 0 0 0 0.218038585090924 0 0.492144755241038 0.301566616058722 0 0 0 0 0.0624436622405479 0 0.276906844378474 0.0746334023474226 0.131827322449299 0 0 1.87661271084631 0 0 0.179533435099762 0 0 0 0.636969325268884 0 0.411902883332592 0 0 0 0 0 0 0 1.45355909534735 0 -0.442673082326798 0 0 0 0 0.576466914897286 0 0.294830992568932 0.0796329777672956 0 0 0 0 -0.874374524769888 0 -0.687976435225185 0 0 0 0 0 0 0 0 0
0 0 0 0 0 0 0 0 0 0 0 0 0 0 0 0 0 0 0.111850199425904 0 0 0 0 0 0 0 0 0 0 0 0 0 0 0 0 0 0 0 0 0 0 0 0 0 0 0 0 0 0 0 0 0 0 0 0 0 0 0 0 0 0 0 0 0 0 0 0 0 0 0 0 0 0 0 0 0 0 0 0 0 0 0 0 0 0 0 -0.442673082326798 0 0 0 0 0 0 0 0 0 0 0 0 0 0 0 0 0 0 0 0 0 0 0
0 0 0 0.639302628847752 0 0 0 0 0 0 0 0 0 0 0 0 0 0 -0.687219546512679 0 0.25733224041959 0 0 0 0 0 0 0 0 0 0 0 0 0 0 0 0 0 0 0 0 0 0 0 0 0 0 0 0 0 0 0 0 0 0 0 0 0 -5.39561132503387 0 0 0 0 0 0 0 0 0 0 0 0 0 0 0 0 0 0 0 0 0 0 0 0 0 0 0 0 -0.442673082326798 -3.52140161614163 0 0 0 0 0 0 0 0 0 -1.73916502045331 -4.10254053790342 -0.362775268807223 0 0 0 0 0 0 0 0 0
0.0817535961811165 0.461211708242211 0.184638986924695 0.107853089725873 0.323910676030784 0 0 0 0 0 0 0 0 0 0 0 0 0 0 0 0.227466106786824 0 0 0 0.319850184206998 0 0 0 0 0 0 0 0 0 0 0 0 0.129906881102813 0 0 0 0.306602764278193 0.340791844030533 0.158698078100501 0.0220733074676238 0.279122894877512 0.120753533319526 0.265704282160936 0 0.504633728489403 0.498539803355624 0 0 0 0 0 0 0 0 0 0.116671444695519 0 0.353209631193286 0 0.137083670336172 0.659588723546561 0.84036853027301 0 0 0.100465240991708 0 0.249343747234492 0 0 0 0 0.660837581774021 0 0 0 0 0 0 0 0.0499362132711844 0 0 0.724878986893807 -0.442673082326798 0 0 0 0 0 0 0 0 0 -0.926333762547926 0 0 0 0 0 0 0 0 0 0 0
0.0347790039366764 0.0264129567028364 0.0248091815787321 0.556906519732456 0.0494773161827745 0 0 0 0 0 0 0 0 0 0 0 0 0 0 0 0.234439159894872 0 0 0 0 0 0 0 0 0 0 0 0 0.0348959145492843 0 0 0 0.157953932141478 0 0 0 0.189908296720765 0.966838884933703 0 0.201079083799434 1.4462903109268 0.121401352556663 0.362040186739064 0 0 0 0.885925434872498 0 0.197287228451665 0.148420012985409 0 0 0 0 0.21263476485075 0 0.0878433104939121 0.0486008875089995 0.336389378310496 0 0 0.0650664636939261 0 0 0.0962294511188063 0 0 0 0.0748005473169625 0 0.324016786124273 0 0 0 0 0 0 0 0.035814035149303 0 0 0 0 0 -0.442673082326798 0.0516587126403513 0 0 0.0789872234546403 0 0 0 0 -0.909871233954569 0 -0.433692012018297 0 0 0 0 0 0 0 0 0
0 0 0 0 0 0 0 0 0 0 0 0 0 0.163395474739724 0 0 0 0 0 0 0 0 0 0 0 0 0 0 0 0 0 0 0 0 0 0 0 0 0 0 0 0 0 0 0 0 0 0 0 0 0 0 0 0 0 0 0 0 0 0.0769261859666533 0 0 0 0 0 0 0 0 0 0 0 0 0 0 0 0 0 0 0 0 0 0 0 0 0 -2.94312044670051 0 0 0 -0.250935689718511 -0.442673082326798 0 0 0 0 0 0 -2.56373653895522 0 0 0 0 0 0 0 0 0 0 0 0
0 0 0 0 0 0 0.0749613405670085 0 0.116704598118306 0.037499117566442 0.19416105487423 0 0 0.223023137114815 0.265882356954391 0.098032981194718 0 0 0 0.916888616428941 0 0 0 0.373128440629009 0 0.105136974175945 0 0 0 0 0.552842339317328 1.52581263973841 0 0 0.662234081658158 0 0 0 0 0.652759870888156 0.0648468805322035 0 0 0 0 0 0 0 0 0 0 0 0 0 0 0 0 0 0 0 0 0 0 0 0 0 0 0 0 0 0 0 0 0 0 0 0 0 0 0 0 0 0 0 0 0 0 0 0 0 0 -0.442673082326798 0 0 0 0 0 0 0 0 0 0 0 0 0 0 0 0 0 0
0 0 0 0 0 0 0 0 0 0 0 0 0 0.458850090766745 0 0 0 0 -0.16628990612973 0 0 0 0 0 0 0 0 0 0 0 0 0 0 0 0 0 0 0 0 0 0 0 0 0 0 0 0 0 0 0 0 0 0 0 0 0 0 0 0 0 0 0 0 0 0 0 0 0 0 0 0 0 0 0 0 0 0 0 0 0 0 0 0 0 0 -1.46742060314417 0 0 0 0 0 0 -0.442673082326798 0 0 0 0 0 0 0 0 0.495557231714962 0 0 0 0 0 0 0 0
0 0 0 0 0 0 0 0 0 0 0 0 0 0 0 0 0 0 0 0 0 0 0 0 0 0 0 0 0 0 0 0 0 0 0 0 0 0 0 0 0 0 0 0 0 0 0 0 0 0 0 0 -0.778778986492189 0 0 0 0 0 0 0 0 0 0 0 0 0 0 0 0 0 0 0 0 0 0 0 0 0 0 0 0 0 0 0 0 -0.407044327077632 0 0 0 -0.417783497436931 0 0 0 -0.442673082326798 0 0 0 -1.23889642069731 -1.00480346889226 -1.3068226623171 -0.792938492886828 0.106612293770305 0 0 0 -1.27071943272413 0 0 0 0
0 0 0 0 0 0 0 0 0 0.0652676119658498 1.16447740527413 0 0 0 0 0 0 0 0 0 0 0 0 0 0 0 0 0 0 0 0 0 0 0 0 0 0 0 0 0 0.0487980996103763 0 0 0 0 0 0 0 0 0 0 0 0 0 0 0 0 0 0 0 0 0 0 0 0 0 0 0 0 0 0 0 0 0 0 0 0 0 0 0 0 0 0 0 0 0 0 0 0 0 0 0 0 0 -0.442673082326798 0 0 0 -0.478100085462275 0 -2.21772490960053 0 0 0 0 0 0 0 0 0
0 0 0 0 0 0 0 0 0 0 0 0 0 0.148502224270769 0 0 0 0 0 0 0 0 0 0 0 0 0 0 0 0 0 0 0 0 0 0 0 0 0 0 0 0 0 0 0 0 0 0 0 0 0 0 0 0 0 0 0 0 0 0 0 0 0 0 0 0 0 0 0 0 0 0 0 0 0 0 0 0 0 0 0 0 0 0 0 0 0 0 0 0 0 0 0 0 0 -0.442673082326798 0 0 0 0 0 0.217759751515405 0 0 0 0 0 0 0 0
0 0 0 0 0 0 0 0 0 0 0 0 0 0 0 0 0 0 0.307612315652761 0 0 0 0 0 0 0 0 0 0 0 0 0 0 0 0 0 0 0 0 0 0 0 0 0 0 0 0 0 0 0 0 0 0 0 0 0 0 0 -4.49799688579114 0 0 0 0 0 0 0 0 0 0 0 0 0 0 0 0 0 0 0 0 0 0 0 0 0 0 0 0 0 0 0 0 0 0 0 0 0 -0.442673082326798 0 0 0 0 0 0 0 0 0 0 0 0 0
1.07526143774901 0.366252613603095 0.115369915267721 0.0498727212859567 0.175149987476776 0 0 0 0 0 0 0 0 0 0 0 0 0 0 0 0 0 0 0 0 0 0 0 0 0 0 0 0 0.225496760119792 0 0 0 0.176024017069783 0 0 0 0.0798677984988906 0.707827305509804 0 0.064160730123008 0.171405536198674 0.420000211998452 0.0991277825030679 0 0 0 0.743638485548001 0 0.538951997121873 1.2402870820429 0 0 0 0 0.0935180589028193 0 0.146188970440904 0.174425192105666 0.0674964051485674 0 0 0.195562057604943 0 0 0.272453862672199 0 0 0 0.17239475105774 0 0.0664035125139119 0 0 0 0 0 0 0 0.220181648873211 0 0 0 0 0 0 0.516237736337458 0 0 0.238515124197465 0 0 0 -0.442673082326798 -0.386311196533619 0 -1.23970356453441 0 0 0 0 0 0 0 0 0
0.440517088803647 0.123704505655481 0.10380353327348 0 0 0 0 0 0 0 0 0 0 0 0 0 0 0 0 0 0 0 0 0 0 0 0 0 0 0 0 0 0 0 0 0 0 0.251654166146917 0 0 0 0.213677246898903 0.120494955023802 0.26392733027967 0.236075451976131 0.344428085967766 0 0.468306387116123 0 0.139047306144433 0.8703351206306 0.152565424089755 0.433274318150463 0 0 0.0771186910713021 0.254819911307994 0.0398245161432758 0.285706730161841 0.587981462375228 0 0.834129282338107 0 0 0.0464594590930897 0 0.115251895715324 1.94030047239503 0.05037196219969 0.814289071355368 0.223919542125835 0.215038518559181 0 0 0 0.160972172003029 0 0 0 0 0.0576302103804275 0 0 0 0 0.170313238148084 0 0.356062344066676 0.171558430209516 0.18710214803086 0 0 0 0.207767818846591 0.0997865613996909 0 0 0.0723283455375122 -0.442673082326798 0.193186658883904 0 0 0 0 0 0.409323858604424 0.104940753005629 -1.79940992125214 0 0.127114238859073
0.0496753102411338 0.159013183175813 0.199954752871368 0 0 0 0 0 0 0 0 0 0 0 0 0 0 0 0 0 0 0 0 0 0.181801973145325 0 0 0 0 0 0 0 0 0 0 0 0 0 0 0 0 0.703097048698071 0.0452763012282313 0.525218764171616 0.0718117430832891 1.80945275910032 0 0.20715218382919 0 0.116504690485081 0.105977975694681 0.126845452329444 0 0 0 0.713792507766214 0.0555265419425952 0.0683743044466512 0 0.050872766768973 0 0.112629440807196 0 0 0.0476312103801421 0 0.359925468582635 0 0 0.190789215802373 0.125548627101532 0.48895660276323 0 0 0 0.113338715330904 0 0 0 0 0.119051226586445 0 0 0 0 0 0 0.769154291472488 0 0 0 0 0 0.249663296356036 0 0 0 0 -0.963007387496034 -0.442673082326798 -2.85607397857986 0 0 0 0 0 0 0 0 0
0 0 0.0168577828620182 0 0 0 0 0 0 0 0 0 0 0 0 0 0 0 0 0 0 0 0 0 0 0 0 0 0 0 0 0 0 0 0 0 0 0.131930259548385 0 0 0 1.12947410486967 1.76227834840183 0.00565942214918848 0.0755862816349254 0.124028537343608 0 0.0381195131619181 0 0 0.297696805079564 0.297055098945345 0.173820937162303 0 0 0.544825538399329 0.604130332496274 0.219543220988544 0 0.50834195264991 0 0.336659619607507 0 0 0 0 0.0558273061922609 0.101986476985388 1.710612056234 0.107541937871948 0.486227673957305 0.50981440256101 0 0 0.171051124119209 0.234460154368365 0 0 0 0 0.111250038576981 0 0 0 0 0.146301532174347 0 0.0668202619140497 0 0.0835072115420944 0 0 0 0.16456223774408 0.453689630210577 0 0 0.248183135196065 0 0.626523444506219 -0.442673082326798 0 0 0 0 0 0.319138651308636 0 -0.533608889596339 0
0.181596761736751 2.49863856605593 0 0.532245568472731 0.605669998158637 0 0 0.551931344952442 0 0 0 0 0 0 0 0 1.00393427176056 0 0 0 0 0 0 0 0 0 0 0 0 0 0 0 0 0 0 0.268699665473536 0 0 0 0 0 0 0 0 0 0 0 0 0 0 0 0 0 0 0 0 0 0 0 0 -0.566724562409641 0 -0.51667285666124 0 0 -0.224955615251802 0 -3.4772813309017 -3.07840231029069 0 -6.09532726536448 0 0 -0.868298477693398 0 0 0 0 0 0 -0.448538313865707 0 0 0 0 0 0 0 0 0 0 0 -2.55526640278412 -0.535122988378506 0 -1.14161336768647 0 0 0 0 0 -0.442673082326798 0 0 0 0 0 0 0 0
-1.14636038380965 -3.46117046709063 0 -1.75128883528678 -0.174154450975645 0 0 0 0 0 0 0 0 0 0 0 -4.49163532939195 0 0 0 -0.467451712599713 -0.416952112310372 0 0 -1.72493034579248 0 0 0 0 0 0 0 0 -0.132656581297829 0 0 0 -0.301470690812683 0 0 0 0 0 0 0 0 0 0 0 0 0 0 0 0 0 0 0 0 0 0 0 0 0 0 0 0 0 0 0 0 0 0 0 -6.1915670701698 0 0 0 0 0 0 0 0 0 0 0 0 0 0 0 0 0 0 0 0 0 0 0 0 0 0 0 0 -0.442673082326798 -8.04870036620278 0 0 0 0 0 0
0 0 0 0 0 0 0 0 0 0 0 0 0 0 0 0 0 0 0 0 0 0 0 0 0 0 0 0 0 0 0 0 0 0 0 0 0 0 0 0 0 0 0 0 0 0 0 0 0 0 0 0 0 0 0 0 0 0 0 0 0 0 0 0 0 0 0 0 0 0 0 0 0 0 0 0 0 0 0 0 0 0 0 0 0 0 0 0 0 0 0 0 0 0 0 0 0 0 0 0 0 0 1.57371021077137 -0.442673082326798 0.0880056706582374 0 0 0 0 -0.857008391282123
-0.76713850512947 -0.924198168226866 -1.47897894154681 -1.10814373613031 -1.83767679784135 0 0 0 0 0 0 0 0 0 0 0 -0.753745724444965 0 0 0 -0.247517278208023 -0.27423439021598 0 0 -2.40994630743068 0 0 0 0 0 0 0 0 -2.99327908433311 0 0 0 -1.25480432935942 0 0 0 0 0 0 0 0 0 0 0 0 0 0 0 0 0 0 0 0 0 0 0 0 0 0 0 0 0 0 0 0 0 0 0 -0.249015721369325 0 0 0 0 0 0 0 0 0 -1.45963952901609 0 0 0 0 0 0 0 0 0 0 0 0 0 0 0 0 0 0 0 -0.445075468697052 -0.442673082326798 0 0 0 0 0
0 0 0 0 0 0 0 0 0 0 0 0 0 0 0 0 0 0 0 0 0 0 0 0 0 0 0 0 0 0 0 0 0 0.145394534856835 0 0 0 0.402569827502153 0 0 0 0 0 0 0 0 0 0 0 0 0 0.100562175651258 0 0 0 0 0 0 0 0 0 0 0 0 0 0 0 0 0 0 0 0 0 0 0 0.184941307729964 0 0 0 0 0 0 0 0.0319305020307148 0 0 0 0 0 0 0 0 0 0.241736999432268 0 0 0 0 -2.22135254756577 0 0 0 0 0 0 -0.442673082326798 0 0 0 0
0 0 0 0 0 0 0 0 0 0 0 0 0 0 0 0 0 0 0 0 0 0 0 0 0 0 0 0 0 0 0 0 0 0 0 0 0 0 0 0 0 0 0 0 0 0 0 0 0 0 0 0 0 0 0 0 0 0 0 0.22640672003195 0 0 0 0 0 0 0 0 0 0 0 0 0 0 0 0 0 0 0 0 0 0 0 0 0 0 0 0 0 0 0 0 0 0 0 0 0 0 -0.500983734303724 0 -1.66685130513165 0 0 0 0 0 -0.442673082326798 0 0 0
0 0 0 0 0 0 0 0 0 0 0 0 0 0 0 0 0 0 0 0 0 0 0 0 0 0 0 0 0 0 0 0 0 0 0 0 0 0 0 0 0 0 0 0 0 0 0 0 0 0 0 0 0 0 0 0 0 0 0 0 0 0 0 0 0 0 0 0 0 0 0 0 0 0 0 0 0 0 0 0 0 0 0 0 0 0 0 0 0 0 0 0 0 0 0 0 0 0 0.359315399368789 0 0 0 0 0 0 0 0 -0.442673082326798 0 0.269753387467493
0 0 0 0 0 0 0 0 0 0 0 0 0 0 0 0 0 0 0 0 0 0 0 0 0 0 0 0 0 0 0 0 0 0 0 0 0 0 0 0 0 0 0 0 0 0 0 0 0 0 0 0 0 0 0 0 0 0 0 0 0 0 0 0 0 0 0 0 0 0 0 0 0 0 0 0 0 0 0 0 0 0 0 0 0 0 0 0 0 0 0 0 0 0 0 0 0 0 0 0 0.111068662366258 0 0 0 0 0 0 0 -0.442673082326798 0
0 0 0 0 0 0 0 0 0 0 0 0 0 0 0 0 0 0 0 0 0 0 0 0 0 0 0 0 0 0 0 0 0 0 0 0 0 0 0 0 0 0 0 0 0 0 0 0 0 0 0 0 0 0 0 0 0 0 0 0 0 0 0 0 0 0 0 0 0 0 0 0 0 0 0 0 0 0 0 0 0 0 0 0 0 0 0 0 0 0 0 0 0 0 0 0 0 0 -0.595501034087502 0 0 0 0 0.178400075181738 0 0 0 -1.2965066945483 0 -0.442673082326798
