RemovedVar,ChiSq,p.value
var,968.995596163863,9.8539854959678e-213
abund,18990.4048433428,0
deg,10593.3618692733,0
close,1081.8172151312,2.95691685036162e-237
eig,180.677683902279,3.44711626289546e-41
tl,2183.12773233099,0
