0.205733268484454
0.345564675735587
0.115015442467139
1.20518294961408
0.107488699418196
0.836499803871788
0.126305959211889
0.372500582519228
0.976774286371098
0.685428743935133
0.140744977788056
1.30506104271133
1.27167235826162
1.30450988303471
0.322697284992242
1.03882444507221
0.960490537481831
0.253509661213483
0.273642900311804
0.471556350776064
1.28147127645573
0.882223442639859
0.410965942090907
0.399748618062682
0.0934533288188116
1.17062186025752
0.0175929010601198
0.321849557057513
0.360567819821172
1.04023258989856
0.155733778557879
0.649268510478835
0.130274702162787
0.704213267064703
0.98479146309297
0.22956483761099
1.1452656663562
0.141386502292696
1.08713903783233
0.280301933509155
0.389458324466535
0.122569625634901
0.0731580941935832
1.21936341910248
0.579688060078492
0.205648649408043
0.515062753025642
0.317712943718674
0.936336463259233
0.138077898047582
1.05792859158752
0.0707470841104052
0.0483122429517883
0.0470540358925958
0.919255273401355
0.186498617635983
1.28335647163818
0.583956581389455
0.689714693592116
0.168974501957016
1.23990649393482
0.0907133955528365
0.764705169512097
0.289024895908396
1.12661133314103
0.373284919587783
0.593739750516683
0.213398033816146
0.1709846043905
0.375368479073269
1.2673323189912
0.296867348303879
0.83820124596223
0.149266402303299
0.515068414971221
0.0773230205406188
0.318122018911948
0.496381829950206
0.0995673117295139
0.77326869988097
0.480476973177448
0.850239376461436
1.29792513264971
1.33014363469566
0.243256575760828
0.912905596879907
0.665871098341171
0.215611732269176
0.256879319213597
0.442294383331879
0.250052359855576
0.0613474746934128
0.486934286224631
0.489628602204581
0.847109771619743
0.693885093776937
0.43998977303146
0.937711053396897
0.576019945343301
0.419656269654896
0.0605614593628332
0.703288747639858
0.618780808157568
0.0598253947310285
0.21780543990326
1.24150457240207
0.675126917171831
0.461530957141854
0.167377501112857
0.37081084660704
0.162979386255413
0.445094011771682
0.149878068893585
0.0549998693294621
1.15263732357138
1.14087445988751
0.535529249910323
0.392640802534939
0.156025279308063
0.177687921961794
0.339951394863342
0.998428952645006
0.143892844239456
1.33735877974383
0.906075969010909
1.25681918219277
0.334386580520047
0.328841141297265
0.479436940445425
0.371665098394945
0.141581598572592
0.538355595446239
1.086355837342
0.688299134949717
1.36114287759325
0.0154890213968842
0.249461933642795
0.854509743551888
0.466301840652402
0.939569586340836
1.21290373862307
1.14892731550814
0.732981487881604
