0.502852926251673
0.680663548120338
0.217852954798514
0.332805282222956
0.205419282843436
0.728552568498214
0.17241688305659
0.337830223738932
0.175555015402032
0.311460759422972
0.455899169977827
0.0829534312267269
0.247808215901757
0.261255237870207
0.524724439654634
0.0792017904534026
0.0815671540635736
0.592461685372275
0.524910043547054
0.208614572170242
0.381200271312055
0.696012054248553
0.18194728714454
0.706470303156747
0.809040496898108
0.0532678668828647
0.278267280467012
0.832166061030144
0.060621181840024
0.0282045865535729
0.578473291805688
0.106027682313173
0.298941943178853
0.282781530076718
0.876111618196712
0.591313976303774
0.892149661278822
0.14673879173351
0.205682604812879
0.431848925706329
0.372974070476583
0.169957128816097
0.735642584502501
0.235664474650876
0.837430617319609
0.239353408938425
0.921412808108819
0.488859540712646
0.369474836272156
0.30856434138297
0.648244501178107
0.429668739973631
0.909985429002566
0.112136710459117
0.40971210566952
0.779348047524689
0.336552389184084
0.2960356069914
0.729977838018025
0.0841580480044015
0.393116437376341
0.158226010730545
0.398193556437336
0.0465737891349956
0.631671570942904
0.718081285595426
0.774786204341267
0.483350404610289
0.375394954763943
0.495827882756683
0.221027170410095
0.480161729665108
0.480485098407106
0.313914185284904
0.944526193041227
0.544773328922786
0.18074552167571
0.738215058097502
0.886944219862181
0.0588120019092014
0.193698785254864
0.141242515878697
0.767525090708584
0.0650888197629724
0.308464221717142
0.187215234836244
0.745627347287461
0.525795273008903
0.165102408947585
0.770549120477163
0.263732143152218
0.24654201268917
0.414090598486656
0.528602863809975
0.121134997456329
0.235339819537282
0.294579189197221
0.2586866351114
0.695592970143372
0.718409265189128
0.180981140979373
0.454769606068318
0.282374562295897
0.217664637414059
0.20196250726827
0.192309390064852
0.508381407856502
0.393561231076414
0.134179863077631
0.795165838776483
0.157109897636709
0.415782203790874
0.540297824010423
0.0738180075580526
0.672187608886992
0.839801892814491
0.109696721457071
0.248388306218141
0.338942280481519
0.421997935445124
0.697162550545705
0.553199928265676
0.0934553339080925
0.425631624537387
0.756640237342518
0.11615334283011
0.761852057372682
0.564848842072104
0.699184478480583
0.125854675240914
0.444273540929056
0.461268715946964
0.235092760119258
0.501360700084346
0.0101518345498203
0.280161545076272
0.842261826195493
0.166015358144301
0.942166994933613
0.250481608211417
0.504290163757758
0.830676410608985
0.687044816268911
