0.610382262414957
0.550654671851519
0.179415727298039
1.01723226589522
0.287905514086044
0.75675795250719
1.1011476828126
0.623376679999135
0.186903893493804
0.405429037149387
1.10909091324212
0.25307800318972
0.0840160542300992
0.637891773634147
0.451093007336138
0.656607292443404
0.70898443583823
0.791677773189013
0.499478368606988
1.09075410455931
0.664536165269339
0.635541128200054
0.775273227099237
0.536575541572342
0.632526433831972
0.304928919461309
0.73861246424568
0.410649686682774
0.826602672149261
0.484738086671835
0.32796191390733
0.874555712411785
0.59415776467793
1.02629230240569
0.718400181777431
0.686535642867559
1.02244243850473
1.10105271328512
0.693884300095021
0.850215158332099
0.484469022089236
0.261292794596723
0.731066346331355
1.05747142359547
0.539866469802657
0.619349162282093
0.350939027277207
0.589530412595197
0.21141566615741
0.878014277792728
0.672522567214885
0.697510602629121
0.259437513383118
0.963233080715889
1.053355236067
0.78205746089239
0.464496780769968
0.739209586643333
0.565549216682442
0.188843252948006
0.767312846954562
0.132073198632916
1.05243218069742
0.647150925815389
0.76594834747789
0.865835394001166
0.37287753587875
0.291843518753007
0.73299354098505
0.454401069839966
0.627139419969053
0.443867145019077
0.392267639061349
0.554090025404362
0.587784022124364
0.410393983120134
0.430311697027304
0.294807330223067
0.685900724104969
0.717972198094961
0.546158787220734
1.07272699036659
0.623528071741337
1.04162725562781
0.824001373438697
0.586323867746115
0.147274852281889
0.994530637268316
1.07182207381217
0.957383959508608
0.193676630738292
0.260301881558073
0.427064792429659
0.368826879887068
0.450059944335331
0.386881741328593
0.42362678489717
0.977388537146874
0.624786654328561
0.50705941145757
0.706334837183507
0.550826835844221
0.84346158784797
0.67347089795567
0.767010174643608
0.789775073774357
0.483178018128517
1.03070301474175
0.178520505633828
0.400787802294023
0.308038897075742
0.716589228042489
0.148777741801526
0.266112084937096
0.101551607280479
0.624507821584246
0.0994616262691155
0.701846319180068
0.324701957903229
0.680604110395373
0.985484107076114
0.225924627519311
0.475522898398201
0.957859340668002
0.79106938389521
0.155598010015802
0.105856901867278
0.885089032865873
0.631428311717958
0.389091624257526
0.142073852616859
0.716148496859511
0.90888583245203
0.844771075835854
0.880012782398585
0.170958348560937
0.792812115863327
0.839346387034296
0.267359656166777
0.55890994153034
1.00455614151235
0.345340218815534
0.520770841888672
