0 -1.70948697566938 -0.433430514487847 0 0 0 0 0 0 0 0 0 0 0 0 0 0 0 0 0 0 -0.538736826858406 0 0 0 0 0 0 0 -3.30669178120533 -0.353719066458022 -2.27001414963719 -0.258293419973319 -0.623800840242812 -0.22810937586257 -2.33092224066862 -3.29066309148131 -4.04055431909694 0 0 0 0 0 0 0 0 0 0 0 0 0 0 0 0 0 0 0 0 0 0 0 0 0 0 -1.94734339146254 -0.433968918006121 -3.26426107389807 -0.602728293538996 -0.422034771536767 -0.991170821159546 -1.19381036738495 -1.06981163358816 0 0 0 0 0 0 0 0 0 0 0 0 0 0 0 0 0 0 0 0 0 0 0 -0.638144358434812 -3.55280095176281 -0.842227807481205 -1.01533892395635 -2.00041209661991 -0.456478906874136 -0.273502877110561 -0.144446541911609 -1.68909899618358 -0.126668844563786 -5.04640723383675 -2.78225267498451 -1.77669961545191 -3.04627192237502 -0.993021987532582 0 0 0 0 0 0 0 0 0 0 0 0 0 0 0 0 0 0 0 0 0 0 0 0 0 0 0 0 0 0 0 0 0
0.341149941649389 -0.293535924079216 -0.641872758175266 0 0 0 0 0 0 0 0 0 0 0 0 0 0 0 0 0 0 0 0 0 0 0 0 0 0 -0.202022645045714 -1.65344818231154 -0.473693856576725 -3.22174133691437 -0.73687833542192 -0.469292421781279 -3.43880258614797 -0.126052866020568 -0.936431113753883 0 0 0 0 0 0 0 0 0 0 0 0 0 0 0 0 0 0 0 0 0 0 0 0 0 0 -2.77224136640629 -2.31429633892596 -0.320915558716855 -0.507906655985049 -0.421761853069551 -3.40424601910997 -0.396087638841745 -2.06201286009218 0 0 0 0 0 0 0 0 0 0 0 0 0 0 0 0 0 0 0 0 0 0 0 -0.558977985913029 -0.577473573473092 -2.85218679556676 -1.95751684165067 -1.13054677463754 -0.200111618046356 -6.21170284789043 -4.2376774878082 -0.851700706282801 -1.45260144254925 -1.08366582698954 -4.8064682619438 -1.05956530456729 -1.30221849768521 -1.04395424522588 0 0 0 0 0 0 0 0 0 0 0 0 0 0 0 0 0 0 0 0 0 0 0 0 0 0 0 0 0 0 0.0492195468574414 0 0.198948040217869
0.0812099511575966 0.130406818103239 -0.220938291794924 0 0 0 0 0 0 0 0 0 0 0 0 0 0 0 0 0 0 -1.23734108441967 0 0 0 0 0 0 0 -0.654644430452197 0 0 0 0 0 0 0 0 0 0 -1.68647282871021 -5.74533879838254 -2.0533314644845 0 0 0 0 0 0 0 0 0 0 -2.51217961688855 -2.39269915835039 -8.97701908140076 -0.626618390084715 -0.55026050114235 -1.01061878487927 -3.748471908779 -0.501193236517373 -2.10135119432704 -1.48641641543634 0 -0.364025132834556 -0.922459894630004 -0.30533436995523 -1.86385827843023 -0.154143251186968 -0.574427956859102 -1.66443916229271 -0.543394723901539 0 0 0 0 0 0 0 0 0 0 0 0 0 0 0 0 0 0 0 0 0 0 0 -0.903568421056208 -2.1425961127899 -0.465478724177312 -1.65973563380669 -2.7796378999032 -3.56920552450535 -0.900337059290272 -1.63477716013741 -0.392553871221077 -1.13303338952172 -1.23433955418856 -0.302213978978469 -0.341226367743065 -0.348876704837256 -1.0647157744434 0 0 0 0 0 0 0 0 0 0 0 0 0 0 0 0 0 0 0 0 0 0 0 0 0 0 0 0 0 0.233265654330587 0 0.0463691668011699 0
0 0 0 0 -0.442667402035038 0 0 0 0 0 0 0 0 0 0 0 -1.15360243792908 -0.608340479949921 -1.54660525938974 -1.21965507663185 -0.694685851233431 0 0 0 0 0 0 0 0 0 0 0 0 0 0 0 0 0 0 0 0 0 0 0 0 0 0 0 0 0 0 0 0 0 0 0 0 0 0 0 0 0 0 0 0 0 0 0 0 0 0 0 0 0 0 0 0 0 0 0 0 0 0 0 0 0 0 0 0 0 0 0 0 0 0 0 0 0 0 0 0 0 0 0 0 0 0 0 0 0 0 0 -0.922708366143902 -1.80822217401325 -1.81723896904009 -0.91237765173893 -1.40062477767958 0 0 0 0 0 0 0 0 0 0 0 0 0 0 0 0 0 0 0 0 0 0 0 0 0.0873471284141161 0
0 0 0 0.0858792870883761 -0.0838159197093205 0 0 0 0 0 0 0 0 0 0 0 -0.793970014795828 -0.859649652978825 -1.43455370357142 -1.11640825199551 -0.50378271579122 0 0 0 0 0 0 0 0 0 0 0 0 0 0 0 0 0 0 0 0 0 0 0 0 0 0 0 0 0 0 0 0 0 0 0 0 0 0 0 0 0 0 0 0 0 0 0 0 0 0 0 0 0 0 0 0 0 0 0 0 0 0 0 0 0 0 0 0 0 0 0 0 0 0 0 0 0 0 0 0 0 0 0 0 0 0 0 0 0 0 0 -0.72477180495497 -1.37840815219718 -0.686979496529816 -0.751536444735274 -1.9863986836509 0 0 0 0 0 0 0 0 0 0 0 0 0 0 0 0 0 0 0 0 0 0 0 0 0.239300205627624 0.248748974993942
0 0 0 0 0 0 0 0 0 0 0 0 0 0 0 0 0 0 0 0 0 0 0 -3.07560107773741 -0.835314978672477 0 0 0 0 0 0 0 0 0 0 0 0 0 0 0 -5.5859839650274 -2.87114955151042 -0.398043538913757 0 0 -0.256141288211914 0 0 0 0 0 -0.0887537997412356 -5.26353687874666 -4.93274103256264 -0.102152577849712 -0.467484561752766 -0.402782886611284 -2.54921317750788 -1.09712592479639 -1.75304442705099 -0.53867216252442 -1.76373480973802 -0.654948034317064 -3.47554366165945 0 0 0 0 0 0 0 0 0 0 0 0 0 0 0 0 0 0 0 0 0 0 0 0 0 0 0 0 0 0 0 0 0 0 0 0 0 0 0 0 0 -3.26541043279068 -1.73571654513838 -0.531983393205095 -0.30773705367891 -3.00978120654036 0 0 0 0 0 0 0 0 0 0 0 0 0 0 0 0 0 0 0 0 0 0 0 0 0 0 0 0.0601009871780828 0.112824792441722 0 0.560398807889265 0 0.443303167911681
0 0 0 0 0 0 0 0 0 0 0 0 0 0 0 0 0 0 0 0 0 0 0 -0.759532036079372 -0.843272953794363 0 0 0 0 0 0 0 0 0 0 0 0 0 0 0 -0.439471448819115 -1.23966334347014 -1.55998189210318 0 0 -2.29357239930228 0 0 0 0 0 -0.147872327928639 -1.56146601837016 -0.131869875510023 -0.526818232241728 -2.07451387802992 -0.492075374755468 -0.095730841058598 -6.46638646757335 -1.45412768038383 -0.722041363526424 -1.83842266908545 -0.487362987063414 -4.94382558247671 0 0 0 0 0 0 0 0 0 0 0 0 0 0 0 0 0 0 0 0 0 0 0 0 0 0 0 0 0 0 0 0 0 0 0 0 0 0 0 0 0 -3.54760438212392 -0.637144897679484 -0.464317072607365 -2.69881539049228 -4.61154754623608 0 0 0 0 0 0 0 0 0 0 0 0 0 0 0 0 0 0 0 0 0 0 0 0 0 0 0 0.128697754364083 0.0632356191194408 0 0.0787292558910429 0 0.0474129306282819
0 0 0 0 0 0 0 0 0 0 0 0 0 0 0 0 0 0 0 0 0 0 0 -2.28143325799923 -2.05639260660615 0 0 0 0 0 0 0 0 0 0 0 0 0 0 0 -0.853525412153883 -1.55830924687034 -0.236228002712465 0 0 -1.34082234049502 0 0 0 0 0 -1.30939589350783 -0.358574854458833 -0.661633537368196 -0.154329556801945 -5.74150974302824 -2.32487100645784 -1.09815710838139 -2.08683090486861 -1.00605014254069 -0.514512577900862 -2.21464586655322 -2.17394179352767 -0.48188194059539 0 0 0 0 0 0 0 0 0 0 0 0 0 0 0 0 0 0 0 0 0 0 0 0 0 0 0 0 0 0 0 0 0 0 0 0 0 0 0 0 0 -0.309536774272591 -1.09592356054166 -0.491611459456342 -0.468398859133508 -3.6126003756526 0 0 0 0 0 0 0 0 0 0 0 0 0 0 0 0 0 0 0 0 0 0 0 0 0 0 0 0.198883207198077 1.73212159637092 0 0.139328470881126 0 0.0667740633870938
0 0 0 0 0 0 0 0 0 0 0 0 0 0 0 0 0 0 0 0 0 0 0 -0.538679226437315 -0.488347130515163 0 0 0 0 0 0 0 0 0 0 0 0 0 0 0 -0.685722672877421 -0.291240371351153 -0.182784273035057 0 0 -0.445611479419253 0 0 0 0 0 -0.334182918758143 -0.231186649120393 -2.45329998570465 -0.587535845782594 -1.20936253618523 -2.37103704645373 -1.76217180026664 -1.76343947135988 -0.537955909403719 -0.179443284858202 -0.564292551784602 -1.05578499555275 -1.43808464836967 0 0 0 0 0 0 0 0 0 0 0 0 0 0 0 0 0 0 0 0 0 0 0 0 0 0 0 0 0 0 0 0 0 0 0 0 0 0 0 0 0 -0.254145044648527 -0.400217289250979 -0.447963098358653 -0.76173611509011 -1.7569981572939 0 0 0 0 0 0 0 0 0 0 0 0 0 0 0 0 0 0 0 0 0 0 0 0 0 0 0 0.062862066184054 0.292001265693762 0 2.02333954020187 0 0.0679038789810066
0 0 0 0 0 0 0 0 0 0 0 0 0 0 0 0 0 0 0 0 0 0 0 -1.15946012245499 -0.552827130802332 0 0 0 0 0 0 0 0 0 0 0 0 0 0 0 -2.17559545667418 -0.271149649968081 -1.59724120697757 0 0 -0.279578261299346 0 0 0 0 0 -0.24704352582846 -0.461548527141667 -2.72037947665118 -3.07178717755953 -1.31908496961533 -0.171045794714085 -4.98790366731937 -0.836013633944365 -0.397270673373806 -1.31489864985448 -1.33852746693998 -2.04702738931501 -1.07661447297553 0 0 0 0 0 0 0 0 0 0 0 0 0 0 0 0 0 0 0 0 0 0 0 0 0 0 0 0 0 0 0 0 0 0 0 0 0 0 0 0 0 -1.1982197307255 -1.19564578869702 -2.29153941404696 -3.5548601714166 -0.55690058710562 0 0 0 0 0 0 0 0 0 0 0 0 0 0 0 0 0 0 0 0 0 0 0 0 0 0 0 0.157586681587666 0.406416052922479 0 0.271915461964719 0 0.0354039256060866
0 0 0 0 0 0 0 0 0 0 0 0 0 0 0 0 0 0 0 0 0 0 0 -0.241108840574474 -0.103396236250118 0 0 0 0 0 0 0 0 0 0 0 0 0 0 0 -1.73728298705696 -0.784691906128325 -0.223763180050457 0 0 -2.41839410284481 0 0 0 0 0 -3.69610211177476 -2.15355475054215 -0.700465115801106 -0.984843325630789 -1.38593334851652 -0.400922695631569 -2.00007563799438 -1.14323168390885 -4.10237704037235 -0.625522701654886 -0.797834497338376 -0.251517823295755 -0.687245450185174 0 0 0 0 0 0 0 0 0 0 0 0 0 0 0 0 0 0 0 0 0 0 0 0 0 0 0 0 0 0 0 0 0 0 0 0 0 0 0 0 0 -0.375540553916903 -0.256549378339947 -0.451838785926452 -0.416647401438213 -3.38130337090397 0 0 0 0 0 0 0 0 0 0 0 0 0 0 0 0 0 0 0 0 0 0 0 0 0 0 0 0.334281478030941 0.610785470349797 0 0.417466045813773 0 0.306200185467629
0 0 0 0 0 0 0 0 0 0 0 0 0 0 0 0 0 0 0 0 0 0 0 -2.31636220492558 -0.640099125961764 0 0 0 0 0 0 0 0 0 0 0 0 0 0 0 -6.18392612873167 -2.08010432446853 -2.82924077122059 0 0 -1.79377598230153 0 0 0 0 0 -0.870035056504525 -1.81974081808401 -0.161479454124822 -0.682943319517998 -3.15840801087812 -2.77925666505769 -0.595108369379775 -0.236422201269646 -1.42136346289516 -2.21133826498696 -1.17941044216793 -0.749429659576937 -2.03157568872743 0 0 0 0 0 0 0 0 0 0 0 0 0 0 0 0 0 0 0 0 0 0 0 0 0 0 0 0 0 0 0 0 0 0 0 0 0 0 0 0 0 -2.16825622732076 -1.1250688430275 -0.208437772417312 -0.311565965504471 -0.495394530964277 0 0 0 0 0 0 0 0 0 0 0 0 0 0 0 0 0 0 0 0 0 0 0 0 0 0 0 0.219097098273972 0.271697548706266 0 1.68872117243004 0 0.100124733925049
0 0 0 0 0 0 0 0 0 0 0 0 0 0 0 0 0 0 0 0 0 0 0 -0.461700301807044 -1.35819548127707 0 0 0 0 0 0 0 0 0 0 0 0 0 0 0 -0.276835157104097 -0.207965241442943 -4.1926160473664 0 0 -1.04352599837885 0 0 0 0 0 -3.13331619420034 -3.53434910573709 -0.689419185565249 -3.01796202744721 -0.61128327083979 -2.71683304221559 -1.9429052655857 -1.47076739571879 -1.28267979348091 -0.681813050275904 -0.671849222753311 -6.92795164525708 -0.85954904748656 0 0 0 0 0 0 0 0 0 0 0 0 0 0 0 0 0 0 0 0 0 0 0 0 0 0 0 0 0 0 0 0 0 0 0 0 0 0 0 0 0 -0.418633166402956 -0.528874322269391 -0.692292137197017 -0.104800071997893 -0.695300880759127 0 0 0 0 0 0 0 0 0 0 0 0 0 0 0 0 0 0 0 0 0 0 0 0 0 0 0 0.375186493422292 0.22785942737419 0 0.299554347572879 0 0.803831256979266
0 0 0 0 0 0 0 0 0 0 0 0 0 0 0 0 0 0 0 0 0 0 0 -1.62144562180314 -3.50906375334351 0 0 0 0 0 0 0 0 0 0 0 0 0 0 0 -1.06964691590862 -2.8280277972341 -4.67717228191855 0 0 -0.869523084504488 0 0 0 0 0 -0.799120987241001 -0.836807158465306 -0.301228531269066 -0.091523752613906 -0.74017963797468 -12.2537747435044 -1.90581713127536 -0.276448619919636 -3.61693790620641 -2.36143147977237 -0.74110930493871 -2.95330733334293 -7.62396317920759 0 0 0 0 0 0 0 0 0 0 0 0 0 0 0 0 0 0 0 0 0 0 0 0 0 0 0 0 0 0 0 0 0 0 0 0 0 0 0 0 0 -0.724909721013255 -6.25672291000212 -0.16572832597621 -1.28576277613419 -0.374266331710172 0 0 0 0 0 0 0 0 0 0 0 0 0 0 0 0 0 0 0 0 0 0 0 0 0 0 0 0.51482663466844 0.108170074109188 0 0.489221585734836 0 0.11919466734435
0 0 0 0 0 0 0 0 0 0 0 0 0 0 0 0 0 0 0 0 0 0 0 -0.486462920753398 -1.52627865435622 0 0 0 0 0 0 0 0 0 0 0 0 0 0 0 -1.22392468082889 -0.167972259664769 -0.795935527634421 0 0 -0.371823486059473 0 0 0 0 0 -1.39043088121604 -1.264311844375 -3.91383991984302 -0.580886265952284 -1.69870631928351 -11.6627375962616 -0.506359182929144 -0.322926143652332 -1.05172349516192 -1.52808248612666 -2.46086318275936 -1.19109969097012 -1.33178201781098 0 0 0 0 0 0 0 0 0 0 0 0 0 0 0 0 0 0 0 0 0 0 0 0 0 0 0 0 0 0 0 0 0 0 0 0 0 0 0 0 0 -5.23488532866532 -0.147402770336422 -2.09844802238084 -0.458746064542431 -0.596273516405299 0 0 0 0 0 0 0 0 0 0 0 0 0 0 0 0 0 0 0 0 0 0 0 0 0 0 0 0.44914120670629 0.273425093140707 0 0.320829055495693 0 0.0555640132266226
0 0 0 0 0 0 0 0 0 0 0 0 0 0 0 0 0 0 0 0 0 0 0 -4.42913869123886 -9.3051618880172 0 0 0 0 0 0 0 0 0 0 0 0 0 0 0 -7.54611674523456 -1.65245119320564 -1.58434436815469 0 0 -1.02074179193131 0 0 0 0 0 -0.303958855589079 -0.806501069511343 -0.0888022251893336 -2.90899657281065 -0.447145108921055 -0.141534251447988 -3.45298434903431 -1.04838531126615 -7.98154678147883 -0.352900150165113 -0.638011942232476 -0.238271471578117 -0.464635991943994 0 0 0 0 0 0 0 0 0 0 0 0 0 0 0 0 0 0 0 0 0 0 0 0 0 0 0 0 0 0 0 0 0 0 0 0 0 0 0 0 0 -0.694126617133456 -1.7768065294106 -3.4545710795871 -0.176102721373841 -0.0641170869864225 0 0 0 0 0 0 0 0 0 0 0 0 0 0 0 0 0 0 0 0 0 0 0 0 0 0 0 1.98759726809239 0.247796732925365 0 0.120353126996956 0 0.70328762740195
0 0 0 0.240695919679606 0.161086924005958 0 0 0 0 0 0 0 0 0 0 0 0 0 0 0 0 0 0 -2.89904337497092 -0.469882208031345 0 0 0 0 0 0 0 0 0 0 0 0 0 0 0 0 0 0 0 0 0 0 0 0 0 0 0 0 0 0 0 0 -2.71957082313727 -0.457776479875254 0 0 0 0 0 0 0 0 0 0 0 0 0 0 0 0 0 0 0 0 0 0 0 0 0 0 0 0 0 0 0 0 0 0 0 0 0 0 0 0 0 0 0 0 0 0 -3.04329655012433 -1.47352264811256 -2.52126937804832 -1.63583639908965 -1.37029672773035 0 0 0 0 0 0 0 0 0 0 0 0 0 0 0 0 0 0 0 0 0 0 0 0 0 0 -1.33806931494953 0 0 0 0 0.0408428279867695 0
0 0 0 0.125359742690122 0.164720009993207 0 0 0 0 0 0 0 0 0 0 0 0 0 0 0 0 0 0 -0.304549699734618 -1.82858349832129 0 0 0 0 0 0 0 0 0 0 0 0 0 0 0 0 0 0 0 0 0 0 0 0 0 0 0 0 0 0 0 0 -0.896084006471509 -0.626178690020474 0 0 0 0 0 0 0 0 0 0 0 0 0 0 0 0 0 0 0 0 0 0 0 0 0 0 0 0 0 0 0 0 0 0 0 0 0 0 0 0 0 0 0 0 0 0 -1.04296431202739 -0.37777296116066 -1.39297662150921 -0.113356081876437 -0.410232425547252 0 0 0 0 0 0 0 0 0 0 0 0 0 0 0 0 0 0 0 0 0 0 0 0 0 0 -1.08024929090579 0 0 0 0 0.12334208648384 0
0 0 0 0.274627075690099 0.285325025862924 0 0 0 0 0 0 0 0 0 0 0 0 0 0 0 0 0 0 -1.100106388667 -1.34316136929805 0 0 0 0 0 0 0 0 0 0 0 0 0 0 0 0 0 0 0 0 0 0 0 0 0 0 0 0 0 0 0 0 -0.403936395209907 -0.439056124246223 0 0 0 0 0 0 0 0 0 0 0 0 0 0 0 0 0 0 0 0 0 0 0 0 0 0 0 0 0 0 0 0 0 0 0 0 0 0 0 0 0 0 0 0 0 0 -0.457370391002532 -1.68709410016971 -1.18807187231578 -4.61777901887202 -0.351216497909443 0 0 0 0 0 0 0 0 0 0 0 0 0 0 0 0 0 0 0 0 0 0 0 0 0 0 -2.63503815859332 0 0 0 0 0.119609991005135 0
0 0 0 0.228568398736759 0.229105099480764 0 0 0 0 0 0 0 0 0 0 0 0 0 0 0 0 0 0 -9.21663884130367 -1.42049711777002 0 0 0 0 0 0 0 0 0 0 0 0 0 0 0 0 0 0 0 0 0 0 0 0 0 0 0 0 0 0 0 0 -1.61593444183621 -1.76635083775913 0 0 0 0 0 0 0 0 0 0 0 0 0 0 0 0 0 0 0 0 0 0 0 0 0 0 0 0 0 0 0 0 0 0 0 0 0 0 0 0 0 0 0 0 0 0 -2.52501157937423 -0.365386616677715 -5.57851441823372 -4.10218514625946 -1.75581638129048 0 0 0 0 0 0 0 0 0 0 0 0 0 0 0 0 0 0 0 0 0 0 0 0 0 0 -4.73051850398275 0 0 0 0 0.125656548927 0
0 0 0 0.133648874564929 0.103093462480256 0 0 0 0 0 0 0 0 0 0 0 0 0 0 0 0 0 0 -1.2446276031965 -0.537539410489207 0 0 0 0 0 0 0 0 0 0 0 0 0 0 0 0 0 0 0 0 0 0 0 0 0 0 0 0 0 0 0 0 -0.458642562147449 -1.30003235575562 0 0 0 0 0 0 0 0 0 0 0 0 0 0 0 0 0 0 0 0 0 0 0 0 0 0 0 0 0 0 0 0 0 0 0 0 0 0 0 0 0 0 0 0 0 0 -0.393562352130169 -10.5931908434849 -0.662389050735775 -0.785328106822785 -1.86597429118732 0 0 0 0 0 0 0 0 0 0 0 0 0 0 0 0 0 0 0 0 0 0 0 0 0 0 -1.9213309508931 0 0 0 0 0.0965468176325035 0
0.110473928749485 0 0.242272856677899 0 0 0 0 0 0 0 0 0 0 0 0 0 0 0 0 0 0 0 0 0 0 -0.528211409865186 0 0 0 0 0 0 0 0 0 0 0 0 0 0 0 0 0 -0.946922024131782 -1.2797563854624 0 0 0 0 0 0 0 0 0 0 0 0 0 0 0 0 0 0 -0.554559172668304 0 0 0 0 0 0 0 0 0 0 0 0 0 0 0 0 0 0 0 0 0 0 0 0 0 0 0 0 0 0 0 0 0 0 0 0 0 0 0 0 0 0 0 0 0 0 0 0 0 0 0 0 0 -7.01443974736172 -0.445666584841361 -0.42131613117197 0 0 0 0 0 0 0 -0.205707000844707 -0.861685579922154 -0.904119564667535 -0.943757697765335 -0.0428800604911857 -0.722622217971292 -1.73485611334614 0 0 0 0 0 0 0.338671915019166 0 0.166839808208054
0 0 0 0 0 0 0 0 0 0 0 0 0 0 0 0 0 0 0 0 0 0 0 0 0 0 0 0 0 0 0 0 0 0 0 0 0 0 0 0 0 0 0 0 0 0 0 0 0 0 0 0 0 0 0 0 0 0 0 0 0 0 0 0 0 0 0 0 0 0 0 0 0 0 0 0 0 0 0 0 0 0 0 0 0 0 0 0 0 0 0 0 0 0 0 0 0 0 0 0 0 0 0 0 0 0 0 0 0 0 0 0 0 0 0 0 0 0 0 0 0 0 0 0 0 0 0 0 0 0 0 0 0 0 0 0 0 0.116007199887081 0.201099444517559 0 0.13838787119536 0 0
0 0 0 0 0 0.617371483281522 0.150982572867734 0.512326962026462 0.115010070143458 0.232116752797098 0.0515207831232614 0.473633478003704 0.0971723262036699 0.3219726064202 0.0908511364045775 0.911621374460598 0.540265125289039 0.0630946092399072 0.202354397169737 1.69707332636942 0.264138634408343 0 0 0 0 -0.522009997201516 0.227976254342409 0.0981991992264643 0.0886681770064092 0 0.133187222519645 0.161316849559017 0.137476152931278 0.10421436739905 1.4377050508702 0.0877393305478433 0.950743379231109 0.190194385078636 0 0 -1.53029675491113 -0.182519012082273 -0.37629322143837 -2.95840389105402 -1.9156396313923 0 0 0 0 0 0 0 0 0 0 0 0 -0.328095074002373 -2.0469976019762 0 0 0 0 -2.34952649770814 0.0655826129690933 0.325985702086783 0.0441370323412826 0.39287177442585 0.252350390276143 0.183106533813586 0.139733978934562 0.275908629061817 0 0 0 0 0 0 0 0 0 0 0 0 0 0 0 0 0 0 0 0 0 0 0 0.255212649133616 0.41128808698679 0.327183861988998 1.0415115342278 0.109032767877025 0.0301384447397687 0.170464578225547 0.0944501492326917 0.317876212421533 0.154346144981393 0.054178227188759 0.255459844428311 0.14302182138912 0.0591961426674293 0.817929616735932 0 0 0 0 0 0 0 -0.753809595724972 -0.340484356037127 -2.97401245207938 0 0 0 0 0 0 0 0 0 0 -2.97349253554109 -0.14269262488939 -1.72741980990212 -2.31090427361994 0 0 0 0.374753253283977 0.292788402081625 0 0 0 0.352688031185993
0 0 0 0 0 0.169710658940024 0.178499498022185 0.406226936468666 0.0951139360095658 0.101552758735043 0.0198915682937155 0.129425567026251 0.284517581140578 0.640325610019986 0.297950830862791 1.78963344676717 0.0929250774194869 0.380904148098602 0.254742819337573 0.298168604017777 0.119357629480321 0 0 0 0 -1.09710494132941 0.51229884099938 0.317888970957206 0.0807165209876556 0 0.507950309186405 0.594307237089593 0.406472669181074 0.106855464815456 0.235894506554433 0.403171484820381 0.0820855676118837 0.649596351733405 0 0 -0.421803016513211 -0.709630921829286 -0.257005270500751 -0.322113426906887 -0.781851983082591 0 0 0 0 0 0 0 0 0 0 0 0 -3.3772035926884 -0.406811695423779 0 0 0 0 -0.554784554357059 1.26404568785031 0.281228662982453 0.204964792366624 0.362974840894148 0.0873366177929517 0.0529452256512366 0.338790987119297 0.428566077696609 0 0 0 0 0 0 0 0 0 0 0 0 0 0 0 0 0 0 0 0 0 0 0 0.0984810806309455 0.888017864370987 0.0801594176682223 0.363730281124586 0.141878698180652 0.12521433891988 0.124288808988249 0.633736954687233 0.394688958141552 0.666050765775683 0.0884674094895848 0.0609093496700607 0.0358007105814338 0.972863448616302 0.520460430620507 0 0 0 0 0 0 0 -4.25599801539475 -6.77667609707374 -0.637521435481353 0 0 0 0 0 0 0 0 0 0 -0.137961120412882 -0.0905469444787776 -0.395764184314328 -0.50691775454195 0 0 0 1.64400715310605 0.960350121813032 0 0 0 0.293272414436252
0 0 0 0 0 0 0 0 0 0 0 0 0 0 0 0 0 0 0 0 0 0.112161157046904 0 0.1089768368083 0.216307803079731 0 0 0 0 0 0 0 0 0 0 0 0 0 0.0215915371676419 0.320734028650564 0.316199765764252 0.105096902893082 0 0 0 0 0 0 0 0 0 0 0 0 0 0 0 0 0 0 0 0 0 0 0 0 0 0 0 0 0 0 0 0 0 0 0 0 0 0 0 0 0 0 0 0 0 0 0 0 0 0 0 0 0 0 0 0 0 0 0 0 0 0 0 0 0 0 0 0 0 0 0 0 0 0 0 0 0 0 0 0 0 0 0 0 0 0 0 0 -0.274966798585904 -0.284190293273271 -0.582210635814809 -2.15384653230713 0 0 0 0.353265233061934 0 0 0 0 0
0 0 0 0 0 0 0 0 0 0 0 0 0 0 0 0 0 0 0 0 0 0 0 -1.27933132650931 -2.50217818229964 0 0 0 0 0 0 0 0 0 0 0 0 0 0 0 0 0 0 0 0 0 0 0 -0.22204293783654 -0.551961253148522 -1.14073854041179 0 0 0 0 0 0 -0.998033821057465 -1.32947662035811 0 0 -0.823453849051702 -0.773400946091638 0 0 0 0 0 0 0 0 0 0 0 0 0 0 0 0 0 0 0 0 0 0 0 0 0 0 0 0 0 0 0 0 0 0 0 0 0 0 0 0 0 0 0 0 0 0 0 0 0 0 0 0 0 0 0 0 0 0 0 0 0 0 0 0 0 0 0 0 0 0 0 0 0 0 0.599439524582142 0.590247846612912 0 0 0 0
0 0 0 0 0 0 0 0 0 0 0 0 0 0 0 0 0 0 0 0 0 0 0 -0.534558640981746 -1.50567635340055 0 0 0 0 0 0 0 0 0 0 0 0 0 0 0 0 0 0 0 0 0 0 0 -0.82501369462951 -3.40623706865452 -5.57471964362241 0 0 0 0 0 0 -2.83016776386993 -1.7527546039663 0 0 -1.27483016767015 -0.487790533320732 0 0 0 0 0 0 0 0 0 0 0 0 0 0 0 0 0 0 0 0 0 0 0 0 0 0 0 0 0 0 0 0 0 0 0 0 0 0 0 0 0 0 0 0 0 0 0 0 0 0 0 0 0 0 0 0 0 0 0 0 0 0 0 0 0 0 0 0 0 0 0 0 0 0 0.484366464138142 0.213561593454441 0 0 0 0
0 0 0 0 0 0 0 0 0 0 0 0 0 0 0 0 0 0 0 0 0 0 0 -0.419778681703215 -0.410723161984128 0 0 0 0 0 0 0 0 0 0 0 0 0 0 0 0 0 0 0 0 0 0 0 -0.654575591511342 -0.864329321049138 -0.983273223370104 0 0 0 0 0 0 -0.987971057110206 -0.652858357656561 0 0 -0.805229432809063 -0.439523575497802 0 0 0 0 0 0 0 0 0 0 0 0 0 0 0 0 0 0 0 0 0 0 0 0 0 0 0 0 0 0 0 0 0 0 0 0 0 0 0 0 0 0 0 0 0 0 0 0 0 0 0 0 0 0 0 0 0 0 0 0 0 0 0 0 0 0 0 0 0 0 0 0 0 0 0.396689617349687 0.272628379844661 0 0 0 0
0.657057006213202 0.0404107393600933 0.132005580415492 0 0 0 0 0 0 0 0 0 0 0 0 0 0 0 0 0 0 0 0 0 0 0 0 0 0 0 0 0 0 0 0 0 0 0 0 0 0 0 0 0 0 0 0 0 0 0 0 -0.359502339191101 -0.496902924420658 0 0 0 0 0 0 0 0 0 0 0 0 0 0 0 0 0 0 0 0 0 0 0 0 0 0 0 0 0 0 0 0 0 0 0 0 0 0 0 0 0 0 0 0 0 0 0 0 0 0 0 0 0 0 0 0 0 0 0 0 0 0 0 0 0 0 0 0 0 0 0 0 0 0 0 0 0 0 0 0 0 0 0 0 0 0 0 0.399088677721607 0 0.945911630105154
0.0722609206354863 0.34240467705245 0 0 0 0 0 0 0 0 0 0 0 0 0 0 0 0 0 0 0 0 0 -0.666522409620717 -2.84874609390186 0 0 0 0 0 0 0 0 0 0 0 0 0 0 0 -1.89710754105813 -0.0774460301167496 -1.46867112262808 0 0 -1.94587771771799 0 0 -0.268952652590973 -0.665945570166811 -2.06520646608132 -0.17003929591895 -0.575965056815573 -0.856991076989034 -10.4206539471658 -1.61802624988076 -1.12303620371532 -0.600933470649763 -3.19314675497614 -0.670852962317443 -1.25882468041116 -0.205027302355758 -1.42199335608034 -0.578538722770402 0 0 0 0 0 0 0 0 0 0 0 0 0 0 0 0 0 0 0 0 0 0 0 0 0 0 0 0 0 0 0 0 0 0 0 0 0 0 0 0 0 -0.644201272221397 -0.693909008659012 -0.79566748837087 -1.5622821091948 -0.117723311669273 0 0 0 0 0 0 0 0 0 0 0 0 0 0 0 0 0 0 0 0 0 0 0 0 0 0 0 0 0 0 0.0239330924367547 0 0.697278003014651
0.460366796358132 0.0929980021870271 0 0 0 0 0 0 0 0 0 0 0 0 0 0 0 0 0 0 0 0 0 -0.860526045997968 -2.85616754470134 0 0 0 0 0 0 0 0 0 0 0 0 0 0 0 -0.175816861145648 -0.910000498044215 -3.04470788344789 0 0 -2.73437374355239 0 0 -0.798395034207192 -1.11102700516078 -0.594107377258478 -3.26331476638377 -2.18195711533679 -1.04618121925763 -3.75428340485683 -0.691817873398829 -0.165938576165131 -0.640187496787713 -1.37081262047282 -0.289674216701137 -0.802237443254547 -0.470178445893429 -6.25255745249701 -1.57177303765928 0 0 0 0 0 0 0 0 0 0 0 0 0 0 0 0 0 0 0 0 0 0 0 0 0 0 0 0 0 0 0 0 0 0 0 0 0 0 0 0 0 -0.0491296247656019 -0.114507447668673 -0.296569072059665 -0.385570158590461 -0.13315123456067 0 0 0 0 0 0 0 0 0 0 0 0 0 0 0 0 0 0 0 0 0 0 0 0 0 0 0 0 0 0 0.767671441676865 0 0.00846553151384545
0.0587247718088109 0.648948332584293 0 0 0 0 0 0 0 0 0 0 0 0 0 0 0 0 0 0 0 0 0 -0.668811134751693 -2.08212277600687 0 0 0 0 0 0 0 0 0 0 0 0 0 0 0 -4.64731095811096 -0.441377046601907 -0.346324060864399 0 0 -1.55653742717084 0 0 -1.00568161673179 -1.69007931506914 -0.727220381846309 -0.530452404388804 -8.5389220429032 -1.45680590782295 -2.42823117447553 -1.29059060932988 -0.754907506431966 -0.504158831896523 -0.429833525133823 -0.724751784540061 -0.580787030165985 -5.24897473894605 -3.7926868633517 -1.52137457745599 0 0 0 0 0 0 0 0 0 0 0 0 0 0 0 0 0 0 0 0 0 0 0 0 0 0 0 0 0 0 0 0 0 0 0 0 0 0 0 0 0 -8.71888115624084 -1.23049453897678 -1.77420869478818 -2.74671743288488 -0.205939546657077 0 0 0 0 0 0 0 0 0 0 0 0 0 0 0 0 0 0 0 0 0 0 0 0 0 0 0 0 0 0 0.121755973246964 0 0.414119767653978
0.130280521493078 0.151738609890326 0 0 0 0 0 0 0 0 0 0 0 0 0 0 0 0 0 0 0 0 0 -0.56501789755878 -0.589988355384247 0 0 0 0 0 0 0 0 0 0 0 0 0 0 0 -0.348998878506952 -3.77154638357852 -0.278980663773206 0 0 -0.66464300419418 0 0 -2.61125221689075 -0.426585762866522 -0.955306314635319 -1.12903507556777 -1.16272183088154 -0.724966398223853 -0.171624541840931 -0.912711522755359 -10.3028492417792 -0.342925227153519 -0.543204674441752 -1.02313326637498 -2.30888428041929 -1.74235112585475 -0.363109897694335 -0.144645762275797 0 0 0 0 0 0 0 0 0 0 0 0 0 0 0 0 0 0 0 0 0 0 0 0 0 0 0 0 0 0 0 0 0 0 0 0 0 0 0 0 0 -0.70034856687245 -4.21197256768635 -0.298634215375768 -1.52617794523699 -1.6886744797688 0 0 0 0 0 0 0 0 0 0 0 0 0 0 0 0 0 0 0 0 0 0 0 0 0 0 0 0 0 0 0.146448957896922 0 0.0485295036538043
0.0447455745183276 0.0853400559380689 0 0 0 0 0 0 0 0 0 0 0 0 0 0 0 0 0 0 0 0 0 -6.74035213266383 -1.21922344770828 0 0 0 0 0 0 0 0 0 0 0 0 0 0 0 -0.66415412264747 -0.501085080172863 -1.27309378317723 0 0 -2.83117244129393 0 0 -0.472614273709471 -1.19215658840668 -6.49533308046285 -1.13687590042114 -0.396421527298493 -1.0090332240529 -1.06038631990933 -7.76523944045826 -0.834884279403135 -0.3934906438157 -0.430246169448972 -0.107379000755623 -0.611623446641087 -2.67205203550107 -1.22166111712174 -0.544887217774486 0 0 0 0 0 0 0 0 0 0 0 0 0 0 0 0 0 0 0 0 0 0 0 0 0 0 0 0 0 0 0 0 0 0 0 0 0 0 0 0 0 -3.50430130942824 -0.386562797607343 -0.12613144116013 -2.63014382020068 -0.527826072728857 0 0 0 0 0 0 0 0 0 0 0 0 0 0 0 0 0 0 0 0 0 0 0 0 0 0 0 0 0 0 0.116622472286316 0 0.199107610409726
0.463774419320205 0.703057900104047 0 0 0 0 0 0 0 0 0 0 0 0 0 0 0 0 0 0 0 0 0 -0.422904897583702 -1.8532952093347 0 0 0 0 0 0 0 0 0 0 0 0 0 0 0 -9.18968050849876 -2.03167611557728 -0.692668264000351 0 0 -1.14115288427336 0 0 -0.428618521614264 -0.427711902473038 -0.83001919635997 -0.985979446565399 -0.373208825613031 -2.45963078446265 -4.6672385543155 -3.61851573555724 -1.71417865812957 -1.19669407664907 -3.18956440999648 -1.30758265883592 -0.509951625575476 -0.0791455343607528 -1.48512517451666 -3.84368060125322 0 0 0 0 0 0 0 0 0 0 0 0 0 0 0 0 0 0 0 0 0 0 0 0 0 0 0 0 0 0 0 0 0 0 0 0 0 0 0 0 0 -1.06475451049881 -0.617517818762729 -1.19577164591177 -0.829030365226169 -0.876261037232737 0 0 0 0 0 0 0 0 0 0 0 0 0 0 0 0 0 0 0 0 0 0 0 0 0 0 0 0 0 0 0.249244263579266 0 0.180218537287982
0.681252209008354 0.0244643933982187 0 0 0 0 0 0 0 0 0 0 0 0 0 0 0 0 0 0 0 0 0 -4.96198397547509 -0.400346664420862 0 0 0 0 0 0 0 0 0 0 0 0 0 0 0 -0.333135451631457 -4.08469260031363 -0.457401418952735 0 0 -0.142015237455294 0 0 -0.771743876273284 -1.29122586487263 -2.24685982865004 -2.27101349331119 -0.246010731920626 -0.401449747481255 -0.789873719246242 -1.19728734352661 -0.541719809918117 -2.23214636414933 -1.38692064940578 -0.359799487115131 -2.75074709571646 -1.02556526145186 -0.563870843907968 -1.26619861240894 0 0 0 0 0 0 0 0 0 0 0 0 0 0 0 0 0 0 0 0 0 0 0 0 0 0 0 0 0 0 0 0 0 0 0 0 0 0 0 0 0 -2.25140149413009 -0.623470442510731 -0.543653310394024 -5.45627504620693 -0.933700492858591 0 0 0 0 0 0 0 0 0 0 0 0 0 0 0 0 0 0 0 0 0 0 0 0 0 0 0 0 0 0 0.176497115416907 0 0.0866019983668292
0.78316338483538 0.187901579326292 0 0 0 0 0 0 0 0 0 0 0 0 0 0 0 0 0 0 0 0 0 -0.904559526182891 -3.39435913290202 0 0 0 0 0 0 0 0 0 0 0 0 0 0 0 -0.195949848754903 -0.983001253227649 -1.48355401046427 0 0 -1.1696941501759 0 0 -1.20620086724098 -0.390474170017946 -0.383224188669719 -1.95985196296572 -0.542760155777324 -1.13314557405574 -1.56671618210961 -1.56712295845458 -0.552845501634477 -1.07633521503098 -0.429330821736318 -0.395758628039412 -0.592052363518155 -2.83184325974552 -2.85201285951218 -1.35619176280053 0 0 0 0 0 0 0 0 0 0 0 0 0 0 0 0 0 0 0 0 0 0 0 0 0 0 0 0 0 0 0 0 0 0 0 0 0 0 0 0 0 -0.110981697393757 -2.36666708198681 -0.20709359781796 -0.538260664778353 -3.31607786414428 0 0 0 0 0 0 0 0 0 0 0 0 0 0 0 0 0 0 0 0 0 0 0 0 0 0 0 0 0 0 0.671541037305691 0 0.872888432226238
0 0 0 0 0 0 0 0 0 0 0 0 0 0 0 0 0 0 0 0 0 0 0 0 0 -0.102610412119348 0 0 0 0 0 0 0 0 0 0 0 0 0 0 -1.97826259053477 -0.239850155638379 -1.24682346535178 0 0 0 0 0 -3.01262949754657 -1.53617250204577 -0.548226293390451 -0.411899412774169 -0.919388446955355 0 0 0 0 0 0 0 0 -1.25909478117403 -0.514334408320105 0 0 0 0 0 0 0 0 0 0 0 0 0 0 0 0 0 0 0 0 0 0 0 0 0 0 0 0 0 0 0 0 0 0 0 0 0 0 0 0 0 0 0 0 0 0 0 0 0 0 0 0 0 0 0 0 0 0 0 0 0 0 0 0 0 0 0 0 0 0 0 0 0 0 0.439677587737715 0.045948441026821 0 0 0 0
0 0 0 0 0 0 0 0 0 0 0 0 0 0 0 0 0 0 0 0 0 0 0 0 0 -1.72131218890095 0 0 0 0 0 0 0 0 0 0 0 0 0 0 -1.42914115586344 -0.186501970426752 -1.46485399594396 0 0 0 0 0 -0.504485604979652 -1.45709764200752 -2.44727875779941 -1.15050364049145 -0.790723149971923 0 0 0 0 0 0 0 0 -0.116350454313743 -0.355201543707733 0 0 0 0 0 0 0 0 0 0 0 0 0 0 0 0 0 0 0 0 0 0 0 0 0 0 0 0 0 0 0 0 0 0 0 0 0 0 0 0 0 0 0 0 0 0 0 0 0 0 0 0 0 0 0 0 0 0 0 0 0 0 0 0 0 0 0 0 0 0 0 0 0 0 0.370972211197512 0.190118958085667 0 0 0 0
0 0 0.353138440213988 0 0 1.13831380284166 0.0818623576350288 0.172730698916784 0.129657511516537 0.426345463540299 0.355112527369283 1.17927575167239 0.0517247903087462 0.220780463694044 0.237180920158697 1.5137414320335 0 0 0 0 0 0 0 0.292567255928111 0.0926229543020442 -1.65097331759561 0 0 0 0 0.363563795610048 0.0320747865976568 1.01543248335894 0.0733811852250276 0.139621785785491 1.83139111643487 0.0687893598700868 0.0364513023143606 0.409306052063696 0.261222310686899 0 0 0 0 0 0 0 0 -0.165623315894549 -4.30656057111678 -2.01061680011096 -0.735111563289363 -0.61076481783634 0 0 0 0 0 0 0 -0.388757123106282 -0.0683594803437457 -2.7125979026881 0 0.0798768612104173 0.916334516399081 0.27857869300443 0.105177284635599 0.0947462780824262 0.0951566068492214 0.056481934670956 1.46603581021016 0 0 0 0 0 0 0 0 0 0 0 0 0 0 0 0 0 0 0 0 0 0 0 0.355767281322836 0.350267150349482 0.0109867109372503 0.031723733772122 0.0885821978957193 0.103724631954139 0.149637806698441 0.258345774895296 0.221132735619059 0.138876814896756 0.0730316361170185 0.217397589595278 0.127066582494105 1.11975058423622 0.108647939809655 0.223812952740516 0.0215031200116838 0 0 0 0 0 0 0 0 0 0 0 0 0 0 0 -1.079876425561 -0.301731927236365 -3.83630409979888 -4.45450505874912 -6.69809792978551 -0.122570259024928 -0.9913329830379 0 0 0 1.10293331459284 0.275867202680806 0 0 0 0.0542861744086024
0 0 1.25848066596128 0 0 0.574029232223631 0.231459959411032 0.302855907873304 0.0582150810642276 0.0516767925574983 0.155847553953715 0.437135206004526 0.0390893777678779 0.572068199587972 0.0333746413384323 0.330180431245253 0 0 0 0 0 0 0 0.0397372511318118 0.132605728725266 -0.47085561939772 0 0 0 0 0.0158652778448873 0.189560091007943 0.0882077038925459 0.795540085938623 0.0965078675637396 0.417303058319758 0.827812848728544 0.191393284088167 0.0488881755132173 0.0355857518874046 0 0 0 0 0 0 0 0 -0.741695300819709 -0.321166146873314 -1.93436619973061 -0.409586570824562 -0.271229591007334 0 0 0 0 0 0 0 -1.12294093705893 -4.19538176602631 -3.28617191152619 0 1.08308024848184 0.1459999808762 0.0428627264240198 0.288471683919206 0.206118800108654 0.104510373351779 0.243452132868351 0.147016829389057 0 0 0 0 0 0 0 0 0 0 0 0 0 0 0 0 0 0 0 0 0 0 0 0.374121231645082 0.0650013216420255 0.181820584037191 0.197101779566758 0.0642568783268617 0.0590219499801501 0.374278026784841 0.142248676507575 0.804606670488703 0.387703462714544 0.12614678059826 0.137432579351368 0.0761314492623658 1.66434155320106 0.0622108381958849 0.214764034143027 0.239732279435189 0 0 0 0 0 0 0 0 0 0 0 0 0 0 0 -1.03432388352212 -1.38444927252031 -0.695327130856884 -1.52769333915691 -1.6566663337103 -0.0967042591280063 -1.01071014211286 0 0 0 0.0164154809934318 1.15570206595317 0 0 0 0.0679312317524852
0 0 0.418662178510887 0 0 0.0779071969006358 0.304322352329601 0.0448788505607414 0.0414700701697891 0.314887743633249 0.0468258091616076 0.563567996255293 0.894166496405036 0.937322665194513 0.174277099136762 0.302564142727731 0 0 0 0 0 0 0 0.0756220722204315 0.053174019676323 0 0 0 0 0 0.311778068659427 0.571359152628406 0.0667796691942377 0.05582867657018 0.256698027714782 0.148868192446898 0.0859789456206484 0.310806666099697 0.282645003917155 0.292084210769535 0 0 0 0 0 0 0 0 -3.43862452455446 -0.193527567917929 -3.9425949835113 -2.44027340720375 -0.340251771614423 0 0 0 0 0 0 0 -0.211188395794617 -0.451269231450966 -2.07762424177371 0 0.0617657442143335 0.249252477630248 0.334697172796358 0.0648086651631869 0.020211705846607 0.0203849284658659 1.0201751031089 0.255809368083775 0 0 0 0 0 0 0 0 0 0 0 0 0 0 0 0 0 0 0 0 0 0 0 0.415977939271248 0.180700323097269 0.132613259155889 0.525292813294727 0.0370483927698304 0.0316360999657832 0.259015375195232 0.346677914449474 0.179867871084566 0.125726067390773 0.194954576395615 0.196830694764771 0.461547238975793 1.86927038982164 0.661755668326389 0.166757762081428 0.270548125622635 0 0 0 0 0 0 0 0 0 0 0 0 0 0 0 -1.16482985841527 -0.408083068008193 -0.548949463222288 -2.99352698066244 -3.67244413249921 -2.32258905543454 -3.66623588753663 0 0 0 1.22751098790208 0.315789705905 0 0 0 0.0219510871280293
0 0 0 0 0 0 0 0 0 0 0 0 0 0 0 0 0 0 0 0 0 0.2007978156781 0 0.549964303115243 0.0634445377453649 0 0 0 0 0 0 0 0 0 0 0 0 0 0 0 0 0 0 0 0 0 0 0 0 0 0 0 0 0 0 0 0 0 0 0 0.392026476715185 0 0 0 0 0 0 0 0 0 0 0 0 0 0 0 0 0 0 0 0 0 0 0 0 0 0 0 0 0 0 0 0 0 0 0.0699648886282999 0.292028189674461 0.0774205801556113 0.56697478850464 0.223648902403174 0.465000166496681 0.223163773795741 0.0590560989347279 0.076186624441249 0.089034363749993 0 0 0 0 0 0 0 0 0 0 0 0 0 0 0 0 0 0 0 0 0 0 0 0 0 0 0 0 0 -3.27905100489312 -6.0725379180976 0 0.662375268294413 0 0 0 0 0
0 0 0 0 0 0 0 0 0 0 0 0 0 0 0 0 0 0 0 0 0 0.245248243158018 0 0.395746238567596 0.154471025816215 0 0 0 0 0 0 0 0 0 0 0 0 0 0 0 0 0 0 0 0 0 0 0 0 0 0 0 0 0 0 0 0 0 0 0 0.408021762303577 0 0 0 0 0 0 0 0 0 0 0 0 0 0 0 0 0 0 0 0 0 0 0 0 0 0 0 0 0 0 0 0 0 0 0.410175974629465 0.232569210144236 0.26086402156645 0.0361527692678156 0.726370060332838 0.13313235437281 1.07306044220568 0.207421539474812 0.105381199327819 0.41372059486719 0 0 0 0 0 0 0 0 0 0 0 0 0 0 0 0 0 0 0 0 0 0 0 0 0 0 0 0 0 -2.08880532590356 -0.689967975672912 0 0.113110241671413 0 0 0 0 0
0 0 0 0 0 0.0469842424270404 0.419660613379453 0.278024930952459 0.0860508916972337 0.0573203205625903 0.492991353904827 0.359925614080567 0.209302821699562 0.161532413975022 0.0783515148983561 0.203697403753618 0 0 0 0 0 0 0 0 0 0 0 0 0 0 0.42634912220507 0.529429545499557 0.345288214577815 0.131275946869525 0.572269415715099 0.230161579765836 0.0283906699376684 0.251654941010847 0 0 0 0 0 0 0 0 0 0 0 0 0 0 0 0 0 0 0 0 0 0 0 0 0 0 0 0 0 0 0 0 0 0 0 0 0 0 0 0 0 0 0 0 0 0 0 0 0 0 0 0 0 0 0 0 0 0 0 0 0 0 0 0 0 0 0 0 0 0 0 0 0 0 0 0 0 0 0 0 0 0 0 0 0 0 0 0 0 0 0 0 0 0 0 0 0 0 0 0 0 0 0 0 0
0 0 0 0 0 0 0 0 0 0 0 0 0 0 0 0 0 0 0 0 0 0 0 0 0 0 0 0 0 0 0 0 0 0 0 0 0 0 0 0 0 0 0 0 0 0 0 0 0 0 0 0 0 0 0 0 0 0 0 0.200800737342625 0.0194178382722086 0 0 0 0 0 0 0 0 0 0 0 0 0 0 0 0 0 0 0 0 0 0 0 0 0 0 0 0 0 0 0 0 0 0 0 0 0 0 0 0 0 0 0 0 0 0 0 0 0 0 0 0 0 0 0 0 0 0 0 -0.657616633406884 -0.552973811751654 -1.23358927694192 -0.321243807736346 -1.96477478833552 -1.2747892491607 -1.31315713475069 0 0 0 0 0 0 0 -1.38841273338395 -0.611602619088826 0 0 0 0 0 0 0
0 0 0 0 0 0 0 0 0 0 0 0 0 0 0 0 0 0 0 0 0 0 0 0 0 0 0 0 0 0 0 0 0 0 0 0 0 0 0 0 0 0 0 0 0 0 0 0 0 0 0 0 0 0 0 0 0 0 0 0.0554188486171983 0.23483782246113 0 0 0 0 0 0 0 0 0 0 0 0 0 0 0 0 0 0 0 0 0 0 0 0 0 0 0 0 0 0 0 0 0 0 0 0 0 0 0 0 0 0 0 0 0 0 0 0 0 0 0 0 0 0 0 0 0 0 0 -0.472275520263766 -1.67154305326023 -1.91704741173581 -1.6254444970636 -0.584785700573081 -1.93455790308588 -0.748037793042468 0 0 0 0 0 0 0 -0.592887004961701 -0.478364953697689 0 0 0 0 0 0 0
0 0 0 0 0 0 0 0 0 0 0 0 0 0 0 0 0 0 0 0 0 0 0 0 0 0 0.0434887754815766 0.172939587204134 0.122834205643652 0 0.0502428697607191 0.173361711157771 0.183914790134928 0.523620615279643 0.0983659965461424 0.0890189124628442 0.16051860332207 0.268354054178235 0.652970322091929 0.102116588880048 0.0316151782758536 0.15332670718184 0.748761006752697 0 0 0 0 0 0 0 0 0 0 0 0 0 0 0 0 0 0.0927970653270598 0 0 -1.31591269384446 0 0 0 0 0 0 0 0 0 0 0 0 0 0 0 0 0 0 0 0 0 0 0 0 0 0 0 0 0 0 0 0 0 0 0 0 0 0 0 0 0 0 0 0 0 0 0 0 0.64258869060299 0.176593303996206 1.33795870475934 0.64220082803582 0.165268844331874 0 0 0 0 0 0 0 0 0 0 -0.277578846235895 -1.00921418683303 -1.00363941712849 0 0 0 0 0 0 0 0 0 0 0 0 0
0 0 0 0 0 0 0 0 0 0 0 0 0 0 0 0 0 0 0 0 0 0 0 0 0 0 0.109967058747707 0.674382666558099 0.174878171362413 0 0.124796106262652 0.229303975041673 0.333802408663421 0.08826253375849 0.228993839552368 0.089571636908841 0.270499414051458 0.0826622271709638 0.327390272668661 0.292760227103277 0.894315441994669 0.0675350772068247 0.0413375162230852 0 0 0 0 0 0 0 0 0 0 0 0 0 0 0 0 0 0.41666072483166 0 0 -0.949915977364499 0 0 0 0 0 0 0 0 0 0 0 0 0 0 0 0 0 0 0 0 0 0 0 0 0 0 0 0 0 0 0 0 0 0 0 0 0 0 0 0 0 0 0 0 0 0 0 0 0.149368893807586 0.489658402225962 0.0815070484697302 0.852315313108233 0.0751601077312083 0 0 0 0 0 0 0 0 0 0 -0.3932426042559 -0.188419344309123 -1.54354883366208 0 0 0 0 0 0 0 0 0 0 0 0 0
0 0 0 0 0 0 0 0 0 0 0 0 0 0 0 0 0 0 0 0 0 0 0 0 0 0 0.226352100967624 1.12908636734807 0.201502387558556 0 0.409977191995267 0.124663698744998 0.13620067514341 0.204823486861904 1.34403059131122 0.157351378138825 0.42833964833914 0.0793813189944871 0.105802682878135 0.484316744521912 0.396663735735149 0.363734340925313 0.738150000357858 0 0 0 0 0 0 0 0 0 0 0 0 0 0 0 0 0 0.053693767838189 0 0 -1.24636483754116 0 0 0 0 0 0 0 0 0 0 0 0 0 0 0 0 0 0 0 0 0 0 0 0 0 0 0 0 0 0 0 0 0 0 0 0 0 0 0 0 0 0 0 0 0 0 0 0 0.077043087690925 0.151923417178851 0.418814552296266 0.530346633719092 0.302289564274986 0 0 0 0 0 0 0 0 0 0 -0.651696060008166 -0.141133339773581 -3.06921498028935 0 0 0 0 0 0 0 0 0 0 0 0 0
0 0 0 0 0 0.0186011548050296 0.031065834763325 0.249699055510125 0.0637292538212873 0.0496124072947015 0.72193846586922 0.163645763169933 0.630367704203074 0.168011218376296 0.28323472474298 0.0619108293705751 0 0 0 0 0 0 0 0 0 0 0 0 0 0.0673509533809131 0.0339690984433856 0.662145553580287 0.108734372721546 0.219717010887344 0.221082032985624 0.189891507470216 0.470520789017803 0.399759372360673 0.0843367357430936 0.226447001976639 0.148428215452192 0.0764828738012826 0.510097223731142 0 0 0 0 0 0 0 0 0 0 0 0 0 0 0 0 0 0.175791178568345 0 0 0 0 0 0 0 0 0 0 0 0 0 0 0 0 0 0 0 0 0 0 0 0 0 0 0 0 0 0 0 0 0 0 0.263682128506892 0.272198201799218 0.179767421130713 0.22325089031346 0.0738699909446719 0.172856719603808 0.107193354673855 0.146757015483159 1.1261057128 0.128759335292676 0.206513461179843 0.437363531425124 0.445178106694553 2.29059482599492 0.139945448259611 0.119428238267043 0.232626865056591 0 0 0 0 0 0 0 0 0 0 0 0 0 0 0 -1.04028049804398 -0.491647393088616 -2.31988087194335 -0.748047603640451 -7.28065069481411 -4.46740957082561 -0.744033746788473 0 0 0 0 0 0 0 0.544122330714285 0
0 0 0 0 0 1.01140994836994 0.33176883562896 0.0765838859399667 0.0481387777455596 0.088347685804275 0.455760439320672 0.396029376576698 0.771135122141591 0.165134732884996 0.247669731779908 0.167609075764361 0 0 0 0 0 0 0 0 0 0 0 0 0 0.0947765821194727 0.118109429098137 0.430684776657842 1.6668879759469 0.236541637627336 0.0737217926533156 0.0705553730180865 0.043593843330147 0.0965463881696045 0.194068875694333 0.162759177270078 0.125020756698043 0.0558364231765678 0.0689585425988428 0 0 0 0 0 0 0 0 0 0 0 0 0 0 0 0 0 0.2137160859344 0 0 0 0 0 0 0 0 0 0 0 0 0 0 0 0 0 0 0 0 0 0 0 0 0 0 0 0 0 0 0 0 0 0 0.641159835697328 0.0312057029745727 0.4064369006262 0.436883992612995 0.0844123586671896 0.414617172980447 0.0429240834592361 0.0258409081753416 0.252667274037061 0.819868686989828 0.649380116780495 0.048288338595911 0.132539943428677 0.139779041107087 0.499043297041004 0.0876267182791671 0.318755527693897 0 0 0 0 0 0 0 0 0 0 0 0 0 0 0 -0.558863781561788 -1.14067418076732 -0.0859969380196023 -0.44851993016562 -0.719220914118802 -0.955797122886069 -0.763241878633762 0 0 0 0 0 0 0 0.414307425614604 0
0 0 0.513940603162021 0 0 1.03562911368722 0.0252407226828571 0.124989036229142 0.491145592173327 0.562908974932629 0.140449005071922 0.0306811848696876 0.144418783699069 0.0559065897771808 0.816344538103184 0.0170467188298646 0 0 0 0 0 0 0 0 0 0 0 0 0 0 0.178771256704267 0.218043636863623 0.291696486184288 0.142140378024872 0.213595809713259 0.52174684001604 0.0836974257509032 0.236617213137121 0 0 0 0 0 0 0 0 0 0 0 0 0 0 0 0 0 0 0 0 0 0 0 0 0 -2.43143182190193 0 0 0 0 0 0 0 0 0 0 0 0 0 0 0 0 0 0 0 0 0 0 0 0 0 0 0 0 0 0 0 0 0 0 0 0 0 0 0 0 0 0 0 0 0 0 0 0 0.0974394787026699 0.244763669411489 0.467245745405555 0.1596654381151 0.127267647096943 0 0 0 -0.227313183174689 -0.942698248827126 -0.776563188866847 -0.516766613420679 -2.21183384592763 -0.343031404774316 -0.588020574510258 -0.366815564599469 -1.68944611061191 -0.173254791190729 -0.183996870165249 -0.515467446953116 -2.15362319978133 -2.50331366537277 -0.174241506349958 -0.444774229423539 0 0 0 0.344744360030579 0.0946654628921795 0 1.55709304053342
0 0 0.496679528700107 0 0 0.0200832122905088 0.0971486112652616 0.0285105983396382 0.112216944271306 0.591455277145986 0.201941825543514 0.142636581424214 0.587121736161776 0.0184355293905808 0.117639210337369 0.634285655874222 0 0 0 0 0 0 0 0 0 0 0 0 0 0 2.14105111353117 0.769086163701565 0.504451183134271 0.0365271736821911 0.213644746660354 0.958064104110978 0.15909405195133 0.29920570647905 0 0 0 0 0 0 0 0 0 0 0 0 0 0 0 0 0 0 0 0 0 0.167178965637955 0.352783282686068 0 0 -2.52961593731376 0 0 0 0 0 0 0 0 0 0 0 0 0 0 0 0 0 0 0 0 0 0 0 0 0 0 0 0 0 0 0 0 0 0 0 0 0 0 0 0 0 0 0 0 0 0 0 0 0.129751294633921 0.10754945719467 0.262498653323451 0.248972868504973 0.118833164399219 0 0 0 0 0 0 0 0 0 0 -0.712891237857855 -1.01385000564728 -0.603307025917517 0 0 0 0 0 0 0 0 0 0.140321840895472 0 0 0.2048396188001
0 0 1.84140865498641 0 0 0.096481848633007 0.404562409936933 1.18061729868516 0.219059082558997 0.261510363771225 0.25809979711022 0.621366342788396 0.130521703952985 0.152872845166359 0.346318762978689 0.0890455121288712 0 0 0 0 0 0 0 0 0 0 0 0 0 0 0.329995724465016 0.133376811581401 0.272578762061072 0.180797022488648 1.5464127918394 0.681183144580778 0.268789700209014 0.292843381607219 0 0 0 0 0 0 0 0 0 0 0 0 0 0 0 0 0 0 0 0 0 0.163191599242525 0.580948362661055 0 0 -0.618680922777406 0 0 0 0 0 0 0 0 0 0 0 0 0 0 0 0 0 0 0 0 0 0 0 0 0 0 0 0 0 0 0 0 0 0 0 0 0 0 0 0 0 0 0 0 0 0 0 0 0.0846250649415302 0.0516641920371531 0.245700259918523 0.295112590713653 0.857116863916553 0 0 0 0 0 0 0 0 0 0 -0.707406097592066 -4.24077801108356 -1.26237096668377 0 0 0 0 0 0 0 0 0 0.287386327174096 0 0 0.108040510409176
0 0 0.118826522738477 0 0 0.0876467568654744 0.108660546078099 0.468355473543924 0.429518874908887 0.0357480816338463 0.0819744896383062 0.563235616873059 0.501622920587059 2.6932937828638 2.31461808735106 0.0298878643029654 0 0 0 0 0 0 0 0 0 0 0 0 0 0 0.215456220335911 0.0330988044862594 0.151274720616064 2.19611212093582 0.166370533063926 0.320958866115746 0.110052567962961 0.105785298323305 0 0 0 0 0 0 0 0 0 0 0 0 0 0 0 0 0 0 0 0 0 0.218859942308444 0.284419400785607 0 0 -0.0969793061147652 0 0 0 0 0 0 0 0 0 0 0 0 0 0 0 0 0 0 0 0 0 0 0 0 0 0 0 0 0 0 0 0 0 0 0 0 0 0 0 0 0 0 0 0 0 0 0 0 0.0927001195963975 0.043105049431947 0.104770301008339 0.140494294004907 1.00717185387102 0 0 0 0 0 0 0 0 0 0 -0.886472304491892 -0.786249211693079 -0.671542687617474 0 0 0 0 0 0 0 0 0 0.20303939045414 0 0 0.187352395627719
0 0 0.11482120909869 0 0 0.515592159643187 0.0203179829628357 0.236044281785518 0.334957246627548 1.04779926365719 0.388302199935543 0.117310259214239 0.400439526975247 0.369958719926127 0.103031811144376 0.659812402249547 0.508272098140511 0.196627487579236 0.076021120496637 0.29869294271071 0.0947799090008415 0 0 0.0635127346431747 0.614619032057474 0 0.192582981693063 0.55061327064996 0.182293733934895 0 0.115854424619537 0.133519143041147 0.101326952415828 0.0647073913536735 0.0813737514966706 0.225960954931282 0.45829758289067 0.213675248017989 0 0 0 0 0 0 0 0 0 0 0 0 0 0 0 0 0 0 0 0 0 0 0 0 0 0 0 0 0 0 0 0 0 0 0 0 0 0 0 0 0 0 0 0 0 0 0 0 0 0 0 0 0 0 0 0 0 0 0 0 0 0 0 0 0 0 0 0 0 0 0 0 0 0 0.336750179994643 0.0481574355264489 0.0634704214105877 0.0737848780258289 0.0456206558314499 0 0 0 0 0 0 0 0 0 0 -1.80912674345099 -2.03231669591082 -0.683953593092926 0 0 0 0 0 0 0 0 0 0 0 0 0
0 0 0.219120560639167 0 0 0.224326993750465 1.42195238834091 0.383739484049101 0.318812290686158 0.162450364120974 0.241282014972627 0.0486213890829502 0.30230714352769 0.0534849369879091 0.0670306704014435 0.211353646427854 0.0863109125358459 0.124182983938723 0.0885265778262926 0.360421896903406 0.238458164045917 0 0 0.419233333118962 0.083930560059245 0 0.26914087298506 0.328673347686678 0.1162482390662 0 0.614159011242425 0.26374610059226 0.0862992600108798 0.107817023796173 0.0799810962510031 0.641345119922603 0.295064943249232 0.0880468817920257 0 0 0 0 0 0 0 0 0 0 0 0 0 0 0 0 0 0 0 0 0 0 0 0 0 0 0 0 0 0 0 0 0 0 0 0 0 0 0 0 0 0 0 0 0 0 0 0 0 0 0 0 0 0 0 0 0 0 0 0 0 0 0 0 0 0 0 0 0 0 0 0 0 0 0.158600337100404 0.221284922357566 0.0625206178931456 0.014928364706134 0.270649997387769 0 0 0 0 0 0 0 0 0 0 -0.20536728597275 -1.28206741815814 -1.12368577407597 0 0 0 0 0 0 0 0 0 0 0 0 0
0 0 0.766682018478547 0 0 0.32897109058711 0.287067024410763 0.211826958773356 0.113198094777464 0.0849224203045253 0.815106868639737 0.28524113432151 0.259775894111729 0.780259661296567 0.205142467340887 1.72172835594735 0 0 0 0 0 0 0 0 0 0 0 0 0 0 0.136057109415506 0.0542641105712633 0.15744280595432 0.20061475235749 0.0223796457447176 0.261124390861318 0.0734092871759209 0.0813657722969135 0 0 0 0 0 0 0 0 -1.01466321783888 -0.296219188268963 0 0 0 0 0 0 -0.852123959142081 -0.801776450392993 -1.08988581873383 0 0 0 0 0 0 -1.65813695225906 0 0 0 0 0 0 0 0 0 0 0 0 0 0 0 0 0 0 0 0 0 0 0 0 0 0 0 0 0 0 0 0.160562866008926 0.165046045798608 0.0557389995448044 0.684466326015077 0.262428683243327 0.437382391730406 0.520854552725815 0.159105465436958 0.083151554997037 0.0129624365952677 0.406680070827524 0.348569390530429 1.6750640264825 0.0595642283108395 0.632519636042576 0.021100157443596 0.919899387653744 0.101653586715354 0.0388323616628242 0.214604200498094 0.107009814417209 0.0623869841494909 0 0 0 0 0 0 0 0 0 0 -0.822168092436912 -0.378482650541995 -3.10112469350236 0 0 0 0 0 0 0 0 0 0 0.10111779404365 0 0.235213761658103
0 0 0.0931350704237775 0 0 0.109370306639166 0.145843674056114 0.0904327538257093 0.0334754582055926 0.270119751428564 0.126522917420661 0.459311238093775 0.13683039884972 0.483467122600226 0.291606700758743 0.0693784151919409 0 0 0 0 0 0 0 0 0 0 0 0 0 0 0.248357412591379 0.16053851268037 0.117430649877217 0.454309697768835 0.125939223699908 0.0978663325328685 0.546195215808655 0.118583889815565 0 0 0.0782979771738976 0.218175126729286 0.0441735112899206 -1.8084057860321 -1.88803750077227 0 -0.0982335211743057 -1.16444345019677 -0.460518002270374 -1.89617841889957 -0.245095262414763 -0.844254699594213 -1.08998923743372 0 -1.8054517212771 -2.75984273766067 -1.39024078754691 0 0 0 0 0 0 0 0 0 0 0 0 0 0 0 0 0 0 0 0 0 0 0 0 0 0 0 0 0 0 0 0 0 0 0 0 0 0 0.100981359572031 0.0255690382272605 0.927227825460476 1.01649531731171 0.169273636829816 0.09130591983093 0.116348724565198 0.297596506732542 0.452992080557822 0.0646683501820833 0.15833240737177 0.448186752975085 0.0901793590949966 0.896094874240453 0.129270721487723 0.382476205240255 0.0425004634155761 0.083860931474126 0.284754256819708 0.293827258605175 0.230260273060998 1.18321562193223 0 0 0 -2.64061919275163 -0.281874602837076 -2.51363766223726 -1.00076044132035 -6.86757492169429 -2.07199225053238 -1.03681869947366 -0.558097325504134 -1.900448124835 -1.32221759881794 0 0 0 0 0 0 0 0 0 0 0.0567479270090322 0 0
0 0 0.446570586748875 0 0 0.366355120682548 0.387563905033492 0.429029810643123 0.106947016352961 0.234124705082508 0.160292027733288 0.225017068439211 0.132865343754066 0.159954000539242 0.511783158586828 0.123549576880582 0 0 0 0 0 0 0 0 0 0 0.168959994175672 0.251207040211549 0.156684068071633 0 0.0404277047328841 0.0848483840334565 1.00540941534323 0.335866202677584 0.476386652015815 0.0141419751499329 0.205681776331272 0.575500770833656 0.207960373525848 0.0218811166077221 0.0133358827116383 0.807103550317477 0.0932308782013131 0 0 0 0 0 0 0 0 0 0 0 0 0 0 0 0 0 0 0 0 -0.295645607766099 0 0 0 0 0 0 0 0 0 0 0 0 0 0 0 0 0 0 0 0 0 0 0 0 0 0 0 0 0 0 0 0.277988075528051 0.203231892619893 0.216912737121447 2.57240019106694 0.340413803975444 0.0557851704888394 0.0706891294093209 0.0386006734116972 0.959208888192 0.769743020725942 0.0857560484841147 0.553519260441134 0.639873681749532 0.239181119067109 0.128158363027995 0 0 0.904945392184727 0.977955627381309 0.118831070533017 0.0563550113152341 0.121511322059745 0 0 0 0 0 0 0 0 0 0 0 0 0 0 0 0 0 0 0 0 0 0 0 0.17525897371024 0 0
0 0 0.287969868567524 0 0 0.122358930476321 0.0955551784430605 0.435289236513497 0.21451276627694 0.436322776386449 0.0543250004157507 0.15406711015269 1.32917452875985 0.614141103211653 0.220566130186177 0.0484694837915652 0 0 0 0 0 0 0 0 0 0 0.153555747973215 0.0961125551698205 0.0840150615641953 0 0.280498147495657 1.16661940180822 0.724659611902247 0.0727512754573957 0.245539825603977 0.298063176646979 0.111466373525157 0.560341012352686 0.101508363628778 0.072912988480968 0.541279043580174 0.651897688336482 0.407557063393362 0 0 0 0 0 0 0 0 0 0 0 0 0 0 0 0 0 0 0 0 -1.08584818923629 0 0 0 0 0 0 0 0 0 0 0 0 0 0 0 0 0 0 0 0 0 0 0 0 0 0 0 0 0 0 0 0.432972432841835 0.187987286724236 0.272149677110619 0.0426306718313441 0.272424896344803 0.235573492066867 0.205253056952403 0.445729319791113 0.245326152034208 0.0160898825909566 0.480762388450022 0.0381866566660853 0.205795577973257 1.07267291714046 0.0450263517907014 0 0 0.294898193512612 0.324325722071491 0.310381504312779 0.176084891989158 0.0696746212283326 0 0 0 0 0 0 0 0 0 0 0 0 0 0 0 0 0 0 0 0 0 0 0 0.184350060120991 0 0
0 0 0 0 0 0.774345892122243 1.03134934563944 0.0941129211361422 0.315313536246966 0.219814538906397 0.132486161295382 0.393189988953648 0.160037778422019 1.51308228095745 0.28976399162543 0.0994478315994371 0 0 0 0 0 0.11003490261588 0 0.509473299849955 0.110439223821775 0 0 0 0 0 0.118303375555854 0.303768710045402 0.317211419000228 0.0297287172800187 0.109683915805088 0.787751916293041 0.258659902198293 0.252523308511018 0 0 0 0 0 0 0 0 0 0 0.263417615461257 0.182058371968684 0.246120435415551 0 0 0.484187301218329 0.538922242331069 0.122255795189668 0.0185648011364201 0 0 0.358821636401464 0 0.0619372931784443 0.213715194441338 0 0 0 0 0 0 0 0 0 0 0 0 0 0 0 0 0 0 0 0 0 0 0 0 0 0 0 0 0 0 0 0 0.0254975832796291 1.10289063901285 0.653751844037028 0.076785243892076 0.628752894897311 0.197205591145864 0.275326812173658 0.411106434598881 0.622647085587066 0.135807276016101 0.141053622720579 0.479267941831726 0.346308492285891 0.243191500117406 0.449936502967076 0.0551779317398202 0.539348761127885 0 0 0 0 0 0 0 0 0 0 0 0 0 0 0 0 0 0 0 0 0 0 0 0 0 0 0 0 0 0 0
0.403595909773645 0.598707137642531 0.0749112536912616 0 0 0 0 0 0 0 0 0 0 0 0 0 0 0 0 0 0 0 0 -0.30891763191112 -6.09700988896981 0 0 0 0 0 0 0 0 0 0 0 0 0 0 0 -0.402527046140547 -5.44112920168079 -0.330117109294738 0 0 0 0 0 0 0 0 0 0 0 0 0 0 0 0 0 0 0 0 0 0 0 0 0 0 0 0 0 -1.61250883762506 -1.81214926156473 -3.22116215816323 -0.42919972493054 -2.2219911605817 -1.57897448926166 -0.949512733015398 -0.291192877801054 -1.1280646016116 -0.90890226788117 -10.1576321592285 -0.117081548200966 -0.206724932788098 -4.58628088088987 -2.54968619805835 -0.909478435172972 0 0 0 0 0 0 0 0 0 0 0 0 0 0 0 0 0 -2.47978909481153 -1.39807797051508 -1.7955300864948 -0.49247092396953 -3.12575364104792 0 0 0 0 0 0 0 -0.332184219639536 -0.788470540446735 -0.655999068313034 0 0 0 0 0 0 0 0 0 0 0 0 0 0 0 0 -0.288967235609741 0 0 0 0.121312230722719 0 0.871326737358877
0.0791010314205662 0.435087907243236 0.200157404778377 0 0 0 0 0 0 0 0 0 0 0 0 0 0 0 0 0 0 0 0 -1.61785099028725 -1.43324467591679 0 0 0 0 0 0 0 0 0 0 0 0 0 0 0 -4.44664990433662 -0.649026687983564 -1.39699427385165 0 0 0 0 0 0 0 0 0 0 0 0 0 0 0 0 0 0 0 0 0 0 0 0 0 0 0 0 0 -0.639624768674228 -1.3576257095086 -1.63256005040725 -1.80536185567915 -1.28456829619228 -0.0663979240002382 -3.26452252594377 -2.63468069487905 -1.21726417801694 -0.686159047632865 -0.597948933922554 -1.85560263500837 -1.00370236046145 -8.7205999638394 -0.50461731573757 -1.40360080808639 0 0 0 0 0 0 0 0 0 0 0 0 0 0 0 0 0 -0.654867705985672 -0.7495444193681 -0.567298364630854 -7.47137267810501 -0.37308571306926 0 0 0 0 0 0 0 -5.3609733516166 -1.82131365378365 -2.02956550737641 0 0 0 0 0 0 0 0 0 0 0 0 0 0 0 0 -0.153830933005049 0 0 0 0.864248972175201 0 0.413381475079781
0.662469983129529 0.0594183298410001 0.0525702285157513 0 0 0 0 0 0 0 0 0 0 0 0 0 0 0 0 0 0 0 0 -0.207635531443677 -1.0953865507873 0 0 0 0 0 0 0 0 0 0 0 0 0 0 0 -1.42078574222326 -0.220451998265387 -1.68621467761328 0 0 0 0 0 0 0 0 0 0 0 0 0 0 0 0 0 0 0 0 0 0 0 0 0 0 0 0 0 -0.0995132932289267 -0.575002903518686 -0.392837425929797 -0.566306206068764 -0.89582228895788 -0.591642172006847 -0.902730035619269 -3.91564005929817 -2.41633016279671 -1.08980344316457 -1.07844395839516 -4.84751133157079 -0.652526047062521 -1.33468671311747 -0.370757895153492 -2.50575636919561 0 0 0 0 0 0 0 0 0 0 0 0 0 0 0 0 0 -1.55911378444528 -1.21957103503057 -0.164978080645044 -3.64105532797852 -0.236220325656176 0 0 0 0 0 0 0 -0.591104363028545 -2.18089952346887 -1.18718821031475 0 0 0 0 0 0 0 0 0 0 0 0 0 0 0 0 -0.391016462441933 0 0 0 0.0978097753898811 0 0.0436661389300063
0.117722353644225 0.105608529715046 0.363100973336562 0 0 0 0 0 0 0 0 0 0 0 0 0 0 0 0 0 0 0 0 -2.04735183054025 -1.91286924255811 0 0 0 0 0 0 0 0 0 0 0 0 0 0 0 -0.517284932494163 -1.46705588180855 -0.319904124684194 0 0 0 0 0 0 0 0 0 0 0 0 0 0 0 0 0 0 0 0 0 0 0 0 0 0 0 0 0 -0.383447546792735 -0.503796219648497 -0.202716860322908 -2.38275229328851 -2.93560041562242 -0.36322310378521 -2.69648794819176 -0.553480170585492 -0.767805704406241 -0.747511674680473 -0.10099635760436 -0.130204303079514 -10.7018037504249 -1.2919048977631 -1.03481862429227 -1.19484041682394 0 0 0 0 0 0 0 0 0 0 0 0 0 0 0 0 0 -3.73744725246579 -6.54997583443355 -1.78452448314851 -0.318375672462042 -2.08652563308394 0 0 0 0 0 0 0 -3.74649739977606 -2.00620511835397 -0.555961751679187 0 0 0 0 0 0 0 0 0 0 0 0 0 0 0 0 -1.58031760106148 0 0 0 0.279348836871307 0 0.223466077811477
0.0862078624755336 0.0844290202881244 0.0310346927782118 0 0 0 0 0 0 0 0 0 0 0 0 0 0 0 0 0 0 0 0 -1.26929827418355 -0.418085595749598 0 0 0 0 0 0 0 0 0 0 0 0 0 0 0 -0.431114523860116 -1.00838569406543 -0.0961836757032266 0 0 0 0 0 0 0 0 0 0 0 0 0 0 0 0 0 0 0 0 0 0 0 0 0 0 0 0 0 -0.194442233427394 -2.38595285004627 -1.54608773113007 -0.582536185280084 -7.83737973341389 -3.46033253048465 -0.512424372016268 -0.128755101939411 -0.926012959664367 -1.45346568798465 -0.948236067247897 -1.18385147626839 -0.315758997308422 -2.89555318129158 -1.79346511587114 -2.16274058331877 0 0 0 0 0 0 0 0 0 0 0 0 0 0 0 0 0 -2.6562801109888 -0.605980033232644 -0.373738089928558 -0.227680210617656 -0.194725953882152 0 0 0 0 0 0 0 -0.592451798211902 -3.33890227310397 -0.404137217369097 0 0 0 0 0 0 0 0 0 0 0 0 0 0 0 0 -0.727685336518908 0 0 0 0.104009685291736 0 0.0894852293080765
0.197835787940892 0.663927197907329 0.116726196031303 0 0 0 0 0 0 0 0 0 0 0 0 0 0 0 0 0 0 0 0 -0.897607420030373 -0.263613391342248 0 0 0 0 0 0 0 0 0 0 0 0 0 0 0 -0.464597765095205 -0.517795758652049 -0.105026058392316 0 0 0 0 0 0 0 0 0 0 0 0 0 0 0 0 0 0 0 0 0 0 0 0 0 0 0 0 0 -1.32056045102174 -2.10267890350309 -1.306604651826 -0.875861929242962 -0.648789220321891 -0.402766733130404 -0.9591499111254 -0.795244398298652 -1.93562382577567 -0.354878325788169 -2.34725290889229 -0.700898379027615 -0.308400753811497 -1.70355510548023 -2.69433177815844 -2.14467426444544 0 0 0 0 0 0 0 0 0 0 0 0 0 0 0 0 0 -4.49440414803487 -1.44606596086534 -0.26950590167783 -1.13913762649053 -0.37847720820027 0 0 0 0 0 0 0 -1.1545727829569 -0.83069993492639 -0.149591148931189 0 0 0 0 0 0 0 0 0 0 0 0 0 0 0 0 -0.640169977861285 0 0 0 0.346228942973798 0 0.124794478899024
0.242208474980382 0.077496632289044 0.330893149607727 0 0 0 0 0 0 0 0 0 0 0 0 0 0 0 0 0 0 0 0 -0.676039007958971 -1.62100156582432 0 0 0 0 0 0 0 0 0 0 0 0 0 0 0 -0.291507596488705 -1.1632709201554 -4.65711465883444 0 0 0 0 0 0 0 0 0 0 0 0 0 0 0 0 0 0 0 0 0 0 0 0 0 0 0 0 0 -0.351436720201788 -5.44654454065842 -1.1508780855011 -1.48323138703196 -0.521201179097572 -2.69898920563476 -1.3996479316726 -0.981967544165945 -1.1315397823198 -2.80424507251373 -1.21126697083916 -0.477304755607721 -2.27232284409869 -1.09832636457833 -0.394088353717847 -0.86883037870539 0 0 0 0 0 0 0 0 0 0 0 0 0 0 0 0 0 -1.04467625999316 -1.69544961992874 -0.894386310304759 -0.376463642989206 -1.02174219140394 0 0 0 0 0 0 0 -0.391104481976134 -0.393515456906116 -6.53054978186013 0 0 0 0 0 0 0 0 0 0 0 0 0 0 0 0 -0.366971115001611 0 0 0 0.30301962951614 0 0.230328170607547
0.212839827634083 0.424910699635098 0.110753829177865 0 0 0 0 0 0 0 0 0 0 0 0 0 0 0 0 0 0 0 0 -1.24959854489286 -1.99933422935016 0 0 0 0 0 0 0 0 0 0 0 0 0 0 0 -7.18206082023889 -0.770899696021541 -1.28936985193359 0 0 0 0 0 0 0 0 0 0 0 0 0 0 0 0 0 0 0 0 0 0 0 0 0 0 0 0 0 -1.70926764377242 -0.905619736481987 -0.685641812038668 -1.50128479173453 -1.5663988944755 -0.296917133740337 -1.02299972404019 -0.453304505269614 -0.239912059337205 -0.570523111753232 -5.61112112776274 -4.2064274572292 -0.610679435467266 -1.56416769884683 -1.79090746777086 -4.39502676253717 0 0 0 0 0 0 0 0 0 0 0 0 0 0 0 0 0 -1.54063240708213 -0.688318583161536 -0.16544143766167 -0.463870275508744 -0.775331886202934 0 0 0 0 0 0 0 -0.749577614627756 -0.173871936018878 -1.11796899246703 0 0 0 0 0 0 0 0 0 0 0 0 0 0 0 0 -0.45657985889554 0 0 0 0.0634832710050684 0 0.0996776811287982
0 0 0 0 0 0 0 0 0 0 0 0 0 0 0 0 0 0 0 0 0 0 0 0 0 0 0 0 0 0 0 0 0 0 0 0 0 0 0 0 0 0 0 0 0 0 0 0 0 0 0 0 0 0 0 0 0 0 0 0 0 0 0 0 0.327091410001014 0.13344150346215 0.0202633896901643 0.0717414270812831 0.0368425536362023 0.249919496797929 0.0696025654250976 0.322838558463248 0 0 0 0 0 0 0 0 0 0 0 0 0 0 0 0 0 0 0 0 0.33444868552429 0.208796883685691 0.260458795910734 0 0 0 0 0 0 0 0 0 0 0 0 0 0 0 0 0 0 0 0 0 0 0 0 0 0 0 0 0 0 0 0 0 0 0 0 0 0 0 0 0 0 0 0 0 0 0 0.2149313282478
0 0 0 0 0 0 0 0 0 0 0 0 0 0 0 0 0 0 0 0 0 0 0 0 0 0 0 0 0 0 0 0 0 0 0 0 0 0 0 0 0 0 0 0 0 0 0 0 0 0 0 0 0 0 0 0 0 0 0 0 0 0 0 0 0.39637163636897 0.263002540253927 0.123615126496388 0.0912285840326955 0.465545643596408 0.42315408244317 1.10227038936654 0.179538691957435 0 0 0 0 0 0 0 0 0 0 0 0 0 0 0 0 0 0 0 0 0.0437116037236359 0.123080492012139 0.347732733927235 0 0 0 0 0 0 0 0 0 0 0 0 0 0 0 0 0 0 0 0 0 0 0 0 0 0 0 0 0 0 0 0 0 0 0 0 0 0 0 0 0 0 0 0 0 0 0 0.164171332276657
0 0 0 0 0 0 0 0 0 0 0 0 0 0 0 0 0 0 0 0 0 0 0 0 0 0 0 0 0 0 0 0 0 0 0 0 0 0 0 0 0 0 0 0 0 0 0 0 0 0 0 0 0 0 0 0 0 0 0 0 0 0 0 0 0.639592480702985 0.319104371812199 0.081215057076737 0.0389265171750895 0.312033853887907 0.272760471489744 0.222630594646496 0.134213658620367 0 0 0 0 0 0 0 0 0 0 0 0 0 0 0 0 0 0 0 0 0.24767105655229 0.292901102591316 0.0685280903824033 0 0 0 0 0 0 0 0 0 0 0 0 0 0 0 0 0 0 0 0 0 0 0 0 0 0 0 0 0 0 0 0 0 0 0 0 0 0 0 0 0 0 0 0 0 0 0 0.247482354979279
0 0 0 0 0 0 0 0 0 0 0 0 0 0 0 0 0 0 0 0 0 0 0 0 0 0 0 0 0 0 0 0 0 0 0 0 0 0 0 0 0 0 0 0 0 0 0 0 0 0 0 0 0 0 0 0 0 0 0 0 0 0 0 0 0.0786358276883316 0.373991795892434 0.117278399122224 0.474917013689837 0.130177922299307 0.157025825202661 0.295727006631524 0.305010391567541 0 0 0 0 0 0 0 0 0 0 0 0 0 0 0 0 0 0 0 0 0.0655919137380734 0.1432714222122 1.09358212046161 0 0 0 0 0 0 0 0 0 0 0 0 0 0 0 0 0 0 0 0 0 0 0 0 0 0 0 0 0 0 0 0 0 0 0 0 0 0 0 0 0 0 0 0 0 0 0 0.0489174387458455
0 0 0 0 0 0 0 0 0 0 0 0 0 0 0 0 0 0 0 0 0 0 0 0 0 0 0 0 0 0 0 0 0 0 0 0 0 0 0 0 0 0 0 0 0 0 0 0 0 0 0 0 0 0 0 0 0 0 0 0 0 0 0 0 0.45716330266369 0.265342491340456 0.177159812515479 0.606394878343497 1.60852411344056 0.129239149815112 0.0996163741649537 0.301251101329585 0 0 0 0 0 0 0 0 0 0 0 0 0 0 0 0 0 0 0 0 0.283104368130405 0.116583067176934 0.11040363381498 0 0 0 0 0 0 0 0 0 0 0 0 0 0 0 0 0 0 0 0 0 0 0 0 0 0 0 0 0 0 0 0 0 0 0 0 0 0 0 0 0 0 0 0 0 0 0 0.057466608067347
0 0 0 0 0 0 0 0 0 0 0 0 0 0 0 0 0 0 0 0 0 0 0 0 0 0 0 0 0 0 0 0 0 0 0 0 0 0 0 0 0 0 0 0 0 0 0 0 0 0 0 0 0 0 0 0 0 0 0 0 0 0 0 0 0.298913036848437 0.0139029331152131 0.112273676284392 0.0726735693468994 0.655549524951022 0.08706292367691 0.548337285897295 0.0553797209520387 0 0 0 0 0 0 0 0 0 0 0 0 0 0 0 0 0 0 0 0 0.124125215069443 0.166528574171268 0.262938998880965 0 0 0 0 0 0 0 0 0 0 0 0 0 0 0 0 0 0 0 0 0 0 0 0 0 0 0 0 0 0 0 0 0 0 0 0 0 0 0 0 0 0 0 0 0 0 0 0.489128593929587
0 0 0 0 0 0 0 0 0 0 0 0 0 0 0 0 0 0 0 0 0 0 0 0 0 0 0 0 0 0 0 0 0 0 0 0 0 0 0 0 0 0 0 0 0 0 0 0 0 0 0 0 0 0 0 0 0 0 0 0 0 0 0 0 0.190516594503681 0.684330781103668 0.183463756665044 0.536336281000074 0.094742340465461 0.16810159198082 0.288774131984583 0.199796664457026 0 0 0 0 0 0 0 0 0 0 0 0 0 0 0 0 0 0 0 0 0.0605170762272313 0.0619887037114821 0.551982342250715 0 0 0 0 0 0 0 0 0 0 0 0 0 0 0 0 0 0 0 0 0 0 0 0 0 0 0 0 0 0 0 0 0 0 0 0 0 0 0 0 0 0 0 0 0 0 0 0.248295764793309
0 0 0 0 0 0 0 0 0 0 0 0 0 0 0 0 0 0 0 0 0 0 0 0 0 0 0 0 0 0 0 0 0 0 0 0 0 0 0 0 0 0 0 0 0 0 0 0 0 0 0 0 0 0 0 0 0 0 0 0 0 0 0 0 0.0564044371609135 0.518678736580115 0.822872709233273 0.113451446404195 0.0269912015340658 0.172220339896685 0.201826787945631 0.09003962218048 0 0 0 0 0 0 0 0 0 0 0 0 0 0 0 0 0 0 0 0 0.246632041046792 0.747124572172939 0.406174077329016 0 0 0 0 0 0 0 0 0 0 0 0 0 0 0 0 0 0 0 0 0 0 0 0 0 0 0 0 0 0 0 0 0 0 0 0 0 0 0 0 0 0 0 0 0 0 0 0.169361929923504
0 0 0 0 0 0 0 0 0 0 0 0 0 0 0 0 0 0 0 0 0 0 0 0 0 0 0 0 0 0 0 0 0 0 0 0 0 0 0 0 0 0 0 0 0 0 0 0 0 0 0 0 0 0 0 0 0 0 0 0 0 0 0 0 0.213386775441783 0.223757418964724 0.47720852876077 0.139875604531715 0.194780542215367 0.388430862059932 0.225307611803484 0.0484595296302175 0 0 0 0 0 0 0 0 0 0 0 0 0 0 0 0 0 0 0 0 0.125995193783294 0.420845687387543 0.211133751534726 0 0 0 0 0 0 0 0 0 0 0 0 0 0 0 0 0 0 0 0 0 0 0 0 0 0 0 0 0 0 0 0 0 0 0 0 0 0 0 0 0 0 0 0 0 0 0 0.0898403287065081
0 0 0 0 0 0 0 0 0 0 0 0 0 0 0 0 0 0 0 0 0 0 0 0 0 0 0 0 0 0 0 0 0 0 0 0 0 0 0 0 0 0 0 0 0 0 0 0 0 0 0 0 0 0 0 0 0 0 0 0 0 0 0 0 0.192514414786481 0.137105188963157 0.213256054607686 0.148775035571152 0.279960096996983 0.0694647866022103 0.554816852229088 0.112967479887153 0 0 0 0 0 0 0 0 0 0 0 0 0 0 0 0 0 0 0 0 0.256535316835772 0.0936002407802513 0.0548126903555854 0 0 0 0 0 0 0 0 0 0 0 0 0 0 0 0 0 0 0 0 0 0 0 0 0 0 0 0 0 0 0 0 0 0 0 0 0 0 0 0 0 0 0 0 0 0 0 0.045768087873666
0 0 0 0 0 0 0 0 0 0 0 0 0 0 0 0 0 0 0 0 0 0 0 0 0 0 0 0 0 0 0 0 0 0 0 0 0 0 0 0 0 0 0 0 0 0 0 0 0 0 0 0 0 0 0 0 0 0 0 0 0 0 0 0 2.02776748534794 0.114535786975397 0.2026636186081 0.0206384553416958 0.192096224810629 0.463061177011904 0.238384855801819 1.13071205923417 0 0 0 0 0 0 0 0 0 0 0 0 0 0 0 0 0 0 0 0 0.472682555566079 0.114491397834646 0.130675269696498 0 0 0 0 0 0 0 0 0 0 0 0 0 0 0 0 0 0 0 0 0 0 0 0 0 0 0 0 0 0 0 0 0 0 0 0 0 0 0 0 0 0 0 0 0 0 0 0.865576834827479
0 0 0 0 0 0 0 0 0 0 0 0 0 0 0 0 0 0 0 0 0 0 0 0 0 0 0 0 0 0 0 0 0 0 0 0 0 0 0 0 0 0 0 0 0 0 0 0 0 0 0 0 0 0 0 0 0 0 0 0 0 0 0 0 0.0248758345953755 0.383936414455489 1.00967651866715 0.0256114598806727 0.216078049891142 0.146641275006412 0.0933952709234533 0.741877992199676 0 0 0 0 0 0 0 0 0 0 0 0 0 0 0 0 0 0 0 0 0.178518315668122 0.201042363925622 0.991870550226374 0 0 0 0 0 0 0 0 0 0 0 0 0 0 0 0 0 0 0 0 0 0 0 0 0 0 0 0 0 0 0 0 0 0 0 0 0 0 0 0 0 0 0 0 0 0 0 0.951503070823393
0 0 0 0 0 0 0 0 0 0 0 0 0 0 0 0 0 0 0 0 0 0 0 0 0 0 0 0 0 0 0 0 0 0 0 0 0 0 0 0 0 0 0 0 0 0 0 0 0 0 0 0 0 0 0 0 0 0 0 0 0 0 0 0 0.0389566708817099 0.212209225028396 0.13461403228561 2.18779513871029 0.0652447632751505 0.0629286152143692 0.476324596572309 0.125852428805797 0 0 0 0 0 0 0 0 0 0 0 0 0 0 0 0 0 0 0 0 0.471425775285438 0.182255114443406 0.237617862422329 0 0 0 0 0 0 0 0 0 0 0 0 0 0 0 0 0 0 0 0 0 0 0 0 0 0 0 0 0 0 0 0 0 0 0 0 0 0 0 0 0 0 0 0 0 0 0 0.386148085049302
0 0 0 0 0 0 0 0 0 0 0 0 0 0 0 0 0 0 0 0 0 0 0 0 0 0 0 0 0 0 0 0 0 0 0 0 0 0 0 0 0 0 0 0 0 0 0 0 0 0 0 0 0 0 0 0 0 0 0 0 0 0 0 0 0.874523683049045 1.59521788052915 0.251740450031202 0.252947588718077 0.576057080041661 0.333064818136963 0.214263602279926 0.297156280652411 0 0 0 0 0 0 0 0 0 0 0 0 0 0 0 0 0 0 0 0 0.312469926693765 0.0423204224755745 0.122394348397501 0 0 0 0 0 0 0 0 0 0 0 0 0 0 0 0 0 0 0 0 0 0 0 0 0 0 0 0 0 0 0 0 0 0 0 0 0 0 0 0 0 0 0 0 0 0 0 0.16133218447393
0 0 0 0 0 0 0 0 0 0 0 0 0 0 0 0 0 0 0 0 0 0 0 0 0 0 0 0 0 0 0 0 0 0 0 0 0 0 0 0 0 0 0 0 0 0 0 0 0 0 0 0 0 0 0 0 0 0 0 0 0 0 0 0 0.494481867640062 0.102219769829039 0.0719797241133318 0.194269007248271 0.386096377311362 0.543105595356683 0.0748267490843115 0.38744925320062 0 0 0 0 0 0 0 0 0 0 0 0 0 0 0 0 0 0 0 0 1.02474382773161 0.0827685745285562 0.402124185786714 0 0 0 0 0 0 0 0 0 0 0 0 0 0 0 0 0 0 0 0 0 0 0 0 0 0 0 0 0 0 0 0 0 0 0 0 0 0 0 0 0 0 0 0 0 0 0 1.37268217564336
0 0 0 0 0 0 0 0 0 0 0 0 0 0 0 0 0 0 0 0 0 0 0 0 0 0 0 0 0 0 0 0 0 0 0 0 0 0 0 0 0 0 0 0 0 0 0 0 0 0 0 0 0 0 0 0 0 0 0 0 0 0 0 0 0.166347737420126 0.274469592263538 0.5077685530811 0.247260223936281 0.43701973095161 0.442929105175666 0.165018256442583 0.969460708476391 0 0 0 0 0 0 0 0 0 0 0 0 0 0 0 0 0 0 0 0 0.682625678948388 0.451075757814248 0.299338360714501 0 0 0 0 0 0 0 0 0 0 0 0 0 0 0 0 0 0 0 0 0 0 0 0 0 0 0 0 0 0 0 0 0 0 0 0 0 0 0 0 0 0 0 0 0 0 0 0.0895547938356046
0 0 0 0 0 0 0 0 0 0 0 0 0 0 0 0 0 0 0 0 0 0 0 0 0 0 0 0 0 0 0 0 0 0 0 0 0 0 0 0 0 0 0 0 0 0 0 0 0 0 0 0 0 0 0 0 0 0 0 0 0 0 0 0 0 0 0 0 0 0 0 0 0 0 0 0 0 0 0 0 0 0 0 0 0 0 0 0 0 0 0 0 0 0 0 0 0 0 0 0 0 0 0 0 0 0 0 0 0 0 0 0 0 0 0 0 0 -2.08061428363889 -1.10666041042006 -0.611046267652404 0 0 0 0 0 0 0 0 0 0 0 0 0 0 0 0 0 0 0.886758530461235 0 0 0 0
0 0 0 0 0 0 0 0 0 0 0 0 0 0 0 0 0 0 0 0 0 0 0 0 0 0 0 0 0 0 0 0 0 0 0 0 0 0 0 0 0 0 0 0 0 0 0 0 0 0 0 0 0 0 0 0 0 0 0 0 0 0 0 0 0 0 0 0 0 0 0 0 0 0 0 0 0 0 0 0 0 0 0 0 0 0 0 0 0 0 0 0 0 0 0 0 0 0 0 0 0 0 0 0 0 0 0 0 0 0 0 0 0 0 0 0 0 -1.92071025176529 -2.13902256756409 -0.186456230205553 0 0 0 0 0 0 0 0 0 0 0 0 0 0 0 0 0 0 0.227195089444385 0 0 0 0
0 0 0 0 0 0 0 0 0 0 0 0 0 0 0 0 0 0 0 0 0 0 0 0 0 0 0 0 0 0 0 0 0 0 0 0 0 0 0 0 0 0 0 0 0 0 0 0 0 0 0 0 0 0 0 0 0 0 0 0 0 0 0 0 0 0 0 0 0 0 0 0 0 0 0 0 0 0 0 0 0 0 0 0 0 0 0 0 0 0 0 0 0 0 0 0 0 0 0 0 0 0 0 0 0 0 0 0 0 0 0 0 0 0 0 0 0 -0.286707118011437 -0.68183166450092 -1.4377289022205 0 0 0 0 0 0 0 0 0 0 0 0 0 0 0 0 0 0 0.584942228918481 0 0 0 0
0 0 0 0 0 0 0 0 0 0 0 0 0 0 0 0 0 0 0 0 0 0 0 0 0 0 0 0 0 0 0 0 0 0 0 0 0 0 0 0 0 0 0 0 0 0 0 0 0 0 0 0 0 0 0 0 0 0 0 0 0 0 0 0 0 0 0 0 0 0 0 0 0 0 0 0 0 0 0 0 0 0 0 0 0 0 0 0 0 0 0 0 0 0 0 0 0 0 0 0 0 0 0 0 0 0 0 0 0 0 0 0 0 0 0 0 0 -0.318620462782579 -0.270259426004375 -1.11831349212005 0 0 0 0 0 0 0 0 0 0 0 0 0 0 0 0 0 0 0.0790899324529948 0 0 0 0
0 0 0 0 0 0 0 0 0 0 0 0 0 0 0 0 0 0 0 0 0 0 0 0 0 0 0 0 0 0 0 0 0 0 0 0 0 0 0 0 0 0 0 0 0 0 0 0 0 0 0 0 0 0 0 0 0 0 0 0 0 0 0 0 0 0 0 0 0 0 0 0 -1.71438325529225 -0.207323888448232 -1.36895452703441 -0.352759970369159 -1.43352099760764 -0.640802892908721 -0.31640175862535 -1.15398996918864 -0.613230333464605 -1.2714147796477 -2.33284222390519 -0.97090284997393 -2.56607744110477 -1.39580169495409 -4.86870323866072 -3.26791707578401 0 0 0 0 0 0 0 0 0 0 0 0 0 0 0 0 0 0 0 0 0 0 0 0 0 0 0 0 0 -0.601066213199444 -0.812405029385818 -1.40945550720656 0 0 0 0 0 0 0 0 0 0 0 0 0 0 0 0 0 0 0.342492646896486 0 0 0 0
0 0 0 0 0 0 0 0 0 0 0 0 0 0 0 0 0 0 0 0 0 0 0 0 0 0 0 0 0 0 0 0 0 0 0 0 0 0 0 0 0 0 0 0 0 0 0 0 0 0 0 0 0 0 0 0 0 0 0 0 0 0 0 0 0 0 0 0 0 0 0 0 -1.08273384834689 -0.617066449136564 -1.55388322437104 -0.677913319680896 -0.536768583136466 -0.817817615403214 -0.297817178941724 -3.80326858999144 -2.17053613394694 -0.474759055337429 -0.563760465309412 -1.01717468554717 -0.952524876634946 -0.215189916271918 -0.396576611968523 -2.17947277138317 0 0 0 0 0 0 0 0 0 0 0 0 0 0 0 0 0 0 0 0 0 0 0 0 0 0 0 0 0 -0.288402193610671 -1.93821080345389 -1.93335914517939 0 0 0 0 0 0 0 0 0 0 0 0 0 0 0 0 0 0 0.213888382361634 0 0 0 0
0 0 0 0 0 0 0 0 0 0 0 0 0 0 0 0 0 0 0 0 0 0 0 0 0 0 0 0 0 0 0 0 0 0 0 0 0 0 0 0 0 0 0 0 0 0 0 0 0 0 0 0 0 0 0 0 0 0 0 0 0 0 0 0 0 0 0 0 0 0 0 0 -1.34972685925714 -1.85122828457526 -0.322668386656973 -5.13832624806874 -0.515732000944862 -1.29931390346027 -2.55766303103793 -2.00053565115215 -1.0437435549904 -0.277043898284724 -0.635971466569612 -4.64020190501959 -1.18997213640448 -0.585053272302575 -2.04728633315198 -1.41034682907189 0 0 0 0 0 0 0 0 0 0 0 0 0 0 0 0 0 0 0 0 0 0 0 0 0 0 0 0 0 -0.562376098454441 -0.349655835052944 -1.38076333979488 0 0 0 0 0 0 0 0 0 0 0 0 0 0 0 0 0 0 0.0783293848415375 0 0 0 0
0.0995968991957862 0.106195329101466 0.169982003441066 0 0 0 0 0 0 0 0 0 0 0 0 0 0 0 0 0 0 0 0 -1.15157081555514 -0.46504243730448 0 0 0 0 0 0 0 0 0 0 0 0 0 0 0 -1.68239482996583 -1.86098299074727 -2.16907653516775 -0.345056779540306 -2.14375102196678 0 0 0 0 0 0 -1.45013243721518 -3.37448990483914 0 0 0 0 0 0 -0.763610306602971 -0.488036327378 -1.42211548752212 -2.0533455409745 -0.13064950068696 0 0 0 0 0 0 0 0 0 0 0 0 0 0 0 0 0 0 0 0 0 0 0 0 0 0 0 0 0 0 0 0 0 0 0 0 0 0 0 0 0 0 0 0 0 0 0 0 0 0 0 0 0 -1.03464400674078 -2.46880782996112 -0.634324519290175 0 0 0 0 0 0 0 0 0 0 0 0 0 0 0 0 0 0 0 0 0.189882532910158 0 0.0900276032081629
0.696783492156272 0.113089155565903 0.472160380493509 0 0 0 0 0 0 0 0 0 0 0 0 0 0 0 0 0 0 0 0 -2.09520968987509 -4.26251274330566 0 0 0 0 0 0 0 0 0 0 0 0 0 0 0 -1.72209474151407 -0.334547568882282 -0.929404486842923 -1.49686549746598 -1.09307861187876 0 0 0 0 0 0 -1.434771606089 -0.15006929854473 0 0 0 0 0 0 -0.873509035969007 -0.13495946302788 -1.07672930931055 -0.925218324870093 -5.72835841027017 0 0 0 0 0 0 0 0 0 0 0 0 0 0 0 0 0 0 0 0 0 0 0 0 0 0 0 0 0 0 0 0 0 0 0 0 0 0 0 0 0 0 0 0 0 0 0 0 0 0 0 0 0 -2.02304409078621 -1.96464032376351 -0.237823572833306 0 0 0 0 0 0 0 0 0 0 0 0 0 0 0 0 0 0 0 0 0.0392955653679455 0 0.0145130061695579
0.171734660189402 0.575616274916616 0.084620289025253 0 0 0 0 0 0 0 0 0 0 0 0 0 0 0 0 0 0 0 0 -1.5410038873547 -0.392522904000366 0 0 0 0 0 0 0 0 0 0 0 0 0 0 0 -0.0525672557254069 -0.857965168032994 -0.63041347932583 -0.394556841301343 -1.3213918226112 0 0 0 0 0 0 -0.985106716216589 -2.00114510737971 0 0 0 0 0 0 -0.284259494209169 -4.97386657475181 -1.0762821441444 -1.34666813883473 -3.04080869785199 0 0 0 0 0 0 0 0 0 0 0 0 0 0 0 0 0 0 0 0 0 0 0 0 0 0 0 0 0 0 0 0 0 0 0 0 0 0 0 0 0 0 0 0 0 0 0 0 0 0 0 0 0 -4.18374885888507 -1.52033680581949 -1.43980967896768 0 0 0 0 0 0 0 0 0 0 0 0 0 0 0 0 0 0 0 0 0.132119834915987 0 0.0814134461172404
0.195887208672616 0.415484674974081 0.345633999535245 0 0 0 0 0 0 0 0 0 0 0 0 0 0 0 0 0 0 0 0 -5.08413167546369 -1.75820635217176 0 0 0 0 0 0 0 0 0 0 0 0 0 0 0 -0.150046639240478 -0.954584519584545 -2.5904495641861 -2.840381275435 -0.191002442767575 0 0 0 0 0 0 -1.14559230126264 -2.19640624141269 0 0 0 0 0 0 -3.64439669060121 -5.58092745983452 -11.7056877131145 -0.241803327513425 -0.401333765770104 0 0 0 0 0 0 0 0 0 0 0 0 0 0 0 0 0 0 0 0 0 0 0 0 0 0 0 0 0 0 0 0 0 0 0 0 0 0 0 0 0 0 0 0 0 0 0 0 0 0 0 0 0 -1.06612751006195 -0.796920149279764 -1.15031475239126 0 0 0 0 0 0 0 0 0 0 0 0 0 0 0 0 0 0 0 0 0.118220137359847 0 0.378072013804047
0.353474619361706 0.200924353166015 0.527121795805989 0 0 0 0 0 0 0 0 0 0 0 0 0 0 0 0 0 0 0 0 -0.527007054747478 -0.71789145873714 0 0 0 0 0 0 0 0 0 0 0 0 0 0 0 -0.463230222495492 -0.323833475714469 -0.187589067034006 -1.14875585644834 -3.49325058091808 0 0 0 0 0 0 -0.344639333128155 -0.396956585257975 0 0 0 0 0 0 -1.42073068501675 -0.866787409423442 -1.61156598262548 -1.46723356924035 -2.89806833982568 0 0 0 0 0 0 0 0 0 0 0 0 0 0 0 0 0 0 0 0 0 0 0 0 0 0 0 0 0 0 0 0 0 0 0 0 0 0 0 0 0 0 0 0 0 0 0 0 0 0 0 0 0 -1.35065786371666 -0.802252875690438 -0.0870816600678984 0 0 0 0 0 0 0 0 0 0 0 0 0 0 0 0 0 0 0 0 0.381935985023475 0 0.222760097641225
0.0987040585836795 0.0390881271982732 0.694287715953864 0 0 0 0 0 0 0 0 0 0 0 0 0 0 0 0 0 0 0 0 -0.148022092877111 -0.643971248996486 0 0 0 0 0 0 0 0 0 0 0 0 0 0 0 -0.515948150917653 -0.295740765512674 -0.163471461474059 -2.16056529107209 -0.666721879348518 0 0 0 0 0 0 -0.890545078168086 -1.97822028795766 0 0 0 0 0 0 -2.08517188537159 -0.442798489919295 -0.300962851126604 -1.26574073789652 -0.997220469590766 0 0 0 0 0 0 0 0 0 0 0 0 0 0 0 0 0 0 0 0 0 0 0 0 0 0 0 0 0 0 0 0 0 0 0 0 0 0 0 0 0 0 0 0 0 0 0 0 0 0 0 0 0 -2.70836135482435 -6.18260925742572 -0.489497658201883 0 0 0 0 0 0 0 0 0 0 0 0 0 0 0 0 0 0 0 0 0.0688902979492684 0 0.696680262272745
0.0520336980624366 1.13854160892612 0.17494189451951 0 0 0 0 0 0 0 0 0 0 0 0 0 0 0 0 0 0 0 0 -0.810634941766679 -0.676646634036514 0 0 0 0 0 0 0 0 0 0 0 0 0 0 0 -0.72581583391043 -1.79736513411517 -1.31457419709569 -1.00869907214329 -5.25058354138399 0 0 0 0 0 0 -0.547087849698824 -0.227061473368569 0 0 0 0 0 0 -2.70107042360628 -0.541645278274516 -0.365859923954796 -1.04833363412905 -1.51345404009716 0 0 0 0 0 0 0 0 0 0 0 0 0 0 0 0 0 0 0 0 0 0 0 0 0 0 0 0 0 0 0 0 0 0 0 0 0 0 0 0 0 0 0 0 0 0 0 0 0 0 0 0 0 -0.341646032448393 -0.394243275317328 -0.317097242831499 0 0 0 0 0 0 0 0 0 0 0 0 0 0 0 0 0 0 0 0 0.771337279337297 0 0.0834282528643238
0.0303758033575698 0.892264339421902 0.33409328776443 0 0 0 0 0 0 0 0 0 0 0 0 0 0 0 0 0 0 0 0 -0.47389157971069 -3.21510312663264 0 0 0 0 0 0 0 0 0 0 0 0 0 0 0 -1.2908167336692 -0.747114935186511 -1.74226421011306 -0.27536644442071 -0.986014615442242 0 0 0 0 0 0 -0.772640669845959 -0.13404156392826 0 0 0 0 0 0 -0.862135284433383 -1.45669671953925 -0.190313549670798 -2.25281131954855 -2.22966201459963 0 0 0 0 0 0 0 0 0 0 0 0 0 0 0 0 0 0 0 0 0 0 0 0 0 0 0 0 0 0 0 0 0 0 0 0 0 0 0 0 0 0 0 0 0 0 0 0 0 0 0 0 0 -3.27999831510894 -3.01262245754855 -0.654347112531132 0 0 0 0 0 0 0 0 0 0 0 0 0 0 0 0 0 0 0 0 0.627470044984978 0 1.02437734618155
0.337943355317001 0.172448255801949 0.0781007414285423 0 0 0 0 0 0 0 0 0 0 0 0 0 0 0 0 0 0 0 0 -1.62771566944998 -2.21373629872678 0 0 0 0 0 0 0 0 0 0 0 0 0 0 0 -1.14407690993589 -4.28721801113769 -0.929529257272174 -0.385392974655326 -0.552980540431649 0 0 0 0 0 0 -5.81540362818569 -1.22776089860722 0 0 0 0 0 0 -0.417766911546901 -2.10135211788422 -4.99369312217621 -1.19828728955064 -3.21280838005125 0 0 0 0 0 0 0 0 0 0 0 0 0 0 0 0 0 0 0 0 0 0 0 0 0 0 0 0 0 0 0 0 0 0 0 0 0 0 0 0 0 0 0 0 0 0 0 0 0 0 0 0 0 -0.874676760032414 -0.249104042949276 -0.360241330715599 0 0 0 0 0 0 0 0 0 0 0 0 0 0 0 0 0 0 0 0 0.15827502383821 0 0.500739867537136
0.0249898157838507 0.309365412100016 0.21260863313578 0 0 0 0 0 0 0 0 0 0 0 0 0 0 0 0 0 0 0 0 -0.8283676713042 -3.25833747113282 0 0 0 0 0 0 0 0 0 0 0 0 0 0 0 -0.711691362209345 -1.88189831120512 -0.608841602488906 -0.410289096708091 -2.02472462701253 0 0 0 0 0 0 -0.657288382695981 -3.33656716106032 0 0 0 0 0 0 -0.0688403690632884 -0.303185372560863 -3.7388808299056 -0.0794952293846677 -0.681923585910892 0 0 0 0 0 0 0 0 0 0 0 0 0 0 0 0 0 0 0 0 0 0 0 0 0 0 0 0 0 0 0 0 0 0 0 0 0 0 0 0 0 0 0 0 0 0 0 0 0 0 0 0 0 -0.806592225790715 -1.23101316295029 -3.06668221894382 0 0 0 0 0 0 0 0 0 0 0 0 0 0 0 0 0 0 0 0 0.0833707464692742 0 0.0276631184241347
0.988719904364364 0.223745380969219 0.252538973416429 0 0 0.701475459595731 0.719126862763537 0.0568904541155195 0.0492312898155391 0.218735838486972 0.0755574820567024 0.453111188304058 0.0820255668881818 0.15549700740628 0.947223508211947 0.141019439461691 0.646436509531437 0.205108580414034 0.0978462030435997 0.510834176795074 0.0766795159078079 0 0 -0.263297099609379 -0.451424101898986 0 0 0 0 0 0.133956102589228 0.0103580534199119 1.72478992082715 0.131929092843779 0.716471038317436 0.212359361814674 0.430585266184261 0.0231248636371603 0 0 -0.375400141078668 -0.668000130772622 -1.01300655466195 0 0 0 0 0 0 0 0 -1.03558083613679 -3.06390864967687 0 0 0 0 0 0 -2.14310717640735 -0.809832606638865 -0.43537659667781 -2.4279539917922 -0.716988774265056 0.499713123928352 0.127689536685527 0.3153894320714 0.720781413722293 0.528965513979446 0.917421392153532 0.221724103006263 0.326916961901775 0 0 0 0 0 0 0 0 0 0 0 0 0 0 0 0 0 0 0 0 0 0 0 0 0 0 0 0 0 0 0 0 0 0 0 0 0 0 0 0 0 0 0 0 0 -8.46431897878543 -1.05974353602383 -1.0865118396408 0 0 0 0 0 0 0 0 0 0 0 0 0 0 0 0 0 0 0 0 0 0 0
0.544244242304907 0.966473461274992 0.0601339534343404 0 0 0.341242077575121 0.124196794229286 0.217665825737048 0.078273115531334 0.243281275957428 0.0504935590883041 0.231047814200482 0.103694384823087 1.25384992770752 0.0309248185877057 0.378801208067997 0.324699607310587 0.0756842034077153 0.311409306898376 0.0751287371976173 2.11734365744949 0 0 -1.40135748050028 -0.288112356904899 0 0 0 0 0 0.148869345677541 0.0247003469292387 0.268615859396378 0.841392065844593 0.0836673323704599 0.118938556385583 0.13819894493078 0.463216155133282 0 0 -0.999264810616565 -0.683892380448382 -0.953438282419298 0 0 0 0 0 0 0 0 -2.31709621657712 -0.270968280946447 0 0 0 0 0 0 -1.70202134843805 -2.11682405071734 -2.82999330963155 -0.194611117415387 -2.28460921017675 0.259726228190791 0.154238452143965 0.238104375812719 1.39519801892432 0.131969534923956 0.297174189749293 0.350449935935137 0.137589793551465 0 0 0 0 0 0 0 0 0 0 0 0 0 0 0 0 0 0 0 0 0 0 0 0 0 0 0 0 0 0 0 0 0 0 0 0 0 0 0 0 0 0 0 0 0 -0.651347269924302 -0.470205586705379 -0.256120032047926 0 0 0 0 0 0 0 0 0 0 0 0 0 0 0 0 0 0 0 0 0 0 0
0.385353866093674 0.196816063663246 0.068648277289732 0 0 0.097046252867575 0.0907791576799517 0.0975748786995341 0.0986144458198177 0.459756780052936 0.094519404601357 0.0414581728386119 0.137186654093879 0.0335125767121459 0.411878811254332 0.708852584920265 0.529457472317367 0.260578112929175 0.238045919204605 1.09029029074195 0.132876361183501 0 0 -0.68376791638028 -0.172289605805936 0 0 0 0 0 0.168331839404209 0.0571509311852681 0.351668326128596 0.0576361535704585 0.0249079759619234 0.243293656474251 0.10579278042697 0.0450597418167098 0 0 -0.660133314943941 -0.404355108416931 -2.21716228547645 0 0 0 0 0 0 0 0 -2.47050305231354 -0.698550322119754 0 0 0 0 0 0 -8.08014197179886 -0.442248276335719 -3.36262999495577 -1.0113379910357 -1.71626083856805 0.348000630197371 0.112671800218854 0.0276265297560276 0.382515076770815 0.0702027475434597 0.0490560792822224 0.169799624144195 0.0307907348938735 0 0 0 0 0 0 0 0 0 0 0 0 0 0 0 0 0 0 0 0 0 0 0 0 0 0 0 0 0 0 0 0 0 0 0 0 0 0 0 0 0 0 0 0 0 -0.301911566281389 -0.421222339329031 -1.01197705580846 0 0 0 0 0 0 0 0 0 0 0 0 0 0 0 0 0 0 0 0 0 0 0
0.642149310544563 0.247359999468887 0.0714368451810826 0 0 0.0611440250543851 0.505969620501699 0.0919169192065539 0.154198863419757 0.815006848675551 0.0810484631943263 0.0605993395916542 0.0214416572388632 0.248552033179697 0.089886694378937 0.0367297060573784 0.336511887832773 0.0249934186282394 0.97207397081952 0.88757514101568 0.158006054132458 0 0 -0.279805255516369 -4.86033954099644 0 0 0 0 0 0.292719213350664 0.0733085184469983 0.598417789575257 0.333162524172711 0.534440114562437 0.158489156434047 1.1430835273631 0.10438920886763 0 0 -5.29789523037176 -8.69704240831338 -8.82592724808177 0 0 0 0 0 0 0 0 -10.7707749331027 -0.725224043673278 0 0 0 0 0 0 -0.335887574340126 -4.50461405012919 -1.11569373327753 -5.72538569567961 -1.24284862114704 0.090035123686172 1.37348750006805 0.744450030506207 0.0623215435820225 0.0435743241106509 0.246555416317821 0.0726314301156288 0.0952231896736047 0 0 0 0 0 0 0 0 0 0 0 0 0 0 0 0 0 0 0 0 0 0 0 0 0 0 0 0 0 0 0 0 0 0 0 0 0 0 0 0 0 0 0 0 0 -1.36248334054147 -0.779643101053195 -0.614890934801329 0 0 0 0 0 0 0 0 0 0 0 0 0 0 0 0 0 0 0 0 0 0 0
0.203775600440657 0.205522153726131 0.203899728147811 0 0 0.622488297684621 0.961953798023276 0.764753806555781 0.374890944292197 0.0992075701544285 0.659873788633482 0.0979732217484908 0.12930261568151 0.0760729663436245 0.114501151119093 0.0131073173039434 0.292833434850747 0.087083800287127 0.0653123810936607 0.365186803402015 0.343913404563486 0 0 -4.32909518021442 -2.65008499619213 0 0 0 0 0 0.0252062528586602 0.0260957674617427 0.0393358903067062 0.349075491467575 0.110985137880366 0.171486333266817 0.187483849018116 0.703779616710742 0 0 -0.517754325223275 -0.299096229057424 -3.54917374428588 0 0 0 0 0 0 0 0 -0.731014159807653 -2.50858373976886 0 0 0 0 0 0 -3.0975162029115 -0.664946719182805 -0.631078271882791 -0.223435922098475 -2.12957351509997 0.541203982310131 0.0713389025188828 0.0481241025792661 0.45131078845558 0.0378136439186105 0.0771803597253368 0.199457028534551 0.153741623122067 0 0 0 0 0 0 0 0 0 0 0 0 0 0 0 0 0 0 0 0 0 0 0 0 0 0 0 0 0 0 0 0 0 0 0 0 0 0 0 0 0 0 0 0 0 -1.12005852197909 -0.168381830806501 -1.362383257627 0 0 0 0 0 0 0 0 0 0 0 0 0 0 0 0 0 0 0 0 0 0 0
0 0 0 0 0 0 0 0 0 0 0 0 0 0 0 0 0 0 0 0 0 0 0 0 0 0 0 0 0 0 0 0 0 0 0 0 0 0 0 0 -1.05916102130508 -1.0933714415551 -0.831852817699102 0 0 0 0 0 0 0 0 -0.595770726046461 -0.44033606324845 0 0 0 0 0 0 -0.111140223766345 -1.63161716205728 0 0 -0.273530646990337 0 0 0 0 0 0 0 0 0 0 0 0 0 0 0 0 0 0 0 0 0 0 0 0 0 0 0 0 0 0 0 0 0 0 0 0 0 0 0 0 0 0 0 0 0 0 0 0 0.195592777941939 0.487538090358875 0.517332209401279 0.193045200007217 0.220190705654721 -0.213993197645684 -2.22746463396971 -0.962896710036823 0 0 0 0 0 0 0 0 0 0 0 0 0 0 0 0 0 0 0 0 0 0 0.0896341590937863
0 0 0 0 0 0 0 0 0 0 0 0 0 0 0 0 0 0 0 0 0 0 0 0 0 0 0 0 0 0 0 0 0 0 0 0 0 0 0 0 -0.109491885626175 -1.19676941554579 -1.31798620978609 0 0 0 0 0 0 0 0 -1.14534823884359 -1.47280693284703 0 0 0 0 0 0 -4.60611332914439 -0.211616096143764 0 0 -2.60757604744206 0 0 0 0 0 0 0 0 0 0 0 0 0 0 0 0 0 0 0 0 0 0 0 0 0 0 0 0 0 0 0 0 0 0 0 0 0 0 0 0 0 0 0 0 0 0 0 0 0.472667781011287 0.282700428291303 0.279540635072123 0.817246431516656 0.578774179680137 -0.202401282459385 -1.51797417589612 -0.664780059474805 0 0 0 0 0 0 0 0 0 0 0 0 0 0 0 0 0 0 0 0 0 0 0.0269780682195391
0 0 0 0.165383749697054 0.140978660083584 0 0 0 0 0 0 0 0 0 0 0 0 0 0 0 0 0 0 0 0 0 0 0 0 0 0 0 0 0 0 0 0 0 0 0 0 0 0 0 0 0 0 0 -3.08612850715895 -0.811096335595711 -0.373206156104671 0 0 -0.51305249867351 -0.681481826398603 -0.432917224664507 -0.463966245909228 -1.75556287532901 -0.821319608920499 -0.484746239995996 -0.439642497705248 -4.68145061784249 -1.57834392629507 0 0 0 0 0 0 0 0 0 0 0 0 0 0 0 0 0 0 0 0 0 0 0 0 0 0 0 0 0 0 0 0 0 0 0 0 0 0 0 0 0 0 0 0 0 0 0 -0.904509947222026 -2.27230710732819 0 0 0 0 0 0 0 0 0 0 0 0 0 0 0 0 0 0 0 0 0 0 0 0 0 0 0 0 0 0.155268475613211 0
0 0 0 0.377457149475484 0.273232309210653 0 0 0 0 0 0 0 0 0 0 0 0 0 0 0 0 0 0 0 0 0 0 0 0 0 0 0 0 0 0 0 0 0 0 0 0 0 0 0 0 0 0 0 -0.884349191218737 -2.6972981466312 -0.687212185249547 0 0 -1.13426246194633 -0.501958806483895 -0.261462767796414 -0.215221540321561 -0.234776165286389 -1.15248586163918 -0.180332687818684 -1.53323161472841 -5.16947259047709 -1.70084768356449 0 0 0 0 0 0 0 0 0 0 0 0 0 0 0 0 0 0 0 0 0 0 0 0 0 0 0 0 0 0 0 0 0 0 0 0 0 0 0 0 0 0 0 0 0 0 0 -2.4374984114772 -1.329385851484 0 0 0 0 0 0 0 0 0 0 0 0 0 0 0 0 0 0 0 0 0 0 0 0 0 0 0 0 0 0.24633936556208 0
0 0 0 0.35519526612272 0.13490896451954 0 0 0 0 0 0 0 0 0 0 0 0 0 0 0 0 0 0 0 0 0 0 0 0 0 0 0 0 0 0 0 0 0 0 0 0 0 0 0 0 0 0 0 -6.89097640792075 -0.433668218073285 -1.94254954928783 0 0 -2.30769412898153 -1.34725427156515 -1.17097521507206 -0.533702392259279 -0.363071741806684 -0.30971735765156 -1.03089250869424 -1.51398191549084 -0.593066486775733 -1.56623714339988 0 0 0 0 0 0 0 0 0 0 0 0 0 0 0 0 0 0 0 0 0 0 0 0 0 0 0 0 0 0 0 0 0 0 0 0 0 0 0 0 0 0 0 0 0 0 0 -2.27542275238219 -1.32677214635486 0 0 0 0 0 0 0 0 0 0 0 0 0 0 0 0 0 0 0 0 0 0 0 0 0 0 0 0 0 0.510594054756342 0
0 0 0 0.191150879995554 0.146398214240529 0 0 0 0 0 0 0 0 0 0 0 0 0 0 0 0 0 0 0 0 0 0 0 0 0 0 0 0 0 0 0 0 0 0 0 0 0 0 0 0 0 0 0 -3.2310813521311 -3.86990272241932 -2.61995058720634 0 0 -0.764443988341582 -1.20065016409604 -1.5580219994891 -0.86800867182087 -0.378011831560294 -0.0721630704825582 -0.525411515881062 -1.11922249756548 -0.288834002198878 -0.944760532510556 0 0 0 0 0 0 0 0 0 0 0 0 0 0 0 0 0 0 0 0 0 0 0 0 0 0 0 0 0 0 0 0 0 0 0 0 0 0 0 0 0 0 0 0 0 0 0 -0.996093001247894 -4.6220450552485 0 0 0 0 0 0 0 0 0 0 0 0 0 0 0 0 0 0 0 0 0 0 0 0 0 0 0 0 0 0.573500361778833 0
0 0 0 0.277527417436809 0.383830162050448 0 0 0 0 0 0 0 0 0 0 0 0 0 0 0 0 0 0 0 0 0 0 0 0 0 0 0 0 0 0 0 0 0 0 0 0 0 0 0 0 0 0 0 -0.836451225872616 -0.358332878987221 -1.57779195045894 0 0 -0.651868150447051 -0.596957425832291 -4.27439248731732 -5.06666807250404 -0.226258174531704 -1.42848036390731 -0.306237982661559 -6.15360445008906 -0.613558373861429 -0.343551486175602 0 0 0 0 0 0 0 0 0 0 0 0 0 0 0 0 0 0 0 0 0 0 0 0 0 0 0 0 0 0 0 0 0 0 0 0 0 0 0 0 0 0 0 0 0 0 0 -1.12250816753131 -3.0513983330907 0 0 0 0 0 0 0 0 0 0 0 0 0 0 0 0 0 0 0 0 0 0 0 0 0 0 0 0 0 0.146039941299932 0
0 0 0 0 0 0 0 0 0 0 0 0 0 0 0 0 0 0 0 0 0 1.46737223825163 0 0.153250279038796 0.89199097554487 0 0 0 0 0 0 0 0 0 0 0 0 0 0 0 0 0 0 0 0 0 0 0 0 0 0 0 0 0 0 0 0 0 0 0 0 0 0 0 0.06905877464724 0.967306736134276 0.116569786936208 0.734965038157883 0.113268092147886 0.214424827216526 0.0794436677902984 0.135025906632951 0 0 0 0 0 0 0 0 0 0 0 0 0 0 0 0 0.411415172919866 0.394459530069376 0.0599415823068139 0.0635067503732833 0.125117580260518 0.0583099893910192 0.117124279287689 0.201491450613777 0.417083332207372 0.825064281433791 0.231473677257901 0.277219047404011 0.591307212655993 0.0690586799233525 0.67001275840859 0.163690634101093 0.164059412881986 1.49582122423122 0.128489118631218 0.0632377723420924 0.273921480148565 0.203500732004043 0.0404948846415551 0.0427577423911745 0 0 0 0 0 0 0 0 0 0 0 0 0 0 0 0 0 0 0 0 0 0 0 0 0 0 0 0 0 0 0
0 0 0 0 0 0 0 0 0 0 0 0 0 0 0 0 0 0 0 0 0 0.0857204285149314 0 0.0682305764687735 1.49561167643019 0 0 0 0 0 0 0 0 0 0 0 0 0 0 0 0 0 0 0 0 0 0 0 0 0 0 0 0 0 0 0 0 0 0 0 0 0 0 0 0.158363483626221 0.350742262125947 0.431794564241089 0.390200441685814 0.648515157633042 0.179704698672263 0.0826964428579652 0.0332306476449932 0 0 0 0 0 0 0 0 0 0 0 0 0 0 0 0 0.229658830879006 0.414345591094395 0.13235087598496 0.0530930500858523 0.16054237661979 0.376105816553118 0.0739233926288007 0.49599067874354 0.391255033156868 0.291627763197686 0.146155418186871 0.151291456990812 1.18614251206837 0.0810571278527817 0.620262937884978 0.0518653691278705 0.261515664184035 0.210636295560702 0.0928660388717732 0.0848120539629702 0.134376666020035 0.0317667376952878 0.458392658602611 0.33519367922362 0 0 0 0 0 0 0 0 0 0 0 0 0 0 0 0 0 0 0 0 0 0 0 0 0 0 0 0 0 0 0
0 0 0 0 0 0 0 0 0 0 0 0 0 0 0 0 0 0 0 0 0 0.0848613436190294 0 0.623505057869705 0.126378535846333 0 0 0 0 0 0 0 0 0 0 0 0 0 0 0 0 0 0 0 0 0 0 0 0 0 0 0 0 0 0 0 0 0 0 0 0 0 0 0 0.133791380929137 0.382711722869687 0.234526140203107 0.110755794537321 0.0866786689455714 0.0306479271715686 1.29378800783823 0.202464291616351 0 0 0 0 0 0 0 0 0 0 0 0 0 0 0 0 0.115490951945212 0.035879587477815 0.306451131069001 0.22480801915885 0.286916983209684 0.383996833528757 0.265169069999782 0.130352893807921 0.0465768752296563 0.280310638226285 0.214961955474307 0.0180849964152922 0.099381392696651 0.063981973281604 0.136919771388192 0.0698200967061357 0.645100303026089 0.210292007939452 0.0501419599276279 0.190665261929726 0.121512294053375 0.282685983194178 0.193493500250642 0.142329700398316 0 0 0 0 0 0 0 0 0 0 0 0 0 0 0 0 0 0 0 0 0 0 0 0 0 0 0 0 0 0 0
0 0 0 0 0 0 0 0 0 0 0 0 0 0 0 0 0 0 0 0 0 0 0 0 0 0 0 0 0 0 0 0 0 0 0 0 0 0 0 0 0 0 0 0 0 0 0.125951325791987 0.101610198848948 0 0 0 0 0 0.0412741382945184 0 0 0 0 0 0 0.497326066795927 0 0 0 0 0 0 0 0 0 0 0 0 0 0 0 0 0 0 0 0 0 0 0 0 0 0 0 0 0 0 0 0 0 0 0 0 0 0 0 0 0 0 0 0 0 0 0 0 0 0 0 0 0 0 0 0 0 0 0 0 0 0 0 0 0 0 0 0 0 0 0 0 0 0 0 0 0 0 0 0 0 0
0 0 0 0 0 0 0 0 0 0 0 0 0 0 0 0 0 0 0 0 0 0 0 0 0 0 0 0 0 0 0 0 0 0 0 0 0 0 0 0 0 0 0 0 0 0 0.10464729868425 0.325717474483774 0 0 0 0 0 0.191829478532568 0 0 0 0 0 0 0.0589354111598848 0 0 0 0 0 0 0 0 0 0 0 0 0 0 0 0 0 0 0 0 0 0 0 0 0 0 0 0 0 0 0 0 0 0 0 0 0 0 0 0 0 0 0 0 0 0 0 0 0 0 0 0 0 0 0 0 0 0 0 0 0 0 0 0 0 0 0 0 0 0 0 0 0 0 0 0 0 0 0 0 0 0
0 0 0 0 0 0 0 0 0 0 0 0 0 0 0 0 0 0 0 0 0 0 0 0 0 0 0 0 0 0 0 0 0 0 0 0 0 0 0 0 0 0 0 0 0 0 0.251197455300972 0.389881520201174 0 0 0 0 0 0.136431119597077 0 0 0 0 0 0 0.534498986817868 0 0 0 0 0 0 0 0 0 0 0 0 0 0 0 0 0 0 0 0 0 0 0 0 0 0 0 0 0 0 0 0 0 0 0 0 0 0 0 0 0 0 0 0 0 0 0 0 0 0 0 0 0 0 0 0 0 0 0 0 0 0 0 0 0 0 0 0 0 0 0 0 0 0 0 0 0 0 0 0 0 0
0 0 0 0 0 0 0 0 0 0 0 0 0 0 0 0 0 0 0 0 0 0 0 0 0 0 0 0 0 0 0 0 0 0 0 0 0 0 0 0 0 0 0 0 0 0 0.0678278377991557 0.368483059178893 0 0 0 0 0 0.103097523440319 0 0 0 0 0 0 0.187691122228996 0 0 0 0 0 0 0 0 0 0 0 0 0 0 0 0 0 0 0 0 0 0 0 0 0 0 0 0 0 0 0 0 0 0 0 0 0 0 0 0 0 0 0 0 0 0 0 0 0 0 0 0 0 0 0 0 0 0 0 0 0 0 0 0 0 0 0 0 0 0 0 0 0 0 0 0 0 0 0 0 0 0
0 0 0 0 0 0 0 0 0 0 0 0 0 0 0 0 0 0 0 0 0 0 0 0 0 0 0 0 0 0 0 0 0 0 0 0 0 0 0 0 0 0 0 0 0 0 0.393383512184689 0.12415672326318 0 0 0 0 0 0.472589812130718 0 0 0 0 0 0 1.41741550553084 0 0 0 0 0 0 0 0 0 0 0 0 0 0 0 0 0 0 0 0 0 0 0 0 0 0 0 0 0 0 0 0 0 0 0 0 0 0 0 0 0 0 0 0 0 0 0 0 0 0 0 0 0 0 0 0 0 0 0 0 0 0 0 0 0 0 0 0 0 0 0 0 0 0 0 0 0 0 0 0 0 0
0 0 0 0 0 0 0 0 0 0 0 0 0 0 0 0 0 0 0 0 0 0 0 0 0 0 0 0 0 0 0 0 0 0 0 0 0 0 0 0 0 0 0 0 0 0 0.259311165455146 0.43060865935043 0 0 0 0 0 0.0686725245048266 0 0 0 0 0 0 0.387242621045067 0 0 0 0 0 0 0 0 0 0 0 0 0 0 0 0 0 0 0 0 0 0 0 0 0 0 0 0 0 0 0 0 0 0 0 0 0 0 0 0 0 0 0 0 0 0 0 0 0 0 0 0 0 0 0 0 0 0 0 0 0 0 0 0 0 0 0 0 0 0 0 0 0 0 0 0 0 0 0 0 0 0
0 0 0 0 0 0 0 0 0 0 0 0 0 0 0 0 0 0 0 0 0 0 0 0 0 0 0 0 0 0 0 0 0 0 0 0 0 0 0 0 0 0 0 0 0 0 0.282235068258412 0.146336534128393 0 0 0 0 0 0.104335750840697 0 0 0 0 0 0 0.205589570074398 0 0 0 0 0 0 0 0 0 0 0 0 0 0 0 0 0 0 0 0 0 0 0 0 0 0 0 0 0 0 0 0 0 0 0 0 0 0 0 0 0 0 0 0 0 0 0 0 0 0 0 0 0 0 0 0 0 0 0 0 0 0 0 0 0 0 0 0 0 0 0 0 0 0 0 0 0 0 0 0 0 0
0 0 0 0 0 0 0 0 0 0 0 0 0 0 0 0 0 0 0 0 0 0.0377353677299158 0 0 0 0 0 0 0 0 0 0 0 0 0 0 0 0 0 0 0.206510008028467 0.204086063202324 0.231000003947987 0 0 0 0 0 0.0541788993378444 0.0736805359850504 0.132229494791182 0.205820272267617 0.108498046359032 0.0758212437180439 0.145812012305572 0.133904714270298 0.178390334122554 0.364510482876865 0.0429970524752559 0.162869038354057 0.106439200608146 0 0 0 0 0 0 0 0 0 0 0 0 0 0 0 0 0 0 0 0 0 0 0 0 0 0 0 0 0 0 0 0 0 0 0 0 0 0 0 0 0 0 0 0 0 0 0 0 0 0 0 0 0 0 0 0 0 0 0 0 0 0 0 0 0 0 0 0 0 0 0 0 0 0 0 0 0 0 0 0 0 0
0 0 0 0 0 0 0 0 0 0 0 0 0 0 0 0 0 0 0 0 0 0.181936668974377 0 0 0 0 0 0 0 0 0 0 0 0 0 0 0 0 0 0 0.0620357391653139 0.281732831083171 0.0815758467973522 0 0 0 0 0 0.200464587216119 0.0366687338250473 0.030582801908014 0.0945319392099887 0.219085492357302 0.31844342093299 0.196325084147202 0.812507383521333 0.151340723821366 0.3902837552317 0.233783843443636 0.0796256082980231 0.368611920333735 0 0 0 0 0 0 0 0 0 0 0 0 0 0 0 0 0 0 0 0 0 0 0 0 0 0 0 0 0 0 0 0 0 0 0 0 0 0 0 0 0 0 0 0 0 0 0 0 0 0 0 0 0 0 0 0 0 0 0 0 0 0 0 0 0 0 0 0 0 0 0 0 0 0 0 0 0 0 0 0 0 0
0 0 0 0 0 0 0 0 0 0 0 0 0 0 0 0 0 0 0 0 0 0.178488291370986 0 0 0 0 0 0 0 0 0 0 0 0 0 0 0 0 0 0 0.761917640663228 0.142796376426846 0.0991574686979509 0 0 0 0 0 0.218286134067021 0.304132034753916 0.630693112483045 0.438326884001327 0.0177007641871023 0.0366065131581022 0.125604540013071 0.272927800537042 0.122014187164916 0.131710691043372 0.224729997788455 0.602515737750131 0.278384875486119 0 0 0 0 0 0 0 0 0 0 0 0 0 0 0 0 0 0 0 0 0 0 0 0 0 0 0 0 0 0 0 0 0 0 0 0 0 0 0 0 0 0 0 0 0 0 0 0 0 0 0 0 0 0 0 0 0 0 0 0 0 0 0 0 0 0 0 0 0 0 0 0 0 0 0 0 0 0 0 0 0 0
0 0 0 0 0 0 0 0 0 0 0 0 0 0 0 0 0 0 0 0 0 0.197127010468659 0 0.642927458659617 0.0235968888217377 0.0563676836945501 0 0 0 0 0 0 0 0 0 0 0 0 0 0 0.916049189761872 0.321687912851717 0.610310338157937 0 0 0 0 0 0 0 0 0.152147880587554 0.0929794788353278 0.0371788407441715 0 0 0 0 0 0 0 0 0 0 0 0 0 0 0 0 0 0 0 0 0 0 0 0 0 0 0 0 0 0 0 0 0 0 0 0 0 0 0 0 0 0 0 0 0 0 0 0 0 0 0 0 0 0 0 0 0 0 0 0 0 0 0 0 0 0 0 0 0 0 0 0 0 0 0 0 0 0 0 0 0 0 0 0 0 0 0 0 0
0 0 0 0 0 0 0 0 0 0 0 0 0 0 0 0 0 0 0 0 0 0.00832489460341924 0 0.0283095534230441 0.0176476595864278 0.0551716069409532 0 0 0 0 0 0 0 0 0 0 0 0 0 0 1.29062814416831 0.336739050285668 0.710120401992676 0 0 0 0 0 0 0 0 1.60814417781098 0.142784222272214 0.0960000578892862 0 0 0 0 0 0 0 0 0 0 0 0 0 0 0 0 0 0 0 0 0 0 0 0 0 0 0 0 0 0 0 0 0 0 0 0 0 0 0 0 0 0 0 0 0 0 0 0 0 0 0 0 0 0 0 0 0 0 0 0 0 0 0 0 0 0 0 0 0 0 0 0 0 0 0 0 0 0 0 0 0 0 0 0 0 0 0 0 0
0 0 0 0 0 0 0 0 0 0 0 0 0 0 0 0 0 0 0 0 0 0.14345217211476 0 0.321593657115599 0.0829502113615657 0.115441048603267 0 0 0 0 0 0 0 0 0 0 0 0 0 0 0.0260036774152504 0.018740629171432 0.458698565959153 0 0 0 0 0 0 0 0 0.902865488032124 0.168063449892478 0.443129238862184 0 0 0 0 0 0 0 0 0 0 0 0 0 0 0 0 0 0 0 0 0 0 0 0 0 0 0 0 0 0 0 0 0 0 0 0 0 0 0 0 0 0 0 0 0 0 0 0 0 0 0 0 0 0 0 0 0 0 0 0 0 0 0 0 0 0 0 0 0 0 0 0 0 0 0 0 0 0 0 0 0 0 0 0 0 0 0 0 0
0 0 0 0 0 0 0 0 0 0 0 0 0 0 0 0 0 0 0 0 0 0.329396034250587 0 0.444055331249399 0.0940743039019356 0.414228644974414 0 0 0 0 0 0 0 0 0 0 0 0 0 0 0.207461778282357 0.209315373761074 0.792161322388909 0 0 0 0 0 0 0 0 0.141323290470577 0.146049196293687 0.482317289295434 0 0 0 0 0 0 0 0 0 0 0 0 0 0 0 0 0 0 0 0 0 0 0 0 0 0 0 0 0 0 0 0 0 0 0 0 0 0 0 0 0 0 0 0 0 0 0 0 0 0 0 0 0 0 0 0 0 0 0 0 0 0 0 0 0 0 0 0 0 0 0 0 0 0 0 0 0 0 0 0 0 0 0 0 0 0 0 0 0
0 0 0 0 0 0 0 0 0 0 0 0 0 0 0 0 0 0 0 0 0 0 0 0 0 0 0 0 0 0 0 0 0 0 0 0 0 0 0 0 0 0 0 0.661415993385704 0.440851707664723 0 0.283973168002013 0.119523609967528 0 0 0 0 0 0.035324104730749 0 0 0 0 0 0 0 0 0 0 0 0 0 0 0 0 0 0 0 0 0 0 0 0 0 0 0 0 0 0 0 0 0 0 0 0 0 0 0 0 0 0 0 0 0 0 0 0 0 0 0 0 0 0 0 0 0 0 0 0 0 0 0 0 0 0 0 0 0 0 0 0 0 0 0 0 0 0 0 0 0 0 0 0 0 0 0 0 0
0 0 0 0 0 0 0 0 0 0 0 0 0 0 0 0 0 0 0 0 0 0 0 0 0 0 0 0 0 0 0 0 0 0 0 0 0 0 0 0 0 0 0 1.06046376474147 0.13321358148534 0 0.122028725103892 0.0955722679093581 0 0 0 0 0 0.100224142135111 0 0 0 0 0 0 0 0 0 0 0 0 0 0 0 0 0 0 0 0 0 0 0 0 0 0 0 0 0 0 0 0 0 0 0 0 0 0 0 0 0 0 0 0 0 0 0 0 0 0 0 0 0 0 0 0 0 0 0 0 0 0 0 0 0 0 0 0 0 0 0 0 0 0 0 0 0 0 0 0 0 0 0 0 0 0 0 0 0
0 0 0 0 0 0 0 0 0 0 0 0 0 0 0 0 0.286807467524029 0.220944887075625 0.514694393379145 0.994461650453236 0.412012890571386 0 0 0 0 0 0 0 0 0 0 0 0 0 0 0 0 0 0 0 0 0 0 0 0 0 0 0 0 0 0 0 0 0 0 0 0 0 0 0 0 0 0 0 0.0519920116820311 0.0316710446182407 0.0775592983747752 0.339115864400028 0.152815480472276 0.12633292634372 0.0723337309811221 0.0920215074910217 0 0 0 0 0 0 0 0 0 0 0 0 0 0 0 0 0 0 0 0 0 0 0 0 0 0 0 0 0 0 0 0 0 0 0 0 0 0 0 0 0 0 0 0 0 0 0 0 0 0 0 0 0 0 0 0 0 0 0 0 0 0 0 0 0 0.282257019890643 0.123379037303885 0 0 0 0
0 0 0 0 0 -0.295632333575099 -0.652537468469055 -0.949017064097698 -0.321108606186993 -0.819766755826076 -1.56427415354463 -1.22035680248167 -1.86827043085534 -2.46560135740855 -2.21882355136595 -10.053540289638 0 0 0 0 0 0 -0.58259966871595 -1.84416086225243 -8.53633403853713 -1.73806299707006 -3.15973461974921 -2.34619615641111 -2.10687868190859 0 0 0 0 0 0 0 0 0 -2.3332781639474 -1.9014871200624 -6.05006714367391 -0.0749280154484762 -6.74749551433237 -3.28824283276236 -0.558879004009432 0 0 0 0 0 0 0 0 0 0 0 0 0 0 0 0 0 0 0 0 0 0 0 0 0 0 0 0 0 0 0 0 0 0 0 0 0 0 0 0 0 0 0 0 0 0 0 0 0 0 0 0 0 0 0 0 0 0 0 0 0 0 0 0 0 0 0 0 0 0 0 0 0 0 0 0 0 0 0 0 0 0 0 0 0 0 0 0 0 0 0 -1.44112889169543 0 0 0 0 0 0
0 0 0 0 0 -0.535886328799098 -0.329676346159737 -8.81196639150752 -1.43466066992518 -2.23754680028766 -2.94336004817488 -1.43055221122564 -1.17185829998635 -0.558280381812644 -1.39314621273916 -1.33630731558695 0 0 0 0 0 0 -1.08010252812421 -1.52327503212326 -4.93270201761486 0 -3.10596963782855 -1.06994777381694 -1.28832288718369 0 0 0 0 0 0 0 0 0 -0.223997818148042 -1.04279564745468 -1.29036237520445 -5.75347202577415 -1.57651283785368 0 0 0 0 0 0 0 0 0 0 0 0 0 0 0 0 0 0 0 0 0 0 0 0 0 0 0 0 0 0 0 0 0 0 0 0 0 0 0 0 0 0 0 0 0 -5.05389812217384 -1.15101282144897 -2.93451784509008 -0.38422184125027 -1.78868635671719 -1.09898047586949 -0.391760040685052 0 0 0 0 0 0 0 0 0 0 0 0 0 0 0 0 0 0 0 0 0 0 0 0 0 0 0 0 0 0 0 0 0 0 0 0 0 0 0 0 0 -0.678409574270788 0 0 0 0 0 0
0 0 -1.09590802661581 0 0 0 0 0 0 0 0 0 0 0 0 0 0 0 0 0 0 0 0 0 0 0 0 0 0 0 0 0 0 0 0 0 0 0 0 0 0 0 0 0 0 0 0 0 0 0 0 0 0 -1.79645854239592 -0.738879714286348 -1.38935460573858 -0.930520380425438 0 0 0 0 0 0 0 0 0 0 0 0 0 0 0 0 0 0 0 0 0 0 0 0 0 0 0 0 0 0 0 0 0 0 0 0 0 0 0 0 0 0 0 0 0 0 0 0 0 0 0 0 0 0 0 0 0 0 0 0 0 0 0 0 0 0 0 0 0 0 0 0 0 0 0 0 0 0 0 0 0 0 0 0 0 0
0 -0.253450281631879 0 0 0 -2.79475245126392 -0.397294828634426 -0.705824468912685 -10.6574234447933 -1.41863060796262 -2.12675313531238 -7.79083603167801 -1.47346684563918 -2.29482705853201 -1.63523582917674 -0.564572284328359 0 0 0 0 0 -1.82033431139256 -0.718244789391235 0 0 0 0 0 0 -1.9494415429932 -0.117745767497979 -4.29842861755654 -0.582791237164529 -0.731328840533317 -0.556138074140944 -1.10208809949007 -0.913613574903275 -3.07808437893461 0 0 0 0 0 0 0 0 0 0 0 0 0 0 0 -0.446141792112441 0 0 0 0 0 -0.541988932582795 -0.262220075623041 -0.881875387138483 -0.93770951104784 0 -0.589623380974201 -4.17130454188271 -0.47223555178746 -1.40895747932428 -0.526953733209264 -1.7546626075065 -1.5287208018176 -0.305367540871767 0 0 0 0 0 0 0 0 0 0 0 0 0 0 0 0 0 0 0 0 0 0 0 -0.981811767816216 -0.186486798601018 -0.6105546097533 -0.590618653633042 -1.89447917002906 -0.358546506744539 -3.78669555618267 -3.13256880349691 -0.734867611597645 -0.420688329269505 0 0 0 0 0 0 0 0 0 0 0 0 0 0 0 0 0 0 0 0 0 0 0 0 0 0 0 0 0 0 0 0 0 0 0 0 0 0
0 0 -0.238707656186356 -0.422163366600811 -1.29883197872714 0 0 0 0 0 0 0 0 0 0 0 -0.217178961633004 -0.585675150501762 -0.565183452157338 -0.675065336934517 -0.486112109405622 0 0 0 0 0 0 0 0 0 0 0 0 0 0 0 0 0 0 0 0 0 0 0 0 0 0 0 0 0 0 -2.68734584974894 -2.14388649563427 0 0 0 0 0 0 0 0 0 0 0 0 0 0 0 0 0 0 0 0 0 0 0 0 0 0 0 0 0 0 0 0 0 0 0 0 0 0 0 0 0 0 0 0 0 0 0 0 0 0 0 0 0 0 0 0 0 0 0 -0.713312531141502 -1.28432856886512 -2.54611788526357 -2.95901684138685 -0.767564634877753 0 0 0 0 0 0 0 0 0 0 0 0 0 0 0 0 0 0 0 0 0 0 0 0 0 0
0 -0.940271907273498 0 0 -1.20810482718755 -2.0790706986272 -0.225571458416475 -0.374143450528294 -0.356641292098113 -0.194515020954447 -1.54740325527183 -0.531063112508406 -3.91194838350054 -0.572487542677837 -0.263921658232784 -3.65683009080346 0 0 0 0 0 -0.978966497927833 0 -1.61134919121305 -1.41032204907353 0 0 0 0 -4.33916324963099 -3.4369794887938 -0.047631389738633 -2.13484287227276 -0.24471978526358 -0.895641772495777 -0.90246782705092 -0.465178877381627 -4.58563978508168 0 0 -0.267977645545973 -0.353687862372306 -0.10383951714517 0 0 0 0 0 0 0 0 0 0 -7.85520550748733 -0.989884169199676 -0.487780883484109 -0.884102666684655 0 0 -1.14557471036237 0 0 0 0 -4.45749113007523 -2.11345708230996 -0.21937689685041 -1.16650242478983 -0.444678557583543 -0.595171035014226 -1.18573963392539 -0.511453044388291 -0.986191221080565 -0.853255518016118 -1.36373923445663 -0.266129427183095 -0.280029504071469 -2.65222545557482 -1.18387406491007 -0.880626277124119 -0.452200894457345 -0.233562054139057 -4.27844426235114 -4.76174353034468 -1.92974963326902 -0.805716252585126 -6.68966144351089 -0.479704323338045 0 0 0 0 0 0 0 -0.505976536488065 -0.0737489208613629 -0.441730729718912 -1.93684858327544 -1.09013445350741 -3.36997724636265 -0.413153629498801 -5.26324706253847 -2.48530681660512 -0.143842506714175 0 0 0 0 0 -0.443737599606435 -0.124387375977341 0 0 0 0 0 0 0 0 0 0 0 0 0 0 0 0 0 0 0 0 0 0 0 0 0 0 0 0 0 0 0
