0 -0.248685110226796 -0.634142279301232 0 0 0 0 0 0 0 0 0 0 0 0 0 0 0 0 0 0 -1.07265305428047 0 0 0 0 0 0 0 -2.47313726330895 -0.323630023135265 -2.80740169952225 -0.480115789154299 -0.43854137500229 -0.630254525775382 -0.585974804095527 -0.883154240682199 -1.2663134818777 0 0 0 0 0 0 0 0 0 0 0 0 0 0 0 0 0 0 0 0 0 0 0 0 0 0 -1.08075901750875 -1.39683183485618 -2.77076985279513 -2.50805096182018 -5.0776391942379 -0.366923173038225 -10.2387826489952 -3.00711871943147 0 0 0 0 0 0 0 0 0 0 0 0 0 0 0 0 0 0 0 0 0 0 0 -1.70958082080664 -0.765949383739278 -1.48487220045698 -9.90180865971114 -0.53102870703612 -0.786109639380986 -0.141357048640696 -0.88529010903377 -1.57753351400973 -0.498037764655247 -3.27321261932567 -0.242720301181281 -0.162934529711538 -0.294521818770294 -1.32049097889529 0 0 0 0 0 0 0 0 0 0 0 0 0 0 0 0 0 0 0 0 0 0 0 0 0 0 0 0 0 0 0 0 0
0.0479358403088084 -1.37802803789826 -0.997490371270896 0 0 0 0 0 0 0 0 0 0 0 0 0 0 0 0 0 0 0 0 0 0 0 0 0 0 -0.65813999377882 -0.323563256250951 -1.44008300117748 -0.76104606397602 -1.67068829440048 -0.229548233027201 -0.559706770420435 -0.886865713292617 -3.05227069795154 0 0 0 0 0 0 0 0 0 0 0 0 0 0 0 0 0 0 0 0 0 0 0 0 0 0 -0.913340577203094 -0.664384124724145 -1.24548460981965 -0.417852506718355 -0.4244224652377 -2.97850486346795 -0.093580621533745 -1.88144685821851 0 0 0 0 0 0 0 0 0 0 0 0 0 0 0 0 0 0 0 0 0 0 0 -2.65558152572558 -0.228534614263446 -0.86320125390335 -0.775567365067099 -2.19534209085225 -0.636595431435888 -1.072188461557 -0.515593086818253 -3.38263603529027 -0.625579902598046 -2.51098495013041 -2.76109755187042 -0.319264816614624 -1.63024821719369 -0.75678729418247 0 0 0 0 0 0 0 0 0 0 0 0 0 0 0 0 0 0 0 0 0 0 0 0 0 0 0 0 0 0 0.0701247792734257 0 0.190464474057125
0.123285285023665 0.219837773055002 -0.0429050213855237 0 0 0 0 0 0 0 0 0 0 0 0 0 0 0 0 0 0 -2.88242407399771 0 0 0 0 0 0 0 -0.634319112870888 0 0 0 0 0 0 0 0 0 0 -0.177271581817308 -0.120740425342518 -4.43064982527598 0 0 0 0 0 0 0 0 0 0 -0.213838966385528 -0.497003643403717 -1.64819905321329 -3.01159570867393 -0.82596278571035 -0.803277719581783 -0.687323960213077 -2.12396199401851 -0.659595586586193 -1.44463969236441 0 -1.16602107113073 -0.409784492645707 -2.84074428270569 -0.622967692153124 -0.578093201011187 -0.951504873744679 -0.289797089982393 -3.48326249950009 0 0 0 0 0 0 0 0 0 0 0 0 0 0 0 0 0 0 0 0 0 0 0 -1.22674555004813 -0.937676665747389 -1.62054786800071 -3.06012601405667 -0.315336003575563 -1.4574513302448 -0.859713739124629 -2.97396525564203 -1.29610559602922 -1.21888217626187 -1.06675642820062 -1.09251236524357 -0.282665293974686 -0.577438666995285 -0.246230935267313 0 0 0 0 0 0 0 0 0 0 0 0 0 0 0 0 0 0 0 0 0 0 0 0 0 0 0 0 0 0.100619668405305 0 1.03985995447027 0
0 0 0 0 -0.863817127489129 0 0 0 0 0 0 0 0 0 0 0 -0.123219790595292 -1.15346089593995 -0.4977215571698 -1.00460122719834 -0.343346063954003 0 0 0 0 0 0 0 0 0 0 0 0 0 0 0 0 0 0 0 0 0 0 0 0 0 0 0 0 0 0 0 0 0 0 0 0 0 0 0 0 0 0 0 0 0 0 0 0 0 0 0 0 0 0 0 0 0 0 0 0 0 0 0 0 0 0 0 0 0 0 0 0 0 0 0 0 0 0 0 0 0 0 0 0 0 0 0 0 0 0 0 -0.696807350834533 -0.155899891327654 -6.42231930289105 -0.4483693353486 -0.14955812075193 0 0 0 0 0 0 0 0 0 0 0 0 0 0 0 0 0 0 0 0 0 0 0 0 0.0617828175255775 0
0 0 0 0.156512063474797 -0.636068830149726 0 0 0 0 0 0 0 0 0 0 0 -0.309292646356682 -2.01165564903326 -2.51874816464777 -3.18525479319632 -1.29751289982293 0 0 0 0 0 0 0 0 0 0 0 0 0 0 0 0 0 0 0 0 0 0 0 0 0 0 0 0 0 0 0 0 0 0 0 0 0 0 0 0 0 0 0 0 0 0 0 0 0 0 0 0 0 0 0 0 0 0 0 0 0 0 0 0 0 0 0 0 0 0 0 0 0 0 0 0 0 0 0 0 0 0 0 0 0 0 0 0 0 0 0 -0.407679767737861 -0.516281939880827 -0.259824056466386 -1.95915291410972 -1.27389093884498 0 0 0 0 0 0 0 0 0 0 0 0 0 0 0 0 0 0 0 0 0 0 0 0 0.612214000000623 0.302532663894306
0 0 0 0 0 0 0 0 0 0 0 0 0 0 0 0 0 0 0 0 0 0 0 -2.24574834941035 -1.04536417178046 0 0 0 0 0 0 0 0 0 0 0 0 0 0 0 -0.713668247382182 -0.711834721992824 -0.385405024393701 0 0 -1.15792361316392 0 0 0 0 0 -3.44682604209795 -0.903806715652075 -2.08338356302767 -0.600028936665957 -0.883457938093214 -0.467431879567367 -0.460491745349419 -0.547190549313382 -1.22111439510426 -1.15655283501099 -0.827076145360644 -0.302160098189491 -1.06035748285562 0 0 0 0 0 0 0 0 0 0 0 0 0 0 0 0 0 0 0 0 0 0 0 0 0 0 0 0 0 0 0 0 0 0 0 0 0 0 0 0 0 -2.49843559401907 -0.219292028584602 -2.22186355448412 -1.48502613007479 -1.06978071245124 0 0 0 0 0 0 0 0 0 0 0 0 0 0 0 0 0 0 0 0 0 0 0 0 0 0 0 0.678913116335176 0.0737776514091012 0 0.28694210367072 0 0.0402778479441274
0 0 0 0 0 0 0 0 0 0 0 0 0 0 0 0 0 0 0 0 0 0 0 -2.77722991500159 -0.844866368188698 0 0 0 0 0 0 0 0 0 0 0 0 0 0 0 -1.80464820491735 -0.653039021890319 -4.15361675462403 0 0 -2.87858908094732 0 0 0 0 0 -1.80748603254975 -0.226003515401055 -0.343160715491198 -1.79446485760163 -2.13275471392077 -0.299569338412488 -0.759342670827515 -0.459128141744922 -6.75899388959402 -0.201421038930357 -2.24308067960796 -2.28839276197823 -0.881144616226145 0 0 0 0 0 0 0 0 0 0 0 0 0 0 0 0 0 0 0 0 0 0 0 0 0 0 0 0 0 0 0 0 0 0 0 0 0 0 0 0 0 -0.322173292037443 -0.577004624968622 -0.339257608329877 -0.273647045361536 -2.828889832698 0 0 0 0 0 0 0 0 0 0 0 0 0 0 0 0 0 0 0 0 0 0 0 0 0 0 0 0.683595086365221 0.232227999876235 0 0.324223055865826 0 0.451406841312565
0 0 0 0 0 0 0 0 0 0 0 0 0 0 0 0 0 0 0 0 0 0 0 -0.72236436858187 -0.727818403223607 0 0 0 0 0 0 0 0 0 0 0 0 0 0 0 -0.306909242812033 -0.857309835686755 -0.763215641426187 0 0 -0.484628600129017 0 0 0 0 0 -0.95176233078315 -2.38857608281733 -0.881720608965472 -0.831903737857726 -1.42846226770423 -2.13325305295401 -0.908344831413349 -1.88354195934377 -0.961060381797052 -7.33772057023994 -1.48276626238137 -4.23022380915797 -0.89940868791647 0 0 0 0 0 0 0 0 0 0 0 0 0 0 0 0 0 0 0 0 0 0 0 0 0 0 0 0 0 0 0 0 0 0 0 0 0 0 0 0 0 -0.244505338534484 -0.83700011740201 -1.08288593720253 -1.33234067391989 -1.9693557566244 0 0 0 0 0 0 0 0 0 0 0 0 0 0 0 0 0 0 0 0 0 0 0 0 0 0 0 0.442172281682976 0.248417746114583 0 0.0729876327158773 0 0.491013518843511
0 0 0 0 0 0 0 0 0 0 0 0 0 0 0 0 0 0 0 0 0 0 0 -0.971440720905413 -0.14007102722465 0 0 0 0 0 0 0 0 0 0 0 0 0 0 0 -0.649402180008479 -0.924341857161739 -0.0754102180962408 0 0 -0.941732749749784 0 0 0 0 0 -1.98595015594448 -0.0988757806831564 -1.12789864555456 -0.351343653775299 -0.127392595135724 -2.9321881382273 -0.547878218016726 -0.591665305946199 -4.73761113085733 -1.39484686199885 -0.518872270518077 -0.163981235174174 -2.73491223123312 0 0 0 0 0 0 0 0 0 0 0 0 0 0 0 0 0 0 0 0 0 0 0 0 0 0 0 0 0 0 0 0 0 0 0 0 0 0 0 0 0 -0.711403933940981 -0.402493288693187 -0.708375413279845 -2.16395510624712 -2.19241091237577 0 0 0 0 0 0 0 0 0 0 0 0 0 0 0 0 0 0 0 0 0 0 0 0 0 0 0 0.271623144152608 0.57109055345464 0 0.208093510271864 0 0.166312715586431
0 0 0 0 0 0 0 0 0 0 0 0 0 0 0 0 0 0 0 0 0 0 0 -0.314051322069785 -0.36996947462308 0 0 0 0 0 0 0 0 0 0 0 0 0 0 0 -3.22417369045702 -0.155055517329537 -0.373155322735018 0 0 -0.21509599569157 0 0 0 0 0 -0.125844365680654 -0.586546969540944 -3.68268730641245 -4.1145390612013 -0.953446786552164 -1.52579451978886 -2.78321941444063 -1.9601498203228 -0.551116021634436 -0.502365121728901 -0.296407296821439 -12.1356996794916 -2.11999178555463 0 0 0 0 0 0 0 0 0 0 0 0 0 0 0 0 0 0 0 0 0 0 0 0 0 0 0 0 0 0 0 0 0 0 0 0 0 0 0 0 0 -0.327307918351598 -0.745509682697801 -5.32873047694276 -8.39792243518306 -0.143496931151011 0 0 0 0 0 0 0 0 0 0 0 0 0 0 0 0 0 0 0 0 0 0 0 0 0 0 0 0.727854350654851 1.26113542909134 0 0.224790367209101 0 1.41557328917245
0 0 0 0 0 0 0 0 0 0 0 0 0 0 0 0 0 0 0 0 0 0 0 -1.53854477411446 -0.571458337451659 0 0 0 0 0 0 0 0 0 0 0 0 0 0 0 -3.30662339815369 -1.02434103386166 -0.192737621414076 0 0 -0.510357195888128 0 0 0 0 0 -2.94508291810639 -1.38771550910883 -0.151485610925701 -0.441153309758971 -0.350251469248691 -1.47604141477565 -0.159719069269816 -0.544094859261081 -5.12558795724052 -0.431218096208894 -0.927891742537953 -0.507522486304181 -6.81381107307438 0 0 0 0 0 0 0 0 0 0 0 0 0 0 0 0 0 0 0 0 0 0 0 0 0 0 0 0 0 0 0 0 0 0 0 0 0 0 0 0 0 -4.56711190518798 -3.04822944469773 -0.628206050313423 -0.573239668760264 -3.96836756238151 0 0 0 0 0 0 0 0 0 0 0 0 0 0 0 0 0 0 0 0 0 0 0 0 0 0 0 0.0668206713659373 0.320532390068892 0 0.00957379258739046 0 0.166979042591095
0 0 0 0 0 0 0 0 0 0 0 0 0 0 0 0 0 0 0 0 0 0 0 -1.46893180928289 -0.457250089279703 0 0 0 0 0 0 0 0 0 0 0 0 0 0 0 -0.291253045557791 -2.06316847879722 -0.988355638347503 0 0 -0.375865485477946 0 0 0 0 0 -0.36829102965536 -0.713796323406051 -5.8468878408889 -0.252301450983871 -0.264154677472164 -1.83627724330645 -7.37483075441482 -0.87061744497735 -0.498348529633098 -0.586729277315965 -0.438226940934179 -1.10399993705514 -0.392555649120079 0 0 0 0 0 0 0 0 0 0 0 0 0 0 0 0 0 0 0 0 0 0 0 0 0 0 0 0 0 0 0 0 0 0 0 0 0 0 0 0 0 -2.7612507666932 -2.30305429389431 -0.763976263135719 -3.88764701283341 -0.575352087742198 0 0 0 0 0 0 0 0 0 0 0 0 0 0 0 0 0 0 0 0 0 0 0 0 0 0 0 0.407122695855999 0.498571732087131 0 0.0421778321141485 0 0.109083684338963
0 0 0 0 0 0 0 0 0 0 0 0 0 0 0 0 0 0 0 0 0 0 0 -1.00870961814868 -0.654806991220807 0 0 0 0 0 0 0 0 0 0 0 0 0 0 0 -0.325102725937699 -0.138402749401998 -0.326225490017951 0 0 -0.684290731930171 0 0 0 0 0 -0.2878320125806 -0.19849522085 -0.227405417081748 -1.74446360303737 -3.41795713175931 -0.416146266872277 -1.07004201966949 -1.22287199473492 -0.739169152446897 -0.779305196112569 -0.466777697992116 -1.22352056102849 -0.523590792787299 0 0 0 0 0 0 0 0 0 0 0 0 0 0 0 0 0 0 0 0 0 0 0 0 0 0 0 0 0 0 0 0 0 0 0 0 0 0 0 0 0 -1.88132456343667 -3.52852412560762 -0.802341795928981 -0.425875014089164 -0.0913553688589274 0 0 0 0 0 0 0 0 0 0 0 0 0 0 0 0 0 0 0 0 0 0 0 0 0 0 0 0.0744129024572258 0.449658726328896 0 0.716979141955726 0 0.108605343195821
0 0 0 0 0 0 0 0 0 0 0 0 0 0 0 0 0 0 0 0 0 0 0 -0.793318806567405 -0.657888461016372 0 0 0 0 0 0 0 0 0 0 0 0 0 0 0 -0.991316324260652 -2.79203727997026 -1.78555956035704 0 0 -1.11432470399458 0 0 0 0 0 -0.454219990604106 -3.52368160731288 -9.16360208707492 -3.69971389519725 -0.226406122975278 -6.50864898277876 -1.23549118480737 -0.427482651374341 -0.314598703981722 -4.87724065610308 -1.44018279576043 -4.74409238673171 -6.06291488102772 0 0 0 0 0 0 0 0 0 0 0 0 0 0 0 0 0 0 0 0 0 0 0 0 0 0 0 0 0 0 0 0 0 0 0 0 0 0 0 0 0 -1.50919518040784 -1.17803489000688 -9.32506930362964 -0.807907024864595 -0.376253394451016 0 0 0 0 0 0 0 0 0 0 0 0 0 0 0 0 0 0 0 0 0 0 0 0 0 0 0 0.244665189618203 0.126357146967037 0 0.276811179566194 0 0.0353163466872004
0 0 0 0 0 0 0 0 0 0 0 0 0 0 0 0 0 0 0 0 0 0 0 -1.18956831967203 -1.21733037722123 0 0 0 0 0 0 0 0 0 0 0 0 0 0 0 -1.59042959712268 -0.424913383441262 -1.40241965498989 0 0 -4.54141150752546 0 0 0 0 0 -0.102388439982519 -0.282062907325066 -3.44380694629874 -0.215617334936537 -0.37833027504789 -0.790321367338142 -0.829597940323545 -0.894445440432218 -0.338861175274147 -0.344112616641086 -0.518213485452512 -0.176641189941336 -0.992870751002144 0 0 0 0 0 0 0 0 0 0 0 0 0 0 0 0 0 0 0 0 0 0 0 0 0 0 0 0 0 0 0 0 0 0 0 0 0 0 0 0 0 -3.26091344465778 -0.596449079015539 -1.6685965445608 -0.162400654024241 -0.410840341850457 0 0 0 0 0 0 0 0 0 0 0 0 0 0 0 0 0 0 0 0 0 0 0 0 0 0 0 0.333637678914755 0.387531384526395 0 0.0241061281808987 0 0.100576589647345
0 0 0 0 0 0 0 0 0 0 0 0 0 0 0 0 0 0 0 0 0 0 0 -3.05374663284396 -0.655101716331451 0 0 0 0 0 0 0 0 0 0 0 0 0 0 0 -0.232242061498219 -0.633669072850421 -1.83803467867014 0 0 -0.288086484117198 0 0 0 0 0 -1.43798443332144 -1.27810432120654 -2.41119168452057 -0.758171535867033 -1.82439801749784 -0.772203705481861 -1.87780992562124 -0.384078606285646 -3.78972957090269 -1.97065479334306 -1.28064148523838 -0.296396988136132 -0.283863898296973 0 0 0 0 0 0 0 0 0 0 0 0 0 0 0 0 0 0 0 0 0 0 0 0 0 0 0 0 0 0 0 0 0 0 0 0 0 0 0 0 0 -3.25276829204549 -0.421066631163794 -0.735223312991185 -0.501315113980686 -1.07341525687482 0 0 0 0 0 0 0 0 0 0 0 0 0 0 0 0 0 0 0 0 0 0 0 0 0 0 0 0.262344663646172 2.36299282803208 0 0.268396540209564 0 0.18196647036171
0 0 0 0.0248090969247902 0.0578112655269767 0 0 0 0 0 0 0 0 0 0 0 0 0 0 0 0 0 0 -0.333803377598809 -4.45915803493829 0 0 0 0 0 0 0 0 0 0 0 0 0 0 0 0 0 0 0 0 0 0 0 0 0 0 0 0 0 0 0 0 -0.942081441637872 -4.76036741204123 0 0 0 0 0 0 0 0 0 0 0 0 0 0 0 0 0 0 0 0 0 0 0 0 0 0 0 0 0 0 0 0 0 0 0 0 0 0 0 0 0 0 0 0 0 0 -0.295044842522812 -0.51579845218967 -3.94700270280059 -1.39499339004693 -0.213578674101093 0 0 0 0 0 0 0 0 0 0 0 0 0 0 0 0 0 0 0 0 0 0 0 0 0 0 -0.224563105387598 0 0 0 0 0.0910507176686251 0
0 0 0 0.224087109497333 0.402989615303656 0 0 0 0 0 0 0 0 0 0 0 0 0 0 0 0 0 0 -0.27780250138629 -0.531770956063833 0 0 0 0 0 0 0 0 0 0 0 0 0 0 0 0 0 0 0 0 0 0 0 0 0 0 0 0 0 0 0 0 -0.390363554828368 -0.464570489964022 0 0 0 0 0 0 0 0 0 0 0 0 0 0 0 0 0 0 0 0 0 0 0 0 0 0 0 0 0 0 0 0 0 0 0 0 0 0 0 0 0 0 0 0 0 0 -0.460862071285465 -0.294514320297514 -1.7320573830313 -0.394497417277931 -0.406615449999811 0 0 0 0 0 0 0 0 0 0 0 0 0 0 0 0 0 0 0 0 0 0 0 0 0 0 -1.56971609025464 0 0 0 0 0.193434354652525 0
0 0 0 0.0962190316575131 0.490297163672271 0 0 0 0 0 0 0 0 0 0 0 0 0 0 0 0 0 0 -4.17537350954003 -0.135587926947552 0 0 0 0 0 0 0 0 0 0 0 0 0 0 0 0 0 0 0 0 0 0 0 0 0 0 0 0 0 0 0 0 -1.47457163365912 -1.74120780481482 0 0 0 0 0 0 0 0 0 0 0 0 0 0 0 0 0 0 0 0 0 0 0 0 0 0 0 0 0 0 0 0 0 0 0 0 0 0 0 0 0 0 0 0 0 0 -5.99197311867588 -0.647949946096149 -0.218071369744558 -8.41695479721022 -1.11167267223625 0 0 0 0 0 0 0 0 0 0 0 0 0 0 0 0 0 0 0 0 0 0 0 0 0 0 -0.300323826201088 0 0 0 0 0.410622216654893 0
0 0 0 0.211293059874692 0.661730937673969 0 0 0 0 0 0 0 0 0 0 0 0 0 0 0 0 0 0 -0.706341759799191 -0.547419988771601 0 0 0 0 0 0 0 0 0 0 0 0 0 0 0 0 0 0 0 0 0 0 0 0 0 0 0 0 0 0 0 0 -4.81024950715147 -0.341846160040063 0 0 0 0 0 0 0 0 0 0 0 0 0 0 0 0 0 0 0 0 0 0 0 0 0 0 0 0 0 0 0 0 0 0 0 0 0 0 0 0 0 0 0 0 0 0 -0.244051612422984 -0.470596770399746 -1.31388722092094 -0.481291947772048 -0.875653681864604 0 0 0 0 0 0 0 0 0 0 0 0 0 0 0 0 0 0 0 0 0 0 0 0 0 0 -2.01241526866467 0 0 0 0 0.275395488927557 0
0 0 0 0.0776248775364624 0.250242701268419 0 0 0 0 0 0 0 0 0 0 0 0 0 0 0 0 0 0 -4.08344266641783 -0.757124283470967 0 0 0 0 0 0 0 0 0 0 0 0 0 0 0 0 0 0 0 0 0 0 0 0 0 0 0 0 0 0 0 0 -0.460609666148895 -0.170884185788208 0 0 0 0 0 0 0 0 0 0 0 0 0 0 0 0 0 0 0 0 0 0 0 0 0 0 0 0 0 0 0 0 0 0 0 0 0 0 0 0 0 0 0 0 0 0 -1.0817457932302 -1.17588369016055 -0.671663249956712 -0.965382244344349 -0.0912324987380292 0 0 0 0 0 0 0 0 0 0 0 0 0 0 0 0 0 0 0 0 0 0 0 0 0 0 -1.78172871243563 0 0 0 0 0.291047473212046 0
0.200484548691352 0 0.550859216630766 0 0 0 0 0 0 0 0 0 0 0 0 0 0 0 0 0 0 0 0 0 0 -0.426685521465634 0 0 0 0 0 0 0 0 0 0 0 0 0 0 0 0 0 -1.31345960649679 -1.17467767848643 0 0 0 0 0 0 0 0 0 0 0 0 0 0 0 0 0 0 -0.939776111085817 0 0 0 0 0 0 0 0 0 0 0 0 0 0 0 0 0 0 0 0 0 0 0 0 0 0 0 0 0 0 0 0 0 0 0 0 0 0 0 0 0 0 0 0 0 0 0 0 0 0 0 0 0 -0.399026533579018 -0.937100200843743 -6.57575918459044 0 0 0 0 0 0 0 -1.00633924056591 -1.0668127869465 -0.252040707478908 -0.629693499463097 -0.454457337717302 -0.333182924397513 -1.14570228275279 0 0 0 0 0 0 0.210410791151096 0 0.237033815287348
0 0 0 0 0 0 0 0 0 0 0 0 0 0 0 0 0 0 0 0 0 0 0 0 0 0 0 0 0 0 0 0 0 0 0 0 0 0 0 0 0 0 0 0 0 0 0 0 0 0 0 0 0 0 0 0 0 0 0 0 0 0 0 0 0 0 0 0 0 0 0 0 0 0 0 0 0 0 0 0 0 0 0 0 0 0 0 0 0 0 0 0 0 0 0 0 0 0 0 0 0 0 0 0 0 0 0 0 0 0 0 0 0 0 0 0 0 0 0 0 0 0 0 0 0 0 0 0 0 0 0 0 0 0 0 0 0 0.100588008321268 0.570788207338041 0 0.396986017513808 0 0
0 0 0 0 0 0.462197149629376 0.529893263160431 0.141827705430745 0.20041051318074 0.0667987661526752 0.307503543068227 0.309477075625345 0.19253830508116 0.150036978297187 0.237449699622603 0.589701197812209 0.0693562386216054 0.0517345432352267 0.859629563436118 0.130626442711663 0.7555045564802 0 0 0 0 -1.73349351115791 0.394947140184245 0.441348645871754 0.079040452540787 0 0.0305085703721847 0.758637201695266 0.0502932986864669 0.776054121415664 0.171517076847563 0.203242839915959 0.100003435087237 0.115475338169555 0 0 -1.77478768758171 -3.52744316024442 -0.61301119373903 -1.11020958156611 -0.482906441503259 0 0 0 0 0 0 0 0 0 0 0 0 -5.48730601232416 -1.37784289943546 0 0 0 0 -0.463844846519386 0.0449433954333333 1.02275134843997 0.145561262237106 0.363362115452477 0.0747305376340083 0.424204962681837 0.603415419443055 0.290566046423825 0 0 0 0 0 0 0 0 0 0 0 0 0 0 0 0 0 0 0 0 0 0 0 0.0750486824328862 0.135455054782131 0.373947606988328 0.0251747200942065 0.332264618654552 0.0421791458095108 0.308681707611002 0.57178441371155 0.395420363022581 0.12676753587674 0.345216110856092 0.100760773045384 0.238646704503392 0.453208263917082 0.810194871689044 0 0 0 0 0 0 0 -0.528266657563311 -0.308677332668761 -2.08978362415367 0 0 0 0 0 0 0 0 0 0 -1.29965582793505 -0.904776198703584 -1.95839496209654 -4.38742762810747 0 0 0 0.236453066701382 0.236190256075395 0 0 0 0.0451081193905262
0 0 0 0 0 0.193330887875426 0.169594193599812 0.156714018592093 0.0275062187468716 0.0767051429169325 0.106335805021056 0.0869533870557471 0.120669420588367 0.149853598588799 0.22324524530899 0.129079615423004 0.84315638391042 0.104328103913089 0.029110477499379 0.10341977610271 0.154478520860539 0 0 0 0 -5.76512382265614 0.0371111255670093 0.222632431728186 0.476916021396716 0 0.00779845515538989 0.239877868293419 0.266591501131936 0.0466364856851454 0.167039362132244 0.74939563760894 0.0429694518961516 0.0942902707636251 0 0 -7.50611336696621 -0.417606904183767 -4.59622327310393 -0.369911796872182 -0.403267053782075 0 0 0 0 0 0 0 0 0 0 0 0 -0.406854013605785 -0.85224081895561 0 0 0 0 -0.36493562824887 0.015185106388246 0.430295971904016 0.0409658758033827 0.322240888060169 0.151857560301344 0.0885008596244585 0.0211160773781675 0.133852460803441 0 0 0 0 0 0 0 0 0 0 0 0 0 0 0 0 0 0 0 0 0 0 0 0.2262393055483 0.548410198507262 0.532266982133225 0.0381022766147075 0.0367170724309358 0.883880776916202 0.40009175858488 0.316274097746543 0.174008079886789 0.15849931023222 0.0576161343330861 0.0658998885444388 0.830020188062387 0.313383756822574 0.122214774529933 0 0 0 0 0 0 0 -0.645193027696329 -3.00002081773512 -2.81572358678624 0 0 0 0 0 0 0 0 0 0 -0.400361911512535 -0.751908425716513 -1.69855578556147 -0.216514972457913 0 0 0 0.317283648065923 0.0784796662331058 0 0 0 0.579261198218548
0 0 0 0 0 0 0 0 0 0 0 0 0 0 0 0 0 0 0 0 0 0.0821526336077134 0 0.334852467593052 1.12124575562215 0 0 0 0 0 0 0 0 0 0 0 0 0 0.311563098171993 0.0991725579073101 0.389436824422422 0.0916166118498943 0 0 0 0 0 0 0 0 0 0 0 0 0 0 0 0 0 0 0 0 0 0 0 0 0 0 0 0 0 0 0 0 0 0 0 0 0 0 0 0 0 0 0 0 0 0 0 0 0 0 0 0 0 0 0 0 0 0 0 0 0 0 0 0 0 0 0 0 0 0 0 0 0 0 0 0 0 0 0 0 0 0 0 0 0 0 0 0 -1.34136846745537 -0.25385745560775 -1.50296635565286 -1.89367208868556 0 0 0 0.348939580584256 0 0 0 0 0
0 0 0 0 0 0 0 0 0 0 0 0 0 0 0 0 0 0 0 0 0 0 0 -1.97906718603075 -0.182709347699826 0 0 0 0 0 0 0 0 0 0 0 0 0 0 0 0 0 0 0 0 0 0 0 -3.50460037948133 -1.20570586780419 -0.89615408413217 0 0 0 0 0 0 -0.274964549924255 -0.460248906087673 0 0 -2.78975596094126 -2.27262838222705 0 0 0 0 0 0 0 0 0 0 0 0 0 0 0 0 0 0 0 0 0 0 0 0 0 0 0 0 0 0 0 0 0 0 0 0 0 0 0 0 0 0 0 0 0 0 0 0 0 0 0 0 0 0 0 0 0 0 0 0 0 0 0 0 0 0 0 0 0 0 0 0 0 0 0.0500690728211178 0.960378078740155 0 0 0 0
0 0 0 0 0 0 0 0 0 0 0 0 0 0 0 0 0 0 0 0 0 0 0 -2.09165296762593 -1.10368259719635 0 0 0 0 0 0 0 0 0 0 0 0 0 0 0 0 0 0 0 0 0 0 0 -1.6784290110956 -0.339415305363538 -4.37812893366722 0 0 0 0 0 0 -2.93199454878172 -0.30361208909136 0 0 -1.81936985508364 -1.19791350219818 0 0 0 0 0 0 0 0 0 0 0 0 0 0 0 0 0 0 0 0 0 0 0 0 0 0 0 0 0 0 0 0 0 0 0 0 0 0 0 0 0 0 0 0 0 0 0 0 0 0 0 0 0 0 0 0 0 0 0 0 0 0 0 0 0 0 0 0 0 0 0 0 0 0 0.0770443958445737 0.156624014638055 0 0 0 0
0 0 0 0 0 0 0 0 0 0 0 0 0 0 0 0 0 0 0 0 0 0 0 -0.438965718431805 -2.39924366475439 0 0 0 0 0 0 0 0 0 0 0 0 0 0 0 0 0 0 0 0 0 0 0 -0.503377880866159 -1.14822622771178 -1.07123524148855 0 0 0 0 0 0 -4.40047847483416 -0.433244317903833 0 0 -1.41836899868403 -0.806461486728814 0 0 0 0 0 0 0 0 0 0 0 0 0 0 0 0 0 0 0 0 0 0 0 0 0 0 0 0 0 0 0 0 0 0 0 0 0 0 0 0 0 0 0 0 0 0 0 0 0 0 0 0 0 0 0 0 0 0 0 0 0 0 0 0 0 0 0 0 0 0 0 0 0 0 0.375595078904578 0.244396100292481 0 0 0 0
0.521338361044102 0.122956785596329 0.120014327038147 0 0 0 0 0 0 0 0 0 0 0 0 0 0 0 0 0 0 0 0 0 0 0 0 0 0 0 0 0 0 0 0 0 0 0 0 0 0 0 0 0 0 0 0 0 0 0 0 -0.222650915072155 -1.3290772377774 0 0 0 0 0 0 0 0 0 0 0 0 0 0 0 0 0 0 0 0 0 0 0 0 0 0 0 0 0 0 0 0 0 0 0 0 0 0 0 0 0 0 0 0 0 0 0 0 0 0 0 0 0 0 0 0 0 0 0 0 0 0 0 0 0 0 0 0 0 0 0 0 0 0 0 0 0 0 0 0 0 0 0 0 0 0 0 0.0853934909110554 0 0.425796757291383
0.0632249620415163 0.0607956650844437 0 0 0 0 0 0 0 0 0 0 0 0 0 0 0 0 0 0 0 0 0 -0.159557712251576 -0.0373437390009742 0 0 0 0 0 0 0 0 0 0 0 0 0 0 0 -1.08904401298562 -0.383886259095231 -1.48616978128461 0 0 -0.363059654034735 0 0 -1.57170298533175 -1.44534038756592 -0.0822965081407527 -1.91158461530732 -0.809636319722897 -0.891999714871006 -1.89293555794923 -4.63317051533535 -0.821237475454479 -0.228805791281837 -0.246132161849962 -0.0728208668711142 -0.555771194295062 -0.39063077054463 -1.68342393837878 -0.736685065421054 0 0 0 0 0 0 0 0 0 0 0 0 0 0 0 0 0 0 0 0 0 0 0 0 0 0 0 0 0 0 0 0 0 0 0 0 0 0 0 0 0 -0.275989844643385 -1.00327438286259 -0.782316007494007 -2.76588834378726 -0.467939058630307 0 0 0 0 0 0 0 0 0 0 0 0 0 0 0 0 0 0 0 0 0 0 0 0 0 0 0 0 0 0 0.264370269789641 0 0.393866078147961
0.536146855456383 0.300932317588908 0 0 0 0 0 0 0 0 0 0 0 0 0 0 0 0 0 0 0 0 0 -3.97399827452025 -1.22045064704293 0 0 0 0 0 0 0 0 0 0 0 0 0 0 0 -0.969144466106989 -1.92965050705594 -0.203643322754689 0 0 -1.19196220753073 0 0 -0.958866921360597 -1.85347507497521 -0.315094166434928 -0.721594195725527 -2.36714579722071 -1.2936045075689 -0.639887110610639 -0.351804617338957 -0.768269225941688 -1.8149160668332 -0.889036544926431 -1.27416791181975 -4.41384457577528 -0.59440637323299 -1.17566457123771 -0.636256696977597 0 0 0 0 0 0 0 0 0 0 0 0 0 0 0 0 0 0 0 0 0 0 0 0 0 0 0 0 0 0 0 0 0 0 0 0 0 0 0 0 0 -6.76210625084333 -7.10586008465653 -1.12557371109582 -4.58802592240444 -2.45184302581391 0 0 0 0 0 0 0 0 0 0 0 0 0 0 0 0 0 0 0 0 0 0 0 0 0 0 0 0 0 0 0.125835202998037 0 0.31560117256322
0.0988750601269806 0.159487448021077 0 0 0 0 0 0 0 0 0 0 0 0 0 0 0 0 0 0 0 0 0 -0.240058461384455 -1.37714240903511 0 0 0 0 0 0 0 0 0 0 0 0 0 0 0 -4.84108999093012 -0.80372227205512 -0.276090108905139 0 0 -0.459456145602503 0 0 -1.03451020687091 -2.85398498929174 -1.78017909215638 -0.860523269736716 -6.75427464380231 -2.52214989563605 -2.8740469623178 -0.153008172845119 -1.52360493670294 -1.82263226548547 -3.77610454113027 -5.52868947503785 -0.524704661028822 -0.586638432101201 -0.367153142118 -0.742467690274974 0 0 0 0 0 0 0 0 0 0 0 0 0 0 0 0 0 0 0 0 0 0 0 0 0 0 0 0 0 0 0 0 0 0 0 0 0 0 0 0 0 -1.46136123967213 -0.421620656835053 -0.712982469335987 -1.60229431928957 -1.20422089369965 0 0 0 0 0 0 0 0 0 0 0 0 0 0 0 0 0 0 0 0 0 0 0 0 0 0 0 0 0 0 0.346999389967453 0 0.062265531651615
0.0910765053939085 0.316694232557804 0 0 0 0 0 0 0 0 0 0 0 0 0 0 0 0 0 0 0 0 0 -3.99236810544487 -0.220247886738407 0 0 0 0 0 0 0 0 0 0 0 0 0 0 0 -0.655307953133368 -0.157479807633187 -0.540758635558598 0 0 -1.33134039046963 0 0 -1.24748641143627 -0.31756357982127 -0.881001715264112 -1.12139253746396 -0.948264107140999 -1.20817625941701 -0.727217834733436 -0.865348308153548 -4.0371485660489 -1.49506348733544 -0.164389897246272 -0.457726890679573 -0.441796741750985 -0.688072431971266 -0.856888305039441 -0.456899946622164 0 0 0 0 0 0 0 0 0 0 0 0 0 0 0 0 0 0 0 0 0 0 0 0 0 0 0 0 0 0 0 0 0 0 0 0 0 0 0 0 0 -4.81092231734478 -0.45734936919967 -0.794002571783201 -0.525964211962953 -0.73710012020798 0 0 0 0 0 0 0 0 0 0 0 0 0 0 0 0 0 0 0 0 0 0 0 0 0 0 0 0 0 0 0.74538629404518 0 1.10758974278588
0.130134325821846 0.0449681864865714 0 0 0 0 0 0 0 0 0 0 0 0 0 0 0 0 0 0 0 0 0 -0.810986335131695 -0.867945016055952 0 0 0 0 0 0 0 0 0 0 0 0 0 0 0 -0.27759630800259 -1.49851505914855 -1.4569505229561 0 0 -1.31649378683712 0 0 -0.95533068881941 -0.50128184108955 -0.187631399185229 -2.19233590902012 -0.907778382931963 -0.225556073970252 -0.239252845486155 -4.63475726266309 -1.05487884610844 -0.325806019429344 -0.51636954881006 -1.2548672616544 -3.43334646048262 -2.92606100271175 -2.05605952901747 -0.80289832543777 0 0 0 0 0 0 0 0 0 0 0 0 0 0 0 0 0 0 0 0 0 0 0 0 0 0 0 0 0 0 0 0 0 0 0 0 0 0 0 0 0 -0.350069731243341 -0.180528130439563 -0.269384608944817 -1.9525729185355 -0.220804722204485 0 0 0 0 0 0 0 0 0 0 0 0 0 0 0 0 0 0 0 0 0 0 0 0 0 0 0 0 0 0 0.0610595747847202 0 0.0810311137606857
0.113250844775829 0.116062413255069 0 0 0 0 0 0 0 0 0 0 0 0 0 0 0 0 0 0 0 0 0 -1.04956029410102 -3.73914799929347 0 0 0 0 0 0 0 0 0 0 0 0 0 0 0 -1.12981472562101 -1.55432427942005 -3.19081768565335 0 0 -0.832671294661786 0 0 -0.785117335525066 -0.397631323319425 -0.425267422011408 -0.390106726733114 -0.516579696705521 -1.71968639506304 -0.705683276667617 -0.384739583855303 -0.26211107428134 -1.07167343884925 -0.21039983639961 -0.321358399208413 -0.428797892868671 -0.514747859879131 -0.268982598200493 -1.23913691191132 0 0 0 0 0 0 0 0 0 0 0 0 0 0 0 0 0 0 0 0 0 0 0 0 0 0 0 0 0 0 0 0 0 0 0 0 0 0 0 0 0 -2.80781088080409 -1.25307476507905 -2.82704783544257 -1.22978538482293 -0.160455787479248 0 0 0 0 0 0 0 0 0 0 0 0 0 0 0 0 0 0 0 0 0 0 0 0 0 0 0 0 0 0 2.20943674325989 0 0.383509501029652
0.168592063275254 0.17529748058034 0 0 0 0 0 0 0 0 0 0 0 0 0 0 0 0 0 0 0 0 0 -0.508189327904781 -0.205730815427756 0 0 0 0 0 0 0 0 0 0 0 0 0 0 0 -1.12790594466157 -0.758657082233557 -1.3664293100143 0 0 -0.910736628739491 0 0 -2.77847672855434 -0.781991708310815 -1.21585892157643 -2.70232240408901 -0.344235729151054 -2.0169768206766 -1.14448894928818 -0.940314894129634 -0.57231871353795 -0.354699259393147 -0.381014348692196 -0.24652587645432 -0.614735623457998 -0.344353538014706 -1.63991084423339 -1.76975603765899 0 0 0 0 0 0 0 0 0 0 0 0 0 0 0 0 0 0 0 0 0 0 0 0 0 0 0 0 0 0 0 0 0 0 0 0 0 0 0 0 0 -0.478618420479792 -3.53699809163723 -1.08972770201446 -0.579658503354989 -0.520666122862961 0 0 0 0 0 0 0 0 0 0 0 0 0 0 0 0 0 0 0 0 0 0 0 0 0 0 0 0 0 0 0.350958271771316 0 0.283489334786467
0.249327818797011 0.667786580479526 0 0 0 0 0 0 0 0 0 0 0 0 0 0 0 0 0 0 0 0 0 -0.586576704238812 -0.497321616477601 0 0 0 0 0 0 0 0 0 0 0 0 0 0 0 -0.921189288728567 -2.46016766805018 -1.15475334812329 0 0 -0.29299968637638 0 0 -12.1848448577539 -1.82670782087297 -0.311018589481982 -1.06628268858686 -0.926124794780164 -0.615636548356863 -1.16350650030992 -0.438375761344487 -1.92807383749145 -0.231887863507088 -0.560589984737688 -1.77471984805191 -0.918035635982968 -6.4063098539571 -0.297596047624987 -0.773966773279743 0 0 0 0 0 0 0 0 0 0 0 0 0 0 0 0 0 0 0 0 0 0 0 0 0 0 0 0 0 0 0 0 0 0 0 0 0 0 0 0 0 -0.381166314416138 -0.991470939775248 -6.54350782444408 -0.375932637766146 -1.94975898325729 0 0 0 0 0 0 0 0 0 0 0 0 0 0 0 0 0 0 0 0 0 0 0 0 0 0 0 0 0 0 0.0405514830835567 0 0.178658197940963
0 0 0 0 0 0 0 0 0 0 0 0 0 0 0 0 0 0 0 0 0 0 0 0 0 -1.54658059816857 0 0 0 0 0 0 0 0 0 0 0 0 0 0 -0.955049076477985 -2.85579176172453 -1.01145420650272 0 0 0 0 0 -1.66891965717357 -0.938157064464017 -1.26130186098579 -0.296882012371069 -0.869837512790326 0 0 0 0 0 0 0 0 -0.505407948973025 -2.59487993555372 0 0 0 0 0 0 0 0 0 0 0 0 0 0 0 0 0 0 0 0 0 0 0 0 0 0 0 0 0 0 0 0 0 0 0 0 0 0 0 0 0 0 0 0 0 0 0 0 0 0 0 0 0 0 0 0 0 0 0 0 0 0 0 0 0 0 0 0 0 0 0 0 0 0 0.036285563772446 0.41412604414327 0 0 0 0
0 0 0 0 0 0 0 0 0 0 0 0 0 0 0 0 0 0 0 0 0 0 0 0 0 -0.530145765765192 0 0 0 0 0 0 0 0 0 0 0 0 0 0 -1.68643759864532 -0.373527370944714 -0.944476565296227 0 0 0 0 0 -0.695915259694708 -1.26127406979756 -6.41160813648829 -2.49192882083437 -1.0369949640159 0 0 0 0 0 0 0 0 -0.430732523722641 -2.82363322923323 0 0 0 0 0 0 0 0 0 0 0 0 0 0 0 0 0 0 0 0 0 0 0 0 0 0 0 0 0 0 0 0 0 0 0 0 0 0 0 0 0 0 0 0 0 0 0 0 0 0 0 0 0 0 0 0 0 0 0 0 0 0 0 0 0 0 0 0 0 0 0 0 0 0 0.385951650393482 0.112938875235922 0 0 0 0
0 0 0.0352665382659486 0 0 0.138470001001271 0.342551381114303 0.0647795876117429 0.126824028005855 0.689374075712916 0.7152874756247 0.0593802365250161 0.0627437699603054 0.202930048527039 0.352572648782682 0.049885671807131 0 0 0 0 0 0 0 0.37308663158661 1.44738706797094 -2.04198619822678 0 0 0 0 0.218099256710043 0.193258770959182 0.954882723518136 0.132737298768695 0.0553260481505289 0.232081492242776 0.231855965124056 0.180153660911484 0.188966203320003 0.307868653584356 0 0 0 0 0 0 0 0 -2.85931355570305 -1.1607742953998 -0.573837980210711 -1.07512991142705 -0.376066342004004 0 0 0 0 0 0 0 -0.484096906143674 -3.92721683581487 -2.65484642736165 0 1.18381347111984 0.271461574479295 0.0146088012446174 0.346397880817118 0.265143599843587 0.228073400993507 1.17612508926022 0.0331919020317842 0 0 0 0 0 0 0 0 0 0 0 0 0 0 0 0 0 0 0 0 0 0 0 0.0299485889466327 0.616600545314647 0.223530123422306 0.416855806549846 0.382210511193917 0.103044647696573 0.813959230637801 0.0379656366299333 0.0612412113013953 0.197525580137678 0.463257246662509 0.362419321898583 0.556039131946178 0.210184305185427 0.0892046803351171 1.09682014846743 2.3767769474123 0 0 0 0 0 0 0 0 0 0 0 0 0 0 0 -1.15913435458614 -3.02955562604632 -0.223092536151483 -2.88524841600527 -1.92074118942922 -0.867813671220172 -0.81924707038651 0 0 0 0.238338542657031 0.055763638921333 0 0 0 0.347394960007105
0 0 0.0264257154041002 0 0 0.147219094795653 0.141611244964129 0.16893279676539 0.189214666808158 0.0316054011353926 0.198752375324887 0.416694170159105 0.0271794295259181 0.576357126511703 0.0853608172817166 0.133420901361429 0 0 0 0 0 0 0 0.6276477481297 0.079668929612094 -0.464459234466063 0 0 0 0 0.0759599152102057 0.417975047779236 0.168233593256596 0.0322821601607317 0.293481291161098 0.300898254160756 0.147831327467188 0.484952373496009 0.596715319361357 0.07425295884233 0 0 0 0 0 0 0 0 -0.659860506416427 -0.58377780366049 -1.69355102295842 -2.22439641892175 -1.00036442647296 0 0 0 0 0 0 0 -1.23522550211299 -0.511891898737935 -2.02104568923916 0 0.20351545583224 0.0759193127663883 0.253922572464839 0.348409580356098 0.229423470790399 1.21526063731344 0.0409134777447264 0.298402763030804 0 0 0 0 0 0 0 0 0 0 0 0 0 0 0 0 0 0 0 0 0 0 0 0.0688769488627691 0.214676230345431 0.0968155959508026 0.135878182843505 0.236172004785154 0.0946236465583904 0.234113771871822 0.0617642664881329 0.237133346695447 0.152763626962534 1.27901694705134 0.0778582108334213 0.167673706918533 0.0253198417728402 0.0468323535994713 0.111186824917039 0.148310136750084 0 0 0 0 0 0 0 0 0 0 0 0 0 0 0 -4.79002600059479 -0.63191305916986 -1.87155038998741 -4.72264461277998 -0.636900035410492 -1.33373191041894 -2.51254601592616 0 0 0 0.310532945364993 0.0717910604512739 0 0 0 0.178669176795446
0 0 0.881313094357691 0 0 0.0769507713400374 0.829391362052438 0.152056308628588 0.0146219027883004 0.0764566507423766 0.0410318800040651 0.196124154572355 0.0637110413963212 0.349183437297311 0.286392723504588 0.337909484092696 0 0 0 0 0 0 0 0.122632162225729 0.947582436675208 0 0 0 0 0 0.315733137696058 0.0387902655094713 0.0531325871491835 0.0985219447885647 0.269379514594021 0.666322774248073 0.275500315734489 0.226686368238315 0.193508784924726 0.199212403745282 0 0 0 0 0 0 0 0 -0.769386301331436 -0.94860882022361 -2.54077751397016 -0.259258556551339 -0.647446697705837 0 0 0 0 0 0 0 -0.891913332135394 -1.66026666257511 -0.72130679291185 0 0.951324493800902 0.0896079189030532 0.0739973664901762 0.173444052982131 0.0881446897464192 0.253531489805428 0.213809698515915 0.104604427998761 0 0 0 0 0 0 0 0 0 0 0 0 0 0 0 0 0 0 0 0 0 0 0 0.490183267078232 1.1332705911317 0.0816178380249004 0.524451716787263 0.136720815261519 0.114369127096614 0.476829210659936 0.167465694174664 0.169049226277337 0.0955660293668483 0.193175327794398 0.300731388338746 0.109550948414516 1.29866911928804 0.358116429841688 0.64091078192809 0.748792455951407 0 0 0 0 0 0 0 0 0 0 0 0 0 0 0 -0.463225813395401 -3.4661240054002 -0.673655456769719 -2.38616393165388 -3.60539215611304 -1.33551731227342 -2.34866043493862 0 0 0 1.01971002940464 0.851131357771479 0 0 0 0.526985221830946
0 0 0 0 0 0 0 0 0 0 0 0 0 0 0 0 0 0 0 0 0 0.281525617078188 0 0.226802330392569 0.0681216268978747 0 0 0 0 0 0 0 0 0 0 0 0 0 0 0 0 0 0 0 0 0 0 0 0 0 0 0 0 0 0 0 0 0 0 0 0.710116034059515 0 0 0 0 0 0 0 0 0 0 0 0 0 0 0 0 0 0 0 0 0 0 0 0 0 0 0 0 0 0 0 0 0 0 0.690730116478963 0.932578931586851 0.0619223211712526 0.12149196959687 0.69828258067742 0.181042642724064 0.0491405597214375 0.548509310639009 0.563969721197033 0.831525078337155 0 0 0 0 0 0 0 0 0 0 0 0 0 0 0 0 0 0 0 0 0 0 0 0 0 0 0 0 0 -0.854651038644895 -1.30500421055278 0 0.0412150856206333 0 0 0 0 0
0 0 0 0 0 0 0 0 0 0 0 0 0 0 0 0 0 0 0 0 0 0.245249917202175 0 0.098125054400772 0.0815212730993234 0 0 0 0 0 0 0 0 0 0 0 0 0 0 0 0 0 0 0 0 0 0 0 0 0 0 0 0 0 0 0 0 0 0 0 0.126046115795086 0 0 0 0 0 0 0 0 0 0 0 0 0 0 0 0 0 0 0 0 0 0 0 0 0 0 0 0 0 0 0 0 0 0 0.234135358288798 0.0181998465707012 0.27654588277633 0.027718507820245 0.422001364652885 0.099900365099322 0.178379264032736 0.0887726998322943 0.528269977351359 0.47979245001067 0 0 0 0 0 0 0 0 0 0 0 0 0 0 0 0 0 0 0 0 0 0 0 0 0 0 0 0 0 -0.278077792361432 -0.979566244962572 0 0.205691660172978 0 0 0 0 0
0 0 0 0 0 0.243628109119369 0.580952561550832 0.102398299723647 0.182458458692995 0.0445344669891421 0.107267883965093 0.0755535791717644 0.135314463951952 0.220259242818729 0.914186959323495 0.0525521537077564 0 0 0 0 0 0 0 0 0 0 0 0 0 0 0.0726001902996033 0.245140332708651 0.085680450164077 0.257295965467608 0.261199367995586 0.174875803606708 0.192104463224647 0.0605484545388017 0 0 0 0 0 0 0 0 0 0 0 0 0 0 0 0 0 0 0 0 0 0 0 0 0 0 0 0 0 0 0 0 0 0 0 0 0 0 0 0 0 0 0 0 0 0 0 0 0 0 0 0 0 0 0 0 0 0 0 0 0 0 0 0 0 0 0 0 0 0 0 0 0 0 0 0 0 0 0 0 0 0 0 0 0 0 0 0 0 0 0 0 0 0 0 0 0 0 0 0 0 0 0 0 0
0 0 0 0 0 0 0 0 0 0 0 0 0 0 0 0 0 0 0 0 0 0 0 0 0 0 0 0 0 0 0 0 0 0 0 0 0 0 0 0 0 0 0 0 0 0 0 0 0 0 0 0 0 0 0 0 0 0 0 0.249610302303011 0.450600008183389 0 0 0 0 0 0 0 0 0 0 0 0 0 0 0 0 0 0 0 0 0 0 0 0 0 0 0 0 0 0 0 0 0 0 0 0 0 0 0 0 0 0 0 0 0 0 0 0 0 0 0 0 0 0 0 0 0 0 0 -0.514511617708297 -1.59196616882399 -2.24800639315568 -0.518373094695503 -0.836415164172866 -1.01003801299947 -0.735771800844614 0 0 0 0 0 0 0 -0.796395305002221 -9.08650071777457 0 0 0 0 0 0 0
0 0 0 0 0 0 0 0 0 0 0 0 0 0 0 0 0 0 0 0 0 0 0 0 0 0 0 0 0 0 0 0 0 0 0 0 0 0 0 0 0 0 0 0 0 0 0 0 0 0 0 0 0 0 0 0 0 0 0 0.112071058998704 0.577000791910267 0 0 0 0 0 0 0 0 0 0 0 0 0 0 0 0 0 0 0 0 0 0 0 0 0 0 0 0 0 0 0 0 0 0 0 0 0 0 0 0 0 0 0 0 0 0 0 0 0 0 0 0 0 0 0 0 0 0 0 -1.95585236272404 -1.5367106758317 -0.303976053468963 -1.43979448440232 -2.41688736585787 -0.23912726800892 -2.56676527579372 0 0 0 0 0 0 0 -1.31300065205606 -1.21690095889759 0 0 0 0 0 0 0
0 0 0 0 0 0 0 0 0 0 0 0 0 0 0 0 0 0 0 0 0 0 0 0 0 0 0.802092939706779 0.316575154511731 0.108829122696102 0 0.32924600387851 0.198971535943289 0.195438320299169 0.251067366561859 0.188459735694817 0.153669475946803 0.556902871757789 2.32745793741068 0.354766334496072 0.134655397024719 0.52712399865308 0.139769942299318 0.153132814845322 0 0 0 0 0 0 0 0 0 0 0 0 0 0 0 0 0 0.298437645066052 0 0 -1.49685830326953 0 0 0 0 0 0 0 0 0 0 0 0 0 0 0 0 0 0 0 0 0 0 0 0 0 0 0 0 0 0 0 0 0 0 0 0 0 0 0 0 0 0 0 0 0 0 0 0 0.212075009630311 0.449864812894601 0.456145114168829 0.154236059673135 0.310889943954581 0 0 0 0 0 0 0 0 0 0 -1.49849568451446 -0.560537880827613 -0.696195299893638 0 0 0 0 0 0 0 0 0 0 0 0 0
0 0 0 0 0 0 0 0 0 0 0 0 0 0 0 0 0 0 0 0 0 0 0 0 0 0 0.246109676374493 0.0668206351257619 0.232955020272197 0 0.307324412590956 0.37406900919329 0.589860440563025 0.0675675263213044 0.107133135216387 0.0797565736775856 0.161394378185803 0.366129642967645 0.178678656442721 0.259754691651575 0.231047911918336 0.111860512535098 0.190935032201045 0 0 0 0 0 0 0 0 0 0 0 0 0 0 0 0 0 0.0675120302281927 0 0 -0.169287105009329 0 0 0 0 0 0 0 0 0 0 0 0 0 0 0 0 0 0 0 0 0 0 0 0 0 0 0 0 0 0 0 0 0 0 0 0 0 0 0 0 0 0 0 0 0 0 0 0 0.168865853104837 0.0507482488568014 0.736016278712906 0.0408663066760232 0.110621509286111 0 0 0 0 0 0 0 0 0 0 -1.79542772494664 -1.4267015912149 -0.327472299388943 0 0 0 0 0 0 0 0 0 0 0 0 0
0 0 0 0 0 0 0 0 0 0 0 0 0 0 0 0 0 0 0 0 0 0 0 0 0 0 0.167220301931314 0.864952012298226 0.219090040961911 0 0.017103850605719 0.0648923166487759 0.372150157057247 0.175973851360914 0.0388543474453484 0.0841195811969528 0.235014387281008 0.0624883359404498 0.240877392983789 1.31320435064239 0.106010874514315 0.323968371718713 0.498567200724932 0 0 0 0 0 0 0 0 0 0 0 0 0 0 0 0 0 0.253644190169916 0 0 -3.22135842492117 0 0 0 0 0 0 0 0 0 0 0 0 0 0 0 0 0 0 0 0 0 0 0 0 0 0 0 0 0 0 0 0 0 0 0 0 0 0 0 0 0 0 0 0 0 0 0 0 0.436844763576653 0.182583088882379 0.387978238705761 0.345711967801658 0.806402699927798 0 0 0 0 0 0 0 0 0 0 -0.917620909461682 -2.37747568334978 -0.195433112552186 0 0 0 0 0 0 0 0 0 0 0 0 0
0 0 0 0 0 0.673530154337559 0.361987427052415 0.177722067829478 0.413036191639619 0.0241676157052366 0.609656425733631 0.0774559915274246 0.0595328049472541 0.0916567443409995 0.0210800808494917 0.28070630796073 0 0 0 0 0 0 0 0 0 0 0 0 0 0.0457997607918666 0.37209343976589 0.143908633765462 0.177035720132779 0.21512708259015 0.407250973911794 0.0794168533101397 0.547703664725682 0.199916574186369 0.0620526383809496 0.508998536320157 0.213745771917159 0.454791625653546 0.0534320814400885 0 0 0 0 0 0 0 0 0 0 0 0 0 0 0 0 0 0.118477843228147 0 0 0 0 0 0 0 0 0 0 0 0 0 0 0 0 0 0 0 0 0 0 0 0 0 0 0 0 0 0 0 0 0 0 0.0633203753010571 0.540616755532076 0.18155712809373 0.15092388193628 0.468531390000867 0.105788408640865 0.183660579341716 0.137884513314584 1.09552962731059 0.0602011010302419 0.141530855742178 0.156262399073504 0.288453570251881 0.338452153059051 0.0573241764995363 0.147430188008751 0.168648396467654 0 0 0 0 0 0 0 0 0 0 0 0 0 0 0 -3.95828177750125 -0.381429439810568 -0.215899409058484 -0.842008091339848 -0.53308887824665 -0.229571298315164 -0.75038147085695 0 0 0 0 0 0 0 0.0556200267330406 0
0 0 0 0 0 0.172067686900452 0.0482341251177287 0.497297706398317 0.0202490594370678 0.113277184965566 0.274896879311649 0.143678763891689 0.039923442337531 0.655494570709262 0.0523016430506288 0.282264209708346 0 0 0 0 0 0 0 0 0 0 0 0 0 0.236104706805659 0.172339498707509 0.449668653015645 1.24244989415413 0.185624776608147 0.168932130315961 0.10759568653763 0.065198439012968 0.193734274892472 0.168213049563642 0.214156270196598 0.070124083991508 0.198874297964145 0.131565070939969 0 0 0 0 0 0 0 0 0 0 0 0 0 0 0 0 0 0.79110175336078 0 0 0 0 0 0 0 0 0 0 0 0 0 0 0 0 0 0 0 0 0 0 0 0 0 0 0 0 0 0 0 0 0 0 0.187494691704557 0.144876063196463 0.303925124917082 0.0883459904998769 0.173223610943236 0.11119555249847 0.531294722753737 0.242065732599031 0.0231475453052719 0.0363629108398073 0.0770305561750398 0.121448102821186 0.248322600080406 0.35361988843633 0.0948587521749194 0.0327042589305767 0.081725291380456 0 0 0 0 0 0 0 0 0 0 0 0 0 0 0 -7.05313316977675 -1.39780895012568 -0.850543733020851 -2.06521572728561 -0.626667008031621 -0.825679865034955 -0.213578824114573 0 0 0 0 0 0 0 0.0817089428887495 0
0 0 0.0451770332082854 0 0 0.391749533368337 0.0697350109646003 0.172907165308341 0.230559758259327 0.719745804219637 0.0280181370792042 1.23232541444055 0.0470613630894694 1.87955426546677 0.651704969030499 0.501358917541239 0 0 0 0 0 0 0 0 0 0 0 0 0 0 0.183857418318108 0.262887900919216 0.502652835239081 0.221839344774279 0.0432438589895497 0.315723980387906 0.390039811276202 0.125914230289876 0 0 0 0 0 0 0 0 0 0 0 0 0 0 0 0 0 0 0 0 0 0 0 0 0 -1.10064143117055 0 0 0 0 0 0 0 0 0 0 0 0 0 0 0 0 0 0 0 0 0 0 0 0 0 0 0 0 0 0 0 0 0 0 0 0 0 0 0 0 0 0 0 0 0 0 0 0 0.544720177254055 0.761847453875093 0.854542095863077 0.125985776876403 0.151939923813412 0 0 0 -0.220669544917238 -2.11521568541422 -1.54775646324679 -2.33108400363189 -1.36441196082808 -0.347694893188303 -4.24282219292684 -0.213252585914528 -0.190167600264655 -2.10204430396356 -0.498743885214937 -1.62878175305539 -0.256532213040185 -0.479928441243415 -0.870203116397622 -2.94045225979551 0 0 0 0.120262249714595 0.54298494598548 0 0.148663365419582
0 0 0.0955513008711315 0 0 0.113936868735018 0.355016510628641 0.167062000709471 0.0707653027061058 0.767821791996056 0.0980030222504974 0.0547242326840123 0.329117175841438 0.706346059982024 0.0414073035333438 0.151505902802405 0 0 0 0 0 0 0 0 0 0 0 0 0 0 0.426785947078079 0.121515796885549 0.534668600489895 0.125240288153203 0.0519769159811193 0.138435966105531 0.232158427055272 0.204702505372213 0 0 0 0 0 0 0 0 0 0 0 0 0 0 0 0 0 0 0 0 0 0.309610799038671 0.21228983074516 0 0 -0.240701211246719 0 0 0 0 0 0 0 0 0 0 0 0 0 0 0 0 0 0 0 0 0 0 0 0 0 0 0 0 0 0 0 0 0 0 0 0 0 0 0 0 0 0 0 0 0 0 0 0 0.0345068388465883 0.103803066081861 0.258869980751438 1.50469916962846 0.311103407028953 0 0 0 0 0 0 0 0 0 0 -0.436728633289388 -2.9808791350138 -0.523175122121455 0 0 0 0 0 0 0 0 0 0.259275252463496 0 0 0.184475824305806
0 0 0.37077971519745 0 0 0.171008023665146 0.426339014973889 0.246952067150507 0.0252515623082976 0.192497449605688 0.0716424094075342 0.0514567357676563 0.617008605033491 0.0447266969882823 0.0753220090738952 0.400804293589507 0 0 0 0 0 0 0 0 0 0 0 0 0 0 0.86121288932301 0.0760680302034115 0.031546454815672 0.174752774371766 0.849496117025946 0.0772426618321583 0.190165082549488 0.0925273047742449 0 0 0 0 0 0 0 0 0 0 0 0 0 0 0 0 0 0 0 0 0 0.280704295469681 0.151331600332017 0 0 -0.301167831451609 0 0 0 0 0 0 0 0 0 0 0 0 0 0 0 0 0 0 0 0 0 0 0 0 0 0 0 0 0 0 0 0 0 0 0 0 0 0 0 0 0 0 0 0 0 0 0 0 0.261186551560198 0.35125968686707 0.0758417929092556 0.887155015812522 0.145450443937021 0 0 0 0 0 0 0 0 0 0 -6.75968172890308 -1.1146191171785 -0.779080987455806 0 0 0 0 0 0 0 0 0 0.274280906158013 0 0 0.266885950092817
0 0 0.667003770533286 0 0 0.0910455385337402 0.0622807988694958 0.444122448488093 0.578384423860356 0.318020004342197 0.284517056670069 0.401778147626202 0.0835653594674256 1.37934603216713 0.154828029873734 0.157045274327287 0 0 0 0 0 0 0 0 0 0 0 0 0 0 0.164518084821784 0.175367724687323 0.324162836714332 0.867286839022869 0.20875056584539 0.0537289341165307 0.10926285085366 0.403993726661798 0 0 0 0 0 0 0 0 0 0 0 0 0 0 0 0 0 0 0 0 0 0.357075634437271 0.283992788367732 0 0 -2.4646353458314 0 0 0 0 0 0 0 0 0 0 0 0 0 0 0 0 0 0 0 0 0 0 0 0 0 0 0 0 0 0 0 0 0 0 0 0 0 0 0 0 0 0 0 0 0 0 0 0 0.195926491499165 0.786081787051507 0.689082767499114 0.257561984798704 0.057274528694134 0 0 0 0 0 0 0 0 0 0 -8.89982694444617 -1.94245208363266 -0.158075908188103 0 0 0 0 0 0 0 0 0 0.0786184794098465 0 0 0.329239575812988
0 0 0.157987020846554 0 0 0.100366108678194 0.154552139323645 0.182864293442137 0.116526260292821 0.524655976326658 0.0357845859717789 1.45095142216053 0.213354659372857 0.245528928088813 0.167165495737861 0.39883331891045 0.193438513885932 0.077940052882892 0.333037997535455 0.925223775936006 0.0869502020279759 0 0 1.10880403115273 0.0768296425782909 0 0.0514579417079506 0.550307870562016 0.853859635872898 0 0.0475616904074887 0.404106568819457 0.367614631046135 0.281051650067773 0.0672916207438074 0.202137688858101 0.0680867022745321 0.0463160380313882 0 0 0 0 0 0 0 0 0 0 0 0 0 0 0 0 0 0 0 0 0 0 0 0 0 0 0 0 0 0 0 0 0 0 0 0 0 0 0 0 0 0 0 0 0 0 0 0 0 0 0 0 0 0 0 0 0 0 0 0 0 0 0 0 0 0 0 0 0 0 0 0 0 0 0.167264522109948 0.194410809390655 0.254747011583356 0.12557659323325 0.251753456521377 0 0 0 0 0 0 0 0 0 0 -4.7609634344739 -0.956740365477673 -1.6018427651232 0 0 0 0 0 0 0 0 0 0 0 0 0
0 0 0.154137274755884 0 0 0.105675339352393 0.0952155467947412 0.42318758043194 0.117740367823284 0.408538404575744 0.118798358084209 0.160171832052684 0.243451944337231 0.0902195754477957 0.176180277163213 0.0776782702079502 1.03910066233609 0.0903608947895391 0.338311831238809 0.0669479292388261 0.0354298886573035 0 0 0.287090230924072 0.173649130925743 0 0.0914948063797223 0.0635132586834258 0.0830703882676879 0 0.0523595912258359 0.181776310575823 0.75182348785381 0.0301369683532476 0.106375001195054 0.0429406845427639 0.0787131663016776 0.122291784605003 0 0 0 0 0 0 0 0 0 0 0 0 0 0 0 0 0 0 0 0 0 0 0 0 0 0 0 0 0 0 0 0 0 0 0 0 0 0 0 0 0 0 0 0 0 0 0 0 0 0 0 0 0 0 0 0 0 0 0 0 0 0 0 0 0 0 0 0 0 0 0 0 0 0 0.292185973302477 0.3632475492135 0.681604554253569 0.383210883193481 0.417287769962521 0 0 0 0 0 0 0 0 0 0 -0.519401439106358 -0.398281432041392 -0.107647967484372 0 0 0 0 0 0 0 0 0 0 0 0 0
0 0 0.125120642074537 0 0 0.24409174554409 1.32056852251353 0.18376529338946 0.9367998099063 0.114666666955297 1.0653599570912 0.103840536134008 0.157200982117015 0.061044040065038 0.0679469174449737 0.764678418034879 0 0 0 0 0 0 0 0 0 0 0 0 0 0 0.0140132447220522 0.263678096583309 1.1233978938419 0.0824748853581334 0.247313935278837 0.0617057906044934 0.0475837967863078 0.358895048823679 0 0 0 0 0 0 0 0 -1.26076381126966 -0.617009504929171 0 0 0 0 0 0 -1.66153461893134 -1.37794284224915 -1.83487231206017 0 0 0 0 0 0 -5.26586053067084 0 0 0 0 0 0 0 0 0 0 0 0 0 0 0 0 0 0 0 0 0 0 0 0 0 0 0 0 0 0 0 0.732702634336266 0.343734596956874 0.00986411046849611 0.187358111969247 0.131266685859712 0.0778519717038272 0.0622450423647787 0.100115348994167 0.440435933373634 0.0981933472271273 0.269931697765887 0.106166722226555 0.346065478668776 0.169672608383542 0.16385554800545 0.0836584190913785 0.298690408620593 0.102998447353553 0.292557007101196 1.12712365584271 0.158225894209964 0.231694529372783 0 0 0 0 0 0 0 0 0 0 -2.41132496740015 -1.99994510130131 -0.330912574341608 0 0 0 0 0 0 0 0 0 0 0.360159280868275 0 0.290280208006576
0 0 0.428576655687449 0 0 0.24244120839685 0.0436544938486281 1.43940409150789 0.288077888252796 0.108615064221353 0.0874857050404269 0.120330026731387 0.152660531461103 0.910572969953219 0.0648680483048824 0.397943756156543 0 0 0 0 0 0 0 0 0 0 0 0 0 0 0.114333269723623 0.85933111039688 0.104664303269377 0.0907967456371827 0.672228411560329 0.0843097636609853 0.12215112321726 0.17748873689272 0 0 0.0954279547320157 0.23598216697377 0.18922665761616 -3.58596341221046 -0.659447679669484 0 -2.34822047131783 -3.04938658459842 -1.52483570696176 -0.320216659367207 -1.29718967188654 -0.586043131136475 -3.94396420653817 0 -1.04005461624485 -0.729248485807617 -1.52086885180236 0 0 0 0 0 0 0 0 0 0 0 0 0 0 0 0 0 0 0 0 0 0 0 0 0 0 0 0 0 0 0 0 0 0 0 0 0 0 0.185304484460263 0.884028821214319 0.349969289309653 0.220267750165798 0.018650001277082 0.105623548705106 0.0665054026326738 0.0459310161434358 0.11215192092834 0.583922923133152 0.131768791134829 0.431748572630368 0.274704642449349 0.192602079860209 0.348777065674356 1.3097067289364 0.129435918198109 0.0926235511603975 0.0590038045437404 0.60472602637326 0.250767387750781 0.0643181371814254 0 0 0 -0.782767233935589 -1.18800624155955 -0.428794821750895 -3.84638089553316 -2.44254220196883 -1.12739173586686 -1.01803475352353 -1.44775005528856 -0.118212952229272 -2.78335337748518 0 0 0 0 0 0 0 0 0 0 0.0499981500194843 0 0
0 0 0.141963636623702 0 0 0.157883094494044 0.45001577499111 0.278480905244644 0.102986458071692 0.0576278497850467 0.17313132821606 0.0884247183336655 0.100821037350895 0.284557945197997 0.0944903549108275 0.26660452110368 0 0 0 0 0 0 0 0 0 0 0.548992597364775 0.381683644648059 0.288233114340968 0 0.0789999458992538 0.120125901652168 0.108534741034504 0.134452358086356 0.606007715652385 0.0929015607384667 0.0676228813461051 1.14956047360357 0.0982822911551297 0.0847427545384999 0.771016414264407 0.0913422443219696 0.348565012050248 0 0 0 0 0 0 0 0 0 0 0 0 0 0 0 0 0 0 0 0 -0.279239345248337 0 0 0 0 0 0 0 0 0 0 0 0 0 0 0 0 0 0 0 0 0 0 0 0 0 0 0 0 0 0 0 1.03218940509815 0.14426444159588 0.675214625140856 0.366595961833567 0.395339185523856 0.0408777040842078 0.677744083337397 0.7043504728161 0.0639353199053617 0.0747879435676355 1.18388660539743 0.0438253432009643 0.0533855443831747 0.303103668591529 0.0985149059115568 0 0 0.678631642839651 0.157423933990107 0.0342611768010972 0.12190715278037 0.0221308579982006 0 0 0 0 0 0 0 0 0 0 0 0 0 0 0 0 0 0 0 0 0 0 0 1.01923821237596 0 0
0 0 0.297796523338047 0 0 0.0620170451189435 0.478418000510047 0.841466979866874 0.0331670931491886 2.39919668569616 0.0948904050636638 0.217102687499154 0.275069267109136 0.957010003876532 0.0355697260315795 0.0550085194796534 0 0 0 0 0 0 0 0 0 0 0.471551989784534 0.235833039040558 0.157589956368673 0 0.32219187474797 0.243139865220486 0.0749876398319215 0.171730367051363 0.444020784433322 0.0494801731857503 0.326270610894866 0.0590410050093943 0.511379298851013 0.548989482708089 0.532097993753071 0.404697163231278 0.14388746310847 0 0 0 0 0 0 0 0 0 0 0 0 0 0 0 0 0 0 0 0 -1.14187517629232 0 0 0 0 0 0 0 0 0 0 0 0 0 0 0 0 0 0 0 0 0 0 0 0 0 0 0 0 0 0 0 0.123055906774358 0.0880600624508031 0.701315979284602 0.120410100944261 0.310248504549723 0.225625127075164 0.0883791472984292 0.0313699745747868 0.199902879731165 0.158004717978088 0.106075212578466 0.37655334811985 0.191437453768953 0.119742582104133 0.212132422739742 0 0 0.0793789620034131 0.213653902923691 0.236937348721121 0.0305554678399917 0.335115115861641 0 0 0 0 0 0 0 0 0 0 0 0 0 0 0 0 0 0 0 0 0 0 0 0.0361165502090963 0 0
0 0 0 0 0 0.209589421271697 0.159840384024845 0.168767850674737 0.589553251888876 0.424653581240645 1.41237250444142 0.0852720762739317 0.103562760341805 1.25581138831506 0.212970779690565 0.0605459716314157 0 0 0 0 0 0.189873390077052 0 0.0950814310196849 0.071119417570843 0 0 0 0 0 0.144065862606822 0.129744589674876 0.145660369016306 0.0945337783600306 0.153726519878532 0.250294833132463 0.358476331447742 0.149476090543983 0 0 0 0 0 0 0 0 0 0 0.282596308163829 0.034524607620996 0.680724763562323 0 0 0.201726725772742 0.0534359637246299 0.0552233119486563 0.496918289896687 0 0 1.15252115599252 0 0.0541001115003611 0.234281010561755 0 0 0 0 0 0 0 0 0 0 0 0 0 0 0 0 0 0 0 0 0 0 0 0 0 0 0 0 0 0 0 0 0.0265971352470591 0.180230112799882 0.125089253755673 0.102205856093486 0.115626290675214 1.43769277180556 0.505828425635292 0.108204587340789 0.0298825191381101 0.369264080486372 0.088384833213468 0.337392885581174 0.119265366936505 0.0773502893555479 0.0852023716492021 0.159016073084501 0.278120210170175 0 0 0 0 0 0 0 0 0 0 0 0 0 0 0 0 0 0 0 0 0 0 0 0 0 0 0 0 0 0 0
0.199474539340255 0.171208866610464 0.240822899935283 0 0 0 0 0 0 0 0 0 0 0 0 0 0 0 0 0 0 0 0 -0.218033911887593 -0.0765174607792665 0 0 0 0 0 0 0 0 0 0 0 0 0 0 0 -6.16473419621775 -1.08333107584855 -4.4473248570196 0 0 0 0 0 0 0 0 0 0 0 0 0 0 0 0 0 0 0 0 0 0 0 0 0 0 0 0 0 -0.443792264319812 -0.916231329418053 -1.20121686089623 -0.230855546012021 -0.498452877736645 -2.62215631400914 -1.23841030412412 -3.28399407563771 -0.694399701015058 -1.24892197011696 -1.23500680522401 -0.918374358446339 -2.83573975830721 -0.248563986978967 -0.481402085386793 -0.687571649226523 0 0 0 0 0 0 0 0 0 0 0 0 0 0 0 0 0 -2.89991506949902 -0.60562744511059 -1.10982527017306 -0.922132811995348 -0.200734851645898 0 0 0 0 0 0 0 -0.191310762960072 -1.39687488636516 -0.882629700704778 0 0 0 0 0 0 0 0 0 0 0 0 0 0 0 0 -1.33609799743964 0 0 0 0.107152038162414 0 0.106954870958112
0.272006211313625 0.134204907829155 0.0752328180079915 0 0 0 0 0 0 0 0 0 0 0 0 0 0 0 0 0 0 0 0 -5.56962713991567 -2.06204128917601 0 0 0 0 0 0 0 0 0 0 0 0 0 0 0 -1.29063133880734 -0.370028386907531 -0.442844374429955 0 0 0 0 0 0 0 0 0 0 0 0 0 0 0 0 0 0 0 0 0 0 0 0 0 0 0 0 0 -0.380394651220168 -1.22637620924236 -0.191392625283486 -0.315291389563944 -0.613234612520919 -0.788843541986848 -0.180463507819131 -0.183595029535951 -0.410211454460845 -0.693800936674241 -2.2064060183001 -0.970286244184019 -0.378356409675205 -0.934722769493092 -0.398564280741567 -0.739260026370815 0 0 0 0 0 0 0 0 0 0 0 0 0 0 0 0 0 -0.309918428715759 -1.19157009716329 -0.448422296693783 -2.36013420514565 -0.998344215635697 0 0 0 0 0 0 0 -0.193570581962724 -0.912268815789499 -1.71992101287184 0 0 0 0 0 0 0 0 0 0 0 0 0 0 0 0 -0.783942452407572 0 0 0 0.227748546686669 0 0.220219186683775
0.503899924046421 0.245785054200226 0.560341605508594 0 0 0 0 0 0 0 0 0 0 0 0 0 0 0 0 0 0 0 0 -0.751410236348855 -0.202997425640163 0 0 0 0 0 0 0 0 0 0 0 0 0 0 0 -0.0724590085608799 -1.12222978655623 -0.342523018756209 0 0 0 0 0 0 0 0 0 0 0 0 0 0 0 0 0 0 0 0 0 0 0 0 0 0 0 0 0 -9.39578447728361 -2.66327964523263 -0.826782242812038 -1.18087779299514 -0.498958705173099 -1.92796861709964 -0.888894506823956 -4.6799197854476 -0.353690197797012 -2.64772069152832 -0.193407693186653 -0.997688715289034 -9.30659870075453 -0.40166976577473 -2.78845244914566 -0.663412565159106 0 0 0 0 0 0 0 0 0 0 0 0 0 0 0 0 0 -0.307428642182263 -1.03516272351704 -1.90893499796983 -0.654162101881901 -0.0938737257953006 0 0 0 0 0 0 0 -0.994096083651427 -0.355486459211284 -1.2095078098844 0 0 0 0 0 0 0 0 0 0 0 0 0 0 0 0 -0.200034535671444 0 0 0 0.104024312476916 0 0.0333989341767493
0.498612783832622 0.0862194795262715 0.122013836616596 0 0 0 0 0 0 0 0 0 0 0 0 0 0 0 0 0 0 0 0 -2.03134715870399 -1.67741314926076 0 0 0 0 0 0 0 0 0 0 0 0 0 0 0 -1.61264634458312 -1.72319249977604 -0.857042208264507 0 0 0 0 0 0 0 0 0 0 0 0 0 0 0 0 0 0 0 0 0 0 0 0 0 0 0 0 0 -1.33684099212012 -5.17501964533778 -1.30025210002967 -2.12418317740889 -0.448756968273463 -0.180505256535977 -0.89112400637894 -4.84510077986824 -3.25565699946912 -0.199608822676772 -0.425783072438632 -1.38907590042172 -0.188776807749918 -0.930692923323528 -1.12346521665284 -4.4875279715941 0 0 0 0 0 0 0 0 0 0 0 0 0 0 0 0 0 -0.336287913536355 -3.04935287640434 -2.4815410644519 -1.52384238047362 -1.62605644972957 0 0 0 0 0 0 0 -2.18207263041538 -1.6076081691535 -0.679213973734457 0 0 0 0 0 0 0 0 0 0 0 0 0 0 0 0 -6.42477146814174 0 0 0 0.110895419765652 0 0.290427557623123
0.95243541330263 0.082276435409394 0.102547310561459 0 0 0 0 0 0 0 0 0 0 0 0 0 0 0 0 0 0 0 0 -0.34091782384459 -0.779580409304132 0 0 0 0 0 0 0 0 0 0 0 0 0 0 0 -1.32700501816471 -1.16621299485288 -0.455613226689275 0 0 0 0 0 0 0 0 0 0 0 0 0 0 0 0 0 0 0 0 0 0 0 0 0 0 0 0 0 -0.656231340977053 -0.310620285759754 -0.918105247814398 -0.470158917148372 -0.970997484667304 -0.447929950606393 -0.700455343913658 -2.07328648913528 -0.279680057826626 -0.20847943060666 -0.792100136658742 -1.0518050894744 -0.925517091197324 -1.84037320233254 -0.63201280696076 -0.56503143224569 0 0 0 0 0 0 0 0 0 0 0 0 0 0 0 0 0 -0.349224011990476 -2.25547856336701 -2.52084179834317 -1.05796842024775 -0.184133904116907 0 0 0 0 0 0 0 -1.82932829695572 -0.976145717946247 -0.797128266348115 0 0 0 0 0 0 0 0 0 0 0 0 0 0 0 0 -1.64326728585796 0 0 0 0.0889858411572255 0 0.282407861758494
0.0739240497126599 0.632937761883571 0.193089576437118 0 0 0 0 0 0 0 0 0 0 0 0 0 0 0 0 0 0 0 0 -2.19662730045947 -0.43210304353645 0 0 0 0 0 0 0 0 0 0 0 0 0 0 0 -1.1792812839786 -6.25262528320172 -1.27896510519616 0 0 0 0 0 0 0 0 0 0 0 0 0 0 0 0 0 0 0 0 0 0 0 0 0 0 0 0 0 -0.418521253524752 -0.230668621488628 -4.27474232250899 -1.975311744494 -0.42971325754118 -2.88471505317766 -2.18797449666105 -0.83154569107706 -0.695338097591711 -0.421658679519804 -0.0747292550598555 -0.519377064239661 -0.533254450482139 -1.13070785526426 -0.681661699749213 -0.687206158224452 0 0 0 0 0 0 0 0 0 0 0 0 0 0 0 0 0 -3.4747753326883 -1.30015337596418 -0.938902206558986 -1.37619200415055 -2.25038392312363 0 0 0 0 0 0 0 -0.607204036835728 -0.404051045718733 -0.950546286306864 0 0 0 0 0 0 0 0 0 0 0 0 0 0 0 0 -1.21952332176028 0 0 0 1.88739880925864 0 0.799901921206426
2.01737680402488 0.0195186722847425 0.0606845229688648 0 0 0 0 0 0 0 0 0 0 0 0 0 0 0 0 0 0 0 0 -3.12481022387068 -0.109562370675826 0 0 0 0 0 0 0 0 0 0 0 0 0 0 0 -5.3504295781709 -0.219959904474927 -1.06732762533879 0 0 0 0 0 0 0 0 0 0 0 0 0 0 0 0 0 0 0 0 0 0 0 0 0 0 0 0 0 -0.819156713095004 -1.60890244414028 -1.36696656840472 -0.31867553684479 -1.37504372812687 -1.23640844202098 -0.772596512847184 -0.597310048944707 -0.248167845223091 -1.09463540453741 -0.161601017301366 -0.70352304917221 -4.29171662812833 -0.0501437525477178 -0.713995947810789 -4.41404629319722 0 0 0 0 0 0 0 0 0 0 0 0 0 0 0 0 0 -0.301069817531315 -1.39797165667693 -0.412623404043169 -1.27025355486896 -4.0620293381083 0 0 0 0 0 0 0 -0.403311531714289 -1.04129327235171 -0.346392959473166 0 0 0 0 0 0 0 0 0 0 0 0 0 0 0 0 -0.312994875456306 0 0 0 0.30413446041277 0 0.129403789291042
0.644386405064412 0.365959658769313 0.7782105150943 0 0 0 0 0 0 0 0 0 0 0 0 0 0 0 0 0 0 0 0 -1.46026948802399 -0.702794399343892 0 0 0 0 0 0 0 0 0 0 0 0 0 0 0 -0.193073945715745 -1.62138122525586 -0.488766040948429 0 0 0 0 0 0 0 0 0 0 0 0 0 0 0 0 0 0 0 0 0 0 0 0 0 0 0 0 0 -3.79449339424652 -1.06774621991108 -1.44630439752707 -0.534075943825829 -0.455017416906062 -2.52807156476058 -1.01811887746044 -1.38547015624257 -1.64953336361738 -7.41129893462385 -0.309622764050171 -0.643514973243375 -1.4742357148449 -3.04661539836732 -1.40054048952785 -0.164354977570697 0 0 0 0 0 0 0 0 0 0 0 0 0 0 0 0 0 -1.1932289493155 -1.93197166586194 -0.770550356872746 -1.84537088261572 -0.84436427957444 0 0 0 0 0 0 0 -1.05059839819936 -3.53310918809481 -0.758714414962553 0 0 0 0 0 0 0 0 0 0 0 0 0 0 0 0 -0.46900477067744 0 0 0 0.0421149707040464 0 0.400928123672857
0 0 0 0 0 0 0 0 0 0 0 0 0 0 0 0 0 0 0 0 0 0 0 0 0 0 0 0 0 0 0 0 0 0 0 0 0 0 0 0 0 0 0 0 0 0 0 0 0 0 0 0 0 0 0 0 0 0 0 0 0 0 0 0 0.0936303608713638 0.0775338375512068 1.98757585959873 0.260576879455846 0.127841011092714 0.0823998374420093 0.159962536392361 0.760562174494437 0 0 0 0 0 0 0 0 0 0 0 0 0 0 0 0 0 0 0 0 0.527540198991585 1.07096978978887 0.0981130545168486 0 0 0 0 0 0 0 0 0 0 0 0 0 0 0 0 0 0 0 0 0 0 0 0 0 0 0 0 0 0 0 0 0 0 0 0 0 0 0 0 0 0 0 0 0 0 0 0.371822458488324
0 0 0 0 0 0 0 0 0 0 0 0 0 0 0 0 0 0 0 0 0 0 0 0 0 0 0 0 0 0 0 0 0 0 0 0 0 0 0 0 0 0 0 0 0 0 0 0 0 0 0 0 0 0 0 0 0 0 0 0 0 0 0 0 0.185175397777411 0.24010953676167 0.526434153599737 1.07416521698065 0.0594115995492521 0.0459200646806836 0.294804941743423 0.215775313562939 0 0 0 0 0 0 0 0 0 0 0 0 0 0 0 0 0 0 0 0 0.0610503902968736 0.0484924379527802 0.190172188905821 0 0 0 0 0 0 0 0 0 0 0 0 0 0 0 0 0 0 0 0 0 0 0 0 0 0 0 0 0 0 0 0 0 0 0 0 0 0 0 0 0 0 0 0 0 0 0 0.331861490632688
0 0 0 0 0 0 0 0 0 0 0 0 0 0 0 0 0 0 0 0 0 0 0 0 0 0 0 0 0 0 0 0 0 0 0 0 0 0 0 0 0 0 0 0 0 0 0 0 0 0 0 0 0 0 0 0 0 0 0 0 0 0 0 0 0.247995871504745 0.0384337034817625 0.155765599375734 0.256988470020817 0.196954105513228 0.863686888677418 0.279133350384377 0.294065365056297 0 0 0 0 0 0 0 0 0 0 0 0 0 0 0 0 0 0 0 0 0.385507225885606 0.0253916434786704 0.103823844281768 0 0 0 0 0 0 0 0 0 0 0 0 0 0 0 0 0 0 0 0 0 0 0 0 0 0 0 0 0 0 0 0 0 0 0 0 0 0 0 0 0 0 0 0 0 0 0 0.0720296355433195
0 0 0 0 0 0 0 0 0 0 0 0 0 0 0 0 0 0 0 0 0 0 0 0 0 0 0 0 0 0 0 0 0 0 0 0 0 0 0 0 0 0 0 0 0 0 0 0 0 0 0 0 0 0 0 0 0 0 0 0 0 0 0 0 0.0420122126339079 0.0615896205898722 0.248311558263381 0.431472173692269 0.0958944577362728 0.373009885295027 0.0620227232590801 0.107465249007651 0 0 0 0 0 0 0 0 0 0 0 0 0 0 0 0 0 0 0 0 0.184584304339648 0.220203382510616 0.0438839359026063 0 0 0 0 0 0 0 0 0 0 0 0 0 0 0 0 0 0 0 0 0 0 0 0 0 0 0 0 0 0 0 0 0 0 0 0 0 0 0 0 0 0 0 0 0 0 0 0.131551104481547
0 0 0 0 0 0 0 0 0 0 0 0 0 0 0 0 0 0 0 0 0 0 0 0 0 0 0 0 0 0 0 0 0 0 0 0 0 0 0 0 0 0 0 0 0 0 0 0 0 0 0 0 0 0 0 0 0 0 0 0 0 0 0 0 0.0969198460363369 0.122248421621823 0.104493715576968 0.0824902402162278 0.184808772807121 0.0847170336510244 0.253176653804895 0.0856350847725886 0 0 0 0 0 0 0 0 0 0 0 0 0 0 0 0 0 0 0 0 0.153221081406826 1.61773878240774 0.0676675596452834 0 0 0 0 0 0 0 0 0 0 0 0 0 0 0 0 0 0 0 0 0 0 0 0 0 0 0 0 0 0 0 0 0 0 0 0 0 0 0 0 0 0 0 0 0 0 0 0.853074891892804
0 0 0 0 0 0 0 0 0 0 0 0 0 0 0 0 0 0 0 0 0 0 0 0 0 0 0 0 0 0 0 0 0 0 0 0 0 0 0 0 0 0 0 0 0 0 0 0 0 0 0 0 0 0 0 0 0 0 0 0 0 0 0 0 0.525360744287711 0.154381571786669 0.393846635516217 0.0362126106388308 0.0932137064929174 0.554355912581782 0.242788563003529 0.51093682803319 0 0 0 0 0 0 0 0 0 0 0 0 0 0 0 0 0 0 0 0 0.678333105374362 0.218460244260027 0.114525099606262 0 0 0 0 0 0 0 0 0 0 0 0 0 0 0 0 0 0 0 0 0 0 0 0 0 0 0 0 0 0 0 0 0 0 0 0 0 0 0 0 0 0 0 0 0 0 0 0.0916718969192087
0 0 0 0 0 0 0 0 0 0 0 0 0 0 0 0 0 0 0 0 0 0 0 0 0 0 0 0 0 0 0 0 0 0 0 0 0 0 0 0 0 0 0 0 0 0 0 0 0 0 0 0 0 0 0 0 0 0 0 0 0 0 0 0 0.246807370304828 0.0353047709187168 0.173997146549836 0.180136048954188 0.13391458773742 0.434903205941621 0.14526095355206 0.215609312207812 0 0 0 0 0 0 0 0 0 0 0 0 0 0 0 0 0 0 0 0 0.113443559825506 0.232173967099504 0.0709520223371154 0 0 0 0 0 0 0 0 0 0 0 0 0 0 0 0 0 0 0 0 0 0 0 0 0 0 0 0 0 0 0 0 0 0 0 0 0 0 0 0 0 0 0 0 0 0 0 0.0268630737060635
0 0 0 0 0 0 0 0 0 0 0 0 0 0 0 0 0 0 0 0 0 0 0 0 0 0 0 0 0 0 0 0 0 0 0 0 0 0 0 0 0 0 0 0 0 0 0 0 0 0 0 0 0 0 0 0 0 0 0 0 0 0 0 0 0.575250162846031 0.0366343314498068 0.94615704080965 0.940669770116218 0.402063568923662 0.174807100251866 0.124794061179072 0.307311026796407 0 0 0 0 0 0 0 0 0 0 0 0 0 0 0 0 0 0 0 0 0.210247656214197 0.145537582427407 0.160144278298426 0 0 0 0 0 0 0 0 0 0 0 0 0 0 0 0 0 0 0 0 0 0 0 0 0 0 0 0 0 0 0 0 0 0 0 0 0 0 0 0 0 0 0 0 0 0 0 0.364847716582157
0 0 0 0 0 0 0 0 0 0 0 0 0 0 0 0 0 0 0 0 0 0 0 0 0 0 0 0 0 0 0 0 0 0 0 0 0 0 0 0 0 0 0 0 0 0 0 0 0 0 0 0 0 0 0 0 0 0 0 0 0 0 0 0 0.140769228464072 0.0764073162862223 0.0701044140217894 0.645023535748856 0.0524003923543681 0.144174526094442 0.0484877652229153 0.326960910745362 0 0 0 0 0 0 0 0 0 0 0 0 0 0 0 0 0 0 0 0 0.0639149680758434 0.217297860384303 0.29782441848873 0 0 0 0 0 0 0 0 0 0 0 0 0 0 0 0 0 0 0 0 0 0 0 0 0 0 0 0 0 0 0 0 0 0 0 0 0 0 0 0 0 0 0 0 0 0 0 0.360149899687029
0 0 0 0 0 0 0 0 0 0 0 0 0 0 0 0 0 0 0 0 0 0 0 0 0 0 0 0 0 0 0 0 0 0 0 0 0 0 0 0 0 0 0 0 0 0 0 0 0 0 0 0 0 0 0 0 0 0 0 0 0 0 0 0 0.255074605364042 0.13983456212028 0.495571587122775 0.0382885980391426 0.0439380828804334 0.0856928280545456 0.213226724120507 1.61129293177092 0 0 0 0 0 0 0 0 0 0 0 0 0 0 0 0 0 0 0 0 0.280871441313392 0.179927280137594 0.221976041799637 0 0 0 0 0 0 0 0 0 0 0 0 0 0 0 0 0 0 0 0 0 0 0 0 0 0 0 0 0 0 0 0 0 0 0 0 0 0 0 0 0 0 0 0 0 0 0 0.637804587291702
0 0 0 0 0 0 0 0 0 0 0 0 0 0 0 0 0 0 0 0 0 0 0 0 0 0 0 0 0 0 0 0 0 0 0 0 0 0 0 0 0 0 0 0 0 0 0 0 0 0 0 0 0 0 0 0 0 0 0 0 0 0 0 0 0.254879229819986 0.421671204849278 0.0367591883866314 0.0836033973193834 0.164314405252464 0.0143972910194681 0.0333556724982677 0.0616139937764198 0 0 0 0 0 0 0 0 0 0 0 0 0 0 0 0 0 0 0 0 0.269547556371027 0.177301549783715 0.0567169011645479 0 0 0 0 0 0 0 0 0 0 0 0 0 0 0 0 0 0 0 0 0 0 0 0 0 0 0 0 0 0 0 0 0 0 0 0 0 0 0 0 0 0 0 0 0 0 0 0.352724445787999
0 0 0 0 0 0 0 0 0 0 0 0 0 0 0 0 0 0 0 0 0 0 0 0 0 0 0 0 0 0 0 0 0 0 0 0 0 0 0 0 0 0 0 0 0 0 0 0 0 0 0 0 0 0 0 0 0 0 0 0 0 0 0 0 0.194649947959441 0.201594892244717 0.191949704120002 0.264769702381082 0.215646512236297 0.100146037106764 0.136728654726832 0.122248451468889 0 0 0 0 0 0 0 0 0 0 0 0 0 0 0 0 0 0 0 0 0.301553238416556 0.232614311346734 0.0945033313026092 0 0 0 0 0 0 0 0 0 0 0 0 0 0 0 0 0 0 0 0 0 0 0 0 0 0 0 0 0 0 0 0 0 0 0 0 0 0 0 0 0 0 0 0 0 0 0 0.446763868620103
0 0 0 0 0 0 0 0 0 0 0 0 0 0 0 0 0 0 0 0 0 0 0 0 0 0 0 0 0 0 0 0 0 0 0 0 0 0 0 0 0 0 0 0 0 0 0 0 0 0 0 0 0 0 0 0 0 0 0 0 0 0 0 0 0.561160763878816 0.0746117326686935 1.93856624225107 0.0350676631634317 0.189116679347075 0.0962300253979633 0.895207243533214 0.300208539504392 0 0 0 0 0 0 0 0 0 0 0 0 0 0 0 0 0 0 0 0 0.165218297502064 0.140147481972857 0.210737072168684 0 0 0 0 0 0 0 0 0 0 0 0 0 0 0 0 0 0 0 0 0 0 0 0 0 0 0 0 0 0 0 0 0 0 0 0 0 0 0 0 0 0 0 0 0 0 0 0.117707990026146
0 0 0 0 0 0 0 0 0 0 0 0 0 0 0 0 0 0 0 0 0 0 0 0 0 0 0 0 0 0 0 0 0 0 0 0 0 0 0 0 0 0 0 0 0 0 0 0 0 0 0 0 0 0 0 0 0 0 0 0 0 0 0 0 0.0550991352946295 0.20423053878203 0.073694083446087 0.191320722146264 0.361979073875137 0.218657871146112 0.0107384235540195 0.565350277664285 0 0 0 0 0 0 0 0 0 0 0 0 0 0 0 0 0 0 0 0 0.241799351314668 0.366250909967688 0.246961165742573 0 0 0 0 0 0 0 0 0 0 0 0 0 0 0 0 0 0 0 0 0 0 0 0 0 0 0 0 0 0 0 0 0 0 0 0 0 0 0 0 0 0 0 0 0 0 0 0.124738272136101
0 0 0 0 0 0 0 0 0 0 0 0 0 0 0 0 0 0 0 0 0 0 0 0 0 0 0 0 0 0 0 0 0 0 0 0 0 0 0 0 0 0 0 0 0 0 0 0 0 0 0 0 0 0 0 0 0 0 0 0 0 0 0 0 0.100518382818954 0.0793676996259005 0.607383554689182 0.231346354369933 0.128501207139029 0.127243298886613 0.143522365283809 0.291166523365505 0 0 0 0 0 0 0 0 0 0 0 0 0 0 0 0 0 0 0 0 0.434133220964233 0.21374229285062 0.653448054015188 0 0 0 0 0 0 0 0 0 0 0 0 0 0 0 0 0 0 0 0 0 0 0 0 0 0 0 0 0 0 0 0 0 0 0 0 0 0 0 0 0 0 0 0 0 0 0 0.172553230696988
0 0 0 0 0 0 0 0 0 0 0 0 0 0 0 0 0 0 0 0 0 0 0 0 0 0 0 0 0 0 0 0 0 0 0 0 0 0 0 0 0 0 0 0 0 0 0 0 0 0 0 0 0 0 0 0 0 0 0 0 0 0 0 0 0.133123503512455 0.139666809523432 0.146629472534361 0.956616445449531 0.120288107076072 0.135923563471187 0.89852269708935 0.0312975088803601 0 0 0 0 0 0 0 0 0 0 0 0 0 0 0 0 0 0 0 0 0.201820990179607 0.131293226703187 0.252034989408845 0 0 0 0 0 0 0 0 0 0 0 0 0 0 0 0 0 0 0 0 0 0 0 0 0 0 0 0 0 0 0 0 0 0 0 0 0 0 0 0 0 0 0 0 0 0 0 0.107412931044722
0 0 0 0 0 0 0 0 0 0 0 0 0 0 0 0 0 0 0 0 0 0 0 0 0 0 0 0 0 0 0 0 0 0 0 0 0 0 0 0 0 0 0 0 0 0 0 0 0 0 0 0 0 0 0 0 0 0 0 0 0 0 0 0 0 0 0 0 0 0 0 0 0 0 0 0 0 0 0 0 0 0 0 0 0 0 0 0 0 0 0 0 0 0 0 0 0 0 0 0 0 0 0 0 0 0 0 0 0 0 0 0 0 0 0 0 0 -0.648542202315095 -4.95398450908258 -0.404524415289686 0 0 0 0 0 0 0 0 0 0 0 0 0 0 0 0 0 0 0.27526211845234 0 0 0 0
0 0 0 0 0 0 0 0 0 0 0 0 0 0 0 0 0 0 0 0 0 0 0 0 0 0 0 0 0 0 0 0 0 0 0 0 0 0 0 0 0 0 0 0 0 0 0 0 0 0 0 0 0 0 0 0 0 0 0 0 0 0 0 0 0 0 0 0 0 0 0 0 0 0 0 0 0 0 0 0 0 0 0 0 0 0 0 0 0 0 0 0 0 0 0 0 0 0 0 0 0 0 0 0 0 0 0 0 0 0 0 0 0 0 0 0 0 -0.214021255342226 -4.00783838464811 -3.72883951395837 0 0 0 0 0 0 0 0 0 0 0 0 0 0 0 0 0 0 0.0824667818817605 0 0 0 0
0 0 0 0 0 0 0 0 0 0 0 0 0 0 0 0 0 0 0 0 0 0 0 0 0 0 0 0 0 0 0 0 0 0 0 0 0 0 0 0 0 0 0 0 0 0 0 0 0 0 0 0 0 0 0 0 0 0 0 0 0 0 0 0 0 0 0 0 0 0 0 0 0 0 0 0 0 0 0 0 0 0 0 0 0 0 0 0 0 0 0 0 0 0 0 0 0 0 0 0 0 0 0 0 0 0 0 0 0 0 0 0 0 0 0 0 0 -0.18493473022513 -2.48988515346466 -1.50208816739264 0 0 0 0 0 0 0 0 0 0 0 0 0 0 0 0 0 0 0.115238897447928 0 0 0 0
0 0 0 0 0 0 0 0 0 0 0 0 0 0 0 0 0 0 0 0 0 0 0 0 0 0 0 0 0 0 0 0 0 0 0 0 0 0 0 0 0 0 0 0 0 0 0 0 0 0 0 0 0 0 0 0 0 0 0 0 0 0 0 0 0 0 0 0 0 0 0 0 0 0 0 0 0 0 0 0 0 0 0 0 0 0 0 0 0 0 0 0 0 0 0 0 0 0 0 0 0 0 0 0 0 0 0 0 0 0 0 0 0 0 0 0 0 -0.88674978179462 -0.787247025236867 -0.720285522569536 0 0 0 0 0 0 0 0 0 0 0 0 0 0 0 0 0 0 0.182808798097481 0 0 0 0
0 0 0 0 0 0 0 0 0 0 0 0 0 0 0 0 0 0 0 0 0 0 0 0 0 0 0 0 0 0 0 0 0 0 0 0 0 0 0 0 0 0 0 0 0 0 0 0 0 0 0 0 0 0 0 0 0 0 0 0 0 0 0 0 0 0 0 0 0 0 0 0 -2.74615021217629 -0.314659108451694 -1.75464951199873 -0.902590009157675 -0.810239868818772 -3.35687202233152 -0.550297000386827 -1.09398563950137 -0.324087619159325 -1.39297184822256 -1.28465812085664 -1.63115522407712 -0.827848726164731 -1.27666358038239 -2.47600966207101 -0.994491966684936 0 0 0 0 0 0 0 0 0 0 0 0 0 0 0 0 0 0 0 0 0 0 0 0 0 0 0 0 0 -0.493941586987194 -0.812926880601345 -1.79230145627761 0 0 0 0 0 0 0 0 0 0 0 0 0 0 0 0 0 0 0.412181835258211 0 0 0 0
0 0 0 0 0 0 0 0 0 0 0 0 0 0 0 0 0 0 0 0 0 0 0 0 0 0 0 0 0 0 0 0 0 0 0 0 0 0 0 0 0 0 0 0 0 0 0 0 0 0 0 0 0 0 0 0 0 0 0 0 0 0 0 0 0 0 0 0 0 0 0 0 -5.18064403467191 -0.245284317368987 -0.126863333515422 -1.05711095200882 -7.41164643062725 -1.03849874939208 -1.19213199388407 -0.777302952671591 -1.10683486896881 -0.870813167545544 -0.894297887844439 -1.11787521279497 -0.691166400092866 -1.89675781745351 -1.03248727379313 -0.68432700110385 0 0 0 0 0 0 0 0 0 0 0 0 0 0 0 0 0 0 0 0 0 0 0 0 0 0 0 0 0 -1.04987276924722 -0.268881870041432 -1.50673620417591 0 0 0 0 0 0 0 0 0 0 0 0 0 0 0 0 0 0 0.0703075447120998 0 0 0 0
0 0 0 0 0 0 0 0 0 0 0 0 0 0 0 0 0 0 0 0 0 0 0 0 0 0 0 0 0 0 0 0 0 0 0 0 0 0 0 0 0 0 0 0 0 0 0 0 0 0 0 0 0 0 0 0 0 0 0 0 0 0 0 0 0 0 0 0 0 0 0 0 -0.495771851729076 -0.978240728934584 -0.53804749574773 -0.213386379202412 -0.343030327158227 -0.596067493367137 -0.380030189769569 -0.820581738726571 -1.42664470776339 -1.16852034253361 -0.28922252940763 -0.43220329048328 -1.10003699599999 -1.30671068735297 -3.11307208518544 -1.30866058033782 0 0 0 0 0 0 0 0 0 0 0 0 0 0 0 0 0 0 0 0 0 0 0 0 0 0 0 0 0 -0.785221794766118 -2.47572741907159 -3.30076851814485 0 0 0 0 0 0 0 0 0 0 0 0 0 0 0 0 0 0 0.168199329167962 0 0 0 0
0.338003522542122 0.563716303651138 0.262014817657448 0 0 0 0 0 0 0 0 0 0 0 0 0 0 0 0 0 0 0 0 -0.359594104748938 -1.08510541416281 0 0 0 0 0 0 0 0 0 0 0 0 0 0 0 -0.155610044256958 -0.362510097080868 -2.43120725344336 -3.66412042965897 -1.15512116808259 0 0 0 0 0 0 -0.342836757771735 -0.924358859359289 0 0 0 0 0 0 -3.62730140180368 -0.912228184840871 -5.44144486925541 -0.573790519075906 -0.130890626100439 0 0 0 0 0 0 0 0 0 0 0 0 0 0 0 0 0 0 0 0 0 0 0 0 0 0 0 0 0 0 0 0 0 0 0 0 0 0 0 0 0 0 0 0 0 0 0 0 0 0 0 0 0 -0.925447751087022 -2.79940218165214 -2.02652754641112 0 0 0 0 0 0 0 0 0 0 0 0 0 0 0 0 0 0 0 0 0.326482630389527 0 0.640575238706692
0.158859997173853 0.0474978340880337 0.178623658657441 0 0 0 0 0 0 0 0 0 0 0 0 0 0 0 0 0 0 0 0 -0.716932262983917 -2.47476285562809 0 0 0 0 0 0 0 0 0 0 0 0 0 0 0 -3.1563282013342 -1.04853852844267 -5.10634734589775 -4.65301285470259 -0.0931703582713206 0 0 0 0 0 0 -2.57101075374298 -0.733033460956401 0 0 0 0 0 0 -1.81525230763802 -4.67666863477923 -0.735918465549328 -0.418703470058976 -0.860515814685535 0 0 0 0 0 0 0 0 0 0 0 0 0 0 0 0 0 0 0 0 0 0 0 0 0 0 0 0 0 0 0 0 0 0 0 0 0 0 0 0 0 0 0 0 0 0 0 0 0 0 0 0 0 -0.765449509361278 -0.11883965204717 -0.98293404371424 0 0 0 0 0 0 0 0 0 0 0 0 0 0 0 0 0 0 0 0 0.356786980465964 0 0.145811969637973
0.30049704324464 0.172355771538818 0.320226703297877 0 0 0 0 0 0 0 0 0 0 0 0 0 0 0 0 0 0 0 0 -1.88772877427904 -2.84129484864656 0 0 0 0 0 0 0 0 0 0 0 0 0 0 0 -1.14889275536382 -0.49080499013684 -0.440484862183475 -0.316190752696793 -1.40831241610471 0 0 0 0 0 0 -0.899296447104049 -1.73534508989322 0 0 0 0 0 0 -0.0482551372861382 -1.7762714556744 -3.31392029497636 -3.41917305102585 -0.578686315192477 0 0 0 0 0 0 0 0 0 0 0 0 0 0 0 0 0 0 0 0 0 0 0 0 0 0 0 0 0 0 0 0 0 0 0 0 0 0 0 0 0 0 0 0 0 0 0 0 0 0 0 0 0 -1.66015229921873 -0.684779204555603 -0.669205959211358 0 0 0 0 0 0 0 0 0 0 0 0 0 0 0 0 0 0 0 0 0.0863905985106058 0 0.819910689939827
1.98070083069924 0.139264430443108 0.619774870498609 0 0 0 0 0 0 0 0 0 0 0 0 0 0 0 0 0 0 0 0 -0.116973352768422 -0.183235310613389 0 0 0 0 0 0 0 0 0 0 0 0 0 0 0 -2.16854581453649 -0.678078964655429 -2.34802351276962 -0.550576410497578 -0.143619559747399 0 0 0 0 0 0 -0.762451666941448 -0.428553555203736 0 0 0 0 0 0 -0.917783305042403 -1.12868420190604 -1.70114845820063 -0.597643047219462 -0.522350346104893 0 0 0 0 0 0 0 0 0 0 0 0 0 0 0 0 0 0 0 0 0 0 0 0 0 0 0 0 0 0 0 0 0 0 0 0 0 0 0 0 0 0 0 0 0 0 0 0 0 0 0 0 0 -1.2784202093 -2.80258286764897 -0.551709196500193 0 0 0 0 0 0 0 0 0 0 0 0 0 0 0 0 0 0 0 0 0.334622938007514 0 0.824315387518352
0.106664618044313 0.438257913649861 0.062183835006798 0 0 0 0 0 0 0 0 0 0 0 0 0 0 0 0 0 0 0 0 -1.54408440026412 -0.19749129722376 0 0 0 0 0 0 0 0 0 0 0 0 0 0 0 -2.02243162900763 -1.10020294344014 -0.732573467245947 -3.18035769738237 -2.10049237985037 0 0 0 0 0 0 -2.18118955681312 -0.824758437844344 0 0 0 0 0 0 -0.645968021007667 -0.103868011272152 -2.03727107233308 -1.63721653935891 -0.525483271009644 0 0 0 0 0 0 0 0 0 0 0 0 0 0 0 0 0 0 0 0 0 0 0 0 0 0 0 0 0 0 0 0 0 0 0 0 0 0 0 0 0 0 0 0 0 0 0 0 0 0 0 0 0 -0.383937887223802 -0.457558648406308 -0.856816008599384 0 0 0 0 0 0 0 0 0 0 0 0 0 0 0 0 0 0 0 0 0.493744531197478 0 0.322696706038122
0.171060399470624 0.120910153999865 0.307230922454724 0 0 0 0 0 0 0 0 0 0 0 0 0 0 0 0 0 0 0 0 -0.204946883070434 -4.49454357230395 0 0 0 0 0 0 0 0 0 0 0 0 0 0 0 -0.525379795846778 -0.503951202941262 -0.614915600022352 -0.841438618757445 -0.465804112373741 0 0 0 0 0 0 -0.514111392797551 -0.513656576595754 0 0 0 0 0 0 -0.425377887148881 -0.541584822783304 -0.22755295640841 -1.13842758005701 -7.03532770838704 0 0 0 0 0 0 0 0 0 0 0 0 0 0 0 0 0 0 0 0 0 0 0 0 0 0 0 0 0 0 0 0 0 0 0 0 0 0 0 0 0 0 0 0 0 0 0 0 0 0 0 0 0 -1.86095532714807 -1.1257392370327 -0.711980677817034 0 0 0 0 0 0 0 0 0 0 0 0 0 0 0 0 0 0 0 0 0.0249512598973421 0 0.232603034419614
0.0269641007088925 0.220091683146784 0.183579871995585 0 0 0 0 0 0 0 0 0 0 0 0 0 0 0 0 0 0 0 0 -1.67765455640141 -2.06663759069799 0 0 0 0 0 0 0 0 0 0 0 0 0 0 0 -4.15751447881534 -1.18207395761105 -2.28236337446117 -0.292574480721272 -0.94780757520463 0 0 0 0 0 0 -0.860144199083555 -2.59213686101784 0 0 0 0 0 0 -0.327539146086142 -0.319739671253109 -3.24918153716666 -0.406083450209085 -2.36415993521257 0 0 0 0 0 0 0 0 0 0 0 0 0 0 0 0 0 0 0 0 0 0 0 0 0 0 0 0 0 0 0 0 0 0 0 0 0 0 0 0 0 0 0 0 0 0 0 0 0 0 0 0 0 -0.590347527734568 -0.132606303334493 -1.70932805827214 0 0 0 0 0 0 0 0 0 0 0 0 0 0 0 0 0 0 0 0 0.081345103336221 0 0.298148810034094
0.170957926956489 0.0991661690345628 0.588560736047004 0 0 0 0 0 0 0 0 0 0 0 0 0 0 0 0 0 0 0 0 -2.74598203816425 -1.73563441424012 0 0 0 0 0 0 0 0 0 0 0 0 0 0 0 -0.181412289184392 -0.301663446765014 -0.879767998765932 -2.67895629342844 -0.522170658054359 0 0 0 0 0 0 -0.679608908399799 -1.24025488930827 0 0 0 0 0 0 -0.503683184396152 -0.261846568275012 -3.92849557823937 -0.172273281897117 -0.536564307161713 0 0 0 0 0 0 0 0 0 0 0 0 0 0 0 0 0 0 0 0 0 0 0 0 0 0 0 0 0 0 0 0 0 0 0 0 0 0 0 0 0 0 0 0 0 0 0 0 0 0 0 0 0 -0.424696151224546 -0.655889768601337 -4.57140376092066 0 0 0 0 0 0 0 0 0 0 0 0 0 0 0 0 0 0 0 0 0.253469868213039 0 0.299800013628607
0.315966088960957 0.648252308855487 0.273161964089985 0 0 0 0 0 0 0 0 0 0 0 0 0 0 0 0 0 0 0 0 -1.9519526662611 -0.846599922400495 0 0 0 0 0 0 0 0 0 0 0 0 0 0 0 -0.307749873693563 -1.25829177496263 -0.881443452215001 -2.89683555872462 -2.64616835258296 0 0 0 0 0 0 -5.29177405473388 -0.113912550811321 0 0 0 0 0 0 -1.94618215022218 -0.529203312333148 -0.304674994929655 -0.999376698925978 -0.157891636190504 0 0 0 0 0 0 0 0 0 0 0 0 0 0 0 0 0 0 0 0 0 0 0 0 0 0 0 0 0 0 0 0 0 0 0 0 0 0 0 0 0 0 0 0 0 0 0 0 0 0 0 0 0 -1.35790631583114 -2.38149327460769 -2.49359918844399 0 0 0 0 0 0 0 0 0 0 0 0 0 0 0 0 0 0 0 0 0.09959865467595 0 0.227813694261043
0.101860144443508 0.130383132050784 0.247120023147927 0 0 0 0 0 0 0 0 0 0 0 0 0 0 0 0 0 0 0 0 -0.667115173489986 -0.733171083850531 0 0 0 0 0 0 0 0 0 0 0 0 0 0 0 -0.96846668306215 -0.766048247720638 -0.460518362068801 -4.0349133182925 -2.37059163282353 0 0 0 0 0 0 -0.320602586635604 -0.17014600810517 0 0 0 0 0 0 -0.484110913878363 -2.88949518463429 -0.36917445871493 -0.88749623518201 -1.89581946517669 0 0 0 0 0 0 0 0 0 0 0 0 0 0 0 0 0 0 0 0 0 0 0 0 0 0 0 0 0 0 0 0 0 0 0 0 0 0 0 0 0 0 0 0 0 0 0 0 0 0 0 0 0 -1.14725608121888 -0.541818462382366 -0.892688851968254 0 0 0 0 0 0 0 0 0 0 0 0 0 0 0 0 0 0 0 0 0.103124226595328 0 0.37724744154382
0.676511663939326 0.473171942444845 0.196794321296283 0 0 0.514820822403411 0.0655558253781025 0.0506592517503955 0.143713044409759 0.0708489989361111 0.887070514547085 0.542876544138975 0.369317322264386 0.302616638921619 0.681491809203592 0.648068484358421 0.0613236988705216 0.102913807744328 1.0987246969949 0.0488925478141901 0.218936891465076 0 0 -1.83994707665324 -0.288244302881454 0 0 0 0 0 0.0528208882434861 1.34653402004789 0.312147642646631 0.967857304485261 0.0713913854089554 0.552583684927916 0.102755419826991 0.0749238599758789 0 0 -2.47804557477948 -6.46092439799226 -1.01300014092914 0 0 0 0 0 0 0 0 -0.707820029473805 -0.404536314158368 0 0 0 0 0 0 -1.29768039373512 -0.653224726902305 -5.75072359600119 -0.516130883616921 -0.476660080313958 0.575927940062958 0.0649552021175813 0.0596883786120982 0.0663011422515817 0.0699445773768447 0.725208145696994 0.0582974030988244 0.251369280534871 0 0 0 0 0 0 0 0 0 0 0 0 0 0 0 0 0 0 0 0 0 0 0 0 0 0 0 0 0 0 0 0 0 0 0 0 0 0 0 0 0 0 0 0 0 -0.493985705927662 -1.20976128196477 -0.912821721056246 0 0 0 0 0 0 0 0 0 0 0 0 0 0 0 0 0 0 0 0 0 0 0
0.0512932496507861 0.570640435102405 0.238020915641505 0 0 0.0382327785970494 0.109878000147145 0.161297645953778 0.0801581934137383 0.147885525031988 0.599814164358105 0.428739979319725 0.653003664141958 0.239275116185481 0.119113133396971 0.0831783985578699 0.102342218741511 0.0610270379946129 0.136568797718463 0.0930974287768068 0.234827399952084 0 0 -0.500234766450952 -0.339084925315628 0 0 0 0 0 0.200338638024572 1.48616412832125 0.0893841690378787 0.0945564956411208 0.0354637190128393 0.252450978260926 0.714486549956659 0.182600944472019 0 0 -1.91392809192884 -0.402941778987444 -1.453570060631 0 0 0 0 0 0 0 0 -0.781365189857352 -0.675095431530694 0 0 0 0 0 0 -0.529276563530814 -2.30371637448346 -0.233114312397791 -2.0020241393261 -1.68471757568927 0.119819627231118 0.252746511027251 0.207856449892725 0.609443213796543 0.40167284182955 0.268939028216458 0.29443996740479 0.409734722923467 0 0 0 0 0 0 0 0 0 0 0 0 0 0 0 0 0 0 0 0 0 0 0 0 0 0 0 0 0 0 0 0 0 0 0 0 0 0 0 0 0 0 0 0 0 -0.581240694440828 -0.642830769023094 -2.52053770633825 0 0 0 0 0 0 0 0 0 0 0 0 0 0 0 0 0 0 0 0 0 0 0
0.0318915669346929 0.0605002681104277 0.0528531730060234 0 0 0.457751890200797 0.0702210752166453 0.238949843423214 0.135329543449401 0.972764140258627 0.117555335448878 0.158196181816392 0.156893390374785 1.96576706366286 0.326444244262179 0.149234843513918 0.772028298711105 0.344091870755018 0.0427231972432539 0.281227670813735 0.147006239381718 0 0 -1.18820025096262 -4.48530831627552 0 0 0 0 0 0.157795663127638 0.217043153297674 0.140259923354614 0.162336308857583 0.0546678378521356 0.52584503534802 0.213833594750797 1.29771744417044 0 0 -2.48987387207983 -0.887762430644348 -0.61040108706345 0 0 0 0 0 0 0 0 -1.37064792367553 -1.16800038400158 0 0 0 0 0 0 -1.60550920279126 -1.43292302939684 -0.273571202222106 -0.897827057731588 -0.636515915363728 0.202787785613568 0.0840542325467152 0.372954713519362 0.50872981119723 0.4824449554954 0.168543584065169 0.0918965746056587 0.155500218881532 0 0 0 0 0 0 0 0 0 0 0 0 0 0 0 0 0 0 0 0 0 0 0 0 0 0 0 0 0 0 0 0 0 0 0 0 0 0 0 0 0 0 0 0 0 -4.71235039099584 -4.79043803302664 -1.59936974087001 0 0 0 0 0 0 0 0 0 0 0 0 0 0 0 0 0 0 0 0 0 0 0
0.0617451723500092 0.350128407621488 0.111294836872116 0 0 0.300697307754661 0.0535576495524082 0.256659700887658 0.409905257398103 1.77210014343157 0.109983195211005 0.748305243728645 0.0906825575808727 0.152582622953966 0.0334655887329585 0.0989635689923807 0.264050442940188 0.0745633132303108 1.63302540660967 0.100759380102434 0.195807617024379 0 0 -2.42250445015946 -1.60035174079557 0 0 0 0 0 0.584673887487329 0.903575941867187 0.321264286948392 0.103944704568702 0.359076746123187 0.2544649094637 0.116763921093241 0.0797934870572889 0 0 -1.07529246783262 -0.128448326461905 -5.92344783592092 0 0 0 0 0 0 0 0 -1.60710077934781 -1.8060002003882 0 0 0 0 0 0 -0.831066954481394 -0.978776184452019 -1.41582334621939 -0.647702670498796 -0.376248604747478 0.186684787682613 0.477774637922725 0.124573432542991 0.287902849084981 0.206613561501902 0.285728736312048 0.263844119445525 0.361675385422949 0 0 0 0 0 0 0 0 0 0 0 0 0 0 0 0 0 0 0 0 0 0 0 0 0 0 0 0 0 0 0 0 0 0 0 0 0 0 0 0 0 0 0 0 0 -1.96466605625163 -5.14741229703196 -2.49147928871207 0 0 0 0 0 0 0 0 0 0 0 0 0 0 0 0 0 0 0 0 0 0 0
0.254825268810004 0.150159636321012 0.0486387612702321 0 0 0.221086004872496 0.477990204505464 0.380040207932431 0.434135544516581 0.0310708481705477 0.790444066301382 0.110190633909669 0.0198979126660398 0.0791134216194692 0.0790494742279578 0.220261208534664 0.0460917043406357 0.0817256934905641 0.224427418886981 0.165865075062012 0.0174180445935052 0 0 -4.15937242882278 -0.619027887819345 0 0 0 0 0 0.0946168073867481 0.491642571414323 0.242978020999214 0.136104839475704 0.0470647823062544 0.0321301984634209 0.0975697988201457 0.410621419480493 0 0 -0.413724291718918 -0.249967972393004 -1.83739841372569 0 0 0 0 0 0 0 0 -0.302708976823248 -0.456412414258821 0 0 0 0 0 0 -0.837323304290734 -1.69697447035306 -0.454511377887402 -1.11316657609523 -0.428432831826038 0.0391152081108667 0.199664524018421 0.018867049243592 0.316241895698303 0.0414832413246261 0.458255873673764 0.826907242590375 0.162656999947205 0 0 0 0 0 0 0 0 0 0 0 0 0 0 0 0 0 0 0 0 0 0 0 0 0 0 0 0 0 0 0 0 0 0 0 0 0 0 0 0 0 0 0 0 0 -0.44712314318379 -0.385481710740603 -2.6948854918847 0 0 0 0 0 0 0 0 0 0 0 0 0 0 0 0 0 0 0 0 0 0 0
0 0 0 0 0 0 0 0 0 0 0 0 0 0 0 0 0 0 0 0 0 0 0 0 0 0 0 0 0 0 0 0 0 0 0 0 0 0 0 0 -5.45462947121022 -0.545461725506113 -3.03291347297216 0 0 0 0 0 0 0 0 -0.703269252823165 -0.159711609765126 0 0 0 0 0 0 -0.413495298104744 -6.5102772114289 0 0 -0.879407027756299 0 0 0 0 0 0 0 0 0 0 0 0 0 0 0 0 0 0 0 0 0 0 0 0 0 0 0 0 0 0 0 0 0 0 0 0 0 0 0 0 0 0 0 0 0 0 0 0 1.64083569529114 0.115796977015466 0.459521384491732 0.0787886769072454 1.16214275755136 -0.545095258736076 -0.240188861850806 -4.62209544852447 0 0 0 0 0 0 0 0 0 0 0 0 0 0 0 0 0 0 0 0 0 0 0.18268605278044
0 0 0 0 0 0 0 0 0 0 0 0 0 0 0 0 0 0 0 0 0 0 0 0 0 0 0 0 0 0 0 0 0 0 0 0 0 0 0 0 -11.9850277768762 -0.790324673821241 -3.67521554382913 0 0 0 0 0 0 0 0 -0.812574792072173 -0.393512525062283 0 0 0 0 0 0 -1.42967861191072 -0.634216709759818 0 0 -1.59032163319519 0 0 0 0 0 0 0 0 0 0 0 0 0 0 0 0 0 0 0 0 0 0 0 0 0 0 0 0 0 0 0 0 0 0 0 0 0 0 0 0 0 0 0 0 0 0 0 0 0.318331766880744 0.216628439203475 0.475488916229135 0.0624872146313015 0.112292601276096 -1.62372033651768 -0.970029227809231 -1.59939333432983 0 0 0 0 0 0 0 0 0 0 0 0 0 0 0 0 0 0 0 0 0 0 0.617110562905133
0 0 0 0.150084560612491 0.0785790176209139 0 0 0 0 0 0 0 0 0 0 0 0 0 0 0 0 0 0 0 0 0 0 0 0 0 0 0 0 0 0 0 0 0 0 0 0 0 0 0 0 0 0 0 -1.08935710408149 -0.844165580628733 -2.29172132821434 0 0 -2.894781002407 -0.175861556831039 -1.38897923750306 -1.02162337095024 -0.783592387952183 -1.56210951482159 -0.495244447534814 -0.474679604792204 -3.42632299847305 -0.391724573854992 0 0 0 0 0 0 0 0 0 0 0 0 0 0 0 0 0 0 0 0 0 0 0 0 0 0 0 0 0 0 0 0 0 0 0 0 0 0 0 0 0 0 0 0 0 0 0 -8.07693764907862 -1.72082186272033 0 0 0 0 0 0 0 0 0 0 0 0 0 0 0 0 0 0 0 0 0 0 0 0 0 0 0 0 0 0.545019149314306 0
0 0 0 0.0328342522788836 0.104079128046966 0 0 0 0 0 0 0 0 0 0 0 0 0 0 0 0 0 0 0 0 0 0 0 0 0 0 0 0 0 0 0 0 0 0 0 0 0 0 0 0 0 0 0 -2.28435712832623 -0.233402592218465 -0.913259220857007 0 0 -3.73343085816397 -0.551281519087354 -1.80286787697125 -3.85756003861708 -0.952020913712234 -1.72222408968951 -1.55607071334129 -0.320442841754506 -0.770377808259818 -1.11081038224191 0 0 0 0 0 0 0 0 0 0 0 0 0 0 0 0 0 0 0 0 0 0 0 0 0 0 0 0 0 0 0 0 0 0 0 0 0 0 0 0 0 0 0 0 0 0 0 -0.52632958725212 -1.03257233307312 0 0 0 0 0 0 0 0 0 0 0 0 0 0 0 0 0 0 0 0 0 0 0 0 0 0 0 0 0 0.0783906175965207 0
0 0 0 1.23934937508583 0.0511651198181634 0 0 0 0 0 0 0 0 0 0 0 0 0 0 0 0 0 0 0 0 0 0 0 0 0 0 0 0 0 0 0 0 0 0 0 0 0 0 0 0 0 0 0 -2.33920963411028 -3.82617561292238 -2.03531438080096 0 0 -4.30403073158782 -1.41918603388787 -0.390271895865489 -3.42498225981938 -1.2384602498531 -3.38231193235598 -5.85685632836873 -3.04158247279888 -0.170835570119886 -1.19076833820481 0 0 0 0 0 0 0 0 0 0 0 0 0 0 0 0 0 0 0 0 0 0 0 0 0 0 0 0 0 0 0 0 0 0 0 0 0 0 0 0 0 0 0 0 0 0 0 -2.17087743631871 -2.24445854450845 0 0 0 0 0 0 0 0 0 0 0 0 0 0 0 0 0 0 0 0 0 0 0 0 0 0 0 0 0 0.285238076732124 0
0 0 0 0.0815032047994918 0.424186222517948 0 0 0 0 0 0 0 0 0 0 0 0 0 0 0 0 0 0 0 0 0 0 0 0 0 0 0 0 0 0 0 0 0 0 0 0 0 0 0 0 0 0 0 -0.75648696280617 -0.190755970478562 -1.82599923614755 0 0 -0.677862760549199 -7.92442652429566 -4.41981283472823 -1.26202151935637 -0.611878523805983 -1.90949261101896 -0.783118430776903 -1.22159850141082 -0.630732278936751 -0.147331021213109 0 0 0 0 0 0 0 0 0 0 0 0 0 0 0 0 0 0 0 0 0 0 0 0 0 0 0 0 0 0 0 0 0 0 0 0 0 0 0 0 0 0 0 0 0 0 0 -0.368474230280098 -0.328209134425349 0 0 0 0 0 0 0 0 0 0 0 0 0 0 0 0 0 0 0 0 0 0 0 0 0 0 0 0 0 0.171180236678749 0
0 0 0 0.0346196442727226 0.273162206789331 0 0 0 0 0 0 0 0 0 0 0 0 0 0 0 0 0 0 0 0 0 0 0 0 0 0 0 0 0 0 0 0 0 0 0 0 0 0 0 0 0 0 0 -1.61213486503467 -0.592635310915955 -3.85941302379382 0 0 -0.75630110709127 -1.7354307459255 -0.776401421182986 -0.284487334859985 -1.35316267325059 -2.07645212187005 -1.11773782434225 -0.309592627550278 -0.120536260513991 -1.64738754220149 0 0 0 0 0 0 0 0 0 0 0 0 0 0 0 0 0 0 0 0 0 0 0 0 0 0 0 0 0 0 0 0 0 0 0 0 0 0 0 0 0 0 0 0 0 0 0 -5.41221852473833 -0.638350568570861 0 0 0 0 0 0 0 0 0 0 0 0 0 0 0 0 0 0 0 0 0 0 0 0 0 0 0 0 0 0.162511661261351 0
0 0 0 0 0 0 0 0 0 0 0 0 0 0 0 0 0 0 0 0 0 0.0758941307939644 0 0.107194292442169 0.129376058025339 0 0 0 0 0 0 0 0 0 0 0 0 0 0 0 0 0 0 0 0 0 0 0 0 0 0 0 0 0 0 0 0 0 0 0 0 0 0 0 0.0413930557033337 0.036914928298219 0.204631959338545 0.47644606983931 0.369228792186146 0.111816724882529 0.0845485036211479 0.20410667096437 0 0 0 0 0 0 0 0 0 0 0 0 0 0 0 0 0.141545045440351 0.0412519771788645 0.0374077004056036 0.169476152883158 0.0937589630986479 0.212912112839454 0.160518691791269 0.194086952534796 0.158867742040356 0.320677651256803 0.236855615623055 0.068479031377172 0.370705782954218 0.111802085775562 0.0838154136121495 0.266141783826223 0.219476178238377 0.107435787265183 0.113575966541923 0.906110468815286 0.36943103483694 0.0912675314510814 0.0986702228060858 0.306979240093826 0 0 0 0 0 0 0 0 0 0 0 0 0 0 0 0 0 0 0 0 0 0 0 0 0 0 0 0 0 0 0
0 0 0 0 0 0 0 0 0 0 0 0 0 0 0 0 0 0 0 0 0 0.19075916118957 0 0.055549611591087 0.644323070238957 0 0 0 0 0 0 0 0 0 0 0 0 0 0 0 0 0 0 0 0 0 0 0 0 0 0 0 0 0 0 0 0 0 0 0 0 0 0 0 0.278120306273083 0.180438138748981 0.0714918867815516 0.348907989972361 0.200903886396168 0.0806552325922045 0.217620030360683 0.615935082401772 0 0 0 0 0 0 0 0 0 0 0 0 0 0 0 0 0.991712925533247 0.818927713720288 0.523339409943295 0.158430319694232 0.158784903166023 0.052720669324528 0.509652683927019 0.568762753449303 0.0254609717684959 0.13982784976259 0.537186427930037 0.0997793777292339 0.232733010987855 0.0262155165219953 0.138985953914857 0.47798564168831 0.107931357574708 0.24032825064449 0.128593309150815 1.01424649814213 1.06663111637057 0.0774868412196005 0.0410761455575274 0.18794762438729 0 0 0 0 0 0 0 0 0 0 0 0 0 0 0 0 0 0 0 0 0 0 0 0 0 0 0 0 0 0 0
0 0 0 0 0 0 0 0 0 0 0 0 0 0 0 0 0 0 0 0 0 1.31110513928951 0 0.417400400118643 0.561103670183731 0 0 0 0 0 0 0 0 0 0 0 0 0 0 0 0 0 0 0 0 0 0 0 0 0 0 0 0 0 0 0 0 0 0 0 0 0 0 0 0.186734282241385 0.344890881757299 0.240943088763273 0.119442747435142 0.156787318643726 0.186634731343723 0.0683462408020487 0.143684144264673 0 0 0 0 0 0 0 0 0 0 0 0 0 0 0 0 0.0801767472882126 0.756971493779533 0.301667726355445 0.153164684876456 0.339080012380863 0.30649012942067 0.656944969017422 0.425086204100573 0.183456272971154 0.136287264370978 0.110389647127826 0.177832099036967 0.139164231809802 0.370688601791139 0.983258152763476 0.469220449250635 0.180086200173927 0.177802014968952 0.494194793430411 0.328573331335291 0.528107959253654 0.576394554768179 0.968853300436943 0.334169036129527 0 0 0 0 0 0 0 0 0 0 0 0 0 0 0 0 0 0 0 0 0 0 0 0 0 0 0 0 0 0 0
0 0 0 0 0 0 0 0 0 0 0 0 0 0 0 0 0 0 0 0 0 0 0 0 0 0 0 0 0 0 0 0 0 0 0 0 0 0 0 0 0 0 0 0 0 0 0.0950213571268012 0.366929816788248 0 0 0 0 0 0.0475610457874956 0 0 0 0 0 0 0.16015345144156 0 0 0 0 0 0 0 0 0 0 0 0 0 0 0 0 0 0 0 0 0 0 0 0 0 0 0 0 0 0 0 0 0 0 0 0 0 0 0 0 0 0 0 0 0 0 0 0 0 0 0 0 0 0 0 0 0 0 0 0 0 0 0 0 0 0 0 0 0 0 0 0 0 0 0 0 0 0 0 0 0 0
0 0 0 0 0 0 0 0 0 0 0 0 0 0 0 0 0 0 0 0 0 0 0 0 0 0 0 0 0 0 0 0 0 0 0 0 0 0 0 0 0 0 0 0 0 0 0.315048972289468 0.295861311377447 0 0 0 0 0 0.421322424326773 0 0 0 0 0 0 0.235738420831947 0 0 0 0 0 0 0 0 0 0 0 0 0 0 0 0 0 0 0 0 0 0 0 0 0 0 0 0 0 0 0 0 0 0 0 0 0 0 0 0 0 0 0 0 0 0 0 0 0 0 0 0 0 0 0 0 0 0 0 0 0 0 0 0 0 0 0 0 0 0 0 0 0 0 0 0 0 0 0 0 0 0
0 0 0 0 0 0 0 0 0 0 0 0 0 0 0 0 0 0 0 0 0 0 0 0 0 0 0 0 0 0 0 0 0 0 0 0 0 0 0 0 0 0 0 0 0 0 0.450749614040557 0.0610317268395106 0 0 0 0 0 0.318342481368899 0 0 0 0 0 0 0.0845915821581571 0 0 0 0 0 0 0 0 0 0 0 0 0 0 0 0 0 0 0 0 0 0 0 0 0 0 0 0 0 0 0 0 0 0 0 0 0 0 0 0 0 0 0 0 0 0 0 0 0 0 0 0 0 0 0 0 0 0 0 0 0 0 0 0 0 0 0 0 0 0 0 0 0 0 0 0 0 0 0 0 0 0
0 0 0 0 0 0 0 0 0 0 0 0 0 0 0 0 0 0 0 0 0 0 0 0 0 0 0 0 0 0 0 0 0 0 0 0 0 0 0 0 0 0 0 0 0 0 0.11694439298247 0.296118258799507 0 0 0 0 0 0.492885395844959 0 0 0 0 0 0 0.706257315940822 0 0 0 0 0 0 0 0 0 0 0 0 0 0 0 0 0 0 0 0 0 0 0 0 0 0 0 0 0 0 0 0 0 0 0 0 0 0 0 0 0 0 0 0 0 0 0 0 0 0 0 0 0 0 0 0 0 0 0 0 0 0 0 0 0 0 0 0 0 0 0 0 0 0 0 0 0 0 0 0 0 0
0 0 0 0 0 0 0 0 0 0 0 0 0 0 0 0 0 0 0 0 0 0 0 0 0 0 0 0 0 0 0 0 0 0 0 0 0 0 0 0 0 0 0 0 0 0 0.170874257648127 0.458659546087818 0 0 0 0 0 0.27098468097982 0 0 0 0 0 0 0.476421132915918 0 0 0 0 0 0 0 0 0 0 0 0 0 0 0 0 0 0 0 0 0 0 0 0 0 0 0 0 0 0 0 0 0 0 0 0 0 0 0 0 0 0 0 0 0 0 0 0 0 0 0 0 0 0 0 0 0 0 0 0 0 0 0 0 0 0 0 0 0 0 0 0 0 0 0 0 0 0 0 0 0 0
0 0 0 0 0 0 0 0 0 0 0 0 0 0 0 0 0 0 0 0 0 0 0 0 0 0 0 0 0 0 0 0 0 0 0 0 0 0 0 0 0 0 0 0 0 0 0.203497305218362 0.0459765050090287 0 0 0 0 0 0.0726342697685667 0 0 0 0 0 0 0.219485773619088 0 0 0 0 0 0 0 0 0 0 0 0 0 0 0 0 0 0 0 0 0 0 0 0 0 0 0 0 0 0 0 0 0 0 0 0 0 0 0 0 0 0 0 0 0 0 0 0 0 0 0 0 0 0 0 0 0 0 0 0 0 0 0 0 0 0 0 0 0 0 0 0 0 0 0 0 0 0 0 0 0 0
0 0 0 0 0 0 0 0 0 0 0 0 0 0 0 0 0 0 0 0 0 0 0 0 0 0 0 0 0 0 0 0 0 0 0 0 0 0 0 0 0 0 0 0 0 0 0.153951150419277 0.490075729187602 0 0 0 0 0 0.900002694973417 0 0 0 0 0 0 0.204371806105984 0 0 0 0 0 0 0 0 0 0 0 0 0 0 0 0 0 0 0 0 0 0 0 0 0 0 0 0 0 0 0 0 0 0 0 0 0 0 0 0 0 0 0 0 0 0 0 0 0 0 0 0 0 0 0 0 0 0 0 0 0 0 0 0 0 0 0 0 0 0 0 0 0 0 0 0 0 0 0 0 0 0
0 0 0 0 0 0 0 0 0 0 0 0 0 0 0 0 0 0 0 0 0 0.207023290240664 0 0 0 0 0 0 0 0 0 0 0 0 0 0 0 0 0 0 0.208665483362576 1.04081828671808 0.0973373186033938 0 0 0 0 0 0.280263423734122 0.351639902077864 0.189310793753779 0.754201062437667 1.27808655289253 0.0401909580212094 0.0873821594842703 1.38736155472 1.73091956539528 1.0542474853716 0.107354877663031 0.503943798968944 0.284101406126363 0 0 0 0 0 0 0 0 0 0 0 0 0 0 0 0 0 0 0 0 0 0 0 0 0 0 0 0 0 0 0 0 0 0 0 0 0 0 0 0 0 0 0 0 0 0 0 0 0 0 0 0 0 0 0 0 0 0 0 0 0 0 0 0 0 0 0 0 0 0 0 0 0 0 0 0 0 0 0 0 0 0
0 0 0 0 0 0 0 0 0 0 0 0 0 0 0 0 0 0 0 0 0 0.213647939975667 0 0 0 0 0 0 0 0 0 0 0 0 0 0 0 0 0 0 0.638331422837782 0.128590328117664 0.73159070934918 0 0 0 0 0 0.101621553856195 0.271895230425587 0.480749486462169 0.0699275240378282 0.282165441962088 0.0359408026744646 0.581484608951388 0.240681999064431 0.416500832729635 0.176919201735893 0.0804233767870112 0.39756458799355 0.024030106333973 0 0 0 0 0 0 0 0 0 0 0 0 0 0 0 0 0 0 0 0 0 0 0 0 0 0 0 0 0 0 0 0 0 0 0 0 0 0 0 0 0 0 0 0 0 0 0 0 0 0 0 0 0 0 0 0 0 0 0 0 0 0 0 0 0 0 0 0 0 0 0 0 0 0 0 0 0 0 0 0 0 0
0 0 0 0 0 0 0 0 0 0 0 0 0 0 0 0 0 0 0 0 0 0.0513692243361768 0 0 0 0 0 0 0 0 0 0 0 0 0 0 0 0 0 0 0.0447923524216572 0.387928626914445 0.148856320954487 0 0 0 0 0 0.127630659360226 0.0689279804309655 0.0391011273935349 0.0426162059773158 0.164740815257631 0.43085023382183 0.109365440349856 0.164570209271951 0.0313202116451606 0.28968666042 0.0211932911739163 0.0621968441284097 0.572943685418995 0 0 0 0 0 0 0 0 0 0 0 0 0 0 0 0 0 0 0 0 0 0 0 0 0 0 0 0 0 0 0 0 0 0 0 0 0 0 0 0 0 0 0 0 0 0 0 0 0 0 0 0 0 0 0 0 0 0 0 0 0 0 0 0 0 0 0 0 0 0 0 0 0 0 0 0 0 0 0 0 0 0
0 0 0 0 0 0 0 0 0 0 0 0 0 0 0 0 0 0 0 0 0 0.117131119070569 0 0.259980107078194 0.0861022249173765 0.276032081163979 0 0 0 0 0 0 0 0 0 0 0 0 0 0 0.550056831134118 1.03234645186591 0.489236284583573 0 0 0 0 0 0 0 0 0.171303766114336 0.405120402014663 0.111585699284315 0 0 0 0 0 0 0 0 0 0 0 0 0 0 0 0 0 0 0 0 0 0 0 0 0 0 0 0 0 0 0 0 0 0 0 0 0 0 0 0 0 0 0 0 0 0 0 0 0 0 0 0 0 0 0 0 0 0 0 0 0 0 0 0 0 0 0 0 0 0 0 0 0 0 0 0 0 0 0 0 0 0 0 0 0 0 0 0 0
0 0 0 0 0 0 0 0 0 0 0 0 0 0 0 0 0 0 0 0 0 0.0910303681819296 0 0.176879588706459 0.159027519739586 0.0494416730172383 0 0 0 0 0 0 0 0 0 0 0 0 0 0 0.364149440073819 0.127019818738387 0.751572448874324 0 0 0 0 0 0 0 0 0.108358816948617 0.131388731486862 0.345952145699119 0 0 0 0 0 0 0 0 0 0 0 0 0 0 0 0 0 0 0 0 0 0 0 0 0 0 0 0 0 0 0 0 0 0 0 0 0 0 0 0 0 0 0 0 0 0 0 0 0 0 0 0 0 0 0 0 0 0 0 0 0 0 0 0 0 0 0 0 0 0 0 0 0 0 0 0 0 0 0 0 0 0 0 0 0 0 0 0 0
0 0 0 0 0 0 0 0 0 0 0 0 0 0 0 0 0 0 0 0 0 0.071398759001284 0 0.390386611029305 0.354901363644864 0.299009869732788 0 0 0 0 0 0 0 0 0 0 0 0 0 0 0.179928356984459 0.288331590414425 0.277773952054081 0 0 0 0 0 0 0 0 0.0479613693110524 0.164506551686092 0.0555527947410258 0 0 0 0 0 0 0 0 0 0 0 0 0 0 0 0 0 0 0 0 0 0 0 0 0 0 0 0 0 0 0 0 0 0 0 0 0 0 0 0 0 0 0 0 0 0 0 0 0 0 0 0 0 0 0 0 0 0 0 0 0 0 0 0 0 0 0 0 0 0 0 0 0 0 0 0 0 0 0 0 0 0 0 0 0 0 0 0 0
0 0 0 0 0 0 0 0 0 0 0 0 0 0 0 0 0 0 0 0 0 0.246244235917572 0 0.893334239183989 0.0450885120836143 0.400703723531468 0 0 0 0 0 0 0 0 0 0 0 0 0 0 0.176371178902202 0.517234356832851 0.450573521580721 0 0 0 0 0 0 0 0 0.144890616505722 0.0422215794461144 0.0980030836122991 0 0 0 0 0 0 0 0 0 0 0 0 0 0 0 0 0 0 0 0 0 0 0 0 0 0 0 0 0 0 0 0 0 0 0 0 0 0 0 0 0 0 0 0 0 0 0 0 0 0 0 0 0 0 0 0 0 0 0 0 0 0 0 0 0 0 0 0 0 0 0 0 0 0 0 0 0 0 0 0 0 0 0 0 0 0 0 0 0
0 0 0 0 0 0 0 0 0 0 0 0 0 0 0 0 0 0 0 0 0 0 0 0 0 0 0 0 0 0 0 0 0 0 0 0 0 0 0 0 0 0 0 0.17757630713373 0.0554386409680463 0 0.159822935078317 0.266491077447423 0 0 0 0 0 0.158885219270143 0 0 0 0 0 0 0 0 0 0 0 0 0 0 0 0 0 0 0 0 0 0 0 0 0 0 0 0 0 0 0 0 0 0 0 0 0 0 0 0 0 0 0 0 0 0 0 0 0 0 0 0 0 0 0 0 0 0 0 0 0 0 0 0 0 0 0 0 0 0 0 0 0 0 0 0 0 0 0 0 0 0 0 0 0 0 0 0 0
0 0 0 0 0 0 0 0 0 0 0 0 0 0 0 0 0 0 0 0 0 0 0 0 0 0 0 0 0 0 0 0 0 0 0 0 0 0 0 0 0 0 0 0.268127963543236 0.19444729010472 0 1.84761635806446 0.267491587087536 0 0 0 0 0 0.625876732601775 0 0 0 0 0 0 0 0 0 0 0 0 0 0 0 0 0 0 0 0 0 0 0 0 0 0 0 0 0 0 0 0 0 0 0 0 0 0 0 0 0 0 0 0 0 0 0 0 0 0 0 0 0 0 0 0 0 0 0 0 0 0 0 0 0 0 0 0 0 0 0 0 0 0 0 0 0 0 0 0 0 0 0 0 0 0 0 0 0
0 0 0 0 0 0 0 0 0 0 0 0 0 0 0 0 0.0436601881831664 0.329051648640924 0.0644053020913617 0.439562344178449 0.365168244190415 0 0 0 0 0 0 0 0 0 0 0 0 0 0 0 0 0 0 0 0 0 0 0 0 0 0 0 0 0 0 0 0 0 0 0 0 0 0 0 0 0 0 0 0.235997301765893 0.163237522012239 0.041341087007261 1.19183039181509 0.333704156431857 0.225186837815705 0.0649770654679552 0.0924395883124789 0 0 0 0 0 0 0 0 0 0 0 0 0 0 0 0 0 0 0 0 0 0 0 0 0 0 0 0 0 0 0 0 0 0 0 0 0 0 0 0 0 0 0 0 0 0 0 0 0 0 0 0 0 0 0 0 0 0 0 0 0 0 0 0 0 0.487719867787079 0.119649771295037 0 0 0 0
0 0 0 0 0 -3.4873878636358 -3.31987636589375 -2.3585510305818 -1.34534375764586 -3.54465010476523 -0.321698472274431 -2.02807728370705 -0.347392940512189 -1.48854715329563 -1.56232789023529 -1.3228012502997 0 0 0 0 0 0 -0.486131863671134 -1.19510204213362 -1.58585251596417 -1.64249155427067 -0.241283947401138 -0.380069216903918 -2.05902707457688 0 0 0 0 0 0 0 0 0 -0.183463557541616 -2.02775199432777 -1.17141425245378 -1.59587017605357 -5.07859372612646 -0.227651308142775 -1.00068632597831 0 0 0 0 0 0 0 0 0 0 0 0 0 0 0 0 0 0 0 0 0 0 0 0 0 0 0 0 0 0 0 0 0 0 0 0 0 0 0 0 0 0 0 0 0 0 0 0 0 0 0 0 0 0 0 0 0 0 0 0 0 0 0 0 0 0 0 0 0 0 0 0 0 0 0 0 0 0 0 0 0 0 0 0 0 0 0 0 0 0 0 -2.38216717884351 0 0 0 0 0 0
0 0 0 0 0 -0.372265187075644 -1.18170368072272 -1.30048760938702 -2.77854651896177 -6.29653934249192 -1.51589518725032 -2.22042274012454 -2.21424456470943 -0.600382566719602 -1.80059492390249 -11.5926594347487 0 0 0 0 0 0 -3.15314273860516 -1.09409949942583 -0.395781441390977 0 -4.69103872693623 -0.763281798806233 -1.19961536768938 0 0 0 0 0 0 0 0 0 -2.1139598213597 -0.61800745826429 -0.278955996854759 -0.38561340882921 -4.10592644586023 0 0 0 0 0 0 0 0 0 0 0 0 0 0 0 0 0 0 0 0 0 0 0 0 0 0 0 0 0 0 0 0 0 0 0 0 0 0 0 0 0 0 0 0 0 -1.40016695725327 -0.428880644989012 -0.564179083247966 -0.940518145933251 -2.06303592342091 -0.365770731243556 -0.824009022967246 0 0 0 0 0 0 0 0 0 0 0 0 0 0 0 0 0 0 0 0 0 0 0 0 0 0 0 0 0 0 0 0 0 0 0 0 0 0 0 0 0 -0.591227604081516 0 0 0 0 0 0
0 0 -0.52964431144128 0 0 0 0 0 0 0 0 0 0 0 0 0 0 0 0 0 0 0 0 0 0 0 0 0 0 0 0 0 0 0 0 0 0 0 0 0 0 0 0 0 0 0 0 0 0 0 0 0 0 -0.583919965923278 -1.23024453969765 -1.28329000125982 -0.406114712362291 0 0 0 0 0 0 0 0 0 0 0 0 0 0 0 0 0 0 0 0 0 0 0 0 0 0 0 0 0 0 0 0 0 0 0 0 0 0 0 0 0 0 0 0 0 0 0 0 0 0 0 0 0 0 0 0 0 0 0 0 0 0 0 0 0 0 0 0 0 0 0 0 0 0 0 0 0 0 0 0 0 0 0 0 0 0
0 -0.327980685485556 0 0 0 -1.51484345678877 -1.72310651420364 -0.388848941406514 -1.07591598653386 -1.0940027630778 -0.053762629029705 -0.20311058073679 -3.6159785164754 -1.21428299823723 -0.123496489195904 -1.22046080565631 0 0 0 0 0 -1.13704216790946 -1.93372958400581 0 0 0 0 0 0 -0.408820825600688 -1.22636700787429 -0.651995717654268 -1.77617816847436 -3.59474783983124 -0.312013164358603 -10.8368643691283 -1.71352246945118 -0.214319962635266 0 0 0 0 0 0 0 0 0 0 0 0 0 0 0 -2.64525469995439 0 0 0 0 0 -1.68720799793134 -0.275144348783003 -4.89320351721277 -0.180629298086801 0 -0.545561087112941 -1.18828393584576 -0.485182200857452 -0.582191553276545 -0.410580956200143 -9.05044660033612 -1.44899821943561 -0.204135777278998 0 0 0 0 0 0 0 0 0 0 0 0 0 0 0 0 0 0 0 0 0 0 0 -1.61207318369543 -1.75054941929733 -0.420705170566378 -1.71250712868779 -2.30742860788723 -0.153642015315232 -0.401042619630307 -1.27551687010625 -0.460717403916486 -0.486191022378683 0 0 0 0 0 0 0 0 0 0 0 0 0 0 0 0 0 0 0 0 0 0 0 0 0 0 0 0 0 0 0 0 0 0 0 0 0 0
0 0 -5.00003834265703 -0.313892726603194 -3.14291079894194 0 0 0 0 0 0 0 0 0 0 0 -0.475314801411348 -1.03792263432974 -1.94646777912358 -1.42249196269503 -1.51567447462757 0 0 0 0 0 0 0 0 0 0 0 0 0 0 0 0 0 0 0 0 0 0 0 0 0 0 0 0 0 0 -0.270517644142305 -0.378145680146863 0 0 0 0 0 0 0 0 0 0 0 0 0 0 0 0 0 0 0 0 0 0 0 0 0 0 0 0 0 0 0 0 0 0 0 0 0 0 0 0 0 0 0 0 0 0 0 0 0 0 0 0 0 0 0 0 0 0 0 -2.49183532276337 -0.44099173973609 -1.49420934902605 -0.878686616471449 -0.825849775493806 0 0 0 0 0 0 0 0 0 0 0 0 0 0 0 0 0 0 0 0 0 0 0 0 0 0
0 -0.97682738096318 0 0 -1.39926219561403 -0.193407668405018 -2.33597554545005 -2.43480786233732 -0.847838937404852 -7.0850681917384 -0.795021963198701 -0.600082455392943 -0.54645496489067 -0.184181608025398 -0.531380568456506 -0.918351462509126 0 0 0 0 0 -1.16239136409754 0 -0.210243318661068 -3.05987313845572 0 0 0 0 -2.13213863866061 -2.08537715520019 -1.46353070275157 -0.295047649852756 -5.25687885113929 -0.372456505486059 -1.9399591170387 -1.54882378630724 -0.879177904915147 0 0 -1.6204236512597 -0.905670111679253 -2.75672333390898 0 0 0 0 0 0 0 0 0 0 -0.738362133744196 -0.939066313363269 -1.39956886816331 -1.67700633081256 0 0 -1.43286505651096 0 0 0 0 -0.52009671188339 -1.15093501064154 -0.158936520889105 -1.51689101833314 -1.41495174004705 -3.66917576028021 -0.659496501336594 -2.05705723607843 -1.8237301879314 -1.7400215423484 -0.362403555932179 -0.669042862443955 -4.19455473542305 -0.413741652692978 -0.134889026234586 -1.79553100773637 -1.91915853589841 -3.55545772945571 -1.78110595033674 -2.18175554978429 -0.564142494779089 -0.597909193776647 -0.839700288688307 -0.553696251101006 0 0 0 0 0 0 0 -3.18593611484462 -0.683744452157807 -3.82438591753953 -3.96701965632123 -1.58917297245989 -1.11278126207009 -1.60795671086786 -1.53762018379144 -1.14863473958141 -1.81117816795773 0 0 0 0 0 -0.951325161043993 -3.22832789236222 0 0 0 0 0 0 0 0 0 0 0 0 0 0 0 0 0 0 0 0 0 0 0 0 0 0 0 0 0 0 0
