0 -2.91759384766541 -6.23268271903645 0 0 0 0 0 0 0 0 0 0 0 0 0 0 0 0 0 0 -0.51741416156062 0 0 0 0 0 0 0 -0.446499684679993 -0.315762401210242 -0.819553054209418 -2.00766713256112 -1.23883363846727 -1.69184516317942 -3.69280542144598 -0.81025553433359 -1.98419983677681 0 0 0 0 0 0 0 0 0 0 0 0 0 0 0 0 0 0 0 0 0 0 0 0 0 0 -0.95933144838267 -4.59938660656036 -1.27919026398671 -0.278118118873805 -0.316208188229127 -0.40396039374853 -2.22595060529678 -1.15184962648495 0 0 0 0 0 0 0 0 0 0 0 0 0 0 0 0 0 0 0 0 0 0 0 -0.696223699013921 -1.91429068987881 -1.52389317698691 -1.27814252727211 -1.63241003051724 -4.32871385594041 -0.515926142566755 -0.237486962243931 -2.80261916710563 -0.127094782118308 -1.51023230749972 -0.574309952137837 -0.442299051946152 -1.63619709079024 -0.960039135332809 0 0 0 0 0 0 0 0 0 0 0 0 0 0 0 0 0 0 0 0 0 0 0 0 0 0 0 0 0 0 0 0 0
0.565549382591096 -0.176158228643616 -1.07813823831561 0 0 0 0 0 0 0 0 0 0 0 0 0 0 0 0 0 0 0 0 0 0 0 0 0 0 -2.01544714510557 -0.872872988331184 -0.931451202725623 -0.472650573614079 -0.460303970945711 -1.12516339225131 -3.75360888528263 -1.62587990249373 -1.06225137483486 0 0 0 0 0 0 0 0 0 0 0 0 0 0 0 0 0 0 0 0 0 0 0 0 0 0 -3.66101796037921 -2.33248275801073 -1.69521157629446 -8.8444246423545 -0.907965733840238 -3.46429408454345 -0.573977319666266 -2.78243629853281 0 0 0 0 0 0 0 0 0 0 0 0 0 0 0 0 0 0 0 0 0 0 0 -0.412973725038023 -2.69752697456961 -0.90373762051974 -0.225211219881936 -10.059344239288 -0.268826038476129 -0.392195860310995 -2.50713589769386 -0.606463638249769 -1.16408762188425 -0.971411394299967 -0.443934146153614 -0.776471042828127 -2.00294423541264 -0.705501332136466 0 0 0 0 0 0 0 0 0 0 0 0 0 0 0 0 0 0 0 0 0 0 0 0 0 0 0 0 0 0 0.130169586200035 0 0.0285974783275775
1.16322382450527 0.222616072810664 -0.920935637562153 0 0 0 0 0 0 0 0 0 0 0 0 0 0 0 0 0 0 -1.14363424288885 0 0 0 0 0 0 0 -2.86187132184335 0 0 0 0 0 0 0 0 0 0 -1.14649804062809 -1.29171386501964 -0.168117543233485 0 0 0 0 0 0 0 0 0 0 -0.569575675439705 -2.78926431250967 -1.14619563325287 -1.39738904755209 -1.41891761688342 -3.91182624901748 -0.504172854924773 -2.04571679991367 -1.04920822047046 -1.0027052900698 0 -0.491951029592641 -0.308620198409675 -3.11483679881893 -5.1083276530586 -2.19562973772515 -0.817561385769437 -0.535252099564542 -0.286357049013003 0 0 0 0 0 0 0 0 0 0 0 0 0 0 0 0 0 0 0 0 0 0 0 -5.85828979633454 -0.35817793344971 -1.19793728550235 -0.364556163376328 -2.09561464121625 -0.455761084454136 -2.85054228800428 -0.840559718074936 -2.14704033068246 -1.67199721263927 -1.77404972845071 -0.439277366276192 -1.01244560737785 -0.244166595610564 -1.39240345234648 0 0 0 0 0 0 0 0 0 0 0 0 0 0 0 0 0 0 0 0 0 0 0 0 0 0 0 0 0 0.0961152279220958 0 0.0966157849131988 0
0 0 0 0 -0.166983140142392 0 0 0 0 0 0 0 0 0 0 0 -1.81172605019232 -1.67961042810915 -3.79244415760726 -2.08839870072231 -1.71749860515618 0 0 0 0 0 0 0 0 0 0 0 0 0 0 0 0 0 0 0 0 0 0 0 0 0 0 0 0 0 0 0 0 0 0 0 0 0 0 0 0 0 0 0 0 0 0 0 0 0 0 0 0 0 0 0 0 0 0 0 0 0 0 0 0 0 0 0 0 0 0 0 0 0 0 0 0 0 0 0 0 0 0 0 0 0 0 0 0 0 0 0 -0.372062564250849 -0.80279289417971 -3.22930144042721 -1.66299733327527 -0.926183667040393 0 0 0 0 0 0 0 0 0 0 0 0 0 0 0 0 0 0 0 0 0 0 0 0 0.125959062944407 0
0 0 0 0.0305073990468645 -0.351089477431646 0 0 0 0 0 0 0 0 0 0 0 -0.751986081358538 -0.756519985700019 -11.8903220018508 -2.23780798923021 -0.68073316335296 0 0 0 0 0 0 0 0 0 0 0 0 0 0 0 0 0 0 0 0 0 0 0 0 0 0 0 0 0 0 0 0 0 0 0 0 0 0 0 0 0 0 0 0 0 0 0 0 0 0 0 0 0 0 0 0 0 0 0 0 0 0 0 0 0 0 0 0 0 0 0 0 0 0 0 0 0 0 0 0 0 0 0 0 0 0 0 0 0 0 0 -0.117807854796546 -4.31405928437858 -0.522573327083528 -0.683202494465626 -1.59484849052266 0 0 0 0 0 0 0 0 0 0 0 0 0 0 0 0 0 0 0 0 0 0 0 0 0.0365990815895993 0.397841738115189
0 0 0 0 0 0 0 0 0 0 0 0 0 0 0 0 0 0 0 0 0 0 0 -0.775387127597001 -2.71664977239109 0 0 0 0 0 0 0 0 0 0 0 0 0 0 0 -0.941696887965748 -4.79744514531908 -1.03124566610014 0 0 -2.5665687393226 0 0 0 0 0 -0.628378761887701 -0.517166642512956 -0.537422314451804 -2.32527083433347 -0.517023819918571 -1.14895444468213 -0.706264472318419 -1.83098883845356 -0.316868056849648 -0.175309908832513 -0.789712895033409 -1.45534438373239 -0.313876803197333 0 0 0 0 0 0 0 0 0 0 0 0 0 0 0 0 0 0 0 0 0 0 0 0 0 0 0 0 0 0 0 0 0 0 0 0 0 0 0 0 0 -2.70226057649435 -1.28485950717899 -1.65855100915261 -0.416513388624038 -1.15340525960028 0 0 0 0 0 0 0 0 0 0 0 0 0 0 0 0 0 0 0 0 0 0 0 0 0 0 0 1.46113830097964 0.600241464899893 0 0.864281162829101 0 0.319831827447836
0 0 0 0 0 0 0 0 0 0 0 0 0 0 0 0 0 0 0 0 0 0 0 -0.356326982456706 -0.23396615512815 0 0 0 0 0 0 0 0 0 0 0 0 0 0 0 -0.921362009754852 -0.64859421476509 -0.669782946740203 0 0 -0.72572659856924 0 0 0 0 0 -0.634538407820549 -2.1873434893936 -0.136145529827703 -1.21035538618213 -1.65808617600313 -0.379786456854805 -0.487283475509952 -1.39338057483922 -5.49576985677875 -5.70979020224237 -2.8759097667812 -0.234002333785052 -2.40033150272047 0 0 0 0 0 0 0 0 0 0 0 0 0 0 0 0 0 0 0 0 0 0 0 0 0 0 0 0 0 0 0 0 0 0 0 0 0 0 0 0 0 -3.95417565198995 -0.562838051695675 -0.189198111863564 -1.90633266354872 -1.97351203097567 0 0 0 0 0 0 0 0 0 0 0 0 0 0 0 0 0 0 0 0 0 0 0 0 0 0 0 0.17563331854652 0.766697173226033 0 0.61545360761081 0 0.429090498503245
0 0 0 0 0 0 0 0 0 0 0 0 0 0 0 0 0 0 0 0 0 0 0 -0.365247759181046 -0.591046795545377 0 0 0 0 0 0 0 0 0 0 0 0 0 0 0 -0.86747388631218 -0.224350971408061 -3.8883150896221 0 0 -0.391367858601583 0 0 0 0 0 -0.521592612008016 -1.62781118281641 -0.619523910276804 -1.87847488392928 -0.372480230439962 -0.22678392722797 -3.74324850554182 -0.132772122066452 -0.215773936820905 -1.10429328382083 -1.21226034881707 -0.731360203472433 -0.213919579923837 0 0 0 0 0 0 0 0 0 0 0 0 0 0 0 0 0 0 0 0 0 0 0 0 0 0 0 0 0 0 0 0 0 0 0 0 0 0 0 0 0 -1.73871319024067 -0.783128170331016 -0.844435246704531 -0.952419572072375 -5.1451154905889 0 0 0 0 0 0 0 0 0 0 0 0 0 0 0 0 0 0 0 0 0 0 0 0 0 0 0 0.287111874298978 0.500760216362713 0 0.0539046724540578 0 0.320279851804806
0 0 0 0 0 0 0 0 0 0 0 0 0 0 0 0 0 0 0 0 0 0 0 -2.17351607227616 -0.25952860606025 0 0 0 0 0 0 0 0 0 0 0 0 0 0 0 -1.51279105639178 -0.36808178164829 -1.64220344369963 0 0 -0.90615311914098 0 0 0 0 0 -0.394856504994413 -5.01738122665413 -5.12404288607012 -0.807683545242999 -1.68337047634799 -0.772075234598844 -5.97613346578484 -2.46676265309032 -0.184776631553203 -2.3830883712023 -0.198048582875158 -0.72677100501183 -1.05832591387121 0 0 0 0 0 0 0 0 0 0 0 0 0 0 0 0 0 0 0 0 0 0 0 0 0 0 0 0 0 0 0 0 0 0 0 0 0 0 0 0 0 -1.24617115876292 -1.12413357353674 -0.614564825574929 -1.65874704298378 -0.708650411955164 0 0 0 0 0 0 0 0 0 0 0 0 0 0 0 0 0 0 0 0 0 0 0 0 0 0 0 0.0607446546364675 0.091959665497218 0 0.087648194842522 0 0.247869170235281
0 0 0 0 0 0 0 0 0 0 0 0 0 0 0 0 0 0 0 0 0 0 0 -0.508909022020107 -0.426325420316046 0 0 0 0 0 0 0 0 0 0 0 0 0 0 0 -2.16601269646754 -1.03541967604481 -3.03108976417536 0 0 -8.9871917315035 0 0 0 0 0 -1.54051342047279 -3.53318499372797 -0.296562351554356 -4.39606977818862 -0.911100778681347 -0.276004086024928 -1.74289577175429 -0.486099000624261 -0.840793724450076 -2.71212006298817 -1.05252216833113 -0.566893250169127 -0.799933257602426 0 0 0 0 0 0 0 0 0 0 0 0 0 0 0 0 0 0 0 0 0 0 0 0 0 0 0 0 0 0 0 0 0 0 0 0 0 0 0 0 0 -0.865832363912337 -0.663330252376532 -2.19254489632923 -0.912514770946546 -0.342893310361515 0 0 0 0 0 0 0 0 0 0 0 0 0 0 0 0 0 0 0 0 0 0 0 0 0 0 0 0.0976924007290597 0.0292587806550565 0 1.90156150790878 0 0.0673159910127455
0 0 0 0 0 0 0 0 0 0 0 0 0 0 0 0 0 0 0 0 0 0 0 -0.469872491834548 -0.881317194380854 0 0 0 0 0 0 0 0 0 0 0 0 0 0 0 -8.23803931820438 -1.95328740945332 -0.937853674562972 0 0 -0.684186886777063 0 0 0 0 0 -0.983754325809763 -0.344743776508728 -1.62247996486932 -1.07401181332061 -2.48343316421871 -1.22392074852233 -1.28778924280437 -0.755878511979672 -0.689516954000061 -1.64212531045566 -2.98657007446073 -6.01515747702484 -0.816380853168108 0 0 0 0 0 0 0 0 0 0 0 0 0 0 0 0 0 0 0 0 0 0 0 0 0 0 0 0 0 0 0 0 0 0 0 0 0 0 0 0 0 -3.90067129631129 -1.40320592985724 -0.893101573380233 -3.26541447995958 -4.67573551276785 0 0 0 0 0 0 0 0 0 0 0 0 0 0 0 0 0 0 0 0 0 0 0 0 0 0 0 0.0589724044522257 0.0550335752801772 0 0.0368967097170359 0 0.19052188359019
0 0 0 0 0 0 0 0 0 0 0 0 0 0 0 0 0 0 0 0 0 0 0 -2.46112835871505 -1.12384209559546 0 0 0 0 0 0 0 0 0 0 0 0 0 0 0 -0.535551206631287 -1.99391069119589 -1.16921129468066 0 0 -1.13584594361995 0 0 0 0 0 -4.74212691248239 -0.77960361637695 -0.223122322809512 -0.748192753804722 -1.61182854348785 -0.935504533101843 -2.7603298077745 -1.68461222306097 -0.317334747661747 -8.05735435780406 -1.56345481019723 -4.92822775660207 -0.952350978895097 0 0 0 0 0 0 0 0 0 0 0 0 0 0 0 0 0 0 0 0 0 0 0 0 0 0 0 0 0 0 0 0 0 0 0 0 0 0 0 0 0 -2.15107472898362 -0.61798677247225 -0.551478990730102 -0.747498784724884 -1.84430901572147 0 0 0 0 0 0 0 0 0 0 0 0 0 0 0 0 0 0 0 0 0 0 0 0 0 0 0 0.0593064644962817 0.16989760562928 0 0.278672488500126 0 0.137903777624319
0 0 0 0 0 0 0 0 0 0 0 0 0 0 0 0 0 0 0 0 0 0 0 -2.25471226414292 -0.763435664207596 0 0 0 0 0 0 0 0 0 0 0 0 0 0 0 -3.35679683035126 -0.207364315565809 -1.17513997660456 0 0 -0.292576496957759 0 0 0 0 0 -1.04247126677658 -1.397400279529 -0.299257718118011 -1.06860598157334 -0.385228570835823 -1.27856879568765 -0.700779683788509 -2.19951683874576 -4.11339903319031 -0.476941282182151 -0.673618246546289 -2.90322139445068 -1.76295108814648 0 0 0 0 0 0 0 0 0 0 0 0 0 0 0 0 0 0 0 0 0 0 0 0 0 0 0 0 0 0 0 0 0 0 0 0 0 0 0 0 0 -0.241456959944863 -1.92780751544971 -1.34864129438878 -3.40851189496306 -0.934927207301629 0 0 0 0 0 0 0 0 0 0 0 0 0 0 0 0 0 0 0 0 0 0 0 0 0 0 0 0.0228239460039948 0.172390202235364 0 0.059355849523339 0 0.546003290448911
0 0 0 0 0 0 0 0 0 0 0 0 0 0 0 0 0 0 0 0 0 0 0 -0.7642937836211 -0.870861112368857 0 0 0 0 0 0 0 0 0 0 0 0 0 0 0 -1.30425593213462 -0.772460488240262 -0.613751368591539 0 0 -12.1847290972587 0 0 0 0 0 -0.19428690924352 -1.41899961671931 -0.922345598911255 -1.14093314417693 -1.26599538753446 -0.846825918696605 -0.920235493604069 -1.6946914149215 -0.22099170635032 -0.437214958474913 -1.07376626206914 -0.518530103933987 -1.40185624794396 0 0 0 0 0 0 0 0 0 0 0 0 0 0 0 0 0 0 0 0 0 0 0 0 0 0 0 0 0 0 0 0 0 0 0 0 0 0 0 0 0 -2.65785028355415 -0.558984606922735 -0.0865476024039189 -0.934050007843952 -0.550901158681666 0 0 0 0 0 0 0 0 0 0 0 0 0 0 0 0 0 0 0 0 0 0 0 0 0 0 0 2.04516831383178 0.109984133653584 0 0.198487005075819 0 0.326111773130961
0 0 0 0 0 0 0 0 0 0 0 0 0 0 0 0 0 0 0 0 0 0 0 -0.327022153640669 -0.297360740526597 0 0 0 0 0 0 0 0 0 0 0 0 0 0 0 -0.204266943984966 -0.694923010920228 -0.194321979712223 0 0 -0.7317929640039 0 0 0 0 0 -1.92944899031906 -1.44759921579291 -0.469984842273115 -0.388881192722746 -3.09386181014458 -0.584561372779654 -0.212034340234333 -1.53340709555426 -7.81755282558453 -0.960674811102443 -0.174891794018091 -1.14846071261629 -0.22215833982817 0 0 0 0 0 0 0 0 0 0 0 0 0 0 0 0 0 0 0 0 0 0 0 0 0 0 0 0 0 0 0 0 0 0 0 0 0 0 0 0 0 -3.12604074889967 -10.5898177529453 -1.34309615599371 -3.26603501549215 -0.512799216857095 0 0 0 0 0 0 0 0 0 0 0 0 0 0 0 0 0 0 0 0 0 0 0 0 0 0 0 0.191811087079622 0.228137957744139 0 0.0665871234980644 0 0.212874971820055
0 0 0 0 0 0 0 0 0 0 0 0 0 0 0 0 0 0 0 0 0 0 0 -0.32271047896686 -3.89508766039238 0 0 0 0 0 0 0 0 0 0 0 0 0 0 0 -1.33949583221668 -1.25410199202812 -1.13458983532398 0 0 -1.81102414531531 0 0 0 0 0 -3.47105557881568 -2.76995244707035 -3.16264829453882 -0.956103537747766 -4.10508014508668 -0.368906067704714 -3.86052495208245 -1.54508668852754 -0.472381643981517 -0.181873878848459 -0.741103391371554 -2.51257860956143 -0.488695708518255 0 0 0 0 0 0 0 0 0 0 0 0 0 0 0 0 0 0 0 0 0 0 0 0 0 0 0 0 0 0 0 0 0 0 0 0 0 0 0 0 0 -0.782586519617629 -1.41401228103879 -2.81642881858084 -1.60212007436003 -2.51919556799842 0 0 0 0 0 0 0 0 0 0 0 0 0 0 0 0 0 0 0 0 0 0 0 0 0 0 0 0.243456377383738 0.408095154570524 0 0.095146138170143 0 0.167265194070628
0 0 0 0.329244556043873 0.151383955150107 0 0 0 0 0 0 0 0 0 0 0 0 0 0 0 0 0 0 -0.242107347467638 -1.4886343380025 0 0 0 0 0 0 0 0 0 0 0 0 0 0 0 0 0 0 0 0 0 0 0 0 0 0 0 0 0 0 0 0 -7.63587756196289 -0.934486866786656 0 0 0 0 0 0 0 0 0 0 0 0 0 0 0 0 0 0 0 0 0 0 0 0 0 0 0 0 0 0 0 0 0 0 0 0 0 0 0 0 0 0 0 0 0 0 -3.48001766693499 -0.597099357597715 -2.07193565705945 -0.129363085248916 -0.639530282950705 0 0 0 0 0 0 0 0 0 0 0 0 0 0 0 0 0 0 0 0 0 0 0 0 0 0 -0.878844803934443 0 0 0 0 0.147773827937807 0
0 0 0 0.364993611729916 0.155536283066704 0 0 0 0 0 0 0 0 0 0 0 0 0 0 0 0 0 0 -0.224643233226314 -3.9315658330825 0 0 0 0 0 0 0 0 0 0 0 0 0 0 0 0 0 0 0 0 0 0 0 0 0 0 0 0 0 0 0 0 -0.615015573435964 -0.223762141675758 0 0 0 0 0 0 0 0 0 0 0 0 0 0 0 0 0 0 0 0 0 0 0 0 0 0 0 0 0 0 0 0 0 0 0 0 0 0 0 0 0 0 0 0 0 0 -0.904386254043364 -0.869878313174975 -0.325824110359446 -2.07107387970483 -0.88148470277327 0 0 0 0 0 0 0 0 0 0 0 0 0 0 0 0 0 0 0 0 0 0 0 0 0 0 -2.34622570733911 0 0 0 0 0.0741630980239583 0
0 0 0 0.817745628556479 2.38542028681161 0 0 0 0 0 0 0 0 0 0 0 0 0 0 0 0 0 0 -1.93913680723497 -2.44296948208198 0 0 0 0 0 0 0 0 0 0 0 0 0 0 0 0 0 0 0 0 0 0 0 0 0 0 0 0 0 0 0 0 -1.99827990291769 -0.334779140236989 0 0 0 0 0 0 0 0 0 0 0 0 0 0 0 0 0 0 0 0 0 0 0 0 0 0 0 0 0 0 0 0 0 0 0 0 0 0 0 0 0 0 0 0 0 0 -1.7824412566398 -0.215615529110115 -0.814678346418884 -1.16689754878937 -0.295757559534825 0 0 0 0 0 0 0 0 0 0 0 0 0 0 0 0 0 0 0 0 0 0 0 0 0 0 -2.81665548572543 0 0 0 0 0.112813882114242 0
0 0 0 0.424781271011142 0.470233554166476 0 0 0 0 0 0 0 0 0 0 0 0 0 0 0 0 0 0 -0.676647522863985 -0.942387886594107 0 0 0 0 0 0 0 0 0 0 0 0 0 0 0 0 0 0 0 0 0 0 0 0 0 0 0 0 0 0 0 0 -0.681371055109103 -1.75228640836886 0 0 0 0 0 0 0 0 0 0 0 0 0 0 0 0 0 0 0 0 0 0 0 0 0 0 0 0 0 0 0 0 0 0 0 0 0 0 0 0 0 0 0 0 0 0 -0.711379875357488 -0.446798157391453 -1.02213813679506 -2.62046020832617 -3.32246284498028 0 0 0 0 0 0 0 0 0 0 0 0 0 0 0 0 0 0 0 0 0 0 0 0 0 0 -4.44846553624615 0 0 0 0 0.153292499059018 0
0 0 0 0.330386803434547 0.124635350089859 0 0 0 0 0 0 0 0 0 0 0 0 0 0 0 0 0 0 -2.21622079318265 -0.813043636709205 0 0 0 0 0 0 0 0 0 0 0 0 0 0 0 0 0 0 0 0 0 0 0 0 0 0 0 0 0 0 0 0 -2.89768433102883 -0.258402886247716 0 0 0 0 0 0 0 0 0 0 0 0 0 0 0 0 0 0 0 0 0 0 0 0 0 0 0 0 0 0 0 0 0 0 0 0 0 0 0 0 0 0 0 0 0 0 -0.393542497908983 -0.906698163519151 -0.644444515099236 -11.9101252320827 -0.0514301218022225 0 0 0 0 0 0 0 0 0 0 0 0 0 0 0 0 0 0 0 0 0 0 0 0 0 0 -0.213794099369301 0 0 0 0 0.0555975782161284 0
0.105720720544914 0 0.208384875004702 0 0 0 0 0 0 0 0 0 0 0 0 0 0 0 0 0 0 0 0 0 0 -1.30201046792354 0 0 0 0 0 0 0 0 0 0 0 0 0 0 0 0 0 -0.661701047454159 -0.844169112206499 0 0 0 0 0 0 0 0 0 0 0 0 0 0 0 0 0 0 -0.453669556890523 0 0 0 0 0 0 0 0 0 0 0 0 0 0 0 0 0 0 0 0 0 0 0 0 0 0 0 0 0 0 0 0 0 0 0 0 0 0 0 0 0 0 0 0 0 0 0 0 0 0 0 0 0 -0.693127527342458 -3.54888485701391 -1.45145039007494 0 0 0 0 0 0 0 -3.06134326483097 -0.213480100117669 -5.67297436849054 -1.25371948759984 -0.350435754389116 -1.21262502879487 -1.02724885701349 0 0 0 0 0 0 0.33309033242469 0 0.251645034460778
0 0 0 0 0 0 0 0 0 0 0 0 0 0 0 0 0 0 0 0 0 0 0 0 0 0 0 0 0 0 0 0 0 0 0 0 0 0 0 0 0 0 0 0 0 0 0 0 0 0 0 0 0 0 0 0 0 0 0 0 0 0 0 0 0 0 0 0 0 0 0 0 0 0 0 0 0 0 0 0 0 0 0 0 0 0 0 0 0 0 0 0 0 0 0 0 0 0 0 0 0 0 0 0 0 0 0 0 0 0 0 0 0 0 0 0 0 0 0 0 0 0 0 0 0 0 0 0 0 0 0 0 0 0 0 0 0 0.0934546876296298 0.0309912886896551 0 0.240061828440296 0 0
0 0 0 0 0 0.151197679822622 0.0762121449962575 0.0724140092343827 0.462849341432745 0.0970745336035915 0.0927478040035606 0.541791516302981 0.472483102823042 0.15403162568874 0.068042701929551 0.0631671922400763 0.0502576814691495 0.0444389865483964 0.413055665750336 0.14168925292452 0.456169353644915 0 0 0 0 -1.66921277089897 1.04445410809966 0.129523609347446 0.145779004566695 0 0.067688641845627 0.196881229312468 1.74472777565553 0.247064312853685 0.152791955106869 0.885400156136609 0.167397532397499 0.399256999109451 0 0 -0.399290951114469 -0.670919053572471 -0.537570497400141 -0.850814939242528 -1.19029727341436 0 0 0 0 0 0 0 0 0 0 0 0 -2.22862464693245 -0.639004210778221 0 0 0 0 -0.282407943226178 0.101915685443465 0.0275581610905281 0.0454747832112888 0.516996686779839 0.0914564042937912 0.049417092957881 0.376443168421697 0.709468976675487 0 0 0 0 0 0 0 0 0 0 0 0 0 0 0 0 0 0 0 0 0 0 0 0.313470002328924 0.0992929077395541 0.233548830383222 0.0594084279515622 0.183264522799288 0.581513955798731 0.0619314176251302 0.225082448591724 0.111366814832486 0.347284006583686 0.058318570148593 0.26507855136832 0.0605700727504947 0.278317630821537 0.107642603573323 0 0 0 0 0 0 0 -3.99837632430651 -1.84920741625408 -1.01165774617673 0 0 0 0 0 0 0 0 0 0 -2.21115235356983 -0.18393168119062 -0.379167648593685 -0.537593925954201 0 0 0 0.17207025268695 0.181243140636872 0 0 0 0.129326336919899
0 0 0 0 0 0.49889141934568 0.0473969324524466 0.136775919544955 0.0506902700298174 0.0895505764096936 0.187904553549955 0.217150044108233 0.15331133353008 0.169774366138469 0.0627611590384297 0.801627786470056 0.29599757850602 0.761079639229467 0.510935532650228 0.194270698239075 0.165955275271484 0 0 0 0 -5.21324982496878 0.114615925631874 0.0852702822907914 0.371520899097878 0 0.217936012113941 0.0580502542070631 0.251792283287001 0.193391640433727 0.0330609033680934 0.108389754359853 0.616236607395978 0.184368242201502 0 0 -5.54487731321967 -2.04456910017252 -0.70817405735103 -0.29483385790371 -1.09205907826411 0 0 0 0 0 0 0 0 0 0 0 0 -0.572331423997465 -1.65843373146584 0 0 0 0 -3.3325088973505 0.58001590467438 0.175331940280942 0.540550449029144 0.0664815274887755 0.156294905481318 0.630091686846211 0.278649847733618 0.145265197455227 0 0 0 0 0 0 0 0 0 0 0 0 0 0 0 0 0 0 0 0 0 0 0 0.0700352408843342 0.666798501493317 0.192300474372004 0.0583124282676614 0.169624828890885 0.965495468070752 0.253142085564858 0.665210001005797 0.128384263890172 0.189240831754287 0.40362246260011 0.24197239788669 0.227017740791236 0.104692173536009 0.135352812460212 0 0 0 0 0 0 0 -2.94400387650064 -0.281675040934638 -0.986808068955915 0 0 0 0 0 0 0 0 0 0 -1.41992914001437 -0.621381125441542 -0.258166825533812 -0.328978627336606 0 0 0 0.313478396477726 0.200439975003285 0 0 0 0.0430705889323343
0 0 0 0 0 0 0 0 0 0 0 0 0 0 0 0 0 0 0 0 0 0.261949573179492 0 0.315277550103845 1.07836015196512 0 0 0 0 0 0 0 0 0 0 0 0 0 0.120747536931374 0.429719261662371 0.149475009626495 0.442929235907968 0 0 0 0 0 0 0 0 0 0 0 0 0 0 0 0 0 0 0 0 0 0 0 0 0 0 0 0 0 0 0 0 0 0 0 0 0 0 0 0 0 0 0 0 0 0 0 0 0 0 0 0 0 0 0 0 0 0 0 0 0 0 0 0 0 0 0 0 0 0 0 0 0 0 0 0 0 0 0 0 0 0 0 0 0 0 0 0 -0.592716968915118 -1.62447153991542 -2.77410485198803 -0.604108300057419 0 0 0 0.455348508391965 0 0 0 0 0
0 0 0 0 0 0 0 0 0 0 0 0 0 0 0 0 0 0 0 0 0 0 0 -5.46396279566757 -0.547774863423596 0 0 0 0 0 0 0 0 0 0 0 0 0 0 0 0 0 0 0 0 0 0 0 -0.692646171360976 -0.425362265624759 -0.290638696612123 0 0 0 0 0 0 -0.310366157597072 -1.12746501862804 0 0 -0.657047117766065 -2.00564348268495 0 0 0 0 0 0 0 0 0 0 0 0 0 0 0 0 0 0 0 0 0 0 0 0 0 0 0 0 0 0 0 0 0 0 0 0 0 0 0 0 0 0 0 0 0 0 0 0 0 0 0 0 0 0 0 0 0 0 0 0 0 0 0 0 0 0 0 0 0 0 0 0 0 0 0.101651938422951 0.301784886812456 0 0 0 0
0 0 0 0 0 0 0 0 0 0 0 0 0 0 0 0 0 0 0 0 0 0 0 -0.674913340189142 -0.408574693495367 0 0 0 0 0 0 0 0 0 0 0 0 0 0 0 0 0 0 0 0 0 0 0 -1.68483447313053 -0.407411338090631 -4.4144944408092 0 0 0 0 0 0 -2.41653544376297 -1.78782571500862 0 0 -2.99799399394989 -3.8976850779248 0 0 0 0 0 0 0 0 0 0 0 0 0 0 0 0 0 0 0 0 0 0 0 0 0 0 0 0 0 0 0 0 0 0 0 0 0 0 0 0 0 0 0 0 0 0 0 0 0 0 0 0 0 0 0 0 0 0 0 0 0 0 0 0 0 0 0 0 0 0 0 0 0 0 0.256823003969038 0.588568054063696 0 0 0 0
0 0 0 0 0 0 0 0 0 0 0 0 0 0 0 0 0 0 0 0 0 0 0 -0.730224011217449 -1.82139311306222 0 0 0 0 0 0 0 0 0 0 0 0 0 0 0 0 0 0 0 0 0 0 0 -0.149013030629014 -0.578121384601372 -1.11979720407056 0 0 0 0 0 0 -1.45736434224666 -0.736863457359825 0 0 -0.703926054149998 -1.11762805735415 0 0 0 0 0 0 0 0 0 0 0 0 0 0 0 0 0 0 0 0 0 0 0 0 0 0 0 0 0 0 0 0 0 0 0 0 0 0 0 0 0 0 0 0 0 0 0 0 0 0 0 0 0 0 0 0 0 0 0 0 0 0 0 0 0 0 0 0 0 0 0 0 0 0 0.400146670103527 0.353713694776081 0 0 0 0
0.0863215678939532 0.43988669451493 0.586276675216181 0 0 0 0 0 0 0 0 0 0 0 0 0 0 0 0 0 0 0 0 0 0 0 0 0 0 0 0 0 0 0 0 0 0 0 0 0 0 0 0 0 0 0 0 0 0 0 0 -1.14939982748492 -0.333892627050146 0 0 0 0 0 0 0 0 0 0 0 0 0 0 0 0 0 0 0 0 0 0 0 0 0 0 0 0 0 0 0 0 0 0 0 0 0 0 0 0 0 0 0 0 0 0 0 0 0 0 0 0 0 0 0 0 0 0 0 0 0 0 0 0 0 0 0 0 0 0 0 0 0 0 0 0 0 0 0 0 0 0 0 0 0 0 0 0.12585756620554 0 0.684131931516842
0.0662410801980319 0.173297795960233 0 0 0 0 0 0 0 0 0 0 0 0 0 0 0 0 0 0 0 0 0 -0.361891307844236 -1.00798076897843 0 0 0 0 0 0 0 0 0 0 0 0 0 0 0 -0.483051706264919 -0.743654881895783 -1.52741762105753 0 0 -1.02611038299383 0 0 -0.379668618615845 -2.05316695309607 -2.20804353167116 -1.35793046077451 -0.114410196331019 -0.282692764973724 -0.425060374222454 -0.758920509792198 -0.862530280258813 -3.44393810396319 -1.41672495385751 -5.86250004524987 -1.24630075436748 -0.382369427615987 -0.758681792861178 -0.293022367785743 0 0 0 0 0 0 0 0 0 0 0 0 0 0 0 0 0 0 0 0 0 0 0 0 0 0 0 0 0 0 0 0 0 0 0 0 0 0 0 0 0 -0.822437057260412 -0.550251167039716 -1.85198932593276 -0.272990534871592 -1.68320325203309 0 0 0 0 0 0 0 0 0 0 0 0 0 0 0 0 0 0 0 0 0 0 0 0 0 0 0 0 0 0 0.258736418539171 0 0.189391587135604
0.166933710423771 0.184515486992752 0 0 0 0 0 0 0 0 0 0 0 0 0 0 0 0 0 0 0 0 0 -0.973047476807899 -0.306407646583525 0 0 0 0 0 0 0 0 0 0 0 0 0 0 0 -0.763661789507745 -0.166871171510667 -0.786439981270176 0 0 -0.35249016579168 0 0 -0.615577484405477 -4.80976898870269 -0.853167027528614 -0.928794399218236 -4.58571621065542 -3.92087083222415 -1.82776838678724 -0.73381107761724 -0.775605668064326 -1.04836948227145 -1.02627855547168 -4.66434545075364 -0.692536690460873 -1.36128629201148 -0.949187348058623 -2.07534148738724 0 0 0 0 0 0 0 0 0 0 0 0 0 0 0 0 0 0 0 0 0 0 0 0 0 0 0 0 0 0 0 0 0 0 0 0 0 0 0 0 0 -4.59934256330531 -2.3046411416034 -1.40772324208327 -0.802068998981619 -0.601472581492724 0 0 0 0 0 0 0 0 0 0 0 0 0 0 0 0 0 0 0 0 0 0 0 0 0 0 0 0 0 0 0.303084951398976 0 0.0252234726571749
0.396347743576279 0.094009574945762 0 0 0 0 0 0 0 0 0 0 0 0 0 0 0 0 0 0 0 0 0 -8.98960987961399 -1.17413093759864 0 0 0 0 0 0 0 0 0 0 0 0 0 0 0 -1.36851564300579 -0.879284426325282 -1.96896917246617 0 0 -2.11664955873818 0 0 -0.228264162574249 -0.557717061819974 -1.61079325589964 -2.97864122653975 -0.816371816681858 -2.49452669927273 -2.80884283276107 -1.41881560237312 -0.625834380656327 -2.29349188921135 -0.383946917799013 -6.78282702966289 -0.364531748831613 -0.734777846495756 -1.78802945028972 -1.05196149203331 0 0 0 0 0 0 0 0 0 0 0 0 0 0 0 0 0 0 0 0 0 0 0 0 0 0 0 0 0 0 0 0 0 0 0 0 0 0 0 0 0 -0.907780550036891 -0.743688109691201 -0.605292343985119 -0.499188021140718 -1.90456843791894 0 0 0 0 0 0 0 0 0 0 0 0 0 0 0 0 0 0 0 0 0 0 0 0 0 0 0 0 0 0 0.397108946096045 0 0.952270694724688
0.2382733598804 0.0889494264125944 0 0 0 0 0 0 0 0 0 0 0 0 0 0 0 0 0 0 0 0 0 -1.31792908074593 -0.991683921560827 0 0 0 0 0 0 0 0 0 0 0 0 0 0 0 -0.15669984788412 -1.23296038885689 -0.238832818926101 0 0 -2.15188099873021 0 0 -0.438602030243033 -4.77937551716514 -0.784720264528822 -2.5573800690814 -0.130880046651139 -0.13486315230284 -0.791889440258324 -0.801234944955982 -1.08682664993876 -0.453327492153699 -0.344713479078775 -4.93669255000867 -1.37436364308686 -0.6444027145708 -3.99925296320396 -1.60972090596012 0 0 0 0 0 0 0 0 0 0 0 0 0 0 0 0 0 0 0 0 0 0 0 0 0 0 0 0 0 0 0 0 0 0 0 0 0 0 0 0 0 -1.64617727511301 -0.412625644694632 -0.19505654455576 -0.958652666527301 -1.02303667796513 0 0 0 0 0 0 0 0 0 0 0 0 0 0 0 0 0 0 0 0 0 0 0 0 0 0 0 0 0 0 0.167425314257296 0 0.0487296013195708
0.329743563528465 0.21915424202144 0 0 0 0 0 0 0 0 0 0 0 0 0 0 0 0 0 0 0 0 0 -0.730824647436775 -0.167618327358263 0 0 0 0 0 0 0 0 0 0 0 0 0 0 0 -0.185465460741267 -0.796080756360769 -1.24947608252251 0 0 -0.260570845717775 0 0 -0.907625668838252 -3.58256596254752 -1.12125576962676 -3.00754342850213 -0.444439509420143 -0.29651730619577 -1.62172918747796 -2.69879406798012 -0.526525672096547 -5.04375674026764 -1.20230947115227 -0.209629551867938 -2.16904105767094 -0.492215418952695 -2.92736680612121 -1.30068725252692 0 0 0 0 0 0 0 0 0 0 0 0 0 0 0 0 0 0 0 0 0 0 0 0 0 0 0 0 0 0 0 0 0 0 0 0 0 0 0 0 0 -2.56232043754705 -0.259909756336792 -5.08191779558504 -2.76777982498643 -0.452129752520829 0 0 0 0 0 0 0 0 0 0 0 0 0 0 0 0 0 0 0 0 0 0 0 0 0 0 0 0 0 0 0.356978578351183 0 0.152586073345618
0.73618750781361 0.68140849824492 0 0 0 0 0 0 0 0 0 0 0 0 0 0 0 0 0 0 0 0 0 -4.40545100482757 -0.579631995628736 0 0 0 0 0 0 0 0 0 0 0 0 0 0 0 -7.31121935374735 -0.732398826584332 -0.479430834116761 0 0 -1.28604245298344 0 0 -0.641863484756635 -0.878611301034565 -0.613254604770866 -1.07360299329562 -1.05377270174431 -0.302975313079014 -2.05775599698985 -0.311889038663455 -3.9810839070914 -3.85197816201652 -0.566008626840407 -0.710339433157767 -0.764831281946986 -1.22019554265522 -0.902054891387035 -0.36293425062228 0 0 0 0 0 0 0 0 0 0 0 0 0 0 0 0 0 0 0 0 0 0 0 0 0 0 0 0 0 0 0 0 0 0 0 0 0 0 0 0 0 -1.98792915613339 -0.989862940172692 -0.980105019426135 -0.153983472312675 -0.350814985080805 0 0 0 0 0 0 0 0 0 0 0 0 0 0 0 0 0 0 0 0 0 0 0 0 0 0 0 0 0 0 0.0942449548160921 0 0.0580693872749968
0.153733684633465 0.300508366914191 0 0 0 0 0 0 0 0 0 0 0 0 0 0 0 0 0 0 0 0 0 -0.865782288659864 -3.1969300367607 0 0 0 0 0 0 0 0 0 0 0 0 0 0 0 -1.94345914310192 -2.65974681744276 -5.11915787381753 0 0 -1.29006927721243 0 0 -1.345074886986 -0.833865153280533 -0.609633105872787 -0.0833956623885079 -3.83220085992617 -5.98017052468683 -0.558420474016224 -1.36651323542687 -1.70722773852434 -0.383208478929435 -2.95697131756834 -0.347128822412801 -1.83477739622683 -8.60415437225077 -1.6737737402868 -0.240374664581553 0 0 0 0 0 0 0 0 0 0 0 0 0 0 0 0 0 0 0 0 0 0 0 0 0 0 0 0 0 0 0 0 0 0 0 0 0 0 0 0 0 -1.48221570044586 -0.448028589853915 -0.292214833242952 -0.697714400934675 -1.20332189435415 0 0 0 0 0 0 0 0 0 0 0 0 0 0 0 0 0 0 0 0 0 0 0 0 0 0 0 0 0 0 0.180715858381524 0 0.153489849086219
0.385417932432295 0.205959748474678 0 0 0 0 0 0 0 0 0 0 0 0 0 0 0 0 0 0 0 0 0 -2.37431573301168 -0.937504800568458 0 0 0 0 0 0 0 0 0 0 0 0 0 0 0 -1.12492643923167 -0.879307614128165 -0.777768385552571 0 0 -0.874377644277823 0 0 -1.48825743024769 -7.054912212282 -1.45814154744076 -0.98410697265847 -2.21672543450251 -0.297559037386458 -0.80406216830226 -4.13376390085253 -0.933575398774063 -0.744946130067388 -1.91388452299148 -1.05023569078757 -1.81701436473017 -1.36063040002508 -3.38934799851552 -0.220524649670217 0 0 0 0 0 0 0 0 0 0 0 0 0 0 0 0 0 0 0 0 0 0 0 0 0 0 0 0 0 0 0 0 0 0 0 0 0 0 0 0 0 -0.844941323302416 -0.157655464850876 -0.511377065188566 -0.380999336793203 -1.38578592850015 0 0 0 0 0 0 0 0 0 0 0 0 0 0 0 0 0 0 0 0 0 0 0 0 0 0 0 0 0 0 0.169118765484552 0 0.333055896961628
0 0 0 0 0 0 0 0 0 0 0 0 0 0 0 0 0 0 0 0 0 0 0 0 0 -0.560052568895162 0 0 0 0 0 0 0 0 0 0 0 0 0 0 -1.05491175919116 -0.240124516008652 -0.392397305857731 0 0 0 0 0 -1.15704327262218 -0.0930816250618624 -0.666124211303448 -0.529285810065404 -0.820702696948136 0 0 0 0 0 0 0 0 -5.59143609283651 -3.42829762525484 0 0 0 0 0 0 0 0 0 0 0 0 0 0 0 0 0 0 0 0 0 0 0 0 0 0 0 0 0 0 0 0 0 0 0 0 0 0 0 0 0 0 0 0 0 0 0 0 0 0 0 0 0 0 0 0 0 0 0 0 0 0 0 0 0 0 0 0 0 0 0 0 0 0 0.737080276259024 0.701939328255412 0 0 0 0
0 0 0 0 0 0 0 0 0 0 0 0 0 0 0 0 0 0 0 0 0 0 0 0 0 -2.10026532633563 0 0 0 0 0 0 0 0 0 0 0 0 0 0 -3.7083880059757 -0.5250363903052 -0.261386960433311 0 0 0 0 0 -0.653047413901024 -5.51063090107852 -3.95581251694553 -6.22445928942036 -3.42713319771892 0 0 0 0 0 0 0 0 -0.93179660841089 -3.78459593721148 0 0 0 0 0 0 0 0 0 0 0 0 0 0 0 0 0 0 0 0 0 0 0 0 0 0 0 0 0 0 0 0 0 0 0 0 0 0 0 0 0 0 0 0 0 0 0 0 0 0 0 0 0 0 0 0 0 0 0 0 0 0 0 0 0 0 0 0 0 0 0 0 0 0 0.156057297473796 0.0609904665420201 0 0 0 0
0 0 0.212645709652571 0 0 0.19348457811428 0.171945917542678 0.175377487796256 0.301837693996746 0.439151105840294 1.55604830555005 0.107347800270091 0.674525540778903 0.248295034666229 0.0428895517323333 0.256783330449181 0 0 0 0 0 0 0 0.0837508289079056 1.13274388984623 -0.661602811270019 0 0 0 0 0.0917112358788322 0.149530183646233 0.285419556306906 0.0323693019355855 0.0354591666645479 1.43556377675045 0.338102974733606 0.220303556848471 0.207174999473124 0.753129410749926 0 0 0 0 0 0 0 0 -2.43629716149083 -0.275631051991248 -0.620680894447056 -0.244799839305344 -1.03235035756746 0 0 0 0 0 0 0 -1.22558215202712 -1.44172448877566 -2.75568951058802 0 0.15347505627162 0.0330001124555659 0.43424164626732 0.590069592349713 0.296937012574269 0.205642509506542 0.506452510158101 0.0978821866553747 0 0 0 0 0 0 0 0 0 0 0 0 0 0 0 0 0 0 0 0 0 0 0 0.493066918587649 0.116038754053977 0.183999580321499 0.0671554988675672 0.453476022329166 0.192685364524387 0.297038952014714 0.248704606625278 0.0202056936625107 0.142638959884826 0.701235741229715 0.182376454580742 1.14697673866172 0.228671637871695 0.320663893186647 0.222135177036164 0.339987401023218 0 0 0 0 0 0 0 0 0 0 0 0 0 0 0 -0.813965269949731 -4.23995659223979 -0.275604303546869 -4.45429762633205 -0.832448290683769 -1.40257533066313 -0.437604131341344 0 0 0 0.189700586676132 0.24320242893458 0 0 0 0.285753050276185
0 0 0.265365313885936 0 0 0.92670127095222 0.123930105790853 0.0463568554000447 0.0687227443800728 0.220265143641653 0.412603394219264 0.403002861688266 0.0408985177424564 0.157596499405878 0.123058701253445 0.257331390056195 0 0 0 0 0 0 0 0.134176314059603 0.419106597376337 -2.19514419786723 0 0 0 0 0.141502408906708 0.0319984868363044 0.177739231234585 0.274867386990005 0.152620463630362 0.147890961959688 0.540686828228589 0.166746697128258 0.0492194116490541 0.109274066765355 0 0 0 0 0 0 0 0 -2.29529462271076 -2.05679368202721 -1.34648000385443 -0.728307435804885 -0.390612646547557 0 0 0 0 0 0 0 -1.75019090261316 -0.926458764360821 -6.74114473022126 0 0.0585209593085151 0.299166996421797 0.0677633314264373 0.27519441465312 0.0124271407963149 0.157404577923941 0.645093297053895 0.0777665767982926 0 0 0 0 0 0 0 0 0 0 0 0 0 0 0 0 0 0 0 0 0 0 0 0.0532905893329784 0.254098756463929 0.0485372931215906 0.16746670590938 0.358463431960483 0.425894617267533 1.27364878809711 0.116866371570474 0.104343030152205 0.177902173120821 0.0933527937979251 0.045606870059543 0.128340970635454 0.225967100164426 0.242605451955156 0.891915056683697 0.681234556681435 0 0 0 0 0 0 0 0 0 0 0 0 0 0 0 -0.87452270304067 -1.5493632935474 -0.767070209708002 -2.81595140813039 -2.35699295077504 -3.28140190203671 -0.153469424230066 0 0 0 0.499272081373249 0.1575428002026 0 0 0 0.140163199649929
0 0 0.0329718552281762 0 0 0.200418227739059 0.145909725762025 0.812457840130039 0.326287092163883 0.639727133017231 0.184645378625184 0.251731379751302 0.213816164108805 0.128061020369559 0.0368645943999579 0.229199354590264 0 0 0 0 0 0 0 0.107026176569492 0.13307137019492 0 0 0 0 0 0.299455351890331 0.174515417128382 0.391143695688269 0.0501542401881291 0.252936417970071 0.097726967173424 0.997836726274528 0.158543731362569 0.0747130245303398 0.051844240358012 0 0 0 0 0 0 0 0 -1.01690369169662 -1.73534958984244 -0.203746782413498 -0.514953417605749 -1.3954334386405 0 0 0 0 0 0 0 -0.321100575506581 -0.567227487075642 -0.873926252030519 0 1.1006027177678 0.414234103808826 0.31813665850441 0.105208544929348 0.118525567566378 0.542661216449046 0.419558650749463 0.321433077091698 0 0 0 0 0 0 0 0 0 0 0 0 0 0 0 0 0 0 0 0 0 0 0 1.77716152531534 0.0514914052768965 0.310890405326681 0.0877378456309514 0.180362599781208 0.0781611319532099 0.040157726181966 0.731712383544638 0.163888800375146 0.145587901029552 0.112388323703031 0.292261619432558 0.12906885463516 0.867543019008395 0.636731875387086 0.229122766135635 1.18111842695806 0 0 0 0 0 0 0 0 0 0 0 0 0 0 0 -0.408342678979578 -2.53077578337837 -2.53952936525388 -1.04692815966956 -0.205204651570147 -1.06259207956475 -1.20205203375876 0 0 0 0.0928570050672369 0.710017518972113 0 0 0 0.0750072232253644
0 0 0 0 0 0 0 0 0 0 0 0 0 0 0 0 0 0 0 0 0 0.125505126537385 0 0.160723864395876 0.0529807257236869 0 0 0 0 0 0 0 0 0 0 0 0 0 0 0 0 0 0 0 0 0 0 0 0 0 0 0 0 0 0 0 0 0 0 0 0.528458716639276 0 0 0 0 0 0 0 0 0 0 0 0 0 0 0 0 0 0 0 0 0 0 0 0 0 0 0 0 0 0 0 0 0 0 0.454686003998424 0.261508407845981 0.622067573648295 0.672874523852582 0.286166363483278 0.26432269653326 0.0789648984569399 0.498106943100419 0.294618738050676 0.329518327991288 0 0 0 0 0 0 0 0 0 0 0 0 0 0 0 0 0 0 0 0 0 0 0 0 0 0 0 0 0 -2.45797624423396 -1.16395806478233 0 0.192197055178229 0 0 0 0 0
0 0 0 0 0 0 0 0 0 0 0 0 0 0 0 0 0 0 0 0 0 0.145702939448703 0 0.224724353491599 0.194915535921509 0 0 0 0 0 0 0 0 0 0 0 0 0 0 0 0 0 0 0 0 0 0 0 0 0 0 0 0 0 0 0 0 0 0 0 0.714649050197685 0 0 0 0 0 0 0 0 0 0 0 0 0 0 0 0 0 0 0 0 0 0 0 0 0 0 0 0 0 0 0 0 0 0 0.0758961185466228 0.634724254958523 0.225652081349602 0.050390236748138 0.136061894671062 0.697946698293937 0.063871530149189 0.75437341001371 2.38854319641075 0.48302191072785 0 0 0 0 0 0 0 0 0 0 0 0 0 0 0 0 0 0 0 0 0 0 0 0 0 0 0 0 0 -2.43826430823877 -1.00208853683872 0 0.156415231837706 0 0 0 0 0
0 0 0 0 0 0.51202368646317 0.150820079311573 0.0776098766031155 0.169540298611389 1.87952420791175 0.128111723213229 0.218132436276986 0.058499036321314 2.48764140312792 0.144836887058145 0.348558228861732 0 0 0 0 0 0 0 0 0 0 0 0 0 0 0.187180824836492 0.0678089171178366 0.447324606798304 0.399031223938362 0.0525527701218855 0.248577991954612 0.262713363298313 0.162796894839801 0 0 0 0 0 0 0 0 0 0 0 0 0 0 0 0 0 0 0 0 0 0 0 0 0 0 0 0 0 0 0 0 0 0 0 0 0 0 0 0 0 0 0 0 0 0 0 0 0 0 0 0 0 0 0 0 0 0 0 0 0 0 0 0 0 0 0 0 0 0 0 0 0 0 0 0 0 0 0 0 0 0 0 0 0 0 0 0 0 0 0 0 0 0 0 0 0 0 0 0 0 0 0 0 0
0 0 0 0 0 0 0 0 0 0 0 0 0 0 0 0 0 0 0 0 0 0 0 0 0 0 0 0 0 0 0 0 0 0 0 0 0 0 0 0 0 0 0 0 0 0 0 0 0 0 0 0 0 0 0 0 0 0 0 1.38892853843876 0.0268753941124769 0 0 0 0 0 0 0 0 0 0 0 0 0 0 0 0 0 0 0 0 0 0 0 0 0 0 0 0 0 0 0 0 0 0 0 0 0 0 0 0 0 0 0 0 0 0 0 0 0 0 0 0 0 0 0 0 0 0 0 -0.859457311722793 -0.447067589558537 -0.601976305018596 -0.85042197245125 -2.45085670017984 -4.01316399914959 -0.405771955570733 0 0 0 0 0 0 0 -1.07469526129799 -0.59367607897191 0 0 0 0 0 0 0
0 0 0 0 0 0 0 0 0 0 0 0 0 0 0 0 0 0 0 0 0 0 0 0 0 0 0 0 0 0 0 0 0 0 0 0 0 0 0 0 0 0 0 0 0 0 0 0 0 0 0 0 0 0 0 0 0 0 0 0.206566289537782 0.479438362122626 0 0 0 0 0 0 0 0 0 0 0 0 0 0 0 0 0 0 0 0 0 0 0 0 0 0 0 0 0 0 0 0 0 0 0 0 0 0 0 0 0 0 0 0 0 0 0 0 0 0 0 0 0 0 0 0 0 0 0 -0.29169745468692 -4.81715025637272 -0.925113589446358 -3.22175053654568 -0.583919953265238 -0.479431564837399 -0.990116212838916 0 0 0 0 0 0 0 -0.952980252750114 -1.06372368392232 0 0 0 0 0 0 0
0 0 0 0 0 0 0 0 0 0 0 0 0 0 0 0 0 0 0 0 0 0 0 0 0 0 0.143226180104655 0.343109196973996 0.0269863330050584 0 0.0716891428053165 0.130215371294279 0.0471430317143897 0.0819558481563534 0.185527576557506 0.12590259136253 0.254636976245145 0.287203489788039 0.23737505670919 0.129812540456245 0.44690658736709 0.489692827946816 0.213854259412815 0 0 0 0 0 0 0 0 0 0 0 0 0 0 0 0 0 0.110989351233063 0 0 -10.9075173583308 0 0 0 0 0 0 0 0 0 0 0 0 0 0 0 0 0 0 0 0 0 0 0 0 0 0 0 0 0 0 0 0 0 0 0 0 0 0 0 0 0 0 0 0 0 0 0 0 0.135875238529162 2.05450866875985 0.0523371961517145 0.404837777046685 0.18382831709705 0 0 0 0 0 0 0 0 0 0 -3.698072878135 -1.24446334433833 -2.91259801026452 0 0 0 0 0 0 0 0 0 0 0 0 0
0 0 0 0 0 0 0 0 0 0 0 0 0 0 0 0 0 0 0 0 0 0 0 0 0 0 0.0878718485431935 0.075277513199159 0.106743846185813 0 0.421619177358541 1.00186822167071 0.111272856347718 0.853177521103239 0.617014574019533 0.184170821502245 0.1617497821951 1.5013669236649 0.018611822401491 1.02407346482193 0.0491668232811213 0.418322467943955 0.347156476037706 0 0 0 0 0 0 0 0 0 0 0 0 0 0 0 0 0 0.271207255982953 0 0 -0.304564678853403 0 0 0 0 0 0 0 0 0 0 0 0 0 0 0 0 0 0 0 0 0 0 0 0 0 0 0 0 0 0 0 0 0 0 0 0 0 0 0 0 0 0 0 0 0 0 0 0 0.157628300876401 0.0805526373078746 0.272550809531038 0.163860555511602 0.0850212764492785 0 0 0 0 0 0 0 0 0 0 -1.46297052486521 -0.205650882485714 -2.32485758460022 0 0 0 0 0 0 0 0 0 0 0 0 0
0 0 0 0 0 0 0 0 0 0 0 0 0 0 0 0 0 0 0 0 0 0 0 0 0 0 0.0554155876676428 0.870216547705345 0.21782424838016 0 0.425752902781039 0.186136628763556 0.308972320621399 0.162553733537911 0.230286803846515 0.126885025971057 0.126589695835246 0.314251410321247 0.124121968416353 0.860757703888192 0.127208856155417 0.271274042660053 0.0431786001339843 0 0 0 0 0 0 0 0 0 0 0 0 0 0 0 0 0 0.389192914113795 0 0 -0.237934791002378 0 0 0 0 0 0 0 0 0 0 0 0 0 0 0 0 0 0 0 0 0 0 0 0 0 0 0 0 0 0 0 0 0 0 0 0 0 0 0 0 0 0 0 0 0 0 0 0 0.264129215436927 0.435167276756756 0.6233831402522 0.299196909971331 0.276909217131541 0 0 0 0 0 0 0 0 0 0 -1.3316118920246 -0.821535778397923 -5.98802229131699 0 0 0 0 0 0 0 0 0 0 0 0 0
0 0 0 0 0 0.137647073398975 0.114417864664098 0.109569501522998 0.0814333730978214 0.315538025595853 0.190785881033969 0.961029644028316 0.218020835151677 0.0344299837754588 0.381926528715409 0.639105574105753 0 0 0 0 0 0 0 0 0 0 0 0 0 0.221137038709433 0.282964642462632 0.20070771533855 0.604297553125212 0.498389661753604 0.651388580670505 0.215565083213877 0.0178077383448326 0.191263040626689 0.110221578051415 1.30593111085311 0.049234275129745 0.152704847783729 0.102583604882776 0 0 0 0 0 0 0 0 0 0 0 0 0 0 0 0 0 0.629207757311434 0 0 0 0 0 0 0 0 0 0 0 0 0 0 0 0 0 0 0 0 0 0 0 0 0 0 0 0 0 0 0 0 0 0 0.00760545049532265 0.245357080960749 0.0990641033497456 0.0621837313818703 0.362761857871072 0.0710533591916672 0.0989432665447102 0.0369757758935913 0.0294652498662821 0.218590198387916 0.314674475855624 0.149266238673837 0.197390355631264 0.0773815503122422 0.11310453428977 0.0546187551061912 0.402198934370516 0 0 0 0 0 0 0 0 0 0 0 0 0 0 0 -2.67486350569668 -0.823351532238511 -7.91188975864958 -0.149651456558563 -2.08885218625051 -0.865148201984135 -0.954372496966272 0 0 0 0 0 0 0 0.0997410581426406 0
0 0 0 0 0 0.102802120564754 0.465805094083889 0.327054663280797 1.00415978114928 0.687000651626482 0.067509773893028 0.164510150070084 0.295681662406643 0.288959086485651 0.286856797443908 0.557070026603806 0 0 0 0 0 0 0 0 0 0 0 0 0 0.0667071543239318 0.0250991102710109 0.918092278444905 0.167714856395165 0.024976930311758 0.0842762589239845 0.196674674963026 0.800733246822393 0.42544855036634 0.17190571655685 0.70071612896515 0.19540653681585 0.0758504568115788 0.272015952223411 0 0 0 0 0 0 0 0 0 0 0 0 0 0 0 0 0 0.140444679519981 0 0 0 0 0 0 0 0 0 0 0 0 0 0 0 0 0 0 0 0 0 0 0 0 0 0 0 0 0 0 0 0 0 0 0.167927567916778 0.108994817301007 0.316853431885523 0.632679155856219 0.255119516378866 0.307036631719294 0.371193605522823 2.07132092604299 0.214014360949263 0.0580620058807679 0.845999242942564 1.32812634844776 0.155265346114711 0.0339023638034675 0.208822024805512 0.0812037148000199 0.243863700153568 0 0 0 0 0 0 0 0 0 0 0 0 0 0 0 -0.787052073951495 -5.98074305570518 -0.433331730125703 -0.668245118808446 -2.86015561263623 -2.75242095640204 -2.86935261993265 0 0 0 0 0 0 0 0.205461042991272 0
0 0 0.108238935875938 0 0 0.108378886091266 0.0261941231651653 0.119418701382173 1.07536256705907 0.0583327461538945 0.336661342335637 0.0430688924884182 0.058502301397639 0.184094228916347 0.0935936110414907 0.610178300918847 0 0 0 0 0 0 0 0 0 0 0 0 0 0 0.0540126913257623 0.839483688680109 0.544621075086678 0.0269184983842811 0.0632627522163504 0.0619978756916312 1.18381839420033 0.0507540677826233 0 0 0 0 0 0 0 0 0 0 0 0 0 0 0 0 0 0 0 0 0 0 0 0 0 -1.02908896822292 0 0 0 0 0 0 0 0 0 0 0 0 0 0 0 0 0 0 0 0 0 0 0 0 0 0 0 0 0 0 0 0 0 0 0 0 0 0 0 0 0 0 0 0 0 0 0 0 0.0899659885636169 0.0969031452430895 0.243919413601215 0.323187366307286 0.517560033395802 0 0 0 -5.96500407274088 -0.61620263404085 -0.556903949614406 -1.59569517733401 -0.246162511181543 -0.448727765907365 -0.171092926719239 -0.426769934706284 -1.54637531683129 -0.837244963859559 -2.61891945891959 -9.5631864367654 -1.27924615289761 -2.02253063472023 -0.905444571428275 -0.123000060762587 0 0 0 0.440337769123226 0.0545671163195527 0 0.319118532790734
0 0 0.526344424141073 0 0 0.454920213330944 0.247418343575107 0.363085697932554 0.163672481503107 0.959892958575935 0.222052501395145 0.16019840277547 0.211351955782581 0.20922658488235 0.0839837915287437 0.186453757147616 0 0 0 0 0 0 0 0 0 0 0 0 0 0 0.0912749496531648 0.363109015325495 0.60555594779763 0.164725219283033 0.326394867527666 0.392903125761726 0.114412731211818 0.149449371981809 0 0 0 0 0 0 0 0 0 0 0 0 0 0 0 0 0 0 0 0 0 0.573384569852773 0.0528412423758374 0 0 -1.45327790361748 0 0 0 0 0 0 0 0 0 0 0 0 0 0 0 0 0 0 0 0 0 0 0 0 0 0 0 0 0 0 0 0 0 0 0 0 0 0 0 0 0 0 0 0 0 0 0 0 0.136365181745434 0.497772732936111 0.375267754123827 0.139782744649672 0.0992790220381496 0 0 0 0 0 0 0 0 0 0 -2.5260322029651 -0.138422063763631 -0.379213167760179 0 0 0 0 0 0 0 0 0 0.498020511297338 0 0 0.109587257904871
0 0 0.243523230516982 0 0 0.0923354550260034 0.308570040907333 0.0827365116116369 0.331627141648881 0.179444623701854 0.500158883698464 0.304931929463871 0.0783786795600879 0.249195295993136 0.666580610394792 0.787190188308763 0 0 0 0 0 0 0 0 0 0 0 0 0 0 0.147366662429278 0.136742912641601 0.287301878725692 0.155173660750466 0.519354333972434 0.0619781135170331 0.280565891693043 0.7340025494548 0 0 0 0 0 0 0 0 0 0 0 0 0 0 0 0 0 0 0 0 0 0.0679850146089713 0.0373776666196017 0 0 -0.472781038477873 0 0 0 0 0 0 0 0 0 0 0 0 0 0 0 0 0 0 0 0 0 0 0 0 0 0 0 0 0 0 0 0 0 0 0 0 0 0 0 0 0 0 0 0 0 0 0 0 0.106904174380995 0.12212093352555 0.21342577386331 0.140503531901977 1.39066568893992 0 0 0 0 0 0 0 0 0 0 -1.54677295483215 -1.01010914971366 -0.186372301732672 0 0 0 0 0 0 0 0 0 0.348469067168921 0 0 0.297652458792968
0 0 0.269125284675563 0 0 0.231164634101984 0.0685280810475604 0.0478402323049418 0.162837693990622 0.0552451571567506 0.257258019066353 0.184589462647124 0.254505159743532 0.159846682870186 0.114051525695425 0.0766317779689058 0 0 0 0 0 0 0 0 0 0 0 0 0 0 0.185048780900078 0.154816778062518 0.133425811211543 0.220047294274747 0.107983685363465 0.79423087125913 0.319361351588149 0.187827916845632 0 0 0 0 0 0 0 0 0 0 0 0 0 0 0 0 0 0 0 0 0 0.918494268356084 0.663867258927744 0 0 -0.458712456583388 0 0 0 0 0 0 0 0 0 0 0 0 0 0 0 0 0 0 0 0 0 0 0 0 0 0 0 0 0 0 0 0 0 0 0 0 0 0 0 0 0 0 0 0 0 0 0 0 0.0746703484538554 0.124195143433588 0.195501533798152 0.019928915846524 0.139640609260161 0 0 0 0 0 0 0 0 0 0 -1.57187692089736 -0.452875823479596 -1.7138721288578 0 0 0 0 0 0 0 0 0 1.07676861264472 0 0 0.0809966462801666
0 0 0.276949937587459 0 0 0.142587724605785 0.100659138328391 0.755282827804212 1.2159598992916 0.365941849040371 0.246949451786513 0.558875344016469 0.134495130010733 0.168923014724255 0.0426316842843774 0.768437070755486 1.62807412520147 0.115360035767349 0.379868077608356 0.142077738680488 0.59214345107017 0 0 0.459049946092087 0.113734833854401 0 0.0535960137496893 0.479984847157271 0.290864300113165 0 0.697668368992136 0.214395867959938 0.460954780437849 0.0959803650392968 1.05788589985494 0.774930888526463 0.0800376579403883 0.156003100102705 0 0 0 0 0 0 0 0 0 0 0 0 0 0 0 0 0 0 0 0 0 0 0 0 0 0 0 0 0 0 0 0 0 0 0 0 0 0 0 0 0 0 0 0 0 0 0 0 0 0 0 0 0 0 0 0 0 0 0 0 0 0 0 0 0 0 0 0 0 0 0 0 0 0 0.730479476609769 0.205150833210766 0.144179522802675 0.0623320983516817 0.228622936458094 0 0 0 0 0 0 0 0 0 0 -5.0788920827133 -1.97684142692624 -0.430369049484946 0 0 0 0 0 0 0 0 0 0 0 0 0
0 0 0.738910618462881 0 0 0.331744618783909 0.248406450924602 0.0238571377752628 0.478635407743505 0.095168505533895 0.153964761647205 0.323843334178239 0.430658265751405 0.316423501473752 0.303370122518249 0.311416597575998 0.178598800224217 0.0447541522118151 0.0743946558366662 0.361559342131473 0.0567191901612144 0 0 0.129272260111458 0.338974941298744 0 0.219710925434245 0.400127861011387 0.148274692534952 0 0.2986835860244 0.205279266140094 0.0797602517317933 0.0665564431072638 0.256872305303437 0.11274983530237 0.576926276241501 0.370398908589843 0 0 0 0 0 0 0 0 0 0 0 0 0 0 0 0 0 0 0 0 0 0 0 0 0 0 0 0 0 0 0 0 0 0 0 0 0 0 0 0 0 0 0 0 0 0 0 0 0 0 0 0 0 0 0 0 0 0 0 0 0 0 0 0 0 0 0 0 0 0 0 0 0 0 0.0230476595785818 0.0471792837220407 0.362326469332642 0.0712791976025213 0.0315974704297136 0 0 0 0 0 0 0 0 0 0 -1.64172868653486 -1.18933137030491 -1.62985491121445 0 0 0 0 0 0 0 0 0 0 0 0 0
0 0 0.101768915493679 0 0 0.0642582891887101 1.05933896200489 0.0438766890846522 0.0381357935979362 0.161401055137112 0.139086372979427 0.0690391056032288 0.874609325772065 0.0438328548114488 1.61659019596127 0.0859427679229976 0 0 0 0 0 0 0 0 0 0 0 0 0 0 1.19409171693088 1.01755935843405 1.39870755659304 0.919415120001484 0.0443862505086612 0.145697941394372 0.0660470728711065 0.209876254128234 0 0 0 0 0 0 0 0 -7.08837836835017 -1.02466442947134 0 0 0 0 0 0 -2.79498152196906 -0.355084540071619 -4.56115610801153 0 0 0 0 0 0 -0.634672001552213 0 0 0 0 0 0 0 0 0 0 0 0 0 0 0 0 0 0 0 0 0 0 0 0 0 0 0 0 0 0 0 0.421023390728138 0.279808597154608 0.0639881430457381 0.140660313025863 0.0387729773870045 0.0644952405533557 0.0817480056462551 0.172711430253813 0.293278532141752 0.302428004573792 0.435633066774512 0.333320467010762 0.272338403874012 0.51122978980021 0.109871830314392 0.647075070052301 0.103728426899742 0.0632324467312602 0.532144632854847 1.66355032807758 0.578299395134511 0.115826323364927 0 0 0 0 0 0 0 0 0 0 -0.542744022507483 -1.15928604789071 -0.50291289166328 0 0 0 0 0 0 0 0 0 0 0.275378675167969 0 1.50148580853488
0 0 0.383202765671955 0 0 0.03747094964567 1.14743576710964 0.206633023151919 0.46383999673103 0.593913605832009 0.350889120766678 1.67851951121197 0.0900492033025255 0.0893087401603514 0.197336469732792 0.0362153345184517 0 0 0 0 0 0 0 0 0 0 0 0 0 0 0.248851430524647 0.144245633343438 0.0707901845798823 0.27720750700063 0.465748741829412 0.159058652530213 0.328961700459756 0.360504889295104 0 0 0.248797027698451 0.339859991217339 0.0604896375904055 -2.70448849260596 -3.50808813573011 0 -0.145328713065661 -2.54413233799901 -0.598576648973864 -1.30076207291939 -2.02560939086221 -2.97274620537336 -0.670080609030355 0 -0.245001472504398 -0.186938635998611 -3.1261528673404 0 0 0 0 0 0 0 0 0 0 0 0 0 0 0 0 0 0 0 0 0 0 0 0 0 0 0 0 0 0 0 0 0 0 0 0 0 0 0.0337414804292177 0.230665495852189 0.037659897338743 0.079217446380175 0.518301707535969 0.109405651167003 0.125280785120922 2.30606094857284 0.139754929955595 0.326859684502197 0.162539105774272 0.130557673697339 0.100215285230822 0.242707013597983 0.0770377980914547 0.151019270021448 0.0492102087139481 0.749600919279735 0.219522572281231 0.040273370489384 0.0479009482260962 0.167014229477718 0 0 0 -0.91750216682274 -1.99793202647846 -5.56077241971655 -0.762480025081664 -0.670381317468938 -1.02542795522515 -0.602557014337349 -2.5313183433815 -5.28430594525809 -0.198090339749585 0 0 0 0 0 0 0 0 0 0 0.0629913510783373 0 0
0 0 0.198856096853842 0 0 0.163586582190149 0.564500851376652 0.260399348043007 0.0386571188020567 0.22595271252137 0.546517753600181 0.299495433329778 0.141298834136183 0.218981887913067 0.0335528662314227 0.156153309937728 0 0 0 0 0 0 0 0 0 0 0.126516868954307 0.580699168768939 0.130179755026853 0 0.0756578308091277 0.26775826464146 0.12765509659174 0.135626015598006 0.0990469149334724 0.237293531365832 1.7051499521893 0.26491509525299 1.01068195599781 0.177289215899428 0.274727044904757 0.181428140891529 0.114002575061367 0 0 0 0 0 0 0 0 0 0 0 0 0 0 0 0 0 0 0 0 -2.26079947315095 0 0 0 0 0 0 0 0 0 0 0 0 0 0 0 0 0 0 0 0 0 0 0 0 0 0 0 0 0 0 0 0.0608356013874142 0.134036326734454 0.220341030009661 0.376300958302201 0.347087882175381 0.0981599028965744 0.0758120910955176 0.262223472671324 0.445013320469292 0.602888737604678 0.321521783192744 0.294651432393822 0.17205450854377 0.471235785754782 0.176473178077858 0 0 0.113729294840346 0.565439268192076 0.610535979722631 0.179369035964057 0.485375843045739 0 0 0 0 0 0 0 0 0 0 0 0 0 0 0 0 0 0 0 0 0 0 0 0.0655240861298007 0 0
0 0 0.20387030999994 0 0 0.295989453636172 0.0426759997440187 0.143878179358199 0.144641674855319 0.117217305752122 1.25051908764259 1.01601675080956 0.595796828756976 0.107941618075282 0.205323492889568 0.520350827243785 0 0 0 0 0 0 0 0 0 0 0.389811658571847 0.759691161738941 0.234626465861349 0 0.151535495292073 0.195154866953598 0.335724389334219 0.732418601501131 0.624570299007129 0.185821114233197 0.301054564625607 0.683608361479413 0.66696800334922 0.724773381217443 0.528919488378551 1.41538848376696 0.167172007673877 0 0 0 0 0 0 0 0 0 0 0 0 0 0 0 0 0 0 0 0 -4.29744083660759 0 0 0 0 0 0 0 0 0 0 0 0 0 0 0 0 0 0 0 0 0 0 0 0 0 0 0 0 0 0 0 0.489314625246876 0.107312495166486 0.197266681859608 0.245852837408236 0.104847244821601 0.0982607470240263 0.108144467974577 0.0635532333180934 0.372821021586817 0.171717623496921 0.110204533553889 0.364859421526014 0.0990585621762995 0.314255685426979 0.638666527504023 0 0 0.910366968072275 0.231858653855026 0.279728535791111 0.0695656635969112 0.209725206832296 0 0 0 0 0 0 0 0 0 0 0 0 0 0 0 0 0 0 0 0 0 0 0 0.0420061011207657 0 0
0 0 0 0 0 0.0584697853392527 0.504457840467464 0.0422096875282888 0.193904305772565 0.17960991677759 0.161088619191408 0.199795519301168 0.318159913182836 0.259115991960953 0.038990234593929 0.0935760714880919 0 0 0 0 0 0.0915228313993207 0 0.0534670047418151 0.667733190850893 0 0 0 0 0 0.0595771844199254 0.418560691144187 0.211822030502228 0.321806539432893 0.259686188710859 0.0662692506757313 0.0489097565390684 0.0465446934730631 0 0 0 0 0 0 0 0 0 0 2.28556552604823 0.0616780618186058 0.0483216929757531 0 0 0.227933245935333 0.293398449899536 0.0881295635018203 0.0978924414280237 0 0 0.127497245727606 0 0.428790189297675 0.876115879108549 0 0 0 0 0 0 0 0 0 0 0 0 0 0 0 0 0 0 0 0 0 0 0 0 0 0 0 0 0 0 0 0 2.40236876797703 0.243544758155389 0.10245887526053 0.470649536806731 0.0913709115564019 0.181509917626872 0.243583484076811 0.071048216333306 0.513592731042658 0.147804673304213 0.174508494554433 0.553139015228168 0.300962123700017 0.138183807166544 0.189691621088579 0.841138812203595 0.376149092387981 0 0 0 0 0 0 0 0 0 0 0 0 0 0 0 0 0 0 0 0 0 0 0 0 0 0 0 0 0 0 0
0.179477983916755 0.687611402646601 0.10319989253791 0 0 0 0 0 0 0 0 0 0 0 0 0 0 0 0 0 0 0 0 -0.510309490039136 -2.91885108017813 0 0 0 0 0 0 0 0 0 0 0 0 0 0 0 -0.720969385595603 -0.305568375145931 -5.53755780632878 0 0 0 0 0 0 0 0 0 0 0 0 0 0 0 0 0 0 0 0 0 0 0 0 0 0 0 0 0 -0.873122488885695 -3.29717895115335 -1.20806764587469 -1.08152834536653 -6.48111993353571 -0.918428381049935 -0.375332941788528 -4.03285662132811 -1.79878590743023 -0.808758307064833 -1.37440974146197 -4.67726428003199 -0.143569102503859 -1.97615763150552 -0.594497169844531 -0.636230182204569 0 0 0 0 0 0 0 0 0 0 0 0 0 0 0 0 0 -0.468458222518737 -2.16962630487555 -1.0120663711058 -2.20056102707564 -0.81083635002546 0 0 0 0 0 0 0 -0.675355142227767 -0.59797775177416 -3.69439250931828 0 0 0 0 0 0 0 0 0 0 0 0 0 0 0 0 -2.84160971151002 0 0 0 0.618260337243203 0 0.309712994740029
0.924128342380419 0.443255354128953 0.0635192300077915 0 0 0 0 0 0 0 0 0 0 0 0 0 0 0 0 0 0 0 0 -0.141278480099557 -0.898406132769825 0 0 0 0 0 0 0 0 0 0 0 0 0 0 0 -0.166356083797681 -1.48502567323164 -2.09665867228216 0 0 0 0 0 0 0 0 0 0 0 0 0 0 0 0 0 0 0 0 0 0 0 0 0 0 0 0 0 -0.376435080916715 -3.9318389418731 -3.52492607978131 -6.35639271497854 -0.540805366332222 -0.557310698156168 -1.40920659755959 -3.75251944786152 -0.869852869356951 -0.475104707352603 -0.0962218644667532 -0.554297919055295 -1.56758012792987 -0.466749899866823 -1.64234695994849 -0.15767100846543 0 0 0 0 0 0 0 0 0 0 0 0 0 0 0 0 0 -0.391007677257695 -1.42030799578397 -3.60454747102289 -0.149510050283273 -0.516391790284338 0 0 0 0 0 0 0 -0.421272983259501 -0.379821978652903 -2.72048719690114 0 0 0 0 0 0 0 0 0 0 0 0 0 0 0 0 -0.748901212011742 0 0 0 0.055115845716931 0 0.14053532966861
0.286229367632006 0.346625358462754 0.630431888496885 0 0 0 0 0 0 0 0 0 0 0 0 0 0 0 0 0 0 0 0 -0.235534355833909 -2.61736968266162 0 0 0 0 0 0 0 0 0 0 0 0 0 0 0 -2.12379068468383 -0.337563087739893 -1.46750914576818 0 0 0 0 0 0 0 0 0 0 0 0 0 0 0 0 0 0 0 0 0 0 0 0 0 0 0 0 0 -5.43671830331603 -0.71347752293859 -2.7817780997413 -0.570864822216215 -2.47376375424855 -0.63298712795705 -0.363448257905952 -0.148668424191977 -0.694227398969181 -1.32817846790797 -1.08208536428664 -2.11672737857018 -0.493497278671662 -3.61800732365988 -1.25093931706372 -1.19359006988287 0 0 0 0 0 0 0 0 0 0 0 0 0 0 0 0 0 -0.553904578705118 -1.07146649192447 -1.09784557531907 -0.622215364583978 -0.136748179778875 0 0 0 0 0 0 0 -0.799305527817118 -0.807588828741992 -0.587995346461958 0 0 0 0 0 0 0 0 0 0 0 0 0 0 0 0 -0.41770480413718 0 0 0 0.599791096943848 0 0.673399665934261
0.0519409898708989 1.6067262481303 0.962375581667086 0 0 0 0 0 0 0 0 0 0 0 0 0 0 0 0 0 0 0 0 -2.50274029924238 -0.354526177366405 0 0 0 0 0 0 0 0 0 0 0 0 0 0 0 -3.01807300604023 -1.49551112625564 -0.508619126811077 0 0 0 0 0 0 0 0 0 0 0 0 0 0 0 0 0 0 0 0 0 0 0 0 0 0 0 0 0 -0.462593250063974 -0.27205672743183 -1.38032058552659 -0.701308952943746 -0.536480495840101 -0.868782041225943 -0.726004276189037 -0.170694540548145 -0.85539042157599 -0.634762473646824 -5.24934685008761 -0.423211267607272 -1.18192408215739 -0.108666035661344 -3.48306816611841 -2.60110940588082 0 0 0 0 0 0 0 0 0 0 0 0 0 0 0 0 0 -0.56753098000998 -0.214317376109764 -0.876924158123189 -0.25615614035053 -0.611569559897541 0 0 0 0 0 0 0 -0.414256394064721 -1.60245187195034 -1.71846936752655 0 0 0 0 0 0 0 0 0 0 0 0 0 0 0 0 -0.761232587930865 0 0 0 0.376924060108136 0 0.065706665747654
0.0644511561972078 0.176070499946713 0.448310513002319 0 0 0 0 0 0 0 0 0 0 0 0 0 0 0 0 0 0 0 0 -0.453166612608242 -0.769931930528767 0 0 0 0 0 0 0 0 0 0 0 0 0 0 0 -1.54311265555779 -0.0639327908802616 -0.57302190870416 0 0 0 0 0 0 0 0 0 0 0 0 0 0 0 0 0 0 0 0 0 0 0 0 0 0 0 0 0 -2.83659867436954 -0.822367770297679 -0.708779711409495 -0.360892198203715 -0.63993652538168 -2.55734344469303 -0.671496130433429 -0.404405421973063 -0.283128366560434 -0.744224177314275 -1.45413188044302 -0.22291284729627 -4.20131436653613 -0.454306271579804 -1.75524265911779 -1.12720191930779 0 0 0 0 0 0 0 0 0 0 0 0 0 0 0 0 0 -1.63004222426533 -0.159969494857381 -0.577708270045914 -0.508053652495757 -1.12223974211836 0 0 0 0 0 0 0 -0.618624038010446 -3.55300600778064 -0.67420142369393 0 0 0 0 0 0 0 0 0 0 0 0 0 0 0 0 -4.54624684871559 0 0 0 0.121620007576383 0 0.362211348876457
0.0856137233641674 0.670933206748892 0.166390830553794 0 0 0 0 0 0 0 0 0 0 0 0 0 0 0 0 0 0 0 0 -0.263193410072195 -3.43482743404339 0 0 0 0 0 0 0 0 0 0 0 0 0 0 0 -1.04535167769129 -0.822083258229889 -2.79947254852225 0 0 0 0 0 0 0 0 0 0 0 0 0 0 0 0 0 0 0 0 0 0 0 0 0 0 0 0 0 -1.64236718075591 -0.302016539492908 -1.10963474077032 -1.33456489067844 -3.02437167971251 -1.90741225209144 -1.73579265700463 -0.585421925509102 -0.80624491563801 -1.21687018329567 -1.73132947320193 -1.30203404563405 -1.05470861101881 -1.18841968243661 -0.816486742823934 -2.97636689221656 0 0 0 0 0 0 0 0 0 0 0 0 0 0 0 0 0 -3.1532137576133 -0.862822224287727 -0.646934298666376 -0.241768872728972 -1.16978701457265 0 0 0 0 0 0 0 -0.924586692560318 -0.568859736547468 -1.55791943452354 0 0 0 0 0 0 0 0 0 0 0 0 0 0 0 0 -1.20718821893195 0 0 0 0.258912779311035 0 0.0183314047547574
0.426907019666478 0.124436358700259 0.114426615095184 0 0 0 0 0 0 0 0 0 0 0 0 0 0 0 0 0 0 0 0 -1.81158254969273 -1.32338014359326 0 0 0 0 0 0 0 0 0 0 0 0 0 0 0 -2.46655164616038 -3.33701277155241 -2.11318568216364 0 0 0 0 0 0 0 0 0 0 0 0 0 0 0 0 0 0 0 0 0 0 0 0 0 0 0 0 0 -0.669179529676595 -4.93256353407359 -0.787913475634337 -0.896484403728589 -2.66268451681073 -0.568660108323856 -1.23917062266161 -0.53061132961628 -1.21531017419032 -0.360052699876981 -3.63815108571001 -1.99700005447713 -0.477622632340772 -5.73524816006645 -0.708221391175777 -3.77107818855538 0 0 0 0 0 0 0 0 0 0 0 0 0 0 0 0 0 -2.34931010516189 -4.44447882807581 -1.43057840037102 -2.99658596475393 -2.41272562185471 0 0 0 0 0 0 0 -1.7077105505736 -0.649022494185324 -1.5658429936057 0 0 0 0 0 0 0 0 0 0 0 0 0 0 0 0 -0.407227496664463 0 0 0 0.149710597050985 0 2.37051721917108
0.213746451946258 0.518806193585614 0.0610405582808098 0 0 0 0 0 0 0 0 0 0 0 0 0 0 0 0 0 0 0 0 -3.3459599837154 -0.6887050410626 0 0 0 0 0 0 0 0 0 0 0 0 0 0 0 -0.447037335462888 -0.427107007679115 -1.63592570605309 0 0 0 0 0 0 0 0 0 0 0 0 0 0 0 0 0 0 0 0 0 0 0 0 0 0 0 0 0 -1.63468982694535 -1.79649631608244 -0.265719622050349 -0.814423954988206 -0.737716351388591 -0.366100956724057 -0.37442673745384 -5.80142041772961 -1.43864409024558 -1.09349858728019 -3.50431393527201 -0.3035013375339 -0.546048218252411 -2.38785991993339 -0.69439665472425 -0.386896196777707 0 0 0 0 0 0 0 0 0 0 0 0 0 0 0 0 0 -3.20694270570832 -0.684109215977941 -3.79080211538592 -0.0933055838665075 -0.318405017343406 0 0 0 0 0 0 0 -1.19621553571193 -0.149962043962197 -0.941724515529646 0 0 0 0 0 0 0 0 0 0 0 0 0 0 0 0 -1.64584682833918 0 0 0 0.242439147233761 0 0.125417637661358
0 0 0 0 0 0 0 0 0 0 0 0 0 0 0 0 0 0 0 0 0 0 0 0 0 0 0 0 0 0 0 0 0 0 0 0 0 0 0 0 0 0 0 0 0 0 0 0 0 0 0 0 0 0 0 0 0 0 0 0 0 0 0 0 0.182733117891613 0.0729656791510893 1.11641211951853 0.0956869337380871 0.571587729193027 0.315838227593826 0.131323581979996 0.358498869616572 0 0 0 0 0 0 0 0 0 0 0 0 0 0 0 0 0 0 0 0 0.234347643563773 0.127008260314723 0.104449680635956 0 0 0 0 0 0 0 0 0 0 0 0 0 0 0 0 0 0 0 0 0 0 0 0 0 0 0 0 0 0 0 0 0 0 0 0 0 0 0 0 0 0 0 0 0 0 0 0.0671031024058866
0 0 0 0 0 0 0 0 0 0 0 0 0 0 0 0 0 0 0 0 0 0 0 0 0 0 0 0 0 0 0 0 0 0 0 0 0 0 0 0 0 0 0 0 0 0 0 0 0 0 0 0 0 0 0 0 0 0 0 0 0 0 0 0 0.651559411972656 0.814207674245988 0.153201771216378 0.0538536975444695 0.161846210591698 0.0621445159435427 1.02729672844156 0.373918216730457 0 0 0 0 0 0 0 0 0 0 0 0 0 0 0 0 0 0 0 0 0.0671859630735922 0.159813341169605 0.47522859005716 0 0 0 0 0 0 0 0 0 0 0 0 0 0 0 0 0 0 0 0 0 0 0 0 0 0 0 0 0 0 0 0 0 0 0 0 0 0 0 0 0 0 0 0 0 0 0 0.714556762629707
0 0 0 0 0 0 0 0 0 0 0 0 0 0 0 0 0 0 0 0 0 0 0 0 0 0 0 0 0 0 0 0 0 0 0 0 0 0 0 0 0 0 0 0 0 0 0 0 0 0 0 0 0 0 0 0 0 0 0 0 0 0 0 0 0.261523617062146 0.703957969212137 0.554429548335534 0.290169074568312 0.144989131111378 0.240750851908449 0.163914645304881 0.050406618456074 0 0 0 0 0 0 0 0 0 0 0 0 0 0 0 0 0 0 0 0 0.174224801419557 0.500618349089174 0.957594828741659 0 0 0 0 0 0 0 0 0 0 0 0 0 0 0 0 0 0 0 0 0 0 0 0 0 0 0 0 0 0 0 0 0 0 0 0 0 0 0 0 0 0 0 0 0 0 0 0.058913063771687
0 0 0 0 0 0 0 0 0 0 0 0 0 0 0 0 0 0 0 0 0 0 0 0 0 0 0 0 0 0 0 0 0 0 0 0 0 0 0 0 0 0 0 0 0 0 0 0 0 0 0 0 0 0 0 0 0 0 0 0 0 0 0 0 0.225700161672626 1.1757591602234 0.121061466938778 0.143955379294051 0.0745335905267716 0.261828999354739 0.180458330772947 0.154746444736529 0 0 0 0 0 0 0 0 0 0 0 0 0 0 0 0 0 0 0 0 0.722169235810867 0.0430336126775651 0.604220978819272 0 0 0 0 0 0 0 0 0 0 0 0 0 0 0 0 0 0 0 0 0 0 0 0 0 0 0 0 0 0 0 0 0 0 0 0 0 0 0 0 0 0 0 0 0 0 0 0.191426000399269
0 0 0 0 0 0 0 0 0 0 0 0 0 0 0 0 0 0 0 0 0 0 0 0 0 0 0 0 0 0 0 0 0 0 0 0 0 0 0 0 0 0 0 0 0 0 0 0 0 0 0 0 0 0 0 0 0 0 0 0 0 0 0 0 1.32487946499367 0.10495146264299 0.478267372140385 0.105938603027457 0.135750121109675 0.625348693516129 0.572984181425865 0.151670928984119 0 0 0 0 0 0 0 0 0 0 0 0 0 0 0 0 0 0 0 0 0.0550296615878811 0.282793641537338 0.608851769122604 0 0 0 0 0 0 0 0 0 0 0 0 0 0 0 0 0 0 0 0 0 0 0 0 0 0 0 0 0 0 0 0 0 0 0 0 0 0 0 0 0 0 0 0 0 0 0 0.193184547478554
0 0 0 0 0 0 0 0 0 0 0 0 0 0 0 0 0 0 0 0 0 0 0 0 0 0 0 0 0 0 0 0 0 0 0 0 0 0 0 0 0 0 0 0 0 0 0 0 0 0 0 0 0 0 0 0 0 0 0 0 0 0 0 0 0.174947279343733 0.117263725272759 0.125637223027827 0.182439880678306 0.47783219615455 0.374000943583249 0.11283156394127 0.075558124591824 0 0 0 0 0 0 0 0 0 0 0 0 0 0 0 0 0 0 0 0 0.248263241608972 0.2214608571043 0.054008581784737 0 0 0 0 0 0 0 0 0 0 0 0 0 0 0 0 0 0 0 0 0 0 0 0 0 0 0 0 0 0 0 0 0 0 0 0 0 0 0 0 0 0 0 0 0 0 0 0.170474843109894
0 0 0 0 0 0 0 0 0 0 0 0 0 0 0 0 0 0 0 0 0 0 0 0 0 0 0 0 0 0 0 0 0 0 0 0 0 0 0 0 0 0 0 0 0 0 0 0 0 0 0 0 0 0 0 0 0 0 0 0 0 0 0 0 0.0802649649899625 0.298882915560843 0.0729142494523957 0.146018918197609 0.126996051890207 0.353790790763642 0.246633094372257 0.0765693882430993 0 0 0 0 0 0 0 0 0 0 0 0 0 0 0 0 0 0 0 0 0.232152204925601 0.546908539886151 0.197565187601508 0 0 0 0 0 0 0 0 0 0 0 0 0 0 0 0 0 0 0 0 0 0 0 0 0 0 0 0 0 0 0 0 0 0 0 0 0 0 0 0 0 0 0 0 0 0 0 0.140525378771308
0 0 0 0 0 0 0 0 0 0 0 0 0 0 0 0 0 0 0 0 0 0 0 0 0 0 0 0 0 0 0 0 0 0 0 0 0 0 0 0 0 0 0 0 0 0 0 0 0 0 0 0 0 0 0 0 0 0 0 0 0 0 0 0 0.8985483150074 0.720002420772979 0.0315325797696904 0.0340655445677427 0.0813106719220461 0.105750222440606 0.111415116511268 1.19440486774316 0 0 0 0 0 0 0 0 0 0 0 0 0 0 0 0 0 0 0 0 0.0570782540296703 0.876802415178885 0.0697541765970433 0 0 0 0 0 0 0 0 0 0 0 0 0 0 0 0 0 0 0 0 0 0 0 0 0 0 0 0 0 0 0 0 0 0 0 0 0 0 0 0 0 0 0 0 0 0 0 0.294062432917204
0 0 0 0 0 0 0 0 0 0 0 0 0 0 0 0 0 0 0 0 0 0 0 0 0 0 0 0 0 0 0 0 0 0 0 0 0 0 0 0 0 0 0 0 0 0 0 0 0 0 0 0 0 0 0 0 0 0 0 0 0 0 0 0 0.367747854239496 0.177200285144156 0.147877159960892 0.168895440207739 0.0593453179991327 0.144333482170654 0.267360935327282 0.274157436612386 0 0 0 0 0 0 0 0 0 0 0 0 0 0 0 0 0 0 0 0 0.0462077490634403 0.0405952111702118 0.416007064882197 0 0 0 0 0 0 0 0 0 0 0 0 0 0 0 0 0 0 0 0 0 0 0 0 0 0 0 0 0 0 0 0 0 0 0 0 0 0 0 0 0 0 0 0 0 0 0 0.792036309545035
0 0 0 0 0 0 0 0 0 0 0 0 0 0 0 0 0 0 0 0 0 0 0 0 0 0 0 0 0 0 0 0 0 0 0 0 0 0 0 0 0 0 0 0 0 0 0 0 0 0 0 0 0 0 0 0 0 0 0 0 0 0 0 0 0.160057331031674 0.094122828669198 0.256509568999681 0.126117478243044 0.152258989817267 0.25549150105342 0.0743758985738217 0.228747580958578 0 0 0 0 0 0 0 0 0 0 0 0 0 0 0 0 0 0 0 0 0.117651436830387 0.111650103312402 0.755942391027598 0 0 0 0 0 0 0 0 0 0 0 0 0 0 0 0 0 0 0 0 0 0 0 0 0 0 0 0 0 0 0 0 0 0 0 0 0 0 0 0 0 0 0 0 0 0 0 0.415818373526019
0 0 0 0 0 0 0 0 0 0 0 0 0 0 0 0 0 0 0 0 0 0 0 0 0 0 0 0 0 0 0 0 0 0 0 0 0 0 0 0 0 0 0 0 0 0 0 0 0 0 0 0 0 0 0 0 0 0 0 0 0 0 0 0 0.285508068975061 0.0214954943224993 0.207470262329925 1.07244512582081 0.320171718415879 0.36560880244757 0.668558137013902 0.695500156283743 0 0 0 0 0 0 0 0 0 0 0 0 0 0 0 0 0 0 0 0 0.0415443816410734 0.0934438453383294 0.519015492230098 0 0 0 0 0 0 0 0 0 0 0 0 0 0 0 0 0 0 0 0 0 0 0 0 0 0 0 0 0 0 0 0 0 0 0 0 0 0 0 0 0 0 0 0 0 0 0 0.0791461381660595
0 0 0 0 0 0 0 0 0 0 0 0 0 0 0 0 0 0 0 0 0 0 0 0 0 0 0 0 0 0 0 0 0 0 0 0 0 0 0 0 0 0 0 0 0 0 0 0 0 0 0 0 0 0 0 0 0 0 0 0 0 0 0 0 0.963968110798812 0.112506882805368 0.42433615932804 0.0739914957795889 0.0444487799216252 0.27202890600995 0.358487289885144 0.0662311928548193 0 0 0 0 0 0 0 0 0 0 0 0 0 0 0 0 0 0 0 0 0.207744044250501 0.0469847806514881 0.417775512153694 0 0 0 0 0 0 0 0 0 0 0 0 0 0 0 0 0 0 0 0 0 0 0 0 0 0 0 0 0 0 0 0 0 0 0 0 0 0 0 0 0 0 0 0 0 0 0 0.220697555247719
0 0 0 0 0 0 0 0 0 0 0 0 0 0 0 0 0 0 0 0 0 0 0 0 0 0 0 0 0 0 0 0 0 0 0 0 0 0 0 0 0 0 0 0 0 0 0 0 0 0 0 0 0 0 0 0 0 0 0 0 0 0 0 0 0.029635924002252 0.313494518979901 0.0968383915812422 0.233843790901903 0.785377923422833 0.214673797247503 0.0946318513352805 0.107218450533798 0 0 0 0 0 0 0 0 0 0 0 0 0 0 0 0 0 0 0 0 0.563074515332982 0.0361780147340215 0.0859887269388978 0 0 0 0 0 0 0 0 0 0 0 0 0 0 0 0 0 0 0 0 0 0 0 0 0 0 0 0 0 0 0 0 0 0 0 0 0 0 0 0 0 0 0 0 0 0 0 0.0672174119090625
0 0 0 0 0 0 0 0 0 0 0 0 0 0 0 0 0 0 0 0 0 0 0 0 0 0 0 0 0 0 0 0 0 0 0 0 0 0 0 0 0 0 0 0 0 0 0 0 0 0 0 0 0 0 0 0 0 0 0 0 0 0 0 0 0.420659250146747 0.0948117983744745 0.705442018808203 0.0214946784375882 0.0985269819331692 0.243203864634046 1.08912934771494 0.450570881223358 0 0 0 0 0 0 0 0 0 0 0 0 0 0 0 0 0 0 0 0 0.312606508350408 0.299432165682102 0.244328067494894 0 0 0 0 0 0 0 0 0 0 0 0 0 0 0 0 0 0 0 0 0 0 0 0 0 0 0 0 0 0 0 0 0 0 0 0 0 0 0 0 0 0 0 0 0 0 0 0.123362283969864
0 0 0 0 0 0 0 0 0 0 0 0 0 0 0 0 0 0 0 0 0 0 0 0 0 0 0 0 0 0 0 0 0 0 0 0 0 0 0 0 0 0 0 0 0 0 0 0 0 0 0 0 0 0 0 0 0 0 0 0 0 0 0 0 0.12182621702844 0.315884958914426 0.250800807392884 0.702435900429698 0.375330762444655 0.171039560829221 0.16076534136594 0.123527984990846 0 0 0 0 0 0 0 0 0 0 0 0 0 0 0 0 0 0 0 0 0.221465110640431 0.126529992878385 0.748592919566388 0 0 0 0 0 0 0 0 0 0 0 0 0 0 0 0 0 0 0 0 0 0 0 0 0 0 0 0 0 0 0 0 0 0 0 0 0 0 0 0 0 0 0 0 0 0 0 0.177763926441924
0 0 0 0 0 0 0 0 0 0 0 0 0 0 0 0 0 0 0 0 0 0 0 0 0 0 0 0 0 0 0 0 0 0 0 0 0 0 0 0 0 0 0 0 0 0 0 0 0 0 0 0 0 0 0 0 0 0 0 0 0 0 0 0 0.116986645402834 0.0308636681158101 0.253901929812249 0.563385761991121 0.226018479381148 0.527666911568925 0.794983016131974 0.0752977830878003 0 0 0 0 0 0 0 0 0 0 0 0 0 0 0 0 0 0 0 0 0.130752877763281 0.0540131784780147 0.544259923248012 0 0 0 0 0 0 0 0 0 0 0 0 0 0 0 0 0 0 0 0 0 0 0 0 0 0 0 0 0 0 0 0 0 0 0 0 0 0 0 0 0 0 0 0 0 0 0 0.114675573634814
0 0 0 0 0 0 0 0 0 0 0 0 0 0 0 0 0 0 0 0 0 0 0 0 0 0 0 0 0 0 0 0 0 0 0 0 0 0 0 0 0 0 0 0 0 0 0 0 0 0 0 0 0 0 0 0 0 0 0 0 0 0 0 0 0 0 0 0 0 0 0 0 0 0 0 0 0 0 0 0 0 0 0 0 0 0 0 0 0 0 0 0 0 0 0 0 0 0 0 0 0 0 0 0 0 0 0 0 0 0 0 0 0 0 0 0 0 -4.99593808329975 -1.10616024884637 -4.76504848431443 0 0 0 0 0 0 0 0 0 0 0 0 0 0 0 0 0 0 0.0769670950527339 0 0 0 0
0 0 0 0 0 0 0 0 0 0 0 0 0 0 0 0 0 0 0 0 0 0 0 0 0 0 0 0 0 0 0 0 0 0 0 0 0 0 0 0 0 0 0 0 0 0 0 0 0 0 0 0 0 0 0 0 0 0 0 0 0 0 0 0 0 0 0 0 0 0 0 0 0 0 0 0 0 0 0 0 0 0 0 0 0 0 0 0 0 0 0 0 0 0 0 0 0 0 0 0 0 0 0 0 0 0 0 0 0 0 0 0 0 0 0 0 0 -0.28795063822777 -0.170589752796214 -0.667282021960977 0 0 0 0 0 0 0 0 0 0 0 0 0 0 0 0 0 0 0.12543794467339 0 0 0 0
0 0 0 0 0 0 0 0 0 0 0 0 0 0 0 0 0 0 0 0 0 0 0 0 0 0 0 0 0 0 0 0 0 0 0 0 0 0 0 0 0 0 0 0 0 0 0 0 0 0 0 0 0 0 0 0 0 0 0 0 0 0 0 0 0 0 0 0 0 0 0 0 0 0 0 0 0 0 0 0 0 0 0 0 0 0 0 0 0 0 0 0 0 0 0 0 0 0 0 0 0 0 0 0 0 0 0 0 0 0 0 0 0 0 0 0 0 -1.56086541669928 -1.718314773022 -0.793021567322977 0 0 0 0 0 0 0 0 0 0 0 0 0 0 0 0 0 0 0.0591734098671184 0 0 0 0
0 0 0 0 0 0 0 0 0 0 0 0 0 0 0 0 0 0 0 0 0 0 0 0 0 0 0 0 0 0 0 0 0 0 0 0 0 0 0 0 0 0 0 0 0 0 0 0 0 0 0 0 0 0 0 0 0 0 0 0 0 0 0 0 0 0 0 0 0 0 0 0 0 0 0 0 0 0 0 0 0 0 0 0 0 0 0 0 0 0 0 0 0 0 0 0 0 0 0 0 0 0 0 0 0 0 0 0 0 0 0 0 0 0 0 0 0 -1.5733344544742 -0.683073092999267 -0.636887988035354 0 0 0 0 0 0 0 0 0 0 0 0 0 0 0 0 0 0 0.101721443876372 0 0 0 0
0 0 0 0 0 0 0 0 0 0 0 0 0 0 0 0 0 0 0 0 0 0 0 0 0 0 0 0 0 0 0 0 0 0 0 0 0 0 0 0 0 0 0 0 0 0 0 0 0 0 0 0 0 0 0 0 0 0 0 0 0 0 0 0 0 0 0 0 0 0 0 0 -1.16624912257481 -0.330812859790201 -0.940775763305233 -3.51404043685357 -0.279051346741753 -1.27945010989681 -1.18495435189542 -0.313313363386916 -0.220588799622983 -0.613830683739237 -0.217715920217485 -1.00120004477803 -2.67030046801157 -1.55752829784356 -1.09792201879706 -0.602670585147366 0 0 0 0 0 0 0 0 0 0 0 0 0 0 0 0 0 0 0 0 0 0 0 0 0 0 0 0 0 -8.22545558621064 -0.65207860293477 -1.0697285898509 0 0 0 0 0 0 0 0 0 0 0 0 0 0 0 0 0 0 0.427075337836291 0 0 0 0
0 0 0 0 0 0 0 0 0 0 0 0 0 0 0 0 0 0 0 0 0 0 0 0 0 0 0 0 0 0 0 0 0 0 0 0 0 0 0 0 0 0 0 0 0 0 0 0 0 0 0 0 0 0 0 0 0 0 0 0 0 0 0 0 0 0 0 0 0 0 0 0 -0.608372181490967 -0.824262553012672 -2.37470509285067 -0.214904860173384 -1.53967563987538 -1.0234374945899 -2.71373045471827 -4.55791830783502 -0.199384558544515 -0.58687134025315 -0.441282828274218 -0.216375179232747 -0.192129659499868 -1.52370046959328 -0.642840891498705 -0.287093042945251 0 0 0 0 0 0 0 0 0 0 0 0 0 0 0 0 0 0 0 0 0 0 0 0 0 0 0 0 0 -2.12466158589975 -1.65333208685352 -1.87729593456099 0 0 0 0 0 0 0 0 0 0 0 0 0 0 0 0 0 0 1.85461589185365 0 0 0 0
0 0 0 0 0 0 0 0 0 0 0 0 0 0 0 0 0 0 0 0 0 0 0 0 0 0 0 0 0 0 0 0 0 0 0 0 0 0 0 0 0 0 0 0 0 0 0 0 0 0 0 0 0 0 0 0 0 0 0 0 0 0 0 0 0 0 0 0 0 0 0 0 -0.490889478446963 -2.34824696247648 -5.19111559298781 -3.08600222778707 -3.16099039737246 -0.276973795516605 -1.08135841388009 -0.341455527815352 -2.05141010581562 -3.54511509794914 -2.38228260338022 -2.09269647314763 -0.424771569160531 -1.32093079832283 -3.82187140386003 -2.65268176146687 0 0 0 0 0 0 0 0 0 0 0 0 0 0 0 0 0 0 0 0 0 0 0 0 0 0 0 0 0 -0.570053913995201 -1.08951240059228 -0.701809446621463 0 0 0 0 0 0 0 0 0 0 0 0 0 0 0 0 0 0 1.13233423565707 0 0 0 0
0.147470716984141 0.0835531813698018 1.24071624403198 0 0 0 0 0 0 0 0 0 0 0 0 0 0 0 0 0 0 0 0 -1.50756037688431 -0.335789126312496 0 0 0 0 0 0 0 0 0 0 0 0 0 0 0 -2.31891232238986 -0.275571598616376 -8.95498925289215 -2.21236084624652 -0.401711414257019 0 0 0 0 0 0 -0.0373695514364505 -0.822991563620178 0 0 0 0 0 0 -2.18823811868351 -0.173002376272818 -0.303313247980284 -2.35160755305734 -11.9173792783407 0 0 0 0 0 0 0 0 0 0 0 0 0 0 0 0 0 0 0 0 0 0 0 0 0 0 0 0 0 0 0 0 0 0 0 0 0 0 0 0 0 0 0 0 0 0 0 0 0 0 0 0 0 -1.16760138120168 -1.13851783193045 -1.27959048001455 0 0 0 0 0 0 0 0 0 0 0 0 0 0 0 0 0 0 0 0 0.363463628604645 0 0.214508461354683
0.378192716833178 0.561007939213073 0.073470100966766 0 0 0 0 0 0 0 0 0 0 0 0 0 0 0 0 0 0 0 0 -0.476703219869582 -3.23028045108297 0 0 0 0 0 0 0 0 0 0 0 0 0 0 0 -0.639781179027831 -1.37105957738298 -0.276941149598072 -1.20832038555982 -3.07969185871439 0 0 0 0 0 0 -1.24257955826936 -0.533761545034535 0 0 0 0 0 0 -1.40798283522026 -1.15211406154911 -0.674589131379168 -0.537218519105671 -1.28724022966423 0 0 0 0 0 0 0 0 0 0 0 0 0 0 0 0 0 0 0 0 0 0 0 0 0 0 0 0 0 0 0 0 0 0 0 0 0 0 0 0 0 0 0 0 0 0 0 0 0 0 0 0 0 -4.25926228890483 -0.695951249664595 -1.7626188793092 0 0 0 0 0 0 0 0 0 0 0 0 0 0 0 0 0 0 0 0 0.72384329103632 0 1.26467698931887
0.290635982434397 0.179209296876674 0.249705682386478 0 0 0 0 0 0 0 0 0 0 0 0 0 0 0 0 0 0 0 0 -1.14085181432332 -0.942120199513723 0 0 0 0 0 0 0 0 0 0 0 0 0 0 0 -0.882354006100741 -0.238679208654462 -1.52988231442554 -2.80885631425783 -1.14877052482235 0 0 0 0 0 0 -0.53648544280792 -1.62689786474147 0 0 0 0 0 0 -0.314470048117907 -0.178511611886479 -1.12638802811705 -0.932358600638477 -0.53335531502407 0 0 0 0 0 0 0 0 0 0 0 0 0 0 0 0 0 0 0 0 0 0 0 0 0 0 0 0 0 0 0 0 0 0 0 0 0 0 0 0 0 0 0 0 0 0 0 0 0 0 0 0 0 -0.186572047575092 -2.40007567038472 -2.6904981042534 0 0 0 0 0 0 0 0 0 0 0 0 0 0 0 0 0 0 0 0 0.140217656340944 0 0.213481021569883
0.270212102766236 0.0475296732035966 0.0666462801010049 0 0 0 0 0 0 0 0 0 0 0 0 0 0 0 0 0 0 0 0 -0.301432461472509 -0.292750068812941 0 0 0 0 0 0 0 0 0 0 0 0 0 0 0 -0.335532276398974 -0.829461425075874 -0.450543377408237 -3.37083211282889 -0.243665405634124 0 0 0 0 0 0 -0.306683648567013 -3.12036233629158 0 0 0 0 0 0 -0.68830719215489 -0.397539883993725 -2.08489737956547 -1.17090321715733 -2.07970448519366 0 0 0 0 0 0 0 0 0 0 0 0 0 0 0 0 0 0 0 0 0 0 0 0 0 0 0 0 0 0 0 0 0 0 0 0 0 0 0 0 0 0 0 0 0 0 0 0 0 0 0 0 0 -0.736550387462679 -0.165210981885958 -1.17905607314945 0 0 0 0 0 0 0 0 0 0 0 0 0 0 0 0 0 0 0 0 0.403135365183274 0 0.0685901842940048
0.333937893150642 2.04212214720074 0.455000863545888 0 0 0 0 0 0 0 0 0 0 0 0 0 0 0 0 0 0 0 0 -0.998999148749818 -0.818434427055434 0 0 0 0 0 0 0 0 0 0 0 0 0 0 0 -2.11061949051693 -1.73747419112232 -0.901202490252002 -1.5123887261946 -0.685093375060851 0 0 0 0 0 0 -1.75420870002578 -1.24428626487137 0 0 0 0 0 0 -0.18831068783831 -2.52957496725525 -1.55104745398773 -0.531891895850936 -0.471037882415238 0 0 0 0 0 0 0 0 0 0 0 0 0 0 0 0 0 0 0 0 0 0 0 0 0 0 0 0 0 0 0 0 0 0 0 0 0 0 0 0 0 0 0 0 0 0 0 0 0 0 0 0 0 -0.323444532164825 -2.01880027286501 -2.08970440888561 0 0 0 0 0 0 0 0 0 0 0 0 0 0 0 0 0 0 0 0 0.315104759582585 0 0.138038255677311
0.827057792955114 0.0540134709964849 0.088015725758773 0 0 0 0 0 0 0 0 0 0 0 0 0 0 0 0 0 0 0 0 -2.93666080419912 -4.87666505174987 0 0 0 0 0 0 0 0 0 0 0 0 0 0 0 -0.942925312054518 -2.27522751990146 -0.403869214027331 -1.34217529210129 -3.32020918475214 0 0 0 0 0 0 -0.372140770061166 -1.60321601136962 0 0 0 0 0 0 -0.323984719872113 -0.544972703919564 -0.4540335385299 -0.479646245405811 -0.989186854192263 0 0 0 0 0 0 0 0 0 0 0 0 0 0 0 0 0 0 0 0 0 0 0 0 0 0 0 0 0 0 0 0 0 0 0 0 0 0 0 0 0 0 0 0 0 0 0 0 0 0 0 0 0 -2.03948915043506 -1.8498101331655 -0.601247602993941 0 0 0 0 0 0 0 0 0 0 0 0 0 0 0 0 0 0 0 0 0.0842239424195019 0 0.0565960177835916
0.102106278451871 0.0802868453636787 0.571136124656888 0 0 0 0 0 0 0 0 0 0 0 0 0 0 0 0 0 0 0 0 -0.319666878459961 -1.22927905908477 0 0 0 0 0 0 0 0 0 0 0 0 0 0 0 -1.46328665436002 -6.03381462939543 -0.208044931475891 -0.391248235377099 -0.324063266662723 0 0 0 0 0 0 -0.490218157155204 -1.96710071013021 0 0 0 0 0 0 -0.410497793742447 -0.609112209733473 -0.350902337820079 -0.545259523483053 -1.28270995466915 0 0 0 0 0 0 0 0 0 0 0 0 0 0 0 0 0 0 0 0 0 0 0 0 0 0 0 0 0 0 0 0 0 0 0 0 0 0 0 0 0 0 0 0 0 0 0 0 0 0 0 0 0 -2.44304051076988 -6.98818243336854 -1.47695959622909 0 0 0 0 0 0 0 0 0 0 0 0 0 0 0 0 0 0 0 0 0.2266708052059 0 0.390393465022852
0.0494551715678329 0.514841393691451 0.171435053988934 0 0 0 0 0 0 0 0 0 0 0 0 0 0 0 0 0 0 0 0 -1.05951653657773 -3.17094538052265 0 0 0 0 0 0 0 0 0 0 0 0 0 0 0 -1.17448769631082 -0.60138959800001 -3.34056016018916 -2.52987047337418 -3.78713263318287 0 0 0 0 0 0 -0.211273395993294 -10.3649169980371 0 0 0 0 0 0 -0.823897997632647 -11.5767387139974 -1.18838127042115 -0.333043601987878 -0.357706929995282 0 0 0 0 0 0 0 0 0 0 0 0 0 0 0 0 0 0 0 0 0 0 0 0 0 0 0 0 0 0 0 0 0 0 0 0 0 0 0 0 0 0 0 0 0 0 0 0 0 0 0 0 0 -1.57231547291706 -1.57677700140576 -0.206429457873337 0 0 0 0 0 0 0 0 0 0 0 0 0 0 0 0 0 0 0 0 1.71853050770339 0 0.0887834065274162
0.567519966428762 0.126514262460543 0.422275893087612 0 0 0 0 0 0 0 0 0 0 0 0 0 0 0 0 0 0 0 0 -0.539593314564746 -0.620358349682416 0 0 0 0 0 0 0 0 0 0 0 0 0 0 0 -0.0961202447448257 -0.521082924313819 -0.815331025877366 -1.38666759894983 -11.1600855354183 0 0 0 0 0 0 -0.156213793173645 -1.08544612400606 0 0 0 0 0 0 -1.50618745148973 -0.72752917379204 -2.45720281798811 -1.79048596446175 -2.56829078817821 0 0 0 0 0 0 0 0 0 0 0 0 0 0 0 0 0 0 0 0 0 0 0 0 0 0 0 0 0 0 0 0 0 0 0 0 0 0 0 0 0 0 0 0 0 0 0 0 0 0 0 0 0 -0.769741939081826 -1.61187735796227 -1.29942939233776 0 0 0 0 0 0 0 0 0 0 0 0 0 0 0 0 0 0 0 0 0.0866932210598093 0 0.0748142205915889
0.0248093924678779 0.225381137424289 0.371741710409778 0 0 0 0 0 0 0 0 0 0 0 0 0 0 0 0 0 0 0 0 -1.60529164509353 -0.962335232653943 0 0 0 0 0 0 0 0 0 0 0 0 0 0 0 -0.689624063335324 -0.924722067730188 -0.706617098437607 -1.75898923046752 -2.21086600314845 0 0 0 0 0 0 -1.08672878401311 -0.284034898612227 0 0 0 0 0 0 -1.5721546754209 -1.63182033381478 -3.01785932210186 -0.848786434874386 -0.725990265029625 0 0 0 0 0 0 0 0 0 0 0 0 0 0 0 0 0 0 0 0 0 0 0 0 0 0 0 0 0 0 0 0 0 0 0 0 0 0 0 0 0 0 0 0 0 0 0 0 0 0 0 0 0 -0.359270908865557 -1.7629816875616 -0.962389703905422 0 0 0 0 0 0 0 0 0 0 0 0 0 0 0 0 0 0 0 0 0.375065573385501 0 0.357913872344433
0.319489129828021 0.192860587618159 0.352213938275279 0 0 0.531118762034418 0.785257221470582 0.351747751650586 0.234654742087231 0.170727984921319 0.858867352224492 0.428906276097432 0.0562661270682863 0.531069094721016 0.638206525348797 0.149737109475681 0.669583010035665 0.169502640968037 0.367110681753082 0.146459590310063 0.0824906942864443 0 0 -0.288044562312938 -1.93497760028886 0 0 0 0 0 0.159760545891743 0.956257447400086 0.180016336922766 0.353885740321091 0.525452769969632 0.421406979975597 0.313256961696863 0.173701282737938 0 0 -3.38167235353004 -0.448140490312688 -0.579379681770249 0 0 0 0 0 0 0 0 -1.81952672892797 -4.16122288720746 0 0 0 0 0 0 -2.21713345121125 -0.818612641004562 -1.48275802833217 -0.550029056746872 -0.860812515444578 0.0987263281379203 0.0790629102919374 0.114691993486358 0.111863232121386 0.326911569971668 0.642116519954645 0.481998226054349 0.667619720013158 0 0 0 0 0 0 0 0 0 0 0 0 0 0 0 0 0 0 0 0 0 0 0 0 0 0 0 0 0 0 0 0 0 0 0 0 0 0 0 0 0 0 0 0 0 -3.23865018158832 -0.675030423314882 -2.39228544813216 0 0 0 0 0 0 0 0 0 0 0 0 0 0 0 0 0 0 0 0 0 0 0
0.106981314421694 0.0895605736841017 0.0871679208667525 0 0 0.243603799800951 0.11145338636717 0.153504293090157 0.217400768997512 0.130302737689654 0.253623368696541 0.116157803347425 0.386386492285928 0.108402466517773 2.17723404785183 0.283421717647788 0.123168447059615 0.17539034623381 0.0451062327325899 0.0871755395628771 0.176041247108352 0 0 -1.28583465215134 -1.21209351405633 0 0 0 0 0 0.113191805946327 0.459793997445586 0.137805381140607 0.0794448440217119 0.0510311559698311 0.192364549839711 0.0917791844503724 0.0284857570544521 0 0 -0.987707646070578 -0.244653952238135 -1.46512820147139 0 0 0 0 0 0 0 0 -0.72215868233817 -6.81269258370707 0 0 0 0 0 0 -1.6370296367086 -0.663851262725513 -1.48328590310782 -1.93293747878014 -2.64786291876752 0.424016720548681 0.282356925329836 0.220984843296961 0.0450262899700301 0.0298611593787393 0.190172235153908 0.827755600168579 0.158865550796422 0 0 0 0 0 0 0 0 0 0 0 0 0 0 0 0 0 0 0 0 0 0 0 0 0 0 0 0 0 0 0 0 0 0 0 0 0 0 0 0 0 0 0 0 0 -8.26385497782289 -1.56508065968052 -0.615365394845265 0 0 0 0 0 0 0 0 0 0 0 0 0 0 0 0 0 0 0 0 0 0 0
0.0937304100243048 0.155710204902526 0.202091975079006 0 0 0.322514164440396 0.0384518751099925 0.167766522815629 0.131309806399307 0.472381746175444 0.167185723608559 0.106147484792398 0.2717793696543 0.017579246536049 0.265027841094266 0.571815377427449 0.404964415389072 0.0693822725793228 0.171680555490915 0.197970296961021 0.125440827204717 0 0 -0.314090836507921 -1.1174383575903 0 0 0 0 0 0.398833856221479 0.292289030859063 0.113321219865985 0.0379011038313312 1.02386341221213 0.196130174094629 0.0557042368371732 0.106072987487397 0 0 -5.58128129112851 -0.596981443454986 -0.624263837092751 0 0 0 0 0 0 0 0 -1.02122167664073 -0.733587152394962 0 0 0 0 0 0 -1.46509062683165 -0.510672213813469 -0.899805149843929 -0.497001282832353 -1.48138473988553 0.20259394560548 0.712862179009568 0.226688286803131 0.188891506438884 0.105266388658123 0.122314133716979 0.295865276408634 0.725335989326054 0 0 0 0 0 0 0 0 0 0 0 0 0 0 0 0 0 0 0 0 0 0 0 0 0 0 0 0 0 0 0 0 0 0 0 0 0 0 0 0 0 0 0 0 0 -1.23496318641188 -1.14176568065704 -1.26131464610974 0 0 0 0 0 0 0 0 0 0 0 0 0 0 0 0 0 0 0 0 0 0 0
0.312834779430937 0.440981329783119 0.0492748998396634 0 0 0.0886386930427968 0.369038112226932 0.179299557102886 0.325082641411651 0.199586557072562 0.617477436763112 0.158617745498334 0.702396665634186 0.18987083191438 0.643447150027161 0.327416309708371 0.0267120008890126 0.387554976270102 0.240677216118052 0.481022129016118 2.35047441235085 0 0 -1.40771208404219 -0.524141993501473 0 0 0 0 0 0.0575932088635687 0.162553721599249 0.106828485356201 0.191240791067826 0.537881112097987 0.0328121653488033 0.133373458877345 0.0705354051903629 0 0 -1.19926248798162 -1.14362992163093 -4.31527398027742 0 0 0 0 0 0 0 0 -0.411793443850595 -0.180806026789345 0 0 0 0 0 0 -2.42536130688532 -1.25097736707717 -2.3274342729937 -1.47195099717946 -0.732065246414811 0.441855908800626 0.0321708156431263 0.119283324041601 0.0480981030065204 0.0970456038142079 0.0490471373446788 0.607498964592792 0.0183266136217565 0 0 0 0 0 0 0 0 0 0 0 0 0 0 0 0 0 0 0 0 0 0 0 0 0 0 0 0 0 0 0 0 0 0 0 0 0 0 0 0 0 0 0 0 0 -0.765201174561478 -0.941126405926671 -0.203466410517733 0 0 0 0 0 0 0 0 0 0 0 0 0 0 0 0 0 0 0 0 0 0 0
0.201363574027844 0.12141509004144 0.261778354052227 0 0 0.220771764285279 0.392100557319432 1.00496345745638 0.150988321300533 0.0670659290234428 0.966578539996902 0.362995828350481 0.20296825131117 0.114047168351724 0.107453877375235 0.530476123790459 0.134235717909594 0.172218576375731 0.0561409326135492 0.618608347055857 0.0106109495696056 0 0 -0.510666122178649 -0.662811484117655 0 0 0 0 0 0.328135654327912 0.117344963248557 0.376739002203813 0.2124896641036 0.0967654614475351 0.0672584280984553 0.233197133798004 0.273893392050888 0 0 -1.63124411959568 -1.26416140388963 -3.2582302218798 0 0 0 0 0 0 0 0 -0.580606080834901 -0.983567232165039 0 0 0 0 0 0 -0.566576076566732 -0.374319822410513 -0.912255504296986 -3.11347779290944 -0.931014482821366 0.147141338177697 0.103565504254505 0.0268771138255036 0.125896479460497 0.208402179485064 0.250906044861464 0.489806229400867 0.0658751448725664 0 0 0 0 0 0 0 0 0 0 0 0 0 0 0 0 0 0 0 0 0 0 0 0 0 0 0 0 0 0 0 0 0 0 0 0 0 0 0 0 0 0 0 0 0 -0.279095509776757 -1.61668215835755 -0.189811350718035 0 0 0 0 0 0 0 0 0 0 0 0 0 0 0 0 0 0 0 0 0 0 0
0 0 0 0 0 0 0 0 0 0 0 0 0 0 0 0 0 0 0 0 0 0 0 0 0 0 0 0 0 0 0 0 0 0 0 0 0 0 0 0 -1.07091406877758 -4.41121794409129 -1.14835851989985 0 0 0 0 0 0 0 0 -0.274462939838527 -0.382671484832266 0 0 0 0 0 0 -3.3050893354676 -0.797843056301552 0 0 -4.55937898699013 0 0 0 0 0 0 0 0 0 0 0 0 0 0 0 0 0 0 0 0 0 0 0 0 0 0 0 0 0 0 0 0 0 0 0 0 0 0 0 0 0 0 0 0 0 0 0 0 0.113922838985809 0.28461564926167 0.478237241209154 0.131217315678586 1.26606057572069 -0.953460540745271 -5.15739078605659 -0.581315812100863 0 0 0 0 0 0 0 0 0 0 0 0 0 0 0 0 0 0 0 0 0 0 0.0943822979652489
0 0 0 0 0 0 0 0 0 0 0 0 0 0 0 0 0 0 0 0 0 0 0 0 0 0 0 0 0 0 0 0 0 0 0 0 0 0 0 0 -1.80534839266116 -3.38494533927833 -6.35931609643268 0 0 0 0 0 0 0 0 -1.91875172409608 -1.32814345515034 0 0 0 0 0 0 -0.560535548280016 -0.248039276576418 0 0 -1.8902538361197 0 0 0 0 0 0 0 0 0 0 0 0 0 0 0 0 0 0 0 0 0 0 0 0 0 0 0 0 0 0 0 0 0 0 0 0 0 0 0 0 0 0 0 0 0 0 0 0 0.358042909424961 0.314385380359142 0.035183854622244 0.200790537977788 0.213140589447007 -3.10308269669559 -0.750602793269109 -1.64630386456882 0 0 0 0 0 0 0 0 0 0 0 0 0 0 0 0 0 0 0 0 0 0 0.738232490555346
0 0 0 0.0800120474497612 0.0227386362117598 0 0 0 0 0 0 0 0 0 0 0 0 0 0 0 0 0 0 0 0 0 0 0 0 0 0 0 0 0 0 0 0 0 0 0 0 0 0 0 0 0 0 0 -0.66925736882803 -0.794471086672208 -1.35046838900254 0 0 -0.45948391245776 -0.691650758836083 -0.51745615388835 -0.365363409141767 -3.4910150439177 -0.125827624269118 -0.338303778495945 -4.02412055881409 -0.602785493509039 -4.80443606856725 0 0 0 0 0 0 0 0 0 0 0 0 0 0 0 0 0 0 0 0 0 0 0 0 0 0 0 0 0 0 0 0 0 0 0 0 0 0 0 0 0 0 0 0 0 0 0 -0.568250521603658 -1.73829597503272 0 0 0 0 0 0 0 0 0 0 0 0 0 0 0 0 0 0 0 0 0 0 0 0 0 0 0 0 0 0.21092486773553 0
0 0 0 0.163185270010942 0.86127935944374 0 0 0 0 0 0 0 0 0 0 0 0 0 0 0 0 0 0 0 0 0 0 0 0 0 0 0 0 0 0 0 0 0 0 0 0 0 0 0 0 0 0 0 -10.8983327260021 -0.412962996580124 -2.16524616524248 0 0 -0.544640668335083 -2.44609948334212 -0.624678062111795 -0.672139142637617 -1.04945604244144 -0.24239053163324 -2.66389170433208 -1.05211257593605 -2.80787046511551 -1.06389249545565 0 0 0 0 0 0 0 0 0 0 0 0 0 0 0 0 0 0 0 0 0 0 0 0 0 0 0 0 0 0 0 0 0 0 0 0 0 0 0 0 0 0 0 0 0 0 0 -1.41290221778246 -1.48043059019105 0 0 0 0 0 0 0 0 0 0 0 0 0 0 0 0 0 0 0 0 0 0 0 0 0 0 0 0 0 0.0767168433094599 0
0 0 0 0.649795509014859 0.109853653459438 0 0 0 0 0 0 0 0 0 0 0 0 0 0 0 0 0 0 0 0 0 0 0 0 0 0 0 0 0 0 0 0 0 0 0 0 0 0 0 0 0 0 0 -0.254856993644417 -1.231599248538 -3.25893159105735 0 0 -1.18023320713346 -1.75313232700846 -1.01316835521996 -0.928689742110162 -0.725318894480211 -1.91144295182338 -7.84936218418181 -0.200737251414299 -3.36192150538895 -1.32871215320996 0 0 0 0 0 0 0 0 0 0 0 0 0 0 0 0 0 0 0 0 0 0 0 0 0 0 0 0 0 0 0 0 0 0 0 0 0 0 0 0 0 0 0 0 0 0 0 -2.38627496308263 -0.16355673452941 0 0 0 0 0 0 0 0 0 0 0 0 0 0 0 0 0 0 0 0 0 0 0 0 0 0 0 0 0 0.218468335820621 0
0 0 0 0.345757466165905 0.134565519415388 0 0 0 0 0 0 0 0 0 0 0 0 0 0 0 0 0 0 0 0 0 0 0 0 0 0 0 0 0 0 0 0 0 0 0 0 0 0 0 0 0 0 0 -2.00510804104636 -0.900838220665765 -1.29104663100632 0 0 -1.63055145080484 -0.761658756009147 -0.78814881418992 -0.101617921093283 -0.299655545514678 -0.368777583270167 -2.92940746837035 -0.243517980204574 -0.961982432491549 -0.345621125793164 0 0 0 0 0 0 0 0 0 0 0 0 0 0 0 0 0 0 0 0 0 0 0 0 0 0 0 0 0 0 0 0 0 0 0 0 0 0 0 0 0 0 0 0 0 0 0 -0.619704903092209 -0.96864969848534 0 0 0 0 0 0 0 0 0 0 0 0 0 0 0 0 0 0 0 0 0 0 0 0 0 0 0 0 0 0.0288376201638628 0
0 0 0 0.187761156222931 0.316755212051442 0 0 0 0 0 0 0 0 0 0 0 0 0 0 0 0 0 0 0 0 0 0 0 0 0 0 0 0 0 0 0 0 0 0 0 0 0 0 0 0 0 0 0 -0.864845864198567 -0.441674422362529 -1.39413691698766 0 0 -2.79583901945862 -0.488562880293333 -6.50186749536355 -0.723239825795407 -1.16265373273566 -0.158722249990099 -0.538819534460182 -0.89481476658452 -2.5364607265488 -1.0903196100843 0 0 0 0 0 0 0 0 0 0 0 0 0 0 0 0 0 0 0 0 0 0 0 0 0 0 0 0 0 0 0 0 0 0 0 0 0 0 0 0 0 0 0 0 0 0 0 -7.41012013666477 -1.10735258621002 0 0 0 0 0 0 0 0 0 0 0 0 0 0 0 0 0 0 0 0 0 0 0 0 0 0 0 0 0 0.104586959073813 0
0 0 0 0 0 0 0 0 0 0 0 0 0 0 0 0 0 0 0 0 0 0.138068878243555 0 0.828525740524192 0.583947164641188 0 0 0 0 0 0 0 0 0 0 0 0 0 0 0 0 0 0 0 0 0 0 0 0 0 0 0 0 0 0 0 0 0 0 0 0 0 0 0 0.141659807540163 0.0869343378997364 0.156579566342972 0.0796774053118627 0.1200650651482 0.193401379601384 0.300890332063317 0.231193049916597 0 0 0 0 0 0 0 0 0 0 0 0 0 0 0 0 1.0063138631973 0.0615905207565293 0.315647420552022 0.319145206741212 1.54699607566675 0.450028668894181 0.115829676999077 0.225742240989701 0.794340806711755 0.0375123274224873 0.132493886340699 0.0675172912095594 0.397488252502619 0.489035183854786 0.324570710496607 0.160814656263664 0.0663995491616028 0.686288625981038 1.57116595313272 0.242705550934345 0.139856979448306 0.0529397223116673 0.187818334184889 0.614395917943135 0 0 0 0 0 0 0 0 0 0 0 0 0 0 0 0 0 0 0 0 0 0 0 0 0 0 0 0 0 0 0
0 0 0 0 0 0 0 0 0 0 0 0 0 0 0 0 0 0 0 0 0 0.719182562120635 0 0.337471234269227 0.0552267061072294 0 0 0 0 0 0 0 0 0 0 0 0 0 0 0 0 0 0 0 0 0 0 0 0 0 0 0 0 0 0 0 0 0 0 0 0 0 0 0 0.119329913464465 0.0785540049307895 0.166162003040738 0.312238840812181 0.715036043848497 0.113153611207636 0.139468469477464 0.0335714004385656 0 0 0 0 0 0 0 0 0 0 0 0 0 0 0 0 0.20476853095978 0.033642477649525 0.325489301997478 0.141187463393827 0.126276047882562 0.350851205520295 0.23540680970849 0.211712859367983 0.146336163227231 0.455636467248423 0.0331083211774701 0.426689219738299 0.402305638467389 1.45435219778898 0.331456207748597 0.323243826747064 0.361000541379979 0.131363727794321 0.314198271115761 0.24125567111745 0.206260434441814 0.338787302202601 1.08185745116918 0.153693936787805 0 0 0 0 0 0 0 0 0 0 0 0 0 0 0 0 0 0 0 0 0 0 0 0 0 0 0 0 0 0 0
0 0 0 0 0 0 0 0 0 0 0 0 0 0 0 0 0 0 0 0 0 0.276773637175897 0 0.195382787342873 0.208358679662508 0 0 0 0 0 0 0 0 0 0 0 0 0 0 0 0 0 0 0 0 0 0 0 0 0 0 0 0 0 0 0 0 0 0 0 0 0 0 0 0.741682932255457 0.493565498404409 0.118428995617096 0.328170670951132 0.127934148594052 0.299765361919669 0.299645872395274 0.18541154595047 0 0 0 0 0 0 0 0 0 0 0 0 0 0 0 0 0.908625888708539 0.131170987430658 0.153774868467767 0.123334569693107 0.210688294855825 0.399021125542744 0.137623765762618 0.261607156630458 0.320292401735671 0.546472523486767 0.231830145954943 0.425467723360223 0.115441057237205 0.312221333087291 0.0384236699229408 0.295166419746367 0.197327755535777 0.529308499786565 0.118840225308308 0.25063354278493 0.0420896337188122 0.0387809962062405 0.121576139608203 0.353319148680341 0 0 0 0 0 0 0 0 0 0 0 0 0 0 0 0 0 0 0 0 0 0 0 0 0 0 0 0 0 0 0
0 0 0 0 0 0 0 0 0 0 0 0 0 0 0 0 0 0 0 0 0 0 0 0 0 0 0 0 0 0 0 0 0 0 0 0 0 0 0 0 0 0 0 0 0 0 0.18328212521495 0.0624100075977842 0 0 0 0 0 1.22346523597862 0 0 0 0 0 0 0.183615211660316 0 0 0 0 0 0 0 0 0 0 0 0 0 0 0 0 0 0 0 0 0 0 0 0 0 0 0 0 0 0 0 0 0 0 0 0 0 0 0 0 0 0 0 0 0 0 0 0 0 0 0 0 0 0 0 0 0 0 0 0 0 0 0 0 0 0 0 0 0 0 0 0 0 0 0 0 0 0 0 0 0 0
0 0 0 0 0 0 0 0 0 0 0 0 0 0 0 0 0 0 0 0 0 0 0 0 0 0 0 0 0 0 0 0 0 0 0 0 0 0 0 0 0 0 0 0 0 0 0.0904435481486047 0.935508116531989 0 0 0 0 0 0.110221133707346 0 0 0 0 0 0 0.401899462011245 0 0 0 0 0 0 0 0 0 0 0 0 0 0 0 0 0 0 0 0 0 0 0 0 0 0 0 0 0 0 0 0 0 0 0 0 0 0 0 0 0 0 0 0 0 0 0 0 0 0 0 0 0 0 0 0 0 0 0 0 0 0 0 0 0 0 0 0 0 0 0 0 0 0 0 0 0 0 0 0 0 0
0 0 0 0 0 0 0 0 0 0 0 0 0 0 0 0 0 0 0 0 0 0 0 0 0 0 0 0 0 0 0 0 0 0 0 0 0 0 0 0 0 0 0 0 0 0 0.119405114385331 0.191235658175187 0 0 0 0 0 0.110592461736676 0 0 0 0 0 0 1.1507466189594 0 0 0 0 0 0 0 0 0 0 0 0 0 0 0 0 0 0 0 0 0 0 0 0 0 0 0 0 0 0 0 0 0 0 0 0 0 0 0 0 0 0 0 0 0 0 0 0 0 0 0 0 0 0 0 0 0 0 0 0 0 0 0 0 0 0 0 0 0 0 0 0 0 0 0 0 0 0 0 0 0 0
0 0 0 0 0 0 0 0 0 0 0 0 0 0 0 0 0 0 0 0 0 0 0 0 0 0 0 0 0 0 0 0 0 0 0 0 0 0 0 0 0 0 0 0 0 0 0.173125260578753 0.642922760789387 0 0 0 0 0 0.349020723706656 0 0 0 0 0 0 0.158770110028647 0 0 0 0 0 0 0 0 0 0 0 0 0 0 0 0 0 0 0 0 0 0 0 0 0 0 0 0 0 0 0 0 0 0 0 0 0 0 0 0 0 0 0 0 0 0 0 0 0 0 0 0 0 0 0 0 0 0 0 0 0 0 0 0 0 0 0 0 0 0 0 0 0 0 0 0 0 0 0 0 0 0
0 0 0 0 0 0 0 0 0 0 0 0 0 0 0 0 0 0 0 0 0 0 0 0 0 0 0 0 0 0 0 0 0 0 0 0 0 0 0 0 0 0 0 0 0 0 0.503486146573215 0.113821964942092 0 0 0 0 0 0.049949277743155 0 0 0 0 0 0 0.135527204276825 0 0 0 0 0 0 0 0 0 0 0 0 0 0 0 0 0 0 0 0 0 0 0 0 0 0 0 0 0 0 0 0 0 0 0 0 0 0 0 0 0 0 0 0 0 0 0 0 0 0 0 0 0 0 0 0 0 0 0 0 0 0 0 0 0 0 0 0 0 0 0 0 0 0 0 0 0 0 0 0 0 0
0 0 0 0 0 0 0 0 0 0 0 0 0 0 0 0 0 0 0 0 0 0 0 0 0 0 0 0 0 0 0 0 0 0 0 0 0 0 0 0 0 0 0 0 0 0 0.826008931451302 0.0930470241621031 0 0 0 0 0 0.0908634821419465 0 0 0 0 0 0 0.205646048236509 0 0 0 0 0 0 0 0 0 0 0 0 0 0 0 0 0 0 0 0 0 0 0 0 0 0 0 0 0 0 0 0 0 0 0 0 0 0 0 0 0 0 0 0 0 0 0 0 0 0 0 0 0 0 0 0 0 0 0 0 0 0 0 0 0 0 0 0 0 0 0 0 0 0 0 0 0 0 0 0 0 0
0 0 0 0 0 0 0 0 0 0 0 0 0 0 0 0 0 0 0 0 0 0 0 0 0 0 0 0 0 0 0 0 0 0 0 0 0 0 0 0 0 0 0 0 0 0 0.0803741136213253 0.190022185603076 0 0 0 0 0 0.0338666322816619 0 0 0 0 0 0 0.132475157971766 0 0 0 0 0 0 0 0 0 0 0 0 0 0 0 0 0 0 0 0 0 0 0 0 0 0 0 0 0 0 0 0 0 0 0 0 0 0 0 0 0 0 0 0 0 0 0 0 0 0 0 0 0 0 0 0 0 0 0 0 0 0 0 0 0 0 0 0 0 0 0 0 0 0 0 0 0 0 0 0 0 0
0 0 0 0 0 0 0 0 0 0 0 0 0 0 0 0 0 0 0 0 0 0.60588419316998 0 0 0 0 0 0 0 0 0 0 0 0 0 0 0 0 0 0 0.152624848840832 0.179386002169719 0.0847115594272591 0 0 0 0 0 0.769955187914663 0.302845618839517 0.273155732256607 0.546253450700962 0.167424812236335 0.0819924288021195 0.495365120994981 0.283691158926343 0.323558880787244 1.0201174234065 0.314648076864828 0.107275060816663 0.527035835411541 0 0 0 0 0 0 0 0 0 0 0 0 0 0 0 0 0 0 0 0 0 0 0 0 0 0 0 0 0 0 0 0 0 0 0 0 0 0 0 0 0 0 0 0 0 0 0 0 0 0 0 0 0 0 0 0 0 0 0 0 0 0 0 0 0 0 0 0 0 0 0 0 0 0 0 0 0 0 0 0 0 0
0 0 0 0 0 0 0 0 0 0 0 0 0 0 0 0 0 0 0 0 0 0.0441592563996852 0 0 0 0 0 0 0 0 0 0 0 0 0 0 0 0 0 0 0.861429087018771 0.303525836265831 0.480146716599377 0 0 0 0 0 0.257415210384554 0.042923360300843 0.162882605084306 0.183115289533935 1.21703374338438 0.303911010050961 0.0283406650069142 0.205292385264455 0.103851153019886 0.393996887204101 0.228244021034071 0.227576984466923 1.12229973259745 0 0 0 0 0 0 0 0 0 0 0 0 0 0 0 0 0 0 0 0 0 0 0 0 0 0 0 0 0 0 0 0 0 0 0 0 0 0 0 0 0 0 0 0 0 0 0 0 0 0 0 0 0 0 0 0 0 0 0 0 0 0 0 0 0 0 0 0 0 0 0 0 0 0 0 0 0 0 0 0 0 0
0 0 0 0 0 0 0 0 0 0 0 0 0 0 0 0 0 0 0 0 0 1.12974976536145 0 0 0 0 0 0 0 0 0 0 0 0 0 0 0 0 0 0 0.0558296529662687 0.166522716514142 0.472418944763308 0 0 0 0 0 0.583260570736888 0.480025096968238 1.25031444242062 1.67046995049522 0.07656699573764 0.157161711074961 0.0784604024725098 0.0352511153357667 0.328912062852625 0.0943266407791835 0.302476984236128 0.100655473841344 0.0358928004269819 0 0 0 0 0 0 0 0 0 0 0 0 0 0 0 0 0 0 0 0 0 0 0 0 0 0 0 0 0 0 0 0 0 0 0 0 0 0 0 0 0 0 0 0 0 0 0 0 0 0 0 0 0 0 0 0 0 0 0 0 0 0 0 0 0 0 0 0 0 0 0 0 0 0 0 0 0 0 0 0 0 0
0 0 0 0 0 0 0 0 0 0 0 0 0 0 0 0 0 0 0 0 0 0.242102700448547 0 0.434444159876626 0.284414410018423 0.107600270362911 0 0 0 0 0 0 0 0 0 0 0 0 0 0 0.890560253692428 0.611975304785408 0.213073254618452 0 0 0 0 0 0 0 0 0.0329127596710087 0.130863932269204 0.572906846459589 0 0 0 0 0 0 0 0 0 0 0 0 0 0 0 0 0 0 0 0 0 0 0 0 0 0 0 0 0 0 0 0 0 0 0 0 0 0 0 0 0 0 0 0 0 0 0 0 0 0 0 0 0 0 0 0 0 0 0 0 0 0 0 0 0 0 0 0 0 0 0 0 0 0 0 0 0 0 0 0 0 0 0 0 0 0 0 0 0
0 0 0 0 0 0 0 0 0 0 0 0 0 0 0 0 0 0 0 0 0 0.0677479100484192 0 0.0373722386502547 0.119751074881344 0.337853900804629 0 0 0 0 0 0 0 0 0 0 0 0 0 0 0.172852753416158 0.486498760315391 0.0375304390225232 0 0 0 0 0 0 0 0 0.403269473957445 0.566160677299638 2.00414468551861 0 0 0 0 0 0 0 0 0 0 0 0 0 0 0 0 0 0 0 0 0 0 0 0 0 0 0 0 0 0 0 0 0 0 0 0 0 0 0 0 0 0 0 0 0 0 0 0 0 0 0 0 0 0 0 0 0 0 0 0 0 0 0 0 0 0 0 0 0 0 0 0 0 0 0 0 0 0 0 0 0 0 0 0 0 0 0 0 0
0 0 0 0 0 0 0 0 0 0 0 0 0 0 0 0 0 0 0 0 0 0.238803915207602 0 0.0761347649332096 0.0496805367591329 0.581798044027421 0 0 0 0 0 0 0 0 0 0 0 0 0 0 0.297987794067404 0.640607777781292 0.227044140809098 0 0 0 0 0 0 0 0 0.184024459756812 0.508028445073656 0.258602357964064 0 0 0 0 0 0 0 0 0 0 0 0 0 0 0 0 0 0 0 0 0 0 0 0 0 0 0 0 0 0 0 0 0 0 0 0 0 0 0 0 0 0 0 0 0 0 0 0 0 0 0 0 0 0 0 0 0 0 0 0 0 0 0 0 0 0 0 0 0 0 0 0 0 0 0 0 0 0 0 0 0 0 0 0 0 0 0 0 0
0 0 0 0 0 0 0 0 0 0 0 0 0 0 0 0 0 0 0 0 0 0.227820869599209 0 0.106803812304204 0.0638862794610226 0.131295301709034 0 0 0 0 0 0 0 0 0 0 0 0 0 0 0.0909674490618198 0.0292269240089553 0.234138903629112 0 0 0 0 0 0 0 0 0.202933308309781 0.573545517536858 0.428095662416741 0 0 0 0 0 0 0 0 0 0 0 0 0 0 0 0 0 0 0 0 0 0 0 0 0 0 0 0 0 0 0 0 0 0 0 0 0 0 0 0 0 0 0 0 0 0 0 0 0 0 0 0 0 0 0 0 0 0 0 0 0 0 0 0 0 0 0 0 0 0 0 0 0 0 0 0 0 0 0 0 0 0 0 0 0 0 0 0 0
0 0 0 0 0 0 0 0 0 0 0 0 0 0 0 0 0 0 0 0 0 0 0 0 0 0 0 0 0 0 0 0 0 0 0 0 0 0 0 0 0 0 0 0.487795872260935 0.490678043035028 0 0.208625690255232 0.176200547539947 0 0 0 0 0 0.177649801785999 0 0 0 0 0 0 0 0 0 0 0 0 0 0 0 0 0 0 0 0 0 0 0 0 0 0 0 0 0 0 0 0 0 0 0 0 0 0 0 0 0 0 0 0 0 0 0 0 0 0 0 0 0 0 0 0 0 0 0 0 0 0 0 0 0 0 0 0 0 0 0 0 0 0 0 0 0 0 0 0 0 0 0 0 0 0 0 0 0
0 0 0 0 0 0 0 0 0 0 0 0 0 0 0 0 0 0 0 0 0 0 0 0 0 0 0 0 0 0 0 0 0 0 0 0 0 0 0 0 0 0 0 0.243602266846504 0.205925202181876 0 0.113046374717221 0.224895277854608 0 0 0 0 0 0.0220753429948445 0 0 0 0 0 0 0 0 0 0 0 0 0 0 0 0 0 0 0 0 0 0 0 0 0 0 0 0 0 0 0 0 0 0 0 0 0 0 0 0 0 0 0 0 0 0 0 0 0 0 0 0 0 0 0 0 0 0 0 0 0 0 0 0 0 0 0 0 0 0 0 0 0 0 0 0 0 0 0 0 0 0 0 0 0 0 0 0 0
0 0 0 0 0 0 0 0 0 0 0 0 0 0 0 0 0.180294646010567 0.484491752922678 0.567192777617767 0.836995641143029 0.0421912943649398 0 0 0 0 0 0 0 0 0 0 0 0 0 0 0 0 0 0 0 0 0 0 0 0 0 0 0 0 0 0 0 0 0 0 0 0 0 0 0 0 0 0 0 0.497136666332577 0.149778249912709 0.0871281923253459 0.159276631862695 0.931779888463461 0.204405364039878 0.084588301990296 0.316778961868279 0 0 0 0 0 0 0 0 0 0 0 0 0 0 0 0 0 0 0 0 0 0 0 0 0 0 0 0 0 0 0 0 0 0 0 0 0 0 0 0 0 0 0 0 0 0 0 0 0 0 0 0 0 0 0 0 0 0 0 0 0 0 0 0 0 2.23708950825504 0.163571779215763 0 0 0 0
0 0 0 0 0 -7.14748137110125 -0.845510485287814 -1.3927749629847 -0.292105662162262 -0.519123339778049 -0.278837579347931 -0.277079250899208 -0.115775351164055 -10.6095695533886 -0.868847585436765 -1.19130734186717 0 0 0 0 0 0 -0.471780250952827 -0.909638342013602 -1.58143365551077 -2.45384182743838 -0.515605380227709 -1.29059228856843 -2.1173956715045 0 0 0 0 0 0 0 0 0 -3.44572498627962 -0.770394260757493 -0.922149283142723 -2.57017962316717 -0.461844333045407 -0.956155498348099 -0.839014393239899 0 0 0 0 0 0 0 0 0 0 0 0 0 0 0 0 0 0 0 0 0 0 0 0 0 0 0 0 0 0 0 0 0 0 0 0 0 0 0 0 0 0 0 0 0 0 0 0 0 0 0 0 0 0 0 0 0 0 0 0 0 0 0 0 0 0 0 0 0 0 0 0 0 0 0 0 0 0 0 0 0 0 0 0 0 0 0 0 0 0 0 -11.1511873066394 0 0 0 0 0 0
0 0 0 0 0 -2.8835034396284 -3.67439575942699 -2.36844875317963 -0.473258080636692 -0.159761853758379 -0.273829861111813 -0.861135856684997 -0.942549770665207 -0.541382840127345 -1.27638210435853 -1.95502953780653 0 0 0 0 0 0 -0.153901250829566 -0.958833828196212 -0.975570659914793 0 -1.59654251348043 -2.98818560597502 -1.63584855596622 0 0 0 0 0 0 0 0 0 -3.29653515633808 -0.301698544066352 -1.16689450225406 -0.859100622201652 -3.55345322162164 0 0 0 0 0 0 0 0 0 0 0 0 0 0 0 0 0 0 0 0 0 0 0 0 0 0 0 0 0 0 0 0 0 0 0 0 0 0 0 0 0 0 0 0 0 -0.366376435679527 -0.646768029615657 -0.320581997172352 -0.486277380742016 -2.17158698879149 -8.89866786192823 -5.41614587435397 0 0 0 0 0 0 0 0 0 0 0 0 0 0 0 0 0 0 0 0 0 0 0 0 0 0 0 0 0 0 0 0 0 0 0 0 0 0 0 0 0 -0.818803704554799 0 0 0 0 0 0
0 0 -0.466119406697675 0 0 0 0 0 0 0 0 0 0 0 0 0 0 0 0 0 0 0 0 0 0 0 0 0 0 0 0 0 0 0 0 0 0 0 0 0 0 0 0 0 0 0 0 0 0 0 0 0 0 -2.25683047427285 -2.47229474343662 -1.72758402218109 -5.60638288056112 0 0 0 0 0 0 0 0 0 0 0 0 0 0 0 0 0 0 0 0 0 0 0 0 0 0 0 0 0 0 0 0 0 0 0 0 0 0 0 0 0 0 0 0 0 0 0 0 0 0 0 0 0 0 0 0 0 0 0 0 0 0 0 0 0 0 0 0 0 0 0 0 0 0 0 0 0 0 0 0 0 0 0 0 0 0
0 -0.689734294167733 0 0 0 -4.44466777723188 -3.17209961696117 -0.285465461461879 -0.462873800016807 -10.9525270565857 -0.182679756216847 -1.43792245100153 -0.328567130286402 -0.986558696674235 -0.314128120422387 -0.449031712872147 0 0 0 0 0 -1.63684273530026 -1.15905034485434 0 0 0 0 0 0 -0.633609235337805 -1.27106422027611 -1.54004023203068 -2.02282448985466 -0.804616964696309 -1.92542633604984 -0.461249227702143 -0.879141717138139 -0.793706100075538 0 0 0 0 0 0 0 0 0 0 0 0 0 0 0 -0.281959291944149 0 0 0 0 0 -1.25982453154523 -0.300574134646443 -0.355989651458247 -0.215476120239593 0 -3.40483224228525 -0.285116284195241 -3.17457452349437 -1.89640032843888 -0.607822359637783 -1.26865398500844 -0.839037618716323 -1.18832889778534 0 0 0 0 0 0 0 0 0 0 0 0 0 0 0 0 0 0 0 0 0 0 0 -1.78718405620461 -3.57745334936684 -0.705499320581524 -1.89593963673955 -1.53454328845432 -0.4236310747632 -1.11786464848405 -8.45660981573443 -0.442918375427429 -2.05439423121016 0 0 0 0 0 0 0 0 0 0 0 0 0 0 0 0 0 0 0 0 0 0 0 0 0 0 0 0 0 0 0 0 0 0 0 0 0 0
0 0 -0.474604275522319 -0.638176710344635 -0.171415771715149 0 0 0 0 0 0 0 0 0 0 0 -0.711627227825042 -0.340306421702084 -0.557310743820699 -0.746798281805037 -0.278535516731241 0 0 0 0 0 0 0 0 0 0 0 0 0 0 0 0 0 0 0 0 0 0 0 0 0 0 0 0 0 0 -0.533769688828291 -0.95838830721029 0 0 0 0 0 0 0 0 0 0 0 0 0 0 0 0 0 0 0 0 0 0 0 0 0 0 0 0 0 0 0 0 0 0 0 0 0 0 0 0 0 0 0 0 0 0 0 0 0 0 0 0 0 0 0 0 0 0 0 -1.05730054182832 -0.409075999240065 -1.13285956829785 -0.148265272249398 -0.479303325963061 0 0 0 0 0 0 0 0 0 0 0 0 0 0 0 0 0 0 0 0 0 0 0 0 0 0
0 -0.146151582450682 0 0 -1.97408818099875 -1.5629581197278 -2.2467767655227 -1.50282663528608 -1.27094936796055 -0.358616881110446 -1.00392790732079 -0.690356587499164 -2.90451395515537 -1.59971626200722 -1.00005964802062 -0.779689266218091 0 0 0 0 0 -1.21964220096157 0 -0.729132432527204 -0.214097127262128 0 0 0 0 -3.68740499930826 -1.03879527412286 -0.138738982696916 -4.87694065899942 -0.273167534482384 -0.721217036842189 -0.304133302284775 -0.750930978886172 -1.62198575027943 0 0 -1.33105482181568 -0.742166710307047 -0.380806409802082 0 0 0 0 0 0 0 0 0 0 -1.65368031770911 -0.568877594863164 -1.61981778359549 -0.396387006809723 0 0 -7.66337543512193 0 0 0 0 -1.5865465442823 -0.699903174085244 -3.25825730431871 -0.324639444077849 -1.92489494924756 -0.100989995118346 -11.2030830737547 -0.582781178434105 -0.33399094985722 -3.80019603297198 -0.317131241193542 -0.913268194870307 -0.972301404650407 -0.846419628793062 -0.70638932680079 -1.41973801993151 -4.43690045293753 -2.00034159664747 -0.4044503815712 -1.05231902806249 -0.33154366451369 -0.676237319794222 -0.946026153703747 -0.615643723705027 0 0 0 0 0 0 0 -1.06604857138345 -6.20667361854527 -1.08395511269142 -0.349928032829896 -0.698565980358028 -0.295966227483867 -2.00177118939719 -0.455334896280539 -0.39817400818351 -1.85487611681155 0 0 0 0 0 -0.463370839115892 -3.54590699434574 0 0 0 0 0 0 0 0 0 0 0 0 0 0 0 0 0 0 0 0 0 0 0 0 0 0 0 0 0 0 0
