0 -0.630740838449974 -3.31902962980268 0 0 0 0 0 0 0 0 0 0 0 0 0 0 0 0 0 0 -0.307433998750646 0 0 0 0 0 0 0 -0.831901064283568 -0.122437283274611 -0.586926162325288 -1.0244048747736 -5.21500479250495 -0.728075273039168 -0.178106651511104 -0.738970316198807 -3.85970308531763 0 0 0 0 0 0 0 0 0 0 0 0 0 0 0 0 0 0 0 0 0 0 0 0 0 0 -3.17278893583516 -0.725721813187706 -0.287833749687688 -0.474331280816609 -2.78700532540799 -0.521860499283659 -1.37221780436078 -0.632734033981104 0 0 0 0 0 0 0 0 0 0 0 0 0 0 0 0 0 0 0 0 0 0 0 -2.17996583402831 -2.61384366141249 -1.53490038333365 -0.567674086219264 -1.47976486248161 -4.26640198060545 -0.648241450647805 -0.987280292589661 -0.561166360310313 -1.56599098403732 -0.958157632456883 -0.963986512211139 -0.327267156941429 -1.80531991803777 -0.659743079800959 0 0 0 0 0 0 0 0 0 0 0 0 0 0 0 0 0 0 0 0 0 0 0 0 0 0 0 0 0 0 0 0 0
0.130136821006883 -6.7348672351374 -0.359856202581152 0 0 0 0 0 0 0 0 0 0 0 0 0 0 0 0 0 0 0 0 0 0 0 0 0 0 -0.483369559426227 -0.834104102431937 -0.995272959185986 -0.870892665728512 -1.167473822747 -1.58628204643044 -2.62501913496585 -0.790997359407618 -0.232909472146992 0 0 0 0 0 0 0 0 0 0 0 0 0 0 0 0 0 0 0 0 0 0 0 0 0 0 -0.428888488377249 -0.538074779318136 -3.18467893495229 -1.14241925625756 -1.84885543214775 -3.12644080304825 -0.421358177837008 -1.30005545047343 0 0 0 0 0 0 0 0 0 0 0 0 0 0 0 0 0 0 0 0 0 0 0 -2.00653728623488 -1.22491089140449 -2.18093894526067 -5.75264200375503 -1.21111461561228 -0.994915079181101 -0.444891859501303 -3.55096660184554 -0.582908422027186 -2.02255732331321 -0.835480063237294 -1.60304318118971 -0.954181247176374 -3.53030635036661 -0.106233100310309 0 0 0 0 0 0 0 0 0 0 0 0 0 0 0 0 0 0 0 0 0 0 0 0 0 0 0 0 0 0 0.13433779885189 0 0.0485947079042021
0.739495423997439 0.0708570395037112 -0.274142088632073 0 0 0 0 0 0 0 0 0 0 0 0 0 0 0 0 0 0 -1.32620857664387 0 0 0 0 0 0 0 -1.00897876960047 0 0 0 0 0 0 0 0 0 0 -0.939347769830153 -5.57348730449804 -4.70550314432575 0 0 0 0 0 0 0 0 0 0 -2.23973155231008 -2.28631855618341 -0.987628333452661 -0.787898419125693 -0.137676257059318 -1.25520873062461 -9.8365828569585 -1.66897455135139 -2.20707503383626 -2.03669865825014 0 -0.503948515062558 -0.765174150629255 -7.67350415192371 -2.58357798387188 -0.917912603889731 -1.15117824404522 -0.989302983911284 -7.8714577946004 0 0 0 0 0 0 0 0 0 0 0 0 0 0 0 0 0 0 0 0 0 0 0 -0.253415033936036 -1.11868420624852 -3.12967238032102 -1.30271987742775 -0.544676883522776 -1.23547099403962 -3.16659177636414 -0.79639556058779 -0.800490911007186 -0.444158773986813 -0.199069003810255 -4.0003454169769 -2.5542235813358 -2.73125635336645 -1.15941824770032 0 0 0 0 0 0 0 0 0 0 0 0 0 0 0 0 0 0 0 0 0 0 0 0 0 0 0 0 0 0.863334784202565 0 0.109314729694222 0
0 0 0 0 -0.54363174911802 0 0 0 0 0 0 0 0 0 0 0 -0.210918540383274 -2.98840902843071 -1.79858112662141 -1.3690764171338 -0.83008597346375 0 0 0 0 0 0 0 0 0 0 0 0 0 0 0 0 0 0 0 0 0 0 0 0 0 0 0 0 0 0 0 0 0 0 0 0 0 0 0 0 0 0 0 0 0 0 0 0 0 0 0 0 0 0 0 0 0 0 0 0 0 0 0 0 0 0 0 0 0 0 0 0 0 0 0 0 0 0 0 0 0 0 0 0 0 0 0 0 0 0 0 -5.02351354876042 -0.404400823991901 -1.97881010383661 -2.26372619489408 -0.239562590288266 0 0 0 0 0 0 0 0 0 0 0 0 0 0 0 0 0 0 0 0 0 0 0 0 0.120632591807012 0
0 0 0 0.106196356099414 -0.366702139459207 0 0 0 0 0 0 0 0 0 0 0 -0.71232553320118 -1.17028756468805 -0.902473117327538 -0.385529094761253 -7.41960481545413 0 0 0 0 0 0 0 0 0 0 0 0 0 0 0 0 0 0 0 0 0 0 0 0 0 0 0 0 0 0 0 0 0 0 0 0 0 0 0 0 0 0 0 0 0 0 0 0 0 0 0 0 0 0 0 0 0 0 0 0 0 0 0 0 0 0 0 0 0 0 0 0 0 0 0 0 0 0 0 0 0 0 0 0 0 0 0 0 0 0 0 -0.557393164086661 -1.25846878837382 -1.93000807517402 -0.854022205598992 -0.272415936231795 0 0 0 0 0 0 0 0 0 0 0 0 0 0 0 0 0 0 0 0 0 0 0 0 0.0448390342935447 0.064822285994128
0 0 0 0 0 0 0 0 0 0 0 0 0 0 0 0 0 0 0 0 0 0 0 -0.191191984988424 -4.04217409852118 0 0 0 0 0 0 0 0 0 0 0 0 0 0 0 -0.520819405620742 -0.512739621058323 -0.230515354666635 0 0 -2.0304011343173 0 0 0 0 0 -1.88102877002658 -1.92023019566714 -1.96657340653608 -0.579303579125632 -0.905457930642535 -0.387502583854815 -1.45236306735731 -2.9972108228749 -1.11925246423955 -6.37537605651622 -1.01687351315315 -1.32679629326358 -1.02058633001029 0 0 0 0 0 0 0 0 0 0 0 0 0 0 0 0 0 0 0 0 0 0 0 0 0 0 0 0 0 0 0 0 0 0 0 0 0 0 0 0 0 -0.706868332971672 -0.995076901666328 -0.523481020368703 -0.653416226672963 -0.636113755035321 0 0 0 0 0 0 0 0 0 0 0 0 0 0 0 0 0 0 0 0 0 0 0 0 0 0 0 0.229470265985316 0.372006458251094 0 0.78398583012976 0 0.342071935125255
0 0 0 0 0 0 0 0 0 0 0 0 0 0 0 0 0 0 0 0 0 0 0 -2.77349319566569 -0.133604530226462 0 0 0 0 0 0 0 0 0 0 0 0 0 0 0 -3.90333552436622 -0.906702361622938 -0.30741442419331 0 0 -0.464864270483842 0 0 0 0 0 -1.4403926210113 -2.04024393097874 -0.2123091715848 -1.35683033589071 -2.86013139595978 -0.0771755947617954 -0.738669504390274 -1.07827323236188 -0.854753163694262 -1.19484060812688 -2.01102554706954 -1.46690508579122 -5.85533486712365 0 0 0 0 0 0 0 0 0 0 0 0 0 0 0 0 0 0 0 0 0 0 0 0 0 0 0 0 0 0 0 0 0 0 0 0 0 0 0 0 0 -1.49469962472351 -4.15285898748303 -2.26910917429905 -2.81941684813199 -2.75323781666344 0 0 0 0 0 0 0 0 0 0 0 0 0 0 0 0 0 0 0 0 0 0 0 0 0 0 0 1.92659477647111 0.0509398083914973 0 0.0811756144609471 0 0.272677913810386
0 0 0 0 0 0 0 0 0 0 0 0 0 0 0 0 0 0 0 0 0 0 0 -2.44913189152515 -3.49956704852149 0 0 0 0 0 0 0 0 0 0 0 0 0 0 0 -0.217144482467494 -0.288484199303171 -1.34126240948599 0 0 -5.12266785051528 0 0 0 0 0 -0.262032299475455 -3.9139922895137 -1.23042071147274 -1.40467220831131 -1.07969656092573 -0.377252709560894 -2.71710984644783 -0.9156165025046 -2.11787305377327 -2.05723331430418 -2.45348648199227 -1.74424362979998 -1.88873528202482 0 0 0 0 0 0 0 0 0 0 0 0 0 0 0 0 0 0 0 0 0 0 0 0 0 0 0 0 0 0 0 0 0 0 0 0 0 0 0 0 0 -0.819534734494779 -1.37361068289233 -0.551163624077918 -0.457908043018403 -3.40391412685222 0 0 0 0 0 0 0 0 0 0 0 0 0 0 0 0 0 0 0 0 0 0 0 0 0 0 0 0.0773678557030837 0.135753255578555 0 0.171447534890872 0 0.0671617471821701
0 0 0 0 0 0 0 0 0 0 0 0 0 0 0 0 0 0 0 0 0 0 0 -0.250347286641685 -1.07315819401744 0 0 0 0 0 0 0 0 0 0 0 0 0 0 0 -2.58744877115676 -0.154430913254784 -0.846454967161197 0 0 -0.291666253819517 0 0 0 0 0 -0.353803686549499 -0.140268626061518 -3.82672702876202 -0.800629475442296 -1.31873080838529 -2.578655772368 -0.828707353051746 -1.01894787824456 -0.31132831230599 -1.73198487110213 -1.27163555866707 -0.243860723890741 -1.83676772493977 0 0 0 0 0 0 0 0 0 0 0 0 0 0 0 0 0 0 0 0 0 0 0 0 0 0 0 0 0 0 0 0 0 0 0 0 0 0 0 0 0 -0.718446221624005 -0.713684287516486 -1.16302347631535 -1.03184385565708 -0.715363152462926 0 0 0 0 0 0 0 0 0 0 0 0 0 0 0 0 0 0 0 0 0 0 0 0 0 0 0 0.543460412447221 0.128634866725718 0 0.141064393042638 0 0.140037549198445
0 0 0 0 0 0 0 0 0 0 0 0 0 0 0 0 0 0 0 0 0 0 0 -1.79176339551985 -0.516860602007892 0 0 0 0 0 0 0 0 0 0 0 0 0 0 0 -0.756901356645732 -0.264258007644095 -3.0070336113227 0 0 -0.48996552261303 0 0 0 0 0 -1.02756862731671 -1.00349899992317 -0.782184624284782 -1.24993249733187 -0.352427403821955 -0.388271097218219 -1.09098473603326 -0.330616662550571 -3.54569544566133 -0.904083993924472 -0.852288511056906 -3.91402597602362 -1.93035602360251 0 0 0 0 0 0 0 0 0 0 0 0 0 0 0 0 0 0 0 0 0 0 0 0 0 0 0 0 0 0 0 0 0 0 0 0 0 0 0 0 0 -2.69903246723165 -0.755094989995946 -0.928306239859044 -1.77938178579648 -0.779061986131679 0 0 0 0 0 0 0 0 0 0 0 0 0 0 0 0 0 0 0 0 0 0 0 0 0 0 0 0.179459969934501 0.0584472628674226 0 0.571585401661751 0 0.35189277462903
0 0 0 0 0 0 0 0 0 0 0 0 0 0 0 0 0 0 0 0 0 0 0 -0.838724359515344 -1.81052980827388 0 0 0 0 0 0 0 0 0 0 0 0 0 0 0 -0.648277571063981 -2.52191691800428 -0.551956460114229 0 0 -0.381481435220805 0 0 0 0 0 -1.26517927158625 -2.28613507126958 -0.086588096394113 -2.84314715275349 -1.5570305817349 -1.56835744344701 -2.85335884844471 -0.146945535191776 -0.753716156221894 -0.590883079730669 -0.268627537996342 -1.39219249236324 -1.15951239057779 0 0 0 0 0 0 0 0 0 0 0 0 0 0 0 0 0 0 0 0 0 0 0 0 0 0 0 0 0 0 0 0 0 0 0 0 0 0 0 0 0 -0.751439935990508 -0.774747539430961 -6.22384939509918 -5.31430179534031 -0.443568203919543 0 0 0 0 0 0 0 0 0 0 0 0 0 0 0 0 0 0 0 0 0 0 0 0 0 0 0 0.60273721555426 0.200942299202786 0 0.0829473243996481 0 1.2208887367095
0 0 0 0 0 0 0 0 0 0 0 0 0 0 0 0 0 0 0 0 0 0 0 -2.21628616521887 -0.782275314829754 0 0 0 0 0 0 0 0 0 0 0 0 0 0 0 -0.328557003889915 -0.74241178555793 -0.616149986129215 0 0 -0.215251695274631 0 0 0 0 0 -1.16526125991153 -2.13772245466256 -1.03818874413682 -0.20483377263378 -0.57194441025603 -1.0318363923684 -2.14906811475503 -0.493587981517494 -0.099618980556693 -0.411456551419979 -0.162327167048436 -0.90595436937188 -1.78186643889342 0 0 0 0 0 0 0 0 0 0 0 0 0 0 0 0 0 0 0 0 0 0 0 0 0 0 0 0 0 0 0 0 0 0 0 0 0 0 0 0 0 -8.45550908056306 -0.621884809757057 -1.68023824596518 -0.628721561564898 -0.994674143245673 0 0 0 0 0 0 0 0 0 0 0 0 0 0 0 0 0 0 0 0 0 0 0 0 0 0 0 0.333107255622629 0.801051773815892 0 0.0901923038179513 0 0.127943837246449
0 0 0 0 0 0 0 0 0 0 0 0 0 0 0 0 0 0 0 0 0 0 0 -0.329646621798105 -0.308698812434005 0 0 0 0 0 0 0 0 0 0 0 0 0 0 0 -1.45809289110949 -1.41298082102352 -0.872279023197014 0 0 -0.595595454761367 0 0 0 0 0 -5.50634825675244 -3.39026643538667 -2.58259373112411 -0.820970670874186 -0.949339073098099 -7.65176787479091 -1.0617020462282 -4.30299659538256 -2.73801213741334 -1.58519550950879 -1.12831295067447 -0.623222517602471 -2.35843004288435 0 0 0 0 0 0 0 0 0 0 0 0 0 0 0 0 0 0 0 0 0 0 0 0 0 0 0 0 0 0 0 0 0 0 0 0 0 0 0 0 0 -0.236540698618035 -9.00085304042218 -0.282491179761133 -3.66013717012123 -1.26517086660802 0 0 0 0 0 0 0 0 0 0 0 0 0 0 0 0 0 0 0 0 0 0 0 0 0 0 0 0.201587145309387 0.0768159655213106 0 0.157652877160622 0 0.292458492804187
0 0 0 0 0 0 0 0 0 0 0 0 0 0 0 0 0 0 0 0 0 0 0 -1.76882001260661 -0.935739848786953 0 0 0 0 0 0 0 0 0 0 0 0 0 0 0 -2.28412943185728 -0.421516629876537 -0.303538051725012 0 0 -3.41007307173788 0 0 0 0 0 -3.18115506419633 -0.672927495139099 -0.669261032632596 -1.84633632786122 -0.266369298241679 -0.741093340577514 -4.77593150828023 -0.482991085511225 -2.00816665541936 -1.18331674923468 -0.410793391557622 -1.97673385300786 -0.373057851913466 0 0 0 0 0 0 0 0 0 0 0 0 0 0 0 0 0 0 0 0 0 0 0 0 0 0 0 0 0 0 0 0 0 0 0 0 0 0 0 0 0 -0.636061098591475 -0.189393312752693 -0.587728678385303 -0.683148051157112 -0.575226921299756 0 0 0 0 0 0 0 0 0 0 0 0 0 0 0 0 0 0 0 0 0 0 0 0 0 0 0 0.0954191577317384 0.55096351276919 0 0.209626111036634 0 1.15000687181063
0 0 0 0 0 0 0 0 0 0 0 0 0 0 0 0 0 0 0 0 0 0 0 -0.486074500496968 -0.627452368221283 0 0 0 0 0 0 0 0 0 0 0 0 0 0 0 -0.371740462863397 -0.517442157792831 -0.763234354472667 0 0 -1.47319097827021 0 0 0 0 0 -3.44048885684631 -0.660142909446252 -0.781727240707064 -0.456811546123776 -3.82262816938593 -1.32221634066818 -0.677534167342438 -0.91040705410832 -0.626734877176897 -0.317958990687767 -0.138943442059809 -6.54716278839128 -0.390617398919773 0 0 0 0 0 0 0 0 0 0 0 0 0 0 0 0 0 0 0 0 0 0 0 0 0 0 0 0 0 0 0 0 0 0 0 0 0 0 0 0 0 -0.597899057860092 -0.156470666952211 -0.627428190562352 -0.642949916892285 -3.04633027183 0 0 0 0 0 0 0 0 0 0 0 0 0 0 0 0 0 0 0 0 0 0 0 0 0 0 0 0.127499005771762 0.872495086679303 0 0.114720214652846 0 0.227608533391657
0 0 0 0 0 0 0 0 0 0 0 0 0 0 0 0 0 0 0 0 0 0 0 -4.19314546669287 -0.898222979492425 0 0 0 0 0 0 0 0 0 0 0 0 0 0 0 -0.503404832248432 -1.02523153789846 -0.119487961304995 0 0 -1.0793216014826 0 0 0 0 0 -0.806386859632941 -2.94716835654665 -0.364422544545789 -1.54328964686447 -0.88441279935291 -4.02359413266094 -0.0814126587778791 -0.536338277206745 -1.94122655368483 -2.03646393455768 -1.81073327336768 -1.32922062923638 -5.2662067033067 0 0 0 0 0 0 0 0 0 0 0 0 0 0 0 0 0 0 0 0 0 0 0 0 0 0 0 0 0 0 0 0 0 0 0 0 0 0 0 0 0 -0.427557700592091 -0.334917390739082 -1.20403722801962 -1.81520034485617 -0.26683886957992 0 0 0 0 0 0 0 0 0 0 0 0 0 0 0 0 0 0 0 0 0 0 0 0 0 0 0 0.526086835479057 0.0915621043124085 0 0.586046466188562 0 0.169578579181706
0 0 0 0.0453141150349745 0.135999327922509 0 0 0 0 0 0 0 0 0 0 0 0 0 0 0 0 0 0 -0.572437753918906 -1.73905579676355 0 0 0 0 0 0 0 0 0 0 0 0 0 0 0 0 0 0 0 0 0 0 0 0 0 0 0 0 0 0 0 0 -3.40893723442715 -0.645651632852884 0 0 0 0 0 0 0 0 0 0 0 0 0 0 0 0 0 0 0 0 0 0 0 0 0 0 0 0 0 0 0 0 0 0 0 0 0 0 0 0 0 0 0 0 0 0 -1.7250847832616 -1.7746644638869 -4.98202162710783 -0.788581473174953 -2.62890311149469 0 0 0 0 0 0 0 0 0 0 0 0 0 0 0 0 0 0 0 0 0 0 0 0 0 0 -0.334315703393356 0 0 0 0 0.340187006416412 0
0 0 0 0.532925799838369 0.241097081439887 0 0 0 0 0 0 0 0 0 0 0 0 0 0 0 0 0 0 -7.87374907783694 -0.501081192487847 0 0 0 0 0 0 0 0 0 0 0 0 0 0 0 0 0 0 0 0 0 0 0 0 0 0 0 0 0 0 0 0 -1.0194764989141 -1.58198063319882 0 0 0 0 0 0 0 0 0 0 0 0 0 0 0 0 0 0 0 0 0 0 0 0 0 0 0 0 0 0 0 0 0 0 0 0 0 0 0 0 0 0 0 0 0 0 -1.01598978029181 -1.09360431795472 -1.2581507023139 -1.19621501306276 -4.6083247811167 0 0 0 0 0 0 0 0 0 0 0 0 0 0 0 0 0 0 0 0 0 0 0 0 0 0 -4.83222283446568 0 0 0 0 0.354530406249788 0
0 0 0 0.367620562131135 0.196523683378531 0 0 0 0 0 0 0 0 0 0 0 0 0 0 0 0 0 0 -0.1550962135163 -5.72768132723695 0 0 0 0 0 0 0 0 0 0 0 0 0 0 0 0 0 0 0 0 0 0 0 0 0 0 0 0 0 0 0 0 -0.189097372302163 -7.21645018565254 0 0 0 0 0 0 0 0 0 0 0 0 0 0 0 0 0 0 0 0 0 0 0 0 0 0 0 0 0 0 0 0 0 0 0 0 0 0 0 0 0 0 0 0 0 0 -0.851037164302325 -1.19264857029997 -0.326395756863024 -1.70890410957462 -4.15759021904668 0 0 0 0 0 0 0 0 0 0 0 0 0 0 0 0 0 0 0 0 0 0 0 0 0 0 -5.35879778256434 0 0 0 0 1.3277564092364 0
0 0 0 0.270415383478286 0.0746572785068913 0 0 0 0 0 0 0 0 0 0 0 0 0 0 0 0 0 0 -3.63704401786841 -2.40585066138315 0 0 0 0 0 0 0 0 0 0 0 0 0 0 0 0 0 0 0 0 0 0 0 0 0 0 0 0 0 0 0 0 -0.145122270783887 -0.206336322198892 0 0 0 0 0 0 0 0 0 0 0 0 0 0 0 0 0 0 0 0 0 0 0 0 0 0 0 0 0 0 0 0 0 0 0 0 0 0 0 0 0 0 0 0 0 0 -0.324142570704052 -2.98470231186447 -0.793186132069048 -0.62334647378732 -3.7517095567124 0 0 0 0 0 0 0 0 0 0 0 0 0 0 0 0 0 0 0 0 0 0 0 0 0 0 -0.853696578308567 0 0 0 0 0.168573311666249 0
0 0 0 0.160053375087739 1.48184668585731 0 0 0 0 0 0 0 0 0 0 0 0 0 0 0 0 0 0 -0.291108906132737 -0.435623026843537 0 0 0 0 0 0 0 0 0 0 0 0 0 0 0 0 0 0 0 0 0 0 0 0 0 0 0 0 0 0 0 0 -0.370116932903327 -0.729078884104145 0 0 0 0 0 0 0 0 0 0 0 0 0 0 0 0 0 0 0 0 0 0 0 0 0 0 0 0 0 0 0 0 0 0 0 0 0 0 0 0 0 0 0 0 0 0 -0.161332494921272 -0.269227437474739 -1.20758168810608 -0.905117928166043 -2.01628543647924 0 0 0 0 0 0 0 0 0 0 0 0 0 0 0 0 0 0 0 0 0 0 0 0 0 0 -0.604208162314711 0 0 0 0 0.579806842723409 0
0.0603015527118784 0 0.268694165375725 0 0 0 0 0 0 0 0 0 0 0 0 0 0 0 0 0 0 0 0 0 0 -1.28378121426604 0 0 0 0 0 0 0 0 0 0 0 0 0 0 0 0 0 -4.07583516972842 -0.157224891431627 0 0 0 0 0 0 0 0 0 0 0 0 0 0 0 0 0 0 -0.45302191461791 0 0 0 0 0 0 0 0 0 0 0 0 0 0 0 0 0 0 0 0 0 0 0 0 0 0 0 0 0 0 0 0 0 0 0 0 0 0 0 0 0 0 0 0 0 0 0 0 0 0 0 0 0 -5.38973020030501 -1.16379626262531 -0.999565047884262 0 0 0 0 0 0 0 -0.781909804710993 -5.57357814824139 -0.215686163228472 -0.0773190812284993 -0.587237690117648 -1.48729638131666 -6.74499129282834 0 0 0 0 0 0 0.195263779768674 0 0.0353847429571423
0 0 0 0 0 0 0 0 0 0 0 0 0 0 0 0 0 0 0 0 0 0 0 0 0 0 0 0 0 0 0 0 0 0 0 0 0 0 0 0 0 0 0 0 0 0 0 0 0 0 0 0 0 0 0 0 0 0 0 0 0 0 0 0 0 0 0 0 0 0 0 0 0 0 0 0 0 0 0 0 0 0 0 0 0 0 0 0 0 0 0 0 0 0 0 0 0 0 0 0 0 0 0 0 0 0 0 0 0 0 0 0 0 0 0 0 0 0 0 0 0 0 0 0 0 0 0 0 0 0 0 0 0 0 0 0 0 0.196007144625259 0.0514414582194986 0 0.250978051219195 0 0
0 0 0 0 0 0.0389454782491731 0.538448813900313 0.501915089218206 0.0534826704271848 0.382084768238686 0.178129987911238 0.433093628524355 0.0686599111872736 0.352465622973988 0.0899277713056936 0.747721444285903 0.115020258777054 1.5007379612325 0.0322264102331791 0.648483509629414 0.0622019843460775 0 0 0 0 -0.243209636477041 0.223549445907741 0.15631140899768 0.188599256488051 0 0.666789597255269 0.261592101010477 0.485620414873614 0.20162942682056 0.66357443594526 0.158538214409687 0.469683792739054 0.0362538524717034 0 0 -1.68292139803169 -1.10188764507456 -1.486420579414 -1.29197460833044 -10.5759373671688 0 0 0 0 0 0 0 0 0 0 0 0 -0.965263724944255 -3.32087525663599 0 0 0 0 -1.11649378636378 1.97058835865917 0.194347332503724 0.734780698609747 0.18196403372732 0.203608295331379 0.345041372961907 0.374998722351171 0.14067159976872 0 0 0 0 0 0 0 0 0 0 0 0 0 0 0 0 0 0 0 0 0 0 0 0.26918135556496 0.154787794158937 0.126905575051798 0.221905942325076 0.160950232296037 0.36332188608005 0.107448875481806 0.0517093043615907 0.185839239833445 0.0877485823995345 0.488878700694943 0.249189475379138 0.066072840692776 0.182878328430736 0.0129996562975951 0 0 0 0 0 0 0 -3.69038151811997 -0.697315391507078 -2.53185017889919 0 0 0 0 0 0 0 0 0 0 -1.13549882174462 -0.611666388043286 -0.725507796338778 -2.00610534772793 0 0 0 0.164441301758032 0.135861822398007 0 0 0 0.11971518016882
0 0 0 0 0 0.89140835359012 0.0297322997137694 0.681885002621038 0.214253841879632 0.0979744863031048 0.374780766951698 0.148537599189984 0.0645906806530793 0.187572555592956 0.126232845602308 0.174003618257697 0.343639002266023 0.100738414577889 1.25385709849004 0.484525530616505 0.0832678597280139 0 0 0 0 -0.545306886647341 0.197409929196092 0.0857778121818264 0.281795451033289 0 0.167655835168367 0.0701969390817774 0.0993542050086272 0.636896156360448 0.171865634937005 0.97631947435215 0.0724478678346697 0.196185243246947 0 0 -0.32112883324699 -1.77131943753632 -0.424932143157622 -0.924920655685068 -0.0566889075246014 0 0 0 0 0 0 0 0 0 0 0 0 -1.97312949081484 -2.18797339412025 0 0 0 0 -4.2446757150001 0.594238837758428 0.241156942985203 0.12294208118162 0.327628774734827 0.219594542939679 0.310351063058956 0.152437852822495 0.221628471548208 0 0 0 0 0 0 0 0 0 0 0 0 0 0 0 0 0 0 0 0 0 0 0 1.46736554322937 0.25328424854394 0.164708933784584 0.0984690244996061 0.075475097853176 0.224463676535353 0.0633087064889685 0.176916835325234 0.436510403484226 0.0260016216055037 0.0668179217138751 0.387428836387877 0.0326207724541125 0.0539255090500437 0.134456230593398 0 0 0 0 0 0 0 -1.18530551173586 -0.416647340079541 -0.918985807420985 0 0 0 0 0 0 0 0 0 0 -0.724482683169497 -1.80124666088284 -0.268016226765599 -3.07053995394525 0 0 0 0.448399276066452 0.194949200414432 0 0 0 0.0458031999696184
0 0 0 0 0 0 0 0 0 0 0 0 0 0 0 0 0 0 0 0 0 0.256473398172547 0 0.0480550184766585 0.110110989259097 0 0 0 0 0 0 0 0 0 0 0 0 0 0.173709860702266 0.521309456599531 0.252812010402578 0.197414931665968 0 0 0 0 0 0 0 0 0 0 0 0 0 0 0 0 0 0 0 0 0 0 0 0 0 0 0 0 0 0 0 0 0 0 0 0 0 0 0 0 0 0 0 0 0 0 0 0 0 0 0 0 0 0 0 0 0 0 0 0 0 0 0 0 0 0 0 0 0 0 0 0 0 0 0 0 0 0 0 0 0 0 0 0 0 0 0 0 -4.22673822271368 -0.83477310079215 -0.574878533890024 -0.241475870573357 0 0 0 0.668225147724438 0 0 0 0 0
0 0 0 0 0 0 0 0 0 0 0 0 0 0 0 0 0 0 0 0 0 0 0 -1.13669027679794 -1.01182898162269 0 0 0 0 0 0 0 0 0 0 0 0 0 0 0 0 0 0 0 0 0 0 0 -7.96630398638417 -0.488102374254426 -1.27635402896355 0 0 0 0 0 0 -0.920804671495049 -2.34477149861817 0 0 -0.865820095721675 -0.426138925973404 0 0 0 0 0 0 0 0 0 0 0 0 0 0 0 0 0 0 0 0 0 0 0 0 0 0 0 0 0 0 0 0 0 0 0 0 0 0 0 0 0 0 0 0 0 0 0 0 0 0 0 0 0 0 0 0 0 0 0 0 0 0 0 0 0 0 0 0 0 0 0 0 0 0 0.0541782484121132 0.0490752503241211 0 0 0 0
0 0 0 0 0 0 0 0 0 0 0 0 0 0 0 0 0 0 0 0 0 0 0 -0.709460778862248 -0.451376063252274 0 0 0 0 0 0 0 0 0 0 0 0 0 0 0 0 0 0 0 0 0 0 0 -2.94416925428774 -1.82603804712449 -0.265805540102359 0 0 0 0 0 0 -0.542977263597754 -2.6392420439821 0 0 -0.182409058320057 -0.492748319071482 0 0 0 0 0 0 0 0 0 0 0 0 0 0 0 0 0 0 0 0 0 0 0 0 0 0 0 0 0 0 0 0 0 0 0 0 0 0 0 0 0 0 0 0 0 0 0 0 0 0 0 0 0 0 0 0 0 0 0 0 0 0 0 0 0 0 0 0 0 0 0 0 0 0 0.22953511266475 0.196279441673465 0 0 0 0
0 0 0 0 0 0 0 0 0 0 0 0 0 0 0 0 0 0 0 0 0 0 0 -0.899149137697343 -1.36112159636198 0 0 0 0 0 0 0 0 0 0 0 0 0 0 0 0 0 0 0 0 0 0 0 -1.28575926955362 -1.39397352489807 -0.252574297301218 0 0 0 0 0 0 -1.08620642411835 -1.55662416830417 0 0 -2.93408922666701 -0.570106256143861 0 0 0 0 0 0 0 0 0 0 0 0 0 0 0 0 0 0 0 0 0 0 0 0 0 0 0 0 0 0 0 0 0 0 0 0 0 0 0 0 0 0 0 0 0 0 0 0 0 0 0 0 0 0 0 0 0 0 0 0 0 0 0 0 0 0 0 0 0 0 0 0 0 0 0.347476243506775 0.0772892442829147 0 0 0 0
0.157523684144896 0.100104031723827 0.210895739782055 0 0 0 0 0 0 0 0 0 0 0 0 0 0 0 0 0 0 0 0 0 0 0 0 0 0 0 0 0 0 0 0 0 0 0 0 0 0 0 0 0 0 0 0 0 0 0 0 -0.745660972210511 -2.20554402453329 0 0 0 0 0 0 0 0 0 0 0 0 0 0 0 0 0 0 0 0 0 0 0 0 0 0 0 0 0 0 0 0 0 0 0 0 0 0 0 0 0 0 0 0 0 0 0 0 0 0 0 0 0 0 0 0 0 0 0 0 0 0 0 0 0 0 0 0 0 0 0 0 0 0 0 0 0 0 0 0 0 0 0 0 0 0 0 0.585031868085491 0 1.62470088938642
0.0254234211269933 0.173168611071657 0 0 0 0 0 0 0 0 0 0 0 0 0 0 0 0 0 0 0 0 0 -3.50984518891392 -0.909058408322497 0 0 0 0 0 0 0 0 0 0 0 0 0 0 0 -0.339452135145413 -1.50869432868288 -0.995864663373377 0 0 -0.443926869768722 0 0 -1.45269914615035 -0.370997156465871 -0.565853128142921 -0.806463236349952 -2.15042141825911 -0.287815948563803 -0.703997912345448 -0.769075140560117 -4.214578671842 -1.91012175168624 -3.85437717094005 -1.7807867995394 -0.36171556225065 -4.02027274703741 -1.58582497028329 -1.04928260595093 0 0 0 0 0 0 0 0 0 0 0 0 0 0 0 0 0 0 0 0 0 0 0 0 0 0 0 0 0 0 0 0 0 0 0 0 0 0 0 0 0 -0.664854013903488 -0.853669353793343 -0.183771326147511 -0.368795252155205 -1.40569628386166 0 0 0 0 0 0 0 0 0 0 0 0 0 0 0 0 0 0 0 0 0 0 0 0 0 0 0 0 0 0 0.803059967475046 0 0.208435389088851
0.118170650860968 0.19021527865893 0 0 0 0 0 0 0 0 0 0 0 0 0 0 0 0 0 0 0 0 0 -1.35820380967962 -0.36480791624971 0 0 0 0 0 0 0 0 0 0 0 0 0 0 0 -0.901285420043205 -1.27783234789734 -0.49235843887944 0 0 -0.411170108607149 0 0 -5.51697894260872 -2.6016484275018 -1.71933415707475 -1.07320173758665 -0.903880680083391 -0.611588008619115 -1.39726042758368 -1.33106183358464 -2.37754322525345 -2.01075206632163 -0.218585947047022 -0.830640518916791 -1.63211772947111 -3.139706707407 -0.28246705213881 -0.261271640507908 0 0 0 0 0 0 0 0 0 0 0 0 0 0 0 0 0 0 0 0 0 0 0 0 0 0 0 0 0 0 0 0 0 0 0 0 0 0 0 0 0 -2.37930774684733 -1.38222493759449 -0.101228242306334 -1.42664452991478 -1.35507800719481 0 0 0 0 0 0 0 0 0 0 0 0 0 0 0 0 0 0 0 0 0 0 0 0 0 0 0 0 0 0 0.0675712718886655 0 0.424851028558566
0.183892647341116 0.191030741471284 0 0 0 0 0 0 0 0 0 0 0 0 0 0 0 0 0 0 0 0 0 -2.57404959961064 -0.475437902650524 0 0 0 0 0 0 0 0 0 0 0 0 0 0 0 -0.293092164378961 -4.31473146426484 -0.544239375416368 0 0 -0.436748503073863 0 0 -0.183254856460415 -0.313181894337913 -8.07848410522714 -0.36206228024447 -1.76073184948957 -0.492264671172163 -1.92387683667183 -0.815182416406543 -0.325772691846466 -0.305193253099032 -0.374703092896477 -0.497791992865773 -3.38619999791171 -11.1839474121788 -0.197379406796632 -2.48872688061438 0 0 0 0 0 0 0 0 0 0 0 0 0 0 0 0 0 0 0 0 0 0 0 0 0 0 0 0 0 0 0 0 0 0 0 0 0 0 0 0 0 -1.26450246800252 -0.761341378591874 -0.979193672058207 -2.02689961523453 -0.450635425086264 0 0 0 0 0 0 0 0 0 0 0 0 0 0 0 0 0 0 0 0 0 0 0 0 0 0 0 0 0 0 0.234965476255461 0 0.1158986240864
1.10061979634028 0.23460401615822 0 0 0 0 0 0 0 0 0 0 0 0 0 0 0 0 0 0 0 0 0 -1.129621003979 -3.4162719770581 0 0 0 0 0 0 0 0 0 0 0 0 0 0 0 -2.45318183431434 -0.768554178511857 -2.00783904087636 0 0 -0.190402852109865 0 0 -0.802494588851183 -1.0383018631218 -0.574650931691802 -0.309142848123777 -1.3227102625491 -1.61017294319829 -5.26357235645865 -2.18030519028933 -0.443948956655401 -4.32176056900709 -0.950205234237134 -0.819366397194724 -3.27035578644119 -1.07336793661047 -0.186691609877336 -0.10134740922105 0 0 0 0 0 0 0 0 0 0 0 0 0 0 0 0 0 0 0 0 0 0 0 0 0 0 0 0 0 0 0 0 0 0 0 0 0 0 0 0 0 -1.64700358978695 -0.711652978454348 -1.08064126695264 -1.28819246189462 -1.21913813439617 0 0 0 0 0 0 0 0 0 0 0 0 0 0 0 0 0 0 0 0 0 0 0 0 0 0 0 0 0 0 0.113151430910055 0 0.350032346778717
0.137418342763116 0.283773970105147 0 0 0 0 0 0 0 0 0 0 0 0 0 0 0 0 0 0 0 0 0 -3.05427478329223 -0.837581466966042 0 0 0 0 0 0 0 0 0 0 0 0 0 0 0 -5.31775307443926 -0.63194114536961 -0.911892484027912 0 0 -1.22304818180317 0 0 -0.812264751018147 -1.07626350789234 -1.78959314002046 -0.697765262362306 -1.45458249826264 -0.626481876035968 -1.68230266440998 -0.273019200000853 -0.38248652962035 -1.78400989532936 -1.4125124954996 -0.594198994699238 -0.32273623038261 -0.525791023049391 -2.72570894023951 -2.65276563749003 0 0 0 0 0 0 0 0 0 0 0 0 0 0 0 0 0 0 0 0 0 0 0 0 0 0 0 0 0 0 0 0 0 0 0 0 0 0 0 0 0 -2.50019197984963 -0.188334801036284 -1.12159458761647 -0.98158993193517 -0.541833449022404 0 0 0 0 0 0 0 0 0 0 0 0 0 0 0 0 0 0 0 0 0 0 0 0 0 0 0 0 0 0 0.30701810059497 0 1.00571384777996
0.0329523017980144 0.532670740470764 0 0 0 0 0 0 0 0 0 0 0 0 0 0 0 0 0 0 0 0 0 -0.757345358372249 -4.8816233704203 0 0 0 0 0 0 0 0 0 0 0 0 0 0 0 -1.96768840084445 -0.322968845122345 -1.23409733643767 0 0 -0.631291081574987 0 0 -0.567728407400108 -1.09111268723187 -2.12911479107315 -0.157751767802566 -0.68722690679342 -0.509059662866791 -1.14999891286295 -0.542681391257521 -0.679618131882643 -2.46660486957642 -0.159351674210761 -0.238821585919345 -1.45387811441314 -0.332691448844397 -0.704280189738392 -1.24870819278488 0 0 0 0 0 0 0 0 0 0 0 0 0 0 0 0 0 0 0 0 0 0 0 0 0 0 0 0 0 0 0 0 0 0 0 0 0 0 0 0 0 -1.21369836821454 -2.15995038225312 -0.628975091796174 -3.22072839146526 -1.44581262628501 0 0 0 0 0 0 0 0 0 0 0 0 0 0 0 0 0 0 0 0 0 0 0 0 0 0 0 0 0 0 0.0986322539094489 0 0.170908676109398
0.148502901603297 0.15580996199661 0 0 0 0 0 0 0 0 0 0 0 0 0 0 0 0 0 0 0 0 0 -2.5682246976254 -0.347362029399767 0 0 0 0 0 0 0 0 0 0 0 0 0 0 0 -1.82112644465903 -0.886795634051304 -1.19948081361047 0 0 -3.6440851109036 0 0 -0.366491188277839 -0.213200570750998 -3.61967133455806 -0.536126419469694 -5.94082190499994 -3.67872912744728 -0.247990319767782 -0.154892645656527 -0.589492028129586 -6.95435552648108 -0.235431062714678 -1.13297586387366 -1.48348759656316 -1.61027975542561 -1.67151804986298 -0.445416481185607 0 0 0 0 0 0 0 0 0 0 0 0 0 0 0 0 0 0 0 0 0 0 0 0 0 0 0 0 0 0 0 0 0 0 0 0 0 0 0 0 0 -6.31721141669126 -2.19948003472602 -0.223247426478414 -1.25589390484329 -1.03692721035987 0 0 0 0 0 0 0 0 0 0 0 0 0 0 0 0 0 0 0 0 0 0 0 0 0 0 0 0 0 0 0.130693483794081 0 0.193846198648501
0.862072537692149 0.0517873277583567 0 0 0 0 0 0 0 0 0 0 0 0 0 0 0 0 0 0 0 0 0 -0.173664870549481 -0.983711862344002 0 0 0 0 0 0 0 0 0 0 0 0 0 0 0 -0.215588737949964 -1.84944509571889 -0.245099664935558 0 0 -0.674400333473213 0 0 -0.590559714074688 -1.88298444191395 -2.40304913015894 -2.45017714883826 -0.296754031072542 -0.590216449633918 -1.73447117659497 -3.49189971958333 -2.1293423567003 -0.370414000722608 -3.36559471536427 -0.941877659950583 -0.496575744975664 -2.28232422301872 -0.282088453235271 -0.91119460492565 0 0 0 0 0 0 0 0 0 0 0 0 0 0 0 0 0 0 0 0 0 0 0 0 0 0 0 0 0 0 0 0 0 0 0 0 0 0 0 0 0 -0.188697053845413 -0.191953081182311 -2.39885258816286 -0.522943768849683 -0.996335016846184 0 0 0 0 0 0 0 0 0 0 0 0 0 0 0 0 0 0 0 0 0 0 0 0 0 0 0 0 0 0 0.589685546402588 0 0.130617571274093
0 0 0 0 0 0 0 0 0 0 0 0 0 0 0 0 0 0 0 0 0 0 0 0 0 -0.898351941651724 0 0 0 0 0 0 0 0 0 0 0 0 0 0 -0.578488497357656 -3.69801063258546 -1.70395052040666 0 0 0 0 0 -1.03186291209382 -0.147429673794096 -1.00040568702252 -0.397848239354227 -0.726840726491938 0 0 0 0 0 0 0 0 -4.77338362961146 -1.11202421286412 0 0 0 0 0 0 0 0 0 0 0 0 0 0 0 0 0 0 0 0 0 0 0 0 0 0 0 0 0 0 0 0 0 0 0 0 0 0 0 0 0 0 0 0 0 0 0 0 0 0 0 0 0 0 0 0 0 0 0 0 0 0 0 0 0 0 0 0 0 0 0 0 0 0 0.165909701113013 0.609141701242487 0 0 0 0
0 0 0 0 0 0 0 0 0 0 0 0 0 0 0 0 0 0 0 0 0 0 0 0 0 -2.78212397726098 0 0 0 0 0 0 0 0 0 0 0 0 0 0 -0.437297625194295 -2.52268024015946 -1.35271338585074 0 0 0 0 0 -0.758573341000831 -3.12539033545716 -2.61662070531183 -0.824548125749223 -1.48103267151765 0 0 0 0 0 0 0 0 -2.14585387367402 -0.524436873409217 0 0 0 0 0 0 0 0 0 0 0 0 0 0 0 0 0 0 0 0 0 0 0 0 0 0 0 0 0 0 0 0 0 0 0 0 0 0 0 0 0 0 0 0 0 0 0 0 0 0 0 0 0 0 0 0 0 0 0 0 0 0 0 0 0 0 0 0 0 0 0 0 0 0 0.0542048729960552 0.191815849485108 0 0 0 0
0 0 0.182025813209102 0 0 0.108777429755678 0.779409442652479 0.0403084097342583 0.530803335518946 0.147534148357634 0.12509194887465 0.0689974846042726 0.293738039962418 0.455736175616303 0.0754199034616758 0.101991439838559 0 0 0 0 0 0 0 0.32259549021452 0.0654355266576932 -1.17671073708442 0 0 0 0 0.0677691830636225 0.15719763862682 0.0550523223908441 0.47614692318841 1.05414452438647 0.344221414132231 0.377123303457003 0.0392806977038787 0.108734363307514 0.0922102918149417 0 0 0 0 0 0 0 0 -1.13201292726213 -0.774988472878437 -1.74476948633046 -1.16787690795994 -2.82081161828212 0 0 0 0 0 0 0 -0.529917188275846 -0.509841477593832 -0.539283907799374 0 0.811109797788481 0.182485659639288 0.16407133945766 0.0753667896166506 0.404804110135114 0.212135746477121 0.187104457431911 0.268854250656414 0 0 0 0 0 0 0 0 0 0 0 0 0 0 0 0 0 0 0 0 0 0 0 0.199067616771347 0.361371196175027 0.187245783464302 0.335369617574284 0.194850490917912 0.52191895599818 0.349678445564726 0.062992169605489 0.287201614501439 0.308819949816747 0.91692925791637 0.147632012987297 0.345361730236674 0.0254369836857558 2.00175099056155 0.248658933612017 0.256273625192505 0 0 0 0 0 0 0 0 0 0 0 0 0 0 0 -0.676922679200582 -1.84467601044587 -0.199578676285439 -0.565538885425922 -2.30055790482867 -0.591827529493314 -0.71981738713103 0 0 0 0.0385479289243135 0.0648014072201346 0 0 0 0.41750797489933
0 0 1.14632117615399 0 0 0.0976786011302353 0.192301311885767 0.0570877934729884 0.0326644556699938 0.0554760695618135 0.495280878017206 0.149223671893415 0.236640643292494 0.0872641578041053 0.0970286871639599 0.199030627287593 0 0 0 0 0 0 0 0.21383413008532 0.365454600815164 -0.977642583051246 0 0 0 0 0.311613486036386 0.258161592678296 0.890240735546151 0.153065345323408 0.113459413292766 0.0600470335415964 0.178849881658515 0.393686795126379 0.756765535417604 0.511444092725791 0 0 0 0 0 0 0 0 -0.60560821043701 -3.19034510237983 -10.4472863326177 -2.34058299767851 -0.844751911854047 0 0 0 0 0 0 0 -0.200843724099143 -3.95380885241155 -0.831935986263854 0 0.0810909633805255 0.213093788685623 0.28952686120854 0.154564776717968 0.349733834561609 0.136396002938191 0.0580038829527455 0.131859673602721 0 0 0 0 0 0 0 0 0 0 0 0 0 0 0 0 0 0 0 0 0 0 0 0.724099106754237 0.155222541476576 0.12595398175863 0.0953575322455052 0.0825009422291579 0.357583596847906 0.0818106912999996 0.107130589570005 0.445078638294362 0.247257891637276 0.193710296058372 0.217145710936498 0.0512840245290724 0.264690814403696 0.398989354737424 0.136534115051066 0.185954651314029 0 0 0 0 0 0 0 0 0 0 0 0 0 0 0 -1.31463521324945 -3.92029350713727 -2.27595389759051 -0.0604350252381729 -0.312164983921253 -1.05612117942998 -0.504463339755274 0 0 0 0.659958801453857 0.19120422806201 0 0 0 0.384631120114782
0 0 0.901831681146752 0 0 0.0471531319920618 0.0651120239243702 0.27729738992295 0.167195366366723 0.639722418710842 0.104871740149678 0.121302407448745 0.151365631767615 0.0581509590632959 0.143104056224187 0.0253847575960667 0 0 0 0 0 0 0 0.294260375746295 0.0855267254091235 0 0 0 0 0 0.199696131192754 0.0943960021019937 0.117869720222674 0.452456572703576 0.173782330339237 0.250312887216938 0.268904371380511 0.0487822304729684 0.338949694192218 0.26323613571289 0 0 0 0 0 0 0 0 -1.10575956724779 -2.88587440308584 -1.26238680144317 -0.968029407665242 -0.640198568626144 0 0 0 0 0 0 0 -0.44939667594382 -0.279407092926042 -0.258796866277034 0 0.0968371866984898 0.674739366060017 0.0830264347370499 0.310751387542669 0.107791293224211 0.680058264760292 0.329470274047341 0.0518566233778167 0 0 0 0 0 0 0 0 0 0 0 0 0 0 0 0 0 0 0 0 0 0 0 0.220909877187554 0.0243861168630039 0.0977641707650222 0.0794914967093429 0.0739069125717883 0.63823986526039 0.269583219812369 0.712321347277214 1.06489631498448 0.169827671714246 0.0517159190249668 0.734215125712376 0.0484788255210009 0.439260993468838 0.0381933226787817 0.524828529771743 0.49028401813174 0 0 0 0 0 0 0 0 0 0 0 0 0 0 0 -4.40500194429113 -0.66601256539018 -0.874834807211104 -0.542802318206493 -3.64239697088703 -0.0265780373166532 -2.11272051483187 0 0 0 0.32211191946412 0.617980380541613 0 0 0 0.125545111005085
0 0 0 0 0 0 0 0 0 0 0 0 0 0 0 0 0 0 0 0 0 0.824102255973801 0 0.254214629417509 0.195045048796769 0 0 0 0 0 0 0 0 0 0 0 0 0 0 0 0 0 0 0 0 0 0 0 0 0 0 0 0 0 0 0 0 0 0 0 0.314012117187057 0 0 0 0 0 0 0 0 0 0 0 0 0 0 0 0 0 0 0 0 0 0 0 0 0 0 0 0 0 0 0 0 0 0 0.492735230894116 0.0669342494949911 0.487850546282064 0.650492825367646 0.549121482994819 0.221766740157267 0.0664846925524392 0.198348606859888 0.0592144062386681 0.0254104238511125 0 0 0 0 0 0 0 0 0 0 0 0 0 0 0 0 0 0 0 0 0 0 0 0 0 0 0 0 0 -1.01270726896782 -5.79630622234975 0 0.103151523279232 0 0 0 0 0
0 0 0 0 0 0 0 0 0 0 0 0 0 0 0 0 0 0 0 0 0 0.0326992825827661 0 2.07534047254906 0.0114140220818581 0 0 0 0 0 0 0 0 0 0 0 0 0 0 0 0 0 0 0 0 0 0 0 0 0 0 0 0 0 0 0 0 0 0 0 1.08367678636936 0 0 0 0 0 0 0 0 0 0 0 0 0 0 0 0 0 0 0 0 0 0 0 0 0 0 0 0 0 0 0 0 0 0 0.0734125768267214 0.185258191423826 0.498634143754586 0.0625173967430455 0.0751020997153371 0.565982453076522 0.873169078596103 0.115243257247423 0.202112024374047 0.0994903990293741 0 0 0 0 0 0 0 0 0 0 0 0 0 0 0 0 0 0 0 0 0 0 0 0 0 0 0 0 0 -1.0214219070189 -1.48066488151141 0 0.168285248790059 0 0 0 0 0
0 0 0 0 0 0.368840635375637 0.0941675359513257 1.0162375352496 0.0525354229009676 0.0994188072136077 0.0726915076812451 0.0439286563047514 0.126866555223061 0.65625339455848 0.286916193063396 0.202807701091601 0 0 0 0 0 0 0 0 0 0 0 0 0 0 0.0883931638913807 0.088462589103132 0.0924268168655241 0.0399079105762542 0.25043388425726 0.122401338164797 0.77214514438638 0.137995281774527 0 0 0 0 0 0 0 0 0 0 0 0 0 0 0 0 0 0 0 0 0 0 0 0 0 0 0 0 0 0 0 0 0 0 0 0 0 0 0 0 0 0 0 0 0 0 0 0 0 0 0 0 0 0 0 0 0 0 0 0 0 0 0 0 0 0 0 0 0 0 0 0 0 0 0 0 0 0 0 0 0 0 0 0 0 0 0 0 0 0 0 0 0 0 0 0 0 0 0 0 0 0 0 0 0
0 0 0 0 0 0 0 0 0 0 0 0 0 0 0 0 0 0 0 0 0 0 0 0 0 0 0 0 0 0 0 0 0 0 0 0 0 0 0 0 0 0 0 0 0 0 0 0 0 0 0 0 0 0 0 0 0 0 0 0.0954407902408733 0.174567849435962 0 0 0 0 0 0 0 0 0 0 0 0 0 0 0 0 0 0 0 0 0 0 0 0 0 0 0 0 0 0 0 0 0 0 0 0 0 0 0 0 0 0 0 0 0 0 0 0 0 0 0 0 0 0 0 0 0 0 0 -0.464329159104034 -2.40909777563081 -1.00976695468002 -0.818643652952533 -3.07497776578215 -0.415533263745881 -1.4263172757083 0 0 0 0 0 0 0 -2.40229752188571 -2.47067494019186 0 0 0 0 0 0 0
0 0 0 0 0 0 0 0 0 0 0 0 0 0 0 0 0 0 0 0 0 0 0 0 0 0 0 0 0 0 0 0 0 0 0 0 0 0 0 0 0 0 0 0 0 0 0 0 0 0 0 0 0 0 0 0 0 0 0 0.0314689803076482 0.310713249752588 0 0 0 0 0 0 0 0 0 0 0 0 0 0 0 0 0 0 0 0 0 0 0 0 0 0 0 0 0 0 0 0 0 0 0 0 0 0 0 0 0 0 0 0 0 0 0 0 0 0 0 0 0 0 0 0 0 0 0 -0.687675492880581 -0.434031981346725 -4.06555473057538 -0.15194602626819 -10.9659593823094 -0.874144966952689 -1.17161003777177 0 0 0 0 0 0 0 -0.486079811500011 -0.656165646741358 0 0 0 0 0 0 0
0 0 0 0 0 0 0 0 0 0 0 0 0 0 0 0 0 0 0 0 0 0 0 0 0 0 1.4101360959319 0.588685350459771 0.244391147065118 0 0.284058824526031 1.00290950827346 0.033975764659645 0.159265185053483 0.160435582210276 0.11786671286729 0.0786119999782547 0.123102433865474 0.213054360938149 0.145035505287247 0.227922910628089 0.127376470031375 0.223502736146816 0 0 0 0 0 0 0 0 0 0 0 0 0 0 0 0 0 1.02970180142189 0 0 -0.544158004708623 0 0 0 0 0 0 0 0 0 0 0 0 0 0 0 0 0 0 0 0 0 0 0 0 0 0 0 0 0 0 0 0 0 0 0 0 0 0 0 0 0 0 0 0 0 0 0 0 0.186110940911511 0.605473555767493 0.276957768889536 0.694606780387686 0.253981945395608 0 0 0 0 0 0 0 0 0 0 -1.0735432087471 -1.40626483625513 -3.85220499262551 0 0 0 0 0 0 0 0 0 0 0 0 0
0 0 0 0 0 0 0 0 0 0 0 0 0 0 0 0 0 0 0 0 0 0 0 0 0 0 0.098989427576493 0.349586621979099 0.274328588394777 0 0.0714897204763074 0.517762795077259 0.0631924880654512 0.204152616539803 0.223238381963835 0.213681639979688 0.0423759825732897 0.343201077457962 0.0276424284722136 0.600397193612381 0.154359100329162 0.592361340363592 0.597723181428585 0 0 0 0 0 0 0 0 0 0 0 0 0 0 0 0 0 0.871910918106399 0 0 -0.86432720103964 0 0 0 0 0 0 0 0 0 0 0 0 0 0 0 0 0 0 0 0 0 0 0 0 0 0 0 0 0 0 0 0 0 0 0 0 0 0 0 0 0 0 0 0 0 0 0 0 0.110182934736421 0.233698120475743 0.157374715990298 0.281037769111921 0.0462804051838834 0 0 0 0 0 0 0 0 0 0 -0.447461842058316 -1.08561991525762 -0.988581027644027 0 0 0 0 0 0 0 0 0 0 0 0 0
0 0 0 0 0 0 0 0 0 0 0 0 0 0 0 0 0 0 0 0 0 0 0 0 0 0 0.252687784011106 0.0538552421946398 0.0507512931945797 0 0.118577096492801 0.368461493168338 1.57513176855488 0.113212337573515 0.3627400927553 0.410391222733396 0.707525979828687 0.496593560091211 0.211741098560846 0.543774127717893 0.351705616957365 2.08372260013025 0.278123988272939 0 0 0 0 0 0 0 0 0 0 0 0 0 0 0 0 0 1.69053360356852 0 0 -0.18197798393799 0 0 0 0 0 0 0 0 0 0 0 0 0 0 0 0 0 0 0 0 0 0 0 0 0 0 0 0 0 0 0 0 0 0 0 0 0 0 0 0 0 0 0 0 0 0 0 0 1.05756402693334 0.935757524985648 0.195741094955096 1.06148490388691 0.718599761922174 0 0 0 0 0 0 0 0 0 0 -2.45951047131716 -1.50587849077585 -2.09413281171503 0 0 0 0 0 0 0 0 0 0 0 0 0
0 0 0 0 0 0.363628615395517 0.266596111098754 0.0526350421829167 0.0784154256008069 0.201001411020425 0.267075026444504 0.21531309532264 1.16714067355543 0.611891652035223 0.684951754045705 0.163690953674845 0 0 0 0 0 0 0 0 0 0 0 0 0 0.162521609024805 0.168466051576853 0.211628160280989 0.0702619204012916 0.0591217885029722 0.140368019415128 0.0326163718115628 0.0956433172743735 0.541879938625983 0.0820221286859952 0.162688335629477 0.22583156199877 0.480488723877542 0.179724073876837 0 0 0 0 0 0 0 0 0 0 0 0 0 0 0 0 0 0.119500681692138 0 0 0 0 0 0 0 0 0 0 0 0 0 0 0 0 0 0 0 0 0 0 0 0 0 0 0 0 0 0 0 0 0 0 0.140358706891853 0.293819757274461 0.224375461563246 0.222754768533574 0.563515930826244 0.865387318508586 0.0491887049714564 0.156378060805936 0.13849882763287 1.30976621581207 0.899251765541268 0.282009781692287 0.0963438785834795 0.319529408812922 0.20372814189341 0.231457925722301 0.201941219936833 0 0 0 0 0 0 0 0 0 0 0 0 0 0 0 -1.06250327515423 -0.498523631979967 -0.422494818074655 -1.11991279758917 -0.713198564034956 -1.12989984173556 -0.414449784072306 0 0 0 0 0 0 0 0.129934658653718 0
0 0 0 0 0 0.387399232460121 0.410233694986098 0.795244846119285 0.0293338838886329 0.195855870291907 0.428036829697652 0.431834241523375 0.661358885191407 0.139579485884473 0.136149148702378 0.597332560195546 0 0 0 0 0 0 0 0 0 0 0 0 0 0.434308791164494 0.45695021121682 0.193724421817952 0.350220193516434 0.251123344796134 0.299235308626199 0.132715047951596 1.19866681123936 0.0611021632761366 0.149477764287673 0.316477371471947 0.556350843149766 0.150805431923786 0.129420162324346 0 0 0 0 0 0 0 0 0 0 0 0 0 0 0 0 0 0.260487220357242 0 0 0 0 0 0 0 0 0 0 0 0 0 0 0 0 0 0 0 0 0 0 0 0 0 0 0 0 0 0 0 0 0 0 0.183361501404083 0.0905811706500593 0.110339324121278 0.0798910637711778 0.137458334454273 0.105760729726604 0.432148563259197 0.0297082406231356 0.151083038796319 0.337020921900711 0.29216856359975 0.112339133404788 0.298138414464171 0.0420326669546077 0.420626321739198 0.104001419178886 0.0698941563813442 0 0 0 0 0 0 0 0 0 0 0 0 0 0 0 -0.329011724875425 -2.74842761052592 -4.79333153085408 -0.910115028850158 -1.39300137945532 -0.386003584558999 -3.3899038066271 0 0 0 0 0 0 0 0.0493139796506561 0
0 0 0.46302197493303 0 0 0.389842451593306 0.0404723618833444 0.247229970976322 0.777500447432961 0.166420029211695 0.0185573884359447 0.206226649032181 0.486659069627871 0.124086975614263 0.154809484687762 0.0679608489193251 0 0 0 0 0 0 0 0 0 0 0 0 0 0 0.062651145743319 0.108257302116875 0.0948588690294625 0.302344502602691 0.131185392713161 0.0988687823392991 0.719131524559839 0.109187625119329 0 0 0 0 0 0 0 0 0 0 0 0 0 0 0 0 0 0 0 0 0 0 0 0 0 -0.364044149740319 0 0 0 0 0 0 0 0 0 0 0 0 0 0 0 0 0 0 0 0 0 0 0 0 0 0 0 0 0 0 0 0 0 0 0 0 0 0 0 0 0 0 0 0 0 0 0 0 1.59563901677905 0.53829994411857 0.779342458780177 0.714480336111986 0.233987163999586 0 0 0 -1.161626893315 -0.925412527376281 -2.49378568949137 -1.52388360236738 -2.12465294184176 -0.484833079102272 -1.29184068185603 -0.401601692020524 -0.52053443315509 -0.356267350290492 -0.553964882100553 -0.639390918888068 -0.0928554682468788 -1.06070943748867 -5.55531015925842 -1.78465502593983 0 0 0 0.187292345174334 0.265901533254091 0 0.134487642258294
0 0 0.482440756623231 0 0 0.123317236121382 0.263697680699707 0.297377767967245 0.161185471332215 0.258461424726635 0.516965965715128 0.0387562379088679 0.152084972915101 0.395190939198169 0.0939383566462707 0.295112135869183 0 0 0 0 0 0 0 0 0 0 0 0 0 0 0.139259548775907 0.281709762369647 0.341910186731866 1.10287735046269 0.317873262526505 0.228121387062985 0.0486888885805742 0.36296588765216 0 0 0 0 0 0 0 0 0 0 0 0 0 0 0 0 0 0 0 0 0 0.148162846118275 0.301425587005669 0 0 -2.25174248640829 0 0 0 0 0 0 0 0 0 0 0 0 0 0 0 0 0 0 0 0 0 0 0 0 0 0 0 0 0 0 0 0 0 0 0 0 0 0 0 0 0 0 0 0 0 0 0 0 0.271280443538796 0.104856930058994 0.369546498407215 0.0382994571685577 0.806558433303396 0 0 0 0 0 0 0 0 0 0 -0.529563501930442 -0.874663647995666 -2.56718071538137 0 0 0 0 0 0 0 0 0 0.396222130302561 0 0 0.435810578556301
0 0 0.196267855968383 0 0 0.173458204474386 0.595913359297631 0.228246824277804 0.258098271059604 0.0718075067035969 0.318986906339777 0.121163118601721 0.189007296953135 0.0527382939607998 0.728924340081729 0.172150820294294 0 0 0 0 0 0 0 0 0 0 0 0 0 0 0.152369817723461 0.250101278724253 0.150712243142912 0.418572001774926 0.0586636230735601 0.100237327589365 0.0286987128201294 0.689419430426557 0 0 0 0 0 0 0 0 0 0 0 0 0 0 0 0 0 0 0 0 0 1.66927113135908 0.373479804177883 0 0 -0.414290878851036 0 0 0 0 0 0 0 0 0 0 0 0 0 0 0 0 0 0 0 0 0 0 0 0 0 0 0 0 0 0 0 0 0 0 0 0 0 0 0 0 0 0 0 0 0 0 0 0 0.573973329116318 0.176585161822765 0.429077931207265 0.106801302031074 0.0484234456800861 0 0 0 0 0 0 0 0 0 0 -0.374738434166261 -2.37375032150984 -0.931273459794579 0 0 0 0 0 0 0 0 0 0.433954516455751 0 0 0.115944147468164
0 0 0.162341585028631 0 0 0.0777989967610454 0.0153404125689233 0.0814229045891672 0.520224247805141 0.0761044764322151 0.301627398003335 0.211634813244217 1.39833803160409 0.135572079151842 0.252470387595193 0.863976599045527 0 0 0 0 0 0 0 0 0 0 0 0 0 0 0.823388801954236 0.515823909218991 0.0690448116741771 0.0832727976194832 0.0760966001994247 0.13311428617225 0.117366693203591 0.426486812495781 0 0 0 0 0 0 0 0 0 0 0 0 0 0 0 0 0 0 0 0 0 0.159397787183566 0.0438220472904525 0 0 -0.405764691697269 0 0 0 0 0 0 0 0 0 0 0 0 0 0 0 0 0 0 0 0 0 0 0 0 0 0 0 0 0 0 0 0 0 0 0 0 0 0 0 0 0 0 0 0 0 0 0 0 0.999444763790558 0.071894734408026 0.16647066356395 0.229338001857324 0.110371157590534 0 0 0 0 0 0 0 0 0 0 -0.723944168344568 -0.218659220384436 -2.35142797975291 0 0 0 0 0 0 0 0 0 0.0905225420001581 0 0 0.7659944585733
0 0 0.0269422724913999 0 0 0.279685294635641 0.156135684791558 0.492943345301344 0.155127185597562 0.212571027747268 0.601274621246656 0.442081883251612 0.197680019090997 0.99380872837132 0.121521700032726 0.016366215266061 0.671803472712083 0.196093682806842 0.0370911467553051 0.0261884628852381 0.0724132359720477 0 0 0.191624154662304 0.388981299323053 0 0.178445883917225 0.113511216819742 0.216206313878196 0 0.400824096387297 0.403462547871515 0.0636107884193816 0.917293890402498 0.35587466197401 0.474716862041896 1.27065060988419 0.0695866764801249 0 0 0 0 0 0 0 0 0 0 0 0 0 0 0 0 0 0 0 0 0 0 0 0 0 0 0 0 0 0 0 0 0 0 0 0 0 0 0 0 0 0 0 0 0 0 0 0 0 0 0 0 0 0 0 0 0 0 0 0 0 0 0 0 0 0 0 0 0 0 0 0 0 0 0.379335600061871 0.276728348405086 0.242297094057095 0.316864776123287 0.180154160740285 0 0 0 0 0 0 0 0 0 0 -0.576064211828109 -0.424830562227952 -1.15744197360862 0 0 0 0 0 0 0 0 0 0 0 0 0
0 0 0.257080322370599 0 0 0.583444537901499 0.212757869719494 0.191717906839443 0.189103055798167 0.0700020706727604 0.0306350921220972 0.106649002557836 0.855038292184805 0.0937335361279279 0.187602162488925 0.103986906504313 0.13171662341802 0.328531176908385 1.51513920516273 0.0398228572978609 0.143556202263381 0 0 0.602728103245968 0.433017972273022 0 0.49838540546309 0.509197029496916 0.299224723221491 0 0.758014500382723 0.0477395680758597 0.0747484951481428 0.203438942294726 0.276368246065567 0.0314082747286179 0.0457279434622015 0.653312652540621 0 0 0 0 0 0 0 0 0 0 0 0 0 0 0 0 0 0 0 0 0 0 0 0 0 0 0 0 0 0 0 0 0 0 0 0 0 0 0 0 0 0 0 0 0 0 0 0 0 0 0 0 0 0 0 0 0 0 0 0 0 0 0 0 0 0 0 0 0 0 0 0 0 0 0.309823632842345 0.0780361669678694 0.104002504909087 0.0274715114673529 0.174157000700075 0 0 0 0 0 0 0 0 0 0 -1.81663056879647 -0.60528338317775 -0.283397493738266 0 0 0 0 0 0 0 0 0 0 0 0 0
0 0 2.0007537543025 0 0 0.230222595205245 0.172392903887065 0.40653501084978 0.0664809920888566 0.649167464968214 0.161106913913368 0.0184369846594316 0.544578925714305 0.40052533224149 0.133674530214848 0.420406684409307 0 0 0 0 0 0 0 0 0 0 0 0 0 0 0.345452732225618 0.159749249411208 0.101579408411257 0.164010517826233 0.125065983770462 0.0486199436787607 0.217375351835638 0.17281776396498 0 0 0 0 0 0 0 0 -0.435503777997364 -0.160734880011512 0 0 0 0 0 0 -0.779212698650429 -8.12262585523365 -0.795350034328825 0 0 0 0 0 0 -2.37823569400236 0 0 0 0 0 0 0 0 0 0 0 0 0 0 0 0 0 0 0 0 0 0 0 0 0 0 0 0 0 0 0 0.131135340254287 0.0429018382758351 0.512720767572507 0.0807970714867546 0.163906249118629 0.941233163030273 0.195390434219829 0.240963602436601 0.286673225284885 0.543589028157074 0.997586435859395 0.240879641182206 0.115205996732463 0.0631100610247076 0.295538474011717 0.224518464789796 0.0919639450593122 0.0448920478351927 0.125888557782773 0.482152141409552 0.43414287471704 0.197198408042622 0 0 0 0 0 0 0 0 0 0 -0.384298013559196 -1.65007141776185 -0.437623097093898 0 0 0 0 0 0 0 0 0 0 0.297171769116394 0 0.0540861823528274
0 0 0.367833928767484 0 0 1.29680579941678 0.24828118445633 0.416918246086643 0.37700789060303 0.189776758733905 0.116140268066175 0.0860010360359404 0.319213235293366 0.237398052970263 0.0618212768046325 0.386793037626307 0 0 0 0 0 0 0 0 0 0 0 0 0 0 0.0677129172607516 0.282461397703895 0.587319825693465 0.649574230701732 0.0662767178842761 0.279204055139339 0.271904989247777 0.106272153808343 0 0 0.0946072123781525 0.0421172699832422 0.0905536473341638 -1.61875708424042 -5.20881988410955 0 -0.858055746597544 -1.5567468994167 -5.31004225009414 -4.51484518056405 -8.39002694442013 -0.589526497487015 -1.33187934000731 0 -1.33562538428258 -1.96207649044775 -0.216222589233083 0 0 0 0 0 0 0 0 0 0 0 0 0 0 0 0 0 0 0 0 0 0 0 0 0 0 0 0 0 0 0 0 0 0 0 0 0 0 0.117278388039196 0.0679297815439444 0.16425990717893 0.135545811049819 0.566093372780653 0.627589972097402 0.0404644926873275 0.198516067207767 0.124622218183724 0.677347850046423 0.0861073113335619 0.154352271828969 0.0558110106564188 0.362372324786248 0.247382169456205 0.963022251646741 0.298619428863846 1.12271885069847 0.329482442726372 0.377364360473969 0.0698105958098556 0.668479461402572 0 0 0 -0.0928782502493667 -2.66629930453754 -1.25323610871405 -0.192004430511812 -1.74067768561617 -0.5591478879896 -7.71776414582938 -2.6974017179922 -3.54661403539722 -0.262409969455907 0 0 0 0 0 0 0 0 0 0 0.122855584701916 0 0
0 0 0.457957960548752 0 0 0.207439734369182 0.417129747456848 0.526620402118108 0.258653938682959 0.165607955755408 0.053967562805338 0.0309953451879044 0.207727380048691 0.0784921083826032 0.0287356402008441 0.394161749133972 0 0 0 0 0 0 0 0 0 0 0.172856256141171 0.0370088346320121 0.581909502079914 0 0.727701087391871 0.647404557320668 2.26663620071281 0.219028615942492 0.104466869490125 0.06139747850825 0.346091276061585 0.422937452623216 0.934530861704257 0.458519053607632 0.100980794377632 0.834547528194239 0.0607219050078208 0 0 0 0 0 0 0 0 0 0 0 0 0 0 0 0 0 0 0 0 -0.140667351775293 0 0 0 0 0 0 0 0 0 0 0 0 0 0 0 0 0 0 0 0 0 0 0 0 0 0 0 0 0 0 0 0.274299214151661 0.129250079828237 0.0936050337031073 0.387010588811207 0.404690477226857 0.253150417709057 0.0985724883381036 0.16819691804455 0.0850164945255271 0.436097214688308 0.0429087236654713 0.329205629999544 0.317692266867109 0.156146244403475 0.107380749955629 0 0 0.0538358959675129 0.275538900574546 0.381623566331393 0.034419948156447 0.303580574018651 0 0 0 0 0 0 0 0 0 0 0 0 0 0 0 0 0 0 0 0 0 0 0 0.414978162849415 0 0
0 0 0.4486567589883 0 0 0.263480960457018 0.317361877817808 0.364328580010242 0.0462487883919008 0.830532118143543 0.275549637477662 0.191242342684297 0.120605257215516 0.40572107376995 1.20077597079667 0.264009187989791 0 0 0 0 0 0 0 0 0 0 0.091463081466568 0.101357785847749 0.115581050938907 0 0.298420208855677 0.0554204675876175 0.0421552230491533 0.0372109355600443 0.539195455311574 0.148761194829129 0.321543665462835 0.0538563498327984 0.220170892493071 0.112601840546941 0.114178427834572 0.176289488582477 0.0526176222680119 0 0 0 0 0 0 0 0 0 0 0 0 0 0 0 0 0 0 0 0 -1.81380448462412 0 0 0 0 0 0 0 0 0 0 0 0 0 0 0 0 0 0 0 0 0 0 0 0 0 0 0 0 0 0 0 0.139972042755643 0.257641077335433 0.197624010220277 0.740717492450088 0.0492090230425309 0.210718295110213 0.16936484789676 1.41800339719687 0.879624896986685 0.893509207896631 0.0155993579609483 0.0347730606689392 0.108027148145014 0.842121317546811 0.349428903557183 0 0 0.0975593767937279 0.18604699248299 0.199621887434917 0.0880902137581932 0.301435909682409 0 0 0 0 0 0 0 0 0 0 0 0 0 0 0 0 0 0 0 0 0 0 0 0.037626712748519 0 0
0 0 0 0 0 0.212426335823004 1.19459310134634 0.357160269000285 0.334535694333236 0.384559463849909 0.245732036631386 0.384582633087254 0.435648484337433 0.0715684022820456 0.0790183817463191 1.04251852439773 0 0 0 0 0 0.0902737718006167 0 0.230943168844696 0.778993849725115 0 0 0 0 0 0.194847195878181 0.053842011996977 0.571683570267742 0.0196819184769825 0.545650278291317 0.253787768976292 0.0921042872525976 0.185678831991645 0 0 0 0 0 0 0 0 0 0 0.10531675741752 0.163705123105664 0.034705747230258 0 0 0.0724828870312184 0.445469526191122 0.0827294045429056 0.0831889173263573 0 0 0.439466347432803 0 0.0279818798487977 0.364083773685965 0 0 0 0 0 0 0 0 0 0 0 0 0 0 0 0 0 0 0 0 0 0 0 0 0 0 0 0 0 0 0 0 0.142227307472409 0.107890878061378 0.187329928607017 0.0988917150746732 1.31146874075767 0.117356756356029 0.0491340281488929 0.134028192201748 0.021019963617365 0.713016276486672 0.211100953580302 0.283321462981733 0.0683052829425972 0.0877844350094037 0.101303551843695 1.04632154053196 0.222784687601961 0 0 0 0 0 0 0 0 0 0 0 0 0 0 0 0 0 0 0 0 0 0 0 0 0 0 0 0 0 0 0
0.623191673189129 0.0887190849270805 0.0972964923630721 0 0 0 0 0 0 0 0 0 0 0 0 0 0 0 0 0 0 0 0 -9.13268068765389 -3.02035097830955 0 0 0 0 0 0 0 0 0 0 0 0 0 0 0 -4.01888957975263 -0.416338249423248 -0.477237328316608 0 0 0 0 0 0 0 0 0 0 0 0 0 0 0 0 0 0 0 0 0 0 0 0 0 0 0 0 0 -4.37638443006642 -1.13389830638358 -0.768581160243038 -2.46268886269411 -1.39406511579719 -0.949676224594376 -0.497502976609729 -1.54661112474077 -4.29550166108759 -0.606320872738792 -1.1589162760328 -2.94781432288103 -0.738394964775104 -0.813502040164596 -2.31901218541089 -0.298553056588901 0 0 0 0 0 0 0 0 0 0 0 0 0 0 0 0 0 -0.877056929706833 -0.323244397047714 -1.96419128466993 -1.18998359726929 -0.889616083101167 0 0 0 0 0 0 0 -2.68247528601164 -3.11862229759144 -3.39792074479063 0 0 0 0 0 0 0 0 0 0 0 0 0 0 0 0 -3.14612791105301 0 0 0 0.0873656797682227 0 0.651540844989102
0.148832927212915 0.118397392891365 0.155784454009766 0 0 0 0 0 0 0 0 0 0 0 0 0 0 0 0 0 0 0 0 -0.965459342437178 -1.19588252290494 0 0 0 0 0 0 0 0 0 0 0 0 0 0 0 -0.887028850588946 -1.02592357107166 -3.63877655891722 0 0 0 0 0 0 0 0 0 0 0 0 0 0 0 0 0 0 0 0 0 0 0 0 0 0 0 0 0 -1.41251496282008 -0.419168182090976 -4.68159830420729 -0.96142330811485 -0.721564270108252 -2.41004859288166 -0.604253893122908 -0.652366331993195 -0.189757292669047 -1.56105346374151 -0.549197674782697 -4.06150316931676 -0.87128645898837 -0.918062115915518 -4.81591130466632 -2.17579750318047 0 0 0 0 0 0 0 0 0 0 0 0 0 0 0 0 0 -1.61889535234058 -2.96842365743558 -0.383792471863839 -0.688457699259233 -4.20785030751306 0 0 0 0 0 0 0 -0.784678622923652 -0.474426043284246 -2.02727024993113 0 0 0 0 0 0 0 0 0 0 0 0 0 0 0 0 -0.858798223468272 0 0 0 0.763085940955528 0 0.159953376879607
0.0583570641330281 0.629337538637642 1.53180272141293 0 0 0 0 0 0 0 0 0 0 0 0 0 0 0 0 0 0 0 0 -3.75884496278331 -0.599640013356992 0 0 0 0 0 0 0 0 0 0 0 0 0 0 0 -0.781318513783794 -1.47473129163293 -0.436132402143142 0 0 0 0 0 0 0 0 0 0 0 0 0 0 0 0 0 0 0 0 0 0 0 0 0 0 0 0 0 -2.37162108497013 -1.95814097761524 -1.6112435921903 -4.3052119330554 -0.331189669615739 -0.438723476368938 -0.303442295133534 -3.68333477490443 -0.446397526775634 -3.62285925340787 -0.498239224619517 -0.429609473381804 -1.31718350488384 -0.724343680162817 -1.78570142219588 -1.66379101345574 0 0 0 0 0 0 0 0 0 0 0 0 0 0 0 0 0 -1.38715180809973 -0.224408810482435 -1.35125603925162 -0.445703182639864 -0.128376932956964 0 0 0 0 0 0 0 -3.20214349546268 -1.46609709826292 -2.27305684846288 0 0 0 0 0 0 0 0 0 0 0 0 0 0 0 0 -0.675110243674688 0 0 0 0.0927953847043908 0 0.239056737102934
0.10133581137821 0.232531057920589 0.509183600923494 0 0 0 0 0 0 0 0 0 0 0 0 0 0 0 0 0 0 0 0 -0.954729487043919 -1.74794283132951 0 0 0 0 0 0 0 0 0 0 0 0 0 0 0 -0.38715762018047 -0.783235228677785 -1.612734254003 0 0 0 0 0 0 0 0 0 0 0 0 0 0 0 0 0 0 0 0 0 0 0 0 0 0 0 0 0 -0.306623235294375 -2.79980494491871 -1.16611241496083 -0.607601247433543 -0.192843110244306 -1.02496877079135 -4.54539701489414 -0.244528214302535 -0.697278772318763 -0.303879517239182 -4.53497773002678 -1.35778142759403 -1.09541418695214 -1.33248276618077 -0.622977252965224 -1.67803440691941 0 0 0 0 0 0 0 0 0 0 0 0 0 0 0 0 0 -0.318275024957604 -1.65457433566936 -1.84616004600844 -1.28652668881128 -0.806583236229633 0 0 0 0 0 0 0 -0.525695157629856 -0.28947279225979 -0.316258151803342 0 0 0 0 0 0 0 0 0 0 0 0 0 0 0 0 -1.02203632637183 0 0 0 0.272470114055034 0 0.162012556715513
0.60245896510504 0.391453481034229 0.196074113807662 0 0 0 0 0 0 0 0 0 0 0 0 0 0 0 0 0 0 0 0 -0.981187854388754 -1.0605701425072 0 0 0 0 0 0 0 0 0 0 0 0 0 0 0 -1.96926454678225 -1.80351053637214 -0.540227347610107 0 0 0 0 0 0 0 0 0 0 0 0 0 0 0 0 0 0 0 0 0 0 0 0 0 0 0 0 0 -0.317253275404242 -0.815795492175872 -0.52086753044288 -1.81118635203861 -2.70978465521234 -0.823072471009091 -0.805736650259354 -0.186894954077089 -3.2772205935937 -0.843597682300369 -2.35255743602659 -0.757762241259162 -2.13661110107968 -1.32634628646507 -0.155738455273715 -0.481060478119415 0 0 0 0 0 0 0 0 0 0 0 0 0 0 0 0 0 -2.93827594236302 -1.0060670121176 -1.24031225991061 -0.485035032578075 -2.18022151964441 0 0 0 0 0 0 0 -1.09301346666349 -1.86951709435591 -0.118475101309922 0 0 0 0 0 0 0 0 0 0 0 0 0 0 0 0 -0.694471620948553 0 0 0 0.692884422160374 0 0.0552646398712249
0.105074769967099 0.64377292633856 0.242576592893956 0 0 0 0 0 0 0 0 0 0 0 0 0 0 0 0 0 0 0 0 -1.75798238767953 -1.81811641619925 0 0 0 0 0 0 0 0 0 0 0 0 0 0 0 -1.05994912684159 -0.712055676230409 -3.47184356769759 0 0 0 0 0 0 0 0 0 0 0 0 0 0 0 0 0 0 0 0 0 0 0 0 0 0 0 0 0 -11.4678427932099 -2.39489385562262 -0.199471412416385 -0.469987957956793 -1.71515874984991 -1.13825299212646 -1.37641006611406 -0.40808387295018 -0.831123360182962 -0.529440868302919 -0.432231511832018 -1.40487504588363 -1.21499053080841 -2.10499041484722 -5.31632858989449 -0.30672150766337 0 0 0 0 0 0 0 0 0 0 0 0 0 0 0 0 0 -1.24382056664447 -0.891017237634324 -5.36920819979822 -0.359195128654519 -0.0283637160382298 0 0 0 0 0 0 0 -1.01753324546414 -1.08567707475234 -0.524360365616718 0 0 0 0 0 0 0 0 0 0 0 0 0 0 0 0 -1.00906049097343 0 0 0 0.412526528500186 0 0.112093623812956
0.256199841492075 0.0882094383521951 0.201348875446426 0 0 0 0 0 0 0 0 0 0 0 0 0 0 0 0 0 0 0 0 -1.88928386836789 -0.738626521009177 0 0 0 0 0 0 0 0 0 0 0 0 0 0 0 -0.963111541113288 -0.256995170424613 -1.67756863684992 0 0 0 0 0 0 0 0 0 0 0 0 0 0 0 0 0 0 0 0 0 0 0 0 0 0 0 0 0 -2.34190876225711 -0.252310225745572 -2.05996341699089 -1.80362724325581 -1.65535623380226 -1.86670891512471 -0.662858152277455 -1.2444586777353 -1.72298772338113 -3.44760112610611 -1.18569932435454 -0.395542572250833 -0.339274484667889 -0.347535818480938 -0.826243910177714 -0.249714361341084 0 0 0 0 0 0 0 0 0 0 0 0 0 0 0 0 0 -0.277638868316502 -0.792072037980632 -2.14475579412953 -1.86628120022359 -2.01497353576898 0 0 0 0 0 0 0 -0.425899665597215 -1.4506247537038 -1.07031020559389 0 0 0 0 0 0 0 0 0 0 0 0 0 0 0 0 -2.27698908502469 0 0 0 0.0532341744859776 0 0.0577774574596078
0.126008409199188 0.248456506232488 1.43993609588731 0 0 0 0 0 0 0 0 0 0 0 0 0 0 0 0 0 0 0 0 -0.696339263071757 -1.15659646193904 0 0 0 0 0 0 0 0 0 0 0 0 0 0 0 -1.33258152650766 -0.658286688249956 -0.27519045231403 0 0 0 0 0 0 0 0 0 0 0 0 0 0 0 0 0 0 0 0 0 0 0 0 0 0 0 0 0 -0.708048969436549 -0.106626561644969 -0.393676260740688 -0.558667982007535 -0.618978894331347 -1.04084071156104 -0.755932203675757 -1.31648302274212 -1.33218524581379 -1.66907728853347 -1.44864057171545 -2.2049682780445 -1.40348254663053 -2.87377033394638 -0.567130069366417 -1.49295458782845 0 0 0 0 0 0 0 0 0 0 0 0 0 0 0 0 0 -0.572598995366331 -2.16015876322176 -1.28310260925709 -0.248211578316792 -0.932142585128115 0 0 0 0 0 0 0 -1.04392619181307 -0.900900965350871 -0.428341733630257 0 0 0 0 0 0 0 0 0 0 0 0 0 0 0 0 -0.198233421336058 0 0 0 0.0993719761377754 0 0.122602230377967
0 0 0 0 0 0 0 0 0 0 0 0 0 0 0 0 0 0 0 0 0 0 0 0 0 0 0 0 0 0 0 0 0 0 0 0 0 0 0 0 0 0 0 0 0 0 0 0 0 0 0 0 0 0 0 0 0 0 0 0 0 0 0 0 0.879953380135256 0.306038191929756 0.459616794880428 0.061851792880885 0.0650542311715438 2.27692936968879 0.42452004726407 0.130245997459259 0 0 0 0 0 0 0 0 0 0 0 0 0 0 0 0 0 0 0 0 0.529186670249102 0.269085177413744 0.0655399832537302 0 0 0 0 0 0 0 0 0 0 0 0 0 0 0 0 0 0 0 0 0 0 0 0 0 0 0 0 0 0 0 0 0 0 0 0 0 0 0 0 0 0 0 0 0 0 0 0.615463445152452
0 0 0 0 0 0 0 0 0 0 0 0 0 0 0 0 0 0 0 0 0 0 0 0 0 0 0 0 0 0 0 0 0 0 0 0 0 0 0 0 0 0 0 0 0 0 0 0 0 0 0 0 0 0 0 0 0 0 0 0 0 0 0 0 0.243367032217612 0.0877842921674039 0.368957049574331 0.546375179666563 0.156183329864885 0.490441627346981 0.0489599770878314 0.019492754073272 0 0 0 0 0 0 0 0 0 0 0 0 0 0 0 0 0 0 0 0 0.249546714362898 0.0258464166202889 0.0664097148403841 0 0 0 0 0 0 0 0 0 0 0 0 0 0 0 0 0 0 0 0 0 0 0 0 0 0 0 0 0 0 0 0 0 0 0 0 0 0 0 0 0 0 0 0 0 0 0 0.285833717402828
0 0 0 0 0 0 0 0 0 0 0 0 0 0 0 0 0 0 0 0 0 0 0 0 0 0 0 0 0 0 0 0 0 0 0 0 0 0 0 0 0 0 0 0 0 0 0 0 0 0 0 0 0 0 0 0 0 0 0 0 0 0 0 0 0.156548103107922 0.944502991638661 0.352963491917988 0.215251725090104 0.106143402144395 0.0397702592688937 0.423881185098097 0.0806849838977817 0 0 0 0 0 0 0 0 0 0 0 0 0 0 0 0 0 0 0 0 0.639496676815679 0.0432707399088896 0.138447459574218 0 0 0 0 0 0 0 0 0 0 0 0 0 0 0 0 0 0 0 0 0 0 0 0 0 0 0 0 0 0 0 0 0 0 0 0 0 0 0 0 0 0 0 0 0 0 0 0.288413708961748
0 0 0 0 0 0 0 0 0 0 0 0 0 0 0 0 0 0 0 0 0 0 0 0 0 0 0 0 0 0 0 0 0 0 0 0 0 0 0 0 0 0 0 0 0 0 0 0 0 0 0 0 0 0 0 0 0 0 0 0 0 0 0 0 0.527386712376738 0.191504012345846 0.895188866706968 0.117549489879939 0.383563713787847 0.0938432988200436 0.381845195275328 0.114898891625978 0 0 0 0 0 0 0 0 0 0 0 0 0 0 0 0 0 0 0 0 0.488545659823678 0.66282663771919 0.664394329927453 0 0 0 0 0 0 0 0 0 0 0 0 0 0 0 0 0 0 0 0 0 0 0 0 0 0 0 0 0 0 0 0 0 0 0 0 0 0 0 0 0 0 0 0 0 0 0 0.372432186572463
0 0 0 0 0 0 0 0 0 0 0 0 0 0 0 0 0 0 0 0 0 0 0 0 0 0 0 0 0 0 0 0 0 0 0 0 0 0 0 0 0 0 0 0 0 0 0 0 0 0 0 0 0 0 0 0 0 0 0 0 0 0 0 0 0.268728919349367 0.143161650472827 0.0704942067909425 0.0387266347581524 0.505634743450774 0.329092612559512 0.32763057278321 0.124953705983294 0 0 0 0 0 0 0 0 0 0 0 0 0 0 0 0 0 0 0 0 0.115866876917667 0.0489346642910561 0.139916107108243 0 0 0 0 0 0 0 0 0 0 0 0 0 0 0 0 0 0 0 0 0 0 0 0 0 0 0 0 0 0 0 0 0 0 0 0 0 0 0 0 0 0 0 0 0 0 0 0.334942683739978
0 0 0 0 0 0 0 0 0 0 0 0 0 0 0 0 0 0 0 0 0 0 0 0 0 0 0 0 0 0 0 0 0 0 0 0 0 0 0 0 0 0 0 0 0 0 0 0 0 0 0 0 0 0 0 0 0 0 0 0 0 0 0 0 0.181716331530319 0.506222648067328 0.0909326898000497 0.191332566703473 0.162817562288765 0.199215665126062 0.376424121320552 0.224968962149906 0 0 0 0 0 0 0 0 0 0 0 0 0 0 0 0 0 0 0 0 0.130926508663138 0.711668428405194 0.104134494981698 0 0 0 0 0 0 0 0 0 0 0 0 0 0 0 0 0 0 0 0 0 0 0 0 0 0 0 0 0 0 0 0 0 0 0 0 0 0 0 0 0 0 0 0 0 0 0 0.241723810412724
0 0 0 0 0 0 0 0 0 0 0 0 0 0 0 0 0 0 0 0 0 0 0 0 0 0 0 0 0 0 0 0 0 0 0 0 0 0 0 0 0 0 0 0 0 0 0 0 0 0 0 0 0 0 0 0 0 0 0 0 0 0 0 0 0.097525974969985 0.116860851963819 0.0584550159243841 0.918450776960259 0.151614330147851 0.276248955598149 0.127504312391803 0.164709878537263 0 0 0 0 0 0 0 0 0 0 0 0 0 0 0 0 0 0 0 0 0.393074015773395 0.324148927648408 0.0441267229457664 0 0 0 0 0 0 0 0 0 0 0 0 0 0 0 0 0 0 0 0 0 0 0 0 0 0 0 0 0 0 0 0 0 0 0 0 0 0 0 0 0 0 0 0 0 0 0 0.104197017475838
0 0 0 0 0 0 0 0 0 0 0 0 0 0 0 0 0 0 0 0 0 0 0 0 0 0 0 0 0 0 0 0 0 0 0 0 0 0 0 0 0 0 0 0 0 0 0 0 0 0 0 0 0 0 0 0 0 0 0 0 0 0 0 0 0.301716104831944 0.128803723759789 0.734119484803058 0.0513028231988365 0.035757011134218 0.0745429288610791 0.262176772085021 0.256873942214317 0 0 0 0 0 0 0 0 0 0 0 0 0 0 0 0 0 0 0 0 0.306219570648098 0.105507465820557 0.384838307788497 0 0 0 0 0 0 0 0 0 0 0 0 0 0 0 0 0 0 0 0 0 0 0 0 0 0 0 0 0 0 0 0 0 0 0 0 0 0 0 0 0 0 0 0 0 0 0 0.412159805944832
0 0 0 0 0 0 0 0 0 0 0 0 0 0 0 0 0 0 0 0 0 0 0 0 0 0 0 0 0 0 0 0 0 0 0 0 0 0 0 0 0 0 0 0 0 0 0 0 0 0 0 0 0 0 0 0 0 0 0 0 0 0 0 0 0.96204796417085 0.0376060787706185 0.100246398173949 0.137298734982437 0.652405557640136 0.166769898455304 0.330250108102113 0.234876637155234 0 0 0 0 0 0 0 0 0 0 0 0 0 0 0 0 0 0 0 0 0.189329115792808 0.2081283668163 0.0220976250711204 0 0 0 0 0 0 0 0 0 0 0 0 0 0 0 0 0 0 0 0 0 0 0 0 0 0 0 0 0 0 0 0 0 0 0 0 0 0 0 0 0 0 0 0 0 0 0 0.0705085180316308
0 0 0 0 0 0 0 0 0 0 0 0 0 0 0 0 0 0 0 0 0 0 0 0 0 0 0 0 0 0 0 0 0 0 0 0 0 0 0 0 0 0 0 0 0 0 0 0 0 0 0 0 0 0 0 0 0 0 0 0 0 0 0 0 0.120462703984961 0.315339328950074 0.753146282721458 0.0638090331269881 0.168527394052591 0.102111234865484 0.638301838286871 0.344333924123833 0 0 0 0 0 0 0 0 0 0 0 0 0 0 0 0 0 0 0 0 0.188210802454737 0.0526532722103728 0.266851311812917 0 0 0 0 0 0 0 0 0 0 0 0 0 0 0 0 0 0 0 0 0 0 0 0 0 0 0 0 0 0 0 0 0 0 0 0 0 0 0 0 0 0 0 0 0 0 0 0.122243271763363
0 0 0 0 0 0 0 0 0 0 0 0 0 0 0 0 0 0 0 0 0 0 0 0 0 0 0 0 0 0 0 0 0 0 0 0 0 0 0 0 0 0 0 0 0 0 0 0 0 0 0 0 0 0 0 0 0 0 0 0 0 0 0 0 0.2255615947527 0.120589604464672 0.0908283403914842 0.88327023139528 0.463046146355522 0.0883695603764407 0.239363245470065 0.277952708309586 0 0 0 0 0 0 0 0 0 0 0 0 0 0 0 0 0 0 0 0 0.368715358796519 0.0629657725094862 0.0548045990439145 0 0 0 0 0 0 0 0 0 0 0 0 0 0 0 0 0 0 0 0 0 0 0 0 0 0 0 0 0 0 0 0 0 0 0 0 0 0 0 0 0 0 0 0 0 0 0 0.0829543118890549
0 0 0 0 0 0 0 0 0 0 0 0 0 0 0 0 0 0 0 0 0 0 0 0 0 0 0 0 0 0 0 0 0 0 0 0 0 0 0 0 0 0 0 0 0 0 0 0 0 0 0 0 0 0 0 0 0 0 0 0 0 0 0 0 0.582755666114637 0.866025943112948 0.0845140545036411 0.269025133000003 0.159545008951077 0.281337922371073 0.08171132577225 0.444089832823009 0 0 0 0 0 0 0 0 0 0 0 0 0 0 0 0 0 0 0 0 0.585221963785395 0.326206640639986 0.448680276286503 0 0 0 0 0 0 0 0 0 0 0 0 0 0 0 0 0 0 0 0 0 0 0 0 0 0 0 0 0 0 0 0 0 0 0 0 0 0 0 0 0 0 0 0 0 0 0 0.71551069730422
0 0 0 0 0 0 0 0 0 0 0 0 0 0 0 0 0 0 0 0 0 0 0 0 0 0 0 0 0 0 0 0 0 0 0 0 0 0 0 0 0 0 0 0 0 0 0 0 0 0 0 0 0 0 0 0 0 0 0 0 0 0 0 0 0.132061466559653 0.167844762475304 0.246911723597145 0.223621995117386 0.422433956832171 0.220073968532802 0.062966721185262 0.324838586758018 0 0 0 0 0 0 0 0 0 0 0 0 0 0 0 0 0 0 0 0 0.10026661194399 0.133749733978035 0.0918076069069976 0 0 0 0 0 0 0 0 0 0 0 0 0 0 0 0 0 0 0 0 0 0 0 0 0 0 0 0 0 0 0 0 0 0 0 0 0 0 0 0 0 0 0 0 0 0 0 0.307346722394424
0 0 0 0 0 0 0 0 0 0 0 0 0 0 0 0 0 0 0 0 0 0 0 0 0 0 0 0 0 0 0 0 0 0 0 0 0 0 0 0 0 0 0 0 0 0 0 0 0 0 0 0 0 0 0 0 0 0 0 0 0 0 0 0 0.165348058417839 0.17376324892875 0.135468823544033 0.255912046335708 0.266996821427509 0.413086237592797 0.0759583955311727 0.535966517729122 0 0 0 0 0 0 0 0 0 0 0 0 0 0 0 0 0 0 0 0 0.141610566691498 0.569618430294387 0.601817600769041 0 0 0 0 0 0 0 0 0 0 0 0 0 0 0 0 0 0 0 0 0 0 0 0 0 0 0 0 0 0 0 0 0 0 0 0 0 0 0 0 0 0 0 0 0 0 0 0.416213784006463
0 0 0 0 0 0 0 0 0 0 0 0 0 0 0 0 0 0 0 0 0 0 0 0 0 0 0 0 0 0 0 0 0 0 0 0 0 0 0 0 0 0 0 0 0 0 0 0 0 0 0 0 0 0 0 0 0 0 0 0 0 0 0 0 0.459964558500364 1.05175183849325 0.350777087362208 0.11972307062729 0.0322663529646117 0.938879896669017 0.158775736571814 0.113482551044847 0 0 0 0 0 0 0 0 0 0 0 0 0 0 0 0 0 0 0 0 0.11475233399469 1.06828606987147 0.0910203884852195 0 0 0 0 0 0 0 0 0 0 0 0 0 0 0 0 0 0 0 0 0 0 0 0 0 0 0 0 0 0 0 0 0 0 0 0 0 0 0 0 0 0 0 0 0 0 0 0.438583947484828
0 0 0 0 0 0 0 0 0 0 0 0 0 0 0 0 0 0 0 0 0 0 0 0 0 0 0 0 0 0 0 0 0 0 0 0 0 0 0 0 0 0 0 0 0 0 0 0 0 0 0 0 0 0 0 0 0 0 0 0 0 0 0 0 0.0599552271327028 0.417209619655791 0.304169900184289 0.322543519777104 0.0913640630354175 0.066188260944569 0.0520794383351601 0.306048734711122 0 0 0 0 0 0 0 0 0 0 0 0 0 0 0 0 0 0 0 0 0.0416720077486622 1.14739554431299 0.264738933900689 0 0 0 0 0 0 0 0 0 0 0 0 0 0 0 0 0 0 0 0 0 0 0 0 0 0 0 0 0 0 0 0 0 0 0 0 0 0 0 0 0 0 0 0 0 0 0 0.337060929432285
0 0 0 0 0 0 0 0 0 0 0 0 0 0 0 0 0 0 0 0 0 0 0 0 0 0 0 0 0 0 0 0 0 0 0 0 0 0 0 0 0 0 0 0 0 0 0 0 0 0 0 0 0 0 0 0 0 0 0 0 0 0 0 0 0 0 0 0 0 0 0 0 0 0 0 0 0 0 0 0 0 0 0 0 0 0 0 0 0 0 0 0 0 0 0 0 0 0 0 0 0 0 0 0 0 0 0 0 0 0 0 0 0 0 0 0 0 -0.338153355414164 -0.190579376953087 -1.9576786344011 0 0 0 0 0 0 0 0 0 0 0 0 0 0 0 0 0 0 0.628756271291213 0 0 0 0
0 0 0 0 0 0 0 0 0 0 0 0 0 0 0 0 0 0 0 0 0 0 0 0 0 0 0 0 0 0 0 0 0 0 0 0 0 0 0 0 0 0 0 0 0 0 0 0 0 0 0 0 0 0 0 0 0 0 0 0 0 0 0 0 0 0 0 0 0 0 0 0 0 0 0 0 0 0 0 0 0 0 0 0 0 0 0 0 0 0 0 0 0 0 0 0 0 0 0 0 0 0 0 0 0 0 0 0 0 0 0 0 0 0 0 0 0 -0.743256430664635 -2.09927575753103 -0.196533628266647 0 0 0 0 0 0 0 0 0 0 0 0 0 0 0 0 0 0 0.547710661669873 0 0 0 0
0 0 0 0 0 0 0 0 0 0 0 0 0 0 0 0 0 0 0 0 0 0 0 0 0 0 0 0 0 0 0 0 0 0 0 0 0 0 0 0 0 0 0 0 0 0 0 0 0 0 0 0 0 0 0 0 0 0 0 0 0 0 0 0 0 0 0 0 0 0 0 0 0 0 0 0 0 0 0 0 0 0 0 0 0 0 0 0 0 0 0 0 0 0 0 0 0 0 0 0 0 0 0 0 0 0 0 0 0 0 0 0 0 0 0 0 0 -1.03472559031913 -0.23244288100302 -0.748395891295732 0 0 0 0 0 0 0 0 0 0 0 0 0 0 0 0 0 0 0.800639085688428 0 0 0 0
0 0 0 0 0 0 0 0 0 0 0 0 0 0 0 0 0 0 0 0 0 0 0 0 0 0 0 0 0 0 0 0 0 0 0 0 0 0 0 0 0 0 0 0 0 0 0 0 0 0 0 0 0 0 0 0 0 0 0 0 0 0 0 0 0 0 0 0 0 0 0 0 0 0 0 0 0 0 0 0 0 0 0 0 0 0 0 0 0 0 0 0 0 0 0 0 0 0 0 0 0 0 0 0 0 0 0 0 0 0 0 0 0 0 0 0 0 -2.1317857962732 -0.696727790082755 -0.225552572776427 0 0 0 0 0 0 0 0 0 0 0 0 0 0 0 0 0 0 0.0676810204531663 0 0 0 0
0 0 0 0 0 0 0 0 0 0 0 0 0 0 0 0 0 0 0 0 0 0 0 0 0 0 0 0 0 0 0 0 0 0 0 0 0 0 0 0 0 0 0 0 0 0 0 0 0 0 0 0 0 0 0 0 0 0 0 0 0 0 0 0 0 0 0 0 0 0 0 0 -2.88916879533234 -1.14871707827801 -3.12025222984641 -2.25015985442404 -0.592727227292669 -0.66059173795606 -1.81183645085473 -1.56775006102433 -0.919295972074559 -0.904044141902481 -1.763681813538 -2.67580419015576 -0.523077792468579 -0.695294887857006 -0.541936403957273 -0.209343107863364 0 0 0 0 0 0 0 0 0 0 0 0 0 0 0 0 0 0 0 0 0 0 0 0 0 0 0 0 0 -1.74674057295912 -3.08388898692271 -1.37852045875536 0 0 0 0 0 0 0 0 0 0 0 0 0 0 0 0 0 0 0.0894652320764511 0 0 0 0
0 0 0 0 0 0 0 0 0 0 0 0 0 0 0 0 0 0 0 0 0 0 0 0 0 0 0 0 0 0 0 0 0 0 0 0 0 0 0 0 0 0 0 0 0 0 0 0 0 0 0 0 0 0 0 0 0 0 0 0 0 0 0 0 0 0 0 0 0 0 0 0 -1.33514425506545 -0.140260108767199 -0.228492848313969 -3.32472420208353 -0.246657074532225 -3.82876399274169 -1.62480242704607 -0.520383671667736 -1.00089878734106 -0.253796752841796 -0.316407653467074 -1.56582283692371 -0.615302760733949 -2.72432685121182 -5.44039505773358 -5.34302455888045 0 0 0 0 0 0 0 0 0 0 0 0 0 0 0 0 0 0 0 0 0 0 0 0 0 0 0 0 0 -1.15999416963517 -4.87158062637038 -2.99818173109831 0 0 0 0 0 0 0 0 0 0 0 0 0 0 0 0 0 0 0.427243849473126 0 0 0 0
0 0 0 0 0 0 0 0 0 0 0 0 0 0 0 0 0 0 0 0 0 0 0 0 0 0 0 0 0 0 0 0 0 0 0 0 0 0 0 0 0 0 0 0 0 0 0 0 0 0 0 0 0 0 0 0 0 0 0 0 0 0 0 0 0 0 0 0 0 0 0 0 -0.315265212202466 -0.337811036451831 -0.732055762449822 -3.32806666302148 -0.658723999872004 -0.528623073466598 -0.238256591892945 -1.81974563175558 -0.114583326430964 -1.30612177468578 -0.28392453094989 -2.09967751944115 -0.420223825753033 -2.87248935385229 -0.431976048120806 -1.39335944467679 0 0 0 0 0 0 0 0 0 0 0 0 0 0 0 0 0 0 0 0 0 0 0 0 0 0 0 0 0 -3.90711979263019 -2.3024382592545 -0.599967212858956 0 0 0 0 0 0 0 0 0 0 0 0 0 0 0 0 0 0 0.286549395678697 0 0 0 0
0.44156416247217 0.412692601939537 0.0500896167092657 0 0 0 0 0 0 0 0 0 0 0 0 0 0 0 0 0 0 0 0 -1.30705398440216 -7.22781367045607 0 0 0 0 0 0 0 0 0 0 0 0 0 0 0 -1.03837188630782 -4.04738518040087 -1.12754017797646 -2.38310647632029 -0.368984570259439 0 0 0 0 0 0 -0.766080325200467 -0.848838033961254 0 0 0 0 0 0 -0.614301770167018 -0.580319531814975 -1.33880885822556 -0.67980311338631 -0.760638583450674 0 0 0 0 0 0 0 0 0 0 0 0 0 0 0 0 0 0 0 0 0 0 0 0 0 0 0 0 0 0 0 0 0 0 0 0 0 0 0 0 0 0 0 0 0 0 0 0 0 0 0 0 0 -1.37119721563047 -0.484058521758748 -0.39848961221669 0 0 0 0 0 0 0 0 0 0 0 0 0 0 0 0 0 0 0 0 0.0969852843273399 0 0.774519742631122
0.523025842701707 0.246892173510254 0.195389678885836 0 0 0 0 0 0 0 0 0 0 0 0 0 0 0 0 0 0 0 0 -0.75711701490615 -1.18865551385942 0 0 0 0 0 0 0 0 0 0 0 0 0 0 0 -1.70257343855408 -0.752455216398346 -0.12046366629495 -0.31312233166105 -0.863853577565819 0 0 0 0 0 0 -1.48013846442645 -0.477499453974061 0 0 0 0 0 0 -0.203310179444855 -0.356464089516486 -0.631856901017574 -1.16188809628719 -0.559470866970444 0 0 0 0 0 0 0 0 0 0 0 0 0 0 0 0 0 0 0 0 0 0 0 0 0 0 0 0 0 0 0 0 0 0 0 0 0 0 0 0 0 0 0 0 0 0 0 0 0 0 0 0 0 -1.41740558890208 -0.628262522603591 -0.590678023381326 0 0 0 0 0 0 0 0 0 0 0 0 0 0 0 0 0 0 0 0 0.242312322256359 0 0.115647764207663
0.289283672138116 0.452949156005661 0.6286190405783 0 0 0 0 0 0 0 0 0 0 0 0 0 0 0 0 0 0 0 0 -0.618122500068599 -0.785761991419664 0 0 0 0 0 0 0 0 0 0 0 0 0 0 0 -0.887596000428612 -0.635170105365643 -0.463390465295373 -2.55687855493223 -2.67896409063507 0 0 0 0 0 0 -1.12788255531409 -0.518993416969017 0 0 0 0 0 0 -2.64445808161864 -0.838120793753957 -0.458744912573652 -0.92653935633739 -0.921024374099055 0 0 0 0 0 0 0 0 0 0 0 0 0 0 0 0 0 0 0 0 0 0 0 0 0 0 0 0 0 0 0 0 0 0 0 0 0 0 0 0 0 0 0 0 0 0 0 0 0 0 0 0 0 -2.57825984859467 -1.53890491866238 -0.92783211665565 0 0 0 0 0 0 0 0 0 0 0 0 0 0 0 0 0 0 0 0 0.16211992266521 0 0.133215588622578
0.114612826061868 1.19246731809372 0.273852902593721 0 0 0 0 0 0 0 0 0 0 0 0 0 0 0 0 0 0 0 0 -1.11122388370546 -0.486627826555999 0 0 0 0 0 0 0 0 0 0 0 0 0 0 0 -1.51746382499349 -0.500598107485446 -0.377041469310151 -3.22704743712238 -0.289513445948559 0 0 0 0 0 0 -1.17322153360581 -0.386311573433707 0 0 0 0 0 0 -0.425262358694763 -0.650921621463714 -1.9922236468828 -3.89043395177438 -0.496040832123329 0 0 0 0 0 0 0 0 0 0 0 0 0 0 0 0 0 0 0 0 0 0 0 0 0 0 0 0 0 0 0 0 0 0 0 0 0 0 0 0 0 0 0 0 0 0 0 0 0 0 0 0 0 -0.591177193495785 -2.68080991087373 -4.22200467499693 0 0 0 0 0 0 0 0 0 0 0 0 0 0 0 0 0 0 0 0 0.0950687938558005 0 0.0596210486349866
0.313267529598825 0.245591975847379 0.107744664415188 0 0 0 0 0 0 0 0 0 0 0 0 0 0 0 0 0 0 0 0 -0.774120482722772 -0.413160508594318 0 0 0 0 0 0 0 0 0 0 0 0 0 0 0 -0.923928983133586 -0.425029580583104 -0.349053170038404 -2.82980009557376 -0.413268462473724 0 0 0 0 0 0 -2.62535262169281 -0.730747466829672 0 0 0 0 0 0 -0.837995494215363 -2.93612389629393 -2.2982616914425 -0.23639516879327 -6.78538427718229 0 0 0 0 0 0 0 0 0 0 0 0 0 0 0 0 0 0 0 0 0 0 0 0 0 0 0 0 0 0 0 0 0 0 0 0 0 0 0 0 0 0 0 0 0 0 0 0 0 0 0 0 0 -0.7763651529715 -2.20235312802582 -4.32556656998463 0 0 0 0 0 0 0 0 0 0 0 0 0 0 0 0 0 0 0 0 0.063276784072237 0 1.39226085463878
0.794995009967076 0.205655290604996 0.244783550740004 0 0 0 0 0 0 0 0 0 0 0 0 0 0 0 0 0 0 0 0 -1.61027062003155 -1.13360562307243 0 0 0 0 0 0 0 0 0 0 0 0 0 0 0 -2.52185427569534 -1.79621807092853 -3.29791669956344 -1.14435009812554 -2.82758315823989 0 0 0 0 0 0 -4.34546708047277 -0.545711149078983 0 0 0 0 0 0 -4.97404909167054 -3.09353922869525 -1.25538827828195 -0.994758665528979 -0.6199680307699 0 0 0 0 0 0 0 0 0 0 0 0 0 0 0 0 0 0 0 0 0 0 0 0 0 0 0 0 0 0 0 0 0 0 0 0 0 0 0 0 0 0 0 0 0 0 0 0 0 0 0 0 0 -0.388583222432604 -0.547385914434235 -1.08553687230204 0 0 0 0 0 0 0 0 0 0 0 0 0 0 0 0 0 0 0 0 0.230787694098766 0 0.444277052821796
0.128465741480246 0.0827206040847351 0.622423618735103 0 0 0 0 0 0 0 0 0 0 0 0 0 0 0 0 0 0 0 0 -0.512142742321041 -0.302310762402738 0 0 0 0 0 0 0 0 0 0 0 0 0 0 0 -1.60711031720257 -0.429647423690912 -1.37283043677188 -0.327731019529171 -4.43635707041166 0 0 0 0 0 0 -0.252623623938817 -2.12468375686797 0 0 0 0 0 0 -1.07942620055278 -0.20396219685225 -0.496319404761378 -0.955066846826483 -0.235563551226273 0 0 0 0 0 0 0 0 0 0 0 0 0 0 0 0 0 0 0 0 0 0 0 0 0 0 0 0 0 0 0 0 0 0 0 0 0 0 0 0 0 0 0 0 0 0 0 0 0 0 0 0 0 -3.12527592183544 -0.346216614781294 -0.773551300327027 0 0 0 0 0 0 0 0 0 0 0 0 0 0 0 0 0 0 0 0 0.0665035547286915 0 0.586722390514209
0.189935036818868 0.705491940715703 0.131952942757003 0 0 0 0 0 0 0 0 0 0 0 0 0 0 0 0 0 0 0 0 -0.27760863135368 -0.882038365765214 0 0 0 0 0 0 0 0 0 0 0 0 0 0 0 -0.343363748949485 -0.548383398043253 -3.44975201004354 -1.04558139158383 -0.587274146501625 0 0 0 0 0 0 -0.778879341335286 -0.145964468367516 0 0 0 0 0 0 -1.17595262890535 -1.01347512555588 -0.885758068414415 -6.69200977853528 -0.686612851676404 0 0 0 0 0 0 0 0 0 0 0 0 0 0 0 0 0 0 0 0 0 0 0 0 0 0 0 0 0 0 0 0 0 0 0 0 0 0 0 0 0 0 0 0 0 0 0 0 0 0 0 0 0 -0.380683597463373 -0.23376256828466 -0.612393929281759 0 0 0 0 0 0 0 0 0 0 0 0 0 0 0 0 0 0 0 0 0.294938292764183 0 0.0608016276305855
0.120620167904932 0.116885825484105 0.146635753540932 0 0 0 0 0 0 0 0 0 0 0 0 0 0 0 0 0 0 0 0 -0.912632801345041 -2.20767620719504 0 0 0 0 0 0 0 0 0 0 0 0 0 0 0 -1.44059930354954 -2.11129916598281 -5.24682912062558 -0.310489165558214 -0.913743192349308 0 0 0 0 0 0 -0.665402427790321 -0.801881419151704 0 0 0 0 0 0 -1.54290756083827 -0.639710928050183 -0.432529868861689 -4.28916511011045 -0.11763723675366 0 0 0 0 0 0 0 0 0 0 0 0 0 0 0 0 0 0 0 0 0 0 0 0 0 0 0 0 0 0 0 0 0 0 0 0 0 0 0 0 0 0 0 0 0 0 0 0 0 0 0 0 0 -0.820053477531032 -4.69635455382557 -2.11579055355917 0 0 0 0 0 0 0 0 0 0 0 0 0 0 0 0 0 0 0 0 0.0670523588228469 0 0.187551678949385
0.318836174683442 0.392275526826544 0.0966744872992755 0 0 0 0 0 0 0 0 0 0 0 0 0 0 0 0 0 0 0 0 -0.447086765767305 -0.128704120611722 0 0 0 0 0 0 0 0 0 0 0 0 0 0 0 -1.59661349280256 -1.24691168535452 -0.939334200837375 -0.135092185376056 -0.526410713564759 0 0 0 0 0 0 -6.68196656098953 -1.75902868987809 0 0 0 0 0 0 -2.67108420696666 -3.27190698854587 -2.11334791046821 -4.18009637684692 -3.29072750324841 0 0 0 0 0 0 0 0 0 0 0 0 0 0 0 0 0 0 0 0 0 0 0 0 0 0 0 0 0 0 0 0 0 0 0 0 0 0 0 0 0 0 0 0 0 0 0 0 0 0 0 0 0 -1.12267333256374 -0.353880691543425 -3.53607499909198 0 0 0 0 0 0 0 0 0 0 0 0 0 0 0 0 0 0 0 0 0.0497332013367885 0 1.35596875998584
0.19785300272838 0.156340424897047 0.0413417992694681 0 0 0.140387977745877 0.27164410235958 0.162251682375808 0.158119622389556 0.576589908801711 0.143629167216183 1.64264113814257 0.0484833742753979 0.136537521271374 0.119224139525584 0.0868747231757577 0.354014879703437 0.204536348543371 0.17751212779368 0.0646058977943144 0.033537861831845 0 0 -2.39143772200973 -0.346228032074755 0 0 0 0 0 0.12832016501704 0.48182621857993 0.232246522594074 0.356796628100429 0.482494505019921 0.260561140651858 1.31685965922399 0.0380831077176663 0 0 -4.73026983792007 -0.927833230580586 -0.254931262894327 0 0 0 0 0 0 0 0 -4.55513752254835 -1.4471470079153 0 0 0 0 0 0 -4.58482014999625 -0.429258459180735 -0.23279472210701 -0.0805616725751017 -1.05070432484294 0.164294514536927 0.296706730571949 0.256803346085446 0.057997667646825 0.608265648679825 0.258221282347358 0.054809100646813 0.112059223679491 0 0 0 0 0 0 0 0 0 0 0 0 0 0 0 0 0 0 0 0 0 0 0 0 0 0 0 0 0 0 0 0 0 0 0 0 0 0 0 0 0 0 0 0 0 -0.445947795730527 -0.386982666929514 -0.212018873899361 0 0 0 0 0 0 0 0 0 0 0 0 0 0 0 0 0 0 0 0 0 0 0
0.187267328297438 0.3177582226321 0.832143978587937 0 0 0.205427557245392 0.836760191829797 0.293220188129436 0.142383684733718 0.168442632840283 0.168384715536938 0.116532341653382 1.9140731694326 0.0372075082808062 0.0283394221094746 0.0625639002751254 0.360872566380797 0.216806665739729 0.256840754202856 0.621964756338468 0.0565069262325071 0 0 -1.32810558816711 -2.07940514554478 0 0 0 0 0 0.176096699625167 0.274363113659865 0.158287448172667 0.13403765751507 0.0360778102410118 0.399067117515206 0.409907559772955 0.0371919696790111 0 0 -0.69475308680551 -1.07933518453487 -3.74999394765734 0 0 0 0 0 0 0 0 -1.41475234600198 -0.573027867310109 0 0 0 0 0 0 -1.18249429092646 -0.785103332555752 -1.46176149661301 -0.172995781703027 -1.40195015099313 0.0648844763241155 0.681489782104564 0.0450938450680656 0.323782624902157 0.218439271659878 0.170950114712072 0.144338279291638 0.439980843151184 0 0 0 0 0 0 0 0 0 0 0 0 0 0 0 0 0 0 0 0 0 0 0 0 0 0 0 0 0 0 0 0 0 0 0 0 0 0 0 0 0 0 0 0 0 -0.350774062037494 -0.411053531542397 -0.540134179296028 0 0 0 0 0 0 0 0 0 0 0 0 0 0 0 0 0 0 0 0 0 0 0
0.0667853901901205 0.18256924774256 0.541382038200298 0 0 0.103887937174695 0.448529375712836 0.112133127253439 0.229596540241113 0.204196970699303 1.1843704657397 0.31722257324228 0.0606463973797765 0.118300674472341 0.119981116907057 0.245766133318561 0.968205646697641 0.266352666486033 0.0685592795497878 0.161779224355783 0.258673303384666 0 0 -0.325040370222397 -0.155499172249455 0 0 0 0 0 0.0402176483073332 0.0200001078435154 0.182519807185829 0.217487544761155 0.237949544968866 0.126848935736163 0.0440045647585998 0.498519206260508 0 0 -1.6252632395056 -0.267277606118709 -0.232192685961483 0 0 0 0 0 0 0 0 -0.479458800460055 -1.54687810560382 0 0 0 0 0 0 -0.636688924476141 -0.300833375521025 -1.54016908718619 -0.563540952651492 -0.351697697682409 0.37747080343851 0.0787156461665317 0.278492538865464 0.384004532438326 0.256431166438936 1.00615587300289 0.409016634315693 0.263719276134383 0 0 0 0 0 0 0 0 0 0 0 0 0 0 0 0 0 0 0 0 0 0 0 0 0 0 0 0 0 0 0 0 0 0 0 0 0 0 0 0 0 0 0 0 0 -0.553201123462677 -0.426433699745978 -5.90054206340378 0 0 0 0 0 0 0 0 0 0 0 0 0 0 0 0 0 0 0 0 0 0 0
0.353601416026063 0.754557485231574 0.530758938858157 0 0 0.128988739924997 0.58559271064184 0.0823629456964098 0.20203422496929 0.322635184728861 1.12282147899825 0.125318405695118 0.776068796853516 0.131682030651554 0.135990936555723 0.331947968976064 0.157802389738963 0.254007832141602 0.350472707740661 0.130586153345274 0.180827227362349 0 0 -0.947933573637286 -0.263039945955952 0 0 0 0 0 0.0724809361031737 0.28787307056795 0.409861920046517 0.267885052299205 0.20350676595197 0.654776748658385 0.248463652914855 0.102988310080302 0 0 -0.128444903294559 -1.36534314471296 -2.15418899804444 0 0 0 0 0 0 0 0 -1.60508469558512 -0.219303264514535 0 0 0 0 0 0 -0.322764920131766 -1.80537788369532 -0.741423173888899 -4.29781720046916 -0.45215498426357 0.238973320611497 0.144626178026422 0.0858164216518324 0.244407965044994 0.0987413246673897 0.072784610081661 0.40084310878606 0.0501855897832511 0 0 0 0 0 0 0 0 0 0 0 0 0 0 0 0 0 0 0 0 0 0 0 0 0 0 0 0 0 0 0 0 0 0 0 0 0 0 0 0 0 0 0 0 0 -0.253384632012942 -0.635246381623 -0.806834016987536 0 0 0 0 0 0 0 0 0 0 0 0 0 0 0 0 0 0 0 0 0 0 0
0.12437044999045 0.0212257571196108 0.210422364188325 0 0 0.119420272828678 0.608761471698576 0.731244218326937 0.157332247154433 0.153611579547169 0.0984390731665397 0.196591325679107 0.261977187951662 0.119324915131921 0.610218694840381 0.0551639450487309 0.519122611725755 0.883129183799459 0.852010397560019 0.748916699291474 0.375442712390701 0 0 -0.0641690619842202 -0.659423513025714 0 0 0 0 0 0.283306336372451 0.286348924960727 0.0923845099984025 0.245874734009177 0.10884882651213 0.285899699564266 0.21781610958232 0.221750730806991 0 0 -10.110559523142 -1.92573537721765 -0.187057228789174 0 0 0 0 0 0 0 0 -1.06363322165282 -2.17252788729104 0 0 0 0 0 0 -1.61557692947394 -1.20116168707076 -0.586547157808642 -1.76222381511815 -0.490001791412792 0.177780673481234 0.837906759045138 0.0276386332258754 0.176723781284651 0.427362678057186 0.00600420655771303 0.408117474437864 0.195363129085933 0 0 0 0 0 0 0 0 0 0 0 0 0 0 0 0 0 0 0 0 0 0 0 0 0 0 0 0 0 0 0 0 0 0 0 0 0 0 0 0 0 0 0 0 0 -8.18995076008651 -0.649878216924275 -1.01944075243261 0 0 0 0 0 0 0 0 0 0 0 0 0 0 0 0 0 0 0 0 0 0 0
0 0 0 0 0 0 0 0 0 0 0 0 0 0 0 0 0 0 0 0 0 0 0 0 0 0 0 0 0 0 0 0 0 0 0 0 0 0 0 0 -1.23582790324792 -0.652905740315733 -2.61354012955741 0 0 0 0 0 0 0 0 -1.08963410368143 -0.525556172548809 0 0 0 0 0 0 -1.12185732498948 -4.7881350570241 0 0 -5.54403200484731 0 0 0 0 0 0 0 0 0 0 0 0 0 0 0 0 0 0 0 0 0 0 0 0 0 0 0 0 0 0 0 0 0 0 0 0 0 0 0 0 0 0 0 0 0 0 0 0 0.197925244097842 0.242364562242565 0.594323415410912 0.142889691061287 0.0638253566010349 -1.59648265523193 -1.02191443064038 -1.57268633745362 0 0 0 0 0 0 0 0 0 0 0 0 0 0 0 0 0 0 0 0 0 0 0.336517460869982
0 0 0 0 0 0 0 0 0 0 0 0 0 0 0 0 0 0 0 0 0 0 0 0 0 0 0 0 0 0 0 0 0 0 0 0 0 0 0 0 -1.21631689865178 -0.961963434860205 -2.61482947604053 0 0 0 0 0 0 0 0 -0.998218980101173 -0.357540775950386 0 0 0 0 0 0 -0.435057092138806 -1.49792643015811 0 0 -1.16451232714872 0 0 0 0 0 0 0 0 0 0 0 0 0 0 0 0 0 0 0 0 0 0 0 0 0 0 0 0 0 0 0 0 0 0 0 0 0 0 0 0 0 0 0 0 0 0 0 0 0.171452118969244 0.315767119339185 0.0988902654063899 0.584335956162562 0.307004286816867 -0.482991192617424 -0.10251946751582 -1.19702692930926 0 0 0 0 0 0 0 0 0 0 0 0 0 0 0 0 0 0 0 0 0 0 0.4656409750441
0 0 0 1.08898072673045 0.121857954747933 0 0 0 0 0 0 0 0 0 0 0 0 0 0 0 0 0 0 0 0 0 0 0 0 0 0 0 0 0 0 0 0 0 0 0 0 0 0 0 0 0 0 0 -0.962220251959805 -0.553238133796725 -5.33457006543026 0 0 -7.67659660172053 -1.33484110671816 -2.84847802373151 -4.94807630919745 -1.94518355999152 -1.51126633274424 -0.22120746882448 -5.97808656747495 -0.251408443579396 -0.515229621042773 0 0 0 0 0 0 0 0 0 0 0 0 0 0 0 0 0 0 0 0 0 0 0 0 0 0 0 0 0 0 0 0 0 0 0 0 0 0 0 0 0 0 0 0 0 0 0 -1.01332840442763 -0.817382954268451 0 0 0 0 0 0 0 0 0 0 0 0 0 0 0 0 0 0 0 0 0 0 0 0 0 0 0 0 0 0.107010037083505 0
0 0 0 0.0796557469524098 0.273401873531658 0 0 0 0 0 0 0 0 0 0 0 0 0 0 0 0 0 0 0 0 0 0 0 0 0 0 0 0 0 0 0 0 0 0 0 0 0 0 0 0 0 0 0 -3.18209829299858 -1.13601348034495 -4.97535125180468 0 0 -2.80185691250802 -0.54583562977593 -0.894879627477873 -0.365603039070138 -1.47949503102105 -0.38517493774521 -0.640805632028306 -1.5426264438339 -1.40203027656698 -0.920417633531476 0 0 0 0 0 0 0 0 0 0 0 0 0 0 0 0 0 0 0 0 0 0 0 0 0 0 0 0 0 0 0 0 0 0 0 0 0 0 0 0 0 0 0 0 0 0 0 -1.2324386521325 -1.46975255740906 0 0 0 0 0 0 0 0 0 0 0 0 0 0 0 0 0 0 0 0 0 0 0 0 0 0 0 0 0 0.113895479069221 0
0 0 0 0.433862827076493 0.391466000715057 0 0 0 0 0 0 0 0 0 0 0 0 0 0 0 0 0 0 0 0 0 0 0 0 0 0 0 0 0 0 0 0 0 0 0 0 0 0 0 0 0 0 0 -1.53320354696155 -0.835587779241197 -1.07239992466148 0 0 -3.92081346688412 -1.88116108448165 -2.44744076702171 -0.794627478978608 -1.20584929203786 -0.491912158492261 -2.21332555656036 -2.21800792543968 -1.99635124797861 -1.03049854518404 0 0 0 0 0 0 0 0 0 0 0 0 0 0 0 0 0 0 0 0 0 0 0 0 0 0 0 0 0 0 0 0 0 0 0 0 0 0 0 0 0 0 0 0 0 0 0 -3.01300726568988 -0.500349064346264 0 0 0 0 0 0 0 0 0 0 0 0 0 0 0 0 0 0 0 0 0 0 0 0 0 0 0 0 0 0.103433119309872 0
0 0 0 0.473783790124437 0.165699211450514 0 0 0 0 0 0 0 0 0 0 0 0 0 0 0 0 0 0 0 0 0 0 0 0 0 0 0 0 0 0 0 0 0 0 0 0 0 0 0 0 0 0 0 -3.21223086283274 -1.47791730452647 -5.55934819182725 0 0 -3.27949350623382 -0.190638680219674 -0.533240913223967 -1.06902371655369 -1.59112895435944 -0.142401776654644 -2.10634474103761 -0.370362658427339 -0.164494017893318 -0.444628183846103 0 0 0 0 0 0 0 0 0 0 0 0 0 0 0 0 0 0 0 0 0 0 0 0 0 0 0 0 0 0 0 0 0 0 0 0 0 0 0 0 0 0 0 0 0 0 0 -0.717513636132055 -2.7774896974521 0 0 0 0 0 0 0 0 0 0 0 0 0 0 0 0 0 0 0 0 0 0 0 0 0 0 0 0 0 0.0752125384872975 0
0 0 0 0.0467121098307656 0.0604050421400777 0 0 0 0 0 0 0 0 0 0 0 0 0 0 0 0 0 0 0 0 0 0 0 0 0 0 0 0 0 0 0 0 0 0 0 0 0 0 0 0 0 0 0 -1.1899706268499 -0.21530844378395 -3.57103560178608 0 0 -1.18117500182828 -3.75516467068493 -0.247329063917979 -0.52593308754446 -0.840986239159897 -0.871505052496873 -0.98143295393525 -3.27802996553297 -1.47737994811094 -1.56750000163005 0 0 0 0 0 0 0 0 0 0 0 0 0 0 0 0 0 0 0 0 0 0 0 0 0 0 0 0 0 0 0 0 0 0 0 0 0 0 0 0 0 0 0 0 0 0 0 -0.333485902268925 -1.54088683264908 0 0 0 0 0 0 0 0 0 0 0 0 0 0 0 0 0 0 0 0 0 0 0 0 0 0 0 0 0 0.032780758207883 0
0 0 0 0 0 0 0 0 0 0 0 0 0 0 0 0 0 0 0 0 0 1.10573888106792 0 0.754943481510969 0.232207041083544 0 0 0 0 0 0 0 0 0 0 0 0 0 0 0 0 0 0 0 0 0 0 0 0 0 0 0 0 0 0 0 0 0 0 0 0 0 0 0 0.541890409329211 0.155580930455759 0.610645780125075 0.109233146522984 0.203399877506275 0.192296015733068 0.0900370820776196 0.208826888973069 0 0 0 0 0 0 0 0 0 0 0 0 0 0 0 0 0.0730048942813346 0.141158522165629 0.19826500281991 0.443714651662164 0.369121838567349 0.232979404667584 0.746413680976381 0.285538774756519 0.295631207672003 0.514367500727453 0.118764808940747 0.15281275567641 0.0730590657355256 0.637298410876029 0.0756169456550222 0.159129936109173 0.238017566480178 0.0858218756844309 0.0704919660338425 0.113997100937312 0.0488026803547284 1.70302149959259 0.315225900852933 0.0954196797952576 0 0 0 0 0 0 0 0 0 0 0 0 0 0 0 0 0 0 0 0 0 0 0 0 0 0 0 0 0 0 0
0 0 0 0 0 0 0 0 0 0 0 0 0 0 0 0 0 0 0 0 0 0.228980769787383 0 0.134452198600957 0.0770933213175144 0 0 0 0 0 0 0 0 0 0 0 0 0 0 0 0 0 0 0 0 0 0 0 0 0 0 0 0 0 0 0 0 0 0 0 0 0 0 0 0.618280970614879 0.0891215010077 0.30986072682209 0.0666472137262292 0.37417927773016 0.22137338059863 0.294980146797767 0.200934913008063 0 0 0 0 0 0 0 0 0 0 0 0 0 0 0 0 0.0401671560963219 0.403483904398356 0.0482239093432871 0.148179198643709 0.651939856092099 0.93670109768677 0.465531390553606 0.0962128499082434 0.115110411935638 0.278857145980913 0.549524583154271 0.428908817619499 0.103439855079175 0.0725139599436741 0.0525730123978638 0.948267881041122 0.070066840604592 0.082737521401695 0.081387072123618 0.0908055758430802 0.124009172872699 0.138767261908726 0.204957521646912 0.0224325457080585 0 0 0 0 0 0 0 0 0 0 0 0 0 0 0 0 0 0 0 0 0 0 0 0 0 0 0 0 0 0 0
0 0 0 0 0 0 0 0 0 0 0 0 0 0 0 0 0 0 0 0 0 0.200830842290441 0 0.512635148778184 0.188818771824053 0 0 0 0 0 0 0 0 0 0 0 0 0 0 0 0 0 0 0 0 0 0 0 0 0 0 0 0 0 0 0 0 0 0 0 0 0 0 0 0.691371920301072 0.40470366109628 0.448532810131838 0.0651281689386257 0.0228234645060766 0.100361729133138 0.214199375946023 0.0873530180528814 0 0 0 0 0 0 0 0 0 0 0 0 0 0 0 0 0.397093056624529 0.0367447528186996 0.154569494570345 0.0452327843648027 0.256782538643198 0.614248559164689 0.115191611262295 0.0846443401358026 0.105121802011611 0.190955553824678 0.863640059003628 0.838708910482788 0.233194794555769 0.158202783510732 0.118366317984 0.369153178534027 0.650336990133418 0.0427621471895114 0.105861425723765 1.20741852722263 0.150413286932438 0.207328652656399 0.307757400649733 0.240506462664576 0 0 0 0 0 0 0 0 0 0 0 0 0 0 0 0 0 0 0 0 0 0 0 0 0 0 0 0 0 0 0
0 0 0 0 0 0 0 0 0 0 0 0 0 0 0 0 0 0 0 0 0 0 0 0 0 0 0 0 0 0 0 0 0 0 0 0 0 0 0 0 0 0 0 0 0 0 0.0941249424790663 0.138930103422092 0 0 0 0 0 0.241947104399512 0 0 0 0 0 0 0.0199284015476146 0 0 0 0 0 0 0 0 0 0 0 0 0 0 0 0 0 0 0 0 0 0 0 0 0 0 0 0 0 0 0 0 0 0 0 0 0 0 0 0 0 0 0 0 0 0 0 0 0 0 0 0 0 0 0 0 0 0 0 0 0 0 0 0 0 0 0 0 0 0 0 0 0 0 0 0 0 0 0 0 0 0
0 0 0 0 0 0 0 0 0 0 0 0 0 0 0 0 0 0 0 0 0 0 0 0 0 0 0 0 0 0 0 0 0 0 0 0 0 0 0 0 0 0 0 0 0 0 0.487312387132038 0.0814403507839766 0 0 0 0 0 0.18743275041651 0 0 0 0 0 0 0.48222955493986 0 0 0 0 0 0 0 0 0 0 0 0 0 0 0 0 0 0 0 0 0 0 0 0 0 0 0 0 0 0 0 0 0 0 0 0 0 0 0 0 0 0 0 0 0 0 0 0 0 0 0 0 0 0 0 0 0 0 0 0 0 0 0 0 0 0 0 0 0 0 0 0 0 0 0 0 0 0 0 0 0 0
0 0 0 0 0 0 0 0 0 0 0 0 0 0 0 0 0 0 0 0 0 0 0 0 0 0 0 0 0 0 0 0 0 0 0 0 0 0 0 0 0 0 0 0 0 0 0.199537086513058 0.876555156044029 0 0 0 0 0 0.497712392963427 0 0 0 0 0 0 0.243022113912723 0 0 0 0 0 0 0 0 0 0 0 0 0 0 0 0 0 0 0 0 0 0 0 0 0 0 0 0 0 0 0 0 0 0 0 0 0 0 0 0 0 0 0 0 0 0 0 0 0 0 0 0 0 0 0 0 0 0 0 0 0 0 0 0 0 0 0 0 0 0 0 0 0 0 0 0 0 0 0 0 0 0
0 0 0 0 0 0 0 0 0 0 0 0 0 0 0 0 0 0 0 0 0 0 0 0 0 0 0 0 0 0 0 0 0 0 0 0 0 0 0 0 0 0 0 0 0 0 0.182664352059773 0.028699321837146 0 0 0 0 0 0.33061472451918 0 0 0 0 0 0 0.0404887573490116 0 0 0 0 0 0 0 0 0 0 0 0 0 0 0 0 0 0 0 0 0 0 0 0 0 0 0 0 0 0 0 0 0 0 0 0 0 0 0 0 0 0 0 0 0 0 0 0 0 0 0 0 0 0 0 0 0 0 0 0 0 0 0 0 0 0 0 0 0 0 0 0 0 0 0 0 0 0 0 0 0 0
0 0 0 0 0 0 0 0 0 0 0 0 0 0 0 0 0 0 0 0 0 0 0 0 0 0 0 0 0 0 0 0 0 0 0 0 0 0 0 0 0 0 0 0 0 0 0.598818917879675 2.22809578718789 0 0 0 0 0 0.400989359944765 0 0 0 0 0 0 0.332542949822305 0 0 0 0 0 0 0 0 0 0 0 0 0 0 0 0 0 0 0 0 0 0 0 0 0 0 0 0 0 0 0 0 0 0 0 0 0 0 0 0 0 0 0 0 0 0 0 0 0 0 0 0 0 0 0 0 0 0 0 0 0 0 0 0 0 0 0 0 0 0 0 0 0 0 0 0 0 0 0 0 0 0
0 0 0 0 0 0 0 0 0 0 0 0 0 0 0 0 0 0 0 0 0 0 0 0 0 0 0 0 0 0 0 0 0 0 0 0 0 0 0 0 0 0 0 0 0 0 0.0834428458913882 0.188368913089413 0 0 0 0 0 0.0997050529724772 0 0 0 0 0 0 0.109992575348546 0 0 0 0 0 0 0 0 0 0 0 0 0 0 0 0 0 0 0 0 0 0 0 0 0 0 0 0 0 0 0 0 0 0 0 0 0 0 0 0 0 0 0 0 0 0 0 0 0 0 0 0 0 0 0 0 0 0 0 0 0 0 0 0 0 0 0 0 0 0 0 0 0 0 0 0 0 0 0 0 0 0
0 0 0 0 0 0 0 0 0 0 0 0 0 0 0 0 0 0 0 0 0 0 0 0 0 0 0 0 0 0 0 0 0 0 0 0 0 0 0 0 0 0 0 0 0 0 0.266378471133805 0.246557812129624 0 0 0 0 0 0.260535583015752 0 0 0 0 0 0 1.53603346520819 0 0 0 0 0 0 0 0 0 0 0 0 0 0 0 0 0 0 0 0 0 0 0 0 0 0 0 0 0 0 0 0 0 0 0 0 0 0 0 0 0 0 0 0 0 0 0 0 0 0 0 0 0 0 0 0 0 0 0 0 0 0 0 0 0 0 0 0 0 0 0 0 0 0 0 0 0 0 0 0 0 0
0 0 0 0 0 0 0 0 0 0 0 0 0 0 0 0 0 0 0 0 0 0.156267026535154 0 0 0 0 0 0 0 0 0 0 0 0 0 0 0 0 0 0 0.134180126585079 0.254180702483215 0.93632924525421 0 0 0 0 0 0.224062666350312 0.0823045007967391 0.488836794666947 0.221130409513777 0.0652063681459636 0.0820659964380211 0.0945999114531639 0.0744343951588769 0.138869490771833 0.116586523321134 0.362722559628621 0.0772402932736661 0.54365359401325 0 0 0 0 0 0 0 0 0 0 0 0 0 0 0 0 0 0 0 0 0 0 0 0 0 0 0 0 0 0 0 0 0 0 0 0 0 0 0 0 0 0 0 0 0 0 0 0 0 0 0 0 0 0 0 0 0 0 0 0 0 0 0 0 0 0 0 0 0 0 0 0 0 0 0 0 0 0 0 0 0 0
0 0 0 0 0 0 0 0 0 0 0 0 0 0 0 0 0 0 0 0 0 1.13271476074185 0 0 0 0 0 0 0 0 0 0 0 0 0 0 0 0 0 0 0.364243483892112 0.769683871095792 0.135415645097049 0 0 0 0 0 0.275409828268724 0.201753149688086 0.290502909745986 0.099766049057593 0.538308808761659 0.100064285033843 0.180943604126804 0.441666686399403 0.0468093914535009 0.0802560679949356 0.11998550628864 0.307621069124827 0.697739242796823 0 0 0 0 0 0 0 0 0 0 0 0 0 0 0 0 0 0 0 0 0 0 0 0 0 0 0 0 0 0 0 0 0 0 0 0 0 0 0 0 0 0 0 0 0 0 0 0 0 0 0 0 0 0 0 0 0 0 0 0 0 0 0 0 0 0 0 0 0 0 0 0 0 0 0 0 0 0 0 0 0 0
0 0 0 0 0 0 0 0 0 0 0 0 0 0 0 0 0 0 0 0 0 0.0373431759723977 0 0 0 0 0 0 0 0 0 0 0 0 0 0 0 0 0 0 0.038687266662046 0.477270508990053 0.186516944326763 0 0 0 0 0 0.740712406342114 0.186645681658296 0.433806127313122 0.0843240569620544 1.01654763273223 0.0751680469040926 0.473456630188079 0.173339062729501 0.486434642519527 0.235335627520526 0.0563735525029179 0.0822168229464068 0.0532288833085744 0 0 0 0 0 0 0 0 0 0 0 0 0 0 0 0 0 0 0 0 0 0 0 0 0 0 0 0 0 0 0 0 0 0 0 0 0 0 0 0 0 0 0 0 0 0 0 0 0 0 0 0 0 0 0 0 0 0 0 0 0 0 0 0 0 0 0 0 0 0 0 0 0 0 0 0 0 0 0 0 0 0
0 0 0 0 0 0 0 0 0 0 0 0 0 0 0 0 0 0 0 0 0 0.0147741616455615 0 0.230048124139199 0.143580043245341 0.8499441504217 0 0 0 0 0 0 0 0 0 0 0 0 0 0 0.120603678102493 0.0127416133762369 0.11105428176542 0 0 0 0 0 0 0 0 0.222760002509443 0.190956491638 0.112761542654253 0 0 0 0 0 0 0 0 0 0 0 0 0 0 0 0 0 0 0 0 0 0 0 0 0 0 0 0 0 0 0 0 0 0 0 0 0 0 0 0 0 0 0 0 0 0 0 0 0 0 0 0 0 0 0 0 0 0 0 0 0 0 0 0 0 0 0 0 0 0 0 0 0 0 0 0 0 0 0 0 0 0 0 0 0 0 0 0 0
0 0 0 0 0 0 0 0 0 0 0 0 0 0 0 0 0 0 0 0 0 0.108245926049369 0 0.129731195061842 0.340525195413116 0.167108232509638 0 0 0 0 0 0 0 0 0 0 0 0 0 0 0.468256717242213 0.0617739325865896 0.683652652204037 0 0 0 0 0 0 0 0 0.148101057425179 0.271322168699828 0.120568089647421 0 0 0 0 0 0 0 0 0 0 0 0 0 0 0 0 0 0 0 0 0 0 0 0 0 0 0 0 0 0 0 0 0 0 0 0 0 0 0 0 0 0 0 0 0 0 0 0 0 0 0 0 0 0 0 0 0 0 0 0 0 0 0 0 0 0 0 0 0 0 0 0 0 0 0 0 0 0 0 0 0 0 0 0 0 0 0 0 0
0 0 0 0 0 0 0 0 0 0 0 0 0 0 0 0 0 0 0 0 0 0.300863922165506 0 0.145517514952123 0.0487447827746983 0.114746816743976 0 0 0 0 0 0 0 0 0 0 0 0 0 0 0.113718000623192 0.21434513222911 0.00557275362529643 0 0 0 0 0 0 0 0 0.213055046434969 0.077869400772651 0.0185024402635762 0 0 0 0 0 0 0 0 0 0 0 0 0 0 0 0 0 0 0 0 0 0 0 0 0 0 0 0 0 0 0 0 0 0 0 0 0 0 0 0 0 0 0 0 0 0 0 0 0 0 0 0 0 0 0 0 0 0 0 0 0 0 0 0 0 0 0 0 0 0 0 0 0 0 0 0 0 0 0 0 0 0 0 0 0 0 0 0 0
0 0 0 0 0 0 0 0 0 0 0 0 0 0 0 0 0 0 0 0 0 1.40080221199116 0 0.396043322143997 0.609944531684387 0.0529886298198933 0 0 0 0 0 0 0 0 0 0 0 0 0 0 0.152927761612867 0.0954155606939251 0.441214946726543 0 0 0 0 0 0 0 0 0.0760335493736546 0.683007140118275 0.221628732830662 0 0 0 0 0 0 0 0 0 0 0 0 0 0 0 0 0 0 0 0 0 0 0 0 0 0 0 0 0 0 0 0 0 0 0 0 0 0 0 0 0 0 0 0 0 0 0 0 0 0 0 0 0 0 0 0 0 0 0 0 0 0 0 0 0 0 0 0 0 0 0 0 0 0 0 0 0 0 0 0 0 0 0 0 0 0 0 0 0
0 0 0 0 0 0 0 0 0 0 0 0 0 0 0 0 0 0 0 0 0 0 0 0 0 0 0 0 0 0 0 0 0 0 0 0 0 0 0 0 0 0 0 0.193356465060718 0.201308776547024 0 0.518193387490065 0.0982860769038553 0 0 0 0 0 1.025066279483 0 0 0 0 0 0 0 0 0 0 0 0 0 0 0 0 0 0 0 0 0 0 0 0 0 0 0 0 0 0 0 0 0 0 0 0 0 0 0 0 0 0 0 0 0 0 0 0 0 0 0 0 0 0 0 0 0 0 0 0 0 0 0 0 0 0 0 0 0 0 0 0 0 0 0 0 0 0 0 0 0 0 0 0 0 0 0 0 0
0 0 0 0 0 0 0 0 0 0 0 0 0 0 0 0 0 0 0 0 0 0 0 0 0 0 0 0 0 0 0 0 0 0 0 0 0 0 0 0 0 0 0 1.13903625073477 0.313022989563302 0 0.540882071772384 0.136282651183744 0 0 0 0 0 0.336516335698404 0 0 0 0 0 0 0 0 0 0 0 0 0 0 0 0 0 0 0 0 0 0 0 0 0 0 0 0 0 0 0 0 0 0 0 0 0 0 0 0 0 0 0 0 0 0 0 0 0 0 0 0 0 0 0 0 0 0 0 0 0 0 0 0 0 0 0 0 0 0 0 0 0 0 0 0 0 0 0 0 0 0 0 0 0 0 0 0 0
0 0 0 0 0 0 0 0 0 0 0 0 0 0 0 0 0.0695280133892748 1.00771945611947 1.02786364054562 0.149572945665899 0.124604828495078 0 0 0 0 0 0 0 0 0 0 0 0 0 0 0 0 0 0 0 0 0 0 0 0 0 0 0 0 0 0 0 0 0 0 0 0 0 0 0 0 0 0 0 0.631534860259404 0.176115892660297 0.142073703777807 0.217799371656716 0.147411777435081 0.201743352343506 0.449074367341949 0.0390259373001937 0 0 0 0 0 0 0 0 0 0 0 0 0 0 0 0 0 0 0 0 0 0 0 0 0 0 0 0 0 0 0 0 0 0 0 0 0 0 0 0 0 0 0 0 0 0 0 0 0 0 0 0 0 0 0 0 0 0 0 0 0 0 0 0 0 0.0648862237920995 0.0368650027144603 0 0 0 0
0 0 0 0 0 -1.14273621489325 -10.4848938620741 -0.385336531642836 -2.79570287806275 -0.868272330066321 -2.90490726192447 -1.72032606932444 -1.03289803278213 -0.493213720292698 -0.646290892711917 -2.77601462261503 0 0 0 0 0 0 -0.960422092002882 -0.782154461079287 -2.27869693400834 -3.42996233063715 -0.291261720890064 -1.17778033357354 -1.77128747300146 0 0 0 0 0 0 0 0 0 -0.813141142741665 -0.253600412398443 -0.193963570921214 -3.03713777509865 -1.62702686804478 -0.516885563894876 -0.822396226505588 0 0 0 0 0 0 0 0 0 0 0 0 0 0 0 0 0 0 0 0 0 0 0 0 0 0 0 0 0 0 0 0 0 0 0 0 0 0 0 0 0 0 0 0 0 0 0 0 0 0 0 0 0 0 0 0 0 0 0 0 0 0 0 0 0 0 0 0 0 0 0 0 0 0 0 0 0 0 0 0 0 0 0 0 0 0 0 0 0 0 0 -0.338005444865917 0 0 0 0 0 0
0 0 0 0 0 -1.9223841849254 -0.262859685451089 -0.660588595882565 -0.668353759710701 -0.291452653934795 -0.964260566597786 -4.13331834305119 -0.379614300972842 -2.76153435293219 -4.32146275469548 -0.418497513385069 0 0 0 0 0 0 -0.275589000304054 -0.693329711751364 -0.954050966625405 0 -0.23423753141758 -1.05532532613379 -0.381484241048262 0 0 0 0 0 0 0 0 0 -3.36539229911096 -0.944789749795805 -0.314104319426132 -0.902157217642612 -3.34415954221865 0 0 0 0 0 0 0 0 0 0 0 0 0 0 0 0 0 0 0 0 0 0 0 0 0 0 0 0 0 0 0 0 0 0 0 0 0 0 0 0 0 0 0 0 0 -3.15143105712707 -2.44553127481106 -4.03965227940043 -0.337393872088259 -0.444088615609515 -2.08111767747071 -1.45844552112141 0 0 0 0 0 0 0 0 0 0 0 0 0 0 0 0 0 0 0 0 0 0 0 0 0 0 0 0 0 0 0 0 0 0 0 0 0 0 0 0 0 -0.195033528443754 0 0 0 0 0 0
0 0 -4.23237011002371 0 0 0 0 0 0 0 0 0 0 0 0 0 0 0 0 0 0 0 0 0 0 0 0 0 0 0 0 0 0 0 0 0 0 0 0 0 0 0 0 0 0 0 0 0 0 0 0 0 0 -0.994047574191719 -2.13560098479965 -2.15994031222202 -0.489219910213815 0 0 0 0 0 0 0 0 0 0 0 0 0 0 0 0 0 0 0 0 0 0 0 0 0 0 0 0 0 0 0 0 0 0 0 0 0 0 0 0 0 0 0 0 0 0 0 0 0 0 0 0 0 0 0 0 0 0 0 0 0 0 0 0 0 0 0 0 0 0 0 0 0 0 0 0 0 0 0 0 0 0 0 0 0 0
0 -0.703349732454885 0 0 0 -4.21464310584588 -0.388191847401342 -0.845039950264118 -0.664067727802279 -2.8751612356647 -0.443832126667049 -0.421701820810776 -0.787234781007471 -1.09742777008893 -0.633030381399405 -2.99310265433879 0 0 0 0 0 -0.893317564294489 -1.30631214403362 0 0 0 0 0 0 -2.7256158184773 -4.14096386864539 -0.351940100165959 -1.1931298313845 -0.565925701939601 -1.41381887746907 -0.47797886152782 -0.665521951438522 -2.86425932194837 0 0 0 0 0 0 0 0 0 0 0 0 0 0 0 -1.35016542751671 0 0 0 0 0 -1.56082880554699 -0.620078499116624 -2.0228443808823 -0.202786316758946 0 -0.41507142227997 -3.80260071336428 -0.518769681586599 -1.41530724514417 -3.22971283001644 -2.21793951820162 -0.261651613012444 -0.502173859188814 0 0 0 0 0 0 0 0 0 0 0 0 0 0 0 0 0 0 0 0 0 0 0 -0.442908508160615 -1.25695256767405 -0.862461016931747 -0.481795652425443 -0.316124541505716 -1.20838877996581 -0.35582482678773 -1.64115356694802 -0.306535576752266 -0.254353704326668 0 0 0 0 0 0 0 0 0 0 0 0 0 0 0 0 0 0 0 0 0 0 0 0 0 0 0 0 0 0 0 0 0 0 0 0 0 0
0 0 -0.543972957042962 -0.563672070715559 -0.226185705028624 0 0 0 0 0 0 0 0 0 0 0 -1.86535526105159 -1.79264152737372 -6.62333636950141 -0.868641178459273 -2.9643954839854 0 0 0 0 0 0 0 0 0 0 0 0 0 0 0 0 0 0 0 0 0 0 0 0 0 0 0 0 0 0 -0.624731202532031 -0.260379374533516 0 0 0 0 0 0 0 0 0 0 0 0 0 0 0 0 0 0 0 0 0 0 0 0 0 0 0 0 0 0 0 0 0 0 0 0 0 0 0 0 0 0 0 0 0 0 0 0 0 0 0 0 0 0 0 0 0 0 0 -0.523867458752361 -0.584238935605494 -0.514060164534337 -0.368678318394873 -0.167186141804904 0 0 0 0 0 0 0 0 0 0 0 0 0 0 0 0 0 0 0 0 0 0 0 0 0 0
0 -0.242462141426128 0 0 -0.347425263726949 -1.73478846693933 -1.39130910503552 -0.365181778665785 -0.680535905913825 -1.80021739633462 -5.82734825484852 -0.621451992661098 -1.43067161620016 -5.91719573338257 -1.21140824099008 -0.838716788363739 0 0 0 0 0 -0.183323086430325 0 -0.600758371481592 -0.229025333976804 0 0 0 0 -8.62227695444126 -0.979327209891535 -1.99770398301361 -0.593560879444339 -1.80525255988066 -5.15559794385114 -0.909917742140976 -1.05476095546024 -0.663079128996567 0 0 -2.16238656455272 -2.02129923548436 -0.683002260394397 0 0 0 0 0 0 0 0 0 0 -0.693659079602047 -2.08950774617913 -0.642073173751677 -4.04776782652012 0 0 -0.273886189262971 0 0 0 0 -3.30332587761502 -0.720879979897282 -1.15506667201528 -0.833760584100286 -0.279590806197996 -0.596982404364777 -0.285268900077941 -0.671181757549558 -3.06887120331706 -1.40596483100998 -1.31749087137526 -1.98343964322759 -1.64399793629218 -1.09984289026594 -0.559300919274411 -2.19280534786824 -0.35477345309118 -0.61924251331823 -0.405968896493 -3.19586215938522 -1.49629519027171 -1.92817166186747 -2.04282518158374 -1.60133915535432 0 0 0 0 0 0 0 -3.68365017951881 -0.614581587518625 -0.704052444576897 -0.296730524504069 -6.97974850144817 -1.96699706637311 -2.62245159442992 -0.280713528296531 -0.910969386586462 -6.94704811873836 0 0 0 0 0 -1.64217298999273 -2.2009432253993 0 0 0 0 0 0 0 0 0 0 0 0 0 0 0 0 0 0 0 0 0 0 0 0 0 0 0 0 0 0 0
