0.408404719868561
0.0861611363857133
0.847484905224398
0.186997956645088
0.786854806320393
0.197457087776525
0.334067395287309
0.313085714199438
0.830477946353241
0.650643658143708
0.726487471266882
0.374428332181242
0.142050568651214
0.0551539567976568
0.0485992731024597
0.388326597663236
0.792359750064113
0.13683116058772
0.50510283213002
0.331765301088443
0.635132468826394
0.84089044385028
0.416600326064462
0.230676643398663
0.145212961441367
0.256719687700129
0.169386224061287
0.63921098032503
0.296710255270048
0.318405916211797
0.201737818312529
0.642991729027875
0.417252465335776
0.174303218894511
0.187257678556289
0.911102060422462
0.640456911215413
0.890970855378803
0.0292570897417061
0.102909649479598
0.871140723160596
0.921593549225737
0.152157770926285
0.116062864567124
0.0390101369439426
0.567910301925208
0.0286331852986075
0.0986558982289448
0.380704126481084
0.293956404888441
0.561925514031895
0.869876813790788
0.440408613697878
0.297110296073976
0.196120747405278
0.150596475160876
0.210867684359386
0.564399261365192
0.124586130051557
0.673812870303281
0.485239557106389
0.144438102158699
0.726825578326193
0.00904060211384966
0.357406039640265
0.211605314877769
0.11823510058538
0.113550813195857
0.695598108759183
0.787529140530125
0.648465145955835
0.791810033655809
0.0886409478305126
0.478813334892664
0.501721734424509
0.138825893099128
0.515611701124418
0.486889640956195
0.551633547085909
0.128715074101094
0.685069037097505
0.682248727836761
0.723008109726589
0.176510488598823
0.193216288392463
0.111391816839314
0.0772977915793512
0.662831153457921
0.0971882337393959
0.467164789413654
0.514719008592042
0.84910040606478
0.670479635195214
0.632751762995587
0.238153710216807
0.741657230340774
0.495485056830671
0.254485361874783
0.149222108698324
0.519855270796405
0.3848765485739
0.254501858090494
0.516736700289163
0.209237993677228
0.805397124648608
0.612267179776029
0.570830388637013
0.32255779620927
0.161335704833858
0.735378471833382
0.652445915653096
0.397933013609306
0.421518202921016
0.360197125133055
0.762107738747779
0.520599916746195
0.20286499967285
0.21759182283629
0.105698642815063
0.0189726741961666
0.438021572660967
0.432421357134367
0.790748432031793
0.261192281924454
0.369949174256137
0.425352005153068
0.732210300403858
0.51262241142322
0.0786574099701916
0.388769779740391
0.659705082697715
0.601550817299514
0.427873085353691
0.179549451013011
0.643469813039403
0.212591998646359
0.780615503160348
0.415081442748956
0.175508866796935
0.0589459651759476
0.365432913686186
0.214265464037958
0.760425206436085
