0.529469424074097
0.243754927049561
0.882946381408819
0.251310329046457
0.82334145112276
0.327487926368393
0.475334742831203
0.363050372565481
0.865785320870332
0.777787699899446
0.743591057763031
0.577193858559047
0.358505076750885
0.176398001629384
0.195258637306234
0.50573335879497
0.861611162823462
0.331745318765583
0.585350962787575
0.529203401054272
0.703643862022324
0.852696446499762
0.486031786540479
0.339763935138326
0.268254284333215
0.426842321116918
0.2698603148944
0.700570198173064
0.519320800316882
0.40486623453275
0.321370090759219
0.742464934895775
0.599655369767102
0.197065751781413
0.411149566406421
0.918996133315056
0.675807318345896
0.905080322212867
0.108009740237665
0.25888881133336
0.894571447808977
0.926516855707636
0.232304501281982
0.130835813938686
0.0827116918899302
0.574961283398478
0.0839273463100444
0.102914667679028
0.465914887846809
0.297185083786588
0.60915447274611
0.886486426117919
0.627336366329566
0.406810300472475
0.273448129150542
0.302239807778379
0.307341713686895
0.568017237549502
0.167667351533287
0.711377748189364
0.524108098353107
0.248809244976347
0.802000174305945
0.0485505752450752
0.463276714785227
0.377093526652161
0.256613520788301
0.186111606202139
0.720662173312251
0.842650251000578
0.737707619119764
0.852057608762725
0.185356993583294
0.565002177486421
0.635506299318232
0.242415110870201
0.676517400044212
0.514384387240015
0.651993128908588
0.176613129476268
0.750958726481536
0.706049631073639
0.808633473070462
0.206256105849891
0.35272932353006
0.152147288130447
0.166519942867201
0.787713628467646
0.267833927134117
0.491128091386752
0.58850195822916
0.881586786861117
0.719968839285269
0.652696257528192
0.305149775801643
0.827691468400667
0.658857256074821
0.488127499020359
0.225956452038546
0.68504439430917
0.538284268520913
0.312364634828535
0.691562252192047
0.370421362674215
0.85133831944644
0.725183216635322
0.627393248555398
0.471954275483941
0.356576204074427
0.7826647846602
0.758120360045855
0.415177781108232
0.614058438866849
0.398795266173385
0.834849149899291
0.679720286621217
0.376500968185618
0.351578997797217
0.120527317392085
0.0734130128368453
0.46227008848858
0.609273303639986
0.849955012558104
0.262907840073099
0.529050491442954
0.581643678472424
0.761393100348967
0.606960797526353
0.227877147541813
0.478787878395923
0.694804163785126
0.733551061187258
0.450034002817999
0.194800526830227
0.685254198798813
0.371374445181401
0.783732918786296
0.509754571624823
0.245331479322237
0.120786535740826
0.377359370092659
0.429962214789769
0.789558726351974
