ResidualVar LogAbundance (Intercept) LogDegree LogCloseness LogEigenvector TrophicLevel
-0.332272557392859 0.775212402151586 -2.69325785701586 1.13956947175502 -0.183136075387849 0.226494288093333 0.406473799930935
-0.291806778417184 0.77631166507689 -2.69325785701586 1.13956947175502 -0.183136075387849 0.226494288093333 0.406473799930935
-0.524050622947233 0.664465348555115 -2.69325785701586 1.13956947175502 -0.183136075387849 0.226494288093333 0.406473799930935
-0.234230858734073 0.63615535985636 -2.69325785701586 1.13956947175502 -0.183136075387849 0.226494288093333 0.406473799930935
-0.501486704449852 0.804613822858829 -2.69325785701586 1.13956947175502 -0.183136075387849 0.226494288093333 0.406473799930935
-0.084641073465246 0.808521767536232 -2.69325785701586 1.13956947175502 -0.183136075387849 0.226494288093333 0.406473799930935
-0.0677891357052228 0.780988308499695 -2.69325785701586 1.13956947175502 -0.183136075387849 0.226494288093333 0.406473799930935
-0.34526018948379 0.83966949991373 -2.69325785701586 1.13956947175502 -0.183136075387849 0.226494288093333 0.406473799930935
-0.192243896478066 0.677588985531763 -2.69325785701586 1.13956947175502 -0.183136075387849 0.226494288093333 0.406473799930935
-0.400735674092678 0.724610090200402 -2.69325785701586 1.13956947175502 -0.183136075387849 0.226494288093333 0.406473799930935
-0.00761010746033487 0.654856443036363 -2.69325785701586 1.13956947175502 -0.183136075387849 0.226494288093333 0.406473799930935
-0.183013274828304 0.67404568014039 -2.69325785701586 1.13956947175502 -0.183136075387849 0.226494288093333 0.406473799930935
-0.203072964007092 0.604520547333229 -2.69325785701586 1.13956947175502 -0.183136075387849 0.226494288093333 0.406473799930935
-0.255882133234194 0.595538011679322 -2.69325785701586 1.13956947175502 -0.183136075387849 0.226494288093333 0.406473799930935
-0.272345016914918 0.85388053589145 -2.69325785701586 1.13956947175502 -0.183136075387849 0.226494288093333 0.406473799930935
-0.0132358283215591 0.70867069810269 -2.69325785701586 1.13956947175502 -0.183136075387849 0.226494288093333 0.406473799930935
-0.259307780191857 0.828367067812675 -2.69325785701586 1.13956947175502 -0.183136075387849 0.226494288093333 0.406473799930935
-0.31715743920885 0.642952852155865 -2.69325785701586 1.13956947175502 -0.183136075387849 0.226494288093333 0.406473799930935
-0.261631723141021 0.777275174115937 -2.69325785701586 1.13956947175502 -0.183136075387849 0.226494288093333 0.406473799930935
-0.374110196292112 0.678976849954697 -2.69325785701586 1.13956947175502 -0.183136075387849 0.226494288093333 0.406473799930935
-0.225086773906611 -0.37420453395374 -2.69325785701586 1.13956947175502 -0.183136075387849 0.226494288093333 0.406473799930935
-0.144480442959722 0.741341713199604 -2.69325785701586 1.13956947175502 -0.183136075387849 0.226494288093333 0.406473799930935
-0.420119185748437 0.622197503675447 -2.69325785701586 1.13956947175502 -0.183136075387849 0.226494288093333 0.406473799930935
-0.284402946906042 0.483829646012598 -2.69325785701586 1.13956947175502 -0.183136075387849 0.226494288093333 0.406473799930935
-0.283267154091922 0.688866633753868 -2.69325785701586 1.13956947175502 -0.183136075387849 0.226494288093333 0.406473799930935
-0.0328160915039724 0.878173342206008 -2.69325785701586 1.13956947175502 -0.183136075387849 0.226494288093333 0.406473799930935
-0.0657728304465142 0.558594540156919 -2.69325785701586 1.13956947175502 -0.183136075387849 0.226494288093333 0.406473799930935
-0.392258246293249 0.746073278806787 -2.69325785701586 1.13956947175502 -0.183136075387849 0.226494288093333 0.406473799930935
-0.400206808713953 0.745784720713834 -2.69325785701586 1.13956947175502 -0.183136075387849 0.226494288093333 0.406473799930935
-0.259140593669963 0.645275824525745 -2.69325785701586 1.13956947175502 -0.183136075387849 0.226494288093333 0.406473799930935
