ResidualVar LogAbundance (Intercept) LogDegree LogCloseness LogEigenvector TrophicLevel
-0.0946991249019666 0.794058647549972 -2.61957433564045 1.06623997874912 -0.314742325965985 0.0794609569994675 0.158602857824247
-0.00375619856977939 1.01949618640434 -2.61957433564045 1.06623997874912 -0.314742325965985 0.0794609569994675 0.158602857824247
-0.00115596859733377 0.979936609936837 -2.61957433564045 1.06623997874912 -0.314742325965985 0.0794609569994675 0.158602857824247
-0.0290906020774485 0.865413719876054 -2.61957433564045 1.06623997874912 -0.314742325965985 0.0794609569994675 0.158602857824247
0.106138955418456 0.872553627964879 -2.61957433564045 1.06623997874912 -0.314742325965985 0.0794609569994675 0.158602857824247
-0.107998491104441 0.915662924533513 -2.61957433564045 1.06623997874912 -0.314742325965985 0.0794609569994675 0.158602857824247
0.110107723217399 0.946887666576651 -2.61957433564045 1.06623997874912 -0.314742325965985 0.0794609569994675 0.158602857824247
-0.0206989795393869 0.793378530700197 -2.61957433564045 1.06623997874912 -0.314742325965985 0.0794609569994675 0.158602857824247
-0.0291751255646437 0.914271152025747 -2.61957433564045 1.06623997874912 -0.314742325965985 0.0794609569994675 0.158602857824247
-0.103043170880027 0.861171483925767 -2.61957433564045 1.06623997874912 -0.314742325965985 0.0794609569994675 0.158602857824247
-0.0143182427852084 0.913917480333658 -2.61957433564045 1.06623997874912 -0.314742325965985 0.0794609569994675 0.158602857824247
-0.000964769181907794 0.894057410841992 -2.61957433564045 1.06623997874912 -0.314742325965985 0.0794609569994675 0.158602857824247
-0.042629949849224 0.77308427155636 -2.61957433564045 1.06623997874912 -0.314742325965985 0.0794609569994675 0.158602857824247
0.0366205239288056 1.07853621425467 -2.61957433564045 1.06623997874912 -0.314742325965985 0.0794609569994675 0.158602857824247
-0.0438462913057241 0.784317769584543 -2.61957433564045 1.06623997874912 -0.314742325965985 0.0794609569994675 0.158602857824247
0.0320430952552605 0.673432704422907 -2.61957433564045 1.06623997874912 -0.314742325965985 0.0794609569994675 0.158602857824247
-0.0303946675683676 0.935196959181346 -2.61957433564045 1.06623997874912 -0.314742325965985 0.0794609569994675 0.158602857824247
-0.044476147183041 0.865743559728284 -2.61957433564045 1.06623997874912 -0.314742325965985 0.0794609569994675 0.158602857824247
-0.0630144329658653 1.01959562473423 -2.61957433564045 1.06623997874912 -0.314742325965985 0.0794609569994675 0.158602857824247
-0.0539783348502126 0.997368791476928 -2.61957433564045 1.06623997874912 -0.314742325965985 0.0794609569994675 0.158602857824247
-0.0417468010323907 0.861144709288987 -2.61957433564045 1.06623997874912 -0.314742325965985 0.0794609569994675 0.158602857824247
0.126166496395246 0.789096734196301 -2.61957433564045 1.06623997874912 -0.314742325965985 0.0794609569994675 0.158602857824247
-0.0391583664689959 0.801822704856623 -2.61957433564045 1.06623997874912 -0.314742325965985 0.0794609569994675 0.158602857824247
-0.00419264570111758 0.772251382632133 -2.61957433564045 1.06623997874912 -0.314742325965985 0.0794609569994675 0.158602857824247
0.0368744815966639 0.882847410091751 -2.61957433564045 1.06623997874912 -0.314742325965985 0.0794609569994675 0.158602857824247
-0.0546317683089515 0.955598631385625 -2.61957433564045 1.06623997874912 -0.314742325965985 0.0794609569994675 0.158602857824247
-0.0545610990555971 0.826288643736878 -2.61957433564045 1.06623997874912 -0.314742325965985 0.0794609569994675 0.158602857824247
-0.100836843587805 0.744365781228125 -2.61957433564045 1.06623997874912 -0.314742325965985 0.0794609569994675 0.158602857824247
-0.0116623282023886 0.964570264933924 -2.61957433564045 1.06623997874912 -0.314742325965985 0.0794609569994675 0.158602857824247
-0.0730288754918644 0.844541687053968 -2.61957433564045 1.06623997874912 -0.314742325965985 0.0794609569994675 0.158602857824247
