0.433340764755931
0.258146860031218
0.672545202522079
0.685522994544696
0.724180478328096
0.447154278980771
0.36416816011778
0.155561662565321
0.279062403744741
0.554417428493629
0.43902495200429
0.470710947373958
0.473276599633209
0.134726344396696
0.69498447688581
0.0291644609861213
0.746847709133991
0.745314917281121
0.314809074472209
0.370403267599357
0.620843617861422
0.762431073973371
0.657466570375052
0.654452222137663
0.230826535950285
0.296789175247091
0.200958804194357
0.15606653098893
0.389061678996605
0.50185902221466
0.623852415705147
0.726081306575693
0.292894612554046
0.492914869364421
0.54838996768902
0.563270249666256
0.670642117823537
0.143414354729751
0.713818229470851
0.549159426877228
0.35441225644274
0.531344803163699
0.277250665137642
0.438894244451309
0.66355930005572
0.462534420749539
0.434174630530756
0.584177790141543
0.56836100054421
0.169630566902545
0.306524478943982
0.530894438398736
0.314908189760681
0.75729123321516
0.663816489200024
0.707514963995628
0.500734263154543
0.393896704532769
0.1946221590807
0.725484360010428
0.283177366146512
0.747644545507609
0.706914583963345
0.246603011885938
0.740280243826083
0.574630715798779
0.633409940966093
0.0620520447022782
0.544435404355857
0.557761435274551
0.255602228704259
0.525437175459442
0.459593153125613
0.31771014010872
0.298293322549446
0.18255703823657
0.111903046792484
0.216352144865444
0.514051865970375
0.507013443448026
0.389593654510504
0.0758662732401708
0.223484681836706
0.184637322956075
0.283853201836788
0.756278842452233
0.138888723956349
0.607543952093742
0.743891580971579
0.177019399310773
0.295579099788267
0.373667208500438
0.419975185444731
0.608608152491765
0.264903203929489
0.232693631123203
0.591111618849041
0.55448788013226
0.690680120306864
0.672210794324687
0.263296698976628
0.189372397394604
0.627657615044697
0.737796438302912
0.202668572699358
0.52353093386796
0.24633897549163
0.768825564829668
0.626500230671258
0.0523006835079715
0.430534091661428
0.587248805140429
0.119619353821311
0.375172795569295
0.367834383280678
0.276144057436497
0.198391936368177
0.553227825476742
0.69007458596534
0.565775297168759
0.570584116602145
0.629220197885753
0.530244250995185
0.357084584183149
0.645695542886175
0.449213634768614
0.661629504486911
0.765997076154179
0.552571851073464
0.749186871205408
0.355470321997049
0.478279739569751
0.114584087121508
0.580361383984021
0.214008054847579
0.445162933661019
0.25144510176424
0.594019294595646
0.684415413108935
0.640841873937964
0.215150789046188
0.0916225399314541
0.394132656862752
0.417978704219432
0.643527273869096
0.0769964853500522
0.418884019609402
0.373519352430939
0.19514106609415
0.687387590579448
0.471456077496918
0.382893359388931
0.669350773292692
0.769828278940249
0.367379789381733
0.298600355390313
0.562353661860054
0.451920106298026
0.231602354935057
0.643909687514066
0.482343764464373
0.261645923307032
0.253061079208824
0.384506954512766
0.177757719848177
0.4720685513963
0.523295336417424
0.306173510807746
0.357436453792708
0.0510511918730017
0.451782129228052
0.0444671283432526
0.612349908466055
0.280456480983377
0.682780438074118
0.320427994733863
0.778042114661063
0.521408449866252
0.433707262856904
0.250211045915326
