0.27509957025085
0.567533703050554
0.127535642462786
0.154963423389015
0.113793781159361
0.364508425759538
0.226119639099761
0.616421591714019
0.331417985157576
0.66462387767544
0.715062695334652
0.696334640120732
0.753421215448469
0.351590885917468
0.501886737906985
0.346760712337869
0.456104416545953
0.38233951480484
0.613146666534104
0.444611533973357
0.564837218248012
0.365400052710298
0.266100655216499
0.135122495119048
0.174597746609165
0.666690968046661
0.570206195933694
0.153279190617841
0.365270334469064
0.775471241249547
0.498953071593331
0.385216488140654
0.747364132777955
0.13000721347776
0.229065299072303
0.181694284978612
0.41232706850013
0.661186861473608
0.557480091833549
0.720009303208503
0.303841958253446
0.347171202437734
0.0969461145388944
0.273104951680091
0.234658513160387
0.220283403062246
0.608610686441015
0.204360085786783
0.485458313334673
0.351084313384126
0.753649215276044
0.116892879508959
0.770064499338798
0.267100788243257
0.66548917846435
0.459135032432291
0.299899908642374
0.187672055948246
0.739242122561684
0.388021316079568
0.740807775831367
0.661508590150635
0.504054057513565
0.271649519626966
0.239169500512033
0.415762935739052
0.762391372362697
0.738563878482621
0.431860040678343
0.713518328930525
0.430864276979122
0.405254500779486
0.723384819755372
0.462845855970013
0.762700852442979
0.217972364298159
0.307224036154235
0.426056119988474
0.632263771794684
0.497637582740203
0.358372079385147
0.147105339088713
0.492608795150223
0.516490125753611
0.471487970582938
0.731832190943658
0.150993150144467
0.599018751598162
0.54481898651706
0.542643442147841
0.204284113436293
0.495688808694752
0.228815168627132
0.450608017935917
0.717887717642462
0.179188364624079
0.291339080193494
0.406260130407501
0.388707481165792
0.697737753404918
0.445756996068699
0.272553860028157
0.0945319328906823
0.461052648194895
0.501979068687296
0.281339152766637
0.533664218118389
0.555293375415986
0.488472158472225
0.345180532621532
0.228955357890695
0.130756758921476
0.418415041020995
0.171805888845721
0.44384106091086
0.338645207476722
0.28022315469392
0.789186798953031
0.444458873834839
0.507685306046231
0.397882930772842
0.530406851862924
0.377821353537235
0.292582156281848
0.173734163116094
0.244884656384974
0.313545769832501
0.404635827634463
0.383795059783602
0.657522920747911
0.189874130003922
0.659334814778768
0.569489728828739
0.181676048723456
0.254792455501197
0.495897362281822
0.238212845190229
0.759582362107334
0.549330602619923
0.183624525534654
0.617207794450203
0.211774942272269
0.598680527748227
0.738301676424822
0.530337457047558
0.319939253803293
0.135579216208075
0.260772902357005
0.40459076249435
0.383193365909665
0.334327817634362
0.554432265077828
0.344669073298314
0.585544556066996
0.434933334084272
0.130492245182302
0.489258239528975
0.657970293903456
0.11867775650352
0.483282614828066
0.256853093218649
0.616884460299227
0.636432924563244
0.568222914251369
0.168947878102183
0.544581477296107
0.516199295084572
0.528022147969075
0.29792687921052
0.66547032893309
0.524412041414979
0.368527439944576
0.176036614265601
0.576002903708269
0.187601797618271
0.539191824987699
0.244404933736701
0.718847100233446
0.791741330207912
0.733281376742692
