0.221470785601765
0.227596542648591
0.0130181318224115
0.2428800067395
0.0649625940524999
0.121273834150337
0.201968291538615
0.106249407447415
0.447067074942568
0.281314498271147
0.265358033275241
0.16003839404697
0.184139434808525
0.448894103822509
0.0722061598196987
0.365907468875213
0.130827463472406
0.0502439753362093
0.401075587163222
0.355164690318323
0.440531158227284
0.0454973158431807
0.313377138038098
0.218992097552177
0.249961168017567
0.157376627251329
0.101761272333353
0.29976308429407
0.34444949062385
0.242314556260614
0.262429908524935
0.352005362408464
0.158527275036986
0.429320096259856
0.194151156852762
0.166586207888266
0.350671702496254
0.266255717131682
0.285945810952059
0.324587972820361
0.17295382773646
0.182196863978736
0.203987824384619
0.165733651276138
0.230741443432062
0.298545633184458
0.282433547706021
0.393278859705194
0.426940999509462
0.14902910803185
0.147945131555404
0.0714423656754437
0.234481703547056
0.330557746384299
0.146931421805635
0.186015276097474
0.164931893907723
0.0709381175512498
0.355764076405642
0.239332712764594
0.30715103322588
0.037132094124077
0.411017787692685
0.187880800200423
0.290674358665617
0.0873492094280559
0.439639041298781
0.335768498038602
0.436269112256336
0.413642214830903
0.263804595875065
0.155434656961599
0.270499553950451
0.15277021089184
0.337240319382332
0.365788813703136
0.166277974051692
0.0700894703198381
0.14029907676283
0.0431713338640494
0.0668201240621099
0.250198142845043
0.351292585714954
0.414525302818388
0.285155647415171
0.303210352876759
0.0718658656868841
0.245423378786318
0.164848593132567
0.0954402406460194
0.278937047420431
0.0354286085205941
0.213325565162944
0.178797972587023
0.453445891013434
0.356090934186514
0.419800930452687
0.316448102023679
0.150582982781532
0.257453541628602
0.193167448167967
0.0763533135761868
0.163357711568911
0.339134455839001
0.350438376458739
0.0507193553580071
0.0591281006335204
0.313507629380705
0.256397595466301
0.419340436793165
0.103260152410075
0.122289344554435
0.227521279027453
0.0835916544581534
0.0520983108510607
0.309830018634135
0.409974996868366
0.227274572817569
0.111248126337796
0.38398340180891
0.19426641424974
0.0279729254970813
0.233576346080878
0.0991138365024667
0.379599586553105
0.251441331460734
0.42663783558095
0.174353434458269
0.430635110561512
0.307589331134649
0.115994668063232
0.27954335416073
0.229849925452022
0.285584187554674
0.399574571861546
0.424007505090708
0.0536040210380318
0.102138069456801
0.27556441435581
0.342311700436043
0.331803881922645
0.176430891817498
0.0865823746185473
0.0117447345137526
0.0656160683879687
0.330236154492649
0.309498245540457
0.312411184388129
0.449870437560304
0.121559794773027
0.222786692552408
0.0728901462300593
0.090484603886648
0.29009394053214
0.271694432131843
0.173408727225238
0.109458827190795
0.111620038388622
0.326070280832199
0.180069034842255
0.208629838904001
0.29343003179258
0.157152092061849
0.357801683221825
0.0371369265195139
0.172801528563904
0.333714542570596
0.0759971873217752
0.396808218406095
0.17983086383381
0.289774163096065
0.264428533297523
0.348616900804392
0.353564144135828
0.149182539241633
0.283577949905981
0.120235961821902
0.149845974209042
0.137607278135522
0.268786879210105
