3.00207744386771
0.0385485965710234
0.587991237731515
1.83558723875008
0.288439207376466
0.254226697358634
2.2396311242043
0.552229376513506
0.418580505723227
0.242084654052666
0.066982744928078
0.994691648273042
0.278795379503388
2.25548751207156
1.01076279919943
0.395959560658392
0.192670763981397
0.0950458382240587
0.0919313313293636
0.0475191713142436
0.107998684084814
1.10996557944338
0.829611847334689
0.246863747920619
0.199093653337441
0.0829858579033697
1.64064550455849
0.418681005103823
0.518873658114061
1.63841948016008
0.603449555901331
0.165018407229796
4.67599962917933
2.80984138463785
0.550660305588316
0.680587239702056
0.404987339432484
1.08317015246751
0.213923942019627
1.26745011886743
3.74761052939484
0.30170761963336
1.11250293762909
1.73996269493262
0.204859651573451
0.222092997243506
0.0473451137757022
2.65170408869613
0.156686528138765
0.126091112888057
