0.19652289370222
0.943493465420976
1.04545333447638
2.15007813028934
1.20834077946037
4.50746013260867
3.95749108655
0.608672254353326
0.922620355677823
0.593609255024418
1.83220623513482
0.888693827374391
0.877251437303133
1.83820617435426
1.03650298194742
0.460287971738825
0.624872148056376
2.15277004679523
3.72880267977051
1.11441536658255
0.210452552707945
2.02868993020039
0.406331877234029
1.27598083237944
0.599537107094391
2.6677623718223
0.378168146026206
0.117893204769614
0.71634615530383
0.16273138266419
1.80672130594403
1.05782073540421
2.53627134164826
0.688705546581245
1.88094681368454
1.75096338444674
1.24072856720585
0.466242551576854
0.36336202053601
0.991620250073388
1.98133120999867
1.88860058898338
1.2258785417577
1.1056909431338
0.888249955035023
0.375412924562567
1.96429584427744
0.568821654057426
2.40733785993325
0.847459753872239
