0.364629717969898
0.244068273730599
0.299690989540068
0.268391203740404
0.277881049953852
0.249950980801869
1.89867954880712
0.347308988403202
0.178010634652247
0.346347513486817
0.243970444981733
4.38187443370809
1.51111261474509
0.427862797604588
0.195553638811832
0.0111013346983838
0.096121254951367
0.247226464967167
0.0481072763797396
0.619290298590672
0.185079329457343
1.84605045421841
0.256061865940754
0.425989471294886
0.305406407490199
0.0997755879021291
0.440715146297704
3.77922487106278
2.07524875669001
0.144963623487253
0.686742827689376
0.228513764368771
1.93212586198847
0.080650156835896
0.48920480096644
3.85503751344247
0.821017323039375
0.34055448344151
0.0751734160246967
0.163225158764771
0.363292612867755
0.299740841513794
0.373937328662703
1.74237146092755
1.07015507411838
0.0590018581172734
0.987990891945784
1.32670620971602
0.336721841949883
3.30073128248765
