4.88541616143971
0.670460019159213
0.956242163865714
0.203392135134924
0.119169108192073
2.29521876713912
0.434367107915754
1.80913718691406
0.256515316123139
0.720253798443206
4.02573193984952
0.464996006256537
3.4145654731396
0.37099957970255
2.33625949735975
0.431638735714868
1.19631274391139
0.837621920622154
0.90489958744318
0.994252389346831
0.39537825543566
1.30000733801546
0.818572142310092
5.93345907516795
0.717434715714538
0.369340131575885
3.8784039840488
0.249572989535146
5.61074061852716
0.803827378937131
0.186034833765824
0.88514100004689
2.22896579250137
0.312179876175511
0.293689434562967
0.251852845522615
2.04219346119923
0.17004407388324
0.517379833671829
0.35507562133356
0.409585919540114
1.20845485517889
0.294577546270428
0.552455032495423
1.22748108055606
0.671866018279512
1.89089217064722
0.619791124228025
3.75173098872408
1.83557309743198
