0.0680627938046534
2.10835310112284
0.810418477967832
0.822670809432381
0.395904822749309
1.6931504838928
0.514391547605753
1.16259208573011
0.323501430852458
0.277966052585001
1.27982327366769
1.90776837283476
0.77157545587455
0.234422822301991
2.66914037089239
0.913838738672283
1.49511300945678
0.357461406932074
0.796441055883324
1.67379475980641
1.94369750678914
0.947574651671874
1.15214751950363
0.428728352092585
0.268219185509769
0.764074409865703
0.568887274467095
1.64244691590493
0.196103135137812
0.373728788335613
0.728623574440254
0.0786284412173011
0.461196753170315
2.95196056639822
1.38108829417064
0.736865931294799
1.34395774605899
0.532921633241306
1.43761738726844
1.34922268922533
0.744338095733469
2.02590473481041
0.516959123873153
1.13868729385676
1.23017407245422
0.527994699119283
0.382451327907424
1.18486423773076
0.603754965231353
1.82600744266084
