0.384225677246183
1.13712443893569
0.113581315531737
0.851947396093686
0.212637596482374
0.751891430818184
0.244408499460401
0.327427885457771
0.997866970142264
1.70605767056808
0.275239116770965
0.973376679355242
0.704893910965878
0.905793902034535
0.0111475291523452
0.749572785529431
0.00949908220046315
4.66432929491797
0.368976707646597
0.197458457124235
3.63447508956642
0.0654610500975129
0.154184434068625
0.528249356359686
0.268697025786469
2.25124139536987
4.87066856373986
0.63879890749523
3.84188908720022
0.177831583855432
1.22676075123705
0.574056901055843
1.60282105299424
0.0129879276714149
0.108566326050992
0.114837473800966
0.563704697591475
0.266823712633895
0.332782191256996
0.575578070010911
0.135504441306587
0.734947334207807
1.14768301541276
0.245037607690238
2.65046823245081
1.73383551234647
0.309117165278556
0.0878706197668579
0.102697909605293
1.00202450860548
