0 0 -1.85210333177136 0 0 0 0 0 0 0 0 0 0 0 0 0 0 0 0 0 0 0 0 0 0 0 0 0 0 0 0 0 0 0 0 0 0 0 0 0 0 0 0 0 0 0 0 0 0 0
0 0 -0.428832936211096 0 0 0 0 0 0 0 0 0 0 0 0 -0.261076370983026 0 0 0 0 0 0 0 0 0 0 0 -0.358824813997323 0 0 0 0 0 0 0 0 0 0 0 0 0 0 0 0 0 0 0 0 0 0
0.38982380379924 0.0843017493591956 0 -1.90340848183994 0 0 0 -0.278428681545564 0 0 0 0 0 0 0 0 0 0 0 0 0 0 0 0 0 0 0 -0.20727217520025 0 0 0 0 0 0 0 0 0 0 0 0 0 0 0 0 0 0 -1.12783883133967 0 0 0
0 0 0.374754122918305 0 0 0 0 0 0 0 -1.06754375034664 0 0 0 0 0 0 0 0 0 0 0 0 0 0 0 0 -0.759293214835849 0 0 0 0 0 0 0 0 0 0 0 0 0 0 -1.87756680264953 0 0 0 0 0 0 0
0 0 0 0 0 0 0 0 0 0 -4.27899824375712 0 0 0 0 -2.64377669974565 0 0 0 0 0 0 0 0 0 0 0 -1.4227972516161 0 0 0 0 0 -3.68857876271834 0 0 0 0 0 0 0 0 -1.17514627387103 0 0 0 0 0 0 0
0 0 0 0 0 0 0 0 0 0 0 0 0 0 0 -0.785068291415115 0 0 0 0 0 0 0 0 0 0 0 -3.67244717829183 0 0 0 0 0 0 0 0 0 0 0 -0.428076279383996 0 0 0 0 0 0 -1.55749239288523 0 0 0
0 0 0 0 0 0 0 0 0 0 0 0 0 0 0 -0.996992827621938 0 -0.442527458405306 0 0 0 0 0 0 0 0 0 -0.585828087019214 0 0 0 0 0 -4.20967324476115 0 0 0 0 0 -1.85723522093522 0 0 -1.27989388170062 0 0 0 -0.532501829214854 0 0 0
0 0 0.0532035877711998 0 0 0 0 0 0 0 0 -2.52660872774891 0 0 0 0 0 0 0 0 0 0 0 0 0 0 0 -2.60403243474564 0 0 0 0 0 -0.344263581133288 0 0 0 0 0 0 0 0 0 0 0 0 0 0 0 0
0 0 0 0 0 0 0 0 0 0 0 0 -1.30471061759696 0 0 0 0 0 -3.27810863546282 0 0 0 0 0 0 0 0 0 0 0 0 0 0 0 0 0 0 0 0 0 -0.12822384167803 0 -3.16227117642678 0 0 0 0 0 0 0
0 0 0 0 0 0 0 0 0 0 0 0 0 0 0 0 0 0 0 0 0 0 0 0 0 0 0 0 -0.165518758508405 -0.261046020009818 0 0 0 0 0 0 -1.30982725272048 0 0 0 0 0 -0.246643813599983 -0.933731700478228 0 0 0 0 0 0
0 0 0 0.201827459940292 0.921035283175839 0 0 0 0 0 0 0 0 0 0 0 0 0 0 0 0 0 0 0 0 0 0 0 0 0 0 0 0 0 -0.934658906181047 0 0 0 0 0 0 0 0 0 0 0 0 0 0 0
0 0 0 0 0 0 0 0.500765057610226 0 0 0 0 0 0 -0.990546428891759 0 0 0 0 -0.801870180942504 0 -2.77251965614914 0 0 0 -5.32199382445424 0 -0.595717310712699 0 0 0 0 0 0 -0.104575798962808 0 -6.82149729254763 0 0 0 0 0 -0.559736614054269 -2.16223011054756 0 0 0 0 0 0
0 0 0 0 0 0 0 0 0.254752143710723 0 0 0 0 0 0 0 -2.92861216928251 0 0 0 0 0 0 0 0 0 0 0 0 0 0 0 0 0 0 0 0 0 0 0 0 0 -4.83321800701171 0 0 0 0 0 0 0
0 0 0 0 0 0 0 0 0 0 0 0 0 0 0 0 0 0 0 -0.38699927788579 0 0 0 0 0 0 0 0 0 0 0 0 0 0 0 0 -0.38038520161034 0 0 0 0 0 -1.08527039092158 -0.725209901190609 0 0 0 -0.9074804931317 0 0
0 0 0 0 0 0 0 0 0 0 0 0.187025267412571 0 0 0 0 -2.23566624824301 0 0 0 -1.42988858742726 0 0 0 0 0 0 0 0 0 0 0 0 0 0 0 0 0 0 0 0 0 0 -3.3480010332163 0 0 0 0 0 0
0 0.0553161763557343 0 0 0.519585042459101 0.154096147691478 0.200181915599543 0 0 0 0 0 0 0 0 0 -1.60042871987574 0 0 0 -1.11557211517757 0 0 0 0 0 0 0 0 0 0 0 0 0 0 0 0 0 0 0 0 0 -1.82493901436585 0 0 0 0 -0.964862713093514 0 0
0 0 0 0 0 0 0 0 0 0 0 0 0.512621888879143 0 0.443507660575373 0.32676002445597 0 0.112617758697616 0 0 -0.119418245183018 0.0494177271165306 -0.333511628309947 0 0 0 0 0 0 0 -0.376505816337376 0 0 0 0 -0.730425110101712 0 0 0 0 0 0 0 -1.22861272977573 0 0 0 -0.501018509364546 0 0
0 0 0 0 0 0 0.0866737294325693 0 0 0 0 0 0 0 0 0 -0.534411413311225 0 0 0 -1.35728314096211 0 -3.49817370506614 0 -0.657953840080098 0 0 0 0 0 0 0 0 0 0 -0.339469650969465 0 0 0 0 0 0 -0.992738842476109 -0.163080812150712 0 0 0 -0.436682609083539 0 0
0 0 0 0 0 0 0 0 0.717072091897904 0 0 0 0 0 0 0 0 0 0 0 -1.64972292063201 0 -1.0409432951801 0 0 0 0 0 0 0 -1.04597956465303 0 0 0 0 -2.09437783822467 0 0 0 0 0 0 -0.883573887686204 0 0 0 0 -0.669289622280505 0 0
0 0 0 0 0 0 0 0 0 0 0 0.16247800599992 0 0.0726272360105654 0 0 0 0 0 0 0 0 0 0 0 0 0 0 0 0 0 0 0 0 0 -2.13524235216375 0 0 -0.767150930717275 0 0 0 -0.372499875315139 0 0 0 0 -1.23559999032813 0 0
0 0 0 0 0 0 0 0 0 0 0 0 0 0 0.274622425962853 0.222029524719499 0.0223028421328899 0.272483520851537 0.323596010262077 0 0 0 0 0 0 0 0 0 0 0 0 0 0 0 0 0 0 0 0 0 0 0 0 0 -0.516953663921925 0 0 -1.20617561023068 0 0
0 0 0 0 0 0 0 0 0 0 0 0.595038138392384 0 0 0 0 -0.249123202016753 0 0 0 0 0 0 0 0 0 0 0 0 0 0 0 0 0 0 -2.39189981722738 0 0 -3.13365388186253 0 0 0 0 0 -3.02279300414548 0 0 -2.06693180702455 0 0
0 0 0 0 0 0 0 0 0 0 0 0 0 0 0 0 0.0573770054899755 0.635470674362176 0.204592635915012 0 0 0 0 0 0 0 0 0 0 0 0 0 0 0 0 -1.72394152311781 0 0 0 0 0 0 0 0 0 0 0 -1.91820276435379 0 0
0 0 0 0 0 0 0 0 0 0 0 0 0 0 0 0 0 0 0 0 0 0 0 0 0 0 0 0 0 0 0 0 0 0 0 -0.645277501597661 0 0 0 0 0 0 0 0 -1.02374670010777 0 0 -0.887111448855202 0 0
0 0 0 0 0 0 0 0 0 0 0 0 0 0 0 0 0 0.144213581279987 0 0 0 0 0 0 0 0 0 0 0 0 0 0 0 0 0 -0.379698277685613 0 0 0 0 0 0 0 0 -0.548744789503926 0 0 -0.251438200233553 0 0
0 0 0 0 0 0 0 0 0 0 0 1.0825077798828 0 0 0 0 0 0 0 0 0 0 0 0 0 0 0 0 0 0 0 0 0 0 0 -0.767459813564169 0 -1.62189385423816 -1.8630262872607 0 0 -0.76710847965316 0 0 -1.36731042132177 0 0 0 0 0
0 0 0 0 0 0 0 0 0 0 0 0 0 0 0 0 0 0 0 0 0 0 0 0 0 0 0 0 0 0 0 0 0 0 0 0 0 0 0 0 0 0 0 0 -3.21259250827281 0 0 0 0 0
0 0.0740753047624507 0.0424796478584324 0.153129314003527 0.275077497214131 0.707184610718361 0.118173931224179 0.524828127123797 0 0 0 0.116670190104668 0 0 0 0 0 0 0 0 0 0 0 0 0 0 0 0 0 0 0 0 0 0 0 -1.44047584714699 0 0 -0.21451703181279 0 0 -1.13690728919552 0 0 -0.836900466194931 0 0 0 0 0
0 0 0 0 0 0 0 0 0 0.0322750539894827 0 0 0 0 0 0 0 0 0 0 0 0 0 0 0 0 0 0 0 0 0 0 0 0 0 0 0 0 -1.29655531381727 0 0 0 0 0 -2.56328268660679 0 0 0 0 0
0 0 0 0 0 0 0 0 0 0.0533998432850265 0 0 0 0 0 0 0 0 0 0 0 0 0 0 0 0 0 0 0 0 0 0 0 0 0 0 0 0 -1.04994805489071 0 0 0 0 0 -0.178824246947668 0 0 0 0 0
0 0 0 0 0 0 0 0 0 0 0 0 0 0 0 0 0.0717535786409592 0 0.221340191340894 0 0 0 0 0 0 0 0 0 0 0 0 0 0 0 0 0 0 0 -0.958916138402949 0 0 0 0 0 -1.39804999966254 0 0 0 0 0
0 0 0 0 0 0 0 0 0 0 0 0 0 0 0 0 0 0 0 0 0 0 0 0 0 0 0 0 0 0 0 0 0 0 0 0 0 0 0 0 0 0 0 0 -2.67590878704349 -0.648460088608506 0 0 0 -1.2326612817361
0 0 0 0 0 0 0 0 0 0 0 0 0 0 0 0 0 0 0 0 0 0 0 0 0 0 0 0 0 0 0 0 0 0 0 0 0 0 0 0 0 0 0 0 -0.429961817533574 -4.43012588353136 0 0 0 -0.161865138946102
0 0 0 0 0.76552773899071 0 0.826352001443744 0.0683871113310356 0 0 0 0 0 0 0 0 0 0 0 0 0 0 0 0 0 0 0 0 0 0 0 0 0 0 0 0 0 0 0 0 0 0 0 0 -0.554832110573259 -2.41018318680664 0 0 0 -0.55813594375451
0 0 0 0 0 0 0 0 0 0 0.184929332107684 0.0222532488364489 0 0 0 0 0 0 0 0 0 0 0 0 0 0 0 0 0 0 0 0 0 0 0 0 0 0 0 0 0 0 0 0 -3.08193524521705 -2.64636810537495 0 0 0 0
0 0 0 0 0 0 0 0 0 0 0 0 0 0 0 0 0.144593790108287 0.0669143315834503 0.386037958970089 0.389245612281371 0 0.506684257105979 0.339884799066931 0.118600655191381 0.0828260182482929 0.145470608859689 0 0.285799012885996 0 0 0 0 0 0 0 0 0 0 0 0 0 0 0 0 -5.06819430420457 -1.37371314681861 0 0 0 0
0 0 0 0 0 0 0 0 0 0.253993485797796 0 1.47277163265996 0 0.0764937198718823 0 0 0 0 0 0 0 0 0 0 0 0 0 0 0 0 0 0 0 0 0 0 0 0 0 0 0 0 0 0 -2.42373787501106 0 0 0 0 0
0 0 0 0 0 0 0 0 0 0 0 0 0 0 0 0 0 0 0 0 0 0 0 0 0 0.325731602497482 0 0 0 0 0 0 0 0 0 0 0 0 0 0 0 0 0 0 -0.307755167021992 0 0 0 0 0
0 0 0 0 0 0 0 0 0 0 0 0 0 0 0 0 0 0 0 0.147349851258793 0 0.684894679782237 0 0 0 0.369144386734033 0 0.039898979170224 0.238227285383498 0.212566726365751 0.211390804762466 0 0 0 0 0 0 0 0 0 0 0 0 0 -1.6880265268779 0 0 0 -2.95108205362268 0
0 0 0 0 0 0.0847490906188696 0.387247428169601 0 0 0 0 0 0 0 0 0 0 0 0 0 0 0 0 0 0 0 0 0 0 0 0 0 0 0 0 0 0 0 0 0 0 0 0 0 0 0 0 0 0 0
0 0 0 0 0 0 0 0 0.024174751892913 0 0 0 0 0 0 0 0 0 0 0 0 0 0 0 0 0 0 0 0 0 0 0 0 0 0 0 0 0 0 0 0 0 0 0 0 0 0 0 0 0
0 0 0 0 0 0 0 0 0 0 0 0 0 0 0 0 0 0 0 0 0 0 0 0 0 0.152290632265298 0 0.224839814536718 0 0 0 0 0 0 0 0 0 0 0 0 0 0 0 0 0 0 0 0 0 0
0 0 0 0.379715376758661 0.211983801961522 0 0.249492540509402 0 0.637348844613904 0.0484449718621372 0 0.105769227125819 0.965813325266331 0.207917884014825 0 0.341805684796115 0 0.203795563221388 0.172059701358816 0.0683789766133572 0 0 0 0 0 0 0 0 0 0 0 0 0 0 0 0 0 0 0 0 0 0 0 0 0 0 0 0 0 0
0 0 0 0 0 0 0 0 0 0.18005042444373 0 0.442711912652621 0 0.141117889929227 0.684981155265189 0 0.247495023900503 0.0311203829932831 0 0 0 0 0 0 0 0 0 0 0 0 0 0 0 0 0 0 0 0 0 0 0 0 0 0 0 0 0 0 0 0
0 0 0 0 0 0 0 0 0 0 0 0 0 0 0 0 0 0 0 0 0.102826666516657 0.579006223154236 0 0.20732273714473 0.110452119044548 0.282605535774293 0.650178312539471 0.151770172180818 0.529191627177766 0.0356575803327246 0.275177144850675 0.54968906116963 0.0873316881331445 0.10926977734299 0.598827359630872 1.06963253393098 0.480793004122345 0.0613083570467615 0.358052654524538 0 0 0 0 0 0 0 0 0 0 0
0 0 0 0 0 0 0 0 0 0 0 0 0 0 0 0 0 0 0 0 0 0 0 0 0 0 0 0 0 0 0 0.125875152160858 0.901709331509723 0.504721968363183 0.550964406105878 0.273338261534458 0 0 0 0 0 0 0 0 0 0 0 0 0 0
0 0 0.21674964991285 0 0 0.328874115271018 0.113863585681591 0 0 0 0 0 0 0 0 0 0 0 0 0 0 0 0 0 0 0 0 0 0 0 0 0 0 0 0 0 0 0 0 0 0 0 0 0 0 0 0 0 0 0
0 0 0 0 0 0 0 0 0 0 0 0 0 0.191233564881063 0 0.194135316229286 0.104097598932417 0.0935478193828777 0.139675256674579 0.263611950666266 0.23907278000208 0.405216520602967 0.397077127088865 0.156701829780226 0.0472970648802353 0 0 0 0 0 0 0 0 0 0 0 0 0 0 0 0 0 0 0 0 0 0 0 0 0
0 0 0 0 0 0 0 0 0 0 0 0 0 0 0 0 0 0 0 0 0 0 0 0 0 0 0 0 0 0 0 0 0 0 0 0 0 0 0.584379457995445 0 0 0 0 0 0 0 0 0 0 0
0 0 0 0 0 0 0 0 0 0 0 0 0 0 0 0 0 0 0 0 0 0 0 0 0 0 0 0 0 0 0 0.263287287468376 0.028670664514551 0.112136626970373 0 0 0 0 0 0 0 0 0 0 0 0 0 0 0 0
