0.11873085512516
2.41690762377561
0.150078723573285
0.626909697632438
0.172719422615746
1.01171439251569
0.967315175665984
0.749829809952097
1.44435393003556
0.160190109200624
0.0489037721333446
0.2172898856475
0.642731666204829
0.20695482460296
0.411642179876556
0.053483778357781
0.358542988757472
1.27014461569497
1.04987065416224
0.585041399816644
0.51482355625211
0.367988598057829
2.5403181871514
1.41709634339044
0.297231091227757
3.68537476377977
2.05087630953315
0.157778550711912
3.18729608525782
2.90461216884131
0.0336814120422718
1.42358926871952
0.964336524426824
0.226014874302669
0.902627948592971
1.44070793324532
0.170993692745625
0.120903596464795
0.289691571881162
0.363276974568223
0.0998209064347272
1.26677218744277
0.179981971191781
0.130387159685652
0.0529290292801956
0.523508027455947
0.885820574633908
0.430616177125044
0.466990150078759
0.350410569763161
