2.9878978889132
1.82432982100232
0.642250661464775
2.17270138198762
1.03497015417179
1.49798105058608
0.286921646901278
0.160882937265538
1.29115893170323
1.9874207223365
0.287183270045964
3.52647619926284
0.617005752281079
0.169742191265971
1.13528396316452
1.21704491858093
0.725768349350726
0.610359481049158
1.2561654084766
2.20078141149382
0.922259897375434
2.04710191027962
1.41985865620119
1.94140066099079
1.48720048343771
1.3674934787207
0.769577432679649
1.2159149810885
0.5820325906647
1.61433532102028
0.217124496993508
1.97287759410126
0.937374602049312
1.48913855799146
2.43476160606818
0.370750122333699
0.524981114664993
0.255978156097873
2.84023809491349
2.670276331035
0.647690567971944
0.645785182383225
1.54944164466211
2.41054563788158
0.882731899632062
1.68707118996249
1.53561503098858
2.43210277535454
2.65561939793185
0.789505920755047
