2.69941478584024
0.624172717972257
1.56205043809438
2.39576392537361
0.888992412741487
0.217926682422634
0.324059835492902
0.175212467622087
1.49281226746285
1.30633591221859
0.512879134542985
0.635132805855199
0.697733652754885
2.85247160666932
0.386616351527134
0.703736421546328
0.336950355306505
0.176689850729335
0.369929359323904
0.801450514101851
0.492101413400328
0.4629684567219
0.409710629042697
0.930748200137491
9.34569549124709
1.76250287723582
1.16313805865171
2.50198960334671
0.881919367249506
0.757886759436863
0.95319518699132
0.918447481156324
1.38160809732057
0.578534295296466
5.45515973785735
0.980472174136205
0.701937093916076
1.25317910116464
1.00191028679853
1.7697645052071
0.999823910139208
0.362235119589621
1.48589705062984
1.06579723161664
0.880337534771697
0.790676505418103
0.22891597059526
5.81257200089115
1.16392878577509
3.41899625744214
