1.38282827514472
1.98776639374075
0.808484963657264
2.30582753260031
2.74704772707802
0.772526932469458
0.796410458829569
0.64703928608891
0.792944645335376
2.3838091092143
0.467244446470817
2.73117716086287
0.347092531400168
1.16022055497562
1.02409508149435
0.727217700197611
0.390951986539881
0.97026357098993
0.953604040399505
1.20060064729919
1.30072093486756
2.05838615640483
1.36494635386032
1.17296980342973
3.20191809067135
0.478679370353515
1.09563147440778
0.721346940130621
2.3054498872629
1.57318695923252
0.439214252250288
0.178429114922017
0.261953605888152
2.03023357632623
2.9866127076181
0.723933903812321
0.569639859525341
0.155311303715443
2.48098783268075
0.279624362782897
0.384136400165586
0.625468266038424
0.692578008928824
1.2635915524583
0.89534060600307
2.3113107617093
2.55846269492326
0.890145580667382
0.323101097973948
0.33815046430547
