0 0 -3.36546850823521 0 0 0 0 0 0 0 0 0 0 0 0 0 0 0 0 0 0 0 0 -2.7707390726293 0 0 0 0 0 0 0 0 0 0 0 0 0 0 0 0 0 0 0 -1.1780560297169 0 0 0 0 0 0
0 0 0 0 0 0 0 0 0 0 0 0 0 0 0 0 0 0 -0.497783435728365 0 0 0 0 -0.228767973128251 0 0 0 0 0 0 0 0 0 0 0 0 0 0 0 0 0 0 0 0 0 0 0 0 0 0
0.695938162235263 0 0 0 0 0 0 0 -2.51382391421934 0 0 0 -1.06475727860616 0 0 0 0 -1.81589848901314 0 0 0 -3.3196250987276 0 -0.469908305068112 0 0 0 0 0 0 0 0 0 0 0 0 0 0 0 0 0 0 0 -5.70021658767333 0 0 0 0 0 0
0 0 0 0 0 0 0 0 -0.561297224755133 0 0 0 0 0 0 0 0 0 0 0 0 0 0 -1.25333773481925 0 0 0 0 0 0 0 0 0 0 0 0 0 0 0 0 0 0 0 -0.908051538486508 0 0 0 0 0 0
0 0 0 0 0 0 0 0 0 0 0 -12.0642124297806 0 0 0 -0.492500624077516 0 0 0 0 0 0 -0.385455905176339 0 0 0 0 0 0 0 0 0 -2.14643027042887 0 0 0 0 0 -0.758679952373888 0 0 0 0 0 0 0 0 0 0 0
0 0 0 0 0 0 0 0 0 0 0 0 -4.2590070694566 0 0 0 0 0 0 0 0 0 -1.22148244001227 0 0 0 0 0 0 0 0 0 0 0 0 -0.682875506074743 0 0 -0.290209067596474 0 0 0 0 0 0 0 0 0 0 0
0 0 0 0 0 0 0 0 0 0 -0.984126347511587 -2.90450863838788 0 0 0 0 0 0 0 0 0 0 -0.673804830730487 0 0 0 0 0 0 0 0 0 -1.28597854100662 0 0 -1.43880074580522 0 0 -0.500636067419517 0 0 0 -2.37357312748146 0 0 0 0 0 0 0
0 0 0 0 0 0 0 0 0 0 0 0 0 0 0 0 0 0 0 0 0 0 0 0 0 0 0 0 0 0 0 0 -0.501369873142399 0 0 -2.03993802937916 0 0 0 -1.37566980872374 0 0 -1.82777565667381 0 0 0 0 0 0 0
0 0 0.49379300989844 0.111088253879615 0 0 0 0 0 0 0 0 0 0 -4.47327630728407 0 0 0 0 0 -5.93594007341953 0 0 0 0 0 0 0 -0.786734875130144 0 0 0 -0.343854129478818 0 0 -1.19204638674711 0 -0.562515935357624 0 -1.37904217108001 0 0 0 0 0 0 0 0 0 0
0 0 0 0 0 0 0 0 0 0 0 0 0 0 -0.195990097733126 0 0 0 0 0 -0.525394575563771 0 0 0 0 0 0 0 -2.02150006563498 0 0 0 -0.413800093780845 0 0 0 0 -1.67403010215763 0 -1.27801533252102 0 0 0 0 0 0 0 0 0 0
0 0 0 0 0 0 0.207704284089113 0 0 0 0 0 0 0 0 0 0 0 0 0 0 0 0 0 0 0 0 0 0 0 -0.944123419693277 0 -1.13371524799219 0 0 0 0 -2.4027022028381 0 0 0 0 0 0 0 0 0 0 0 0
0 0 0 0 2.36629989378559 0 0.598983475899714 0 0 0 0 0 0 0 -0.587246779794683 0 0 0 0 0 0 0 0 0 0 0 0 0 0 0 0 0 -1.33424489859845 0 0 0 0 0 0 0 0 0 0 0 0 0 -0.103436198593512 0 0 0
0 0 0.224033439996486 0 0 0.89724916583535 0 0 0 0 0 0 0 0 0 0 0 0 0 0 0 0 0 0 0 0 0 0 0 0 0 0 0 0 0 0 0 -1.92838020776446 0 0 0 0 0 0 0 0 -0.127228351527587 0 0 0
0 0 0 0 0 0 0 0 0 0 0 0 0 0 -0.33711920524973 0 0 0 0 0 0 0 0 0 0 0 0 0 0 0 0 0 0 0 0 0 0 -0.691345990117316 0 0 0 0 0 0 0 0 0 0 0 0
0 0 0 0 0 0 0 0 0.915880682495121 0.0400638424738719 0 0.123460548936417 0 0.0651066486390496 0 0 0 0 0 0 0 0 0 0 0 0 -0.618812611651861 -0.393014965164361 0 0 0 0 0 0 0 0 0 -0.728624298916081 0 0 0 0 0 0 0 0 0 0 0 0
0 0 0 0 0.104146097419879 0 0 0 0 0 0 0 0 0 0 0 0 0 0 0 0 0 0 0 0 0 0 -0.947970531995057 0 0 -0.307493883611095 0 0 0 0 0 0 -0.556870223171744 0 0 0 0 0 0 0 0 0 0 0 0
0 0 0 0 0 0 0 0 0 0 0 0 0 0 0 0 0 0 0 0 0 0 0 0 0 0 0 -2.59218091574245 0 0 -1.30659742388186 0 0 0 0 0 0 0 0 0 0 0 0 0 0 0 0 0 0 0
0 0 0.382287788675499 0 0 0 0 0 0 0 0 0 0 0 0 0 0 0 0 0 0 0 0 0 0 0 0 -1.83196774846816 0 0 -0.39487544886855 0 0 0 0 0 0 0 0 0 0 0 0 0 0 0 0 0 0 0
0 0.0991869352982375 0 0 0 0 0 0 0 0 0 0 0 0 0 0 0 0 0 0 0 0 0 0 0 0 -3.01495094332977 0 0 0 -3.22248986698979 0 0 0 0 0 0 -0.3698431433032 0 0 0 0 0 0 0 0 0 0 0 0
0 0 0 0 0 0 0 0 0 0 0 0 0 0 0 0 0 0 0 0 0 0 0 0 -4.50715020704914 0 -0.289367655489694 -0.488805951064558 0 -0.893350409803316 -0.479837196714418 0 0 0 0 0 0 -0.343173895970534 0 0 0 0 0 0 0 0 0 0 0 0
0 0 0 0 0 0 0 0 1.20148170530149 0.1149197165828 0 0 0 0 0 0 0 0 0 0 0 0 0 0 -3.71630432372848 0 0 0 0 -0.823456949711017 0 0 0 0 0 0 0 0 0 0 -2.56059205615409 0 0 0 0 0 0 0 0 0
0 0 0.598162265320495 0 0 0 0 0 0 0 0 0 0 0 0 0 0 0 0 0 0 0 0 0 -1.37245535401579 0 0 -0.471376967538938 0 0 0 0 0 0 0 0 0 0 0 0 -1.98435833473459 0 0 0 0 0 0 0 0 0
0 0 0 0 0.0812695941814397 0.211837594868509 0.138822320960389 0 0 0 0 0 0 0 0 0 0 0 0 0 0 0 0 0 0 0 0 0 0 -1.27349506860187 0 0 0 0 0 0 0 0 0 0 -3.82211438284539 0 0 0 0 0 0 0 0 0
0.520258683757593 0.0409769761769003 0.100154091293491 0.249323441864482 0 0 0 0 0 0 0 0 0 0 0 0 0 0 0 0 0 0 0 0 0 0 0 -1.82955424925677 0 -1.28025435474035 0 0 0 0 0 0 0 0 0 0 0 0 0 0 0 0 0 0 0 0
0 0 0 0 0 0 0 0 0 0 0 0 0 0 0 0 0 0 0 0.838089928454642 0.741593038560241 0.274237403028128 0 0 0 0 0 0 0 -0.925758556925248 0 0 0 0 0 0 -0.708045347253526 0 0 0 0 0 0 0 0 0 0 0 0 0
0 0 0 0 0 0 0 0 0 0 0 0 0 0 0 0 0 0 0 0 0 0 0 0 0 0 0 0 0 -0.401276259765258 0 0 0 0 0 0 -2.46998501285187 0 0 0 0 0 0 0 0 0 0 0 0 0
0 0 0 0 0 0 0 0 0 0 0 0 0 0 0.132987973985349 0 0 0 0.550380898264696 0.0579304399300142 0 0 0 0 0 0 0 -1.60261798345394 0 0 0 0 0 0 0 0 -2.26130125951832 0 0 0 -0.457823917232505 0 0 0 0 0 0 0 0 0
0 0 0 0 0 0 0 0 0 0 0 0 0 0 0.0756598668375018 0.198431800018602 0.539262653383337 0.35401226140248 0 0.0936638031708744 0 0.0915991544886889 0 0.371155351525166 0 0 0.323563957494877 0 0 0 0 0 0 0 0 0 -0.81675868605655 0 0 0 -2.08973861240858 0 0 0 0 0 0 0 0 0
0 0 0 0 0 0 0 0 0.169415594176057 0.397957721124183 0 0 0 0 0 0 0 0 0 0 0 0 0 0 0 0 0 0 0 0 0 0 0 0 0 0 0 0 0 0 -7.21983642199485 0 0 0 -9.65714710060563 0 0 -0.60406243957379 0 0
0 0 0 0 0 0 0 0 0 0 0 0 0 0 0 0 0 0 0 0.186901011760628 0.152569198008287 0 0.265441041070688 0.264333054423404 0.171808727788646 0.0860168507148036 0 0 0 0 0 0 0 0 0 0 0 0 0 0 -1.44756288829812 0 0 0 -1.34011287142238 0 0 0 0 0
0 0 0 0 0 0 0 0 0 0 0.192035456413796 0 0 0 0 0.0610939190804227 0.272579052387109 0.0817330284894373 0.621068671433431 0.0953692591124264 0 0 0 0 0 0 0 0 0 0 0 0 0 0 0 0 0 0 0 0 -1.44819457839076 0 0 0 0 0 0 0 -1.51470922647322 0
0 0 0 0 0 0 0 0 0 0 0 0 0 0 0 0 0 0 0 0 0 0 0 0 0 0 0 0 0 0 0 0 0 0 0 0 0 0 0 0 0 0 0 0 0 0 0 0 -0.589135844963957 0
0 0 0 0 0.452354860123377 0 0.246269845028383 0.0963991989478232 0.0655436230554216 0.0824191770980014 0.255934894139626 0.252166037811204 0 0 0 0 0 0 0 0 0 0 0 0 0 0 0 0 0 0 0 0 0 0 0 0 0 0 0 0 -1.98030067226607 0 0 0 0 0 0 -0.239092886751346 -1.43507337964225 0
0 0 0 0 0 0 0 0 0 0 0 0 0 0 0 0 0 0 0 0 0 0 0 0 0 0 0 0 0 0 0 0 0 0 0 0 0 0 0 0 -0.791660959322464 0 0 0 0 0 0 0 -0.382532586293522 0
0 0 0 0 0 0 0 0 0 0 0 0 0 0 0 0 0 0 0 0 0 0 0 0 0 0 0 0 0 0 0 0 0 0 0 0 0 0 0 0 0 0 0 0 0 0 0 -0.445575278396601 -0.635682074113183 0
0 0 0 0 0 0.144325298171292 0.29478683530545 0.367068500133263 0.239252572283176 0 0 0 0 0 0 0 0 0 0 0 0 0 0 0 0 0 0 0 0 0 0 0 0 0 0 0 0 0 0 0 0 0 0 0 0 -0.662292699937823 0 -0.15808667006031 0 0
0 0 0 0 0 0 0 0 0 0 0 0 0 0 0 0 0 0 0 0 0 0 0 0 0.13890103363356 0.460320906812321 0.452339688074817 0.165672708726463 0 0 0 0 0 0 0 0 0 0 0 0 0 0 0 0 0 0 0 -0.339631747842755 0 0
0 0 0 0 0 0 0 0 0.103821515943038 0.324705756550961 0.466294540378983 0 0.367319288888291 0.152851283236164 0.140223419706647 0.109716988523881 0 0 0.0761838146691193 0.0683390659684536 0 0 0 0 0 0 0 0 0 0 0 0 0 0 0 0 0 0 0 0 0 0 0 0 0 0 0 -0.884586885085284 0 0
0 0 0 0 0.152153935167523 0.0587331577969439 0.0943031065964468 0 0 0 0 0 0 0 0 0 0 0 0 0 0 0 0 0 0 0 0 0 0 0 0 0 0 0 0 0 0 0 0 0 0 0 0 0 0 0 0 0 0 0
0 0 0 0 0 0 0 0.282186858433254 0.283929332887123 0.240975662112871 0 0 0 0 0 0 0 0 0 0 0 0 0 0 0 0 0 0 0 0 0 0 0 0 0 0 0 0 0 0 0 -4.93401585889824 0 0 0 0 0 -0.531181330379171 0 0
0 0 0 0 0 0 0 0 0 0 0 0 0 0 0 0 0 0 0 0 0.478378949163628 0.359085379406814 0.774739434326447 0 0 0 0.0870552129837666 0.427043783114098 1.37494554514034 0.293582790321918 0.290674437261665 0 0.415570863161534 0.172359035260188 0 0 0 0 0 0 0 -0.459412878886719 0 0 0 0 0 0 0 0
0 0 0 0 0 0 0 0 0 0 0 0 0 0 0 0 0 0 0 0 0 0 0 0 0 0 0 0 0 0 0 0 0 0 0 0 0 0 0 1.00138650857132 0.0936598452471322 0 0 0 0 0 0 0 0 0
0 0 0 0 0 0 0.428707317640453 0.366807966404682 0 0 0 0 0 0 0 0 0 0 0 0 0 0 0 0 0 0 0 0 0 0 0 0 0 0 0 0 0 0 0 0 0 0 0 0 0 0 0 0 0 0
0.217729541088897 0 1.1592120896143 0.186796257082771 0 0 0 0 0 0 0 0 0 0 0 0 0 0 0 0 0 0 0 0 0 0 0 0 0 0 0 0 0 0 0 0 0 0 0 0 0 0 0 0 0 0 0 0 0 0
0 0 0 0 0 0 0 0 0 0 0 0 0 0 0 0 0 0 0 0 0 0 0 0 0 0 0 0 1.8946384680865 0.271879951706497 0 0 0 0 0 0 0 0 0 0 0 0 0 0 0 0 0 0 0 0
0 0 0 0 0 0 0 0 0 0 0 0 0 0 0 0 0 0 0 0 0 0 0 0 0 0 0 0 0 0 0 0 0 0 0 0.131144396392169 0 0 0 0 0 0 0 0 0 0 0 0 0 0
0 0 0 0 0 0 0 0 0 0 0 0.0191853752282848 0.0252416565463573 0 0 0 0 0 0 0 0 0 0 0 0 0 0 0 0 0 0 0 0 0 0 0 0 0 0 0 0 0 0 0 0 0 0 0 0 0
0 0 0 0 0 0 0 0 0 0 0 0 0 0 0 0 0 0 0 0 0 0 0 0 0 0 0 0 0.120903042642593 0 0 0 0.0428486462060995 0 0.0929486484779272 0.0312145103337274 0.0706651021983266 0.178075072617906 0 0.109735046167311 0 0 0 0 0 0 0 0 0 0
0 0 0 0 0 0 0 0 0 0 0 0 0 0 0 0 0 0 0 0 0 0 0 0 0 0 0 0 0 0 0.336987116815556 0.119326951554818 0.294822573742435 0.078143823631512 0.119328799625614 0 0 0 0 0 0 0 0 0 0 0 0 0 0 -1.9282860331655
0 0 0 0 0 0 0 0 0 0 0 0 0 0 0 0 0 0 0 0 0 0 0 0 0 0 0 0 0 0 0 0 0 0 0 0 0 0 0 0 0 0 0 0 0 0 0 0 0.394385903254141 0
