0 0 0 0 0 0 0 0 0 0 0 0 0 0 0 0 0 -0.246191486673143 0 0 0 0 0 0 0 0 0 0 0 0 0 0 0 0 0 0 0 0 0 0 0 0 0 0 0 0 0 0 0 0
0 0 0 0 0 0 0 0 0 0 0 0 0 0 0 0 0 -2.23397603451932 0 0 0 0 0 0 0 0 0 0 0 0 0 0 0 0 0 0 0 -2.51661869499606 0 0 0 0 0 0 0 0 0 0 0 0
0 0 0 0 0 0 0 0 0 0 0 0 0 0 0 0 0 -0.720136680376849 0 0 0 0 0 0 0 0 0 0 0 0 0 0 0 0 0 -1.14062100846092 0 0 0 0 0 -0.955728521955364 0 0 -4.48652370923531 0 0 0 0 0
0 0 0 0 0 0 0 0 0 0 0 0 0 -0.389135720149412 0 0 0 -4.96767448581686 0 0 0 0 0 0 0 0 0 0 0 0 0 0 0 0 0 0 0 0 0 0 0 -0.198877665311993 0 0 0 0 0 0 -0.294616131009187 0
0 0 0 0 0 0 0 0 0 0 0 0 -3.631169119238 0 0 0 0 0 0 0 0 0 0 0 0 0 0 0 0 0 0 0 0 0 0 -0.978710611147669 0 0 0 0 0 0 0 0 -0.736390264128619 0 0 0 -0.928353289974989 0
0 0 0 0 0 0 0 0 0 0 0 0 -2.0100160732656 0 0 0 0 0 0 0 0 0 0 0 0 0 0 0 0 0 0 0 0 0 0 -3.77798670903009 0 0 0 0 0 -1.32524083628184 0 0 -3.45335877387605 0 0 0 0 0
0 0 0 0 0 0 0 0 0 0 0 0 0 0 0 0 0 0 0 0 0 0 -0.790829075901803 0 0 0 0 0 0 0 0 0 0 0 0 0 0 0 0 0 0 -1.56088776334326 0 0 0 0 0 0 -0.866171725145378 0
0 0 0 0 0 0 0 0 -0.787788473351523 0 0 -0.424931479757468 0 0 -6.4736123516857 0 0 0 0 0 0 0 -1.00216185915244 0 0 0 0 0 0 0 0 0 0 0 0 -0.296939077896657 0 0 0 0 0 0 0 0 0 0 0 0 0 0
0 0 0 0 0 0 0 0.162104384649864 0 0 0 -0.66400462574232 0 0 -0.304492976218831 0 0 0 0 0 0 0 0 0 0 0 0 0 0 0 0 0 0 0 0 0 0 0 0 0 0 0 0 0 -0.716154676449238 0 0 0 0 0
0 0 0 0 0 0 0 0 0 0 0 0 0 0 0 0 -0.602271005921304 0 0 0 0 0 0 0 0 0 0 0 0 0 0 -2.57872157019813 0 0 0 0 0 0 0 0 0 0 0 0 0 -0.869574211689303 0 0 0 0
0 0 0 0 0 0 0 0 0 0 0 0 0 0 0 -2.07049925347951 0 0 0 0 -0.79188919960661 0 0 0 -2.94973142638933 0 0 0 0 0 0 -1.73111048088169 0 0 0 0 0 0 0 0 0 0 0 0 0 0 0 0 0 0
0 0 0 0 0 0 0 0.0873001592940634 0.143891928063692 0 0 0 0 0 0 0 0 0 0 0 0 0 0 -0.277073720028536 0 0 0 0 0 0 0 -0.758351675699999 0 0 -7.12605171130222 0 0 0 0 0 0 0 0 0 0 -0.686199547070266 0 0 0 0
0 0 0 0 0.671340858390038 0.401395547840547 0 0 0 0 0 0 0 0 0 -1.94608013304707 0 0 0 0 0 0 0 0 0 0 0 0 0 0 -0.489884378814282 0 0 -0.504226893695656 0 0 0 0 0 0 0 0 0 0 0 -0.400438217091163 0 0 0 0
0 0 0 0.0780626268977264 0 0 0 0 0 0 0 0 0 0 0 -0.373282025706544 0 0 0 -0.357288954611918 0 0 0 0 0 0 0 0 0 0 -1.16672246704028 0 0 -1.30019926135702 0 0 0 0 0 0 0 0 0 0 0 -2.92212361801642 0 0 0 0
0 0 0 0 0 0 0 1.1896016213349 0.0633226542741797 0 0 0 0 0 0 -1.14434181972254 0 0 0 -0.138278887534352 0 0 0 -0.900480067431537 0 0 0 0 0 0 -0.583258634280515 0 0 -2.08900085882412 0 0 0 0 0 0 0 0 0 0 0 0 0 0 0 0
0 0 0 0 0 0 0 0 0 0 0.431101826256937 0 0.38833982250591 0.0707567866834536 0.245712735364798 0 0 0 0 -0.350463947260325 0 0 0 0 0 0 0 0 -1.84185424071974 0 -4.95218158663839 0 0 0 0 0 0 0 0 0 0 0 0 0 0 0 0 0 0 0
0 0 0 0 0 0 0 0 0 0.116703775234547 0 0 0 0 0 0 0 0 0 -0.268074778151543 0 0 0 0 0 0 0 0 -0.353024004933345 0 -0.989765770156682 0 0 -0.231262451103943 0 0 0 0 0 0 0 0 0 0 0 0 0 0 0 0
0.0476708799419987 0.437944378251018 0.150742780406306 0.972844609880397 0 0 0 0 0 0 0 0 0 0 0 0 0 0 0 -0.535294640840336 0 -2.01480249030849 0 0 0 -1.28506244409726 0 0 -0.471768674157856 0 -1.31500687165639 0 0 0 0 0 0 0 0 0 0 0 0 0 0 0 0 0 0 0
0 0 0 0 0 0 0 0 0 0 0 0 0 0 0 0 0 0 0 -2.51552967814541 0 -0.841445825406689 0 0 0 0 0 0 0 0 -0.533883780772433 0 0 -0.843932974234434 0 0 0 0 0 0 0 0 0 0 0 0 0 0 0 0
0 0 0 0 0 0 0 0 0 0 0 0 0 0.0706240465528229 0.0264348191908158 0.0710042253240819 0.0535634103850093 0.111991750149892 0.451524082935448 0 0.211737175429707 0 0 0.11063776685003 0 0 0 0 -0.890981336131228 0 -9.10656390869884 0 0 0 0 0 0 0 0 0 0 0 0 0 0 0 0 0 0 0
0 0 0 0 0 0 0 0 0 0 0.156269884324091 0 0 0 0 0 0 0 0 -1.08226248559199 0 0 0 0 0 0 0 0 0 0 -1.23178229194727 0 0 -3.17284791021486 0 0 0 0 0 0 0 0 0 0 0 0 0 0 0 0
0 0 0 0 0 0 0 0 0 0 0 0 0 0 0 0 0 0.378385582000473 0.156328046211631 0 0 0 0 0 0 0 0 0 0 -2.34480440033143 -3.20470046423022 0 0 -1.25727063665997 0 0 0 0 0 0 0 0 0 -0.211674946699587 0 0 0 0 0 0
0 0 0 0 0 0 0.161648087095419 0.190082762905415 0 0 0 0 0 0 0 0 0 0 0 0 0 0 0 0 0 0 0 0 0 -0.358324034439232 0 0 0 -1.19880905750229 0 0 0 0 0 0 0 0 0 0 0 0 -1.74936053644552 0 0 0
0 0 0 0 0 0 0 0 0 0 0 0.05654943680157 0 0 0.171403837858964 0 0 0 0 -0.58347836417531 0 0 0 0 0 0 0 0 0 -0.835448610927868 -0.742005990181477 0 0 -1.25926943738911 0 0 0 0 0 0 0 0 0 0 0 0 0 0 0 0
0 0 0 0 0 0 0 0 0 0 0.563863563975299 0 0 0 0 0 0 0 0 0 0 0 0 0 0 0 0 0 0 0 0 0 0 -1.03924574813487 0 0 0 0 0 0 0 0 0 0 0 0 -1.40459480106658 0 0 0
0 0 0 0 0 0 0 0 0 0 0 0 0 0 0 0 0 0.249674782886327 0 0 0 0 0 0 0 0 0 0 0 0 0 0 0 0 0 0 0 0 0 0 0 0 0 0 0 0 0 0 0 0
0 0 0 0 0 0 0 0 0 0 0 0 0 0 0 0 0 0 0 0 0 0 0 0 0 0 0 0 0 -0.234112617679061 0 0 0 0 0 0 0 0 0 0 0 0 0 -4.87163687468982 0 0 -0.828897462693113 0 0 0
0 0 0 0 0 0 0 0 0 0 0 0 0 0 0 0 0 0 0 0 0 0 0 0 0 0 0 0 0 -0.283634407484995 0 0 0 0 0 0 0 0 0 0 0 0 0 0 0 0 0 0 0 0
0 0 0 0 0 0 0 0 0 0 0 0 0 0 0 0.3300210580223 0.0736609064861048 0.0960244823597365 0 0.173253778997864 0 0 0 0 0 0 0 0 0 0 0 0 0 0 0 0 -1.28503414186191 0 0 0 0 0 0 0 0 0 -0.619066933831999 0 0 0
0 0 0 0 0 0 0 0 0 0 0 0 0 0 0 0 0 0 0 0 0 0.491364870767762 0.0744081962525418 0.159051790491904 0 0 0.051139764192665 0.0588139466777663 0 0 0 0 0 0 0 0 0 0 0 0 0 0 0 -4.13093080361677 0 0 0 0 0 0
0 0 0 0 0 0 0 0 0 0 0 0 0.0885639895675769 0.233432838927844 0.110710347899393 0.992149701273504 0.181990236380819 0.262630612292418 0.108614552443366 1.973060163449 0.239451047812677 0.666531111364209 0 0.147648335872962 0 0 0 0 0 0 0 0 0 0 0 0 0 0 0 0 0 0 0 -1.08928832146846 0 0 -1.21614227852734 0 0 0
0 0 0 0 0 0 0 0 0 0.514372637812571 0.350666075295668 0.141662858485827 0 0 0 0 0 0 0 0 0 0 0 0 0 0 0 0 0 0 0 0 0 0 0 0 0 0 0 0 0 0 0 -0.606199390660579 0 0 -0.493252813659332 0 0 0
0 0 0 0 0 0 0 0 0 0 0 0 0 0 0 0 0 0 0 0 0 0 0 0 0 0 0 0 0 0 0 0 0 0 0 0 0 0 0 0 0 0 0 0 0 0 -2.40037213317656 0 0 0
0 0 0 0 0 0 0 0 0 0 0 0 0.100262712880136 0.272014247339726 0.409893670915093 0 0.0442242203416284 0 0.179105720419538 0 0.654510376845171 0.252059569322576 0.238620137211077 0.261066936812961 0.201412176491977 0 0 0 0 0 0 0 0 0 0 0 0 0 0 0 0 0 0 -0.680924268470248 0 0 -1.43821831713736 0 0 0
0 0 0 0 0 0 0 0 0 0 0 1.39401391401028 0 0 0 0 0 0 0 0 0 0 0 0 0 0 0 0 0 0 0 0 0 0 0 0 0 0 0 0 0 0 0 -4.373714494452 0 0 0 0 0 0
0 0 0.241763986284071 0 0.186361040162855 0.751176757365118 0 0.0569920126951287 0 0 0 0 0 0 0 0 0 0 0 0 0 0 0 0 0 0 0 0 0 0 0 0 0 0 0 0 0 0 0 0 0 0 0 -1.02788876730148 0 0 -0.880066892802982 0 0 -1.07949373712688
0 0 0 0 0 0 0 0 0 0 0 0 0 0 0 0 0 0 0 0 0 0 0 0 0 0 0 0 0.260416328244518 0 0 0 0 0 0 0 0 0 0 0 0 0 0 -1.21908949028751 0 0 0 0 0 -0.319454429571673
0 0.54715272348721 0 0 0 0 0 0 0 0 0 0 0 0 0 0 0 0 0 0 0 0 0 0 0 0 0 0 0 0 0 0 0 0 0 0 0 0 0 0 0 0 -1.19670792064461 0 0 0 0 -0.672311241870277 0 -2.06912511207795
0 0 0 0 0 0 0 0 0 0 0 0 0 0 0 0 0 0 0 0 0 0 0 0 0 0 0 0 0 0 0 0 0 0 0 0 0 0 0 0 0 0 -2.31333291975579 0 0 0 0 0 0 -1.24706155161413
0 0 0 0 0 0 0 0 0 0 0 0 0 0 0 0 0 0 0 0 0 0 0 0 0 0 0 0 0 0 0 0 0 0 0 0 0 0 0 0 -5.06345519900591 0 -0.750207694454818 0 0 0 0 0 0 -0.49210552569547
0 0 0 0 0 0 0 0 0 0 0 0 0 0 0 0 0 0 0 0 0 0 0 0 0 0 0 0 0 0 0 0 0 0 0 0 0 0 0 0.99445616975828 0 0 0 0 0 0 0 0 0 -1.84773070027271
0 0 0.203492572862204 0.0433873719624322 0 0.259966545928213 0.337508322838355 0 0 0 0 0 0 0 0 0 0 0 0 0 0 0 0 0 0 0 0 0 0 0 0 0 0 0 0 0 0 0 0 0 0 0 -0.976442312256213 0 0 0 0 0 0 -0.244883151295016
0 0 0 0 0 0 0 0 0 0 0 0 0 0 0 0 0 0 0 0 0 0 0 0 0 0 0 0 0 0 0 0 0 0 0 0 0 0.236441783494024 0.44991327590982 0.155131602808247 0 0.187842781820006 0 0.0440283698153666 0 0.452070414001787 0.399979717633864 0 0 -0.715501560474909
0 0 0 0 0 0 0 0 0 0 0 0 0 0 0 0 0 0 0 0 0 0.0440958072280817 0 0 0 0 0.931846307570177 0 0 0.859961300622522 0.217717438142716 0.116442183035784 0 0.139070035629379 0.800612205062154 0.196649170579551 0.249722347239021 0 0 0 0 0 -0.223790121039893 0 0 0 0 0 0 0
0 0 0.891078057540514 0 0.139606854993527 0.717266682937851 0 0 0.140482447675063 0 0 0 0 0 0 0 0 0 0 0 0 0 0 0 0 0 0 0 0 0 0 0 0 0 0 0 0 0 0 0 0 0 0 0 0 0 0 0 0 0
0 0 0 0 0 0 0 0 0 0.182575474086646 0 0.137757949331377 0.0785996389476565 0.545037913391275 0 0 0 0 0 0 0 0 0 0 0 0 0 0 0 0 0 0 0 0 0 0 0 0 0 0 0 0 -2.41853027682856 0 0 0 0 0 0 0
0 0 0 0 0 0 0 0 0 0 0 0 0 0 0 0 0 0 0 0 0 0 0.381953711914936 0 0.305729334694581 0 0.154707167971346 0 0.125500617760917 0 0.240771455045879 0.103069802090673 0.51638825872146 0.269737418230661 0 0.183356276777888 0 0 0 0 0 0 -1.88192048739647 0 0 0 0 0 0 0
0 0 0 0 0 0 0 0 0 0 0 0 0 0 0 0 0 0 0 0 0 0 0 0 0 0 0 0 0 0 0 0 0 0 0 0 0 0.136888847646745 0 0 0 0 0 0 0 0 0 0 0 0
0 0 0 0.0612944226578533 0.202914738804901 0 0.161733173892545 0 0 0 0 0 0 0 0 0 0 0 0 0 0 0 0 0 0 0 0 0 0 0 0 0 0 0 0 0 0 0 0 0 0 0 0 0 0 0 0 0 0 0
0 0 0 0 0 0 0 0 0 0 0 0 0 0 0 0 0 0 0 0 0 0 0 0 0 0 0 0 0 0 0 0 0 0 0 0.216793404547553 0.0637845388754676 0.44391520366211 0.263789536255764 0.0925443871530425 0.358494398921852 0.04779043272529 0.140629832787762 0 0 0 0 0 0 0
