0.659383730203433
0.54902749112946
1.14022093470064
0.666528113343505
1.16948989702845
0.0783046657218971
1.28258831222204
0.217625210756036
0.507776299833318
0.592627313633657
3.04232449495219
0.671710632178533
0.861652076738595
1.93600345123523
2.8694229339893
0.487955353352706
0.310237089987914
0.470208299499862
0.515058898075669
1.6168292042386
1.90161766010023
0.498775887856332
0.264465642751335
2.29154015358121
0.435138614045767
4.92083282763258
2.62833381921081
0.370434344221999
0.836239166689396
1.2855999226871
0.335057786351193
1.09861462177671
0.270442912429407
0.468800962147
0.247591760497459
1.66971836202035
3.62660779250062
1.23550364565565
0.80703565933381
0.933112471449502
0.409889683433213
1.9929750982026
1.83159661194469
1.49609588253692
1.35208770379676
1.08338701602797
0.66664077949068
2.20992249812299
0.964233291012179
0.202837309818995
