0 -0.318248548290086 0 0 0 0 0 -1.30120986338343 0 0 0 0 0 0 0 0 0 0 0 0 0 0 0 0 0 0 0 0 0 -3.91673451084092 0 0 0 0 0 0 0 0 0 0 0 0 0 0 0 0 0 0 0 0
0.0697416276513398 0 0 0 0 0 0 0 0 0 0 -1.2890901640626 0 0 -1.7598143707553 -0.636939458797491 0 0 0 0 0 0 0 0 0 0 0 0 0 0 0 0 0 0 0 0 0 0 0 0 0 0 0 0 0 0 0 0 0 0
0 0 0 -0.504235305864993 0 0 0 0 0 0 0 -0.123384005682114 0 0 -0.574451541483535 0 0 0 0 0 0 0 0 0 0 0 0 0 0 0 0 0 -0.259598290760201 0 0 0 0 0 0 0 0 0 0 0 0 0 0 0 0 0
0 0 0.101680352620726 0 0 0 0 0 0 0 0 0 0 0 0 -0.0605390786341342 0 -1.30389240787044 0 0 0 -0.324533731870853 0 0 0 0 0 0 0 0 0 0 0 0 0 0 0 0 0 0 0 0 0 0 0 0 0 0 0 0
0 0 0 0 0 0 0 0 0 0 0 0 0 0 0 0 0 0 0 0 0 -1.27046746003642 0 0 0 0 0 0 0 0 0 0 0 0 0 0 0 0 0 0 0 0 0 0 0 0 0 0 0 0
0 0 0 0 0 0 0 0 -2.25158868116381 0 0 0 0 0 0 -1.3480578629747 0 -1.1846146215794 0 0 0 0 0 0 0 -1.1229900508194 0 0 0 0 0 0 -0.706708605744728 0 0 0 0 0 0 0 0 0 0 0 0 0 0 0 0 0
0 0 0 0 0 0 0 0 -0.770149393438628 0 0 0 0 0 0 -1.72074687685423 0 0 0 0 0 0 0 0 0 -0.568811971309149 -1.22233202278901 0 0 0 0 0 -0.347550749951463 0 0 0 0 0 0 0 0 0 0 0 0 0 0 0 0 0
0.259924542662707 0 0 0 0 0 0 0 -0.443353431118422 0 0 0 0 0 0 -2.20063863010342 0 0 0 0 0 0 0 0 0 0 -2.35769161265271 0 0 0 0 0 0 0 0 0 0 0 0 0 0 0 0 0 0 0 0 0 0 0
0 0 0 0 0 0.470949706590224 0.150226869946797 0.0890874896283599 0 0 0 0 0 -0.470082597472172 0 -2.58592247370422 0 -2.57920322161319 0 0 0 0 0 0 0 -1.83879154070439 -0.233155132450218 0 0 0 0 -0.536869634798659 0 0 0 0 0 0 0 0 -0.855195952978185 0 0 0 0 0 0 0 0 0
0 0 0 0 0 0 0 0 0 0 0 0 0 -3.01695963268419 0 0 0 0 0 0 0 0 0 0 0 0 -0.396743765559799 0 0 0 0 -2.41414467003122 -1.87483217264216 0 0 0 0 0 0 -1.16146379860569 0 0 0 0 0 0 0 0 0 0
0 0 0 0 0 0 0 0 0 0 0 0 0 -1.66277196792345 0 0 0 0 0 0 0 0 0 0 0 0 -0.655818739041037 0 0 0 0 -2.24927264274156 -10.8120450297558 0 0 0 0 0 0 -0.372157198242014 0 0 0 0 0 0 0 0 0 0
0 0.261272446302996 0.0238791531837511 0 0 0 0 0 0 0 0 0 -1.9554194529251 -1.83690991977114 0 0 0 0 0 0 0 0 0 0 0 0 0 0 0 0 0 -1.76757624972291 -2.3054844169505 0 0 0 0 0 0 0 0 0 0 0 0 0 0 0 0 0
0 0 0 0 0 0 0 0 0 0 0 0.393964682128532 0 0 0 0 0 0 0 0 0 0 0 0 0 0 -0.774704132139903 0 0 0 0 -0.954514137605506 -0.169370071213091 0 0 0 0 0 0 0 0 0 0 0 0 0 0 0 0 0
0 0 0 0 0 0 0 0 0.0933486287221483 0.652077836320292 0.305494846185833 0.358633781384185 0 0 0 0 0 0 0 0 0 0 0 0 0 0 -0.893952523700764 0 0 0 0 -1.66629209877365 -3.91517847801679 0 0 0 0 0 0 0 0 0 0 0 0 0 0 0 0 0
0 0.355960161130805 0.127811037559675 0 0 0 0 0 0 0 0 0 0 0 0 0 0 0 0 0 0 0 0 0 0 0 -0.206703368002746 0 -2.24126084158008 0 0 0 0 0 0 -4.69270174029222 0 0 0 -1.02383490200532 0 0 0 0 0 0 0 0 0 0
0 0.130294282913698 0 0.0121060159351573 0 0.273862575440105 0.334477066705032 0.453578482062217 0.532115385965231 0 0 0 0 0 0 0 0 0 0 0 0 0 0 0 0 0 -0.686005494099285 0 0 0 0 -1.74052498298489 0 0 -0.0573685704564334 0 0 0 0 -1.86230792582023 0 0 0 0 0 0 0 0 0 0
0 0 0 0 0 0 0 0 0 0 0 0 0 0 0 0 0 0 0 0 0 0 0 0 0 0 0 -1.65759346897653 0 0 0 0 0 0 0 0 0 -0.499731714061022 0 0 0 0 0 0 0 0 0 0 0 0
0 0 0 0.262613168710392 0 0.243026958947742 0 0 0.538222250795144 0 0 0 0 0 0 0 0 0 0 0 0 0 0 0 0 0 0 -1.38156423447338 -0.79742992637698 0 0 0 0 0 0 0 -1.77042204731638 0 0 0 0 0 0 0 0 0 0 0 0 0
0 0 0 0 0 0 0 0 0 0 0 0 0 0 0 0 0 0 0 -2.47292148949738 0 0 0 0 0 0 -0.416122780976143 0 0 0 0 0 0 0 0 0 0 -3.82188862899588 0 0 0 0 0 0 0 0 0 0 0 0
0 0 0 0 0 0 0 0 0 0 0 0 0 0 0 0 0 0 0.516184805184389 0 0 0 0 0 0 0 0 0 0 0 0 0 0 0 0 0 0 -3.64362569784811 -0.401573254800921 0 0 0 0 0 0 0 0 -1.12268389882334 0 0
0 0 0 0 0 0 0 0 0 0 0 0 0 0 0 0 0 0 0 0 0 0 0 0 0 0 0 0 0 0 0 0 0 0 0 0 0 0 -0.453547123044263 0 0 -0.843845361944138 0 0 0 0 -1.16918245754057 0 0 0
0 0 0 0.06421453581763 0.285146997931782 0 0 0 0 0 0 0 0 0 0 0 0 0 0 0 0 0 0 -0.269320027347773 0 0 0 0 0 0 0 0 0 0 0 0 0 -1.4318702303641 -5.75467313182617 0 0 -0.642908905263231 0 0 0 0 0 -0.239248254385488 0 0
0 0 0 0 0 0 0 0 0 0 0 0 0 0 0 0 0 0 0 0 0 0 0 0 0 0 0 0 0 0 0 0 0 0 0 0 0 0 0 0 0 -1.0858609938351 0 0 0 0 0 -0.930875897304527 0 0
0 0 0 0 0 0 0 0 0 0 0 0 0 0 0 0 0 0 0 0 0 0.0555196422316989 0 0 -0.14399193887957 0 0 0 0 0 0 0 0 0 0 0 0 0 0 0 0 -1.28023405628318 0 0 0 0 0 -2.53167534776974 0 0
0 0 0 0 0 0 0 0 0 0 0 0 0 0 0 0 0 0 0 0 0 0 0 0.0261763979411368 0 0 0 0 0 0 0 0 0 0 0 0 0 0 0 0 0 0 0 0 0 0 0 0 0 0
0 0 0 0 0 0.215958580077605 0.114844391533598 0 0.397345486707116 0 0 0 0 0 0 0 0 0 0 0 0 0 0 0 0 0 0 0 0 0 0 0 0 0 0 0 0 0 0 0 0 0 -1.95693562963362 0 0 0 0 0 0 0
0 0 0 0 0 0 0.225337843539569 0.467122085603745 0.0452273850649417 0.0813297966830613 0.133832001386153 0 0.144232786170639 0.180846299705257 0.0402065869853213 0.134558683962108 0 0 0.081608306584338 0 0 0 0 0 0 0 0 0 0 0 0 0 0 0 0 0 0 0 0 0 0 -0.264708113939235 0 0 0 0 0 0 0 0
0 0 0 0 0 0 0 0 0 0 0 0 0 0 0 0 0.349669150797353 0.284668509717456 0 0 0 0 0 0 0 0 0 0 0 0 0 0 0 0 0 0 0 0 0 0 0 -3.82303636582523 0 0 0 0 0 0 0 0
0 0 0 0 0 0 0 0 0 0 0 0 0 0 0.464875130753766 0 0 0.158453210960912 0 0 0 0 0 0 0 0 0 0 0 0 0 0 0 0 0 0 0 0 0 0 0 -0.805475042341118 0 0 0 0 0 -3.41194402970368 0 0
0.795689263332909 0 0 0 0 0 0 0 0 0 0 0 0 0 0 0 0 0 0 0 0 0 0 0 0 0 0 0 0 0 0 0 0 0 0 0 0 0 0 0 0 0 0 0 0 0 0 0 0 0
0 0 0 0 0 0 0 0 0 0 0 0 0 0 0 0 0 0 0 0 0 0 0 0 0 0 0 0 0 0 0 0 0 0 0 0 0 0 0 0 0 -1.12071346820811 0 0 0 0 0 0 0 0
0 0 0 0 0 0 0 0 0.111461202575496 0.50432712116021 0.464547053140344 0.332820299001416 0.199772804603508 0.324291569793744 0 0.321755903866014 0 0 0 0 0 0 0 0 0 0 0 0 0 0 0 0 0 0 0 0 0 0 0 0 0 -1.28607655412182 0 0 0 0 0 0 0 0
0 0 0.0527220965224284 0 0 0.137736320497646 0.0656635915407164 0 0 0.354458894438405 2.17124254517498 0.462732414693795 0.0363986489584023 0.794932039337376 0 0 0 0 0 0 0 0 0 0 0 0 0 0 0 0 0 0 0 0 0 0 0 0 0 0 0 -0.502381734898829 0 0 0 0 0 0 0 0
0 0 0 0 0 0 0 0 0 0 0 0 0 0 0 0 0 0 0 0 0 0 0 0 0 0 0 0 0 0 0 0 0 0 0 0 0 0 0 0 0 -0.248015586807483 0 0 0 0 0 0 0 0
0 0 0 0 0 0 0 0 0 0 0 0 0 0 0 0.0116657349429366 0 0 0 0 0 0 0 0 0 0 0 0 0 0 0 0 0 0 0 0 0 0 0 0 0 -2.62462582267516 0 0 0 0 0 0 -0.646541731533675 0
0 0 0 0 0 0 0 0 0 0 0 0 0 0 0.969596606780476 0 0 0 0 0 0 0 0 0 0 0 0 0 0 0 0 0 0 0 0 0 0 0 0 0 0 0 0 0 0 0 0 0 0 0
0 0 0 0 0 0 0 0 0 0 0 0 0 0 0 0 0 0.376352620100401 0 0 0 0 0 0 0 0 0 0 0 0 0 0 0 0 0 0 0 0 0 0 0 0 0 0 0 0 0 0 0 0
0 0 0 0 0 0 0 0 0 0 0 0 0 0 0 0 0.0942348786957965 0 0.738392242718117 0.675730461461086 0 0.303995639881867 0 0 0 0 0 0 0 0 0 0 0 0 0 0 0 0 0 0 0 0 0 0 -1.87567842991119 0 0 0 -2.23094031566525 -5.42825603561602
0 0 0 0 0 0 0 0 0 0 0 0 0 0 0 0 0 0 0 0.0840610827224994 0.0868322162314497 1.19155166914079 0 0 0 0 0 0 0 0 0 0 0 0 0 0 0 0 0 0 0 0 0 0 -2.12743762137252 0 0 0 -0.509454994915061 -0.415987738565484
0 0 0 0 0 0 0 0 0 0.225459781364113 0.0729109801168107 0 0 0 0.210191939435116 0.396159363874236 0 0 0 0 0 0 0 0 0 0 0 0 0 0 0 0 0 0 0 0 0 0 0 0 0 0 0 0 -1.43330434411951 0 0 0 -1.44092193444866 -2.21710379942314
0 0 0 0 0 0 0 0 0.178795643446935 0 0 0 0 0 0 0 0 0 0 0 0 0 0 0 0 0 0 0 0 0 0 0 0 0 0 0 0 0 0 0 0 0 0 0 -0.698315277742224 -0.963336198690098 0 0 0 0
0 0 0 0 0 0 0 0 0 0 0 0 0 0 0 0 0 0 0 0 0.166715317404624 0.110353999442794 0.228673614206747 0.239668141091837 0 0 0.0540973890329036 0.856735961224719 0.156085265537004 0 0.20767786936106 0.254696466127141 0.102785482961111 0.0466737921107053 0.593679484425731 0 0 0 0 0 0 0 0 0 0 -0.179082814266329 0 0 -3.67614078431167 -1.29347106257549
0 0 0 0 0 0 0 0 0 0 0 0 0 0 0 0 0 0 0 0 0 0 0 0 0 0.379845882951844 0 0 0 0 0 0 0 0 0 0 0 0 0 0 0 0 0 0 0 0 0 0 -8.11097905376016 -0.475272666428836
0 0 0 0 0 0 0 0 0 0 0 0 0 0 0 0 0 0 0 0 0 0 0 0 0 0 0 0 0 0 0 0 0 0 0 0 0 0 0 0 0 0 0 0 0 0 0 0 -2.05311760962916 -0.880943617742413
0 0 0 0 0 0 0 0 0 0 0 0 0 0 0 0 0 0 0 0 0 0 0 0 0 0 0 0 0 0 0 0 0 0 0 0 0 0.387476972012434 0.453499547373443 0.244715880141368 0.156795347486195 0 0 0 0 0 0 0 -4.33052722987454 0
0 0 0 0 0 0 0 0 0 0 0 0 0 0 0 0 0 0 0 0 0 0 0 0 0 0 0 0 0 0 0 0 0 0 0 0 0 0 0 0 0.178608029879302 0.0349275146894893 0 0 0 0 0 0 -0.70541454646827 0
0 0 0 0 0 0 0 0 0 0 0 0 0 0 0 0 0 0 0 0 0.236244929732548 0 0 0 0 0 0 0 0 0 0 0 0 0 0 0 0 0 0 0 0 0 0 0 0 0 0 0 0 0
0 0 0 0 0 0 0 0 0 0 0 0 0 0 0 0 0 0 0 0.247647732536213 0 0.0478363913814564 0.178853392159594 0.513832650712867 0 0 0 0 0.704566224521343 0 0 0 0 0 0 0 0 0 0 0 0 0 0 0 0 0 0 0 0 0
0 0 0 0 0 0 0 0 0 0 0 0 0 0 0 0 0 0 0 0 0 0 0 0 0 0 0 0 0 0 0 0 0 0 0.1253073358736 0 0 0.411773772413213 0.0889021593082096 0.297277093076916 0 0.81321538446258 1.59595228596218 0.40060041407921 0.774502041699131 0.137735323432908 0 0 0 0
0 0 0 0 0 0 0 0 0 0 0 0 0 0 0 0 0 0 0 0 0 0 0 0 0 0 0 0 0 0 0 0 0 0 0 0 0 0.955135244530528 0.0885035006130685 0.452600223790448 0 0.247636130845081 0.10120075174103 0.164280616120536 0 0 0 0 0 0
