0.498634063266212
0.301165789871002
1.85977424759213
0.123668168061047
0.476577306944798
2.32359159932943
1.02663337964944
1.09078426624384
0.729101545183349
0.046706627902662
1.19385987871045
2.04980553782233
0.0490317953574994
1.74586560443709
0.9217790090338
0.859835518739908
0.718488440228766
0.335587282734623
0.209327828141663
0.163744032803291
2.5130806615714
1.55777669369839
1.45887026674016
1.54886602243057
0.386969713318813
0.468135856585149
1.06276139461668
0.677367688947391
1.0765133971238
0.59970255846505
1.96599184927684
0.0894238404356142
2.43737637022841
0.151312935361844
1.43063366228219
0.0553691215470391
0.249765049145019
0.429702997112601
1.50470534073638
0.686966399820207
1.59909721877894
0.0299459910016173
0.933468857148284
2.53391019072344
0.529337359027294
0.414849599380083
0.013981839118809
2.92397408017801
0.153261474645239
0.171698934131262
