3.07758327925821
0.892715006095368
1.69863486047445
1.89984931582856
0.21008481697841
1.1709805098725
2.0338459601928
1.27971375043557
0.653394466475725
4.05377787704486
2.35744674653388
0.09057060646996
0.669303243937471
1.92720684894397
3.59082957982864
5.99200712412537
2.45530161551209
3.07701166716774
0.449151179360607
0.546552802920039
0.930703678649726
0.834128040660705
0.255558168191113
1.04555177217325
0.696149577794348
1.39897739608016
0.475366834693265
2.56745792053737
0.331173343647977
2.31315823333938
1.25871356630597
3.07921016308627
0.932969994467055
1.32586022156237
1.37493287472189
0.360564460230955
0.274487597093767
4.01212632154148
2.04132192541234
1.41205741073806
1.48777364013804
0.843876748081876
0.334239038044326
5.1277725227369
0.018412583066531
1.57104567844974
5.31291663797697
0.397854863801145
0.572357009109408
0.358767706997251
