0 0 0 0 0 0 0 0 0 0 0 0 0 0 0 -5.4384327633323 0 0 0 0 0 0 0 0 0 0 0 0 0 0 0 0 0 0 0 0 0 0 0 0 0 0 0 0 0 0 0 0 0 0
0 0 0 0 0 0 0 0 0 0 0 0 0 0 0 -2.53318149675978 0 0 0 0 0 0 0 0 0 0 0 0 0 0 0 0 0 0 0 0 0 0 0 0 0 0 0 0 0 0 0 0 0 0
0 0 0 0 0 0 0 0 0 0 0 0 0 0 0 -0.648712775355655 0 0 0 0 0 0 0 0 0 0 0 0 0 0 0 0 0 0 0 0 0 0 0 0 0 0 0 0 0 0 0 0 0 0
0 0 0 0 0 0 0 0 0 0 0 0 0 0 0 -0.848077952940961 0 0 0 0 0 0 0 0 0 0 0 -0.536507851030497 0 0 0 0 0 0 0 0 0 0 0 0 0 0 0 0 0 0 0 0 0 0
0 0 0 0 0 0 0 0 0 0 0 0 0 0 0 0 0 0 0 0 0 0 -5.92175602701587 0 0 0 0 -1.92568070533034 -1.04062548833152 0 0 0 0 0 0 0 0 0 0 0 -2.32854359480873 0 0 0 0 0 0 0 0 0
0 0 0 0 0 0 0 0 0 -0.570506525771739 0 0 0 0 0 0 0 0 0 0 0 0 0 -6.01993321718467 0 0 0 0 -2.96207689501382 0 0 0 0 0 0 0 0 0 0 0 -4.37077065640324 0 0 0 0 0 0 0 0 0
0 0 0 0 0 0 0 0 -0.435452825267997 -2.88560081099046 0 0 0 0 0 0 0 0 0 0 0 0 0 0 0 0 0 0 0 0 0 0 0 0 0 0 0 0 0 0 -0.537656114219428 0 0 0 0 0 0 0 0 0
0 0 0 0 0 0 0 0 0 0 0 0 -0.316711521814751 -0.485427545653605 0 0 0 0 0 0 0 0 0 0 0 0 -0.643234544293889 0 0 0 0 -1.60386943438465 0 -0.191147351559167 0 0 0 0 0 0 -0.488968374522674 0 0 0 0 0 0 0 0 0
0 0 0 0 0 0 0.091600868526678 0 0 0 0 0 -6.14021749975144 -2.6421104168778 0 0 0 -1.41488233505852 0 0 0 0 0 0 -0.880438777850348 0 -0.103002427726036 0 0 0 0 -0.820412521979534 0 -0.838096441126068 0 0 0 0 0 0 -0.668543941816966 0 0 0 0 0 0 0 0 0
0 0 0 0 0 0.121000535715584 0.559702147231821 0 0 0 0 0 0 -0.724336770189492 0 0 -1.08053509632737 -0.373369947511344 0 0 0 0 0 0 0 0 0 0 0 -0.299627937137469 0 0 0 0 0 0 0 0 0 0 -1.51942723015899 0 0 0 0 0 0 0 0 0
0 0 0 0 0 0 0 0 0 0 0 0 0 0 0 0 -1.23984478009935 0 0 0 0 0 0 0 0 0 0 0 0 -0.810238971415539 0 0 0 0 0 0 -5.45638538110937 0 0 0 -0.338569776674722 -0.644152400138368 0 0 0 0 0 0 0 0
0 0 0 0 0 0 0 0 0 0 0 0 0 0 0 0 0 0 0 0 0 0 0 0 0 0 0 0 0 -3.82700462625761 0 -0.740534226819711 0 0 0 0 -1.37795882252412 0 0 0 0 -1.09923656655181 0 0 0 0 0 0 0 0
0 0 0 0 0 0 0 0.0677870836856969 1.26056802820501 0 0 0 0 0 0 0 0 0 0 0 0 0 0 0 -0.669741124006179 0 0 0 0 -0.351689446164088 0 -1.71254819363137 0 0 0 0 0 -4.04504533950349 0 0 0 -1.3848012074744 0 0 0 0 0 0 0 0
0 0 0 0 0 0 0 0.089481325569066 0.527137517354437 0.153291899708226 0 0 0 0 0 0 0 0 0 0 0 0 0 0 0 0 0 0 0 0 0 -0.237176312435973 0 0 0 0 -1.08670279754106 0 0 0 0 -3.81623650045211 0 0 0 0 0 0 0 0
0 0 0 0 0 0 0 0 0 0 0 0 0 0 0 0 0 0 0 0 0 0 0 0 0 0 0 0 0 -0.883128474261856 0 0 0 0 0 0 0 0 -0.538665007900904 0 0 0 0 0 0 0 0 0 0 0
1.14895128755493 0.51959305574543 0.135541584664866 0.161301378541857 0 0 0 0 0 0 0 0 0 0 0 0 0 0 0 0 0 0 0 0 0 0 0 0 0 0 0 0 0 0 0 0 0 0 -0.78578943758931 0 0 -1.41167756679904 0 0 0 0 0 0 0 0
0 0 0 0 0 0 0 0 0 0.233402107848836 0.26439194892771 0 0 0 0 0 0 0 0 0 0 0 0 0 0 0 0 0 0 -3.09723177818617 0 0 0 0 0 0 0 0 -0.315222102284757 0 0 0 0 0 0 0 0 0 0 0
0 0 0 0 0 0 0 0 0.296919748266653 0.065785658861836 0 0 0 0 0 0 0 0 0 0 0 0 0 0 0 0 0 0 0 -1.54595741914864 0 0 0 0 0 0 0 0 -5.16110242595035 0 0 -0.788366062773562 0 0 0 0 0 0 0 0
0 0 0 0 0 0 0 0 0 0 0 0 0 0 0 0 0 0 0 0 0 -4.10205289688372 0 0 0 0 0 0 0 0 0 0 0 0 0 0 0 0 0 0 0 0 0 0 0 0 0 0 -1.43113864036835 0
0 0 0 0 0 0 0 0 0 0 0 0 0 0 0 0 0 0 0 0 0 0 0 0 0 0 0 0 0 -1.0004923764691 0 0 0 0 0 0 0 0 0 -0.446073937773012 0 0 0 0 0 0 0 0 -0.387859392807173 0
0 0 0 0 0 0 0 0 0 0 0 0 0 0 0 0 0 0 0 0 0 0 0 0 0 0 0 0 0 0 0 0 0 0 0 0 0 0 -1.07333092377542 -1.62562518299835 0 -0.971179992258431 0 0 0 0 0 0 -2.89731257289822 0
0 0 0 0 0 0 0 0 0 0 0 0 0 0 0 0 0 0 0.780875864646301 0 0 0 0 0 0 0 0 0 0 0 0 0 0 0 0 0 0 0 0 0 0 -0.151630216606734 0 0 0 0 0 0 0 0
0 0 0 0 1.29066060116307 0 0 0 0 0 0 0 0 0 0 0 0 0 0 0 0 0 0 0 0 0 0 0 0 0 -0.250646704534344 0 0 0 0 0 0 0 -1.20061951009546 0 0 -0.842355658643287 0 0 0 0 0 0 -2.23045519743003 0
0 0 0 0 0 1.19520878088053 0 0 0 0 0 0 0 0 0 0 0 0 0 0 0 0 0 0 0 0 0 0 0 0 0 0 0 0 0 0 0 0 -1.89316554325968 -0.648794084958787 0 -1.25905700485953 0 0 0 0 0 0 -0.661646014878984 0
0 0 0 0 0 0 0 0 0.175028863962684 0 0 0 0.131784112627601 0 0 0 0 0 0 0 0 0 0 0 0 0 0 0 0 0 -1.04321204767329 0 0 0 -0.219549879293274 0 0 0 -0.11003012504891 -1.18101908481778 0 -0.282941149447734 0 0 0 0 0 -0.507277473822948 0 0
0 0 0 0 0 0 0 0 0 0 0 0 0 0 0 0 0 0 0 0 0 0 0 0 0 0 0 0 0 0 -0.571058252673972 0 0 0 -0.648658119942987 0 0 0 -0.326695158101964 0 0 -1.0410539889287 0 0 0 0 0 -1.32724300501007 0 -1.5554217250014
0 0 0 0 0 0 0 0.132381988613394 0.0204119852511358 0 0 0 0 0 0 0 0 0 0 0 0 0 0 0 0 0 0 0 0 0 -0.684584477254454 0 0 0 0 0 0 0 -2.32455608178144 0 0 0 0 0 0 0 0 -0.590491625508861 0 -0.634709244434365
0 0 0 0.11184749575069 0.362494542314822 0 0 0 0 0 0 0 0 0 0 0 0 0 0 0 0 0 0 0 0 0 0 0 0 0 -1.23622503362693 0 0 0 -0.425215689235964 0 0 0 0 -0.81812139001959 0 0 0 0 0 0 0 0 0 -0.351781579827652
0 0 0 0 0.221790781891686 0.599610712336031 0 0 0 0 0 0 0 0 0 0 0 0 0 0 0 0 0 0 0 0 0 0 0 0 0 0 -0.314704152334132 0 -3.94847483078121 0 0 0 0 -4.34364579620179 0 0 0 0 0 0 0 -0.464222761853871 0 -3.2660528907686
0 0 0 0 0 0 0 0 0 0.0594365520000843 0.173749442342474 0.755509469563425 0.0653760959624912 0 0.188163266686055 0 0.643868734064736 0.321665917143404 0 0.191639022633226 0 0 0 0 0 0 0 0 0 0 0 0 -0.375031827485321 0 -0.374020174489152 0 0 0 0 0 0 0 0 0 0 0 0 -1.12458536089725 0 -0.616760660527102
0 0 0 0 0 0 0 0 0 0 0 0 0 0 0 0 0 0 0 0 0 0 0.0490435484453883 0 0.207160423743679 0.111207621383256 0.149158490286893 0.258899519598578 0 0 0 0 -1.84597727655587 0 -0.588281225885924 0 0 0 0 0 0 0 0 0 0 0 0 -0.531656372645634 0 0
0 0 0 0 0 0 0 0.329546564174293 0.159728567290509 0 0 0.145359450614314 0.359518548296925 0.0437274673360671 0 0 0 0 0 0 0 0 0 0 0 0 0 0 0 0 0 0 -0.0704622479155831 0 -0.697718763278271 0 0 0 0 0 0 0 0 0 0 0 0 -0.997974407211921 0 0
0 0 0 0 0 0 0 0 0 0 0 0 0 0 0 0 0 0 0 0 0 0 0 0 0 0 0 0 0.063073613623262 0.0815452334190568 0.396004799924735 0.0143464222103757 0 0 0 0 0 0 0 0 0 0 0 0 0 0 0 -2.10641000492158 0 0
0 0 0 0 0 0 0 0.037349756876862 0.158297347275447 0 0 0 0 0 0 0 0 0 0 0 0 0 0 0 0 0 0 0 0 0 0 0 0 0 0 0 0 0 0 0 0 0 -0.126954821218355 0 0 -0.527379354604802 0 0 0 0
0 0 0 0 0 0 0 0 0 0 0 0 0 0 0 0 0 0 0 0 0 0 0 0 0.043474455871494 0.121838685578902 0 0.0880377148964445 0.827468648086675 0.0755022905644674 0.119269459386858 0.130799434781172 0 0 0 0 0 0 0 0 0 0 0 0 0 -0.980594224817346 -0.110296112883599 0 0 0
0 0 0 0 0 0 0 0 0 0 0 0 0 0 0 0 0 0 0 0 0 0 0 0 0 0 0 0 0 0 0 0 0 0 0 0 0 0 0 0 0 0 0 0 0 0 -1.75718456587175 0 0 0
0 0 0 0 0 0 0 0 0 0 0.983482720590115 0.26865383878228 0 0.237968646108058 0 0 0 0 0 0 0 0 0 0 0 0 0 0 0 0 0 0 0 0 0 0 0 0 0 0 0 0 0 0 0 -0.219637239045587 -0.681768410283772 0 0 0
0 0 0 0 0 0 0 0 0 0 0 0 0.840991132384038 0 0 0 0 0 0 0 0 0 0 0 0 0 0 0 0 0 0 0 0 0 0 0 0 0 0 0 0 0 0 0 -1.33124919848437 0 0 0 0 0
0 0 0 0 0 0 0 0 0 0 0 0 0 0 0.111852261652274 0.150871705979046 0.0574183188868027 1.0293782948932 0 0 0.215921975100101 0 0.25001580597638 0.33917146841954 0.0227636677398314 0.0653486703706248 0.506654175651057 0 0 0 0 0 0 0 0 0 0 0 0 0 0 0 0 0 0 0 0 0 0 0
0 0 0 0 0 0 0 0 0 0 0 0 0 0 0 0 0 0 0 0.0793885360534532 0.320444354929662 0 0 0.123991687543483 0.234237649842257 0 0 0.148417143184649 0.954281674151747 0 0 0 0 0 0 0 0 0 0 0 0 0 0 0 -0.541866453524463 0 0 0 0 0
0 0 0 0 0.47949626640887 0.867005933427238 0.102944380047173 0.0978988942693545 0.130760357017968 0.298983744278972 0.0660028407727817 0 0 0 0 0 0 0 0 0 0 0 0 0 0 0 0 0 0 0 0 0 0 0 0 0 0 0 0 0 0 0 0 0 -4.38727300389039 0 0 0 0 0
0 0 0 0 0 0 0 0 0 0 0.118654768968121 0.201488342614382 0.267739271624444 0.848854132369007 0 0.274370261644533 0 0.161869305627956 0 0 0.192279378591228 0.0319380148445413 0.164587114749 0.257310148692543 0.0525107974493638 0.19215007110652 0 0 0 0 0 0 0 0 0 0 0 0 0 0 0 0 0 0 -0.441085221625957 0 0 0 0 0
0 0 0 0 0 0 0 0 0 0 0 0 0 0 0 0 0 0 0 0 0 0 0 0 0 0 0 0 0 0 0 0 0 0.0251971035797971 0 0 0 0 0 0 0 0 0 0 -1.20059925135215 0 0 0 0 0
0 0 0 0 0 0 0 0 0 0 0 0 0 0 0 0 0 0 0 0 0 0 0 0 0 0 0 0 0 0 0 0 0 0 0 0 0 0 0 0 0 0 0 0 -0.443213211140778 0 0 0 0 0
0 0 0 0 0 0 0 0 0 0 0 0 0 0 0 0 0 0 0 0 0 0 0 0 0 0 0 0 0 0 0 0 0 0 0 0 0 0.262783311615364 0 0.107742651620537 0.865946441156977 0.0813995151974472 0.262619214753672 0.0782235892801497 0 0.100679055682901 0 0.091423202749138 0 0
0 0 0 0 0 0 0 0 0 0 0 0 0 0 0 0 0 0 0 0 0 0 0 0 0 0 0 0 0 0 0 0 0 0.118020600269844 0.210416625013112 0 0.0453644525202332 0 0 0 0 0 0 0 -0.525601980337141 0 0 0 0 0
0 0 0 0 0 0 0 0 0 0 0 0 0 0 0 0 0 0 0 0 0 0 0 0 0 0 0 0 0 0 0 0 0 0 0.0235437408338016 0.316076920546405 0.131238098915962 0 0 0 0 0 0 0 0 0 0 0 0 0
0 0 0 0 0 0 0 0 0 0 0 0 0 0 0 0 0 0 0 0 0 0 0 0 0.0934827414177979 0.253431661714529 0.107754689062157 0 0.0970374825679114 0.223824182673964 0.0989849347408959 0.203873846914102 0.420520731364584 0 0 0 0 0 0 0 0 0 0 0 -0.455971982846549 0 0 0 0 0
0 0 0 0 0 0 0 0 0 0 0 0 0 0 0 0 0 0 0.288284205419024 0.0808673457389203 0.595758038649267 0 0.453727422123729 0.135612131494016 0 0 0 0 0 0 0 0 0 0 0 0 0 0 0 0 0 0 0 0 0 0 0 0 0 0
0 0 0 0 0 0 0 0 0 0 0 0 0 0 0 0 0 0 0 0 0 0 0 0 0 0.308625399474978 0.117997430254763 0.0718940377121638 0.634050450560472 0.125655062182324 0 0 0 0 0 0 0 0 0 0 0 0 0 0 0 0 0 0 0 0
