0 0 0 0 0 0 0 0 0 0 0 0 0 0 0 0 0 0 0 0 0 0 0 0 0 -0.621426565754518 0 0 0 0 0 0 0 0 0 0 -1.05760349022084 0 0 0 0 0 0 0 0 0 0 0 0 0
0 0 0 0 0 0 0 0 0 0 0 0 0 0 0 0 0 0 0 0 0 0 0 0 0 -1.13573430792445 0 0 0 0 0 0 0 0 0 0 -1.23251398479784 0 0 0 0 0 0 0 0 0 0 0 0 0
0 0 0 0 0 0 0 0 0 0 0 0 0 0 0 0 0 0 0 0 0 -0.485158938771089 0 0 0 -0.200898991846802 0 0 0 0 0 0 0 0 0 0 0 0 0 0 0 0 0 0 0 0 0 0 0 0
0 0 0 0 0 -0.314239218752604 0 0 0 0 0 0 0 0 0 0 0 0 0 0 0 -1.84332520401064 0 0 0 0 -1.47146177672757 0 0 -0.914402646580729 0 0 0 0 0 0 0 0 0 0 0 0 0 0 0 0 0 0 0 0
0 0 0 0 0 0 0 -0.602055312433167 -0.593267197126435 0 -0.344894275289014 0 0 0 0 0 0 0 0 0 0 -0.301004089514031 0 0 0 0 -1.44239344788798 0 0 -0.108349291446713 0 0 0 0 0 0 0 0 0 0 0 0 0 0 0 0 0 0 0 0
0 0 0 0.0618420801001725 0 0 0 0 -0.385811118347999 0 -0.96107675105512 -7.30450339161527 0 0 0 0 -1.14818114897172 0 0 0 0 -0.230741661684214 0 0 0 0 -1.3787963671204 0 0 -3.3537500729131 0 0 0 0 0 0 0 0 0 -0.408046846652978 0 0 0 0 0 0 0 0 0 0
0 0 0 0 0 0 0 0 0 0 0 -3.66231037036761 0 0 0 0 -0.345966836765554 0 0 0 0 -0.718945990400354 0 0 0 0 -1.07059498491422 0 0 0 0 0 0 0 0 0 0 0 0 -4.8832360795779 0 0 0 0 0 0 0 0 0 0
0 0 0 0 0.121266072659223 0 0 0 0 0 -1.95718167643925 0 0 0 0 0 -0.805455096133497 0 0 0 0 0 0 0 0 0 -2.55239351409762 0 0 -0.285121032218834 0 0 0 0 0 -4.87803194906327 0 0 0 0 0 0 0 0 0 0 0 0 0 0
0 0 0 0 0.111902405653616 0.078559328932648 0 0 0 0 -0.524953985822307 0 0 0 0 0 0 0 0 -0.618788570587075 0 0 0 0 0 0 -1.5372793870669 0 0 0 0 0 0 0 0 -0.0347288236448656 0 0 0 -1.27386640210428 0 0 0 0 0 0 0 0 0 0
0 0 0 0 0 0 0 0 0 0 0 0 0 0 0 0 -2.69172325620716 0 -2.21949457758412 -0.777400154086814 0 0 0 0 0 0 0 0 0 0 0 0 0 0 0 -0.147616964528405 0 0 0 0 0 0 0 0 0 0 0 0 0 0
0 0 0 0 0.0720765795875199 0.204056844046422 0 0.386310150640455 0.104896645423247 0 0 0 0 0 0 0 0 0 -0.327769011468512 0 -0.396781741900894 0 0 0 0 0 -0.315448259802408 0 0 0 0 0 0 0 0 -0.46189434501687 0 0 0 -0.390098080343381 0 0 0 0 0 0 0 0 0 0
0 0 0 0 0 1.41021617908346 0.743755429978354 0 0 0 0 0 0 0 0 0 0 0 -1.29170692804658 0 -3.6774508288614 0 0 0 0 0 0 0 0 0 0 0 -1.67567838841426 0 0 0 0 0 0 -1.07126737004927 0 0 0 0 0 0 0 0 0 0
0 0 0 0 0 0 0 0 0 0 0 0 0 0 0 0 0 0 -2.63107594844286 0 -0.67965583403794 0 0 0 0 0 0 0 0 0 0 0 0 0 0 0 0 0 0 -2.55072189204571 0 -0.592305720995522 0 0 0 0 0 0 0 0
0 0 0 0 0 0 0 0 0 0 0 0 0 0 -1.96953303364134 0 0 0 0 0 0 0 0 0 -2.02426622518811 0 -1.09269439488658 0 0 0 -2.48133905233157 0 0 0 0 -0.384735681043017 0 0 0 0 0 -1.26755495992292 0 0 0 0 0 0 0 0
0 0 0 0 0 0 0 0 0 0 0 0 0 0.3918195394508 0 -2.2660723863172 0 0 0 0 0 0 0 0 0 0 -1.04580963790351 0 0 0 -4.05112513914337 0 0 0 -0.374142150817166 0 0 0 0 0 0 0 0 0 -3.97149714149555 -0.85159836981332 0 0 0 0
0 0 0 0 0 0 0 0 0 0 0 0 0 0 0.427076289295681 0 0 -0.397372461236701 0 0 0 0 0 0 0 0 0 0 0 0 -3.37939838445217 0 0 0 -1.14832768446578 0 0 0 0 0 0 0 0 0 0 0 0 0 0 0
0 0 0 0 0 0.236310647751955 0.070727333589655 0.158706508688302 0 0.501632568844222 0 0 0 0 0 0 0 0 0 0 0 0 -1.72411976510162 0 0 0 0 0 0 0 0 -0.348207017017388 0 0 0 0 0 0 0 0 0 0 0 0 0 -0.235443000000446 0 0 -0.671162937095278 0
0 0 0 0 0 0 0 0 0 0 0 0 0 0 0 0.0815807589307582 0 0 0 0 0 0 -1.07548885590277 0 0 0 0 0 0 0 0 0 0 0 -0.995590982248249 0 0 0 0 0 0 0 0 0 -0.294324447500246 0 0 0 0 0
0 0 0 0 0 0 0 0 0 0.444876627460129 0.0633281272153625 0.255634846706976 0.540700966603355 0 0 0 0 0 0 0 0 0 -0.142646314719926 0 0 0 0 0 0 0 0 -0.66696898483835 0 0 0 0 0 0 0 0 0 0 0 0 -4.57569449749941 0 0 0 -3.69448453212129 0
0 0 0 0 0 0 0 0 0.127109840308629 0.161121640735631 0 0 0 0 0 0 0 0 0 0 0 0 -1.67859876570815 -2.10921114444132 0 0 0 0 0 0 0 -5.9908900832646 0 0 -2.89816385097519 0 0 0 0 0 0 0 0 -1.59113117669085 -2.53178175390274 0 0 0 -9.23341807014454 0
0 0 0 0 0 0 0 0 0 0 0.088688453391554 0.782718188158174 0.131030688111528 0 0 0 0 0 0 0 0 0 0 0 0 0 0 -1.20078619666917 0 0 0 -0.816871408511557 0 0 0 0 0 0 0 0 0 0 0 -0.876144131941538 -1.54523397032889 0 0 0 0 0
0 0 0.0977668997031285 0.373887213226203 0.0591969541447434 0.0474620071952115 0.143563603334337 0 0 0 0 0 0 0 0 0 0 0 0 0 0 0 0 -1.77928787847092 0 0 0 -0.949805733557744 0 0 0 -0.459234791905312 0 0 -0.478462700953135 0 0 0 0 0 0 0 0 -1.59107124146316 -2.93088505049165 0 0 0 0 0
0 0 0 0 0 0 0 0 0 0 0 0 0 0 0 0 0.321906702601599 0.215337166674282 0.02977042331835 0.334680759926584 0 0 0 0 0 0 0 0 0 0 0 -0.216944595563051 0 0 -2.77561856029845 0 0 0 0 0 0 0 0 -1.96603116984688 -1.41016767145467 0 0 0 0 0
0 0 0 0 0 0 0 0 0 0 0 0 0 0 0 0 0 0 0 0.37296445820471 0 0.375774211666956 0 0 0 0.152423358864398 0 -0.843908067923986 0 0 0 0 0 0 -0.272051919909957 0 0 0 0 0 0 0 0 -3.67181302212309 -1.30801887230023 0 0 0 0 0
0 0 0 0 0 0 0 0 0 0 0 0 0 0.397528130702177 0 0 0 0 0 0 0 0 0 0 0 0 0 0 -3.01161849157327 0 0 0 0 0 -5.28025299302065 0 0 0 0 0 0 0 0 0 0 0 0 0 0 0
0.118720107138899 0.234224492898816 0.0387361506910357 0 0 0 0 0 0 0 0 0 0 0 0 0 0 0 0 0 0 0 0 -0.768717168739189 0 0 0 0 0 0 0 0 0 0 0 0 0 0 0 0 0 0 0 0 -0.225412361847197 0 0 0 0 0
0 0 0 0.292800857239822 0.272505856545629 0.269786204203935 0.213480633501989 0.504767050357185 0.315169610309312 0 0.0632290704826403 0 0 0.20776940305356 0.209538693177159 0 0 0 0 0 0 0 0 0 0 0 0 0 -1.3184875496863 0 0 0 0 0 0 0 0 0 0 0 0 0 0 -2.72088484455099 -0.350667061617698 0 0 0 0 0
0 0 0 0 0 0 0 0 0 0 0 0 0 0 0 0 0 0 0 0 0.243791211654871 0.182648989843866 0 0.171366412416877 0 0 0 0 -1.67811346053676 0 0 0 0 0 -1.66191994780033 0 0 0 0 0 0 0 0 -1.79794394838929 -1.18716665752599 0 0 0 0 0
0 0 0 0 0 0 0 0 0 0 0 0 0 0 0 0 0 0 0 0 0 0 0 0 0.624239973278742 0 0.257670846550711 0.320247810410138 0 0 0 0 0 0 0 0 0 0 0 0 0 0 0 0 0 0 0 0 0 0
0 0 0 0.190694365119627 0.0210873647959314 0.719554530454947 0 0.0543621681095327 0 0 0 0 0 0 0 0 0 0 0 0 0 0 0 0 0 0 0 0 0 0 0 0 0 0 0 0 0 0 0 0 0 0 -1.19195192844403 0 -0.816395904409863 0 0 0 0 0
0 0 0 0 0 0 0 0 0 0 0 0 0 0.514923680292473 0.79108243967415 0.641662615538271 0 0 0 0 0 0 0 0 0 0 0 0 0 0 0 0 0 0 0 0 0 0 0 0 0 0 -3.34035625225497 -0.845969759891301 0 0 0 0 0 -0.758358868031415
0 0 0 0 0 0 0 0 0 0 0 0 0 0 0 0 0.0688317165938407 0 0.147545614812373 1.26533145905934 0.163360849687395 0.0893949799633956 0.0473587507834373 0 0 0 0 0 0 0 0 0 0 0 0 0 0 0 0 0 0 0 0 0 -0.763427459542525 0 0 0 0 -1.22488427004444
0 0 0 0 0 0 0 0 0 0 0 0.326254561703387 0 0 0 0 0 0 0 0 0 0 0 0 0 0 0 0 0 0 0 0 0 0 0 0 0 0 0 0 0 0 0 -1.33221570673575 0 0 0 0 0 0
0 0 0 0 0 0 0 0 0 0 0 0 0 0 0 0 0 0 0 0 0 0 0 0 0 0 0 0 0 0 0 0 0 0 0 0 0 0 0 0 0 0 0 0 0 0 0 -0.444629172463882 0 0
0 0 0 0 0 0 0 0 0 0 0 0 0 0 0.0732239953756299 0.229569347550994 0 0.203873135543152 0 0.559400902767037 0 0.0989123698787955 0.587150162534707 0.0530743246406171 0.999389826890648 0 0 0.30203240478231 0 0 0 0 0 0 0 0 0 0 0 0 0 0 0 0 0 0 -0.811248115574496 -1.28839153657836 0 0
0 0 0 0 0 0 0 0.962647953055116 0.0057073908605647 0.0308937160039496 0.0952475641370332 0 0 0.0723861436888666 0 0 0 0 0 0 0 0 0 0 0 0 0 0 0 0 0 0 0 0 0 0 0 0 0 0 -1.44095869860511 0 0 0 0 0 -0.87343633438728 0 0 0
0.221180184357146 0.262442453213583 0 0 0 0 0 0 0 0 0 0 0 0 0 0 0 0 0 0 0 0 0 0 0 0 0 0 0 0 0 0 0 0 0 0 0 0 -1.86847076764083 0 0 0 0 0 0 0 0 0 0 0
0 0 0 0 0 0 0 0 0 0 0 0 0 0 0 0 0 0 0 0 0 0 0 0 0 0 0 0 0 0 0 0 0 0 0 0 0 0 -0.714396374969315 0 0 0 0 0 0 0 0 0 0 0
0 0 0 0 0 0 0 0 0 0 0 0 0 0 0 0 0 0 0 0 0 0 0 0 0 0 0 0 0 0 0 0 0 0 0 0 0.369968629317915 0.138410882766458 0 0 -1.51979411059235 0 0 0 0 0 0 0 0 0
0 0 0 0 0 0.0872977966920812 0.981918927508235 0 0.245078744212884 0 0.076343577771874 0.206861910741784 0.508489956089245 0 0 0 0 0 0 0 0 0 0 0 0 0 0 0 0 0 0 0 0 0 0 0 0 0 0 0 -0.358167620747507 0 0 0 0 0 0 0 0 0
0 0 0 0 0 0 0 0 0 0 0 0 0 0 0 0 0 0 0 0 0 0 0 0 0 0 0 0 0 0 0 0 0 0 0 0.294842846226746 0 0 0.32120182609334 0.0666783772996977 0 0 0 0 0 0 0 0 0 0
0 0 0 0 0 0 0 0 0 0 0 0 0.116591958927314 0.250430805869354 0 0 0 0 0 0 0 0 0 0 0 0 0 0 0 0 0 0 0 0 0 0 0 0 0 0 0 0 0 0 0 0 0 0 0 0
0 0 0 0 0 0 0 0 0 0 0 0 0 0 0 0 0 0 0 0 0 0 0 0 0 0 0 0 0 0.243179405682496 0.659843776199796 0 0 0 0 0 0 0 0 0 0 0 0 0 0 0 0 0 0 0
0 0 0 0 0 0 0 0 0 0 0 0 0 0 0 0 0 0 0 0.322976004958796 0.16727051764873 0.339419205479728 0.420442513545074 0.779355299021992 0 0 0.535065044782531 0.355109248378004 0 0 0.165751820733975 0 0.266854471430634 0 0 0 0 0 0 0 0 0 0 0 0 0 0 0 0 0
0 0 0 0 0 0 0 0 0 0 0 0 0 0 0.764765960472845 0 0 0.0589777946093181 0.947356517957594 0.496213059977682 0.298017251126479 0.582551943329973 0.291851001746085 0.28359084840713 0 0.0464386669439469 0.0740379299575709 0.235874601688869 0 0.163060554251567 0 0.158632733287694 0 0 0 0 0 0 0 0 0 0 0 0 0 0 0 0 0 0
0 0 0 0 0 0 0 0 0 0 0 0 0 0 0.169603381096783 0 0.0476068368434738 0 0 0 0 0 0 0 0 0 0 0 0 0 0 0 0 0 0 0 0 0 0 0 0 0 0 0 0 0 0 0 0 0
0 0 0 0 0 0 0 0 0 0 0 0 0 0 0 0 0 0 0 0 0 0 0 0 0 0 0 0 0 0 0 0 0 0 0.161109521910973 0.16675901917681 0 0 0 0 0 0 0 0 0 0 0 0 0 0
0 0 0 0 0 0 0 0 0 0 0 0 0 0 0 0 0 0 0 0 0 0 0 0 0 0 0 0 0 0 0 0 0 0.0915427338213228 0.256103254964572 0 0 0 0 0 0 0 0 0 0 0 0 0 0 0
0 0 0 0 0 0 0 0 0 0 0 0 0 0 0 0 0.13319290809978 0 0.737342270899934 1.86181322946758 0 0 0 0 0 0 0 0 0 0 0 0 0 0 0 0 0 0 0 0 0 0 0 0 0 0 0 0 0 0
0 0 0 0 0 0 0 0 0 0 0 0 0 0 0 0 0 0 0 0 0 0 0 0 0 0 0 0 0 0 0.158570586759693 0.250062993393342 0 0 0 0 0 0 0 0 0 0 0 0 0 0 0 0 0 0
