1.84792404255065
0.273797118832467
0.140953245303098
0.129626316169009
0.566545477534486
0.628246562305557
0.322260124959016
1.18098651789143
1.11176770677994
1.63168739326888
3.46374072435198
0.297649038937234
1.07274864089701
1.97815906685978
1.45471913143727
1.48126266687609
0.913120217058839
0.687525516946092
1.73654709966777
0.174644147292931
2.29920018905598
5.30107299003773
1.68186008185529
1.20315326159066
0.931101905187175
0.735636631143419
0.303917148792599
0.905133436229409
0.29257490134994
0.412490596308801
0.148673641785349
1.21304545359456
0.141042554765008
3.17271147403775
4.64925490803434
1.60725145013675
2.27082168443376
1.16844633121475
0.1235812907645
0.972048637561408
1.28832586076453
0.600247517195084
6.39318549664126
1.71756317466338
2.7335673939079
3.10998147777759
1.1939043912495
0.655804929089463
1.10060546293776
2.46524388543254
