0 0 0 0 0 0 0 0 0 0 0 0 0 0 0 0 0 0 0 0 0 0 0 0 0 0 0 0 0 0 0 0 -1.38706781859347 0 0 0 0 0 0 0 0 0 0 0 0 0 0 0 0 0
0 0 0 0 0 -0.851476451753748 0 0 0 0 0 0 0 0 0 0 0 0 0 0 0 0 0 0 0 0 0 0 -0.503360567983486 0 0 0 -2.28623845149178 0 0 0 0 0 -0.111263488362779 0 0 0 0 0 0 0 0 0 0 0
0 0 0 0 0 0 0 -2.14580561886109 0 0 0 0 0 0 0 0 0 -1.00292713218311 0 0 0 0 0 0 0 0 0 0 0 0 0 0 0 0 0 0 0 0 -4.50026128145092 0 0 0 0 0 0 0 0 0 0 0
0 0 0 0 0 0 0 0 -0.458013225526068 0 0 0 0 0 0 0 0 0 0 0 0 0 -0.937000678979573 0 0 0 0 0 0 0 0 -1.58659094457848 -0.605470323233323 0 0 0 0 0 -0.538268167888075 0 0 0 0 0 0 0 0 0 0 0
0 0 0 0 0 0 0 0 0 0 0 0 -0.647365086696138 0 0 0 -2.43619549014395 0 0 0 0 0 -0.21598438478034 0 0 0 0 0 -0.684413016689379 0 0 -0.53028446174226 -4.25041078044204 0 0 0 0 0 -0.662070286961089 0 0 0 0 0 0 0 0 0 0 0
0 0.196797521338792 0 0 0 0 0 0 -0.285859796639923 0 0 0 0 -2.18983766741964 0 0 -1.09793524905864 0 0 0 0 0 -1.65323792162101 0 0 0 0 0 0 0 0 0 -0.485883311846751 0 0 0 0 0 0 0 0 0 0 0 0 0 0 0 0 0
0 0 0 0 0 0 0 0 0 -0.368141305777648 0 0 0 -1.34658275379873 0 0 -0.676636488087871 0 -1.14425284723108 0 0 0 -0.250439004546559 0 0 0 0 0 0 0 0 -1.2080084606773 0 0 0 0 0 0 0 0 0 0 0 0 0 0 0 0 0 0
0 0 0.415718458788599 0 0 0 0 0 0 -1.18606376567888 0 0 0 -0.369813315214136 -0.978272297002151 0 0 0 0 0 0 0 0 0 0 0 0 0 0 0 0 -2.02516561431419 0 0 0 0 0 0 -0.236219301103166 0 0 0 0 0 0 0 0 0 0 0
0 0 0 0.0901658999628042 0 0.0591520185458372 0 0 0 0 0 0 0 0 -1.00030006445513 0 0 0 -1.73712628107099 0 0 0 -0.304953343448921 0 0 0 0 0 0 0 0 -2.25910680512589 0 0 0 0 0 0 -2.44123146601231 0 0 0 0 0 0 0 0 0 0 0
0 0 0 0 0 0 0.0779919337012321 0.235735503032686 0 0 -0.273428943824184 0 0 0 -0.483353449280752 0 0 0 0 0 0 0 0 0 0 0 0 0 0 0 -0.504738043309985 0 0 0 0 0 0 0 0 0 0 0 0 0 0 0 0 0 0 0
0 0 0 0 0 0 0 0 0 0.0557525898924979 0 0 0 0 0 -2.94911268550999 0 0 -2.0176062905967 0 0 0 0 0 0 0 0 0 0 0 -1.12723785879764 0 0 0 0 0 0 0 0 0 0 0 0 0 0 0 0 0 0 -2.162255804988
0 0 0 0 0 0 0 0 0 0 0 0 0 0 0 0 0 0 -0.269143118381456 0 0 0 0 0 0 0 0 0 0 0 -0.560417409847061 0 0 0 -4.54242895239396 0 0 0 0 0 0 0 0 -3.47126940822018 0 0 0 0 0 -0.397185031998691
0 0 0 0 0.128628342290049 0 0 0 0 0 0 0 0 0 0 0 0 0 -0.854486236023308 0 0 0 0 0 0 0 0 0 0 0 -0.448261866378163 0 0 0 0 0 0 0 0 0 0 0 0 -1.90841293397844 0 0 0 0 0 0
0 0 0 0 0 0.447295662455738 0.282254039217696 0.0735345501302498 0 0 0 0 0 0 0 0 0 0 -0.741071225050302 0 0 0 0 0 0 0 0 0 0 0 0 0 0 -1.00157206336585 -0.459862067319034 0 0 0 0 0 0 0 0 -1.10040494630998 0 0 0 0 0 0
0 0 0 0 0 0 0 0.183336991297005 0.187370875348585 0.0920480288213781 0 0 0 0 0 0 0 0 -4.31330109760954 0 0 0 0 0 0 0 0 0 0 0 0 0 0 -0.696213235645576 0 0 0 0 0 0 0 0 0 -0.283677904723606 0 0 0 0 0 0
0 0 0 0 0 0 0 0 0 0 0.564650207365909 0 0 0 0 0 0 0 -1.02143763143896 0 0 0 0 0 -0.677940780019225 0 0 0 0 0 0 0 0 0 -1.48091307193687 0 0 0 0 0 0 0 0 0 0 0 0 0 0 -0.153920911701881
0 0 0 0 0.45430437039347 0.208588696090237 0.134258469341166 0 0 0 0 0 0 0 0 0 0 0 0 0 0 0 0 0 -0.892503327783568 -10.2216406900562 0 0 0 0 0 0 0 0 -2.71276149144114 0 0 0 0 0 0 0 0 0 0 0 0 0 0 0
0 0 0.187932313942428 0 0 0 0 0 0 0 0 0 0 0 0 0 0 0 0 -3.00688213975605 0 0 0 0 0 -2.54171396902216 0 0 0 0 0 0 0 0 -1.07916929065072 0 0 0 0 0 0 -0.407949091909421 -9.88424467004607 0 0 0 0 0 0 0
0 0 0 0 0 0 0.233967897792941 0 0.324654797120615 0 0.422667688665431 0.0521734396066396 0.166865703009767 0.152594752836333 0.800250478487718 0.190469768358656 0 0 0 0 -0.297375416909586 0 0 0 -4.95187884141226 0 0 0 0 0 0 0 0 0 0 0 0 0 0 0 0 -1.18989291692114 -1.05519306687068 0 0 0 0 -0.929411367213682 0 -2.74023353443542
0 0 0 0 0 0 0 0 0 0 0 0 0 0 0 0 0 0.543374262461832 0 0 -1.25692892295554 0 0 0 0 -0.677761110913428 0 0 0 0 0 0 0 0 -2.76074646209188 0 0 0 0 0 0 0 -3.51666950988379 0 0 0 0 -0.427512369992401 0 -1.65821413584472
0 0 0 0 0 0 0 0 0 0 0 0 0 0 0 0 0 0 0.0544560512370914 0.235651275730394 0 0 0 0 0 0 0 -2.11085980196942 0 0 0 0 0 0 0 0 -4.37897652347084 -0.602598477329003 0 0 0 0 0 0 0 0 0 0 0 -1.81359382321148
0 0 0 0 0 0 0 0 0 0 0 0 0 0 0 0 0 0 0 0 0 0 0 0 0 0 0 -4.24362431911466 0 0 0 0 0 0 0 0 -0.373836921711597 -0.284791715857941 0 0 0 0 -0.533228038490189 0 0 0 0 0 0 0
0 0 0 0.200098954643637 0.043450911444403 0.319248675852695 0.0485630531450806 0 0.0595470245012824 0 0 0 0 0 0 0 0 0 0 0 0 0 0 0 0 0 0 0 0 0 0 0 0 0 0 0 0 0 0 0 0 -0.487483256218455 0 0 0 0 0 0 0 -2.23145016096885
0 0 0 0 0 0 0 0 0 0 0 0 0 0 0 0 0 0 0 0 0 0 0 0 0 0 0 0 0 0 0 0 0 0 0 0 -0.200526201593227 -0.398387184619783 0 0 0 0 0 0 0 0 0 0 0 -0.597197111597528
0 0 0 0 0 0 0 0 0 0 0 0 0 0 0 0.119712306894369 0.169848966545676 0 1.00169543141986 0 0 0 0 0 0 0 0 0 0 0 0 0 0 0 0 0 0 0 0 0 0 -1.56207745938852 0 0 0 0 0 0 0 -0.439119027525829
0 0 0 0 0 0 0 0 0 0 0 0 0 0 0 0 2.14990603730261 0.491340581263766 0 0.13534536272349 0 0 0 0 0 0 0 0 0 0 0 0 0 0 0 0 -6.4983502343954 -0.28714475264819 0 0 0 -0.753286815289709 0 0 0 0 0 0 0 -2.23757462932131
0 0 0 0 0 0 0 0 0 0 0 0 0 0 0 0 0 0 0 0 0 0 0 0 0 0 0 0 0 0 0 0 0 0 0 0 -0.490950878242931 0 0 0 0 -2.18410875939619 0 0 0 0 0 0 0 -0.324316946474535
0 0 0 0 0 0 0 0 0 0 0 0 0 0 0 0 0 0 0 0 0.443318378070259 0.780889722946635 0 0 0 0 0 0 0 0 0 0 0 0 0 0 -1.42397224661304 0 0 0 0 -2.33334619320045 0 0 0 0 0 0 0 0
0 0.105608416970393 0 0 0.124228464042861 0 0 0 0 0 0 0 0 0 0 0 0 0 0 0 0 0 0 0 0 0 0 0 0 0 0 0 0 0 0 0 -0.80386472250778 -4.15998991269033 0 0 0 0 0 0 0 0 0 0 0 -3.47615093042583
0 0 0 0 0 0 0 0 0 0 0 0 0 0 0 0 0 0 0 0 0 0 0 0 0 0 0 0 0 0 0 0 0 0 0 0 -1.18247983809376 0 0 0 0 0 0 0 0 0 0 0 0 0
0 0 0 0 0 0 0 0 0 0.0917786335901369 0.237679902901742 0.113395971956941 0.0902898425671901 0 0 0 0 0 0 0 0 0 0 0 0 0 0 0 0 0 0 0 0 0 0 0 -1.07823701238218 0 0 0 0 0 0 0 0 0 0 0 0 0
0 0 0 0.306407216908398 0.104957656676322 0 0.256011745632783 0.453203780181174 0.465707969660199 0 0 0 0 0 0 0 0 0 0 0 0 0 0 0 0 0 0 0 0 0 0 0 0 0 0 0 -1.07546474888925 -0.283635034917275 0 0 0 0 0 0 0 0 0 0 0 -0.908015352168705
0.284335834374829 0.444770929974067 0 0.128026346483479 0.86258443662146 0.0989019483693954 0 0 0 0 0 0 0 0 0 0 0 0 0 0 0 0 0 0 0 0 0 0 0 0 0 0 0 0 0 0 -0.62584717528543 0 0 0 0 0 0 0 0 0 0 0 0 -1.08297973366766
0 0 0 0 0 0 0 0 0 0 0 0 0 0.206840314739714 0.13387922434721 0 0 0 0 0 0 0 0 0 0 0 0 0 0 0 0 0 0 0 0 0 -0.278825588271579 -1.16094272491047 0 0 0 0 0 0 0 0 0 0 0 -6.17526689889594
0 0 0 0 0 0 0 0 0 0 0 0.896604438094225 0 0.104260114691561 0 0.314114752629678 0.525717536589235 0.220072609111668 0 0.532212248517083 0 0 0 0 0 0 0 0 0 0 0 0 0 0 0 0 -0.221371480120018 0 0 0 0 0 0 0 0 0 0 0 0 -0.599592050750773
0 0 0 0 0 0 0 0 0 0 0 0 0 0 0 0 0 0 0 0 0 0 0 0 0 0 0 0 0 0 0 0 0 0 0 0 -0.658639226548627 0 0 0 0 0 0 0 0 0 0 0 0 0
0 0 0 0 0 0 0 0 0 0 0 0 0 0 0 0 0 0 0 0 0.853848575284721 0.0753523191741949 0 0.039059528707222 0 1.29349507221571 0.093549105042809 0.296100635454543 0.165099658594898 0.231814752617628 0.216857192257206 0.2024189079544 0.126782853213937 0.0526829892050859 0.0445747572770307 0.138565276729261 0 0 0.247732179663543 0 0 0 0 0 -0.282121891580951 0 0 0 0 -1.71981211631692
0 0 0 0 0 0 0 0 0 0 0 0 0 0 0 0 0 0 0 0 0.119492020951285 0.0608837200747585 0 0.0801305609962188 0 0.0542608211089972 0 0 0.853240609013018 0 0 0.057257135256147 0 0.229421366955418 0 0 0 0 0 0 0 0 0 0 -1.86181262903455 0 0 0 0 0
0 0.0209355217679368 0.951081975229946 0.114539132174063 0.141661884385121 0 0 0.0405951267159216 0.522937431953333 0 0 0 0 0 0 0 0 0 0 0 0 0 0 0 0 0 0 0 0 0 0 0 0 0 0 0 -1.20846477630445 0 0 0 0 0 0 0 0 0 0 0 0 0
0 0 0 0 0 0 0 0 0 0 0 0 0 0 0 0 0 0 0 0 0 0 0 0 0 0 0 0 0 0 0 0 0 0 0 0 0 0 0 0 0 0 0 0 -0.220126585682764 0 0 0 0 0
0 0 0 0 0 0 0 0 0 0 0 0 0 0 0 0 0 0 0 0 0 0 0 0 0 0 0 0 0 0 0 0 0 0 0 0 0 0 0 0 0 0 0 0 -0.32995749247363 0 0 0 0 0
0 0 0 0 0 0 0 0 0 0 0 0 0 0 0 0 0 0.0797139618423479 0.22273330198875 0 0 0 0.0966873947535046 0 0.307357677241622 0.162621850240442 0.385173584311799 0.496388861842972 0 0 0 0 0 0 0 0 0 0 0 0 0 0 0 0 -1.16583536957427 0 0 0 0 0
0 0 0 0 0 0 0 0 0 0 0 0 0 0 0 0 0 1.89508209774074 0.208442592149212 0.671611575709887 0 0.1062156665667 0 0 0 0 0 0 0 0 0 0 0 0 0 0 0 0 0 0 0 0 0 0 -1.17694329589432 0 0 0 -0.939818390032874 0
0 0 0 0 0 0 0 0 0 0 0 0.678928967481011 0.363988806833183 0.192747159024014 0.0593863582641503 0 0 0 0 0 0 0 0 0 0 0 0 0 0 0 0 0 0 0 0 0 0 0 0 0 0 0 0 0 0 0 0 0 0 0
0 0 0 0 0 0 0 0 0 0 0 0 0 0 0 0 0 0 0 0 0 0 0 0 0 0 0 0 0 0 0 0 0 0 0 0 0.0523719804165908 0.335726420292126 0 0.0437652712475952 0.0612663449053611 0.252282451819229 0.239501209875523 0 0 -2.73028580871863 0 0 0 0
0 0 0 0 0 0 0 0 0 0 0 0 0 0 0 0 0 0 0 0 0 0 0 0 0 0 0 0 0 0 0 0 0 0 0 0 0 0 0 0 0 0 0 0 0.533477547602856 0 0.258642696028331 0 0 0
0 0 0 0 0 0 0 0 0 0 0 0 0 0 0 0 0 0 0 0 0 0 0 0 0 0 0 0 0 0 0 0 0 0 0 0 0 0 0 0 0 0 0 0 0 -1.2051657340162 0 0 0 0
0 0 0 0 0 0 0 0 0 0 0 0 0 0 0 0 0 0 0.204383908663591 0.0916492394853834 0 0 0 0 0 0 0 0 0 0 0 0 0 0 0 0 0 0 0 0 0 0 0 0 0 0 0 0 0 0
0 0 0 0 0 0 0 0 0 0 0 0 0 0 0 0 0 0 0 0 0 0 0 0 0 0 0 0 0 0 0 0 0 0 0 0 0 0 0 0 0 0 0.186825051403338 0 0 0 0 0 0 0
0 0 0 0 0 0 0 0 0 0 0.438490469921179 0.0808680152622234 0 0 0 0.0307076010019282 0 0 0.515443232824094 0.3202682244828 0.3882719809068 0 0.465033232006553 0.120328687329569 0.0866554679797874 0.491440637305224 0.0679354416525318 0 0.772874775243291 0 0 0.178744003036348 0.220796549182065 1.12224245455853 0.122671771498652 0 0.315295545127177 0 0 0 0 0 0 0 0 0 0 0 0 0
