0.932665553851503
2.56775740530234
0.292915655296884
0.129317578539852
1.29645117003937
1.33914866653291
0.472627702903879
1.85429908122467
0.418097784710524
1.16541346270317
0.39940613238871
0.323281928765009
0.579023316173091
0.30467628430136
2.24076093838515
0.792397190016615
0.481896688944332
0.339541756753934
0.317418444315935
0.161553124634247
0.0400767470275801
2.44296192996752
1.23256335225415
0.299633014173262
0.470473148091242
0.0471673927223484
1.54835373238745
1.50339750616388
1.20076652772952
0.366936934051573
0.404716331334759
0.264415615440482
0.347494816017223
0.301745525438476
0.719257846957617
0.0855610754153567
0.389831512827485
0.545195303386009
0.825629743376375
0.204190906249484
0.620492121486612
0.741333801681625
0.349143620623123
0.787226165725628
1.76725602227815
0.226631640488342
0.595279644095855
0.139628548197873
0.119420414300388
0.658498988726914
