0.403873935891021
0.622889158237389
1.20437313399387
0.332373712580112
0.974263350493879
0.125163770857143
0.293338897254062
0.682894730187636
2.05603846162363
0.731143503925355
0.120950864736474
0.608912564640477
0.865949225339192
0.420962297391142
0.979445684758645
0.695600145908638
0.0973219393018426
2.62278024310373
0.795039877932986
1.18685276216079
1.24107684806225
0.843025586336482
1.29666401004929
2.75026142119877
0.185935504300009
0.131688821996863
0.993635989099352
0.72287173261876
0.0246699623868314
2.46135532761101
0.70092537518155
0.152148503851235
0.829455313047233
1.19102349730935
0.658328409042604
0.0718299014188454
1.5158543227545
1.03108233866549
0.12640166072602
0.590061835277725
0.293692926095244
2.64804986549701
0.0738002117216577
0.0448944221056733
0.0621000003614276
0.284702540549551
0.475597916045526
0.651656389356944
0.139769135463498
0.503031693704736
