0 0 0 0 0 0 0 0 0 0 0 0 0 0 0 0 0 0 -0.586773343758724 0 0 0 0 0 0 0 0 0 0 0 0 0 0 0 0 0 0 0 0 0 0 0 0 0 0 0 0 0 0 0
0 0 0 0 -0.745693948154821 -2.36615839809256 0 0 0 0 0 0 0 0 0 0 0 0 0 0 0 0 0 0 0 0 0 0 0 0 0 0 0 0 0 0 0 0 0 0 0 0 0 0 0 0 0 0 0 0
0 0 0 0 0 0 0 0 0 0 -1.29142995646601 0 0 0 0 0 0 0 -0.611750514708139 0 0 0 0 0 0 0 0 0 0 0 0 0 0 0 0 0 0 0 0 0 0 0 0 0 0 0 0 0 -0.379095853029323 0
0 0 0 0 0 0 0 0 -0.508166602109884 0 -4.6641698269599 0 0 0 0 0 0 0 -0.174020383158823 0 0 0 0 0 0 0 0 0 0 0 0 0 0 0 0 0 0 0 0 0 0 0 0 0 0 0 0 0 0 0
0 0.157995772118626 0 0 0 0 0 0 0 0 -1.19158191564034 0 0 0 0 0 0 0 0 0 0 0 0 0 0 -1.2536569644104 0 0 0 -0.933551583092196 0 0 0 0 0 0 0 0 0 0 0 0 0 0 0 0 0 0 -0.948099197961909 0
0 0.480998357506993 0 0 0 0 0 0 0 0 0 0 0 0 0 0 0 0 -0.881979268263826 0 0 0 0 0 0 -2.49642622447094 0 0 0 0 0 0 0 0 0 0 0 0 0 0 0 0 0 0 0 0 0 0 -0.31751858345743 0
0 0 0 0 0 0 0 0 0 0 0 0 0 0 0 0 0 0 -1.23264285511715 0 0 0 0 -2.84307485696467 0 -0.368322721534861 0 0 0 0 0 0 0 0 0 0 0 0 0 0 0 0 0 0 0 0 0 -0.826147041851403 0 0
0 0 0 0 0 0 0 0 0 0 0 0 0 0 0 0 0 0 -1.70910607428424 0 0 0 0 0 0 -0.844653641114245 0 0 0 -1.23281550604211 0 0 0 0 0 0 0 0 0 0 0 0 0 0 0 0 0 -0.142068899131079 -0.541234204646216 0
0 0 0 0.101220027169129 0 0 0 0 0 0 0 0 0 -0.435061488715394 0 0 0 0 -2.25688123272421 0 0 0 0 -4.89007783666026 0 0 0 0 0 -1.64865005627518 0 0 0 0 0 0 0 0 0 0 0 0 0 0 0 0 0 0 -5.68723412661278 0
0 0 0 0 0 0 0 0 0 0 0 0 0 0 0 0 0 0 -10.1495442085608 0 0 0 0 0 0 -1.6719204986365 0 0 0 -1.09875897635178 0 0 0 -0.395743858645739 0 0 0 0 0 0 0 0 0 0 0 0 0 -0.489831613639234 -1.55033094138079 0
0 0 0.249232972243031 0.926079206350488 0.253573561584674 0 0 0 0 0 0 0 0 0 0 0 0 0 -0.800011311201255 0 0 0 0 -0.0937968358456061 0 0 0 0 0 0 0 0 0 -1.29003595928466 0 0 0 0 0 0 0 0 0 0 0 0 0 0 -2.97100891426862 0
0 0 0 0 0 0 0 0 0 0 0 0 -4.63499687438022 0 0 -1.18480822464874 0 0 0 0 0 0 0 -2.3603174138604 0 0 0 0 0 0 0 0 0 0 0 -1.66594614273135 0 0 0 0 0 0 0 0 0 0 0 -1.22224093049015 -0.874905870950412 0
0 0 0 0 0 0 0 0 0 0 0 0.954869414747857 0 0 0 0 0 0 0 0 0 -0.906415611381304 0 0 0 -0.801438759409816 0 0 0 0 0 0 0 0 0 0 0 0 0 0 0 0 -0.324287541320632 0 0 0 0 0 -0.925215128264016 0
0 0 0 0 0 0 0 0 0.0817672832218277 0 0 0 0 0 0 0 0 0 0 0 0 0 0 -0.0444993373996072 0 -0.438719376865678 0 0 0 0 0 0 0 0 0 0 0 0 0 0 0 0 0 0 0 0 0 0 -0.444211433580498 0
0 0 0 0 0 0 0 0 0 0 0 0 0 0 0 -0.918936259185316 0 0 0 0 0 0 0 0 0 -0.328290164585525 0 0 0 0 0 0 0 0 0 0 0 0 0 0 0 0 -0.635547204534066 0 0 0 0 0 -0.759222203608767 0
0 0 0 0 0 0 0 0 0 0 0 0.236666664136897 0 0 0.172127908337648 0 0 0 0 0 0 0 0 -7.9048705396421 0 -0.40741888802596 0 0 0 0 0 0 0 0 0 0 0 0 0 0 0 0 0 0 0 0 0 0 0 0
0 0 0 0 0 0 0 0 0 0 0 0 0 0 0 0 0 0 0 0 0 0 0 0 0 0 0 0 0 0 0 0 0 0 0 0 0 0 0 0 0 0 -1.66824863511713 0 0 0 0 0 -1.46052674423794 0
0 0 0 0 0 0 0 0 0 0 0 0 0 0 0 0 0 0 0 0 0 0 -2.01911491685829 0 0 0 0 0 0 0 0 0 0 0 0 0 0 0 0 0 0 0 0 0 0 0 0 0 0 0
0.117079732046978 0 0.125213683239324 0.0333116479440839 0 0.165966397298005 0.238937625754696 0.352306536184605 0.447049173775905 2.25830396157432 0.156671272760063 0 0 0 0 0 0 0 0 0 0 0 -1.48575774816667 0 0 0 0 0 0 0 0 0 0 0 0 0 0 0 0 0 0 0 -0.60712383238658 0 0 0 0 0 0 0
0 0 0 0 0 0 0 0 0 0 0 0 0 0 0 0 0 0 0 0 0 0 -0.507719897204783 0 0 0 0 0 0 0 0 0 0 0 -1.67935937878376 0 0 0 0 0 0 0 0 0 0 0 0 0 0 0
0 0 0 0 0 0 0 0 0 0 0 0 0 0 0 0 0 0 0 0 0 0 0 0 0 0 0 -0.831768295104316 0 0 0 0 0 0 0 0 -0.186984605375674 0 0 0 0 0 -0.902800641627007 0 0 0 0 0 0 0
0 0 0 0 0 0 0 0 0 0 0 0 0.178007614402161 0 0 0 0 0 0 0 0 0 0 0 0 0 0 0 0 0 -1.58141537453133 0 0 0 0 0 0 0 -1.19642369237632 0 0 0 -2.11813748389455 0 0 0 0 0 0 0
0 0 0 0 0 0 0 0 0 0 0 0 0 0 0 0 0 0.392312331265259 0.294750059172903 0.107591406337044 0 0 0 0 0 0 0 0 0 0 0 0 -1.61306817727911 0 0 0 0 0 -2.20320227320339 0 0 0 0 0 0 -0.363164560544485 0 0 0 0
0 0 0 0 0 0 0.606490439624811 0 0.962688019105981 0 0.0190897874601382 0.471683947503947 0 0.00926337220564339 0 1.57313333429543 0 0 0 0 0 0 0 0 0 0 0 0 0 0 0 0 -0.70543281787444 0 0 0 0 0 0 0 0 0 -1.36476214260867 0 0 -0.349974681854968 0 0 0 0
0 0 0 0 0 0 0 0 0 0 0 0 0 0 0 0 0 0 0 0 0 0 0 0 0 0 0 0 0 0 0 0 0 0 0 0 0 0 -1.79453735488335 0 0 0 -3.10608282753131 0 0 -1.0420333664078 0 0 0 0
0 0 0 0 0.257064041169309 0.492140746629085 0.0675062798510785 0.176023146209063 0 0.321697881668617 0 0 0.165061734151334 0.0882923622642064 0.0633152052747514 0.0824347093581147 0 0 0 0 0 0 0 0 0 0 0 0 0 0 0 0 -4.24483437705117 0 0 0 0 -0.266626001366385 -2.86963921924475 0 0 0 -0.670575599553171 0 0 0 0 0 0 0
0 0 0 0 0 0 0 0 0 0 0 0 0 0 0 0 0 0 0 0 0 0 0 0 0 0 0 0 0 0 0 0 0 0 0 0 0 -2.29480507689179 0 0 0 0 0 0 0 -0.142774264082055 0 0 0 0
0 0 0 0 0 0 0 0 0 0 0 0 0 0 0 0 0 0 0 0 0.155664360169636 0 0 0 0 0 0 0 0 0 0 0 0 0 0 0 0 0 0 -4.26479217750362 0 0 -0.433682261011041 0 0 -6.32160233033995 0 0 0 -2.27964741172622
0 0 0 0 0 0 0 0 0 0 0 0 0 0 0 0 0 0 0 0 0 0 0 0 0 0 0 0 0 0 0 0 0 0 0 0 0 0 0 0 0 0 0 0 0 0 0 0 0 -0.621908139193048
0 0 0 0 0.190797275070725 0 0 0.25080282745162 0.348009616145277 0.223885495491661 0 0 0 0 0 0 0 0 0 0 0 0 0 0 0 0 0 0 0 0 0 -1.08197883980285 0 0 0 0 0 0 0 0 0 0 0 0 0 0 0 0 0 0
0 0 0 0 0 0 0 0 0 0 0 0 0 0 0 0 0 0 0 0 0 0.329794826040762 0 0 0 0 0 0 0 0 0 -0.549314155818569 0 0 0 0 0 0 0 0 0 0 0 0 0 0 0 0 0 -3.15787838949988
0 0 0 0 0 0 0 0 0 0 0 0 0 0 0 0 0 0 0 0 0 0 0 0 0 0 0 0 0 0.230058489522397 0.0997515637746955 0 0 0 0 0 0 0 0 0 0 0 0 0 0 0 0 0 0 0
0 0 0 0 0 0 0 0 0 0 0 0 0 0 0 0 0 0 0 0 0 0 0.313396535208369 0.140240999557197 0 0.836375876673651 0 0 0 0 0 0 0 0 0 0 0 0 0 0 0 0 0 0 0 0 0 0 0 -0.455018993763768
0 0 0 0 0 0 0 0 0 0.0737462288492162 0.253560261919141 0 0 0 0 0 0 0 0 0 0 0 0 0 0 0 0 0 0 0 0 0 0 0 0 0 0 0 0 0 0 0 0 0 0 0 0 0 0 -4.00050724854036
0 0 0 0 0 0 0 0 0 0 0 0 0 0 0 0 0 0 0 0.34844326155041 0 0 0 0 0 0 0 0 0 0 0 0 0 0 0 0 0 0 0 0 -0.305555695138143 0 0 0 0 0 0 0 0 0
0 0 0 0 0 0 0 0 0 0 0 0.297601179264685 0 0 0 0 0 0 0 0 0 0 0 0 0 0 0 0 0 0 0 0 0 0 0 0 0 0 0 0 -2.156012895843 0 0 0 0 0 0 0 0 -1.12327633923461
0 0 0 0 0 0 0 0 0 0 0 0 0 0 0 0 0 0 0 0 0.037465447354739 0 0 0 0 0 0 0 0 0 0 0 0 0 0 0 0 0 0 0 0 0 0 0 0 0 0 0 0 -1.37579182568626
0 0 0 0 0 0 0 0 0 0 0 0 0 0 0 0 0 0 0 0 0 0 0 0 0 0.0555242798184651 0.434495270444354 0 0 0 0 0 0 0 0 0 0 0 0 0 -2.26124269597734 0 0 0 -0.566907611848987 0 0 0 0 -2.24500102660733
0 0 0 0 0 0 0 0 0 0 0 0 0 0 0 0 0 0 0 0 0 0.244051233154883 0.442769853443346 0 0.365259610274186 0.545910632254152 0 0 0 0 0 0 0 0 0 0 0 0 0 0 0 0 0 0 -0.505281236940466 0 0 0 0 0
0 0 0 0 0 0 0 0 0 0 0 0 0 0 0 0 0 0 0 0 0 0 0 0 0 0 0 0.905239711732695 0 0 0 0 0 0 0 0 0 0 0 0 0 0 0 0 -1.80968994332933 0 0 0 0 -1.30038330704869
0 0 0 0 0 0 0 0 0 0 0 0 0 0 0 0 0 0 0 0 0 0 0 0 0 0 0 0 0 0 0 0 0 0 0.0638429572316325 0.405968163899753 0 0.436472386253906 0 0 0 0 0 0 0 0 0 0 0 -3.87572127074115
0 0 0 0 0 0 0 0 0 0 0 0 0 0 0 0 0 0 0 0 0 0 0 0 0 0 0 0 0 0 0 0 0 0 0 0 0 0 0 0 0 0 0 0 0 0 -6.27000778957868 0 0 -2.76254429411129
0 0 0 0 0 0 0 0 0 0 0 0 0.0622327617063954 0 0.124109260966411 0 0.346786487070538 0 0.131175311314196 0 0.182395587895197 0.419281934696443 0 0.268008303003165 0.608667766242688 0.132393339219103 0 0.0901487767090942 0 0 0 0 0 0 0 0 0 0 0 0 0 0 0 0 0 0 -1.54866020037583 0 0 -0.264383254397035
0 0 0 0 0 0 0 0 0 0 0 0 0 0 0 0 0 0 0 0 0 0 0 0 0 0 0 0 0 0 0 0 0 0 0 0 0 0 0 0 0 0 0 0 0 0 -0.658670568764586 0 0 0
0 0 0 0 0 0 0 0 0 0 0 0 0 0 0 0 0 0 0 0 0 0 0 0 0 0 0 0 0 0 0 0 0 0 0 0 0 0.110686624563698 0.0990316567208781 0.360719427749996 0 0 0 0 0 0 0 0 0 0
0 0 0 0 0 0 0 0 0 0 0 0 0 0 0 0 0 0 0 0 0 0 0.0753527847101122 0.0722496694216259 0.201536233841039 0 0.0265627448974561 1.35339844935034 0 0 0 0 0 0 0 0 0 0 0 0 0 0 0 0 0 0 -0.923120737792597 0 0 -1.11501097148224
0 0 0 0 0 0 0 0 0 0 0 0 0 0 0 0 0 0 0 0 0 0 0 0 0 0 0 0 0 0 0 0 0 0 0 0 0 0 0 0 0 1.29992761143892 0.316392155932358 0.125280639491989 0 0.195202940798537 0 0.208180945523732 0.191831317922637 0.249642843562042
0 0 0 0 0 0 0.168550064937455 0.0298168641309018 0 0.0984896664842565 0 0.252508555450366 0 0 0 0 0 0 0 0 0 0 0 0 0 0 0 0 0 0 0 0 0 0 0 0 0 0 0 0 0 0 0 0 0 0 -1.06384291366324 0 0 0
0 0 0.0812628523439535 0 0.185848060085134 0.0632733199055617 0 0.107063916255811 1.17532473494114 0.292159985965614 0.541836267668378 0.175707177502592 0.184079243458435 0.0892252731654938 0.162232810483159 0 0.301332867918297 0 0 0 0 0 0 0 0 0 0 0 0 0 0 0 0 0 0 0 0 0 0 0 0 0 0 0 0 0 -0.979581887248645 0 0 0
0 0 0 0 0 0 0 0 0 0 0 0 0 0 0 0 0 0 0 0 0 0 0 0 0 0 0 0.470894245232235 0.131634460813946 0 0.645808353810755 0 0.0942270855307533 0.804248352180842 0 0.246509223533531 0.269812603366228 0.471574427559519 0 0.271686956241401 0.76282548963088 0.568989155884502 0.0488198271534759 0 0 0.212466080578199 -1.44196014962919 0 0 0
