1.46021683397091
1.64480212555549
1.31959279951317
2.26827508996547
1.41432637367188
1.10678261353123
0.422771974529619
1.27130276434349
0.879388850991254
0.0992135450863148
0.392149555630723
1.05153832262627
0.899215676774228
0.102810710670593
0.368382317997368
0.990614471886944
1.28033364918661
0.491967270508142
1.36297308412594
1.74509591397797
1.20920088939413
0.269266595003028
1.00621363691156
0.3015912066732
0.299119709345734
1.23373692083196
0.14600139282574
1.98271799515697
0.729718063335407
0.609263438394023
0.468779119320192
1.73992163430643
0.8318689329144
0.424988315549747
2.12707530839549
0.54224016442372
2.38101422566485
0.0938062289519108
0.591152644536807
0.630492561355406
0.52261977649542
0.398819885300972
0.123280701102453
0.470748185701718
1.42548749651979
0.902384046135653
1.63432457008088
0.24037516211407
1.02087185738184
0.320582598567693
