0.413478266034784
0.645415366298754
0.486980054767265
0.637357018961117
0.248856399188073
0.509305828619461
0.676894106237463
0.538528990044862
0.656708749668027
0.772126009736262
0.969803993256076
0.85656052872103
0.878151291474545
0.664233512967278
0.373619167878064
0.269497667695842
0.537658620159825
0.573095524610081
0.366852712624845
0.244705495762016
0.170872022005999
0.613834192272171
0.991112965542043
0.357657852488747
0.649315200892851
0.623217272545272
1.04079444227329
0.61503293852714
0.404682773974891
0.932745647210541
0.264522477661537
0.937564836668322
0.338908823215365
0.776429088610987
0.100099016588635
0.662771284826745
0.746501255102202
0.734858894715185
1.04882488744681
0.924169887614828
1.01897134786138
0.111755191786134
0.569809177697726
0.375347738898765
0.573974122658154
0.367741395358423
0.871080256069648
1.01411381373686
0.554518463470235
0.453203539078932
