0.383420336626874
0.84311779039061
0.16845982871644
1.92229219837539
0.76466176899679
0.0830014516833337
1.27974246660241
0.351409372747007
0.559328995778199
3.88180661414609
0.231461529830422
0.636569103658585
0.299003441564853
0.279297246495398
1.00964003114868
0.372491735421433
0.360576687436442
0.12770662639653
0.0825426172665766
0.270623687489424
0.234084800309317
0.984206362238692
0.946153042493332
0.397040178627036
1.16136900647546
0.58198899212155
0.31007299272416
1.07901916424976
2.61531288028292
0.0473012880323224
0.313559019814144
1.48960620197415
0.236922793849076
0.397336349809256
1.48356052074736
0.0221646159863216
0.520712293468133
0.172567793920272
0.235718302438209
0.259906864303162
0.590036458780239
0.494763730916811
0.0991498390869228
3.26307719930615
0.964176730349113
1.29271518700144
0.659267943119449
0.50521801419464
0.81487269142162
2.60611030547694
