2.00836466152458
2.69592053098976
0.793453694456254
0.515305468388791
0.456045376077873
1.25920322991676
0.231934625875776
0.741461056041397
2.68994865380697
0.549542018458232
3.63807723778491
1.69940842200363
1.06036230616849
0.420154737778576
0.527129795800914
0.370752480248438
1.24365605784096
2.05499210950227
1.55161221246811
0.208541041952624
0.285675345732088
0.329279160762894
1.49022939272542
1.12906464486338
1.67884288816949
0.0571031839143387
0.497556372609374
0.943029392353836
1.02361448311796
0.24456567446259
0.404395449027309
1.06042934797082
1.57987211723396
0.865515428781059
0.0837117016901899
1.73976061068121
0.298087844183572
0.364981416552086
0.31270607923108
3.04912161087184
1.5357755222957
0.298181341851783
0.170618461821337
2.25879156997624
2.94073102805424
0.929074221056623
1.4238013087321
3.6388335503903
0.855036030678206
2.9577243248607
