0 0 -1.33605949409382 0 0 0 0 0 0 0 0 0 0 0 0 0 0 0 0 0 0 0 0 0 0 0 0 0 0 0 0 0 0 0 0 0 0 0 0 0 0 0 0 0 0 0 0 0 0 0
0 0 -0.313386303352629 0 -1.57847239301506 0 0 0 0 0 0 0 0 0 0 0 0 0 0 0 0 0 0 0 0 0 0 0 0 0 0 0 0 0 0 0 0 0 0 0 0 0 0 0 0 0 0 0 0 0
0.277171183541083 0.0654996587115353 0 0 -0.314950971670773 0 0 0 0 0 0 0 0 0 -1.57794478372663 0 0 0 0 0 0 0 0 0 0 0 0 0 0 0 0 0 0 0 0 0 0 0 0 0 0 0 0 0 0 0 0 0 0 0
0 0 0 0 0 0 0 -0.694274065053454 0 0 0 0 0 0 0 0 0 0 0 0 0 0 0 0 0 0 0 0 0 0 0 0 0 0 0 0 0 0 0 0 0 0 0 0 0 0 0 0 0 0
0 0.331179344227557 0.0658808626661578 0 0 0 0 0 0 0 0 0 0 0 0 0 0 0 0 0 0 0 0 0 0 0 0 0 0 0 0 0 0 0 0 0 0 0 0 0 0 0 0 0 0 0 0 0 0 0
0 0 0 0 0 0 0 0 0 0 0 0 -0.650462869196279 0 0 0 0 0 0 0 0 0 0 0 0 0 0 0 0 0 0 0 0 0 0 0 0 0 0 0 0 0 0 0 0 0 0 0 0 0
0 0 0 0 0 0 0 0 -4.46564966507181 0 0 0 0 0 0 0 0 0 0 0 -6.34058368303631 0 0 0 0 0 0 0 0 0 0 0 0 0 0 0 0 0 0 0 0 0 0 0 0 0 0 0 0 0
0 0 0 0.153139847525815 0 0 0 0 0 0 0 -1.70388258340671 0 0 0 -0.450574949967164 0 0 0 0 0 0 0 0 0 0 0 0 0 0 0 0 0 0 0 0 0 -3.77070961837722 0 0 0 0 0 0 0 0 0 0 0 0
0 0 0 0 0 0 0.831636387578143 0 0 0 0 -0.352917850526467 0 0 0 0 0 0 0 0 0 0 0 0 0 0 0 0 0 0 0 0 0 0 -0.414344821738072 0 0 0 0 0 0 0 0 0 0 0 0 0 0 0
0 0 0 0 0 0 0 0 0 0 0 -1.81370855525227 0 0 0 -0.161846407973181 -0.479998251635374 0 0 0 0 0 0 0 0 0 0 0 -1.9707611465015 0 0 0 0 0 0 0 -0.328366117263072 0 0 0 0 0 0 0 0 0 0 0 0 0
0 0 0 0 0 0 0 0 0 0 0 -0.609638770957962 0 0 0 -0.791131055750852 -0.783810980519529 0 0 0 0 0 0 0 0 0 0 0 -1.34162697502784 0 0 0 0 0 0 0 0 0 0 0 0 0 0 0 0 0 0 0 0 0
0 0 0 0 0 0 0 0.348210403015308 0.0771131524831202 0.419676865784078 0.121661993573003 0 0 0 0 0 -0.355443780434919 0 0 0 0 0 0 0 0 0 0 -1.07508588229447 -0.397296094804721 0 0 0 0 0 0 0 -1.52522185591497 0 0 0 0 0 0 0 0 0 0 0 0 0
0 0 0 0 0 0.132889123974543 0 0 0 0 0 0 0 -2.45842480028074 0 -4.58089563423244 -0.187650404027553 0 0 -4.40479421642452 0 0 0 0 0 0 0 0 0 0 0 0 0 0 0 0 0 -0.986052350332854 0 0 0 0 0 0 0 0 0 0 0 0
0 0 0 0 0 0 0 0 0 0 0 0 0.484850343807531 0 0 0 -0.570444597732392 0 0 -0.634761485741993 0 0 0 0 0 0 0 -0.658574796839645 0 0 0 0 0 0 0 0 0 -0.477463879325088 0 0 0 0 0 0 0 0 0 0 0 0
0 0 0.319861363902112 0 0 0 0 0 0 0 0 0 0 0 0 0 0 -1.83425838379224 0 0 0 -0.158410352518801 0 0 -1.20980848317163 0 0 0 0 0 0 0 0 0 0 -0.405311354396721 0 0 0 0 0 0 0 0 0 0 -1.9197744316532 0 0 0
0 0 0 0 0 0 0 0.092060684658735 0 0.0324202483684563 0.164011806545645 0 0.946971212220366 0 0 0 0 0 -1.53124199019674 0 0 0 0 0 -0.0963227631958527 0 -0.361147411363432 0 0 0 0 0 0 0 0 -5.03532717634553 0 0 0 0 0 0 0 0 0 0 -0.506955947230827 0 0 -0.11289518368256
0 0 0 0 0 0 0 0 0 0.0980597783625853 0.158851983858541 0.076855922291944 0.0315835684972755 0.116777111125643 0 0 0 -1.20733636827815 0 0 0 0 0 0 0 0 0 0 0 0 0 0 0 0 0 -1.92168622766804 0 0 0 0 0 0 0 0 0 0 0 0 -2.55592924171684 0
0 0 0 0 0 0 0 0 0 0 0 0 0 0 0.408220187669636 0 0.227096922386454 0 -0.578552019173876 0 0 0 0 0 -4.29383119055405 0 0 0 0 0 -0.323467427888431 0 0 0 0 -2.2785069917961 0 0 0 0 0 0 0 0 0 0 0 0 0 -1.13827613045449
0 0 0 0 0 0 0 0 0 0 0 0 0 0 0 0.320844112876867 0 0.121486672602315 0 0.773616378293553 0 0 0 0 0 0 0 0 0 0 0 0 0 0 0 -0.34184851638634 0 0 0 0 0 0 0 0 0 0 0 0 -0.15468223195317 -1.38418936659121
0 0 0 0 0 0 0 0 0 0 0 0 0.90021242901876 0.135986491520889 0 0 0 0 -4.23721839230872 0 0 0 0 0 -0.794009931529895 0 0 0 0 0 -0.70455504751397 0 0 0 0 -0.582854549580442 0 0 0 0 0 0 0 0 0 0 0 0 0 -0.267604294661575
0 0 0 0 0 0 1.30984955239945 0 0 0 0 0 0 0 0 0 0 0 0 0 0 0 0 0 0 0 0 0 0 0 -1.32925221117544 0 0 0 0 -0.271456504785886 0 0 0 0 0 0 0 0 0 0 0 0 -1.36473040370491 -0.352754823565387
0 0 0 0 0 0 0 0 0 0 0 0 0 0 0.0306299504344241 0 0 0 0 0 0 0 0 0 0 -2.4024365110232 0 0 0 0 -2.23441845228044 -0.259295362754764 0 0 0 0 0 0 -1.00744041004489 0 0 0 -1.11088875669627 0 0 0 0 0 -0.287565847594718 -0.744331463358663
0 0 0 0 0 0 0 0 0 0 0 0 0 0 0 0 0 0 0 0 0 0 0 0 0 -0.311475581236732 0 0 0 0 0 -0.68422537098806 0 0 0 0 0 0 -2.8433178388634 0 0 0 0 -3.02293827985108 0 0 0 0 0 -0.860882834416039
0 0 0 0 0 0 0 0 0 0 0 0 0 0 0 0 0 0 0 0 0 0 0 0 0 0 0 0 0 0 -2.49525124999342 -0.568002940783323 0 0 0 0 0 0 -1.7293609856993 0 0 0 0 0 0 0 0 0 -1.72952126252558 0
0 0 0 0 0 0 0 0 0 0 0 0 0 0 0.234625004132385 0.0189013852052375 0 0.91493766116028 0 0.163861318185514 0 0 0 0 0 0 0 0 0 0 -1.45181589711121 -0.656075051527917 0 0 0 0 0 0 0 0 0 0 -0.611309975967287 -0.696512273631469 0 0 0 0 0 -2.22827030468109
0 0 0 0 0 0 0 0 0 0 0 0 0 0 0 0 0 0 0 0 0 0.478008846021021 0.059373075411933 0 0 0 0 0 0 0 0 -0.42044467829958 0 0 0 0 0 0 0 0 0 0 -0.572467040748654 -0.687280231691657 0 0 0 0 -1.4504792302991 -1.49070312211861
0 0 0 0 0 0 0 0 0 0 0 0 0 0 0 0.0674024374326421 0 0 0 0 0 0 0 0 0 0 0 0 0 0 0 -0.177043806832393 0 0 0 0 0 0 0 0 0 0 0 0 0 0 0 0 -0.444862230043885 -0.633137290797861
0 0 0 0 0 0 0 0 0 0 0 0.222717085865174 0 0.126860145771329 0 0 0 0 0 0 0 0 0 0 0 0 0 0 0 0 0 -0.903532958151322 0 0 0 0 0 0 0 0 0 0 -1.4458021511432 0 0 0 0 0 -0.442817909788367 -1.61993741785679
0 0 0 0 0 0 0 0 0 0.392857668124503 0.255096318287366 0.0804639128565571 0 0 0 0 0 0 0 0 0 0 0 0 0 0 0 0 0 0 0 -0.436023957847418 -0.481202462010706 0 0 0 0 0 0 0 0 0 0 -2.39757672426217 0 0 0 0 0 -1.41159860845309
0 0 0 0 0 0 0 0 0 0 0 0 0 0 0 0 0 0 0 0 0 0 0 0 0 0 0 0 0 0 0 -0.0962086477579199 0 0 0 0 0 0 0 0 0 0 0 -0.179988157545111 0 0 0 0 -1.98425667960554 0
0 0 0 0 0 0 0 0 0 0 0 0 0 0 0 0 0 0.0702144194634968 0 0.139373106390266 0.27178124810999 0.438295817536366 0 0.555418995099659 0.297494985591165 0 0 0 0 0 0 0 0 0 0 0 0 0 0 0 0 0 0 -1.76700627549538 0 0 0 0 0 0
0 0 0 0 0 0 0 0 0 0 0 0 0 0 0 0 0 0 0 0 0 0.0553959196245304 0.150756521038595 0.117443983698728 0.129894869972798 0.0801666711355386 0.0327855094833856 0.183652978482252 0.0933976715504551 0.0189073152041033 0 0 0 0 0 0 0 0 0 0 0 0 0 -0.938330212948853 0 0 0 0 0 0
0 0 0 0 0 0 0 0 0 0 0 0 0 0 0 0 0 0 0 0 0 0 0 0 0 0 0 0 0.0932083113547252 0 0 0 0 0 0 0 0 0 0 0 0 0 0 0 0 0 0 -1.3927186903211 0 0
0 0 0 0 0 0 0 0 0 0 0 0 0 0 0 0 0 0 0 0 0 0 0 0 0 0 0 0 0 0 0 0 0 0 0 0 0 0 0 0 0 0 0 0 0 0 0 -3.93146424314485 0 0
0 0 0 0 0 0 0 0 0.0826276248022372 0 0 0 0 0 0 0 0 0 0 0 0 0 0 0 0 0 0 0 0 0 0 0 0 0 0 0 0 0 0 0 0 0 0 0 0 0 0 -0.829796115723987 0 0
0 0 0 0 0 0 0 0 0 0 0 0 0 0 0.0857946383173442 0.926567747708195 0.388373679938234 0.489331828195291 0.071957206392771 0.120220229598848 0.0517829707361393 0 0 0 0 0 0 0 0 0 0 0 0 0 0 0 0 0 0 0 0 0 0 0 0 0 0 0 0 0
0 0 0 0 0 0 0 0 0 0.0633880540367315 0 0.319952150675629 0 0 0 0 0 0 0 0 0 0 0 0 0 0 0 0 0 0 0 0 0 0 0 0 0 0 0 0 0 0 0 0 0 0 0 0 0 0
0 0 0 0 0 0 0 0.740434873558664 0 0 0 0 0.203798557383281 0.0928768773489245 0 0 0 0 0 0 0 0 0 0 0 0 0 0 0 0 0 0 0 0 0 0 0 0 0 0 0 -1.53045557100732 0 0 0 0 0 -1.02468714660345 0 0
0 0 0 0 0 0 0 0 0 0 0 0 0 0 0 0 0 0 0 0 0 0.208720362101418 0.601407676481378 0.315726265919898 0 0 0 0 0 0 0 0 0 0 0 0 0 0 0 0 0 0 0 0 0 0 0 -0.703305685299777 0 0
0 0 0 0 0 0 0 0 0 0 0 0 0 0 0 0 0 0 0 0 0 0 0 0 0 0 0 0 0 0 0 0 0 0 0 0 0 0 0 0 0 -1.10539377443865 0 0 -1.28544404084989 0 0 -6.27277142334047 0 0
0 0 0 0 0 0 0 0 0 0 0 0 0 0 0 0 0 0 0 0 0 0 0 0 0 0 0 0 0 0 0 0 0 0 0 0 0 0 0 0 0 -7.10915897701448 0 0 0 0 0 -0.42651946531903 0 0
0 0 0 0 0 0 0 0 0 0 0 0 0 0 0 0 0 0 0 0 0 0 0 0 0 0 0 0 0 0 0 0 0 0 0 0 0 0.317077335865225 0 0.2256459126352 1.42941642199894 0 0 0 -1.20797018226535 -2.04343863030828 0 0 0 0
0 0 0 0 0 0 0 0 0 0 0 0 0 0 0 0 0 0 0 0 0 0.221121114296395 0 0 0.121387411111054 0.120276914543575 0 0.318297173698054 0 0 0 0 0 0 0 0 0 0 0 0 0 0 0 0 0 0 0 0 0 0
0 0 0 0 0 0 0 0 0 0 0 0 0 0 0 0 0 0 0 0 0 0 0.613560278963607 0 0.140129040959925 0.142731014707495 0 0 0.503807763114722 0.0327751765346235 0.344469364844741 0.197023358677028 0 0 0 0 0 0 0 0 0 0 0 0 -0.675019416153263 -1.07617459054003 0 0 0 0
0 0 0 0 0 0 0 0 0 0 0 0 0 0 0 0 0 0 0 0 0 0 0 0 0 0 0 0 0 0 0 0 0 0 0 0 0 0 0 0.271481104456639 0 0.239466830925086 0 0.129410746211154 0 -0.416369316345564 0.487309499606787 0.081923646509371 0.0677297623420472 0.0662592219249561
0 0 0 0 0 0 0 0 0 0 0 0 0 0 0 0 0 0 0 0 0 0 0 0 0 0 0 0 0 0 0 0 0 0 0 0 0 0 0 0 0 0.415654581981747 0 0.19556700809016 0.0896844140654089 0 0 0 0 0
0 0 0 0 0 0 0 0 0 0 0 0 0 0 0.365037460535357 0.103917617348963 0 0 0 0 0 0 0 0 0 0 0 0 0 0 0 0 0 0 0 0 0 0 0 0 0 0 0 0 -2.49221205802749 0 0 0 0 0
0 0 0 0 0 0 0 0 0 0 0 0 0 0 0 0 0 0 0 0 0 0 0 0 0 0 0 0 0 0 0 0 0.306573010306874 0.847421564156082 0.164773015457025 0 0 0.19964627030775 0.14215697887923 1.15546843449549 0.0857677119472763 0 0 0 -0.392929950928976 0 0 0 0 0
0 0 0 0 0 0 0 0 0 0 0 0 0 0 0 0 0.513233118086673 0 0.0311009731470418 0 0.274936108711109 0.0550775304056552 0 0.347208551462989 0 0.317687274419011 0.0942318376429194 0.0893093222564647 0 0.372368562015534 0 0 0 0 0 0 0 0 0 0 0 0 0 0 -0.342881720363847 0 0 0 0 0
0 0 0 0 0 0 0 0 0 0 0 0 0 0 0 0.0226539080657594 0 0.235866100349565 0.279851681218976 0.047686744244803 0.0707443055588654 0.147718723664406 0.180417062625399 0 0.436013657111582 0.299824713984422 0.129040128044305 0.32352354420032 0.292732932483766 0 0 0 0 0 0 0 0 0 0 0 0 0 0 0 -0.392590747400758 0 0 0 0 0
