0 -4.27182614059417 0 0 0 -4.59951925398555 0 0 0 0 0 0 0 0 0 0 0 0 0 0 0 0 0 0 0 -0.753832018672617 0 0 0 0 0 0 0 -0.370716482434762 0 0 0 0 0 0 0 0 0 0 0 0 0 0 0 0
0.888413340757023 0 0 0 0 0 0 0 0 0 -0.534336733373798 0 0 0 0 0 0 0 0 0 0 0 0 0 -0.953440401400854 -0.486588507772277 0 0 0 0 0 0 -0.920326443561217 0 0 0 -1.07067910063057 0 0 0 0 0 0 0 0 0 0 0 0 0
0 0 0 0 0 0 0 0 0 0 0 0 0 -0.2060738238298 0 0 0 0 0 0 0 0 0 0 0 -1.79757602766891 0 0 -2.11616392039737 0 0 0 -1.83128230733616 0 0 0 -0.886043012686892 0 0 0 0 0 0 0 0 0 0 0 0 0
0 0 0 0 0 0 0 0 0 0 0 0 0 0 0 0 0 0 0 0 0 0 0 0 0 -0.488894785407936 0 0 -0.38607462337668 0 0 0 0 -2.05391976707553 0 0 0 0 0 0 0 0 0 0 0 0 0 0 0 0
0 0 0 0 0 0 0 0 0 0 0 0 0 0 0 0 0 0 0 0 0 0 0 0 0 -7.89020715252797 0 0 0 0 0 0 0 -0.196374308070866 0 0 -0.52171017523788 0 0 0 0 0 0 0 0 0 0 0 0 0
0.905820696658488 0 0 0 0 0 0 0 0 0 0 0 0 -0.544581163957033 0 0 0 0 0 0 0 0 0 0 0 0 0 0 0 0 0 0 -0.273318605922607 -0.711931191678188 0 0 0 0 0 0 0 0 0 0 0 0 0 0 0 0
0 0 0 0 0 0 0 0 0 0 0 0 0 -0.260162033534429 0 0 0 0 0 0 0 0 0 0 0 -0.927552587338997 0 0 -3.00237474683362 0 0 0 -1.14623005398723 -1.48771880311959 0 0 0 0 0 0 0 0 0 0 0 0 0 0 0 0
0 0 0 0 0 0 0 0 0 0 0 0 0 0 0 0 0 0 0 0 0 0 0 0 0 -0.463012244092294 0 0 0 0 0 0 0 0 0 0 -3.82211357033444 0 0 0 0 0 0 0 0 0 0 0 0 0
0 0 0 0 0 0 0 0 0 0 0 0 0 -0.3713028705449 0 0 0 0 0 0 0 0 0 0 0 -0.271903525403577 0 0 -0.802826245524877 0 0 0 -0.902024005782552 0 0 0 -1.0580654894154 0 0 0 0 -0.332531507503828 0 0 0 0 0 0 0 0
0 0 0 0 0 0 0 0 0 0 0 0 0 0 0 0 0 0 0 0 0 0 0 0 0 0 0 0 0 0 0 0 0 0 0 0 -5.90124122146874 0 0 0 0 0 0 0 0 0 0 0 0 0
0 0.103629781701943 0 0 0 0 0 0 0 0 0 0 0 0 0 0 0 0 0 0 0 0 0 0 0 0 0 0 0 0 0 0 0 0 0 0 -0.853686847470611 0 0 0 0 -0.462844778943175 0 0 0 0 0 0 0 0
0 0 0 0 0 0 0 0 0 0 0 0 0 0 0 0 0 0 0 0 0 0 -1.2336722764323 0 0 0 0 0 0 0 0 0 0 0 0 0 0 0 0 -0.85311794920421 0 0 0 0 0 0 -0.582609092037738 0 0 0
0 0 0 0 0 0 0 0 0 0 0 0 0 0 0 0 0 0 0 0 0 0 -2.68973018705312 -1.64787298031939 0 0 0 0 0 0 0 0 0 0 0 -0.237958260104588 0 0 0 0 0 0 0 0 0 0 0 0 0 0
0 0 0.0398081578944259 0 0 0.111259982023644 0.0509541996574158 0 0.0688969045520456 0 0 0 0 0 0 0 0 0 0 0 0 0 0 -0.763550206869074 0 0 0 0 0 0 0 0 0 0 0 0 0 0 -1.58568225203076 -2.18955762840227 -1.09050545912618 0 0 0 0 0 -2.74508633802373 0 0 0
0 0 0 0 0 0 0 0 0 0 0 0 0 0 0 0 0 0 0 0 -0.89234742135709 0 0 -1.19212125196189 0 0 -2.11152327246157 0 0 0 0 0 0 0 0 0 0 0 -3.29214074728741 0 -2.92336030067867 0 0 0 0 0 -3.29818109116452 0 0 0
0 0 0 0 0 0 0 0 0 0 0 0 0 0 0 0 0 0 0 0 0 0 0 -2.27200502298052 0 0 0 0 0 0 0 0 0 0 0 0 0 0 -7.46521593054703 -0.309480368830303 -0.196245465568746 0 0 0 0 0 0 0 0 0
0 0 0 0 0 0 0 0 0 0 0 0 0 0 0 0 0 0 0 0 0 0 0 0 0 0 0 0 0 -3.51388603208052 0 0 0 0 0 0 0 0 0 0 -0.332765799351384 0 0 0 0 0 0 0 0 0
0 0 0 0 0 0 0 0 0 0 0 0 0 0 0 0 0 0 0 0 0 0 0 0 0 0 0 0 0 0 -3.32974003341179 -0.567210491415222 0 0 -0.579524947037747 0 0 0 0 0 -1.13371506777861 0 0 0 0 0 -0.353376654408693 0 0 0
0 0 0 0 0 0 0 0 0 0 0 0 0 0 0 0 0 0 0 -1.74578998220377 0 0 0 0 0 0 0 0 0 0 0 0 0 0 0 0 0 0 0 0 0 0 0 0 0 0 -2.00902333565326 0 0 0
0 0 0 0 0 0 0 0 0 0 0 0 0 0 0 0 0 0 0.326908823784034 0 0 0 0 0 0 0 0 0 0 0 0 -0.933831288424281 0 0 0 0 0 0 0 0 -1.57484063422671 0 0 0 0 0 -1.14753579523934 0 0 0
0 0 0 0 0 0 0 0 0 0 0 0 0 0 0.183588794580397 0 0 0 0 0 0 0 0 0 0 0 0 0 0 0 0 -1.36451473238202 0 0 0 0 0 0 0 0 0 0 0 0 0 0 -0.361155859348898 0 0 0
0 0 0 0 0 0 0 0 0 0 0 0 0 0 0 0 0 0 0 0 0 0 0 0 0 0 0 0 0 0 0 0 0 0 0 0 0 0 0 0 -3.33742623060368 0 0 0 0 0 0 0 0 0
0 0 0 0 0 0 0 0 0 0 0 0.252032059576351 0.503359503082568 0 0 0 0 0 0 0 0 0 0 0 0 0 0 0 0 0 0 -1.30969271292301 0 0 0 0 0 0 0 0 -1.76380542969789 0 0 0 0 0 0 0 0 0
0 0 0 0 0 0 0 0 0 0 0 0 0.323538728665412 0.160961377094222 0.235494539855505 0.470379135025905 0 0 0 0 0 0 0 0 0 0 0 0 0 0 0 0 0 0 0 0 0 0 0 0 0 0 -0.889491368114701 0 0 0 0 0 0 0
0 0.173099345632345 0 0 0 0 0 0 0 0 0 0 0 0 0 0 0 0 0 0 0 0 0 0 0 0 0 0 0 0 0 -0.114772885928918 0 0 0 0 0 -7.56382229615166 0 0 0 0 -2.49780480965711 0 0 0 0 0 0 0
0.156148902774559 0.0933964559570664 0.365565811031919 0.0941654484125272 1.67668008080052 0 0.175767556795939 0.0877272543871752 0.0532424921588397 0 0 0 0 0 0 0 0 0 0 0 0 0 0 0 0 0 0 0 0 0 0 0 0 0 0 0 0 -1.23347653539757 0 0 0 0 0 0 0 0 0 0 0 0
0 0 0 0 0 0 0 0 0 0 0 0 0 0 0.439805212998437 0 0 0 0 0 0 0 0 0 0 0 0 0 0 0 0 0 0 0 0 0 0 -0.389465789335469 0 0 0 0 -1.09503581304276 0 0 0 0 0 0 0
0 0 0 0 0 0 0 0 0 0 0 0 0 0 0 0 0 0 0 0 0 0 0 0 0 0 0 0 0 0 0 0 0 0 0 0 0 -0.338116378240529 0 0 0 0 -0.860581943655534 0 0 0 0 0 0 0
0 0 0.39686513078213 0.0743539706169823 0 0 0.628609614822916 0 0.169501656399696 0 0 0 0 0 0 0 0 0 0 0 0 0 0 0 0 0 0 0 0 0 0 0 0 0 0 0 0 -0.238898810090866 0 0 0 0 0 0 0 0 0 0 0 0
0 0 0 0 0 0 0 0 0 0 0 0 0 0 0 0 0.705539119565149 0 0 0 0 0 0 0 0 0 0 0 0 0 0 0 0 0 0 0 0 -5.36661813287766 0 0 0 0 -6.43744755800404 0 0 0 0 0 0 0
0 0 0 0 0 0 0 0 0 0 0 0 0 0 0 0 0 0.70641002361903 0 0 0 0 0 0 0 0 0 0 0 0 0 0 0 0 0 0 0 0 0 0 0 0 -0.402942554581494 0 0 0 0 0 0 0
0 0 0 0 0 0 0 0 0 0 0 0 0 0 0 0 0 0.105817163693383 0 0.187880676206451 0.269985975297621 0 0.265822065899327 0 0.0229267283816023 0 0 0 0 0 0 0 0 0 0 0 0 -1.50928093167378 0 0 0 0 0 0 0 0 0 0 0 0
0 0.191826917158788 0.36281409827998 0 0 0.0542528719845791 0.238763062506062 0 0.1835697608112 0 0 0 0 0 0 0 0 0 0 0 0 0 0 0 0 0 0 0 0 0 0 0 0 0 0 0 0 0 0 0 0 0 -0.185118615791168 0 0 0 0 0 0 0
0.0755490890210757 0 0 0.428501409971914 0.0393625250606695 0.144704607448967 0.290478941073536 0 0 0 0 0 0 0 0 0 0 0 0 0 0 0 0 0 0 0 0 0 0 0 0 0 0 0 0 0 0 0 0 0 0 0 0 0 0 0 0 -0.861667787996482 0 0
0 0 0 0 0 0 0 0 0 0 0 0 0 0 0 0 0 0.121474081730401 0 0 0 0 0 0 0 0 0 0 0 0 0 0 0 0 0 0 0 0 0 0 0 0 -1.17317861651322 0 -1.01855161499845 0 0 -2.82262819599304 0 0
0 0 0 0 0 0 0 0 0 0 0 0 0.0470900385474116 0 0 0 0 0 0 0 0 0 0 0 0 0 0 0 0 0 0 0 0 0 0 0 0 0 0 0 0 0 -2.47078513675613 0 0 0 0 -0.664717473409161 0 0
0 0.208941954505556 0.163530569225813 0 0.0996241414685785 0 0 0.761307454347691 0.219570878265926 1.18240378414641 0.160853784301682 0 0 0 0 0 0 0 0 0 0 0 0 0 0 0 0 0 0 0 0 0 0 0 0 0 0 0 0 0 0 0 0 0 -0.986726453328218 -1.41005756733734 0 -0.49860929199646 0 0
0 0 0 0 0 0 0 0 0 0 0 0 0 0 0 0 0 0 0 0 0 0 0 0 1.49787950477806 0.228826133575317 0.0801667188898655 0.0717182534423805 0.0482494517217832 1.12533490390628 0 0.306929180754537 0 0 0 0 0 0 0 0 0 0 0 0 0 -1.17673028423202 0 0 0 0
0 0 0 0 0 0 0 0 0 0 0 0 0 0.316964727087128 0.690851688696039 1.48459856214985 0 0 0 0 0 0 0 0 0 0 0 0 0 0 0 0 0 0 0 0 0 0 0 0 0 0 0 0 -0.338965251304599 0 0 -0.706876447251716 0 0
0 0 0 0 0 0 0 0 0 0 0 0.169791953351514 0 0.41801475603934 0 0.0608059946176942 0 0 0 0 0 0 0 0 0 0 0 0 0 0 0 0 0 0 0 0 0 0 0 0 0 0 0 -0.348777165230666 -0.654764809645151 0 0 0 0 0
0 0 0 0 0 0 0 0 0 0 0 0 0 0.203749015885545 0.586347642865323 0.0406865990339088 0.0651934119693434 0.232401691306477 0 0.308509031423113 0 0.694062769539282 0.373053883159138 0 0 0 0 0 0 0 0 0 0 0 0 0 0 0 0 0 0 0 0 0 0 0 0 0 0 0
0 0 0 0 0 0 0 0 0.0685059898618577 0 0.0931810866837344 0 0 0 0 0 0 0 0 0 0 0 0 0 0 0 0 0 0 0 0 0 0 0 0 0 0 0 0 0 0 0 0 0 0 0 0 0 -0.403658262443159 0
0 0 0 0 0 0 0 0 0 0 0 0 0 0 0 0 0 0 0 0 0 0 0 0.175390494401267 0.492653337178921 0 0.207258036773321 0.185647961449904 0 1.21094918171949 0.0862274027509947 0 0.0354678703957669 0 0.21718768492634 0.464028533864766 0 0 0 0 0 0 0 0 0 0 0 0 0 -0.429485832391253
0 0 0 0 0 0 0 0 0 0 0 0 0 0 0 0 0 0 0 0 0 0 0 0 0 0 0 0 0 0 0 0 0 0 0 0 0 0 0 0.0718343950760243 0 0 0 0 0 0 0 0 0 0
0 0 0 0 0 0 0 0 0 0 0 0 0 0 0 0 0 0 0 0 0 0 0 0 0 0 0 0 0 0 0 0 0 0 0.209862019507123 0 0.186890989079078 0 0.070987461365073 0.135059176752998 0 0 0 0 0 0 0 0 -0.309164321717473 -1.71119973418776
0 0 0 0 0 0 0 0 0 0 0 0 0 0 0 0 0 0 0 0 0 0 0 0 0 0 0 0 0 0 0 0 0 0 0 0 0.273622708488169 0.247277580901265 0 0 0 0 0 0 0 0 0 0 -0.857082446332962 -0.541257160480806
0 0 0 0 0 0 0 0 0 0 0 0.126636565069526 0 0.540904570611924 0.689597374090381 0 0 0.0647628086747668 0.413550709380436 0.22822539173656 0.0727927076232372 0 0 0 0 0 0 0 0 0 0 0 0 0 0 0 0 0 0 0 0 0 0 0 0 0 0 0 -1.15491873643854 -0.231899078496633
0 0 0 0 0 0 0 0 0 0 0 0 0 0 0 0 0 0 0 0 0 0 0 0 0 0 0 0 0 0 0 0 0 0.175648865867875 0.58749096183085 0.132985900337754 0.106361439749435 0 0.137400472387282 0 0 0 0 0 0 0 0 0 0 0
0 0 0 0 0 0 0 0 0 0 0 0 0 0 0 0 0 0 0 0 0 0 0 0 0 0 0 0 0 0 0 0 0 0 0 0 0 0 0 0 0 0.0769473186957587 0 0 0.0591173845738158 0.160606612829053 0.236218224789926 0 0 0
0 0 0 0 0 0 0 0 0 0 0 0 0 0 0 0 0 0 0 0 0 0 0 0 0 0 0 0 0 0 0 0 0 0 0 0 0 0 0 0 0 0 0.0909034608050208 0 0.363159925803003 0.111285087887944 0.0501836510498517 0 0 0
