0.252364938397392
0.283728942786545
0.62991988565957
0.339151685408405
0.648912339138246
0.424659795918305
0.467222724867223
1.41815317035752
0.697402083256177
1.73904192799643
0.0799534590072092
0.10907670334757
0.496169155849564
0.162314183328309
0.51296173780705
2.06201219842523
0.0278188126666797
0.44734045699718
1.95970198134658
0.532667641476377
1.05104521918197
0.825162439237098
1.28189476358703
0.115412754848665
0.670806005896492
0.525218631567978
1.34011923157326
0.0535705673710865
2.16399098751772
1.37870674438295
0.65626852670066
0.813433375285505
0.686926685832932
0.084167264939082
0.108235171865164
0.0844195741153869
0.209679415978059
0.231031687365104
0.187861754107321
0.500678512092405
0.329199497694306
1.25672805801416
0.307102059136134
0.93591345843498
1.18939088497811
0.110261229876784
0.187374254323561
0.538270181882183
0.0875693418926754
0.517864872024629
