0.929594332530196
1.26507280224831
0.0585285008808005
0.26809665716698
1.7315032658087
4.94337498056345
0.0998122068826968
3.20891338128802
0.568716778311042
0.829851748918752
1.62956752803939
1.65414483854361
0.679918391264716
0.192729119764486
0.812365761537717
2.34416776370141
2.34725069267569
0.953553011079268
1.4069695156055
5.8046268051103
0.655549223436323
2.00589105684273
2.41040317827717
1.79116419144207
3.17908609963923
2.22634359000839
1.64190278548833
2.30306784579661
1.18179833684485
0.243132401516088
1.55996315069684
0.933511832078004
4.92010363818314
1.28791400504667
3.09398903510934
1.56369426175557
1.49129437800094
0.907715075305098
2.0071950134451
0.718547577943563
1.54226851290555
2.08085570048146
1.11139478524383
1.05804498294221
0.695728032735615
1.2976002497554
0.456244410197865
4.79223610254618
1.29748368452416
5.01541882235819
