2.99978302326785
1.21572639621641
0.33565626450217
0.134142325676244
0.213348470921069
1.00914570420758
0.377819802538992
0.583353087749367
0.89530364771294
0.802392247417208
0.417102562562854
0.73450284706563
1.53982566523613
1.36510052254217
0.670095919547989
0.667685654674816
0.978554677548565
0.508892774899921
2.3973672293822
0.441705951475005
0.522216831527796
0.010345438792369
2.4874617098268
0.818461619820454
0.126713801329727
0.640374347695884
0.455084865827972
0.215948922261797
0.315348196091226
0.0740054072392418
0.20193043133601
1.23029828497958
1.01870453140647
0.602981890922403
0.687408808810277
0.0559995793634451
1.33376095348146
0.462832465345049
1.86298286155094
0.171581735267309
0.742666456565977
0.202316943889608
0.270536609851306
0.534830676424258
1.18067863052893
1.83644495243234
3.22942983110602
0.429289745111679
0.104147640264635
1.90996222098754
