1.42394728454659
1.89701530212518
0.945544139476821
1.44256370788735
0.243720110078803
0.359255804840203
0.450126219742636
0.227650319398328
0.663618700760512
1.80331109441827
1.27074396027929
1.40787714781709
0.667677046476982
1.34328501927632
0.914476781183211
0.511133850804726
1.13591474364615
0.672936269455618
0.136051504559158
0.5818650269373
0.325722473424811
1.53077461812149
0.519670984704704
0.463678647233083
0.521015437027422
0.618629673521932
1.16116712920348
1.0623995480256
0.233377466089417
1.13125128921482
0.374508297010159
1.39204969858691
0.489251848724076
0.72311329308605
1.03552399273709
0.979651934250795
0.788084010411317
0.32833137713017
1.13581014755861
1.38528948793988
0.136012456905137
1.243567794964
0.361739872210645
0.249356817613236
0.219643326267386
1.29870779895789
1.19553657778365
1.74749824638064
0.532323188963616
0.421002928789215
