2.96929246108505
0.350583766478251
0.658666916741955
0.278794699381773
1.08269548365239
0.932436597805754
0.128045368469219
0.258419050815447
0.08209791995375
0.765107110629802
1.71254166933224
0.501016884493743
0.284087321651358
0.0514518747520928
1.79301391677258
1.97427634619101
1.35067563276727
0.123425702419517
1.12341794618449
5.72029282392768
0.418851120592291
0.10380306598839
1.01280858182887
0.763794318215283
0.438085875225964
0.037546933907937
0.336372778846709
0.89702236467742
1.00524271025013
0.175709686751401
0.410308939370018
0.109087596451382
0.0453216977362052
0.9778417828052
0.254642972472151
3.68026322558622
0.521896004400076
0.287655088970118
0.755094188314272
0.0977094913403531
0.32270080965825
0.509589775912653
0.582680068863131
8.06114363653189
0.725662740872144
1.05463976649262
0.393503100174713
0.287258109772175
0.521582293933497
0.369037793110891
