0.535321777703275
1.05311237435236
0.846000484391056
1.06913810909226
0.308874017040101
0.682881979848216
1.47275346205371
0.359619804049104
2.22140534301959
1.17340673934672
1.43365016272124
0.980256230297703
0.0482418435428999
1.25508418846087
0.273113349205275
0.770287739442483
1.18552952409979
1.2365339231652
1.69084371338699
0.901872673254433
0.862864293388315
0.738731366230339
3.63504638953795
3.32628102360946
0.135758269398018
2.63964831235966
0.649434442970291
1.69342680857974
2.84320342693544
3.27374741920674
0.275370858650357
2.32610214925113
0.2415630170577
0.284776439097449
0.686350273367909
0.3907691006306
0.606421431956173
1.27865749764049
0.711125983059827
0.248474154880559
1.78430681695875
4.38686568405852
1.89518536243147
2.1341887428142
1.3659398458684
1.35963094941837
0.243273522580498
0.875724821200337
3.01039483260723
1.66630665526126
