1.34899790268929
0.491586429550074
1.92650043093793
0.196182360820681
1.71808659158115
0.672104360024998
0.81675279816949
0.149915804123628
4.86200410744632
2.44513338255457
1.26370056599844
1.32253274954635
1.70885494665521
0.744283549459861
0.954379116267339
1.7698411124029
0.54078331071096
1.88715979093628
0.753599142515605
0.135197763926184
2.9778141395711
0.714517747872539
0.739589919397193
1.19870083891899
1.47440026764926
3.12365705446974
0.543384814114231
5.00761253548484
2.80452166547204
0.654327005724434
1.41828639959371
1.49150596663254
2.18149789460088
1.22736585365578
0.908010043892692
1.29069622769814
1.47474472654383
0.195985080668085
0.697515024101238
0.582168361590494
1.62135879278537
0.472201705355851
2.72304982571877
1.87812726434077
4.21045295555833
0.588207552424584
0.144028543281243
0.762767043862366
2.2428176853353
0.536861675980698
