3.07148365669276
0.116126786001441
0.698441789537831
0.241754769520652
0.182851171120202
1.45866744688551
1.92710801991075
0.20248143961318
0.455228773351799
0.125849752026466
0.0920378785331072
0.0877838849645228
1.58003995376513
0.467275614032053
0.00964159961660109
4.25023372034697
0.133369315347456
0.0131022954762974
2.19599105950394
0.0728210392345761
0.81688418949442
3.17577408396503
1.47236719029584
2.35628851273053
2.49530691100138
0.162421706022256
3.72691938366732
1.89963718534479
0.0575202584607552
0.16570291471945
2.14652707450754
0.501576382286213
1.32596801380274
5.2778371938262
0.441378377341295
0.158543015402447
1.27824716278327
0.144179259100187
0.909067289893478
0.346798907843554
0.546880659326953
0.91545325353965
0.252367646154256
0.990929028681541
1.63341567154171
0.348713818807748
0.39394295070967
0.0681125718085375
1.38048195354596
0.653224140478154
