0 0 0 0 0 0 0 0 0 0 0 0 0 0 0 0 0 -0.785243386823544 0 0 0 0 0 0 0 0 0 0 0 0 0 0 0 0 0 0 0 0 0 0 0 0 0 0 0 0 0 0 0 0
0 0 0 0 0 0 0 0 0 0 0 0 0 0 0 0 0 -0.493250224690185 0 0 0 0 0 0 0 0 0 0 0 0 0 0 0 0 0 0 0 -0.193782701878629 0 0 0 0 0 0 0 0 0 0 0 0
0 0 0 0 0 0 0 0 0 0 0 0 0 0 0 0 0 -0.168786208725737 0 0 0 0 0 0 0 0 0 0 0 0 0 0 0 0 0 -0.592852353765591 0 0 0 0 0 -3.21301531184183 0 0 -1.1610940190599 0 0 0 0 0
0 0 0 0 0 0 0 0 0 0 0 0 0 -0.279567287530614 0 0 0 -1.24362901798843 0 0 0 0 0 0 0 0 0 0 0 0 0 0 0 0 0 0 0 0 0 0 0 -2.65911067294943 0 0 0 0 0 0 -0.441784567082542 0
0 0 0 0 0 0 0 0 0 0 0 0 -0.234861921360194 0 0 0 0 0 0 0 0 0 0 0 0 0 0 0 0 0 0 0 0 0 0 -1.7849172943438 0 0 0 0 0 0 0 0 -0.990000339460406 0 0 0 -4.98024808338503 0
0 0 0 0 0 0 0 0 0 0 0 0 -2.25136981915648 0 0 0 0 0 0 0 0 0 0 0 0 0 0 0 0 0 0 0 0 0 0 -0.405364159727409 0 0 0 0 0 -0.201741509234492 0 0 -0.465580691880177 0 0 0 0 0
0 0 0 0 0 0 0 0 0 0 0 0 0 0 0 0 0 0 0 0 0 0 -0.780063912559366 0 0 0 0 0 0 0 0 0 0 0 0 0 0 0 0 0 0 -0.485826013375328 0 0 0 0 0 0 -0.591186291074672 0
0 0 0 0 0 0 0 0 -0.532737279903013 0 0 -0.33316377336312 0 0 -5.56585612959833 0 0 0 0 0 0 0 -0.568376358888101 0 0 0 0 0 0 0 0 0 0 0 0 -0.430817744750926 0 0 0 0 0 0 0 0 0 0 0 0 0 0
0 0 0 0 0 0 0 0.11788656277724 0 0 0 -1.28568927497242 0 0 -2.16959456082196 0 0 0 0 0 0 0 0 0 0 0 0 0 0 0 0 0 0 0 0 0 0 0 0 0 0 0 0 0 -7.29734517349916 0 0 0 0 0
0 0 0 0 0 0 0 0 0 0 0 0 0 0 0 0 -1.20911777861056 0 0 0 0 0 0 0 0 0 0 0 0 0 0 -1.39794803274347 0 0 0 0 0 0 0 0 0 0 0 0 0 -0.933987334057213 0 0 0 0
0 0 0 0 0 0 0 0 0 0 0 0 0 0 0 -1.48739125216254 0 0 0 0 -2.65690210133853 0 0 0 -1.33039204975475 0 0 0 0 0 0 -0.660411019763518 0 0 0 0 0 0 0 0 0 0 0 0 0 0 0 0 0 0
0 0 0 0 0 0 0 0.0693436213469438 0.268336575207262 0 0 0 0 0 0 0 0 0 0 0 0 0 0 -0.289329843135852 0 0 0 0 0 0 0 -0.753715599967934 0 0 -0.167357528969156 0 0 0 0 0 0 0 0 0 0 -1.81231234060071 0 0 0 0
0 0 0 0 0.0512823041772411 0.450596660199414 0 0 0 0 0 0 0 0 0 -0.19797848801411 0 0 0 0 0 0 0 0 0 0 0 0 0 0 -0.355170029655987 0 0 -3.25053728583974 0 0 0 0 0 0 0 0 0 0 0 -0.310433732589738 0 0 0 0
0 0 0 0.0534840390151596 0 0 0 0 0 0 0 0 0 0 0 -0.847640925757103 0 0 0 -0.819205239746364 0 0 0 0 0 0 0 0 0 0 -1.71719766630066 0 0 -3.83796483496505 0 0 0 0 0 0 0 0 0 0 0 -0.528443691914656 0 0 0 0
0 0 0 0 0 0 0 1.17655698762361 0.423488451042532 0 0 0 0 0 0 -2.1866302319234 0 0 0 -0.747456514282056 0 0 0 -1.88180143259117 0 0 0 0 0 0 -5.34155424009108 0 0 -0.710961880727263 0 0 0 0 0 0 0 0 0 0 0 0 0 0 0 0
0 0 0 0 0 0 0 0 0 0 0.306622902145116 0 0.0395505835893665 0.174290396973231 0.480858664763952 0 0 0 0 -2.30329990737841 0 0 0 0 0 0 0 0 -4.51725483166278 0 -0.527412781814977 0 0 0 0 0 0 0 0 0 0 0 0 0 0 0 0 0 0 0
0 0 0 0 0 0 0 0 0 0.229911506008261 0 0 0 0 0 0 0 0 0 -3.71257644298988 0 0 0 0 0 0 0 0 -0.357620781564504 0 -0.523965395135761 0 0 -1.63049097644839 0 0 0 0 0 0 0 0 0 0 0 0 0 0 0 0
0.15850943797584 0.0951428793799073 0.0349918027425459 0.261356366968548 0 0 0 0 0 0 0 0 0 0 0 0 0 0 0 -11.1874848456531 0 -0.192979271039466 0 0 0 -0.430320297839734 0 0 -0.37897903854675 0 -6.11664386232182 0 0 0 0 0 0 0 0 0 0 0 0 0 0 0 0 0 0 0
0 0 0 0 0 0 0 0 0 0 0 0 0 0 0 0 0 0 0 -1.67495413918243 0 -1.14016775090367 0 0 0 0 0 0 0 0 -1.57585739358255 0 0 -0.100598649107005 0 0 0 0 0 0 0 0 0 0 0 0 0 0 0 0
0 0 0 0 0 0 0 0 0 0 0 0 0 0.164828399773794 0.157673913933239 0.469747593087099 0.745355357015999 2.36180731744081 0.308117161358989 0 0.468801430161684 0 0 0.693125441654075 0 0 0 0 -0.996110818065491 0 -0.473169586000171 0 0 0 0 0 0 0 0 0 0 0 0 0 0 0 0 0 0 0
0 0 0 0 0 0 0 0 0 0 0.537770371168719 0 0 0 0 0 0 0 0 -2.3134432788437 0 0 0 0 0 0 0 0 0 0 -0.297461743903192 0 0 -0.390564765425879 0 0 0 0 0 0 0 0 0 0 0 0 0 0 0 0
0 0 0 0 0 0 0 0 0 0 0 0 0 0 0 0 0 0.0408657137293955 0.237949082386339 0 0 0 0 0 0 0 0 0 0 -0.846194632914384 -0.891471430251037 0 0 -0.994796688960345 0 0 0 0 0 0 0 0 0 -0.300817547678972 0 0 0 0 0 0
0 0 0 0 0 0 0.152850159493461 0.103897442704036 0 0 0 0 0 0 0 0 0 0 0 0 0 0 0 0 0 0 0 0 0 -0.710244116272408 0 0 0 -1.89032839806023 0 0 0 0 0 0 0 0 0 0 0 0 -0.244678360242884 0 0 0
0 0 0 0 0 0 0 0 0 0 0 0.0585282649480402 0 0 0.330532427892869 0 0 0 0 -3.74493480898039 0 0 0 0 0 0 0 0 0 -3.95738092380947 -0.562349028320187 0 0 -4.33567279163091 0 0 0 0 0 0 0 0 0 0 0 0 0 0 0 0
0 0 0 0 0 0 0 0 0 0 0.264587895344759 0 0 0 0 0 0 0 0 0 0 0 0 0 0 0 0 0 0 0 0 0 0 -3.92321267978048 0 0 0 0 0 0 0 0 0 0 0 0 -1.14156192480502 0 0 0
0 0 0 0 0 0 0 0 0 0 0 0 0 0 0 0 0 0.0784103506135479 0 0 0 0 0 0 0 0 0 0 0 0 0 0 0 0 0 0 0 0 0 0 0 0 0 0 0 0 0 0 0 0
0 0 0 0 0 0 0 0 0 0 0 0 0 0 0 0 0 0 0 0 0 0 0 0 0 0 0 0 0 -1.3700420240688 0 0 0 0 0 0 0 0 0 0 0 0 0 -1.81621416336867 0 0 -2.41250878367189 0 0 0
0 0 0 0 0 0 0 0 0 0 0 0 0 0 0 0 0 0 0 0 0 0 0 0 0 0 0 0 0 -1.24836755862319 0 0 0 0 0 0 0 0 0 0 0 0 0 0 0 0 0 0 0 0
0 0 0 0 0 0 0 0 0 0 0 0 0 0 0 0.881107832619726 0.0778445499973398 0.0733670685504011 0 0.19326376208906 0 0 0 0 0 0 0 0 0 0 0 0 0 0 0 0 -2.8207197741085 0 0 0 0 0 0 0 0 0 -0.396336158998594 0 0 0
0 0 0 0 0 0 0 0 0 0 0 0 0 0 0 0 0 0 0 0 0 0.17171169073567 0.141656097974291 0.823515334685047 0 0 0.290331864684644 0.246763781581195 0 0 0 0 0 0 0 0 0 0 0 0 0 0 0 -8.80962747055912 0 0 0 0 0 0
0 0 0 0 0 0 0 0 0 0 0 0 0.0699590791014864 0.35111545153013 1.01806497972578 0.115439541689478 0.0944677743024693 1.18025786134947 0.337387496157292 0.0931752580836376 0.0589137711817875 0.191730530208163 0 0.119983793092037 0 0 0 0 0 0 0 0 0 0 0 0 0 0 0 0 0 0 0 -1.50541951620381 0 0 -0.682718712077746 0 0 0
0 0 0 0 0 0 0 0 0 0.274942589239783 0.134130412908534 0.155626557081943 0 0 0 0 0 0 0 0 0 0 0 0 0 0 0 0 0 0 0 0 0 0 0 0 0 0 0 0 0 0 0 -0.0872311091553835 0 0 -1.14926395974053 0 0 0
0 0 0 0 0 0 0 0 0 0 0 0 0 0 0 0 0 0 0 0 0 0 0 0 0 0 0 0 0 0 0 0 0 0 0 0 0 0 0 0 0 0 0 0 0 0 -0.750441953408767 0 0 0
0 0 0 0 0 0 0 0 0 0 0 0 0.61446865736301 0.765087203508762 0.140939452664088 0 0.308120530155843 0 0.0207574080069577 0 0.080087138001973 0.200374849585309 0.385681602413048 0.852804994670075 0.768758631387697 0 0 0 0 0 0 0 0 0 0 0 0 0 0 0 0 0 0 -3.93046202663204 0 0 -3.83395484965411 0 0 0
0 0 0 0 0 0 0 0 0 0 0 0.0351786524211748 0 0 0 0 0 0 0 0 0 0 0 0 0 0 0 0 0 0 0 0 0 0 0 0 0 0 0 0 0 0 0 -0.284617511874265 0 0 0 0 0 0
0 0 0.118937811339083 0 0.3570049723719 0.0822625677498335 0 0.0759561746869091 0 0 0 0 0 0 0 0 0 0 0 0 0 0 0 0 0 0 0 0 0 0 0 0 0 0 0 0 0 0 0 0 0 0 0 -0.828646553076345 0 0 -1.04285121673528 0 0 -3.29837476805212
0 0 0 0 0 0 0 0 0 0 0 0 0 0 0 0 0 0 0 0 0 0 0 0 0 0 0 0 0.578327800438983 0 0 0 0 0 0 0 0 0 0 0 0 0 0 -2.3702797788519 0 0 0 0 0 -5.57445388079594
0 0.0395502328334648 0 0 0 0 0 0 0 0 0 0 0 0 0 0 0 0 0 0 0 0 0 0 0 0 0 0 0 0 0 0 0 0 0 0 0 0 0 0 0 0 -1.27100723952976 0 0 0 0 -1.15375968546684 0 -1.44298615385296
0 0 0 0 0 0 0 0 0 0 0 0 0 0 0 0 0 0 0 0 0 0 0 0 0 0 0 0 0 0 0 0 0 0 0 0 0 0 0 0 0 0 -0.134837863043548 0 0 0 0 0 0 -0.299285954029083
0 0 0 0 0 0 0 0 0 0 0 0 0 0 0 0 0 0 0 0 0 0 0 0 0 0 0 0 0 0 0 0 0 0 0 0 0 0 0 0 -6.59056288171555 0 -1.44993678189286 0 0 0 0 0 0 -0.683168104587077
0 0 0 0 0 0 0 0 0 0 0 0 0 0 0 0 0 0 0 0 0 0 0 0 0 0 0 0 0 0 0 0 0 0 0 0 0 0 0 1.24078546156961 0 0 0 0 0 0 0 0 0 -2.24148198054349
0 0 0.695293234224743 0.504085467746298 0 0.0426775022893967 0.0976316492345483 0 0 0 0 0 0 0 0 0 0 0 0 0 0 0 0 0 0 0 0 0 0 0 0 0 0 0 0 0 0 0 0 0 0 0 -1.75212860113687 0 0 0 0 0 0 -3.02791284052974
0 0 0 0 0 0 0 0 0 0 0 0 0 0 0 0 0 0 0 0 0 0 0 0 0 0 0 0 0 0 0 0 0 0 0 0 0 0.224439621790541 0.0242235769208323 0.263089867730749 0 0.348903175529221 0 0.46146154722692 0 0.292982285270163 0.394471576343651 0 0 -3.94689208214108
0 0 0 0 0 0 0 0 0 0 0 0 0 0 0 0 0 0 0 0 0 0.0590749517142286 0 0 0 0 0.387406560480086 0 0 2.0063585951379 0.322652951674966 0.0162593318003555 0 0.781769112205651 0.0544962025798625 0.171821856172465 0.504649710383713 0 0 0 0 0 -2.00064827069561 0 0 0 0 0 0 0
0 0 0.241243692467995 0 0.201010024599615 0.0922757330067197 0 0 1.45033458649354 0 0 0 0 0 0 0 0 0 0 0 0 0 0 0 0 0 0 0 0 0 0 0 0 0 0 0 0 0 0 0 0 0 0 0 0 0 0 0 0 0
0 0 0 0 0 0 0 0 0 0.202991188115555 0 0.39398997532768 0.0622011190184501 0.10473296781101 0 0 0 0 0 0 0 0 0 0 0 0 0 0 0 0 0 0 0 0 0 0 0 0 0 0 0 0 -1.46812097082489 0 0 0 0 0 0 0
0 0 0 0 0 0 0 0 0 0 0 0 0 0 0 0 0 0 0 0 0 0 0.0499305250762626 0 0.231421398533665 0 0.483195730195227 0 0.0767424597929972 0 0.129924327085804 0.239048885180563 0.159779077488578 0.764396084152425 0 0.228869384961066 0 0 0 0 0 0 -1.8535380560156 0 0 0 0 0 0 0
0 0 0 0 0 0 0 0 0 0 0 0 0 0 0 0 0 0 0 0 0 0 0 0 0 0 0 0 0 0 0 0 0 0 0 0 0 0.227802791736411 0 0 0 0 0 0 0 0 0 0 0 0
0 0 0 0.0796087709778257 1.07114591236328 0 0.11631959514896 0 0 0 0 0 0 0 0 0 0 0 0 0 0 0 0 0 0 0 0 0 0 0 0 0 0 0 0 0 0 0 0 0 0 0 0 0 0 0 0 0 0 0
0 0 0 0 0 0 0 0 0 0 0 0 0 0 0 0 0 0 0 0 0 0 0 0 0 0 0 0 0 0 0 0 0 0 0 0.640921369433981 1.12568130056996 0.286807157629725 0.0620640562770604 0.133984841741813 0.473855728536784 0.620045548215319 0.744349599454923 0 0 0 0 0 0 0
