0.0739296186352828
0.287082281925381
0.578581482003925
0.720382967877708
0.394203448097095
0.362384174000176
0.31523039356204
0.77228996142603
1.58305059383779
0.178029936637026
0.193343775829413
0.848426380351807
1.66602332233222
1.95524900333038
3.06990646941819
3.69392764355841
0.766965892789549
0.143231465329048
3.97300576023183
0.107957646836381
0.871870310175467
0.313205051621215
0.701320210992298
0.701394248418416
1.78558466188807
0.455343147094765
3.04873551926957
0.673700291927588
1.15828773948571
0.52545839342098
0.605673456680862
0.194289330901792
1.93250521713533
2.3430451933463
0.827553528317985
4.49092478571438
0.406597712276818
0.297921476952029
0.762357283216496
0.972803613275936
1.16589022760355
0.126026647556043
2.21907767806279
0.334061881970707
2.28730421301406
0.646994930546239
2.88914145592996
2.16224420346165
0.0928115134385251
0.404566089928082
