0 0 0 0 0 0 0 0 0 0 0 -1.19949104434562 0 0 0 0 0 0 0 0 0 0 0 0 0 0 0 0 0 0 0 0 0 0 0 0 -1.49695406958458 0 0 0 0 0 0 0 0 0 -0.128994530049168 0 0 0
0 0 0 0 0 0 0 0 0 0 0 0 0 0 0 0 0 0 -3.24789101423408 0 0 0 0 0 0 0 0 -1.3784810248022 0 0 0 0 0 0 0 0 0 0 0 0 0 0 0 0 0 0 -0.93405949609049 0 0 0
0 0 0 0 0 0 0 0 0 0 0 -0.915928712054108 0 0 0 -7.25255049960242 0 0 -0.663601268176614 0 0 0 0 0 0 0 0 0 0 0 0 0 0 0 0 0 -0.564278934162901 0 0 0 0 0 0 0 0 0 -0.249574381360065 0 0 0
0 0 0 0 -1.21213974272692 0 0 -1.83293513331688 0 0 -0.421003657593715 -0.799115073928352 0 0 0 0 0 0 0 0 0 0 0 0 0 0 0 0 0 0 0 0 0 0 0 0 -1.4808518003937 0 0 0 0 0 0 0 0 0 -0.888070154290553 0 0 0
0 0 0 0.240369899366977 0 0 0 -0.535859203108478 0 0 -1.95586237184471 0 0 0 0 0 0 0 -0.633724472053456 0 0 0 0 0 0 0 0 0 0 -2.42622108284658 0 0 0 0 0 0 0 -3.59054031950495 0 0 0 0 0 0 0 0 0 0 0 0
0 0 0 0 0 0 0 0 0 0 0 -1.67503629358635 0 0 0 0 0 0 0 0 0 0 0 0 0 0 0 0 0 -0.361636846539613 0 0 0 0 0 0 0 0 0 0 0 0 0 0 0 0 0 0 0 0
0 0 0 0 0 0 0 0 0 0 0 0 0 0 0 0 0 0 0 0 0 0 0 0 0 0 0 0 0 0 0 0 0 0 0 0 0 -0.982508110396715 0 0 0 0 0 0 0 0 0 -4.83705373039913 0 0
0 0 0 0.368257116174438 0.111389370348514 0 0 0 0 0 0 0 0 0 0 0 0 0 0 0 0 0 0 0 0 0 0 0 0 0 0 0 0 0 0 0 0 0 0 0 0 0 0 0 0 0 0 -1.68730003879968 0 0
0 0 0 0 0 0 0 0 0 0 0 0 0 0 0 0 0 0 0 0 0 -0.624226805068993 0 0 0 0 0 0 0 0 0 0 0 0 0 0 0 -2.36383431368625 0 0 0 0 0 0 0 0 0 0 0 0
0 0 0 0 0 0 0 0 0 0 0 0 0 0 0 0 0 0 0 0 0 0 0 0 0 0 0 0 0 0 0 0 0 0 0 0 0 -3.57963044695612 0 0 0 0 0 0 0 0 0 0 0 0
0 0 0 0.0821760426094029 0.37073894250123 0 0 0 0 0 0 0 0 0 0 0 0 0 0 0 0 0 0 0 0 0 0 0 0 0 0 0 0 0 0 0 0 -0.625225029605734 0 0 0 -0.588018689049645 0 0 0 0 0 -4.45124209858097 0 0
0.223449831153636 0 0.180344655667423 0.153384991836762 0 0.34095266222512 0 0 0 0 0 0 0 0 -0.531775291337183 0 0 0 0 0 0 0 0 0 0 0 0 0 0 0 -1.25928658182028 0 0 0 0 0 0 -0.470886362361713 0 0 0 0 0 0 0 0 0 -3.18225350609039 0 0
0 0 0 0 0 0 0 0 0 0 0 0 0 0 0 0 -0.651979416298453 0 0 0 0 0 0 0 0 0 0 0 0 0 -0.144931951028551 0 0 0 0 0 0 -2.1331600657657 0 0 0 0 0 0 0 0 0 0 0 0
0 0 0 0 0 0 0 0 0 0 0 0 0 0 0 0 -0.207245363985923 0 0 0 0 0 0 0 0 0 0 0 0 0 -0.956384372802291 0 0 0 0 0 0 -1.50574316131665 0 0 0 0 0 0 0 0 0 0 0 0
0 0 0 0 0 0 0 0 0 0 0 0.112459078138404 0 0 0 0 -0.354333930302826 0 0 -0.80082612130058 -0.598605197929143 0 0 0 0 0 0 0 0 0 -1.14104307093129 0 0 0 0 0 0 -1.07679874581171 0 0 0 0 0 0 0 0 0 0 0 0
0 0 1.56994650880475 0 0 0 0 0 0 0 0 0 0 0 0 0 -11.7673866220465 0 0 -0.629601947101576 0 0 0 0 0 0 0 0 0 0 -0.440224043977549 0 0 0 0 -1.9117304646595 0 -0.744898877500863 0 0 0 0 0 0 0 0 0 0 0 0
0 0 0 0 0 0 0 0 0 0 0 0 0.12727509576867 0.0383106759139707 0.0657254143587264 2.22351425950071 0 0 0 0 -1.66526688004463 0 0 0 0 0 0 0 0 0 -1.28528326283341 0 -0.658621315092475 0 0 -0.466252565470197 0 0 0 0 0 0 0 0 0 0 0 0 0 0
0 0 0 0 0 0 0 0 0 0 0 0 0 0 0 0 0 0 0 0 0 0 0 0 0 0 0 0 0 0 0 0 -1.94181077836656 0 0 -1.86030297861284 0 0 0 0 0 0 0 0 0 0 0 0 0 0
0 0.653101903343032 0.127199596593552 0 0.120714020543931 0 0 0 0 0 0 0 0 0 0 0 0 0 0 0 -5.00564403087163 0 0 0 0 0 0 0 0 0 0 0 -1.39053953523284 0 0 0 0 0 0 0 0 0 0 0 0 0 0 0 0 0
0 0 0 0 0 0 0 0 0 0 0 0 0 0 0.156189464207068 0.118067928543553 0 0 0 0 -1.7742878745373 0 0 0 0 0 0 0 0 0 0 0 -1.2215618399472 0 0 -0.149056477243744 0 0 0 0 0 0 0 0 0 0 0 0 0 0
0 0 0 0 0 0 0 0 0 0 0 0 0 0 0.127352478477483 0 0.351318343824031 0 1.04315072739528 0.361561708485989 0 0 0 -3.62406902890819 0 0 0 0 0 0 0 0 0 0 0 -3.46043834160018 0 0 0 0 0 0 0 0 0 0 0 0 0 0
0 0 0 0 0 0 0 0 0.132234224357797 0 0 0 0 0 0 0 0 0 0 0 0 0 0 -3.69570581783154 0 -1.40832028689199 -1.18916410744486 0 0 0 0 0 -0.21834714994603 0 0 0 0 0 0 0 0 0 0 0 0 0 0 0 0 0
0 0 0 0 0 0 0 0 0 0 0 0 0 0 0 0 0 0 0 0 0 0 0 0 0 -0.408640971577634 0 0 0 0 0 -0.598425832859929 0 0 0 0 0 0 0 0 0 0 0 0 0 0 0 0 0 0
0 0 0 0 0 0 0 0 0 0 0 0 0 0 0 0 0 0 0 0 0.724824098714862 0.807044083257857 0 0 0 -0.227377688860506 0 0 0 0 0 -3.48776159313828 0 0 0 0 0 0 0 0 0 0 0 0 0 0 0 0 0 0
0 0 0 0 0 0 0 0 0 0 0 0 0 0 0 0 0 0 0 0 0 0 0 0 0 -1.77882726372469 0 0 -5.27049074825415 0 0 -0.258449945844924 0 0 0 0 0 0 0 0 0 0 0 0 0 0 0 0 0 0
0 0 0 0 0 0 0 0 0 0 0 0 0 0 0 0 0 0 0 0 0 0.26026729501871 0.0779581920300522 0.0478618069439734 0.329149820644693 0 0 0 -3.6424792690176 0 0 -1.60321711363422 0 0 0 -0.36452609088349 0 0 0 0 0 0 0 0 0 0 0 0 0 0
0 0 0 0 0 0 0 0 0 0 0 0 0 0 0 0 0 0 0 0 0 0.244224186119385 0 0 0 0 0 0 0 0 0 0 0 0 0 -0.33723029619205 0 0 0 0 0 0 0 0 0 0 0 0 0 0
0 0.280887126782553 0 0 0 0 0 0 0 0 0 0 0 0 0 0 0 0 0 0 0 0 0 0 0 0 0 0 -3.23744209564097 0 0 -0.71251303839167 0 0 -0.4152590443137 0 0 0 0 -0.319540013175133 0 0 0 0 0 0 0 0 0 0
0 0 0 0 0 0 0 0 0 0 0 0 0 0 0 0 0 0 0 0 0 0 0 0 1.01219532360416 0.795358973085399 0 0.639758644694115 0 0.0590003373753829 0 0 0 0 -1.40654120390661 0 0 0 0 -0.212739984016853 0 0 0 0 0 0 0 0 0 0
0 0 0 0 0.469634650242856 0.0733467198295762 0 0 0 0 0 0 0 0 0 0 0 0 0 0 0 0 0 0 0 0 0 0 -0.291085058476993 0 0 -1.52556857679933 0 0 -1.17917634574642 -0.193931533816986 0 0 0 -2.0177222396552 0 0 0 0 0 0 0 0 0 0
0 0 0 0 0 0 0 0 0 0 0 0.259851114567769 0.0288402462123154 0.188814913338667 0.238557463008578 0.0965996988474852 0.259400566063515 0 0 0 0 0 0 0 0 0 0 0 0 0 0 -0.38536406843562 0 0 -1.94851595000014 0 0 0 -1.7160609545464 -1.72460712933832 0 0 0 0 0 0 0 0 0 0
0 0 0 0 0 0 0 0 0 0 0 0 0 0 0 0 0 0 0 0 0 0 0.115575445822281 0.748511358375994 0.0494261205294803 0.323978539960125 0 0.153405967365703 0 0.320103783159718 0.077779023805386 0 0 0 0 0 0 0 -1.17741573626953 -0.101636369790443 -1.5618636342204 0 0 0 0 0 0 0 0 0
0 0 0 0 0 0 0 0 0 0 0 0 0 0 0 0 0.130557287305939 0.38926542832278 0.271483254491715 0.244691895538808 0 0.0436155911211158 0 0 0 0 0 0 0 0 0 0 0 0 0 0 0 0 -0.307849862615272 0 -1.72155164304085 0 0 0 0 0 0 0 0 0
0 0 0 0 0 0 0 0 0 0 0 0 0 0 0 0 0 0 0 0 0 0 0 0 0 0 0 0 0 0 0 0 0 0 0 0 0 0 0 0 -2.35782263423553 0 0 0 0 0 0 0 -0.115446634485678 0
0 0 0 0 0 0 0 0 0 0 0 0 0 0 0 0 0 0 0 0 0 0 0 0 0 0 0 0.088380776436383 0.280793773893761 0.244588614281243 0.402455648615276 0 0 0 0 0 0 0 0 0 -0.180593923447746 0 -3.22842352876846 0 0 0 0 0 -1.11185723266949 -0.941901107972295
0 0 0 0 0 0 0 0 0 0 0 0 0 0 0 0.371655266289758 0.0952124004578896 0.376805466638471 0 0.0305766891746098 0.691255879132224 0 0 0 0 0.0758402404961952 0.0690591746649707 0 0 0.0407133555314833 0 0 0 0 0 0 0 0 0 0 0 0 -3.92140807691921 0 0 0 0 0 -1.10828264097643 0
0.327384586863713 0 0.107930298259089 0.277003467813826 0 0 0 0 0 0 0 0 0 0 0 0 0 0 0 0 0 0 0 0 0 0 0 0 0 0 0 0 0 0 0 0 0 0 0 0 0 0 -1.42400585692232 0 0 0 0 0 0 0
0 0 0 0 0.725287022453767 0 0.191035509770743 0 0.495647384312156 0.687934907245772 0.117965488517533 0.0982567843232236 0.40446234044698 0.291135688809062 0.208888535993585 0.129183284046455 0 0 0 0 0 0 0 0 0 0 0 0 0 0 0 0 0 0 0 0 0 0 0 0 0 0 -2.88591389716438 0 0 0 0 0 -0.375220624027001 -1.50713693655485
0 0 0 0 0 0 0 0 0 0 0 0 0 0 0 0 0 0 0 0 0 0 0 0 0 0 0 0 0 0 0.305107846873503 0.230972954611509 0.0582257384498607 0 0 0 0 0 0 0 0 0 -2.05724904017184 0 0 0 0 0 -1.06385172989288 0
0 0 0 0 0 0 0 0 0 0 0 0 0 0 0 0 0 0 0 0 0 0 0 0 0 0 0 0.0687244707678418 0.0438730888909169 0.444161975336348 0.35524307569277 0.0209525363749504 0 0 0 0 0 0 0 0 0 0 -1.1157799101232 0 0 0 0 0 0 -1.19326458789711
0 0 0 0 0 0 0 0 0 0 0 0 0 0 0 0 0 0 0 0 0 0 0 0 0 0 0 0 0 0 0 0.33537022984549 0.357648886205514 0.460686345787732 0.0354590025591565 0 0 0 0 0 0 0 -0.750070573857021 0 0 0 0 0 -2.28975659775675 -0.626064642981649
0 0 0 0 0 0 0 0 0 0 0.116454481736154 0 0 0 0 0 0 0 0 0 0 0 0 0 0 0 0 0 0 0 0 0 0 0 0 0 0 0 0 0 0 0 -0.761582736682965 0 0 0 0 0 0 -2.62504133036744
0 0 0 0 0 0 0 0 0 0 0 0 0 0 0 0 0 0 0 0 0 0 0 0 0 0 0 0 0 0 0 0 0 0 0.66058354581131 0.819397437731321 0.293189815150223 0.607542792193051 0.396807615908794 0.236595158086271 0.155742043448128 0.156602696837732 0 0.207439067201397 0.424341706993148 0 0 0 0 0
0 0 0 0 0 0 0 0 0 0 0 0 0 0 0 0 0 0 0 0 0 0 0 0 0 0 0 0 0 0 0 0 0 0 0 0 0 0 0 0 0 0 -1.05104451455328 0 0 0 0 0 0 -0.0519365652462889
0 0 0 0 0 0 0 0 0 0 0 0 0 0 0 0 0 0 0 0 0 0 0 0 0 0 0 0 0 0 0 0 0 0 0 0 0 0 0 0 0 0 -2.16480537749187 0 0 0 0 0 0 0
0 0 0 0 0 0 0 0 0 0 0 0 0 0 0 0 0 0 0 0 0 0 0 0 0 0 0 0 0 0 0 0 0 0 0 0 0 0 0 0 0 0 0 0 0 0 0 0 0 -0.790018647697057
0.0257329087711771 0.186264984760075 0.0550721558009859 0.169591738539954 0 0 0 0 0 0 0 0 0 0 0 0 0 0 0 0 0 0 0 0 0 0 0 0 0 0 0 0 0 0 0 0 0 0 0 0 0 0 0 0 0 0 0 0 0 0
0 0 0 0 0 0 0.989636990249965 0.337842352959628 0 0 0.833714992217195 0.596333061193011 0 0 0 0 0 0 0 0 0 0 0 0 0 0 0 0 0 0 0 0 0 0 0 0 0 0 0 0 0 0 0 0 0 0 0 0 0 -0.206645887491012
0 0 0 0 0 0 0 0 0 0 0 0 0 0 0 0 0 0 0 0 0 0 0 0 0 0 0 0 0 0 0 0 0 0.0229148792999231 0.212366373628384 0.235049615999253 0 0.0725158111155487 0.208068923141794 0 0.476728638518924 0 0 0 0 0 0 0 0 -0.096672127255017
0 0 0 0 0 0 0 0 0 0 0 0 0 0 0 0 0 0 0 0 0 0 0 0 0 0 0 0 0 0 0 0 0 0 0.189075091736021 0 0 0.329669417379119 0 0.22816281455104 0.117622957080107 0.508798744346255 0 0.0101276558630535 0 0.151945787341422 0 0.0420786362805917 0.020180855649127 0
