5.51366540457071
0.866542013806149
0.704223768139785
0.527409189309787
3.76027601415869
0.711979454577439
0.122770951636267
1.24740095295443
1.04976128958466
1.99785609764458
0.259329156004955
1.58842446661625
0.832512135507671
0.718761613746626
3.09383134063223
2.21605199360172
0.366521180132647
2.54422204890344
1.06451147383865
1.01440653273784
1.68639731019878
0.980369255150566
7.73987371608146
0.627601113967093
0.76381381794331
0.193539089376563
0.266630280630906
1.1830332254815
4.77516139140509
0.918166537126279
1.54108456514902
1.72440385170926
0.929278873630139
0.11835518443256
4.0930094710515
0.298981871749702
0.385707470539749
0.687026699537441
0.324514876396595
1.41238838153735
0.119141806236412
3.35838795679454
2.63446696660262
1.19827074071951
0.847700031956719
0.346436132271466
0.197001520863251
4.76993354553944
1.23468035692733
1.2546996589563
