0 0 0 0 0 0 0 0 0 0 0 0 0 0 0 0 0 0 -0.763807484053202 0 0 0 0 0 0 0 0 0 0 0 0 0 0 0 0 0 0 0 0 0 0 0 0 0 0 0 0 0 0 0
0 0 0 0 -1.5747843077863 -1.04874652005706 0 0 0 0 0 0 0 0 0 0 0 0 0 0 0 0 0 0 0 0 0 0 0 0 0 0 0 0 0 0 0 0 0 0 0 0 0 0 0 0 0 0 0 0
0 0 0 0 0 0 0 0 0 0 -0.495079887120387 0 0 0 0 0 0 0 -0.40315014474738 0 0 0 0 0 0 0 0 0 0 0 0 0 0 0 0 0 0 0 0 0 0 0 0 0 0 0 0 0 -1.1198882047795 0
0 0 0 0 0 0 0 0 -0.775626809862356 0 -1.31312448430582 0 0 0 0 0 0 0 -2.84584159408628 0 0 0 0 0 0 0 0 0 0 0 0 0 0 0 0 0 0 0 0 0 0 0 0 0 0 0 0 0 0 0
0 0.331577316685059 0 0 0 0 0 0 0 0 -0.166917302978189 0 0 0 0 0 0 0 0 0 0 0 0 0 0 -1.52072005431087 0 0 0 -1.69323545561725 0 0 0 0 0 0 0 0 0 0 0 0 0 0 0 0 0 0 -3.12002868233324 0
0 0.214418523490346 0 0 0 0 0 0 0 0 0 0 0 0 0 0 0 0 -1.19621383572844 0 0 0 0 0 0 -6.17412310984922 0 0 0 0 0 0 0 0 0 0 0 0 0 0 0 0 0 0 0 0 0 0 -0.793910528314198 0
0 0 0 0 0 0 0 0 0 0 0 0 0 0 0 0 0 0 -1.92971929497018 0 0 0 0 -3.56139798599653 0 -1.39644746919663 0 0 0 0 0 0 0 0 0 0 0 0 0 0 0 0 0 0 0 0 0 -2.76308798617755 0 0
0 0 0 0 0 0 0 0 0 0 0 0 0 0 0 0 0 0 -1.08711881376458 0 0 0 0 0 0 -0.889420245018457 0 0 0 -0.595735391176488 0 0 0 0 0 0 0 0 0 0 0 0 0 0 0 0 0 -0.578081167362552 -0.504295014179445 0
0 0 0 0.154636916210168 0 0 0 0 0 0 0 0 0 -1.03026806989531 0 0 0 0 -3.15447432000633 0 0 0 0 -0.539676384368293 0 0 0 0 0 -1.22706782598906 0 0 0 0 0 0 0 0 0 0 0 0 0 0 0 0 0 0 -0.652934599334424 0
0 0 0 0 0 0 0 0 0 0 0 0 0 0 0 0 0 0 -4.0398616347321 0 0 0 0 0 0 -0.731867699063884 0 0 0 -1.04198772223596 0 0 0 -1.09310642659158 0 0 0 0 0 0 0 0 0 0 0 0 0 -0.604252613526007 -1.07140218223619 0
0 0 0.104288842665587 0.250983739402856 0.0300462312115212 0 0 0 0 0 0 0 0 0 0 0 0 0 -2.6623073716104 0 0 0 0 -7.29305011539581 0 0 0 0 0 0 0 0 0 -2.45074557472926 0 0 0 0 0 0 0 0 0 0 0 0 0 0 -0.262175952519022 0
0 0 0 0 0 0 0 0 0 0 0 0 -0.548377709491268 0 0 -11.5813576039045 0 0 0 0 0 0 0 -3.28433204303141 0 0 0 0 0 0 0 0 0 0 0 -2.31940942685383 0 0 0 0 0 0 0 0 0 0 0 -4.05438712326453 -0.469227550571831 0
0 0 0 0 0 0 0 0 0 0 0 0.103040104005472 0 0 0 0 0 0 0 0 0 -1.53413221811796 0 0 0 -1.10761423938729 0 0 0 0 0 0 0 0 0 0 0 0 0 0 0 0 -0.799971981655344 0 0 0 0 0 -1.65843975402872 0
0 0 0 0 0 0 0 0 0.219537718664762 0 0 0 0 0 0 0 0 0 0 0 0 0 0 -0.297918191535247 0 -4.1799431924054 0 0 0 0 0 0 0 0 0 0 0 0 0 0 0 0 0 0 0 0 0 0 -0.724605491725345 0
0 0 0 0 0 0 0 0 0 0 0 0 0 0 0 -0.18110378476174 0 0 0 0 0 0 0 0 0 -0.810984405899851 0 0 0 0 0 0 0 0 0 0 0 0 0 0 0 0 -2.34298094252972 0 0 0 0 0 -1.02336503452484 0
0 0 0 0 0 0 0 0 0 0 0 2.22757231829173 0 0 0.0358917692584371 0 0 0 0 0 0 0 0 -2.31940021697288 0 -5.93210607436569 0 0 0 0 0 0 0 0 0 0 0 0 0 0 0 0 0 0 0 0 0 0 0 0
0 0 0 0 0 0 0 0 0 0 0 0 0 0 0 0 0 0 0 0 0 0 0 0 0 0 0 0 0 0 0 0 0 0 0 0 0 0 0 0 0 0 -0.34990220323016 0 0 0 0 0 -1.62678188033607 0
0 0 0 0 0 0 0 0 0 0 0 0 0 0 0 0 0 0 0 0 0 0 -1.25622439339636 0 0 0 0 0 0 0 0 0 0 0 0 0 0 0 0 0 0 0 0 0 0 0 0 0 0 0
0.151125131427083 0 0.0764365689723926 0.590940724192813 0 0.252622103280952 0.40302654944213 0.210222447480939 0.578586943961306 0.75477679327336 0.540349780055568 0 0 0 0 0 0 0 0 0 0 0 -0.439530214014158 0 0 0 0 0 0 0 0 0 0 0 0 0 0 0 0 0 0 0 -0.634241846839769 0 0 0 0 0 0 0
0 0 0 0 0 0 0 0 0 0 0 0 0 0 0 0 0 0 0 0 0 0 -0.0761020880329764 0 0 0 0 0 0 0 0 0 0 0 -0.619670072450964 0 0 0 0 0 0 0 0 0 0 0 0 0 0 0
0 0 0 0 0 0 0 0 0 0 0 0 0 0 0 0 0 0 0 0 0 0 0 0 0 0 0 -0.536477948129248 0 0 0 0 0 0 0 0 -1.65879929081131 0 0 0 0 0 -0.39736210858843 0 0 0 0 0 0 0
0 0 0 0 0 0 0 0 0 0 0 0 0.319122063528763 0 0 0 0 0 0 0 0 0 0 0 0 0 0 0 0 0 -0.362332472831126 0 0 0 0 0 0 0 -0.371577934088342 0 0 0 -0.732483456121423 0 0 0 0 0 0 0
0 0 0 0 0 0 0 0 0 0 0 0 0 0 0 0 0 0.259694971447365 0.0852879181594608 0.0150438144274939 0 0 0 0 0 0 0 0 0 0 0 0 -0.275389132692126 0 0 0 0 0 -0.222900164223726 0 0 0 0 0 0 -0.418709227549134 0 0 0 0
0 0 0 0 0 0 0.762207399856807 0 0.106282191418826 0 1.41339354976227 0.646187660674426 0 0.0634716732013187 0 0.434203112393533 0 0 0 0 0 0 0 0 0 0 0 0 0 0 0 0 -1.35625874491801 0 0 0 0 0 0 0 0 0 -0.793980421806703 0 0 -3.33618594535494 0 0 0 0
0 0 0 0 0 0 0 0 0 0 0 0 0 0 0 0 0 0 0 0 0 0 0 0 0 0 0 0 0 0 0 0 0 0 0 0 0 0 -5.34357726570535 0 0 0 -1.47643951967551 0 0 -0.143097662218608 0 0 0 0
0 0 0 0 0.286691347182036 1.26082176108982 0.300391140179934 0.179737506766874 0 0.134236428099484 0 0 0.234208983955184 0.889526766189097 0.16443818575047 1.23102880381129 0 0 0 0 0 0 0 0 0 0 0 0 0 0 0 0 -0.319700447442042 0 0 0 0 -1.12274068846614 -0.169344553405706 0 0 0 -0.998694325017734 0 0 0 0 0 0 0
0 0 0 0 0 0 0 0 0 0 0 0 0 0 0 0 0 0 0 0 0 0 0 0 0 0 0 0 0 0 0 0 0 0 0 0 0 -1.21552811693957 0 0 0 0 0 0 0 -0.625595721071772 0 0 0 0
0 0 0 0 0 0 0 0 0 0 0 0 0 0 0 0 0 0 0 0 0.106234562910911 0 0 0 0 0 0 0 0 0 0 0 0 0 0 0 0 0 0 -1.05540250865961 0 0 -6.75825557417244 0 0 -1.18722622520573 0 0 0 -0.358394366418444
0 0 0 0 0 0 0 0 0 0 0 0 0 0 0 0 0 0 0 0 0 0 0 0 0 0 0 0 0 0 0 0 0 0 0 0 0 0 0 0 0 0 0 0 0 0 0 0 0 -0.165705078074204
0 0 0 0 0.324535203095166 0 0 0.133467158590576 0.26630276449676 0.208729382428568 0 0 0 0 0 0 0 0 0 0 0 0 0 0 0 0 0 0 0 0 0 -0.519219185501559 0 0 0 0 0 0 0 0 0 0 0 0 0 0 0 0 0 0
0 0 0 0 0 0 0 0 0 0 0 0 0 0 0 0 0 0 0 0 0 0.0654223398866194 0 0 0 0 0 0 0 0 0 -0.72327954284025 0 0 0 0 0 0 0 0 0 0 0 0 0 0 0 0 0 -1.90894512507234
0 0 0 0 0 0 0 0 0 0 0 0 0 0 0 0 0 0 0 0 0 0 0 0 0 0 0 0 0 0.108286710791351 0.142445893855713 0 0 0 0 0 0 0 0 0 0 0 0 0 0 0 0 0 0 0
0 0 0 0 0 0 0 0 0 0 0 0 0 0 0 0 0 0 0 0 0 0 0.0584231355540483 0.253592570028652 0 0.0604295666460341 0 0 0 0 0 0 0 0 0 0 0 0 0 0 0 0 0 0 0 0 0 0 0 -1.31824521643443
0 0 0 0 0 0 0 0 0 0.206302107446044 0.493528450956067 0 0 0 0 0 0 0 0 0 0 0 0 0 0 0 0 0 0 0 0 0 0 0 0 0 0 0 0 0 0 0 0 0 0 0 0 0 0 -6.83633099356185
0 0 0 0 0 0 0 0 0 0 0 0 0 0 0 0 0 0 0 0.126276816168638 0 0 0 0 0 0 0 0 0 0 0 0 0 0 0 0 0 0 0 0 -0.299438067224802 0 0 0 0 0 0 0 0 0
0 0 0 0 0 0 0 0 0 0 0 0.46586536770584 0 0 0 0 0 0 0 0 0 0 0 0 0 0 0 0 0 0 0 0 0 0 0 0 0 0 0 0 -0.694886622293262 0 0 0 0 0 0 0 0 -0.919934410531251
0 0 0 0 0 0 0 0 0 0 0 0 0 0 0 0 0 0 0 0 0.315983466617286 0 0 0 0 0 0 0 0 0 0 0 0 0 0 0 0 0 0 0 0 0 0 0 0 0 0 0 0 -1.32341576888189
0 0 0 0 0 0 0 0 0 0 0 0 0 0 0 0 0 0 0 0 0 0 0 0 0 0.245819266643008 0.263804710014292 0 0 0 0 0 0 0 0 0 0 0 0 0 -1.886615038013 0 0 0 -0.226877921898651 0 0 0 0 -0.435992580121453
0 0 0 0 0 0 0 0 0 0 0 0 0 0 0 0 0 0 0 0 0 0.0737738391330996 0.0474277615816788 0 1.14112746539475 0.0370347524779156 0 0 0 0 0 0 0 0 0 0 0 0 0 0 0 0 0 0 -0.847922189404999 0 0 0 0 0
0 0 0 0 0 0 0 0 0 0 0 0 0 0 0 0 0 0 0 0 0 0 0 0 0 0 0 0.224063083292977 0 0 0 0 0 0 0 0 0 0 0 0 0 0 0 0 -1.1725600894226 0 0 0 0 -3.75952472590474
0 0 0 0 0 0 0 0 0 0 0 0 0 0 0 0 0 0 0 0 0 0 0 0 0 0 0 0 0 0 0 0 0 0 0.0555082457391778 0.128625449730075 0 0.369289610205489 0 0 0 0 0 0 0 0 0 0 0 -0.308112979083685
0 0 0 0 0 0 0 0 0 0 0 0 0 0 0 0 0 0 0 0 0 0 0 0 0 0 0 0 0 0 0 0 0 0 0 0 0 0 0 0 0 0 0 0 0 0 -2.16091875701256 0 0 -5.64353942898745
0 0 0 0 0 0 0 0 0 0 0 0 0.160222566323041 0 0.442736027060548 0 0.0713172615880384 0 0.126587324420594 0 0.0781268196390553 0.149498024201104 0 0.155991114597424 0.298127584511599 0.190748834591161 0 1.50643949121319 0 0 0 0 0 0 0 0 0 0 0 0 0 0 0 0 0 0 -0.409049151863734 0 0 -0.150317293706181
0 0 0 0 0 0 0 0 0 0 0 0 0 0 0 0 0 0 0 0 0 0 0 0 0 0 0 0 0 0 0 0 0 0 0 0 0 0 0 0 0 0 0 0 0 0 -3.94925247055104 0 0 0
0 0 0 0 0 0 0 0 0 0 0 0 0 0 0 0 0 0 0 0 0 0 0 0 0 0 0 0 0 0 0 0 0 0 0 0 0 0.0514334749306624 0.166601977702245 0.238321517613013 0 0 0 0 0 0 0 0 0 0
0 0 0 0 0 0 0 0 0 0 0 0 0 0 0 0 0 0 0 0 0 0 0.0823677068886842 0.603150909820094 0.0268654961703419 0 0.110790552214665 0.228337086735158 0 0 0 0 0 0 0 0 0 0 0 0 0 0 0 0 0 0 -0.797527564479573 0 0 -1.36809586482267
0 0 0 0 0 0 0 0 0 0 0 0 0 0 0 0 0 0 0 0 0 0 0 0 0 0 0 0 0 0 0 0 0 0 0 0 0 0 0 0 0 0.383146966616519 0.0889899313203853 0.795099283320025 0 0.16165404764911 0 0.383551475714134 0.280819332768387 0.021451067131063
0 0 0 0 0 0 0.557933346355723 0.115163294135342 0 0.121427585052959 0 0.790373241652199 0 0 0 0 0 0 0 0 0 0 0 0 0 0 0 0 0 0 0 0 0 0 0 0 0 0 0 0 0 0 0 0 0 0 -1.99100551905436 0 0 0
0 0 0.238422277419415 0 0.605004092522332 0.154490893198652 0 0.0904930273838176 0.137950109705934 0.207809749365358 0.0505793353044493 0.093001600016301 0.336714898278577 0.146140549801062 0.208438179650832 0 0.325933263457855 0 0 0 0 0 0 0 0 0 0 0 0 0 0 0 0 0 0 0 0 0 0 0 0 0 0 0 0 0 -1.47355339834242 0 0 0
0 0 0 0 0 0 0 0 0 0 0 0 0 0 0 0 0 0 0 0 0 0 0 0 0 0 0 0.0726414203643031 0.0315121794721906 0 0.387123270765685 0 0.248004274650737 1.37885950362763 0 0.18406136041397 0.255284788918196 0.0911274920362151 0 0.761977117255384 0.0587152127327438 1.10483484173976 0.0297108768720717 0 0 0.27723367481236 -0.109898156249225 0 0 0
