1.03206757341371
2.59013308023788
0.477313218817099
0.463309716786982
1.47152855834316
1.4453013041761
0.834614352371796
1.90071081247931
0.789999998971855
1.29023125483141
0.544475571879085
0.780737938542206
0.607993079434262
0.6364370956444
2.30759367591138
1.00081608026773
0.677532346113588
0.385094328009543
0.775218124210656
0.355895284495859
0.208968285170732
2.4575266369695
1.68025301481431
0.5937757200528
0.805931171006139
0.0958012165920195
1.96461780793644
1.73199332232375
1.64888720861059
0.833845264808884
0.792398934010275
0.363051548854748
0.873611661683613
0.627689087431777
1.19457131350191
0.274753556783079
0.532077671363777
0.987614686766069
0.880993750288563
0.486270019167198
0.686985501934554
1.15472579774612
0.956748796690546
0.82824279600777
2.09558905408642
0.759818085814437
1.13113201357741
0.472194736313673
0.141289843957553
0.939204130876316
