0.394065291378373
1.08733092496529
0.599524350443933
0.12886161788972
1.25752809885876
0.976589499772399
1.81801944785157
0.651464126648692
3.07818274020441
0.296555776526878
0.264726120961029
1.2990403579855
1.70739169363801
1.59021403888078
0.439388399529796
2.3336394349807
10.0648216140521
0.730500696589855
1.78467496334899
1.17893810971307
4.37831166856249
1.39759119627757
0.176015430765928
1.59955065888476
0.693338005354141
1.18662170927181
0.900512561998885
2.76674684703673
0.99729395598548
6.63753740950387
0.551757714093631
0.619816637572984
0.61629498381416
3.84562836538246
0.32393976132398
2.35992365730754
8.03064839590302
0.33186224429841
0.170095985494405
1.39727575080757
1.51975733745831
0.685660292624518
1.87852397763835
1.59470121703023
0.68708744679998
0.999603818556917
2.74740630063941
0.797284019239483
1.85665161818582
1.17859703567303
