0.180630286273131
0.534235801323726
0.204760932369718
0.997054735694049
2.37411306637157
1.79395002812417
0.0961910653617343
0.120616743634675
0.185151341231523
0.196526784699129
0.198434124465977
0.490609781207903
0.0545026763248018
0.311298452613829
0.481265577717449
0.982029376457097
0.167261183737048
0.0775805130129348
0.939419478722525
0.145952707302299
0.283263986572833
0.0575348960120481
3.63670419732718
1.27167101243218
0.396709644088835
0.415904326665752
0.0592512109252631
0.0364805048252405
3.45037364006162
1.37090162558482
0.746932508694727
0.10869505763226
0.388499745336306
1.10130669756531
1.34896508947426
0.190759237799543
0.314584517736882
0.425205195953254
0.946760591265393
0.13176238046603
0.482273383025111
0.331835520733202
5.42552709909184
0.320296395570811
0.405056163962206
0.677365791462528
1.52053276455918
0.366454870395308
0.162294099733786
0.30277655406721
