0.730510135138749
1.45569407996646
0.916341509892654
0.728050297789306
0.691253615211656
2.43583312335389
0.989503541329824
0.69840255878746
0.377704318617151
0.218872622727358
0.484609221827034
1.57794307501901
1.62980811747249
1.00190121177984
0.220383644061996
0.402163482835951
3.08161692451756
0.0700307098334225
2.51104574974388
0.967823048548121
0.737091812759141
1.83136279290303
3.27575836006921
1.37913160908164
0.27024892936059
0.0273178415110485
2.42212114597079
0.245523704126906
1.22068634826497
3.80147395019054
1.03969719252499
0.427387309318746
3.2220747621495
0.42897119802762
0.0800566677255986
2.57030041986356
0.228214114673187
1.17856528390186
1.48402969914739
0.312876763647949
0.361812144862783
0.521771498632587
2.21163481553598
0.293190052142581
0.137921288853565
0.411291310217103
0.284904150378378
0.518042125858557
0.184523360205173
0.398685136314321
