1.44603514645847
0.0771731301538947
1.37603070557068
0.445593295421363
0.505506699150245
0.850043918843543
0.527544881694405
0.266975517862374
0.457405732985135
0.162214177747334
1.01980549717054
0.969487175331216
0.548926557807201
0.845212513472972
0.427701935183613
0.178777315221671
1.19810729330331
0.420323754021058
0.883064080294901
0.236982285829968
0.290912821425728
1.16281584700497
0.835612678303404
0.0643568633405492
0.175493155467275
0.734353729795565
0.846784581890584
0.620390157478676
0.452622892513
0.691626333551834
1.23353498564614
0.192133842135668
0.502291512879032
1.65769537790022
0.497040516640033
0.0661444654806832
0.786515178889611
0.99436515155792
1.02710538373767
1.00232961329557
0.338064464005314
1.21322009087428
0.36148264017507
1.61077080304703
0.056658157881748
1.44730331367161
0.373257841467518
1.2253308217795
0.0818648239819999
0.0736577301700307
