1.03294985081328
0.87189395731694
0.687424206940953
3.97774012918024
1.46071053612345
0.516988260976592
0.462323454907174
2.08072773448798
2.3314069729035
0.779869097892888
3.49311830398754
1.47473142785379
0.261858279742431
1.11094461380322
0.390279928335201
0.438647596475313
0.293158097403305
1.05190251161007
1.01549319519831
0.461639884200491
2.2299583478003
0.714887145006326
0.692037387750866
1.43384193154352
1.27024887214888
1.69449621000262
0.365114126554054
0.692590277738647
0.0590622174810926
1.55797231763011
0.175430444213194
2.14458247996375
0.704712950629408
0.280997239146966
0.228527816380793
0.83345361505123
1.18905447734358
0.553637033372044
0.559891409526455
0.153157142629188
1.86530351801395
2.48563380197719
1.01800476308299
0.703783748221855
2.02956460717966
0.934259984112464
2.48382506278664
0.568989441356083
0.611144859376012
2.72403977133541
