0.0844203778700449
0.370512080422169
0.962694174131231
1.10726372832109
1.67732341371837
0.741629204902636
2.14407054896689
0.1181254063847
0.709080194007582
0.212123375867607
0.363548895687579
1.59438283692714
0.693455089799012
2.7677123716747
1.00746008342519
0.180038008232411
2.01955353978609
0.926808719409547
0.162185355894208
1.57701807293308
0.221458500409508
0.33957708802613
0.317311758131205
6.35051154848026
0.625618306845776
0.0446725182727668
0.088960942089077
0.42581615275699
1.55768359532834
0.495286731443959
1.77596257922166
3.80537804720905
0.175466733805117
3.46593476600193
0.444988785902648
2.95021459958987
1.16324941027835
0.20963621600157
0.875837661300666
0.0115796708989533
0.284006992740123
0.197460531992461
0.712408311693464
0.102716321373544
1.18950610891891
0.738137911991877
0.92465732183692
0.123114825292892
0.473177380676564
1.34778563058234
