0.589613133671896
0.170554578886057
0.699061903941342
1.49486461654442
0.920570394312829
1.43089445009132
0.665494021385885
0.3663021994881
2.57353621107583
0.584753861205586
5.78769154621087
2.60898999290295
0.426576107581394
1.17260050569194
0.523908221664061
2.4837027153349
0.367537021235215
0.43828021953708
0.320541390840701
5.15974065551082
5.39903936714934
0.774615242860758
0.774606205423264
1.47731170950951
0.449604553847965
1.18517955083115
1.3070044013052
0.403175276479121
0.91812577981419
0.988556400385545
0.453500449970908
1.22567177071894
0.240646321296888
0.726228058334232
0.190615966786984
2.12309957690093
0.215935474536586
0.158743799211619
2.12151819303652
0.291357994996199
1.70140045224363
0.938141237581918
1.4776903960437
0.345568531855515
0.304736378404833
0.561172681901786
0.477732298254941
0.605709896212613
0.229108843942087
0.643745377210019
