1.42402496228066
2.94032110520644
1.67457861162558
2.08764690129341
0.449859304575909
3.59507265506581
2.23578442990864
1.82494788623443
0.589821639281281
0.630239013542657
3.79099949456506
3.63093511963646
2.96102036970509
0.479749363997786
1.43212917363205
1.80944900086064
0.211466553574641
0.558099012451403
0.293254804903344
0.350168950379554
0.83710197314544
0.773035378085463
1.66591414780564
0.424784481121187
3.08093853254533
3.12479446977166
1.20547419587552
0.989474509053197
2.07946788907628
1.35595881323897
0.78191477419874
1.67364009974046
1.59192798875426
0.208625817573852
2.21375027230321
1.06795780122529
2.44005765526016
3.54285750448661
0.692689068198121
0.426059730866165
1.08596331406458
1.16887301742472
0.584590124698403
3.11050222181452
0.194037130856138
0.670729300792571
1.83829971537866
0.235879886838059
0.132688355641835
0.699249419502549
