0.354909628521112
2.53907251129049
0.273993927205031
0.594032178924184
0.568539998600586
1.55391766701702
0.34518020750725
0.115692860745785
0.0889020585789247
1.32082128439833
0.154633067649616
2.44138908382958
0.119970833886331
0.00378198733638538
2.6500307469678
0.0822366105654793
0.794292397924437
0.917744439348591
1.76717199164712
1.35435443336079
0.347233694362571
0.764679327419479
0.547700495084403
0.217032864624079
1.74901319934173
3.02462929527546
1.85270645778383
0.358046033730021
0.435561000824575
1.36483679687121
0.74332931619809
2.59720264808599
1.21605345565219
0.711895473129108
2.70252250098142
1.12436680332129
0.0217694279308931
1.49503122439128
0.336366655842698
0.398793581667795
0.432465033462968
0.63560323096363
0.56042264922218
0.227110497368459
0.134968796660406
0.632090465952243
0.208592383344865
0.215866166634526
0.921241382830186
3.01565235251644
