2.47858491376003
0.233376060204339
0.451515858869923
0.897167716500633
0.217599019233787
2.82004553714287
0.176537372889986
0.248992237923832
0.419809908540731
1.0530132893375
1.30633485574096
0.461857065139465
1.12161562302874
0.233746557578163
0.691103266985579
0.258632798044243
1.26896209768169
1.47027572270155
0.345396583128365
0.480526709972993
0.127422191615341
0.71468186875825
2.55016375108131
0.797832547814413
0.179546775756833
0.136502655369576
2.75921320784218
0.794026149602096
0.0144963156928403
0.91742127276373
1.5867869379113
1.74236128824766
0.531494935049154
1.18253731248751
1.37380014539076
0.709587233787506
1.98415658347971
0.46014778868081
0.316331962513577
0.2238713437141
0.150122309322579
0.305201128553152
0.792390954383692
0.0822253429610198
0.45134911736704
1.59175425295427
0.10776340401273
0.417981419916971
0.516056429474728
0.197765343132718
