0 -1.40531812652659 0 0 0 -0.183532588381336 0 0 0 0 0 0 0 0 0 0 0 0 0 0 0 0 0 0 0 -3.33818337627445 0 0 0 0 0 0 0 -1.50695152363712 0 0 0 0 0 0 0 0 0 0 0 0 0 0 0 0
0.276348650790216 0 0 0 0 0 0 0 0 0 -0.906711447215148 0 0 0 0 0 0 0 0 0 0 0 0 0 -7.36833310245539 -0.332997492292448 0 0 0 0 0 0 -1.06478427690379 0 0 0 -0.531459857919656 0 0 0 0 0 0 0 0 0 0 0 0 0
0 0 0 0 0 0 0 0 0 0 0 0 0 -2.25351774651293 0 0 0 0 0 0 0 0 0 0 0 -1.22918472838645 0 0 -1.23119321824258 0 0 0 -0.356592335186829 0 0 0 -3.07201897832036 0 0 0 0 0 0 0 0 0 0 0 0 0
0 0 0 0 0 0 0 0 0 0 0 0 0 0 0 0 0 0 0 0 0 0 0 0 0 -2.332093596485 0 0 -2.83424949222261 0 0 0 0 -1.4983085070325 0 0 0 0 0 0 0 0 0 0 0 0 0 0 0 0
0 0 0 0 0 0 0 0 0 0 0 0 0 0 0 0 0 0 0 0 0 0 0 0 0 -1.3064916865684 0 0 0 0 0 0 0 -1.6617638629656 0 0 -1.69121303673446 0 0 0 0 0 0 0 0 0 0 0 0 0
0.0359052422639117 0 0 0 0 0 0 0 0 0 0 0 0 -3.04197318477081 0 0 0 0 0 0 0 0 0 0 0 0 0 0 0 0 0 0 -1.61933091194839 -0.664646335625852 0 0 0 0 0 0 0 0 0 0 0 0 0 0 0 0
0 0 0 0 0 0 0 0 0 0 0 0 0 -2.78082986712215 0 0 0 0 0 0 0 0 0 0 0 -2.02438500332782 0 0 -0.254214248919774 0 0 0 -0.163186445426189 -0.187537375903419 0 0 0 0 0 0 0 0 0 0 0 0 0 0 0 0
0 0 0 0 0 0 0 0 0 0 0 0 0 0 0 0 0 0 0 0 0 0 0 0 0 -1.02751088250077 0 0 0 0 0 0 0 0 0 0 -3.25546636832669 0 0 0 0 0 0 0 0 0 0 0 0 0
0 0 0 0 0 0 0 0 0 0 0 0 0 -0.484476428312534 0 0 0 0 0 0 0 0 0 0 0 -0.656506619743586 0 0 -1.63834886892952 0 0 0 -1.4615036010716 0 0 0 -7.60712530439201 0 0 0 0 -0.520577582909668 0 0 0 0 0 0 0 0
0 0 0 0 0 0 0 0 0 0 0 0 0 0 0 0 0 0 0 0 0 0 0 0 0 0 0 0 0 0 0 0 0 0 0 0 -1.9190069752146 0 0 0 0 0 0 0 0 0 0 0 0 0
0 0.169876461478867 0 0 0 0 0 0 0 0 0 0 0 0 0 0 0 0 0 0 0 0 0 0 0 0 0 0 0 0 0 0 0 0 0 0 -0.244015174389154 0 0 0 0 -2.08886874105006 0 0 0 0 0 0 0 0
0 0 0 0 0 0 0 0 0 0 0 0 0 0 0 0 0 0 0 0 0 0 -1.72094649350678 0 0 0 0 0 0 0 0 0 0 0 0 0 0 0 0 -0.499392551576041 0 0 0 0 0 0 -0.893419727132919 0 0 0
0 0 0 0 0 0 0 0 0 0 0 0 0 0 0 0 0 0 0 0 0 0 -0.565647383369779 -0.22958087646625 0 0 0 0 0 0 0 0 0 0 0 -0.978362841371752 0 0 0 0 0 0 0 0 0 0 0 0 0 0
0 0 0.443636592499441 0 0 0.558054121006668 0.533999386003588 0 0.101977476865981 0 0 0 0 0 0 0 0 0 0 0 0 0 0 -1.10677568465587 0 0 0 0 0 0 0 0 0 0 0 0 0 0 -0.626883202862424 -1.56695126379814 -0.159082213086593 0 0 0 0 0 -1.30938691043544 0 0 0
0 0 0 0 0 0 0 0 0 0 0 0 0 0 0 0 0 0 0 0 -1.59916873215351 0 0 -1.41213051275983 0 0 -0.298976354521914 0 0 0 0 0 0 0 0 0 0 0 -0.414887726644635 0 -4.48947879080267 0 0 0 0 0 -1.42377868228427 0 0 0
0 0 0 0 0 0 0 0 0 0 0 0 0 0 0 0 0 0 0 0 0 0 0 -0.674476538539672 0 0 0 0 0 0 0 0 0 0 0 0 0 0 -0.183820567405812 -0.954970697696899 -0.860588276166578 0 0 0 0 0 0 0 0 0
0 0 0 0 0 0 0 0 0 0 0 0 0 0 0 0 0 0 0 0 0 0 0 0 0 0 0 0 0 -2.23564122371547 0 0 0 0 0 0 0 0 0 0 -2.0806848375199 0 0 0 0 0 0 0 0 0
0 0 0 0 0 0 0 0 0 0 0 0 0 0 0 0 0 0 0 0 0 0 0 0 0 0 0 0 0 0 -1.13094172094586 -5.87950176825413 0 0 -0.299247386665309 0 0 0 0 0 -2.81687885135304 0 0 0 0 0 -0.772288281146431 0 0 0
0 0 0 0 0 0 0 0 0 0 0 0 0 0 0 0 0 0 0 -1.24931980380868 0 0 0 0 0 0 0 0 0 0 0 0 0 0 0 0 0 0 0 0 0 0 0 0 0 0 -1.23686008928809 0 0 0
0 0 0 0 0 0 0 0 0 0 0 0 0 0 0 0 0 0 0.227199487212024 0 0 0 0 0 0 0 0 0 0 0 0 -0.883478307909421 0 0 0 0 0 0 0 0 -1.37003208299834 0 0 0 0 0 -1.13732278542233 0 0 0
0 0 0 0 0 0 0 0 0 0 0 0 0 0 0.304270853949008 0 0 0 0 0 0 0 0 0 0 0 0 0 0 0 0 -2.38091004920536 0 0 0 0 0 0 0 0 0 0 0 0 0 0 -0.995542886671271 0 0 0
0 0 0 0 0 0 0 0 0 0 0 0 0 0 0 0 0 0 0 0 0 0 0 0 0 0 0 0 0 0 0 0 0 0 0 0 0 0 0 0 -0.337335275396303 0 0 0 0 0 0 0 0 0
0 0 0 0 0 0 0 0 0 0 0 0.33289414138128 0.1062370553894 0 0 0 0 0 0 0 0 0 0 0 0 0 0 0 0 0 0 -0.424181382103683 0 0 0 0 0 0 0 0 -1.19708046403402 0 0 0 0 0 0 0 0 0
0 0 0 0 0 0 0 0 0 0 0 0 0.0478744852131087 0.217428278529411 0.276236394658658 0.130450765814155 0 0 0 0 0 0 0 0 0 0 0 0 0 0 0 0 0 0 0 0 0 0 0 0 0 0 -2.51762817165385 0 0 0 0 0 0 0
0 1.56044979045291 0 0 0 0 0 0 0 0 0 0 0 0 0 0 0 0 0 0 0 0 0 0 0 0 0 0 0 0 0 -0.176382894802769 0 0 0 0 0 -1.33077323450892 0 0 0 0 -0.246259305857819 0 0 0 0 0 0 0
0.70193369460251 0.0680756308535519 0.236601859524309 0.454146126354559 0.24118081332713 0 0.402240170711266 0.221571720099654 0.133221276870882 0 0 0 0 0 0 0 0 0 0 0 0 0 0 0 0 0 0 0 0 0 0 0 0 0 0 0 0 -0.694462223352087 0 0 0 0 0 0 0 0 0 0 0 0
0 0 0 0 0 0 0 0 0 0 0 0 0 0 0.0636148678772969 0 0 0 0 0 0 0 0 0 0 0 0 0 0 0 0 0 0 0 0 0 0 -0.817587247046248 0 0 0 0 -0.637267389217313 0 0 0 0 0 0 0
0 0 0 0 0 0 0 0 0 0 0 0 0 0 0 0 0 0 0 0 0 0 0 0 0 0 0 0 0 0 0 0 0 0 0 0 0 -0.305892577739207 0 0 0 0 -1.17426397349898 0 0 0 0 0 0 0
0 0 0.252814958120797 0.503109777281271 0 0 0.0503937387898733 0 0.318464828238973 0 0 0 0 0 0 0 0 0 0 0 0 0 0 0 0 0 0 0 0 0 0 0 0 0 0 0 0 -0.925921698153334 0 0 0 0 0 0 0 0 0 0 0 0
0 0 0 0 0 0 0 0 0 0 0 0 0 0 0 0 0.456822618015903 0 0 0 0 0 0 0 0 0 0 0 0 0 0 0 0 0 0 0 0 -1.14678508654781 0 0 0 0 -1.70158205630335 0 0 0 0 0 0 0
0 0 0 0 0 0 0 0 0 0 0 0 0 0 0 0 0 0.238533261445688 0 0 0 0 0 0 0 0 0 0 0 0 0 0 0 0 0 0 0 0 0 0 0 0 -7.90927914307759 0 0 0 0 0 0 0
0 0 0 0 0 0 0 0 0 0 0 0 0 0 0 0 0 1.19763411816927 0 0.172261673078679 0.497865646647332 0 0.0867537465031496 0 0.0337746617634737 0 0 0 0 0 0 0 0 0 0 0 0 -0.256434887231168 0 0 0 0 0 0 0 0 0 0 0 0
0 0.201766969377603 0.0734217865111116 0 0 0.341449438765379 0.0310613307327251 0 0.281307452791936 0 0 0 0 0 0 0 0 0 0 0 0 0 0 0 0 0 0 0 0 0 0 0 0 0 0 0 0 0 0 0 0 0 -0.821831741886084 0 0 0 0 0 0 0
0.289093187353604 0 0 0.287487834290226 0.350037207251627 0.124694515522889 0.0386913674777968 0 0 0 0 0 0 0 0 0 0 0 0 0 0 0 0 0 0 0 0 0 0 0 0 0 0 0 0 0 0 0 0 0 0 0 0 0 0 0 0 -0.712758335817035 0 0
0 0 0 0 0 0 0 0 0 0 0 0 0 0 0 0 0 0.0579167988526703 0 0 0 0 0 0 0 0 0 0 0 0 0 0 0 0 0 0 0 0 0 0 0 0 -2.7890061206238 0 -0.843897110998848 0 0 -0.433891877088592 0 0
0 0 0 0 0 0 0 0 0 0 0 0 0.228771394981851 0 0 0 0 0 0 0 0 0 0 0 0 0 0 0 0 0 0 0 0 0 0 0 0 0 0 0 0 0 -1.10558152341016 0 0 0 0 -0.544267600468171 0 0
0 0.116256339541321 0.606944859351558 0 0.337337775918837 0 0 0.580509455463814 1.64429149660958 0.404422385472448 0.0465881721831676 0 0 0 0 0 0 0 0 0 0 0 0 0 0 0 0 0 0 0 0 0 0 0 0 0 0 0 0 0 0 0 0 0 -0.943997965721915 -1.82947784734839 0 -2.64514256947092 0 0
0 0 0 0 0 0 0 0 0 0 0 0 0 0 0 0 0 0 0 0 0 0 0 0 0.25756369224338 0.12958703580808 0.157667827507456 0.060950232708816 0.172434191575496 0.229281886429284 0 0.0512984207694219 0 0 0 0 0 0 0 0 0 0 0 0 0 -2.82766569741293 0 0 0 0
0 0 0 0 0 0 0 0 0 0 0 0 0 0.133999396991189 0.0808516145766768 0.0352969550464358 0 0 0 0 0 0 0 0 0 0 0 0 0 0 0 0 0 0 0 0 0 0 0 0 0 0 0 0 -0.279930418048339 0 0 -0.631170547667558 0 0
0 0 0 0 0 0 0 0 0 0 0 0.0967797602511258 0 0.307214823688021 0 0.188119564960166 0 0 0 0 0 0 0 0 0 0 0 0 0 0 0 0 0 0 0 0 0 0 0 0 0 0 0 -2.19147714497627 -0.705965554822012 0 0 0 0 0
0 0 0 0 0 0 0 0 0 0 0 0 0 0.0315248438788881 0.979790987305903 0.180350056535263 0.420433392652058 0.614574777358603 0 0.270800737669088 0 0.0631822984599909 0.228336255308383 0 0 0 0 0 0 0 0 0 0 0 0 0 0 0 0 0 0 0 0 0 0 0 0 0 0 0
0 0 0 0 0 0 0 0 0.106976721600874 0 0.414521545603112 0 0 0 0 0 0 0 0 0 0 0 0 0 0 0 0 0 0 0 0 0 0 0 0 0 0 0 0 0 0 0 0 0 0 0 0 0 -0.962527206885504 0
0 0 0 0 0 0 0 0 0 0 0 0 0 0 0 0 0 0 0 0 0 0 0 0.502016519564761 0.0501953297121053 0 0.122998983403142 0.227044760415174 0 0.349977405233043 1.6368788707687 0 0.164655298874632 0 0.510529456797257 0.224774677060653 0 0 0 0 0 0 0 0 0 0 0 0 0 -0.980847781887971
0 0 0 0 0 0 0 0 0 0 0 0 0 0 0 0 0 0 0 0 0 0 0 0 0 0 0 0 0 0 0 0 0 0 0 0 0 0 0 0.411757807563626 0 0 0 0 0 0 0 0 0 0
0 0 0 0 0 0 0 0 0 0 0 0 0 0 0 0 0 0 0 0 0 0 0 0 0 0 0 0 0 0 0 0 0 0 0.159531084170812 0 0.175541185497301 0 0.0531291744785074 0.143580846287607 0 0 0 0 0 0 0 0 -0.77720941088489 -1.97375585404373
0 0 0 0 0 0 0 0 0 0 0 0 0 0 0 0 0 0 0 0 0 0 0 0 0 0 0 0 0 0 0 0 0 0 0 0 0.387690030908044 0.573000249168113 0 0 0 0 0 0 0 0 0 0 -0.765073170729056 -1.23696608110733
0 0 0 0 0 0 0 0 0 0 0 0.176078498938635 0 0.236200695318879 0.277032044452984 0 0 0.151423250895717 0.243411387266249 0.232547090040024 0.205650528467341 0 0 0 0 0 0 0 0 0 0 0 0 0 0 0 0 0 0 0 0 0 0 0 0 0 0 0 -0.335983628768928 -0.372528842091681
0 0 0 0 0 0 0 0 0 0 0 0 0 0 0 0 0 0 0 0 0 0 0 0 0 0 0 0 0 0 0 0 0 0.134238594841456 0.0860087793292329 0.111943916798926 0.510515075710601 0 0.136632052883864 0 0 0 0 0 0 0 0 0 0 0
0 0 0 0 0 0 0 0 0 0 0 0 0 0 0 0 0 0 0 0 0 0 0 0 0 0 0 0 0 0 0 0 0 0 0 0 0 0 0 0 0 0.197166573458226 0 0 0.157694224427029 0.152761474410001 0.0695790946542318 0 0 0
0 0 0 0 0 0 0 0 0 0 0 0 0 0 0 0 0 0 0 0 0 0 0 0 0 0 0 0 0 0 0 0 0 0 0 0 0 0 0 0 0 0 0.195406106693258 0 0.382089626512416 0.249086569035236 0.0734819371663105 0 0 0
