1.48172056916465
0.678531377080094
3.03950992878656
1.21816113712331
1.92022950345834
0.264733632620231
0.0892102052073381
0.995214265288136
0.328020008388093
0.218713935237627
0.760605905325898
1.37188514570345
0.506527467311446
0.0424353119199108
2.45361896770543
0.0238806236774655
1.46824142256728
0.0760018431417419
0.457649307523837
0.164785221376371
0.138388920049818
1.96137624746582
0.310618137418529
0.376437259560636
0.052818523074896
0.480836321279411
0.0157884062951998
0.322993482954108
0.468412142747673
0.748902748496685
0.666131700626796
0.130099850214341
0.12231673139123
0.865110839115964
0.263077859531125
0.159707689646641
0.428992065347367
1.46479555023723
0.0595507010591578
1.02361926583663
0.17743390684576
0.22039619756693
0.445275580132745
1.8565372875148
0.186869840848213
4.90136186091993
1.08401835445827
0.325075758380319
0.594765331980162
0.572418732226526
