0.324244653646923
0.922776103544874
1.25186677269576
3.15598111107172
0.728387601038635
0.664839767939561
1.10361489066529
1.04769511014674
1.2308054321475
2.66255303004327
0.97706447422821
0.88560931595779
0.141624888592519
1.02035510045308
0.109267691749013
0.578772503530067
1.01897178814495
1.45413682993855
0.114942488823575
0.125668529353665
0.760782966408331
2.72149258266486
1.77608546768719
2.39440102864238
0.577495586578297
1.44506411667444
0.446937414070423
0.557356669622062
0.675171986765946
0.099908244232359
1.24607422849278
0.279915797769247
0.289794675372117
0.817066361103295
0.586587372453509
1.08879179822
1.05113671736063
2.0674104316999
1.38842071319574
2.80070691510894
0.467629904668034
1.73079900614072
1.16580049683319
0.704363175463138
0.382302165641742
1.75254320769767
1.62685081560569
2.75774618891076
0.0731649725915758
0.266056351458212
