0 0 0 0 0 0 0 0 0 0 0 0 0 0 0 0 0 0 0 0 0 0 0 0 0 -0.374301172313896 0 0 0 0 0 0 0 0 0 0 -3.2759068041932 0 0 0 0 0 0 0 0 0 0 0 0 0
0 0 0 0 0 0 0 0 0 0 0 0 0 0 0 0 0 0 0 0 0 0 0 0 0 -1.89223865963377 0 0 0 0 0 0 0 0 0 0 -0.366956135619885 0 0 0 0 0 0 0 0 0 0 0 0 0
0 0 0 0 0 0 0 0 0 0 0 0 0 0 0 0 0 0 0 0 0 -0.149457604340049 0 0 0 -1.00904111827657 0 0 0 0 0 0 0 0 0 0 0 0 0 0 0 0 0 0 0 0 0 0 0 0
0 0 0 0 0 -0.624487940448414 0 0 0 0 0 0 0 0 0 0 0 0 0 0 0 -1.00563525048518 0 0 0 0 -1.07474862085707 0 0 -1.63374630566518 0 0 0 0 0 0 0 0 0 0 0 0 0 0 0 0 0 0 0 0
0 0 0 0 0 0 0 -2.67770612800905 -0.632880514007736 0 -1.12647085997815 0 0 0 0 0 0 0 0 0 0 -1.7484876435224 0 0 0 0 -2.71413599353245 0 0 -0.221568876098026 0 0 0 0 0 0 0 0 0 0 0 0 0 0 0 0 0 0 0 0
0 0 0 0.13171351987694 0 0 0 0 -1.35129629561463 0 -5.14881790172411 -1.88716588678535 0 0 0 0 -2.02017117140248 0 0 0 0 -4.78088151394141 0 0 0 0 -0.916147799209942 0 0 -0.43886037858437 0 0 0 0 0 0 0 0 0 -0.567792786162066 0 0 0 0 0 0 0 0 0 0
0 0 0 0 0 0 0 0 0 0 0 -2.71315060221116 0 0 0 0 -1.13639593516437 0 0 0 0 -1.65706507503429 0 0 0 0 -2.36598314268061 0 0 0 0 0 0 0 0 0 0 0 0 -0.19090032766825 0 0 0 0 0 0 0 0 0 0
0 0 0 0 0.57836297003567 0 0 0 0 0 -1.83844058446715 0 0 0 0 0 -0.5650437187797 0 0 0 0 0 0 0 0 0 -2.59100887205045 0 0 -0.565625508055313 0 0 0 0 0 -1.3363915045074 0 0 0 0 0 0 0 0 0 0 0 0 0 0
0 0 0 0 0.124467084692277 0.275507217706042 0 0 0 0 -0.450114255494687 0 0 0 0 0 0 0 0 -1.30814366857183 0 0 0 0 0 0 -9.90058251715756 0 0 0 0 0 0 0 0 -4.57647681733611 0 0 0 -1.1731620471346 0 0 0 0 0 0 0 0 0 0
0 0 0 0 0 0 0 0 0 0 0 0 0 0 0 0 -1.17838366994836 0 -3.00722385705845 -1.13421065918616 0 0 0 0 0 0 0 0 0 0 0 0 0 0 0 -1.25292856922527 0 0 0 0 0 0 0 0 0 0 0 0 0 0
0 0 0 0 0.223055391536801 1.00231274921089 0 0.37603910529387 0.09198347839554 0 0 0 0 0 0 0 0 0 -1.40373864579392 0 -0.700266070392709 0 0 0 0 0 -1.62220250184293 0 0 0 0 0 0 0 0 -0.314144012751649 0 0 0 -0.989728026946109 0 0 0 0 0 0 0 0 0 0
0 0 0 0 0 0.381481785345297 0.524199805014911 0 0 0 0 0 0 0 0 0 0 0 -0.49951405143367 0 -0.600621543939711 0 0 0 0 0 0 0 0 0 0 0 -2.55804836979396 0 0 0 0 0 0 -0.580555237309707 0 0 0 0 0 0 0 0 0 0
0 0 0 0 0 0 0 0 0 0 0 0 0 0 0 0 0 0 -1.05812832199928 0 -0.29645844888182 0 0 0 0 0 0 0 0 0 0 0 0 0 0 0 0 0 0 -0.849451794457131 0 -0.0894664646269051 0 0 0 0 0 0 0 0
0 0 0 0 0 0 0 0 0 0 0 0 0 0 -3.52606743277878 0 0 0 0 0 0 0 0 0 -2.22296234282904 0 -3.17185813329033 0 0 0 -0.89933232196522 0 0 0 0 -2.32975384677182 0 0 0 0 0 -3.24579650067071 0 0 0 0 0 0 0 0
0 0 0 0 0 0 0 0 0 0 0 0 0 0.667379427347265 0 -1.17728908127053 0 0 0 0 0 0 0 0 0 0 -2.49806297038261 0 0 0 -0.263926207306542 0 0 0 -2.76891393424229 0 0 0 0 0 0 0 0 0 -0.624493061607189 -3.89376506757531 0 0 0 0
0 0 0 0 0 0 0 0 0 0 0 0 0 0 0.245353123353717 0 0 -0.424782921555602 0 0 0 0 0 0 0 0 0 0 0 0 -1.39623022541115 0 0 0 -0.617420499247195 0 0 0 0 0 0 0 0 0 0 0 0 0 0 0
0 0 0 0 0 0.413415541872023 0.221525409000007 0.107740340227939 0 0.243071992496222 0 0 0 0 0 0 0 0 0 0 0 0 -0.129588219916273 0 0 0 0 0 0 0 0 -0.19230796705784 0 0 0 0 0 0 0 0 0 0 0 0 0 -2.80655115044439 0 0 -3.76064687160151 0
0 0 0 0 0 0 0 0 0 0 0 0 0 0 0 0.0810595197124466 0 0 0 0 0 0 -0.173586901663252 0 0 0 0 0 0 0 0 0 0 0 -5.97734905124716 0 0 0 0 0 0 0 0 0 -1.19707201461091 0 0 0 0 0
0 0 0 0 0 0 0 0 0 0.581526676499179 0.271719868635483 0.0997902480772125 0.219231970139917 0 0 0 0 0 0 0 0 0 -1.68627030649422 0 0 0 0 0 0 0 0 -1.9548178265887 0 0 0 0 0 0 0 0 0 0 0 0 -0.608733558607725 0 0 0 -7.13252775860656 0
0 0 0 0 0 0 0 0 0.270979234415202 0.240864831751543 0 0 0 0 0 0 0 0 0 0 0 0 -0.843810597700652 -1.56919365817098 0 0 0 0 0 0 0 -1.46009693124859 0 0 -1.43540265733606 0 0 0 0 0 0 0 0 -4.34192750954188 -5.56298749987574 0 0 0 -0.523658200654717 0
0 0 0 0 0 0 0 0 0 0 0.135601455483377 0.122482775238672 0.0606881256109624 0 0 0 0 0 0 0 0 0 0 0 0 0 0 -1.08906504237721 0 0 0 -2.65801820584447 0 0 0 0 0 0 0 0 0 0 0 -0.928282428769753 -0.782243251920294 0 0 0 0 0
0 0 0.0314585565251131 0.205172631065266 0.35812387802753 0.984032717774634 0.313108261666479 0 0 0 0 0 0 0 0 0 0 0 0 0 0 0 0 -3.13837045057864 0 0 0 -0.616324663228845 0 0 0 -0.555836129251357 0 0 -0.47568599166072 0 0 0 0 0 0 0 0 -0.457262036130447 -0.475875735390291 0 0 0 0 0
0 0 0 0 0 0 0 0 0 0 0 0 0 0 0 0 0.0267398286238309 0.0323962170625838 0.335467981960736 0.16560579103737 0 0 0 0 0 0 0 0 0 0 0 -5.97394989426805 0 0 -1.83515524183624 0 0 0 0 0 0 0 0 -1.04148930936568 -0.253798663182646 0 0 0 0 0
0 0 0 0 0 0 0 0 0 0 0 0 0 0 0 0 0 0 0 0.317557134839269 0 0.630697411450152 0 0 0 0.0321239522040885 0 -3.20725241856598 0 0 0 0 0 0 -1.73792164070162 0 0 0 0 0 0 0 0 -2.67824375348283 -0.737195394542688 0 0 0 0 0
0 0 0 0 0 0 0 0 0 0 0 0 0 0.458976963191692 0 0 0 0 0 0 0 0 0 0 0 0 0 0 -1.35904436429324 0 0 0 0 0 -4.56120565545904 0 0 0 0 0 0 0 0 0 0 0 0 0 0 0
0.0691227171658224 0.39769001682496 0.190064186327571 0 0 0 0 0 0 0 0 0 0 0 0 0 0 0 0 0 0 0 0 -0.162327549464163 0 0 0 0 0 0 0 0 0 0 0 0 0 0 0 0 0 0 0 0 -0.885167608031093 0 0 0 0 0
0 0 0 0.208327678459693 0.545004288539543 0.178472596957432 0.503325658183364 0.476873067200162 1.82977535297875 0 0.327029107742359 0 0 0.624066317955342 0.514777104977851 0 0 0 0 0 0 0 0 0 0 0 0 0 -4.46912583576169 0 0 0 0 0 0 0 0 0 0 0 0 0 0 -1.83764223885719 -3.93490827897814 0 0 0 0 0
0 0 0 0 0 0 0 0 0 0 0 0 0 0 0 0 0 0 0 0 0.225646491278486 0.118166815249844 0 0.64940453852879 0 0 0 0 -0.4271490447844 0 0 0 0 0 -0.0827709159975675 0 0 0 0 0 0 0 0 -0.496964179222669 -1.04951548385466 0 0 0 0 0
0 0 0 0 0 0 0 0 0 0 0 0 0 0 0 0 0 0 0 0 0 0 0 0 0.267239263553466 0 0.969707849591549 0.0841442194094651 0 0 0 0 0 0 0 0 0 0 0 0 0 0 0 0 0 0 0 0 0 0
0 0 0 0.333855573360837 0.0413532251278363 0.091949052347017 0 0.10876787088838 0 0 0 0 0 0 0 0 0 0 0 0 0 0 0 0 0 0 0 0 0 0 0 0 0 0 0 0 0 0 0 0 0 0 -1.09644575172233 0 -0.150503596032087 0 0 0 0 0
0 0 0 0 0 0 0 0 0 0 0 0 0 0.173886187273569 0.0477226160913162 0.289399953412456 0 0 0 0 0 0 0 0 0 0 0 0 0 0 0 0 0 0 0 0 0 0 0 0 0 0 -0.375676720476996 -1.33992408069992 0 0 0 0 0 -5.21105337333649
0 0 0 0 0 0 0 0 0 0 0 0 0 0 0 0 0.0432928606056859 0 0.38714548410631 0.261241521360256 0.490471880942427 0.102033891992868 1.19189556956833 0 0 0 0 0 0 0 0 0 0 0 0 0 0 0 0 0 0 0 0 0 -1.34447293162579 0 0 0 0 -11.6749145258819
0 0 0 0 0 0 0 0 0 0 0 0.479083445328459 0 0 0 0 0 0 0 0 0 0 0 0 0 0 0 0 0 0 0 0 0 0 0 0 0 0 0 0 0 0 0 -0.474922423154838 0 0 0 0 0 0
0 0 0 0 0 0 0 0 0 0 0 0 0 0 0 0 0 0 0 0 0 0 0 0 0 0 0 0 0 0 0 0 0 0 0 0 0 0 0 0 0 0 0 0 0 0 0 -0.569303014781952 0 0
0 0 0 0 0 0 0 0 0 0 0 0 0 0 0.547532050626182 0.108198401073567 0 1.19719856370718 0 0.275829796588652 0 0.0929312283267905 0.379946856520104 0.335399635517831 0.893196998166689 0 0 0.014887527898876 0 0 0 0 0 0 0 0 0 0 0 0 0 0 0 0 0 0 -0.240069662847666 -0.879165865425452 0 0
0 0 0 0 0 0 0 0.262103292673808 0.910534063902433 0.265105961828964 0.067291914714222 0 0 0.418480047796701 0 0 0 0 0 0 0 0 0 0 0 0 0 0 0 0 0 0 0 0 0 0 0 0 0 0 -1.77819642118658 0 0 0 0 0 -1.19849466158018 0 0 0
0.689359729829199 0.0769045444310301 0 0 0 0 0 0 0 0 0 0 0 0 0 0 0 0 0 0 0 0 0 0 0 0 0 0 0 0 0 0 0 0 0 0 0 0 -0.517449921233562 0 0 0 0 0 0 0 0 0 0 0
0 0 0 0 0 0 0 0 0 0 0 0 0 0 0 0 0 0 0 0 0 0 0 0 0 0 0 0 0 0 0 0 0 0 0 0 0 0 -0.570522596394181 0 0 0 0 0 0 0 0 0 0 0
0 0 0 0 0 0 0 0 0 0 0 0 0 0 0 0 0 0 0 0 0 0 0 0 0 0 0 0 0 0 0 0 0 0 0 0 0.103708976974876 0.115680358579054 0 0 -0.505961331754834 0 0 0 0 0 0 0 0 0
0 0 0 0 0 0.117205024185302 0.0368033377563597 0 0.247742776037032 0 0.195307448939812 0.118376818173961 0.167281244880187 0 0 0 0 0 0 0 0 0 0 0 0 0 0 0 0 0 0 0 0 0 0 0 0 0 0 0 -1.73740896888212 0 0 0 0 0 0 0 0 0
0 0 0 0 0 0 0 0 0 0 0 0 0 0 0 0 0 0 0 0 0 0 0 0 0 0 0 0 0 0 0 0 0 0 0 0.355360464369878 0 0 0.100053199163594 0.359143965825531 0 0 0 0 0 0 0 0 0 0
0 0 0 0 0 0 0 0 0 0 0 0 0.0171414803467827 0.693173591017401 0 0 0 0 0 0 0 0 0 0 0 0 0 0 0 0 0 0 0 0 0 0 0 0 0 0 0 0 0 0 0 0 0 0 0 0
0 0 0 0 0 0 0 0 0 0 0 0 0 0 0 0 0 0 0 0 0 0 0 0 0 0 0 0 0 0.22341979958273 0.0683213064152888 0 0 0 0 0 0 0 0 0 0 0 0 0 0 0 0 0 0 0
0 0 0 0 0 0 0 0 0 0 0 0 0 0 0 0 0 0 0 0.868685028656758 0.178528469806031 0.0992324317100797 0.191513838435764 0.524689579795107 0 0 0.360890896860513 0.105688645418389 0 0 0.262858863016732 0 0.102983813992621 0 0 0 0 0 0 0 0 0 0 0 0 0 0 0 0 0
0 0 0 0 0 0 0 0 0 0 0 0 0 0 0.126431618879182 0 0 0.234669134430266 0.137530807217359 1.11437972868194 0.15995323660957 0.097381541143639 0.0538913065403835 0.13668804181369 0 0.167450344509702 0.764039973941473 0.196877467450157 0 0.0309196768073345 0 0.253480165706677 0 0 0 0 0 0 0 0 0 0 0 0 0 0 0 0 0 0
0 0 0 0 0 0 0 0 0 0 0 0 0 0 0.793794938693173 0 0.540457261947853 0 0 0 0 0 0 0 0 0 0 0 0 0 0 0 0 0 0 0 0 0 0 0 0 0 0 0 0 0 0 0 0 0
0 0 0 0 0 0 0 0 0 0 0 0 0 0 0 0 0 0 0 0 0 0 0 0 0 0 0 0 0 0 0 0 0 0 0.0496448122932434 0.245718184303072 0 0 0 0 0 0 0 0 0 0 0 0 0 0
0 0 0 0 0 0 0 0 0 0 0 0 0 0 0 0 0 0 0 0 0 0 0 0 0 0 0 0 0 0 0 0 0 0.116596622389559 0.180171919248331 0 0 0 0 0 0 0 0 0 0 0 0 0 0 0
0 0 0 0 0 0 0 0 0 0 0 0 0 0 0 0 0.786027329511405 0 1.4984301952567 0.108826340904454 0 0 0 0 0 0 0 0 0 0 0 0 0 0 0 0 0 0 0 0 0 0 0 0 0 0 0 0 0 0
0 0 0 0 0 0 0 0 0 0 0 0 0 0 0 0 0 0 0 0 0 0 0 0 0 0 0 0 0 0 1.05892544758379 2.42521068407571 0 0 0 0 0 0 0 0 0 0 0 0 0 0 0 0 0 0
