1.51105004889588
0.18854026509563
0.589725933766996
0.359304592452506
0.830644820999893
0.15928563694978
0.533691899000448
1.29275944513776
0.617415218028403
1.3929293527132
0.819419732132545
0.190905718831048
1.15258683276629
0.804391026092619
0.139434822361343
0.85602544391864
0.12930340988622
2.63894245589253
1.0164448508789
0.876668304409995
0.778223965761257
0.237461047347033
2.45225265342615
0.421442751564846
3.68413616036724
0.380923487962259
4.71139689236119
0.483339187660389
0.737060137670771
0.895989329890575
1.44510811696734
0.623007487907658
0.523713864401658
0.228245627772319
2.86056423963293
0.754492367121511
1.45473156177295
2.63498411153828
0.380929807271098
3.18287585436588
2.06100557122142
0.697668593861918
0.609832834735446
0.316231180515107
2.0929601538471
1.12777019918425
2.29040348892193
2.56423210900041
1.17125208141563
2.35384027621276
