0.379208416262866
1.35972470203582
0.933209880566485
0.621990603344836
0.377913920377463
0.308564174741955
0.641745739987377
1.00010363085429
0.304815055887615
0.505769655265721
0.513931648332924
0.182877093022983
0.264072673463496
1.14465686209679
0.200893183121303
1.56915985532238
0.962767407358219
0.138760292774051
0.232436637639124
0.341300422001732
1.1132160476593
1.90729721449985
0.70812868642534
0.0904771939695472
2.8098835068561
4.77796509693273
0.213045251755948
2.87543020089598
2.17186036666292
2.09828667026637
1.35611445498054
1.45583791224102
2.7076095562523
0.140178839973315
0.199055559127014
0.977432188246581
1.08822533059468
0.269465074681953
0.606462078186274
0.929914458155618
0.0657234673135472
0.580225564250463
3.04698951372777
0.411220948446255
0.287554230013978
4.94563294265851
0.903920304328053
0.936104227202656
0.542757671027385
1.4593768080192
