0.651707170532148
0.670290823893912
2.0235572076871
2.87016397609043
0.206118254761034
0.193325924837239
0.72852963508018
1.08624854825917
1.79191811185618
0.316542122242165
0.160661660076183
0.581888794428544
1.06338554192804
0.301333870753461
1.07890542164017
0.452948099771821
0.152368117066788
2.88420905610473
0.33553678945349
0.544202245798544
0.423272437322515
1.55302089573342
1.06148015703271
2.63071691977566
0.386994715636366
1.09185265945124
0.71995410729335
1.32151003794362
3.16675729576335
1.51454627179383
0.635863355924659
1.81612233304884
1.10158997834097
0.656176717879478
1.15011378752013
0.472661868892408
0.693823560684038
0.561913773821925
0.523724444406738
0.142535410689491
1.10245844501697
0.469970267301006
0.487802915266654
0.425346017776749
2.27898479084403
2.05844640218592
0.767305724163821
1.1997894212623
2.65884383004081
0.937288092429795
