0 -1.00636521868098 0 0 0 0 0 0 0 0 0 0 0 0 -2.58535645212806 0 0 0 0 0 0 0 0 0 0 0 0 0 0 0 0 0 0 0 0 0 0 0 0 0 0 0 0 0 0 0 0 0 0 0
0.194979440375358 0 0 0 0 0 0 0 0 0 0 -1.04892756636867 0 0 -1.61084414699883 0 0 0 0 -1.61836105355102 0 0 0 0 0 0 0 0 0 0 0 0 0 -0.213743872005547 0 0 0 0 0 0 0 0 0 0 0 0 0 0 0 0
0 0 0 0 0 0 0 0 0 0 0 0 0 0 -1.10250828636148 0 -0.369311222685066 0 0 0 0 -2.22918044270155 0 0 -0.2989495338473 0 0 0 0 0 0 0 0 0 0 0 0 0 0 0 0 0 0 0 0 0 0 0 0 0
0 0 0 0 0 0 0 0 0 -1.13794739270359 0 0 0 0 0 0 -0.162311442550039 0 0 0 0 0 0 0 0 0 0 0 0 0 0 0 -1.62725350834391 0 0 0 0 0 0 0 0 0 0 0 0 0 0 0 0 0
0 0 0 0 0 0.13208487742832 -5.53966975836961 0 0 0 0 0 0 0 -0.412738081641108 0 0 0 0 0 0 0 0 0 -1.58738461368081 0 0 0 0 0 0 0 -0.535646404516913 -1.51285220310679 0 0 0 0 0 0 0 0 0 0 0 0 0 0 0 0
0 0 0 0 -0.61578163494041 0 0 0 -3.53359668466306 0 0 0 0 0 -1.98777247648731 0 0 0 0 -0.321131088649969 0 -0.741866543254682 0 0 0 0 -0.768329747166307 0 0 0 0 0 0 0 0 0 0 0 0 0 0 0 0 0 0 0 0 0 0 0
0 0 0 0 1.08637252992674 0 0 0 -0.409895618371851 0 0 0 0 0 -1.54340113955913 0 0 0 0 0 0 0 0 0 -0.968060568267511 0 0 0 0 0 0 0 -0.33811761866676 -0.579627961791061 0 0 0 0 0 0 0 0 0 0 0 0 0 0 0 0
0 0 0 0 0 0 0 0 0 0 0 0 0 0 0 -1.32485730163527 0 0 0 0 0 0 0 0 0 0 0 0 0 0 0 0 -0.722997172798517 0 0 0 0 0 0 0 0 0 0 0 0 0 0 0 0 0
0 0 0 0 0 0.671827090845431 0.0829048889984523 0 0 0 -2.43077786435857 0 0 0 0 0 0 0 0 0 0 0 0 0 -0.449074668884071 0 0 0 -2.03083582559573 0 0 0 -1.63053667644753 -10.8904524117416 0 0 0 0 0 0 0 0 0 0 0 0 0 0 0 0
0 0 0 0.233306801200333 0 0 0 0 0 0 0 0 0 0 0 0 0 0 0 0 0 0 0 0 -2.0177688969745 0 0 0 0 0 0 0 -0.963654624110749 0 0 0 0 0 0 0 0 0 -1.08207523709113 0 0 0 0 0 0 0
0 0 0 0 0 0 0 0 0.500261623659914 0 0 0 0 0 0 0 0 0 0 0 0 0 0 0 -7.38942479325156 0 -1.0411049299558 0 -0.700410769857478 0 0 0 -0.582444968732718 0 0 0 0 0 0 0 0 0 0 0 0 0 0 0 0 0
0 0.219239846300118 0 0 0 0 0 0 0 0 0 0 0 0 0 0 0 0 0 0 0 0 0 0 -0.255570569786377 0 0 0 -0.848643730136139 0 0 0 0 0 0 0 -1.67458129860539 0 0 0 0 -6.15439561763592 0 0 0 0 0 0 0 0
0 0 0 0 0 0 0 0 0 0 0 0 0 0 0 0 0 0 0 0 -1.0811993090764 0 0 0 0 0 0 0 -0.330510999870755 0 -0.969327932928254 0 -2.21760588975365 0 0 0 -1.28731430152873 0 0 0 0 -0.817846203406307 0 0 0 0 -0.626888848451533 0 0 0
0 0 0 0 0 0 0 0 0 0 0 0 0 0 0 0 0 0 0 0 0 0 0 0 -0.546362530731955 0 0 0 -0.288048432608613 0 0 0 -1.44523021942562 0 0 0 0 0 0 0 0 -0.617525614495181 0 0 0 0 -0.716254049568459 0 0 0
0.514687070540937 0.340845456880595 0.244164464012469 0 0.089938339140844 0.4054304798027 0.32182173234605 0 0 0 0 0 0 0 0 0 0 0 0 0 0 0 0 0 -0.0567321365944718 0 0 0 -2.99641997278688 0 0 0 0 0 0 0 -0.637585500525611 0 0 0 0 -3.21709427742587 0 0 0 0 -0.165907114249069 0 0 0
0 0 0 0 0 0 0 0.271199280903918 0 0 0 0 0 0 0 0 0 0 0 0 -3.13863383190739 0 0 0 0 0 0 0 -0.662012084922917 0 0 0 -1.54374417864824 0 0 0 -0.774782113538805 0 0 0 0 -0.415440966131303 0 0 0 0 -1.01313011481162 0 0 0
0 0 0.0797100321767675 0.0319650572063554 0 0 0 0 0 0 0 0 0 0 0 0 0 0 0 0 0 0 -0.155095108882127 -0.206807280085862 0 0 0 0 0 0 0 -0.1561075402574 0 0 -0.675534340645863 0 0 0 0 -0.332843322649628 0 0 0 0 0 0 -3.26745221210415 0 0 0
0 0 0 0 0 0 0 0 0 0 0 0 0 0 0 0 0 0 0 0 0 0 -0.57728912399675 -3.32938002445964 0 0 0 0 0 0 0 -2.73922996216981 0 0 0 0 0 0 0 -2.10187185158465 0 0 0 0 0 0 0 0 0 0
0 0 0 0 0 0 0 0 0 0 0 0 0 0 0 0 0 0 0 0 0 0 0 -1.1147034236364 0 0 0 0 0 0 0 -6.73997555276437 0 0 0 0 0 0 0 0 0 0 0 0 0 0 -1.68603206840745 0 -0.925351046289649 0
0 0.315183667271558 0 0 0 0.0642446309090907 0 0 0 0 0 0 0 0 0 0 0 0 0 0 0 0 0 -1.7596013731304 0 0 0 0 0 0 0 0 0 0 0 0 0 0 0 0 0 0 0 0 0 -0.43016590765707 0 0 0 0
0 0 0 0 0 0 0 0 0 0 0 0 0.209887596302835 0 0 0.642583078676132 0 0 0 0 0 0 0 -0.5678874318724 0 0 0 -1.16903870463436 0 0 0 -1.69093616231347 0 0 0 0 0 0 0 0 0 0 0 0 0 0 0 0 0 0
0 0 0.479483667207257 0 0 0.151097017077323 0 0 0 0 0 0 0 0 0 0 0 0 0 0 0 0 0 0 0 0 0 0 0 0 0 0 0 0 0 0 0 0 0 0 0 0 0 0 0 -0.808052047079174 -2.17396714353364 0 0 0
0 0 0 0 0 0 0 0 0 0 0 0 0 0 0 0 0.0307429974953686 0.111681205475751 0 0 0 0 0 0 0 0 0 -6.58104740454276 0 0 0 -1.54821449109831 0 0 0 0 0 0 0 0 0 0 0 0 0 -0.705749720194931 -1.45176473610294 0 0 0
0 0 0 0 0 0 0 0 0 0 0 0 0 0 0 0 0.0400557260759969 0.646231066187269 0.209092548644359 0.351043724387243 0.124581467105922 0 0 0 0 0 0 0 0 0 0 0 0 0 0 0 0 0 0 0 0 0 0 0 0 0 -0.569764026742527 0 0 0
0 0 0.0626206416347739 0 0.322609551532938 0 0.189457896608128 0 0.0890358481272631 0.416064048145999 1.29185574011839 0.0475186217010811 0 0.111224942659984 0.010579682966068 0 0 0 0 0 0 0 0 0 0 0 0 0 0 0 0 -2.22423946421234 0 0 0 0 0 0 0 0 0 0 0 0 0 0 -2.4896865309718 0 0 0
0 0 0 0 0 0 0 0 0 0 0 0 0 0 0 0 0 0 0 0 0 0 0 0 0 0 0 0 0 0 0 -5.63282774334137 0 0 0 0 0 0 0 0 0 0 0 0 0 0 0 0 0 0
0 0 0 0 0 0.151672199776128 0 0 0 0 0.20169147975852 0 0 0 0 0 0 0 0 0 0 0 0 0 0 0 0 0 0 0 0 -1.4478977715736 0 0 0 0 0 0 0 0 0 0 0 0 0 0 -4.29885789381275 0 0 0
0 0 0 0 0 0 0 0 0 0 0 0 0 0 0 0 0 0 0 0 0.233790793531463 0 1.39295131775225 0 0 0 0 0 0 0 0 -0.193963774186489 0 0 0 0 0 0 0 0 0 0 0 0 0 0 -2.89810729083177 0 0 0
0 0 0 0 0 0 0 0 0.424054906352948 0 0.151553463887306 0.169632878465505 0.0710220677546485 0.0562603816078858 0.616467169020482 0.12657683261334 0 0 0 0 0 0 0 0 0 0 0 0 0 0 0 0 0 0 0 0 0 0 0 0 0 0 0 0 0 0 0 0 0 0
0 0 0 0 0 0 0 0 0 0 0 0 0 0 0 0 0 0 0 0 0 0 0 0 0 0 0 0 0 0 0 -4.24950334210154 0 0 0 0 0 0 0 0 0 0 0 0 0 0 -0.543935194668007 0 0 0
0 0 0 0 0 0 0 0 0 0 0 0 0.201411757814086 0 0 0 0 0 0 0 0 0 0 0 0 0 0 0 0 0 0 -0.324075391522721 0 0 0 0 0 0 0 0 0 0 0 0 0 0 -1.66288095368491 -0.236569558784813 0 0
0 0 0 0 0 0 0 0 0 0 0 0 0 0 0 0 0.0293804309334978 0.595069431998365 1.41813187329288 0 0.334998873321795 0 0.329892421552451 0 0.435599234755299 1.13573169826666 0.306271408956634 0.0394342565958848 0 0.829846679141444 0.0635757534436475 0 0.565484120462133 0.415812269151834 0 0 0 0 0 0 0 0 0 0 0 0 0 -0.72734713222469 0 0
0 0 0 0.312917451646909 0.0981032276308135 0 0.0650629352347745 0.138707874109875 0.315842843206802 0.195975621917715 0.115660688015472 0 0.453692426160909 0.285062239259369 0 0.31798839184797 0 0 0 0 0 0 0 0 0 0 0 0 0 0 0 -2.50518902776136 0 0 0 -0.466268157512668 0 0 0 0 0 0 0 0 0 0 0 -2.00130023975154 0 -0.738211166565428
0 0.0431689021060541 0 0 0.30369693534812 0 0.116305965680138 0 2.0773813806434 0 0 0 0 0 0 0 0 0 0 0 0 0 0 0 0 0 0 0 0 0 0 -2.07083005332301 0 0 0 0 0 -0.258123916116111 0 0 0 0 0 0 0 0 0 0 0 0
0 0 0 0 0 0 0 0 0 0 0 0 0 0 0 0 0.127425528206923 0 0 0 0 0 0 0 0 0 0 0 0 0 0 0 0 0 0 0 0 -0.405861760203876 0 0 -0.989001864879475 0 0 0 -11.4877133598796 0 0 0 0 0
0 0 0 0 0 0 0 0 0 0 0 0 0 0 0 0 0 0 0 0 0 0 0 0 0 0 0 0 0 0 0 0 0.0989195262027824 0 0 0 0 -1.69719146600167 0 0 -0.171931760935534 0 0 0 -1.3106799989233 0 0 0 0 0
0 0 0 0 0 0 0 0 0 0 0 0.316903906854838 0.273578116381177 0 0.130929331161996 0.153046613131116 0 0 0 0 0 0 0 0 0 0 0 0 0 0 0 0 0 0 0 0 0 -1.31649611692299 0 0 0 0 0 0 -0.10292122010379 0 0 0 0 0
0 0 0 0 0 0 0 0 0 0 0 0 0 0 0 0 0 0 0 0 0 0 0 0 0 0 0 0 0 0 0 0 0 0.0492201441290243 0.0815132121902123 0.318815887447614 0.254798560692183 0 0.0874323558258641 0.432198570938272 0.243767572094189 0.138570404202092 0.128518275716996 -7.35641990775771 -1.33175080385386 0 0 0 0 0
0 0 0 0 0 0 0 0 0 0 0 0 0 0 0 0 0 0 0 0 0 0 0 0 0 0 0 0 0 0 0 0 0 0 0 0 0 -0.438454790780847 0 0 0 0 0 0 -0.175235683754194 0 0 0 0 0
0 0 0 0 0 0 0 0 0 0 0 0 0 0 0 0 0.0655365394691346 0.415656664266354 0 0 0 0 0 0 0 0 0 0 0 0 0 0 0 0 0 0 0 -2.19594332619955 0 0 0 0 0 -3.90033498984035 -0.542381542783502 0 0 0 0 0
0 0 0 0 0 0 0 0 0 0 0 0 0 0 0 0 0 0 0 0 0 0 0 0 0 0 0 0 0 0 0 0 0 0 0.182617163114053 0.0342023944257023 0 -1.27762512518927 0 0 0 0 0 0 -1.64755403104154 0 0 0 0 0
0 0 0 0 0 0 0 0 0 0 0 1.19779574296207 0.148176081026411 0.120543317237557 0.686496437841232 0.0868539211420632 0 0 0 0 0 0 0 0 0 0 0 0 0 0 0 0 0 0 0 0 0 -0.673306106996924 0 0 0 0 0 -1.25717954774496 -0.712812636763893 0 0 0 0 0
0 0 0 0 0 0 0 0 0 0.217412620961134 0 0 0 0 0 0 0 0 0 0 0 0 0 0 0 0 0 0 0 0 0 0 0 0 0 0 0 -0.639505951730764 0 0 0 0 0 -1.1108819763779 -1.35195054977099 0 0 0 0 0
0 0 0 0 0 0 0 0 0 0 0 0 0 0 0 0 0 0 0 0 0 0 0 0 0 0 0 0 0 0 0 0 0 0 0 0 0 1.59176373121202 0 0.787320145074753 0 0.254775014206641 0.211881286642701 0 0 0 0 0 0 0
0 0 0 0 0 0 0 0 0 0 0 0 0 0 0 0 0 0 0 0 0 0 0 0 0 0 0 0 0 0 0 0 0 0 2.40719522680883 0.271768165110214 0.0213118473816497 0.279355595415106 0.0350355947523086 0.107782038246154 0.364592084604682 0.141805328831598 0.285695470768733 0 0 0 0 0 0 0
0 0 0 0 0 0 0 0 0 0 0 0 0 0 0 0 0 0 0 0.0843935638804705 0 0.156991542530273 0.137239464165323 0 0 0 0 0 0 0 0 0 0 0 0 0 0 0 0 0 0 0 0 0 0 0 0 0 0 0
0 0 0 0 0 0 0 0 0 0 0 0 0.119278027562659 0.144497217285129 0.0329987508330221 0.187059523344777 0.644402350326682 0 0.342679302152812 0 0 0.449765717749256 0.304596349038171 0.125486143427991 0.502312336104751 0 0.865814700267938 0.609718986472838 0 0.103294346548406 0.337251039988996 0 0 0 0 0 0 0 0 0 0 0 0 0 0 0 0 0 0 0
0 0 0 0 0 0 0 0 0 0 0 0 0 0 0 0 0 0 0 0 0 0 0 0 0 0 0 0 0 0 0.0484091213544075 0.145888407861765 0.41727452374505 0 0 0 0 0 0 0 0 0 0 0 0 0 0 0 0 0
0 0 0 0 0 0 0 0 0 0 0 0 0 0 0 0 0 0 0.179169344850195 0 0 0 0 0 0 0 0 0 0 0 0 0 0 0 0 0 0 0 0 0 0 0 0 0 0 0 0 0 0 0
0 0 0 0 0 0 0 0 0 0 0 0 0 0 0 0 0 0 0 0 0 0 0 0 0 0 0 0 0 0 0 0 0.147827767711718 0 0 0 0 0 0 0 0 0 0 0 0 0 0 0 0 0
