0.785085692970184
3.44960268605262
0.195618092981365
1.25151118500475
0.814283282322236
0.501507823494079
2.90012429917236
0.248743985362261
0.321027911719676
2.23743638226842
1.1035802681157
0.579197687304844
2.5508239760642
1.36700003607166
2.10546092804059
0.181651944520544
1.04715007896397
0.857980306262951
1.75563551890336
0.297034129247714
0.901366209144343
1.17760985859939
1.86666753514591
1.31235092790817
0.302467951838985
0.620638504201149
2.49096629004012
0.547471883704365
2.14167323813238
0.647079290434984
0.572384732181616
0.604810933348739
1.4219418674853
3.3290035816626
0.15324728529412
1.79974061173057
0.426285793182669
0.797299692438114
0.217292251770901
0.347014673451709
3.65053771523351
0.475687787776138
5.40422239001497
3.8648369491785
0.436474243736126
2.76237814966452
7.37206937335732
0.451702152687572
1.64072267162485
3.57962100416256
