3.55028899019129
1.33128106722356
1.84968883964489
1.16219071704501
3.22972308819263
0.226634491356605
0.618612268704243
0.612420015853268
1.722875082141
0.883063127296886
1.49701988438938
1.28125298635813
3.16658913323214
1.44849492542753
0.510697260230613
2.49512578861511
0.816275011060834
0.764174549297965
2.3756100202696
0.184069494879643
1.42198331321107
0.661871520504415
1.7253360220574
0.664651150111258
1.1072590307562
1.77997350808311
2.21627874029491
1.87284662318185
0.510045909915817
0.555047019938373
0.174945186000271
0.686143326084702
0.420379783566827
1.00143108928022
0.848606804974017
0.394417366659295
1.9288185187278
0.979110608190429
1.70279118267501
0.974634277892015
0.468642026829591
3.15323365920755
0.354704305719034
0.611949946415706
2.13616737578334
0.664105057013339
0.776803710357458
0.343194942984779
0.38476418341154
3.55350524674646
