0 0 0 0 0 0 0 0 0 0 0 0 0 0 0 0 0 0 0 0 0 0 0 0 0 0 0 -1.00737562901173 0 0 0 0 0 0 0 0 0 0 0 0 0 0 0 0 0 0 0 0 0 0
0 0 0 0 0 -0.47891077310706 0 0 0 0 0 0 0 0 0 -0.518390771104989 0 0 0 0 0 0 0 0 0 0 0 -0.772143140816567 -0.723801948325691 -1.35331619977338 0 0 0 0 0 0 0 0 0 0 0 0 0 0 0 0 0 0 0 0
0 0 0 0 -0.69805575124644 0 0 0 0 0 0 0 0 0 0 0 0 0 0 0 -0.640369878716774 0 0 0 0 0 0 -4.07996439304822 -0.238147565525064 -2.08169159702497 0 0 0 0 0 0 0 0 0 0 0 0 0 0 0 0 0 0 0 0
0 0 0 0 0 0 0 0 0 0 0 0 0 0 0 0 0 0 0 0 -0.884922274584881 0 0 0 0 0 0 -0.290948124113497 -0.440071731123019 -2.79108539414596 0 0 -3.39552346008955 0 0 0 0 0 0 0 0 0 0 0 0 0 0 0 0 0
0 0 0.132789707874462 0 0 0 0 -0.599941389594644 0 0 0 0 0 0 0 0 0 0 0 0 -0.615102003650032 0 0 0 0 0 0 0 -1.00490064933867 -2.08020908148343 0 0 0 0 0 0 0 0 0 0 0 0 0 0 0 0 0 0 0 0
0 0.104178349485008 0 0 0 0 0 0 0 0 0 0 0 0 0 0 0 0 0 0 -5.02460104997837 0 0 0 0 0 0 0 -1.1790208131919 0 0 0 -0.591863673197803 0 0 0 0 0 0 0 0 -0.82790813745698 0 0 0 0 0 0 0 0
0 0 0 0 0 0 0 0 0 0 0 0 0 0 0 0 0 0 0 0 -0.391474344229353 0 0 0 0 0 0 0 -0.0680732235731459 -0.273571728544425 0 0 0 0 0 0 0 0 0 0 0 -2.56561390150946 0 0 0 0 0 0 0 0
0 0 0 0 0.121450994927007 0 0 0 0 0 0 0 0 0 0 0 0 0 0 0 -0.543487557226845 0 0 0 0 0 0 0 -1.49034040882575 -1.65604077093236 -0.890197330799047 0 -2.07183734345655 0 0 0 0 0 0 0 0 -1.11832900147408 0 0 0 0 0 0 0 0
0 0 0 0 0 0 0 0 0 0 0 0 0 0 0 0 0 0 0 0 0 0 0 0 0 -0.492081323651617 0 0 0 0 -0.880342365278797 0 0 0 -0.17274375420679 0 0 0 0 0 0 0 0 0 0 0 0 0 0 0
0 0 0 0 0 0 0 0 0 0 0 0 0 0 0 0 -2.16434131577264 0 0 0 0 0 0 0 0 -1.10395115052976 0 0 0 0 -3.01993004678208 0 0 0 -1.03368507815519 0 0 0 0 0 0 0 0 -1.38950564770532 0 0 0 0 0 0
0 0 0 0 0 0 0 0 0 0 0 0 0 0 0 0 0 0 0 0 0 0 0 0 0 0 0 0 -4.69305681722916 0 -2.24127643434822 0 0 0 0 0 0 0 0 0 0 0 0 -0.753100712615055 0 0 0 0 0 0
0 0 0 0 0 0 0 0 0 0 0 0 0 0 0 0 -2.4538588618698 0 0 0 0 0 0 0 0 0 0 0 0 0 0 0 0 0 -5.47962324361585 0 0 0 0 -1.68350424845399 0 0 0 -10.461878923339 0 0 0 0 0 0
0 0 0 0 0 0 0 0 0 0 0 0 0 0 -1.32082814995023 0 -1.93080587764727 0 0 0 0 0 0 0 0 0 0 0 0 0 -0.147613623765739 0 0 0 -0.19448593015961 0 0 0 0 0 0 0 -0.532304761462146 -2.73846789166446 0 0 0 0 0 0
0 0 0 0 0 0 0 0 0 0 0 0 0 0 0 0 0 0 0 0 0 0 0 0 0 0 0 0 0 0 0 0 0 0 -0.174046076815999 0 0 0 0 0 0 0 0 0 0 0 0 0 0 0
0 0 0 0 0 0 0 0 0 0 0 0 0.260733232046022 0 0 0 0 0 0 0 0 0 0 0 0 0 0 0 0 0 0 0 0 0 -0.334765088586625 0 0 0 0 -0.38541411948917 0 0 0 0 0 0 0 0 0 0
0 0.107024096791061 0 0 0 0 0 0 0 0 0 0 0 0 0 0 0 0 0 0 0 0 0 0 0 0 0 0 0 0 -0.328153513054625 0 0 0 -2.36821228200527 0 0 0 0 0 0 0 -0.634150177969969 0 0 0 0 0 0 0
0 0 0 0 0 0 0 0 0 0.451903812858642 0 0.428253775352209 0.419458053218206 0 0 0 0 0 0 0 0 0 0 0 -0.605584697196848 0 0 0 0 0 -0.924021137078864 0 0 0 0 0 0 0 0 -0.146600682443771 0 0 -1.37881993595476 0 0 0 0 0 0 0
0 0 0 0 0 0 0 0 0 0 0 0 0 0 0 0 0 0 0 0 0 0 0 0 -0.399061993200428 0 0 0 0 0 0 -0.810532587649429 0 0 0 0 0 -0.746292756288482 0 -1.68647706630154 0 0 -2.96697755662968 0 0 0 0 0 0 0
0 0 0 0 0 0 0 0 0 0 0 0 0 0 0 0 0 0 0 0 0 0 0 0 0 0 0 0 0 0 -0.206889644452053 -3.03074832013317 0 0 0 0 0 0 0 -0.205487559229141 0 0 -0.577964524444424 0 0 0 0 0 0 0
0 0 0 0 0 0 0 0 0 0 0 0 0 0 0 0 0 0 0 0 0 -3.46087244378355 0 0 0 0 -1.19480036414639 0 0 0 0 -3.50221810301656 0 0 0 0 0 0 0 -1.40766385310135 0 0 0 0 0 0 0 0 0 0
0 0 0.122932340030814 0.196230873319836 0.118841402825474 1.04698723866291 0.0814189485255283 0.0933323755411466 0 0 0 0 0 0 0 0 0 0 0 0 0 -0.540510299268478 0 0 0 0 0 0 0 0 0 -0.905045819840705 0 0 0 0 0 0 0 0 0 0 -2.18673358104042 0 0 0 0 0 0 0
0 0 0 0 0 0 0 0 0 0 0 0 0 0 0 0 0 0 0 0.747028464483657 0.111903190925311 0 0 0 0 0 0 0 0 0 0 -3.1704390187863 0 0 0 0 0 0 0 -0.802685559497259 0 0 0 0 0 0 0 0 0 0
0 0 0 0 0 0 0 0 0 0 0 0 0 0 0 0 0 0 0 0 0 0 0 0 0 0 0 0 0 0 0 -6.93376032493162 0 0 0 0 0 0 0 -0.601641023972328 0 0 0 0 0 0 0 0 0 0
0 0 0 0 0 0 0 0 0 0 0 0 0 0 0 0 0 0 0 0 0 0 0 0 0 0 0 0 0 0 0 -0.759350844871474 0 0 0 -0.819291503901833 0 0 0 -0.89680282540182 0 0 0 0 0 0 0 0 0 0
0 0 0 0 0 0 0 0 0 0 0 0 0 0 0 0 0.111514630754009 0.075559416296701 0 0 0 0 0 0 0 0 0 0 0 0 0 -0.611738263074988 0 0 0 -0.725923900465355 0 0 0 0 0 0 0 0 0 0 0 0 0 0
0 0 0 0 0 0 0 0 0.0987760619343148 0.232960835367403 0 0 0 0 0 0 0 0 0 0 0 0 0 0 0 0 0 0 0 0 0 -4.22330302778043 0 0 0 -6.98013031669471 -0.876703622456075 0 0 0 0 0 0 0 0 0 0 0 0 0
0 0 0 0 0 0 0 0 0 0 0 0 0 0 0 0 0 0 0 0.257395378476324 0 0 0 0 0 0 0 0 0 0 0 -1.27947015233413 0 0 0 -0.547060038602037 0 0 0 0 0 0 0 0 0 0 -3.42384094421871 0 -0.540086483402707 0
0.196284606118439 0.152502235484253 0.819818228547383 0.0551605274562086 0 0 0 0 0 0 0 0 0 0 0 0 0 0 0 0 0 0 0 0 0 0 0 0 0 0 0 -0.312102769300506 0 0 0 0 0 0 0 0 0 0 0 0 0 0 -0.991960004874815 0 -0.760789085798028 0
0 0.145799419812898 0.0489447089143368 0.0908443100325518 0.206793611054097 0.246138255172931 0.0134530147291145 0.314912273235697 0 0 0.923442359421722 0 0 0 0 0 0 0 0 0 0 0 0 0 0 0 0 0 0 0 0 -1.08495639593505 0 -2.89362921922495 0 -3.10595803261102 -1.04879606204817 0 0 0 -5.00348737114157 0 0 0 0 0 0 0 -0.844412965854345 0
0 0.266133746770839 0.419881659310965 0.592620881008004 0.47768341767109 0 0.0549400507638258 0.336808212314002 0 0 0 0 0 0 0 0 0 0 0 0 0 0 0 0 0 0 0 0 0 0 0 -7.23528216585388 0 -0.360170596555029 0 -1.29924363956971 0 0 0 0 0 0 0 0 0 0 0 0 0 0
0 0 0 0 0 0 0 0.190921335905281 0.181836105389968 0.596314716241402 0.47957722203371 0 0.0288588752189616 0 0 0.0640540598582656 0.19213156364787 0 0.0380020299388103 0 0 0 0 0 0 0 0 0 0 0 0 0 0 0 0 -0.156889399118193 0 0 0 0 0 0 0 0 0 0 0 0 -0.085223717513033 0
0 0 0 0 0 0 0 0 0 0 0 0 0 0 0 0 0 0.170019639509733 0.596330295102897 0.697140906349484 0.175919455754921 0.654388364540668 1.45269802860325 0.141357647711516 0.126256976210358 0.781858798086556 0.241111644436956 0.0647037947276586 0.231233177968861 1.5352418732665 0 0 0 -0.146760767538978 0 -4.82117421080104 0 0 0 0 0 0 0 0 0 0 0 0 -0.217992508162341 0
0 0 0 0.70333463645322 0 0.118022644405812 0 0.416869353505767 0 0 0 0 0 0 0 0 0 0 0 0 0 0 0 0 0 0 0 0 0 0 0 0 0 0 0 -1.93785268950022 0 0 0 0 -0.532787343336246 0 0 0 0 0 0 0 0 0
0 0 0 0 0 0 0 0 0 0 0 0 0 0 0 0 0 0 0 0 0 0 0 0 0 0 0 0 0.591660764507663 0.0709813971798746 0 0.0292214653094486 0 0 0.0507984617994705 0.0858446841612964 0 0 0 0 -4.51828246868705 0 0 0 0 -2.64749774874969 0 -0.345107974664918 -1.33298429010177 0
0 0 0 0 0 0 0 0 0.0354651360444913 0.224982272923232 0 1.11531690742169 0.0407169228360785 0.0309002522130338 0.0693599961980511 0.451070949173359 0 0 0 0 0 0 0 0 0 0 0 0 0 0 0 0 0 -0.232882648717612 0 0 0 0 0 0 0 0 0 0 0 -2.49737852810244 0 0 0 -0.175291924050981
0 0 0 0 0 0 0 0 0 0 0 0 0 0 0 0 0 0 0 0 0 0 0 0.164423809477362 0.157270724180329 1.38977782537787 0.107419350635046 0 0.607040554631869 0.27887072322306 0.031589530543053 0.925513148885198 0.398857382792434 -0.465900732807641 0 0 0 0 0 0 0 0 0 0 0 0 0 -1.31568013209235 0 -0.769509579415541
0 0 0 0 0 0 0 0 0 0 0 0 0 0 0 0 0 0 0 0 0 0 0 0 0 0.178067682316559 0 0 0.210307021522937 0 0 0 0 0 0 0 0 0 0 0 0 0 0 0 0 0 0 -0.456107156113069 0 0
0 0 0 0 0 0 0 0 0 0 0 0 0 0 0 0 0 0.140391880247233 0 0 0 0 0 0 0 0 0 0 0 0 0 0 0 0 0 0 0 0 0 0 0 0 0 0 0 0 0 0 0 -0.494689338086459
0 0 0 0 0 0 0 0 0 0 0 0 0 0 0 0 0 0 0 0 0 0 0 0 0 0 0 0 0 0 0 0 0 0 0 0 0 0 0 0 0 0 0 0 0 0 0 0 0 -3.47240467921464
0 0 0 0 0 0 0 0 0 0 0 0.325561877315122 0 0 0.0758842525940766 0 0.0295117866622668 0.341617405920271 0.0419140624111499 0.295275775316857 0 0.157805413566339 0.117970303655701 0.195337121478731 0 0 0 0 0 0 0 0 0 0 0 0 0 0 0 0 0 0 0 0 0 0 0 -1.26436912763467 0 0
0 0 0 0 0 0 0 0 0 0 0 0 0 0 0 0 0 0 0 0 0 0 0 0 0 0 0 0 1.01505674805629 0 0 0 0.102878025319247 0.835857083056397 0 0 0 0 0 0 0 0 0 0 0 0 0 0 0 0
0 0 0 0 0 0.168332274838847 0.487287923042189 0.229437581528143 0 0 0 0 0 0 0 0 0 0 0 0 0 0 0 0 0 0 0 0 0 0 0 0 0 0 0 0 0 0 0 0 0 0 0 0 0 0 0 0 0 -4.63597978147608
0 0 0 0 0 0 0 0 0 0 0 0 0.118876307063599 0 0 0.114014120246762 0.269929054682514 0.592735682065159 0.108694967773811 0 0.473684263204661 0 0 0 0 0 0 0 0 0 0 0 0 0 0 0 0 0 0 0 0 0 0 0 -0.597128005537702 0 0 -1.46576952907037 0 -2.43504672689226
0 0 0 0 0 0 0 0 0 0.25252698980233 0.157381062615949 2.15198735074868 0.470806676829971 0 0 0 0 0 0 0 0 0 0 0 0 0 0 0 0 0 0 0 0 0 0 0 0 0 0 0 0 0 0 0 -1.42877237959687 0 0 -6.17486168878299 0 -1.20139098879599
0 0 0 0 0 0 0 0 0 0 0 0 0 0 0 0 0 0 0 0 0 0 0 0 0 0 0 0 0 0 0 0 0 0 0 0 0 0 0 0 0 0 0.121242970843913 0.28358391026642 0 0.105531553989804 0 0 0 -0.884190141932481
0 0 0 0 0 0 0 0 0 0 0 0 0 0 0 0 0 0 0 0 0 0 0 0 0 0 0 0 0 0 0 0 0 0.532300546157392 0.500770419495817 0 0 0 0 0 0 0 0 0 -0.514499722965035 0 0 -1.04391352975794 0 0
0 0 0 0 0 0 0 0 0 0 0 0 0 0 0 0 0 0 0 0 0 0 0 0 0 0 0.63874792954343 0.199660122512453 0 0 0 0 0 0 0 0 0 0 0 0 0 0 0 0 0 0 0 0 0 0
0 0 0 0 0 0 0 0 0 0 0 0 0 0 0 0 0 0 0 0 0 0 0 0 0 0 0 0 0 0 0 0 0 0.0745046045561908 0 0.263582454735515 0.0874525338498658 0 0 0.255457834134612 0 0 0.282664844366236 1.26685217386256 0 0.210598815632565 0 0 0 0
0 0 0 0 0 0 0 0 0 0 0 0 0 0 0 0 0 0 0 0 0 0 0 0 0 0 0.0985421856652092 0.149192802552916 0.177552605479731 0 0.0182255965861939 0.0436897987888379 0 0.23584313279516 0 0 0 0 0 0 0 0 0 0 0 0 0 0 0 0
0 0 0 0 0 0 0 0 0 0 0 0 0 0 0 0 0 0 0 0 0 0 0 0 0 0 0 0 0 0 0 0 0 0 0.0356475279154435 0.159648558814073 0 0.0957816695034524 0.664953486941188 0 0 0.97537853398133 0.47572223923157 0.247663341412262 0.182071728869921 0 0 0 0 0
