0.150212807487869
0.324415552278918
0.332693310271324
0.540717258175247
0.115324846157182
0.186251574332073
0.346343915686269
1.44649415119188
1.14608365801897
0.0350353430814042
8.53605243255944
0.282764676395877
0.0951985459969269
4.30281494920515
6.65030005841024
0.102553960445769
1.21004865240373
0.467766634217519
0.198382594737839
0.477128546724317
1.42814139187336
5.38059139980046
0.284831690111094
0.468258325993426
0.610412152508673
0.526844490287955
0.0213635780262787
0.476814739534157
0.320023126063559
3.06039650683729
0.530087562650991
2.27966682802133
0.0265581248231905
0.284646439497317
0.377449488205901
2.46160321659619
0.259467470698863
3.33478112262732
5.14071853585113
0.156545550645138
0.748509566884992
0.0414180916407509
1.24341127740908
0.980862343271024
0.581145146291716
0.0557842511405101
0.21934683748418
0.570001647049992
0.0837150782365386
0.989499932879987
