0.433834131148224
1.00988790937942
1.71332538525022
0.163287176426777
0.738127979228268
2.36467749620107
0.645940351265619
2.7819026711596
0.228442499057248
0.732016294833953
2.80679563342603
0.283469844833706
1.11242383645871
1.29122126468667
0.719939217196054
1.95475243554437
2.67420070900587
0.878785149208232
1.57875276148293
2.20925927039695
1.16143022828903
0.626624210945331
2.34219993045662
0.965807920282193
1.26754128761013
0.63433384472274
0.9419998785213
0.301949550776553
3.11696271074574
0.203852691881809
2.48519228515843
0.211956563342209
0.980180763357867
2.26046626242318
1.75872081857927
0.948168252640917
0.554486801512977
1.51230826935599
0.875112280747713
0.366318031913223
0.550156247198299
0.79770883050471
0.620258703745369
1.46964569743891
1.98925036157242
1.72511152463004
0.157309645275545
1.38550876680808
2.18856890924951
0.136499987920829
