0.0375500619431614
0.8082222076446
0.7589742561113
0.563006962265232
2.6941083263062
0.200985437005922
0.407231147881045
0.101940810934191
0.202880500528684
0.0291387947914077
0.313752017573536
1.70004989960642
0.215879410671087
0.660966666334475
1.12947516183308
0.372414954523348
1.90353647888482
0.231983955176935
0.175889011874703
0.461900827682518
1.22280121595883
0.151357030444819
0.318508427054086
2.5382115712454
0.61204589490967
0.95870921252243
0.202117322726115
0.239652076432312
0.511903371972394
0.233560958151113
0.972454827996137
1.94236855520015
0.170982800109452
0.475560503286025
0.68427696266529
0.936587065988636
0.484366034311466
0.265918742298625
0.161626343130047
0.526691601444501
0.273320412347788
0.114901314212824
0.143273641665038
0.0763115293358642
0.104716740980689
0.409722184139973
0.114337765900821
0.846261653260379
1.43608898999342
0.260957482659806
