0 0 0 0 0 -3.94093270838174 0 0 0 0 0 0 0 0 0 0 0 0 0 0 0 0 0 0 0 0 0 0 0 0 0 0 0 0 0 0 0 0 0 0 0 0 0 0 0 0 0 0 0 0
0 0 0 0 0 0 -0.710527451585579 0 0 0 0 0 0 0 0 0 0 0 0 -0.55509478687966 0 0 0 0 0 0 0 0 0 0 0 0 0 0 0 0 0 0 0 0 0 0 0 0 0 0 0 0 0 0
0 0 0 0 0 0 0 0 -0.436313114022796 0 0 0 -0.194800863851328 0 0 0 0 0 0 0 0 0 0 0 0 0 0 0 0 0 0 0 0 0 0 0 0 -3.66414522300943 0 0 0 0 0 0 0 -4.3369902413135 0 0 0 0
0 0 0 0 0 0 0 0 -1.02968086242226 0 0 0 -0.67603084196175 0 0 0 0 -3.55285773861291 0 -0.140500898709009 0 0 0 0 0 0 0 0 0 0 0 0 0 0 0 0 0 -1.76123447971143 0 0 0 0 0 0 0 0 0 0 0 0
0 0 0 0 0 0 0 0 0 0 -2.19568420847413 0 0 0 0 0 0 0 0 -1.09607751970116 0 0 0 0 0 0 0 0 -0.193506958180397 0 0 0 0 0 0 0 0 -0.585974405866169 0 0 -0.479321990909732 0 0 0 0 -1.50317076848432 0 0 0 0
0.754005603646935 0 0 0 0 0 0 -0.931340881742836 0 0 0 0 0 0 0 0 0 0 -1.72276823221335 0 0 0 0 0 0 0 0 0 0 0 0 0 0 0 0 0 0 -1.0504946481817 0 0 -0.24664916442848 0 0 0 0 0 0 0 0 0
0 0.145651770442789 0 0 0 0 0 0 0 0 0 0 0 0 0 0 0 0 0 -1.52726701909834 0 0 0 0 0 0 0 0 0 0 0 0 0 0 0 0 0 -2.79068637149715 0 0 -1.7492321026476 0 0 0 0 0 0 0 0 0
0 0 0 0 0 0.199151245085463 0 0 0 0 0 0 0 0 0 0 0 0 -2.83292036214174 -0.4537566687942 0 0 0 0 0 0 0 0 0 0 0 0 0 0 0 0 0 0 0 0 -0.504533068876462 0 0 0 0 0 0 0 0 0
0 0 0.088588361307723 0.218629795177903 0 0 0 0 0 0 0 0 0 0 0 0 0 0 0 0 0 -1.21210168293086 0 0 0 0 0 0 0 0 0 -2.00847020341134 0 0 0 0 0 0 0 0 -0.191150296657723 0 -0.542494647722907 0 0 0 0 0 0 0
0 0 0 0 0 0 0 0 0 0 0 0 0 -0.106548675094098 0 0 0 0 0 0 0 -1.19612961118023 0 0 0 0 0 0 0 0 0 0 0 0 0 0 0 0 0 0 0 0 0 0 0 0 0 0 0 0
0 0 0 0 0.411717932347356 0 0 0 0 0 0 0 0 -1.14253570076001 -4.50205248340493 0 -2.65251862258919 0 0 0 0 -0.284798764345274 0 0 0 0 0 0 0 0 0 0 0 0 0 0 -3.35636801204618 0 -3.04671076417972 0 -0.837008296361531 0 -4.43617890112664 0 0 0 0 0 0 0
0 0 0 0 0 0 0 0 0 0 0 0 0 -0.464117548159324 -0.529304914711615 0 0 0 0 0 0 -1.93905392067315 0 -0.464603173591822 0 0 0 0 0 0 0 0 0 0 0 0 -1.51003714075404 0 0 0 -2.01862569990227 0 -0.898667474616199 0 0 0 0 0 0 0
0 0 0.0375675883966256 0.131557506564108 0 0 0 0 0 0 0 0 0 0 -2.32926128895339 0 0 0 0 0 0 -5.42505901869535 0 -0.902041408718341 0 0 0 0 0 0 0 0 0 0 0 0 0 0 -0.594988296886403 0 -1.54247393946658 0 -6.52081023605852 0 0 0 0 0 0 0
0 0 0 0 0 0 0 0 0 0.0201236775075249 0.227663617391428 0.0983968523968967 0 0 0.799356257879878 0 0 0 0 0 0 -0.320229331471946 0 -3.44203804679501 0 0 0 0 0 0 0 0 0 -3.62200023298364 0 0 0 0 0 0 -0.559399804668454 -3.5234548290195 -4.53717933619857 0 0 0 0 0 -3.96060217735022 0
0 0 0 0 0 0 0 0 0 0 0.830745568170705 0.107937869882085 0.402145220398714 -4.38181799265066 0 -0.123476252886524 0 0 0 0 0 -0.438433899040088 0 0 0 0 0 0 0 0 0 0 0 -0.282136033614874 0 0 -2.28713995542559 0 0 0 -2.05021932143439 -0.700515442522173 -2.04845108224634 0 0 0 0 0 -5.15474259288351 0
0 0 0 0 0 0 0 0 0 0 0 0 0 0 0.024314680031352 0 0 0 0 0 0 0 0 0 0 0 0 0 0 0 0 0 0 0 0 0 -0.120039139854637 0 0 0 0 0 0 0 0 0 0 0 0 0
0 0 0 0 0 0 0 0 0 0 0.494147097071252 0 0 0 0 0 0 0 0 0 0 0 0 0 -5.36146871219515 0 -0.927845016089531 0 0 0 -1.99169733638841 0 0 0 0 0 -1.02880318448499 0 0 0 0 0 0 0 0 0 0 0 0 0
0 0 0 0.686166566371603 0 0 0 0 0 0 0 0 0 0 0 0 0 0 0 0 0 0 0 0 0 0 0 0 0 0 0 0 0 0 0 0 0 0 0 0 0 0 0 0 0 0 0 -1.47637963157462 0 0
0 0 0 0 0 0.36800706608113 0 0.596503290989605 0 0 0 0 0 0 0 0 0 0 0 0 0 0 0 0 0 0 0 0 0 0 -0.445208674285429 0 0 0 0 0 -1.94174261383784 0 0 0 0 0 0 0 0 0 0 -3.47110553578584 0 0
0 0.112019756083492 0 0.0279963405801021 0.222884558926625 0 0.343067704646992 0.087545602417011 0 0 0 0 0 0 0 0 0 0 0 0 0 0 0 0 0 0 0 0 0 0 -1.02232067300992 0 0 0 0 0 0 0 0 0 0 0 0 0 0 0 0 -0.749610369480449 0 0
0 0 0 0 0 0 0 0 0 0 0 0 0 0 0 0 0 0 0 0 0 0 0 0 0 0 -3.15654209193024 0 0 0 0 0 0 0 0 0 -1.28218328930823 0 0 0 0 0 0 0 0 0 0 -0.631251195591482 0 0
0 0 0 0 0 0 0 0 0.234476588488304 0.262621134881849 0.0600752636600827 0.400437021544568 1.08525172521473 0.0669048059927407 0.0829494357680539 0 0 0 0 0 0 0 0 0 0 0 -0.405738107839259 0 0 0 -1.3594193351023 0 0 0 0 0 -3.36578060672963 0 0 0 0 0 0 0 0 0 0 -0.953544215782416 0 0
0 0 0 0 0 0 0 0 0 0 0 0 0 0 0 0 0 0 0 0 0 0 0 0 0 0 0 0 0 0 0 0 0 0 0 0 0 0 0 0 0 0 0 -0.269018629505296 0 0 0 -0.787508337185613 0 0
0 0 0 0 0 0 0 0 0 0 0 0.0886213770283706 0.186169100094042 0.686113579872653 0 0 0 0 0 0 0 0 0 0 0 0 0 0 0 0 0 0 -0.278154868553062 0 0 0 0 0 0 0 0 0 0 -1.29583445446369 0 0 0 -0.638695802719916 0 0
0 0 0 0 0 0 0 0 0 0 0 0 0 0 0 0 1.04431032609096 0 0 0 0 0 0 0 0 0 0 0 0 0 0 0 -1.09492679407328 0 0 0 0 0 0 0 0 0 0 -1.66688240905636 0 0 0 0 0 -0.118433263298104
0 0 0 0 0 0 0 0 0 0 0 0 0 0 0 0 0 0 0 0 0 0 0 0 0 0 0 0 0 0 0 0 -0.755791865342139 0 0 0 0 0 0 0 0 0 0 -3.2156109652279 0 0 0 0 0 -1.00724759026447
0 0 0 0 0 0 0 0 0 0 0 0 0 0 0 0 0.19782534085923 0 0 0 0.607702089443071 0.0835657238704062 0 0 0 0 0 0 0 0 0 0 -1.38111850822488 0 0 0 0 0 0 0 0 0 0 0 0 0 0 -0.732303872422486 0 -0.676113622108319
0 0 0 0 0 0 0 0 0 0 0 0 0 0 0 0 0 0 0 0 0 0 0 0 0 0 0 0 0 0 0 0 -0.528665685173242 0 0 0 0 0 0 0 0 0 0 0 0 0 0 -0.13321854802658 0 -0.358003976395109
0 0 0 0 0.0373108021823526 0 0 0 0 0 0 0 0 0 0 0 0 0 0 0 0 0 0 0 0 0 0 0 0 -0.868610815323596 0 0 0 0 0 -0.953671818267519 0 0 0 0 0 0 0 -2.06728812024916 0 0 0 0 0 -3.34726877007845
0 0 0 0 0 0 0 0 0 0 0 0 0 0 0 0 0 0 0 0 0 0 0 0 0 0 0 0 0.177193291779084 0 0.107679591844501 0 0 0 0 -0.833402482723928 0 0 0 0 0 0 0 -1.58042812649913 0 0 0 -0.586771494951299 0 0
0 0 0 0 0 0 0 0 0 0 0 0 0 0 0 0 0.41506679512431 0 0.0939914526610566 0.194563023510292 0 0.289139526773109 0 0 0 0 0 0 0 -0.54786920405308 0 0 -0.300406152757651 0 0 -0.879549305046333 0 0 0 0 0 0 0 -3.57729904580408 0 0 0 -0.628706825665195 0 0
0 0 0 0 0 0 0 0 0.388729332092001 0 0 0 0 0 0 0 0 0 0 0 0 0 0 0 0 0 0 0 0 0 0 0 0 0 0 -1.04252125682167 0 0 0 0 0 0 0 -0.31257787848418 0 0 0 0 0 0
0 0 0 0 0 0 0 0 0 0 0 0 0 0 0 0 0 0 0 0 0 0 0 0.0608977432744679 0.216721238760262 0.151352035662469 0.273517747414405 0.102166976127662 0 0 0.0593413156442317 0 0 0 0 -0.278415532606758 0 0 0 0 0 0 0 -0.525853929981664 0 0 0 0 0 0
0 0 0 0 0 0 0 0 0 0 0 0 0 0.682657938690896 0.0567230941274742 0 0 0 0 0 0 0 0 0 0 0 0 0 0 0 0 0 0 0 0 -1.01143020174141 0 0 0 0 0 0 0 -3.14527590442322 0 0 0 0 0 0
0 0 0 0 0 0 0 0 0 0 0 0 0 0 0 0 0 0 0 0 0 0 0 0 0 0 0 0 0 0 0 0 0 0 0 -1.92508880693262 0 0 0 0 0 0 0 -0.803219745653611 0 0 0 0 0 0
0 0 0 0 0 0 0 0 0 0 0 0 0 0 0 0 0 0 0 0 0 0 0 0 0 0 0 0 0.183687739658518 0.166695966021456 0.17366350783963 0.195942879000118 0.0593983194042985 0.191651917808687 0.415927575298579 0 0.0669999886720326 0.111463502077257 0 0 0.929857357307167 0 0 -2.45761566327229 0 0 0 0 0 0
0 0 0 0 0 0 0 0 0 0 0.664752056340428 0.284883548361465 0 0 0.440251841037748 0.0218552660865776 0.206663841458776 0 0.393938770826467 0 0.26703807440339 0.662224144224538 0 0 0 0 0 0 0 0 0 0 0 0 0 -0.359801817135471 0 0 0 0 0 0 0 -0.740334731784975 0 0 0 0 0 0
0 0 0.790250749605083 0.356872604633514 0.117354679932193 0.229963511535763 0.61294985026548 0 0 0 0 0 0 0 0 0 0 0 0 0 0 0 0 0 0 0 0 0 0 0 0 0 0 0 0 -0.551555509490723 0 0 0 0 0 0 0 0 0 0 0 0 0 0
0 0 0 0 0 0 0 0 0 0 0.635225304996636 0 0.118312213519136 0 0 0 0 0 0 0 0 0 0 0 0 0 0 0 0 0 0 0 0 0 0 0 0 0 0 0 0 0 0 -0.986349323112317 0 0 0 0 0 0
0 0 0 0 0 0 0 0 0 0 0 0 0 0 0 0 0 0 0 0 0 0 0 0 0 0 0 0 0 0 0 0 0 0 0 0 0 0 0 0 0 0 0 -2.81154936168127 0 0 0 0 0 0
0 0 0 0 0.094057625857133 0.0492698392638673 0.366219612076289 0.103013755589393 0.0359947166000209 0 0.174353577850523 0.413692191003981 0.328057896628017 0.111282669595086 0.414832723556705 0 0 0 0 0 0 0 0 0 0 0 0 0 0 0 0 0 0 0 0 -4.6357021073707 0 0 0 0 0 0 0 -4.23789731102694 0 0 0 0 0 0
0 0 0 0 0 0 0 0 0 0 0 0 0 0.675692619634309 0.132044229157605 0 0 0 0 0 0 0 0 0 0 0 0 0 0 0 0 0 0 0 0 0 0 0 0 0 0 0 0 -0.706332411695186 0 0 -0.778770412079562 0 0 0
0 0 0 0 0 0 0 0 0.100724846737516 0 0.960973762628503 0.165912515447868 1.3250909888383 0.966928572393252 0.423977597053045 0 0 0 0 0 0 0 0 0 0 0 0 0 0 0 0 0 0 0 0 0 0 0 0 0 0 0 0 0 0 0 0 0 0 0
0 0 0 0 0 0 0 0 0 0 0 0 0 0 0 0 0 0 0 0 0 0 0.052601009635398 0.24167949208338 0.318604554094067 0.651130012596269 0 0 0.38186980151403 0.31183435757285 0.744081317239532 0.0641471015204639 0.105157634337948 0.59576963121699 0.153902402127188 0.494897672600937 0.154931375182023 0 0.191436647265892 0.592703581445306 0.823636479974118 0.142604846027717 0 0 0 0 -1.20927935802184 0 0 0
0 0 0 0 0 0 0 0 0 0 0 0 0 0 0 0 0 0 0 0 0 0 0 0 0 0 0 0 0 0 0 0 0 0 0 0 0 0 0 0 0 0 0 0 0 0 -0.436926370378313 0 0 0
0 0 0.884387512015709 0 0.290480224731753 0 0 0 0 0 0 0 0 0 0 0 0 0 0 0 0 0 0 0 0 0 0 0 0 0 0 0 0 0 0 0 0 0 0 0 0 0 0 0 0 0 -0.583583281299657 0 0 0
0 0 0 0 0 0 0 0 0 0 0 0 0 0 0 0 0 0 0 0 0 0 0 0 0 0 0 0 0 0 0 0 0 0 0 0 0 0 0 0 0 0.151867089516931 0 0.247156943605436 0.0833136822730225 0.118783239997419 0 0 0 0
0 0 0 0 0 0 0 0 0 0 0 0 0 0 0 0 0 0.267147316045678 0.653335169687999 0.154037734450907 0.124982099702184 0.198198390037535 0.164003227191269 0.133322166711666 0 0 0.138422544901405 0.0243553796699861 0 0.121532370410135 0.130731987428731 0 0 0 0 0 0 0 0 0 0 0 0 0 0 0 0 0 0 0
0 0 0 0 0 0 0 0 0 0 0 0 0 0.771865929017303 1.0393196176883 0 0 0 0 0 0 0 0 0 0 0 0 0 0 0 0 0 0 0 0 0 0 0 0 0 0 0 0 0 0 0 0 0 0 0
0 0 0 0 0 0 0 0 0 0 0 0 0 0 0 0 0 0 0 0 0 0 0 0 0.0241221451986161 0.198267329430542 0.134395519419771 0.0678098328693116 0.682804098303323 0 0 0 0 0 0 0 0 0 0 0 0 0 0 0 0 0 0 0 0 0
