3.0253436707146
1.12883657795026
1.55059446255498
2.76434422275647
3.21282702377304
0.523424498621609
2.06945202644873
1.79230631217528
1.06940771220876
0.402161202009401
1.28479096872116
0.602195762943113
1.82360309043947
1.55025419441709
0.487274113912622
0.901089514611717
0.433880982126075
1.31734971773408
0.923813917422411
2.25939335590622
1.61936041049465
1.02514543313431
0.560155949014042
0.720744374085434
3.3904641677944
1.6276026297405
0.862334052271387
1.76020551187554
1.45920591328593
0.359726234122247
0.111002568189482
0.890056394547897
0.418368666313703
0.697306736244029
1.10997343214435
0.175697823976093
0.52831801721621
2.73378679634203
0.895982302829353
0.249481690932898
1.20670068791117
1.03284398199559
0.0658009818220901
0.644519457381737
0.675098101144958
1.63842467998284
0.715076960798098
0.338725878203067
0.146235554069231
1.16449014396688
