0 0 0 0 0 0 0 0 0 0 0 0 0 0 0 0 -0.179051338109005 0 0 0 0 0 0 0 0 0 0 0 0 0 0 0 0 0 0 0 -1.23425895854684 0 0 0 0 0 0 0 0 0 0 0 0 0
0 0 -0.580968433874127 0 0 0 0 0 0 0 0 0 0 -0.88706633075756 0 0 0 0 0 0 0 0 0 0 0 0 0 0 0 0 0 0 0 0 0 0 0 0 0 0 0 0 0 0 0 0 0 0 0 0
0 0.11455738444686 0 0 0 0 0 0 0 0 0 0 0 0 0 0 0 0 0 0 0 -0.207180355723212 0 0 0 0 0 0 0 0 0 0 0 0 0 0 -0.777120797964066 0 0 0 0 0 0 -0.637596730983355 0 0 0 0 0 0
0 0 0 0 0 0 0 0 0 0 0 0 0 0 0 0 0 0 0 0 0 0 0 0 0 0 0 0 0 0 0 0 0 0 0 -1.22680275494806 0 0 0 0 0 0 0 -0.278803240487357 0 0 0 0 0 0
0 0 0 0 0 0 0 0 0 0 0 0 0 0 0 0 0 0 0 0 0 -2.35174990246426 0 0 -1.14099633009738 -0.34367961550036 0 0 0 0 0 0 0 0 0 -2.62786821734903 0 0 0 0 0 0 0 0 0 0 0 0 0 0
0 0 0 0 0 0 0 0 0 -1.76227096989989 0 0 0 0 0 0 0 0 0 0 0 0 0 0 -0.868504518289622 -0.161142059028174 0 0 0 0 0 0 0 0 0 -0.616889753238104 0 0 0 0 0 0 0 0 0 0 0 0 0 0
0 0 0 0 0 0 0 0 0 -0.615294919422724 0 0 0 0 -0.418272770166446 0 0 -1.38239786662254 0 0 0 0 -0.818772940750764 0 -0.518549083369604 0 0 0 0 0 0 0 0 0 0 0 0 0 0 0 0 0 0 0 0 0 -0.655261765240969 0 0 0
0 0 0 0 0 0 0 0 0 -0.672210038778936 0 0 0 0 -0.407963007226027 0 0 -0.531225685071502 0 0 0 0 0 0 0 0 0 0 0 0 0 0 0 0 0 0 0 0 0 0 0 0 0 0 0 0 -0.606362112602478 0 0 0
0 0 0 0 0 0 0 0 0 -0.124335424616811 0 0 0 0 -0.649659385454145 0 0 -1.27753538757643 0 0 0 0 0 0 -1.37333559300294 0 0 0 0 0 0 0 0 0 0 0 0 0 0 0 0 0 0 0 0 0 -0.856109055315254 0 0 0
0 0 0 0 0 0.381308862722314 0.115460911392806 0.142415054619615 0.0236112057439725 0 0 0 0 0 0 0 0 0 0 0 0 0 0 0 -0.667988319401344 0 -3.84487196018652 0 0 0 0 0 -0.559084427191059 0 0 -7.88466473878987 0 0 0 0 -2.90803255367486 0 0 0 0 0 0 0 0 0
0 0 0 0 0 0 0 0 0 0 0 0 0 0 0 0 0 0 0 0 -0.951176879819145 0 0 -0.234519347834206 0 0 0 0 0 0 0 0 0 0 0 -0.39482640590439 0 0 0 0 0 0 0 0 0 -0.5427789819228 0 0 0 0
0 0 0 0 0 0 0 0 0 0 0 0 0 0 0 0 0 0 0 0 -0.481970175037848 0 0 0 -1.25102232800302 0 0 0 0 0 0 0 0 0 0 0 0 0 0 0 0 0 0 0 0 0 0 0 0 0
0 0 0 0 0 0 0 0 0 0 0 0 0 0 0 -1.26215929519375 0 0 0 0 -1.00470004601151 0 0 0 0 0 0 0 0 0 0 0 -0.599023441037592 0 0 -0.381937506242052 0 0 0 0 -1.68440115124623 0 0 0 0 -1.69973519380925 -0.463867050390617 0 0 0
0 0.181642449679841 0 0 0 0 0 0 0 0 0 0 0 0 0 0 0 0 0 0 -1.77905112977549 0 0 0 -0.450452333859377 0 0 0 0 0 0 0 -3.34956944724926 0 0 0 0 0 0 0 0 0 0 0 0 -6.49933531011229 0 0 0 0
0 0 0 0 0 0 0.0786371260896322 0.0859862408054797 0.134607609243634 0 0 0 0 0 0 0 0 0 0 0 0 0 0 0 0 0 0 0 0 0 0 0 0 0 0 0 0 0 0 0 0 0 0 0 0 -0.508994149557316 -0.304230960077382 0 0 0
0 0 0 0 0 0 0 0 0 0 0 0 0.245650833406925 0 0 0 0 0 -0.388666835534314 0 -2.93365731979689 0 0 0 0 0 0 0 0 0 0 0 0 -0.0643439515612342 0 0 0 0 0 0 -1.43052446303645 0 0 0 0 0 0 0 0 0
0.0351024822016452 0 0 0 0 0 0 0 0 0 0 0 0 0 0 0 0 0 0 0 0 0 0 0 0 0 0 0 0 0 0 0 0 -0.679277009976289 0 0 0 0 0 0 -0.470679637283885 0 0 0 0 -3.38155752649224 0 0 0 0
0 0 0 0 0 0 0.250809815029703 0.104106585569678 0.234557110831648 0 0 0 0 0 0 0 0 0 -4.65475757621369 -0.635885813926979 0 0 0 0 0 0 0 -0.594318604968461 0 0 0 0 0 0 0 0 0 0 0 0 -0.874165144379043 0 0 0 0 0 -2.03666239696505 0 0 0
0 0 0 0 0 0 0 0 0 0 0 0 0 0 0 0.0788814827372184 0 0.932428838718197 0 0.0434496380946537 0.0948713380182803 0 0 0.093906471606327 0 0 0 -0.224913781789376 0 0 -2.09554520342428 0 0 0 0 0 0 0 0 0 -0.688850174779047 0 0 0 0 -2.62657159523268 -0.520021805122861 0 0 0
0 0 0 0 0 0 0 0 0 0 0 0 0 0 0 0 0 0.140183739840135 -0.249774958646568 0 0 0 0 0 0 0 0 0 0 0 0 0 0 0 0 0 0 0 -1.38697284216544 0 0 0 0 0 0 0 -0.16428770567449 0 0 0
0 0 0 0 0 0 0 0 0 0 0.195537057782978 0.096266036515897 0.213966082728611 0.330024790825052 0 0.554233751314453 0 0 -0.479535885211118 0 0 0 0 0 0 0 0 -1.3461726112458 0 0 0 0 0 0 0 0 0 0 0 0 0 0 0 0 0 -0.169155044891025 0 0 0 0
0 0 0.0462281841895348 0 0.452107249183503 0 0 0 0 0 0 0 0 0 0 0 0 0 0 0 0 0 0 0 0 0 0 -0.13986093425619 0 0 0 0 0 0 0 0 0 0 -0.511240839890722 0 0 0 0 0 0 0 -1.75837369692687 0 0 0
0 0 0 0 0 0 0.164601834990883 0 0 0 0 0 0 0 0 0 0 0 0 0 0 0 0 0 0 0 0 0 0 0 0 0 0 0 0 0 0 0 -4.85922629453099 0 0 -0.20455474061822 0 0 0 0 -3.15164661041099 0 0 0
0 0 0 0 0 0 0 0 0 0 0.0470029037732091 0 0 0 0 0 0 0 -0.483105560678248 0 0 0 0 0 0 0 0 0 0 0 0 0 0 0 0 0 0 -0.279327365189336 0 0 0 -0.397273877347626 0 0 0 0 0 0 0 0
0 0 0 0 0.220668696554826 0.168147885466916 0.101932547344363 0 0.274453460422413 0.139873601153196 0 0.264195241856174 0 0.0970821316818573 0 0 0 0 0 0 0 0 0 0 0 0 0 0 0 -1.10240916882346 0 0 0 0 0 0 0 0 -1.41679555526212 0 0 0 0 0 0 0 -2.85783111735014 0 0 0
0 0 0 0 0.0758421568797346 0.0309744135332286 0 0 0 0 0 0 0 0 0 0 0 0 0 0 0 0 0 0 0 0 0 0 0 -0.0775666094049385 0 0 0 0 0 0 0 0 0 0 0 0 0 0 0 -0.986078894959641 0 0 0 0
0 0 0 0 0 0 0 0 0 0.724482852252903 0 0 0 0 0 0 0 0 0 0 0 0 0 0 0 0 0 0 0 0 0 0 0 0 0 0 0 0 0 0 0 -2.73195732203406 0 0 0 0 0 0 0 0
0 0 0 0 0 0 0 0 0 0 0 0 0 0 0 0 0 0.114277797313119 0.046410696062161 0 0.273979530540855 0.0305099769782671 0 0 0 0 0 0 0 0 0 0 0 0 -1.22289190783442 0 0 0 0 0 0 0 0 0 0 -1.33333824547763 0 0 0 0
0 0 0 0 0 0 0 0 0 0 0 0 0 0 0 0 0 0 0 0 0 0 0 0 0 0 0 0 0 0 0 0 0 0 -2.77300208319687 0 0 0 0 -2.82601973195136 0 0 0 0 0 -0.158875971079214 0 0 0 0
0 0 0 0 0 0 0 0 0 0 0 0 0 0 0 0 0 0 0 0 0 0 0 0 0.21908121684722 0.0155174779272777 0 0 0 0 0 0 0 0 -3.28401745681106 0 0 0 0 0 0 0 0 0 -0.499721337939431 -7.54200520332112 0 -0.949777200146673 0 0
0 0 0 0 0 0 0 0 0 0 0 0 0 0 0 0 0 0 0.40468404931307 0 0 0 0 0 0 0 0 0 0 0 0 0 0 0 0 0 0 0 0 0 0 0 0 0 0 -0.739436313929506 0 0 0 0
0 0 0 0 0 0 0 0 0 0 0 0 0 0 0 0 0 0 0 0 0 0 0 0 0 0 0 0 0 0 0 0 0 0 0 0 0 0 0 0 0 0 0 0 -0.616261114708049 0 0 -0.428435071040498 0 0
0 0 0 0 0 0 0 0 0 0.106669897530462 0 0 0.113806392678425 0.658557559372093 0 0 0 0 0 0 0 0 0 0 0 0 0 0 0 0 0 0 0 0 -0.921840214756157 0 0 0 0 0 0 0 0 0 0 0 0 0 0 0
0 0 0 0 0 0 0 0 0 0 0 0 0 0 0 0.0123909799265619 0.132621210517161 0 0 0 0 0 0 0 0 0 0 0 0 0 0 0 0 0 -0.409465586396041 0 0 0 0 0 0 0 0 0 -0.888336491170084 0 0 -1.83580363867043 0 0
0 0 0 0 0 0 0 0 0 0 0 0 0 0 0 0 0 0 0 0 0 0 0 0 0 0 0 0.233579984953122 0.55734670167642 0.702579713789864 0 0 0.180277696381625 0.0769691632712062 0 0 0 0 0 0 0 0 0 0 0 0 0 0 0 0
0 0 0 0.226902801234373 0.487833717599317 0.122491410416025 0 0 0 1.52310444406656 0.0791481459601218 0 0.0793475143698234 0 0 0 0 0 0 0 0 0 0 0 0 0 0 0 0 0 0 0 0 0 0 0 0 0 0 0 0 0 0 0 0 0 0 -1.44196768050168 0 0
0.235679678558844 0 0.144435271045881 0 0 0 0 0 0 0 0 0 0 0 0 0 0 0 0 0 0 0 0 0 0 0 0 0 0 0 0 0 0 0 0 0 0 0 0 0 0 0 0 0 -0.688240400379912 0 0 0 0 0
0 0 0 0 0 0 0 0 0 0 0 0 0 0 0 0 0 0 0 0 0 0 0 0.0504177256236587 0 0 0 0 0 0 0 0 0 0 0 0 0 0 0 0 0 0 0 0 0 0 0 -1.21016217312343 0 0
0 0 0 0 0 0 0 0 0 0 0 0 0 0 0 0 0 0 0 0.286312433773167 0 0.109400463331977 1.02866705413547 0 0.282870140943917 0 0 0 0 0 0 0 0 0 0 0 0 0 0 0 0 0 -0.523752452018691 0 0 0 0 -0.417587200532879 0 0
0 0 0 0 0 0 0 0 0 0 0 0 0 0 0 0 0 0 0 0 0 0 0 0 0 0 0 0 0.593801735873753 0 0 0 0 0 0 0 0 0 0 0 0 0 -0.120489620573154 0 0 0 0 -0.685797026426459 0 0
0 0 0 0 0 0 0 0 0 0.600578786523391 0 0 0.345722784482108 0 0 0.285210097790125 0.0943699728229086 0.160790903898665 0.133948979958368 0 0 0 0 0 0 0 0 0 0 0 0 0 0 0 0 0 0 0 0 0 0 0 0 0 -0.638093966187588 0 0 0 -3.769278288742 0
0 0 0 0 0 0 0 0 0 0 0 0 0 0 0 0 0 0 0 0 0 0 0.039698546434737 0.0852040490457301 0 0 0.55905750572995 0 0 0 0 0 0 0 0 0 0 0 0 0 0 0 0 0 0 0 0 -0.358337653179501 -0.420579586099768 0
0 0 0 0 0 0 0 0 0 0 0 0 0 0 0 0 0 0 0 0 0 0 0 0 0 0 0 0 0 0 0 0 0 0 0 0 0 0 0.098640269850561 0.0240545095832292 0 0 0 0 0 0 0 0 0 0
0 0 0.123052116104929 0.0581057689627114 0 0 0 0 0 0 0 0 0 0 0 0 0 0 0 0 0 0 0 0 0 0 0 0 0 0 0 0 0 0 0 0 0 0 0 0 0 0 0 0 0 0 0 -0.12042021223488 -0.183985825023059 0
0 0 0 0 0 0 0 0 0 0 0 0 0 0 0 0 0 0 0 0 0 0 0 0 0 0 0 0 0 0.0980713815263484 0 0.126064332282787 0 0.165210304490441 0 0 0.142046763099062 0 0 0 0.123073850480894 0 0 0 0 0 0 0 -0.663652512128196 0
0 0 0 0 0 0 0 0 0 0 0.105735739948114 0 0.321230128226174 1.29130168552414 0.102692189864703 0 0.62687355378139 0 0.528551297014948 0 0.0361289855693348 0 0 0 0 0.193306312800488 0 0.278899393025413 0.0334689790075548 1.49823986511821 0.152549446592365 0 0 0 0 0 0 0 0 0 0 0 0 0 0 0 0 0 0 0
0 0 0 0 0 0 0.131256431247047 0.129501495368529 0.171239303245173 0 0 0 0.0944788240116064 0 0.0631464962247042 0 0 0.404529679242105 0.0950302032632458 0.0366021513958717 0 0.353639534904216 0.674022685440276 0 0.600107879903318 0 0 0 0 0 0 0 0 0 0 0 0 0 0 0 0 0 0 0 0 0 0 0 0 -0.528459677089392
0 0 0 0 0 0 0 0 0 0 0 0 0 0 0 0 0 0 0 0 0 0 0 0 0 0 0 0 0 0.184917113407075 0 0.0848792369509869 0 0.388368118650272 0 0.262985368814813 0 0.249294498631774 0.0882363929347324 0.149482527310692 0 0.0767384444597597 0 0.0238218946983134 0 0 0 0 0 0
0 0 0 0 0 0 0 0 0 0 0 0 0 0 0 0 0 0 0 0 0 0 0 0 0 0 0 0 0 0 0 0 0 0 0 0 0 0 0 0 0.770851117880988 0.0867278303141534 0 0.0382705162395241 0.140643164029144 0 0 0 0 0
0 0 0 0 0 0 0 0 0 0 0 0 0 0 0 0 0 0 0 0 0 0 0 0 0 0 0 0 0 0 0 0 0 0 0 0 0 0 0 0 0 0 0 0 0 0 0.112263608995645 0 0 0
