0.760956923475022
0.789548689177112
2.14622126701505
0.479384155692105
0.151867257183709
0.287051577616609
1.71310024451513
1.22955227022347
0.444828195763413
0.349255481519919
1.34563007761279
8.15261044206112
3.43323545404033
0.624286346120099
0.0901878083236274
0.226919496704022
0.196578649856099
0.313935822519947
4.5808179750486
0.370431911952102
0.48690564339879
2.11550032551394
0.495071227402128
3.24462403346717
2.00770394911566
5.27497537324606
0.528234172907724
0.816081025885208
1.7186738800424
2.72612284056084
2.74378624044694
0.583403821080226
0.451719788176693
1.92560800664968
4.181692771961
3.29449579973165
0.35076428267397
0.686581824097087
0.646704036186687
0.761081017554238
3.21333798500114
2.19255986632636
0.325957299101144
0.34604562529171
0.678090014237348
1.90524455490612
0.77906506990218
0.97916093651891
2.7524043415925
0.254648911132146
