0.72979181601089
2.25219197214979
0.857617498951484
0.181382383974191
0.979683533149217
0.615807666581417
1.49615621210448
0.597193523834392
1.12972926578784
2.49938591981079
0.756815637488184
0.499454535571981
0.350527930659737
0.228910990787593
0.399854388386711
5.67526977452522
0.613599713098623
0.988780082956293
1.33373868229809
0.471310716952
2.6888591748457
7.36937954157454
0.313679099129333
3.09620025513996
2.10494817559704
0.075246472200217
0.558382591125115
0.375937815373223
0.223381862853807
5.9219827656035
2.41343180352266
0.908036131935245
2.50724034280083
1.29681614465218
0.0732434671793152
1.93114124667369
3.47077546814349
2.54392420589799
1.55881469995723
0.263411439891994
1.33324082053564
0.367549384023667
0.475264360539576
5.87431789988145
1.66414364031571
0.841553588977823
1.14895278987795
0.359003891303875
0.669297128467972
1.628555752383
