0 -1.86946256101196 0 0 0 0 0 0 0 0 0 0 0 0 -0.854912608327006 0 0 0 0 0 0 0 0 0 0 0 0 0 0 0 0 0 0 0 0 0 0 0 0 0 0 0 0 0 0 0 0 0 0 0
0.3678012998515 0 0 0 0 0 0 0 0 0 0 -0.705602978438087 0 0 -3.58227797751322 0 0 0 0 -0.0559012395759864 0 0 0 0 0 0 0 0 0 0 0 0 0 -1.20458278031778 0 0 0 0 0 0 0 0 0 0 0 0 0 0 0 0
0 0 0 0 0 0 0 0 0 0 0 0 0 0 -0.614675620284114 0 -2.072345929429 0 0 0 0 -8.37494205007205 0 0 -0.519634936062022 0 0 0 0 0 0 0 0 0 0 0 0 0 0 0 0 0 0 0 0 0 0 0 0 0
0 0 0 0 0 0 0 0 0 -0.335569109039337 0 0 0 0 0 0 -0.488544842469068 0 0 0 0 0 0 0 0 0 0 0 0 0 0 0 -1.0880094485809 0 0 0 0 0 0 0 0 0 0 0 0 0 0 0 0 0
0 0 0 0 0 0.449342056937296 -2.40800355623421 0 0 0 0 0 0 0 -2.47659125301352 0 0 0 0 0 0 0 0 0 -7.55939396863571 0 0 0 0 0 0 0 -0.64069293177587 -1.09261577625926 0 0 0 0 0 0 0 0 0 0 0 0 0 0 0 0
0 0 0 0 -2.33173527641265 0 0 0 -1.08765745758044 0 0 0 0 0 -1.97417008762563 0 0 0 0 -0.476265530854119 0 -1.29020942588396 0 0 0 0 -0.305351966923381 0 0 0 0 0 0 0 0 0 0 0 0 0 0 0 0 0 0 0 0 0 0 0
0 0 0 0 0.471588957460292 0 0 0 -1.72370969760169 0 0 0 0 0 -1.18306956999644 0 0 0 0 0 0 0 0 0 -0.738432135545925 0 0 0 0 0 0 0 -1.64941696938586 -0.899084411328489 0 0 0 0 0 0 0 0 0 0 0 0 0 0 0 0
0 0 0 0 0 0 0 0 0 0 0 0 0 0 0 -0.136154849019654 0 0 0 0 0 0 0 0 0 0 0 0 0 0 0 0 -3.54111785506679 0 0 0 0 0 0 0 0 0 0 0 0 0 0 0 0 0
0 0 0 0 0 0.237714019066644 0.322670666848304 0 0 0 -0.785483457574545 0 0 0 0 0 0 0 0 0 0 0 0 0 -0.493342792353327 0 0 0 -2.0817629418932 0 0 0 -0.718197729386643 -1.20321048120715 0 0 0 0 0 0 0 0 0 0 0 0 0 0 0 0
0 0 0 0.071852840908632 0 0 0 0 0 0 0 0 0 0 0 0 0 0 0 0 0 0 0 0 -3.38786955617098 0 0 0 0 0 0 0 -0.356795806222597 0 0 0 0 0 0 0 0 0 -0.46810133666005 0 0 0 0 0 0 0
0 0 0 0 0 0 0 0 0.16963472263043 0 0 0 0 0 0 0 0 0 0 0 0 0 0 0 -2.10386258472638 0 -3.74296974706454 0 -0.669880370393104 0 0 0 -0.457844593422378 0 0 0 0 0 0 0 0 0 0 0 0 0 0 0 0 0
0 0.140906502879839 0 0 0 0 0 0 0 0 0 0 0 0 0 0 0 0 0 0 0 0 0 0 -1.87891499631225 0 0 0 -0.730262757395889 0 0 0 0 0 0 0 -1.57934189920453 0 0 0 0 -2.14139144617127 0 0 0 0 0 0 0 0
0 0 0 0 0 0 0 0 0 0 0 0 0 0 0 0 0 0 0 0 -1.12345771544217 0 0 0 0 0 0 0 -2.12658271841715 0 -1.03651321414244 0 -1.38056424620747 0 0 0 -1.7989364747296 0 0 0 0 -0.929334362333043 0 0 0 0 -2.95067619175978 0 0 0
0 0 0 0 0 0 0 0 0 0 0 0 0 0 0 0 0 0 0 0 0 0 0 0 -0.466608057257933 0 0 0 -1.24280545384647 0 0 0 -2.56231117052656 0 0 0 0 0 0 0 0 -0.330658543111324 0 0 0 0 -1.20511599495037 0 0 0
0.170421731911578 0.717979593993678 0.121321115547285 0 0.452396427680517 0.367562667238085 0.258783142789513 0 0 0 0 0 0 0 0 0 0 0 0 0 0 0 0 0 -1.48791324526551 0 0 0 -2.29368959928169 0 0 0 0 0 0 0 -1.54390328175397 0 0 0 0 -0.909334305123551 0 0 0 0 -1.2595990219347 0 0 0
0 0 0 0 0 0 0 0.0288744031692369 0 0 0 0 0 0 0 0 0 0 0 0 -2.6206620782204 0 0 0 0 0 0 0 -4.07971489142747 0 0 0 -0.812391655053745 0 0 0 -0.32886404636381 0 0 0 0 -0.464730391081347 0 0 0 0 -3.96354106725071 0 0 0
0 0 0.412670551895025 0.103834226288598 0 0 0 0 0 0 0 0 0 0 0 0 0 0 0 0 0 0 -1.64088094258044 -0.394787044560549 0 0 0 0 0 0 0 -0.25540446907738 0 0 -0.163726000169726 0 0 0 0 -0.828931717036907 0 0 0 0 0 0 -0.239886197780962 0 0 0
0 0 0 0 0 0 0 0 0 0 0 0 0 0 0 0 0 0 0 0 0 0 -1.6662067038233 -2.07803087809797 0 0 0 0 0 0 0 -0.595427547119803 0 0 0 0 0 0 0 -1.38044935434536 0 0 0 0 0 0 0 0 0 0
0 0 0 0 0 0 0 0 0 0 0 0 0 0 0 0 0 0 0 0 0 0 0 -4.51041078341347 0 0 0 0 0 0 0 -1.95284645405751 0 0 0 0 0 0 0 0 0 0 0 0 0 0 -1.58634870988827 0 -2.77239622276754 0
0 0.0103759170805079 0 0 0 0.0973830838685631 0 0 0 0 0 0 0 0 0 0 0 0 0 0 0 0 0 -0.199438965332147 0 0 0 0 0 0 0 0 0 0 0 0 0 0 0 0 0 0 0 0 0 -1.09091062093487 0 0 0 0
0 0 0 0 0 0 0 0 0 0 0 0 0.238613737555179 0 0 0.529900422337999 0 0 0 0 0 0 0 -0.28771036985716 0 0 0 -1.11050174596038 0 0 0 -1.35390262983098 0 0 0 0 0 0 0 0 0 0 0 0 0 0 0 0 0 0
0 0 1.70335189455602 0 0 0.260906095326573 0 0 0 0 0 0 0 0 0 0 0 0 0 0 0 0 0 0 0 0 0 0 0 0 0 0 0 0 0 0 0 0 0 0 0 0 0 0 0 -0.189989071861986 -3.62667118056607 0 0 0
0 0 0 0 0 0 0 0 0 0 0 0 0 0 0 0 0.319986515687784 0.305737790824442 0 0 0 0 0 0 0 0 0 -0.213863611037563 0 0 0 -0.740186418772458 0 0 0 0 0 0 0 0 0 0 0 0 0 -1.44496776330967 -6.37989181007216 0 0 0
0 0 0 0 0 0 0 0 0 0 0 0 0 0 0 0 0.0734591251603493 0.414283228320093 0.884056233506 0.0393333002806326 0.0561915091599398 0 0 0 0 0 0 0 0 0 0 0 0 0 0 0 0 0 0 0 0 0 0 0 0 0 -0.207363629393105 0 0 0
0 0 0.0990561897899065 0 1.55102797215289 0 0.149057141996715 0 0.0904088161765258 0.653246528557277 0.414772614048934 0.371049385869482 0 0.0944628861970973 0.289858350232302 0 0 0 0 0 0 0 0 0 0 0 0 0 0 0 0 -1.99477121339297 0 0 0 0 0 0 0 0 0 0 0 0 0 0 -0.511589502029975 0 0 0
0 0 0 0 0 0 0 0 0 0 0 0 0 0 0 0 0 0 0 0 0 0 0 0 0 0 0 0 0 0 0 -0.982771394287371 0 0 0 0 0 0 0 0 0 0 0 0 0 0 0 0 0 0
0 0 0 0 0 0.0613497968504735 0 0 0 0 0.732200092753552 0 0 0 0 0 0 0 0 0 0 0 0 0 0 0 0 0 0 0 0 -2.64078864739164 0 0 0 0 0 0 0 0 0 0 0 0 0 0 -0.841895181810194 0 0 0
0 0 0 0 0 0 0 0 0 0 0 0 0 0 0 0 0 0 0 0 0.215198172062845 0 0.0439626538700884 0 0 0 0 0 0 0 0 -0.721192629060963 0 0 0 0 0 0 0 0 0 0 0 0 0 0 -0.107088430928555 0 0 0
0 0 0 0 0 0 0 0 0.377611643024733 0 0.130824055035898 0.145027169663171 0.421239457452643 0.274333191333913 0.489888103847949 0.895393595073075 0 0 0 0 0 0 0 0 0 0 0 0 0 0 0 0 0 0 0 0 0 0 0 0 0 0 0 0 0 0 0 0 0 0
0 0 0 0 0 0 0 0 0 0 0 0 0 0 0 0 0 0 0 0 0 0 0 0 0 0 0 0 0 0 0 -2.98556413456737 0 0 0 0 0 0 0 0 0 0 0 0 0 0 -6.61204537714519 0 0 0
0 0 0 0 0 0 0 0 0 0 0 0 0.203335122323076 0 0 0 0 0 0 0 0 0 0 0 0 0 0 0 0 0 0 -0.24851921057482 0 0 0 0 0 0 0 0 0 0 0 0 0 0 -1.48103268270798 -1.6423724469535 0 0
0 0 0 0 0 0 0 0 0 0 0 0 0 0 0 0 0.0552980098265607 0.115417218810307 0.386773417080357 0 0.258797551144529 0 0.142900708777569 0 0.450518325279692 0.207348566263031 0.548494108431853 0.148400971618299 0 0.54151406859726 0.0497080102006574 0 0.872241069126664 0.128017834143317 0 0 0 0 0 0 0 0 0 0 0 0 0 -0.587560607313207 0 0
0 0 0 0.232848011765868 0.129262286665656 0 0.338390085898877 0.655182471387739 0.153386784616449 0.0718700869180167 0.101319681827306 0 0.293055426637292 0.519570511036945 0 0.154884268737602 0 0 0 0 0 0 0 0 0 0 0 0 0 0 0 -4.78687979993563 0 0 0 -2.21825423270488 0 0 0 0 0 0 0 0 0 0 0 -2.89983672134832 0 -2.71734799847804
0 0.237542374623288 0 0 0.221456948473389 0 0.171056295445824 0 0.248980030309785 0 0 0 0 0 0 0 0 0 0 0 0 0 0 0 0 0 0 0 0 0 0 -0.635977285002967 0 0 0 0 0 -0.954033838553995 0 0 0 0 0 0 0 0 0 0 0 0
0 0 0 0 0 0 0 0 0 0 0 0 0 0 0 0 0.0334303226458661 0 0 0 0 0 0 0 0 0 0 0 0 0 0 0 0 0 0 0 0 -0.390669812044673 0 0 -1.20985966844648 0 0 0 -2.47679194206858 0 0 0 0 0
0 0 0 0 0 0 0 0 0 0 0 0 0 0 0 0 0 0 0 0 0 0 0 0 0 0 0 0 0 0 0 0 0.46818438900498 0 0 0 0 -0.514517256147857 0 0 -3.25913446373735 0 0 0 -0.219842776559084 0 0 0 0 0
0 0 0 0 0 0 0 0 0 0 0 0.303768294492709 0.379840718606648 0 0.317057361728335 0.0588708533243076 0 0 0 0 0 0 0 0 0 0 0 0 0 0 0 0 0 0 0 0 0 -1.68884906162363 0 0 0 0 0 0 -4.80013293333745 0 0 0 0 0
0 0 0 0 0 0 0 0 0 0 0 0 0 0 0 0 0 0 0 0 0 0 0 0 0 0 0 0 0 0 0 0 0 0.181654715272117 0.0832559479440349 0.103014548337838 0.325350150704333 0 0.146943145166942 0.286061918900097 0.208002473881871 0.0743194577455226 0.414345787475476 -0.257437309354077 -9.34141845425802 0 0 0 0 0
0 0 0 0 0 0 0 0 0 0 0 0 0 0 0 0 0 0 0 0 0 0 0 0 0 0 0 0 0 0 0 0 0 0 0 0 0 -0.790604720558984 0 0 0 0 0 0 -0.674768616035909 0 0 0 0 0
0 0 0 0 0 0 0 0 0 0 0 0 0 0 0 0 0.169157281315649 0.277895969321099 0 0 0 0 0 0 0 0 0 0 0 0 0 0 0 0 0 0 0 -1.46935807240122 0 0 0 0 0 -0.389607052155428 -2.70119658408101 0 0 0 0 0
0 0 0 0 0 0 0 0 0 0 0 0 0 0 0 0 0 0 0 0 0 0 0 0 0 0 0 0 0 0 0 0 0 0 0.243587911676472 0.682832502269975 0 -1.09023586060947 0 0 0 0 0 0 -4.32775922538219 0 0 0 0 0
0 0 0 0 0 0 0 0 0 0 0 0.427711667451451 0.175347878426256 0.0614062082888586 0.162147720528387 0.0936704639811332 0 0 0 0 0 0 0 0 0 0 0 0 0 0 0 0 0 0 0 0 0 -0.350601427790555 0 0 0 0 0 -0.635080525146687 -4.29098724766969 0 0 0 0 0
0 0 0 0 0 0 0 0 0 0.0901798787312159 0 0 0 0 0 0 0 0 0 0 0 0 0 0 0 0 0 0 0 0 0 0 0 0 0 0 0 -1.91712663647603 0 0 0 0 0 -1.29927787435217 -0.824169388254989 0 0 0 0 0
0 0 0 0 0 0 0 0 0 0 0 0 0 0 0 0 0 0 0 0 0 0 0 0 0 0 0 0 0 0 0 0 0 0 0 0 0 0.0509874951850218 0 0.0758655560915562 0 0.128135429629712 0.242838200604965 0 0 0 0 0 0 0
0 0 0 0 0 0 0 0 0 0 0 0 0 0 0 0 0 0 0 0 0 0 0 0 0 0 0 0 0 0 0 0 0 0 0.511253823125395 0.0461554784154914 0.918873127355026 1.88847163637362 0.132807509171376 0.510200626917291 0.838660077993091 0.883805456529205 0.155768743410559 0 0 0 0 0 0 0
0 0 0 0 0 0 0 0 0 0 0 0 0 0 0 0 0 0 0 0.223739015714331 0 0.0375618945851332 0.281212581299245 0 0 0 0 0 0 0 0 0 0 0 0 0 0 0 0 0 0 0 0 0 0 0 0 0 0 0
0 0 0 0 0 0 0 0 0 0 0 0 0.609442080958401 0.229811614930915 0.259243674186544 0.794905391637906 0.0448601790431483 0 0.319407198536597 0 0 0.657442919318974 1.30404522694001 0.042554837498794 0.0974217459715849 0 0.17124103631961 0.0206485510335224 0 1.35625488715989 0.29372474766412 0 0 0 0 0 0 0 0 0 0 0 0 0 0 0 0 0 0 0
0 0 0 0 0 0 0 0 0 0 0 0 0 0 0 0 0 0 0 0 0 0 0 0 0 0 0 0 0 0 0.351216022206182 0.117492507773107 0.552351639074526 0 0 0 0 0 0 0 0 0 0 0 0 0 0 0 0 0
0 0 0 0 0 0 0 0 0 0 0 0 0 0 0 0 0 0 0.620371503945934 0 0 0 0 0 0 0 0 0 0 0 0 0 0 0 0 0 0 0 0 0 0 0 0 0 0 0 0 0 0 0
0 0 0 0 0 0 0 0 0 0 0 0 0 0 0 0 0 0 0 0 0 0 0 0 0 0 0 0 0 0 0 0 0.5282232459626 0 0 0 0 0 0 0 0 0 0 0 0 0 0 0 0 0
