0.831511663756843
3.48781255731174
0.94281271236738
0.0430430494132728
2.56211877894805
0.588395849478024
0.980253591789834
2.22082828866975
1.15994737889621
0.165569183276995
0.309859585525517
0.398957464323253
0.219686068733527
0.00296786849243506
0.0475338935004785
0.982512967513838
0.252883969966557
1.58630614191099
0.582619856561745
0.0237092760387515
0.533168553321917
1.63272464631586
9.06440396444597
0.586701822406873
0.69252292770766
1.01604041875341
2.5757030185628
0.325217349283345
0.361434871910386
0.0352212962522825
0.431494382704371
0.00445081580465959
0.648206401421123
0.875695579493922
1.11768908528802
0.0905652523850448
0.829029875032846
1.33637832255118
1.55601221727113
0.0536853187368192
0.275375432389778
0.358004120435688
0.186813872464881
0.715558908744313
0.459789839303923
2.61627787485553
0.698270300638659
0.509967700898808
0.401286705615751
0.0558988317591344
