0 0 0 0 0 0 0 0 0 0 0 0 0 0 0 0 0 0 0 0 0 0 0 0 0 0 0 0 0 0 0 0 -0.212882333851903 0 0 0 0 0 0 0 0 0 0 0 0 0 0 0 0 0
0 0 0 0 0 0 0 0 0 0 0 0 0 0 0 0 0 0 0 0 0 0 0 -2.30009757715046 0 0 0 0 -0.621359532006715 0 0 0 0 0 0 0 0 0 0 0 0 0 0 0 0 0 0 0 0 0
0 0 0 -1.50731838930851 0 0 0 0 0 0 0 0 0 0 0 0 0 0 0 0 0 0 0 -0.487211967921778 0 0 0 0 0 0 0 0 0 0 0 0 0 0 0 0 0 0 0 0 0 -1.94912502554979 0 0 0 0
0 0 0.303930456003141 0 0 0 0 0 0 0 0 0 0 0 0 0 0 0 0 0 0 0 0 -1.02146139817869 0 0 0 0 -1.04394195791489 0 0 0 0 0 0 0 0 0 0 0 0 0 0 0 0 -1.29912770244259 0 0 0 0
0 0 0 0 0 0 0 0 0 0 0 0 0 0 0 0 0 0 0 0 0 0 0 0 0 0 0 0 0 0 0 0 0 0 0 0 0 0 0 0 0 0 0 0 0 -0.590761630755735 0 0 0 0
0 0 0 0 0 0 0 0 0 0 0 0 0 0 0 0 0 0 0 0 0 0 0 -0.635962229119514 0 0 0 0 0 0 0 0 0 0 0 0 0 0 0 0 0 0 0 0 0 -2.56490447756648 0 0 0 0
0 0 0 0 0 0 0 0 0 0 0 0 0 0 0 0 0 0 0 0 0 0 0 -1.98217862847265 0 0 0 0 -0.47210393232619 0 0 0 0 0 0 0 0 0 0 0 0 0 0 0 0 -1.86837644867902 0 0 0 0
0 0 0 0 0 0 0 0 0 0 0 0 -0.459630946696339 0 -1.51517321666028 0 0 -0.314913100305244 0 0 0 0 0 -1.89549290673132 -0.582819064721886 0 0 0 0 0 0 0 0 0 0 -0.659544809809945 0 0 0 0 0 0 0 0 0 0 0 0 0 0
0 0 0 0 0 0 0 0 0 0.418863185425097 0 -0.186874676613035 0 0 -0.286826291988295 0 -0.15780596255436 -0.18466850830234 0 0 0 -0.513847614217013 -1.81744328197259 -0.234035318046009 0 0 0 0 0 0 0 0 0 0 0 0 0 0 0 0 0 0 0 0 0 0 0 0 0 0
0 0 0 0 0 0 0 0 -2.0769111574322 0 0 -2.55720261498335 0 0 -0.856398122438806 -1.52066724940442 0 -0.620631028352398 0 0 0 0 -0.506016202704237 -2.17400823058059 0 0 0 0 0 0 0 0 0 0 0 -1.30847465946598 0 0 0 0 0 0 0 0 0 0 0 0 0 0
0 0 0 0 0 0 0 0 0 0 0 0 0 0 -1.48627826770318 -0.377296055624937 -2.11597229272373 -0.518535820179447 0 -0.304157648062727 0 0 0 -0.502900875226602 0 0 0 0 0 0 0 0 0 0 0 0 0 0 0 0 0 0 0 0 0 0 0 0 0 0
0 0 0 0 0 0 0 0 0.0377606672745064 0.505237331617485 0 0 0 0 0 0 0 0 0 -0.507097845028561 0 0 0 0 0 -0.890411750981941 0 0 0 0 0 0 0 0 0 -2.02398097671399 0 0 0 0 0 0 0 0 0 0 0 0 0 0
0 0 0 0 0 0 0 0.0909401951760713 0 0 0 0 0 -1.00556993098852 -0.34372136916867 0 0 0 0 0 0 0 0 0 0 -2.15124027349641 0 0 0 0 0 0 0 0 0 -0.747727939634827 0 0 -3.67686284916722 0 0 0 0 0 0 0 0 0 0 0
0 0 0 0 0 0 0 0 0 0 0 0 0.218330479146483 0 0 0 0 0 0 0 0 0 0 0 0 0 0 0 0 0 0 -0.531384025100666 0 0 -1.9919873693271 -0.369579557904003 0 0 -0.41179650425839 0 0 0 0 0 -0.546211317165591 0 0 0 0 0
0 0 0 0 0 0 0 0.30263777479904 0.0549800503218593 0.168887352878793 0.30381971494156 0 0.071507144666511 0 0 0 0 0 0 0 0 0 0 0 0 0 0 0 0 0 0 0 0 0 0 0 0 0 -0.989033997820337 0 0 0 0 0 0 0 0 0 0 0
0 0 0 0 0 0 0 0 0 0.293929414215754 0.0751297975470491 0 0 0 0 0 0 0 0 0 0 0 0 0 0 0 0 0 0 0 0 0 0 0 0 -0.137707426673587 0 0 -1.03828251739005 0 0 0 0 0 -0.885103066674518 0 0 0 0 0
0 0 0 0 0 0 0 0 0.0335141107935578 0 0.395287609685391 0 0 0 0 0 0 0 0 0 0 0 0 0 0 0 0 0 0 0 0 0 0 0 0 -0.772252757551159 0 0 -2.70849248802519 0 0 0 0 0 0 0 0 0 0 0
0 0 0 0 0 0 0 0.0594630380241732 0.0392107325323909 0.13521538797413 0.110100938621808 0 0 0 0 0 0 0 0 0 0 0 0 0 0 0 0 0 0 -1.23161249732366 0 0 0 -1.3291276593925 0 0 0 0 -0.842308118873991 0 0 0 -2.86670638265928 0 -0.854526202471016 0 0 0 0 0
0 0 0 0 0 0 0 0 0 0 0 0 0 0 0 0 0 0 0 0 0 0 0 0 0 0 0 0 0 -1.55274176752406 0 0 0 -7.80221669605544 0 0 0 0 -0.695159981079895 0 0 0 0 0 0 0 0 0 0 0
0 0 0 0 0 0 0 0 0 0 0.0596709622470691 0.100288544806266 0 0 0 0 0 0 0 0 0 0 0 0 0 0 0 0 0 0 0 0 0 0 0 0 0 0 -1.14825136098489 0 0 0 -0.23064720577957 0 0 0 0 0 0 0
0 0 0 0 0 0 0 0 0 0 0 0 0 0 0 0 0 0 0 0 0 0 0 0 0 0 0 0 0 0 0 0 0 0 0 0 0 0 0 0 0 0 -1.60643371406933 0 -12.1677173795194 0 0 0 0 0
0 0 0 0 0 0 0 0 0.106355688355965 0 0 0 0 0 0 0 0 0 0 0 0 0 0 0 0 0 0 0 0 0 0 0 0 0 0 0 0 0 -0.133939508617207 0 0 0 -0.938424882717066 0 -1.10322328960393 0 0 0 0 0
0 0 0 0 0 0 0 0 0.361590177738271 0.101195461784578 0 0 0 0 0 0 0 0 0 0 0 0 0 0 0 0 0 0 0 0 0 0 0 0 0 0 0 0 -0.720886963183618 0 0 0 0 0 0 0 0 0 0 0
0 0.484886927273797 0.0945429334300282 0.198254948408121 0 0.139191669447999 0.411922970249771 0.366057614077603 0.0481144022753673 0.412745213726867 0.104065336068561 0 0 0 0 0 0 0 0 0 0 0 0 0 0 0 0 0 0 0 0 0 0 0 0 0 0 0 0 0 0 0 -1.41011919694814 0 -0.965923717108554 0 0 0 0 0
0 0 0 0 0 0 0 0.111155792677612 0 0 0 0 0 0 0 0 0 0 0 0 0 0 0 0 0 0 0 0 0 0 0 0 0 0 0 0 0 0 0 0 0 0 0 -0.795682256828188 0 0 -0.672527201735188 0 0 0
0 0 0 0 0 0 0 0 0 0 0 0.167703649973962 0.423341795857318 0 0 0 0 0 0 0 0 0 0 0 0 0 0 0 0 0 0 0 0 0 0 0 0 0 0 0 0 0 -0.867838190858527 -3.38291273642146 -0.145511480306096 0 0 0 0 0
0 0 0 0 0 0 0 0 0 0 0 0 0 0 0 0 0 0 0 0 0 0 0 0 0 0 0 0 0 0 0 0 0 0 0 0 0 0 0 -1.67172368549884 0 0 -0.221722185915148 0 0 0 -3.51531780455595 0 0 0
0 0 0 0 0 0 0 0 0 0 0 0 0 0 0 0 0 0 0 0 0 0 0 0 0 0 0 0 0 0 0 0 0 0 0 0 0 -2.08633927523858 0 -1.50471354434709 0 0 -0.680544898827221 0 0 0 -2.15188506723212 0 0 0
0 0.116275465615913 0 0.215962693848134 0 0 0.0976950604176873 0 0 0 0 0 0 0 0 0 0 0 0 0 0 0 0 0 0 0 0 0 0 0 0 0 0 0 0 0 0 0 0 0 0 0 -0.252719086880934 0 -0.523035531326613 0 -2.58073885096413 0 0 0
0 0 0 0 0 0 0 0 0 0 0 0 0 0 0 0 0 0.245972418746189 0.318822027805403 0 0 0 0 0 0 0 0 0 0 0 0 0 0 0 0 0 0 0 0 -0.31090892634457 0 0 -1.81936562978559 0 0 0 0 0 0 0
0 0 0 0 0 0 0 0 0 0 0 0 0 0 0 0 0 0 0 0 0 0 0 0 0 0 0 0 0 0 0 0 0 0 0 0 0 -1.37281867254014 0 -0.269848695801242 0 0 0 0 0 0 -2.69941678381306 0 0 -2.56474328545398
0 0 0 0 0 0 0 0 0 0 0 0 0 0.0958284576356296 0 0 0 0 0 0 0 0 0 0 0 0 0 0 0 0 0 0 0 0 0 0 0 -0.685074737983997 0 -0.233966177582847 0 0 -1.0927520623811 0 -3.33042166266439 0 -2.9097270101585 0 0 -0.358917063907957
0.0432782872600412 0 0 0 0 0 0 0 0 0 0 0 0 0 0 0 0 0 0 0 0 0 0 0 0 0 0 0 0 0 0 0 0 0 0 0 0 0 0 -0.393223467087523 -0.213874157727114 0 -0.368247477704747 0 0 0 0 0 0 -0.926313490548746
0 0 0 0 0 0 0 0 0 0 0 0 0 0 0 0 0 0.25498947375452 1.63404018284098 0 0 0 0 0 0 0 0 0 0 0 0 0 0 0 0 0 0 0 0 0 0 0 -1.29691319050586 0 0 0 -0.85034546575993 0 0 0
0 0 0 0 0 0 0 0 0 0 0 0 0 0.405109101012045 0 0 0 0 0 0 0 0 0 0 0 0 0 0 0 0 0 0 0 0 0 0 0 0 0 0 0 0 -3.5185793044772 0 0 0 0 0 0 -1.50630029046387
0 0 0 0 0 0 0 0.141966367304601 0 0.274291671601028 0 0.3922629001309 0.166798867268611 0.0779755384641912 0 0.0259356347674303 0.153995403512087 0 0 0 0 0 0 0 0 0 0 0 0 0 0 0 0 0 0 0 0 0 0 0 0 0 0 0 0 0 0 -4.33186559824986 -0.275382312303777 -2.08800317745054
0 0 0 0 0 0 0 0 0 0 0 0 0 0 0 0 0 0 0 0 0 0 0 0 0 0 0 0 0 0 0 0 0 0 0 0 0 0 0 0 0 0 0 0 0 0 0 0 0 -0.821997776334136
0 0 0 0 0 0 0 0 0 0 0 0 0 0 0 0 0 0 0 0 0 0 0 0 0 0 0 0.382795096279572 0 0 0.275626032402116 0.139424527283259 0 0 0 0 0 0 0 0 0 0 0 0 0 0 0 0 0 -1.02100683727525
0 0 0 0 0 0 0 0 0 0 0 0 0.740364318402135 0.0760495277309099 0.184874161154239 0.194892395508853 0.544047775170315 0.162310973345488 0.133852360369804 0.230223024581891 0 0.0280295460025079 0.157668495660039 0 0 0 0 0 0 0 0 0 0 0 0 0 0 0 0 0 0 0 0 0 0 0 0 0 0 -2.85620218760331
0 0 0 0 0 0 0 0 0 0 0 0 0 0 0 0 0 0 0 0 0 0 0 0 0 0 0.348406828550969 0.306503221617526 0 0.0623534417417528 0.0569917924077147 0.0442193455733323 0.0786700165295995 0 0 0 0 0 0 0 0 0 0 0 0 0 0 0 0 0
0 0 0 0 0 0 0 0 0 0 0 0 0 0 0 0 0 0 0 0 0 0 0 0 0 0 0 0 0 0 0 0 0.0446988230114984 0 0 0 0 0 0 0 0 0 0 0 0 0 0 -0.571726267561727 0 -0.352317241845599
0 0 0 0 0 0 0 0 0 0 0 0 0 0 0 0 0 0 0 0 0 0 0 0 0 0 0 0 0 0 0 0 0 0 0 0 0 0 0 0 0 0 0 0 0 0 0 -6.85845194963052 0 -1.93874822702038
0 0 0 0 0 0 0 0 0 0 0 0 0 0 0 0 0 0.532273572884781 0 0.0453350097359513 0.326484159751327 0.172277412929777 0 0.265853264339598 0 0.175442867806803 0.0445751823817543 0.131954927699373 0.048428045695729 0.379406990884202 0 0.23706567662737 0.0770257376903227 0.255852668114475 0.663701343016411 0 0 0 0 0 0 0 0 0 0 0 0 0 0 0
0 0 0 0 0 0 0 0 0 0 0 0 0 0 0 0 0 0 0 0 0 0 0 0 0.141866452848137 0.64972963359796 0 0 0 0 0 0 0 0 0 0 0 0 0 0 0 0 0 0 0 0 0 0 0 0
0 0 0 0 0 0 0 0 0 0 0 0 0 0.106952237401585 0 0.179206776757671 0 0.164972208039731 0 0 2.34077563516158 0.210128782129874 0 0.175542945048377 0 0.026423755056531 0 0 0.110867100780031 0 0 0.662480741152173 0 0 0 0 0 0 0 0 0 0 0 0 0 0 0 0 0 0
0 0 0.3896053916328 0.252370933298045 0.120371416379824 0.531979468416619 0.350046072373179 0 0 0 0 0 0 0 0 0 0 0 0 0 0 0 0 0 0 0 0 0 0 0 0 0 0 0 0 0 0 0 0 0 0 0 0 0 0 0 0 0 0 0
0 0 0 0 0 0 0 0 0 0 0 0 0 0 0 0 0 0 0 0 0 0 0 0 0.141937549941191 0 0.643314534016909 0.453740169369738 0.522486714025207 0 0.557168496072242 0.612933171843216 0 0.151306324138154 0 0 0 0 0 0 0 0 0 0 0 0 0 0 0 0
0 0 0 0 0 0 0 0 0 0 0 0 0 0 0 0 0 0 0 0 0 0 0 0 0 0 0 0 0 0 0 0 0 0 0 0.841320340741019 0 0 0 0 0.107347985144005 1.38520479447266 0 0 0 0 0 0 0 0
0 0 0 0 0 0 0 0 0 0 0 0 0 0 0 0 0 0 0 0 0 0 0 0 0 0 0 0 0 0 0 0 0 0 0 0.0561735430335877 0 0 0 0 0 0 0 0 0 0 0 0 0 0
0 0 0 0 0 0 0 0 0 0 0 0 0 0 0 0 0 0 0 0 0 0 0 0 0 0 0 0 0 0 0.526423206984429 0.0686389844954536 0.186112789508472 0 0.294536559104544 0.419993427366678 0.160267048042761 0.21028507771253 0.544118692986225 0 0.0663224589353357 0.407992266616773 0 0 0 0 0 0 0 0
