0.585671927615923
0.468061026848367
1.09729776020235
1.35318939200438
0.621102078204655
0.740180953289461
0.318820702916811
0.164407883467985
0.433633607910393
2.86420133403291
1.05027511195067
2.18790903082141
1.27619371261826
0.768869451058044
0.321320356201999
0.857246535874453
2.77057392978574
0.779092781417606
0.917600803972878
0.118022945390209
1.09682477189053
1.70131736101313
0.189957373678264
3.04829988017529
0.245500368406959
3.53571870672747
0.186767410132082
2.21352104466372
0.187779275274411
1.03290222737085
0.0871732385202744
0.364060969764328
2.81053166331089
0.814072353603339
0.601975023394564
1.97170424005479
0.318894905804105
0.728873678734073
0.590757228897741
2.56710132825275
2.61216355691384
0.833236726260187
0.640126767812106
2.3285025125739
0.457572343913901
0.705321105227059
0.61123566502356
0.47604281234281
1.02471327365851
0.718875584866767
