0 0 0 0 0 0 0 0 0 0 0 0 0 0 0 -1.48016313658883 0 0 0 0 0 0 0 0 0 0 0 0 0 0 0 0 0 0 0 0 0 0 0 0 0 0 0 0 0 0 0 0 0 0
0 0 0 0 0 0 0 0 0 0 0 0 0 0 0 -1.45731746626694 0 0 0 0 0 0 0 0 0 0 0 0 0 0 0 0 0 0 0 0 0 0 0 0 0 0 0 0 0 0 0 0 0 0
0 0 0 0 0 0 0 0 0 0 0 0 0 0 0 -0.416095535809704 0 0 0 0 0 0 0 0 0 0 0 0 0 0 0 0 0 0 0 0 0 0 0 0 0 0 0 0 0 0 0 0 0 0
0 0 0 0 0 0 0 0 0 0 0 0 0 0 0 -3.06359775610142 0 0 0 0 0 0 0 0 0 0 0 -0.717381758359327 0 0 0 0 0 0 0 0 0 0 0 0 0 0 0 0 0 0 0 0 0 0
0 0 0 0 0 0 0 0 0 0 0 0 0 0 0 0 0 0 0 0 0 0 -1.08777810023497 0 0 0 0 -0.485839175744438 -3.73806708608356 0 0 0 0 0 0 0 0 0 0 0 -0.83827390866621 0 0 0 0 0 0 0 0 0
0 0 0 0 0 0 0 0 0 -0.0494135276693878 0 0 0 0 0 0 0 0 0 0 0 0 0 -2.5644495567659 0 0 0 0 -3.77016868935376 0 0 0 0 0 0 0 0 0 0 0 -0.567305673624756 0 0 0 0 0 0 0 0 0
0 0 0 0 0 0 0 0 -0.942092948580961 -9.3499899911429 0 0 0 0 0 0 0 0 0 0 0 0 0 0 0 0 0 0 0 0 0 0 0 0 0 0 0 0 0 0 -2.25848656775384 0 0 0 0 0 0 0 0 0
0 0 0 0 0 0 0 0 0 0 0 0 -4.86606849914127 -0.769936636973629 0 0 0 0 0 0 0 0 0 0 0 0 -0.21083737939903 0 0 0 0 -1.20008583165563 0 -0.738387317782156 0 0 0 0 0 0 -1.63572632262562 0 0 0 0 0 0 0 0 0
0 0 0 0 0 0 0.183780531256606 0 0 0 0 0 -0.707149619691977 -0.215380872627624 0 0 0 -2.52255700269384 0 0 0 0 0 0 -5.78412710161576 0 -1.16308306615577 0 0 0 0 -0.156679483463362 0 -0.792756254272517 0 0 0 0 0 0 -2.5441953842654 0 0 0 0 0 0 0 0 0
0 0 0 0 0 0.0100482203343218 1.92368576850266 0 0 0 0 0 0 -0.542411224086028 0 0 -0.917716315485942 -6.28488085127232 0 0 0 0 0 0 0 0 0 0 0 -1.0879534375522 0 0 0 0 0 0 0 0 0 0 -6.24160623244648 0 0 0 0 0 0 0 0 0
0 0 0 0 0 0 0 0 0 0 0 0 0 0 0 0 -0.722841072138766 0 0 0 0 0 0 0 0 0 0 0 0 -1.02743234813648 0 0 0 0 0 0 -1.65906217917399 0 0 0 -0.647636221294038 -1.02100252567459 0 0 0 0 0 0 0 0
0 0 0 0 0 0 0 0 0 0 0 0 0 0 0 0 0 0 0 0 0 0 0 0 0 0 0 0 0 -0.713688437471557 0 -0.563849534560107 0 0 0 0 -1.91905272730056 0 0 0 0 -0.788277364799533 0 0 0 0 0 0 0 0
0 0 0 0 0 0 0 0.995965933618486 0.148357037652429 0 0 0 0 0 0 0 0 0 0 0 0 0 0 0 -1.76260782299331 0 0 0 0 -1.20631164546338 0 -6.32231997763803 0 0 0 0 0 -2.94067554162106 0 0 0 -1.20014670506891 0 0 0 0 0 0 0 0
0 0 0 0 0 0 0 0.156569297151825 0.0412404473519098 0.108590460583527 0 0 0 0 0 0 0 0 0 0 0 0 0 0 0 0 0 0 0 0 0 -1.0863178903947 0 0 0 0 -0.375782743831832 0 0 0 0 -0.285145025331523 0 0 0 0 0 0 0 0
0 0 0 0 0 0 0 0 0 0 0 0 0 0 0 0 0 0 0 0 0 0 0 0 0 0 0 0 0 -1.65404730227074 0 0 0 0 0 0 0 0 -0.955672765965036 0 0 0 0 0 0 0 0 0 0 0
0.318360278048798 0.280415979811138 0.0841280606563255 0.591134127504069 0 0 0 0 0 0 0 0 0 0 0 0 0 0 0 0 0 0 0 0 0 0 0 0 0 0 0 0 0 0 0 0 0 0 -4.39336251416981 0 0 -0.252302596190956 0 0 0 0 0 0 0 0
0 0 0 0 0 0 0 0 0 0.192102559247241 0.138643316073728 0 0 0 0 0 0 0 0 0 0 0 0 0 0 0 0 0 0 -0.0992287560136205 0 0 0 0 0 0 0 0 -0.588333849168327 0 0 0 0 0 0 0 0 0 0 0
0 0 0 0 0 0 0 0 0.533091617442141 1.35482078923421 0 0 0 0 0 0 0 0 0 0 0 0 0 0 0 0 0 0 0 -0.434329599822505 0 0 0 0 0 0 0 0 -0.277562551025467 0 0 -2.10073369559041 0 0 0 0 0 0 0 0
0 0 0 0 0 0 0 0 0 0 0 0 0 0 0 0 0 0 0 0 0 -1.26688590886878 0 0 0 0 0 0 0 0 0 0 0 0 0 0 0 0 0 0 0 0 0 0 0 0 0 0 -0.789643301708877 0
0 0 0 0 0 0 0 0 0 0 0 0 0 0 0 0 0 0 0 0 0 0 0 0 0 0 0 0 0 -0.299415337927902 0 0 0 0 0 0 0 0 0 -0.644057498589056 0 0 0 0 0 0 0 0 -1.22249889171018 0
0 0 0 0 0 0 0 0 0 0 0 0 0 0 0 0 0 0 0 0 0 0 0 0 0 0 0 0 0 0 0 0 0 0 0 0 0 0 -0.470997992141749 -2.21657174710142 0 -0.950153852703135 0 0 0 0 0 0 -0.281775296369141 0
0 0 0 0 0 0 0 0 0 0 0 0 0 0 0 0 0 0 0.265392861867738 0 0 0 0 0 0 0 0 0 0 0 0 0 0 0 0 0 0 0 0 0 0 -1.99647251607566 0 0 0 0 0 0 0 0
0 0 0 0 0.203983288954028 0 0 0 0 0 0 0 0 0 0 0 0 0 0 0 0 0 0 0 0 0 0 0 0 0 -1.03734694502248 0 0 0 0 0 0 0 -0.566216621845926 0 0 -1.00019201417728 0 0 0 0 0 0 -0.553694763998472 0
0 0 0 0 0 0.517220945883445 0 0 0 0 0 0 0 0 0 0 0 0 0 0 0 0 0 0 0 0 0 0 0 0 0 0 0 0 0 0 0 0 -0.461312721560883 -1.05159154352247 0 -0.516511013081942 0 0 0 0 0 0 -3.49299803046284 0
0 0 0 0 0 0 0 0 1.09857749176671 0 0 0 0.340456890749207 0 0 0 0 0 0 0 0 0 0 0 0 0 0 0 0 0 -0.228040165839548 0 0 0 -0.348206640737127 0 0 0 -0.218543748425864 -0.698041845847711 0 -0.0980636099103044 0 0 0 0 0 -1.33856092049164 0 0
0 0 0 0 0 0 0 0 0 0 0 0 0 0 0 0 0 0 0 0 0 0 0 0 0 0 0 0 0 0 -2.92399977456492 0 0 0 -1.9310217801069 0 0 0 -0.691076188536709 0 0 -1.66552567879277 0 0 0 0 0 -5.17078297854273 0 -0.399365720904649
0 0 0 0 0 0 0 0.0462259725032129 0.211980120962521 0 0 0 0 0 0 0 0 0 0 0 0 0 0 0 0 0 0 0 0 0 -1.39878413043257 0 0 0 0 0 0 0 -1.00594004413144 0 0 0 0 0 0 0 0 -2.1828530438886 0 -5.264684367322
0 0 0 0.148444641228665 0.0966431398212725 0 0 0 0 0 0 0 0 0 0 0 0 0 0 0 0 0 0 0 0 0 0 0 0 0 -0.765775045731153 0 0 0 -4.05533257204299 0 0 0 0 -0.83452351932713 0 0 0 0 0 0 0 0 0 -4.08706434480678
0 0 0 0 0.715149221922012 0.784873641933428 0 0 0 0 0 0 0 0 0 0 0 0 0 0 0 0 0 0 0 0 0 0 0 0 0 0 -1.26115347127659 0 -0.414437622618486 0 0 0 0 -3.31503892363394 0 0 0 0 0 0 0 -1.8296567759857 0 -1.1091056206873
0 0 0 0 0 0 0 0 0 0.212455813916481 0.196252691801752 0.14030175788109 0.233726042605257 0 0.342825476009167 0 0.0169026013030248 0.0975333527015625 0 0.0619536695431581 0 0 0 0 0 0 0 0 0 0 0 0 -0.963609553037034 0 -0.761234452536478 0 0 0 0 0 0 0 0 0 0 0 0 -0.268466911977873 0 -0.527291811157113
0 0 0 0 0 0 0 0 0 0 0 0 0 0 0 0 0 0 0 0 0 0 0.216829362031243 0 0.04990095609809 0.576158646294769 0.265797134027424 0.154173376441771 0 0 0 0 -1.08353483570639 0 -1.63967621811069 0 0 0 0 0 0 0 0 0 0 0 0 -0.518078591843115 0 0
0 0 0 0 0 0 0 0.237160851790244 0.0322046000015748 0 0 0.116742671796678 1.21552864023464 0.212565034490997 0 0 0 0 0 0 0 0 0 0 0 0 0 0 0 0 0 0 -1.70426183620674 0 -5.27348997458819 0 0 0 0 0 0 0 0 0 0 0 0 -2.93716057799114 0 0
0 0 0 0 0 0 0 0 0 0 0 0 0 0 0 0 0 0 0 0 0 0 0 0 0 0 0 0 0.258989363978903 0.19380575991097 0.196236134327265 0.34589853253913 0 0 0 0 0 0 0 0 0 0 0 0 0 0 0 -3.85354506843604 0 0
0 0 0 0 0 0 0 0.152525906631952 0.165937250751007 0 0 0 0 0 0 0 0 0 0 0 0 0 0 0 0 0 0 0 0 0 0 0 0 0 0 0 0 0 0 0 0 0 -1.02157960775867 0 0 -0.85014336515892 0 0 0 0
0 0 0 0 0 0 0 0 0 0 0 0 0 0 0 0 0 0 0 0 0 0 0 0 0.0652499384241235 0.360058011967743 0 0.747641635358988 0.0818541198596693 0.140699691241886 0.312608329763503 1.04497377357141 0 0 0 0 0 0 0 0 0 0 0 0 0 -0.667792925784788 -0.418196351100743 0 0 0
0 0 0 0 0 0 0 0 0 0 0 0 0 0 0 0 0 0 0 0 0 0 0 0 0 0 0 0 0 0 0 0 0 0 0 0 0 0 0 0 0 0 0 0 0 0 -0.547928200062932 0 0 0
0 0 0 0 0 0 0 0 0 0 0.352073302594872 0.396711690912327 0 0.0705453359370173 0 0 0 0 0 0 0 0 0 0 0 0 0 0 0 0 0 0 0 0 0 0 0 0 0 0 0 0 0 0 0 -3.54249004849936 -0.457556471991881 0 0 0
0 0 0 0 0 0 0 0 0 0 0 0 0.586532993545758 0 0 0 0 0 0 0 0 0 0 0 0 0 0 0 0 0 0 0 0 0 0 0 0 0 0 0 0 0 0 0 -2.46359443539716 0 0 0 0 0
0 0 0 0 0 0 0 0 0 0 0 0 0 0 0.201789626173751 0.751070566007547 0.124018862759614 0.0530949474527976 0 0 0.0931718814475506 0 0.113680070388156 0.0987874265089538 0.0448873006584332 0.147224072103591 0.21253583486008 0 0 0 0 0 0 0 0 0 0 0 0 0 0 0 0 0 0 0 0 0 0 0
0 0 0 0 0 0 0 0 0 0 0 0 0 0 0 0 0 0 0 0.124607465301094 0.460887807610132 0 0 0.198500274793299 0.146554947598181 0 0 0.158571520413743 0.715465400203192 0 0 0 0 0 0 0 0 0 0 0 0 0 0 0 -3.43473829597053 0 0 0 0 0
0 0 0 0 0.177612771071048 0.105589497636117 0.455478638954408 0.314873370346444 0.512046838827442 1.27469089399186 0.142282245122946 0 0 0 0 0 0 0 0 0 0 0 0 0 0 0 0 0 0 0 0 0 0 0 0 0 0 0 0 0 0 0 0 0 -0.381987062502729 0 0 0 0 0
0 0 0 0 0 0 0 0 0 0 0.199581852201705 0.159704025080224 0.257615037774077 0.0605329447013156 0 0.0545838006330606 0 0.446926998318994 0 0 0.190567372918735 0.409730274247889 0.211192780426923 0.108123932343304 0.0185849756682633 0.327107973690214 0 0 0 0 0 0 0 0 0 0 0 0 0 0 0 0 0 0 -0.176620958766014 0 0 0 0 0
0 0 0 0 0 0 0 0 0 0 0 0 0 0 0 0 0 0 0 0 0 0 0 0 0 0 0 0 0 0 0 0 0 0.206193714061603 0 0 0 0 0 0 0 0 0 0 -3.84520119927439 0 0 0 0 0
0 0 0 0 0 0 0 0 0 0 0 0 0 0 0 0 0 0 0 0 0 0 0 0 0 0 0 0 0 0 0 0 0 0 0 0 0 0 0 0 0 0 0 0 -0.309199325825667 0 0 0 0 0
0 0 0 0 0 0 0 0 0 0 0 0 0 0 0 0 0 0 0 0 0 0 0 0 0 0 0 0 0 0 0 0 0 0 0 0 0 0.487013804207396 0 0.689365199415162 0.0805744836678863 0.0339152327322915 0.660852572945346 0.0569290211669088 0 0.0594140824869844 0 0.192087339630373 0 0
0 0 0 0 0 0 0 0 0 0 0 0 0 0 0 0 0 0 0 0 0 0 0 0 0 0 0 0 0 0 0 0 0 0.153616998046712 0.131344094041286 0 0.688871455489589 0 0 0 0 0 0 0 -0.297585091484697 0 0 0 0 0
0 0 0 0 0 0 0 0 0 0 0 0 0 0 0 0 0 0 0 0 0 0 0 0 0 0 0 0 0 0 0 0 0 0 0.0841255968958862 0.110329150925632 0.0964588113379421 0 0 0 0 0 0 0 0 0 0 0 0 0
0 0 0 0 0 0 0 0 0 0 0 0 0 0 0 0 0 0 0 0 0 0 0 0 0.252272046624893 1.00665836499557 0.446128235000843 0 0.35652039459448 0.0570211611199104 0.101897356254324 0.595063769253339 0.815033972772241 0 0 0 0 0 0 0 0 0 0 0 -0.977576646290218 0 0 0 0 0
0 0 0 0 0 0 0 0 0 0 0 0 0 0 0 0 0 0 0.148384381054613 0.240294321887655 0.052601718752857 0 0.10781623815587 0.641137272328576 0 0 0 0 0 0 0 0 0 0 0 0 0 0 0 0 0 0 0 0 0 0 0 0 0 0
0 0 0 0 0 0 0 0 0 0 0 0 0 0 0 0 0 0 0 0 0 0 0 0 0 0.0755712068314276 1.04478164609504 0.826817513479671 0.228423778714826 0.10662044451884 0 0 0 0 0 0 0 0 0 0 0 0 0 0 0 0 0 0 0 0
