0 0 0 0 0 0 0 0 0 0 0 0 0 0 0 0 0 -0.510501843453638 0 0 0 0 0 0 0 0 0 0 0 0 0 0 0 0 0 0 0 0 0 0 0 0 0 0 0 0 0 0 0 0
0 0 0 0 0 0 0 0 0 0 0 0 0 0 0 0 0 -1.65593515735877 0 0 0 0 0 0 0 0 0 0 0 0 0 0 0 0 0 0 0 -0.799507786866489 0 0 0 0 0 0 0 0 0 0 0 0
0 0 0 0 0 0 0 0 0 0 0 0 0 0 0 0 0 -1.30685110190165 0 0 0 0 0 0 0 0 0 0 0 0 0 0 0 0 0 -0.962667501925964 0 0 0 0 0 -1.41276112116953 0 0 -0.844772897116484 0 0 0 0 0
0 0 0 0 0 0 0 0 0 0 0 0 0 -5.569151030935 0 0 0 -0.572619181835545 0 0 0 0 0 0 0 0 0 0 0 0 0 0 0 0 0 0 0 0 0 0 0 -2.48564260822366 0 0 0 0 0 0 -0.74664893075229 0
0 0 0 0 0 0 0 0 0 0 0 0 -0.513672927716537 0 0 0 0 0 0 0 0 0 0 0 0 0 0 0 0 0 0 0 0 0 0 -0.314226762669239 0 0 0 0 0 0 0 0 -0.601455195212754 0 0 0 -0.585376398468896 0
0 0 0 0 0 0 0 0 0 0 0 0 -0.632325528014415 0 0 0 0 0 0 0 0 0 0 0 0 0 0 0 0 0 0 0 0 0 0 -0.188967982270922 0 0 0 0 0 -1.45469919033136 0 0 -0.323491148489507 0 0 0 0 0
0 0 0 0 0 0 0 0 0 0 0 0 0 0 0 0 0 0 0 0 0 0 -1.05610862147331 0 0 0 0 0 0 0 0 0 0 0 0 0 0 0 0 0 0 -0.505601624524665 0 0 0 0 0 0 -1.14138617983456 0
0 0 0 0 0 0 0 0 -2.55717630618406 0 0 -1.76650928679528 0 0 -1.49204343238897 0 0 0 0 0 0 0 -0.160051366387825 0 0 0 0 0 0 0 0 0 0 0 0 -5.18460671311347 0 0 0 0 0 0 0 0 0 0 0 0 0 0
0 0 0 0 0 0 0 0.500461771113108 0 0 0 -0.290976105003802 0 0 -3.65654270624686 0 0 0 0 0 0 0 0 0 0 0 0 0 0 0 0 0 0 0 0 0 0 0 0 0 0 0 0 0 -1.6644990115923 0 0 0 0 0
0 0 0 0 0 0 0 0 0 0 0 0 0 0 0 0 -0.775626528616195 0 0 0 0 0 0 0 0 0 0 0 0 0 0 -0.527238846872695 0 0 0 0 0 0 0 0 0 0 0 0 0 -0.537345814044463 0 0 0 0
0 0 0 0 0 0 0 0 0 0 0 0 0 0 0 -0.90889193596456 0 0 0 0 -0.60535121494558 0 0 0 -0.476259142365256 0 0 0 0 0 0 -1.19985787700479 0 0 0 0 0 0 0 0 0 0 0 0 0 0 0 0 0 0
0 0 0 0 0 0 0 0.354128848127443 0.0585752670747737 0 0 0 0 0 0 0 0 0 0 0 0 0 0 -2.70066246269002 0 0 0 0 0 0 0 -0.212434445697103 0 0 -2.95882643451896 0 0 0 0 0 0 0 0 0 0 -0.851772420226187 0 0 0 0
0 0 0 0 0.104428690519266 0.122100427487918 0 0 0 0 0 0 0 0 0 -0.521064438712698 0 0 0 0 0 0 0 0 0 0 0 0 0 0 -1.47877041022419 0 0 -0.520827489572845 0 0 0 0 0 0 0 0 0 0 0 -1.57187805339208 0 0 0 0
0 0 0 1.03382523848803 0 0 0 0 0 0 0 0 0 0 0 -1.74576499140244 0 0 0 -2.01844690594131 0 0 0 0 0 0 0 0 0 0 -0.275938838179521 0 0 -0.502635049502102 0 0 0 0 0 0 0 0 0 0 0 -0.363971722754607 0 0 0 0
0 0 0 0 0 0 0 0.294004846070514 0.76805353940626 0 0 0 0 0 0 -0.734139621119974 0 0 0 -1.87165037359072 0 0 0 -2.06015521337875 0 0 0 0 0 0 -1.17388649227138 0 0 -0.454677553294617 0 0 0 0 0 0 0 0 0 0 0 0 0 0 0 0
0 0 0 0 0 0 0 0 0 0 0.184759314337799 0 0.103572226967013 0.366479952175369 0.141990425620113 0 0 0 0 -0.558744273601098 0 0 0 0 0 0 0 0 -0.745876994256057 0 -4.90795909029723 0 0 0 0 0 0 0 0 0 0 0 0 0 0 0 0 0 0 0
0 0 0 0 0 0 0 0 0 0.160381878907055 0 0 0 0 0 0 0 0 0 -4.12333043604579 0 0 0 0 0 0 0 0 -0.724285312691596 0 -0.491022042114914 0 0 -0.649618544003853 0 0 0 0 0 0 0 0 0 0 0 0 0 0 0 0
0.101073380821661 0.332129962848815 0.273185758531459 0.119381191277364 0 0 0 0 0 0 0 0 0 0 0 0 0 0 0 -5.03995708320718 0 -0.283203436079271 0 0 0 -3.05487084713051 0 0 -0.41575154202905 0 -0.290171988294616 0 0 0 0 0 0 0 0 0 0 0 0 0 0 0 0 0 0 0
0 0 0 0 0 0 0 0 0 0 0 0 0 0 0 0 0 0 0 -7.51326530902786 0 -0.810587494915623 0 0 0 0 0 0 0 0 -0.307649675507562 0 0 -2.18883990771397 0 0 0 0 0 0 0 0 0 0 0 0 0 0 0 0
0 0 0 0 0 0 0 0 0 0 0 0 0 0.407865919296279 0.373069597945954 0.100436348335223 0.812977677861256 0.997120746336117 1.42990014305918 0 0.340365234388992 0 0 0.889590194931656 0 0 0 0 -6.12993575849119 0 -0.466614545650203 0 0 0 0 0 0 0 0 0 0 0 0 0 0 0 0 0 0 0
0 0 0 0 0 0 0 0 0 0 0.107895909680534 0 0 0 0 0 0 0 0 -1.59419108333135 0 0 0 0 0 0 0 0 0 0 -1.49424558324272 0 0 -4.82498836922213 0 0 0 0 0 0 0 0 0 0 0 0 0 0 0 0
0 0 0 0 0 0 0 0 0 0 0 0 0 0 0 0 0 0.0589798855492068 0.155090505541164 0 0 0 0 0 0 0 0 0 0 -0.9343614968335 -1.74328713699896 0 0 -0.923133261993851 0 0 0 0 0 0 0 0 0 -1.22369484800887 0 0 0 0 0 0
0 0 0 0 0 0 0.203798576466277 0.0338434283210342 0 0 0 0 0 0 0 0 0 0 0 0 0 0 0 0 0 0 0 0 0 -0.176675027274383 0 0 0 -2.01128762846767 0 0 0 0 0 0 0 0 0 0 0 0 -0.773829305838697 0 0 0
0 0 0 0 0 0 0 0 0 0 0 0.514940764296981 0 0 0.417910103541653 0 0 0 0 -4.7316575397565 0 0 0 0 0 0 0 0 0 -1.73856403854614 -2.22975109472553 0 0 -0.148298338788972 0 0 0 0 0 0 0 0 0 0 0 0 0 0 0 0
0 0 0 0 0 0 0 0 0 0 0.0871494481984322 0 0 0 0 0 0 0 0 0 0 0 0 0 0 0 0 0 0 0 0 0 0 -0.345605216174841 0 0 0 0 0 0 0 0 0 0 0 0 -2.30413016594046 0 0 0
0 0 0 0 0 0 0 0 0 0 0 0 0 0 0 0 0 0.624417773717729 0 0 0 0 0 0 0 0 0 0 0 0 0 0 0 0 0 0 0 0 0 0 0 0 0 0 0 0 0 0 0 0
0 0 0 0 0 0 0 0 0 0 0 0 0 0 0 0 0 0 0 0 0 0 0 0 0 0 0 0 0 -1.03973039660625 0 0 0 0 0 0 0 0 0 0 0 0 0 -3.55970841538662 0 0 -2.11700994420184 0 0 0
0 0 0 0 0 0 0 0 0 0 0 0 0 0 0 0 0 0 0 0 0 0 0 0 0 0 0 0 0 -0.940052508304726 0 0 0 0 0 0 0 0 0 0 0 0 0 0 0 0 0 0 0 0
0 0 0 0 0 0 0 0 0 0 0 0 0 0 0 0.145070011136354 0.149669876113381 0.0789490676040756 0 1.18523420231334 0 0 0 0 0 0 0 0 0 0 0 0 0 0 0 0 -0.359904674685029 0 0 0 0 0 0 0 0 0 -2.6158970121848 0 0 0
0 0 0 0 0 0 0 0 0 0 0 0 0 0 0 0 0 0 0 0 0 0.182414473061956 0.038591175835584 0.36183725675428 0 0 0.209170444373555 0.176035238443233 0 0 0 0 0 0 0 0 0 0 0 0 0 0 0 -0.616143700939105 0 0 0 0 0 0
0 0 0 0 0 0 0 0 0 0 0 0 0.300319420522641 0.055138173699826 0.218169306476618 1.01042085654163 0.101953503788753 0.0565810685456857 0.0608324560204354 0.0875621036656364 0.294850164453817 0.358600580657329 0 0.452156144787248 0 0 0 0 0 0 0 0 0 0 0 0 0 0 0 0 0 0 0 -1.14750598615446 0 0 -0.857504583230879 0 0 0
0 0 0 0 0 0 0 0 0 0.103244588980768 0.232835144301229 0.0457061504559621 0 0 0 0 0 0 0 0 0 0 0 0 0 0 0 0 0 0 0 0 0 0 0 0 0 0 0 0 0 0 0 -2.12770189832706 0 0 -3.87077520879264 0 0 0
0 0 0 0 0 0 0 0 0 0 0 0 0 0 0 0 0 0 0 0 0 0 0 0 0 0 0 0 0 0 0 0 0 0 0 0 0 0 0 0 0 0 0 0 0 0 -0.135756247380104 0 0 0
0 0 0 0 0 0 0 0 0 0 0 0 0.0995983292173603 0.0949128440683383 0.0910250266541433 0 0.124705351868964 0 0.397359687603308 0 0.885020414195052 0.18104771458774 0.42843846641093 0.030833145179625 0.0712346739623968 0 0 0 0 0 0 0 0 0 0 0 0 0 0 0 0 0 0 -0.868221854821614 0 0 -7.16286052277317 0 0 0
0 0 0 0 0 0 0 0 0 0 0 0.60040756747481 0 0 0 0 0 0 0 0 0 0 0 0 0 0 0 0 0 0 0 0 0 0 0 0 0 0 0 0 0 0 0 -0.660340046139278 0 0 0 0 0 0
0 0 0.186093052366939 0 0.0645477979334717 0.0393093395873677 0 1.09050900730159 0 0 0 0 0 0 0 0 0 0 0 0 0 0 0 0 0 0 0 0 0 0 0 0 0 0 0 0 0 0 0 0 0 0 0 -0.98329846064168 0 0 -2.21148456773073 0 0 -1.36930763086541
0 0 0 0 0 0 0 0 0 0 0 0 0 0 0 0 0 0 0 0 0 0 0 0 0 0 0 0 0.073241330438407 0 0 0 0 0 0 0 0 0 0 0 0 0 0 -0.615573022560283 0 0 0 0 0 -0.468132966263995
0 0.151928640518826 0 0 0 0 0 0 0 0 0 0 0 0 0 0 0 0 0 0 0 0 0 0 0 0 0 0 0 0 0 0 0 0 0 0 0 0 0 0 0 0 -0.439223483918583 0 0 0 0 -2.5349227841496 0 -1.69709175104726
0 0 0 0 0 0 0 0 0 0 0 0 0 0 0 0 0 0 0 0 0 0 0 0 0 0 0 0 0 0 0 0 0 0 0 0 0 0 0 0 0 0 -1.2369634512029 0 0 0 0 0 0 -0.767633526555771
0 0 0 0 0 0 0 0 0 0 0 0 0 0 0 0 0 0 0 0 0 0 0 0 0 0 0 0 0 0 0 0 0 0 0 0 0 0 0 0 -4.32544656583446 0 -7.07879472477314 0 0 0 0 0 0 -0.266734183358509
0 0 0 0 0 0 0 0 0 0 0 0 0 0 0 0 0 0 0 0 0 0 0 0 0 0 0 0 0 0 0 0 0 0 0 0 0 0 0 0.851192401727917 0 0 0 0 0 0 0 0 0 -0.143062813298394
0 0 0.271676192600706 0.545207039815922 0 0.262761589005346 0.0962291363020629 0 0 0 0 0 0 0 0 0 0 0 0 0 0 0 0 0 0 0 0 0 0 0 0 0 0 0 0 0 0 0 0 0 0 0 -1.07492850384746 0 0 0 0 0 0 -2.99173013362134
0 0 0 0 0 0 0 0 0 0 0 0 0 0 0 0 0 0 0 0 0 0 0 0 0 0 0 0 0 0 0 0 0 0 0 0 0 0.0900359379793601 0.247400065052773 1.43228146645761 0 0.209912331574413 0 0.231193808997885 0 0.0564807786529534 0.55521939321807 0 0 -0.160717622161595
0 0 0 0 0 0 0 0 0 0 0 0 0 0 0 0 0 0 0 0 0 0.24111164930221 0 0 0 0 0.724306166761444 0 0 0.127336597606544 0.243370777182101 0.444071025362862 0 0.168929028799432 0.145921142727251 0.186019008274559 0.123821478017066 0 0 0 0 0 -1.26135892251023 0 0 0 0 0 0 0
0 0 0.166085862027168 0 0.122742271820175 0.0698664715042723 0 0 0.331546094597401 0 0 0 0 0 0 0 0 0 0 0 0 0 0 0 0 0 0 0 0 0 0 0 0 0 0 0 0 0 0 0 0 0 0 0 0 0 0 0 0 0
0 0 0 0 0 0 0 0 0 0.106723335278878 0 0.168002156565235 0.306442993515302 0.0689473677088988 0 0 0 0 0 0 0 0 0 0 0 0 0 0 0 0 0 0 0 0 0 0 0 0 0 0 0 0 -0.311188225970474 0 0 0 0 0 0 0
0 0 0 0 0 0 0 0 0 0 0 0 0 0 0 0 0 0 0 0 0 0 0.166431803428364 0 0.444716809668283 0 0.426150672328199 0 0.523828533986413 0 0.172659637071226 0.757436827848303 0.0287441283178676 1.47859271930465 0 0.433613902709989 0 0 0 0 0 0 -2.9506585351547 0 0 0 0 0 0 0
0 0 0 0 0 0 0 0 0 0 0 0 0 0 0 0 0 0 0 0 0 0 0 0 0 0 0 0 0 0 0 0 0 0 0 0 0 0.491160296967999 0 0 0 0 0 0 0 0 0 0 0 0
0 0 0 0.143883463756514 0.118116953292716 0 0.228678126694656 0 0 0 0 0 0 0 0 0 0 0 0 0 0 0 0 0 0 0 0 0 0 0 0 0 0 0 0 0 0 0 0 0 0 0 0 0 0 0 0 0 0 0
0 0 0 0 0 0 0 0 0 0 0 0 0 0 0 0 0 0 0 0 0 0 0 0 0 0 0 0 0 0 0 0 0 0 0 0.273320334894695 0.102933370429981 0.342114996750704 0.152681634879285 0.0553047221909093 0.0260343242752459 0.630886587464418 0.0335574521896853 0 0 0 0 0 0 0
