0 0 -0.251184941243278 0 0 0 0 -1.01117194892489 0 -0.564656823083085 0 0 0 0 0 0 0 0 0 0 0 0 -1.17049871217851 0 0 0 0 0 0 0 0 0 0 0 0 0 0 0 0 0 0 0 0 0 0 0 0 0 0 0
0 0 0 0 0 0 0 0 0 -3.56057650675765 0 0 0 0 0 0 0 0 0 0 0 0 -0.632023319960584 0 0 0 0 0 0 0 0 0 0 -0.228864527658768 0 0 0 0 0 0 0 0 0 0 0 0 0 0 0 0
0.0524863129176309 0 0 0 0 0 0 -0.240407954178686 0 0 0 0 0 0 0 0 0 0 0 0 0 0 0 0 0 0 0 0 0 0 0 0 0 0 0 0 0 0 0 0 0 0 0 0 0 0 0 0 0 0
0 0 0 0 0 0 0 -5.49131699506581 0 0 0 0 0 0 0 0 0 0 0 -5.02661470489104 0 0 0 0 0 0 0 0 0 0 -0.283028040501672 0 0 0 0 0 0 0 0 0 0 0 0 0 0 0 0 0 0 0
0 0 0 0 0 0 0 -0.721128982147863 0 0 0 0 0 0 0 0 0 0 0 0 0 0 0 0 0 0 0 0 0 0 -0.296723165378446 0 0 -0.548252320516553 0 0 0 0 0 0 0 0 0 0 0 0 0 0 0 0
0 0 0 0 0 0 0 0 0 0 0 0 0 0 0 0 0 0 0 0 -0.344869973835482 0 0 0 0 0 0 0 0 0 -2.36716402843668 0 0 0 0 0 0 0 0 0 0 0 0 0 -1.08768532688616 0 0 0 -5.61481992692525 0
0 0 0 0 0 0 0 0 0 0 0 0 0 -2.10990551042358 0 -3.0696296630944 0 0 0 0 -0.744393262468957 0 0 0 0 0 0 0 0 0 -0.669294664671851 0 0 0 0 0 0 0 0 0 0 0 0 0 0 0 0 0 -0.836442807966325 0
0.213323850374535 0 0.0470660986328907 1.10552585851216 0.152229808187551 0 0 0 0 0 -0.453486038708829 0 0 0 0 -0.559171457158239 0 0 0 0 -3.48447141497 0 0 0 0 0 0 0 0 0 0 0 0 -0.399389808798785 0 0 0 0 0 0 0 0 0 0 -1.06004185169234 0 0 0 0 0
0 0 0 0 0 0 0 0 0 0 -1.54437634934787 0 0 0 0 0 0 0 0 0 -0.314997886608318 0 0 0 0 0 0 0 0 0 0 0 -0.3101050797408 -0.445232047173779 0 0 0 0 -0.616537486772859 0 0 0 0 0 -0.379985759992134 0 0 0 -0.29451274303922 0
0.110256883707591 0.693877507295931 0 0 0 0 0 0 0 0 0 0 0 0 0 0 0 0 0 0 -1.17480964212546 0 0 0 0 0 0 0 0 0 -1.11081818623163 0 -1.84288250845515 -0.7397644203972 0 0 0 0 -0.369467706345758 0 0 0 0 0 -0.314943778791386 0 0 0 -5.21740852808305 0
0 0 0 0 0 0 0 0.090460294272173 0.315567482179576 0 0 0 -2.60265375861447 0 0 0 0 0 0 0 -1.0956751619788 -0.411792235153933 0 0 0 0 0 -2.52582405218012 0 0 0 0 0 0 0 0 0 0 0 0 -2.43217348502554 0 0 0 0 0 0 0 0 0
0 0 0 0 0 0 0 0 0 0 0 0 0 0 0 0 0 0 0 0 0 -0.389029437312013 0 0 0 0 0 -1.18797012281427 0 0 0 0 0 0 0 0 0 0 0 0 -2.07556050966326 0 0 0 -0.343937945250256 0 0 0 0 -1.83251817286302
0 0 0 0 0 0 0 0 0 0 0.525618612285521 0 0 0 0 0.345371017618565 0 0 0 0 -1.39640059697332 -1.13495573774832 0 0 0 0 0 0 0 0 -0.654662490627484 0 0 0 0 0 0 0 0 0 -4.20613773828903 0 0 0 -2.36119878340354 0 0 0 0 0
0 0 0 0 0 0 0.44475606405589 0 0 0 0 0 0 0 0 0 0 0 0 0 0 -2.3056302655169 0 0 0 0 0 0 0 0 0 0 -6.70183869269465 0 0 0 0 0 0 0 -0.821298688675761 0 0 0 0 0 0 0 0 -0.426259931082737
0 0 0 0 0 0 0 0 0 0 0 0 0 0 0 0 0 0 0 0 -1.49556880260991 -1.26095792995215 0 0 0 0 0 0 0 0 -4.1991251135324 0 0 0 0 -2.03865704103405 0 0 0 0 0 0 0 0 -5.31162141808214 -0.991046206900583 0 0 0 0
0 0 0 0 0 0 0.638512973128955 0.115677091820458 0 0 0 0 -1.7662535470641 0 0 0 0 0 0 0 -0.32294473113326 -7.40909063357214 0 0 0 0 0 0 0 0 -2.2706178042194 0 -1.69012385794182 0 0 -0.157640321374217 0 0 0 0 -2.76055416141488 0 0 0 0 0 0 0 0 -0.70869314789836
0 0 0 0 0 0 0 0 0 0 0 0 0 0 0 0 0 -0.709315702002989 0 0 -3.05037937338179 0 0 0 0 0 0 0 0 0 0 0 0 0 0 0 0 0 0 0 -0.941148255628757 0 0 0 0 -0.360741648395331 0 0 0 -0.325395912917451
0 0 0 0 0 0 0 0 0 0 0 0 0 0 0 0 0.140741161525045 0 0 0 0 0 0 0 -1.14274832268767 0 0 0 0 0 0 -4.17408700549315 -1.6645443906114 0 0 -1.36001851823069 0 0 0 0 -0.729661811202286 0 0 0 0 0 0 0 0 0
0 0 0 0 0 0 0 0 0 0 0 0 0 0 0 0 0 0 0 0 0 0 0 0 -2.10455111016728 0 0 0 0 0 0 -0.99196691152244 -0.853853458308982 0 0 -0.779112638284168 0 0 0 -0.242410949410508 0 0 0 0 0 0 0 0 0 -1.15683917302949
0 0 0 1.07584854620983 0 0 0 0 0 0 0 0 0 0 0 0 0 0 0 0 0 0 0 0 0 0 0 0 0 0 0 -1.01447899731654 0 0 0 -3.21100501668297 -0.421444292317722 0 0 0 0 0 0 0 0 0 0 0 0 -0.456085855728921
0 0 0 0 0 0.0757909804627115 0.15439332647343 0.680124669004815 0.0531605916250906 0.239227952587348 0.208958397503044 0 0.293855394116446 0 0.30125723560631 0.0675758641401211 0.594697712283037 0 0 0 0 0 0 0 0 0 0 0 0 0 0 -1.97772833911972 0 0 0 -0.328277843224345 -0.721012014856143 0 0 0 -0.882676045773156 0 0 0 0 0 0 0 0 0
0 0 0 0 0 0 0 0 0 0 0.0836273485390044 0.0781233811875889 0.245308369201387 0.503864894415889 0.273535424927371 1.4886187059344 0 0 0 0 0 0 0 0 0 -1.82183483590594 0 0 0 -0.432945911954604 0 0 0 0 0 -0.638627324104203 0 0 0 0 0 0 -0.88982431159935 0 0 0 0 0 0 -1.17654993361411
0.22108797826375 0.146409538819472 0 0 0 0 0 0 0 0 0 0 0 0 0 0 0 0 0 0 0 0 0 0 0 -1.49192777235851 0 0 -2.50025025051854 0 0 0 0 0 0 0 -1.48642839596267 0 0 0 0 0 0 0 0 0 0 -2.59032985681361 0 0
0 0 0 0 0 0 0 0 0 0 0 0 0 0 0 0 0 0 0 0 0 0 0 0 0 0 0 0 0 0 0 0 0 0 -1.44212890719859 0 -0.121272377034431 0 0 0 0 0 0 -1.2794180828608 0 0 0 0 0 0
0 0 0 0 0 0 0 0 0 0 0 0 0 0 0 0 0 0.237817181416786 0.437909245239448 0 0 0 0 0 0 0 0 0 0 0 0 0 0 0 0 0 -0.840966914180079 0 0 0 0 0 0 -4.52921386843809 0 0 0 0 0 0
0 0 0 0 0 0 0 0 0 0 0 0 0 0 0 0 0 0 0 0 0 0.394640045306458 0.290163664635103 0 0 0 0 0 0 0 0 0 0 0 0 0 -0.479397667217382 0 0 0 0 0 0 -0.94016933950567 0 0 0 0 0 0
0 0 0 0 0 0 0 0 0 0 0 0 0 0 0 0 0 0 0 0 0 0 0 0 0 0 0 0 0 0 0 0 0 0 0 0 -3.60470802197402 0 0 0 0 0 0 -1.54085824301275 0 0 0 0 0 0
0 0 0 0 0 0 0 0 0 0 0.509054473124637 0.256976210631065 0 0 0 0 0 0 0 0 0 0 0 0 0 0 0 0 0 0 0 0 0 0 0 0 -8.50496784168681 0 0 0 0 0 0 0 0 0 0 0 0 0
0 0 0 0 0 0 0 0 0 0 0 0 0 0 0 0 0 0 0 0 0 0 0.475833926017011 0 0 0 0 0 0 0 0 0 0 0 0 0 -0.455035893569821 0 0 0 0 0 0 0 0 0 0 0 0 0
0 0 0 0 0 0 0 0 0 0 0 0 0 0 0 0 0 0 0 0 0 0.0776922192440892 0 0 0 0 0 0 0 0 0 0 0 0 0 0 -3.38091009696533 0 0 0 0 0 0 -0.724289780912383 0 0 0 0 0 0
0 0 0 0.0604231623589685 0.0589258576038318 0.487984019975881 0.134265499358285 0 0 0.233337129925617 0 0 0.131256498291752 0 0.772729810320283 0.444951819910974 0 0 0 0 0 0 0 0 0 0 0 0 0 0 0 0 0 0 0 0 -1.20146190423086 0 0 0 0 0 0 -1.13349435580943 0 0 0 0 0 0
0 0 0 0 0 0 0 0 0 0 0 0 0 0 0 0 0 0.804811940572851 0.197662899679078 0.194127538026753 0.373309572080351 0 0 0 0 0 0 0 0 0 0 0 0 0 0 0 -0.949552361739644 0 0 0 0 0 0 0 0 0 0 0 0 0
0 0 0 0 0 0 0 0 0.0623061854881943 0.380831748973777 0 0 0 1.33290089477646 0 0.357079349729805 0 0.347065284816027 0.16888920897092 0 0 0 0 0 0 0 0 0 0 0 0 0 0 0 0 0 -0.816978035128872 0 0 0 0 0 0 -1.54674989421729 0 0 0 0 0 0
0 0.0458223626661736 0 0 0.10729498567447 0 0 0.0701668135586479 0.0907478046110167 0.149794122904944 0 0 0 0 0 0 0 0 0 0 0 0 0 0 0 0 0 0 0 0 0 0 0 0 0 0 -1.83708820135794 0 0 0 0 0 0 -1.7959329802711 0 0 0 0 0 0
0 0 0 0 0 0 0 0 0 0 0 0 0 0 0 0 0 0 0 0 0 0 0 0.280030992253568 0 0 0 0 0 0 0 0 0 0 0 0 -1.33646531961251 0 0 0 0 0 0 0 0 0 0 0 0 0
0 0 0 0 0 0 0 0 0 0 0 0 0 0 0.399331155578407 0.0295124903912053 0 0.264992623442538 0.157354880573494 0.666025729345322 0.0692085847095254 0.137968366555547 0 0 0 0 0 0 0 0 0 0 0 0 0 0 -1.02261533410458 0 0 0 0 0 0 0 0 0 0 0 0 0
0 0 0 0 0 0 0 0 0 0 0 0 0 0 0 0 0 0 0 0.0861643519344502 0.145802349344763 0 0.260034376521904 0.0237577628552291 0.166489390494629 0.100385771564169 0.748371881245245 1.62911796154873 0.0898877977609918 0.683185824450456 0.230192489182357 0.204052762411164 0.170477279911991 0.369978207776518 0.247971928523531 0.199909488916695 0 1.32124787286977 0 0.848849746677028 0.10014078377469 0.126418742835243 0 -1.18828350905042 0 0 -6.67549503817627 0 0 0
0 0 0 0 0 0 0 0 0 0 0 0 0 0 0 0 0 0 0 0 0 0 0 0 0 0 0 0 0 0 0 0 0 0 0 0 -6.33174365059522 0 0 0 0 0 0 -1.64667600017273 0 0 -0.755146675373748 0 0 0
0 0 0 0 0 0 0 0 0.114097932953273 0.077664583733587 0 0 0 0 0 0 0 0 0 0 0 0 0 0 0 0 0 0 0 0 0 0 0 0 0 0 0 0 0 0 0 0 0 -0.876875627407066 0 0 -1.70006807488067 0 0 0
0 0 0 0 0 0 0 0 0 0 0 0 0 0 0 0 0 0 0.0501533491711877 0 0 0 0 0 0 0 0 0 0 0 0 0 0 0 0 0 -3.93918090082379 0 0 0 0 -1.8101521869326 0 0 0 0 0 0 0 0
0 0 0 0 0 0 0 0 0 0 0.481887863059056 0.410094652681029 0.829067665522756 0.171529848968172 0 0.508547447982126 0.19239714883716 0.138121593401644 0 0 0.174148541661422 0 0 0 0 0 0 0 0 0 0 0 0 0 0 0 -0.481180878877439 0 0 0 0 -3.04257648242503 0 0 0 0 0 0 0 0
0 0 0 0 0 0 0 0 0 0 0 0 0 0 0 0 0 0 0 0 0 0 0 0 0 0 0 0 0 0 0 0 0 0 0 0 -0.650989317170983 0 0 0.365959888478213 0.521193397898415 0 0.433156692918695 0 0 0 0 0 0 0
0 0 0 0 0 0 0 0 0 0 0 0 0 0 0 0 0 0 0 0 0 0.178952144235402 0 0 0 0 0 0 0 0 0 0 0 0 0 0 0 0 0 0 0 -1.97964061382287 0 0 0 0 0 0 0 0
0 0 0 0 0 0 0 0 0 0 0 0 0 0 0 0 0 0 0 0 0 0 0 0.259613357128493 0.861475956527473 0.19003495165275 0.318466597508834 0 0 0.147106904036871 0.238686776174433 0 0.344136639854286 0.338316430645889 0 0 0.245891141039694 0.321131417516898 0.191409847211723 0 0 0 0 0 0 0 0 0 0 0
0 0 0 0 0 0.223898355252101 0 0.197503234613525 0.0810719007260905 0.0597211195288649 0 0.0647223417224582 0.464259666138285 0 1.03058683058002 0 0 0 0 0 0 0 0 0 0 0 0 0 0 0 0 0 0 0 0 0 0 0 0 0 0 0 0 0 0 0 0 0 0 0
0 0 0 0 0 0 0 0 0 0 0 0 0 0 0.194631825471887 0 0.0799075623840416 0 0 0 0 0 0 0 0 0 0 0 0 0 0 0 0 0 0 0 0 0 0 0 0 0 0 0 0 0 0 0 0 0
0 0 0 0 0 0 0 0 0 0 0 0 0 0 0 0 0 0 0 0 0 0 0 0 0 0 0 0 0 0 0 0 0 0 0 0 1.42820917521431 0.166251665517026 0.329819570139706 0 0 0 0 0 0 0 0 0 0 0
0 0 0 0 0 0 0 0 0 0 0 0 0 0 0 0 0 0 0 0 0 0 0.523847904475073 0 0 0 0 0 0 0 0 0 0 0 0 0 0 0 0 0 0 0 0 0 0 0 0 0 0 0
0 0 0 0 0 1.14426603481989 0.175937153385395 0 0.0644702213680664 0.999240612621381 0 0 0 0 0 0 0 0 0 0 0 0 0 0 0 0 0 0 0 0 0 0 0 0 0 0 0 0 0 0 0 0 0 0 0 0 0 0 0 0
0 0 0 0 0 0 0 0 0 0 0 0.393029997283828 0 0.0848507901567246 0 0.145479810315131 0.0652986222990487 0 0.216059436431577 0.103155715735612 0 0.231321041874511 0 0 0 0 0 0 0 0 0 0 0 0 0 0 0 0 0 0 0 0 0 0 0 0 0 0 0 0
