1.79762836786291
0.701613586404664
1.87089444616363
0.205052312702894
1.77826337242975
1.5780970894003
1.91718067630395
1.64376684519511
3.44287230610473
1.61680898317669
1.36670214273652
0.543314416804576
1.80382183697557
3.81391813742028
0.514807652132392
2.2430369628871
1.0210423208994
0.801323879344637
0.716783471858315
1.70832023378016
0.34243083956598
0.371164160407432
1.0891217307122
0.503366713245357
1.2098527001026
0.342392925307969
0.172180728308023
1.31376740752145
0.626221504386579
0.173066602458736
1.18662123712759
1.37039014363091
2.75642513409367
0.803854309974918
0.762427391808996
1.1244128506678
1.80478126761669
0.82911716112111
2.90098214113385
0.55795168772882
1.23404821849509
1.61006571895399
1.63763777847778
0.270988514585361
3.47857122066138
1.10596275934555
0.267038239329322
1.29371570329133
2.16512240794733
1.90577145090094
