2.53260073119315
1.24561715978822
0.578527766309494
0.319055469465832
0.207889823053572
1.91048620732636
2.53930346410119
0.118204615977995
0.192872247292765
1.22558893280274
1.13068186801801
0.311363620400054
1.0531622727883
3.63045136633661
2.93308619164155
2.00315528448182
0.112159211745676
0.13014943572499
0.800343094860271
2.37271930355518
0.642679737581262
0.449927891382026
1.62614897931083
0.619413109706588
0.0800904260455028
0.248030418426651
0.634470965360046
0.621230572291363
0.142124061939227
0.197499145447268
0.349478141134184
0.433614567001687
0.792531670131683
0.0551688782342139
0.236019453234493
1.39513167351288
0.0265401508681361
0.828110609170915
0.0768655941341335
1.9081822477105
0.652133597985125
0.656816475100845
0.263823091799384
1.70589910649002
1.11771105467584
0.919608334698608
0.152737544260235
0.0382081505572261
1.13893255261055
3.50604303390888
