1.17776613198347
0.973332214944953
2.01802722919191
0.124209462695433
0.254320797856226
0.321460440439785
0.859779016541941
1.43882871585538
0.382998562023988
1.7653340662442
2.31688724701631
0.782054741288676
2.75157483653819
2.09165892325469
0.723544521683906
2.77137453903655
0.962300424074611
1.3974855452028
3.12291699456956
0.234328764822769
1.56339784588035
0.509267572548909
0.636436134131713
0.865059196724244
1.46357095637534
1.1002742774742
0.125108960516072
0.184601505915794
0.213553971607008
1.92416110305836
0.138062468995465
2.16735940163299
1.97985588976132
0.458108094517736
2.37107554355521
0.256498315467742
0.270525144297395
0.388695532065702
0.342076250832074
1.41202272725582
1.99320357333114
0.53690088648996
10.1606554927718
0.889546029144735
1.70341117876699
0.594219634426094
2.28398972131199
0.499974107380275
2.02126854275718
0.624673590735754
