0 -2.45919882278006 0 0 0 0 0 0 0 0 0 0 0 0 0 0 0 0 0 0 0 0 0 0 0 0 0 -0.780648939419704 0 0 0 0 -4.66593354552345 0 0 0 0 0 0 0 0 0 0 0 0 0 -4.15927853876195 0 0 0
0.501033486165108 0 0 0 0 0 0 0 0 0 0 0 0 0 0 0 0 -1.33654155925941 0 0 0 0 0 0 0 0 0 0 0 0 0 -0.276039006782782 -0.275034046551047 0 0 0 0 0 0 0 0 0 0 0 0 0 -2.53060192347226 0 0 0
0 0 0 0 -0.646667910030269 0 0 0 0 0 0 0 0 0 0 0 0 -1.20699941971523 0 0 0 0 0 0 0 0 0 0 -5.89674465564161 0 0 -1.03418366761805 0 0 0 0 0 0 0 0 0 0 0 0 0 0 -1.29308659006164 0 0 0
0 0 0 0 0 0 0 0 0 0 0 0 0 0 0 0 0 0 0 0 0 0 0 0 0 0 0 0 0 0 0 -0.509878323280523 -0.132088758146927 0 0 0 0 0 0 0 0 0 0 0 0 0 0 0 0 0
0 0 0.130901242083455 0 0 0.135632950907916 0 0 0 0 0 0 0 0 0 0 0 -0.445317565565984 0 0 0 0 0 0 0 -0.61484423710361 0 0 0 -0.563636025947034 0 0 0 0 0 0 0 0 0 0 0 0 0 0 0 0 -0.328389451450374 0 0 0
0 0 0 0 -0.653129835712088 0 0 0 0 0 0 0 0 0 0 0 0 -0.618955031692316 0 0 0 0 0 0 0 -0.69740668083833 0 0 0 -0.755508669868388 0 0 -2.70777810349732 0 0 0 0 0 0 0 0 0 0 0 0 0 0 0 0 0
0 0 0 0 0 0 0 0 0 0 0 -5.9217389590693 -3.55240744404041 -1.10999248775534 0 0 0 0 0 0 0 0 0 0 0 0 0 0 0 -1.57013336632005 0 0 -1.14468436671129 0 0 0 -0.133181351132498 0 0 0 0 0 0 0 0 0 0 0 0 0
0 0 0 0 0 0 0 0 0 0 -0.614759459588619 0 0 0 0 0 0 0 0 0 0 0 0 0 0 0 0 0 0 -1.11429429477532 0 -0.148996873590993 -0.386422564066705 0 0 0 -1.05631195461714 0 0 0 0 0 0 0 0 0 0 0 0 0
0 0 0 0 0 0 0 0 0 0.248144616309629 0 -0.628181785169602 -0.154418719197957 -0.286109924127172 0 0 0 0 0 0 0 0 0 0 0 0 0 0 0 0 0 0 -0.218961753020563 0 0 0 0 0 0 0 0 0 0 0 0 0 0 0 0 0
0 0 0 0 0 0 0 0 -1.21137808775673 0 0 0 -0.663924350475376 -1.64641914614507 0 0 0 0 0 0 0 0 0 0 0 0 0 0 0 -0.487645958652398 0 -0.907342202969522 -0.370315122891688 0 0 0 0 0 0 0 0 0 0 0 0 0 0 0 0 0
0 0 0 0 0 0 0 0.134687302592614 0 0 0 0 0 0 0 0 0 0 0 0 0 0 0 0 0 0 0 0 0 0 0 0 -0.166729005845132 0 0 0 0 0 0 0 0 0 0 0 0 0 0 0 0 0
0 0 0 0 0 0 1.10915864939317 0 0.122083721795959 0 0 0 -0.392909318471434 0 0 0 0 0 0 0 0 0 0 0 0 0 0 0 0 0 0 0 0 0 0 -0.674154653894614 0 0 0 0 0 0 0 0 0 0 0 0 0 0
0 0 0 0 0 0 0.725327565324824 0 0.0301923549614405 0.128258223741564 0 0.0759003430134909 0 0 0 0 -0.811366139608995 0 0 0 0 0 -0.760044991724209 0 -3.28501315359037 0 0 0 0 0 0 0 0 0 0 0 0 -0.872502420092875 0 0 0 0 0 0 0 0 0 0 0 0
0 0 0 0 0 0 0.254779250267112 0 0.0540428386452628 0.350120308559296 0 0 0 0 0 0 0 0 -1.42120910580894 0 0 0 -1.21205654683988 0 0 0 0 0 0 0 0 0 0 0 0 0 0 0 0 0 0 0 0 0 0 0 0 0 0 0
0 0 0 0 0 0 0 0 0 0 0 0 0 0 0 0 0 0 -0.503368447294705 0 0 0 -0.856804967602935 0 0 0 0 0 0 0 0 0 0 0 0 0 0 -1.00868519991818 0 0 0 0 0 0 0 0 0 0 0 0
0 0 0 0 0 0 0 0 0 0 0 0 0 0 0 0 0 0 0 0 0 0 0 0 0 0 -2.12120092892202 0 0 0 0 0 0 0 0 0 0 -5.75454026022634 0 0 0 0 0 0 0 0 0 0 0 0
0 0 0 0 0 0 0 0 0 0 0 0 0.165316978917139 0 0 0 0 0 0 0 -1.79748675617948 0 0 0 -1.56160579412468 0 -0.565380118732379 0 0 0 0 0 0 0 0 0 0 0 0 0 0 0 0 0 0 0 0 0 0 0
0 0.274419436887408 0.233039460377387 0 0.0932003502461252 0.124186827904767 0 0 0 0 0 0 0 0 0 0 0 0 -0.445732191204177 0 0 0 0 0 -0.117917125882625 0 -1.3275870236157 0 0 0 0 0 0 0 0 0 0 0 0 0 0 0 0 0 0 0 0 0 0 0
0 0 0 0 0 0 0 0 0 0 0 0 0 0.264223644217267 0.104327639691981 0 0 0.088623481604529 0 0.362669487808123 0 0 0 0 -1.84166042738434 0 0 0 0 0 0 0 0 0 0 0 0 0 0 0 0 0 0 0 0 0 0 0 0 0
0 0 0 0 0 0 0 0 0 0 0 0 0 0 0 0 0 0 -1.7162486305752 0 0 0 0 0 0 0 -5.85872837582654 0 0 0 0 0 0 0 0 0 0 0 0 0 0 0 0 0 0 0 0 0 0 0
0 0 0 0 0 0 0 0 0 0 0 0 0 0 0 0 0.357666628706671 0 0 0 0 0 0 0 0 0 -5.56098933265068 0 0 0 -0.981982940596293 0 0 0 0 0 0 -5.24427643431388 0 0 0 0 0 -1.16132900745898 0 0 0 0 0 0
0 0 0 0 0 0 0 0 0 0 0 0 0 0 0 0 0 0 0 0 0 0 0 0 0 0 0 0 0 0 0 0 0 0 0 0 0 0 0 0 0 0 0 0 -0.270131643149572 0 0 0 0 0
0 0 0 0 0 0 0 0 0 0 0 0 0.147076906860396 0.252365629843921 0.16414699548451 0 0 0 0 0 0 0 0 0 0 0 0 0 0 0 -4.12525604534458 0 0 0 0 0 0 0 0 0 0 0 0 -0.15523588839232 -0.633434828009007 0 0 0 0 0
0 0 0 0 0 0 0 0 0 0 0 0 0 0 0 0 0 0 0 0 0 0 0 0 0 0 0 0 0 0 -0.868992948185345 0 0 0 0 0 0 0 0 0 0 0 0 -1.93833097410908 0 0 0 0 0 0
0 0 0 0 0 0 0 0 0 0 0 0 0.690592127295116 0 0 0 0.306752193254072 0.0232816558296548 0.381768109694645 0 0 0 0 0 0 0 0 0 0 0 -0.70455162511074 0 0 0 0 0 0 0 0 0 -2.98506674024292 -0.441398348422635 0 0 0 0 0 0 0 0
0 0 0 0 0.126809418673177 0.160960844575936 0 0 0 0 0 0 0 0 0 0 0 0 0 0 0 0 0 0 0 0 0 0 0 0 0 0 0 0 -3.45398586890528 0 0 0 0 0 -0.399588546896103 -0.83842995177046 0 0 0 0 0 0 0 0
0 0 0 0 0 0 0 0 0 0 0 0 0 0 0 0.439338515453352 0.111985528747369 0.267646536746617 0 1.05967106893769 1.05854411176562 0 0 0 0 0 0 0 0 0 -1.50249389521611 0 0 0 0 0 0 0 0 0 -6.3374344961612 0 0 0 0 0 0 0 0 0
0.143537198751958 0 0 0 0 0 0 0 0 0 0 0 0 0 0 0 0 0 0 0 0 0 0 0 0 0 0 0 0 0 0 0 0 0 -0.778445047513968 0 0 0 0 0 0 0 0 0 0 0 0 0 0 0
0 0 1.25746923289155 0 0 0 0 0 0 0 0 0 0 0 0 0 0 0 0 0 0 0 0 0 0 0 0 0 0 0 -0.904624841758909 0 0 0 0 0 0 0 0 0 -1.13615893074346 0 0 0 0 0 0 0 0 -1.13940011328052
0 0 0 0 0.116107842561875 0.161418110750964 0.296397901848772 0.218613613559566 0 0.0995791917067437 0 0 0 0 0 0 0 0 0 0 0 0 0 0 0 0 0 0 0 0 -0.756235212638467 0 0 0 0 0 0 0 -1.36005720185149 -0.615483877276519 -0.450064819320098 0 0 0 0 0 0 0 0 0
0 0 0 0 0 0 0 0 0 0 0 0 0 0 0 0 0 0 0 0 0.198400003354696 0 0.80248400196188 0.177395033930956 0.142787639823246 0 0.286655193115792 0 0.172777577792623 0.159963843219269 0 0 0 0 0 0 0 0 -0.464128285647621 0 0 0 -0.779061880729299 0 0 0 0 0 0 -0.545114939420858
0 0.0582449174243806 0.218790059230995 0.10574338733574 0 0 0 0.0291333378178785 0 0.191559206183301 0 0 0 0 0 0 0 0 0 0 0 0 0 0 0 0 0 0 0 0 0 0 0 0 0 0 0 0 -1.08933548606826 0 0 0 0 0 0 0 0 -3.76104099406314 0 0
0.969984870459593 0.0560338911728449 0 0.023383157758808 0 0.508942767749643 0.238986239559806 0.0802204221905796 0.0417509736422063 0.0730785721317734 0.0326213334238749 0 0 0 0 0 0 0 0 0 0 0 0 0 0 0 0 0 0 0 0 0 0 0 0 0 0 0 -1.15813183813643 0 0 0 0 0 0 0 0 -2.0224404270403 0 0
0 0 0 0 0 0 0 0 0 0 0 0 0 0 0 0 0 0 0 0 0 0 0 0 0 0 0 0 0 0 0 0 0 0 0 0 0 0 -1.36914599433534 0 0 0 0 0 0 0 0 -2.95737029453394 0 -0.294049258700791
0 0 0 0 0 0 0 0 0 0 0 0 0 0 0 0 0 0 0 0 0 0 0 0 0 0.698303929411845 0 0.156010572464708 0 0 0 0 0 0 0 0 0 0 0 0 0 0 0 0 0 0 0 -0.846378768511036 0 -0.571209254223945
0 0 0 0 0 0 0 0 0 0 0 0.130151357748978 0 0 0 0 0 0 0 0 0 0 0 0 0 0 0 0 0 0 0 0 0 0 0 0 0 0 0 0 0 0 0 0 0 0 0 0 0 0
0 0 0 0 0 0 0.0295879753865709 0.23485836754307 0 0 0 0 0 0 0 0 0 0 0 0 0 0 0 0 0 0 0 0 0 0 0 0 0 0 0 0 0 0 0 0 0 0 0 0 0 0 0 0 0 0
0 0 0 0 0 0 0 0 0 0 0 0 0.182649093986589 0 0.191615211512783 1.19516352085358 0 0 0 0 1.05835830522341 0 0 0 0 0 0 0 0 0 0 0 0 0 0 0 0 0 0 0 0 0 0 0 0 -0.313767744011573 0 0 0 0
0 0 0 0 0 0 0 0 0 0 0 0 0 0 0 0 0 0 0 0 0 0 0 0 0 0 0 0 0 0.299058777404768 0.0984903281861802 0.225513008669432 0.251686747064819 0.259157411093994 0 0 0 0 0 0 0 0 0 0 0 -0.8742445800388 0 0 0 0
0 0 0 0 0 0 0 0 0 0 0 0 0 0 0 0 0 0 0 0 0 0 0 0 0 0 0 0 0 0.124378011244164 0 0 0 0 0 0 0 0 0 0 0 0 0 0 0 0 0 0 0 0
0 0 0 0 0 0 0 0 0 0 0 0 0 0 0 0 0 0 0 0 0 0 0 0 0.595204813924061 0.0780029808479186 1.24020006373697 0 0.238661339446991 0.0900026951028954 0 0 0 0 0 0 0 0 0 0 0 0 0 0 0 0 0 0 0 0
0 0 0 0 0 0 0 0 0 0 0 0 0 0 0 0 0 0 0 0 0 0 0 0 0.0843780061275776 0.161110386997349 0 0 0 0 0 0 0 0 0 0 0 0 0 0 0 0 0 0 0 0 0 0 0 0
0 0 0 0 0 0 0 0 0 0 0 0 0 0 0 0 0 0 0 0 0 0 0 0 0 0 0 0 0 0 0.142347396785774 0 0 0 0 0 0 0 0 0 0 0 0 0 0 0 0 0 -1.24474341042546 0
0 0 0 0 0 0 0 0 0 0 0 0 0 0 0 0 0 0 0 0 0.216491543826057 0 0.0300337350291603 0.395069504622603 0 0 0 0 0 0 0 0 0 0 0 0 0 0 0 0 0 0 0 0 0 0 0 0 -0.311098586106782 0
0 0 0 0 0 0 0 0 0 0 0 0 0 0 0 0 0 0 0 0 0 0.0495212811250626 0.130002041825781 0 0 0 0 0 0 0 0 0 0 0 0 0 0 0 0 0 0 0 0 0 0 0 0 0 0 0
0 0 0 0 0 0 0 0 0 0 0 0 0 0 0 0 0 0 0 0 0 0 0 0 0 0 0 0 0 0 0 0 0 0 0 0 0 0.0592429167162605 0.179389937397155 0 0 0 0 0 0 0 0 0 -3.25283620850613 0
0.813716363985828 0.516323013990925 0.259495030230938 0 0.063525532389635 0 0 0 0 0 0 0 0 0 0 0 0 0 0 0 0 0 0 0 0 0 0 0 0 0 0 0 0 0 0 0 0 0 0 0 0 0 0 0 0 0 0 0 0 0
0 0 0 0 0 0 0 0 0 0 0 0 0 0 0 0 0 0 0 0 0 0 0 0 0 0 0 0 0 0 0 0.766342393889876 0.383626638866046 0.566919458657707 0.171390172334785 0 0 0 0 0 0 0 0 0 0 0 0 0 -0.408495691411987 0
0 0 0 0 0 0 0 0 0 0 0 0 0 0 0 0 0 0 0 0 0 0 0 0 0 0 0 0 0 0 0 0 0 0 0 0 0 0 0 0 0 0 0.249842039705822 0.0640497214464605 0 0.667557279744899 0 0.0823927375853376 0 0
0 0 0 0 0 0 0 0 0 0 0 0 0 0 0 0 0 0 0 0 0 0 0 0 0 0 0 0 0.212480410315207 0 0.118791951474094 0 0 0.0545494828259831 0.113402358692239 0 0 0 0 0 0 0 0 0 0 0 0 0 0 0
