0.173292591386936
0.696321831275645
0.431294452574943
0.589000673771653
0.158611447633958
0.256705609085752
0.62500908409498
0.422250662479919
0.21525042141596
0.312560497382664
0.825202478691022
0.287843089048432
0.129140878987049
1.14059606497131
0.181914531824204
0.842742813557346
0.123224836394589
0.139388240752354
2.02243777252936
0.693658835447153
0.0964306210069024
2.2084666834989
0.429863308002199
0.112936540056316
0.470773902753382
1.04068655043284
0.155161533796979
0.399921799789855
0.449415593489274
1.78742257082883
0.225521629195524
3.67915384126467
2.14398198617416
0.639924602567954
0.547508695528431
1.03428506246589
0.701861440351949
0.140904159486164
0.452008848427942
0.0917552578496203
1.24988579023906
0.130195334211881
0.221065822901774
3.23670309678646
0.157354182639357
0.66379261655751
1.05056537108844
3.6349574919249
0.876525415453578
2.53879160843789
