0.128054567605239
3.39061158637909
1.74789837213789
0.377980858865478
1.04021895635812
0.362125079338082
0.521978694025494
0.608960282229472
1.18829247310113
1.85268316703279
0.581249985416163
1.38704145761636
3.43286511774204
1.04112532837076
2.65222973171657
1.29776806530795
0.717799148544884
0.222720088375239
1.21579215642505
0.392697076449084
1.38988612960018
0.398524556933181
0.907220150470601
2.33271348389999
0.219044075866644
2.4233176230819
0.680025115311384
0.686947152113891
0.755301714791642
0.893444403096269
1.13590251806229
1.03315441976136
0.62032305631463
0.333760642221826
2.1148209521821
0.345109403471776
0.765048148719936
0.642849316549231
0.902935448022957
0.793319282498459
0.285346104909499
0.768369143218976
2.20899086624578
2.45884691876535
2.32033318737861
1.75349880331005
1.7701665607189
1.4272056985114
2.60585658648767
2.12342535052458
