0 0 0 0 0 0 0 0 0 0 0 0 0 0 0 -1.551466340546 0 0 0 0 0 0 0 0 0 0 0 0 0 0 0 0 0 0 0 0 0 0 0 0 0 0 0 0 0 0 0 0 0 0
0 0 0 0 0 0 0 0 0 0 0 0 0 0 0 -0.644569913283154 0 0 0 0 0 0 0 0 0 0 0 0 0 0 0 0 0 0 0 0 0 0 0 0 0 0 0 0 0 0 0 0 0 0
0 0 0 0 0 0 0 0 0 0 0 0 0 0 0 -0.23615884495293 0 0 0 0 0 0 0 0 0 0 0 0 0 0 0 0 0 0 0 0 0 0 0 0 0 0 0 0 0 0 0 0 0 0
0 0 0 0 0 0 0 0 0 0 0 0 0 0 0 -5.64739653108961 0 0 0 0 0 0 0 0 0 0 0 -0.232722274057234 0 0 0 0 0 0 0 0 0 0 0 0 0 0 0 0 0 0 0 0 0 0
0 0 0 0 0 0 0 0 0 0 0 0 0 0 0 0 0 0 0 0 0 0 -0.637973871520597 0 0 0 0 -0.910194262874262 -0.883366381674035 0 0 0 0 0 0 0 0 0 0 0 -1.25104587206542 0 0 0 0 0 0 0 0 0
0 0 0 0 0 0 0 0 0 -0.699272784891196 0 0 0 0 0 0 0 0 0 0 0 0 0 -1.69790796495499 0 0 0 0 -0.199408721680803 0 0 0 0 0 0 0 0 0 0 0 -0.39901767936214 0 0 0 0 0 0 0 0 0
0 0 0 0 0 0 0 0 -0.144230123247722 -1.3222609976785 0 0 0 0 0 0 0 0 0 0 0 0 0 0 0 0 0 0 0 0 0 0 0 0 0 0 0 0 0 0 -0.276542209807699 0 0 0 0 0 0 0 0 0
0 0 0 0 0 0 0 0 0 0 0 0 -1.56377536518723 -0.562309149756673 0 0 0 0 0 0 0 0 0 0 0 0 -0.901772765979436 0 0 0 0 -6.4830075370899 0 -1.16931851490996 0 0 0 0 0 0 -0.469765175994485 0 0 0 0 0 0 0 0 0
0 0 0 0 0 0 0.0286121078153617 0 0 0 0 0 -3.66981752019705 -1.40791421490027 0 0 0 -1.15537784613007 0 0 0 0 0 0 -1.17879222332684 0 -0.80782053748799 0 0 0 0 -0.383982377026109 0 -4.95503355321019 0 0 0 0 0 0 -0.782836074221725 0 0 0 0 0 0 0 0 0
0 0 0 0 0 0.140240043118148 0.285892383040852 0 0 0 0 0 0 -1.89947868068668 0 0 -1.41559944948598 -3.1088398779911 0 0 0 0 0 0 0 0 0 0 0 -1.18566677444988 0 0 0 0 0 0 0 0 0 0 -0.586569866691082 0 0 0 0 0 0 0 0 0
0 0 0 0 0 0 0 0 0 0 0 0 0 0 0 0 -0.431916677028027 0 0 0 0 0 0 0 0 0 0 0 0 -3.85976355533688 0 0 0 0 0 0 -0.405812097135787 0 0 0 -0.205175014862707 -0.632497444276192 0 0 0 0 0 0 0 0
0 0 0 0 0 0 0 0 0 0 0 0 0 0 0 0 0 0 0 0 0 0 0 0 0 0 0 0 0 -1.13786897646924 0 -1.51538793860997 0 0 0 0 -0.477615339468329 0 0 0 0 -1.15323708921496 0 0 0 0 0 0 0 0
0 0 0 0 0 0 0 0.312523466935218 0.723901417393016 0 0 0 0 0 0 0 0 0 0 0 0 0 0 0 -3.68008365688775 0 0 0 0 -0.488095417271011 0 -1.12730866672307 0 0 0 0 0 -1.17777240175117 0 0 0 -0.423999028502053 0 0 0 0 0 0 0 0
0 0 0 0 0 0 0 0.123112006331546 0.281963851167562 0.362778897081329 0 0 0 0 0 0 0 0 0 0 0 0 0 0 0 0 0 0 0 0 0 -0.15819881033863 0 0 0 0 -0.755435678656969 0 0 0 0 -0.240655783077971 0 0 0 0 0 0 0 0
0 0 0 0 0 0 0 0 0 0 0 0 0 0 0 0 0 0 0 0 0 0 0 0 0 0 0 0 0 -0.1421302146017 0 0 0 0 0 0 0 0 -0.526638490881277 0 0 0 0 0 0 0 0 0 0 0
0.295004895366369 0.132958268529125 0.0474977001994158 1.14131083878037 0 0 0 0 0 0 0 0 0 0 0 0 0 0 0 0 0 0 0 0 0 0 0 0 0 0 0 0 0 0 0 0 0 0 -5.29205925437538 0 0 -1.8775104611156 0 0 0 0 0 0 0 0
0 0 0 0 0 0 0 0 0 0.30753804078643 0.0858288350953028 0 0 0 0 0 0 0 0 0 0 0 0 0 0 0 0 0 0 -1.61840080093073 0 0 0 0 0 0 0 0 -2.08681542474901 0 0 0 0 0 0 0 0 0 0 0
0 0 0 0 0 0 0 0 0.22409830404551 0.650875224303985 0 0 0 0 0 0 0 0 0 0 0 0 0 0 0 0 0 0 0 -5.02653627981706 0 0 0 0 0 0 0 0 -2.99095571067649 0 0 -1.41765860477778 0 0 0 0 0 0 0 0
0 0 0 0 0 0 0 0 0 0 0 0 0 0 0 0 0 0 0 0 0 -0.434468288854334 0 0 0 0 0 0 0 0 0 0 0 0 0 0 0 0 0 0 0 0 0 0 0 0 0 0 -0.891209548703234 0
0 0 0 0 0 0 0 0 0 0 0 0 0 0 0 0 0 0 0 0 0 0 0 0 0 0 0 0 0 -0.520744818051479 0 0 0 0 0 0 0 0 0 -0.738447392462359 0 0 0 0 0 0 0 0 -2.26225968092107 0
0 0 0 0 0 0 0 0 0 0 0 0 0 0 0 0 0 0 0 0 0 0 0 0 0 0 0 0 0 0 0 0 0 0 0 0 0 0 -3.64857176535449 -1.60852387783907 0 -0.625762926830037 0 0 0 0 0 0 -0.1789275870253 0
0 0 0 0 0 0 0 0 0 0 0 0 0 0 0 0 0 0 0.0887908521628951 0 0 0 0 0 0 0 0 0 0 0 0 0 0 0 0 0 0 0 0 0 0 -1.21623583691973 0 0 0 0 0 0 0 0
0 0 0 0 0.135922651629856 0 0 0 0 0 0 0 0 0 0 0 0 0 0 0 0 0 0 0 0 0 0 0 0 0 -2.07924891620469 0 0 0 0 0 0 0 -0.562043497922074 0 0 -1.81859953520301 0 0 0 0 0 0 -2.02615472150418 0
0 0 0 0 0 0.35555377583559 0 0 0 0 0 0 0 0 0 0 0 0 0 0 0 0 0 0 0 0 0 0 0 0 0 0 0 0 0 0 0 0 -0.504742800860754 -0.936441834078992 0 -2.09061152922152 0 0 0 0 0 0 -1.32408399986687 0
0 0 0 0 0 0 0 0 0.237176980504685 0 0 0 0.713613986030719 0 0 0 0 0 0 0 0 0 0 0 0 0 0 0 0 0 -0.44463719273653 0 0 0 -0.925586041244021 0 0 0 -0.213637470596533 -0.240517465151291 0 -2.00027001605321 0 0 0 0 0 -0.385020727603715 0 0
0 0 0 0 0 0 0 0 0 0 0 0 0 0 0 0 0 0 0 0 0 0 0 0 0 0 0 0 0 0 -0.719625345575145 0 0 0 -1.02806026723255 0 0 0 -0.216401461631951 0 0 -0.835348383561864 0 0 0 0 0 -0.553578528654246 0 -0.982541073574816
0 0 0 0 0 0 0 0.157198978825073 0.159717795316591 0 0 0 0 0 0 0 0 0 0 0 0 0 0 0 0 0 0 0 0 0 -0.448379840711598 0 0 0 0 0 0 0 -0.130851806002715 0 0 0 0 0 0 0 0 -0.821908880861998 0 -0.820126097359181
0 0 0 0.0472287488709863 0.186870185471885 0 0 0 0 0 0 0 0 0 0 0 0 0 0 0 0 0 0 0 0 0 0 0 0 0 -2.46851299175533 0 0 0 -0.687552215043385 0 0 0 0 -2.26447645168578 0 0 0 0 0 0 0 0 0 -0.890643444244819
0 0 0 0 0.18222468624928 0.0371152807924034 0 0 0 0 0 0 0 0 0 0 0 0 0 0 0 0 0 0 0 0 0 0 0 0 0 0 -2.57166203706785 0 -0.267196493025416 0 0 0 0 -0.850864215550837 0 0 0 0 0 0 0 -0.135614380729962 0 -0.451078948151692
0 0 0 0 0 0 0 0 0 0.220575434511913 0.817278621049943 0.220035811383196 0.0927013932848395 0 0.0283737120771792 0 0.317135629543793 0.983597676831166 0 0.105969847998953 0 0 0 0 0 0 0 0 0 0 0 0 -4.20219472276155 0 -1.42877987289407 0 0 0 0 0 0 0 0 0 0 0 0 -1.35657376243681 0 -0.446882666899757
0 0 0 0 0 0 0 0 0 0 0 0 0 0 0 0 0 0 0 0 0 0 0.403637073349507 0 0.0925968853909265 0.145301201264845 0.0877642024737784 0.456026252210188 0 0 0 0 -3.87422519370119 0 -4.73857613173071 0 0 0 0 0 0 0 0 0 0 0 0 -2.50675598176875 0 0
0 0 0 0 0 0 0 1.33040684747271 0.0845729623398154 0 0 0.291289572946973 0.201269716707494 0.0330934315083764 0 0 0 0 0 0 0 0 0 0 0 0 0 0 0 0 0 0 -2.87096826507771 0 -0.414628957751506 0 0 0 0 0 0 0 0 0 0 0 0 -4.82444838451147 0 0
0 0 0 0 0 0 0 0 0 0 0 0 0 0 0 0 0 0 0 0 0 0 0 0 0 0 0 0 0.502637225118047 0.811478180560232 0.79876292757742 0.626122279144033 0 0 0 0 0 0 0 0 0 0 0 0 0 0 0 -0.236845547896393 0 0
0 0 0 0 0 0 0 0.225726728224305 0.898290435125444 0 0 0 0 0 0 0 0 0 0 0 0 0 0 0 0 0 0 0 0 0 0 0 0 0 0 0 0 0 0 0 0 0 -0.228625089031164 0 0 -1.25505109975367 0 0 0 0
0 0 0 0 0 0 0 0 0 0 0 0 0 0 0 0 0 0 0 0 0 0 0 0 0.184255037717016 0.199779390036349 0 0.148556402100898 0.0573862051149579 0.280885368539655 0.939695898804336 0.0823067125306187 0 0 0 0 0 0 0 0 0 0 0 0 0 -0.842625111445085 -2.63750668882216 0 0 0
0 0 0 0 0 0 0 0 0 0 0 0 0 0 0 0 0 0 0 0 0 0 0 0 0 0 0 0 0 0 0 0 0 0 0 0 0 0 0 0 0 0 0 0 0 0 -0.741725240975624 0 0 0
0 0 0 0 0 0 0 0 0 0 0.0834361866187516 0.0966483388333301 0 0.14797789066253 0 0 0 0 0 0 0 0 0 0 0 0 0 0 0 0 0 0 0 0 0 0 0 0 0 0 0 0 0 0 0 -1.23681779444988 -8.88959910521577 0 0 0
0 0 0 0 0 0 0 0 0 0 0 0 0.22523549286929 0 0 0 0 0 0 0 0 0 0 0 0 0 0 0 0 0 0 0 0 0 0 0 0 0 0 0 0 0 0 0 -1.08473872177773 0 0 0 0 0
0 0 0 0 0 0 0 0 0 0 0 0 0 0 0.106638138233567 1.01038207203252 0.424629665723373 0.652779653801797 0 0 0.742623601026858 0 0.113969086848339 0.101181233651873 0.0450813324914183 0.0452854019286198 0.0257177000763793 0 0 0 0 0 0 0 0 0 0 0 0 0 0 0 0 0 0 0 0 0 0 0
0 0 0 0 0 0 0 0 0 0 0 0 0 0 0 0 0 0 0 0.159864352804434 0.282315799420697 0 0 0.182797717293255 0.0456258128758148 0 0 0.473172312701433 0.175679696849809 0 0 0 0 0 0 0 0 0 0 0 0 0 0 0 -0.274556403084585 0 0 0 0 0
0 0 0 0 0.258510621973854 0.078673157098441 0.0499612711446688 0.0982885875235385 0.16862113981411 0.120205282189385 0.0428876612781053 0 0 0 0 0 0 0 0 0 0 0 0 0 0 0 0 0 0 0 0 0 0 0 0 0 0 0 0 0 0 0 0 0 -4.27824863706041 0 0 0 0 0
0 0 0 0 0 0 0 0 0 0 0.117260069315044 0.202487555278034 0.0866845878004169 0.0473310211549171 0 0.374041093483082 0 0.292448407622366 0 0 0.11667840730611 0.234847693083296 0.375915634318887 0.443180580375118 0.422218223512275 0.170699886899303 0 0 0 0 0 0 0 0 0 0 0 0 0 0 0 0 0 0 -0.63302971889166 0 0 0 0 0
0 0 0 0 0 0 0 0 0 0 0 0 0 0 0 0 0 0 0 0 0 0 0 0 0 0 0 0 0 0 0 0 0 0.0485059828811679 0 0 0 0 0 0 0 0 0 0 -0.622293004850764 0 0 0 0 0
0 0 0 0 0 0 0 0 0 0 0 0 0 0 0 0 0 0 0 0 0 0 0 0 0 0 0 0 0 0 0 0 0 0 0 0 0 0 0 0 0 0 0 0 -0.600581020491287 0 0 0 0 0
0 0 0 0 0 0 0 0 0 0 0 0 0 0 0 0 0 0 0 0 0 0 0 0 0 0 0 0 0 0 0 0 0 0 0 0 0 0.205832987796461 0 0.0578538187208812 0.921880593881766 0.137667926168815 0.132252521192298 0.127463815784074 0 0.313991675203003 0 0.0628421066737879 0 0
0 0 0 0 0 0 0 0 0 0 0 0 0 0 0 0 0 0 0 0 0 0 0 0 0 0 0 0 0 0 0 0 0 0.237978960791764 0.155501872474246 0 0.229082675755532 0 0 0 0 0 0 0 -1.5411119873661 0 0 0 0 0
0 0 0 0 0 0 0 0 0 0 0 0 0 0 0 0 0 0 0 0 0 0 0 0 0 0 0 0 0 0 0 0 0 0 0.545602489015186 0.139860652749388 1.85663138982179 0 0 0 0 0 0 0 0 0 0 0 0 0
0 0 0 0 0 0 0 0 0 0 0 0 0 0 0 0 0 0 0 0 0 0 0 0 0.0797323632843119 0.118289325442413 0.17739583279274 0 0.0271383314011428 0.283527947793783 0.548478416423423 1.03714439856159 0.0461999649885648 0 0 0 0 0 0 0 0 0 0 0 -0.323963857956128 0 0 0 0 0
0 0 0 0 0 0 0 0 0 0 0 0 0 0 0 0 0 0 0.172804953644036 0.454711626117526 0.0342733974145052 0 0.357109971630581 0.248645125302402 0 0 0 0 0 0 0 0 0 0 0 0 0 0 0 0 0 0 0 0 0 0 0 0 0 0
0 0 0 0 0 0 0 0 0 0 0 0 0 0 0 0 0 0 0 0 0 0 0 0 0 0.200867309518484 0.173592308847256 0.176928283672818 0.0899136825815725 0.0880214309958996 0 0 0 0 0 0 0 0 0 0 0 0 0 0 0 0 0 0 0 0
