1.5159822263294
0.140261895072343
0.20762362705767
0.519540612774289
0.362066876027329
0.962698925224014
0.189347561185365
0.422959114500969
0.829723614303031
0.135002436867455
0.187301270241452
1.16791690848431
1.02903888642612
0.583586133419294
0.21465620384583
0.147604736028747
0.141958000106033
0.115608245581374
0.0390158467144983
1.19533859996558
0.391100892374256
0.73168116601463
1.12327779130685
2.39627177703197
1.26443742782432
0.458745184162779
0.41506608611016
0.408048237621232
0.0831329273452331
0.859299977258097
0.778080332799363
0.200748154364942
1.86135188320774
0.273468778811415
0.866480349666099
0.276079544456317
0.234114015425685
0.447412718754127
0.275356792418725
0.184137729377256
0.874498420300471
0.139481865905903
0.0634754618574093
3.64896181555999
0.0814572258247553
0.0400032981180804
1.49940367437439
0.849293711743141
1.30918284917094
1.78060503470199
