1.35777850301206
0.651868893263854
0.319081703568809
0.922158904669531
0.153095243302594
3.47323138112205
0.072390707453603
3.40240556192737
2.47332330981793
1.34525127018146
2.00864650591993
0.263924086833526
0.631920920282405
0.509490390260689
0.513374759115284
1.0207660591726
2.99804829520807
0.911277480890496
0.481379094955803
0.197490437534169
0.45852931981565
0.358417286660706
1.24734328697024
0.763683767595641
1.72792884438446
3.2526261279795
0.204320523781735
0.362827621442063
0.243889274789387
2.94419903249065
0.560136193178998
0.664156516683214
0.830432383951784
0.373171542215354
0.251855731719515
1.7226334899317
0.169870252237942
2.66641196240206
2.48276771643044
0.649383480689938
0.63629513625568
0.853829930770655
0.210322422337529
0.501715085239363
0.378040417116994
1.28017991547214
0.959974393429629
0.325812121958829
1.20813606168923
3.07323786677276
