0.635719341656412
0.346089314019266
0.993504728034465
3.27744215691874
0.540911015729934
0.774862571684839
3.18198918654128
0.167515714643886
0.566587587017744
1.01436600043102
0.0700709768808511
0.685249752800749
0.459097123114019
0.289989221167512
0.367066730426046
0.419773702806025
0.185422034917422
2.73909468750127
0.8999279217524
1.56229613613781
0.107585974232596
4.49211456014396
0.336146133058448
2.57813521804801
0.954744872024315
0.0736634212710488
2.09972247098104
0.63692813799169
0.569940616261391
1.55359708101451
0.0699111809655703
0.549914097777981
0.858160955655115
0.286729591353221
1.33327297579196
0.159117969447735
0.00648433301672845
0.315678171896047
0.558409642163944
0.059450054766935
0.408160511822549
0.239897457544898
0.448116821422922
0.547608005283832
1.39878442604299
0.16329310150507
0.0493864821736752
1.91377948852898
0.111674246124901
2.82403651428326
