2.55830685787121
0.777078469167945
4.72624136720812
1.86557751333107
2.79460000693644
4.47911741246233
3.73536982475675
1.59290028528797
3.5037916228168
5.35743911091655
0.42592773483463
4.21492717555759
1.10532521092544
0.281711246547447
2.46933092084411
0.36404368846074
0.919448125617555
0.632193341059993
0.516283458559964
2.50959306317111
0.860510965513279
0.850445437387481
2.08771817784165
1.84696973127654
2.08216506801347
2.98791235210237
1.55067309252995
5.38020505489794
1.15528384147395
2.92370892369553
0.485890795398426
1.12117074952354
0.687251650616531
1.12935102550743
1.07283841379871
1.23304667327825
0.543023312128022
0.150756760935528
4.3680298498262
0.588425185189737
0.452395538870437
1.66755442799572
1.56503706802252
6.2578784694093
0.340201516634615
0.172155882958212
1.08297015022052
0.292061522318099
0.318473560103675
2.65470021703572
