0 0 0 0 0 0 0 0 0 0 0 0 0 0 0 0 -1.02000007925031 0 0 0 0 0 0 0 0 0 0 0 0 0 0 0 0 0 0 0 -5.96871762586633 0 0 0 0 0 0 0 0 0 0 0 0 0
0 0 -2.68146614929881 0 0 0 0 0 0 0 0 0 0 -1.44515870994797 0 0 0 0 0 0 0 0 0 0 0 0 0 0 0 0 0 0 0 0 0 0 0 0 0 0 0 0 0 0 0 0 0 0 0 0
0 0.569224589871687 0 0 0 0 0 0 0 0 0 0 0 0 0 0 0 0 0 0 0 -1.26153340980542 0 0 0 0 0 0 0 0 0 0 0 0 0 0 -1.02098042433328 0 0 0 0 0 0 -1.4514857316384 0 0 0 0 0 0
0 0 0 0 0 0 0 0 0 0 0 0 0 0 0 0 0 0 0 0 0 0 0 0 0 0 0 0 0 0 0 0 0 0 0 -0.706480119016172 0 0 0 0 0 0 0 -0.834689743567814 0 0 0 0 0 0
0 0 0 0 0 0 0 0 0 0 0 0 0 0 0 0 0 0 0 0 0 -1.15382398624221 0 0 -1.59644198612528 -2.17448944522722 0 0 0 0 0 0 0 0 0 -2.40502151509744 0 0 0 0 0 0 0 0 0 0 0 0 0 0
0 0 0 0 0 0 0 0 0 -1.58497323384588 0 0 0 0 0 0 0 0 0 0 0 0 0 0 -1.78251954273172 -1.2955531247535 0 0 0 0 0 0 0 0 0 -0.651563129612122 0 0 0 0 0 0 0 0 0 0 0 0 0 0
0 0 0 0 0 0 0 0 0 -0.580327704745402 0 0 0 0 -1.09795627027859 0 0 -0.472488773755266 0 0 0 0 -0.491333853749729 0 -4.23600983604246 0 0 0 0 0 0 0 0 0 0 0 0 0 0 0 0 0 0 0 0 0 -0.675471318783026 0 0 0
0 0 0 0 0 0 0 0 0 -0.925132835680571 0 0 0 0 -0.52768988612378 0 0 -3.44086496678008 0 0 0 0 0 0 0 0 0 0 0 0 0 0 0 0 0 0 0 0 0 0 0 0 0 0 0 0 -0.940449804319908 0 0 0
0 0 0 0 0 0 0 0 0 -1.01046777591407 0 0 0 0 -2.61787249155166 0 0 -2.12215256102984 0 0 0 0 0 0 -0.68265122045959 0 0 0 0 0 0 0 0 0 0 0 0 0 0 0 0 0 0 0 0 0 -1.44719667906333 0 0 0
0 0 0 0 0 0.318106382822684 0.121437536577434 0.203983335185244 0.187845607576842 0 0 0 0 0 0 0 0 0 0 0 0 0 0 0 -2.02129963897741 0 -0.455547869051109 0 0 0 0 0 -0.692002141276255 0 0 -2.17167915399686 0 0 0 0 -1.02217515999125 0 0 0 0 0 0 0 0 0
0 0 0 0 0 0 0 0 0 0 0 0 0 0 0 0 0 0 0 0 -5.10560647343268 0 0 -1.83898056829247 0 0 0 0 0 0 0 0 0 0 0 -0.766849458993144 0 0 0 0 0 0 0 0 0 -0.69392542328635 0 0 0 0
0 0 0 0 0 0 0 0 0 0 0 0 0 0 0 0 0 0 0 0 -3.02185386777546 0 0 0 -1.25724734780279 0 0 0 0 0 0 0 0 0 0 0 0 0 0 0 0 0 0 0 0 0 0 0 0 0
0 0 0 0 0 0 0 0 0 0 0 0 0 0 0 -1.98933538146707 0 0 0 0 -0.575734710342282 0 0 0 0 0 0 0 0 0 0 0 -0.543102869059394 0 0 -2.15193495667245 0 0 0 0 -0.804714372681793 0 0 0 0 -0.326227704734118 -0.956968483578732 0 0 0
0 0.286029437506298 0 0 0 0 0 0 0 0 0 0 0 0 0 0 0 0 0 0 -0.140645767587421 0 0 0 -1.5101970147833 0 0 0 0 0 0 0 -0.255015887773802 0 0 0 0 0 0 0 0 0 0 0 0 -0.352932938582235 0 0 0 0
0 0 0 0 0 0 0.20608962027713 0.105798505764056 0.543544381330198 0 0 0 0 0 0 0 0 0 0 0 0 0 0 0 0 0 0 0 0 0 0 0 0 0 0 0 0 0 0 0 0 0 0 0 0 -3.25182499110277 -0.17097129570832 0 0 0
0 0 0 0 0 0 0 0 0 0 0 0 0.411970367546111 0 0 0 0 0 -1.71254134071369 0 -1.58723125605315 0 0 0 0 0 0 0 0 0 0 0 0 -0.571109101932805 0 0 0 0 0 0 -2.83113390900036 0 0 0 0 0 0 0 0 0
0.198541064824486 0 0 0 0 0 0 0 0 0 0 0 0 0 0 0 0 0 0 0 0 0 0 0 0 0 0 0 0 0 0 0 0 -3.2290092370726 0 0 0 0 0 0 -1.59188209823144 0 0 0 0 -0.310605515844492 0 0 0 0
0 0 0 0 0 0 0.105101871833024 0.670471057579413 0.454215146847895 0 0 0 0 0 0 0 0 0 -0.103333201846498 -0.339359950072348 0 0 0 0 0 0 0 -1.01191789351831 0 0 0 0 0 0 0 0 0 0 0 0 -0.793946774050369 0 0 0 0 0 -0.351076856288882 0 0 0
0 0 0 0 0 0 0 0 0 0 0 0 0 0 0 0.337587025857154 0 0.0221214938122164 0 0.321686498215584 0.188307203369333 0 0 0.377645047795238 0 0 0 -0.659351515377218 0 0 -0.691042078235378 0 0 0 0 0 0 0 0 0 -0.760936968072263 0 0 0 0 -0.945741881401387 -4.8230549281751 0 0 0
0 0 0 0 0 0 0 0 0 0 0 0 0 0 0 0 0 0.0732278996612335 -1.4806306146761 0 0 0 0 0 0 0 0 0 0 0 0 0 0 0 0 0 0 0 -0.279633014380522 0 0 0 0 0 0 0 -3.49967288640606 0 0 0
0 0 0 0 0 0 0 0 0 0 1.18429842188344 0.609763043074226 0.111021045421266 0.025373058523997 0 0.338344386661481 0 0 -0.881538822080785 0 0 0 0 0 0 0 0 -0.276268269939155 0 0 0 0 0 0 0 0 0 0 0 0 0 0 0 0 0 -6.51609949781556 0 0 0 0
0 0 0.263079719161874 0 0.23949927377576 0 0 0 0 0 0 0 0 0 0 0 0 0 0 0 0 0 0 0 0 0 0 -2.78820113000101 0 0 0 0 0 0 0 0 0 0 -0.583804301961269 0 0 0 0 0 0 0 -0.831923320844507 0 0 0
0 0 0 0 0 0 0.101048649218969 0 0 0 0 0 0 0 0 0 0 0 0 0 0 0 0 0 0 0 0 0 0 0 0 0 0 0 0 0 0 0 -0.471297089763252 0 0 -1.85791111640806 0 0 0 0 -0.901921929328659 0 0 0
0 0 0 0 0 0 0 0 0 0 0.388457894662282 0 0 0 0 0 0 0 -1.96354966321511 0 0 0 0 0 0 0 0 0 0 0 0 0 0 0 0 0 0 -1.84201237683688 0 0 0 -0.65958653975125 0 0 0 0 0 0 0 0
0 0 0 0 0.338344772548587 0.328861544259917 0.88885215276988 0 0.128746197597454 0.424787772872206 0 0.257257289681192 0 0.285006928214462 0 0 0 0 0 0 0 0 0 0 0 0 0 0 0 -0.993156575921755 0 0 0 0 0 0 0 0 -0.566664130200139 0 0 0 0 0 0 0 -1.36332147607593 0 0 0
0 0 0 0 0.436640822748016 0.280459012883658 0 0 0 0 0 0 0 0 0 0 0 0 0 0 0 0 0 0 0 0 0 0 0 -1.28531132499574 0 0 0 0 0 0 0 0 0 0 0 0 0 0 0 -0.802941866347838 0 0 0 0
0 0 0 0 0 0 0 0 0 0.0939932845446846 0 0 0 0 0 0 0 0 0 0 0 0 0 0 0 0 0 0 0 0 0 0 0 0 0 0 0 0 0 0 0 -0.477409913880324 0 0 0 0 0 0 0 0
0 0 0 0 0 0 0 0 0 0 0 0 0 0 0 0 0 0.189158723983514 0.139594481725529 0 0.0550724666971328 0.610397262641675 0 0 0 0 0 0 0 0 0 0 0 0 -0.792569605430662 0 0 0 0 0 0 0 0 0 0 -0.664846366191553 0 0 0 0
0 0 0 0 0 0 0 0 0 0 0 0 0 0 0 0 0 0 0 0 0 0 0 0 0 0 0 0 0 0 0 0 0 0 -0.152368675594705 0 0 0 0 -1.06920895270915 0 0 0 0 0 -1.51090433346744 0 0 0 0
0 0 0 0 0 0 0 0 0 0 0 0 0 0 0 0 0 0 0 0 0 0 0 0 0.191841182590276 0.254362231149541 0 0 0 0 0 0 0 0 -3.02195362857144 0 0 0 0 0 0 0 0 0 -2.64545377839631 -1.55792749347577 0 -7.19842719455258 0 0
0 0 0 0 0 0 0 0 0 0 0 0 0 0 0 0 0 0 0.130149860029202 0 0 0 0 0 0 0 0 0 0 0 0 0 0 0 0 0 0 0 0 0 0 0 0 0 0 -0.549975961597482 0 0 0 0
0 0 0 0 0 0 0 0 0 0 0 0 0 0 0 0 0 0 0 0 0 0 0 0 0 0 0 0 0 0 0 0 0 0 0 0 0 0 0 0 0 0 0 0 -0.247854807477903 0 0 -1.89982671009624 0 0
0 0 0 0 0 0 0 0 0 0.131745149023725 0 0 0.109692632961655 0.0478809876515071 0 0 0 0 0 0 0 0 0 0 0 0 0 0 0 0 0 0 0 0 -0.188467726832989 0 0 0 0 0 0 0 0 0 0 0 0 0 0 0
0 0 0 0 0 0 0 0 0 0 0 0 0 0 0 0.107430841352709 0.621829087675862 0 0 0 0 0 0 0 0 0 0 0 0 0 0 0 0 0 -2.23195272306975 0 0 0 0 0 0 0 0 0 -0.0460163388288439 0 0 -5.99515156261428 0 0
0 0 0 0 0 0 0 0 0 0 0 0 0 0 0 0 0 0 0 0 0 0 0 0 0 0 0 0.15117142568252 0.031353486670015 0.593029702186454 0 0 0.0379911356417621 0.455853053954739 0 0 0 0 0 0 0 0 0 0 0 0 0 0 0 0
0 0 0 0.143157805917021 0.456792158995271 0.130072777627974 0 0 0 0.438253428029004 0.161610397967234 0 0.420127190150587 0 0 0 0 0 0 0 0 0 0 0 0 0 0 0 0 0 0 0 0 0 0 0 0 0 0 0 0 0 0 0 0 0 0 -1.96063852145639 0 0
1.28390294119698 0 0.20315562222752 0 0 0 0 0 0 0 0 0 0 0 0 0 0 0 0 0 0 0 0 0 0 0 0 0 0 0 0 0 0 0 0 0 0 0 0 0 0 0 0 0 -0.292564289441041 0 0 0 0 0
0 0 0 0 0 0 0 0 0 0 0 0 0 0 0 0 0 0 0 0 0 0 0 0.352112310165384 0 0 0 0 0 0 0 0 0 0 0 0 0 0 0 0 0 0 0 0 0 0 0 -1.17082761214076 0 0
0 0 0 0 0 0 0 0 0 0 0 0 0 0 0 0 0 0 0 0.0568420161722857 0 0.117239754749508 0.0972870529998301 0 0.105672184203342 0 0 0 0 0 0 0 0 0 0 0 0 0 0 0 0 0 -0.538847051339362 0 0 0 0 -0.508796330323203 0 0
0 0 0 0 0 0 0 0 0 0 0 0 0 0 0 0 0 0 0 0 0 0 0 0 0 0 0 0 0.201282145717692 0 0 0 0 0 0 0 0 0 0 0 0 0 -3.63570169037117 0 0 0 0 -0.221277234938833 0 0
0 0 0 0 0 0 0 0 0 0.212697215728641 0 0 0.175113377044256 0 0 0.536074901253108 0.315341013606573 0.157155793130084 0.132752664291574 0 0 0 0 0 0 0 0 0 0 0 0 0 0 0 0 0 0 0 0 0 0 0 0 0 -1.38857486947426 0 0 0 -0.848731051197033 0
0 0 0 0 0 0 0 0 0 0 0 0 0 0 0 0 0 0 0 0 0 0 0.381379649338062 0.130618698956288 0 0 0.0930712863128383 0 0 0 0 0 0 0 0 0 0 0 0 0 0 0 0 0 0 0 0 -0.694653397666892 -0.604376142208608 0
0 0 0 0 0 0 0 0 0 0 0 0 0 0 0 0 0 0 0 0 0 0 0 0 0 0 0 0 0 0 0 0 0 0 0 0 0 0 0.109846868042232 0.65314592672866 0 0 0 0 0 0 0 0 0 0
0 0 0.291580598628009 0.159713239667512 0 0 0 0 0 0 0 0 0 0 0 0 0 0 0 0 0 0 0 0 0 0 0 0 0 0 0 0 0 0 0 0 0 0 0 0 0 0 0 0 0 0 0 -0.483301333265656 -4.78947471344345 0
0 0 0 0 0 0 0 0 0 0 0 0 0 0 0 0 0 0 0 0 0 0 0 0 0 0 0 0 0 0.469636312933336 0 0.0489981033463693 0 0.00954923319710368 0 0 0.0548320603502069 0 0 0 0.274582353284031 0 0 0 0 0 0 0 -0.746581536148527 0
0 0 0 0 0 0 0 0 0 0 0.13714530451652 0 0.0652065268333757 0.0674278821094405 0.628816737525008 0 0.06048384755462 0 0.185098044759076 0 1.18865254006998 0 0 0 0 0.151186058075574 0 0.138137516722488 0.317877541751245 0.327315019509355 0.110019404202876 0 0 0 0 0 0 0 0 0 0 0 0 0 0 0 0 0 0 0
0 0 0 0 0 0 0.134973062903804 0.188728075586387 0.3046326768697 0 0 0 0.183517362747398 0 0.0316221322427813 0 0 0.0726387261663434 0.89697026740158 0.710916915168263 0 0.170131819197486 0.181160111725616 0 0.291317942806127 0 0 0 0 0 0 0 0 0 0 0 0 0 0 0 0 0 0 0 0 0 0 0 0 -0.595549330766361
0 0 0 0 0 0 0 0 0 0 0 0 0 0 0 0 0 0 0 0 0 0 0 0 0 0 0 0 0 1.29483907380232 0 0.397004578274063 0 1.16253765947365 0 0.396827479840295 0 0.230743778927461 0.102126381768012 0.0407595319702807 0 0.139624709209239 0 0.096494599949896 0 0 0 0 0 0
0 0 0 0 0 0 0 0 0 0 0 0 0 0 0 0 0 0 0 0 0 0 0 0 0 0 0 0 0 0 0 0 0 0 0 0 0 0 0 0 0.155579807624936 0.129461122133253 0 0.966448664760616 0.157876780023681 0 0 0 0 0
0 0 0 0 0 0 0 0 0 0 0 0 0 0 0 0 0 0 0 0 0 0 0 0 0 0 0 0 0 0 0 0 0 0 0 0 0 0 0 0 0 0 0 0 0 0 0.132599165814278 0 0 0
