0.179618046530776
0.527692770771681
0.316189126078521
0.797287981599559
3.37891569538991
0.34855605942744
2.78276506756638
4.71476715119455
0.528262845758116
0.456330105031421
0.248302829037912
1.71753495133802
3.28774005540227
2.83780503425402
2.28598352361321
0.480184769445175
0.759513093413652
0.680489559794765
1.38108843149085
0.447752924377575
0.566303238441945
1.33427059537223
0.605515207015369
2.20743338219059
1.39290709355713
2.15152636373746
4.74897935630733
0.315833349546215
0.449942503432411
0.232774684729861
1.44917757761037
1.21591575505054
0.82723500437271
1.99961591646755
1.00189088867086
0.548674440073764
1.60835866381354
1.06980196984373
0.20761603244186
3.53910678976886
1.04708334836399
2.92420047069052
1.37943508856068
2.9170859543173
5.71916772504607
1.32232437194702
0.19454200547129
0.803881579612142
1.94999932753062
2.1377836237772
