0.362509926044997
0.742752833942571
0.342959125490895
2.34707028635354
0.424167730916502
0.593620047272823
0.524956455720427
0.082096865232965
2.28007056471441
0.722997745758674
0.890449259529925
0.649316840851971
3.31237519510369
0.343928900504831
2.01829928634835
2.99589885124612
1.20171168922393
1.43261355494448
0.728522919218417
0.162652248222499
1.66793079365686
1.34612585001138
1.24012295617897
0.343129178184926
0.647130871780242
2.03486075855983
0.721698157459412
0.862050205128477
0.571594368968188
0.577115116247092
4.36325777991028
0.949933597588471
0.0981956008820667
0.875233637226148
2.9583196903429
0.516557389431025
0.328797609327118
3.83223315922596
3.38777755404176
1.39323227238724
0.410850159741076
0.995948534773494
1.65684922536668
2.67933890542753
0.796215022672659
0.568681838777069
0.976449172280501
0.185707064486885
2.25287545794953
0.492836265907846
