3.96476089470184
0.459058550722853
1.53482533454518
0.691232711865151
0.983314566659169
1.83462941014322
0.568908218391245
3.36534474580481
3.66340713500115
2.1833844784161
0.541398513667099
1.18611796699002
0.274468832561124
1.05696140518259
1.27095465505846
0.573555460341206
2.73207911376187
0.895626162112035
0.83682978845742
1.45316063161789
1.02679925692871
0.746263020002579
0.688211478106637
0.666034268546664
0.871441777298926
1.38079509722315
0.81449725975628
0.542201006529106
0.228138455697569
2.88407486165473
1.84227989973886
1.76910213466255
2.99049269327668
0.560848068975778
0.633311002488033
0.211365958816312
2.39559488892343
0.426316837208602
0.329348550016249
0.885390080944276
1.40502702849545
2.46579395786951
1.40757848861849
0.221139132490471
1.38957117415012
0.973453712187476
2.61389547190168
0.46263804295756
0.0258741348676497
0.311304705002192
