1.14004337990666
3.88009075747489
0.1530107371185
0.24615207869306
0.631443221823358
1.10951646194186
0.153682311344593
2.21888609198053
0.464321029324922
2.69917841001422
0.608585854083761
0.0664558515605753
5.41953541871962
0.474145963723832
0.0593510947588111
0.343297175058924
5.70127584599839
0.0772443954964039
0.37450020053675
0.111518282436977
0.644086299979993
0.853320908952796
2.11895610240516
1.41713520580854
0.565419292483466
0.196293614523643
0.203004238614333
0.301438097008729
0.954712470383872
0.182529198325973
1.60669253921523
1.43196072854173
0.475637600698231
1.5178089700003
1.1946172780589
0.294461538987122
0.259234904490688
0.151557630764029
0.602860781440038
0.0825295146857951
2.05942700885961
0.129498631106258
0.190664217515967
0.331821679031874
0.482852204154728
3.10189579341078
2.93996306108468
3.13354572997526
0.298573401989099
0.00929552693865843
