0 -0.724231683276667 0 0 0 0 0 0 0 0 0 0 0 0 0 0 0 0 0 0 0 0 0 0 0 0 0 -0.973184177686123 0 0 0 0 -0.423130876945146 0 0 0 0 0 0 0 0 0 0 0 0 0 -2.9093653786606 0 0 0
0.150328405959524 0 0 0 0 0 0 0 0 0 0 0 0 0 0 0 0 -0.500168770909335 0 0 0 0 0 0 0 0 0 0 0 0 0 -2.06973560317447 -0.414277706193714 0 0 0 0 0 0 0 0 0 0 0 0 0 -0.663885444499305 0 0 0
0 0 0 0 -0.152621600405411 0 0 0 0 0 0 0 0 0 0 0 0 -0.437725431810066 0 0 0 0 0 0 0 0 0 0 -5.62739056208738 0 0 -0.922793388322826 0 0 0 0 0 0 0 0 0 0 0 0 0 0 -1.5533187142431 0 0 0
0 0 0 0 0 0 0 0 0 0 0 0 0 0 0 0 0 0 0 0 0 0 0 0 0 0 0 0 0 0 0 -0.909985400548108 -1.01341648023967 0 0 0 0 0 0 0 0 0 0 0 0 0 0 0 0 0
0 0 0.0290021316899782 0 0 1.10172838851502 0 0 0 0 0 0 0 0 0 0 0 -2.19401385355736 0 0 0 0 0 0 0 -0.919385164749737 0 0 0 -1.16202294609236 0 0 0 0 0 0 0 0 0 0 0 0 0 0 0 0 -1.13019818362556 0 0 0
0 0 0 0 -5.41967371696259 0 0 0 0 0 0 0 0 0 0 0 0 -0.250722200403511 0 0 0 0 0 0 0 -2.45822519167225 0 0 0 -0.371751518745428 0 0 -2.71312294034721 0 0 0 0 0 0 0 0 0 0 0 0 0 0 0 0 0
0 0 0 0 0 0 0 0 0 0 0 -3.79219845210063 -1.42538677488998 -0.904961310850132 0 0 0 0 0 0 0 0 0 0 0 0 0 0 0 -0.500807393933552 0 0 -1.15535527697031 0 0 0 -1.66438272845939 0 0 0 0 0 0 0 0 0 0 0 0 0
0 0 0 0 0 0 0 0 0 0 -2.54866979507757 0 0 0 0 0 0 0 0 0 0 0 0 0 0 0 0 0 0 -3.02534336142644 0 -0.465254644087606 -0.542037199379792 0 0 0 -0.723616222067522 0 0 0 0 0 0 0 0 0 0 0 0 0
0 0 0 0 0 0 0 0 0 0.30396346770723 0 -0.258133870799944 -0.410185439540978 -0.180542609813162 0 0 0 0 0 0 0 0 0 0 0 0 0 0 0 0 0 0 -0.227450179199084 0 0 0 0 0 0 0 0 0 0 0 0 0 0 0 0 0
0 0 0 0 0 0 0 0 -1.47222368883306 0 0 0 -0.447119431173783 -0.351050495721482 0 0 0 0 0 0 0 0 0 0 0 0 0 0 0 -0.422453075186065 0 -0.96270426352293 -0.165782682854111 0 0 0 0 0 0 0 0 0 0 0 0 0 0 0 0 0
0 0 0 0 0 0 0 0.472423649379523 0 0 0 0 0 0 0 0 0 0 0 0 0 0 0 0 0 0 0 0 0 0 0 0 -3.64531708980694 0 0 0 0 0 0 0 0 0 0 0 0 0 0 0 0 0
0 0 0 0 0 0 0.794439511997273 0 0.0481239725904621 0 0 0 -10.9638687472957 0 0 0 0 0 0 0 0 0 0 0 0 0 0 0 0 0 0 0 0 0 0 -2.1978590834564 0 0 0 0 0 0 0 0 0 0 0 0 0 0
0 0 0 0 0 0 0.278421896037417 0 0.0781412021396087 0.0873092524469323 0 2.19994462604144 0 0 0 0 -0.621174809657363 0 0 0 0 0 -3.90573321860153 0 -4.36672645037086 0 0 0 0 0 0 0 0 0 0 0 0 -1.17847435900432 0 0 0 0 0 0 0 0 0 0 0 0
0 0 0 0 0 0 0.157561531505391 0 0.036993462962857 0.0735800279883227 0 0 0 0 0 0 0 0 -4.59938713588179 0 0 0 -0.587379350475819 0 0 0 0 0 0 0 0 0 0 0 0 0 0 0 0 0 0 0 0 0 0 0 0 0 0 0
0 0 0 0 0 0 0 0 0 0 0 0 0 0 0 0 0 0 -1.93825150690342 0 0 0 -6.83055630857576 0 0 0 0 0 0 0 0 0 0 0 0 0 0 -1.97640020858456 0 0 0 0 0 0 0 0 0 0 0 0
0 0 0 0 0 0 0 0 0 0 0 0 0 0 0 0 0 0 0 0 0 0 0 0 0 0 -0.442589294600093 0 0 0 0 0 0 0 0 0 0 -1.21174564494516 0 0 0 0 0 0 0 0 0 0 0 0
0 0 0 0 0 0 0 0 0 0 0 0 0.125270399451035 0 0 0 0 0 0 0 -2.22817140637548 0 0 0 -0.191541103048035 0 -2.37553128493224 0 0 0 0 0 0 0 0 0 0 0 0 0 0 0 0 0 0 0 0 0 0 0
0 0.10177434065845 0.0874736769802363 0 0.453880135032409 0.0486203847695164 0 0 0 0 0 0 0 0 0 0 0 0 -1.9908557156568 0 0 0 0 0 -1.00976753978813 0 -0.667230159367637 0 0 0 0 0 0 0 0 0 0 0 0 0 0 0 0 0 0 0 0 0 0 0
0 0 0 0 0 0 0 0 0 0 0 0 0 0.951005085142278 0.377648333301396 0 0 0.405017482586683 0 0.44253891313672 0 0 0 0 -0.815087715320961 0 0 0 0 0 0 0 0 0 0 0 0 0 0 0 0 0 0 0 0 0 0 0 0 0
0 0 0 0 0 0 0 0 0 0 0 0 0 0 0 0 0 0 -2.16893628482558 0 0 0 0 0 0 0 -3.32400845908136 0 0 0 0 0 0 0 0 0 0 0 0 0 0 0 0 0 0 0 0 0 0 0
0 0 0 0 0 0 0 0 0 0 0 0 0 0 0 0 0.488167587237998 0 0 0 0 0 0 0 0 0 -0.486804249788678 0 0 0 -2.33958189867792 0 0 0 0 0 0 -1.70044009107473 0 0 0 0 0 -3.314430464612 0 0 0 0 0 0
0 0 0 0 0 0 0 0 0 0 0 0 0 0 0 0 0 0 0 0 0 0 0 0 0 0 0 0 0 0 0 0 0 0 0 0 0 0 0 0 0 0 0 0 -2.14358726631594 0 0 0 0 0
0 0 0 0 0 0 0 0 0 0 0 0 0.797064175158097 0.115367671484244 1.40975184854334 0 0 0 0 0 0 0 0 0 0 0 0 0 0 0 -1.34712010503779 0 0 0 0 0 0 0 0 0 0 0 0 -5.78178846904754 -1.56474993076219 0 0 0 0 0
0 0 0 0 0 0 0 0 0 0 0 0 0 0 0 0 0 0 0 0 0 0 0 0 0 0 0 0 0 0 -0.813291996626967 0 0 0 0 0 0 0 0 0 0 0 0 -0.0971394575711249 0 0 0 0 0 0
0 0 0 0 0 0 0 0 0 0 0 0 0.897427036841481 0 0 0 0.0421397081941482 0.204423905696593 0.167245435640345 0 0 0 0 0 0 0 0 0 0 0 -1.03559434299702 0 0 0 0 0 0 0 0 0 -1.42144239044966 -0.333961028360931 0 0 0 0 0 0 0 0
0 0 0 0 0.18018910872149 0.519369246212448 0 0 0 0 0 0 0 0 0 0 0 0 0 0 0 0 0 0 0 0 0 0 0 0 0 0 0 0 -0.918633858660133 0 0 0 0 0 -0.246317372108537 -0.87695181829959 0 0 0 0 0 0 0 0
0 0 0 0 0 0 0 0 0 0 0 0 0 0 0 0.0859095051572634 0.518317024627328 0.132982802543125 0 0.620860943115644 0.0922481747847713 0 0 0 0 0 0 0 0 0 -0.706000556740434 0 0 0 0 0 0 0 0 0 -6.02949196041484 0 0 0 0 0 0 0 0 0
0.1855568365033 0 0 0 0 0 0 0 0 0 0 0 0 0 0 0 0 0 0 0 0 0 0 0 0 0 0 0 0 0 0 0 0 0 -0.785589527943224 0 0 0 0 0 0 0 0 0 0 0 0 0 0 0
0 0 1.18542241196963 0 0 0 0 0 0 0 0 0 0 0 0 0 0 0 0 0 0 0 0 0 0 0 0 0 0 0 -0.103682000973065 0 0 0 0 0 0 0 0 0 -0.200599150963128 0 0 0 0 0 0 0 0 -3.67103601909174
0 0 0 0 0.229880999722713 0.0732975426722153 0.109977137796985 0.605360217679077 0 0.0804930592050366 0 0 0 0 0 0 0 0 0 0 0 0 0 0 0 0 0 0 0 0 -1.35852770239081 0 0 0 0 0 0 0 -0.360383858571946 -0.521423720566643 -0.184021546004004 0 0 0 0 0 0 0 0 0
0 0 0 0 0 0 0 0 0 0 0 0 0 0 0 0 0 0 0 0 0.452534964910846 0 0.252033265894765 0.16087373391145 0.199497053784588 0 0.147877505162081 0 0.022266013332789 0.240776576665872 0 0 0 0 0 0 0 0 -0.0686360849167042 0 0 0 -4.29228812155063 0 0 0 0 0 0 -0.63450686840062
0 0.428878576981632 0.185016943544554 0.187820066720233 0 0 0 0.0908647973921 0 0.186721603094222 0 0 0 0 0 0 0 0 0 0 0 0 0 0 0 0 0 0 0 0 0 0 0 0 0 0 0 0 -7.14709737572893 0 0 0 0 0 0 0 0 -1.94022985609312 0 0
0.0824161150654462 0.0809823583622191 0 0.196262950693358 0 0.567569660428478 0.230007838693364 0.109373568344361 0.0458295062224299 0.0301985008255379 0.796575352628532 0 0 0 0 0 0 0 0 0 0 0 0 0 0 0 0 0 0 0 0 0 0 0 0 0 0 0 -1.96750196003131 0 0 0 0 0 0 0 0 -3.48709525955982 0 0
0 0 0 0 0 0 0 0 0 0 0 0 0 0 0 0 0 0 0 0 0 0 0 0 0 0 0 0 0 0 0 0 0 0 0 0 0 0 -0.835959048570772 0 0 0 0 0 0 0 0 -0.555079907751536 0 -1.64892100173275
0 0 0 0 0 0 0 0 0 0 0 0 0 0 0 0 0 0 0 0 0 0 0 0 0 0.175188432463916 0 0.153536624832596 0 0 0 0 0 0 0 0 0 0 0 0 0 0 0 0 0 0 0 -0.498049370462117 0 -0.607849611061007
0 0 0 0 0 0 0 0 0 0 0 0.428733422124368 0 0 0 0 0 0 0 0 0 0 0 0 0 0 0 0 0 0 0 0 0 0 0 0 0 0 0 0 0 0 0 0 0 0 0 0 0 0
0 0 0 0 0 0 0.319086609168538 0.149261562528674 0 0 0 0 0 0 0 0 0 0 0 0 0 0 0 0 0 0 0 0 0 0 0 0 0 0 0 0 0 0 0 0 0 0 0 0 0 0 0 0 0 0
0 0 0 0 0 0 0 0 0 0 0 0 0.235605902738452 0 0.37892372654673 0.251932864388325 0 0 0 0 0.321307447634926 0 0 0 0 0 0 0 0 0 0 0 0 0 0 0 0 0 0 0 0 0 0 0 0 -1.84452056992638 0 0 0 0
0 0 0 0 0 0 0 0 0 0 0 0 0 0 0 0 0 0 0 0 0 0 0 0 0 0 0 0 0 0.0765062087400839 0.0142763178635904 1.41721173492496 0.383862683995832 0.173819437212467 0 0 0 0 0 0 0 0 0 0 0 -1.4136566923949 0 0 0 0
0 0 0 0 0 0 0 0 0 0 0 0 0 0 0 0 0 0 0 0 0 0 0 0 0 0 0 0 0 0.092439499848033 0 0 0 0 0 0 0 0 0 0 0 0 0 0 0 0 0 0 0 0
0 0 0 0 0 0 0 0 0 0 0 0 0 0 0 0 0 0 0 0 0 0 0 0 0.295326771928926 0.0503333405792152 1.24948451494644 0 0.0411952218274642 0.0370062750738993 0 0 0 0 0 0 0 0 0 0 0 0 0 0 0 0 0 0 0 0
0 0 0 0 0 0 0 0 0 0 0 0 0 0 0 0 0 0 0 0 0 0 0 0 0.066070923593522 0.169675632714065 0 0 0 0 0 0 0 0 0 0 0 0 0 0 0 0 0 0 0 0 0 0 0 0
0 0 0 0 0 0 0 0 0 0 0 0 0 0 0 0 0 0 0 0 0 0 0 0 0 0 0 0 0 0 0.847643506879719 0 0 0 0 0 0 0 0 0 0 0 0 0 0 0 0 0 -2.60373107927121 0
0 0 0 0 0 0 0 0 0 0 0 0 0 0 0 0 0 0 0 0 0.678609097035901 0 1.24047135286119 0.019349004302085 0 0 0 0 0 0 0 0 0 0 0 0 0 0 0 0 0 0 0 0 0 0 0 0 -0.799792644724361 0
0 0 0 0 0 0 0 0 0 0 0 0 0 0 0 0 0 0 0 0 0 0.407605574570316 0.314640293678968 0 0 0 0 0 0 0 0 0 0 0 0 0 0 0 0 0 0 0 0 0 0 0 0 0 0 0
0 0 0 0 0 0 0 0 0 0 0 0 0 0 0 0 0 0 0 0 0 0 0 0 0 0 0 0 0 0 0 0 0 0 0 0 0 0.367177100626359 0.298826705954907 0 0 0 0 0 0 0 0 0 -0.364584015717618 0
0.568091257037875 0.123850636755335 0.291012735191215 0 0.217581139324031 0 0 0 0 0 0 0 0 0 0 0 0 0 0 0 0 0 0 0 0 0 0 0 0 0 0 0 0 0 0 0 0 0 0 0 0 0 0 0 0 0 0 0 0 0
0 0 0 0 0 0 0 0 0 0 0 0 0 0 0 0 0 0 0 0 0 0 0 0 0 0 0 0 0 0 0 0.422714861186095 0.719216653371671 0.110304007135665 0.0914514432216503 0 0 0 0 0 0 0 0 0 0 0 0 0 -1.69076438633859 0
0 0 0 0 0 0 0 0 0 0 0 0 0 0 0 0 0 0 0 0 0 0 0 0 0 0 0 0 0 0 0 0 0 0 0 0 0 0 0 0 0 0 0.509640714681142 0.166475094865431 0 0.0728207835871095 0 0.339745672632744 0 0
0 0 0 0 0 0 0 0 0 0 0 0 0 0 0 0 0 0 0 0 0 0 0 0 0 0 0 0 0.727657364437505 0 0.125895399581282 0 0 0.318170339891793 0.122980856833607 0 0 0 0 0 0 0 0 0 0 0 0 0 0 0
