0 0 0 0 0 0 0 0 0 0 0 -2.45049997447917 0 0 0 0 0 0 0 0 0 0 0 0 0 0 0 0 0 0 0 0 0 0 0 0 -2.94687635910196 0 0 0 0 0 0 0 0 0 -5.84766583240242 0 0 0
0 0 0 0 0 0 0 0 0 0 0 0 0 0 0 0 0 0 -0.606052719637224 0 0 0 0 0 0 0 0 -3.10541318539778 0 0 0 0 0 0 0 0 0 0 0 0 0 0 0 0 0 0 -3.2971742662431 0 0 0
0 0 0 0 0 0 0 0 0 0 0 -0.209349139814999 0 0 0 -5.64375688011931 0 0 -0.32882287680599 0 0 0 0 0 0 0 0 0 0 0 0 0 0 0 0 0 -0.68991405821257 0 0 0 0 0 0 0 0 0 -0.239976475357472 0 0 0
0 0 0 0 -3.30721522801802 0 0 -2.29396777112516 0 0 -1.02613678855777 -1.21486230517914 0 0 0 0 0 0 0 0 0 0 0 0 0 0 0 0 0 0 0 0 0 0 0 0 -0.447701826916223 0 0 0 0 0 0 0 0 0 -0.917565498957275 0 0 0
0 0 0 0.65718718042795 0 0 0 -2.4222214819286 0 0 -1.47476937383365 0 0 0 0 0 0 0 -1.44492857229031 0 0 0 0 0 0 0 0 0 0 -0.170869463187147 0 0 0 0 0 0 0 -0.702112219887393 0 0 0 0 0 0 0 0 0 0 0 0
0 0 0 0 0 0 0 0 0 0 0 -0.180132835334325 0 0 0 0 0 0 0 0 0 0 0 0 0 0 0 0 0 -0.347728575571035 0 0 0 0 0 0 0 0 0 0 0 0 0 0 0 0 0 0 0 0
0 0 0 0 0 0 0 0 0 0 0 0 0 0 0 0 0 0 0 0 0 0 0 0 0 0 0 0 0 0 0 0 0 0 0 0 0 -0.406888146748388 0 0 0 0 0 0 0 0 0 -0.716503435942483 0 0
0 0 0 0.445069382423524 0.46994136016039 0 0 0 0 0 0 0 0 0 0 0 0 0 0 0 0 0 0 0 0 0 0 0 0 0 0 0 0 0 0 0 0 0 0 0 0 0 0 0 0 0 0 -0.758247694907373 0 0
0 0 0 0 0 0 0 0 0 0 0 0 0 0 0 0 0 0 0 0 0 -0.509565761200945 0 0 0 0 0 0 0 0 0 0 0 0 0 0 0 -0.556273748970601 0 0 0 0 0 0 0 0 0 0 0 0
0 0 0 0 0 0 0 0 0 0 0 0 0 0 0 0 0 0 0 0 0 0 0 0 0 0 0 0 0 0 0 0 0 0 0 0 0 -0.114207719610412 0 0 0 0 0 0 0 0 0 0 0 0
0 0 0 0.2091367893754 0.298412910092881 0 0 0 0 0 0 0 0 0 0 0 0 0 0 0 0 0 0 0 0 0 0 0 0 0 0 0 0 0 0 0 0 -0.194883234311161 0 0 0 -0.463085288237863 0 0 0 0 0 -0.589645090022418 0 0
0.533285467886054 0 0.0387126099872584 0.24530747435389 0 0.0342724528714654 0 0 0 0 0 0 0 0 -1.18628460342198 0 0 0 0 0 0 0 0 0 0 0 0 0 0 0 -3.05258689733112 0 0 0 0 0 0 -0.517585110177067 0 0 0 0 0 0 0 0 0 -0.899266759070058 0 0
0 0 0 0 0 0 0 0 0 0 0 0 0 0 0 0 -1.0969150170862 0 0 0 0 0 0 0 0 0 0 0 0 0 -2.41031516828097 0 0 0 0 0 0 -0.804445603346154 0 0 0 0 0 0 0 0 0 0 0 0
0 0 0 0 0 0 0 0 0 0 0 0 0 0 0 0 -0.983717079369648 0 0 0 0 0 0 0 0 0 0 0 0 0 -0.75034666536474 0 0 0 0 0 0 -0.431220585019017 0 0 0 0 0 0 0 0 0 0 0 0
0 0 0 0 0 0 0 0 0 0 0 0.249101811063816 0 0 0 0 -2.11399979830082 0 0 -0.365419155266225 -0.834034793846245 0 0 0 0 0 0 0 0 0 -0.0981445908842338 0 0 0 0 0 0 -8.32210810909161 0 0 0 0 0 0 0 0 0 0 0 0
0 0 1.09385459468573 0 0 0 0 0 0 0 0 0 0 0 0 0 -0.915016094326248 0 0 -2.49486226187299 0 0 0 0 0 0 0 0 0 0 -1.25128387192601 0 0 0 0 -7.15169633899346 0 -1.34895697476741 0 0 0 0 0 0 0 0 0 0 0 0
0 0 0 0 0 0 0 0 0 0 0 0 0.220102084322497 0.208211808267834 0.438873097033984 0.169406149023656 0 0 0 0 -0.148272936639638 0 0 0 0 0 0 0 0 0 -0.391176826316156 0 -1.08183561376079 0 0 -2.79418717009777 0 0 0 0 0 0 0 0 0 0 0 0 0 0
0 0 0 0 0 0 0 0 0 0 0 0 0 0 0 0 0 0 0 0 0 0 0 0 0 0 0 0 0 0 0 0 -0.616017655761863 0 0 -3.78558932757513 0 0 0 0 0 0 0 0 0 0 0 0 0 0
0 0.129448138921102 0.0687439647037603 0 0.293388713689697 0 0 0 0 0 0 0 0 0 0 0 0 0 0 0 -1.43120257778196 0 0 0 0 0 0 0 0 0 0 0 -2.28807066127765 0 0 0 0 0 0 0 0 0 0 0 0 0 0 0 0 0
0 0 0 0 0 0 0 0 0 0 0 0 0 0 0.0700032963066359 0.467135686388119 0 0 0 0 -1.01121075318691 0 0 0 0 0 0 0 0 0 0 0 -0.791926961232765 0 0 -1.08715115996486 0 0 0 0 0 0 0 0 0 0 0 0 0 0
0 0 0 0 0 0 0 0 0 0 0 0 0 0 0.171823368652119 0 0.0300642294217241 0 0.297775946613315 0.209958230786343 0 0 0 -0.433466614731632 0 0 0 0 0 0 0 0 0 0 0 -2.51504281560931 0 0 0 0 0 0 0 0 0 0 0 0 0 0
0 0 0 0 0 0 0 0 0.100571431137992 0 0 0 0 0 0 0 0 0 0 0 0 0 0 -0.489822995135424 0 -0.254301594089863 -3.81770903318753 0 0 0 0 0 -1.17875255731383 0 0 0 0 0 0 0 0 0 0 0 0 0 0 0 0 0
0 0 0 0 0 0 0 0 0 0 0 0 0 0 0 0 0 0 0 0 0 0 0 0 0 -2.08824591657723 0 0 0 0 0 -1.12635653802333 0 0 0 0 0 0 0 0 0 0 0 0 0 0 0 0 0 0
0 0 0 0 0 0 0 0 0 0 0 0 0 0 0 0 0 0 0 0 0.0894027264186158 0.0900389445218566 0 0 0 -0.929421577885511 0 0 0 0 0 -0.187350125574342 0 0 0 0 0 0 0 0 0 0 0 0 0 0 0 0 0 0
0 0 0 0 0 0 0 0 0 0 0 0 0 0 0 0 0 0 0 0 0 0 0 0 0 -0.360833824370291 0 0 -1.74363801022512 0 0 -0.754562995222761 0 0 0 0 0 0 0 0 0 0 0 0 0 0 0 0 0 0
0 0 0 0 0 0 0 0 0 0 0 0 0 0 0 0 0 0 0 0 0 0.0484230222533045 0.411404149067733 0.187379740628742 0.0651618299417019 0 0 0 -1.93364467330078 0 0 -0.366256243482861 0 0 0 -0.259742962069318 0 0 0 0 0 0 0 0 0 0 0 0 0 0
0 0 0 0 0 0 0 0 0 0 0 0 0 0 0 0 0 0 0 0 0 0.711822646345798 0 0 0 0 0 0 0 0 0 0 0 0 0 -0.728818483624554 0 0 0 0 0 0 0 0 0 0 0 0 0 0
0 0.613954541989836 0 0 0 0 0 0 0 0 0 0 0 0 0 0 0 0 0 0 0 0 0 0 0 0 0 0 -0.617925143479183 0 0 -1.07613704894534 0 0 -0.521806189139458 0 0 0 0 -0.668255727212939 0 0 0 0 0 0 0 0 0 0
0 0 0 0 0 0 0 0 0 0 0 0 0 0 0 0 0 0 0 0 0 0 0 0 0.351064325890881 0.395505460959208 0 0.125389593146089 0 0.359351540004868 0 0 0 0 -0.674307650992368 0 0 0 0 -0.308246910879306 0 0 0 0 0 0 0 0 0 0
0 0 0 0 0.0351407372661395 0.0694711829577125 0 0 0 0 0 0 0 0 0 0 0 0 0 0 0 0 0 0 0 0 0 0 -1.68078721518209 0 0 -0.14269320857583 0 0 -0.260768780422022 -1.03788219492864 0 0 0 -1.45707259217341 0 0 0 0 0 0 0 0 0 0
0 0 0 0 0 0 0 0 0 0 0 0.62145291226989 0.465923171748455 0.165596284232508 0.0207379324092058 0.274932379982127 0.0813315655640826 0 0 0 0 0 0 0 0 0 0 0 0 0 0 -1.01816582523813 0 0 -0.156626559681956 0 0 0 -0.483396162928591 -1.46122576275718 0 0 0 0 0 0 0 0 0 0
0 0 0 0 0 0 0 0 0 0 0 0 0 0 0 0 0 0 0 0 0 0 0.233425108401385 0.0374021292309151 0.165250559906584 0.0731983208350736 0 0.226906345317827 0 0.027552424166498 0.213244792996728 0 0 0 0 0 0 0 -0.876702111432163 -4.75074604851048 -1.95011798699529 0 0 0 0 0 0 0 0 0
0 0 0 0 0 0 0 0 0 0 0 0 0 0 0 0 0.213370677700237 0.124765031764789 0.497608144111757 0.141264290904547 0 0.249880783704597 0 0 0 0 0 0 0 0 0 0 0 0 0 0 0 0 -0.788944058940194 0 -0.768541894294194 0 0 0 0 0 0 0 0 0
0 0 0 0 0 0 0 0 0 0 0 0 0 0 0 0 0 0 0 0 0 0 0 0 0 0 0 0 0 0 0 0 0 0 0 0 0 0 0 0 -0.43348642901808 0 0 0 0 0 0 0 -0.0934146110450408 0
0 0 0 0 0 0 0 0 0 0 0 0 0 0 0 0 0 0 0 0 0 0 0 0 0 0 0 0.100112289267086 0.127154540002235 0.0546003533528198 0.0336903815104558 0 0 0 0 0 0 0 0 0 -0.20978459000652 0 -0.791273311886519 0 0 0 0 0 -1.74814645111505 -0.249291902479
0 0 0 0 0 0 0 0 0 0 0 0 0 0 0 1.35096173039117 0.563327452933424 0.717927576449433 0 0.221549025506313 0.537636965318252 0 0 0 0 0.0469163542803432 0.151669601780574 0 0 0.212342458661241 0 0 0 0 0 0 0 0 0 0 0 0 -0.101756314178496 0 0 0 0 0 -0.361338298713462 0
0.587190036826864 0 0.142091574464712 0.0853181569495725 0 0 0 0 0 0 0 0 0 0 0 0 0 0 0 0 0 0 0 0 0 0 0 0 0 0 0 0 0 0 0 0 0 0 0 0 0 0 -1.33201427279957 0 0 0 0 0 0 0
0 0 0 0 0.15048959036877 0 0.0787924598346961 0 0.112912451350334 0.0219843991055053 0.0387811065949084 0.112529443280924 0.160495265766209 0.0842235065889238 1.696130679693 0.281912517844976 0 0 0 0 0 0 0 0 0 0 0 0 0 0 0 0 0 0 0 0 0 0 0 0 0 0 -1.37966420096645 0 0 0 0 0 -0.248198660369944 -0.499000912295567
0 0 0 0 0 0 0 0 0 0 0 0 0 0 0 0 0 0 0 0 0 0 0 0 0 0 0 0 0 0 0.100271198149938 0.174650968765001 0.181880709363709 0 0 0 0 0 0 0 0 0 -0.362814996412087 0 0 0 0 0 -1.6399579427162 0
0 0 0 0 0 0 0 0 0 0 0 0 0 0 0 0 0 0 0 0 0 0 0 0 0 0 0 0.130674643586329 0.0657151425054128 0.277492060434429 0.286294360590363 0.870565630456579 0 0 0 0 0 0 0 0 0 0 -0.883355346653924 0 0 0 0 0 0 -0.497313974275997
0 0 0 0 0 0 0 0 0 0 0 0 0 0 0 0 0 0 0 0 0 0 0 0 0 0 0 0 0 0 0 0.388051543102212 0.150246013568928 0.0875530090634914 0.0403638406227552 0 0 0 0 0 0 0 -0.549208172816773 0 0 0 0 0 -1.36972435917608 -1.96452321207923
0 0 0 0 0 0 0 0 0 0 0.098077068335673 0 0 0 0 0 0 0 0 0 0 0 0 0 0 0 0 0 0 0 0 0 0 0 0 0 0 0 0 0 0 0 -1.43394831292234 0 0 0 0 0 0 -0.226080052322918
0 0 0 0 0 0 0 0 0 0 0 0 0 0 0 0 0 0 0 0 0 0 0 0 0 0 0 0 0 0 0 0 0 0 0.168205029264284 0.020442488725402 0.2676108313526 0.279081311839376 0.069499680278674 0.171507792067007 0.119282110402706 0.293612374988296 0 0.224296577524889 0.38469584751262 0 0 0 0 0
0 0 0 0 0 0 0 0 0 0 0 0 0 0 0 0 0 0 0 0 0 0 0 0 0 0 0 0 0 0 0 0 0 0 0 0 0 0 0 0 0 0 -1.24678019591942 0 0 0 0 0 0 -0.856223053579105
0 0 0 0 0 0 0 0 0 0 0 0 0 0 0 0 0 0 0 0 0 0 0 0 0 0 0 0 0 0 0 0 0 0 0 0 0 0 0 0 0 0 -1.93054705669571 0 0 0 0 0 0 0
0 0 0 0 0 0 0 0 0 0 0 0 0 0 0 0 0 0 0 0 0 0 0 0 0 0 0 0 0 0 0 0 0 0 0 0 0 0 0 0 0 0 0 0 0 0 0 0 0 -0.993939460941882
1.20828308209655 0.656864018809764 0.0456872347227138 0.188616140159429 0 0 0 0 0 0 0 0 0 0 0 0 0 0 0 0 0 0 0 0 0 0 0 0 0 0 0 0 0 0 0 0 0 0 0 0 0 0 0 0 0 0 0 0 0 0
0 0 0 0 0 0 0.153246039425961 0.148402157263523 0 0 0.114074558193459 0.196248025333563 0 0 0 0 0 0 0 0 0 0 0 0 0 0 0 0 0 0 0 0 0 0 0 0 0 0 0 0 0 0 0 0 0 0 0 0 0 -1.73915122310528
0 0 0 0 0 0 0 0 0 0 0 0 0 0 0 0 0 0 0 0 0 0 0 0 0 0 0 0 0 0 0 0 0 0.0192072639786338 0.347395571793387 0.0693365865157933 0 0.0450279198226294 0.326175839803389 0 0.270168925815094 0 0 0 0 0 0 0 0 -0.742596112395906
0 0 0 0 0 0 0 0 0 0 0 0 0 0 0 0 0 0 0 0 0 0 0 0 0 0 0 0 0 0 0 0 0 0 0.0493233448541921 0 0 0.0929302994206845 0 0.100316234637571 0.411039388656506 0.042440312023253 0 0.165008804862133 0 0.185771737640959 0 0.351404542128903 0.15293562529338 0
