1.18617173390728
0.569538459542825
0.489304705873472
0.365023026693153
2.12074207074909
0.399391227692492
0.392129095744031
3.97041400442575
4.87031454715407
0.529058644985011
0.283518570947773
0.948506301207947
0.884158194521635
1.1133934804389
0.297255607131604
2.10110039499963
1.2619133142682
0.0972529734923046
0.119978925995619
0.741030544083908
0.391220714291707
0.531054027523378
2.64252989357503
2.67280708726412
0.603866798385795
1.30402565014046
0.918917030458445
0.366849500921392
0.901605759440368
0.472070633471207
2.19066378176099
0.757730243911079
0.866259358708719
0.136062784531732
2.92152796525078
0.871042772428082
1.39084558157713
2.3753469034654
0.307688334839314
0.123727141774794
0.629666421501515
2.45620658360422
0.32727887954025
2.41615229488733
1.37773325778185
0.59670145154144
3.00465165348831
0.415748569481911
0.186534954798018
0.354531253596702
