0.654783696206128
4.55097888786817
4.14871871492297
0.174232156118712
1.66296551777184
0.791804552758865
1.24707801312985
5.25921163681839
0.258387706939509
0.960247568615215
2.49481050249971
1.15135259401372
0.396098032355609
2.05011803383654
0.927169458162782
0.560096484369487
0.334753971656127
0.824219188089023
0.529007350687839
0.928095524903382
0.589897302117115
0.200171390690219
0.377727404571413
1.14531017263656
2.08456005557078
0.351141855401523
1.24064850427773
1.53868772344187
0.385550067655301
1.50354456537812
0.518526555965686
0.630392240527172
1.33809266202858
1.70855556219548
0.497304087033965
0.853625753733488
0.807335109979848
1.56164916728816
4.37855461347248
0.780739486004638
2.79332345899057
3.0404541023331
1.02681960174636
0.745887738836125
2.47946213818214
0.648369319929834
1.19388769719886
0.343673008517381
1.93082115930309
0.18313640505407
2.18128489326546
1.40489733832717
0.516885745578863
0.975231694281971
0.371262871149869
2.5670058685074
0.465200965117875
1.06156326684377
4.76293740763518
0.797000749645336
0.185412281100099
1.11048704904807
0.598739181690166
1.76304168899621
0.401470622333048
3.05790186329682
3.82254371317387
1.01551557109965
0.138546007956015
1.43307578340499
0.699868906611021
4.87075992498084
0.805170869649123
5.3314137723185
0.598009351843522
1.70956898476422
2.08795848838484
1.60011316544491
2.37778478658271
0.869110447487784
0.310937706970758
1.48639584591122
2.52267286996292
0.87295536166185
0.249412636602642
0.441804573746672
0.395100355442548
0.491878938087322
0.80026406736032
0.67996165527669
5.44308968631953
1.1855363399628
1.42789100106744
1.70032880208075
0.910944841638719
1.66661374003107
0.23955598917356
0.567537925372433
1.9387085402237
0.919829983314713
0.14732761050318
0.0290036721977364
1.31253197069853
0.17803363443275
0.99252337735529
0.32733131542982
0.424750880943118
2.86831624076077
0.240591781808094
3.66250276976829
0.771602302780998
1.91908643853647
0.176496537574951
1.14013240118414
3.9743315402107
2.40092797236684
0.547300387911754
0.471399242747038
0.353133152764226
0.397210586282487
1.96360064022731
1.0122888031743
0.559825687970215
0.10490743371204
5.86913054382128
3.03361916445766
2.00273497622991
0.47682905231578
0.864824936699981
0.547577319811714
0.942260215109525
1.36498909490302
1.90934797965211
3.63455859954215
1.48841535014533
1.66132945166147
0.570307097766954
1.90682660446963
0.784332882325329
1.03795238513783
0.458009511080954
0.88968609049326
0.468434613429364
2.93951028419956
1.60131017903477
1.17726140866073
0.404442249000813
0.921908395242981
1.95199067196661
1.26670701191196
0.460126674711625
4.25973826286965
0.89520543063305
1.35671793063364
0.591783649117824
5.01086022266761
0.813978749522523
1.70886670582076
0.730042401408694
0.101730576911867
1.72320458296154
1.59525636864692
1.52146721946283
3.41037248717632
0.675295295401067
0.208502244670535
0.257105643791707
1.07707347035241
3.93003014243907
2.32226645841292
0.914071491153392
4.08504115944257
2.576865200499
0.545833040020165
4.12832114748228
1.29525272621385
1.05740468840218
2.50712522638031
3.1405772022593
0.939659548610152
1.46634427073578
5.00794434503663
1.30045707340277
1.15572554570979
7.57766116315298
0.218042523951451
0.328436775085434
0.502891411861473
10.1401603896473
0.850287437270948
1.59061123874935
7.90367521629799
2.04276056138539
0.316921979045727
0.456928054970308
3.33190594248668
2.31478713600568
1.59277903924203
1.081953773287
0.258164860466792
3.75033854982924
2.12006531119815
1.13399879222484
0.560288240689957
3.6598479004592
0.583576590686821
0.547417475262582
2.06790527387814
0.512530828662036
0.572146319416162
1.26739372216391
0.33231160300624
5.12133694415181
2.12752546425623
2.09416088207976
0.481682812673958
1.51201738277097
1.29082188653152
4.96663843427301
0.408810017973489
0.745192076817826
0.303641281106028
2.01709697778261
0.106630590496468
0.122648049243846
0.661779253414079
0.166765524070581
0.442562660915953
2.12001172103821
0.388435881945356
