-0.40619081759609 0 0 0 0 0 0 0 0 0 0 0 0 -3.93376017140562 0 0 0 0 0 0 0 0 0 0 0 0 0 0 0 0 0 0 0 0 0 0 0 0 0 0 0 0 0 0 0 0 0 0 0 0
0 -0.40619081759609 0 0 0 0 0 0 0 0 0 0 0 0 0 0 0 0 0 0 0 0 0 0 0 0 0 -0.865184678323682 0 -2.82831207851322 0 0 0 0 0 0 0 0 0 0 0 0 0 0 0 0 0 0 0 0
0 0 -0.40619081759609 0 0 0 0 0 0 0 0 0 0 -3.93962020329451 0 0 0 0 0 0 0 0 0 0 0 0 0 -2.54525947872988 0 -1.14016209617224 0 0 0 0 0 0 0 0 0 0 0 0 0 0 0 0 0 0 0 0
0 0 0 -0.40619081759609 0 0 0 0 0 0 0 0 0 0 0 0 0 0 0 0 -0.394498529450211 0 0 0 0 0 0 -1.73194654874685 0 0 0 0 0 0 0 0 0 0 0 0 0 0 0 0 0 0 0 0 0 0
0 0 0 0 -0.40619081759609 0 -1.20806342945098 0 0 0 0 0 0 0 0 0 0 0 0 0 -1.77352144897691 0 0 0 0 0 0 0 0 -0.572040040937915 0 0 0 0 0 0 0 0 0 0 0 0 0 0 0 0 0 -0.846999446081136 0 0
0 0 0 0 0 -0.40619081759609 0 0 0 0 0 0 0 -1.6002044001273 -0.606648081239007 0 0 0 0 0 0 0 0 0 0 0 0 0 0 0 0 0 0 0 0 0 0 0 0 0 0 0 0 0 0 0 0 0 0 0
0 0 0 0 0.227177988082793 0 -0.40619081759609 0 -1.12118503779303 0 0 0 0 -9.56297380218282 0 0 0 0 0 0 0 0 0 0 0 0 0 0 0 0 0 0 0 0 0 0 0 0 0 0 0 0 0 0 0 0 0 -5.10699229784301 0 0
0 0 0 0 0 0 0 -0.40619081759609 0 0 0 0 0 0 -0.80244015155676 0 0 0 0 0 0 -0.517515389416893 0 0 0 0 0 0 0 0 0 0 0 0 0 0 0 0 0 0 0 0 0 0 0 0 0 -2.27632147008425 0 0
0 0 0 0 0 0 0.232192742782708 0 -0.40619081759609 0 0 0 0 0 0 0 0 0 0 0 0 -2.40444382444014 0 0 0 0 0 0 0 0 0 0 0 0 0 0 0 0 0 0 0 0 0 0 0 0 0 0 0 0
0 0 0 0 0 0 0 0 0 -0.40619081759609 0 0 0 0 -6.51411577626362 0 0 0 0 0 0 -0.239942344533401 0 0 0 0 0 0 0 0 0 0 0 0 0 0 0 0 0 0 0 0 0 0 0 0 0 -0.705105961161303 0 0
0 0 0 0 0 0 0 0 0 0 -0.40619081759609 0 0 0 0 -1.99242442133941 0 0 0 0 0 0 0 -1.37365858315353 0 0 0 0 0 0 0 0 0 0 0 0 0 0 0 0 0 0 0 0 0 0 0 0 0 0
0 0 0 0 0 0 0 0 0 0 0 -0.40619081759609 0 0 0 0 0 0 0 0 0 0 0 0 0 0 0 0 0 0 0 0 0 0 0 0 0 0 0 0 0 0 0 0 0 0 0 -0.556726722250469 0 0
0 0 0 0 0 0 0 0 0 0 0 0 -0.40619081759609 0 0 0 0 0 0 0 0 0 0 0 0 0 0 0 0 0 0 0 0 0 0 0 0 0 0 0 0 0 0 0 0 -0.900858620172032 0 -11.1183468031163 0 0
0.755425807779841 0 0.79601886206689 0 0 0.27940011084354 1.89246204744333 0 0 0 0 0 0 -0.40619081759609 0 0 0 0 0 0 0 0 0 0 -0.448790500863175 0 0 0 0 0 0 0 0 0 0 0 0 0 0 0 0 -0.283358320623837 0 -0.316630031485439 0 0 0 -3.32865859542267 -0.399545054134556 0
0 0 0 0 0 0.118997873823873 0 0.159607074256617 0 1.39170476204401 0 0 0 0 -0.40619081759609 0 0 0 0 0 0 0 0 0 -0.347052184370835 0 0 0 0 0 0 0 0 0 0 0 0 0 0 0 0 -1.092486010985 0 0 0 0 0 -2.27080930376383 -1.00936073354168 0
0 0 0 0 0 0 0 0 0 0 0.390664209812988 0 0 0 0 -0.40619081759609 0 -3.05490024136015 0 0 0 0 0 0 0 0 0 0 0 0 0 0 0 0 0 0 0 0 0 0 0 -0.596896857290351 0 -2.06865710593456 0 0 0 0 0 0
0 0 0 0 0 0 0 0 0 0 0 0 0 0 0 0 -0.40619081759609 0 0 0 0 0 0 0 -0.308960843283117 0 0 0 0 0 0 0 0 0 0 0 0 -0.966764200372952 -1.07432070315374 0 0 0 0 0 0 0 0 0 0 0
0 0 0 0 0 0 0 0 0 0 0 0 0 0 0 0.60049430724152 0 -0.40619081759609 0 0 0 0 0 0 -0.724774645290887 0 0 0 0 0 0 0 0 0 0 0 0 -0.54854098896127 -0.235815440076478 0 0 -0.508653614777817 0 0 0 0 0 0 -1.52893422600459 0
0 0 0 0 0 0 0 0 0 0 0 0 0 0 0 0 0 0 -0.40619081759609 0 0 0 0 0 -2.76067884995255 0 0 0 0 0 0 0 0 0 0 0 0 -0.671749873010093 -4.76267308603693 0 0 0 0 -2.75743315189574 0 0 0 0 -0.954389935267651 0
0 0 0 0 0 0 0 0 0 0 0 0 0 0 0 0 0 0 0 -0.40619081759609 0 0 0 0 0 0 0 0 0 0 0 0 0 0 0 0 0 -0.786502145127134 0 0 0 -1.73916548415989 -0.830753153046322 0 0 0 0 0 -6.39977782012581 0
0 0 0 0.0738589669547615 0.369406062412586 0 0 0 0 0 0 0 0 0 0 0 0 0 0 0 -0.40619081759609 0 0 0 0 0 0 0 0 0 0 0 0 0 0 0 0 -2.57248495597573 0 0 0 -1.25575396750524 -0.484932798681202 -0.326520847747565 0 0 0 0 0 -0.466588669838456
0 0 0 0 0 0 0 0.101293820932276 0.478354770570281 0.0470534439822793 0 0 0 0 0 0 0 0 0 0 0 -0.40619081759609 0 0 0 0 0 0 0 0 0 0 0 0 0 0 -0.389631057479913 -8.3225319113504 0 0 0 -3.27146432537733 -0.550078903328235 -0.888532629853238 0 0 0 0 0 0
0 0 0 0 0 0 0 0 0 0 0 0 0 0 0 0 0 0 0 0 0 0 -0.40619081759609 0 0 0 0 0 0 0 0 0 0 0 0 -0.32003002159348 -1.47963340509567 0 0 0 0 -1.19423594754893 0 -0.325709085047356 0 0 0 0 0 0
0 0 0 0 0 0 0 0 0 0 0.287184295937291 0 0 0 0 0 0 0 0 0 0 0 0 -0.40619081759609 0 0 -0.634142254837361 0 0 0 0 0 0 0 0 -1.5824695270743 -2.78752303810361 0 0 0 0 -0.550208198779102 0 -0.368850916643683 -0.278984767836907 0 -0.717654253071926 0 0 -0.419248672177446
0 0 0 0 0 0 0 0 0 0 0 0 0 0.0886162287034524 0.0709475125955351 0 0.0625591673265551 0.1426260808439 0.550866615260655 0 0 0 0 0 -0.40619081759609 0 -0.595342206245947 0 0 0 0 0 0 0 0 -3.76804685114946 -0.706198469565996 0 0 0 0 -0.160336473520334 0 0 0 0 0 0 0 -1.65695728678306
0 0 0 0 0 0 0 0 0 0 0 0 0 0 0 0 0 0 0 0 0 0 0 0 0 -0.40619081759609 -0.199227339531641 0 0 0 0 0 0 0 0 -1.98902143500592 0 0 0 0 0 -1.00413419734807 0 -1.98147197637545 -0.229216829214733 0 -0.789505951098564 0 0 -0.4737494819806
0 0 0 0 0 0 0 0 0 0 0 0 0 0 0 0 0 0 0 0 0 0 0 0.133806483013996 0.124399237160052 0.0365829352446465 -0.40619081759609 0.0576854045823431 0.171063866222557 0 0 0 0 0 0 -0.514021935553153 -0.825009882633847 0 0 0 0 -1.54315793026339 0 -8.21289951230612 0 0 -0.817192464192342 0 0 0
0 0.178099044030837 0.561851585818356 0.355840514752821 0 0 0 0 0 0 0 0 0 0 0 0 0 0 0 0 0 0 0 0 0 0 -0.27708282716241 -0.40619081759609 0 0 0 0 0 0 0 -4.65195808002478 -1.46604368903847 0 0 0 0 0 0 0 -0.152322679405462 0 -0.422606954279336 0 0 0
0 0 0 0 0 0 0 0 0 0 0 0 0 0 0 0 0 0 0 0 0 0 0 0 0 0 -0.877801229014557 0 -0.40619081759609 0 0 0 0 0 0 -0.92152332410008 -0.221837817649477 0 0 0 0 0 0 0 0 0 -0.566573279311753 0 0 -0.440581012911507
0 0.597085273570495 0.227823561854973 0 0.11409537737546 0 0 0 0 0 0 0 0 0 0 0 0 0 0 0 0 0 0 0 0 0 0 0 0 -0.40619081759609 0 0 0 0 -2.04817329040297 -0.868123007363087 -1.01163747465063 0 0 -1.1338085112078 0 0 0 -0.720746236588836 0 0 0 0 0 -4.72578680222615
0 0 0 0 0 0 0 0 0 0 0 0 0 0 0 0 0 0 0 0 0 0 0 0 0 0 0 0 0 0 -0.40619081759609 0 0 0 0 0 0 0 0 0 0 0 0 0 0 0 0 0 0 -2.22580608353406
0 0 0 0 0 0 0 0 0 0 0 0 0 0 0 0 0 0 0 0 0 0 0 0 0 0 0 0 0 0 0 -0.40619081759609 0 0 0 0 -2.36848371427786 0 0 0 -1.0157374238257 0 0 0 0 0 0 0 0 -0.385834067754761
0 0 0 0 0 0 0 0 0 0 0 0 0 0 0 0 0 0 0 0 0 0 0 0 0 0 0 0 0 0 0 0 -0.40619081759609 0 0 0 -0.232593749953448 0 0 0 -0.71958808109431 0 0 0 0 0 0 0 0 -0.759313910175038
0 0 0 0 0 0 0 0 0 0 0 0 0 0 0 0 0 0 0 0 0 0 0 0 0 0 0 0 0 0 0 0 0 -0.40619081759609 0 0 -0.385424306524484 0 0 -1.26163109294383 0 0 0 0 0 0 0 0 0 0
0 0 0 0 0 0 0 0 0 0 0 0 0 0 0 0 0 0 0 0 0 0 0 0 0 0 0 0 0 0.409315411067017 0 0 0 0 -0.40619081759609 0 -1.53628921607662 0 0 0 -0.623707503964836 0 0 0 0 0 0 0 0 -0.274053227369028
0 0 0 0 0 0 0 0 0 0 0 0 0 0 0 0 0 0 0 0 0 0 0.0641736930745833 0.325753647567669 0.757503325189454 0.395818099868883 0.0981125744712699 0.890125029234553 0.192405739637826 0.181328762707154 0 0 0 0 0 -0.40619081759609 0 0 0 0 0 0 0 0 0 0 0 0 0 -0.264904256419291
0 0 0 0 0 0 0 0 0 0 0 0 0 0 0 0 0 0 0 0 0 0.0761634596176702 0.266419137944547 0.542393286001961 0.146907728908005 0 0.170950499209334 0.292565885368839 0.0441510418324993 0.19898655409015 0 0.455042938558144 0.0529323366357265 0.0722264977970004 0.307105181528797 0 -0.40619081759609 0 0 0 -0.582232267727575 0 0 0 0 0 0 0 0 -0.598188916218082
0 0 0 0 0 0 0 0 0 0 0 0 0 0 0 0 0.184914822939235 0.119856663920828 0.133194901178682 0.160572730353892 0.500975145412011 1.76961470933217 0 0 0 0 0 0 0 0 0 0 0 0 0 0 0 -0.40619081759609 0 0 -3.86960160869453 0 0 0 0 0 0 0 0 0
0 0 0 0 0 0 0 0 0 0 0 0 0 0 0 0 0.207864434992704 0.0487320526105628 0.940545138023601 0 0 0 0 0 0 0 0 0 0 0 0 0 0 0 0 0 0 0 -0.40619081759609 0 -1.39045944116172 0 0 0 0 0 0 0 0 0
0 0 0 0 0 0 0 0 0 0 0 0 0 0 0 0 0 0 0 0 0 0 0 0 0 0 0 0 0 0.233201024728829 0 0 0 0.274810025955064 0 0 0 0 0 -0.40619081759609 -0.986939841077785 0 0 0 0 0 0 0 0 0
0 0 0 0 0 0 0 0 0 0 0 0 0 0 0 0 0 0 0 0 0 0 0 0 0 0 0 0 0 0 0 0.223457083538994 0.134797860564711 0 0.12212767586574 0 0.116018893844456 0.742318331535305 0.259599941590261 0.19754680238074 -0.40619081759609 0.0858616757649723 0.161272927791259 0.023809053604633 0 0 0 0 0 -0.756189396285284
0 0 0 0 0 0 0 0 0 0 0 0 0 0.056322737342861 0.214246962076163 0.111466855696971 0 0.109417678959047 0 0.359797816004244 0.256798159714706 0.64301001332284 0.247892291820532 0.107028897855431 0.0282940411611741 0.207072902843771 0.296254003168194 0 0 0 0 0 0 0 0 0 0 0 0 0 -0.462569495083604 -0.40619081759609 0 0 0 0 0 0 0 0
0 0 0 0 0 0 0 0 0 0 0 0 0 0 0 0 0 0 0 0.173482940376693 0.105280255096489 0.109668120911497 0 0 0 0 0 0 0 0 0 0 0 0 0 0 0 0 0 0 -0.755632732290029 0 -0.40619081759609 0 0 0 0 0 0 -7.18113550815653
0 0 0 0 0 0 0 0 0 0 0 0 0 0.0647216496421292 0 0.436835790480287 0 0 0.57537976186115 0 0.0677510836971482 0.185227007742204 0.0651229087520125 0.0726077281682897 0 0.389354889598534 1.65546082499597 0 0 0.131541697734219 0 0 0 0 0 0 0 0 0 0 -0.127155351153737 0 0 -0.40619081759609 0 0 0 0 0 -0.889695590698277
0 0 0 0 0 0 0 0 0 0 0 0 0 0 0 0 0 0 0 0 0 0 0 0.0601214691062188 0 0.0442229693803679 0 0.0299166303147562 0 0 0 0 0 0 0 0 0 0 0 0 0 0 0 0 -0.40619081759609 0 0 0 0 0
0 0 0 0 0 0 0 0 0 0 0 0 0.179549230199065 0 0 0 0 0 0 0 0 0 0 0 0 0 0 0 0 0 0 0 0 0 0 0 0 0 0 0 0 0 0 0 0 -0.40619081759609 0 0 0 0
0 0 0 0 0 0 0 0 0 0 0 0 0 0 0 0 0 0 0 0 0 0 0 0.143724901928975 0 0.161060911833628 0.156766594392561 0.0785492961979865 0.121986491970471 0 0 0 0 0 0 0 0 0 0 0 0 0 0 0 0 0 -0.40619081759609 0 0 0
0 0 0 0 0.171247888242801 0 0.993003541088312 0.47437139494617 0 0.143323147184268 0 0.116531152275742 2.36788806873047 0.716354378790487 0.436549125881871 0 0 0 0 0 0 0 0 0 0 0 0 0 0 0 0 0 0 0 0 0 0 0 0 0 0 0 0 0 0 0 0 -0.40619081759609 0 0
0 0 0 0 0 0 0 0 0 0 0 0 0 0.0852440724545692 0.210547112801925 0 0 0.307203777642827 0.181531652938845 1.21426443730874 0 0 0 0 0 0 0 0 0 0 0 0 0 0 0 0 0 0 0 0 0 0 0 0 0 0 0 0 -0.40619081759609 0
0 0 0 0 0 0 0 0 0 0 0 0 0 0 0 0 0 0 0 0 0.0989938277610746 0 0 0.0854411641925506 0.319733509781034 0.095978401537606 0 0 0.0898587851575371 0.923375560111229 0.406209062732612 0.0765875991201372 0.157136344691996 0 0.0609762846913512 0.0521707494235237 0.119779622510191 0 0 0 0.153178939515831 0 1.35189869577596 0.177090109412215 0 0 0 0 0 -0.40619081759609
