-0.147045980409055 0 0 0 0 0 0 0 0 0 0 0 0 0 0 0 0 0 -1.86819793294981 0 0 0 0 0 0 0 0 0 0 0 0 0 0 0 0 0 0 0 0 0 0 0 0 0 0 0 0 0 0 0
0 -0.147045980409055 -1.14750551624118 0 0 0 0 0 0 0 0 0 0 0 0 0 0 0 0 -1.36808588250596 0 0 0 0 0 0 0 0 0 0 0 0 0 0 0 0 0 0 0 0 0 0 0 0 0 0 0 0 0 0
0 0.215369332129008 -0.147045980409055 -0.428063931906601 0 0 0 -1.0736457675753 0 0 0 0 0 0 0 -0.775697507140942 0 -0.745004124313109 0 -0.777409874548444 0 0 0 0 0 0 0 0 0 0 0 0 0 0 0 0 0 0 0 0 0 0 0 0 0 0 0 0 0 0
0 0 0.0934386885897596 -0.147045980409055 0 0 0 0 0 0 0 0 0 -1.67852065484595 0 0 0 0 0 -4.35587470520818 0 0 0 0 0 0 0 0 0 0 0 0 0 0 0 0 0 -0.538732330958925 0 0 0 0 0 0 0 0 0 0 0 0
0 0 0 0 -0.147045980409055 0 0 0 -0.888507625498316 0 0 0 -4.22155207614472 0 0 0 0 0 0 0 -0.174830962577166 0 0 0 0 0 0 0 0 0 0 0 0 0 0 0 0 0 0 0 0 0 0 0 0 0 0 0 0 0
0 0 0 0 0 -0.147045980409055 0 0 -1.97541572621836 -0.767855987161349 0 0 -1.30735347673525 0 0 0 0 0 0 0 0 0 0 -0.805051227839246 0 0 0 -0.413404189683864 0 0 0 0 0 0 0 0 0 -0.494949335994998 0 0 0 0 0 0 0 0 0 0 0 0
0 0 0 0 0 0 -0.147045980409055 0 -0.543177844012836 0 0 0 -1.12623940921418 0 0 0 0 0 0 0 0 0 0 -2.43686641876615 0 0 0 0 0 0 0 0 0 -0.24473260772169 0 0 0 -0.848110482839824 0 0 0 0 0 0 -1.07939407741398 0 0 0 0 0
0 0 0.206457013546486 0 0 0 0 -0.147045980409055 0 0 0 0 0 0 0 0 0 0 0 -2.71228502472052 0 0 0 -0.126049643431324 0 0 0 0 0 0 0 0 0 -2.77634059158561 0 0 0 0 0 0 0 0 0 0 0 0 0 0 0 0
0 0 0 0 0.173737999562213 0.377172792088243 0.11191401159382 0 -0.147045980409055 0 0 0 -2.81937916160099 0 0 0 0 0 0 -0.689987321359082 0 0 0 -0.442271571094564 0 0 -1.578161270999 0 0 0 0 0 0 0 0 0 0 0 0 0 -0.613880085834838 0 0 0 0 0 0 0 0 0
0 0 0 0 0 0.158422436245319 0 0 0 -0.147045980409055 0 0 -0.128026796732947 0 0 0 0 0 0 0 0 0 0 0 0 0 0 -1.86416454543827 0 0 0 0 -0.262094181469928 0 0 0 0 0 0 0 -0.404743407080338 0 0 0 0 0 0 0 0 0
0 0 0 0 0 0 0 0 0 0 -0.147045980409055 0 -3.088346883833 0 0 0 0 0 0 -0.440834404150878 0 0 0 0 0 0 0 -0.535496555137054 0 0 0 0 -0.822357867537371 0 0 0 -0.94670334711518 0 0 0 -0.172769546148096 0 0 0 0 0 0 0 0 0
0 0 0 0 0 0 0 0 0 0 0 -0.147045980409055 0 0 0 0 0 0 0 0 0 0 0 0 0 0 -5.1731346060829 0 0 -1.42688410109213 0 0 0 0 0 0 -2.73251332118916 0 0 0 0 0 0 0 0 0 0 0 0 0
0 0 0 0 0.767948091089521 0.26399356604966 0.209128792806139 0 0.541357561747256 0.024922039791266 0.651344761689777 0 -0.147045980409055 0 0 0 0 0 0 0 0 0 0 0 0 0 -1.08515934878371 -2.00290764042118 0 -0.710517418446277 0 0 0 0 0 0 0 0 0 0 0 0 0 0 0 0 0 0 0 0
0 0 0 0.323940701476206 0 0 0 0 0 0 0 0 0 -0.147045980409055 0 0 0 0 0 0 0 0 0 0 0 0 0 0 0 -3.08663350991343 0 0 -0.982856231423738 0 -0.314959694484707 0 0 0 0 0 0 0 0 0 0 0 0 0 0 0
0 0 0 0 0 0 0 0 0 0 0 0 0 0 -0.147045980409055 0 0 0 0 0 0 0 0 0 0 0 0 -0.231266464998475 0 -2.19072143495534 0 0 0 0 0 0 -4.4893883871177 0 0 0 0 0 0 0 0 0 0 0 0 0
0 0 0.156621613003343 0 0 0 0 0 0 0 0 0 0 0 0 -0.147045980409055 0 0 0 0 0 0 0 0 0 0 0 -1.64515969603829 0 0 0 0 0 0 -4.47850756200307 0 -1.31598360459828 0 0 0 0 0 -4.3617176574547 0 0 0 0 0 0 0
0 0 0 0 0 0 0 0 0 0 0 0 0 0 0 0 -0.147045980409055 0 0 0 0 0 0 0 0 0 0 -0.941593331326416 0 0 0 0 0 0 -0.847329577845041 0 0 0 0 0 0 0 0 0 0 0 0 0 0 0
0 0 0.155091273772918 0 0 0 0 0 0 0 0 0 0 0 0 0 0 -0.147045980409055 0 0 0 -0.481804024620803 0 0 0 -1.18946181437976 0 -3.62405639711661 0 0 0 0 0 0 -0.53482396791045 0 -0.496424845903647 0 0 0 0 0 -4.0567288808654 0 0 0 0 0 0 0
0.388572006345053 0 0 0 0 0 0 0 0 0 0 0 0 0 0 0 0 0 -0.147045980409055 0 0 -4.90311946175523 0 0 0 0 0 -0.350050775072745 0 0 0 -8.34122633486329 0 0 0 0 -0.109888588025639 0 0 -3.96553064338627 0 0 0 0 0 0 -1.97007663568535 0 0 0
0 0.280541507482564 0.147657984675508 0.840407515734544 0 0 0 0.580283030568016 0.129444522581608 0 0.0973425455490755 0 0 0 0 0 0 0 0 -0.147045980409055 0 -0.5437936624243 0 0 0 0 0 -3.0316398183237 0 0 0 -0.639596656430981 0 0 0 0 -4.34352621351029 0 0 0 0 0 0 0 0 0 0 0 0 0
0 0 0 0 0.0370826287669596 0 0 0 0 0 0 0 0 0 0 0 0 0 0 0 -0.147045980409055 -0.252327570145762 0 0 0 0 0 0 0 0 0 -4.2213690058417 0 0 -5.25075865238715 0 0 0 0 -0.127091880622967 0 0 0 0 0 0 0 0 0 0
0 0 0 0 0 0 0 0 0 0 0 0 0 0 0 0 0 0.0999659532972112 1.00014281955916 0.113945147485477 0.0518986123336493 -0.147045980409055 0.287833848821284 0.242027570593033 0 0 0 0 0 0 0 -0.473987292528879 0 0 0 0 -2.22516364440845 0 0 0 0 0 0 0 0 0 -1.98708576149935 0 0 0
0 0 0 0 0 0 0 0 0 0 0 0 0 0 0 0 0 0 0 0 0 -1.32428163463467 -0.147045980409055 0 0 0 0 0 0 0 0 0 0 0 0 0 -3.18641793356982 0 0 0 0 0 0 0 0 0 0 0 0 0
0 0 0 0 0 0.161568527795931 0.486493649048497 0.0259319158991311 0.0919789763734205 0 0 0 0 0 0 0 0 0 0 0 0 -1.29362473382779 0 -0.147045980409055 -1.55362584848582 0 0 0 0 0 0 0 0 0 0 0 0 0 0 0 0 0 0 0 0 0 -5.69680445935784 0 0 0
0 0 0 0 0 0 0 0 0 0 0 0 0 0 0 0 0 0 0 0 0 0 0 0.297849864416759 -0.147045980409055 0 0 0 0 0 0 0 0 0 0 0 -2.2009294003816 0 0 0 0 0 0 0 0 0 -0.189380918414763 0 0 0
0 0 0 0 0 0 0 0 0 0 0 0 0 0 0 0 0 0.232642727475064 0 0 0 0 0 0 0 -0.147045980409055 0 0 0 0 0 0 0 0 0 0 -0.246269821961506 0 0 0 0 0 0 0 0 0 -0.743373097966722 0 0 0
0 0 0 0 0 0 0 0 0.288267596778566 0 0 1.02175953116573 0.199331736984245 0 0 0 0 0 0 0 0 0 0 0 0 0 -0.147045980409055 0 0 0 0 0 0 0 0 0 0 0 0 0 0 0 0 0 0 0 0 0 0 0
0 0 0 0 0 0.0915252561037842 0 0 0 0.365070472450872 0.109500964688258 0 0.40086301940431 0 0.0481474681743101 0.332770970589253 0.192324219185092 0.701770161872661 0.0668714868740274 0.618744424568149 0 0 0 0 0 0 0 -0.147045980409055 0 0 -0.62737257142853 0 0 0 0 0 0 0 0 0 0 0 0 0 0 0 -0.380246341915135 0 0 0
0 0 0 0 0 0 0 0 0 0 0 0 0 0 0 0 0 0 0 0 0 0 0 0 0 0 0 0 -0.147045980409055 0 -0.348166823331362 0 0 0 0 0 0 0 0 0 0 0 0 0 0 0 -0.141730082370307 0 0 0
0 0 0 0 0 0 0 0 0 0 0 0.284273212329413 0.140876202047533 0.643295775533595 0.479523807330124 0 0 0 0 0 0 0 0 0 0 0 0 0 0 -0.147045980409055 0 0 0 0 0 0 0 0 0 0 0 0 0 0 0 0 0 0 0 0
0 0 0 0 0 0 0 0 0 0 0 0 0 0 0 0 0 0 0 0 0 0 0 0 0 0 0 0.12161566352157 0.0715517284715765 0 -0.147045980409055 0 0 0 0 0 0 0 0 0 0 0 0 0 0 0 -3.13515465186227 0 0 0
0 0 0 0 0 0 0 0 0 0 0 0 0 0 0 0 0 0 1.68822186568302 0.12336573096312 0.887084282580046 0.0874919722445853 0 0 0 0 0 0 0 0 0 -0.147045980409055 0 0 0 0 0 0 0 0 0 0 0 0 0 0 -0.934641902420225 0 0 0
0 0 0 0 0 0 0 0 0 0.0547565055032997 0.161348113508834 0 0 0.190202250516185 0 0 0 0 0 0 0 0 0 0 0 0 0 0 0 0 0 0 -0.147045980409055 0 0 0 0 0 0 0 0 0 0 0 0 0 0 0 0 0
0 0 0 0 0 0 0.0507969869161057 0.561648955669391 0 0 0 0 0 0 0 0 0 0 0 0 0 0 0 0 0 0 0 0 0 0 0 0 0 -0.147045980409055 0 0 0 0 0 0 0 0 0 0 0 0 0 0 0 -1.36599176037544
0 0 0 0 0 0 0 0 0 0 0 0 0 0.0589940511160352 0 0.849922746444285 0.170235643029805 0.108872000187401 0 0 0.941986414904288 0 0 0 0 0 0 0 0 0 0 0 0 0 -0.147045980409055 -0.449968479450405 0 0 -2.89376843284562 0 0 0 0 0 0 0 0 0 0 -1.3479367193855
0 0 0 0 0 0 0 0 0 0 0 0 0 0 0 0 0 0 0 0 0 0 0 0 0 0 0 0 0 0 0 0 0 0 0.0877854416803313 -0.147045980409055 0 0 0 0 0 -0.241063014503628 0 0 0 0 0 0 0 -0.762461807157583
0 0 0 0 0 0 0 0 0 0 0.200281767725862 0.507903251661497 0 0 0.905299797764958 0.270927475190971 0 0.10003819117683 0.0217683389026367 0.807833027491782 0 0.468532106549615 0.583614605622728 0 0.427254419106187 0.0499830369938924 0 0 0 0 0 0 0 0 0 0 -0.147045980409055 0 -1.58075986177714 0 0 -3.17733178458497 0 0 0 0 0 0 0 0
0 0 0 0.112713254165525 0 0.105257894223096 0.183819532248679 0 0 0 0 0 0 0 0 0 0 0 0 0 0 0 0 0 0 0 0 0 0 0 0 0 0 0 0 0 0 -0.147045980409055 0 0 0 -11.43136407261 0 0 0 0 0 0 0 0
0 0 0 0 0 0 0 0 0 0 0 0 0 0 0 0 0 0 0 0 0 0 0 0 0 0 0 0 0 0 0 0 0 0 0.567227283325433 0 0.287057216733433 0 -0.147045980409055 0.0825165526411756 0.177667124898808 0.138603937613237 0.0751859361470386 0.0586636996714921 0 0.119534457668513 0.285553260914412 0 0 0
0 0 0 0 0 0 0 0 0 0 0 0 0 0 0 0 0 0 0.857077721555535 0 0.0244521822883299 0 0 0 0 0 0 0 0 0 0 0 0 0 0 0 0 0 -0.392839823404966 -0.147045980409055 0 0 0 0 0 0 0 -3.45843230902412 0 0
0 0 0 0 0 0 0 0 0.120281186985524 0.0786238345400714 0.0324935365861529 0 0 0 0 0 0 0 0 0 0 0 0 0 0 0 0 0 0 0 0 0 0 0 0 0 0 0 -0.895351826103532 0 -0.147045980409055 0 0 0 0 -2.42414828964966 0 0 0 0
0 0 0 0 0 0 0 0 0 0 0 0 0 0 0 0 0 0 0 0 0 0 0 0 0 0 0 0 0 0 0 0 0 0 0 0.0455723089636581 0.617641174139523 2.25533942741388 -0.644760017805451 0 0 -0.147045980409055 0 -0.495638182536978 0 0 0 0 -3.61060885104049 0
0 0 0 0 0 0 0 0 0 0 0 0 0 0 0 0.908471488827983 0 0.821310618798089 0 0 0 0 0 0 0 0 0 0 0 0 0 0 0 0 0 0 0 0 -0.367928665987516 0 0 0 -0.147045980409055 0 0 0 0 0 -0.963851000595506 0
0 0 0 0 0 0 0 0 0 0 0 0 0 0 0 0 0 0 0 0 0 0 0 0 0 0 0 0 0 0 0 0 0 0 0 0 0 0 -0.289584258459788 0 0 0.0965004633199147 0 -0.147045980409055 0 -0.28660409194079 0 0 -1.37419103567339 0
0 0 0 0 0 0 0.240219005425968 0 0 0 0 0 0 0 0 0 0 0 0 0 0 0 0 0 0 0 0 0 0 0 0 0 0 0 0 0 0 0 0 0 0 0 0 0 -0.147045980409055 -1.07146068593353 0 0 -0.190868881748704 0
0 0 0 0 0 0 0 0 0 0 0 0 0 0 0 0 0 0 0 0 0 0 0 0 0 0 0 0 0 0 0 0 0 0 0 0 0 0 -0.574718707877215 0 0.483441089956127 0 0 0.0565748427745953 0.215860048487192 -0.147045980409055 0 0 -1.44612657694819 0
0 0 0 0 0 0 0 0 0 0 0 0 0 0 0 0 0 0 0.364365667957227 0 0 0.426656104919773 0 1.14361885703531 0.0419906505115738 0.153646396368211 0 0.0721268483494926 0.0280535894854242 0 0.642354727267282 0.212434581875298 0 0 0 0 0 0 -1.39077013641103 0 0 0 0 0 0 0 -0.147045980409055 0 -0.775313547796345 0
0 0 0 0 0 0 0 0 0 0 0 0 0 0 0 0 0 0 0 0 0 0 0 0 0 0 0 0 0 0 0 0 0 0 0 0 0 0 0 0.716842573467375 0 0 0 0 0 0 0 -0.147045980409055 0 0
0 0 0 0 0 0 0 0 0 0 0 0 0 0 0 0 0 0 0 0 0 0 0 0 0 0 0 0 0 0 0 0 0 0 0 0 0 0 0 0 0 0.769648123412368 0.200803791338946 0.278383771968232 0.0398244879184931 0.285943695556089 0.163889599452036 0 -0.147045980409055 0.144652221375518
0 0 0 0 0 0 0 0 0 0 0 0 0 0 0 0 0 0 0 0 0 0 0 0 0 0 0 0 0 0 0 0 0 0.272734356717574 0.253671663833948 0.152654906520741 0 0 0 0 0 0 0 0 0 0 0 0 -0.766290898494405 -0.147045980409055
