0.678278034466247
2.02494865720565
2.4502347112712
2.14152419742077
2.6977704247115
0.621895279894102
0.428409683131434
1.70370021681829
1.51964230802327
0.367209139424472
1.44352695356385
2.33877965508889
1.22526961447005
0.21367694467809
11.133406948916
0.529128137808464
0.778912663798822
1.02092566562696
1.15826380707023
1.53585788330467
0.51933817778176
2.81694325719527
0.637848390607316
2.41605177274563
0.869458619188742
1.37048012992148
0.52881956191284
0.914855070835411
7.00753896778778
3.33621943001342
0.432878902258214
3.23301607024652
0.830392361406628
0.264043777394276
0.382673482439049
0.380926765540688
1.98234318513909
0.601324970557237
1.35558053390066
0.228864137139395
0.703090521558723
0.686311561021168
1.1532655938618
1.27943549861957
5.97424121527646
0.108851963116764
0.58837677488131
0.484032743000043
6.16705861984879
0.692159463330094
