-0.202871848297017 0 0 -0.507833201910411 0 0 0 0 0 0 0 0 0 0 0 0 0 0 0 0 0 0 0 0 0 0 0 0 0 0 0 0 0 0 0 0 0 0 0 0 0 0 0 0 0 0 0 0 0 0
0 -0.202871848297017 0 0 0 0 0 0 -0.142112496223567 0 0 0 0 0 0 0 0 0 0 0 0 0 0 0 0 0 0 0 0 0 0 0 0 0 0 0 0 0 0 0 0 0 0 0 0 0 0 0 -1.21707348192208 0
0 0 -0.202871848297017 0 0 0 0 0 0 0 0 0 0 0 0 0 0 -0.752903541488089 0 0 -6.32537579695604 0 0 0 0 0 0 0 0 0 0 0 0 0 0 0 0 0 0 0 0 0 0 0 0 -1.28749058257951 0 0 0 0
0.105606145859128 0 0 -0.202871848297017 0 -1.57327115441277 -1.62922852345905 0 0 -4.33677567099437 0 0 0 0 0 0 0 0 0 0 -0.206009576737079 0 0 0 0 0 0 0 0 0 0 0 0 0 0 0 0 0 0 0 0 0 0 0 0 0 -1.87225045409581 0 -0.258230879223368 0
0 0 0 0 -0.202871848297017 0 0 0 0 0 0 0 0 -3.91994589017271 0 0 0 0 0 0 -0.340062164572007 0 0 -1.4239282059982 0 0 0 -1.03010214570279 0 0 0 0 0 0 -0.223586657031186 0 -1.9870401484432 0 0 0 0 0 0 0 0 -0.0848490432855584 0 0 0 0
0 0 0 0.302607423397415 0 -0.202871848297017 0 0 0 0 0 0 0 -5.32024394618435 0 0 0 0 0 0 -2.14116001476758 0 0 -1.27559319099584 0 0 0 0 0 0 0 0 0 0 -0.549364262309664 0 -2.9863534617347 0 0 0 0 0 0 0 0 -0.393834113519298 -2.31319028871184 0 -2.16112024674924 0
0 0 0 0.345810608916446 0 0 -0.202871848297017 0 0 0 0 0 0 -1.65441514912566 0 0 0 0 0 0 -6.4808276859147 0 -0.634400578220433 -1.35265882462201 0 0 0 0 0 0 0 0 0 0 0 0 0 0 0 0 0 0 0 0 0 -8.08162889396558 -0.0670903367806857 0 -3.83365959090069 0
0 0 0 0 0 0 0 -0.202871848297017 0 0 0 0 0 -0.415321201829836 0 0 0 0 0 0 0 0 -2.40366806120261 -1.863878345216 0 0 0 -0.18042462175542 0 0 0 0 0 0 0 0 0 0 0 0 0 0 0 0 0 0 0 0 -5.60067603233658 0
0 0.0298207812114762 0 0 0 0 0 0 -0.202871848297017 0 0 0 0 -1.23239345038553 0 0 0 0 0 0 -0.251166709817088 0 -1.64757403616019 -0.322084820259443 0 0 0 -0.506785846876338 0 0 0 0 0 0 0 0 0 0 0 0 0 0 0 0 0 -0.831238767183099 -1.07254577269802 0 -1.86680314266434 0
0 0 0 0.89496389874252 0 0 0 0 0 -0.202871848297017 0 0 0 0 0 0 0 0 0 0 -1.28770988564707 0 -0.552748350526681 0 0 0 0 0 0 0 0 0 0 0 0 0 0 -1.30763469754914 0 0 0 0 0 0 0 -0.562299874622726 -0.39704498739244 0 -0.445641852396774 0
0 0 0 0 0 0 0 0 0 0 -0.202871848297017 0 0 0 0 0 0 0 0 0 0 0 -0.879084654423006 -1.57701035269134 0 0 0 0 0 0 -0.388311479574605 0 0 0 0 0 0 -0.649624403221678 0 0 0 0 0 0 0 -1.6997482360992 0 0 0 0
0 0 0 0 0 0 0 0 0 0 0 -0.202871848297017 0 0 0 0 0 0 0 0 -1.27670556254331 -1.32715520232744 -0.575028225994672 -1.03445246734593 0 0 0 0 0 0 -9.32001937643694 0 0 0 0 0 0 0 0 0 0 0 0 0 0 0 -0.325623857858766 0 0 0
0 0 0 0 0 0 0 0 0 0 0 0 -0.202871848297017 0 0 0 0 0 0 0 -1.73656776258473 -5.25279346169091 0 -6.18472783270172 0 0 0 0 0 0 -0.704551839321715 0 0 0 0 0 0 -0.479134117438343 0 0 0 0 0 0 0 0 0 0 0 0
0 0 0 0 0.712032733250982 1.09410109611711 0.337688533165631 0.0839199021817923 0.254570968899349 0 0 0 0 -0.202871848297017 0 0 0 0 0 0 0 -0.506903967322287 -0.549505938263019 0 0 0 0 0 0 -1.56170723017781 -2.05287475777899 0 0 0 0 0 0 0 0 0 0 0 0 0 0 0 -0.377068916511195 0 0 0
0 0 0 0 0 0 0 0 0 0 0 0 0 0 -0.202871848297017 0 0 0 0 -0.692752856189359 0 -0.988465320843532 0 0 0 0 0 0 0 -1.04738059721569 -1.8289050647341 0 0 0 0 0 0 -1.37663797373089 0 0 0 0 0 0 0 0 -0.431555617830387 0 0 0
0 0 0 0 0 0 0 0 0 0 0 0 0 0 0 -0.202871848297017 0 0 0 0 0 0 0 0 0 -1.10448475524985 0 0 0 -4.19501652237585 -0.104270400525875 0 0 0 0 0 0 -0.287581017322785 0 0 0 0 0 0 0 0 0 0 0 0
0 0 0 0 0 0 0 0 0 0 0 0 0 0 0 0 -0.202871848297017 0.357521857806892 0.619801559046555 0 0 0 0 0 0 0 0 0 0 -2.37045263624508 -2.12167875921922 0 -0.524800035992855 0 0 0 0 0 0 0 0 0 0 0 0 0 0 0 0 0
0 0 0.153836841719922 0 0 0 0 0 0 0 0 0 0 0 0 0 -1.82983632871608 -0.202871848297017 0 0 0 0 0 0 0 0 0 0 0 0 -1.5904595161555 0 0 0 0 0 0 0 0 -2.00133363407391 0 0 0 0 0 0 0 0 0 0
0 0 0 0 0 0 0 0 0 0 0 0 0 0 0 0 -2.8679504563146 0 -0.202871848297017 0 0 0 0 0 0 0 0 0 0 0 0 0 0 0 0 0 0 0 0 0 0 0 0 0 0 0 0 0 0 0
0 0 0 0 0 0 0 0 0 0 0 0 0 0 0.139137099125813 0 0 0 0 -0.202871848297017 0 0 0 0 0 0 -0.220563986079851 0 0 -0.506304502150228 0 0 0 0 0 0 0 0 0 -0.743930173170051 -1.55218493646831 0 0 0 -1.39289842067067 0 0 0 0 0
0 0 1.34056382860307 0.0393734607182151 0.0734555037936374 0.414246165189281 1.40427080141038 0 0.0499373309222341 0.248606601947188 0 0.270543723099049 0.331285305629874 0 0 0 0 0 0 0 -0.202871848297017 0 0 0 0 0 0 0 0 0 0 0 0 0 0 0 0 0 0 -2.12476537491141 -0.338461789252073 0 0 0 -1.23658571366259 0 0 0 0 0
0 0 0 0 0 0 0 0 0 0 0 0.256994132058985 1.01547555404579 0.103605405086595 0.194246617171657 0 0 0 0 0 0 -0.202871848297017 0 0 0 0 -1.40886181358559 0 0 0 -4.36183732819067 0 0 0 0 0 0 0 0 0 -0.8352629243947 0 0 0 0 0 0 0 0 0
0 0 0 0 0 0 0.137441760253434 0.506906125410061 0.330551783916218 0.112571770369921 0.17010169713064 0.112292928263825 0 0.108313132994146 0 0 0 0 0 0 0 0 -0.202871848297017 0 0 0 -1.81418852545469 0 0 0 0 0 0 0 0 0 0 0 0 0 -4.73658594937284 0 0 0 -0.0925389133172758 0 0 0 0 0
0 0 0 0 0.273619178317968 0.242887124658753 0.28197785039184 0.347269534153455 0.0693995870373322 0 0.300364146005836 0.214245342032032 1.30374541733263 0 0 0 0 0 0 0 0 0 0 -0.202871848297017 0 0 0 0 -1.34325236173484 0 0 0 0 -0.331770623185363 0 0 0 0 0 0 0 0 0 0 0 0 0 -2.31643944234219 0 0
0 0 0 0 0 0 0 0 0 0 0 0 0 0 0 0 0 0 0 0 0 0 0 0 -0.202871848297017 0 0 0 0 0 0 0 0 -1.07499181578693 0 -0.149528125412107 0 0 0 0 0 -0.370952396067441 0 0 0 0 0 0 0 0
0 0 0 0 0 0 0 0 0 0 0 0 0 0 0 0.229484315576906 0 0 0 0 0 0 0 0 0 -0.202871848297017 0 0 -1.06524540672166 0 0 -0.80631604964875 0 0 0 -0.246919641996057 0 0 0 0 0 -4.213799868801 0 0 0 0 0 0 0 0
0 0 0 0 0 0 0 0 0 0 0 0 0 0 0 0 0 0 0 0.0456343336499958 0 0.311269948852224 0.3492299201465 0 0 0 -0.202871848297017 0 0 0 0 -0.939868772889721 0 -1.04221464278023 0 -1.79201375782381 0 0 0 0 0 0 0 0 0 0 0 0 0 0
0 0 0 0 0.212971036460928 0 0 0.0352892072627579 0.104448843667485 0 0 0 0 0 0 0 0 0 0 0 0 0 0 0 0 0 0 -0.202871848297017 0 0 0 0 0 -0.731132909118325 0 0 0 0 0 0 0 0 0 0 0 0 0 0 0 0
0 0 0 0 0 0 0 0 0 0 0 0 0 0 0 0 0 0 0 0 0 0 0 0.260598433152827 0 0.215843908533174 0 0 -0.202871848297017 0 0 0 0 -0.20806075618759 0 0 0 0 0 0 0 0 0 0 0 0 0 0 0 0
0 0 0 0 0 0 0 0 0 0 0 0 0 0.346316687969457 0.190846105474598 0.800536108110208 0.502458779090862 0 0 0.103715987663831 0 0 0 0 0 0 0 0 0 -0.202871848297017 0 0 0 -1.1697557666489 0 0 0 0 0 0 0 0 0 0 0 0 0 0 0 0
0 0 0 0 0 0 0 0 0 0 0.0788224437928939 1.81245049046658 0.147191211854168 0.408359875547149 0.369177425701477 0.0193814294951674 0.435986604684082 0.330941634535893 0 0 0 0.804984217543014 0 0 0 0 0 0 0 0 -0.202871848297017 0 0 -0.287249415676053 0 0 0 0 0 0 0 0 0 0 0 0 0 0 0 0
0 0 0 0 0 0 0 0 0 0 0 0 0 0 0 0 0 0 0 0 0 0 0 0 0 0.161901320813562 0.180751112027624 0 0 0 0 -0.202871848297017 0 -1.81579787870188 0 0 0 0 0 0 0 0 0 0 0 0 0 0 0 0
0 0 0 0 0 0 0 0 0 0 0 0 0 0 0 0 0.0954243564753542 0 0 0 0 0 0 0 0 0 0 0 0 0 0 0 -0.202871848297017 0 0 0 0 0 0 0 0 0 0 0 0 0 0 0 0 0
0 0 0 0 0 0 0 0 0 0 0 0 0 0 0 0 0 0 0 0 0 0 0 0.0698518696658004 0.216441734915672 0 0.201930011397584 0.147416162200594 0.0385300964031226 0.219481207222167 0.0563625191238617 0.35907360185961 0 -0.202871848297017 0 0 0 0 0 0 0 0 0 0 0 0 0 0 0 0
0 0 0 0 0.047994604365338 0.1098152848408 0 0 0 0 0 0 0 0 0 0 0 0 0 0 0 0 0 0 0 0 0 0 0 0 0 0 0 0 -0.202871848297017 0 0 0 0 0 0 0 0 0 0 0 0 0 0 0
0 0 0 0 0 0 0 0 0 0 0 0 0 0 0 0 0 0 0 0 0 0 0 0 0.0281394827435818 0.0484196944255773 0.357138657120461 0 0 0 0 0 0 0 0 -0.202871848297017 0 0 0 0 0 0 0 0 0 0 0 0 0 0
0 0 0 0 0.407569241945813 0.551863678304242 0 0 0 0 0 0 0 0 0 0 0 0 0 0 0 0 0 0 0 0 0 0 0 0 0 0 0 0 0 0 -0.202871848297017 0 0 0 0 0 0 -0.598803826291677 0 0 0 0 0 0
0 0 0 0 0 0 0 0 0 0.238758615274727 0.124420668002048 0 0.100242927416592 0 0.260977142818992 0.05897451305399 0 0 0 0 0 0 0 0 0 0 0 0 0 0 0 0 0 0 0 0 0 -0.202871848297017 0 0 0 0 0 -2.5425641029892 0 0 0 0 0 0
0 0 0 0 0 0 0 0 0 0 0 0 0 0 0 0 0 0 0 0 0 0 0 0 0 0 0 0 0 0 0 0 0 0 0 0 0 0 -0.202871848297017 0 0 0 0 -1.7579928622388 0 0 0 0 0 0
0 0 0 0 0 0 0 0 0 0 0 0 0 0 0 0 0 0.388513236384039 0 0.151639488442475 0.439811681122014 0 0 0 0 0 0 0 0 0 0 0 0 0 0 0 0 0 0 -0.202871848297017 0 0 0 -3.34773724849912 0 0 0 0 0 0
0 0 0 0 0 0 0 0 0 0 0 0 0 0 0 0 0 0 0 0.292220831574066 0.0717093948080658 0.162997504661836 1.0155306094634 0 0 0 0 0 0 0 0 0 0 0 0 0 0 0 0 0 -0.202871848297017 0 0 -1.69465905700148 0 0 0 0 0 -0.811195276348732
0 0 0 0 0 0 0 0 0 0 0 0 0 0 0 0 0 0 0 0 0 0 0 0 0.0700817516720341 0.897720608094062 0 0 0 0 0 0 0 0 0 0 0 0 0 0 0 -0.202871848297017 0 0 0 0 0 0 0 -1.01847912328678
0 0 0 0 0 0 0 0 0 0 0 0 0 0 0 0 0 0 0 0 0 0 0 0 0 0 0 0 0 0 0 0 0 0 0 0 0 0 0 0 0 0 -0.202871848297017 0 0 0 0 0 0 -1.15980255049978
0 0 0 0 0 0 0 0 0 0 0 0 0 0 0 0 0 0 0 0 0 0 0 0 0 0 0 0 0 0 0 0 0 0 0 0 0.122418073259694 0.491718815768962 0.36426413149582 0.639704155378913 0.346050626602244 0 0 -0.202871848297017 0.0909974501264458 0 0 0 0 0
0 0 0 0 0 0 0 0 0 0 0 0 0 0 0 0 0 0 0 0.280725220034841 0.256700610778476 0 0.0193424991610702 0 0 0 0 0 0 0 0 0 0 0 0 0 0 0 0 0 0 0 0 -0.457512054993566 -0.202871848297017 0 0 0 0 0
0 0 0.280781268922955 0 0.0172744543424817 0.0887787623677596 1.52077764765772 0 0.158181646635549 0.117458224096909 0.368828227110761 0 0 0 0 0 0 0 0 0 0 0 0 0 0 0 0 0 0 0 0 0 0 0 0 0 0 0 0 0 0 0 0 0 0 -0.202871848297017 0 0 0 -3.53259372145553
0 0 0 0.395299127670349 0 0.416864084090054 0.0133664091111457 0 0.227971865320856 0.0830063335806118 0 0.0696047372508477 0 0.0771837485860985 0.0866747697756346 0 0 0 0 0 0 0 0 0 0 0 0 0 0 0 0 0 0 0 0 0 0 0 0 0 0 0 0 0 0 0 -0.202871848297017 0 0 -0.829887465223839
0 0 0 0 0 0 0 0 0 0 0 0 0 0 0 0 0 0 0 0 0 0 0 0.450465285854618 0 0 0 0 0 0 0 0 0 0 0 0 0 0 0 0 0 0 0 0 0 0 0 -0.202871848297017 0 -3.09108415312135
0 0.223731693962167 0 0.0497901618284247 0 0.429699126637184 0.861109163589781 1.06351988778774 0.350462794835787 0.0903773135091316 0 0 0 0 0 0 0 0 0 0 0 0 0 0 0 0 0 0 0 0 0 0 0 0 0 0 0 0 0 0 0 0 0 0 0 0 0 0 -0.202871848297017 0
0 0 0 0 0 0 0 0 0 0 0 0 0 0 0 0 0 0 0 0 0 0 0 0 0 0 0 0 0 0 0 0 0 0 0 0 0 0 0 0 0.169914561272467 0.200406358021994 0.239968894625754 0 0 0.686405653568167 0.164074358652663 0.599621915230952 0 -0.202871848297017
