0.592825649168105
0.728694653115479
1.84939583901651
0.655577959810058
9.8522195836416
0.895770526127364
0.554523274867532
0.791758721255938
2.14235235335511
0.513591608232506
2.05322950212012
3.13771491096207
2.28169390212484
3.10435992834606
0.781642900706553
0.127008330746221
2.34455463539556
2.38252484606219
0.763201646411491
0.500800710885914
0.971565091110877
0.143979686705646
1.40357256776319
0.626196254576482
1.70058510792384
1.21874872378264
0.571991539148584
0.12295745010229
2.09526179027385
0.432028905667117
0.928389282110068
0.767454745672809
0.513072833597035
2.49104527165533
1.529824915534
1.39463517068085
8.38127612525736
0.352865333912275
0.223201850893923
2.29823776135456
2.24187398151719
0.266779152667967
0.287693986127187
3.87953711794944
0.357981688411386
1.68183083050794
0.818544398010197
1.2544306536545
0.746591861198439
0.739853317377406
