-0.290698336325784 0 0 0 0 0 0 0 -2.0885272974696 0 0 0 0 0 0 0 0 0 -1.26426748393266 0 0 0 0 -0.446066117945368 0 0 0 0 0 0 0 0 0 0 0 0 0 0 0 0 0 0 0 0 0 0 0 0 0 0
0 -0.290698336325784 0 0 0 0 0 0 -3.07016999316201 0 0 0 0 0 0 0 0 0 -0.603519074402448 0 0 0 0 0 0 0 0 0 0 0 0 0 0 0 0 0 0 0 0 0 0 0 0 0 0 0 0 0 0 0
0 0 -0.290698336325784 0 0 0 0 0 0 0 0 0 0 -0.264293760185962 0 0 0 0 0 0 0 0 0 0 0 0 0 0 0 0 0 0 0 0 0 0 0 0 0 0 0 0 0 0 0 0 0 0 0 0
0 0 0 -0.290698336325784 0 0 0 0 0 0 0 0 0 0 0 0 0 0 0 0 0 0 0 0 0 0 0 0 0 0 0 0 0 0 0 -0.498872574025338 0 0 0 0 0 0 0 0 0 0 0 0 0 0
0 0 0 0 -0.290698336325784 0 0 0 0 0 0 0 0 0 -4.8830957647638 0 0 0 0 0 0 0 0 0 0 0 0 0 0 0 0 0 0 0 0 0 0 0 0 0 0 0 0 0 0 0 0 0 0 0
0 0 0 0 0 -0.290698336325784 0 0 0 -0.877197622697267 0 0 0 -2.09391018787578 0 0 0 0 0 0 0 0 0 0 0 0 0 0 0 0 0 0 0 0 0 -0.332677998410665 0 0 0 0 0 0 0 0 0 0 0 0 0 0
0 0 0 0 0 0 -0.290698336325784 0 0 0 0 0 0 0 -0.258660652747425 0 0 0 0 0 0 0 0 0 0 0 0 -5.5803739994373 0 0 0 0 0 0 0 -0.451851201098667 0 0 0 0 0 0 0 0 0 0 0 0 0 0
0 0 0 0 0 0 0 -0.290698336325784 0 0 0 0 0 0 -0.708989837956625 0 0 0 0 0 0 0 0 0 0 0 0 0 0 0 0 0 0 0 0 0 0 0 0 0 0 0 0 0 0 0 0 0 0 0
0.406991461753338 0.593999180156336 0 0 0 0 0 0 -0.290698336325784 0 0 0 0 0 -11.8483223401718 -0.338182529676471 0 0 0 -1.37068952274414 0 0 0 0 0 0 0 0 0 0 0 0 0 0 0 -1.38911311749317 0 0 0 0 0 0 0 0 0 0 0 0 0 0
0 0 0 0 0 0.189080060908527 0 0 0 -0.290698336325784 0 -0.633126093537435 0 0 0 0 0 0 0 -1.25044694615598 0 -2.57739482521109 0 0 0 -7.04261210477212 -0.437612302779787 0 0 0 0 0 0 0 0 -4.77296955849791 0 0 0 0 0 0 0 0 0 0 0 0 0 0
0 0 0 0 0 0 0 0 0 0 -0.290698336325784 -0.896398584309522 0 0 0 0 0 0 0 0 0 0 0 0 0 0 -1.7488499277265 0 -0.302030889228216 0 0 0 0 0 0 -0.62851290251084 0 0 0 0 0 0 0 0 0 0 0 0 0 0
0 0 0 0 0 0 0 0 0 0.135246355607382 0.189687879914024 -0.290698336325784 0 0 0 0 0 0 0 0 0 0 0 0 0 0 0 0 0 0 -0.235241447285424 0 0 0 0 0 0 0 0 0 0 0 -1.74213771667809 0 0 0 0 0 0 -3.09550735856351
0 0 0 0 0 0 0 0 0 0 0 0 -0.290698336325784 0 0 0 0 0 0 0 0 0 0 0 -0.431013657380818 0 0 0 0 0 0 0 0 0 0 0 -3.02655377169689 0 0 0 0 0 -1.64805557526081 0 0 0 0 0 0 -1.11560650762404
0 0 0.0526125673845794 0 0 0.395412778117863 0 0 0 0 0 0 0 -0.290698336325784 0 0 0 0 0 0 0 0 -1.60559440745859 0 -2.50246333922222 0 0 0 0 0 0 0 0 0 0 0 -0.999320990234172 0 0 0 0 0 -0.230237284385187 0 0 0 0 0 0 0
0 0 0 0 0.974163229407802 0 0.0544811320904482 0.152100492535417 2.37071577023677 0 0 0 0 0 -0.290698336325784 0 0 0 0 0 0 0 -0.211581956031932 0 0 0 0 0 0 0 0 0 0 0 0 0 0 0 0 0 0 0 0 0 0 0 0 0 0 -0.168431200800619
0 0 0 0 0 0 0 0 0.072713616142436 0 0 0 0 0 0 -0.290698336325784 0 0 0 0 -1.34763634875487 0 -2.92697578391828 0 0 0 0 0 0 0 0 0 0 0 0 0 0 0 0 0 0 0 0 0 0 0 0 0 0 -1.40597914671912
0 0 0 0 0 0 0 0 0 0 0 0 0 0 0 0 -0.290698336325784 0 0 0 0 0 -0.424287142851814 0 0 0 0 0 0 0 0 0 0 0 0 0 0 0 0 0 0 0 -0.594867485652211 0 0 0 0 0 0 -0.322568794327013
0 0 0 0 0 0 0 0 0 0 0 0 0 0 0 0 0 -0.290698336325784 0.0849498313340162 0 0 0 0 0 0 0 0 0 0 0 0 0 0 0 0 0 0 0 0 0 0 0 -0.365337502987819 0 0 0 0 0 0 -0.947946631567038
0.258319539043379 0.123878041152108 0 0 0 0 0 0 0 0 0 0 0 0 0 0 0 -0.430064314785469 -0.290698336325784 0 0 0 0 0 0 0 0 0 0 0 0 0 0 0 0 0 0 -0.473357371362124 0 0 0 0 -1.81281540124799 0 0 0 0 0 0 0
0 0 0 0 0 0 0 0 0.277392528970816 0.221227574987196 0 0 0 0 0 0 0 0 0 -0.290698336325784 0 0 0 0 0 0 0 0 0 0 0 0 0 0 0 0 0 -0.36942033412288 0 0 0 0 -0.196920243902998 0 0 0 0 0 0 -2.46605815174764
0 0 0 0 0 0 0 0 0 0 0 0 0 0 0 0.263583972287803 0 0 0 0 -0.290698336325784 0 0 0 0 0 0 0 0 0 0 -0.723131487423362 0 0 0 0 0 0 0 0 0 0 -3.30991996253481 0 0 0 0 0 0 -0.446500380701496
0 0 0 0 0 0 0 0 0 0.545495667251658 0 0 0 0 0 0 0 0 0 0 0 -0.290698336325784 0 0 0 0 0 0 0 0 0 0 -0.939175764948247 0 0 0 0 0 0 0 -0.294416896962273 0 -1.37764711128949 0 0 0 0 0 0 -3.24661419239425
0 0 0 0 0 0 0 0 0 0 0 0 0 0.297165942697375 0.0454697625020988 0.559449014942195 0.084065600269316 0 0 0 0 0 -0.290698336325784 0 0 0 0 0 0 0 0 -0.690954105510676 -2.35347057837177 0 0 0 0 0 0 0 0 0 0 -0.473902192227646 0 0 0 0 0 0
0.0873261066936737 0 0 0 0 0 0 0 0 0 0 0 0 0 0 0 0 0 0 0 0 0 0 -0.290698336325784 0 0 0 0 0 0 0 -0.703032401550296 0 0 0 0 0 0 0 0 -3.20784493562365 -0.503888872990652 0 -0.561854355852122 0 0 0 0 -1.39625719968017 -1.56070720145788
0 0 0 0 0 0 0 0 0 0 0 0 0.0884968351674967 0.481229348026105 0 0 0 0 0 0 0 0 0 0 -0.290698336325784 0 0 0 0 0 0 0 -1.03301515349628 0 0 0 0 0 0 0 -0.870876921260437 -0.649041363301538 0 -0.81787158330059 0 0 0 0 -8.46692170297524 -3.91121906975618
0 0 0 0 0 0 0 0 0 1.48051759535283 0 0 0 0 0 0 0 0 0 0 0 0 0 0 0 -0.290698336325784 0 0 0 0 0 -0.295739947752667 -1.21713174790392 0 0 0 0 0 0 0 -0.204851629456943 -10.2365606050547 0 -0.562725828284374 0 0 0 0 0 -1.39914135016401
0 0 0 0 0 0 0 0 0 0.0946599563919398 0.360493585712497 0 0 0 0 0 0 0 0 0 0 0 0 0 0 0 -0.290698336325784 0 0 0 0 -1.4417192370104 -0.3347019741038 0 0 0 0 0 0 0 -0.805294492406985 -2.06930729288093 0 0 0 0 0 0 0 -0.595328940321118
0 0 0 0 0 0 1.11490482177731 0 0 0 0 0 0 0 0 0 0 0 0 0 0 0 0 0 0 0 0 -0.290698336325784 0 0 0 0 -1.50634371824143 0 0 0 0 0 0 0 0 -0.398168879756299 0 -0.418510337532237 -10.3572250283578 0 0 0 0 0
0 0 0 0 0 0 0 0 0 0 0.0638084409013963 0 0 0 0 0 0 0 0 0 0 0 0 0 0 0 0 0 -0.290698336325784 0 0 0 -0.385110450892264 0 0 0 0 0 0 0 -0.227005783005323 0 0 0 -1.11709074255797 0 0 0 -5.67072589490421 -0.614339265859698
0 0 0 0 0 0 0 0 0 0 0 0 0 0 0 0 0 0 0 0 0 0 0 0 0 0 0 0 0 -0.290698336325784 0 0 -0.165129950187747 0 0 0 0 0 0 0 -1.84155720846612 0 0 -0.350944972959494 -2.3880998490268 0 0 0 0 -1.55892404074299
0 0 0 0 0 0 0 0 0 0 0 0.0474716127133755 0 0 0 0 0 0 0 0 0 0 0 0 0 0 0 0 0 0 -0.290698336325784 0 0 0 0 0 0 0 0 0 -2.88644050924467 0 0 0 0 0 0 0 0 0
0 0 0 0 0 0 0 0 0 0 0 0 0 0 0 0 0 0 0 0 0.145749153790844 0 0.135790692893945 0.141845939100615 0 0.0592647378690747 0.299930388166371 0 0 0 0 -0.290698336325784 -0.75135896118234 0 0 0 0 0 0 0 -1.34448074989552 -0.0837798970961093 0 -0.530693517787677 0 0 0 -1.51064065587632 0 0
0 0 0 0 0 0 0 0 0 0 0 0 0 0 0 0 0 0 0 0 0 0.198469317308213 0.48318008905388 0 0.203025655281441 0.240019531224553 0.0690635030194297 0.291959244056879 0.078612773480582 0.031694762675218 0 0.14918741924732 -0.290698336325784 0.274584954328208 0.196456701744598 0.444661895996813 0.338177768707225 0.167891613068503 0 0 -1.97921055400384 -1.02715124773991 0 -1.9108761571579 0 0 0 -0.890945125070316 0 -1.96880637281683
0 0 0 0 0 0 0 0 0 0 0 0 0 0 0 0 0 0 0 0 0 0 0 0 0 0 0 0 0 0 0 0 -1.43924590912624 -0.290698336325784 0 0 0 0 0 0 -0.415492751486976 -0.828817062805274 0 -0.513349421122431 0 0 0 0 0 -0.182078582729393
0 0 0 0 0 0 0 0 0 0 0 0 0 0 0 0 0 0 0 0 0 0 0 0 0 0 0 0 0 0 0 0 -1.02105499441128 0 -0.290698336325784 0 0 0 0 0 -1.41518113166326 -0.588813521850819 0 -2.93830015967359 0 0 0 -5.06227842374835 0 0
0 0 0 0.102780476413574 0 0.0654653991522511 0.095937031299897 0 0.282263621638835 0.943894607727113 0.144303220377468 0 0 0 0 0 0 0 0 0 0 0 0 0 0 0 0 0 0 0 0 0 -2.26724724099699 0 0 -0.290698336325784 0 0 0 0 0 0 0 0 0 0 0 0 0 0
0 0 0 0 0 0 0 0 0 0 0 0 0.629212048324262 0.197156607449868 0 0 0 0 0 0 0 0 0 0 0 0 0 0 0 0 0 0 -1.75763296985624 0 0 0 -0.290698336325784 0 0 0 -0.625510716295837 0 0 0 0 0 0 0 0 0
0 0 0 0 0 0 0 0 0 0 0 0 0 0 0 0 0 0 0.0924873984013907 0.0762458355627996 0 0 0 0 0 0 0 0 0 0 0 0 -0.858122640875662 0 0 0 0 -0.290698336325784 0 0 0 0 0 -2.34208110058796 0 0 0 0 0 0
0 0 0 0 0 0 0 0 0 0 0 0 0 0 0 0 0 0 0 0 0 0 0 0 0 0 0 0 0 0 0 0 0 0 0 0 0 0 -0.290698336325784 0 -1.0949549950374 0 0 -3.92173890063985 0 0 0 0 0 0
0 0 0 0 0 0 0 0 0 0 0 0 0 0 0 0 0 0 0 0 0 0 0 0 0 0 0 0 0 0 0 0 0 0 0 0 0 0 0 -0.290698336325784 0 0 0 0 0 -3.35622503910611 -0.843493814498053 0 0 0
0 0 0 0 0 0 0 0 0 0 0 0 0 0 0 0 0 0 0 0 0 0.0532709026935915 0 0.675065700166656 0.172035178705181 0.0382336552416831 0.155997354842392 0 0.0475643053925813 0.377971691975249 0.564573269962729 0.270193948824172 0.396197147891025 0.085558629190187 0.259792960337697 0 0.125412120838487 0 0.214559458802428 0 -0.290698336325784 0 0 0 0 0 0 0 0 0
0 0 0 0 0 0 0 0 0 0 0 0 0 0 0 0 0 0 0 0 0 0 0 0.11067415410287 0.133844353716698 1.84799011789002 0.402740310936104 0.0744280377693321 0 0 0 0.0158363848004491 0.214226150391008 0.166733283997165 0.109321659745083 0 0 0 0 0 0 -0.290698336325784 0 0 0 0 0 0 0 0
0 0 0 0 0 0 0 0 0 0 0 0.336587864006437 0.351398998747132 0.0493862296100572 0 0 0.123120211495638 0.073061848779422 0.373658692838204 0.0377464548885055 0.655674745842955 0.270877335220592 0 0 0 0 0 0 0 0 0 0 0 0 0 0 0 0 0 0 0 0 -0.290698336325784 0 0 -0.462256980787662 0 0 0 0
0 0 0 0 0 0 0 0 0 0 0 0 0 0 0 0 0 0 0 0 0 0 0.0984439402613355 0.117151037716939 0.163652939787028 0.113786489924495 0 0.0879933610257457 0 0.0728337379765688 0 0.106095276654905 0.396972093479749 0.0939624697793219 0.610792303225228 0 0 0.482435920330638 0.815739992499883 0 0 0 0 -0.290698336325784 0 -1.63617439912898 0 0 0 0
0 0 0 0 0 0 0 0 0 0 0 0 0 0 0 0 0 0 0 0 0 0 0 0 0 0 0 1.97930774996982 0.215863825960058 0.457529378916924 0 0 0 0 0 0 0 0 0 0 0 0 0 0 -0.290698336325784 -1.81232110392911 0 0 0 0
0 0 0 0 0 0 0 0 0 0 0 0 0 0 0 0 0 0 0 0 0 0 0 0 0 0 0 0 0 0 0 0 0 0 0 0 0 0 0 0.64238780388424 0 0 0.0885154551396757 0.309540785042341 0.382963847484531 -0.290698336325784 0.120805052861865 0 0.189286891470411 0
0 0 0 0 0 0 0 0 0 0 0 0 0 0 0 0 0 0 0 0 0 0 0 0 0 0 0 0 0 0 0 0 0 0 0 0 0 0 0 0.168753038835712 0 0 0 0 0 -0.617578719296866 -0.290698336325784 0 0 0
0 0 0 0 0 0 0 0 0 0 0 0 0 0 0 0 0 0 0 0 0 0 0 0 0 0 0 0 0 0 0 0.318699654232235 0.168354858795849 0 0.99393718379072 0 0 0 0 0 0 0 0 0 0 0 0 -0.290698336325784 0 0
0 0 0 0 0 0 0 0 0 0 0 0 0 0 0 0 0 0 0 0 0 0 0 0.269742387623367 1.67909771276839 0 0 0 1.20329495710819 0 0 0 0 0 0 0 0 0 0 0 0 0 0 0 0 -0.896976081005053 0 0 -0.290698336325784 0
0 0 0 0 0 0 0 0 0 0 0 0.643581176740126 0.205701162207222 0 0.0318563012734973 0.286945008297055 0.0643147457732032 0.201401708756177 0 0.461364652790888 0.083936411389206 0.667706553885533 0 0.319794918937503 0.775276068337909 0.272084433162728 0.134437028428564 0 0.123517802813282 0.317747015304771 0 0 0.386478155356878 0.0323674680910109 0 0 0 0 0 0 0 0 0 0 0 0 0 0 0 -0.290698336325784
