-0.190787899609486 -0.785491952184769 0 0 0 0 0 0 0 0 0 0 0 0 0 0 0 0 0 0 0 0 0 0 0 0 0 0 0 0 0 0 0 0 0 0 0 0 0 0 0 0 0 0 0 0 0 0 0 0
0.153467986549738 -0.190787899609486 0 0 0 0 0 0 0 0 0 0 0 0 0 0 0 0 0 0 0 0 0 -0.795796614700017 0 0 0 0 0 0 0 0 0 0 0 0 0 0 0 0 0 0 0 0 0 0 0 0 0 0
0 0 -0.190787899609486 0 0 0 0 0 0 0 0 0 0 0 0 0 0 0 0 0 0 0 0 -3.27662751523627 0 0 0 0 0 0 0 0 0 0 0 0 0 0 0 0 0 0 0 0 0 0 0 0 0 0
0 0 0 -0.190787899609486 0 0 0 0 0 0 0 0 0 0 0 0 0 0 0 0 0 0 0 -0.116061247738983 0 0 0 0 0 0 0 0 0 0 0 0 0 0 0 0 0 0 0 0 0 0 0 0 0 0
0 0 0 0 -0.190787899609486 -1.73771754489589 0 0 0 0 0 0 0 0 0 0 0 0 0 0 0 0 0 -5.7508936990885 0 0 0 0 0 0 0 0 0 0 0 0 0 0 0 0 0 -2.10668236607188 0 0 0 0 0 0 -1.92674274374254 0
0 0 0 0 0.31724552731698 -0.190787899609486 0 0 0 0 0 -0.510019442586638 0 0 0 -1.61948379228928 0 0 0 0 0 -1.29493739673797 0 -0.460789465303929 0 0 0 -6.33735370328906 0 0 0 0 0 0 0 -1.52597527342003 0 0 0 0 0 -0.347767747451217 0 0 0 0 0 0 -0.709967617232736 0
0 0 0 0 0 0 -0.190787899609486 0 0 0 0 0 0 0 0 -0.641383721598679 0 0 0 0 0 -1.66761851799462 0 -1.44205111257045 0 0 0 0 0 0 0 0 0 0 0 0 0 0 0 0 0 -0.386236142855281 0 0 0 0 0 0 -0.123780437346265 0
0 0 0 0 0 0 0 -0.190787899609486 0 0 0 0 0 0 0 -1.65796914768205 0 0 0 0 0 0 0 -1.80294545471052 0 0 0 0 0 0 0 0 0 0 0 -2.80174657338479 0 0 -0.976473384563874 0 0 -2.55285885532328 0 0 0 0 0 0 0 0
0 0 0 0 0 0 0 0 -0.190787899609486 0 0 0 0 0 0 0 0 -0.512662410641372 0 0 0 -1.05911837300851 0 -0.200608583275603 0 0 0 -0.998590251867742 0 0 0 0 0 0 0 -3.43906610202885 0 0 -1.14839380397798 0 0 -0.487896493040477 0 0 0 0 0 0 -2.10318582504684 0
0 0 0 0 0 0 0 0 0 -0.190787899609486 0 0 0 0 0 0 0 -1.33490358446954 0 0 -0.856922680704443 -2.20960408358977 0 -1.12889896486182 0 0 0 0 0 0 0 0 0 0 0 -1.22230776039738 0 0 -10.9107794635584 0 0 -2.26053869851048 0 0 0 0 0 0 0 0
0 0 0 0 0 0 0 0 0 0 -0.190787899609486 0 -3.23332933214668 0 0 0 0 -0.0615518357208133 0 0 -3.6711999559876 0 0 -2.08339983849993 0 0 0 -1.00935764292721 0 0 0 0 0 0 0 0 0 0 -2.35202584270514 0 0 0 0 0 0 0 0 0 0 0
0 0 0 0 0 0.101765378426069 0 0 0 0 0 -0.190787899609486 -0.424744764384234 0 0 0 0 -1.03894101053412 0 0 -0.227095995110069 0 0 -1.87993647870274 0 0 0 0 0 0 0 0 0 0 0 0 0 -2.62710253419151 0 0 0 0 0 0 0 0 0 0 0 0
0 0 0 0 0 0 0 0 0 0 0.630757210201416 0.0842225943431299 -0.190787899609486 0 0 0 0 0 0 0 0 0 0 0 0 0 0 0 0 0 0 0 -2.37599921553097 0 0 0 0 0 -2.85187224459785 0 0 0 0 -0.445837248882031 0 0 -0.655451941639094 0 0 0
0 0 0 0 0 0 0 0 0 0 0 0 0 -0.190787899609486 0 0 0 0 0 0 0 0 0 0 0 0 0 0 0 0 0 0 -0.523606144079317 0 0 0 0 0 0 0 -2.1266545731276 0 0 0 0 0 0 0 0 0
0 0 0 0 0 0 0 0 0 0 0 0 0 0 -0.190787899609486 0 0 0 0 0 0 0 0 0 -3.21101574569784 0 0 0 0 0 0 0 -1.94841559360925 0 0 0 0 0 0 0 -2.20622083605354 0 0 0 0 0 -2.56427895609016 0 0 0
0 0 0 0 0 0.288699313021874 0.121638049107589 0.364455142224771 0 0 0 0 0 0 0 -0.190787899609486 0 0 0 0 0 0 0 0 -1.43844028165603 0 0 0 0 0 0 0 -0.554562818123679 0 0 0 0 0 0 0 0 0 0 0 0 -0.451746883655634 -0.766966523400709 0 0 0
0 0 0 0 0 0 0 0 0 0 0 0 0 0 0 0 -0.190787899609486 0 0 -4.95024273495457 0 0 -10.8761422708955 0 -1.161342190836 0 0 0 0 0 0 0 -3.56119978004205 0 0 0 0 0 0 0 0 0 0 0 0 0 0 0 0 0
0 0 0 0 0 0 0 0 0.112272648121122 0.239335706420909 0.0118958404250571 0.209496078229195 0 0 0 0 0 -0.190787899609486 0 0 0 0 0 0 0 0 0 0 0 0 -0.288153689449391 0 0 0 0 0 0 0 0 0 0 0 0 0 0 0 0 0 0 0
0 0 0 0 0 0 0 0 0 0 0 0 0 0 0 0 0 0 -0.190787899609486 -0.670047384971422 0 0 -0.702534446507444 0 -0.461414219124913 0 0 0 0 0 -4.27449207423063 0 -0.6018333808278 0 0 0 0 0 0 0 0 0 0 0 0 0 0 0 0 0
0 0 0 0 0 0 0 0 0 0 0 0 0 0 0 0 0.966618193735712 0 0.141395812713539 -0.190787899609486 0 0 0 0 0 0 0 0 0 0 0 0 0 0 -0.971627765729724 0 0 0 0 -0.14156334948889 0 0 0 0 0 0 0 0 0 0
0 0 0 0 0 0 0 0 0 0.170688031167497 0.72887226599143 0.0463957716844929 0 0 0 0 0 0 0 0 -0.190787899609486 0 0 0 0 0 0 0 0 0 -1.17696673418746 0 0 0 0 0 0 0 0 -1.63651217260573 0 0 0 0 0 0 0 0 0 0
0 0 0 0 0 0.246641576661115 0.320091520612306 0 0.20605174207306 0.462546741748749 0 0 0 0 0 0 0 0 0 0 0 -0.190787899609486 0 0 0 0 0 0 0 0 -0.539829484793916 0 0 0 0 0 0 0 0 0 0 0 0 0 0 0 0 0 0 0
0 0 0 0 0 0 0 0 0 0 0 0 0 0 0 0 2.06920015355491 0 0.132430640361591 0 0 0 -0.190787899609486 0 0 0 0 0 0 0 0 0 0 0 0 0 0 0 0 0 0 0 0 0 0 0 0 0 0 0
0 0.149102245618429 0.648520432897316 0.0226346865766013 1.12592992150414 0.100961431829665 0.291527944790268 0.355039034204406 0.0411334014111885 0.207771602975193 0.403482911668199 0.388257717627789 0 0 0 0 0 0 0 0 0 0 0 -0.190787899609486 0 0 0 0 0 0 -1.6181605134336 0 -0.6749788181256 0 0 0 0 0 0 0 0 0 0 0 0 0 0 0 0 0
0 0 0 0 0 0 0 0 0 0 0 0 0 0 0.641409021382965 0.269430359747988 0.229049757954698 0 0.0917644227355505 0 0 0 0 0 -0.190787899609486 0 0 0 0 0 -1.14688577009426 0 -1.23401937560713 0 0 0 0 0 0 0 0 0 0 0 0 0 0 0 0 0
0 0 0 0 0 0 0 0 0 0 0 0 0 0 0 0 0 0 0 0 0 0 0 0 0 -0.190787899609486 0 0 0 0 -0.551049732588746 0 0 -0.309605401962636 0 0 0 0 0 0 0 0 0 0 0 0 0 0 0 -2.92844543475958
0 0 0 0 0 0 0 0 0 0 0 0 0 0 0 0 0 0 0 0 0 0 0 0 0 0 -0.190787899609486 0 0 0 0 0 0 -0.495289561302554 0 0 0 0 0 0 0 0 0 0 0 0 0 0 0 -0.805837465962775
0 0 0 0 0 1.28909280400941 0 0 0.214613599289703 0 0.181148800753232 0 0 0 0 0 0 0 0 0 0 0 0 0 0 0 0 -0.190787899609486 0 -0.765621457824505 0 0 0 0 0 0 0 0 0 0 0 0 0 0 0 0 0 0 0 0
0 0 0 0 0 0 0 0 0 0 0 0 0 0 0 0 0 0 0 0 0 0 0 0 0 0 0 0 -0.190787899609486 0 -0.941978789735903 0 0 0 0 0 0 0 0 0 0 0 0 0 0 0 0 0 0 -2.42118046459698
0 0 0 0 0 0 0 0 0 0 0 0 0 0 0 0 0 0 0 0 0 0 0 0 0 0 0 0.150690677180144 0 -0.190787899609486 0 0 0 0 0 0 0 0 0 0 0 0 0 0 0 0 0 0 0 -1.69615566944541
0 0 0 0 0 0 0 0 0 0 0 0 0 0 0 0 0 0.062843049272463 0.867125406589751 0 0.228012996123306 0.107039137872447 0 0.336596623530837 0.237472796656819 0.110660677988533 0 0 0.199660750112145 0 -0.190787899609486 -0.99274116435044 0 0 0 0 0 0 0 0 0 0 0 0 0 0 0 0 0 0
0 0 0 0 0 0 0 0 0 0 0 0 0 0 0 0 0 0 0 0 0 0 0 0 0 0 0 0 0 0 0.205493901596112 -0.190787899609486 0.313001312382502 0.122576809393154 0 0 0 0 0 0 0 0 0 0 0 0 0 0 0 -1.21182865601551
0 0 0 0 0 0 0 0 0 0 0 0 0.503180486611165 0.107822978871471 0.407125852144002 0.107313881212968 0.7539161434284 0 0.120385700324319 0 0 0 0 0.131456974015035 0.253456669876792 0 0 0 0 0 0 -1.52306488211204 -0.190787899609486 0 0 0 0 0 0 0 0 0 0 0 0 0 0 0 0 0
0 0 0 0 0 0 0 0 0 0 0 0 0 0 0 0 0 0 0 0 0 0 0 0 0 0.0608816784734664 0.0933309933725421 0 0 0 0 -0.594123691337222 0 -0.190787899609486 0 0 -0.461366919616995 0 0 0 0 0 0 0 0 0 0 0 0 0
0 0 0 0 0 0 0 0 0 0 0 0 0 0 0 0 0 0 0 0.184132045476335 0 0 0 0 0 0 0 0 0 0 0 0 0 0 -0.190787899609486 0 -1.93542827300859 0 0 0 0 0 -2.04322142109607 0 -0.698402611014553 0 0 0 0 -2.50161375183222
0 0 0 0 0 0.294252280324918 0 0.575154128200257 0.653531189079489 0.261420809166835 0 0 0 0 0 0 0 0 0 0 0 0 0 0 0 0 0 0 0 0 0 0 0 0 0 -0.190787899609486 -2.50066594327275 0 0 0 0 0 -1.25200799437612 0 0 0 0 0 0 0
0 0 0 0 0 0 0 0 0 0 0 0 0 0 0 0 0 0 0 0 0 0 0 0 0 0 0 0 0 0 0 0 0 0.0911412601944146 0.355401394737523 0.465430088620554 -0.190787899609486 0.585775719385245 0.321771997235282 0 0.723163482010724 0 0 0 0 0 0 0 0 0
0 0 0 0 0 0 0 0 0 0 0 0.537637332053855 0 0 0 0 0 0 0 0 0 0 0 0 0 0 0 0 0 0 0 0 0 0 0 0 -2.97589797434729 -0.190787899609486 0 0 0 0 -0.934955210507891 0 0 0 0 0 0 -3.59243820029824
0 0 0 0 0 0 0 0.183499880614338 0.230686406569979 2.05733980815958 0.438386811262959 0 0.554136557198949 0 0 0 0 0 0 0 0 0 0 0 0 0 0 0 0 0 0 0 0 0 0 0 -1.82720330387263 0 -0.190787899609486 0 0 0 0 0 0 0 0 0 0 0
0 0 0 0 0 0 0 0 0 0 0 0 0 0 0 0 0 0 0 0.0287938568927409 0.329020965817808 0 0 0 0 0 0 0 0 0 0 0 0 0 0 0 0 0 0 -0.190787899609486 0 0 -1.40420612651235 0 0 0 0 0 0 0
0 0 0 0 0 0 0 0 0 0 0 0 0 0.459034241271501 0.391928135585779 0 0 0 0 0 0 0 0 0 0 0 0 0 0 0 0 0 0 0 0 0 -3.58711068798202 0 0 0 -0.190787899609486 0 -0.248269392398973 0 0 0 0 0 0 -1.14640947970785
0 0 0 0 0.442203860172755 0.0724495652425891 0.073045862796732 0.49845759151138 0.0952033674626324 0.457510081713166 0 0 0 0 0 0 0 0 0 0 0 0 0 0 0 0 0 0 0 0 0 0 0 0 0 0 0 0 0 0 0 -0.190787899609486 -0.721422446272625 0 0 0 0 0 0 0
0 0 0 0 0 0 0 0 0 0 0 0 0 0 0 0 0 0 0 0 0 0 0 0 0 0 0 0 0 0 0 0 0 0 0.410169123181598 0.238049457714062 0 0.194601155865351 0 0.273917420295943 0.0497927390627881 0.137839393632511 -0.190787899609486 0 0 0 0 0 0 0
0 0 0 0 0 0 0 0 0 0 0 0 0.0950076368643826 0 0 0 0 0 0 0 0 0 0 0 0 0 0 0 0 0 0 0 0 0 0 0 0 0 0 0 0 0 0 -0.190787899609486 0 0 0 -1.99299002142703 0 0
0 0 0 0 0 0 0 0 0 0 0 0 0 0 0 0 0 0 0 0 0 0 0 0 0 0 0 0 0 0 0 0 0 0 0.146009030957531 0 0 0 0 0 0 0 0 0 -0.190787899609486 0 0 -0.378043429023924 0 0
0 0 0 0 0 0 0 0 0 0 0 0 0 0 0 0.0941985100055006 0 0 0 0 0 0 0 0 0 0 0 0 0 0 0 0 0 0 0 0 0 0 0 0 0 0 0 0 0 -0.190787899609486 0 0 0 0
0 0 0 0 0 0 0 0 0 0 0 0 0.152362287669257 0 0.487034657300752 0.156220150300569 0 0 0 0 0 0 0 0 0 0 0 0 0 0 0 0 0 0 0 0 0 0 0 0 0 0 0 0 0 0 -0.190787899609486 -0.299758025916536 0 0
0 0 0 0 0 0 0 0 0 0 0 0 0 0 0 0 0 0 0 0 0 0 0 0 0 0 0 0 0 0 0 0 0 0 0 0 0 0 0 0 0 0 0 0.418127222808799 0.0743288037640241 0 0.0609742523455271 -0.190787899609486 0.28392733148472 0.393842873048175
0 0 0 0 0.394491937139076 0.147451561925641 0.0247841219501087 0 0.411121598830754 0 0 0 0 0 0 0 0 0 0 0 0 0 0 0 0 0 0 0 0 0 0 0 0 0 0 0 0 0 0 0 0 0 0 0 0 0 0 -1.39217905339617 -0.190787899609486 0
0 0 0 0 0 0 0 0 0 0 0 0 0 0 0 0 0 0 0 0 0 0 0 0 0 0.550862423122853 0.155147117129271 0 0.495575938708658 0.31421930652013 0 0.246069931887544 0 0 0.501307380505714 0 0 0.730066843535387 0 0 0.236682707899122 0 0 0 0 0 0 -1.83937544062759 0 -0.190787899609486
