0.176115528300212
3.18777291368224
0.238166887346086
0.181405673888258
0.270546237208238
3.61281843449594
1.82211206414474
0.127905270608485
1.76397175326479
0.22303947135495
2.0015174893125
0.807527633985201
0.64837218854834
2.02797071161882
0.142405861391006
3.30196084493813
0.883503922721322
0.397958970898581
1.48889011504513
2.2242720242781
1.17830735335007
4.57590496428007
1.44619516141508
1.79107281212223
0.81442793208752
0.437802826653219
3.75545973835153
0.888982537973242
1.62540443936354
2.51835460624491
0.107188028202713
0.133993850770914
1.39074657174145
1.45780620419323
3.98914626055805
0.494233700470432
2.5468329855933
0.94785013257536
0.197709194613629
0.395070680841225
0.422056584993077
1.0887524243151
0.559475829658249
0.390131923486306
3.44892823944975
1.14215631908649
0.86258495896995
1.60006857612806
0.673137314871303
3.0693731234409
