1.63484822370594
0.43206064971968
1.25740929547081
1.34540503705637
1.34090952147128
1.74043946283584
3.46062257188507
0.430160998835527
1.41496148664282
1.50600666781611
1.14537265953251
0.450803675106019
5.97245124647783
0.244353517734748
0.724689385161647
10.0819173610478
0.270637301035057
9.29999075266295
1.0939017337677
0.486016718350901
0.392929212401074
0.305113528270295
0.721581549705216
2.71813740878019
0.572199295597179
8.67293060182245
2.30618341243233
1.35652050843654
5.97715949425229
0.780138753970448
0.795511987269363
0.542122507158884
0.521841401450709
0.411833152792955
5.03235705481045
4.76073835199309
2.30476341330438
2.18493371689156
0.456122319556451
0.450558438629249
1.70324855881245
0.185475167309776
4.54488135189933
0.71043582579882
3.02270826916005
1.10662501929616
1.60002631186141
2.14613474615261
0.42481963217042
3.16861951534046
