0.465084759222696
0.554536520717994
1.86189327560766
1.11104194853185
0.362137129472244
5.19831197610812
1.58076563497494
1.71558009071619
1.42971101272449
0.495736321201179
1.12638014132343
0.854365847517136
1.6650648725111
5.1084987876203
0.312693425843844
1.8492964989522
4.56597359438439
2.32779817806212
0.26568977752897
1.72780017433384
0.401533757716425
1.15693942431975
1.56794749651733
0.956440182919866
1.71497794601613
1.45401282575773
0.988364022562688
10.6944424145268
1.14742939229066
0.0755216360008959
2.01290087737361
0.425600188654319
1.12236270714942
1.24535082773452
0.474665272141541
0.352230901270435
0.367692224113778
1.80630385260151
0.421356235068946
0.805330043898801
0.512053038370091
0.545274099271963
5.73342370783896
1.09496021327607
0.292811470169244
2.24305966213675
1.12925676940623
0.674992169799184
0.221948165540637
0.527439303481448
