-0.350678878829035 0 0 0 0 0 0 0 0 0 -6.32117916007913 0 0 0 0 0 0 0 0 0 0 0 -3.201678618188 0 0 0 0 0 0 0 0 0 0 0 0 0 0 0 0 0 0 0 0 0 0 0 0 0 0 0
0 -0.350678878829035 0 0 0 0 0 0 0 0 0 0 0 0 0 0 0 0 0 0 0 0 -0.331648817336747 0 0 0 0 0 0 0 0 0 0 0 0 0 0 0 0 0 0 0 0 0 0 0 0 0 0 0
0 0 -0.350678878829035 -2.30273610273844 0 0 0 0 0 0 -4.42874281580429 0 0 0 0 0 0 0 0 0 0 0 0 0 0 0 0 0 0 0 0 0 0 0 0 0 0 0 0 0 0 0 -1.96658493560834 0 0 0 0 0 0 0
0 0 0.485960058942578 -0.350678878829035 0.102023604598365 0 0 0 0 0 -0.91156447212219 0 0 0 0 0 0 0 0 -0.205766811348208 0 0 0 0 0 0 0 0 0 0 0 0 0 0 0 0 0 0 0 0 0 0 0 0 0 0 0 0 0 0
0 0 0 -0.493124665273998 -0.350678878829035 0 0 0 0 0 -1.10998101867169 0 0 0 0 0 0 0 0 -0.915565151999417 0 0 0 0 0 0 0 0 0 0 0 0 0 0 0 0 0 0 0 0 0 0 0 0 0 0 0 0 0 0
0 0 0 0 0 -0.350678878829035 0 -0.275461201753469 0 -1.6298046904294 0 0 0 0 0 0 0 0 0 0 0 -1.57596833476017 0 0 0 0 0 0 0 0 0 0 0 0 0 0 0 0 0 0 0 0 0 0 0 -1.23789112029352 0 0 0 0
0 0 0 0 0 0 -0.350678878829035 0 0 -6.54035456311794 0 -0.649217367518954 0 0 -0.499182747454413 0 0 0 0 0 0 -1.35489854803527 0 0 0 0 0 0 0 0 0 0 0 0 -0.284207455675505 0 0 -1.78863534880216 0 0 0 0 -0.43450786698504 0 0 -0.560020965001936 0 0 0 0
0 0 0 0 0 0.0520430135430539 0 -0.350678878829035 0 -0.39194730991558 0 -1.36329526385891 0 0 -3.59611516330322 0 0 0 0 0 0 -1.17597857757474 0 0 0 0 0 0 0 0 0 0 0 0 0 0 0 0 0 0 0 0 -0.567658624889312 0 0 -2.00772876123415 0 0 0 0
0 0 0 0 0 0 0 0 -0.350678878829035 0 0 -0.811420548394217 -1.68843713767106 0 0 0 0 0 0 0 0 0 0 0 0 0 0 0 0 0 0 0 0 0 -1.04082918113378 0 0 -0.277224057477458 0 0 0 0 -1.48657001490107 0 0 0 0 0 0 0
0 0 0 0 0 0.327370107480428 1.32994165032635 0.0757582687333803 0 -0.350678878829035 0 0 0 0 0 0 0 0 0 0 0 -6.53228026494663 0 0 0 0 0 0 0 0 0 0 0 0 -1.99768158830324 0 0 -2.80146433107721 0 0 0 0 0 0 0 0 0 0 0 0
1.18448874621526 0 0.872760257198806 0.173787708958813 0.219155371590867 0 0 0 0 0 -0.350678878829035 0 -1.38174392326651 0 0 0 0 -0.34660598954982 0 0 0 0 0 0 0 0 0 0 0 0 0 0 0 -0.128745748597774 -0.536814409485708 0 0 -0.244838886969254 0 0 0 0 -1.94828808393228 0 0 -0.588250751485948 -1.4779249063803 0 0 0
0 0 0 0 0 0 0.124767696319161 0.252762587365505 0.165189342507588 0 0 -0.350678878829035 0 0 0 0 0 0 0 0 -0.782993789747011 0 0 0 0 0 0 0 0 0 0 0 0 -1.14736274191236 0 0 -1.74830618818504 -2.88667812287536 0 0 0 0 -2.72868582353351 0 0 -2.95441967988976 -0.112882380431413 0 0 0
0 0 0 0 0 0 0 0 0.368432815058093 0 0.298510567783148 0 -0.350678878829035 0 0.833854865587025 0 0 -4.23903181915399 0 0 0 0 0 0 0 0 0 0 0 0 0 0 0 -2.10224761398384 0 0 -2.20971185612861 0 0 0 0 0 0 0 0 -0.502138313765601 0 0 0 0
0 0 0 0 0 0 0 0 0 0 0 0 0 -0.350678878829035 0 0 0 -3.9564240307271 0 0 0 0 0 0 0 0 0 0 0 0 0 0 0 0 0 0 0 0 0 0 0 0 0 0 0 0 0 0 0 0
0 0 0 0 0 0 0.099942639787509 0.721937601906879 0 0 0 0 -4.41784356302627 0 -0.350678878829035 0 0 0 0 0 0 0 0 0 0 0 0 0 0 0 0 0 0 -1.48781596259159 0 0 -2.26973591671597 0 0 0 0 0 -2.6347640546171 0 0 -1.20558106848404 -1.98603000158107 0 0 0
0 0 0 0 0 0 0 0 0 0 0 0 0 0 0 -0.350678878829035 -3.72553850059243 -0.350458758689071 0 0 0 0 0 0 0 0 0 0 0 0 0 0 0 0 0 0 -1.17104259003212 0 0 0 -0.897748694528446 0 -0.321355484152757 0 0 0 -1.99091279113398 0 0 0
0 0 0 0 0 0 0 0 0 0 0 0 0 0 0 0.727444954745062 -0.350678878829035 0 0 0 0 0 0 0 0 0 0 0 0 0 0 0 0 -3.5914367643919 0 0 -0.78801023260419 0 0 0 0 0 0 0 0 0 0 0 0 0
0 0 0 0 0 0 0 0 0 0 0.0714401729025837 0 0.87349347589045 0.764106918630367 0 0.0681475016382954 0 -0.350678878829035 0.707031520553116 0 0 0 0 0 0 0 0 0 0 0 0 0 -0.198180285048932 -0.547485745761423 0 0 0 0 0 0 0 0 0 0 0 0 0 0 0 0
0 0 0 0 0 0 0 0 0 0 0 0 0 0 0 0 0 -3.49876578167777 -0.350678878829035 0 0 0 0 0 0 0 0 0 0 0 0 0 -0.76877551324513 0 0 0 -0.90169767577724 0 0 0 0 0 0 0 0 0 0 0 0 0
0 0 0 0.0394087520107293 0.182401666152478 0 0 0 0 0 0 0 0 0 0 0 0 0 0 -0.350678878829035 0 0 0 0 -1.01609928926082 0 0 0 0 0 0 -1.85166572157375 -1.18847879236928 0 0 0 0 0 0 0 0 0 0 0 0 0 0 0 0 0
0 0 0 0 0 0 0 0 0 0 0 0.162433626870152 0 0 0 0 0 0 0 0 -0.350678878829035 0 0 0 0 0 0 0 0 0 0 0 0 0 0 0 -0.232835782394194 0 0 -1.98256080838754 0 0 0 0 0 0 0 0 0 0
0 0 0 0 0 0.350880124152547 0.275167534820165 0.242661029972877 0 1.21828723807491 0 0 0 0 0 0 0 0 0 0 0 -0.350678878829035 0 0 0 0 0 0 0 0 0 0 0 0 0 0 -0.66797802366694 0 0 0 0 0 0 -1.57131775263008 0 0 0 0 0 0
0.700003785079728 0.0638566669075181 0 0 0 0 0 0 0 0 0 0 0 0 0 0 0 0 0 0 0 0 -0.350678878829035 0 0 0 0 0 0 0 0 0 0 0 0 0 -0.896298167812508 0 0 0 0 0 0 0 -0.854314489438176 0 0 0 0 0
0 0 0 0 0 0 0 0 0 0 0 0 0 0 0 0 0 0 0 0 0 0 0 -0.350678878829035 0 0 -1.15326144477316 0 0 0 0 0 0 0 0 0 -0.271711288627368 0 0 -0.645546225708419 0 0 0 0 0 0 0 0 0 0
0 0 0 0 0 0 0 0 0 0 0 0 0 0 0 0 0 0 0 0.195205593692419 0 0 0 0 -0.350678878829035 0 -0.277003132572676 0 0 0 0 0 0 0 0 0 -0.64640905468959 0 0 0 0 0 0 -0.799174959006554 0 0 0 0 -0.0919616745594298 0
0 0 0 0 0 0 0 0 0 0 0 0 0 0 0 0 0 0 0 0 0 0 0 0 0 -0.350678878829035 0 0 0 0 0 0 0 0 0 0 -0.414414711190891 0 0 0 0 0 0 0 0 0 0 0 -2.35533149088883 0
0 0 0 0 0 0 0 0 0 0 0 0 0 0 0 0 0 0 0 0 0 0 0 0.212481140700021 0.0562349004243905 0 -0.350678878829035 0 -2.05365342569347 0 0 0 0 0 0 0 -0.56032386087703 0 0 0 0 0 0 -1.28188463356291 0 0 0 0 0 0
0 0 0 0 0 0 0 0 0 0 0 0 0 0 0 0 0 0 0 0 0 0 0 0 0 0 0 -0.350678878829035 -0.357400061957404 0 0 0 0 0 0 0 -2.78246657973458 0 0 0 0 0 0 -0.54344662292883 0 0 0 0 0 0
0 0 0 0 0 0 0 0 0 0 0 0 0 0 0 0 0 0 0 0 0 0 0 0 0 0 0.391010053872311 0.0778122049273926 -0.350678878829035 0 0 0 0 0 0 0 -0.0275784472229362 0 0 0 0 0 0 0 0 0 0 0 -0.782533318687606 0
0 0 0 0 0 0 0 0 0 0 0 0 0 0 0 0 0 0 0 0 0 0 0 0 0 0 0 0 0 -0.350678878829035 0 0 0 0 0 0 0 0 0 0 0 0 0 0 -1.20177316557778 0 0 0 -0.63678053460022 0
0 0 0 0 0 0 0 0 0 0 0 0 0 0 0 0 0 0 0 0 0 0 0 0 0 0 0 0 0 0 -0.350678878829035 0 0 0 0 0 -1.5036813050527 0 0 0 0 0 0 0 -0.282517695675757 0 0 0 -2.53286757402299 0
0 0 0 0 0 0 0 0 0 0 0 0 0 0 0 0 0 0 0 0.36902237270107 0 0 0 0 0 0 0 0 0 0 0 -0.350678878829035 0 0 0 0 0 0 0 0 0 0 0 0 0 0 0 0 -0.280611263085711 0
0 0 0 0 0 0 0 0 0 0 0 0 0 0 0 0 0 0.0390183565192753 0.149487947171811 0.252271146562085 0 0 0 0 0 0 0 0 0 0 0 0 -0.350678878829035 0 0 0 0 0 0 0 0 -0.0489409201154556 0 0 -1.92054163869738 0 0 0 0 0
0 0 0 0 0 0 0 0 0 0 0.0263604464307632 0.245515957517204 0.45248347882354 0 0.324328065739914 0 0.746202324596255 0.108830776980294 0 0 0 0 0 0 0 0 0 0 0 0 0 0 0 -0.350678878829035 0 0 0 0 0 0 0 -1.11234847448693 0 0 -0.229545452086439 0 0 0 0 0
0 0 0 0 0 0 0.0596323732100953 0 0.218374224518784 0.423064402797266 0.107489624142793 0 0 0 0 0 0 0 0 0 0 0 0 0 0 0 0 0 0 0 0 0 0 0 -0.350678878829035 0 0 0 0 0 0 0 0 0 -1.92890228894104 0 0 0 0 0
0 0 0 0 0 0 0 0 0 0 0 0 0 0 0 0 0 0 0 0 0 0 0 0 0 0 0 0 0 0 0 0 0 0 0 -0.350678878829035 0 0 0 0 0 -0.786307557805636 0 0 0 0 0 0 0 0
0 0 0 0 0 0 0 0 0 0 0 0.338431848022981 0.441700530880234 0 0.40504472963649 0.228330526160535 0.1510883249283 0 0.160309651186949 0 0.0435216804601252 0.136023500615449 0.169002320563683 0.058500093157615 0.129765963688949 0.0822558248199489 0.108673377759878 0.559144791360193 0.00550692685808133 0 0.297652020069299 0 0 0 0 0 -0.350678878829035 0 0 0 0 -1.39976442320593 0 0 0 0 0 0 0 0
0 0 0 0 0 0 0.335101504763727 0 0.0581566830275329 0.507001309639405 0.0495497020956403 0.599990655652366 0 0 0 0 0 0 0 0 0 0 0 0 0 0 0 0 0 0 0 0 0 0 0 0 0 -0.350678878829035 0 0 0 0 0 0 0 0 0 0 0 -3.30419803108791
0 0 0 0 0 0 0 0 0 0 0 0 0 0 0 0 0 0 0 0 0 0 0 0 0 0 0 0 0 0 0 0 0 0 0 0 0 0 -0.350678878829035 0 0 -1.61855469444791 0 0 0 0 0 -7.1728889498871 0 0
0 0 0 0 0 0 0 0 0 0 0 0 0 0 0 0 0 0 0 0 0.389316701347185 0 0 0.127504924769208 0 0 0 0 0 0 0 0 0 0 0 0 0 0 0 -0.350678878829035 0 -0.998530627888962 0 0 0 0 0 0 0 -0.715696509527229
0 0 0 0 0 0 0 0 0 0 0 0 0 0 0 0.188405772409563 0 0 0 0 0 0 0 0 0 0 0 0 0 0 0 0 0 0 0 0 0 0 0 0 -0.350678878829035 -4.81574885711793 0 0 0 0 0 0 0 0
0 0 0 0 0 0 0 0 0 0 0 0 0 0 0 0 0 0 0 0 0 0 0 0 0 0 0 0 0 0 0 0 0.0108139568564924 0.225136801801781 0 0.162584207291885 0.262214806078876 0 0.324961094504684 0.191282013830066 0.975199391572523 -0.350678878829035 0 0 0 0 0 0 0 -0.875607830086851
0 0 0.396955033760142 0 0 0 0.0788670875529351 0.111639925755123 0.298610996680514 0 0.40634422919968 0.553560877938637 0 0 0.52865950549702 0.0729285555880642 0 0 0 0 0 0 0 0 0 0 0 0 0 0 0 0 0 0 0 0 0 0 0 0 0 0 -0.350678878829035 0 0 0 0 0 0 0
0 0 0 0 0 0 0 0 0 0 0 0 0 0 0 0 0 0 0 0 0 0.329581067801887 0 0 0.169611813125022 0 0.255311390446799 0.111616792570251 0 0 0 0 0 0 0 0 0 0 0 0 0 0 0 -0.350678878829035 0 0 0 0 0 0
0 0 0 0 0 0 0 0 0 0 0 0 0 0 0 0 0 0 0 0 0 0 0.160614287473739 0 0 0 0 0 0 0.237841681750059 0.0520593840990583 0 0.392974109112855 0.0470756298144464 0.385278706435893 0 0 0 0 0 0 0 0 0 -0.350678878829035 0 0 0 0 0
0 0 0 0 0 0.249462346852648 0.116142921179399 0.376976132884742 0 0 0.109481184717703 0.578868026308057 0.0975929919341271 0 0.238349806000191 0 0 0 0 0 0 0 0 0 0 0 0 0 0 0 0 0 0 0 0 0 0 0 0 0 0 0 0 0 0 -0.350678878829035 0 0 0 0
0 0 0 0 0 0 0 0 0 0 0.315158298448699 0.0228566534452434 0 0 0.391484377081293 0.400355732395312 0 0 0 0 0 0 0 0 0 0 0 0 0 0 0 0 0 0 0 0 0 0 0 0 0 0 0 0 0 0 -0.350678878829035 0 0 0
0 0 0 0 0 0 0 0 0 0 0 0 0 0 0 0 0 0 0 0 0 0 0 0 0 0 0 0 0 0 0 0 0 0 0 0 0 0 1.3854550383741 0 0 0 0 0 0 0 0 -0.350678878829035 0 0
0 0 0 0 0 0 0 0 0 0 0 0 0 0 0 0 0 0 0 0 0 0 0 0 0.0181407104346196 0.464396967465108 0 0 0.157975338377961 0.121243856480073 0.492614400590082 0.0581262042656107 0 0 0 0 0 0 0 0 0 0 0 0 0 0 0 0 -0.350678878829035 0
0 0 0 0 0 0 0 0 0 0 0 0 0 0 0 0 0 0 0 0 0 0 0 0 0 0 0 0 0 0 0 0 0 0 0 0 0 0.61383829319462 0 0.156128286052271 0 0.179312020485271 0 0 0 0 0 0 0 -0.350678878829035
