-0.185389084023819 0 0 0 0 0 0 0 0 0 -0.205032634047682 0 0 0 0 0 0 0 0 0 0 0 0 0 0 0 0 0 0 0 0 -1.3286739407576 0 0 0 0 0 0 0 0 0 0 0 0 0 0 0 0 0 0
0 -0.185389084023819 0 -0.910629483085548 0 0 0 0 -0.575422325165372 -2.96865481484066 -4.44540131848964 0 0 0 0 0 0 0 0 0 0 0 0 0 0 0 0 0 0 0 0 -0.314641408920479 0 0 0 0 0 0 0 0 0 0 0 0 0 0 0 0 0 0
0 0 -0.185389084023819 0 0 0 0 0 0 0 0 0 0 0 0 0 0 0 0 0 0 0 0 0 0 0 0 0 0 0 0 0 0 0 0 0 0 0 0 0 0 0 0 0 0 0 -0.530923945452249 0 0 0
0 0.188277793478355 0 -0.185389084023819 0 0 0 0 0 0 0 0 0 0 0 0 0 0 0 0 0 0 0 0 0 0 0 0 0 0 0 0 0 0 0 0 0 0 0 0 0 0 0 0 -1.34924373526973 0 0 0 0 0
0 0 0 0 -0.185389084023819 0 0 -12.1343254437756 0 0 0 0 0 0 0 0 0 0 0 0 0 0 0 0 0 0 0 0 0 0 0 0 0 0 0 0 0 0 0 0 0 0 0 0 -0.61789898570469 0 0 0 0 0
0 0 0 0 0 -0.185389084023819 0 0 0 0 0 0 0 0 0 0 0 0 0 0 0 0 0 0 0 0 0 0 0 0 0 0 0 0 0 0 0 0 0 0 0 0 0 0 -0.178895936686015 0 0 0 0 0
0 0 0 0 0 0 -0.185389084023819 -0.527898754816944 0 0 0 0 0 0 0 0 0 0 0 0 0 0 0 0 0 0 0 0 0 0 0 0 0 0 0 0 0 0 -0.512581955050595 0 0 0 0 0 -7.15537271974326 0 -1.44527929969177 0 0 0
0 0 0 0 2.23049172366325 0 0.113544351755139 -0.185389084023819 0 0 0 0 -5.87742403691109 0 0 0 0 0 -3.00806197909175 0 -2.36542168749773 0 0 0 0 0 0 0 0 0 0 0 0 0 0 0 0 0 -0.879689967478878 0 0 0 0 0 -0.407975847583227 0 -0.948375473478518 0 0 0
0 0.106566504491579 0 0 0 0 0 0 -0.185389084023819 0 0 -1.45894103622222 -1.30469229233453 0 -3.96921202495957 0 0 0 -0.536063290183354 0 -0.842395896162184 0 0 0 0 0 0 0 0 0 0 0 -2.70195600348799 0 0 0 0 0 0 0 0 0 0 -0.228074173832684 0 0 -0.156802983215346 0 0 0
0 0.612824146702104 0 0 0 0 0 0 0 -0.185389084023819 0 0 0 0 0 0 0 0 0 0 -0.198829420961713 0 0 0 0 0 0 0 0 0 0 0 0 0 0 0 0 0 0 0 0 0 0 0 -1.57182932380042 0 -1.26629488397185 0 0 0
0.0395876906969293 0.944925526127971 0 0 0 0 0 0 0 0 -0.185389084023819 0 0 0 0 0 -0.585849235188095 0 0 0 -1.00536983654248 0 0 0 0 0 0 -1.93256206277846 0 0 0 0 0 0 0 0 0 0 0 0 0 0 0 0 0 0 -0.421689093319904 0 0 0
0 0 0 0 0 0 0 0 0.297886021210821 0 0 -0.185389084023819 0 0 0 0 -1.31824987483271 0 0 0 0 0 0 0 0 0 0 0 -0.704296034707621 0 0 0 0 0 0 0 0 0 0 0 0 -1.36041747150475 0 0 0 0 -1.77787110548902 0 0 0
0 0 0 0 0 0 0 1.19270661920104 0.253131132799346 0 0 0 -0.185389084023819 0 0 0 -1.90821049265703 0 -0.403681352938529 0 -0.659885231321338 0 0 0 0 0 0 0 -0.405264016428402 0 0 0 0 0 0 0 0 0 0 0 0 -2.4409180308621 0 0 0 0 0 0 0 0
0 0 0 0 0 0 0 0 0 0 0 0 0 -0.185389084023819 0 0 -1.00101518716988 0 0 0 -1.65334350271634 0 0 0 0 0 0 0 -1.55269407607874 0 0 0 0 0 0 0 0 0 0 0 0 0 0 0 0 0 0 0 0 0
0 0 0 0 0 0 0 0 0.794353030535572 0 0 0 0 0 -0.185389084023819 0 0 0 -1.09476001359109 0 -0.318381162287297 0 0 0 0 0 0 0 0 -0.502159093518106 0 0 0 0 0 0 0 0 0 0 0 0 0 0 0 0 0 0 0 -0.748824200600274
0 0 0 0 0 0 0 0 0 0 0 0 0 0 0 -0.185389084023819 0 0 -1.27076373273872 0 0 0 0 0 0 0 0 0 0 0 0 0 0 0 0 0 0 0 0 0 0 0 0 0 0 0 0 0 0 0
0 0 0 0 0 0 0 0 0 0 0.117874642240034 0.27988083444531 0.356998015149894 0.209875574123955 0 0 -0.185389084023819 0 -2.87980976180409 0 0 -2.27653279469169 0 0 0 0 0 0 -1.85472076049925 0 0 0 0 0 0 0 0 0 0 0 0 0 0 0 0 0 0 0 0 -1.36278373893414
0 0 0 0 0 0 0 0 0 0 0 0 0 0 0 0 0 -0.185389084023819 0 0 0 0 0 0 0 0 0 0 0 0 0 0 0 0 0 0 0 0 0 0 0 0 0 0 0 0 0 0 0 -0.150436987061255
0 0 0 0 0 0 0 0.611012723819616 0.110106903678355 0 0 0 0.07274484547453 0 0.218016104056369 0.236324961845541 0.589664378443169 0 -0.185389084023819 0 0 -0.274724225314829 0 0 0 0 0 0 0 0 0 0 0 0 0 0 0 0 0 0 0 0 0 0 0 0 0 0 0 -2.22387657643931
0 0 0 0 0 0 0 0 0 0 0 0 0 0 0 0 0 0 0 -0.185389084023819 0 0 0 -0.869908406295188 0 0 0 0 0 0 0 0 0 -1.36586122526417 0 0 0 0 0 0 0 0 0 0 0 0 0 0 0 0
0 0 0 0 0 0 0 0.428551954537482 0.162110602126887 0.0426909654234587 0.214620578754291 0 0.137653635100998 0.33733831884512 0.0659202890003807 0 0 0 0 0 -0.185389084023819 0 0 0 0 0 0 0 0 0 0 0 0 -6.13652773818862 0 0 0 0 0 0 0 0 0 0 0 0 0 0 0 -0.861811552441108
0 0 0 0 0 0 0 0 0 0 0 0 0 0 0 0 0.449260726337638 0 0.0557541956887559 0 0 -0.185389084023819 0 -2.17582339684158 -0.825546846478846 -0.475306417686982 0 0 0 0 0 0 0 -0.786971920621011 0 0 0 0 0 0 0 0 0 0 0 0 0 0 0 0
0 0 0 0 0 0 0 0 0 0 0 0 0 0 0 0 0 0 0 0 0 0 -0.185389084023819 0 0 -0.356407367272369 0 0 0 0 0 0 0 -2.4930539390388 0 0 0 0 0 0 0 0 0 0 0 0 0 0 0 -4.13908059110618
0 0 0 0 0 0 0 0 0 0 0 0 0 0 0 0 0 0 0 0.167596969554997 0 0.415579295975023 0 -0.185389084023819 0 -2.46230100419999 0 0 0 0 0 0 0 -0.499971922729291 0 0 0 0 0 0 0 0 0 0 0 0 0 0 0 -1.4968706581282
0 0 0 0 0 0 0 0 0 0 0 0 0 0 0 0 0 0 0 0 0 0.153510002487728 0 0 -0.185389084023819 -1.92599567526954 0 0 0 0 -2.08068505299726 0 0 -0.985659188216672 0 0 0 0 0 0 0 0 0 0 0 0 0 0 0 0
0 0 0 0 0 0 0 0 0 0 0 0 0 0 0 0 0 0 0 0 0 0.0904011910819792 0.0650950093716266 0.532939053712767 0.403918517820776 -0.185389084023819 0 0 0 0 0 0 0 0 0 0 0 0 0 0 0 0 0 0 0 0 0 0 0 -0.670679755655126
0 0 0 0 0 0 0 0 0 0 0 0 0 0 0 0 0 0 0 0 0 0 0 0 0 0 -0.185389084023819 0 0 0 -0.377710379379058 0 0 -0.147311222323911 0 0 0 0 0 0 0 0 0 0 0 0 0 0 0 -0.776631389284062
0 0 0 0 0 0 0 0 0 0 0.384490987033856 0 0 0 0 0 0 0 0 0 0 0 0 0 0 0 0 -0.185389084023819 0 0 -0.286006914364051 0 0 0 -0.461697256704346 0 0 0 0 0 0 0 0 0 0 0 0 0 0 0
0 0 0 0 0 0 0 0 0 0 0 0.134292350492084 0.0912908610687448 0.296338592206562 0 0 0.379491866969663 0 0 0 0 0 0 0 0 0 0 0 -0.185389084023819 0 -1.27804368328085 0 0 -2.65990375513791 -2.30487925195939 0 0 0 0 0 0 0 0 0 0 0 0 0 0 -0.279657345969095
0 0 0 0 0 0 0 0 0 0 0 0 0 0 0.102615354571979 0 0 0 0 0 0 0 0 0 0 0 0 0 0 -0.185389084023819 0 0 0 -0.831852368766646 -2.59030458256066 0 0 0 0 0 0 0 0 0 0 0 0 0 0 0
0 0 0 0 0 0 0 0 0 0 0 0 0 0 0 0 0 0 0 0 0 0 0 0 0.430840242911586 0 0.0729389837190037 0.0561235702684437 0.246261987351217 0 -0.185389084023819 0 0 -2.2339932896538 0 0 -1.01867230748055 0 0 0 -5.3313077155776 0 0 0 0 0 0 0 0 -0.598739483430553
0.263613601472774 0.0610619099144213 0 0 0 0 0 0 0 0 0 0 0 0 0 0 0 0 0 0 0 0 0 0 0 0 0 0 0 0 0 -0.185389084023819 0 -0.799781404525504 -0.404191236412583 0 -1.21428481074412 0 0 0 -6.3604227982557 0 0 0 0 0 0 0 0 -1.76106109680915
0 0 0 0 0 0 0 0 0.51461694056398 0 0 0 0 0 0 0 0 0 0 0 0 0 0 0 0 0 0 0 0 0 0 0 -0.185389084023819 -1.42904908553448 -1.23341842286031 0 -6.49469407702524 0 0 -0.080146853904982 -0.294180086839932 0 0 0 0 0 0 0 0 -0.981135851993887
0 0 0 0 0 0 0 0 0 0 0 0 0 0 0 0 0 0 0 0.274307635218168 1.21817961359347 0.149937147762611 0.48330795196642 0.0944991770492083 0.183055073096921 0 0.0298386766213859 0 0.559105678553738 0.161869692462223 0.449050541966473 0.172993299543971 0.257597427436263 -0.185389084023819 -0.647040531863521 0.0543703955858237 -1.56252348053695 0.217312997553256 0 -0.522758823871296 0 0 0 0 0 0 0 0 0 -0.0711712494687199
0 0 0 0 0 0 0 0 0 0 0 0 0 0 0 0 0 0 0 0 0 0 0 0 0 0 0 0.0956117155465715 0.459620476641626 0.520725699370724 0 0.0791274400475328 0.258982833158668 0.134074644741668 -0.185389084023819 0.145414598412418 -1.57684163991101 0 0 -0.344436758678734 0 0 0 0 0 0 0 0 0 0
0 0 0 0 0 0 0 0 0 0 0 0 0 0 0 0 0 0 0 0 0 0 0 0 0 0 0 0 0 0 0 0 0 -0.273082470823486 -0.705629797713009 -0.185389084023819 -0.911839311047162 -1.53664921696248 0 0 0 0 0 0 0 0 0 0 0 0
0 0 0 0 0 0 0 0 0 0 0 0 0 0 0 0 0 0 0 0 0 0 0 0 0 0 0 0 0 0 0.21376716036867 0.243432269588458 1.24866674275495 0.296427180228712 0.315201605249642 0.183186696984057 -0.185389084023819 0.181901798179715 0.0631325627709226 -1.11673650433894 0 0.0170901102212052 0.15343339934659 0 0 0 0 0 0 0
0 0 0 0 0 0 0 0 0 0 0 0 0 0 0 0 0 0 0 0 0 0 0 0 0 0 0 0 0 0 0 0 0 -1.11328042121352 0 0.288987134392139 -0.879192972042479 -0.185389084023819 0 -0.304675525484797 0 0 0 0 0 0 0 0 0 -2.59631690007547
0 0 0 0 0 0 0.107896868151097 0.176965471657215 0 0 0 0 0 0 0 0 0 0 0 0 0 0 0 0 0 0 0 0 0 0 0 0 0 0 0 0 -0.30667408508112 0 -0.185389084023819 -0.521701027538017 0 0 0 0 0 0 0 0 0 -2.18498535721539
0 0 0 0 0 0 0 0 0 0 0 0 0 0 0 0 0 0 0 0 0 0 0 0 0 0 0 0 0 0 0 0 0.0145099707775753 0.107406522777574 0.0656288562705756 0 0.223761630887753 0.0644392477374744 0.111923736531104 -0.185389084023819 0.0936611865375948 0 0.204952247511911 0.220713229394655 0.351379962277992 0.753353939281094 0 0 0 0
0 0 0 0 0 0 0 0 0 0 0 0 0 0 0 0 0 0 0 0 0 0 0 0 0 0 0 0 0 0 1.09805301945608 1.2734427029325 0.059736877148697 0 0 0 0 0 0 -0.517189367985788 -0.185389084023819 0 0 0 0 0 0 0 0 -0.414434218424382
0 0 0 0 0 0 0 0 0 0 0 0.267612647952049 0.521104078340412 0 0 0 0 0 0 0 0 0 0 0 0 0 0 0 0 0 0 0 0 0 0 0 -0.0802890967166845 0 0 0 0 -0.185389084023819 0 0 0 0 0 0 0 0
0 0 0 0 0 0 0 0 0 0 0 0 0 0 0 0 0 0 0 0 0 0 0 0 0 0 0 0 0 0 0 0 0 0 0 0 -0.748844080960545 0 0 -0.990977792479166 0 0 -0.185389084023819 0 0 0 0 0 0 0
0 0 0 0 0 0 0 0 0.0462772159050288 0 0 0 0 0 0 0 0 0 0 0 0 0 0 0 0 0 0 0 0 0 0 0 0 0 0 0 0 0 0 -1.11315072573207 0 0 0 -0.185389084023819 0 0 0 -0.191244350471606 0 -1.66186582660336
0 0 0 0.266791746170296 0.128395583496253 0.0369032708387095 1.35146249769579 0.0827800619923243 0 0.334205652155882 0 0 0 0 0 0 0 0 0 0 0 0 0 0 0 0 0 0 0 0 0 0 0 0 0 0 0 0 0 -1.77690719502433 0 0 0 0 -0.185389084023819 0 0 -0.832221516533091 0 -0.175948102964989
0 0 0 0 0 0 0 0 0 0 0 0 0 0 0 0 0 0 0 0 0 0 0 0 0 0 0 0 0 0 0 0 0 0 0 0 0 0 0 -3.56440736519139 0 0 0 0 0 -0.185389084023819 0 -0.454993574465597 0 -0.5633814868633
0 0 0.10506049354653 0 0 0 0.308643301365728 0.183749900239841 0.0305874129502463 0.276761357682103 0.0818971578555664 0.370121958997997 0 0 0 0 0 0 0 0 0 0 0 0 0 0 0 0 0 0 0 0 0 0 0 0 0 0 0 0 0 0 0 0 0 0 -0.185389084023819 -0.900356495653457 0 0
0 0 0 0 0 0 0 0 0 0 0 0 0 0 0 0 0 0 0 0 0 0 0 0 0 0 0 0 0 0 0 0 0 0 0 0 0 0 0 0 0 0 0 0.0390214028737287 0.158598654050838 0.0951635804285847 0.184836002647386 -0.185389084023819 0.130933290925311 -0.184125093170925
0 0 0 0 0 0 0 0 0 0 0 0 0 0 0 0 0 0 0 0 0 0 0 0 0 0 0 0 0 0 0 0 0 0 0 0 0 0 0 0 0 0 0 0 0 0 0 -0.685800577490012 -0.185389084023819 0
0 0 0 0 0 0 0 0 0 0 0 0 0 0 0.150994544679437 0 0.263331458089865 0.0294655714442685 0.465186610567859 0 0.180195627414125 0 0.809275003921401 0.278555025544358 0 0.121978794795645 0.154584065106179 0 0.0564253900859107 0 0.108809441800557 0.359143916593924 0.183952602262027 0.0139204702694752 0 0 0 0.461471168088405 0.43437089736986 0 0.0866047865461657 0 0 0.318136543656188 0.032245920306306 0.107855312232028 0 0.0371330179190247 0 -0.185389084023819
