0.754723401055454
0.24638781559712
0.433405654770487
0.549648207358725
0.77351056702922
0.314296825688211
0.214977878167558
0.931802885989843
0.483476715268127
0.843490493723211
3.6337563068769
1.45662450888226
2.95933855305967
0.272117530128914
0.700498550271436
0.366834636620399
2.16811658946602
1.52869695360136
3.21904390642345
1.1474648383594
1.45006303672398
0.958409088689111
0.62998334166992
0.250609598977701
2.3334289494143
2.29578987187068
0.817031868623493
2.64563013171413
2.2116903396239
0.506941974980825
0.593005984533717
1.158408721764
0.586128393550268
3.69472380967945
0.689471238026535
0.469463031781762
3.50160614644432
0.591218753515687
0.669954125029357
1.56990744917762
0.448429461805589
3.91398769596355
1.82966743690621
2.34928861987808
9.02923437749871
2.72167425280587
7.40306701286045
1.88737537701318
2.3456189969711
1.66313161843673
