2.03936812314794
0.187753896636995
6.27385063222029
0.293642129039954
1.92101275323286
0.950141283380905
5.53609799402931
0.448064696335123
5.72156777019472
0.647777577540025
1.22438348227002
0.735623985563988
1.65266425246902
0.2561323282144
2.39130527674666
0.375899143725206
1.40515434625371
1.51689014426907
3.04517422683529
0.410448002996223
5.09170936330306
1.44985598300859
0.412122354438794
0.411496321205454
1.45455593388702
0.328970228856298
0.427056551437114
1.34126353000832
3.93615395808847
1.13731197289961
2.37683016437083
0.244436594168041
0.450370979263299
3.14978345204812
5.47276921722915
3.01830114288428
0.610753163157056
0.76290058063803
2.7409402196245
0.990763868445148
0.410111574358027
3.24104807380506
0.746454090984055
0.447074219436929
1.10819821003286
0.327915163394988
2.37090312563697
0.247152358021152
0.853644909546267
1.13267682089323
