0.777798397559047
1.09796907280029
0.477932981605661
4.62732756624139
0.486063538877091
0.572970007111219
2.4393759873132
0.559632085867625
3.65428034269294
1.32715883523505
1.38976318617416
0.301312565046094
0.299240241445743
0.403855964121882
1.87048114739196
1.1726732864663
6.6378960623619
0.560540698165073
1.05587478567242
1.13892194271357
0.875707661862262
3.3800853396376
1.07933078752836
2.83025035689849
2.54944899428672
2.55789962866306
1.62413865152956
0.53179646401168
0.602602228541778
0.711269571695265
1.78809040117555
0.503233409444691
8.30730640870224
0.150788295424585
0.563203858277575
1.41733099838977
0.165075004065743
2.67487521084284
3.69093785751056
1.3842280849518
3.18531627560473
1.81428245757136
1.26074830592961
2.29211951175536
4.45468464219117
0.64500705127056
0.318688411192046
0.920325912084258
1.63786798906017
0.839319877651278
