-0.191581775545689 0 0 0 0 0 0 0 0 0 0 0 0 0 0 0 -8.69181568257821 0 0 0 0 0 0 0 0 0 0 0 0 0 0 0 0 0 0 0 0 0 0 -1.15952287129837 0 0 0 0 0 0 0 0 0 0
0 -0.191581775545689 0 0 0 0 0 0 0 0 0 0 0 0 0 0 0 0 -0.586638364973034 0 0 0 0 0 0 0 -0.311102991851937 0 0 0 0 0 0 0 0 0 0 0 0 0 0 0 0 0 0 0 0 0 0 0
0 0 -0.191581775545689 0 0 0 0 0 0 0 0 0 0 0 0 0 -2.03204890967824 0 0 0 0 0 -0.572533757595641 0 0 0 -0.412139916164674 0 0 0 0 0 0 0 0 0 0 0 0 0 0 0 0 0 0 0 0 0 0 0
0 0 0 -0.191581775545689 0 0 0 0 0 0 0 0 0 0 0 0 -0.861269709630465 0 -0.79119911875812 0 0 0 0 0 0 0 0 0 0 0 0 0 0 0 0 0 0 0 0 0 0 0 0 0 0 0 0 0 0 0
0 0 0 0 -0.191581775545689 0 0 0 0 0 0 0 0 0 0 0 -0.560585637693058 0 -2.62030631513426 0 0 0 0 0 0 0 0 0 -1.33986937179665 0 -4.73631387510277 0 0 0 0 0 0 0 0 -0.465377465020759 0 0 0 0 0 0 0 0 0 0
0 0 0 0 0 -0.191581775545689 0 -2.35230566258634 -0.674392685608868 0 0 0 0 -6.13766971174473 0 0 0 0 0 0 0 0 0 0 0 0 0 0 -1.33690262639281 0 0 0 0 0 0 0 0 0 0 0 -0.661828177810649 0 0 0 0 0 0 0 0 -1.28606037735817
0 0 0 0 0 0 -0.191581775545689 0 -1.54921141659211 0 0 0 0 -0.75533261119073 0 0 0 0 0 0 0 0 -0.76158526305014 0 0 0 0 0 0 0 0 0 0 0 0 0 0 0 0 -0.260478284554947 -0.824274033540065 0 0 0 0 0 0 0 0 0
0 0 0 0 0 0.455546062956064 0 -0.191581775545689 0 0 0 0 -0.560210440447703 0 0 0 0 0 0 0 0 0 -1.70162841365694 0 0 0 0 0 0 0 0 0 0 0 0 -1.07370070443906 0 0 0 0 -1.80136803673481 -1.21462913191669 0 0 0 0 0 0 0 -1.54135652602219
0 0 0 0 0 0.137728243298906 0.323802345561479 0 -0.191581775545689 0 0 -0.977816411364888 -0.62404145026366 0 0 -0.226611705216137 0 0 0 0 -0.650238129292744 0 0 0 0 0 0 0 0 0 0 0 0 0 -1.15874901906407 0 0 0 -0.645901899202345 0 0 -0.13593114718579 0 0 0 0 0 0 0 -0.803748922309821
0 0 0 0 0 0 0 0 0 -0.191581775545689 0 0 0 0 0 0 0 0 0 0 -1.62687423936383 0 0 0 0 0 0 0 0 0 0 0 0 0 -1.07370897776648 -2.02560438148181 0 0 -0.608673764435412 0 -0.983878575933506 0 0 0 0 0 0 0 0 -3.50122901485194
0 0 0 0 0 0 0 0 0 0 -0.191581775545689 0 -0.318860519283126 0 0 0 0 0 0 0 0 0 -0.598394234306723 0 0 0 0 -2.22006356528666 0 0 0 0 0 0 -0.433542258255299 -0.807989839158428 0 0 0 0 0 -1.5491532888541 0 0 0 0 0 0 0 0
0 0 0 0 0 0 0 0 0.19054418985683 0 0 -0.191581775545689 -0.105297386398555 0 0 0 0 0 0 0 0 0 -0.749518881969051 0 0 0 0 -1.4894390333078 0 0 0 0 0 0 -2.56241976454883 -0.850352364038185 0 0 0 0 -4.25529081079475 0 0 0 0 0 0 0 0 0
0 0 0 0 0 0 0 0.119626606024527 0.131257065349976 0 0.0638162933531744 0.0210500383232559 -0.191581775545689 0 0 0 0 0 0 0 0 0 0 -2.63680410681978 0 0 0 0 0 0 0 0 0 0 0 0 0 0 0 0 0 0 0 0 0 0 0 0 0 -0.715489810044044
0 0 0 0 0 1.09477200923364 0.150831499400998 0 0 0 0 0 0 -0.191581775545689 0 0 0 0 0 0 0 0 0 -3.3625608738541 0 0 0 0 0 -1.45145502075693 0 0 0 0 -0.119674684366029 0 0 0 0 0 -0.346334811145649 0 0 0 0 0 0 0 0 -1.31351492116085
0 0 0 0 0 0 0 0 0 0 0 0 0 0 -0.191581775545689 0 0 0 0 0 0 0 0 0 0 0 0 0 0 0 0 0 0 0 0 0 0 0 0 0 -1.30470313560391 0 0 0 0 0 0 0 0 -2.58151739827758
0 0 0 0 0 0 0 0 0.0435750025223744 0 0 0 0 0 0 -0.191581775545689 0 0 0 0 0 0 0 0 0 0 0 -0.707584367482647 0 0 0 0 0 0 -1.88952308842955 0 0 0 0 0 -2.13603508148497 0 -1.07810919366726 0 0 -9.88944512799837 0 0 0 0
1.73459739321119 0 0.390353797686978 0.181701673290024 0.116785940519582 0 0 0 0 0 0 0 0 0 0 0 -0.191581775545689 0 0 0 0 -0.16121258479594 0 0 0 0 0 -0.41900248538327 0 0 0 0 0 0 -3.33530193284473 0 0 0 0 0 0 0 0 0 0 0 0 0 0 0
0 0 0 0 0 0 0 0 0 0 0 0 0 0 0 0 0 -0.191581775545689 0 0 0 -1.40962230424213 0 0 0 0 0 -0.420418652603788 0 -0.280100497877251 0 0 0 0 0 0 -0.908070838956963 0 0 0 0 0 0 0 0 0 0 0 0 -9.47781304014232
0 0.112017675770927 0 0.146642827031581 0.525740743258357 0 0 0 0 0 0 0 0 0 0 0 0 0 -0.191581775545689 0 0 -1.53538668860387 0 0 -0.411437663667198 0 0 0 0 -0.170872723221425 0 0 0 0 0 0 -1.18183037593455 0 0 0 -6.58849538499761 0 0 0 0 0 0 -0.90693518580501 0 0
0 0 0 0 0 0 0 0 0 0 0 0 0 0 0 0 0 0 0 -0.191581775545689 0 -0.388286669991782 0 0 -0.122277934970849 0 0 0 0 0 0 0 0 0 0 0 0 0 0 0 0 0 0 -1.01053726395774 0 0 0 0 0 0
0 0 0 0 0 0 0 0 0.130685761909805 0.339341536981955 0 0 0 0 0 0 0 0 0 0 -0.191581775545689 0 0 0 0 0 0 0 0 0 0 0 0 0 0 0 0 0 0 0 0 0 0 0 0 0 -0.469481996988833 -2.99918219175054 0 -0.143878298203828
0 0 0 0 0 0 0 0 0 0 0 0 0 0 0 0 0.0308968730316711 0.282470701717409 0.293013664794034 0.0814428159900799 0 -0.191581775545689 0 0.539124669916375 0 0 0 0 0 0 0 0 0 0 0 0 -0.210851296907669 0 0 0 0 0 0 -0.628828163651788 0 0 -0.372808837098731 0 0 -0.229303125936367
0 0 0.117324896933887 0 0 0 0.154642876541609 0.344566231537643 0 0 0.115355004874199 0.154322521016747 0 0 0 0 0 0 0 0 0 0 -0.191581775545689 0 -0.919862595699626 0 0 0 0 0 0 0 0 0 0 0 -0.566624603233143 0 0 0 0 0 0 -1.06304038460924 0 0 0 0 0 -0.566547780312973
0 0 0 0 0 0 0 0 0 0 0 0 0.518075777266855 0.659980226368091 0 0 0 0 0 0 0 -2.69842180149055 0 -0.191581775545689 -0.521441588603999 0 0 0 0 0 0 0 -0.630867207824706 0 0 0 0 0 0 0 0 0 0 -1.20078360396283 0 0 -0.770130556443278 0 0 -0.598366498296103
0 0 0 0 0 0 0 0 0 0 0 0 0 0 0 0 0 0 0.0934825151670362 0.0235151884515251 0 0 0.182271692987045 0.10470588226972 -0.191581775545689 0 0 0 0 0 0 0 -0.79733882776349 0 0 0 -0.24950474075265 0 0 0 0 0 0 -0.801255432888583 0 0 -2.50419139027584 0 0 -1.67949389863631
0 0 0 0 0 0 0 0 0 0 0 0 0 0 0 0 0 0 0 0 0 0 0 0 0 -0.191581775545689 0 0 0 0 0 0 -0.523355047647807 0 0 0 -0.159029687654495 0 0 0 0 0 0 -0.603141738192488 0 0 0 0 0 -0.438181058838704
0 0.0609565162430024 0.0762317921154476 0 0 0 0 0 0 0 0 0 0 0 0 0 0 0 0 0 0 0 0 0 0 0 -0.191581775545689 0 0 0 0 0 -1.37966534288397 0 0 0 -2.24031606526349 0 0 0 0 0 0 0 0 0 0 0 0 -0.732620069605264
0 0 0 0 0 0 0 0 0 0 0.428646164592382 0.294934051663498 0 0 0 0.155620992918678 0.0775873246806986 0.0853929270541485 0 0 0 0 0 0 0 0 0 -0.191581775545689 0 0 0 0 -1.45309053181149 -2.36186579053486 0 0 -2.701213818328 0 0 0 0 0 0 0 0 0 0 0 0 -0.372984524533839
0 0 0 0 0.264741584547272 0.260301814803027 0 0 0 0 0 0 0 0 0 0 0 0 0 0 0 0 0 0 0 0 0 0 -0.191581775545689 0 0 0 0 -1.17518712936381 0 0 -0.579827803886234 0 0 0 0 0 0 0 -0.698941690188867 0 0 0 0 -3.2777505129792
0 0 0 0 0 0 0 0 0 0 0 0 0 0.267004443151444 0 0 0 0.0563368624473555 0.0363863428489298 0 0 0 0 0 0 0 0 0 0 -0.191581775545689 0 0 0 0 0 0 0 0 0 0 0 0 0 0 -0.460288137197802 0 0 0 0 -10.3944271662214
0 0 0 0 0.955186445359918 0 0 0 0 0 0 0 0 0 0 0 0 0 0 0 0 0 0 0 0 0 0 0 0 0 -0.191581775545689 0 -1.06257543703977 0 0 0 0 0 0 0 0 0 0 0 -1.45674364765817 0 0 0 0 -0.645016959867724
0 0 0 0 0 0 0 0 0 0 0 0 0 0 0 0 0 0 0 0 0 0 0 0 0 0 0 0 0 0 0 -0.191581775545689 -3.9949019515666 0 0 0 0 0 0 0 0 0 0 0 -0.507969407429619 0 0 0 0 0
0 0 0 0 0 0 0 0 0 0 0 0 0 0 0 0 0 0 0 0 0 0 0 0.130611257022764 0.167867686055274 0.0934459007650145 0.272655134281722 0.287254681343078 0 0 0.220068067928085 0.840510830153161 -0.191581775545689 0 0 0 0 0 0 0 0 0 0 0 -4.23428219731052 0 0 0 0 -1.9517029391197
0 0 0 0 0 0 0 0 0 0 0 0 0 0 0 0 0 0 0 0 0 0 0 0 0 0 0 0.46943600689857 0.251957298936446 0 0 0 0 -0.191581775545689 0 0 0 0 0 0 0 0 0 0 -2.17373006238951 0 0 0 0 0
0 0 0 0 0 0 0 0 0.234633827303689 0.215275573613388 0.0897422186569991 0.506069387505309 0 0.0241579315502019 0 0.41213194421406 0.69082689335531 0 0 0 0 0 0 0 0 0 0 0 0 0 0 0 0 0 -0.191581775545689 0 0 0 0 0 0 0 0 0 -1.01356847242412 0 0 0 0 -1.40710932441541
0 0 0 0 0 0 0 0.220532182365079 0 0.377517681479 0.159655432722345 0.178156606183768 0 0 0 0 0 0 0 0 0 0 0 0 0 0 0 0 0 0 0 0 0 0 0 -0.191581775545689 0 0 0 0 0 0 0 0 0 0 0 0 0 0
0 0 0 0 0 0 0 0 0 0 0 0 0 0 0 0 0 0.182977664305728 0.249047719984611 0 0 0.0391034271791537 0.108081848429646 0 0.0513341844659675 0.0307872639519473 0.452845334659728 0.511181428241687 0.117407809481435 0 0 0 0 0 0 0 -0.191581775545689 -1.5766972591472 0 0 0 0 0 0 0 0 0 0 0 0
0 0 0 0 0 0 0 0 0 0 0 0 0 0 0 0 0 0 0 0 0 0 0 0 0 0 0 0 0 0 0 0 0 0 0 0 0.306415316712041 -0.191581775545689 0 0 0 0 0 0 0 0 0 0 0 0
0 0 0 0 0 0 0 0 0.127670933829079 0.120703855967109 0 0 0 0 0 0 0 0 0 0 0 0 0 0 0 0 0 0 0 0 0 0 0 0 0 0 0 0 -0.191581775545689 0 0 0 0 0 0 0 0 0 0 0
0.230117791360963 0 0 0 0.0941725566957874 0 0.0560486660974817 0 0 0 0 0 0 0 0 0 0 0 0 0 0 0 0 0 0 0 0 0 0 0 0 0 0 0 0 0 0 0 0 -0.191581775545689 0 0 0 0 0 0 0 0 0 0
0 0 0 0 0 0.121160573229291 0.145431828171487 0.348849002704565 0 0.192482767501259 0 0.800614812244858 0 0.0687518539817908 0.282509058413903 0.409716495069596 0 0 1.37394717946844 0 0 0 0 0 0 0 0 0 0 0 0 0 0 0 0 0 0 0 0 0 -0.191581775545689 0 0 0 0 0 0 0 0 0
0 0 0 0 0 0 0 0.241825034770426 0.0253502181578338 0 0.295772703437204 0 0 0 0 0 0 0 0 0 0 0 0 0 0 0 0 0 0 0 0 0 0 0 0 0 0 0 0 0 0 -0.191581775545689 0 0 0 0 0 0 -7.52336070242933 0
0 0 0 0 0 0 0 0 0 0 0 0 0 0 0 0.213161453010215 0 0 0 0 0 0 0 0 0 0 0 0 0 0 0 0 0 0 0 0 0 0 0 0 0 0 -0.191581775545689 0 0 0 0 0 0 0
0 0 0 0 0 0 0 0 0 0 0 0 0 0 0 0 0 0 0 0.207087584031474 0 0.119896851593726 0.191308291541813 0.239172431322508 0.151660696157512 0.131771119784282 0 0 0 0 0 0 0 0 0 0 0 0 0 0 0 0 0 -0.191581775545689 0 0 0 0 0 0
0 0 0 0 0 0 0 0 0 0 0 0 0 0 0 0 0 0 0 0 0 0 0 0 0 0 0 0 0.145512495512598 0.0897565558079814 0.287680610850788 0.0994838247812959 0.861683065751255 0.423827089965374 0.192135254120424 0 0 0 0 0 0 0 0 0 -0.191581775545689 0 0 0 0 0
0 0 0 0 0 0 0 0 0 0 0 0 0 0 0 1.78176713184023 0 0 0 0 0 0 0 0 0 0 0 0 0 0 0 0 0 0 0 0 0 0 0 0 0 0 0 0 0 -0.191581775545689 0 0 0 0
0 0 0 0 0 0 0 0 0 0 0 0 0 0 0 0 0 0 0 0 0.0911260969695643 0.0692083061586878 0 0.150151245214044 0.482354241466904 0 0 0 0 0 0 0 0 0 0 0 0 0 0 0 0 0 0 0 0 0 -0.191581775545689 0 0 0
0 0 0 0 0 0 0 0 0 0 0 0 0 0 0 0 0 0 0.176045146812347 0 0.621621888395624 0 0 0 0 0 0 0 0 0 0 0 0 0 0 0 0 0 0 0 0 0 0 0 0 0 0 -0.191581775545689 0 0
0 0 0 0 0 0 0 0 0 0 0 0 0 0 0 0 0 0 0 0 0 0 0 0 0 0 0 0 0 0 0 0 0 0 0 0 0 0 0 0 0 1.45677905831854 0 0 0 0 0 0 -0.191581775545689 0
0 0 0 0 0 0.246876100751623 0 0.326730186228427 0.152325370876819 0.69306231179576 0 0 0.140439870195467 0.257701110609071 0.548105118181791 0 0 1.71179931600826 0 0 0.0279770620190498 0.0468332945641233 0.114752134766156 0.126428503896403 0.323652345925361 0.0801270591158583 0.141676699348772 0.0721281373317647 0.681751890663975 2.12189271913407 0.12077212177405 0 0.386428526382318 0 0.262506549591111 0 0 0 0 0 0 0 0 0 0 0 0 0 0 -0.191581775545689
