-0.178896049980258 -0.57391165039667 0 0 0 -0.202531821358672 0 0 0 0 0 0 0 0 0 0 0 0 0 0 0 0 0 0 0 0 0 0 0 -0.757658077713515 0 0 0 0 0 0 0 0 0 0 0 0 0 0 0 0 0 0 0 0
0.107697905260012 -0.178896049980258 0 0 0 0 0 0 0 -3.46297738196389 0 0 0 0 0 0 0 0 0 0 0 0 0 0 0 0 0 0 0 -0.611273889052162 0 0 0 0 0 0 0 0 0 0 0 0 0 0 0 0 0 0 0 0
0 0 -0.178896049980258 0 0 0 0 0 0 -0.324077338707985 -1.89642636082688 0 -2.38410769210103 0 0 0 0 0 0 0 0 0 0 0 0 0 0 0 0 -8.71805532706941 0 0 0 0 0 0 0 0 0 0 0 0 0 0 0 0 0 0 0 0
0 0 0 -0.178896049980258 0 0 0 0 0 -0.286021815082522 -1.38583957674996 0 0 0 0 0 0 0 0 0 0 0 0 0 0 0 0 0 0 -0.410301566484717 0 0 0 0 0 0 0 0 0 0 0 0 0 0 0 0 0 0 0 0
0 0 0 0 -0.178896049980258 0 0 0 -1.11448430780748 -1.96695159146477 0 0 -1.19730261039611 0 0 0 0 0 0 0 0 0 0 0 0 0 0 0 0 -1.38912853868938 0 0 0 0 0 0 0 0 0 0 0 0 0 0 0 0 0 0 0 0
0.0403324646930046 0 0 0 0 -0.178896049980258 0 -0.956356512047566 -0.586424725636479 -0.744171471020813 0 0 -2.31937081292634 0 0 0 0 0 0 0 0 0 0 0 0 0 0 0 0 -1.43830943015348 0 0 0 0 0 0 0 0 0 0 0 0 0 0 0 0 0 0 0 0
0 0 0 0 0 0 -0.178896049980258 0 0 0 0 0 0 -0.611391509658603 0 0 0 0 0 0 0 0 0 0 0 -1.37217537083849 0 0 0 -0.955690623372114 0 0 0 0 0 0 0 0 0 -0.970979758854307 0 0 0 0 0 0 0 0 0 0
0 0 0 0 0 0.175681588646796 0 -0.178896049980258 0 0 0 0 0 0 0 0 0 0 0 0 0 -0.690906154648468 0 -0.259472639580338 0 0 0 0 0 0 0 0 0 0 0 -0.47034429216747 0 0 0 0 0 0 0 -1.64281210438277 0 0 0 0 0 0
0 0 0 0 0.239675530797127 0.126295653204731 0 0 -0.178896049980258 0 0 0 0 0 0 0 0 -0.466236280040859 0 0 0 -2.43181001432589 0 -1.79051043501618 0 0 0 0 0 0 0 0 0 0 0 0 0 0 0 -0.342403729990079 0 0 0 0 0 0 0 0 0 0
0 0.660127686478795 0.0658906528622741 0.0545957472346612 0.373799076963987 0.15878570197687 0 0 0 -0.178896049980258 0 0 0 0 0 0 0 -0.94196368104516 0 0 0 0 0 -3.76522974354898 0 0 0 0 0 0 0 0 0 0 0 0 0 0 -5.55051798273242 0 0 0 0 -1.48448320105581 0 0 0 0 0 0
0 0 0.399138369084769 0.282711341456454 0 0 0 0 0 0 -0.178896049980258 0 0 0 0 0 0 0 0 0 -1.42378412093675 -0.658156265601662 0 0 0 0 0 0 0 0 0 0 0 0 0 0 0 0 0 -0.120565753329884 0 0 0 0 0 0 0 0 0 0
0 0 0 0 0 0 0 0 0 0 0 -0.178896049980258 0 0 0 0 0 0 0 0 0 -1.69608664330003 0 0 0 0 0 0 0 0 0 0 0 -0.560068856184361 0 0 0 -0.306706219144935 0 -0.392742516091427 0 0 0 0 0 0 0 -2.36010432956645 -0.304828248302209 0
0 0 0.504893146350115 0 0.225507357405694 0.477217170883881 0 0 0 0 0 0 -0.178896049980258 0 0 -1.43940599643101 0 0 0 -0.375810528560518 0 -1.04786594513564 0 0 0 0 0 0 0 0 0 0 0 -0.639088953886699 0 0 -4.23464047159836 -2.47016191781352 0 -0.358267976846695 0 0 0 0 0 0 0 0 0 0
0 0 0 0 0 0 0.122624064263387 0 0 0 0 0 0 -0.178896049980258 0 0 -8.00075969029891 0 0 0 0 0 0 0 0 0 0 0 0 0 -0.371348327056357 0 0 0 0 0 0 0 -0.869332483767642 0 0 0 0 0 0 0 0 -0.669249394106731 0 0
0 0 0 0 0 0 0 0 0 0 0 0 0 0 -0.178896049980258 0 0 0 0 0 0 0 0 0 0 0 0 0 0 0 -0.554248441468522 0 0 0 -0.466571313157992 0 -1.15547623283123 0 -0.215260411288722 0 0 0 0 0 0 0 0 -1.53286089263167 -0.272862198438838 0
0 0 0 0 0 0 0 0 0 0 0 0 0.3188603233818 0 0 -0.178896049980258 -0.77930189931359 0 0 0 0 0 0 0 0 0 -1.90346984040486 0 0 0 -0.51340870217066 0 0 0 0 0 0 0 -1.42600766832699 -3.24927391793273 0 0 0 0 0 0 0 -0.502699378738866 -0.923672042933216 0
0 0 0 0 0 0 0 0 0 0 0 0 0 1.47117449086156 0 0.157721453352077 -0.178896049980258 0 0 0 0 0 0 0 0 0 0 0 0 0 -3.76418732245125 0 0 0 0 0 0 0 -0.437935631566997 -0.971059966641899 0 0 0 0 0 0 0 0 -0.37951036228896 0
0 0 0 0 0 0 0 0 0.0925065180038699 0.192352008761105 0 0 0 0 0 0 0 -0.178896049980258 0 0 0 0 0 0 0 0 0 0 0 0 -5.24990172558521 0 0 0 0 0 0 0 -0.74962519289007 -1.09116816817464 0 0 0 0 0 -1.06922236253739 0 0 0 0
0 0 0 0 0 0 0 0 0 0 0 0 0 0 0 0 0 0 -0.178896049980258 0 0 0 0 0 0 0 0 0 0 0 0 0 0 0 0 0 0 0 0 0 0 0 0 0 0 -0.995083993504749 0 0 -1.18812530812502 0
0 0 0 0 0 0 0 0 0 0 0 0 0.0739392391381894 0 0 0 0 0 0 -0.178896049980258 0 0 0 0 0 0 0 0 0 0 -0.31719386744934 0 0 0 0 0 0 0 -4.07562605782666 -2.229844681314 0 0 0 0 0 -5.37715534072968 0 0 0 0
0 0 0 0 0 0 0 0 0 0 0.284630548164745 0 0 0 0 0 0 0 0 0 -0.178896049980258 0 0 0 0 0 0 0 0 0 -1.76794356370237 0 0 0 0 0 0 0 0 -1.69250587958328 0 0 0 0 0 -0.902614991229518 0 0 0 0
0 0 0 0 0 0 0 0.132924187940761 0.51449763960865 0 0.130372730539782 0.357822171526141 0.215473651481761 0 0 0 0 0 0 0 0 -0.178896049980258 0 0 0 0 0 0 0 0 -0.338039741401684 0 0 0 0 0 0 0 0 0 0 0 0 0 0 0 0 0 -0.7842319353434 0
0 0 0 0 0 0 0 0 0 0 0 0 0 0 0 0 0 0 0 0 0 0 -0.178896049980258 0 0 0 0 0 0 0 -1.11211927150048 0 -0.481595676134092 0 0 0 0 0 -0.436313006005663 0 0 0 0 0 0 -0.469138007214409 0 0 -0.101840111615032 0
0 0 0 0 0 0 0 0.0545867147954245 0.352490807108659 0.73201675089607 0 0 0 0 0 0 0 0 0 0 0 0 0 -0.178896049980258 0 0 0 0 0 0 0 0 -2.70743249869064 0 0 0 0 0 -0.378056508312684 0 0 0 0 0 0 0 -0.445012715147199 0 0 0
0 0 0 0 0 0 0 0 0 0 0 0 0 0 0 0 0 0 0 0 0 0 0 0 -0.178896049980258 0 0 0 0 0 0 0 -1.21076068287661 0 0 0 0 0 -0.182238811766758 0 0 0 0 0 0 0 -1.73670077582584 0 -2.58593978290059 0
0 0 0 0 0 0 0.286971181311109 0 0 0 0 0 0 0 0 0 0 0 0 0 0 0 0 0 0 -0.178896049980258 0 0 0 0 0 0 0 0 0 0 0 0 -2.02884210321185 0 0 0 0 0 0 -1.67021987533042 -1.19269018269745 0 0 -0.354932981371779
0 0 0 0 0 0 0 0 0 0 0 0 0 0 0 0.411117327824759 0 0 0 0 0 0 0 0 0 0 -0.178896049980258 0 0 0 0 0 0 0 0 0 0 0 0 0 0 0 0 0 0 0 0 0 -0.449855677190988 0
0 0 0 0 0 0 0 0 0 0 0 0 0 0 0 0 0 0 0 0 0 0 0 0 0 0 0 -0.178896049980258 0 0 0 0 0 0 0 0 0 0 0 0 0 -3.16847327851808 0 0 0 -4.57474603859112 -0.168404569602547 0 0 0
0 0 0 0 0 0 0 0 0 0 0 0 0 0 0 0 0 0 0 0 0 0 0 0 0 0 0 0 -0.178896049980258 0 0 0 0 0 0 0 0 0 0 0 0 0 0 0 0 -1.01160529471803 0 0 -0.909190513127076 0
0.151628028326751 0.123405442306791 1.7954907503904 0.0843523309875262 0.283273139337297 0.306064838146253 0.208355848380058 0 0 0 0 0 0 0 0 0 0 0 0 0 0 0 0 0 0 0 0 0 0 -0.178896049980258 0 0 0 0 0 0 0 0 0 0 0 -1.4665352228116 0 0 0 -0.776476693696482 0 0 0 -2.46575876969837
0 0 0 0 0 0 0 0 0 0 0 0 0 0.0773137326993946 0.112089831538165 0.0964659370611698 0.740723705937177 0.984900697193104 0 0.0678896321960704 0.332441817373957 0.0709937828237715 0.230485650076361 0 0 0 0 0 0 0 -0.178896049980258 0 0 0 0 0 0 0 0 0 -0.561534387327453 0 0 0 0 0 0 0 0 -0.199593594604044
0 0 0 0 0 0 0 0 0 0 0 0 0 0 0 0 0 0 0 0 0 0 0 0 0 0 0 0 0 0 0 -0.178896049980258 0 0 0 0 0 0 0 0 -1.10237104484903 0 0 0 0 0 0 0 0 0
0 0 0 0 0 0 0 0 0 0 0 0 0 0 0 0 0 0 0 0 0 0 0.098080196899528 0.526542302235264 0.238316355118723 0 0 0 0 0 0 0 -0.178896049980258 0 0 0 0 0 0 0 0 -1.76754068592114 0 0 0 0 0 0 0 0
0 0 0 0 0 0 0 0 0 0 0 0.110425464387691 0.126332770738276 0 0 0 0 0 0 0 0 0 0 0 0 0 0 0 0 0 0 0 0 -0.178896049980258 0 0 0 0 0 0 -1.44029149765562 0 0 0 0 0 0 0 0 0
0 0 0 0 0 0 0 0 0 0 0 0 0 0 0.0972196457220588 0 0 0 0 0 0 0 0 0 0 0 0 0 0 0 0 0 0 0 -0.178896049980258 0 0 0 0 0 -3.25011115513071 -3.11182016089617 0 0 0 -1.33257230800961 0 0 0 0
0 0 0 0 0 0 0 0.0975265981037312 0 0 0 0 0 0 0 0 0 0 0 0 0 0 0 0 0 0 0 0 0 0 0 0 0 0 0 -0.178896049980258 0 0 0 0 0 -1.37296943335123 0 0 0 0 0 0 0 0
0 0 0 0 0 0 0 0 0 0 0 0 0.770930840778129 0 0.226826477964748 0 0 0 0 0 0 0 0 0 0 0 0 0 0 0 0 0 0 0 0 0 -0.178896049980258 0 0 0 0 0 0 0 0 0 0 0 0 0
0 0 0 0 0 0 0 0 0 0 0 0.06904844699006 0.495590066265874 0 0 0 0 0 0 0 0 0 0 0 0 0 0 0 0 0 0 0 0 0 0 0 0 -0.178896049980258 0 0 0 -0.310921900886669 0 0 0 0 0 0 0 0
0 0 0 0 0 0 0 0 0 1.07270498447055 0 0 0 0.172559542705933 0.0453326722534969 0.314595266497579 0.0827578595685934 0.155480371054001 0 0.801190231491303 0 0 0.0847700021642155 0.0748146961231427 0.0389115668759881 0.409001636036337 0 0 0 0 0 0 0 0 0 0 0 0 -0.178896049980258 0 0 -0.201946214275227 -0.487461557650207 0 -1.04849888154992 0 0 0 0 0
0 0 0 0 0 0 0.196891514836043 0 0.0691900661824207 0 0.023839744045472 0.0781194197321836 0.0735491474217807 0 0 0.621838418466753 0.187018193218257 0.218782296675224 0 0.471916392870858 0.31345340287024 0 0 0 0 0 0 0 0 0 0 0 0 0 0 0 0 0 0 -0.178896049980258 -7.48880156413246 0 0 0 0 0 0 0 0 0
0 0 0 0 0 0 0 0 0 0 0 0 0 0 0 0 0 0 0 0 0 0 0 0 0 0 0 0 0 0 0.115860608083383 0.210792077761756 0 0.289340469445372 0.631071392166322 0 0 0 0 1.5560933654019 -0.178896049980258 0 -0.228468127869834 0 -0.428334062736283 0 0 0 0 0
0 0 0 0 0 0 0 0 0 0 0 0 0 0 0 0 0 0 0 0 0 0 0 0 0 0 0 0.543869391443858 0 0.314306917352872 0 0 0.347820530877996 0 0.61324100937292 0.298721449370257 0 0.0639311458652763 0.0390180659983985 0 0 -0.178896049980258 0 0 0 0 0 0 0 0
0 0 0 0 0 0 0 0 0 0 0 0 0 0 0 0 0 0 0 0 0 0 0 0 0 0 0 0 0 0 0 0 0 0 0 0 0 0 0.0913824402826971 0 0.0478959016949516 0 -0.178896049980258 0 -1.55783696585343 0 0 0 0 0
0 0 0 0 0 0 0 0.331427194017652 0 0.274716087801395 0 0 0 0 0 0 0 0 0 0 0 0 0 0 0 0 0 0 0 0 0 0 0 0 0 0 0 0 0 0 0 0 0 -0.178896049980258 0 0 0 0 0 0
0 0 0 0 0 0 0 0 0 0 0 0 0 0 0 0 0 0 0 0 0 0 0 0 0 0 0 0 0 0 0 0 0 0 0 0 0 0 0.211884297379205 0 0.0737941637039581 0 0.306292342237376 0 -0.178896049980258 0 0 0 0 0
0 0 0 0 0 0 0 0 0 0 0 0 0 0 0 0 0 0.216968390746403 0.197643018217526 1.09455924167244 0.192530035881809 0 0.0919398731292504 0 0 0.329537584534183 0 0.870149304833357 0.21853148242786 0.147465882724307 0 0 0 0 0.254278950909988 0 0 0 0 0 0 0 0 0 0 -0.178896049980258 0 0 0 0
0 0 0 0 0 0 0 0 0 0 0 0 0 0 0 0 0 0 0 0 0 0 0 0.0872508734278889 0.338102069685556 0.231197417832935 0 0.0328908004378592 0 0 0 0 0 0 0 0 0 0 0 0 0 0 0 0 0 0 -0.178896049980258 0 0 0
0 0 0 0 0 0 0 0 0 0 0 0.425509435037671 0 0.131545019273316 0.283772007534853 0.10154602522662 0 0 0 0 0 0 0 0 0 0 0 0 0 0 0 0 0 0 0 0 0 0 0 0 0 0 0 0 0 0 0 -0.178896049980258 0 0
0 0 0 0 0 0 0 0 0 0 0 0.0638065690290355 0 0 0.0553481401928207 0.18842494133063 0.0757330673609501 0 0.242837766399134 0 0 0.152190824177442 0.0212739051992046 0 0.499170488599056 0 0.0858900257448381 0 0.197520694869258 0 0 0 0 0 0 0 0 0 0 0 0 0 0 0 0 0 0 0 -0.178896049980258 0
0 0 0 0 0 0 0 0 0 0 0 0 0 0 0 0 0 0 0 0 0 0 0 0 0 0.0716094317561678 0 0 0 0.467679691147884 0.0363501738588883 0 0 0 0 0 0 0 0 0 0 0 0 0 0 0 0 0 0 -0.178896049980258
