0.608076363572576
1.39531434801235
2.19111490767571
0.409608598164218
0.408923875060262
0.387069070009629
2.64855469688643
0.13673577866459
0.967472320991381
2.76904007972399
2.41761176058769
0.443674176661938
0.245367354247327
1.15563602386317
3.02942594003644
3.73947371259002
0.529510010842419
0.111777581871667
2.16761470767371
0.515943833424319
4.47079511135435
3.64385016501625
0.867773736929968
1.21304624784949
6.00310046129515
1.22849958172728
0.252296090867552
0.178655059517241
0.78582091285397
1.61527641861633
2.55566324303559
0.2790468717463
0.430080924177642
1.39137702383292
0.734040823433594
0.574991121378602
0.229787328152552
0.50296113261178
0.996588400733121
0.369218544509526
0.165896320157034
0.197160022864304
0.674925813219442
7.15589052206761
0.706846179920188
1.87179870031147
0.823400206185304
0.369500087679801
0.371335167330519
2.57853295267408
