1.02726020089612
1.11386604064904
2.11694581417171
0.365831500191225
2.51607456665629
0.85949640569275
0.322866533908429
0.600616139363065
0.486464180251564
1.11292938686774
2.93731348777731
0.301273064201823
0.893945203924785
1.07670854276043
1.58560923403237
1.03890954048701
2.05071730272001
5.05369502467418
1.5463799920554
2.49341533739384
3.6872753621968
1.27792709889959
7.9888830887896
2.47771831852726
1.83058870730126
0.716786860600714
0.551069917137563
1.32289176246318
5.5476036780356
3.1787626319371
0.443560861825448
0.27686403941991
0.483797067438419
3.35577981160054
0.565299849002267
1.69149081521448
0.437712380374239
0.991156407438045
0.89792049889641
0.629744738018444
5.25901717009077
2.28747480254034
0.594093924481379
2.59291734187659
0.455166395022996
0.686855411552587
0.856523430029947
3.41972629184301
0.145614858422251
0.490477191419521
