9.37902045533074
0.915381947553872
0.434667959717463
0.551762529948352
2.20848937213509
3.06850286733381
0.21859042493736
0.686764818404509
1.96596497263552
0.254405179529721
1.46000088776867
2.01138233199253
1.16611237027949
2.35115748744233
0.190306432048192
2.74546066490851
0.579958944773833
1.94604383270854
0.926416729131857
1.17101540789192
4.16014620981612
0.319881951015383
1.51652069118592
0.687633779364482
0.577710659208354
0.306035106540119
3.62092644333294
0.519746172261844
0.365040481381116
0.990008580368839
2.93147425563986
2.35178307417916
1.0870655838517
1.5011348765231
0.192094864203905
1.39037022108974
0.60099506060641
1.55541116240571
0.541290234346128
3.11812555713178
2.47040225747685
0.11803551229843
2.22129800876798
0.554377874396621
1.71066418361385
0.45733870858794
1.85498795043023
0.503437520034276
0.557793236989467
0.527314057953895
