0.351760937187351
0.736456333862617
1.26043020132254
0.241397443215343
11.9786867723957
2.54152380041824
0.617314829911316
0.143854255613568
6.29180780180355
0.2341682477285
0.556699530121989
1.71022738946645
1.8002664023361
0.0826361095147462
0.271309558148569
4.4427236153896
2.13956753589788
3.97368457061221
1.55633952303406
0.834086401390208
0.989847582508744
0.246565315442078
0.777941395427015
1.27616151200234
0.286236114901044
3.94262625886948
0.353290665757711
0.463684697465417
0.583410010662106
2.43990646062164
1.47207423979729
3.14203713576628
1.22215351326178
0.951913800633303
0.214195933824527
0.751298259496705
4.74190813847558
0.771549227328014
0.0745631557191617
0.575945040335539
0.223627085725383
0.624349331790696
0.964175502562059
0.39851439782173
0.78031058407025
0.905266241251653
4.23018866158996
4.76439040576079
0.342530282340007
3.81067579589329
