5.21832464755337
0.602832415246968
11.1070084258245
0.353096594345657
0.691079248127551
1.32150216490715
0.912411356964504
2.63725788463466
0.541876057239456
0.56210483784964
1.23531599820781
1.37267613643835
1.23154315189676
5.1253528491818
0.826098716172028
0.743293822086577
2.3009376556836
2.07776420557655
1.0354862962412
3.6050808445853
0.0804394886531181
3.07340318268589
1.23074690614564
0.460010692235925
0.407530540873681
1.89184505661489
0.380959890542273
1.72250807210318
0.236485620117976
2.95052435215246
1.64410815516643
0.781327060098008
0.249255320154756
2.92821436154984
1.95584180263532
1.39004063569691
6.05782484065599
0.73673207811374
0.339121228605718
2.63755139864557
1.90094527798314
3.04819228820716
1.27079870047391
1.4779588204981
0.628901105702675
1.04262855232583
0.179479556238198
0.421849012857587
0.205278485805095
1.08713499187483
