5.91696750930631
3.52921398770384
1.50635909197377
0.658947318327173
0.514869317696849
0.804992005335011
1.18386775760815
6.82833677109721
0.471947535457227
1.38986538440555
1.01930285466273
0.459190185336846
1.08982763994729
2.91717963045739
1.73691380875574
9.44241867830309
0.345423249830099
1.68788986545099
0.251926346895635
0.528968141486176
5.66340195359578
0.494547227232406
1.43940344969272
1.47300305140066
0.278149854350628
0.514341938620888
1.89973199288504
1.12956619727545
0.612447620688482
0.284599375548896
0.671142494582003
1.25468167110769
1.21379137957676
1.21741043796415
3.9393228697465
0.885947461801821
0.949993101644706
3.37407407987329
0.71478049956926
0.890335156667604
1.49040481783932
0.369348165584319
0.482051628345368
3.59628914790199
1.38805847273912
8.5434530688819
0.588601755535984
1.03197524558632
0.852327967362983
0.236236770935584
