6.96372985572062
0.392145373912003
0.161631978347287
1.931223244476
0.138407869017041
0.389560772612984
0.129877548491336
2.48864407455266
0.257458433802195
4.33707185807698
0.474430586728231
1.28707607474718
1.50449298748377
0.144303386583582
0.68819430429438
0.334560156389066
3.51865882644238
2.50805360377791
3.2905597111034
0.240848215264374
0.787368702168643
2.15682862171217
2.3869547405563
2.21203559110246
0.560100348700138
4.09428028545439
0.285317553785112
2.45759906764106
6.48858039099408
0.384309100173724
1.81571507406242
0.935315386557452
1.90530801446698
1.54664957928757
0.966205015513066
2.14484758946998
0.358200439294545
0.638290410179564
4.77581761510448
0.182494647370373
0.719115290475937
1.88352381304382
1.84121413007391
0.476452848484958
0.354053588303367
4.02610874594975
0.886000396042036
0.490256102597158
1.69132705124408
2.388782017425
