0.304435904893466
1.33425353255245
2.23634874054311
1.63974735681622
0.05464616006039
1.04985590421935
0.531984002969516
1.18679268705248
0.689476805556774
2.29358424516021
1.08823260176819
0.841129410977198
1.23492777409211
0.231336830142241
0.380234819321615
0.328458505831513
1.18053101302963
0.207022089157036
0.811595328032541
0.41637271366265
0.397113025518424
1.04676203737995
0.769683948481657
1.09693413527397
1.91160027301723
0.0976460706083224
0.567195930637342
0.500385378070565
5.47451341389763
7.9796790376328
0.936719064391032
0.395210462284154
0.972564233531698
1.53642323076168
0.114892272029996
0.193589152790539
0.521732436402343
0.557332811509286
3.00006761326805
0.237873536200064
0.613025507478086
0.742311844590408
0.673706021220734
0.198221924697894
0.199239080917862
0.926531832914278
1.52083999224026
0.0418143821674357
0.317259192773427
5.54945144486789
