1.29762487653272
0.775083241138861
0.48495277915105
1.91236550701934
2.43568779647998
2.8909350680268
2.31579177988586
0.216455665390433
1.58796161966347
0.537266580362667
0.851140313367551
0.59196494685423
0.287626940236607
0.860880937898378
3.66663363069524
1.02401167987741
1.96891395741256
7.26390814697925
1.25390363039136
0.340087116007388
0.135354541577173
0.0660197965517302
1.60548420509098
0.590128444958478
0.615973867791447
0.0877023838958118
1.17971713601106
0.492828293604516
0.939672631569692
1.29871561721537
0.794337652766333
1.93928073068376
3.57634328501518
0.586906823636284
3.01281156019101
0.745547625066655
1.72474056358867
1.91752906099725
0.932437742495617
5.90348893397824
2.36106640635491
0.71614026877728
1.51138232293988
2.63115842803658
0.920685563827178
0.319689588762201
0.919593316946053
0.28430803491698
1.19734166192452
1.33443175571197
