-0.121360893436112 0 -0.534235494222118 0 -0.393808712040557 0 -0.704108800054661 -0.93734692030159 0 0 0 0 0 0 0 0 -0.666461699427652 0 0 0 0 0 0 0 0 0 -0.695310923548721 0 0 0 0 0 0 -0.306643949062457 0 0 0 0 0 0 0 -0.316980779375485 -1.01553687937777 0 0 0 0 0 0 0
0 -0.121360893436112 0 0 0 0 0 0 0 0 0 0 0 0 0 0 -1.02662187927654 0 0 0 0 0 0 0 0 0 0 0 -4.25268664436011 0 0 0 0 -0.720834979470699 0 0 0 0 0 0 -0.981321704682081 -0.638053922508118 0 0 0 0 0 0 0 0
0.114932374057479 0 -0.121360893436112 0 0 0 0 0 0 0 0 0 0 0 0 0 -0.750457768716132 0 0 0 0 0 0 0 0 0 0 0 -2.21107306336533 0 0 0 0 0 0 0 0 0 0 0 0 -0.614849994721071 0 0 0 0 0 0 0 0
0 0 0 -0.121360893436112 0 0 0 0 0 0 0 0 0 0 0 -1.5337997583295 0 0 0 0 0 0 0 0 0 -1.07593703231946 -0.149863930042035 0 -0.381135555164834 0 0 0 0 0 0 0 0 0 0 0 -0.35507867729143 -0.736115502811207 0 -1.42573707562889 0 0 0 0 0 0
0.0828045509508001 0 0 0 -0.121360893436112 0 0 0 0 0 0 0 0 0 0 -5.8161485786154 0 0 0 0 0 0 0 0 0 -0.201464588556741 -0.606069690166131 0 -0.711585597863924 0 0 0 0 -2.07836268857219 0 0 0 0 0 0 -1.43622009073072 -1.11578271849726 0 -0.513843042917595 0 0 0 0 0 0
0 0 0 0 0 -0.121360893436112 0 0 0 0 0 0 0 -2.21967337122765 0 0 0 0 0 0 0 0 0 0 0 -4.21490063369712 0 0 -0.558899034710976 0 0 0 0 -0.303289281396066 0 0 0 0 0 -1.8725169894825 -0.717204606935945 0 0 0 0 0 0 0 0 0
0.149981388494789 0 0 0 0 0 -0.121360893436112 0 0 0 0 0 0 0 0 -1.56428693853016 0 0 0 0 0 0 -0.398800832189272 0 0 -0.216344768632933 0 0 -0.829063157907543 0 0 0 0 -1.66542182951178 0 0 0 0 0 0 0 0 0 0 0 0 0 0 0 0
0.19622092679833 0 0 0 0 0 0 -0.121360893436112 0 0 0 0 0 -0.264485210751945 0 -5.01758860224588 0 0 0 0 0 0 -0.761934522859353 0 0 -2.31500330769221 0 0 -1.48671931952791 0 0 0 0 0 0 0 0 0 0 0 -6.18318849551965 0 0 0 0 0 0 0 0 0
0 0 0 0 0 0 0 0 -0.121360893436112 0 0 0 0 -0.406464453991418 0 0 0 0 0 0 0 0 0 0 0 0 -0.497154676131775 0 -0.824786210159873 0 -1.53702835531052 0 0 -0.091627617026447 0 0 0 0 0 0 0 0 0 0 0 0 0 0 0 0
0 0 0 0 0 0 0 0 0 -0.121360893436112 0 0 0 0 0 0 0 0 0 0 0 0 -1.410248072924 0 0 -4.20508992921686 -2.43149083639589 0 -0.550237732227678 0 0 0 0 -0.789544271204512 0 0 0 0 0 0 0 0 0 0 0 0 0 0 0 0
0 0 0 0 0 0 0 0 0 0 -0.121360893436112 0 0 -0.583985418587957 0 0 0 0 0 0 0 0 -0.676984216737193 0 0 0 -0.468170586867427 0 -0.393589989355055 0 0 0 0 -2.47687613140349 0 0 0 0 0 0 0 0 0 0 0 0 0 0 0 0
0 0 0 0 0 0 0 0 0 0 0 -0.121360893436112 0 -0.604108656884661 0 0 0 0 0 0 0 0 0 0 0 0 0 0 -0.325436059584484 0 0 0 0 0 0 0 0 0 0 0 0 0 0 0 0 0 0 0 0 0
0 0 0 0 0 0 0 0 0 0 0 0 -0.121360893436112 0 0 0 0 0 0 0 0 0 -3.39243247682707 0 0 0 -0.935444115982595 0 -2.04630399682893 0 -1.85590256936557 0 0 0 0 0 0 0 0 0 0 0 0 0 0 0 0 0 0 0
0 0 0 0 0 0.449574990588936 0 0.0541581167965261 0.079128924822874 0 0.111373746530057 0.129913545156977 0 -0.121360893436112 0.0785108160340199 0 0 0 0 0 0 0 0 0 0 0 0 0 0 0 0 0 0 -1.6455154336342 0 0 0 0 0 0 0 0 0 0 0 0 0 0 0 0
0 0 0 0 0 0 0 0 0 0 0 0 0 -0.384517335894669 -0.121360893436112 0 0 0 0 0 -1.38721447286997 0 0 0 0 0 0 0 -2.1761546679614 0 0 -0.212766459847708 0 -0.814727067093911 0 0 0 0 0 0 0 0 0 0 0 0 0 0 0 0
0 0 0 0.315028345936192 1.1781736868042 0 0.299994076521304 0.91061559988496 0 0 0 0 0 0 0 -0.121360893436112 0 0 0 0 0 0 0 0 0 0 0 0 -1.2459612923145 0 0 -2.3687124051698 0 0 0 0 0 0 0 0 0 0 0 0 0 0 0 0 0 0
0.122492679724232 0.207970297126404 0.149634389511619 0 0 0 0 0 0 0 0 0 0 0 0 0 -0.121360893436112 0 0 0 0 0 0 0 0 0 0 0 0 0 0 0 0 0 0 0 0 -5.71442287203066 0 0 0 0 0 0 0 0 0 0 0 0
0 0 0 0 0 0 0 0 0 0 0 0 0 0 0 0 0 -0.121360893436112 0 0 -3.05208614192126 0 0 0 0 0 0 0 0 0 0 -1.380333754469 0 -0.415160322959905 0 0 -5.36185895661522 0 0 0 0 0 0 0 0 0 0 0 0 0
0 0 0 0 0 0 0 0 0 0 0 0 0 0 0 0 0 0 -0.121360893436112 0 0 0 0 0 0 0 0 0 0 0 0 -0.58016104802341 0 0 0 0 -0.372563828122566 0 0 0 0 0 0 0 0 0 0 0 0 0
0 0 0 0 0 0 0 0 0 0 0 0 0 0 0 0 0 0 0 -0.121360893436112 0 0 0 0 0 0 0 0 0 0 0 0 0 0 0 0 -0.980732115386601 0 0 0 0 0 0 0 0 0 0 0 0 0
0 0 0 0 0 0 0 0 0 0 0 0 0 0 0.284022508343048 0 0 0.621000306307619 0 0 -0.121360893436112 0 0 0 0 0 0 0 0 0 0 -1.45133287877656 0 0 0 0 0 0 0 0 0 0 0 0 0 0 0 0 0 0
0 0 0 0 0 0 0 0 0 0 0 0 0 0 0 0 0 0 0 0 0 -0.121360893436112 0 0 0 0 0 0 0 0 0 0 0 0 0 0 -1.73055820714945 -0.146797202979689 0 0 0 0 0 0 0 0 0 -1.05544057366532 0 0
0 0 0 0 0 0 0.0783486203578171 0.157041307298895 0 0.290338148660394 0.151083111998499 0 0.627321701724673 0 0 0 0 0 0 0 0 0 -0.121360893436112 0 0 0 0 0 0 0 0 0 0 0 -0.128584406893591 0 0 0 -0.207440338124495 0 0 0 0 0 0 -1.72458046729509 0 0 0 0
0 0 0 0 0 0 0 0 0 0 0 0 0 0 0 0 0 0 0 0 0 0 0 -0.121360893436112 0 0.160237491625369 0 0 0 0 0 0 0 0 -0.429370961713986 0 0 0 -3.10597067365584 0 0 0 0 0 0 -0.502616303258559 0 0 0 -0.254387672661308
0 0 0 0 0 0 0 0 0 0 0 0 0 0 0 0 0 0 0 0 0 0 0 0 -0.121360893436112 0 0 0 0 0 0 0 0 0 0 0 0 0 -1.59272067211478 0 0 0 0 0 0 0 0 0 0 -5.65177672450885
0 0 0 0.211032872551029 0.0382214084634102 0.885731670472046 0.0421041353176958 0.407867294853359 0 0.883306394255057 0 0 0 0 0 0 0 0 0 0 0 0 0 -0.87088714560921 0 -0.121360893436112 0 0 0 0 0 0 0 0 -0.441728256420602 0 0 0 -1.57864980190938 0 0 0 0 0 0 0 0 0 0 0
0.138987213550837 0 0 0.0299946530449428 0.128256092882396 0 0 0 0.0991530877435457 0.492555918391317 0.0947883235226135 0 0.19422800612228 0 0 0 0 0 0 0 0 0 0 0 0 0 -0.121360893436112 0 0 -0.287323703469585 0 0 0 0 -0.355749428320414 0 0 0 -0.0391313857077476 0 0 0 0 0 0 0 0 0 0 0
0 0 0 0 0 0 0 0 0 0 0 0 0 0 0 0 0 0 0 0 0 0 0 0 0 0 0 -0.121360893436112 0 -0.377854293820201 0 0 0 0 -0.829752558702377 0 0 0 0 0 0 0 0 0 0 0 0 0 0 0
0 0.801045861450892 0.427299415464456 0.0695170550516003 0.143315891876612 0.11195372562999 0.155396952276141 0.346028242757091 0.15329928759615 0.115471276979425 0.0755168393709673 0.0685594174363585 0.402453476368343 0 0.445632500096829 0.268915807106865 0 0 0 0 0 0 0 0 0 0 0 0 -0.121360893436112 0 0 0 0 0 -1.78534308749709 0 0 0 -0.222127716911191 0 0 0 0 0 0 0 0 0 0 0
0 0 0 0 0 0 0 0 0 0 0 0 0 0 0 0 0 0 0 0 0 0 0 0 0 0 0.058705605204401 0.0765926819383537 0 -0.121360893436112 0.0751178169136437 0 0 0 0 0 0 0 -1.22630109374497 0 0 0 0 0 0 0 0 0 0 0
0 0 0 0 0 0 0 0 0.302732371779083 0 0 0 0.358292184718188 0 0 0 0 0 0 0 0 0 0 0 0 0 0 0 0 -0.427318796693916 -0.121360893436112 0 0 0 0 0 0 0 -4.73107580948328 0 0 0 0 0 0 0 0 0 0 0
0 0 0 0 0 0 0 0 0 0 0 0 0 0 0.0463443425031971 0.487022326487613 0 0.279713677375625 0.107458545377272 0 0.290759155018667 0 0 0 0 0 0 0 0 0 0 -0.121360893436112 0 0 0 0 0 0 -0.470633977552797 0 0 0 0 0 -0.195442329196157 0 -2.0863723024449 0 0 0
0 0 0 0 0 0 0 0 0 0 0 0 0 0 0 0 0 0 0 0 0 0 0 0 0 0 0 0 0 0 0 0 -0.121360893436112 0 -0.54815448748117 0 0 0 -0.426368855758149 0 0 0 0 0 -1.24257480643518 0 0 0 0 0
0.0599496511304714 0.13851566834499 0 0 0.433864817766784 0.0619574778698172 0.309625799311857 0 0.0189641852232642 0.153817627191398 0.469494712183616 0 0 0.307481520298987 0.157312589597301 0 0 0.0832617874452823 0 0 0 0 0 0 0 0 0 0 0 0 0 0 0 -0.121360893436112 -0.602719732251182 0 0 0 0 0 0 0 0 0 -6.28917102439102 0 0 0 0 0
0 0 0 0 0 0 0 0 0 0 0 0 0 0 0 0 0 0 0 0 0 0 0.0257939278609357 0.0894086371534816 0 0.0856737884783203 0.0762749650255339 0.178628706142467 0.375207579270232 0 0 0 0.106936211174288 0.12867856599793 -0.121360893436112 0.18441768192386 0.0362223128548504 0 0.416920485372035 0.575519049755043 0 0 0 0 -0.520195647410175 0 0 0 0 0
0 0 0 0 0 0 0 0 0 0 0 0 0 0 0 0 0 0 0 0 0 0 0 0 0 0 0 0 0 0 0 0 0 0 -1.01307504513555 -0.121360893436112 0 0 0 0 0 0 0 0 -0.471549161572633 0 -1.71870724736797 0 0 0
0 0 0 0 0 0 0 0 0 0 0 0 0 0 0 0 0 1.1611916672181 0.0795942262815482 0.185051781053173 0 0.30893918343738 0 0 0 0 0 0 0 0 0 0 0 0 -0.190568003857514 0 -0.121360893436112 0 0 0 0 0 0 0 -0.598937327113435 0 0 0 0 0
0 0 0 0 0 0 0 0 0 0 0 0 0 0 0 0 1.08179899601182 0 0 0 0 0.0307882027241964 0 0 0 0 0 0 0 0 0 0 0 0 0 0 0 -0.121360893436112 0 0 0 0 0 0 -0.535697977620996 0 -2.19560983968348 0 0 0
0 0 0 0 0 0 0 0 0 0 0 0 0 0 0 0 0 0 0 0 0 0 0.0400490913214931 0.641191579165464 0.325241870983599 0.302523589816282 0.00814663963937603 0 0.0454065900183148 0.241676777193425 0.926927501841505 0.0842719595190112 0.0851522890043198 0 -2.14892547160808 0 0 0 -0.121360893436112 0 0 0 0 0 -0.844688677992243 0 0 0 0 0
0 0 0 0 0 0.377170208388622 0 0 0 0 0 0 0 0 0 0 0 0 0 0 0 0 0 0 0 0 0 0 0 0 0 0 0 0 -2.84139137921353 0 0 0 0 -0.121360893436112 0 0 0 0 -0.611147402510489 0 0 0 0 0
0 0.185475155105726 0 0.0682614717554847 0.278710923605839 0.135759206782586 0 1.28055706111056 0 0 0 0 0 0 0 0 0 0 0 0 0 0 0 0 0 0 0 0 0 0 0 0 0 0 0 0 0 0 0 0 -0.121360893436112 0 0 0 -0.889083432820708 0 -1.64548464286368 0 0 0
0.059319791076334 0.135101030038777 0.130912414388844 0.146327061663452 0.234747522072528 0 0 0 0 0 0 0 0 0 0 0 0 0 0 0 0 0 0 0 0 0 0 0 0 0 0 0 0 0 0 0 0 0 0 0 0 -0.121360893436112 0 0 0 0 -1.04030337503498 0 0 0
0.209262129284705 0 0 0 0 0 0 0 0 0 0 0 0 0 0 0 0 0 0 0 0 0 0 0 0 0 0 0 0 0 0 0 0 0 0 0 0 0 0 0 0 0 -0.121360893436112 0 0 0 -0.778710448652709 0 0 0
0 0 0 0.306897282087806 0.104625838801903 0 0 0 0 0 0 0 0 0 0 0 0 0 0 0 0 0 0 0 0 0 0 0 0 0 0 0 0 0 0 0 0 0 0 0 0 0 0 -0.121360893436112 -0.463667060913427 0 -0.747540108406757 0 0 0
0 0 0 0 0 0 0 0 0 0 0 0 0 0 0 0 0 0 0 0 0 0 0 0 0 0 0 0 0 0 0 0.0365647040521906 0.232351914779126 1.3171265230879 0.0983051782954632 0.0855214930672042 0.114634181151839 0.106333553042821 0.170912896740711 0.122426481985255 0.169911097308366 0 0 0.0877315076124447 -0.121360893436112 0.0227036900331403 0 0.443604323717664 -0.0929755488488159 0
0 0 0 0 0 0 0 0 0 0 0 0 0 0 0 0 0 0 0 0 0 0 0.340046511329452 0.098443274022989 0 0 0 0 0 0 0 0 0 0 0 0 0 0 0 0 0 0 0 0 -0.13127961969602 -0.121360893436112 0 0 -0.561196739605396 0
0 0 0 0 0 0 0 0 0 0 0 0 0 0 0 0 0 0 0 0 0 0 0 0 0 0 0 0 0 0 0 0.430512731270889 0 0 0 0.360783405939932 0 0.450038349978036 0 0 0.334139001772281 0.204752261607847 0.162909518101857 0.160515392118597 0 0 -0.121360893436112 0 0 0
0 0 0 0 0 0 0 0 0 0 0 0 0 0 0 0 0 0 0 0 0 0.202212617687172 0 0 0 0 0 0 0 0 0 0 0 0 0 0 0 0 0 0 0 0 0 0 -2.07761762826183 0 0 -0.121360893436112 0 0
0 0 0 0 0 0 0 0 0 0 0 0 0 0 0 0 0 0 0 0 0 0 0 0 0 0 0 0 0 0 0 0 0 0 0 0 0 0 0 0 0 0 0 0 0.0183550782199088 0.11001592528071 0 0 -0.121360893436112 0
0 0 0 0 0 0 0 0 0 0 0 0 0 0 0 0 0 0 0 0 0 0 0 0.0518721419567465 1.16795555665166 0 0 0 0 0 0 0 0 0 0 0 0 0 0 0 0 0 0 0 0 0 0 0 0 -0.121360893436112
