1.41232609109291
2.18568891983752
1.85667414074065
4.60501092523441
0.2680577774001
0.0508917503584166
0.50805521573351
0.572030100963904
0.292065751630036
0.314452653881192
1.67283344103863
0.804141724772021
0.894402413451342
0.194166672136226
0.548445025820411
0.476600285082163
0.245744330016647
1.21814167510487
0.158806648061613
3.30289931513502
1.05177823638398
0.754468477473764
0.920218028592464
1.38464448824853
1.595992559634
1.19148461636657
1.38586433835514
0.736797215695595
0.282283561073449
0.713750246602784
1.24240605073773
1.65411510203118
0.687926830648946
0.23361563193662
1.18150743855052
1.7154418640319
0.779127818605192
2.47841194668938
0.674634029443355
0.337247226385932
1.47737242168077
1.02647125710316
1.86739472627473
0.336265773348319
0.374034391552194
4.15223326390042
1.40576481845708
0.618915091831335
0.26166825442209
1.34863958932225
