-0.267426219521221 0 0 0 0 0 0 0 0 0 0 0 0 -0.243765667607338 0 0 0 0 0 0 0 0 0 0 0 0 0 0 0 0 0 0 0 0 0 0 0 0 0 0 0 0 0 0 0 0 0 0 0 0
0 -0.267426219521221 0 0 0 0 0 0 0 0 0 0 0 0 0 0 0 0 0 0 0 0 0 0 0 0 0 -1.34950960453551 0 -0.583847944175574 0 0 0 0 0 0 0 0 0 0 0 0 0 0 0 0 0 0 0 0
0 0 -0.267426219521221 0 0 0 0 0 0 0 0 0 0 -0.892289036882444 0 0 0 0 0 0 0 0 0 0 0 0 0 -0.575637642030944 0 -2.44981613412864 0 0 0 0 0 0 0 0 0 0 0 0 0 0 0 0 0 0 0 0
0 0 0 -0.267426219521221 0 0 0 0 0 0 0 0 0 0 0 0 0 0 0 0 -0.589433114793596 0 0 0 0 0 0 -1.19045737982058 0 0 0 0 0 0 0 0 0 0 0 0 0 0 0 0 0 0 0 0 0 0
0 0 0 0 -0.267426219521221 0 -0.215129526555543 0 0 0 0 0 0 0 0 0 0 0 0 0 -1.6530350397044 0 0 0 0 0 0 0 0 -0.67812562130717 0 0 0 0 0 0 0 0 0 0 0 0 0 0 0 0 0 -1.56019104530342 0 0
0 0 0 0 0 -0.267426219521221 0 0 0 0 0 0 0 -0.0984325278554323 -0.463452405392323 0 0 0 0 0 0 0 0 0 0 0 0 0 0 0 0 0 0 0 0 0 0 0 0 0 0 0 0 0 0 0 0 0 0 0
0 0 0 0 0.0454308710902861 0 -0.267426219521221 0 -1.60274515079315 0 0 0 0 -1.05619583727571 0 0 0 0 0 0 0 0 0 0 0 0 0 0 0 0 0 0 0 0 0 0 0 0 0 0 0 0 0 0 0 0 0 -0.062798569087034 0 0
0 0 0 0 0 0 0 -0.267426219521221 0 0 0 0 0 0 -0.759089988635875 0 0 0 0 0 0 -0.857585186584073 0 0 0 0 0 0 0 0 0 0 0 0 0 0 0 0 0 0 0 0 0 0 0 0 0 -0.719765523604703 0 0
0 0 0 0 0 0 0.333383937145945 0 -0.267426219521221 0 0 0 0 0 0 0 0 0 0 0 0 -0.636346642009879 0 0 0 0 0 0 0 0 0 0 0 0 0 0 0 0 0 0 0 0 0 0 0 0 0 0 0 0
0 0 0 0 0 0 0 0 0 -0.267426219521221 0 0 0 0 -0.530725004950663 0 0 0 0 0 0 -2.17623159277331 0 0 0 0 0 0 0 0 0 0 0 0 0 0 0 0 0 0 0 0 0 0 0 0 0 -0.37627218302346 0 0
0 0 0 0 0 0 0 0 0 0 -0.267426219521221 0 0 0 0 -0.256932190736503 0 0 0 0 0 0 0 -0.559509910845535 0 0 0 0 0 0 0 0 0 0 0 0 0 0 0 0 0 0 0 0 0 0 0 0 0 0
0 0 0 0 0 0 0 0 0 0 0 -0.267426219521221 0 0 0 0 0 0 0 0 0 0 0 0 0 0 0 0 0 0 0 0 0 0 0 0 0 0 0 0 0 0 0 0 0 0 0 -1.53013613688993 0 0
0 0 0 0 0 0 0 0 0 0 0 0 -0.267426219521221 0 0 0 0 0 0 0 0 0 0 0 0 0 0 0 0 0 0 0 0 0 0 0 0 0 0 0 0 0 0 0 0 -0.20031857279365 0 -0.155566321437161 0 0
0.0443407058991321 0 0.172685616011848 0 0 0.0187244569810785 0.207726485965063 0 0 0 0 0 0 -0.267426219521221 0 0 0 0 0 0 0 0 0 0 -1.23553771619301 0 0 0 0 0 0 0 0 0 0 0 0 0 0 0 0 -1.64378483562722 0 -0.590660206296964 0 0 0 -0.715226675277407 -0.769101349245592 0
0 0 0 0 0 0.0833169370547522 0 0.143050085630508 0 0.0999305072210694 0 0 0 0 -0.267426219521221 0 0 0 0 0 0 0 0 0 -2.45038233424135 0 0 0 0 0 0 0 0 0 0 0 0 0 0 0 0 -0.453609898653275 0 0 0 0 0 -0.240819476988952 -1.12956306337794 0
0 0 0 0 0 0 0 0 0 0 0.0497932900204401 0 0 0 0 -0.267426219521221 0 -1.76575265175984 0 0 0 0 0 0 0 0 0 0 0 0 0 0 0 0 0 0 0 0 0 0 0 -1.9881394922965 0 -1.13981416333152 0 0 0 0 0 0
0 0 0 0 0 0 0 0 0 0 0 0 0 0 0 0 -0.267426219521221 0 0 0 0 0 0 0 -2.71526674050579 0 0 0 0 0 0 0 0 0 0 0 0 -0.454491393146666 -1.32909063725611 0 0 0 0 0 0 0 0 0 0 0
0 0 0 0 0 0 0 0 0 0 0 0 0 0 0 0.342576660116347 0 -0.267426219521221 0 0 0 0 0 0 -0.609731700061852 0 0 0 0 0 0 0 0 0 0 0 0 -5.31816614530283 -1.02425236202346 0 0 -0.189498169610055 0 0 0 0 0 0 -2.83790160313757 0
0 0 0 0 0 0 0 0 0 0 0 0 0 0 0 0 0 0 -0.267426219521221 0 0 0 0 0 -3.04258351996713 0 0 0 0 0 0 0 0 0 0 0 0 -2.13780952480503 -0.492175896677198 0 0 0 0 -1.20309378847719 0 0 0 0 -2.40708704972868 0
0 0 0 0 0 0 0 0 0 0 0 0 0 0 0 0 0 0 0 -0.267426219521221 0 0 0 0 0 0 0 0 0 0 0 0 0 0 0 0 0 -0.305464194826365 0 0 0 -0.556089080075612 -0.938742189565566 0 0 0 0 0 -1.72753914232942 0
0 0 0 0.127287821590778 0.302229968722085 0 0 0 0 0 0 0 0 0 0 0 0 0 0 0 -0.267426219521221 0 0 0 0 0 0 0 0 0 0 0 0 0 0 0 0 -1.18777444228119 0 0 0 -1.86402805469422 -1.92861084056657 -0.1648978343389 0 0 0 0 0 -1.76902804265142
0 0 0 0 0 0 0 0.165791301732083 0.128068323072347 0.442207486461202 0 0 0 0 0 0 0 0 0 0 0 -0.267426219521221 0 0 0 0 0 0 0 0 0 0 0 0 0 0 -2.09031154967137 -1.22410192241829 0 0 0 -0.553181379140311 -0.436782118057144 -0.126698404058979 0 0 0 0 0 0
0 0 0 0 0 0 0 0 0 0 0 0 0 0 0 0 0 0 0 0 0 0 -0.267426219521221 0 0 0 0 0 0 0 0 0 0 0 0 -0.903721400749454 -0.45864229581016 0 0 0 0 -0.606115354334469 0 -0.560550991004555 0 0 0 0 0 0
0 0 0 0 0 0 0 0 0 0 0.117012102807013 0 0 0 0 0 0 0 0 0 0 0 0 -0.267426219521221 0 0 -1.03618338643889 0 0 0 0 0 0 0 0 -0.698000924265542 -0.377045867098896 0 0 0 0 -2.08572197016995 0 -0.846660126018398 -0.334289721632798 0 -0.249191262315907 0 0 -4.21823899209251
0 0 0 0 0 0 0 0 0 0 0 0 0 0.273196522165777 0.472504808130969 0 0.564177297253048 0.115860268422451 0.613382708246204 0 0 0 0 0 -0.267426219521221 0 -0.612434444057944 0 0 0 0 0 0 0 0 -0.690160565792894 -0.824668057216025 0 0 0 0 -0.548344780901538 0 0 0 0 0 0 0 -1.69537025523826
0 0 0 0 0 0 0 0 0 0 0 0 0 0 0 0 0 0 0 0 0 0 0 0 0 -0.267426219521221 -0.0407492667482316 0 0 0 0 0 0 0 0 -0.177062029552274 0 0 0 0 0 -1.01077931725113 0 -0.65092265020636 -5.11808509572487 0 -0.845146764210517 0 0 -0.922382601919128
0 0 0 0 0 0 0 0 0 0 0 0 0 0 0 0 0 0 0 0 0 0 0 0.201903794501222 0.126434993812937 0.00812244750669269 -0.267426219521221 0.19879799579484 0.347823416795242 0 0 0 0 0 0 -0.881689101575693 -3.10589629510215 0 0 0 0 -0.624031544117864 0 -0.787423842467836 0 0 -1.76674865373643 0 0 0
0 0.261657664629929 0.111867707196456 0.253883244209762 0 0 0 0 0 0 0 0 0 0 0 0 0 0 0 0 0 0 0 0 0 0 -0.99183260080427 -0.267426219521221 0 0 0 0 0 0 0 -4.78335102180303 -0.72701831328663 0 0 0 0 0 0 0 -1.62281949273927 0 -0.135604949304396 0 0 0
0 0 0 0 0 0 0 0 0 0 0 0 0 0 0 0 0 0 0 0 0 0 0 0 0 0 -1.78941146343797 0 -0.267426219521221 0 0 0 0 0 0 -2.37043657304657 -3.00416738875454 0 0 0 0 0 0 0 0 0 -0.519402159262976 0 0 -0.757264197387859
0 0.116742803122449 0.494141377612578 0 0.135195029854831 0 0 0 0 0 0 0 0 0 0 0 0 0 0 0 0 0 0 0 0 0 0 0 0 -0.267426219521221 0 0 0 0 -0.501865905948369 -0.0838395298429277 -0.920213872323292 0 0 -1.93118399607462 0 0 0 -2.30441706378463 0 0 0 0 0 -0.433952431363387
0 0 0 0 0 0 0 0 0 0 0 0 0 0 0 0 0 0 0 0 0 0 0 0 0 0 0 0 0 0 -0.267426219521221 0 0 0 0 0 0 0 0 0 0 0 0 0 0 0 0 0 0 -1.16729782203988
0 0 0 0 0 0 0 0 0 0 0 0 0 0 0 0 0 0 0 0 0 0 0 0 0 0 0 0 0 0 0 -0.267426219521221 0 0 0 0 -1.23485813830713 0 0 0 -6.30601051859986 0 0 0 0 0 0 0 0 -2.87506481692301
0 0 0 0 0 0 0 0 0 0 0 0 0 0 0 0 0 0 0 0 0 0 0 0 0 0 0 0 0 0 0 0 -0.267426219521221 0 0 0 -1.62708590324126 0 0 0 -2.22169099425764 0 0 0 0 0 0 0 0 -0.394871365469162
0 0 0 0 0 0 0 0 0 0 0 0 0 0 0 0 0 0 0 0 0 0 0 0 0 0 0 0 0 0 0 0 0 -0.267426219521221 0 0 -0.702447053826103 0 0 -0.37614700541346 0 0 0 0 0 0 0 0 0 0
0 0 0 0 0 0 0 0 0 0 0 0 0 0 0 0 0 0 0 0 0 0 0 0 0 0 0 0 0 0.0997906134172405 0 0 0 0 -0.267426219521221 0 -0.10593573534404 0 0 0 -1.98317243697769 0 0 0 0 0 0 0 0 -0.173735338181901
0 0 0 0 0 0 0 0 0 0 0 0 0 0 0 0 0 0 0 0 0 0 0.182054435249962 0.13916576744904 0.142994456161033 0.034600787523729 0.168886914339543 0.970969535688171 0.456996938366509 0.0156792365116011 0 0 0 0 0 -0.267426219521221 0 0 0 0 0 0 0 0 0 0 0 0 0 -2.14557177528589
0 0 0 0 0 0 0 0 0 0 0 0 0 0 0 0 0 0 0 0 0 0.456463759623324 0.0922354242063518 0.0759040024082195 0.159082935763479 0 0.541700105698339 0.147115261420831 0.628222887898462 0.183673602639488 0 0.245162745261864 0.323067455128489 0.142571400023238 0.0212679182425608 0 -0.267426219521221 0 0 0 -1.19364176060676 0 0 0 0 0 0 0 0 -0.183269680988261
0 0 0 0 0 0 0 0 0 0 0 0 0 0 0 0 0.0928568230775555 1.1181359603306 0.405416191139804 0.0658896968129793 0.23901462140272 0.247762733538121 0 0 0 0 0 0 0 0 0 0 0 0 0 0 0 -0.267426219521221 0 0 -1.62194324530211 0 0 0 0 0 0 0 0 0
0 0 0 0 0 0 0 0 0 0 0 0 0 0 0 0 0.29387906131733 0.206105039118614 0.0900527997027839 0 0 0 0 0 0 0 0 0 0 0 0 0 0 0 0 0 0 0 -0.267426219521221 0 -1.58947673107118 0 0 0 0 0 0 0 0 0
0 0 0 0 0 0 0 0 0 0 0 0 0 0 0 0 0 0 0 0 0 0 0 0 0 0 0 0 0 0.378417687669864 0 0 0 0.0696228387732231 0 0 0 0 0 -0.267426219521221 -0.869658993927221 0 0 0 0 0 0 0 0 0
0 0 0 0 0 0 0 0 0 0 0 0 0 0 0 0 0 0 0 0 0 0 0 0 0 0 0 0 0 0 0 1.20674148968673 0.445238614485667 0 0.362618711245464 0 0.236329175190807 0.305310348579468 0.314988156588238 0.168108696549476 -0.267426219521221 0.697748675653571 0.167080672431467 0.143969936123508 0 0 0 0 0 -2.02875146244226
0 0 0 0 0 0 0 0 0 0 0 0 0 0.363421185862876 0.0961010810242939 0.40371617547644 0 0.0375574988830141 0 0.112228235192962 0.413473106717801 0.110651484815085 0.123457432322557 0.411820692964146 0.108507411717189 0.20665148547156 0.116297379655557 0 0 0 0 0 0 0 0 0 0 0 0 0 -3.57754076448969 -0.267426219521221 0 0 0 0 0 0 0 0
0 0 0 0 0 0 0 0 0 0 0 0 0 0 0 0 0 0 0 0.190630816049184 0.388060185070706 0.0865598243380286 0 0 0 0 0 0 0 0 0 0 0 0 0 0 0 0 0 0 -0.843264113273478 0 -0.267426219521221 0 0 0 0 0 0 -1.22512604120982
0 0 0 0 0 0 0 0 0 0 0 0 0 0.109118694194769 0 0.237251112153768 0 0 0.238576322971527 0 0.0330787723880837 0.0239827958386852 0.111914980644406 0.162463107775472 0 0.136050683666812 0.15723776633561 0 0 0.438793019841179 0 0 0 0 0 0 0 0 0 0 -0.706640143497729 0 0 -0.267426219521221 0 0 0 0 0 -0.952658172059912
0 0 0 0 0 0 0 0 0 0 0 0 0 0 0 0 0 0 0 0 0 0 0 0.0674289500584084 0 0.946140358317232 0 0.343029306570323 0 0 0 0 0 0 0 0 0 0 0 0 0 0 0 0 -0.267426219521221 0 0 0 0 0
0 0 0 0 0 0 0 0 0 0 0 0 0.0419083557146215 0 0 0 0 0 0 0 0 0 0 0 0 0 0 0 0 0 0 0 0 0 0 0 0 0 0 0 0 0 0 0 0 -0.267426219521221 0 0 0 0
0 0 0 0 0 0 0 0 0 0 0 0 0 0 0 0 0 0 0 0 0 0 0 0.0491973296306506 0 0.164122209734923 0.373288503678069 0.0258827903271343 0.102998389986789 0 0 0 0 0 0 0 0 0 0 0 0 0 0 0 0 0 -0.267426219521221 0 0 0
0 0 0 0 0.339076078564538 0 0.0126775028637372 0.148820465494216 0 0.0751000820089525 0 0.309935384772138 0.0308262804508272 0.140262046589564 0.050833992637773 0 0 0 0 0 0 0 0 0 0 0 0 0 0 0 0 0 0 0 0 0 0 0 0 0 0 0 0 0 0 0 0 -0.267426219521221 0 0
0 0 0 0 0 0 0 0 0 0 0 0 0 0.158000191088183 0.211529557812075 0 0 0.565547999982232 0.476822084603188 0.353421476365402 0 0 0 0 0 0 0 0 0 0 0 0 0 0 0 0 0 0 0 0 0 0 0 0 0 0 0 0 -0.267426219521221 0
0 0 0 0 0 0 0 0 0 0 0 0 0 0 0 0 0 0 0 0 0.342261676429291 0 0 0.857050161264266 0.385478208428381 0.201595961270317 0 0 0.166454370934895 0.0893506970396696 0.228349054828612 0.59725866198355 0.0858470624796966 0 0.034901698583492 0.414574238054559 0.0321728283674818 0 0 0 0.42375644783179 0 0.22797491722605 0.190362799147301 0 0 0 0 0 -0.267426219521221
