-0.132889647778616 -1.73695974560071 0 0 0 0 0 0 0 0 0 0 0 0 0 0 0 0 0 0 0 0 0 0 0 0 0 0 0 0 0 0 0 0 0 0 0 0 0 0 0 0 0 0 0 0 0 0 0 0
0.330184184422818 -0.132889647778616 0 0 0 0 0 0 0 0 0 0 0 0 0 0 0 0 0 0 0 0 0 -0.183588651789332 0 0 0 0 0 0 0 0 0 0 0 0 0 0 0 0 0 0 0 0 0 0 0 0 0 0
0 0 -0.132889647778616 0 0 0 0 0 0 0 0 0 0 0 0 0 0 0 0 0 0 0 0 -1.58706450966821 0 0 0 0 0 0 0 0 0 0 0 0 0 0 0 0 0 0 0 0 0 0 0 0 0 0
0 0 0 -0.132889647778616 0 0 0 0 0 0 0 0 0 0 0 0 0 0 0 0 0 0 0 -1.06908267312103 0 0 0 0 0 0 0 0 0 0 0 0 0 0 0 0 0 0 0 0 0 0 0 0 0 0
0 0 0 0 -0.132889647778616 -0.557251927710223 0 0 0 0 0 0 0 0 0 0 0 0 0 0 0 0 0 -1.57264387788273 0 0 0 0 0 0 0 0 0 0 0 0 0 0 0 0 0 -1.21100268697044 0 0 0 0 0 0 -1.20054551862668 0
0 0 0 0 0.108016583327201 -0.132889647778616 0 0 0 0 0 -1.25732173154701 0 0 0 -0.469673355086154 0 0 0 0 0 -1.44070444751475 0 -2.22764937063248 0 0 0 -0.529395149118136 0 0 0 0 0 0 0 -1.33238346390381 0 0 0 0 0 -0.206674342633662 0 0 0 0 0 0 -1.17749543038875 0
0 0 0 0 0 0 -0.132889647778616 0 0 0 0 0 0 0 0 -1.92034056952635 0 0 0 0 0 -1.56604104344386 0 -0.63849368914799 0 0 0 0 0 0 0 0 0 0 0 0 0 0 0 0 0 -0.934969541118482 0 0 0 0 0 0 -1.32038452613443 0
0 0 0 0 0 0 0 -0.132889647778616 0 0 0 0 0 0 0 -1.11768731072812 0 0 0 0 0 0 0 -0.0874225676290488 0 0 0 0 0 0 0 0 0 0 0 -0.965923133532422 0 0 -1.69980071480653 0 0 -0.465221078750028 0 0 0 0 0 0 0 0
0 0 0 0 0 0 0 0 -0.132889647778616 0 0 0 0 0 0 0 0 -1.75360837682375 0 0 0 -0.973774220537882 0 -1.96764069265629 0 0 0 -1.699191236169 0 0 0 0 0 0 0 -0.528920730163323 0 0 -1.47617335823255 0 0 -0.784249162773445 0 0 0 0 0 0 -0.931651937431358 0
0 0 0 0 0 0 0 0 0 -0.132889647778616 0 0 0 0 0 0 0 -3.9887266150907 0 0 -0.159707311862747 -1.03011518454702 0 -0.399510052167336 0 0 0 0 0 0 0 0 0 0 0 -0.714915711036456 0 0 -2.59018158394537 0 0 -0.315463863122766 0 0 0 0 0 0 0 0
0 0 0 0 0 0 0 0 0 0 -0.132889647778616 0 -1.33114144158942 0 0 0 0 -1.50834792436965 0 0 -0.757436774192159 0 0 -1.40617180201206 0 0 0 -5.04654996758358 0 0 0 0 0 0 0 0 0 0 -4.27258249404888 0 0 0 0 0 0 0 0 0 0 0
0 0 0 0 0 0.258893444574673 0 0 0 0 0 -0.132889647778616 -1.82139755111561 0 0 0 0 -2.46921225865727 0 0 -0.944989570894711 0 0 -0.774257413592701 0 0 0 0 0 0 0 0 0 0 0 0 0 -0.19192007437578 0 0 0 0 0 0 0 0 0 0 0 0
0 0 0 0 0 0 0 0 0 0 0.252276826965345 0.344941382393346 -0.132889647778616 0 0 0 0 0 0 0 0 0 0 0 0 0 0 0 0 0 0 0 -1.59338951323654 0 0 0 0 0 -1.0925812996201 0 0 0 0 -0.405662279790128 0 0 -5.26821196612793 0 0 0
0 0 0 0 0 0 0 0 0 0 0 0 0 -0.132889647778616 0 0 0 0 0 0 0 0 0 0 0 0 0 0 0 0 0 0 -1.00500200005505 0 0 0 0 0 0 0 -0.320793198842827 0 0 0 0 0 0 0 0 0
0 0 0 0 0 0 0 0 0 0 0 0 0 0 -0.132889647778616 0 0 0 0 0 0 0 0 0 -0.856324821492806 0 0 0 0 0 0 0 -1.72579615866874 0 0 0 0 0 0 0 -0.280528920182126 0 0 0 0 0 -1.07634009262736 0 0 0
0 0 0 0 0 0.0970516133695804 0.421675188736992 0.232871723276231 0 0 0 0 0 0 0 -0.132889647778616 0 0 0 0 0 0 0 0 -0.713103726407503 0 0 0 0 0 0 0 -0.345679444473721 0 0 0 0 0 0 0 0 0 0 0 0 -0.909624964965194 -2.74401306122183 0 0 0
0 0 0 0 0 0 0 0 0 0 0 0 0 0 0 0 -0.132889647778616 0 0 -1.67066913128414 0 0 -1.42122611454962 0 -1.32901128760337 0 0 0 0 0 0 0 -0.661599872535225 0 0 0 0 0 0 0 0 0 0 0 0 0 0 0 0 0
0 0 0 0 0 0 0 0 0.369527227222699 0.843952651816079 0.302474574432801 0.487840952483444 0 0 0 0 0 -0.132889647778616 0 0 0 0 0 0 0 0 0 0 0 0 -0.26057423736154 0 0 0 0 0 0 0 0 0 0 0 0 0 0 0 0 0 0 0
0 0 0 0 0 0 0 0 0 0 0 0 0 0 0 0 0 0 -0.132889647778616 -0.279457077176603 0 0 -1.73183245097088 0 -10.3021468934677 0 0 0 0 0 -1.45857497945176 0 -0.352429762470993 0 0 0 0 0 0 0 0 0 0 0 0 0 0 0 0 0
0 0 0 0 0 0 0 0 0 0 0 0 0 0 0 0 0.315697856753636 0 0.0559769712177885 -0.132889647778616 0 0 0 0 0 0 0 0 0 0 0 0 0 0 -0.843841565462232 0 0 0 0 -6.54349223318894 0 0 0 0 0 0 0 0 0 0
0 0 0 0 0 0 0 0 0 0.0341295739702133 0.147996825567584 0.198857704022017 0 0 0 0 0 0 0 0 -0.132889647778616 0 0 0 0 0 0 0 0 0 -0.240893909947043 0 0 0 0 0 0 0 0 -0.299563910116204 0 0 0 0 0 0 0 0 0 0
0 0 0 0 0 0.283238450423382 0.327910624053183 0 0.190815322978396 0.219983288259197 0 0 0 0 0 0 0 0 0 0 0 -0.132889647778616 0 0 0 0 0 0 0 0 -0.631528264994401 0 0 0 0 0 0 0 0 0 0 0 0 0 0 0 0 0 0 0
0 0 0 0 0 0 0 0 0 0 0 0 0 0 0 0 0.289997201839275 0 0.342663787501137 0 0 0 -0.132889647778616 0 0 0 0 0 0 0 0 0 0 0 0 0 0 0 0 0 0 0 0 0 0 0 0 0 0 0
0 0.0358619914113719 0.305981589285074 0.209514734328776 0.336889834537639 0.441573485941201 0.129288912968203 0.0178672143080423 0.42464762474403 0.0830851862539746 0.301943697710942 0.168739784641376 0 0 0 0 0 0 0 0 0 0 0 -0.132889647778616 0 0 0 0 0 0 -0.593384471706317 0 -1.65425914476734 0 0 0 0 0 0 0 0 0 0 0 0 0 0 0 0 0
0 0 0 0 0 0 0 0 0 0 0 0 0 0 0.174768132554319 0.144474925532216 0.255980144308278 0 1.96659817454234 0 0 0 0 0 -0.132889647778616 0 0 0 0 0 -0.931344144525067 0 -1.86700122669243 0 0 0 0 0 0 0 0 0 0 0 0 0 0 0 0 0
0 0 0 0 0 0 0 0 0 0 0 0 0 0 0 0 0 0 0 0 0 0 0 0 0 -0.132889647778616 0 0 0 0 -1.5420845272744 0 0 -3.14974459439718 0 0 0 0 0 0 0 0 0 0 0 0 0 0 0 -0.911793703725826
0 0 0 0 0 0 0 0 0 0 0 0 0 0 0 0 0 0 0 0 0 0 0 0 0 0 -0.132889647778616 0 0 0 0 0 0 -2.81543931172275 0 0 0 0 0 0 0 0 0 0 0 0 0 0 0 -0.233239136324113
0 0 0 0 0 0.10985472826189 0 0 0.331331442869543 0 1.02059836984809 0 0 0 0 0 0 0 0 0 0 0 0 0 0 0 0 -0.132889647778616 0 -1.37415753751737 0 0 0 0 0 0 0 0 0 0 0 0 0 0 0 0 0 0 0 0
0 0 0 0 0 0 0 0 0 0 0 0 0 0 0 0 0 0 0 0 0 0 0 0 0 0 0 0 -0.132889647778616 0 -0.450442771661201 0 0 0 0 0 0 0 0 0 0 0 0 0 0 0 0 0 0 -1.01892041284261
0 0 0 0 0 0 0 0 0 0 0 0 0 0 0 0 0 0 0 0 0 0 0 0 0 0 0 0.265967217073918 0 -0.132889647778616 0 0 0 0 0 0 0 0 0 0 0 0 0 0 0 0 0 0 0 -1.04203913956038
0 0 0 0 0 0 0 0 0 0 0 0 0 0 0 0 0 0.0563797285712095 0.26956097648464 0 0.0560636408590135 0.13108154564169 0 0.114943319491807 0.176737631244605 0.304733716666811 0 0 0.096786913224651 0 -0.132889647778616 -0.359069497702702 0 0 0 0 0 0 0 0 0 0 0 0 0 0 0 0 0 0
0 0 0 0 0 0 0 0 0 0 0 0 0 0 0 0 0 0 0 0 0 0 0 0 0 0 0 0 0 0 0.0769285954065818 -0.132889647778616 0.352285105820324 0.061586442546597 0 0 0 0 0 0 0 0 0 0 0 0 0 0 0 -0.734389605118807
0 0 0 0 0 0 0 0 0 0 0 0 0.300840673856299 0.221287671309899 0.331810083462823 0.0701661910381669 0.126610631967423 0 0.0692545264533023 0 0 0 0 0.326524653518575 0.344273329209963 0 0 0 0 0 0 -1.63583233226788 -0.132889647778616 0 0 0 0 0 0 0 0 0 0 0 0 0 0 0 0 0
0 0 0 0 0 0 0 0 0 0 0 0 0 0 0 0 0 0 0 0 0 0 0 0 0 0.60341872803203 0.571837703737972 0 0 0 0 -0.31537111266467 0 -0.132889647778616 0 0 -4.00203320233683 0 0 0 0 0 0 0 0 0 0 0 0 0
0 0 0 0 0 0 0 0 0 0 0 0 0 0 0 0 0 0 0 0.180743399448163 0 0 0 0 0 0 0 0 0 0 0 0 0 0 -0.132889647778616 0 -1.6333189824564 0 0 0 0 0 -1.38716709718817 0 -0.110210166163809 0 0 0 0 -0.281000895603693
0 0 0 0 0 0.276368658706269 0 0.202732997995959 0.107305706301672 0.138546656086213 0 0 0 0 0 0 0 0 0 0 0 0 0 0 0 0 0 0 0 0 0 0 0 0 0 -0.132889647778616 -1.21975656122544 0 0 0 0 0 -1.31005656131008 0 0 0 0 0 0 0
0 0 0 0 0 0 0 0 0 0 0 0 0 0 0 0 0 0 0 0 0 0 0 0 0 0 0 0 0 0 0 0 0 0.812222346201373 0.286524573041412 0.234069786467976 -0.132889647778616 0.230906076111405 0.16116799503845 0 0.207831921802823 0 0 0 0 0 0 0 0 0
0 0 0 0 0 0 0 0 0 0 0 0.0391557233302446 0 0 0 0 0 0 0 0 0 0 0 0 0 0 0 0 0 0 0 0 0 0 0 0 -1.14190894667565 -0.132889647778616 0 0 0 0 -0.251734865699839 0 0 0 0 0 0 -1.24892456640653
0 0 0 0 0 0 0 0.310488328777532 0.286963924368936 0.490453237015223 0.870789896163096 0 0.21648760864492 0 0 0 0 0 0 0 0 0 0 0 0 0 0 0 0 0 0 0 0 0 0 0 -0.817312492335407 0 -0.132889647778616 0 0 0 0 0 0 0 0 0 0 0
0 0 0 0 0 0 0 0 0 0 0 0 0 0 0 0 0 0 0 1.32170209647178 0.0590730232703996 0 0 0 0 0 0 0 0 0 0 0 0 0 0 0 0 0 0 -0.132889647778616 0 0 -0.571027861774181 0 0 0 0 0 0 0
0 0 0 0 0 0 0 0 0 0 0 0 0 0.066417669827219 0.0571088864506425 0 0 0 0 0 0 0 0 0 0 0 0 0 0 0 0 0 0 0 0 0 -1.05091382712704 0 0 0 -0.132889647778616 0 -0.323799431994225 0 0 0 0 0 0 -1.90487602110215
0 0 0 0 0.241626026018486 0.0395203919562934 0.186193957302667 0.0911574037444365 0.15075956221924 0.062123500319256 0 0 0 0 0 0 0 0 0 0 0 0 0 0 0 0 0 0 0 0 0 0 0 0 0 0 0 0 0 0 0 -0.132889647778616 -1.47501834356167 0 0 0 0 0 0 0
0 0 0 0 0 0 0 0 0 0 0 0 0 0 0 0 0 0 0 0 0 0 0 0 0 0 0 0 0 0 0 0 0 0 0.276414418952659 0.273667029586934 0 0.0491341230768179 0 0.103419493024131 0.0670207714426399 0.273508482033283 -0.132889647778616 0 0 0 0 0 0 0
0 0 0 0 0 0 0 0 0 0 0 0 0.073289993036991 0 0 0 0 0 0 0 0 0 0 0 0 0 0 0 0 0 0 0 0 0 0 0 0 0 0 0 0 0 0 -0.132889647778616 0 0 0 -0.389521033916913 0 0
0 0 0 0 0 0 0 0 0 0 0 0 0 0 0 0 0 0 0 0 0 0 0 0 0 0 0 0 0 0 0 0 0 0 0.0236012159379685 0 0 0 0 0 0 0 0 0 -0.132889647778616 0 0 -2.54821154398494 0 0
0 0 0 0 0 0 0 0 0 0 0 0 0 0 0 0.185950179149658 0 0 0 0 0 0 0 0 0 0 0 0 0 0 0 0 0 0 0 0 0 0 0 0 0 0 0 0 0 -0.132889647778616 0 0 0 0
0 0 0 0 0 0 0 0 0 0 0 0 1.05199418413206 0 0.209119090782514 0.560786797305729 0 0 0 0 0 0 0 0 0 0 0 0 0 0 0 0 0 0 0 0 0 0 0 0 0 0 0 0 0 0 -0.132889647778616 -1.8155731978022 0 0
0 0 0 0 0 0 0 0 0 0 0 0 0 0 0 0 0 0 0 0 0 0 0 0 0 0 0 0 0 0 0 0 0 0 0 0 0 0 0 0 0 0 0 0.0810148973299398 0.543995167914727 0 0.380882487489774 -0.132889647778616 0.320668195940303 0.169055429088569
0 0 0 0 0.248042933607089 0.240030782837434 0.266440438067917 0 0.176289435861196 0 0 0 0 0 0 0 0 0 0 0 0 0 0 0 0 0 0 0 0 0 0 0 0 0 0 0 0 0 0 0 0 0 0 0 0 0 0 -1.68043347986524 -0.132889647778616 0
0 0 0 0 0 0 0 0 0 0 0 0 0 0 0 0 0 0 0 0 0 0 0 0 0 0.174063280772992 0.0496407245281865 0 0.201904639609382 0.201175018031656 0 0.152359303181942 0 0 0.0505510831089972 0 0 0.256009486745699 0 0 0.380023599783149 0 0 0 0 0 0 -0.888579251521372 0 -0.132889647778616
