-0.365259776319945 0 0 0 0 0 0 0 0 0 -1.30918319302907 0 0 0 0 0 0 0 0 0 0 0 0 0 0 0 0 0 0 0 0 -0.585636133456024 0 0 0 0 0 0 0 0 0 0 0 0 0 0 0 0 0 0
0 -0.365259776319945 0 -0.862660240917051 0 0 0 0 -0.741540579007709 -0.786613811735483 -1.25689018379477 0 0 0 0 0 0 0 0 0 0 0 0 0 0 0 0 0 0 0 0 -1.11050336370117 0 0 0 0 0 0 0 0 0 0 0 0 0 0 0 0 0 0
0 0 -0.365259776319945 0 0 0 0 0 0 0 0 0 0 0 0 0 0 0 0 0 0 0 0 0 0 0 0 0 0 0 0 0 0 0 0 0 0 0 0 0 0 0 0 0 0 0 -0.772075078234015 0 0 0
0 0.170638226089715 0 -0.365259776319945 0 0 0 0 0 0 0 0 0 0 0 0 0 0 0 0 0 0 0 0 0 0 0 0 0 0 0 0 0 0 0 0 0 0 0 0 0 0 0 0 -0.223797318387985 0 0 0 0 0
0 0 0 0 -0.365259776319945 0 0 -10.6066622630778 0 0 0 0 0 0 0 0 0 0 0 0 0 0 0 0 0 0 0 0 0 0 0 0 0 0 0 0 0 0 0 0 0 0 0 0 -0.626698613757079 0 0 0 0 0
0 0 0 0 0 -0.365259776319945 0 0 0 0 0 0 0 0 0 0 0 0 0 0 0 0 0 0 0 0 0 0 0 0 0 0 0 0 0 0 0 0 0 0 0 0 0 0 -1.25606353444369 0 0 0 0 0
0 0 0 0 0 0 -0.365259776319945 -0.901322861152476 0 0 0 0 0 0 0 0 0 0 0 0 0 0 0 0 0 0 0 0 0 0 0 0 0 0 0 0 0 0 -0.760955997037599 0 0 0 0 0 -1.43411731138326 0 -1.12614952546611 0 0 0
0 0 0 0 2.17212910448845 0 0.159924802794988 -0.365259776319945 0 0 0 0 -1.6963733774524 0 0 0 0 0 -4.32876225093911 0 -0.475681898773115 0 0 0 0 0 0 0 0 0 0 0 0 0 0 0 0 0 -1.0633964884446 0 0 0 0 0 -1.85760650765026 0 -1.32892102352665 0 0 0
0 0.155430854619402 0 0 0 0 0 0 -0.365259776319945 0 0 -0.989039470512888 -1.2716887473373 0 -0.638337798952986 0 0 0 -1.09852098075524 0 -0.863807586776276 0 0 0 0 0 0 0 0 0 0 0 -2.96635257147089 0 0 0 0 0 0 0 0 0 0 -4.62154465749459 0 0 -0.407446952960624 0 0 0
0 0.155839048245602 0 0 0 0 0 0 0 -0.365259776319945 0 0 0 0 0 0 0 0 0 0 -0.336984690541071 0 0 0 0 0 0 0 0 0 0 0 0 0 0 0 0 0 0 0 0 0 0 0 -1.16648309675757 0 -1.52946851709316 0 0 0
0.266438093088658 0.253609956153864 0 0 0 0 0 0 0 0 -0.365259776319945 0 0 0 0 0 -0.666843429839491 0 0 0 -0.235644092051083 0 0 0 0 0 0 -4.88244643681158 0 0 0 0 0 0 0 0 0 0 0 0 0 0 0 0 0 0 -0.889621851649078 0 0 0
0 0 0 0 0 0 0 0 0.188544989842843 0 0 -0.365259776319945 0 0 0 0 -0.932432294864964 0 0 0 0 0 0 0 0 0 0 0 -1.54605692780434 0 0 0 0 0 0 0 0 0 0 0 0 -4.2773383411868 0 0 0 0 -0.927707755044751 0 0 0
0 0 0 0 0 0 0 0.348094778966285 0.243144824954255 0 0 0 -0.365259776319945 0 0 0 -9.62108918493587 0 -0.252022368250138 0 -0.247315710330605 0 0 0 0 0 0 0 -0.862431700319714 0 0 0 0 0 0 0 0 0 0 0 0 -0.644302801299356 0 0 0 0 0 0 0 0
0 0 0 0 0 0 0 0 0 0 0 0 0 -0.365259776319945 0 0 -2.55615712373528 0 0 0 -2.05812510528777 0 0 0 0 0 0 0 -3.91610797815181 0 0 0 0 0 0 0 0 0 0 0 0 0 0 0 0 0 0 0 0 0
0 0 0 0 0 0 0 0 0.12897476738537 0 0 0 0 0 -0.365259776319945 0 0 0 -0.965149429283052 0 -2.24370577232059 0 0 0 0 0 0 0 0 -1.52493387028445 0 0 0 0 0 0 0 0 0 0 0 0 0 0 0 0 0 0 0 -1.14211730669144
0 0 0 0 0 0 0 0 0 0 0 0 0 0 0 -0.365259776319945 0 0 -2.40415791233631 0 0 0 0 0 0 0 0 0 0 0 0 0 0 0 0 0 0 0 0 0 0 0 0 0 0 0 0 0 0 0
0 0 0 0 0 0 0 0 0 0 0.127406400748636 0.182199474502353 2.02523759382964 0.512478589753578 0 0 -0.365259776319945 0 -2.23903610750936 0 0 -1.35576196848133 0 0 0 0 0 0 -0.987578718758655 0 0 0 0 0 0 0 0 0 0 0 0 0 0 0 0 0 0 0 0 -2.05029313773524
0 0 0 0 0 0 0 0 0 0 0 0 0 0 0 0 0 -0.365259776319945 0 0 0 0 0 0 0 0 0 0 0 0 0 0 0 0 0 0 0 0 0 0 0 0 0 0 0 0 0 0 0 -0.395823670967799
0 0 0 0 0 0 0 0.880813094319796 0.223219559023936 0 0 0 0.0536100314116249 0 0.191902846146623 0.439968476610412 0.458295421620041 0 -0.365259776319945 0 0 -5.29891483117615 0 0 0 0 0 0 0 0 0 0 0 0 0 0 0 0 0 0 0 0 0 0 0 0 0 0 0 -1.41390577783179
0 0 0 0 0 0 0 0 0 0 0 0 0 0 0 0 0 0 0 -0.365259776319945 0 0 0 -2.12342879724067 0 0 0 0 0 0 0 0 0 -6.44969009960083 0 0 0 0 0 0 0 0 0 0 0 0 0 0 0 0
0 0 0 0 0 0 0 0.0952758017187416 0.175926008897609 0.0648343309731393 0.0491386224759467 0 0.0462282512356002 0.457264846548002 0.456127746866735 0 0 0 0 0 -0.365259776319945 0 0 0 0 0 0 0 0 0 0 0 0 -0.103769583127627 0 0 0 0 0 0 0 0 0 0 0 0 0 0 0 -0.508858441857932
0 0 0 0 0 0 0 0 0 0 0 0 0 0 0 0 0.289374633878704 0 1.04268199909672 0 0 -0.365259776319945 0 -1.41429486001514 -1.1573053672877 -7.00687190877295 0 0 0 0 0 0 0 -0.777279029841868 0 0 0 0 0 0 0 0 0 0 0 0 0 0 0 0
0 0 0 0 0 0 0 0 0 0 0 0 0 0 0 0 0 0 0 0 0 0 -0.365259776319945 0 0 -0.282776638330629 0 0 0 0 0 0 0 -1.01278723362565 0 0 0 0 0 0 0 0 0 0 0 0 0 0 0 -2.69043210888839
0 0 0 0 0 0 0 0 0 0 0 0 0 0 0 0 0 0 0 0.433498787277714 0 0.285738055627951 0 -0.365259776319945 0 -2.00388251909155 0 0 0 0 0 0 0 -0.442876201118504 0 0 0 0 0 0 0 0 0 0 0 0 0 0 0 -0.696486071398908
0 0 0 0 0 0 0 0 0 0 0 0 0 0 0 0 0 0 0 0 0 0.236923289150319 0 0 -0.365259776319945 -0.370005804344726 0 0 0 0 -0.273119518542363 0 0 -1.28963371272073 0 0 0 0 0 0 0 0 0 0 0 0 0 0 0 0
0 0 0 0 0 0 0 0 0 0 0 0 0 0 0 0 0 0 0 0 0 1.26529460893406 0.0591407411983805 0.405204932543879 0.078359426125079 -0.365259776319945 0 0 0 0 0 0 0 0 0 0 0 0 0 0 0 0 0 0 0 0 0 0 0 -1.13070336593105
0 0 0 0 0 0 0 0 0 0 0 0 0 0 0 0 0 0 0 0 0 0 0 0 0 0 -0.365259776319945 0 0 0 -0.165207976784014 0 0 -0.883704432868413 0 0 0 0 0 0 0 0 0 0 0 0 0 0 0 -2.01362590039491
0 0 0 0 0 0 0 0 0 0 0.987249672896088 0 0 0 0 0 0 0 0 0 0 0 0 0 0 0 0 -0.365259776319945 0 0 -1.0136405780836 0 0 0 -0.42512554845606 0 0 0 0 0 0 0 0 0 0 0 0 0 0 0
0 0 0 0 0 0 0 0 0 0 0 0.29695443412183 0.168793227725123 0.801416543924295 0 0 0.201939125673741 0 0 0 0 0 0 0 0 0 0 0 -0.365259776319945 0 -0.243606936741837 0 0 -0.798681098799243 -1.00881336426115 0 0 0 0 0 0 0 0 0 0 0 0 0 0 -0.877334128007822
0 0 0 0 0 0 0 0 0 0 0 0 0 0 0.291816128821575 0 0 0 0 0 0 0 0 0 0 0 0 0 0 -0.365259776319945 0 0 0 -0.428062778222277 -0.316737863526134 0 0 0 0 0 0 0 0 0 0 0 0 0 0 0
0 0 0 0 0 0 0 0 0 0 0 0 0 0 0 0 0 0 0 0 0 0 0 0 0.051804726395893 0 0.0326478336583036 0.213471662288792 0.0520727555215957 0 -0.365259776319945 0 0 -0.880458109924932 0 0 -0.61197544168844 0 0 0 -1.00757224761771 0 0 0 0 0 0 0 0 -0.148940503491416
0.11370921999606 0.214595409650469 0 0 0 0 0 0 0 0 0 0 0 0 0 0 0 0 0 0 0 0 0 0 0 0 0 0 0 0 0 -0.365259776319945 0 -0.452781211537082 -0.425617416596094 0 -1.34200940424912 0 0 0 -0.440040916919364 0 0 0 0 0 0 0 0 -1.36256044816796
0 0 0 0 0 0 0 0 0.639401934184528 0 0 0 0 0 0 0 0 0 0 0 0 0 0 0 0 0 0 0 0 0 0 0 -0.365259776319945 -3.70707792392596 -2.73809698700637 0 -0.284315251133322 0 0 -1.05713796506897 -8.3197671380349 0 0 0 0 0 0 0 0 -2.15408351808373
0 0 0 0 0 0 0 0 0 0 0 0 0 0 0 0 0 0 0 1.34145339113449 0.0217821649338538 0.153139981385884 0.207261358078899 0.0920777668905244 0.239218044817571 0 0.192575760933389 0 0.165867234729228 0.0849587729615481 0.173336757874477 0.090453310651266 0.743461901355036 -0.365259776319945 -0.269964975652635 0.293582626641913 -1.0346294550779 0.081482703286473 0 -7.73202134497798 0 0 0 0 0 0 0 0 0 -2.80257562341097
0 0 0 0 0 0 0 0 0 0 0 0 0 0 0 0 0 0 0 0 0 0 0 0 0 0 0 0.0879689306869262 0.193003050208764 0.0607728180829933 0 0.0890954365998315 0.49353371750292 0.0530006993615125 -0.365259776319945 0.496528722907087 -2.55312701082943 0 0 -2.24106292023705 0 0 0 0 0 0 0 0 0 0
0 0 0 0 0 0 0 0 0 0 0 0 0 0 0 0 0 0 0 0 0 0 0 0 0 0 0 0 0 0 0 0 0 -1.49740911996481 -2.48084807409569 -0.365259776319945 -0.723218989080327 -1.45948013751411 0 0 0 0 0 0 0 0 0 0 0 0
0 0 0 0 0 0 0 0 0 0 0 0 0 0 0 0 0 0 0 0 0 0 0 0 0 0 0 0 0 0 0.135942471365157 0.280059310200387 0.0571488218061469 0.201977857663994 0.525556006324434 0.155647610455753 -0.365259776319945 0.55019105556669 0.188957732012321 -1.72554613847419 0 0.61418460558629 0.181605993779825 0 0 0 0 0 0 0
0 0 0 0 0 0 0 0 0 0 0 0 0 0 0 0 0 0 0 0 0 0 0 0 0 0 0 0 0 0 0 0 0 -0.378876271379536 0 0.277106083659651 -2.67082441995715 -0.365259776319945 0 -1.04687993663794 0 0 0 0 0 0 0 0 0 -0.309689161510543
0 0 0 0 0 0 0.162214097102736 0.216268444305675 0 0 0 0 0 0 0 0 0 0 0 0 0 0 0 0 0 0 0 0 0 0 0 0 0 0 0 0 -0.938784245948584 0 -0.365259776319945 -4.0905815607952 0 0 0 0 0 0 0 0 0 -0.208200052704244
0 0 0 0 0 0 0 0 0 0 0 0 0 0 0 0 0 0 0 0 0 0 0 0 0 0 0 0 0 0 0 0 0.199048862984686 1.51005480410026 0.416458635838711 0 0.335744987617445 0.211202728263007 0.841842218378814 -0.365259776319945 0.244494347222732 0 0.156974591655156 0.0964582205318636 0.29680355664761 1.01832618010327 0 0 0 0
0 0 0 0 0 0 0 0 0 0 0 0 0 0 0 0 0 0 0 0 0 0 0 0 0 0 0 0 0 0 0.200452208670151 0.0853220970500036 1.69306199636747 0 0 0 0 0 0 -1.28162479848716 -0.365259776319945 0 0 0 0 0 0 0 0 -0.394492727267267
0 0 0 0 0 0 0 0 0 0 0 0.79420265147566 0.134096179813956 0 0 0 0 0 0 0 0 0 0 0 0 0 0 0 0 0 0 0 0 0 0 0 -2.94003245350934 0 0 0 0 -0.365259776319945 0 0 0 0 0 0 0 0
0 0 0 0 0 0 0 0 0 0 0 0 0 0 0 0 0 0 0 0 0 0 0 0 0 0 0 0 0 0 0 0 0 0 0 0 -0.833716511404079 0 0 -0.773513920976909 0 0 -0.365259776319945 0 0 0 0 0 0 0
0 0 0 0 0 0 0 0 0.935005536977285 0 0 0 0 0 0 0 0 0 0 0 0 0 0 0 0 0 0 0 0 0 0 0 0 0 0 0 0 0 0 -0.464173241801009 0 0 0 -0.365259776319945 0 0 0 -0.500896168433507 0 -0.594256269035837
0 0 0 0.0431303950200603 0.129674094044405 0.258000557808254 0.307895556702644 0.377518217291293 0 0.232728120730686 0 0 0 0 0 0 0 0 0 0 0 0 0 0 0 0 0 0 0 0 0 0 0 0 0 0 0 0 0 -1.63975901485242 0 0 0 0 -0.365259776319945 0 0 -0.466673342862381 0 -0.636549051295068
0 0 0 0 0 0 0 0 0 0 0 0 0 0 0 0 0 0 0 0 0 0 0 0 0 0 0 0 0 0 0 0 0 0 0 0 0 0 0 -5.08707990761464 0 0 0 0 0 -0.365259776319945 0 -0.342172246467774 0 -0.898784239978692
0 0 0.152934018750053 0 0 0 0.220013648896204 0.24868267354976 0.0842684012555049 0.289058870576478 0.168200438247075 0.187704166662728 0 0 0 0 0 0 0 0 0 0 0 0 0 0 0 0 0 0 0 0 0 0 0 0 0 0 0 0 0 0 0 0 0 0 -0.365259776319945 -0.873337948850288 0 0
0 0 0 0 0 0 0 0 0 0 0 0 0 0 0 0 0 0 0 0 0 0 0 0 0 0 0 0 0 0 0 0 0 0 0 0 0 0 0 0 0 0 0 0.10204679381431 0.0941701074465973 0.0700490256783989 0.176385772921348 -0.365259776319945 0.266373556698404 -0.462099091007193
0 0 0 0 0 0 0 0 0 0 0 0 0 0 0 0 0 0 0 0 0 0 0 0 0 0 0 0 0 0 0 0 0 0 0 0 0 0 0 0 0 0 0 0 0 0 0 -1.28244026653785 -0.365259776319945 0
0 0 0 0 0 0 0 0 0 0 0 0 0 0 0.215000633203929 0 0.394115388125194 0.0742166074710024 0.295043947345944 0 0.103322521312756 0 0.571816734433756 0.136897167204151 0 0.219681002491902 0.387133761337584 0 0.169043869935718 0 0.0259766472938913 0.29246960294787 0.422367679382136 0.552814569271921 0 0 0 0.058752540288649 0.0442740736858237 0 0.0761875660451036 0 0 0.115642976700581 0.122700748410225 0.164636155327977 0 0.0956540385150881 0 -0.365259776319945
