-0.420039316968822 0 0 -0.401270758769667 0 0 0 0 0 0 0 0 0 0 0 0 0 0 0 0 0 0 0 0 0 0 0 0 0 0 0 0 0 0 0 0 0 0 0 0 0 0 0 0 0 0 0 0 0 0
0 -0.420039316968822 -1.03034492138072 0 0 0 0 0 0 0 0 0 0 0 0 0 0 0 0 0 -3.65596871892186 0 0 0 0 0 0 0 0 0 0 0 0 0 0 -3.44415307816063 0 0 0 0 0 0 0 0 0 0 0 0 0 0
0 0.209711563538562 -0.420039316968822 0 0 0 0 0 0 0 0 0 0 0 0 0 0 0 0 0 0 0 0 0 0 0 0 0 0 0 0 0 0 0 0 -2.38012943121513 0 0 0 0 0 0 0 0 0 0 0 0 0 0
0.0837369111293921 0 0 -0.420039316968822 0 0 0 0 0 0 0 0 0 0 0 0 0 0 0 0 -0.428799179386542 0 0 -0.417247836140552 0 -0.576870787676546 0 0 0 0 0 0 0 0 0 0 0 0 0 0 0 0 0 0 0 0 0 0 0 0
0 0 0 0 -0.420039316968822 0 0 -4.56286930411025 0 -0.826825187064221 0 0 0 0 0 0 0 0 0 0 0 0 0 0 0 -1.13354324508975 0 0 0 0 0 0 0 0 0 0 0 0 0 0 0 0 0 0 0 0 0 0 0 0
0 0 0 0 0 -0.420039316968822 0 -0.497314868236296 0 -0.229100426187414 0 0 0 0 0 0 0 0 0 0 0 0 0 0 0 -7.48775648957924 0 0 0 0 0 0 0 0 0 0 0 0 0 0 0 0 0 0 0 0 0 0 0 0
0 0 0 0 0 0 -0.420039316968822 0 0 0 0 0 0 0 0 0 0 0 0 0 0 0 0 -1.8759396796322 0 0 0 0 0 0 0 0 0 0 0 -1.08848943953662 0 0 -5.28525733308079 0 0 0 0 0 0 0 0 0 0 0
0 0 0 0 0.867169479388326 0.104349605691497 0 -0.420039316968822 0 0 0 0 0 0 0 0 0 0 -1.32201184972288 0 0 0 0 0 0 0 0 0 0 0 0 0 0 0 0 -0.542666614904756 0 0 0 0 0 0 0 0 0 0 0 0 0 0
0 0 0 0 0 0 0 0 -0.420039316968822 0 0 0 0 0 0 0 0 0 0 0 0 0 0 -2.90718834256685 0 0 0 0 0 0 0 0 0 0 0 -4.19195084852563 0 0 0 0 0 0 0 0 0 0 0 0 0 0
0 0 0 0 0.173994694601018 0.050279231535227 0 0 0 -0.420039316968822 0 0 0 0 0 0 0 -0.17758651830478 0 0 0 -0.308348933749776 0 -0.36750936993911 0 0 0 0 0 0 0 0 0 0 0 0 0 0 0 0 0 0 0 0 0 0 0 0 0 0
0 0 0 0 0 0 0 0 0 0 -0.420039316968822 0 0 0 0 0 0 0 0 0 0 0 0 0 0 0 0 0 0 0 0 0 0 0 0 0 -0.402633368723009 0 0 0 0 0 0 0 0 0 0 0 0 0
0 0 0 0 0 0 0 0 0 0 0 -0.420039316968822 0 0 0 0 0 0 0 0 0 -0.166067663736256 0 -1.68875325388494 -0.621970066880931 0 0 0 -0.846314126478644 0 0 0 0 0 0 0 -0.92992796177897 0 0 -0.547460473087311 0 0 0 0 0 0 0 0 0 0
0 0 0 0 0 0 0 0 0 0 0 0 -0.420039316968822 0 0 0 0 0 0 0 0 0 0 -1.0899078854512 -2.93570886532405 0 0 -1.43551811252608 -0.0600029591261017 0 0 0 0 0 0 0 -1.70809374529019 0 0 -0.230866743967634 0 0 0 0 0 0 0 0 0 0
0 0 0 0 0 0 0 0 0 0 0 0 0 -0.420039316968822 0 0 0 0 0 0 0 -0.939368861107361 0 0 -2.05241285345639 0 0 -1.11033633490166 0 0 0 0 0 0 0 0 0 0 0 -7.0643323860228 0 0 0 0 0 0 0 0 0 0
0 0 0 0 0 0 0 0 0 0 0 0 0 0 -0.420039316968822 0.60028525875262 0 0 0 0 0 0 0 0 0 0 0 0 0 0 0 0 0 0 0 0 -1.86125716999916 0 0 -0.467914786687321 0 0 0 0 0 0 0 0 0 0
0 0 0 0 0 0 0 0 0 0 0 0 0 0 -3.06901123124041 -0.420039316968822 0 0 0 0 0 0 0 0 0 0 0 0 0 0 0 0 0 0 0 0 -0.300325458527999 0 0 0 0 0 0 0 0 0 0 -2.87370364529379 0 0
0 0 0 0 0 0 0 0 0 0 0 0 0 0 0 0 -0.420039316968822 0 0 0 0 0 -0.583295065527618 0 0 0 0 0 0 0 0 0 0 -0.425723430418909 0 0 0 0 0 0 0 0 0 0 0 0 0 0 0 0
0 0 0 0 0 0 0 0 0 0.0347754325031475 0 0 0 0 0 0 0 -0.420039316968822 0 0 0 0 0 0 0 0 0 0 -0.20804706879936 0 0 0 -1.14785757134183 -2.41849814378777 0 0 0 0 0 0 0 0 0 0 0 0 0 -2.16490110610599 0 0
0 0 0 0 0 0 0 0.274359181199939 0 0 0 0 0 0 0 0 0 0 -0.420039316968822 0 0 0 -0.561834103015356 0 0 0 0 0 0 0 0 0 -0.114093153026757 0 0 0 0 0 0 0 0 0 0 0 0 0 0 -0.18715282997318 0 0
0 0 0 0 0 0 0 0 0 0 0 0 0 0 0 0 0 0 0 -0.420039316968822 0 0 -3.24032523824014 0 0 0 0 0 -0.603849192341573 0 0 0 0 -1.03119675632636 0 0 0 0 0 0 0 0 0 0 0 0 0 -1.49806578674523 0 0
0 0.685941689201323 0 0.0839889207375707 0 0 0 0 0 0 0 0 0 0 0 0 0 0 0 0 -0.420039316968822 0 0 0 0 0 0 0 -2.65788630033015 0 0 0 0 -0.341625541032678 0 0 0 0 0 -0.243303229194373 0 0 0 0 0 0 0 -0.760508612930501 0 0
0 0 0 0 0 0 0 0 0 0.0603984015257268 0 0.031599757468082 0 0.184936658529931 0 0 0 0 0 0 0 -0.420039316968822 0 0 0 0 0 0 0 -2.31932446383175 0 0 0 0 0 0 0 0 0 0 0 0 0 0 0 0 0 -3.61430288053163 0 0
0 0 0 0 0 0 0 0 0 0 0 0 0 0 0 0 0.12053720126937 0 0.119214097963534 0.635327918385487 0 0 -0.420039316968822 0 0 0 0 0 0 0 0 0 0 0 0 0 0 0 0 -2.7011005595258 0 0 0 0 0 0 0 -0.705936591567829 -0.792597299553131 0
0 0 0 0.081330350919544 0 0 0.35250530206592 0 0.535503247930461 0.0706834824662601 0 0.343128575514521 0.217232770820689 0 0 0 0 0 0 0 0 0 0 -0.420039316968822 0 0 0 0 0 -0.547714173196401 0 0 0 0 0 0 0 -1.14367253018046 0 0 0 0 0 0 0 0 0 -0.78956273696238 -0.158687474869368 0
0 0 0 0 0 0 0 0 0 0 0 0.124720285244371 0.569535318481941 0.441125272458574 0 0 0 0 0 0 0 0 0 0 -0.420039316968822 0 0 0 0 0 0 0 0 0 -1.80648403933071 0 0 -1.45968074704677 0 0 -0.552444684014749 0 0 0 0 0 0 0 -0.766745450022369 0
0 0 0 0.125802296999818 0.219613850061767 1.48675551033967 0 0 0 0 0 0 0 0 0 0 0 0 0 0 0 0 0 0 0 -0.420039316968822 -0.805894050303784 0 0 0 0 0 0 0 0 0 0 -0.675001468647961 0 0 0 0 0 0 -0.891619543083996 0 -0.59701020046918 0 -0.68116942814465 -0.862785362533802
0 0 0 0 0 0 0 0 0 0 0 0 0 0 0 0 0 0 0 0 0 0 0 0 0 0.153507768882145 -0.420039316968822 0 0.471043351176946 0 0 0 0 0 0 0 0 0 0 0 0 0 0 0 -0.252185815583662 0 -0.944291502719848 0 -1.15143677986735 -1.55184007247416
0 0 0 0 0 0 0 0 0 0 0 0 0.273458671366424 0.214060394410076 0 0 0 0 0 0 0 0 0 0 0 0 0 -0.420039316968822 0 0 0 -4.75806521403454 0 0 0 0 0 -1.07934524493174 0 0 0 0 0 0 -3.54886931444144 0 0 0 -1.84416837362861 -0.481628856886816
0 0 0 0 0 0 0 0 0 0 0 0.173616044355399 0.0112700650153816 0 0 0 0 0.0428668337965078 0 0.111128901496634 0.526940358422807 0 0 0 0 0 -2.22430835273003 0 -0.420039316968822 0 0 0 0 0 0 0 0 -0.21451902368074 0 0 0 0 0 0 0 0 -1.00679342960187 0 -0.673654224079624 -0.970047114761718
0 0 0 0 0 0 0 0 0 0 0 0 0 0 0 0 0 0 0 0 0 0.455066310778319 0 0.105902236411778 0 0 0 0 0 -0.420039316968822 0 0 0 0 0 0 0 -9.72541960124496 0 0 0 0 0 0 0 0 0 0 0 0
0 0 0 0 0 0 0 0 0 0 0 0 0 0 0 0 0 0 0 0 0 0 0 0 0 0 0 0 0 0 -0.420039316968822 0 0 0 0 0 0 0 0 0 0 0 -0.281974470050203 0 -1.70968253147495 0 -1.0095124110491 0 0 -0.354500274727132
0 0 0 0 0 0 0 0 0 0 0 0 0 0 0 0 0 0 0 0 0 0 0 0 0 0 0 0.879423570970822 0 0 0 -0.420039316968822 0 0 0 0 0 -0.216183508566609 0 0 0 0 -0.834801038249991 0 0 0 -0.639134021508122 0 0 -0.663968221887111
0 0 0 0 0 0 0 0 0 0 0 0 0 0 0 0 0 0.23970370083124 0.0231610857701159 0 0 0 0 0 0 0 0 0 0 0 0 0 -0.420039316968822 0 0 0 0 -1.56927404502003 0 0 0 0 -0.313914117045858 0 0 0 -0.0921178167060907 0 0 -0.565255160110079
0 0 0 0 0 0 0 0 0 0 0 0 0 0 0 0 0.0771630106174825 0.488460974001221 0 0.197685018534709 0.0670574418983262 0 0 0 0 0 0 0 0 0 0 0 0 -0.420039316968822 0 0 0 0 0 0 0 0 -2.02623095164073 0 -1.13061316028866 0 0 0 0 -0.297233639979395
0 0 0 0 0 0 0 0 0 0 0 0 0 0 0 0 0 0 0 0 0 0 0 0 0.335600931148149 0 0 0 0 0 0 0 0 0 -0.420039316968822 0 0 0 0 0 0 0 -0.933480610349088 0 0 0 0 0 0 -0.869816330667766
0 0.717412415590871 0.437408359048646 0 0 0 0.229203930225145 0.104508160380887 0.828294074126934 0 0 0 0 0 0 0 0 0 0 0 0 0 0 0 0 0 0 0 0 0 0 0 0 0 0 -0.420039316968822 0 0 0 0 0 0 -1.99272738175373 0 0 0 0 0 0 -3.54961997218457
0 0 0 0 0 0 0 0 0 0 0.0776066147712358 0.188282131007522 0.320146669110986 0 0.374903063184955 0.0547207671184977 0 0 0 0 0 0 0 0 0 0 0 0 0 0 0 0 0 0 0 0 -0.420039316968822 0 0 0 0 0 -5.18857337133021 0 0 0 0 0 0 -0.577478904591384
0 0 0 0 0 0 0 0 0 0 0 0 0 0 0 0 0 0 0 0 0 0 0 0.232388639178831 0.315530128734946 0.143745747299584 0 0.231132258494021 0.0427376715036146 1.85796472973837 0 0.0425179036733632 0.301016080380869 0 0 0 0 -0.420039316968822 0 0 0 0 -1.07328021694806 0 -1.19200889262267 0 0 0 0 0
0 0 0 0 0 0 1.10590867660898 0 0 0 0 0 0 0 0 0 0 0 0 0 0 0 0 0 0 0 0 0 0 0 0 0 0 0 0 0 0 0 -0.420039316968822 0 0 0 -4.15111156092883 0 -7.5437593364601 0 0 0 0 -1.76782878086337
0 0 0 0 0 0 0 0 0 0 0 0.106724504388748 0.04243506278146 1.39294136218225 0.0946881348536623 0 0 0 0 0 0.0448295799656701 0 0.541967309751981 0 0 0 0 0 0 0 0 0 0 0 0 0 0 0 0 -0.420039316968822 0 0 0 0 -1.33006863627021 0 0 0 0 -4.21005692644224
0 0 0 0 0 0 0 0 0 0 0 0 0 0 0 0 0 0 0 0 0 0 0 0 0.11180470786292 0 0 0 0 0 0 0 0 0 0 0 0 0 0 0 -0.420039316968822 0 0 0 -0.619671112842055 0 0 0 0 -1.63149578204131
0 0 0 0 0 0 0 0 0 0 0 0 0 0 0 0 0 0 0 0 0 0 0 0 0 0 0 0 0 0 0 0 0 0 0 0 0 0 0 0 0 -0.420039316968822 0 -2.34468975346971 0 -0.985042948656025 0 0 0 0
0 0 0 0 0 0 0 0 0 0 0 0 0 0 0 0 0 0 0 0 0 0 0 0 0 0 0 0 0 0 0.0596534108771726 0.161649840592791 0.0637701551306279 0.379452580297452 0.167050206639665 0.415327481517164 1.12808495615163 0.190752280326334 0.8025927705405 0 0 0 -0.420039316968822 -1.37160079648409 0 -2.97014476618127 0 0 0 0
0 0 0 0 0 0 0 0 0 0 0 0 0 0 0 0 0 0 0 0 0 0 0 0 0 0 0 0 0 0 0 0 0 0 0 0 0 0 0 0 0 0.470627114960247 0.296403959583699 -0.420039316968822 0 -2.65873913118522 0 0 0 0
0 0 0 0 0 0 0 0 0 0 0 0 0 0 0 0 0 0 0 0 0 0 0 0 0 0.181395794198689 0.0476252328149687 0.689804909736452 0 0 0.357111099673052 0 0 0.230943993317265 0 0 0 0.255691455592712 1.41789133151091 0.270985423893972 0.114809100180089 0 0 0 -0.420039316968822 0 0 0 0 0
0 0 0 0 0 0 0 0 0 0 0 0 0 0 0 0 0 0 0 0 0 0 0 0 0 0 0 0 0 0 0 0 0 0 0 0 0 0 0 0 0 0.204255388405462 0.595780458504138 0.538019461922625 0 -0.420039316968822 0 0 0 0
0 0 0 0 0 0 0 0 0 0 0 0 0 0 0 0 0 0 0 0 0 0 0 0 0 0.120331889511329 0.209147814762583 0 0.208162873440815 0 0.212516872446944 0.121808189939842 0.019730750539837 0 0 0 0 0 0 0 0 0 0 0 0 0 -0.420039316968822 0 0 0
0 0 0 0 0 0 0 0 0 0 0 0 0 0 0 0.592260142246473 0 0.431235786973774 0.0377610076587787 0.304380690110631 0.144171148228894 0.739128434880618 0.134152402091469 0.159445726642288 0 0 0 0 0 0 0 0 0 0 0 0 0 0 0 0 0 0 0 0 0 0 0 -0.420039316968822 0 0
0 0 0 0 0 0 0 0 0 0 0 0 0 0 0 0 0 0 0 0 0 0 0.156218830815605 0.0315985020508821 0.133405664451807 0.136279087567629 0.231964198752037 0.344000627997515 0.132843760868475 0 0 0 0 0 0 0 0 0 0 0 0 0 0 0 0 0 0 0 -0.420039316968822 0
0 0 0 0 0 0 0 0 0 0 0 0 0 0 0 0 0 0 0 0 0 0 0 0 0 0.168299150584767 0.295035434714515 0.0961636241938431 0.196079101442821 0 0.065938155206094 0.139527614289123 0.11878456827783 0.0598615070464028 0.16780728567818 0.750546435613912 0.122853245850362 0 0.341827052256424 0.850589548754643 0.31931872144689 0 0 0 0 0 0 0 0 -0.420039316968822
