0.678513531355188
4.09470960016534
0.763902302409816
1.53064719160491
0.454187322113093
1.58342179353841
2.36206309930566
1.80853120755192
2.09610174045892
0.207929976183976
1.4225544549256
0.216928709774816
0.327327093312752
1.83480589892596
0.713018102738472
1.27465308493982
4.00331113640048
1.19183491089657
1.99387312393902
1.04373969300308
1.17612011661597
0.335253620846411
0.627748825519291
0.518211442535542
1.83416909520363
0.282381748172061
0.578012525874483
1.4209193399684
1.37917462311277
0.553270878865772
1.67750171711591
0.338546161497311
0.623561214348006
1.50671692389696
0.463816701156385
1.73780053146972
0.317480205206994
0.673158461370143
2.08532461348574
0.724431060047122
1.76370440748934
0.243224097952922
1.52753391113612
0.628919402912851
1.42318447788973
9.59902308757906
1.58238341327695
2.77703993976489
0.426167617231486
5.7169795156707
