1.04109697444775
3.2105303115025
0.329175209515216
1.12836658685365
0.980562279618488
4.61202460077888
0.279935026779782
0.578372240531138
0.122717234077867
0.546337268635235
1.04726804378759
3.11158663151078
1.32636520601424
3.72673888928537
1.25888576182271
2.38267843447117
2.01882158227346
0.49780089281877
0.521220835103595
2.0020408629265
0.299706660383859
1.05833768658204
0.609677559044552
0.226025158072774
1.5524567869147
0.410878363922293
1.6446544204544
1.40616474021308
0.376091770844389
0.496702539169868
1.81315395321754
1.08335603629575
1.14746828099667
0.755676528994774
0.120524280580079
3.02758377620755
3.09210862166985
1.46938017559588
0.330647776933494
0.804003290099511
0.227166039816576
5.01052130575223
0.945853253088822
6.17350720165393
1.72584362697736
2.28279183191539
3.15654425277411
0.810372208474369
5.03308518843041
1.87474744412232
