-0.304224508093756 0 0 -1.58281702444369 0 0 0 0 0 0 0 0 0 0 0 0 0 0 0 0 0 0 0 0 0 0 0 0 0 0 0 0 0 0 0 0 0 0 0 0 0 0 0 0 0 0 0 0 0 0
0 -0.304224508093756 -1.92078967581659 0 0 0 0 0 0 0 0 0 0 0 0 0 0 0 0 0 -1.74025392028033 0 0 0 0 0 0 0 0 0 0 0 0 0 0 -0.490344211053072 0 0 0 0 0 0 0 0 0 0 0 0 0 0
0 0.355081169958441 -0.304224508093756 0 0 0 0 0 0 0 0 0 0 0 0 0 0 0 0 0 0 0 0 0 0 0 0 0 0 0 0 0 0 0 0 -0.761116678770269 0 0 0 0 0 0 0 0 0 0 0 0 0 0
0.324519093211101 0 0 -0.304224508093756 0 0 0 0 0 0 0 0 0 0 0 0 0 0 0 0 -3.45327679008109 0 0 -0.536243822251884 0 -1.04200453501785 0 0 0 0 0 0 0 0 0 0 0 0 0 0 0 0 0 0 0 0 0 0 0 0
0 0 0 0 -0.304224508093756 0 0 -0.256768399165369 0 -0.539308946785211 0 0 0 0 0 0 0 0 0 0 0 0 0 0 0 -2.81618350110939 0 0 0 0 0 0 0 0 0 0 0 0 0 0 0 0 0 0 0 0 0 0 0 0
0 0 0 0 0 -0.304224508093756 0 -3.04036184324963 0 -1.03338061910096 0 0 0 0 0 0 0 0 0 0 0 0 0 0 0 -0.997350656972137 0 0 0 0 0 0 0 0 0 0 0 0 0 0 0 0 0 0 0 0 0 0 0 0
0 0 0 0 0 0 -0.304224508093756 0 0 0 0 0 0 0 0 0 0 0 0 0 0 0 0 -0.298464586578501 0 0 0 0 0 0 0 0 0 0 0 -11.3151842252681 0 0 -0.428384723624995 0 0 0 0 0 0 0 0 0 0 0
0 0 0 0 0.0475262662878562 0.614896681175781 0 -0.304224508093756 0 0 0 0 0 0 0 0 0 0 -0.557936841078208 0 0 0 0 0 0 0 0 0 0 0 0 0 0 0 0 -1.19754420963274 0 0 0 0 0 0 0 0 0 0 0 0 0 0
0 0 0 0 0 0 0 0 -0.304224508093756 0 0 0 0 0 0 0 0 0 0 0 0 0 0 -0.578909717826491 0 0 0 0 0 0 0 0 0 0 0 -4.72545983164916 0 0 0 0 0 0 0 0 0 0 0 0 0 0
0 0 0 0 0.113208773896002 0.197162404739753 0 0 0 -0.304224508093756 0 0 0 0 0 0 0 -0.77291329771436 0 0 0 -5.86144927847208 0 -0.959513927242076 0 0 0 0 0 0 0 0 0 0 0 0 0 0 0 0 0 0 0 0 0 0 0 0 0 0
0 0 0 0 0 0 0 0 0 0 -0.304224508093756 0 0 0 0 0 0 0 0 0 0 0 0 0 0 0 0 0 0 0 0 0 0 0 0 0 -1.22230934884206 0 0 0 0 0 0 0 0 0 0 0 0 0
0 0 0 0 0 0 0 0 0 0 0 -0.304224508093756 0 0 0 0 0 0 0 0 0 -0.851266351884599 0 -0.562233134686755 -1.29766040431193 0 0 0 -0.438809962096087 0 0 0 0 0 0 0 -0.682547161361389 0 0 -1.92054027284329 0 0 0 0 0 0 0 0 0 0
0 0 0 0 0 0 0 0 0 0 0 0 -0.304224508093756 0 0 0 0 0 0 0 0 0 0 -1.21091687634452 -2.94140612994901 0 0 -0.375958311751613 -5.0264920060167 0 0 0 0 0 0 0 -1.17847995328727 0 0 -0.520831689731944 0 0 0 0 0 0 0 0 0 0
0 0 0 0 0 0 0 0 0 0 0 0 0 -0.304224508093756 0 0 0 0 0 0 0 -0.479684817736561 0 0 -0.958558728959958 0 0 -1.74220009820983 0 0 0 0 0 0 0 0 0 0 0 -0.103964215274674 0 0 0 0 0 0 0 0 0 0
0 0 0 0 0 0 0 0 0 0 0 0 0 0 -0.304224508093756 0.894002164462016 0 0 0 0 0 0 0 0 0 0 0 0 0 0 0 0 0 0 0 0 -2.88260955326864 0 0 -0.143739039129865 0 0 0 0 0 0 0 0 0 0
0 0 0 0 0 0 0 0 0 0 0 0 0 0 -4.42804296881507 -0.304224508093756 0 0 0 0 0 0 0 0 0 0 0 0 0 0 0 0 0 0 0 0 -0.587953834406355 0 0 0 0 0 0 0 0 0 0 -0.286602130823153 0 0
0 0 0 0 0 0 0 0 0 0 0 0 0 0 0 0 -0.304224508093756 0 0 0 0 0 -1.44778413621424 0 0 0 0 0 0 0 0 0 0 -3.94414822073455 0 0 0 0 0 0 0 0 0 0 0 0 0 0 0 0
0 0 0 0 0 0 0 0 0 0.148757880705906 0 0 0 0 0 0 0 -0.304224508093756 0 0 0 0 0 0 0 0 0 0 -6.11965693786089 0 0 0 -2.14531730227748 -0.226177045095011 0 0 0 0 0 0 0 0 0 0 0 0 0 -0.199886469183224 0 0
0 0 0 0 0 0 0 0.110328756280682 0 0 0 0 0 0 0 0 0 0 -0.304224508093756 0 0 0 -2.11039566356746 0 0 0 0 0 0 0 0 0 -1.20882648339362 0 0 0 0 0 0 0 0 0 0 0 0 0 0 -0.0723448206696189 0 0
0 0 0 0 0 0 0 0 0 0 0 0 0 0 0 0 0 0 0 -0.304224508093756 0 0 -1.41790181724006 0 0 0 0 0 -3.41075331874982 0 0 0 0 -0.194325619602673 0 0 0 0 0 0 0 0 0 0 0 0 0 -0.212866901243886 0 0
0 0.351264207913036 0 0.671512460943712 0 0 0 0 0 0 0 0 0 0 0 0 0 0 0 0 -0.304224508093756 0 0 0 0 0 0 0 -0.554814849278175 0 0 0 0 -0.912850521592354 0 0 0 0 0 -1.7659856119206 0 0 0 0 0 0 0 -0.109848674629825 0 0
0 0 0 0 0 0 0 0 0 1.29173745112586 0 0.170726531678933 0 0.101927466945844 0 0 0 0 0 0 0 -0.304224508093756 0 0 0 0 0 0 0 -3.0790346148667 0 0 0 0 0 0 0 0 0 0 0 0 0 0 0 0 0 -1.05694698823223 0 0
0 0 0 0 0 0 0 0 0 0 0 0 0 0 0 0 0.285865390525133 0 0.426571414936961 0.309536456134587 0 0 -0.304224508093756 0 0 0 0 0 0 0 0 0 0 0 0 0 0 0 0 -0.454773987206799 0 0 0 0 0 0 0 -0.566672714474326 -1.13515941704628 0
0 0 0 0.104698799369359 0 0 0.0608875102736275 0 0.113286793322753 0.20338879621906 0 0.108657579687437 0.227813726599413 0 0 0 0 0 0 0 0 0 0 -0.304224508093756 0 0 0 0 0 -4.86310009484852 0 0 0 0 0 0 0 -0.2031565295691 0 0 0 0 0 0 0 0 0 -0.195719923748927 -2.08129007633434 0
0 0 0 0 0 0 0 0 0 0 0 0.250033630661757 0.624319878127512 0.193960613524003 0 0 0 0 0 0 0 0 0 0 -0.304224508093756 0 0 0 0 0 0 0 0 0 -0.552999250726935 0 0 -0.86130559693698 0 0 -0.915451607679342 0 0 0 0 0 0 0 -4.19045662573796 0
0 0 0 0.197846158420783 0.621451862277268 0.186112269872256 0 0 0 0 0 0 0 0 0 0 0 0 0 0 0 0 0 0 0 -0.304224508093756 -2.47763567705547 0 0 0 0 0 0 0 0 0 0 -0.986955075690307 0 0 0 0 0 0 -1.24459809234058 0 -0.431156537689484 0 -1.43428284279891 -1.09913821045959
0 0 0 0 0 0 0 0 0 0 0 0 0 0 0 0 0 0 0 0 0 0 0 0 0 0.508273216890442 -0.304224508093756 0 0.152807723779229 0 0 0 0 0 0 0 0 0 0 0 0 0 0 0 -0.328332819579839 0 -1.00838097667441 0 -2.16527557384049 -0.375794404750219
0 0 0 0 0 0 0 0 0 0 0 0 0.0770924159330717 0.3157727373916 0 0 0 0 0 0 0 0 0 0 0 0 0 -0.304224508093756 0 0 0 -2.8458002231195 0 0 0 0 0 -0.704774638920023 0 0 0 0 0 0 -0.102297389687738 0 0 0 -3.39340788879846 -5.33671938700334
0 0 0 0 0 0 0 0 0 0 0 0.0936812006622568 1.02182351691881 0 0 0 0 1.2626157706694 0 0.659099531843131 0.114975180089088 0 0 0 0 0 -0.780141111323172 0 -0.304224508093756 0 0 0 0 0 0 0 0 -1.77791418161455 0 0 0 0 0 0 0 0 -4.36263452836633 0 -0.544956512397024 -0.702346583940285
0 0 0 0 0 0 0 0 0 0 0 0 0 0 0 0 0 0 0 0 0 0.637431376795725 0 0.912531587342841 0 0 0 0 0 -0.304224508093756 0 0 0 0 0 0 0 -2.28087692482708 0 0 0 0 0 0 0 0 0 0 0 0
0 0 0 0 0 0 0 0 0 0 0 0 0 0 0 0 0 0 0 0 0 0 0 0 0 0 0 0 0 0 -0.304224508093756 0 0 0 0 0 0 0 0 0 0 0 -0.367905880824235 0 -0.267858086722521 0 -0.582726405141632 0 0 -2.10511248374585
0 0 0 0 0 0 0 0 0 0 0 0 0 0 0 0 0 0 0 0 0 0 0 0 0 0 0 0.574296437318832 0 0 0 -0.304224508093756 0 0 0 0 0 -0.51843835432707 0 0 0 0 -1.46019958999477 0 0 0 -5.88491122301239 0 0 -0.483648994878384
0 0 0 0 0 0 0 0 0 0 0 0 0 0 0 0 0 0.407405336487049 0.253504291226527 0 0 0 0 0 0 0 0 0 0 0 0 0 -0.304224508093756 0 0 0 0 -0.437297631619346 0 0 0 0 -1.98811661167062 0 0 0 -0.871527486246486 0 0 -0.561364737109292
0 0 0 0 0 0 0 0 0 0 0 0 0 0 0 0 0.815957201212484 0.0449712878407809 0 0.0395323513717056 0.196315157797183 0 0 0 0 0 0 0 0 0 0 0 0 -0.304224508093756 0 0 0 0 0 0 0 0 -0.765805884025265 0 -0.271693960137391 0 0 0 0 -1.65469933504465
0 0 0 0 0 0 0 0 0 0 0 0 0 0 0 0 0 0 0 0 0 0 0 0 0.118302895895504 0 0 0 0 0 0 0 0 0 -0.304224508093756 0 0 0 0 0 0 0 -2.53794088795421 0 0 0 0 0 0 -0.686573429240741
0 0.0961753246556087 0.140001503313099 0 0 0 2.45362711472934 0.21309342803869 1.00856606553791 0 0 0 0 0 0 0 0 0 0 0 0 0 0 0 0 0 0 0 0 0 0 0 0 0 0 -0.304224508093756 0 0 0 0 0 0 -0.936054458799126 0 0 0 0 0 0 -0.728290618050723
0 0 0 0 0 0 0 0 0 0 0.239781509910074 0.128385874655441 0.247330578274956 0 0.584467886329696 0.114212870905501 0 0 0 0 0 0 0 0 0 0 0 0 0 0 0 0 0 0 0 0 -0.304224508093756 0 0 0 0 0 -1.05613956006055 0 0 0 0 0 0 -0.491236023954131
0 0 0 0 0 0 0 0 0 0 0 0 0 0 0 0 0 0 0 0 0 0 0 0.0416256344626537 0.179623325077804 0.188215883236643 0 0.13966700118055 0.363347791296647 0.493240877912995 0 0.10406838291469 0.0837006337717847 0 0 0 0 -0.304224508093756 0 0 0 0 -3.01453008883353 0 -2.60439753387896 0 0 0 0 0
0 0 0 0 0 0 0.0870343477325183 0 0 0 0 0 0 0 0 0 0 0 0 0 0 0 0 0 0 0 0 0 0 0 0 0 0 0 0 0 0 0 -0.304224508093756 0 0 0 -2.66079516093023 0 -1.31810254215854 0 0 0 0 -0.94338471645916
0 0 0 0 0 0 0 0 0 0 0 0.380447283243858 0.0980340068189043 0.0208125749747801 0.0291145545366682 0 0 0 0 0 0.344911706759288 0 0.0925856616181373 0 0 0 0 0 0 0 0 0 0 0 0 0 0 0 0 -0.304224508093756 0 0 0 0 -2.30362941496217 0 0 0 0 -0.178776625204207
0 0 0 0 0 0 0 0 0 0 0 0 0 0 0 0 0 0 0 0 0 0 0 0 0.181365112823337 0 0 0 0 0 0 0 0 0 0 0 0 0 0 0 -0.304224508093756 0 0 0 -0.670994214197975 0 0 0 0 -1.45797183773836
0 0 0 0 0 0 0 0 0 0 0 0 0 0 0 0 0 0 0 0 0 0 0 0 0 0 0 0 0 0 0 0 0 0 0 0 0 0 0 0 0 -0.304224508093756 0 -4.56432660803435 0 -0.297411771597198 0 0 0 0
0 0 0 0 0 0 0 0 0 0 0 0 0 0 0 0 0 0 0 0 0 0 0 0 0 0 0 0 0 0 0.078899909610089 0.267266340626701 0.390353089387185 0.16326896509191 0.485727741129507 0.181985880734673 0.193803267783132 0.57889087463358 0.568347938793005 0 0 0 -0.304224508093756 -2.13383112746931 0 -0.617240318186433 0 0 0 0
0 0 0 0 0 0 0 0 0 0 0 0 0 0 0 0 0 0 0 0 0 0 0 0 0 0 0 0 0 0 0 0 0 0 0 0 0 0 0 0 0 0.911583451282127 0.433610374912067 -0.304224508093756 0 -1.06591804060822 0 0 0 0
0 0 0 0 0 0 0 0 0 0 0 0 0 0 0 0 0 0 0 0 0 0 0 0 0 0.244552491497006 0.0623386200344586 0.0206255785050572 0 0 0.0581426578110946 0 0 0.0528201098874739 0 0 0 0.47599198846504 0.256240904161182 0.46950487855791 0.139227201866607 0 0 0 -0.304224508093756 0 0 0 0 0
0 0 0 0 0 0 0 0 0 0 0 0 0 0 0 0 0 0 0 0 0 0 0 0 0 0 0 0 0 0 0 0 0 0 0 0 0 0 0 0 0 0.055117104711813 0.116225040571549 0.223445738591833 0 -0.304224508093756 0 0 0 0
0 0 0 0 0 0 0 0 0 0 0 0 0 0 0 0 0 0 0 0 0 0 0 0 0 0.0903854950841053 0.201564212290954 0 0.807723348430151 0 0.114798006202926 1.1310728244521 0.175011489767726 0 0 0 0 0 0 0 0 0 0 0 0 0 -0.304224508093756 0 0 0
0 0 0 0 0 0 0 0 0 0 0 0 0 0 0 0.0571302515884179 0 0.0407815614408785 0.0146969185021021 0.0449194951397941 0.0212726532617278 0.211628972107008 0.114412893429025 0.0378284375098337 0 0 0 0 0 0 0 0 0 0 0 0 0 0 0 0 0 0 0 0 0 0 0 -0.304224508093756 0 0
0 0 0 0 0 0 0 0 0 0 0 0 0 0 0 0 0 0 0 0 0 0 0.211592078889338 0.419793903845898 0.862795825652416 0.276374147057201 0.447602507275093 0.632367517032704 0.103460093077715 0 0 0 0 0 0 0 0 0 0 0 0 0 0 0 0 0 0 0 -0.304224508093756 0
0 0 0 0 0 0 0 0 0 0 0 0 0 0 0 0 0 0 0 0 0 0 0 0 0 0.210103736446539 0.072802551435027 1.13213830106194 0.139413015187323 0 0.417146773862747 0.0887151638569033 0.111964816727293 0.334306494012834 0.140457315735413 0.142629084680931 0.103755281948097 0 0.171043964007254 0.0316483320764734 0.301732091767719 0 0 0 0 0 0 0 0 -0.304224508093756
