-0.119553337169443 0 0 0 0 0 0 0 0 0 0 0 0 0 0 -0.233635652062349 0 0 0 0 0 0 0 0 0 0 0 0 0 0 0 0 0 0 0 0 0 0 0 0 0 0 0 0 0 0 0 0 0 0
0 -0.119553337169443 -0.375399525218949 -2.44333053108034 0 0 0 0 0 0 0 0 0 0 0 -3.3799478204053 0 0 0 0 0 0 0 0 0 0 0 0 0 0 0 0 0 0 0 0 0 0 0 0 0 0 0 0 0 0 0 0 0 0
0 0.0797795023297777 -0.119553337169443 -1.03720466170849 0 0 0 0 0 0 0 0 0 0 0 -1.85897139135554 0 0 0 -0.8009932719113 0 0 0 0 0 0 0 0 0 0 0 0 0 0 0 0 0 0 0 0 0 0 0 0 0 0 0 0 0 0
0 0.491303566597904 0.223936524909717 -0.119553337169443 0 -1.04091202369108 0 0 0 0 0 0 0 -0.808593716340829 0 0 0 -1.44935760949469 0 0 0 0 0 0 0 0 0 0 0 0 0 0 0 0 0 0 0 0 0 0 0 0 0 0 0 0 0 0 0 0
0 0 0 0 -0.119553337169443 -1.42194239138219 0 0 0 0 0 0 0 0 0 -1.47377915158876 0 0 0 0 0 0 0 0 0 0 0 0 0 0 0 0 0 0 0 0 0 0 0 0 0 0 0 0 0 0 0 0 0 0
0 0 0 0.219970267161273 0.291238372394276 -0.119553337169443 0 0 0 0 0 0 0 -0.900421384112582 0 -0.726195685381777 0 -0.317007560723385 0 0 0 0 0 0 0 0 0 0 0 0 0 0 0 0 0 0 0 -1.41645294981715 0 0 0 0 0 0 0 0 0 0 0 0
0 0 0 0 0 0 -0.119553337169443 0 0 0 -0.42217279586578 0 0 0 0 -1.27066529945474 0 -1.30204328678136 0 -0.313776027219164 0 0 0 0 0 0 0 0 0 0 0 0 0 0 0 0 0 -1.39823531318178 0 0 0 0 0 0 0 0 0 0 0 0
0 0 0 0 0 0 0 -0.119553337169443 0 0 0 0 0 0 0 0 0 0 0 -0.314177119555862 0 0 0 0 0 0 0 0 0 0 0 0 0 0 0 0 0 0 0 0 0 0 0 0 0 0 0 0 -0.282704942047459 0
0 0 0 0 0 0 0 0 -0.119553337169443 0 0 -0.689698466363269 0 0 -0.795285403629202 0 0 0 0 -0.699424507970485 0 0 -0.536413168088373 0 0 0 0 0 0 0 0 0 0 0 -0.350135387893652 0 0 -0.851595268231637 0 0 0 0 0 0 0 0 0 0 -0.903793119476665 0
0 0 0 0 0 0 0 0 0 -0.119553337169443 0 -1.10258506380762 0 0 0 0 0 0 -4.03827301190804 0 0 0 -0.457678581578437 0 0 0 0 0 0 0 0 0 0 0 -0.608077528188934 0 0 0 0 0 0 0 0 0 0 0 0 0 -1.19477192158147 0
0 0 0 0 0 0 0.0777165845760301 0 0 0 -0.119553337169443 0 0 0 0 0 0 0 -1.67494847137077 0 0 0 -0.16373693318931 0 0 0 0 0 0 0 -2.49107283640805 0 0 0 -0.281806779559804 0 0 0 0 0 0 0 0 0 0 0 -0.988775209747216 0 -0.997928096874522 0
0 0 0 0 0 0 0 0 0.137647038879925 0.204620385305706 0 -0.119553337169443 0 0 -1.63637318126483 0 0 0 0 0 0 0 -0.434320804260101 0 0 0 0 0 0 0 -1.64955410489484 0 0 0 -2.02017241755896 0 0 0 0 0 0 0 0 0 0 0 -0.303708452908039 0 0 0
0 0 0 0 0 0 0 0 0 0 0 0 -0.119553337169443 0 0 0 0 0 0 0 0 0 -0.857901697657935 0 0 0 0 0 0 0 -0.690329249442286 0 0 0 -0.697658356622202 0 0 0 0 0 0 0 0 0 0 0 0 0 -0.648750841128124 0
0 0 0 0.163541239793007 0 0.179983375998436 0 0 0 0 0 0 0 -0.119553337169443 -0.148154406238239 0 0 0 0 0 0 0 -0.550765550529378 0 0 0 0 0 0 0 0 0 0 0 -0.158383283824305 0 0 0 0 0 0 0 0 0 0 0 0 0 -0.262699452321253 0
0 0 0 0 0 0 0 0 0.163231372991861 0 0 0.36626986192535 0 0.0294175082970747 -0.119553337169443 0 0 0 0 0 0 0 -0.820194555042325 0 0 0 0 0 0 0 0 0 0 0 -0.555662661240289 0 0 0 0 0 0 0 0 0 0 0 0 0 0 0
0.0483905974468771 0.710343237304099 0.383951521961018 0 0.307119333941361 0.131820480172989 0.248218255147813 0 0 0 0 0 0 0 0 -0.119553337169443 0 0 0 0 0 0 -0.273493047696472 0 0 0 0 0 0 0 0 0 0 0 -0.223438846412293 0 0 0 0 0 0 0 0 0 0 0 -0.743196257256866 0 0 0
0 0 0 0 0 0 0 0 0 0 0 0 0 0 0 0 -0.119553337169443 0 0 0 0 0 -0.271605483299386 0 0 0 0 0 0 0 0 -0.751144186259334 0 0 -5.89407723297413 0 0 0 0 0 0 0 0 0 0 0 0 0 0 0
0 0 0 0.300308302972636 0 0.0672945923658752 0.239517315087992 0 0 0 0 0 0 0 0 0 0 -0.119553337169443 0 0 0 0 -0.261016130928476 0 0 0 0 0 0 0 0 -0.568261638473687 0 0 0 0 0 0 0 0 -0.678924084798002 0 0 0 0 0 0 -0.130089498666075 0 0
0 0 0 0 0 0 0 0 0 0.754904626953121 0.328537825161422 0 0 0 0 0 0 0 -0.119553337169443 0 0 -3.13122639666912 0 0 0 0 0 0 0 0 0 -1.135453986791 0 0 0 0 0 0 -0.446964043052693 0 0 0 0 0 0 0 0 -10.7955610546257 0 0
0 0 0.158528489880102 0 0 0 0.0646847423608982 0.0608413927081981 0.141823966625763 0 0 0 0 0 0 0 0 0 0 -0.119553337169443 0 0 0 0 0 0 -0.161199351756679 0 0 0 0 0 0 0 0 0 0 0 -1.38010542424644 0 -1.40912159890444 0 0 0 0 0 0 0 0 0
0 0 0 0 0 0 0 0 0 0 0 0 0 0 0 0 0 0 0 0 -0.119553337169443 0 0 0 0 0 -4.10736017437695 0 0 0 0 -2.13933075392192 0 -3.44496558956111 0 0 0 0 0 0 -0.9958002319594 0 0 0 0 0 0 0 0 0
0 0 0 0 0 0 0 0 0 0 0 0 0 0 0 0 0 0 0.643712310296511 0 0 -0.119553337169443 0 0 0 0 0 0 0 0 0 -0.511697834217449 0 -0.201242086246931 0 -0.884781255002759 0 0 -0.952343895628541 0 0 0 0 -3.30364546793661 0 0 0 0 0 0
0 0 0 0 0 0 0 0 0.107341196422812 0.0880280726586727 0.033951562086337 0.088740543422779 0.167404527020483 0.108739094993649 0.169508006203943 0.0533335992945019 0.0551493988915711 0.0545716637317999 0 0 0 0 -0.119553337169443 0 0 0 0 0 0 -0.275053044596944 0 0 0 0 0 -4.00709350397854 0 0 -0.423874473491797 0 0 0 0 -1.36443108964495 0 0 0 0 0 0
0 0 0 0 0 0 0 0 0 0 0 0 0 0 0 0 0 0 0 0 0 0 0 -0.119553337169443 0 0 0 -2.47940523199423 0 0 0 0 0 -0.399599709154043 0 0 0 0 0 0 0 0 0 -1.23975290183147 0 0 0 0 0 0
0 0 0 0 0 0 0 0 0 0 0 0 0 0 0 0 0 0 0 0 0 0 0 0 -0.119553337169443 0 0 -1.15865610029807 0 0 0 0 0 -0.369738523120847 0 0 0 0 -11.8088965718425 0 0 0 0 -0.298157867290618 -2.10619438480644 0 0 0 0 0
0 0 0 0 0 0 0 0 0 0 0 0 0 0 0 0 0 0 0 0 0 0 0 0 0 -0.119553337169443 0 -5.78399210883858 0 0 0 0 0 -1.23166241278313 0 0 0 0 0 0 0 0 0 -0.831836599017335 0 0 0 0 0 0
0 0 0 0 0 0 0 0 0 0 0 0 0 0 0 0 0 0 0 0.033686046207104 0.819263938593575 0 0 0 0 0 -0.119553337169443 -0.957090295897924 0 0 0 0 0 0 0 0 0 0 -0.616940789022343 0 0 0 0 0 -0.642272709763825 0 0 0 0 0
0 0 0 0 0 0 0 0 0 0 0 0 0 0 0 0 0 0 0 0 0 0 0 0.527651420219719 0.222504117797007 1.19257664937431 0.185529698069321 -0.119553337169443 0 -0.697233475015935 0 0 0 0 0 0 0 0 -1.22107494781118 0 0 0 0 0 0 0 0 0 0 -2.17818177420943
0 0 0 0 0 0 0 0 0 0 0 0 0 0 0 0 0 0 0 0 0 0 0 0 0 0 0 0 -0.119553337169443 0 0 0 0 0 0 0 0 0 0 0 0 0 0 -3.78657175661097 0 0 0 0 0 -0.839917610427001
0 0 0 0 0 0 0 0 0 0 0 0 0 0 0 0 0 0 0 0 0 0 0.052193964561495 0 0 0 0 0.140597524745109 0 -0.119553337169443 0.617881520501822 0 0 0 0 0 0 0 0 0 0 0 0 -0.334610628083771 0 0 0 0 0 0
0 0 0 0 0 0 0 0 0 0 0.471231977483093 0.319638645271398 0.129477602414104 0 0 0 0 0 0 0 0 0 0 0 0 0 0 0 0 -3.01671402019457 -0.119553337169443 0 0 0 0 0 0 0 0 0 0 0 0 -1.18779504535605 -1.80388427775783 0 0 0 0 0
0 0 0 0 0 0 0 0 0 0 0 0 0 0 0 0 0.146471003024196 0.112772051104367 0.221464257304351 0 0.428719621638402 0.0856138431774784 0 0 0 0 0 0 0 0 0 -0.119553337169443 0 0 0 0 -1.82586652958062 0 0 0 0 0 0 -0.892356718830377 0 0 0 0 0 -0.473861990609546
0 0 0 0 0 0 0 0 0 0 0 0 0 0 0 0 0 0 0 0 0 0 0 0 0 0 0 0 0 0 0 0 -0.119553337169443 0 0 0 -0.313065141697175 0 -2.4914188619484 0 0 0 0 0 0 -1.4056184819371 0 0 0 -2.57935242433746
0 0 0 0 0 0 0 0 0 0 0 0 0 0 0 0 0 0 0 0 0.71265171366318 0.0394299372241507 0 0.0816308847895253 0.0723121810348139 0.230453200722832 0 0 0 0 0 0 0 -0.119553337169443 0 0 0 0 0 0 0 0 0 0 0 0 0 0 0 -4.76883999624802
0 0 0 0 0 0 0 0 0.0657442011955366 0.121613084488249 0.0585524361397802 0.403780033843746 0.143087200694895 0.0297325509996626 0.115221783806675 0.0411409555548307 1.17433993635078 0 0 0 0 0 0 0 0 0 0 0 0 0 0 0 0 0 -0.119553337169443 0 0 0 0 0 0 -1.96217276260601 0 0 0 0 0 0 0 0
0 0 0 0 0 0 0 0 0 0 0 0 0 0 0 0 0 0 0 0 0 0.183933055344671 0.806674674193097 0 0 0 0 0 0 0 0 0 0 0 0 -0.119553337169443 0 0 0 0 0 -0.744743909768604 0 0 0 0 0 0 0 -0.958504371879465
0 0 0 0 0 0 0 0 0 0 0 0 0 0 0 0 0 0 0 0 0 0 0 0 0 0 0 0 0 0 0 0.376358309408212 0.0621932765002498 0 0 0 -0.119553337169443 0 0 0 0 0 0 0 0 0 0 0 0 -8.12687757158491
0 0 0 0 0 0.285849847328388 0.277646798478179 0 0.174474386078917 0 0 0 0 0 0 0 0 0 0 0 0 0 0 0 0 0 0 0 0 0 0 0 0 0 0 0 0 -0.119553337169443 0 0 0 -0.623220275201141 0 0 0 0 0 0 0 0
0 0 0 0 0 0 0 0 0 0 0 0 0 0 0 0 0 0 0.0899554124089084 0.2759060435634 0 0.178712770583322 0.0848540485995564 0 2.27081608340301 0 0.129132530032308 0.250969637771968 0 0 0 0 0.491904114069668 0 0 0 0 0 -0.119553337169443 0 0 0 0 0 0 0 0 0 0 -2.00050147927408
0 0 0 0 0 0 0 0 0 0 0 0 0 0 0 0 0 0 0 0 0 0 0 0 0 0 0 0 0 0 0 0 0 0 0 0 0 0 0 -0.119553337169443 0 0 0 0 0 0 0 0 0 -0.644420829442657
0 0 0 0 0 0 0 0 0 0 0 0 0 0 0 0 0 0.143188145440064 0 0.274423712276662 0.211610987669933 0 0 0 0 0 0 0 0 0 0 0 0 0 0 0 0 0 0 0 -0.119553337169443 0 0 0 0 0 0 0 0 0
0 0 0 0 0 0 0 0 0 0 0 0 0 0 0 0 0 0 0 0 0 0 0 0 0 0 0 0 0 0 0 0 0 0 0.406068956091277 0.138619029992776 0 0.114444238913249 0 0 0 -0.119553337169443 0.218117999220697 0.25494704294184 0.151899504854489 0 0 0 0 0
0 0 0 0 0 0 0 0 0 0 0 0 0 0 0 0 0 0 0 0 0 0 0 0 0 0 0 0 0 0 0 0 0 0 0 0 0 0 0 0 0 -1.17124033142432 -0.119553337169443 0 0 0 0 0 0 0
0 0 0 0 0 0 0 0 0 0 0 0 0 0 0 0 0 0 0 0 0 0.693694578788458 0.261069282275043 0.2347180327134 0.0587731035918363 0.154297225400137 0 0 0.776786940853679 0.0696660008355673 0.235772874161532 0.177010097774456 0 0 0 0 0 0 0 0 0 -1.26307517184983 0 -0.119553337169443 0 0 0 0 0 0
0 0 0 0 0 0 0 0 0 0 0 0 0 0 0 0 0 0 0 0 0 0 0 0 0.423208031752155 0 0.128752616833269 0 0 0 0.36018510985501 0 0 0 0 0 0 0 0 0 0 -0.796829096135755 0 0 -0.119553337169443 0 0 0 0 0
0 0 0 0 0 0 0 0 0 0 0 0 0 0 0 0 0 0 0 0 0 0 0 0 0 0 0 0 0 0 0 0 0.276504307380866 0 0 0 0 0 0 0 0 0 0 0 0 -0.119553337169443 0 0 0 0
0 0 0 0 0 0 0 0 0 0 0.19274151814703 0.0606449262742473 0 0 0 0.132026981874391 0 0 0 0 0 0 0 0 0 0 0 0 0 0 0 0 0 0 0 0 0 0 0 0 0 0 0 0 0 0 -0.119553337169443 0 0 0
0 0 0 0 0 0 0 0 0 0 0 0 0 0 0 0 0 0.0252971142050902 2.18042505905067 0 0 0 0 0 0 0 0 0 0 0 0 0 0 0 0 0 0 0 0 0 0 0 0 0 0 0 0 -0.119553337169443 0 0
0 0 0 0 0 0 0 0.0545949397090884 0.194026710647646 0.244267170324999 0.206736995973319 0 0.127421768118033 0.0532172074234096 0 0 0 0 0 0 0 0 0 0 0 0 0 0 0 0 0 0 0 0 0 0 0 0 0 0 0 0 0 0 0 0 0 0 -0.119553337169443 0
0 0 0 0 0 0 0 0 0 0 0 0 0 0 0 0 0 0 0 0 0 0 0 0 0 0 0 0.398177102645275 0.170089075112138 0 0 0.0953266117887128 0.494577031729838 0.912354185142998 0 0.184054702755173 1.79355342421764 0 0.403033590618801 0.133162334856589 0 0 0 0 0 0 0 0 0 -0.119553337169443
