-0.305943709457568 0 0 0 0 0 0 0 0 0 -1.10654153862915 0 0 0 0 0 0 0 0 0 0 0 -0.9371629489663 0 0 0 0 0 0 0 0 0 0 0 0 0 0 0 0 0 0 0 0 0 0 0 0 0 0 0
0 -0.305943709457568 0 0 0 0 0 0 0 0 0 0 0 0 0 0 0 0 0 0 0 0 -4.69491941578939 0 0 0 0 0 0 0 0 0 0 0 0 0 0 0 0 0 0 0 0 0 0 0 0 0 0 0
0 0 -0.305943709457568 -2.44839903813117 0 0 0 0 0 0 -1.57691841631951 0 0 0 0 0 0 0 0 0 0 0 0 0 0 0 0 0 0 0 0 0 0 0 0 0 0 0 0 0 0 0 -0.0865036226898627 0 0 0 0 0 0 0
0 0 0.4681603381211 -0.305943709457568 0.227588672668602 0 0 0 0 0 -0.978952424854924 0 0 0 0 0 0 0 0 -0.224098557585732 0 0 0 0 0 0 0 0 0 0 0 0 0 0 0 0 0 0 0 0 0 0 0 0 0 0 0 0 0 0
0 0 0 -1.12770106473139 -0.305943709457568 0 0 0 0 0 -1.24660287898851 0 0 0 0 0 0 0 0 -3.35999122556313 0 0 0 0 0 0 0 0 0 0 0 0 0 0 0 0 0 0 0 0 0 0 0 0 0 0 0 0 0 0
0 0 0 0 0 -0.305943709457568 0 -1.39159239705108 0 -1.91076524443425 0 0 0 0 0 0 0 0 0 0 0 -1.40929169081984 0 0 0 0 0 0 0 0 0 0 0 0 0 0 0 0 0 0 0 0 0 0 0 -0.996199711865057 0 0 0 0
0 0 0 0 0 0 -0.305943709457568 0 0 -1.59631854539676 0 -0.185180622711517 0 0 -1.13018219737581 0 0 0 0 0 0 -1.86017249400459 0 0 0 0 0 0 0 0 0 0 0 0 -1.60227211568929 0 0 -3.65863888755384 0 0 0 0 -1.55533279949698 0 0 -0.802519908464528 0 0 0 0
0 0 0 0 0 0.278126425446928 0 -0.305943709457568 0 -0.250403371984728 0 -0.67177881839736 0 0 -0.50406276570983 0 0 0 0 0 0 -0.395671564449464 0 0 0 0 0 0 0 0 0 0 0 0 0 0 0 0 0 0 0 0 -2.1544932040932 0 0 -0.809750464008124 0 0 0 0
0 0 0 0 0 0 0 0 -0.305943709457568 0 0 -8.34579933195612 -2.41570012280496 0 0 0 0 0 0 0 0 0 0 0 0 0 0 0 0 0 0 0 0 0 -1.93970806488572 0 0 -0.0732555734882092 0 0 0 0 -1.05744230629264 0 0 0 0 0 0 0
0 0 0 0 0 0.383237205404005 0.303726712272422 0.0485110569967425 0 -0.305943709457568 0 0 0 0 0 0 0 0 0 0 0 -1.80950023929013 0 0 0 0 0 0 0 0 0 0 0 0 -5.00326449637701 0 0 -0.223198280127057 0 0 0 0 0 0 0 0 0 0 0 0
0.218111625248565 0 0.303589430270162 0.19809812619919 0.245136320644961 0 0 0 0 0 -0.305943709457568 0 -1.013218475966 0 0 0 0 -1.94075415735146 0 0 0 0 0 0 0 0 0 0 0 0 0 0 0 -2.10064687757845 -0.832383075781568 0 0 -0.954610735992447 0 0 0 0 -0.288941867829791 0 0 -0.320291350600763 -2.40043159425712 0 0 0
0 0 0 0 0 0 0.0371423464958325 0.135886325743563 1.6278567732955 0 0 -0.305943709457568 0 0 0 0 0 0 0 0 -3.64392435165367 0 0 0 0 0 0 0 0 0 0 0 0 -0.966480817884718 0 0 -1.31005111603858 -0.242665785213113 0 0 0 0 -0.233289545060661 0 0 -0.272846133010961 -0.825729479363488 0 0 0
0 0 0 0 0 0 0 0 0.496722794030402 0 0.212105995630615 0 -0.305943709457568 0 0.873327343821295 0 0 -1.85866217830794 0 0 0 0 0 0 0 0 0 0 0 0 0 0 0 -0.968594674186998 0 0 -0.276643559811073 0 0 0 0 0 0 0 0 -1.77167806923581 0 0 0 0
0 0 0 0 0 0 0 0 0 0 0 0 0 -0.305943709457568 0 0 0 -0.865453658931089 0 0 0 0 0 0 0 0 0 0 0 0 0 0 0 0 0 0 0 0 0 0 0 0 0 0 0 0 0 0 0 0
0 0 0 0 0 0 0.249408359762518 0.0997739859389994 0 0 0 0 -4.15824667916117 0 -0.305943709457568 0 0 0 0 0 0 0 0 0 0 0 0 0 0 0 0 0 0 -1.43949969289527 0 0 -1.14749525146848 0 0 0 0 0 -0.391006562803322 0 0 -2.61757474323608 -2.20900390651646 0 0 0
0 0 0 0 0 0 0 0 0 0 0 0 0 0 0 -0.305943709457568 -0.721012906269651 -4.37690868710506 0 0 0 0 0 0 0 0 0 0 0 0 0 0 0 0 0 0 -1.67808673947485 0 0 0 -1.06062584519956 0 -4.13694547186717 0 0 0 -4.28403091136951 0 0 0
0 0 0 0 0 0 0 0 0 0 0 0 0 0 0 0.150951318617923 -0.305943709457568 0 0 0 0 0 0 0 0 0 0 0 0 0 0 0 0 -1.29762091732382 0 0 -0.812754017981311 0 0 0 0 0 0 0 0 0 0 0 0 0
0 0 0 0 0 0 0 0 0 0 0.394977098094152 0 0.382536895517708 0.169039917559814 0 0.872433906483541 0 -0.305943709457568 0.374410280662591 0 0 0 0 0 0 0 0 0 0 0 0 0 -1.23557194237702 -0.782542332249593 0 0 0 0 0 0 0 0 0 0 0 0 0 0 0 0
0 0 0 0 0 0 0 0 0 0 0 0 0 0 0 0 0 -1.88266315251633 -0.305943709457568 0 0 0 0 0 0 0 0 0 0 0 0 0 -0.800555323299092 0 0 0 -2.23074255525659 0 0 0 0 0 0 0 0 0 0 0 0 0
0 0 0 0.0472776736293472 0.683154896338505 0 0 0 0 0 0 0 0 0 0 0 0 0 0 -0.305943709457568 0 0 0 0 -0.308328279894435 0 0 0 0 0 0 -0.467264044468766 -2.3949911216848 0 0 0 0 0 0 0 0 0 0 0 0 0 0 0 0 0
0 0 0 0 0 0 0 0 0 0 0 0.697560382323028 0 0 0 0 0 0 0 0 -0.305943709457568 0 0 0 0 0 0 0 0 0 0 0 0 0 0 0 -1.44415382475134 0 0 -0.358755328727376 0 0 0 0 0 0 0 0 0 0
0 0 0 0 0 0.288545634976978 0.378376312111084 0.0827217466883315 0 0.346227212485656 0 0 0 0 0 0 0 0 0 0 0 -0.305943709457568 0 0 0 0 0 0 0 0 0 0 0 0 0 0 -0.854695602537742 0 0 0 0 0 0 -0.683112589087453 0 0 0 0 0 0
0.176702119846434 0.903306529424574 0 0 0 0 0 0 0 0 0 0 0 0 0 0 0 0 0 0 0 0 -0.305943709457568 0 0 0 0 0 0 0 0 0 0 0 0 0 -1.07060543218377 0 0 0 0 0 0 0 -0.732985221614557 0 0 0 0 0
0 0 0 0 0 0 0 0 0 0 0 0 0 0 0 0 0 0 0 0 0 0 0 -0.305943709457568 0 0 -0.815990549522431 0 0 0 0 0 0 0 0 0 -0.746686045347174 0 0 -0.351579475269297 0 0 0 0 0 0 0 0 0 0
0 0 0 0 0 0 0 0 0 0 0 0 0 0 0 0 0 0 0 0.0707530334104861 0 0 0 0 -0.305943709457568 0 -1.18198061816178 0 0 0 0 0 0 0 0 0 -0.684990153879894 0 0 0 0 0 0 -1.60773833257301 0 0 0 0 -0.115722629547847 0
0 0 0 0 0 0 0 0 0 0 0 0 0 0 0 0 0 0 0 0 0 0 0 0 0 -0.305943709457568 0 0 0 0 0 0 0 0 0 0 -0.496409537941281 0 0 0 0 0 0 0 0 0 0 0 -1.66521171880637 0
0 0 0 0 0 0 0 0 0 0 0 0 0 0 0 0 0 0 0 0 0 0 0 0.173806883393208 0.22092809812079 0 -0.305943709457568 0 -0.251118505825751 0 0 0 0 0 0 0 -0.157875805633079 0 0 0 0 0 0 -0.178655453813049 0 0 0 0 0 0
0 0 0 0 0 0 0 0 0 0 0 0 0 0 0 0 0 0 0 0 0 0 0 0 0 0 0 -0.305943709457568 -0.338666473014841 0 0 0 0 0 0 0 -0.417552055858503 0 0 0 0 0 0 -0.658980443984907 0 0 0 0 0 0
0 0 0 0 0 0 0 0 0 0 0 0 0 0 0 0 0 0 0 0 0 0 0 0 0 0 0.0513730224709743 0.0683703644658745 -0.305943709457568 0 0 0 0 0 0 0 -0.537800607194068 0 0 0 0 0 0 0 0 0 0 0 -0.772178717220075 0
0 0 0 0 0 0 0 0 0 0 0 0 0 0 0 0 0 0 0 0 0 0 0 0 0 0 0 0 0 -0.305943709457568 0 0 0 0 0 0 0 0 0 0 0 0 0 0 -2.85864958173326 0 0 0 -2.51023773408721 0
0 0 0 0 0 0 0 0 0 0 0 0 0 0 0 0 0 0 0 0 0 0 0 0 0 0 0 0 0 0 -0.305943709457568 0 0 0 0 0 -0.487672520326522 0 0 0 0 0 0 0 -0.141870511994287 0 0 0 -1.49362476824905 0
0 0 0 0 0 0 0 0 0 0 0 0 0 0 0 0 0 0 0 0.0978337679180475 0 0 0 0 0 0 0 0 0 0 0 -0.305943709457568 0 0 0 0 0 0 0 0 0 0 0 0 0 0 0 0 -1.99143021519716 0
0 0 0 0 0 0 0 0 0 0 0 0 0 0 0 0 0 0.254314538007825 0.171740460774952 0.46483061536596 0 0 0 0 0 0 0 0 0 0 0 0 -0.305943709457568 0 0 0 0 0 0 0 0 -2.01094181130358 0 0 -1.03455014886885 0 0 0 0 0
0 0 0 0 0 0 0 0 0 0 0.383153404679446 0.207655030740053 0.197965241350193 0 0.276477425824828 0 0.268002441089115 0.165395767999834 0 0 0 0 0 0 0 0 0 0 0 0 0 0 0 -0.305943709457568 0 0 0 0 0 0 0 -0.236802415113424 0 0 -3.51096527494331 0 0 0 0 0
0 0 0 0 0 0 0.334238959424982 0 0.387625402534695 0.976313279907495 0.168766761487005 0 0 0 0 0 0 0 0 0 0 0 0 0 0 0 0 0 0 0 0 0 0 0 -0.305943709457568 0 0 0 0 0 0 0 0 0 -3.94616661839744 0 0 0 0 0
0 0 0 0 0 0 0 0 0 0 0 0 0 0 0 0 0 0 0 0 0 0 0 0 0 0 0 0 0 0 0 0 0 0 0 -0.305943709457568 0 0 0 0 0 -0.580930127664649 0 0 0 0 0 0 0 0
0 0 0 0 0 0 0 0 0 0 0 0.291400560413084 0.0534099517789161 0 0.244083759907703 0.330449151157835 0.154477375495088 0 0.429661945279263 0 0.300826206581355 0.174970041540366 0.224931004356761 0.151716561097601 0.138256414753029 0.101664323703941 0.0337591892947814 0.082500085792539 0.10158708475894 0 0.0850229038518397 0 0 0 0 0 -0.305943709457568 0 0 0 0 -4.4585896853388 0 0 0 0 0 0 0 0
0 0 0 0 0 0 0.753373790991152 0 0.0139553804606283 0.0431161699374215 0.188786897979314 0.0508313345019484 0 0 0 0 0 0 0 0 0 0 0 0 0 0 0 0 0 0 0 0 0 0 0 0 0 -0.305943709457568 0 0 0 0 0 0 0 0 0 0 0 -2.84940499222441
0 0 0 0 0 0 0 0 0 0 0 0 0 0 0 0 0 0 0 0 0 0 0 0 0 0 0 0 0 0 0 0 0 0 0 0 0 0 -0.305943709457568 0 0 -0.170157458623905 0 0 0 0 0 -0.597785142300804 0 0
0 0 0 0 0 0 0 0 0 0 0 0 0 0 0 0 0 0 0 0 0.0734300242985848 0 0 0.0655738365443426 0 0 0 0 0 0 0 0 0 0 0 0 0 0 0 -0.305943709457568 0 -0.873810147705354 0 0 0 0 0 0 0 -1.69885665306572
0 0 0 0 0 0 0 0 0 0 0 0 0 0 0 0.206908917499473 0 0 0 0 0 0 0 0 0 0 0 0 0 0 0 0 0 0 0 0 0 0 0 0 -0.305943709457568 -3.17052251246811 0 0 0 0 0 0 0 0
0 0 0 0 0 0 0 0 0 0 0 0 0 0 0 0 0 0 0 0 0 0 0 0 0 0 0 0 0 0 0 0 0.388534038930788 0.0475094048453179 0 0.110887792845665 0.872856829176583 0 0.032681796484396 0.177455358671332 0.658540108601376 -0.305943709457568 0 0 0 0 0 0 0 -8.54183085507808
0 0 0.0176171439497076 0 0 0 0.313173104255947 0.388772114596565 0.197646777749705 0 0.061440711068482 0.0471955763395975 0 0 0.0836936949321889 0.81364124923822 0 0 0 0 0 0 0 0 0 0 0 0 0 0 0 0 0 0 0 0 0 0 0 0 0 0 -0.305943709457568 0 0 0 0 0 0 0
0 0 0 0 0 0 0 0 0 0 0 0 0 0 0 0 0 0 0 0 0 0.148552634805368 0 0 0.332661061107324 0 0.0357345157471251 0.141235361555662 0 0 0 0 0 0 0 0 0 0 0 0 0 0 0 -0.305943709457568 0 0 0 0 0 0
0 0 0 0 0 0 0 0 0 0 0 0 0 0 0 0 0 0 0 0 0 0 0.147790471010338 0 0 0 0 0 0 0.543227424338226 0.028248718874714 0 0.219352293704065 0.730706307784108 0.722280363139969 0 0 0 0 0 0 0 0 0 -0.305943709457568 0 0 0 0 0
0 0 0 0 0 0.195958684358486 0.155174113685798 0.150384096293251 0 0 0.0628309547720102 0.0589811620676588 0.351939882414134 0 0.514084192917881 0 0 0 0 0 0 0 0 0 0 0 0 0 0 0 0 0 0 0 0 0 0 0 0 0 0 0 0 0 0 -0.305943709457568 0 0 0 0
0 0 0 0 0 0 0 0 0 0 0.461021865122292 0.161676648883191 0 0 0.420588167904792 0.877288947287386 0 0 0 0 0 0 0 0 0 0 0 0 0 0 0 0 0 0 0 0 0 0 0 0 0 0 0 0 0 0 -0.305943709457568 0 0 0
0 0 0 0 0 0 0 0 0 0 0 0 0 0 0 0 0 0 0 0 0 0 0 0 0 0 0 0 0 0 0 0 0 0 0 0 0 0 0.114433691556755 0 0 0 0 0 0 0 0 -0.305943709457568 0 0
0 0 0 0 0 0 0 0 0 0 0 0 0 0 0 0 0 0 0 0 0 0 0 0 0.0234878395901175 0.315369909053951 0 0 0.169192212874537 0.521191339652881 0.28157128334739 0.407225411958554 0 0 0 0 0 0 0 0 0 0 0 0 0 0 0 0 -0.305943709457568 0
0 0 0 0 0 0 0 0 0 0 0 0 0 0 0 0 0 0 0 0 0 0 0 0 0 0 0 0 0 0 0 0 0 0 0 0 0 0.524801532475437 0 0.336493291335168 0 1.80448412656942 0 0 0 0 0 0 0 -0.305943709457568
