-0.221464575053508 0 0 0 0 0 0 0 0 0 0 0 0 0 0 0 0 0 0 0 0 -0.544153180722195 0 0 0 0 0 0 0 0 0 0 0 0 0 0 0 -1.36811018848379 0 0 0 0 0 0 0 0 0 0 0 0
0 -0.221464575053508 0 -0.470066137426165 0 -1.1847300071761 0 0 0 0 0 0 0 0 0 0 0 0 0 0 0 0 0 0 0 0 0 0 0 -0.17054901109302 0 -1.58697072339067 0 0 0 0 0 0 0 0 0 0 0 0 0 0 0 0 0 0
0 0 -0.221464575053508 0 0 -2.09361123132516 0 0 0 0 0 0 0 0 0 0 0 0 0 0 0 0 0 0 0 0 0 0 0 -0.390754873895531 0 -0.370347648931276 0 0 0 0 0 -0.573795458128721 0 0 0 0 0 0 0 0 0 -0.308664535808056 0 0
0 0.0975981014675919 0 -0.221464575053508 0 -1.73223614328545 0 0 0 0 0 0 0 0 0 0 0 0 0 -2.0241858702088 0 0 0 0 0 0 0 0 0 0 0 -1.05958191550305 0 0 0 0 0 -0.183926090323472 0 0 0 0 0 0 0 0 0 -3.01342946278146 0 0
0 0 0 0 -0.221464575053508 0 0 0 -0.536005423947681 0 0 0 0 0 0 0 0 0 0 0 0 0 0 0 0 0 0 0 0 -1.51182463276501 0 0 0 0 0 0 0 0 0 0 0 0 0 0 0 0 0 0 0 0
0 0.236635887180265 0.399477128135033 0.354883353200625 0 -0.221464575053508 0 0 0 0 0 0 0 0 0 0 0 0 0 -0.173039629749437 0 0 0 0 0 -1.41329337638675 0 0 -1.07891013660831 -1.75238411025818 0 0 0 0 0 0 0 0 0 0 -3.07853785947569 0 0 0 -0.428600942485039 0 0 -2.30050439823099 0 0
0 0 0 0 0 0 -0.221464575053508 0 0 0 0 0 0 0 0 0 0 0 0 0 0 0 0 0 0 -0.565087507094663 0 0 0 0 0 0 0 0 0 0 0 -1.22167500057305 0 0 -0.920518134170357 0 0 0 -0.84107056278096 0 0 0 0 0
0 0 0 0 0 0 0 -0.221464575053508 0 0 0 0 0 0 0 0 0 0 0 0 0 0 0 0 0 -0.68289538197342 0 0 0 0 0 0 0 0 0 0 0 0 0 0 0 0 0 0 0 0 0 0 0 0
0 0 0 0 0.102251353684745 0 0 0 -0.221464575053508 -0.346478236212263 0 0 -0.329523055132627 0 0 0 0 0 0 0 0 0 0 0 0 0 0 0 0 0 0 0 0 0 0 0 0 0 0 0 0 0 0 0 0 0 0 -0.779476864677455 0 0
0 0 0 0 0 0 0 0 0.0748178428624261 -0.221464575053508 0 0 0 -1.77114109648275 0 0 0 0 0 0 0 0 0 0 0 -1.18719935240881 0 -0.595553453991035 0 0 0 0 0 0 0 0 0 0 0 0 0 0 0 0 0 0 0 0 0 0
0 0 0 0 0 0 0 0 0 0 -0.221464575053508 0 0 0 0 0 0 -0.715937546242559 0 0 0 0 0 0 0 0 -0.590554670019802 0 0 0 0 0 0 0 0 -0.327899251924284 0 0 0 0 0 -2.17334894652686 0 0 0 0 0 -1.90991633115562 0 0
0 0 0 0 0 0 0 0 0 0 0 -0.221464575053508 0 0 0 0 0 0 0 0 0 0 0 0 0 0 0 0 0 0 0 0 0 0 0 -4.22677492860324 0 0 0 0 0 0 0 0 0 0 0 -0.659515138087017 0 0
0 0 0 0 0 0 0 0 0.0690240882682933 0 0 0 -0.221464575053508 0 0 0 0 -0.612000204360987 0 0 0 0 0 0 0 -0.482322400600342 -6.32827961130947 0 0 0 0 0 0 0 0 -0.955371559750606 0 0 0 0 0 -0.332009095007624 0 0 0 0 0 -0.944210510654199 0 0
0 0 0 0 0 0 0 0 0 0.361397569433085 0 0 0 -0.221464575053508 0 0 0 -1.4447337732656 0 0 0 0 0 0 0 -0.395198154323806 -2.46216646781583 0 0 0 0 0 0 0 0 -0.150768451009905 0 0 0 0 0 -0.244148026269665 0 0 0 0 0 -1.46469604424308 0 0
0 0 0 0 0 0 0 0 0 0 0 0 0 0 -0.221464575053508 0 0 -0.373960201236915 0 0 0 0 0 0 0 0 -1.81801443683819 0 0 0 0 0 0 0 0 0 0 0 0 0 0 0 0 0 0 0 0 0 0 0
0 0 0 0 0 0 0 0 0 0 0 0 0 0 0 -0.221464575053508 0 -0.955637422587082 0 0 0 0 0 0 0 -1.71808491705697 -0.506388031277638 0 0 0 0 0 0 0 0 -1.37218977975029 0 0 0 0 0 0 0 0 0 0 0 0 0 0
0 0 0 0 0 0 0 0 0 0 0 0 0 0 0 0 -0.221464575053508 0 -0.955915017787379 0 0 0 -0.444964131077804 0 0 0 -1.75101479390093 0 0 0 0 0 0 0 0 -1.36211410598809 0 0 0 0 0 0 0 0 0 0 0 0 0 0
0 0 0 0 0 0 0 0 0 0 0.134710476409151 0 0.129283536233833 0.287779296498943 0.0789907357156266 0.204287694023804 0 -0.221464575053508 -0.73470268484241 0 0 0 0 0 0 0 -1.82620343065748 0 0 0 0 0 0 0 0 0 0 0 0 0 0 0 0 0 0 0 0 0 0 0
0 0 0 0 0 0 0 0 0 0 0 0 0 0 0 0 0.20385732801401 0.142805760490644 -0.221464575053508 0.464465838458948 0.257092038724969 0 0 0 0 0 -3.06006289883259 0 0 0 0 0 0 0 0 0 0 0 0 0 0 0 -0.373261314040818 0 0 0 0 -0.12748601559517 0 0
0 0 0 0.391764415506702 0 0.0336291650120817 0 0 0 0 0 0 0 0 0 0 0 0 -2.3472766926719 -0.221464575053508 0 0 0 0 0 0 0 0 0 0 0 0 0 0 0 0 0 0 0 0 0 0 -0.312639205919419 0 0 0 0 -1.6150144096872 0 0
0 0 0 0 0 0 0 0 0 0 0 0 0 0 0 0 0 0 -1.27323764070609 0 -0.221464575053508 0 0 0 0 0 0 0 0 0 0 0 0 0 0 0 0 0 0 0 0 0 -2.06583926126143 0 0 0 0 -5.24296030472576 0 0
0.0995383004554389 0 0 0 0 0 0 0 0 0 0 0 0 0 0 0 0 0 0 0 0 -0.221464575053508 0 0 0 0 0 0 0 0 0 0 0 0 0 0 0 0 0 0 0 0 0 0 0 0 0 -0.819330508170155 -2.89228702602146 0
0 0 0 0 0 0 0 0 0 0 0 0 0 0 0 0 0.0825674483428384 0 0 0 0 0 -0.221464575053508 0 0 0 0 0 0 0 0 0 0 0 0 0 0 0 0 0 0 0 -0.814293816476471 0 0 0 0 -1.51846900870505 -4.11290723952602 0
0 0 0 0 0 0 0 0 0 0 0 0 0 0 0 0 0 0 0 0 0 0 0 -0.221464575053508 0 0 0 0 0 0 0 0 0 0 0 0 0 0 0 0 0 0 0 0 0 0 0 0 -0.243034772331904 0
0 0 0 0 0 0 0 0 0 0 0 0 0 0 0 0 0 0 0 0 0 0 0 0 -0.221464575053508 0 0 0 0 0 0 0 0 0 0 0 0 0 0 0 0 0 -2.50992381927571 0 0 0 0 0 -0.504202939150833 0
0 0 0 0 0 0.272726818649198 0.107850489299884 0.134414662297654 0 0.239122764273771 0 0 0.0902768286353878 0.0773493689676865 0 0.363114850308293 0 0 0 0 0 0 0 0 0 -0.221464575053508 0 0 0 0 0 0 0 0 0 0 0 0 0 0 0 0 0 0 0 0 0 -0.80202467993067 -1.3351346152024 0
0 0 0 0 0 0 0 0 0 0 0.117601776410583 0 1.3575335356154 0.474970326181275 0.371294098300382 0.0994898645085177 0.327501667545408 0.361811175301278 0.603469361254291 0 0 0 0 0 0 0 -0.221464575053508 0 0 0 0 0 0 0 0 0 0 0 0 0 0 0 -6.16924123161072 0 0 0 0 0 -1.28087441363037 0
0 0 0 0 0 0 0 0 0 0.121227687665464 0 0 0 0 0 0 0 0 0 0 0 0 0 0 0 0 0 -0.221464575053508 0 0 0 0 0 0 0 0 0 0 0 0 0 0 0 0 0 0 0 -0.653988044829558 -1.34660042691156 0
0 0 0 0 0 0.21852973264766 0 0 0 0 0 0 0 0 0 0 0 0 0 0 0 0 0 0 0 0 0 0 -0.221464575053508 0 0 0 0 0 0 0 0 0 0 0 0 0 0 0 0 0 0 -0.859459255266904 0 0
0 0.0342119219460293 0.0794182284022087 0 0.310424446540823 0.356312749016692 0 0 0 0 0 0 0 0 0 0 0 0 0 0 0 0 0 0 0 0 0 0 0 -0.221464575053508 -2.19859957195733 0 0 0 -1.45844037575463 0 0 0 0 0 0 0 0 0 0 0 0 0 -0.603658077937267 -1.7612639886879
0 0 0 0 0 0 0 0 0 0 0 0 0 0 0 0 0 0 0 0 0 0 0 0 0 0 0 0 0 0.452405033203327 -0.221464575053508 0 0 0 0 0 0 0 0 0 0 0 0 0 0 -1.92706189596449 0 0 -0.835846474330203 0
0 0.317063238410419 0.0693497310845034 0.22885449183957 0 0 0 0 0 0 0 0 0 0 0 0 0 0 0 0 0 0 0 0 0 0 0 0 0 0 0 -0.221464575053508 0 0 -3.4729563311378 0 0 0 0 0 0 0 0 0 0 0 0 -0.322603518539691 0 0
0 0 0 0 0 0 0 0 0 0 0 0 0 0 0 0 0 0 0 0 0 0 0 0 0 0 0 0 0 0 0 0 -0.221464575053508 0 -1.1239606658583 0 0 0 0 0 0 0 0 0 0 0 0 0 -1.54902925008038 -0.642595424906372
0 0 0 0 0 0 0 0 0 0 0 0 0 0 0 0 0 0 0 0 0 0 0 0 0 0 0 0 0 0 0 0 0 -0.221464575053508 -0.312913724403029 0 0 0 0 0 0 0 0 0 0 0 0 0 -0.358877921941172 -1.46739476284665
0 0 0 0 0 0 0 0 0 0 0 0 0 0 0 0 0 0 0 0 0 0 0 0 0 0 0 0 0 0.279094195457273 0 0.669904411118649 0.243000979722547 0.0641576812959836 -0.221464575053508 0.14744429614397 0.0951173129332212 0.137642699566751 0 0 0 0 0 0 0 0 0 0 0 0
0 0 0 0 0 0 0 0 0 0 0.0662575662693632 0.9343216029658 0.181526491721517 0.0321041592755065 0 0.278819610595636 0.275022098754714 0 0 0 0 0 0 0 0 0 0 0 0 0 0 0 0 0 -0.687444454539805 -0.221464575053508 0 0 0 0 0 0 0 0 0 0 0 0 -1.17802066819541 -0.357692318630095
0 0 0 0 0 0 0 0 0 0 0 0 0 0 0 0 0 0 0 0 0 0 0 0 0 0 0 0 0 0 0 0 0 0 -0.463496677457651 0 -0.221464575053508 0 0 0 0 0 0 0 0 0 0 0 0 0
0.240536193505331 0 0.107305081758656 0.0375237516708953 0 0 0.243561697493454 0 0 0 0 0 0 0 0 0 0 0 0 0 0 0 0 0 0 0 0 0 0 0 0 0 0 0 -0.687886181510565 0 0 -0.221464575053508 0 0 0 0 0 0 0 0 0 0 0 -9.83761154041211
0 0 0 0 0 0 0 0 0 0 0 0 0 0 0 0 0 0 0 0 0 0 0 0 0 0 0 0 0 0 0 0 0 0 0 0 0 0 -0.221464575053508 0 0 0 0 -2.56798153673262 0 0 0 0 0 -3.15607329618659
0 0 0 0 0 0 0 0 0 0 0 0 0 0 0 0 0 0 0 0 0 0 0 0 0 0 0 0 0 0 0 0 0 0 0 0 0 0 0 -0.221464575053508 0 0 0 -0.481963923390744 0 0 0 0 0 0
0 0 0 0 0 0.606098115351602 0.179729756448247 0 0 0 0 0 0 0 0 0 0 0 0 0 0 0 0 0 0 0 0 0 0 0 0 0 0 0 0 0 0 0 0 0 -0.221464575053508 0 0 0 0 0 0 0 0 -0.392179466955358
0 0 0 0 0 0 0 0 0 0 0.443846584801232 0 0.0651148330291594 0.0462540260311922 0 0 0 0 0 0 0 0 0 0 0 0 0 0 0 0 0 0 0 0 0 0 0 0 0 0 0 -0.221464575053508 0 0 0 0 0 0 0 0
0 0 0 0 0 0 0 0 0 0 0 0 0 0 0 0 0 0 0.07764388224955 0.0686441728419407 0.444639879716839 0 0.159902893594308 0 0.491240592239983 0 1.22640106482617 0 0 0 0 0 0 0 0 0 0 0 0 0 0 0 -0.221464575053508 0 0 0 0 0 0 -3.95030221506311
0 0 0 0 0 0 0 0 0 0 0 0 0 0 0 0 0 0 0 0 0 0 0 0 0 0 0 0 0 0 0 0 0 0 0 0 0 0 0.493375663217849 0.0996670092406144 0 0 0 -0.221464575053508 0 0 0 0 0 -2.68424031146346
0 0 0 0 0 0.0844985170233686 0.160381628382507 0 0 0 0 0 0 0 0 0 0 0 0 0 0 0 0 0 0 0 0 0 0 0 0 0 0 0 0 0 0 0 0 0 0 0 0 0 -0.221464575053508 0 -1.21593226054436 0 0 -0.451657109858968
0 0 0 0 0 0 0 0 0 0 0 0 0 0 0 0 0 0 0 0 0 0 0 0 0 0 0 0 0 0 0.358697332736883 0 0 0 0 0 0 0 0 0 0 0 0 0 0 -0.221464575053508 -0.423210539161404 0 0 -0.475736779648341
0 0 0 0 0 0 0 0 0 0 0 0 0 0 0 0 0 0 0 0 0 0 0 0 0 0 0 0 0 0 0 0 0 0 0 0 0 0 0 0 0 0 0 0 0.234840142092976 0.0817725894602751 -0.221464575053508 0 0 0
0 0 0.0626760745906051 0.619966214318673 0 0.437683078932374 0 0 0.147614323956528 0 0.384255727259672 0.132257097946965 0.190602427098081 0.307268995184984 0 0 0 0 0.0265756124774461 0.343395042637407 1.05689939351392 0.156952420805581 0.284698937989055 0 0 0.174190365090494 0 0.140635344864686 0.167408394554041 0 0 0.0662252920242454 0 0 0 0 0 0 0 0 0 0 0 0 0 0 0 -0.221464575053508 0 -1.3139650892017
0 0 0 0 0 0 0 0 0 0 0 0 0 0 0 0 0 0 0 0 0 0.590199158961248 0.842397167680631 0.0504262727159464 0.0950566777997756 0.263796692752163 0.267314222380219 0.260523034138379 0 0.118635272263302 0.171723323836146 0 0.32017247848519 0.0691206394807877 0 0.258690921358422 0 0 0 0 0 0 0 0 0 0 0 0 -0.221464575053508 -0.583388576356639
0 0 0 0 0 0 0 0 0 0 0 0 0 0 0 0 0 0 0 0 0 0 0 0 0 0 0 0 0 0.32428443687204 0 0 0.127463211015543 0.281920708469834 0 0.0706897547556474 0 1.97394718477937 0.62028740988526 0 0.0760574508911535 0 0.782444753810176 0.559011435861331 0.0977219525784553 0.103004216323404 0 0.262348971470101 0.116192216088613 -0.221464575053508
