-0.226386734368415 0 0 0 0 0 0 0 0 0 -0.505073093524279 0 0 0 0 0 0 0 0 0 0 0 0 0 0 0 0 0 0 0 0 -0.419284772176994 0 0 0 0 0 0 0 0 0 0 0 0 0 0 0 0 0 0
0 -0.226386734368415 0 0 -2.70553310275399 0 0 0 0 0 0 0 0 0 0 0 0 0 0 0 0 0 0 0 0 0 0 0 0 0 0 -0.39410723981541 0 0 0 0 0 0 -0.363744831133369 0 0 0 0 0 0 0 0 0 0 0
0 0 -0.226386734368415 0 0 -1.03894033807724 0 0 0 0 0 0 0 0 0 0 0 0 0 0 0 0 0 0 0 0 0 0 0 0 0 -0.160832426801863 0 0 -1.71542592431893 0 0 0 -1.02147814470123 0 0 0 0 0 0 0 0 -3.70691701245925 0 0
0 0 0 -0.226386734368415 0 0 0 0 0 0 0 0 -6.03374465331542 -0.595290050522749 0 0 0 0 0 0 0 0 0 0 0 0 0 0 0 0 0 -0.720179233136549 0 0 -0.729006335197501 0 0 0 -0.976745598435063 0 0 -0.480023131552042 0 0 0 0 0 -1.03676154953655 0 0
0 0.518138977520868 0 0 -0.226386734368415 0 0 0 -2.84102838763693 -0.672130257026184 0 -0.78211300999752 -2.46474748063639 -0.498175366087439 0 0 0 0 0 0 0 0 0 0 0 0 0 0 0 0 0 -3.5018080811427 0 0 0 0 0 0 -0.360209192183695 0 0 0 0 0 0 0 0 -1.13377151425484 0 0
0 0 0.204808336435207 0 0 -0.226386734368415 0 0 0 0 0 -0.299148424761357 0 0 0 0 0 0 0 0 0 0 0 0 0 0 0 0 0 0 0 -3.36578226179926 0 0 0 0 0 0 -1.99040558295287 0 -2.0623263703792 0 0 0 0 0 0 -6.9594253329868 0 0
0 0 0 0 0 0 -0.226386734368415 0 0 0 0 -0.310098790343143 0 0 -0.294155114531064 0 0 -0.251835493926677 0 -0.779079191260483 0 0 0 0 0 0 0 0 0 0 0 -0.939054956094604 0 0 -1.8789099999171 0 0 0 -1.23957707432985 0 -6.46860579030702 0 0 0 0 0 0 -0.432498333006912 0 0
0 0 0 0 0 0 0 -0.226386734368415 0 0 0 -0.182217438579466 0 0 -0.141132200840254 0 0 0 0 -0.54074987665657 0 0 0 0 0 0 0 0 0 0 0 -1.78001459760971 0 0 -0.829288566153857 0 0 0 -1.92955206914247 0 0 -0.829703967530977 0 0 0 0 0 -3.31001739635828 0 0
0 0 0 0 0.595288797680169 0 0 0 -0.226386734368415 0 0 0 0 0 0 0 0 -0.338085176311338 0 0 0 0 0 0 0 0 0 0 0 0 0 0 0 0 -0.204070722454738 0 -0.924797008697998 0 0 0 0 -4.67223802660816 0 0 0 0 0 -0.334346283084691 0 0
0 0 0 0 0.129076772608947 0 0 0 0 -0.226386734368415 0 -1.16572906006922 0 0 0 0 0 0 0 0 0 0 0 0 0 0 0 0 0 0 0 0 0 0 0 0 -0.734367317963618 0 0 0 0 -1.02400548725448 0 0 0 0 0 0 0 0
0.0984621063231681 0 0 0 0 0 0 0 0 0 -0.226386734368415 -1.89000306695501 0 0 0 0 0 -0.491325812102389 0 0 0 0 0 0 0 0 0 0 0 0 0 0 0 0 0 0 -1.16024282519065 0 0 0 0 -0.118769177020261 0 0 0 0 0 -1.92812913646938 0 0
0 0 0 0 0.17131646700121 0.0589189265880929 0.0637164059628514 0.0366051994336436 0 0.209314303021843 0.401937356602089 -0.226386734368415 0 0 0 0 0 0 0 0 0 -0.513633609620339 -0.346178762194853 0 0 -0.836190843241764 0 0 0 0 0 0 0 0 0 0 -2.02980902842932 0 0 0 0 -0.515819411025434 0 0 0 0 0 0 0 0
0 0 0 1.23524408553752 0.51767623483345 0 0 0 0 0 0 0 -0.226386734368415 0 0 0 0 0 0 0 0 -0.857924501839233 -0.505277683530514 0 0 -0.499194433462163 0 0 0 0 0 0 0 0 0 0 -1.37625571933623 0 0 0 0 -0.487651735139312 0 0 0 0 0 0 0 0
0 0 0 0.124845692834378 0.0915972646158979 0 0 0 0 0 0 0 0 -0.226386734368415 0 0 0 0 -2.92251154984718 0 0 -0.73800285824559 0 0 0 -6.32816834295967 0 0 0 0 0 0 0 0 0 0 -1.18056674535309 0 0 0 0 0 0 0 0 0 0 0 0 0
0 0 0 0 0 0 0.0587497348298763 0.0301670217681867 0 0 0 0 0 0 -0.226386734368415 0 0 0 -0.637797661789091 0 0 -0.705692664952381 0 0 0 0 0 -2.06179988625308 0 0 0 0 0 0 0 0 -0.182131474022491 0 0 0 0 0 0 0 0 0 0 0 0 0
0 0 0 0 0 0 0 0 0 0 0 0 0 0 0 -0.226386734368415 0 0 0 0 0 -1.9617003516044 0 0 0 0 -2.95539445332643 -0.436922836078138 0 0 0 0 0 0 0 0 -0.460057376523806 0 0 0 0 0 -9.2314511336047 0 0 0 0 0 -0.468420487442638 0
0 0 0 0 0 0 0 0 0 0 0 0 0 0 0 0 -0.226386734368415 0 0 0 -0.328366398677687 0 0 0 0 0 0 0 0 0 0 0 0 0 0 0 0 0 0 0 0 0 -1.82501934502693 0 0 0 0 0 -1.27991229608089 0
0 0 0 0 0 0 0.0492419751264993 0 0.0698459669420369 0 0.10318620340391 0 0 0 0 0 0 -0.226386734368415 0 0 0 0 0 0 0 0 0 0 0 -8.84219504378149 0 0 0 0 0 0 0 0 0 0 0 0 0 0 0 0 0 0 0 0
0 0 0 0 0 0 0 0 0 0 0 0 0 0.575987207564789 0.129881492366774 0 0 0 -0.226386734368415 0 0 0 0 0 -0.29255403959098 0 0 0 -4.0725718018213 -0.988600910883238 0 0 0 0 0 0 0 0 0 0 0 0 0 0 0 0 0 0 0 0
0 0 0 0 0 0 0.156415872840959 0.116408293052893 0 0 0 0 0 0 0 0 0 0 0 -0.226386734368415 0 0 0 0 -0.475700382124356 0 0 0 -0.362485151016672 -0.284309983939027 0 0 0 0 0 0 0 0 0 0 0 0 0 0 0 0 0 0 0 0
0 0 0 0 0 0 0 0 0 0 0 0 0 0 0 0 0.065449371099254 0 0 0 -0.226386734368415 0 0 0 -1.31039386459632 0 0 0 0 -2.58614759210407 0 0 0 0 0 0 0 0 0 0 0 0 0 0 0 0 0 0 0 0
0 0 0 0 0 0 0 0 0 0 0 0.0976125527649745 0.170805492637752 0.133033802119482 0.148727008422906 0.384638573725248 0 0 0 0 0 -0.226386734368415 0 0 -1.24481472067833 0 0 0 0 -0.334212696236807 0 0 0 0 0 0 0 0 0 0 0 0 0 0 0 0 0 0 0 0
0 0 0 0 0 0 0 0 0 0 0 0.0704040902271811 0.100938662035692 0 0 0 0 0 0 0 0 0 -0.226386734368415 0 0 0 0 0 -2.60910101184046 -2.68519155880104 0 0 0 0 0 0 0 0 0 0 0 0 0 0 0 0 0 0 0 0
0 0 0 0 0 0 0 0 0 0 0 0 0 0 0 0 0 0 0 0 0 0 0 -0.226386734368415 0 0 0 0 -0.971464047953096 0 0 0 0 0 0 0 0 0 0 0 0 0 0 0 0 0 0 0 0 0
0 0 0 0 0 0 0 0 0 0 0 0 0 0 0 0 0 0 0.0630289467606262 0.0968676646961596 0.268485334057571 0.262308643799173 0 0 -0.226386734368415 0 0 0 -3.00320864535169 -1.76944903162904 0 0 0 0 0 0 0 0 0 0 0 0 0 0 0 0 0 0 0 0
0 0 0 0 0 0 0 0 0 0 0 0.176142529271056 0.106880283372222 1.31142408563666 0 0 0 0 0 0 0 0 0 0 0 -0.226386734368415 0 0 -1.28762941562142 0 0 0 -2.04450640857426 0 0 0 0 0 0 0 0 0 0 0 0 0 0 0 0 -2.29115359785149
0 0 0 0 0 0 0 0 0 0 0 0 0 0 0 0.572648997828222 0 0 0 0 0 0 0 0 0 0 -0.226386734368415 0 -0.786514923242625 0 0 0 -2.15743916605224 0 0 0 0 0 0 -0.462975198566102 0 0 0 0 -0.44978254257625 0 0 0 0 -2.11743012653426
0 0 0 0 0 0 0 0 0 0 0 0 0 0 0.377709188989416 0.0874543895409588 0 0 0 0 0 0 0 0 0 0 0 -0.226386734368415 -0.193608750315007 0 -6.82723827238081 0 -0.679353543300217 0 0 0 0 0 0 0 0 0 0 0 -0.593643300812899 0 -0.792267831167029 0 0 0
0 0 0 0 0 0 0 0 0 0 0 0 0 0 0 0 0 0 0.78360822655026 0.076938281400625 0 0 0.510241662073618 0.195139066441862 0.599022170981199 0.283603347017299 0.162377028757403 0.0410459839976578 -0.226386734368415 0 -3.6084981782549 0 -0.374422248568549 0 0 0 0 0 0 0 0 0 0 0 -0.857868494034439 0 -0.860214584102429 0 0 -0.531912979657879
0 0 0 0 0 0 0 0 0 0 0 0 0 0 0 0 0 1.94688587375717 0.196779201295457 0.055900551493209 0.479913954717285 0.067726285231443 0.555432484293527 0 0.338048642128795 0 0 0 0 -0.226386734368415 0 0 0 0 0 0 0 0 0 0 0 0 0 -1.76416404480797 0 0 0 0 0 0
0 0 0 0 0 0 0 0 0 0 0 0 0 0 0 0 0 0 0 0 0 0 0 0 0 0 0 1.32813491464336 0.74054027212382 0 -0.226386734368415 0 0 0 0 -1.56350066073479 0 0 0 -0.941180656373306 0 0 0 0 0 0 0 0 0 0
0.0815057951358295 0.0796801876762072 0.0340296709107806 0.135098105811821 0.719103321791692 0.68000892700865 0.197178080012062 0.329661238460616 0 0 0 0 0 0 0 0 0 0 0 0 0 0 0 0 0 0 0 0 0 0 0 -0.226386734368415 0 0 0 0 0 0 0 -1.72787685520276 0 0 0 -2.02133042987984 0 0 0 0 0 0
0 0 0 0 0 0 0 0 0 0 0 0 0 0 0 0 0 0 0 0 0 0 0 0 0 0.40124783267881 0.403407300559376 0.138062407338976 0.0704848527155862 0 0 0 -0.226386734368415 0 0 0 0 0 0 -0.367415896142454 0 0 0 -1.32330632410817 0 0 0 0 0 0
0 0 0 0 0 0 0 0 0 0 0 0 0 0 0 0 0 0 0 0 0 0 0 0 0 0 0 0 0 0 0 0 0 -0.226386734368415 0 0 0 0 0 0 0 0 0 -0.631267732913696 0 0 0 0 0 0
0 0 0.346444638458399 0.150886162358714 0 0 0.348303644525778 0.180492574498241 0.0398611022406714 0 0 0 0 0 0 0 0 0 0 0 0 0 0 0 0 0 0 0 0 0 0 0 0 0 -0.226386734368415 0 0 0 0 -1.03871234793898 0 0 0 -0.542183802457952 0 0 0 0 0 0
0 0 0 0 0 0 0 0 0 0 0 0 0 0 0 0 0 0 0 0 0 0 0 0 0 0 0 0 0 0 0.311142818939247 0 0 0 0 -0.226386734368415 0 0 0 -4.51994781698856 0 0 0 0 0 0 0 0 0 0
0 0 0 0 0 0 0 0 0.188483220050683 0.154132356482459 0.234391787663811 0.405844727087108 0.278801630572588 0.247550343754265 0.0342286694595305 0.0928944560917564 0 0 0 0 0 0 0 0 0 0 0 0 0 0 0 0 0 0 0 0 -0.226386734368415 0 0 0 0 0 0 0 0 0 0 0 0 0
0 0 0 0 0 0 0 0 0 0 0 0 0 0 0 0 0 0 0 0 0 0 0 0 0 0 0 0 0 0 0 0 0 0 0 0 0 -0.226386734368415 0 -2.22732826037284 0 0 0 -0.815309818284744 0 0 0 0 0 0
0 0.0650048355674418 0.204959455090684 0.203515478097739 0.0747277166558884 0.412056651375317 0.281299545450276 0.373148341737397 0 0 0 0 0 0 0 0 0 0 0 0 0 0 0 0 0 0 0 0 0 0 0 0 0 0 0 0 0 0 -0.226386734368415 -1.67620040884328 0 0 0 -0.720855453798758 0 -1.20248733516085 0 0 0 0
0 0 0 0 0 0 0 0 0 0 0 0 0 0 0 0 0 0 0 0 0 0 0 0 0 0 0.0931946060900757 0 0 0 0.180977496591229 0.348071622702078 0.0782097731462895 0 0.215925305062309 0.876184839055734 0 0.419978641481309 0.346297186417879 -0.226386734368415 0 0 0 0 0 0 0 0 0 0
0 0 0 0 0 0.4293223986668 1.3972635714596 0 0 0 0 0 0 0 0 0 0 0 0 0 0 0 0 0 0 0 0 0 0 0 0 0 0 0 0 0 0 0 0 0 -0.226386734368415 0 0 -5.31607656783684 0 0 0 0 0 0
0 0 0 0.105019213678956 0 0 0 0.153070282114235 0.961089309666934 0.201149214167245 0.0237416933788301 0.102343267304374 0.092802062809553 0 0 0 0 0 0 0 0 0 0 0 0 0 0 0 0 0 0 0 0 0 0 0 0 0 0 0 0 -0.226386734368415 0 -0.45217849238516 0 0 0 0 0 0
0 0 0 0 0 0 0 0 0 0 0 0 0 0 0 1.79951114463752 0.381782754894581 0 0 0 0 0 0 0 0 0 0 0 0 0 0 0 0 0 0 0 0 0 0 0 0 0 -0.226386734368415 0 0 0 0 0 0 0
0 0 0 0 0 0 0 0 0 0 0 0 0 0 0 0 0 0 0 0 0 0 0 0 0 0 0 0 0 0.358124818912928 0 0.402498629713944 0.256046864832886 0.132827546138658 0.0989306948789168 0 0 0.172734894868542 0.146578761328228 0 1.12700706061589 0.0883508540481339 0 -0.226386734368415 0 0 0 0 0 0
0 0 0 0 0 0 0 0 0 0 0 0 0 0 0 0 0 0 0 0 0 0 0 0 0 0 0.090302762088547 0.124377466066347 0.170185836598901 0 0 0 0 0 0 0 0 0 0 0 0 0 0 0 -0.226386734368415 0 0 0 0 0
0 0 0 0 0 0 0 0 0 0 0 0 0 0 0 0 0 0 0 0 0 0 0 0 0 0 0 0 0 0 0 0 0 0 0 0 0 0 0.222487502028713 0 0 0 0 0 0 -0.226386734368415 0 0 0 0
0 0 0 0 0 0 0 0 0 0 0 0 0 0 0 0 0 0 0 0 0 0 0 0 0 0 0 0.168243337849667 0.174925406516635 0 0 0 0 0 0 0 0 0 0 0 0 0 0 0 0 0 -0.226386734368415 0 0 0
0 0 0.729134416840183 0.209420476904501 0.210334934404403 1.48767840904314 0.0806546942213506 0.627405901934787 0.0681962582041696 0 0.39738169468817 0 0 0 0 0 0 0 0 0 0 0 0 0 0 0 0 0 0 0 0 0 0 0 0 0 0 0 0 0 0 0 0 0 0 0 0 -0.226386734368415 0 0
0 0 0 0 0 0 0 0 0 0 0 0 0 0 0 0.0854345461790417 0.241292111414588 0 0 0 0 0 0 0 0 0 0 0 0 0 0 0 0 0 0 0 0 0 0 0 0 0 0 0 0 0 0 0 -0.226386734368415 0
0 0 0 0 0 0 0 0 0 0 0 0 0 0 0 0 0 0 0 0 0 0 0 0 0 0.483789822300598 0.40286331369956 0 0.102126677827094 0 0 0 0 0 0 0 0 0 0 0 0 0 0 0 0 0 0 0 0 -0.226386734368415
