9.09934650174058
3.02896553854241
6.79234762066426
0.709113315532255
0.773535734051362
0.991672057586032
0.78369170044796
1.07266644688032
9.44430168670723
1.56481162327978
0.599004314869001
0.800790866363916
0.161355123456472
0.0779082339351729
1.12569323982254
0.934053134066204
2.39455101669665
0.905296290095171
0.690511099814347
2.01831825784975
2.42530022252524
0.179681105077325
0.66244881595248
6.86174537545729
1.25399729373305
2.32082389866841
0.486763392802418
0.934103598251232
0.898301449558432
0.625710324402662
1.40314948643169
1.50486970051369
0.515614528640228
1.08218216845467
0.433214436621189
0.730741045512933
0.198063399168089
3.89214052717368
0.362645804280955
0.48958082027615
0.532935645223078
0.391371746863755
1.43731273674261
1.00651983003474
0.644973277820021
7.99082326169941
7.82804701373657
0.649906163652857
0.141578315918597
5.07713181538197
