0.945987898648438
1.07178809952714
0.31062284265558
1.96694360462653
1.42994595775327
0.955291945799832
0.46877140196786
4.28034787319077
0.906402422656867
0.317482154564837
2.12607894278765
0.556497622203114
0.489991565767983
2.13552442061808
0.323989757962421
1.35869887780366
3.03549975210404
2.01856693234314
0.479065251438878
0.279976578987869
0.341684130299618
0.702032508130143
0.448064644142132
0.278652892272902
2.20925346049169
0.393705439699743
4.01486546184448
1.38316915360692
0.314635583765956
1.15512266440764
0.921337159820753
0.106875457257085
0.577055937302961
0.14360984033012
6.13948503471006
0.506073307266735
0.934050718071054
2.4682571547828
3.31526336479415
0.53425286957396
1.41327225664989
0.11492172882456
1.71623078436966
2.56168724940791
0.589429107492066
0.78635485093126
0.0492369683531296
0.813209977476266
3.06351961029509
0.293303920444414
