0.789950102998648
2.67912666615307
1.32325775460135
0.613188314580631
0.465573526536484
0.546918143284435
0.303927048209311
0.151047807711014
1.76803604550217
2.08577557705464
0.92835443025927
0.852607313113873
1.54402231718845
0.852017305120651
3.0278302918456
0.92749451668542
1.5090281193493
1.44729807772216
0.846174433813206
3.34673594820714
0.505183762136634
0.0905049658633248
2.25703087599473
1.51913870223937
0.622295669092437
1.12786308492046
0.852757804893797
1.26705995050305
5.94284386731278
1.28551957433773
0.369621983961574
2.07428492760296
0.831872109893969
1.85085569267415
2.06939081020006
2.40260255025456
2.21975118977158
1.43189620303559
0.835185979167881
1.54032808845895
1.29626493821285
3.65865523991191
0.676195421835978
0.0731133129209662
0.227865174660948
3.23925127513354
0.0448828907947089
1.34276836343471
1.70475145209093
1.43454488629885
