0.133014946601674
0.642111208245511
5.63034559452141
1.00548739760178
0.386648848976271
7.43282655481048
0.821651797199584
2.44778980411123
0.0914020591911742
1.79385580988335
0.670158917531459
0.313927994633199
0.358582833567441
0.712760812444645
5.27541041964869
0.213204415430857
2.472810726403
2.00341135315758
0.197658971808828
1.91946806489175
0.454381376458615
3.28790388689592
3.34797348829616
0.146012159663494
0.757335196601725
0.304354734621093
0.868409366711062
0.355972768557682
1.29507395877699
4.08964180006183
1.41029603441156
1.39106743292005
0.42970746581973
0.524316075330458
1.24097962909941
0.958938484720404
0.347147739886404
1.09737428171243
0.372512305725571
0.532983271255341
0.67854007343218
5.18619418472689
0.470514800341169
2.75261702454636
0.180550019085433
0.454369589959013
0.684671378340098
0.525863682059047
0.575091614857886
1.76574208117905
