-0.388213772021925 0 0 0 0 0 0 0 0 0 -11.7523808323961 0 0 0 0 0 0 0 0 0 0 0 0 0 0 0 0 0 0 0 0 -2.78303206843376 0 0 0 0 0 0 0 0 0 0 0 0 0 0 0 0 0 0
0 -0.388213772021925 0 0 -0.510904529197161 0 0 0 0 0 0 0 0 0 0 0 0 0 0 0 0 0 0 0 0 0 0 0 0 0 0 -0.379139643511516 0 0 0 0 0 0 -1.13313647849316 0 0 0 0 0 0 0 0 0 0 0
0 0 -0.388213772021925 0 0 -0.382369018968305 0 0 0 0 0 0 0 0 0 0 0 0 0 0 0 0 0 0 0 0 0 0 0 0 0 -0.431588584785731 0 0 -0.562541214196049 0 0 0 -1.22795123355175 0 0 0 0 0 0 0 0 -0.400981612356649 0 0
0 0 0 -0.388213772021925 0 0 0 0 0 0 0 0 -0.302479319078674 -0.588179305602108 0 0 0 0 0 0 0 0 0 0 0 0 0 0 0 0 0 -1.83448223188918 0 0 -1.07151850622038 0 0 0 -0.363241846737011 0 0 -0.35532181080527 0 0 0 0 0 -0.2011492887084 0 0
0 0.106350628574921 0 0 -0.388213772021925 0 0 0 -2.70810144836912 -0.850587525807393 0 -0.16182015739285 -3.69005884644155 -0.278162597791441 0 0 0 0 0 0 0 0 0 0 0 0 0 0 0 0 0 -7.06275895746128 0 0 0 0 0 0 -1.97503521969874 0 0 0 0 0 0 0 0 -0.309299016517776 0 0
0 0 0.0709702234592716 0 0 -0.388213772021925 0 0 0 0 0 -1.39382183532437 0 0 0 0 0 0 0 0 0 0 0 0 0 0 0 0 0 0 0 -0.525459706672828 0 0 0 0 0 0 -2.59041186988589 0 -1.12948267389733 0 0 0 0 0 0 -0.529175944407304 0 0
0 0 0 0 0 0 -0.388213772021925 0 0 0 0 -2.56812425361683 0 0 -0.893643063568589 0 0 -4.13234441511358 0 -2.52378090774126 0 0 0 0 0 0 0 0 0 0 0 -0.471171277915129 0 0 -0.286120662653662 0 0 0 -0.975333056191005 0 -1.16434018391653 0 0 0 0 0 0 -1.35819529076799 0 0
0 0 0 0 0 0 0 -0.388213772021925 0 0 0 -1.13896547242166 0 0 -4.14556937026003 0 0 0 0 -1.76485541598476 0 0 0 0 0 0 0 0 0 0 0 -0.849435801720833 0 0 -0.705338937691137 0 0 0 -1.31635132830274 0 0 -1.4109086014809 0 0 0 0 0 -3.57866511849788 0 0
0 0 0 0 0.507794185003687 0 0 0 -0.388213772021925 0 0 0 0 0 0 0 0 -0.272711072166816 0 0 0 0 0 0 0 0 0 0 0 0 0 0 0 0 -0.799554414463017 0 -1.094826258377 0 0 0 0 -1.2516715393404 0 0 0 0 0 -0.421563842521487 0 0
0 0 0 0 0.16844903330122 0 0 0 0 -0.388213772021925 0 -0.709837681135253 0 0 0 0 0 0 0 0 0 0 0 0 0 0 0 0 0 0 0 0 0 0 0 0 -0.386171467235696 0 0 0 0 -1.71466862990754 0 0 0 0 0 0 0 0
2.59702535731033 0 0 0 0 0 0 0 0 0 -0.388213772021925 -0.394152206164008 0 0 0 0 0 -1.70164196171671 0 0 0 0 0 0 0 0 0 0 0 0 0 0 0 0 0 0 -0.221209689236978 0 0 0 0 -0.602400759732762 0 0 0 0 0 -0.616402540749141 0 0
0 0 0 0 0.0314897619855045 0.282748268802952 0.541260178411527 0.247623811229473 0 0.13782248054479 0.0748235468082456 -0.388213772021925 0 0 0 0 0 0 0 0 0 -1.64660257508976 -2.05380876659261 0 0 -0.293578169015597 0 0 0 0 0 0 0 0 0 0 -1.76573446800189 0 0 0 0 -0.197845038013199 0 0 0 0 0 0 0 0
0 0 0 0.0591270140629077 0.7636172720835 0 0 0 0 0 0 0 -0.388213772021925 0 0 0 0 0 0 0 0 -0.244078742154954 -0.832636971150935 0 0 -2.71909960200278 0 0 0 0 0 0 0 0 0 0 -0.172161054181375 0 0 0 0 -0.535252577864861 0 0 0 0 0 0 0 0
0 0 0 0.124194975045972 0.0569865172914502 0 0 0 0 0 0 0 0 -0.388213772021925 0 0 0 0 -0.982631782255846 0 0 -1.32093260844492 0 0 0 -3.1162746826349 0 0 0 0 0 0 0 0 0 0 -0.828070206802865 0 0 0 0 0 0 0 0 0 0 0 0 0
0 0 0 0 0 0 0.18108805132005 0.846486510935366 0 0 0 0 0 0 -0.388213772021925 0 0 0 -0.745691122278138 0 0 -1.27482723717498 0 0 0 0 0 -1.31722126997051 0 0 0 0 0 0 0 0 -1.57801288610903 0 0 0 0 0 0 0 0 0 0 0 0 0
0 0 0 0 0 0 0 0 0 0 0 0 0 0 0 -0.388213772021925 0 0 0 0 0 -0.144333262540073 0 0 0 0 -0.489705027583378 -5.72514802881394 0 0 0 0 0 0 0 0 -0.478846700539167 0 0 0 0 0 -1.10647501456821 0 0 0 0 0 -1.11705845408279 0
0 0 0 0 0 0 0 0 0 0 0 0 0 0 0 0 -0.388213772021925 0 0 0 -0.326345102735071 0 0 0 0 0 0 0 0 0 0 0 0 0 0 0 0 0 0 0 0 0 -1.30825139869735 0 0 0 0 0 -0.235657787020067 0
0 0 0 0 0 0 0.796573101139502 0 0.0548084697180879 0 0.305658582424907 0 0 0 0 0 0 -0.388213772021925 0 0 0 0 0 0 0 0 0 0 0 -1.22801976347553 0 0 0 0 0 0 0 0 0 0 0 0 0 0 0 0 0 0 0 0
0 0 0 0 0 0 0 0 0 0 0 0 0 0.192446879318075 0.156515834959071 0 0 0 -0.388213772021925 0 0 0 0 0 -0.159417626904117 0 0 0 -0.637942844705199 -0.100704922889567 0 0 0 0 0 0 0 0 0 0 0 0 0 0 0 0 0 0 0 0
0 0 0 0 0 0 0.521390257655955 0.343785629170991 0 0 0 0 0 0 0 0 0 0 0 -0.388213772021925 0 0 0 0 -2.27021489882138 0 0 0 -0.347604025731935 -0.143243549843883 0 0 0 0 0 0 0 0 0 0 0 0 0 0 0 0 0 0 0 0
0 0 0 0 0 0 0 0 0 0 0 0 0 0 0 0 0.0630566832282093 0 0 0 -0.388213772021925 0 0 0 -0.445919597536769 0 0 0 0 -0.509330833027999 0 0 0 0 0 0 0 0 0 0 0 0 0 0 0 0 0 0 0 0
0 0 0 0 0 0 0 0 0 0 0 0.349940158120993 0.0471933877363345 0.260412566357278 0.236455474567669 0.0278923825944786 0 0 0 0 0 -0.388213772021925 0 0 -1.84197832674356 0 0 0 0 -0.683560799067683 0 0 0 0 0 0 0 0 0 0 0 0 0 0 0 0 0 0 0 0
0 0 0 0 0 0 0 0 0 0 0 0.395566825040679 0.165191554176641 0 0 0 0 0 0 0 0 0 -0.388213772021925 0 0 0 0 0 -0.481807399166912 -0.42199238998048 0 0 0 0 0 0 0 0 0 0 0 0 0 0 0 0 0 0 0 0
0 0 0 0 0 0 0 0 0 0 0 0 0 0 0 0 0 0 0 0 0 0 0 -0.388213772021925 0 0 0 0 -0.669559280914012 0 0 0 0 0 0 0 0 0 0 0 0 0 0 0 0 0 0 0 0 0
0 0 0 0 0 0 0 0 0 0 0 0 0 0 0 0 0 0 0.0352886942672947 0.458866268963594 0.0855399752545895 0.375110833085068 0 0 -0.388213772021925 0 0 0 -1.2455883524075 -1.89052890797613 0 0 0 0 0 0 0 0 0 0 0 0 0 0 0 0 0 0 0 0
0 0 0 0 0 0 0 0 0 0 0 0.0576317531870837 0.538619939644286 0.587567456955415 0 0 0 0 0 0 0 0 0 0 0 -0.388213772021925 0 0 -3.19106047790979 0 0 0 -2.84032481993129 0 0 0 0 0 0 0 0 0 0 0 0 0 0 0 0 -0.54494048351604
0 0 0 0 0 0 0 0 0 0 0 0 0 0 0 0.108322558122129 0 0 0 0 0 0 0 0 0 0 -0.388213772021925 0 -0.596234371233994 0 0 0 -2.25231351992999 0 0 0 0 0 0 -2.12963095384018 0 0 0 0 -1.01998174762152 0 0 0 0 -1.78766673862519
0 0 0 0 0 0 0 0 0 0 0 0 0 0 0.262464734254142 1.21129190709259 0 0 0 0 0 0 0 0 0 0 0 -0.388213772021925 -0.366605229796716 0 -2.5422228493383 0 -1.98106184644045 0 0 0 0 0 0 0 0 0 0 0 -2.66147555402737 0 -4.49635930860938 0 0 0
0 0 0 0 0 0 0 0 0 0 0 0 0 0 0 0 0 0 0.127296799741737 0.0704324501761428 0 0 0.104235475399641 0.137309929257011 0.246576194139767 0.666662721734701 0.128451723096405 0.0729580197789622 -0.388213772021925 0 -10.367390400878 0 -0.468748676132246 0 0 0 0 0 0 0 0 0 0 0 -3.86831733342277 0 -0.672941723650604 0 0 -0.832222530943379
0 0 0 0 0 0 0 0 0 0 0 0 0 0 0 0 0 0.22810300609349 0.0211491730946907 0.0277546432169975 0.0936711145067144 0.142098220207548 0.0912696411568366 0 0.38014685577826 0 0 0 0 -0.388213772021925 0 0 0 0 0 0 0 0 0 0 0 0 0 -1.3603388163804 0 0 0 0 0 0
0 0 0 0 0 0 0 0 0 0 0 0 0 0 0 0 0 0 0 0 0 0 0 0 0 0 0 0.483663581591065 1.87445926248298 0 -0.388213772021925 0 0 0 0 -1.04905480120398 0 0 0 -2.46201253754256 0 0 0 0 0 0 0 0 0 0
0.567693143606747 0.0790337486999304 0.0808726962155491 0.364733733581708 1.38082327231743 0.0982093362256526 0.0905423788115827 0.170806020537966 0 0 0 0 0 0 0 0 0 0 0 0 0 0 0 0 0 0 0 0 0 0 0 -0.388213772021925 0 0 0 0 0 0 0 -3.62005371480923 0 0 0 -1.4054753121497 0 0 0 0 0 0
0 0 0 0 0 0 0 0 0 0 0 0 0 0 0 0 0 0 0 0 0 0 0 0 0 0.541288752980685 0.437920231636105 0.392595105096244 0.0951526393950705 0 0 0 -0.388213772021925 0 0 0 0 0 0 -0.957242262504647 0 0 0 -1.47339663846885 0 0 0 0 0 0
0 0 0 0 0 0 0 0 0 0 0 0 0 0 0 0 0 0 0 0 0 0 0 0 0 0 0 0 0 0 0 0 0 -0.388213772021925 0 0 0 0 0 0 0 0 0 -1.35116851556056 0 0 0 0 0 0
0 0 0.102660766307297 0.214076772730656 0 0 0.0581358932230581 0.137610588921866 0.163215398270924 0 0 0 0 0 0 0 0 0 0 0 0 0 0 0 0 0 0 0 0 0 0 0 0 0 -0.388213772021925 0 0 0 0 -0.91246072466207 0 0 0 -0.922800769030889 0 0 0 0 0 0
0 0 0 0 0 0 0 0 0 0 0 0 0 0 0 0 0 0 0 0 0 0 0 0 0 0 0 0 0 0 0.20562058134462 0 0 0 0 -0.388213772021925 0 0 0 -4.36213863391076 0 0 0 0 0 0 0 0 0 0
0 0 0 0 0 0 0 0 0.236530669262387 0.0781146985771929 0.0478161805553349 0.381940088746209 0.0340134643926387 0.169762475209878 0.302967393010883 0.0945530671867011 0 0 0 0 0 0 0 0 0 0 0 0 0 0 0 0 0 0 0 0 -0.388213772021925 0 0 0 0 0 0 0 0 0 0 0 0 0
0 0 0 0 0 0 0 0 0 0 0 0 0 0 0 0 0 0 0 0 0 0 0 0 0 0 0 0 0 0 0 0 0 0 0 0 0 -0.388213772021925 0 -1.3573052917856 0 0 0 -1.35869666455508 0 0 0 0 0 0
0 0.216076610899458 0.230982952948265 0.0777168504439291 0.363415833931761 0.521524259303825 0.207259892917472 0.277590687778046 0 0 0 0 0 0 0 0 0 0 0 0 0 0 0 0 0 0 0 0 0 0 0 0 0 0 0 0 0 0 -0.388213772021925 -0.537148520857303 0 0 0 -0.95860077492971 0 -0.736650240975965 0 0 0 0
0 0 0 0 0 0 0 0 0 0 0 0 0 0 0 0 0 0 0 0 0 0 0 0 0 0 0.380345470866176 0 0 0 0.488114826802739 0.704290932086703 0.192841277286712 0 0.172171457237662 0.845592767827734 0 0.25963445665969 0.108202573482604 -0.388213772021925 0 0 0 0 0 0 0 0 0 0
0 0 0 0 0 0.221805315279957 0.242801512766666 0 0 0 0 0 0 0 0 0 0 0 0 0 0 0 0 0 0 0 0 0 0 0 0 0 0 0 0 0 0 0 0 0 -0.388213772021925 0 0 -0.655937824183629 0 0 0 0 0 0
0 0 0 0.073456528392352 0 0 0 0.286080033650125 0.255239202891351 0.349008613916784 0.108469583133875 0.0396392080528222 0.101297536719944 0 0 0 0 0 0 0 0 0 0 0 0 0 0 0 0 0 0 0 0 0 0 0 0 0 0 0 0 -0.388213772021925 0 -2.01429593174107 0 0 0 0 0 0
0 0 0 0 0 0 0 0 0 0 0 0 0 0 0 0.189953361819922 0.287574831148004 0 0 0 0 0 0 0 0 0 0 0 0 0 0 0 0 0 0 0 0 0 0 0 0 0 -0.388213772021925 0 0 0 0 0 0 0
0 0 0 0 0 0 0 0 0 0 0 0 0 0 0 0 0 0 0 0 0 0 0 0 0 0 0 0 0 0.256288216178447 0 0.270281703176818 0.293569608104948 0.263533007205923 0.173085469524698 0 0 0.288987039697621 0.21260744112895 0 0.131629574491331 0.390362868198737 0 -0.388213772021925 0 0 0 0 0 0
0 0 0 0 0 0 0 0 0 0 0 0 0 0 0 0 0 0 0 0 0 0 0 0 0 0 0.195671956388146 0.536376548394314 0.749310219738825 0 0 0 0 0 0 0 0 0 0 0 0 0 0 0 -0.388213772021925 0 0 0 0 0
0 0 0 0 0 0 0 0 0 0 0 0 0 0 0 0 0 0 0 0 0 0 0 0 0 0 0 0 0 0 0 0 0 0 0 0 0 0 0.14118201734072 0 0 0 0 0 0 -0.388213772021925 0 0 0 0
0 0 0 0 0 0 0 0 0 0 0 0 0 0 0 0 0 0 0 0 0 0 0 0 0 0 0 0.855646071065661 0.133623158907059 0 0 0 0 0 0 0 0 0 0 0 0 0 0 0 0 0 -0.388213772021925 0 0 0
0 0 0.0786605353125881 0.0407706508722854 0.0677642922245514 0.100162835899102 0.260936818026399 0.692693967323638 0.0834756841333994 0 0.116690425663703 0 0 0 0 0 0 0 0 0 0 0 0 0 0 0 0 0 0 0 0 0 0 0 0 0 0 0 0 0 0 0 0 0 0 0 0 -0.388213772021925 0 0
0 0 0 0 0 0 0 0 0 0 0 0 0 0 0 0.228314543027852 0.0424095617981393 0 0 0 0 0 0 0 0 0 0 0 0 0 0 0 0 0 0 0 0 0 0 0 0 0 0 0 0 0 0 0 -0.388213772021925 0
0 0 0 0 0 0 0 0 0 0 0 0 0 0 0 0 0 0 0 0 0 0 0 0 0 0.106174640375575 0.32771679050774 0 0.164438572107634 0 0 0 0 0 0 0 0 0 0 0 0 0 0 0 0 0 0 0 0 -0.388213772021925
