-0.371018320794557 0 0 0 0 0 0 0 0 0 0 -2.84511013751058 0 0 0 0 0 0 0 0 0 0 0 0 0 0 0 0 0 0 0 0 0 0 0 0 0 0 0 0 0 0 0 0 0 0 0 0 0 0
0 -0.371018320794557 0 0 0 -3.96596069858851 0 0 0 -1.17755099873221 0 0 0 0 0 0 0 0 0 0 0 0 0 0 0 0 0 0 0 0 0 0 0 0 0 0 0 0 0 0 -0.456245252220792 0 0 0 0 0 0 0 0 0
0 0 -0.371018320794557 0 -1.7802390548734 -3.13025955202686 0 0 0 -5.60321076817748 0 0 -0.194551372322941 0 0 0 0 0 0 0 0 0 0 0 0 0 0 0 0 0 0 0 0 0 0 0 0 0 0 0 -5.41090637617175 0 0 0 0 0 0 0 0 0
0 0 0 -0.371018320794557 -0.521343225369764 -0.508762767381638 0 0 0 0 0 0 -0.234406626438193 0 0 0 0 -1.58691597003721 0 0 0 0 0 0 0 0 -0.844864268584212 0 0 0 -0.602974558317763 0 0 0 0 0 -0.638270998510314 0 0 0 -0.345006695183919 0 0 0 0 0 0 0 0 0
0 0 0.348796339484217 0.104064174752552 -0.371018320794557 0 -1.3340863496665 -1.18918976794447 0 0 0 0 0 -0.302004008713109 0 0 0 0 0 0 0 0 0 0 0 0 0 0 0 0 0 0 0 0 0 0 -2.31719362374724 0 0 0 -1.04264922023956 0 0 0 0 0 0 -0.788277391993827 0 0
0 0.754158957441831 0.582084604768152 0.107238434051764 0 -0.371018320794557 0 -2.67363869386773 0 0 0 0 0 -0.293070966991759 0 0 0 0 0 0 0 0 0 0 0 0 0 0 0 0 -3.63724759763848 0 0 0 0 0 0 0 0 0 -4.94108679549697 0 0 0 0 0 0 -1.03707301883873 0 0
0 0 0 0 0.26696763554464 0 -0.371018320794557 0 0 0 0 0 0 -0.753624800730986 -7.20053604887525 0 0 0 0 0 0 0 0 0 0 0 0 -5.57417072163421 0 0 -0.531687103306463 0 0 0 0 0 -1.14827809866341 0 0 0 -0.70194935840354 0 0 0 0 0 0 -5.47767445173198 0 0
0 0 0 0 0.245374016748116 0.521359336006098 0 -0.371018320794557 0 0 0 0 0 0 0 0 0 0 0 0 0 0 0 0 0 0 0 0 -0.638149130388367 0 0 -1.94279066611182 0 0 0 0 -1.29773953082405 0 0 0 0 0 0 0 0 0 0 -1.45955949214768 0 0
0 0 0 0 0 0 0 0 -0.371018320794557 0 -2.81914363357521 0 0 0 0 0 0 0 0 0 0 -4.88707523137 0 0 0 0 0 0 0 0 0 -2.03489281231536 0 0 0 0 -8.2608268905904 0 0 0 0 0 0 0 0 0 0 -1.31784375613849 0 -1.44151878284181
0 0.240788227502782 1.05585483079084 0 0 0 0 0 0 -0.371018320794557 0 0 0 0 0 0 -3.43314396534667 0 0 0 0 -1.5121060539468 0 0 -0.142960381333031 0 0 0 0 0 0 0 -1.50020081561366 0 0 0 -1.79575909737706 0 0 0 0 0 0 0 0 0 0 0 0 0
0 0 0 0 0 0 0 0 0.56550529868946 0 -0.371018320794557 0 0 0 0 0 0 0 0 0 0 -2.77033024558878 0 -0.654580346195579 -0.825868623795407 0 0 -0.393688554355729 0 0 0 -6.36433220552747 0 0 0 0 0 0 0 0 0 0 0 0 0 0 0 0 0 0
0.545974927176367 0 0 0 0 0 0 0 0 0 0 -0.371018320794557 0 0 0 0 -0.482383438281931 0 0 0 0 0 0 -1.52910224234017 0 0 0 -1.49966933900772 0 0 0 0 -0.713701762061587 0 0 0 -3.04959958604079 0 0 0 0 0 0 0 0 0 0 0 0 0
0 0 0.0419679375696373 0.0446182435626501 0 0 0 0 0 0 0 0 -0.371018320794557 0 0 0 -0.447288165426452 0 0 0 0 0 -1.13041807694299 -0.156364334066606 0 0 0 -1.2319276199696 -0.194986263957013 0 0 -1.55100487180072 0 0 0 0 -0.671481245751829 0 0 0 0 0 0 0 0 0 0 0 0 0
0 0 0 0 0.0611750264789543 0.0602297318249831 0.138224244169474 0 0 0 0 0 0 -0.371018320794557 0 0 0 0 0 0 0 0 0 0 0 0 0 -1.19305775880186 0 0 0 -1.33893466320073 0 0 0 0 -1.53379342408726 0 0 0 0 0 0 0 0 0 0 0 0 0
0 0 0 0 0 0 1.48236708210456 0 0 0 0 0 0 0 -0.371018320794557 0 0 0 0 0 0 0 0 0 0 0 0 -1.47045670663995 0 0 0 0 0 0 0 0 -2.30882692144254 0 0 -5.27715387106836 0 0 0 0 0 0 0 0 -0.427830391420126 0
0 0 0 0 0 0 0 0 0 0 0 0 0 0 0 -0.371018320794557 0 0 0 0 0 0 0 0 0 0 0 0 0 0 0 0 0 0 0 0 0 0 0 -2.09793295834354 0 0 0 0 0 -2.39719754028791 0 0 0 0
0 0 0 0 0 0 0 0 0 0.699595221430638 0 0.0955518388252548 0.0903793290748366 0 0 0 -0.371018320794557 0 0 0 0 0 0 0 0 0 0 0 0 0 0 0 0 0 0 0 0 0 0 0 0 0 -1.0544795177012 0 -2.08720862403975 -1.41776130019403 0 0 -0.593563684730323 0
0 0 0 0.334199437804036 0 0 0 0 0 0 0 0 0 0 0 0 0 -0.371018320794557 0 0 0 0 0 0 0 0 0 0 0 0 0 0 0 0 0 0 0 0 0 0 0 0 -1.02586727956618 0 0 -0.207858964781484 0 0 0 0
0 0 0 0 0 0 0 0 0 0 0 0 0 0 0 0 0 0 -0.371018320794557 0 0 0 0 0 0 0 0 0 0 0 0 0 0 0 0 0 0 0 0 -1.23546307968309 0 0 -0.942707705978767 0 -2.82385517493909 0 0 0 0 0
0 0 0 0 0 0 0 0 0 0 0 0 0 0 0 0 0 0 0 -0.371018320794557 0 0 0 0 0 0 0 0 0 0 0 0 0 0 0 0 0 0 0 0 0 0 -0.288931589159532 0 0 -1.74659650661656 0 0 -0.272411445286576 0
0 0 0 0 0 0 0 0 0 0 0 0 0 0 0 0 0 0 0 0 -0.371018320794557 0 0 0 0 0 0 0 0 0 0 0 0 0 -5.41893916856774 0 0 0 0 0 0 0 -5.4833704268264 0 0 -0.495945643689163 0 0 -4.74831701387277 0
0 0 0 0 0 0 0 0 0.939737728287526 0.296275646730135 0.557929809674152 0 0 0 0 0 0 0 0 0 0 -0.371018320794557 0 0 0 0 0 0 0 0 0 0 0 0 -0.685333868035517 0 0 0 0 0 0 0 -0.151207449058038 0 0 -6.67308747684775 0 0 -2.38641726299246 0
0 0 0 0 0 0 0 0 0 0 0 0 0.209222029841209 0 0 0 0 0 0 0 0 0 -0.371018320794557 0 0 0 0 0 0 0 0 0 0 0 0 0 0 0 0 0 0 0 -1.45249051318886 0 0 -1.22424352191209 0 0 -4.34027365081646 0
0 0 0 0 0 0 0 0 0 0 0.132656002792548 0.308230874599252 0.0302871152892083 0 0 0 0 0 0 0 0 0 0 -0.371018320794557 0 0 0 0 0 0 0 0 0 0 0 0 0 0 0 0 0 0 0 0 0 -1.40586996293818 0 0 -2.33575346555546 0
0 0 0 0 0 0 0 0 0 0.0293673063691041 0.16151580075909 0 0 0 0 0 0 0 0 0 0 0 0 0 -0.371018320794557 0 0 0 0 0 0 0 0 -0.166904216453184 0 0 0 0 0 0 0 0 0 0 0 -2.54487889489627 0 0 -0.770285241566073 0
0 0 0 0 0 0 0 0 0 0 0 0 0 0 0 0 0 0 0 0 0 0 0 0 0 -0.371018320794557 0 0 0 -0.595104229208925 0 0 0 0 0 0 0 0 0 0 0 0 0 0 -0.383257306299701 0 0 0 -0.988616247683066 0
0 0 0 0.182760886357239 0 0 0 0 0 0 0 0 0 0 0 0 0 0 0 0 0 0 0 0 0 0 -0.371018320794557 0 0 -4.94841220754343 0 0 0 0 0 0 0 0 0 0 0 0 0 0 -2.44639664331889 0 0 0 -3.54249936401495 0
0 0 0 0 0 0 1.08469586629389 0 0 0 0.0797343859559273 0.294013644630254 0.231242225316631 0.22042115385947 0.274575148800806 0 0 0 0 0 0 0 0 0 0 0 0 -0.371018320794557 0 -1.0507444352034 0 0 0 0 0 0 0 0 0 0 0 0 0 0 -0.1839065664509 0 0 0 -3.30628105927498 0
0 0 0 0 0 0 0 0.116199588444193 0 0 0 0 0.0390447339257717 0 0 0 0 0 0 0 0 0 0 0 0 0 0 0 -0.371018320794557 -2.26475793103897 0 0 0 0 0 0 0 0 0 0 0 0 0 0 0 0 0 0 0 0
0 0 0 0 0 0 0 0 0 0 0 0 0 0 0 0 0 0 0 0 0 0 0 0 0 0.116154645262901 1.09152115257507 0.238713539325834 0.442560383647522 -0.371018320794557 0 0 0 -0.559945952767783 0 -0.0578946738841086 0 0 0 0 0 0 0 0 0 0 0 0 -0.654988913809208 0
0 0 0 0.120774428267852 0 0.749340549269201 0.100904981312076 0 0 0 0 0 0 0 0 0 0 0 0 0 0 0 0 0 0 0 0 0 0 0 -0.371018320794557 0 0 0 0 0 0 0 0 0 0 0 0 0 0 0 0 0 -0.522717687666226 0
0 0 0 0 0 0 0 0.398013217432107 0.389612807624696 0 1.29025640262368 0 0.299985280068923 0.247753561577562 0 0 0 0 0 0 0 0 0 0 0 0 0 0 0 0 0 -0.371018320794557 0 0 0 0 0 0 0 0 0 0 0 0 0 0 0 0 -2.37073028837006 0
0 0 0 0 0 0 0 0 0 0.306156012135734 0 0.133800517333041 0 0 0 0 0 0 0 0 0 0 0 0 0 0 0 0 0 0 0 0 -0.371018320794557 -0.954691097404626 0 0 0 0 0 0 0 0 0 0 0 0 0 0 -0.158008956362279 0
0 0 0 0 0 0 0 0 0 0 0 0 0 0 0 0 0 0 0 0 0 0 0 0 0.0326916828091017 0 0 0 0 0.117462105986222 0 0 0.195451511571315 -0.371018320794557 0.265606277775132 0 0 0 0.0978867366398309 0 0 0.690472169491774 0.0552568407277357 0.167998557134727 0 0 0.0511477421974871 0.219529069262344 -0.169754450366709 0
0 0 0 0 0 0 0 0 0 0 0 0 0 0 0 0 0 0 0 0 1.0947066134626 0.144044970642278 0 0 0 0 0 0 0 0 0 0 0 -1.33882940222927 -0.371018320794557 0 0 0 0 0 0 0 0 0 0 0 0 0 -1.00380834682623 0
0 0 0 0 0 0 0 0 0 0 0 0 0 0 0 0 0 0 0 0 0 0 0 0 0 0 0 0 0 0.011138465199621 0 0 0 0 0 -0.371018320794557 0 0 0 0 0 0 0 0 0 0 0 0 -1.1097537551777 0
0 0 0 0.13118349469763 0.506187776587168 0 0.229018243950622 0.260807733493499 1.64757211494291 0.335577996845548 0 0.582714737119322 0.139848448053729 0.287420100662267 0.471910619507646 0 0 0 0 0 0 0 0 0 0 0 0 0 0 0 0 0 0 0 0 0 -0.371018320794557 0 0 0 0 0 0 0 0 0 0 0 -1.25031975719679 0
0 0 0 0 0 0 0 0 0 0 0 0 0 0 0 0 0 0 0 0 0 0 0 0 0 0 0 0 0 0 0 0 0 0 0 0 0 -0.371018320794557 0 0 0 0 0 0 0 0 0 0 -1.2947136972163 0
0 0 0 0 0 0 0 0 0 0 0 0 0 0 0 0 0 0 0 0 0 0 0 0 0 0 0 0 0 0 0 0 0 -0.453171767968266 0 0 0 0 -0.371018320794557 0 0 0 0 0 0 0 0 0 -0.946995812787265 0
0 0 0 0 0 0 0 0 0 0 0 0 0 0 1.03556246675838 0.449112339367706 0 0 0.238525261063003 0 0 0 0 0 0 0 0 0 0 0 0 0 0 0 0 0 0 0 0 -0.371018320794557 0 0 0 0 0 0 0 0 -3.442224803 0
0 0.0952925689196661 0.988413299115668 0.0629279068745936 0.213089708446217 0.930210022530898 0.130281322576117 0 0 0 0 0 0 0 0 0 0 0 0 0 0 0 0 0 0 0 0 0 0 0 0 0 0 0 0 0 0 0 0 0 -0.371018320794557 0 0 0 0 0 0 0 -1.85174299982175 0
0 0 0 0 0 0 0 0 0 0 0 0 0 0 0 0 0 0 0 0 0 0 0 0 0 0 0 0 0 0 0 0 0 -3.47254199405414 0 0 0 0 0 0 0 -0.371018320794557 0 0 0 0 0 0 0 0
0 0 0 0 0 0 0 0 0 0 0 0 0 0 0 0 0.19472337578079 0.183946154758314 0.188590231224384 0.0617710355675812 1.04262130156548 0.0301335080345074 0.327313756779477 0 0 0 0 0 0 0 0 0 0 -0.28743120860705 0 0 0 0 0 0 0 0 -0.371018320794557 0 0 0 0 0 0 0
0 0 0 0 0 0 0 0 0 0 0 0 0 0 0 0 0 0 0 0 0 0 0 0 0 0 0 0 0 0 0 0 0 -0.831410192362051 0 0 0 0 0 0 0 0 0 -0.371018320794557 0 0 0 0 0 0
0 0 0 0 0 0 0 0 0 0 0 0 0 0 0 0 0.429802943215537 0 0.576516544261325 0 0 0 0 0 0 0.0676799370020958 0.483283385096552 0.0394674513163027 0 0 0 0 0 0 0 0 0 0 0 0 0 0 0 0 -0.371018320794557 0 0 0 0 0
0 0 0 0 0 0 0 0 0 0 0 0 0 0 0 0.49693156052865 0.297185510866156 0.0396504821555774 0 0.343997832853285 0.09593451503812 1.34203056296237 0.239587591724808 0.268099516800694 0.511364266719932 0 0 0 0 0 0 0 0 0 0 0 0 0 0 0 0 0 0 0 0 -0.371018320794557 0 0 0 0
0 0 0 0 0 0 0 0 0 0 0 0 0 0 0 0 0 0 0 0 0 0 0 0 0 0 0 0 0 0 0 0 0 -0.263577236647526 0 0 0 0 0 0 0 0 0 0 0 0 -0.371018320794557 0 0 0
0 0 0 0 0.163344344185383 0.210137269834779 1.09025013819259 0.304168417292697 0.279007852059823 0 0 0 0 0 0 0 0 0 0 0 0 0 0 0 0 0 0 0 0 0 0 0 0 -1.12867237135421 0 0 0 0 0 0 0 0 0 0 0 0 0 -0.371018320794557 0 0
0 0 0 0 0 0 0 0 0 0 0 0 0 0 0.0897719712390955 0 0.113550899616447 0 0 0.0514398329108177 0.82495664220311 0.440887324703332 0.82044833608464 0.448112313721999 0.150637217556113 0.195899966807124 0.718319213969488 0.634941557397825 0 0.129107417462418 0.106710556967004 0.485771766827584 0.0313933567718117 0.0353006511213997 0.187588640886884 0.210341421220728 0.258010800334276 0.25705929273362 0.195812319223183 0.640471265002566 0.367953754975966 0 0 0 0 0 0 0 -0.371018320794557 0
0 0 0 0 0 0 0 0 0.276607758400744 0 0 0 0 0 0 0 0 0 0 0 0 0 0 0 0 0 0 0 0 0 0 0 0 0 0 0 0 0 0 0 0 0 0 0 0 0 0 0 0 -0.371018320794557
