0.229633520245778
0.385981387959643
0.732954451820495
0.21025588628668
1.54850372023044
0.408814628088577
0.716564249489531
0.881328830780292
1.22229058875657
0.448949125936737
1.43295315860951
2.63639933842522
1.33349676147873
0.42117440686169
6.28008941609785
1.45513120334178
3.34313448923901
1.72339928307282
0.504755091200672
1.90050311023416
0.465409141852124
0.168008741278061
1.32435472876459
0.785838720257348
0.4267101180582
0.272347846345082
1.51331990956606
0.178661342548894
1.44347828584302
0.746361384001694
0.194713055685357
0.396994365800494
2.02214373772502
0.820484964596484
0.322621533020543
2.68464366468224
1.65191382866016
0.105459525218878
1.47760658622044
0.596980908174673
6.91936945290055
0.0926168099752016
2.85330007930223
0.977820232661759
2.5015831587372
1.6989849758074
0.533050945535375
6.54594769869507
0.567608866846506
6.47301949620495
