-0.139906325214091 0 0 -2.5244057755366 0 0 0 0 0 0 0 0 0 0 0 0 0 0 0 0 0 0 0 0 0 0 0 0 0 0 0 0 0 0 0 0 0 0 0 0 0 0 0 0 0 0 0 0 0 0
0 -0.139906325214091 0 0 0 0 0 0 -1.2957526284172 0 0 0 0 0 0 0 0 0 0 0 0 0 0 0 0 0 0 0 0 0 0 0 0 0 0 0 0 0 0 0 0 0 0 0 0 0 0 0 -0.441428639700722 0
0 0 -0.139906325214091 0 0 0 0 0 0 0 0 0 0 0 0 0 0 -0.615069873532293 0 0 -0.824525791492989 0 0 0 0 0 0 0 0 0 0 0 0 0 0 0 0 0 0 0 0 0 0 0 0 -1.21110784981827 0 0 0 0
0.514580515667403 0 0 -0.139906325214091 0 -1.67716004112763 -2.0352589965912 0 0 -0.661709812204672 0 0 0 0 0 0 0 0 0 0 -1.0035914403108 0 0 0 0 0 0 0 0 0 0 0 0 0 0 0 0 0 0 0 0 0 0 0 0 0 -1.81486871053591 0 -0.326006297626139 0
0 0 0 0 -0.139906325214091 0 0 0 0 0 0 0 0 -0.604847153622829 0 0 0 0 0 0 -0.363000139540974 0 0 -2.12240594911028 0 0 0 -0.480137666727883 0 0 0 0 0 0 -0.116646791777949 0 -4.19572218943137 0 0 0 0 0 0 0 0 -0.880887432901408 0 0 0 0
0 0 0 0.353160957458612 0 -0.139906325214091 0 0 0 0 0 0 0 -0.723012467495873 0 0 0 0 0 0 -0.528166906021173 0 0 -4.52165523608739 0 0 0 0 0 0 0 0 0 0 -0.314750443495881 0 -0.803356381601219 0 0 0 0 0 0 0 0 -0.263052682365379 -1.97837076014507 0 -0.053141267134764 0
0 0 0 0.417041675766857 0 0 -0.139906325214091 0 0 0 0 0 0 -0.211767822732545 0 0 0 0 0 0 -0.378025738984289 0 -4.18543977744749 -0.727884867070716 0 0 0 0 0 0 0 0 0 0 0 0 0 0 0 0 0 0 0 0 0 -2.07043703643291 -0.562444957687403 0 -0.552521990330584 0
0 0 0 0 0 0 0 -0.139906325214091 0 0 0 0 0 -0.911441392490627 0 0 0 0 0 0 0 0 -0.611725650982892 -0.922352108828194 0 0 0 -0.49545325389367 0 0 0 0 0 0 0 0 0 0 0 0 0 0 0 0 0 0 0 0 -0.515235298104851 0
0 0.22973830787812 0 0 0 0 0 0 -0.139906325214091 0 0 0 0 -0.574363214510748 0 0 0 0 0 0 -5.76446570831587 0 -0.246706876788733 -0.474172731058208 0 0 0 -1.3522690626739 0 0 0 0 0 0 0 0 0 0 0 0 0 0 0 0 0 -9.35558144922484 -1.91728079889008 0 -0.32783730843752 0
0 0 0 0.125641754556997 0 0 0 0 0 -0.139906325214091 0 0 0 0 0 0 0 0 0 0 -0.288814262541752 0 -2.40510549936597 0 0 0 0 0 0 0 0 0 0 0 0 0 0 -1.67316217954579 0 0 0 0 0 0 0 -1.23059827863076 -1.10745660867394 0 -3.65577013760689 0
0 0 0 0 0 0 0 0 0 0 -0.139906325214091 0 0 0 0 0 0 0 0 0 0 0 -0.578018352606683 -0.432455034436683 0 0 0 0 0 0 -1.08376157669914 0 0 0 0 0 0 -4.74816671684051 0 0 0 0 0 0 0 -0.515695235390591 0 0 0 0
0 0 0 0 0 0 0 0 0 0 0 -0.139906325214091 0 0 0 0 0 0 0 0 -0.392475228919724 -0.691045292754898 -0.358956590038864 -1.12851114414518 0 0 0 0 0 0 -0.254707808345594 0 0 0 0 0 0 0 0 0 0 0 0 0 0 0 -1.11114993891438 0 0 0
0 0 0 0 0 0 0 0 0 0 0 0 -0.139906325214091 0 0 0 0 0 0 0 -0.238912614306728 -0.508981077196595 0 -0.706636050974843 0 0 0 0 0 0 -2.00685714216019 0 0 0 0 0 0 -0.488087738655947 0 0 0 0 0 0 0 0 0 0 0 0
0 0 0 0 0.123662125790293 0.135475850461907 0.0438803838943249 0.172338174772336 0.105795080411408 0 0 0 0 -0.139906325214091 0 0 0 0 0 0 0 -1.12078937159098 -1.13538857571514 0 0 0 0 0 0 -1.53845958553363 -0.317475708611671 0 0 0 0 0 0 0 0 0 0 0 0 0 0 0 -3.64632153206544 0 0 0
0 0 0 0 0 0 0 0 0 0 0 0 0 0 -0.139906325214091 0 0 0 0 -1.08315380592924 0 -0.308509447726455 0 0 0 0 0 0 0 -0.218650977935971 -0.895801709997906 0 0 0 0 0 0 -0.737711588895308 0 0 0 0 0 0 0 0 -1.78080775088555 0 0 0
0 0 0 0 0 0 0 0 0 0 0 0 0 0 0 -0.139906325214091 0 0 0 0 0 0 0 0 0 -1.71384723163148 0 0 0 -1.99601043999366 -1.62483825301325 0 0 0 0 0 0 -2.00360051722837 0 0 0 0 0 0 0 0 0 0 0 0
0 0 0 0 0 0 0 0 0 0 0 0 0 0 0 0 -0.139906325214091 0.0292018051214031 0.13613529267509 0 0 0 0 0 0 0 0 0 0 -1.45853575545108 -1.85616834783898 0 -1.58234353548982 0 0 0 0 0 0 0 0 0 0 0 0 0 0 0 0 0
0 0 0.115475551189597 0 0 0 0 0 0 0 0 0 0 0 0 0 -0.148509731752117 -0.139906325214091 0 0 0 0 0 0 0 0 0 0 0 0 -1.50782531550849 0 0 0 0 0 0 0 0 -0.506487622474079 0 0 0 0 0 0 0 0 0 0
0 0 0 0 0 0 0 0 0 0 0 0 0 0 0 0 -0.730761129571905 0 -0.139906325214091 0 0 0 0 0 0 0 0 0 0 0 0 0 0 0 0 0 0 0 0 0 0 0 0 0 0 0 0 0 0 0
0 0 0 0 0 0 0 0 0 0 0 0 0 0 0.251659863385113 0 0 0 0 -0.139906325214091 0 0 0 0 0 0 -0.338606260752811 0 0 -0.213924239231655 0 0 0 0 0 0 0 0 0 -0.719478770233538 -1.28013551190364 0 0 0 -0.686006430980182 0 0 0 0 0
0 0 0.161732750131992 0.188572419601345 0.0721729219712356 0.103460947187582 0.0756020842408345 0 1.18240929208224 0.0559252302459003 0 0.081485927292325 0.0464787698471482 0 0 0 0 0 0 0 -0.139906325214091 0 0 0 0 0 0 0 0 0 0 0 0 0 0 0 0 0 0 -1.59319854170884 -2.91797714620027 0 0 0 -0.867068817607615 0 0 0 0 0
0 0 0 0 0 0 0 0 0 0 0 0.120438734475821 0.104789137850626 0.221483574790305 0.0691453099001225 0 0 0 0 0 0 -0.139906325214091 0 0 0 0 -1.11475950958274 0 0 0 -4.41066794784574 0 0 0 0 0 0 0 0 0 -0.697913730183763 0 0 0 0 0 0 0 0 0
0 0 0 0 0 0 0.865735037945573 0.119581638317894 0.050675468460339 0.482232348625924 0.118238954998366 0.0749014677550571 0 0.236890982829562 0 0 0 0 0 0 0 0 -0.139906325214091 0 0 0 -2.42283710842154 0 0 0 0 0 0 0 0 0 0 0 0 0 -1.81305334933777 0 0 0 -0.787136559301987 0 0 0 0 0
0 0 0 0 0.466748420627392 0.892739400327596 0.151365724407563 0.187021435411048 0.0955133222630311 0 0.0846542996050641 0.250212251185352 0.144738000430617 0 0 0 0 0 0 0 0 0 0 -0.139906325214091 0 0 0 0 -2.09961804586047 0 0 0 0 -0.434931724198672 0 0 0 0 0 0 0 0 0 0 0 0 0 -3.28476184862195 0 0
0 0 0 0 0 0 0 0 0 0 0 0 0 0 0 0 0 0 0 0 0 0 0 0 -0.139906325214091 0 0 0 0 0 0 0 0 -3.06489226537181 0 -2.90639667811551 0 0 0 0 0 -1.13538509386992 0 0 0 0 0 0 0 0
0 0 0 0 0 0 0 0 0 0 0 0 0 0 0 0.318201233048661 0 0 0 0 0 0 0 0 0 -0.139906325214091 0 0 -0.208104091716414 0 0 -1.85899437179605 0 0 0 -0.320588755802998 0 0 0 0 0 -0.220794439682727 0 0 0 0 0 0 0 0
0 0 0 0 0 0 0 0 0 0 0 0 0 0 0 0 0 0 0 0.0693107473167793 0 0.230053398685738 0.53713134930587 0 0 0 -0.139906325214091 0 0 0 0 -0.383833483822516 0 -6.84367389222662 0 -2.04531578480885 0 0 0 0 0 0 0 0 0 0 0 0 0 0
0 0 0 0 0.0944116366560802 0 0 0.11140250753706 0.28112643504815 0 0 0 0 0 0 0 0 0 0 0 0 0 0 0 0 0 0 -0.139906325214091 0 0 0 0 0 -4.73413591870239 0 0 0 0 0 0 0 0 0 0 0 0 0 0 0 0
0 0 0 0 0 0 0 0 0 0 0 0 0 0 0 0 0 0 0 0 0 0 0 0.443971244671649 0 0.0393887711880774 0 0 -0.139906325214091 0 0 0 0 -0.300805494735295 0 0 0 0 0 0 0 0 0 0 0 0 0 0 0 0
0 0 0 0 0 0 0 0 0 0 0 0 0 0.305886601669217 0.0424160112480338 0.380224234827232 0.307871664049256 0 0 0.0471355225145531 0 0 0 0 0 0 0 0 0 -0.139906325214091 0 0 0 -0.539240297784682 0 0 0 0 0 0 0 0 0 0 0 0 0 0 0 0
0 0 0 0 0 0 0 0 0 0 0.209953741396464 0.0501693236790445 0.392915739074826 0.0598800034698715 0.185353322218333 0.313613871116198 0.354666680967652 0.338372836409304 0 0 0 0.808647481095167 0 0 0 0 0 0 0 0 -0.139906325214091 0 0 -0.325593980975694 0 0 0 0 0 0 0 0 0 0 0 0 0 0 0 0
0 0 0 0 0 0 0 0 0 0 0 0 0 0 0 0 0 0 0 0 0 0 0 0 0 0.373674161224861 0.075798026197899 0 0 0 0 -0.139906325214091 0 -0.887437079780201 0 0 0 0 0 0 0 0 0 0 0 0 0 0 0 0
0 0 0 0 0 0 0 0 0 0 0 0 0 0 0 0 0.313201729570269 0 0 0 0 0 0 0 0 0 0 0 0 0 0 0 -0.139906325214091 0 0 0 0 0 0 0 0 0 0 0 0 0 0 0 0 0
0 0 0 0 0 0 0 0 0 0 0 0 0 0 0 0 0 0 0 0 0 0 0 0.0856395497049725 0.595081085070658 0 1.40846586492859 0.979989595183895 0.0628712978422006 0.109668968698479 0.0646523363818965 0.172377255221722 0 -0.139906325214091 0 0 0 0 0 0 0 0 0 0 0 0 0 0 0 0
0 0 0 0 0.0228474020639222 0.0569205157962956 0 0 0 0 0 0 0 0 0 0 0 0 0 0 0 0 0 0 0 0 0 0 0 0 0 0 0 0 -0.139906325214091 0 0 0 0 0 0 0 0 0 0 0 0 0 0 0
0 0 0 0 0 0 0 0 0 0 0 0 0 0 0 0 0 0 0 0 0 0 0 0 0.592882133225572 0.0666955233792837 0.398179246737085 0 0 0 0 0 0 0 0 -0.139906325214091 0 0 0 0 0 0 0 0 0 0 0 0 0 0
0 0 0 0 0.807065649341421 0.162158638495043 0 0 0 0 0 0 0 0 0 0 0 0 0 0 0 0 0 0 0 0 0 0 0 0 0 0 0 0 0 0 -0.139906325214091 0 0 0 0 0 0 -5.79212385696013 0 0 0 0 0 0
0 0 0 0 0 0 0 0 0 0.340660511545239 0.901822268816059 0 0.0991353214256117 0 0.143844296419687 0.419100054070155 0 0 0 0 0 0 0 0 0 0 0 0 0 0 0 0 0 0 0 0 0 -0.139906325214091 0 0 0 0 0 -1.0741865072611 0 0 0 0 0 0
0 0 0 0 0 0 0 0 0 0 0 0 0 0 0 0 0 0 0 0 0 0 0 0 0 0 0 0 0 0 0 0 0 0 0 0 0 0 -0.139906325214091 0 0 0 0 -6.00382991541244 0 0 0 0 0 0
0 0 0 0 0 0 0 0 0 0 0 0 0 0 0 0 0 0.100247451335115 0 0.141045295867796 0.344680193999216 0 0 0 0 0 0 0 0 0 0 0 0 0 0 0 0 0 0 -0.139906325214091 0 0 0 -0.295043563278231 0 0 0 0 0 0
0 0 0 0 0 0 0 0 0 0 0 0 0 0 0 0 0 0 0 0.255484351520081 0.557756292183928 0.136478446050169 0.334163521703096 0 0 0 0 0 0 0 0 0 0 0 0 0 0 0 0 0 -0.139906325214091 0 0 -0.298917678801352 0 0 0 0 0 -1.24620152388688
0 0 0 0 0 0 0 0 0 0 0 0 0 0 0 0 0 0 0 0 0 0 0 0 0.22609870289823 0.0456566114814695 0 0 0 0 0 0 0 0 0 0 0 0 0 0 0 -0.139906325214091 0 0 0 0 0 0 0 -1.3605601299486
0 0 0 0 0 0 0 0 0 0 0 0 0 0 0 0 0 0 0 0 0 0 0 0 0 0 0 0 0 0 0 0 0 0 0 0 0 0 0 0 0 0 -0.139906325214091 0 0 0 0 0 0 -1.01048255154335
0 0 0 0 0 0 0 0 0 0 0 0 0 0 0 0 0 0 0 0 0 0 0 0 0 0 0 0 0 0 0 0 0 0 0 0 1.24698442142308 0.216058007035695 1.28106394107277 0.0606308894192206 0.0556710775615028 0 0 -0.139906325214091 0.0917368867483851 0 0 0 0 0
0 0 0 0 0 0 0 0 0 0 0 0 0 0 0 0 0 0 0 0.121711847693532 0.179647891236196 0 0.171576375776251 0 0 0 0 0 0 0 0 0 0 0 0 0 0 0 0 0 0 0 0 -0.468697100798162 -0.139906325214091 0 0 0 0 0
0 0 0.24571763354152 0 0.185605229430146 0.0485199805680365 0.379328714211271 0 1.84024465698093 0.23215046693725 0.0977765546187675 0 0 0 0 0 0 0 0 0 0 0 0 0 0 0 0 0 0 0 0 0 0 0 0 0 0 0 0 0 0 0 0 0 0 -0.139906325214091 0 0 0 -0.784742605741029
0 0 0 0.321832009860971 0 0.420837303017646 0.114452019408153 0 0.403726082613508 0.223539187468045 0 0.201690392750956 0 0.72869769890494 0.381721617155441 0 0 0 0 0 0 0 0 0 0 0 0 0 0 0 0 0 0 0 0 0 0 0 0 0 0 0 0 0 0 0 -0.139906325214091 0 0 -0.377409658126206
0 0 0 0 0 0 0 0 0 0 0 0 0 0 0 0 0 0 0 0 0 0 0 0.670300862278675 0 0 0 0 0 0 0 0 0 0 0 0 0 0 0 0 0 0 0 0 0 0 0 -0.139906325214091 0 -4.02184599591586
0 0.0896686007172922 0 0.0649409832061314 0 0.010430085179031 0.110606284746231 0.103056418535261 0.0637845034035282 0.767419164803959 0 0 0 0 0 0 0 0 0 0 0 0 0 0 0 0 0 0 0 0 0 0 0 0 0 0 0 0 0 0 0 0 0 0 0 0 0 0 -0.139906325214091 0
0 0 0 0 0 0 0 0 0 0 0 0 0 0 0 0 0 0 0 0 0 0 0 0 0 0 0 0 0 0 0 0 0 0 0 0 0 0 0 0 0.232599763241753 0.279243189783359 0.194089384465759 0 0 0.164724777011408 0.0748134234078758 0.808127460146495 0 -0.139906325214091
