-0.143819081078445 0 0 0 0 0 0 0 0 0 0 0 0 0 0 0 0 0 0 -5.03481850150929 0 0 0 0 0 0 0 0 0 0 0 0 0 0 0 0 0 0 0 0 0 0 0 0 0 0 0 0 0 0
0 -0.143819081078445 0 0 0 0 0 0 0 0 0 0 0 0 0 0 0 0 0 -1.15444990402849 0 0 0 0 0 0 0 0 -0.271250915520126 0 0 0 0 0 0 0 0 0 0 0 0 0 0 0 0 0 0 0 0 0
0 0 -0.143819081078445 0 0 0 -0.884638899901907 0 0 0 0 0 0 0 0 0 0 -0.403450683189813 -11.16329635815 -0.858770816027769 0 -4.34312717664602 0 0 0 0 0 0 0 0 0 0 0 0 0 0 0 0 0 0 0 0 0 0 0 0 0 0 0 0
0 0 0 -0.143819081078445 0 0 0 0 0 0 0 0 0 0 0 0 0 0 0 0 0 -2.92992289866441 0 0 0 0 0 0 0 0 0 0 0 0 0 0 0 0 0 0 0 0 0 0 0 0 0 0 0 0
0 0 0 0 -0.143819081078445 0 0 0 0 0 0 0 0 0 0 0 0 -0.246539796158809 0 0 0 -5.891860751061 0 0 0 0 0 0 0 0 0 0 0 0 0 0 0 0 0 0 0 0 0 0 0 0 0 0 0 -0.170582188164723
0 0 0 0 0 -0.143819081078445 0 0 0 0 0 0 0 0 0 0 0 -0.299067661236946 0 -1.26914626692384 0 0 0 -3.87260661262755 0 0 0 0 0 0 0 0 0 0 0 0 0 0 0 0 0 0 0 0 0 0 0 0 0 -0.755146473283208
0 0 0.15375904117547 0 0 0 -0.143819081078445 0 0 0 0 0 0 0 0 0 0 -0.759679690256705 0 0 0 -0.663561543688045 0 -0.375507578146975 0 0 0 0 0 0 0 0 0 0 0 0 0 0 0 0 0 0 0 0 0 0 0 0 0 0
0 0 0 0 0 0 0 -0.143819081078445 0 0 -1.28867090654455 0 0 -1.05486783926053 0 0 0 0 0 -0.293031829882218 0 -0.958629839528594 0 0 0 0 0 0 0 0 0 0 0 0 0 0 0 0 0 0 0 0 0 0 0 0 0 0 0 0
0 0 0 0 0 0 0 0 -0.143819081078445 0 0 0 0 0 0 0 0 0 0 0 0 0 0 0 -6.00357528040762 0 0 0 0 0 0 0 0 0 0 0 0 0 0 0 -4.37204096420532 0 0 0 0 0 0 0 0 0
0 0 0 0 0 0 0 0 0 -0.143819081078445 0 -0.52241285295827 0 0 0 0 0 0 0 0 0 0 0 0 0 0 0 0 0 0 0 0 0 -1.69959650019753 0 0 0 0 0 0 0 0 0 0 0 0 0 0 0 0
0 0 0 0 0 0 0 0.266707635019704 0 0 -0.143819081078445 0 -2.65446297640257 0 0 0 -0.861178465560406 0 0 0 0 0 -0.291904466107688 0 0 0 -0.768614198350144 0 0 0 0 0 0 -0.980917461348234 0 0 0 0 0 -0.538147197195191 0 0 0 -0.71589784374751 0 0 -1.42858344599834 0 0 0
0 0 0 0 0 0 0 0 0 0.113444035475389 0 -0.143819081078445 0 0 0 0 0 0 0 0 0 0 0 0 0 0 -0.409455070225978 0 0 0 0 0 0 -3.04704414588266 0 0 0 0 0 0 0 0 0 0 0 0 0 0 0 0
0 0 0 0 0 0 0 0 0 0 0.581267725466964 0 -0.143819081078445 0 0 0 0 0 0 0 0 0 0 0 0 0 -1.89500810898034 0 0 0 0 0 0 0 0 0 0 0 0 0 0 0 0 -0.317786143657888 0 0 -0.526889030363779 0 0 0
0 0 0 0 0 0 0 0.213056581013069 0 0 0 0 0 -0.143819081078445 0 0 0 0 0 0 0 0 0 0 0 0 0 0 0 0 0 0 0 0 0 0 0 0 0 -0.274287638047585 0 0 0 -3.02569183399547 0 0 -0.879557682719265 0 0 0
0 0 0 0 0 0 0 0 0 0 0 0 0 0 -0.143819081078445 0 0 0 0 0 0 0 0 0 0 0 -1.8583678247385 0 0 0 0 0 0 0 0 0 0 0 -6.41839538569881 -2.36156713106595 0 0 0 -0.429963932012981 0 0 0 0 0 0
0 0 0 0 0 0 0 0 0 0 0 0 0 0 0 -0.143819081078445 0 0 0 0 0 0 0 0 0 0 0 -4.76488017663757 0 0 0 0 0 0 0 0 0 0 -0.98370162929501 -2.9509501323649 0 0 0 -0.374547980432654 0 0 0 -0.242978614807517 0 0
0 0 0 0 0 0 0 0 0 0 0.170628714682655 0 0 0 0 0 -0.143819081078445 0 0 0 0 0 0 0 0 0 0 0 0 0 0 0 0 0 0 0 0 0 0 -0.588138753271452 0 0 0 -4.07382158655769 0 0 -0.663327875322115 -0.970697155802448 0 0
0 0 0.0779362350812645 0 0.0496161604412173 0.0557944995459322 0.159066670119155 0 0 0 0 0 0 0 0 0 0 -0.143819081078445 0 0 0 0 0 0 0 0 0 0 0 -2.19942994216995 -0.829811369163127 0 0 0 0 0 0 -0.687123695038979 0 0 0 0 0 0 0 0 -0.105148403816602 0 -4.20489713747609 0
0 0 2.20988884028842 0 0 0 0 0 0 0 0 0 0 0 0 0 0 0 -0.143819081078445 0 0 0 0 0 0 0 0 0 0 0 0 0 0 0 0 0 0 -0.339520466288001 0 0 0 0 0 0 0 0 0 0 -1.04556139163741 0
0.97953584153682 0.224774729371252 0.164571523370534 0 0 0.241026839035588 0 0.055379702540662 0 0 0 0 0 0 0 0 0 0 0 -0.143819081078445 0 0 0 0 0 0 0 0 0 0 -2.39738024070618 0 0 0 0 0 0 -4.24997214873199 0 0 0 0 0 0 0 0 -0.487244683976074 -0.386441827830294 -0.487263096673324 0
0 0 0 0 0 0 0 0 0 0 0 0 0 0 0 0 0 0 0 0 -0.143819081078445 0 0 0 0 0 0 0 0 0 -5.68349201223114 0 0 0 0 0 0 0 0 0 0 0 0 0 0 0 0 -3.60659042396725 0 0
0 0 0.806395465914905 0.586666633175729 1.14925820765894 0 0.132488213008668 0.170136993234961 0 0 0 0 0 0 0 0 0 0 0 0 0 -0.143819081078445 0 0 0 0 0 0 0 -1.94957663656418 0 0 0 0 0 0 0 0 0 0 0 0 0 0 0 0 0 -0.389264406963553 -0.417705438162252 0
0 0 0 0 0 0 0 0 0 0 0.0607083038318675 0 0 0 0 0 0 0 0 0 0 0 -0.143819081078445 0 0 0 0 0 0 0 0 0 0 0 0 0 0 0 0 0 0 0 0 0 -2.01397149082402 0 0 -7.71629875086661 0 0
0 0 0 0 0 0.848430576751401 0.075615966166529 0 0 0 0 0 0 0 0 0 0 0 0 0 0 0 0 -0.143819081078445 0 0 0 0 0 0 0 0 0 0 0 0 0 0 0 0 0 0 0 0 -0.719544888230442 0 0 0 0 0
0 0 0 0 0 0 0 0 1.23329853158755 0 0 0 0 0 0 0 0 0 0 0 0 0 0 0 -0.143819081078445 0 0 0 0 -0.708960742942351 0 0 0 0 0 0 0 0 0 0 0 0 0 0 -1.08918432271595 0 0 -0.159959099157139 0 0
0 0 0 0 0 0 0 0 0 0 0 0 0 0 0 0 0 0 0 0 0 0 0 0 0 -0.143819081078445 0 0 0 -0.70601768271757 0 0 0 0 -1.95237681357766 0 0 0 0 0 0 0 0 0 -0.11640738658533 0 0 -0.412957948311128 0 0
0 0 0 0 0 0 0 0 0 0 0.164824215447847 0.0857773532916977 0.373785229444791 0 0.418632428609742 0 0 0 0 0 0 0 0 0 0 0 -0.143819081078445 0 0 0 0 0 0 0 0 0 0 0 0 0 0 0 0 0 0 0 0 -1.94621118129198 0 0
0 0 0 0 0 0 0 0 0 0 0 0 0 0 0 0.984106294198575 0 0 0 0 0 0 0 0 0 0 0 -0.143819081078445 0 -0.167470191746201 0 0 0 0 0 0 -2.14755408395326 0 0 0 0 0 0 0 -3.95279985036324 0 0 -1.2628447646103 0 0
0 0.0559862680245821 0 0 0 0 0 0 0 0 0 0 0 0 0 0 0 0 0 0 0 0 0 0 0 0 0 0 -0.143819081078445 -2.98882806016502 0 0 0 0 0 0 -0.379207380970837 0 0 0 0 0 0 0 0 0 0 -0.675240464423646 0 0
0 0 0 0 0 0 0 0 0 0 0 0 0 0 0 0 0 0.477921149312806 0 0 0 0.3970140354497 0 0 0.136683140950046 0.141217464026371 0 0.0331952071874175 0.594343469734414 -0.143819081078445 0 0 0 0 0 0 0 0 0 0 0 0 0 0 0 0 0 0 0 0
0 0 0 0 0 0 0 0 0 0 0 0 0 0 0 0 0 0.174337250576844 0 0.46045514266795 1.10813897055867 0 0 0 0 0 0 0 0 0 -0.143819081078445 0 0 0 0 0 0 0 0 0 0 0 0 0 -0.945638701663092 0 0 -2.91681538686417 0 0
0 0 0 0 0 0 0 0 0 0 0 0 0 0 0 0 0 0 0 0 0 0 0 0 0 0 0 0 0 0 0 -0.143819081078445 0 0 0 0 -2.03888534131953 0 0 0 0 0 0 0 -1.18069979978163 0 0 0 0 0
0 0 0 0 0 0 0 0 0 0 0 0 0 0 0 0 0 0 0 0 0 0 0 0 0 0 0 0 0 0 0 0 -0.143819081078445 0 0 0 -0.235167313671596 0 0 0 0 0 0 0 -0.445212302011327 0 0 0 0 0
0 0 0 0 0 0 0 0 0 0.352004883985848 0.190539318456348 0.628859104871663 0 0 0 0 0 0 0 0 0 0 0 0 0 0 0 0 0 0 0 0 0 -0.143819081078445 0 0 0 0 0 0 0 0 0 0 -0.65881640038584 0 0 -2.01995406343456 0 0
0 0 0 0 0 0 0 0 0 0 0 0 0 0 0 0 0 0 0 0 0 0 0 0 0 0.412926945322316 0 0 0 0 0 0 0 0 -0.143819081078445 0 0 0 0 0 0 0 0 0 -0.599159451382407 0 0 0 0 0
0 0 0 0 0 0 0 0 0 0 0 0 0 0 0 0 0 0 0 0 0 0 0 0 0 0 0 0 0 0 0 0 0 0 0 -0.143819081078445 0 0 0 0 0 0 0 0 -1.43642757070859 0 0 0 0 0
0 0 0 0 0 0 0 0 0 0 0 0 0 0 0 0 0 0 0 0 0 0 0 0 0 0 0 0.485147707115346 0.0820419790265564 0 0 0.410526851299726 0.0477839066785092 0 0 0 -0.143819081078445 0 0 0 0 0 0 0 -0.33412305610996 0 0 -1.02029586324498 0 0
0 0 0 0 0 0 0 0 0 0 0 0 0 0 0 0 0 0.13675937972283 0.0662536300858027 0.828005385785349 0 0 0 0 0 0 0 0 0 0 0 0 0 0 0 0 0 -0.143819081078445 0 0 0 0 0 0 0 0 0 0 0 0
0 0 0 0 0 0 0 0 0 0 0 0 0 0 1.26786688858418 0.186939071552673 0 0 0 0 0 0 0 0 0 0 0 0 0 0 0 0 0 0 0 0 0 0 -0.143819081078445 0 0 0 0 0 0 0 0 -1.04394948725114 0 0
0 0 0 0 0 0 0 0 0 0 0.10817394135673 0 0 0.058113021147093 0.475807599649019 0.588640183974588 0.121489793492489 0 0 0 0 0 0 0 0 0 0 0 0 0 0 0 0 0 0 0 0 0 0 -0.143819081078445 0 0 0 0 -0.266322101425826 0 0 0 0 0
0 0 0 0 0 0 0 0 0.922231749360364 0 0 0 0 0 0 0 0 0 0 0 0 0 0 0 0 0 0 0 0 0 0 0 0 0 0 0 0 0 0 0 -0.143819081078445 0 0 0 -0.386721906691233 0 0 -0.870073594940548 0 0
0 0 0 0 0 0 0 0 0 0 0 0 0 0 0 0 0 0 0 0 0 0 0 0 0 0 0 0 0 0 0 0 0 0 0 0 0 0 0 0 0 -0.143819081078445 -1.64480777744588 0 0 0 0 0 0 0
0 0 0 0 0 0 0 0 0 0 0 0 0 0 0 0 0 0 0 0 0 0 0 0 0 0 0 0 0 0 0 0 0 0 0 0 0 0 0 0 0 0.329913601441367 -0.143819081078445 0 -0.952674615431401 0 0 -0.338717538111668 0 0
0 0 0 0 0 0 0 0 0 0 0.134832760668822 0 0.066766705881102 0.560353840746072 0.0914602662628433 0.0711532587933896 0.815633192663742 0 0 0 0 0 0 0 0 0 0 0 0 0 0 0 0 0 0 0 0 0 0 0 0 0 0 -0.143819081078445 0 0 0 -0.282476458157006 0 0
0 0 0 0 0 0 0 0 0 0 0 0 0 0 0 0 0 0 0 0 0 0 0.375613411789725 0.154937343171487 0.230395563829426 0.0222733999880851 0 0.765257415157393 0 0 0.180957449086064 0.253698370361596 0.083368546082521 0.136593182210445 0.126249015295572 0.306637772864313 0.0615127240634517 0 0 0.0550342453690625 0.0781889537045673 0 0.18717517616407 0 -0.143819081078445 0 0 -0.611452867486366 0 0
0 0 0 0 0 0 0 0 0 0 0 0 0 0 0 0 0 0 0 0 0 0 0 0 0 0 0 0 0 0 0 0 0 0 0 0 0 0 0 0 0 0 0 0 0 -0.143819081078445 0 -2.23270804556445 0 0
0 0 0 0 0 0 0 0 0 0 0.289550421682568 0 0.0944159290644855 0.184464831286364 0 0 0.130159372010236 0.0217811970644208 0 0.0883028886312717 0 0 0 0 0 0 0 0 0 0 0 0 0 0 0 0 0 0 0 0 0 0 0 0 0 0 -0.143819081078445 0 0 0
0 0 0 0 0 0 0 0 0 0 0 0 0 0 0 0.0466515032996689 0.199871435940733 0 0 0.0711968686855235 0.690664971300715 0.0757711773463824 1.74569395834817 0 0.0338818677421701 0.0838977491544227 0.427354865733013 0.266344848629834 0.138363652394862 0 0.571189953852801 0 0 0.396422918056204 0 0 0.215309624905807 0 0.208186237721066 0 0.179356768942376 0 0.0659183912653 0.0593688115565642 0.123342798322257 0.428194897802728 0 -0.143819081078445 0.228019048939189 0.1191314190305
0 0 0 0 0 0 0 0 0 0 0 0 0 0 0 0 0 0.862269514345867 0.196180728860246 0.102186995672015 0 0.091565928727207 0 0 0 0 0 0 0 0 0 0 0 0 0 0 0 0 0 0 0 0 0 0 0 0 0 -1.0831491350596 -0.143819081078445 0
0 0 0 0 0.0344648836110813 0.160105778737143 0 0 0 0 0 0 0 0 0 0 0 0 0 0 0 0 0 0 0 0 0 0 0 0 0 0 0 0 0 0 0 0 0 0 0 0 0 0 0 0 0 -0.634233001152638 0 -0.143819081078445
