0.192500212538018
0.80023824130792
1.6676101447761
1.98125857496165
0.180921077509236
0.610021830729719
1.3267522693924
0.462090814552135
2.04125349133144
9.99247481481305
0.968645964221888
1.2903496197695
3.16778870840392
5.19378282361341
0.225577508229962
0.691343439801037
0.97554555171769
4.55399872661829
0.379320836256359
9.72302489563116
2.36169558931713
3.03246935948483
1.15325211121119
1.30368693430033
1.90004031619557
0.689511599146966
0.578072626215992
1.27447022758582
2.86253263833963
0.724595639382474
3.85817309527588
3.88542397875102
0.864530008402353
0.313463433067476
0.644778122603135
0.237219106370734
1.28027367008695
1.0429045239346
5.21086316917611
1.21954513124926
1.17334362545972
3.83751706738963
2.50493321138121
2.67681555616762
5.02077797708322
0.351554409108263
0.661060578479373
6.98428620484122
1.23161281258548
1.64181352480179
