0.263982435889757
1.90307353873992
0.455080386328268
1.0301666248262
1.51042821256916
1.82244447871174
0.628306099733682
1.53542101181581
0.696204360259607
0.176345214710432
0.478848103205024
0.605668559071451
1.05415192448536
0.38008695261964
5.89518935356629
1.4304295751441
2.01553916755989
1.52977694394967
0.555777017191551
2.32370087706016
0.211445647976872
0.208814722218224
2.88097086096478
1.72001828494059
0.971413322822065
0.693467322009699
0.612488476071537
0.246406788599985
0.785566659132841
0.620440377396167
1.77972150475649
7.7809191376782
1.03824296098813
1.64077651118582
2.60624707756096
0.128383407425807
0.413112549906198
1.0092721162893
0.303384761087192
2.94715463238204
0.890360397945551
0.793866251769888
1.45035065564082
0.210608550455191
0.938366545056349
0.870070281602677
9.75955903470397
0.0833559611561242
1.26897363298992
3.06736706842544
