-0.170264766836884 0 -0.456751097297149 0 0 0 0 -1.62876041350101 0 0 0 0 0 0 0 0 0 0 0 0 0 0 0 0 0 0 0 0 0 0 0 0 0 0 0 0 0 0 -3.13959080555179 0 -0.325758064713091 0 0 0 0 0 0 0 0 -0.900139765847027
0 -0.170264766836884 0 0 0 0 0 0 0 0 0 0 0 0 0 0 0 0 0 0 0 0 0 0 0 0 -0.642498526513897 0 0 0 0 0 0 0 -9.00480624198725 0 -0.17361894204569 0 -2.48371716582413 0 0 0 0 0 0 0 0 0 0 -0.598597963430642
0.0950467460279574 0 -0.170264766836884 0 0 0 0 0 0 0 0 0 0 0 0 0 0 0 0 0 0 0 0 0 0 0 0 0 0 -0.241155239225016 0 0 0 0 0 0 0 0 0 0 0 0 0 0 0 0 0 0 0 -0.869695432276087
0 0 0 -0.170264766836884 0 0 0 0 0 0 0 0 0 0 0 0 0 0 0 0 0 0 0 0 0 0 0 0 0 0 0 0 -0.334786424611433 0 0 0 0 0 0 0 -1.52094529742317 0 0 0 0 0 0 0 0 0
0 0 0 0 -0.170264766836884 0 -0.544829986721993 0 0 -0.579983017584851 0 0 0 0 0 0 0 0 0 -0.314642638906448 0 0 0 0 0 0 0 0 -0.453428223257461 0 0 0 0 0 -1.11355639215104 0 0 0 -4.22189163102095 0 -3.77115940919478 0 0 0 0 0 0 0 0 0
0 0 0 0 0 -0.170264766836884 -0.423243494347797 0 0 0 0 0 0 0 0 0 0 0 0 -1.19502570995907 0 0 0 -0.648337179994261 0 -0.282745531387519 0 0 0 -0.0909567609419033 0 0 0 0 0 0 -0.305295667599796 0 0 0 -1.21974367158957 0 0 0 0 0 0 0 0 0
0 0 0 0 0.104163470586972 0.0836696538102909 -0.170264766836884 0 -0.573618136601138 -0.759710402878277 0 0 0 -1.00852307672263 0 0 0 0 0 -0.318038760959761 0 0 0 0 0 -3.56427903913945 0 0 -0.634779145340344 -0.23397324785619 0 0 0 0 -1.05368037617371 0 0 0 0 0 -0.44111150049568 0 0 0 0 0 0 0 0 -5.13162458238945
0.337514312872346 0 0 0 0 0 0 -0.170264766836884 0 0 -0.649403212728864 0 0 -2.43932466765622 -6.20529104806814 0 0 0 0 -2.93660479826815 0 0 0 -6.50089107820729 0 -5.11655106210759 0 0 -1.5593560679079 0 0 0 -2.71469966135468 0 -1.52039432085687 0 0 0 0 0 0 0 0 0 0 0 0 0 0 0
0 0 0 0 0 0 0.123960689773837 0 -0.170264766836884 -0.76873933348135 -0.575193058791581 0 0 0 -2.08419568721299 0 0 0 0 0 0 0 0 -0.80629624528502 0 0 0 0 -0.812709421326071 0 0 0 -1.43567070058317 0 0 0 0 0 0 0 -2.65866011081366 0 0 0 0 0 0 0 0 -7.23606469979289
0 0 0 0 0.127481933839084 0 0.146990931108367 0 0.143521121399116 -0.170264766836884 -0.389243051453566 0 0 0 -0.665354392029259 0 0 0 0 -0.662936323700072 0 0 -1.24004223683504 0 0 -1.06361261675352 0 0 0 0 0 0 0 0 -2.45910462211879 0 0 -0.688460388187346 0 0 0 0 -0.338571436423787 0 0 0 0 0 0 0
0 0 0 0 0 0 0 0.123526505307962 0.121228404983347 0.0742236229345849 -0.170264766836884 0 0 0 -0.200040211211003 0 0 0 0 0 0 0 -1.14409379249776 0 0 -1.21324527538134 0 0 -0.696765932770947 0 0 0 0 0 -2.03382559256762 0 0 0 0 0 -0.472492609527772 -1.59931760003025 -1.15520073793026 0 0 0 0 0 0 -0.406366883821761
0 0 0 0 0 0 0 0 0 0 0 -0.170264766836884 0 0 0 0 0 0 -2.19874252933118 -1.48608200989332 0 0 0 0 0 0 0 0 0 0 0 0 0 0 -0.953011410029889 0 0 0 0 0 0 0 -1.22833700014726 0 0 0 0 0 0 0
0 0 0 0 0 0 0 0 0 0 0 0 -0.170264766836884 0.207695930375435 0.0791989017897856 0 -0.117477430866136 0 -1.32975102441763 -1.33661455804062 0 0 -1.13649626282103 0 0 0 0 0 -0.722756367577401 0 0 0 0 0 -6.36272163320649 0 0 0 0 0 -0.51401107700796 0 -1.25109152735164 0 0 0 0 0 0 0
0 0 0 0 0 0 0.205444360870592 0.475090291737722 0 0 0 0 -1.10768367865253 -0.170264766836884 0 0 -0.695345437294189 0 0 -0.535758019341239 0 0 -4.41471751295306 0 0 0 0 0 0 0 0 0 0 0 -0.82270910769179 0 0 0 0 0 -6.35900968707606 0 -1.22500950247587 0 0 0 0 0 0 0
0 0 0 0 0 0 0 1.19596647507668 0.390268623295406 0.131024940642958 0.0412941128286965 0 -0.38549193012255 0 -0.170264766836884 0 0 0 -0.611655769349653 -5.61095181385598 0 0 0 0 0 0 0 0 0 0 0 0 0 0 0 0 0 0 0 0 0 0 -0.376710949131276 0 0 0 0 0 0 0
0 0 0 0 0 0 0 0 0 0 0 0 0 0 0 -0.170264766836884 0 0 0 -2.05006027167334 0 0 0 0 -1.28397943743732 0 0 0 0 0 0 0 0 0 0 0 0 0 0 0 0 0 0 0 0 0 0 0 0 0
0 0 0 0 0 0 0 0 0 0 0 0 0.0247230521107895 0.127922361012755 0 0 -0.170264766836884 0 0 0 0 0 0 0 -0.0808268263577727 0 0 0 0 0 0 0 0 0 0 0 0 0 0 0 0 0 0 -1.76745794507279 0 0 0 0 -0.866077195074737 0
0 0 0 0 0 0 0 0 0 0 0 0 0 0 0 0 0 -0.170264766836884 0 0 0 0 0 0 -0.660158101538756 0 0 0 0 0 0 0 0 0 0 0 0 0 0 0 0 0 0 0 0 0 0 0 -1.25597204432269 0
0 0 0 0 0 0 0 0 0 0 0 0.440432649890569 0.274040621507078 0 0.124083799664681 0 0 0 -0.170264766836884 0 0 0 0 0 0 0 0 0 0 0 0 0 0 0 0 0 0 0 0 -1.27595903048499 0 0 0 0 0 0 0 0 -0.636990719229621 0
0 0 0 0 0.0592423367838458 0.233100038466164 0.0665792245167372 0.565308899916218 0 0.132536167204681 0 0.31882546732823 0.265510176267926 0.10247953810494 1.25323191212341 0.41665219261731 0 0 0 -0.170264766836884 0 0 0 0 0 0 0 0 0 0 0 0 0 0 0 0 0 0 0 -0.659191861529536 0 0 0 -3.99909933059073 0 0 0 0 -0.388241906147929 0
0 0 0 0 0 0 0 0 0 0 0 0 0 0 0 0 0 0 0 0 -0.170264766836884 0 0 0 0 0 0 0 0 0 0 0 0 0 0 0 0 0 0 -0.592535840580913 0 0 0 0 0 0 0 0 -0.561694686309781 0
0 0 0 0 0 0 0 0 0 0 0 0 0 0 0 0 0 0 0 0 0 -0.170264766836884 0 0 0 0 0 0 0 0 0 0 0 -2.98476155536078 0 0 0 0 0 0 0 0 0 0 0 0 0 0 -4.00692678885606 0
0 0 0 0 0 0 0 0 0 0.25263489699006 0.231651678118999 0 0.228220974787978 0.884730645026518 0 0 0 0 0 0 0 0 -0.170264766836884 0 0 0 0 0 0 0 0 0 0 0 0 0 0 0 0 0 0 0 0 0 0 0 0 0 0 0
0 0 0 0 0 0.131542761471679 0 1.3836218915407 0.153961576140553 0 0 0 0 0 0 0 0 0 0 0 0 0 0 -0.170264766836884 0 0 0 0 0 0 0 0 0 0 0 0 0 0 0 0 0 0 0 -4.32823662683576 0 0 0 0 0 0
0 0 0 0 0 0 0 0 0 0 0 0 0 0 0 0.248391049699707 0.0152969003524544 0.133214251857017 0 0 0 0 0 0 -0.170264766836884 0 0 0 0 0 0 0 0 0 0 0 0 0 0 0 0 0 0 -9.45042487319007 0 0 0 0 0 0
0 0 0 0 0 0.0600971050440243 0.728438908934277 1.0007270301054 0 0.190930157255598 0.214601678974896 0 0 0 0 0 0 0 0 0 0 0 0 0 0 -0.170264766836884 0 0 0 0 0 0 0 0 0 -0.471216565883783 0 0 0 0 0 0 0 -1.23537041324622 0 0 0 0 0 0
0 0.133176724451122 0 0 0 0 0 0 0 0 0 0 0 0 0 0 0 0 0 0 0 0 0 0 0 0 -0.170264766836884 0 0 0 0 0 0 0 0 0 0 0 0 0 0 0 0 -1.45068374591809 0 0 0 0 0 0
0 0 0 0 0 0 0 0 0 0 0 0 0 0 0 0 0 0 0 0 0 0 0 0 0 0 0 -0.170264766836884 0 0 0 0 0 0 0 -0.874714420793064 0 0 0 0 0 0 0 0 0 0 0 0 0 0
0 0 0 0 0.0865649921680779 0 0.118017011083722 0.28989468053761 0.160324464952043 0 0.112872451499057 0 0.149503220989135 0 0 0 0 0 0 0 0 0 0 0 0 0 0 0 -0.170264766836884 0 0 0 0 0 0 -0.438564087892587 0 0 0 0 0 0 0 0 0 0 0 0 0 0
0 0 0.04708173076005 0 0 0.019584291463799 0.0458709891269662 0 0 0 0 0 0 0 0 0 0 0 0 0 0 0 0 0 0 0 0 0 0 -0.170264766836884 0 0 0 0 0 0 0 0 0 0 0 0 0 0 0 0 0 0 0 0
0 0 0 0 0 0 0 0 0 0 0 0 0 0 0 0 0 0 0 0 0 0 0 0 0 0 0 0 0 0 -0.170264766836884 0 0 0 0 -3.93804036178696 0 0 0 0 0 0 0 0 0 0 0 0 0 0
0 0 0 0 0 0 0 0 0 0 0 0 0 0 0 0 0 0 0 0 0 0 0 0 0 0 0 0 0 0 0 -0.170264766836884 0 0 0 -1.16987593776625 0 0 0 0 0 0 0 0 0 0 0 0 0 0
0 0 0 0.0631394041028193 0 0 0 0.531824775097094 0.277719785978733 0 0 0 0 0 0 0 0 0 0 0 0 0 0 0 0 0 0 0 0 0 0 0 -0.170264766836884 0 0 -1.04366149634933 0 0 0 0 0 0 0 0 0 0 0 0 0 0
0 0 0 0 0 0 0 0 0 0 0 0 0 0 0 0 0 0 0 0 0 0.602749962893115 0 0 0 0 0 0 0 0 0 0 0 -0.170264766836884 0 -0.750937401535178 0 0 0 0 0 0 0 0 0 0 -4.93837267528391 0 0 0
0 1.82628801015467 0 0 0.191237618499164 0 0.210316432148899 0.307856032996356 0 0.541205040903942 0.397589487077678 0.166631262262097 1.23399947190265 0.18085642149133 0 0 0 0 0 0 0 0 0 0 0 0 0 0 0 0 0 0 0 0 -0.170264766836884 -0.680766583733111 0 0 0 0 0 0 0 0 0 0 -0.650704232617862 0 0 0
0 0 0 0 0 0 0 0 0 0 0 0 0 0 0 0 0 0 0 0 0 0 0 0 0 0.100386451095019 0 0.159242872553875 0.0791868129342632 0 0.801363839082001 0.238919143256842 0.219728140274507 0.145046277007051 0.138617668751718 -0.170264766836884 0.865994897913921 0 0 0 0 0 0 0 -0.908085974451397 0 -0.560248627210989 0 0 0
0 0.0356681371429442 0 0 0 0.0637570226625133 0 0 0 0 0 0 0 0 0 0 0 0 0 0 0 0 0 0 0 0 0 0 0 0 0 0 0 0 0 -4.09943170818385 -0.170264766836884 0 0 0 0 0 0 0 0 0 0 -0.27066806633597 0 0
0 0 0 0 0 0 0 0 0 0.128838632860224 0 0 0 0 0 0 0 0 0 0 0 0 0 0 0 0 0 0 0 0 0 0 0 0 0 0 0 -0.170264766836884 0 0 0 0 0 0 -1.70940527084803 0 -0.483391195949337 0 0 0
0.651612764560636 0.54340491694418 0 0 0.770316111926857 0 0 0 0 0 0 0 0 0 0 0 0 0 0 0 0 0 0 0 0 0 0 0 0 0 0 0 0 0 0 0 0 0 -0.170264766836884 0 0 0 0 0 0 0 -1.38417767567493 -0.647641504447986 0 0
0 0 0 0 0 0 0 0 0 0 0 0 0 0 0 0 0 0 0.244966687547543 0.140780699957353 0.118855942374346 0 0 0 0 0 0 0 0 0 0 0 0 0 0 0 0 0 0 -0.170264766836884 0 0 0 0 -0.259781607914551 0 0 0 0 0
0.0627292501042209 0 0 0.318740936263332 0.731612193752961 0.222138764734672 0.0889727178176578 0 0.481873568140866 0 0.0950416687049296 0 0.0976918915540438 1.31937873548589 0 0 0 0 0 0 0 0 0 0 0 0 0 0 0 0 0 0 0 0 0 0 0 0 0 0 -0.170264766836884 0 0 0 0 0 0 0 0 0
0 0 0 0 0 0 0 0 0 0 0.323350599094563 0 0 0 0 0 0 0 0 0 0 0 0 0 0 0 0 0 0 0 0 0 0 0 0 0 0 0 0 0 0 -0.170264766836884 0 0 0 0 -1.69542791797007 0 0 0
0 0 0 0 0 0 0 0 0 0.070657073716897 0.212528617518574 0.242732232171361 0.275123511451399 0.247111734238097 0.0704509799372897 0 0 0 0 0 0 0 0 0 0 0 0 0 0 0 0 0 0 0 0 0 0 0 0 0 0 0 -0.170264766836884 0 0 0 0 0 0 0
0 0 0 0 0 0 0 0 0 0 0 0 0 0 0 0 0.413070076262331 0 0 0.850324167398268 0 0 0 0.92197717153237 1.97599616612885 0.229963179795754 0.281108927232941 0 0 0 0 0 0 0 0 0 0 0 0 0 0 0 0 -0.170264766836884 0 0 -3.61244278909387 0 0 0
0 0 0 0 0 0 0 0 0 0 0 0 0 0 0 0 0 0 0 0 0 0 0 0 0 0 0 0 0 0 0 0 0 0 0 0.189073187686826 0 0.315625903509521 0 0.050193740531564 0 0 0 0 -0.170264766836884 0 -2.67840143628437 0 0 0
0 0 0 0 0 0 0 0 0 0 0 0 0 0 0 0 0 0 0 0 0 0 0 0 0 0 0 0 0 0 0 0 0 0 0 0 0 0 0 0 0 0 0 0 0 -0.170264766836884 -0.347295609354233 0 0 0
0 0 0 0 0 0 0 0 0 0 0 0 0 0 0 0 0 0 0 0 0 0 0 0 0 0 0 0 0 0 0 0 0 1.03319766380174 0.136003429286922 0.105117335495159 0 0.098374059555315 0.273138712162919 0 0 0.320982592027462 0 0.720727664890514 0.560391456540209 0.0723479469665848 -0.170264766836884 0 0 0
0 0 0 0 0 0 0 0 0 0 0 0 0 0 0 0 0 0 0 0 0 0 0 0 0 0 0 0 0 0 0 0 0 0 0 0 0.0544589354256561 0 0.11843102610613 0 0 0 0 0 0 0 0 -0.170264766836884 0 0
0 0 0 0 0 0 0 0 0 0 0 0 0 0 0 0 0.175075778103336 0.253580540528737 0.135251375686868 0.0805216936898493 0.0985857702685361 0.798437777795804 0 0 0 0 0 0 0 0 0 0 0 0 0 0 0 0 0 0 0 0 0 0 0 0 0 0 -0.170264766836884 0
0.17576490131084 0.120183933446128 0.163560792183494 0 0 0 0.999920738444487 0 1.48881143504396 0 0.0779248743344281 0 0 0 0 0 0 0 0 0 0 0 0 0 0 0 0 0 0 0 0 0 0 0 0 0 0 0 0 0 0 0 0 0 0 0 0 0 0 -0.170264766836884
