0.963316227157213
0.455957949116093
2.53368085472601
2.31287604193252
2.03462036522328
0.805967268805455
1.14926829882644
0.800298390943216
2.56100023099368
1.18726074353151
0.836104499226514
0.792489001875953
1.29847368291888
1.72386023027466
0.238311184799342
0.34795634454113
3.55590279098037
2.28841363479665
1.07380315961289
0.258478602370781
6.30507721587532
0.234247790043637
2.05531290679793
5.81347471990727
2.9550160034654
0.301565584185484
1.9517798830777
0.369452869699937
0.53469391967266
1.39023138055005
1.49808152793402
2.64667858057865
0.609534440397758
0.155440395317027
1.4111590745112
1.38961610934176
0.155185177040216
1.10144434150346
1.70903097344252
0.738209736317527
1.02049747997047
1.28635852468884
3.27191288300819
0.326443987845494
0.0578385338238134
0.780669172002703
1.14638593141873
0.160879413839393
0.563236095311968
1.16737456458016
