1.38580202450052
0.34927122018417
0.804934417250138
0.525714586800254
0.85129858842427
1.82915297769899
1.16723911867834
1.16098950529087
0.319578696266345
1.85909860118454
1.59728788559311
0.301156167723113
3.3664304183799
2.88531177128147
1.85546346820556
0.315237616443567
4.19590555253436
0.461183551357751
2.6052380782846
0.385379839423752
1.14415852099275
0.202004677650832
3.99916514302969
0.630662870956655
0.3269744396434
0.214886384842038
1.41919238967988
1.30425039245669
5.40347939647886
1.28842749438021
9.50118114824576
0.231145613407611
3.14674769540775
1.53503222204422
1.03790176956971
0.691254653420046
0.702545161327901
2.66733338588316
1.54078903542379
1.894686242779
0.566887991841589
8.51538839378026
0.480413780977562
0.668474415344264
3.230989097177
0.49521787067967
0.333734579498006
1.96487453433785
0.386014833162077
0.968531860035278
