0.417937932219705
8.21361153854606
0.443951836703311
0.654148994706228
0.385025023823256
0.190941675808737
1.11639917446353
0.173663967070295
0.45882849315109
2.3614940248277
0.193974375192905
1.11454579556373
0.981767934385365
11.0065614815292
0.164721949059585
5.84035904939969
1.54145561745354
1.69530603263605
0.523994080864607
0.847765774310664
0.231336948864935
2.13620731389246
2.25502279358037
3.06625996882193
1.11081397112049
2.3475820572847
1.11282364238714
0.478206698015341
5.0052774559876
2.27321225588535
10.0606093781148
0.456849857816374
1.16397134543965
2.10300849673931
2.05809047212077
1.35144465403792
0.345048949655379
0.667429046026236
1.02453351765143
0.325509758913223
1.49348767758377
5.14952281675703
0.537097116174004
2.03163983377399
3.54840320088097
1.83533582653401
0.559805711009132
2.49841837423213
0.663495766737073
2.02557148945905
