-0.145311182816783 -4.25004471920515 0 0 0 -1.77013499403379 0 0 0 0 0 0 0 0 0 0 0 0 0 0 0 0 0 0 0 0 0 0 0 -1.03895336499656 0 0 0 0 0 0 0 0 0 0 0 0 0 0 0 0 0 0 0 0
0.786944637059566 -0.145311182816783 0 0 0 0 0 0 0 -0.735049525072821 0 0 0 0 0 0 0 0 0 0 0 0 0 0 0 0 0 0 0 -1.05093482766671 0 0 0 0 0 0 0 0 0 0 0 0 0 0 0 0 0 0 0 0
0 0 -0.145311182816783 0 0 0 0 0 0 -3.64182986578512 -0.307199119620105 0 -0.125946296814973 0 0 0 0 0 0 0 0 0 0 0 0 0 0 0 0 -1.03007399051503 0 0 0 0 0 0 0 0 0 0 0 0 0 0 0 0 0 0 0 0
0 0 0 -0.145311182816783 0 0 0 0 0 -0.699890548313641 -0.806282385520046 0 0 0 0 0 0 0 0 0 0 0 0 0 0 0 0 0 0 -0.276871180765677 0 0 0 0 0 0 0 0 0 0 0 0 0 0 0 0 0 0 0 0
0 0 0 0 -0.145311182816783 0 0 0 -0.246648463045087 -0.328473446679925 0 0 -3.17280497009865 0 0 0 0 0 0 0 0 0 0 0 0 0 0 0 0 -1.28417941294839 0 0 0 0 0 0 0 0 0 0 0 0 0 0 0 0 0 0 0 0
0.326134568403298 0 0 0 0 -0.145311182816783 0 -0.95545070087581 -2.49635056484133 -3.01237620077885 0 0 -1.1121476440955 0 0 0 0 0 0 0 0 0 0 0 0 0 0 0 0 -0.385628401556401 0 0 0 0 0 0 0 0 0 0 0 0 0 0 0 0 0 0 0 0
0 0 0 0 0 0 -0.145311182816783 0 0 0 0 0 0 -3.18171252579468 0 0 0 0 0 0 0 0 0 0 0 -0.762037254066312 0 0 0 -2.53782009694986 0 0 0 0 0 0 0 0 0 -0.446996771336149 0 0 0 0 0 0 0 0 0 0
0 0 0 0 0 0.192348185665269 0 -0.145311182816783 0 0 0 0 0 0 0 0 0 0 0 0 0 -0.355935771696756 0 -0.433160274744462 0 0 0 0 0 0 0 0 0 0 0 -3.19311295085894 0 0 0 0 0 0 0 -1.67609452161402 0 0 0 0 0 0
0 0 0 0 0.0481933542184452 0.512420615761419 0 0 -0.145311182816783 0 0 0 0 0 0 0 0 -2.14827133666116 0 0 0 -2.82136586548325 0 -5.11869587332184 0 0 0 0 0 0 0 0 0 0 0 0 0 0 0 -0.4384311070058 0 0 0 0 0 0 0 0 0 0
0 0.143363340641747 0.705419828902499 0.137997224947232 0.0707664233524694 0.566206013234476 0 0 0 -0.145311182816783 0 0 0 0 0 0 0 -0.934062147155519 0 0 0 0 0 -1.23847875688624 0 0 0 0 0 0 0 0 0 0 0 0 0 0 -2.00503666180308 0 0 0 0 -2.14198231398532 0 0 0 0 0 0
0 0 0.0600773661382172 0.157416869111621 0 0 0 0 0 0 -0.145311182816783 0 0 0 0 0 0 0 0 0 -1.39153012149409 -0.600303560403924 0 0 0 0 0 0 0 0 0 0 0 0 0 0 0 0 0 -0.558709932119758 0 0 0 0 0 0 0 0 0 0
0 0 0 0 0 0 0 0 0 0 0 -0.145311182816783 0 0 0 0 0 0 0 0 0 -1.18345814141925 0 0 0 0 0 0 0 0 0 0 0 -0.429885813472525 0 0 0 -2.61086432117648 0 -2.80019359644339 0 0 0 0 0 0 0 -3.29948334017152 -0.29324155096258 0
0 0 0.0254335277285795 0 0.647895453560737 0.240182015970198 0 0 0 0 0 0 -0.145311182816783 0 0 -1.1818343119569 0 0 0 -1.41236487238709 0 -0.4599046834561 0 0 0 0 0 0 0 0 0 0 0 -0.905043554105879 0 0 -0.350923239221118 -0.261200838567479 0 -0.115549432999107 0 0 0 0 0 0 0 0 0 0
0 0 0 0 0 0 0.573092135962269 0 0 0 0 0 0 -0.145311182816783 0 0 -0.938958568863577 0 0 0 0 0 0 0 0 0 0 0 0 0 -0.392714403098624 0 0 0 0 0 0 0 -4.00905157904623 0 0 0 0 0 0 0 0 -0.639503340046791 0 0
0 0 0 0 0 0 0 0 0 0 0 0 0 0 -0.145311182816783 0 0 0 0 0 0 0 0 0 0 0 0 0 0 0 -1.12474522179169 0 0 0 -0.173812464739712 0 -0.641223254500499 0 -0.351954796957083 0 0 0 0 0 0 0 0 -2.06392388401333 -0.666546600939838 0
0 0 0 0 0 0 0 0 0 0 0 0 0.264449824729146 0 0 -0.145311182816783 -0.518461362380265 0 0 0 0 0 0 0 0 0 -6.86318606850087 0 0 0 -1.31309113517564 0 0 0 0 0 0 0 -0.931211666748445 -5.17512689308281 0 0 0 0 0 0 0 -0.466318284859771 -0.988359276249499 0
0 0 0 0 0 0 0 0 0 0 0 0 0 0.192201380175409 0 0.10404775109687 -0.145311182816783 0 0 0 0 0 0 0 0 0 0 0 0 0 -0.598648859052474 0 0 0 0 0 0 0 -0.283400330728383 -9.48833438391868 0 0 0 0 0 0 0 0 -0.702574410927251 0
0 0 0 0 0 0 0 0 0.435157095615235 0.189934284554406 0 0 0 0 0 0 0 -0.145311182816783 0 0 0 0 0 0 0 0 0 0 0 0 -0.773874419771159 0 0 0 0 0 0 0 -0.967005794535591 -4.27938676122054 0 0 0 0 0 -1.37372343210366 0 0 0 0
0 0 0 0 0 0 0 0 0 0 0 0 0 0 0 0 0 0 -0.145311182816783 0 0 0 0 0 0 0 0 0 0 0 0 0 0 0 0 0 0 0 0 0 0 0 0 0 0 -0.520677500575833 0 0 -0.157229794174173 0
0 0 0 0 0 0 0 0 0 0 0 0 0.289538189476669 0 0 0 0 0 0 -0.145311182816783 0 0 0 0 0 0 0 0 0 0 -1.75533724690773 0 0 0 0 0 0 0 -0.576152453032123 -1.00463152904979 0 0 0 0 0 -1.963578471611 0 0 0 0
0 0 0 0 0 0 0 0 0 0 0.257876562218115 0 0 0 0 0 0 0 0 0 -0.145311182816783 0 0 0 0 0 0 0 0 0 -0.29395860340373 0 0 0 0 0 0 0 0 -0.521336255739052 0 0 0 0 0 -0.716952131634748 0 0 0 0
0 0 0 0 0 0 0 0.0668626350278879 0.538017704603692 0 0.127759571797257 0.242513263049896 0.0959963441977211 0 0 0 0 0 0 0 0 -0.145311182816783 0 0 0 0 0 0 0 0 -0.357985121507573 0 0 0 0 0 0 0 0 0 0 0 0 0 0 0 0 0 -3.23832240373767 0
0 0 0 0 0 0 0 0 0 0 0 0 0 0 0 0 0 0 0 0 0 0 -0.145311182816783 0 0 0 0 0 0 0 -1.29853524584591 0 -0.342235963880586 0 0 0 0 0 -3.51596851607678 0 0 0 0 0 0 -4.42986967950287 0 0 -1.85245336774275 0
0 0 0 0 0 0 0 0.0849815587151845 1.06326852901379 0.256660094309723 0 0 0 0 0 0 0 0 0 0 0 0 0 -0.145311182816783 0 0 0 0 0 0 0 0 -1.03290567363818 0 0 0 0 0 -2.1632839688424 0 0 0 0 0 0 0 -2.87764249757989 0 0 0
0 0 0 0 0 0 0 0 0 0 0 0 0 0 0 0 0 0 0 0 0 0 0 0 -0.145311182816783 0 0 0 0 0 0 0 -0.767741922746419 0 0 0 0 0 -0.650815016021072 0 0 0 0 0 0 0 -0.517712989646114 0 -0.352266641030611 0
0 0 0 0 0 0 0.164199005272589 0 0 0 0 0 0 0 0 0 0 0 0 0 0 0 0 0 0 -0.145311182816783 0 0 0 0 0 0 0 0 0 0 0 0 -1.12843469460562 0 0 0 0 0 0 -0.3999590366296 -4.85898204542056 0 0 -0.69566562048972
0 0 0 0 0 0 0 0 0 0 0 0 0 0 0 1.36513593495686 0 0 0 0 0 0 0 0 0 0 -0.145311182816783 0 0 0 0 0 0 0 0 0 0 0 0 0 0 0 0 0 0 0 0 0 -0.408459103347844 0
0 0 0 0 0 0 0 0 0 0 0 0 0 0 0 0 0 0 0 0 0 0 0 0 0 0 0 -0.145311182816783 0 0 0 0 0 0 0 0 0 0 0 0 0 -1.03824103983064 0 0 0 -1.65346818365326 -0.245465275638043 0 0 0
0 0 0 0 0 0 0 0 0 0 0 0 0 0 0 0 0 0 0 0 0 0 0 0 0 0 0 0 -0.145311182816783 0 0 0 0 0 0 0 0 0 0 0 0 0 0 0 0 -1.10241321566677 0 0 -0.345716900061923 0
0.208236923411587 0.233160112744353 0.188766860085032 0.053585897958047 0.261533397967025 0.0728629747030956 0.490056796913764 0 0 0 0 0 0 0 0 0 0 0 0 0 0 0 0 0 0 0 0 0 0 -0.145311182816783 0 0 0 0 0 0 0 0 0 0 0 -2.59670966006347 0 0 0 -0.480028090655926 0 0 0 -7.17705993808384
0 0 0 0 0 0 0 0 0 0 0 0 0 0.0823026549607811 0.215754685504821 0.258144376094889 0.126410068331792 0.162754955476366 0 0.372815946329715 0.0574711779466889 0.071002122820961 0.236304510538109 0 0 0 0 0 0 0 -0.145311182816783 0 0 0 0 0 0 0 0 0 -0.795633066704104 0 0 0 0 0 0 0 0 -0.937075643370479
0 0 0 0 0 0 0 0 0 0 0 0 0 0 0 0 0 0 0 0 0 0 0 0 0 0 0 0 0 0 0 -0.145311182816783 0 0 0 0 0 0 0 0 -1.24823076291216 0 0 0 0 0 0 0 0 0
0 0 0 0 0 0 0 0 0 0 0 0 0 0 0 0 0 0 0 0 0 0 0.0684310625004404 0.218572840325536 0.152121849805739 0 0 0 0 0 0 0 -0.145311182816783 0 0 0 0 0 0 0 0 -1.07701423496157 0 0 0 0 0 0 0 0
0 0 0 0 0 0 0 0 0 0 0 0.0859694713337686 0.173167641946697 0 0 0 0 0 0 0 0 0 0 0 0 0 0 0 0 0 0 0 0 -0.145311182816783 0 0 0 0 0 0 -1.06497610854615 0 0 0 0 0 0 0 0 0
0 0 0 0 0 0 0 0 0 0 0 0 0 0 0.0356120060492786 0 0 0 0 0 0 0 0 0 0 0 0 0 0 0 0 0 0 0 -0.145311182816783 0 0 0 0 0 -0.230268317438013 -1.01325328143361 0 0 0 -10.66284521715 0 0 0 0
0 0 0 0 0 0 0 0.687259626456214 0 0 0 0 0 0 0 0 0 0 0 0 0 0 0 0 0 0 0 0 0 0 0 0 0 0 0 -0.145311182816783 0 0 0 0 0 -2.2382875470377 0 0 0 0 0 0 0 0
0 0 0 0 0 0 0 0 0 0 0 0 0.0693505517065075 0 0.128042683821547 0 0 0 0 0 0 0 0 0 0 0 0 0 0 0 0 0 0 0 0 0 -0.145311182816783 0 0 0 0 0 0 0 0 0 0 0 0 0
0 0 0 0 0 0 0 0 0 0 0 0.54459669549455 0.0562121235027162 0 0 0 0 0 0 0 0 0 0 0 0 0 0 0 0 0 0 0 0 0 0 0 0 -0.145311182816783 0 0 0 -1.23958655767373 0 0 0 0 0 0 0 0
0 0 0 0 0 0 0 0 0 0.371187026398522 0 0 0 0.802150466996287 0.0720879800044467 0.188928692121575 0.0563578640394989 0.176905643395031 0 0.110161737914492 0 0 0.691804994407645 0.44511478667999 0.125003717901107 0.22326302342599 0 0 0 0 0 0 0 0 0 0 0 0 -0.145311182816783 0 0 -0.105035837363303 -0.276878783581015 0 -4.04674894733679 0 0 0 0 0
0 0 0 0 0 0 0.0929521422262636 0 0.0836032789160087 0 0.112644155167279 0.556587952027145 0.0242388070455355 0 0 0.964517715222626 1.88876329794019 0.866258968625159 0 0.202942317795206 0.109329279234069 0 0 0 0 0 0 0 0 0 0 0 0 0 0 0 0 0 0 -0.145311182816783 -4.17947969708381 0 0 0 0 0 0 0 0 0
0 0 0 0 0 0 0 0 0 0 0 0 0 0 0 0 0 0 0 0 0 0 0 0 0 0 0 0 0 0 0.175986924733039 0.245554097272756 0 0.208922963717081 0.0462940955690251 0 0 0 0 0.814622206523623 -0.145311182816783 0 -0.131458566353756 0 -0.27807195880455 0 0 0 0 0
0 0 0 0 0 0 0 0 0 0 0 0 0 0 0 0 0 0 0 0 0 0 0 0 0 0 0 0.218281262042659 0 0.540129071718108 0 0 0.231276878750417 0 0.209206710354942 0.423154798988604 0 0.245873810733485 0.019871806812476 0 0 -0.145311182816783 0 0 0 0 0 0 0 0
0 0 0 0 0 0 0 0 0 0 0 0 0 0 0 0 0 0 0 0 0 0 0 0 0 0 0 0 0 0 0 0 0 0 0 0 0 0 0.0545657849562609 0 0.0268390837864589 0 -0.145311182816783 0 -2.39811114360684 0 0 0 0 0
0 0 0 0 0 0 0 0.332616316906124 0 0.425111246620582 0 0 0 0 0 0 0 0 0 0 0 0 0 0 0 0 0 0 0 0 0 0 0 0 0 0 0 0 0 0 0 0 0 -0.145311182816783 0 0 0 0 0 0
0 0 0 0 0 0 0 0 0 0 0 0 0 0 0 0 0 0 0 0 0 0 0 0 0 0 0 0 0 0 0 0 0 0 0 0 0 0 0.80969848574002 0 0.0520030598494421 0 0.476619019771207 0 -0.145311182816783 0 0 0 0 0
0 0 0 0 0 0 0 0 0 0 0 0 0 0 0 0 0 0.27495322431385 0.10348260124927 0.386107869378504 0.136997192908199 0 0.939434888516474 0 0 0.0795283106492638 0 0.352579457253619 0.226705868950735 0.10209187694616 0 0 0 0 2.19735872607578 0 0 0 0 0 0 0 0 0 0 -0.145311182816783 0 0 0 0
0 0 0 0 0 0 0 0 0 0 0 0 0 0 0 0 0 0 0 0 0 0 0 0.511647547242745 0.0916498853773575 0.921401694147773 0 0.0504702472191442 0 0 0 0 0 0 0 0 0 0 0 0 0 0 0 0 0 0 -0.145311182816783 0 0 0
0 0 0 0 0 0 0 0 0 0 0 0.656992899049594 0 0.133667195662359 0.411966722731536 0.0947463403308192 0 0 0 0 0 0 0 0 0 0 0 0 0 0 0 0 0 0 0 0 0 0 0 0 0 0 0 0 0 0 0 -0.145311182816783 0 0
0 0 0 0 0 0 0 0 0 0 0 0.0551510364474511 0 0 0.133870627802818 0.210305967408963 0.131725533476097 0 0.0324422840932652 0 0 0.660307447046498 0.359996007495171 0 0.0689147729947939 0 0.08305265805748 0 0.0680151756064879 0 0 0 0 0 0 0 0 0 0 0 0 0 0 0 0 0 0 0 -0.145311182816783 0
0 0 0 0 0 0 0 0 0 0 0 0 0 0 0 0 0 0 0 0 0 0 0 0 0 0.14824944400813 0 0 0 1.42532159855747 0.190606047598119 0 0 0 0 0 0 0 0 0 0 0 0 0 0 0 0 0 0 -0.145311182816783
