-0.063661363321521 0 0 0 0 0 0 0 -0.754830379244987 0 0 0 0 -0.637693172712809 0 0 0 0 0 0 0 0 0 0 0 0 0 0 0 0 0 0 0 0 0 0 0 0 0 0 0 0 0 0 0 0 0 0 0 0
0 -0.063661363321521 0 0 0 0 0 0 0 0 0 0 0 0 0 0 0 -0.374086244782138 0 0 0 0 0 0 0 0 0 0 0 0 0 0 -0.804915545662456 0 0 0 0 0 0 0 0 0 0 0 0 0 0 0 0 0
0 0 -0.063661363321521 0 0 0 0 0 -1.33222321633934 0 0 0 0 -1.41154263926921 0 0 0 -4.57905848911157 0 0 0 0 0 0 0 0 0 0 0 0 0 0 0 0 0 0 0 0 0 0 0 0 0 0 0 0 0 0 0 0
0 0 0 -0.063661363321521 0 0 0 0 0 -0.216842398416533 0 0 0 0 0 0 0 0 0 0 0 0 0 0 0 0 0 0 0 -1.27889539041806 0 0 -1.17822016634097 0 0 0 0 0 0 0 0 0 0 0 0 0 0 0 0 0
0 0 0 0 -0.063661363321521 0 0.0234473961768054 0 0 0 -2.87253541300591 0 0 0 0 0 0 0 -0.268124844123051 0 0 0 0 0 0 0 0 -0.861465742138911 0 0 0 0 0 0 0 0 0 0 0 0 0 0 0 0 0 0 0 -0.47709264140161 0 -0.395419950305667
0 0 0 0 0 -0.063661363321521 0 0 0 0 0 0 0 0 0 0 0 -0.855751918327185 -0.417889616264664 0 0 0 0 0 0 0 0 -0.651580076773173 0 0 -1.5802881773184 0 0 0 0 0 0 0 0 0 0 0 0 0 0 0 0 0 0 -0.373494985756012
0 0 0 0 -0.120928687590094 0 -0.063661363321521 0 0 0 0 0 0 0 0 0 0 0 0 0 0 0 0 0 0 0 0 -0.857310753188248 0 0 -0.891393908563776 0 0 0 0 0 0 0 0 0 0 0 0 0 0 0 0 0 0 -0.743637564772182
0 0 0 0 0 0 0 -0.063661363321521 0 0 0 0 0 0 0 0 0 0 0 0 0 0 0 0 0 0 0 -0.438929803207487 0 0 0 0 0 0 0 0 0 0 0 0 0 0 0 0 0 0 0 0 0 -0.61836545668647
0.147401015271639 0 0.261601480067062 0 0 0 0 0 -0.063661363321521 0 0 0 0 0 0 0 0 0 0 0 0 -0.817028435750751 0 0 0 0 0 -0.257276130932688 0 0 0 0 0 0 0 0 0 0 0 0 0 0 0 0 0 0 0 0 -0.453098728076602 0
0 0 0 0.0415956898105164 0 0 0 0 0 -0.063661363321521 0 0 0 0 0 0 0 0 0 0 0 -1.06048957166696 0 0 0 0 0 -0.573792023578782 0 0 -0.460514446477125 0 0 0 0 0 0 0 0 0 0 0 0 0 0 0 0 0 -0.901541825662143 -3.8470903813074
0 0 0 0 0.639270557834575 0 0 0 0 0 -0.063661363321521 0 0 0 0 0 0 0 0 0 0 0 0 0 0 0 0 -1.84019685186645 0 0 0 0 0 0 0 0 0 0 0 0 0 0 0 0 0 0 0 0 -1.5472271106344 -2.25019542351774
0 0 0 0 0 0 0 0 0 0 0 -0.063661363321521 0 0 0 0 0 0 0 0 0 0 0 0 0 0 0 -0.151728099776509 0 0 -0.6926710204612 0 0 0 0 0 0 0 0 0 0 0 0 0 0 0 0 0 0 -0.684363157088448
0 0 0 0 0 0 0 0 0 0 0 0 -0.063661363321521 0 0 0 0 0 0 0 0 0 0 0 0 0 0 -1.71153007774738 0 0 -1.04364037306375 0 0 0 0 0 0 0 0 0 0 0 0 0 0 0 0 0 -0.459651525155432 -2.60109899665165
0.121991049893978 0 0.272471290816915 0 0 0 0 0 0 0 0 0 0 -0.063661363321521 0 0 0 0 0 0 0 -0.776185915035818 0 0 -1.37630773678743 0 0 0 0 0 0 0 0 0 0 0 0 0 0 0 0 0 0 0 0 0 -0.546239825153072 0 -1.07660245136235 -2.18177856172368
0 0 0 0 0 0 0 0 0 0 0 0 0 0 -0.063661363321521 0 0 0 0 0 0 -3.03665809377265 0 0 -0.242387169413425 0 0 0 0 0 0 0 0 0 0 0 0 0 0 0 0 0 0 0 0 0 -1.30098464086587 0 -0.680412743749664 -0.47500211230179
0 0 0 0 0 0 0 0 0 0 0 0 0 0 0 -0.063661363321521 0 0 0 0 0 0 0 0 0 0 0 0 0 0 0 0 0 -1.24025933024484 0 0 0 0 0 0 0 0 0 0 0 0 -3.01677026773445 0 0 0
0 0 0 0 0 0 0 0 0 0 0 0 0 0 0 0 -0.063661363321521 0 0 0 0 0 0 0 0 0 0 0 0 0 0 0 0 -4.93001857712804 0 0 0 0 0 0 0 0 0 0 0 0 0 0 -0.649420380797421 0
0 0.0766432847712832 0.897618071929625 0 0 0.160386948962008 0 0 0 0 0 0 0 0 0 0 0 -0.063661363321521 0 0 0 0 0 0 0 0 0 0 0 0 0 0 0 0 0 0 0 0 0 0 -0.513316762198676 0 0 0 0 0 -1.08625498082939 0 -0.223179010956925 0
0 0 0 0 0.053550992758775 0.0826004319285645 0 0 0 0 0 0 0 0 0 0 0 0 -0.063661363321521 0 0 0 0 0 0 0 0 0 0 0 0 0 0 0 0 0 0 0 0 0 -1.45099316211587 0 0 0 0 0 0 0 -0.912879108165871 0
0 0 0 0 0 0 0 0 0 0 0 0 0 0 0 0 0 0 0 -0.063661363321521 0 0 0 0 0 0 0 0 0 0 0 0 0 0 0 0 0 0 0 0 -2.03001406394828 0 0 0 0 0 0 0 -0.606013914187441 0
0 0 0 0 0 0 0 0 0 0 0 0 0 0 0 0 0 0 0 0 -0.063661363321521 0 0 0 0 0 0 0 0 0 0 0 0 0 0 0 0 0 0 0 -1.30593560815493 0 0 0 0 0 0 0 0 0
0 0 0 0 0 0 0 0 0.172008970040934 0.214737209392937 0 0 0 0.153662899076329 0.573999503264422 0 0 0 0 0 0 -0.063661363321521 0 0 0 0 0 0 0 0 0 0 0 0 0 0 0 0 0 0 -0.467537784786668 0 0 0 0 0 0 0 0 0
0 0 0 0 0 0 0 0 0 0 0 0 0 0 0 0 0 0 0 0 0 0 -0.063661363321521 0 0 0 0 0 0 0 0 0 0 0 0 0 0 0 0 0 -3.74087614648409 0 0 0 0 0 0 0 0 0
0 0 0 0 0 0 0 0 0 0 0 0 0 0 0 0 0 0 0 0 0 0 0 -0.063661363321521 0 0 0 0 0 0 0 0 0 0 0 -1.3073609667675 0 -0.396604285978205 0 0 -0.254715537166176 0 -1.67256105203188 -4.50882298220673 0 0 0 0 0 0
0 0 0 0 0 0 0 0 0 0 0 0 0 0.294109770837774 0.0456813996659842 0 0 0 0 0 0 0 0 0 -0.063661363321521 0 0 0 0 0 0 0 0 0 0 -2.40690911122946 0 -3.68206183909578 0 0 -3.32678249499725 0 -0.482987450162859 -2.82653167328527 0 0 0 0 0 0
0 0 0 0 0 0 0 0 0 0 0 0 0 0 0 0 0 0 0 0 0 0 0 0 0 -0.063661363321521 0 0 0 0 0 0 0 0 0 -1.09251768594579 0 -0.518142430481405 0 0 0 0 -1.12066406439912 -1.84507217170511 0 0 0 0 0 0
0 0 0 0 0 0 0 0 0 0 0 0 0 0 0 0 0 0 0 0 0 0 0 0 0 0 -0.063661363321521 0 0 0 0 0 0 0 0 0 0 -2.29675549962494 0 0 -1.37509097407318 0 -2.75792725908883 -0.893717342970449 0 0 0 0 0 0
0 0 0 0 0.160243688669863 0.125269697466353 0.169058133558018 0.0947609218765706 0.0507740810965463 0.115986352091596 0.371956191091529 0.0300471523355009 0.361740278606966 0 0 0 0 0 0 0 0 0 0 0 0 0 0 -0.063661363321521 -0.246575095861531 0 0 -1.41034816388697 0 0 0 -0.280087660342929 0 -0.934432610005882 0 0 -0.717059605677586 0 0 -1.07448497008217 0 0 0 0 0 0
0 0 0 0 0 0 0 0 0 0 0 0 0 0 0 0 0 0 0 0 0 0 0 0 0 0 0 0.0503600761193075 -0.063661363321521 0 0 -3.37176858099571 0 0 0 0 0 -1.50220078253074 0 0 -0.851483770649854 0 0 -4.80691113813464 0 0 0 0 0 0
0 0 0 0.255582738926502 0 0 0 0 0 0 0 0 0 0 0 0 0 0 0 0 0 0 0 0 0 0 0 0 0 -0.063661363321521 0 -1.2182937906834 0 0 0 0 0 0 0 0 0 0 0 -0.206109457921893 0 0 0 0 0 0
0 0 0 0 0 0.318016239534019 0.164488249507806 0 0 0.0949820395613437 0 0.128332956790408 0.190448983825579 0 0 0 0 0 0 0 0 0 0 0 0 0 0 0 0 0 -0.063661363321521 0 0 0 0 0 0 0 0 0 -0.817360657388832 0 0 -1.53700499142466 0 0 0 0 0 0
0 0 0 0 0 0 0 0 0 0 0 0 0 0 0 0 0 0 0 0 0 0 0 0 0 0 0 0.291005714663286 0.68122638863218 0.241436471017396 0 -0.063661363321521 0 0 -0.521816365277431 0 0 0 0 0 0 0 0 0 0 -0.376678417254089 0 0 0 0
0 0.158358466634988 0 0.245962513659786 0 0 0 0 0 0 0 0 0 0 0 0 0 0 0 0 0 0 0 0 0 0 0 0 0 0 0 0 -0.063661363321521 0 -0.211336083902837 0 0 0 0 0 0 0 0 0 0 0 0 0 0 0
0 0 0 0 0 0 0 0 0 0 0 0 0 0 0 0.262524073261508 1.01593180610919 0 0 0 0 0 0 0 0 0 0 0 0 0 0 0 0 -0.063661363321521 0 0 0 0 0 0 0 -4.00450150118591 0 0 0 -0.317578205699356 0 0 0 0
0 0 0 0 0 0 0 0 0 0 0 0 0 0 0 0 0 0 0 0 0 0 0 0 0 0 0 0 0 0 0 0.101886476744764 0.045657779778635 0 -0.063661363321521 0 0 0 -1.2052397363096 0 0 -2.27788667524532 0 0 0 -1.75977578343192 0 0 0 0
0 0 0 0 0 0 0 0 0 0 0 0 0 0 0 0 0 0 0 0 0 0 0 0.275680910796094 0.506023548039696 0.213126482416909 0 0.0552608227806965 0 0 0 0 0 0 0 -0.063661363321521 0 0 0 0 0 0 0 0 0 -3.9944505486507 0 0 0 0
0 0 0 0 0 0 0 0 0 0 0 0 0 0 0 0 0 0 0 0 0 0 0 0 0 0 0 0 0 0 0 0 0 0 0 0 -0.063661363321521 0 -0.707819952937406 0 0 -3.33861537621845 0 0 0 -0.737930137107408 0 0 0 0
0 0 0 0 0 0 0 0 0 0 0 0 0 0 0 0 0 0 0 0 0 0 0 0.0836910831291526 0.714811285783665 0.104397826932417 0.469469362090793 0.182382034471273 0.276722684967383 0 0 0 0 0 0 0 0 -0.063661363321521 -0.685973202203844 0 0 -1.75921812978311 0 0 0 -5.50244009267705 0 0 0 0
0 0 0 0 0 0 0 0 0 0 0 0 0 0 0 0 0 0 0 0 0 0 0 0 0 0 0 0 0 0 0 0 0 0 0.224271053999907 0 0.135643600902982 0.143643567380712 -0.063661363321521 0.208595018751412 0 -1.09944389864721 0 0 0 -0.0811992321687451 0 0 0 0
0 0 0 0 0 0 0 0 0 0 0 0 0 0 0 0 0 0 0 0 0 0 0 0 0 0 0 0 0 0 0 0 0 0 0 0 0 0 -1.0299789514929 -0.063661363321521 0 -1.90525479816673 0 0 0 0 0 0 0 0
0 0 0 0 0 0 0 0 0 0 0 0 0 0 0 0 0 0.0944451474377402 0.289168448323371 0.380918545276242 0.268916826730491 0.0915643437116094 0.700331510958768 0.0540053355103925 0.629189074750372 0 0.268298972382792 0.12921936073635 0.180657189457188 0 0.168364357318526 0 0 0 0 0 0 0 0 0 -0.063661363321521 -2.46830416518902 0 0 0 0 0 0 0 0
0 0 0 0 0 0 0 0 0 0 0 0 0 0 0 0 0 0 0 0 0 0 0 0 0 0 0 0 0 0 0 0 0 0.820857097508797 0.463323120277833 0 0.645522607265549 0.359886851755016 0.226095895321841 0.379356370590881 0.490056927418394 -0.063661363321521 1.01335671760388 0.059478906316656 0.65497299143004 0 0.343296292073659 0 0.0532371910657033 0
0 0 0 0 0 0 0 0 0 0 0 0 0 0 0 0 0 0 0 0 0 0 0 0.323839979662422 0.0917600494143457 0.238588824724269 0.525612758833101 0 0 0 0 0 0 0 0 0 0 0 0 0 0 -5.35488242037534 -0.063661363321521 0 0 0 0 0 0 0
0 0 0 0 0 0 0 0 0 0 0 0 0 0 0 0 0 0 0 0 0 0 0 0.924198677993903 0.565862346624474 0.370566963662418 0.158099946362536 0.211428494721638 0.950099808690946 0.0380744373190455 0.293472345007746 0 0 0 0 0 0 0 0 0 0 -0.267771607640103 0 -0.063661363321521 0 0 0 0 0 0
0 0 0 0 0 0 0 0 0 0 0 0 0 0 0 0 0 0 0 0 0 0 0 0 0 0 0 0 0 0 0 0 0 0 0 0 0 0 0 0 0 -3.37473877042075 0 0 -0.063661363321521 0 0 0 0 0
0 0 0 0 0 0 0 0 0 0 0 0 0 0 0 0 0 0 0 0 0 0 0 0 0 0 0 0 0 0 0 0.0697218129572679 0 0.0670582239096071 0.355626414853173 0.787003340039022 0.152740032970129 1.06567982855752 0.0162826858415147 0 0 0 0 0 0 -0.063661363321521 0 0 0 0
0 0 0 0 0 0 0 0 0 0 0 0 0 0.113678547015068 0.294471601846882 0.624424088018124 0 0.222772748177748 0 0 0 0 0 0 0 0 0 0 0 0 0 0 0 0 0 0 0 0 0 0 0 -1.65108920492656 0 0 0 0 -0.063661363321521 0 0 0
0 0 0 0 0.0940564442011497 0 0 0 0 0 0 0 0 0 0 0 0 0 0 0 0 0 0 0 0 0 0 0 0 0 0 0 0 0 0 0 0 0 0 0 0 0 0 0 0 0 0 -0.063661363321521 0 0
0 0 0 0 0 0 0 0 0.0907278983633123 0.189486654326108 0.270781413427073 0 0.0883651429028873 0.2135562029471 0.132627434250198 0 0.131059571391062 0.0445642508700219 0.179681986895088 0.125052596190701 0 0 0 0 0 0 0 0 0 0 0 0 0 0 0 0 0 0 0 0 0 -0.2526633357308 0 0 0 0 0 0 -0.063661363321521 0
0 0 0 0 0.0834655655460404 0.0768375561931915 0.150970696748498 0.121251968271131 0 0.749558417789175 0.430685556760377 0.139175048739195 0.473353589456025 0.45904637209023 0.09867237339315 0 0 0 0 0 0 0 0 0 0 0 0 0 0 0 0 0 0 0 0 0 0 0 0 0 0 0 0 0 0 0 0 0 0 -0.063661363321521
