-0.272556688980904 0 0 0 0 0 0 0 0 0 0 0 0 0 0 0 0 0 0 0 0 -4.62959455696317 0 0 0 0 0 0 0 0 0 0 0 0 0 0 0 -0.918396360312205 0 0 0 0 0 0 0 0 0 0 0 0
0 -0.272556688980904 0 -1.51380395808229 0 -0.374216747133094 0 0 0 0 0 0 0 0 0 0 0 0 0 0 0 0 0 0 0 0 0 0 0 -0.989681957963896 0 -0.965658465615907 0 0 0 0 0 0 0 0 0 0 0 0 0 0 0 0 0 0
0 0 -0.272556688980904 0 0 -0.398353725211327 0 0 0 0 0 0 0 0 0 0 0 0 0 0 0 0 0 0 0 0 0 0 0 -0.714885700993022 0 -1.78396398459566 0 0 0 0 0 -0.225696003177862 0 0 0 0 0 0 0 0 0 -0.28228720152663 0 0
0 0.305525795320722 0 -0.272556688980904 0 -3.88109907211661 0 0 0 0 0 0 0 0 0 0 0 0 0 -0.465718478247126 0 0 0 0 0 0 0 0 0 0 0 -1.60246380104555 0 0 0 0 0 -0.382094887549525 0 0 0 0 0 0 0 0 0 -0.594614663163387 0 0
0 0 0 0 -0.272556688980904 0 0 0 -7.03227028822129 0 0 0 0 0 0 0 0 0 0 0 0 0 0 0 0 0 0 0 0 -1.5660699354101 0 0 0 0 0 0 0 0 0 0 0 0 0 0 0 0 0 0 0 0
0 0.0728463959315025 0.0767642227741749 0.752877627902475 0 -0.272556688980904 0 0 0 0 0 0 0 0 0 0 0 0 0 -0.810785664805404 0 0 0 0 0 -1.20394757522071 0 0 -1.36137535023836 -1.42469861913862 0 0 0 0 0 0 0 0 0 0 -3.53098613248436 0 0 0 -0.999292749938913 0 0 -0.777445828818503 0 0
0 0 0 0 0 0 -0.272556688980904 0 0 0 0 0 0 0 0 0 0 0 0 0 0 0 0 0 0 -0.309242815974193 0 0 0 0 0 0 0 0 0 0 0 -0.523476661693752 0 0 -0.15766242155339 0 0 0 -1.76739488899653 0 0 0 0 0
0 0 0 0 0 0 0 -0.272556688980904 0 0 0 0 0 0 0 0 0 0 0 0 0 0 0 0 0 -1.31263519181675 0 0 0 0 0 0 0 0 0 0 0 0 0 0 0 0 0 0 0 0 0 0 0 0
0 0 0 0 1.37533621166637 0 0 0 -0.272556688980904 -0.238525722592001 0 0 -4.63478965373444 0 0 0 0 0 0 0 0 0 0 0 0 0 0 0 0 0 0 0 0 0 0 0 0 0 0 0 0 0 0 0 0 0 0 -1.50333546507478 0 0
0 0 0 0 0 0 0 0 0.0460937041116344 -0.272556688980904 0 0 0 -2.44097903413844 0 0 0 0 0 0 0 0 0 0 0 -1.07806762500361 0 -0.941219766095383 0 0 0 0 0 0 0 0 0 0 0 0 0 0 0 0 0 0 0 0 0 0
0 0 0 0 0 0 0 0 0 0 -0.272556688980904 0 0 0 0 0 0 -0.102198490414786 0 0 0 0 0 0 0 0 -2.25849733517953 0 0 0 0 0 0 0 0 -1.11667030974927 0 0 0 0 0 -2.31925336122724 0 0 0 0 0 -1.24344650984154 0 0
0 0 0 0 0 0 0 0 0 0 0 -0.272556688980904 0 0 0 0 0 0 0 0 0 0 0 0 0 0 0 0 0 0 0 0 0 0 0 -3.0196086392236 0 0 0 0 0 0 0 0 0 0 0 -0.153068098600516 0 0
0 0 0 0 0 0 0 0 0.930888977475033 0 0 0 -0.272556688980904 0 0 0 0 -4.14517096836936 0 0 0 0 0 0 0 -0.524785211249677 -0.930504089727139 0 0 0 0 0 0 0 0 -0.357565651433015 0 0 0 0 0 -0.265972813418484 0 0 0 0 0 -5.29765775293454 0 0
0 0 0 0 0 0 0 0 0 0.525085307439133 0 0 0 -0.272556688980904 0 0 0 -0.986538499875582 0 0 0 0 0 0 0 -0.366729642232151 -5.2640368174319 0 0 0 0 0 0 0 0 -2.88860150164317 0 0 0 0 0 -0.295361567242643 0 0 0 0 0 -1.10066490199297 0 0
0 0 0 0 0 0 0 0 0 0 0 0 0 0 -0.272556688980904 0 0 -0.687355121780224 0 0 0 0 0 0 0 0 -0.580981943610154 0 0 0 0 0 0 0 0 0 0 0 0 0 0 0 0 0 0 0 0 0 0 0
0 0 0 0 0 0 0 0 0 0 0 0 0 0 0 -0.272556688980904 0 -1.50986057180972 0 0 0 0 0 0 0 -4.66128195545585 -0.23009014272188 0 0 0 0 0 0 0 0 -7.97788881366411 0 0 0 0 0 0 0 0 0 0 0 0 0 0
0 0 0 0 0 0 0 0 0 0 0 0 0 0 0 0 -0.272556688980904 0 -2.17272542930711 0 0 0 -0.156829292510322 0 0 0 -4.0924550882934 0 0 0 0 0 0 0 0 -3.35383186715758 0 0 0 0 0 0 0 0 0 0 0 0 0 0
0 0 0 0 0 0 0 0 0 0 0.0206435337954985 0 0.752158525117352 0.193262745532988 0.13966175692546 0.299753493717692 0 -0.272556688980904 -1.06320614681373 0 0 0 0 0 0 0 -0.154133801788148 0 0 0 0 0 0 0 0 0 0 0 0 0 0 0 0 0 0 0 0 0 0 0
0 0 0 0 0 0 0 0 0 0 0 0 0 0 0 0 0.436334211038383 0.219058099745861 -0.272556688980904 0.259622179707389 0.316984425057028 0 0 0 0 0 -0.42882427840702 0 0 0 0 0 0 0 0 0 0 0 0 0 0 0 -1.79647249249363 0 0 0 0 -0.999210904747309 0 0
0 0 0 0.0896783837619358 0 0.163264653949554 0 0 0 0 0 0 0 0 0 0 0 0 -1.29907695270628 -0.272556688980904 0 0 0 0 0 0 0 0 0 0 0 0 0 0 0 0 0 0 0 0 0 0 -2.25398999881076 0 0 0 0 -1.39326608194876 0 0
0 0 0 0 0 0 0 0 0 0 0 0 0 0 0 0 0 0 -1.68188767821503 0 -0.272556688980904 0 0 0 0 0 0 0 0 0 0 0 0 0 0 0 0 0 0 0 0 0 -1.03729125336715 0 0 0 0 -2.11401900238129 0 0
0.989250615736037 0 0 0 0 0 0 0 0 0 0 0 0 0 0 0 0 0 0 0 0 -0.272556688980904 0 0 0 0 0 0 0 0 0 0 0 0 0 0 0 0 0 0 0 0 0 0 0 0 0 -0.200942239910237 -0.06729503976344 0
0 0 0 0 0 0 0 0 0 0 0 0 0 0 0 0 0.0305349034857738 0 0 0 0 0 -0.272556688980904 0 0 0 0 0 0 0 0 0 0 0 0 0 0 0 0 0 0 0 -1.02119667864512 0 0 0 0 -2.15414182234998 -0.186420933945134 0
0 0 0 0 0 0 0 0 0 0 0 0 0 0 0 0 0 0 0 0 0 0 0 -0.272556688980904 0 0 0 0 0 0 0 0 0 0 0 0 0 0 0 0 0 0 0 0 0 0 0 0 -1.26435643515961 0
0 0 0 0 0 0 0 0 0 0 0 0 0 0 0 0 0 0 0 0 0 0 0 0 -0.272556688980904 0 0 0 0 0 0 0 0 0 0 0 0 0 0 0 0 0 -6.04187735916179 0 0 0 0 0 -0.17249679845219 0
0 0 0 0 0 0.230127575179624 0.0572748127322656 0.277292087818996 0 0.219967152187023 0 0 0.103321064324454 0.0729413770885665 0 0.951219812643425 0 0 0 0 0 0 0 0 0 -0.272556688980904 0 0 0 0 0 0 0 0 0 0 0 0 0 0 0 0 0 0 0 0 0 -0.826744156689128 -2.34967405213324 0
0 0 0 0 0 0 0 0 0 0 0.432475210481043 0 0.18527158294792 1.09738429830192 0.110437375859634 0.047421199148437 0.736873522005972 0.033248031696405 0.0877637252279469 0 0 0 0 0 0 0 -0.272556688980904 0 0 0 0 0 0 0 0 0 0 0 0 0 0 0 -1.37269896000382 0 0 0 0 0 -0.643192893435404 0
0 0 0 0 0 0 0 0 0 0.183541146298921 0 0 0 0 0 0 0 0 0 0 0 0 0 0 0 0 0 -0.272556688980904 0 0 0 0 0 0 0 0 0 0 0 0 0 0 0 0 0 0 0 -0.300980870973208 -0.955137607338655 0
0 0 0 0 0 0.264730197100317 0 0 0 0 0 0 0 0 0 0 0 0 0 0 0 0 0 0 0 0 0 0 -0.272556688980904 0 0 0 0 0 0 0 0 0 0 0 0 0 0 0 0 0 0 -0.0584917894164322 0 0
0 0.188615034611538 0.138546781652934 0 0.317070145264445 0.290283522005475 0 0 0 0 0 0 0 0 0 0 0 0 0 0 0 0 0 0 0 0 0 0 0 -0.272556688980904 -1.54997999682824 0 0 0 -1.90349256190502 0 0 0 0 0 0 0 0 0 0 0 0 0 -2.3322642378041 -0.321734553374113
0 0 0 0 0 0 0 0 0 0 0 0 0 0 0 0 0 0 0 0 0 0 0 0 0 0 0 0 0 0.311353224316098 -0.272556688980904 0 0 0 0 0 0 0 0 0 0 0 0 0 0 -0.283399330311955 0 0 -1.34013055401195 0
0 0.199251471026713 0.361670782174666 0.318134597522846 0 0 0 0 0 0 0 0 0 0 0 0 0 0 0 0 0 0 0 0 0 0 0 0 0 0 0 -0.272556688980904 0 0 -2.17972333522231 0 0 0 0 0 0 0 0 0 0 0 0 -1.15840575254184 0 0
0 0 0 0 0 0 0 0 0 0 0 0 0 0 0 0 0 0 0 0 0 0 0 0 0 0 0 0 0 0 0 0 -0.272556688980904 0 -1.15730708711085 0 0 0 0 0 0 0 0 0 0 0 0 0 -0.25480706851763 -0.234488638067236
0 0 0 0 0 0 0 0 0 0 0 0 0 0 0 0 0 0 0 0 0 0 0 0 0 0 0 0 0 0 0 0 0 -0.272556688980904 -1.21364899769228 0 0 0 0 0 0 0 0 0 0 0 0 0 -3.17025158543352 -4.14911566707741
0 0 0 0 0 0 0 0 0 0 0 0 0 0 0 0 0 0 0 0 0 0 0 0 0 0 0 0 0 0.392079218646004 0 0.400934656896918 0.227765377481356 0.253323082319483 -0.272556688980904 0.188846592616564 0.49343911339058 0.171924074346442 0 0 0 0 0 0 0 0 0 0 0 0
0 0 0 0 0 0 0 0 0 0 0.213094085622404 0.639903973765251 0.074086543720489 0.581740024526666 0 1.59137009587117 0.638678474975196 0 0 0 0 0 0 0 0 0 0 0 0 0 0 0 0 0 -1.00250765289034 -0.272556688980904 0 0 0 0 0 0 0 0 0 0 0 0 -3.47669459253353 -3.79432246097228
0 0 0 0 0 0 0 0 0 0 0 0 0 0 0 0 0 0 0 0 0 0 0 0 0 0 0 0 0 0 0 0 0 0 -2.45812013200572 0 -0.272556688980904 0 0 0 0 0 0 0 0 0 0 0 0 0
0.196773140504885 0 0.0481931251279055 0.0762109982101754 0 0 0.100991005515295 0 0 0 0 0 0 0 0 0 0 0 0 0 0 0 0 0 0 0 0 0 0 0 0 0 0 0 -0.78737308083429 0 0 -0.272556688980904 0 0 0 0 0 0 0 0 0 0 0 -0.895399207543134
0 0 0 0 0 0 0 0 0 0 0 0 0 0 0 0 0 0 0 0 0 0 0 0 0 0 0 0 0 0 0 0 0 0 0 0 0 0 -0.272556688980904 0 0 0 0 -2.32366551761832 0 0 0 0 0 -0.933525181165544
0 0 0 0 0 0 0 0 0 0 0 0 0 0 0 0 0 0 0 0 0 0 0 0 0 0 0 0 0 0 0 0 0 0 0 0 0 0 0 -0.272556688980904 0 0 0 -6.41239120156211 0 0 0 0 0 0
0 0 0 0 0 0.714613030080546 0.0334545494741188 0 0 0 0 0 0 0 0 0 0 0 0 0 0 0 0 0 0 0 0 0 0 0 0 0 0 0 0 0 0 0 0 0 -0.272556688980904 0 0 0 0 0 0 0 0 -0.905450458963989
0 0 0 0 0 0 0 0 0 0 0.426123708648565 0 0.0534330655061619 0.0614579631116635 0 0 0 0 0 0 0 0 0 0 0 0 0 0 0 0 0 0 0 0 0 0 0 0 0 0 0 -0.272556688980904 0 0 0 0 0 0 0 0
0 0 0 0 0 0 0 0 0 0 0 0 0 0 0 0 0 0 0.392075275748573 0.437446083561716 0.220856030826756 0 0.212907143970106 0 1.34118369670444 0 0.272487285644151 0 0 0 0 0 0 0 0 0 0 0 0 0 0 0 -0.272556688980904 0 0 0 0 0 0 -0.296059909459623
0 0 0 0 0 0 0 0 0 0 0 0 0 0 0 0 0 0 0 0 0 0 0 0 0 0 0 0 0 0 0 0 0 0 0 0 0 0 0.489771523895263 1.34142604959607 0 0 0 -0.272556688980904 0 0 0 0 0 -0.626086506627665
0 0 0 0 0 0.207848564762825 0.348419577008468 0 0 0 0 0 0 0 0 0 0 0 0 0 0 0 0 0 0 0 0 0 0 0 0 0 0 0 0 0 0 0 0 0 0 0 0 0 -0.272556688980904 0 -0.969947219993071 0 0 -1.36488397052539
0 0 0 0 0 0 0 0 0 0 0 0 0 0 0 0 0 0 0 0 0 0 0 0 0 0 0 0 0 0 0.0519117981236648 0 0 0 0 0 0 0 0 0 0 0 0 0 0 -0.272556688980904 -1.49621467072519 0 0 -1.78488651435208
0 0 0 0 0 0 0 0 0 0 0 0 0 0 0 0 0 0 0 0 0 0 0 0 0 0 0 0 0 0 0 0 0 0 0 0 0 0 0 0 0 0 0 0 0.197020537211222 0.313292850973928 -0.272556688980904 0 0 0
0 0 0.0550375690677638 0.114889846497764 0 0.150062789467351 0 0 0.293705830037085 0 0.232352254727595 0.0291365172337301 1.08339008041612 0.236875314538177 0 0 0 0 0.194140158244308 0.278358929650729 0.431833125744368 0.0378635614460326 0.411089573342085 0 0 0.170710537656608 0 0.0582323322947999 0.011691766671149 0 0 0.242976830116736 0 0 0 0 0 0 0 0 0 0 0 0 0 0 0 -0.272556688980904 0 -0.322096545880204
0 0 0 0 0 0 0 0 0 0 0 0 0 0 0 0 0 0 0 0 0 0.0128098393065024 0.0358258318442693 0.274193794006623 0.0337871239397529 0.452033859688509 0.132664760109297 0.187777597629948 0 0.449920613214947 0.274057769366336 0 0.0502951831869983 0.635576029270992 0 0.687039393340104 0 0 0 0 0 0 0 0 0 0 0 0 -0.272556688980904 -0.4239617691182
0 0 0 0 0 0 0 0 0 0 0 0 0 0 0 0 0 0 0 0 0 0 0 0 0 0 0 0 0 0.0633853352550186 0 0 0.0453999585618245 0.770033380677949 0 0.787012049077121 0 0.186797830859524 0.174709081186103 0 0.174102639652101 0 0.0576331026992281 0.130512947563514 0.270667352550301 0.380103618072381 0 0.0701467940110322 0.0830230671199399 -0.272556688980904
