0.839360368770816
0.629658320073566
0.491415633896236
0.814547422301609
0.236693660065356
2.06904560123086
1.4932031434572
2.21343503674442
0.772233357377694
5.06909068442096
3.28803777389761
0.564764487823005
0.576871790900893
1.8914621448809
0.108391263783971
1.31968215652741
0.876970725258882
0.920675233409132
1.50243030078864
0.442535463672191
1.82880985722071
1.08923074543461
0.0920461230840279
3.26506657581392
2.99722117374607
2.48953229862248
0.12160592272735
0.992220666089193
0.875799723279433
2.73142212489611
0.138543481048896
0.188589473850529
0.0724171145307566
0.384542582241051
0.947846284806943
0.746452459543839
0.23317070331512
3.87199418092634
0.819469241306498
0.199044312196033
0.825159121980355
1.4101780271218
0.66880229540415
0.37802869638128
0.258341893281716
0.4378567587576
1.67136661040443
0.112111061651473
3.46642109857747
2.00673118783757
