-0.226059275529026 0 0 -0.381718944754107 0 -0.654539291147334 0 0 0 0 0 0 0 0 0 0 0 0 0 0 0 0 0 0 0 0 0 0 0 0 0 0 -3.92623407508271 0 0 0 0 0 0 0 0 0 0 0 0 0 0 0 0 0
0 -0.226059275529026 0 -0.514232760012365 -0.379674529355117 -1.39467695430315 0 0 0 0 0 0 0 0 0 0 0 0 0 0 0 0 0 0 0 0 0 0 0 0 0 0 -1.22092702424076 0 0 0 0 0 0 0 0 0 0 0 0 0 0 0 0 0
0 0 -0.226059275529026 0 0 -1.06835484794429 0 0 0 0 0 0 0 0 0 0 0 0 0 0 0 0 0 0 0 0 0 0 0 -1.86681736528927 0 0 0 0 0 0 0 0 0 0 0 0 0 0 0 0 0 0 0 0
0.0697091891880712 0.103113402630733 0 -0.226059275529026 0 0 0 -1.77113212037561 0 -0.650307375843224 0 0 0 0 0 0 0 0 0 0 0 0 0 0 0 0 0 -1.94434577171557 0 -1.55620561508288 0 0 -3.53658370765269 0 0 0 0 -5.63753301181911 0 0 0 0 0 0 0 0 0 0 0 0
0 0.0796148150631972 0 0 -0.226059275529026 0 0 -0.461443185494143 0 0 0 0 0 0 0 0 0 0 0 0 0 0 0 0 0 0 0 -1.50282893661901 0 -0.819956866690684 0 0 0 0 0 0 0 0 0 0 0 0 0 0 0 0 0 0 -1.9489058786836 0
0.125585538429087 0.269995001011379 0.215919334727635 0 0 -0.226059275529026 0 -0.455598753372397 0 0 0 0 0 0 0 0 0 0 0 0 0 0 0 0 0 0 0 0 0 -1.99408664941833 0 0 -0.684732108362511 0 0 0 0 -2.18821197095673 0 0 0 0 0 0 0 0 0 0 0 0
0 0 0 0 0 0 -0.226059275529026 0 0 0 0 0 0 0 0 0 0 0 0 0 0 0 0 0 -4.0837002215146 0 0 -0.674462934938715 0 -0.818520203313077 0 0 -1.06238759998466 0 0 0 0 0 0 0 0 0 0 0 0 0 0 0 0 0
0 0 0 0.339018428775249 0.0864763531144248 0.0842557092816771 0 -0.226059275529026 0.173689288183696 1.67037119563048 0 0 0 0 0 0 0 0 0 0 0 0 0 0 -1.29437251223838 0 0 -0.854242524726558 0 0 0 0 -3.52860921653452 0 0 0 0 0 0 0 0 0 0 0 0 0 0 0 -1.61938284986486 0
0 0 0 0 0 0 0 -0.852301948782142 -0.226059275529026 0 -2.47775584610778 0 -4.30542460214127 0 0 0 0 0 0 0 0 0 0 0 0 0 0 -4.17101013788499 0 -0.320662950520174 0 0 -0.777854335037195 0 0 0 0 0 0 0 0 0 0 0 0 0 0 0 -0.553919608811221 0
0 0 0 0.12957304160957 0 0 0 -8.28176042072372 0 -0.226059275529026 -4.97448563703972 0 0 0 0 0 0 0 -6.25674277865743 0 0 0 0 0 0 0 0 0 0 0 0 0 0 0 0 0 0 0 0 0 0 0 0 0 0 0 0 0 -0.671240061472268 0
0 0 0 0 0 0 0 0 0.483990215216358 0.95243993293207 -0.226059275529026 0 0 0 0 0 0 0 0 0 0 0 0 0 0 0 0 0 0 0 0 0 -0.0943841637021153 0 0 0 0 0 0 0 0 0 0 0 0 0 0 0 -0.913203765586943 0
0 0 0 0 0 0 0 0 0 0 0 -0.226059275529026 0 0 0 0 0 0 -2.52522795999151 0 0 0 0 0 0 -0.993160230171503 0 -0.687280490485294 0 -0.555495216650464 0 0 0 0 0 0 0 0 0 0 0 0 0 0 0 0 0 0 0 0
0 0 0 0 0 0 0 0 0.821600226451268 0 0 0 -0.226059275529026 0 0 0 0 0 -1.97110266524066 0 0 0 0 0 0 -0.967145220857879 0 0 0 -5.2129628314535 0 0 0 0 0 0 0 0 0 0 0 0 0 0 0 0 0 0 -1.12599373665024 0
0 0 0 0 0 0 0 0 0 0 0 0 0 -0.226059275529026 0 0 0 0 0 0 0 0 0 0 0 0 0 0 0 -3.05321840286017 0 0 -0.355397448493507 0 0 0 0 0 0 0 0 0 0 0 0 0 -0.39155853818772 0 0 0
0 0 0 0 0 0 0 0 0 0 0 0 0 0 -0.226059275529026 0 0 0 -0.158622322257582 0 0 0 0 0 0 0 0 -1.44557503817266 0 0 0 0 0 0 0 0 0 0 0 0 0 0 0 0 0 0 0 0 -1.29340381684543 0
0 0 0 0 0 0 0 0 0 0 0 0 0 0 0 -0.226059275529026 0 0 0 0 0 0 0 0 0 0 0 0 0 0 0 0 0 0 0 0 0 0 0 0 0 0 0 0 0 0 -1.70686455537494 0 0 0
0 0 0 0 0 0 0 0 0 0 0 0 0 0 0 0 -0.226059275529026 0 0 0 0 0 0 0 0 0 0 0 0 0 0 0 0 0 0 0 0 0 0 0 0 0 0 0 0 0 -0.91158143478489 0 0 0
0 0 0 0 0 0 0 0 0 0 0 0 0 0 0 0 0 -0.226059275529026 -0.893461302627406 0 0 0 0 0 0 0 0 0 0 0 0 0 0 0 0 -0.196914751820164 0 0 0 0 0 0 0 0 0 0 0 0 0 0
0 0 0 0 0 0 0 0 0 1.36356422869074 0 0.505731256045238 0.369551434195104 0 0.0304821894594174 0 0 0.19234482486809 -0.226059275529026 0 -1.69601116804127 0 0 0 0 0 0 0 -1.23227832518959 0 0 0 0 0 0 0 0 0 -6.86094878763845 0 0 -0.484130049119407 0 0 0 0 0 0 0 0
0 0 0 0 0 0 0 0 0 0 0 0 0 0 0 0 0 0 0 -0.226059275529026 0 0 0 0 0 0 0 0 -1.21139212369678 0 0 0 0 0 0 0 0 0 -2.00936841147952 0 0 -0.326412602128661 0 0 0 0 0 0 0 0
0 0 0 0 0 0 0 0 0 0 0 0 0 0 0 0 0 0 0.317122795075593 0 -0.226059275529026 0 0 0 0 0 0 0 0 0 0 0 0 0 0 0 0 0 -0.192456215413227 0 0 -2.65588887534401 0 0 0 0 0 0 0 0
0 0 0 0 0 0 0 0 0 0 0 0 0 0 0 0 0 0 0 0 0 -0.226059275529026 0 0 0 0 0 0 0 0 0 0 0 -0.895433135345944 0 0 0 0 -0.0804933409843218 0 0 -2.06125759204116 0 0 0 0 0 0 0 0
0 0 0 0 0 0 0 0 0 0 0 0 0 0 0 0 0 0 0 0 0 0 -0.226059275529026 0 0 0 0 0 0 0 0 0 0 -0.706397201367071 0 0 0 0 -0.311637791341007 0 0 -1.17885027309959 0 0 0 0 0 0 0 0
0 0 0 0 0 0 0 0 0 0 0 0 0 0 0 0 0 0 0 0 0 0 0 -0.226059275529026 0 0 0 0 0 0 0 -2.24659416257788 0 -0.462286007362312 0 0 0 0 -0.176497409849964 0 0 0 0 0 0 0 0 0 0 0
0 0 0 0 0 0 0.833925284580387 0.24383462862704 0 0 0 0 0 0 0 0 0 0 0 0 0 0 0 0 -0.226059275529026 0 0 0 -2.26912377544431 0 0 -6.17405120341302 0 -1.48033009870324 0 0 0 0 0 0 0 -0.444848917320276 0 0 0 0 0 0 0 0
0 0 0 0 0 0 0 0 0 0 0 0.18459357343363 0.200735957188012 0 0 0 0 0 0 0 0 0 0 0 0 -0.226059275529026 0 0 -1.10386917863744 0 0 0 0 -2.29518043647537 -0.583007829433461 0 0 0 0 -1.08237154683691 0 -1.8161848932799 0 0 0 0 0 0 0 0
0 0 0 0 0 0 0 0 0 0 0 0 0 0 0 0 0 0 0 0 0 0 0 0 0 0 -0.226059275529026 0 0 0 0 0 0 -0.245385828661972 0 0 0 0 0 -0.386377143208531 0 -6.01067861874061 0 0 0 0 0 0 0 0
0 0 0 0.365239506773177 0.332205046652188 0 0.136653950781089 0.173489420395425 0.869321695689983 0 0 0.136365727634552 0 0 0.298529580863574 0 0 0 0 0 0 0 0 0 0 0 0 -0.226059275529026 0 0 0 0 0 -0.924726087241272 0 0 0 0 0 -0.840848363800727 0 -1.55734852349847 0 0 0 0 0 0 0 0
0 0 0 0 0 0 0 0 0 0 0 0 0 0 0 0 0 0 0.252026704230788 0.253331203850709 0 0 0 0 0.456360376922891 0.220626635712796 0 0 -0.226059275529026 0 0 0 0 0 0 0 -5.31885716029552 0 0 0 0 0 0 0 0 0 0 0 0 0
0 0 0.391512243069011 0.300632508147275 0.155463344797633 0.387749834222815 0.146651102623371 0 0.063901174099372 0 0 0.113801431699247 1.05846152381532 0.617825595088211 0 0 0 0 0 0 0 0 0 0 0 0 0 0 0 -0.226059275529026 0 0 0 -2.41246808872876 0 0 -0.606840693553661 0 0 -2.06276536798512 0 -1.3345328309936 0 0 0 0 0 0 0 0
0 0 0 0 0 0 0 0 0 0 0 0 0 0 0 0 0 0 0 0 0 0 0 0 0 0 0 0 0 0 -0.226059275529026 0 0 0 0 0 0 0 0 0 -0.532228184657549 -1.54252419238935 0 0 0 0 0 0 0 0
0 0 0 0 0 0 0 0 0 0 0 0 0 0 0 0 0 0 0 0 0 0 0 0.445492088977039 1.29070074546252 0 0 0 0 0 0 -0.226059275529026 0 -4.04492424123598 0 0 0 0 0 0 -0.131272388455048 -0.364412078334026 0 0 -0.287719911063718 0 0 0 0 0
0.77796474123986 0.213674559298047 0 0.670091402446752 0 0.136128343508646 0.198198735633684 0.732916061711215 0.158072044851702 0 0.0186226723588958 0 0 0.0767102728976308 0 0 0 0 0 0 0 0 0 0 0 0 0 0 0 0 0 0 -0.226059275529026 0 0 0 0 0 0 -2.91231189094777 0 0 0 -0.446619995001928 -0.179730892188743 -0.893840873334345 0 0 0 0
0 0 0 0 0 0 0 0 0 0 0 0 0 0 0 0 0 0 0 0 0 0.182718575163583 0.133493770114663 0.0914751986815837 0.279779427858204 0.422676666319185 0.0455447541995289 0.174765244496642 0 0.452729812691097 0 0.746905159916055 0 -0.226059275529026 0 0 0 0 0 0 -6.14862961661191 -0.981242504830826 -0.359886177111023 -3.64441058709078 -0.341761501357536 -1.42794299558473 0 0 0 0
0 0 0 0 0 0 0 0 0 0 0 0 0 0 0 0 0 0 0 0 0 0 0 0 0 0.119532078447514 0 0 0 0 0 0 0 0 -0.226059275529026 0 0 0 0 -8.83274719909005 -0.547621074505765 0 0 -0.218914430545769 -5.64306888153905 -1.01758921005829 0 -0.259536529870542 0 0
0 0 0 0 0 0 0 0 0 0 0 0 0 0 0 0 0 0.0381063318106194 0 0 0 0 0 0 0 0 0 0 0 0 0 0 0 0 0 -0.226059275529026 0 0 0 -3.41732406270491 -1.43492225206989 -0.446527037629666 0 -2.51821753933399 -0.0512404792705708 -3.08745348326946 0 -0.250808443456639 0 0
0 0 0 0 0 0 0 0 0 0 0 0 0 0 0 0 0 0 0 0 0 0 0 0 0 0 0 0 1.13987464956937 0.123148683287313 0 0 0 0 0 0 -0.226059275529026 0 0 -0.731699973152687 0 0 -1.03798867666223 0 0 0 0 0 0 -0.330089396392179
0 0 0 1.18750821330003 0 0.424563552669825 0 0 0 0 0 0 0 0 0 0 0 0 0 0 0 0 0 0 0 0 0 0 0 0 0 0 0 0 0 0 0 -0.226059275529026 0 -0.334642576518835 0 0 -0.448610555447621 0 0 0 0 0 0 0
0 0 0 0 0 0 0 0 0 0 0 0 0 0 0 0 0 0 1.35134023920204 0.366399305046351 0.0357469435030275 0.0165171658627586 0.062547301203039 0.0359697932834193 0 0 0 0 0 0 0 0 0 0 0 0 0 0 -0.226059275529026 -0.235881287928686 -0.624070863813772 0 -1.0610060896428 0 0 0 0 0 0 0
0 0 0 0 0 0 0 0 0 0 0 0 0 0 0 0 0 0 0 0 0 0 0 0 0 0.191484797973556 0.0758773352394857 0.163736594838617 0 0.404173112311045 0 0 0.593465526548766 0 1.72891922360685 0.706545547937802 0.139199739886521 0.0595718194074231 0.044357966337338 -0.226059275529026 0 0 -0.451243846953543 0 0 0 0 0 0 0
0 0 0 0 0 0 0 0 0 0 0 0 0 0 0 0 0 0 0 0 0 0 0 0 0 0 0 0 0 0 0.113846740467346 0.0268868138897957 0 1.28465519841144 0.119025480456453 0.323106631185449 0 0 0.117685843679306 0 -0.226059275529026 0 0 0 0 0 0 0 0 -7.27693960356312
0 0 0 0 0 0 0 0 0 0 0 0 0 0 0 0 0 0 0.0943717717176236 0.0678939710192459 0.527306386286896 0.442096566319641 0.22966325760003 0 0.0925416565621006 0.382934596105413 1.14464710023087 0.290702141418163 0 0.263045148429498 0.339734016714008 0.0676400696514287 0 0.181612191529457 0 0.0854435506986988 0 0 0 0 0 -0.226059275529026 0 0 0 0 0 0 0 0
0 0 0 0 0 0 0 0 0 0 0 0 0 0 0 0 0 0 0 0 0 0 0 0 0 0 0 0 0 0 0 0 0 0.0706891177970534 0 0 0.229810781052785 0.0983721232817679 0.2060491371441 0.0930113046665536 0 0 -0.226059275529026 0 0 0 0 0 0 0
0 0 0 0 0 0 0 0 0 0 0 0 0 0 0 0 0 0 0 0 0 0 0 0 0 0 0 0 0 0 0 0 0.0905866046788708 0.749061977898499 0.0400591887702673 0.517585338867486 0 0 0 0 0 0 0 -0.226059275529026 0 0 0 0 0 0
0 0 0 0 0 0 0 0 0 0 0 0 0 0 0 0 0 0 0 0 0 0 0 0 0 0 0 0 0 0 0 0.0592401481508084 0.0391553801020847 0.0660524687419933 1.09224484275916 0.00957312881778809 0 0 0 0 0 0 0 0 -0.226059275529026 0 0 0 0 0
0 0 0 0 0 0 0 0 0 0 0 0 0 0 0 0 0 0 0 0 0 0 0 0 0 0 0 0 0 0 0 0 0.185692015322054 0.290356870042146 0.204507597133049 0.598265736382672 0 0 0 0 0 0 0 0 0 -0.226059275529026 0 0 0 0
0 0 0 0 0 0 0 0 0 0 0 0 0 0.0837716742010422 0 0.372877075351674 0.203962298430892 0 0 0 0 0 0 0 0 0 0 0 0 0 0 0 0 0 0 0 0 0 0 0 0 0 0 0 0 0 -0.226059275529026 0 0 0
0 0 0 0 0 0 0 0 0 0 0 0 0 0 0 0 0 0 0 0 0 0 0 0 0 0 0 0 0 0 0 0 0 0 0.0536546976330094 0.0467625910550404 0 0 0 0 0 0 0 0 0 0 0 -0.226059275529026 0 0
0 0 0 0 0.360873677068099 0 0 0.343807577545673 0.11278978818604 0.136249806931792 0.175220647063797 0 0.235223018692509 0 0.265298829760166 0 0 0 0 0 0 0 0 0 0 0 0 0 0 0 0 0 0 0 0 0 0 0 0 0 0 0 0 0 0 0 0 0 -0.226059275529026 0
0 0 0 0 0 0 0 0 0 0 0 0 0 0 0 0 0 0 0 0 0 0 0 0 0 0 0 0 0 0 0 0 0 0 0 0 0.068269343241331 0 0 0 1.53290695860179 0 0 0 0 0 0 0 0 -0.226059275529026
