-0.173048007803725 0 0 -1.5277366245046 0 -0.994056871306952 0 0 0 0 0 0 0 0 0 0 0 0 0 0 0 0 0 0 0 0 0 0 0 0 0 0 -1.91731158116156 0 0 0 0 0 0 0 0 0 0 0 0 0 0 0 0 0
0 -0.173048007803725 0 -0.961894413580311 -1.12797561064868 -0.48384159346225 0 0 0 0 0 0 0 0 0 0 0 0 0 0 0 0 0 0 0 0 0 0 0 0 0 0 -2.29478462984268 0 0 0 0 0 0 0 0 0 0 0 0 0 0 0 0 0
0 0 -0.173048007803725 0 0 -1.6341279711676 0 0 0 0 0 0 0 0 0 0 0 0 0 0 0 0 0 0 0 0 0 0 0 -0.641831426842778 0 0 0 0 0 0 0 0 0 0 0 0 0 0 0 0 0 0 0 0
0.26033050251111 0.175796620532569 0 -0.173048007803725 0 0 0 -3.72984016256108 0 -3.79404110943774 0 0 0 0 0 0 0 0 0 0 0 0 0 0 0 0 0 -0.318474847629278 0 -0.462599728378318 0 0 -0.357646908514201 0 0 0 0 -9.38684405875993 0 0 0 0 0 0 0 0 0 0 0 0
0 0.229209735607147 0 0 -0.173048007803725 0 0 -0.386876439153392 0 0 0 0 0 0 0 0 0 0 0 0 0 0 0 0 0 0 0 -1.64205312463378 0 -1.25254670993511 0 0 0 0 0 0 0 0 0 0 0 0 0 0 0 0 0 0 -1.07686791584167 0
0.207954771530593 0.0994145219690293 0.300211823833313 0 0 -0.173048007803725 0 -0.038995390820754 0 0 0 0 0 0 0 0 0 0 0 0 0 0 0 0 0 0 0 0 0 -1.33431909786079 0 0 -0.963855095006658 0 0 0 0 -0.494697335434843 0 0 0 0 0 0 0 0 0 0 0 0
0 0 0 0 0 0 -0.173048007803725 0 0 0 0 0 0 0 0 0 0 0 0 0 0 0 0 0 -0.591039523872617 0 0 -1.24423852915396 0 -1.56262795386085 0 0 -0.557412006142483 0 0 0 0 0 0 0 0 0 0 0 0 0 0 0 0 0
0 0 0 0.73867568287981 0.0800862709800636 0.00805327132671576 0 -0.173048007803725 0.145701025204691 0.0931280152731786 0 0 0 0 0 0 0 0 0 0 0 0 0 0 -0.1903075767871 0 0 -0.463666817496594 0 0 0 0 -0.839972619093693 0 0 0 0 0 0 0 0 0 0 0 0 0 0 0 -3.782437966743 0
0 0 0 0 0 0 0 -0.720384200983417 -0.173048007803725 0 -0.547046168399487 0 -0.444502694748727 0 0 0 0 0 0 0 0 0 0 0 0 0 0 -0.504774931150457 0 -2.3468650022736 0 0 -0.380221866918396 0 0 0 0 0 0 0 0 0 0 0 0 0 0 0 -7.15374828136746 0
0 0 0 0.809001886674073 0 0 0 -0.485316473522244 0 -0.173048007803725 -0.681009072654349 0 0 0 0 0 0 0 -2.37053740250837 0 0 0 0 0 0 0 0 0 0 0 0 0 0 0 0 0 0 0 0 0 0 0 0 0 0 0 0 0 -1.14330209408602 0
0 0 0 0 0 0 0 0 0.115872888118629 0.132769298219333 -0.173048007803725 0 0 0 0 0 0 0 0 0 0 0 0 0 0 0 0 0 0 0 0 0 -0.199165068062789 0 0 0 0 0 0 0 0 0 0 0 0 0 0 0 -0.789635235464073 0
0 0 0 0 0 0 0 0 0 0 0 -0.173048007803725 0 0 0 0 0 0 -2.49627576256266 0 0 0 0 0 0 -3.32888910307868 0 -0.61671133729532 0 -2.56259396636711 0 0 0 0 0 0 0 0 0 0 0 0 0 0 0 0 0 0 0 0
0 0 0 0 0 0 0 0 0.0932560154614986 0 0 0 -0.173048007803725 0 0 0 0 0 -9.72414423565717 0 0 0 0 0 0 -3.13539301048215 0 0 0 -1.61665516973905 0 0 0 0 0 0 0 0 0 0 0 0 0 0 0 0 0 0 -5.26411934868575 0
0 0 0 0 0 0 0 0 0 0 0 0 0 -0.173048007803725 0 0 0 0 0 0 0 0 0 0 0 0 0 0 0 -2.97964378152411 0 0 -0.970890813954509 0 0 0 0 0 0 0 0 0 0 0 0 0 -1.67395462522261 0 0 0
0 0 0 0 0 0 0 0 0 0 0 0 0 0 -0.173048007803725 0 0 0 -0.344616428725455 0 0 0 0 0 0 0 0 -1.87672606276077 0 0 0 0 0 0 0 0 0 0 0 0 0 0 0 0 0 0 0 0 -0.507973387899507 0
0 0 0 0 0 0 0 0 0 0 0 0 0 0 0 -0.173048007803725 0 0 0 0 0 0 0 0 0 0 0 0 0 0 0 0 0 0 0 0 0 0 0 0 0 0 0 0 0 0 -2.96182728300074 0 0 0
0 0 0 0 0 0 0 0 0 0 0 0 0 0 0 0 -0.173048007803725 0 0 0 0 0 0 0 0 0 0 0 0 0 0 0 0 0 0 0 0 0 0 0 0 0 0 0 0 0 -1.17029785385975 0 0 0
0 0 0 0 0 0 0 0 0 0 0 0 0 0 0 0 0 -0.173048007803725 -2.42187907925464 0 0 0 0 0 0 0 0 0 0 0 0 0 0 0 0 -4.08818446243254 0 0 0 0 0 0 0 0 0 0 0 0 0 0
0 0 0 0 0 0 0 0 0 0.519041666717606 0 0.502266240517747 1.89111719569305 0 0.0718601132997966 0 0 0.522011745166455 -0.173048007803725 0 -2.02974398293104 0 0 0 0 0 0 0 -0.114481347237288 0 0 0 0 0 0 0 0 0 -1.17121418493167 0 0 -0.510639723007172 0 0 0 0 0 0 0 0
0 0 0 0 0 0 0 0 0 0 0 0 0 0 0 0 0 0 0 -0.173048007803725 0 0 0 0 0 0 0 0 -0.460390545415755 0 0 0 0 0 0 0 0 0 -1.74772889093332 0 0 -0.377116880601268 0 0 0 0 0 0 0 0
0 0 0 0 0 0 0 0 0 0 0 0 0 0 0 0 0 0 0.415317237518661 0 -0.173048007803725 0 0 0 0 0 0 0 0 0 0 0 0 0 0 0 0 0 -1.15601686397074 0 0 -0.32811234774671 0 0 0 0 0 0 0 0
0 0 0 0 0 0 0 0 0 0 0 0 0 0 0 0 0 0 0 0 0 -0.173048007803725 0 0 0 0 0 0 0 0 0 0 0 -0.786701049375791 0 0 0 0 -0.229622351323199 0 0 -1.85506485797357 0 0 0 0 0 0 0 0
0 0 0 0 0 0 0 0 0 0 0 0 0 0 0 0 0 0 0 0 0 0 -0.173048007803725 0 0 0 0 0 0 0 0 0 0 -2.7514475782556 0 0 0 0 -0.0650082972198218 0 0 -1.17912605331236 0 0 0 0 0 0 0 0
0 0 0 0 0 0 0 0 0 0 0 0 0 0 0 0 0 0 0 0 0 0 0 -0.173048007803725 0 0 0 0 0 0 0 -3.06631802732913 0 -1.05570581341456 0 0 0 0 -0.688245888771196 0 0 0 0 0 0 0 0 0 0 0
0 0 0 0 0 0 0.121156315542781 0.0349402835662559 0 0 0 0 0 0 0 0 0 0 0 0 0 0 0 0 -0.173048007803725 0 0 0 -0.856511713909898 0 0 -2.7565107486041 0 -4.73217696007746 0 0 0 0 0 0 0 -0.400699376312011 0 0 0 0 0 0 0 0
0 0 0 0 0 0 0 0 0 0 0 0.624291642724361 0.618363319282155 0 0 0 0 0 0 0 0 0 0 0 0 -0.173048007803725 0 0 -1.75678538041938 0 0 0 0 -1.91712339847549 -0.126345938313957 0 0 0 0 -0.991636457178898 0 -3.08351150650729 0 0 0 0 0 0 0 0
0 0 0 0 0 0 0 0 0 0 0 0 0 0 0 0 0 0 0 0 0 0 0 0 0 0 -0.173048007803725 0 0 0 0 0 0 -0.69568924856547 0 0 0 0 0 -2.22254490298097 0 -1.60924458977467 0 0 0 0 0 0 0 0
0 0 0 0.0701435273698263 0.318895051753323 0 0.257851600568455 0.08980470551282 0.0976590599251933 0 0 0.120964816089894 0 0 0.361096194055971 0 0 0 0 0 0 0 0 0 0 0 0 -0.173048007803725 0 0 0 0 0 -0.828101295632506 0 0 0 0 0 -0.660088388239023 0 -0.842635564526114 0 0 0 0 0 0 0 0
0 0 0 0 0 0 0 0 0 0 0 0 0 0 0 0 0 0 0.0225382191213405 0.0903659180805392 0 0 0 0 0.170223355502356 0.36260642954487 0 0 -0.173048007803725 0 0 0 0 0 0 0 -1.20443441566439 0 0 0 0 0 0 0 0 0 0 0 0 0
0 0 0.12497905428546 0.0932186969768703 0.26477640870535 0.258615247422771 0.310142217579755 0 0.506732801394556 0 0 0.514632724524128 0.328707446213228 0.652621312435251 0 0 0 0 0 0 0 0 0 0 0 0 0 0 0 -0.173048007803725 0 0 0 -1.27061788707711 0 0 -0.583048003661355 0 0 -1.41719307067136 0 -0.214228725108019 0 0 0 0 0 0 0 0
0 0 0 0 0 0 0 0 0 0 0 0 0 0 0 0 0 0 0 0 0 0 0 0 0 0 0 0 0 0 -0.173048007803725 0 0 0 0 0 0 0 0 0 -5.26574393203403 -0.20447974843761 0 0 0 0 0 0 0 0
0 0 0 0 0 0 0 0 0 0 0 0 0 0 0 0 0 0 0 0 0 0 0 0.575384708050603 0.53821629846534 0 0 0 0 0 0 -0.173048007803725 0 -0.231142656923015 0 0 0 0 0 0 -1.69875960862983 -2.50414165637214 0 0 -7.62385270158323 0 0 0 0 0
0.376607084518497 0.449911388850965 0 0.0718440171099459 0 0.190805120781429 0.111735041867535 0.152084849983619 0.0705226534174574 0 0.03766044617359 0 0 0.182108434412732 0 0 0 0 0 0 0 0 0 0 0 0 0 0 0 0 0 0 -0.173048007803725 0 0 0 0 0 0 -2.80825407140375 0 0 0 -2.4372521484544 -0.686421660634137 -2.09196805908728 0 0 0 0
0 0 0 0 0 0 0 0 0 0 0 0 0 0 0 0 0 0 0 0 0 0.159473883956005 0.585369253424052 0.208013635112263 0.951114675072463 0.408161770419761 0.149706383436166 0.157815386288516 0 0.247048901019523 0 0.0464066681913788 0 -0.173048007803725 0 0 0 0 0 0 -2.01530750239256 -9.33553842791402 -2.16681107940227 -0.630851282657069 -0.70350108975504 -1.19255018979767 0 0 0 0
0 0 0 0 0 0 0 0 0 0 0 0 0 0 0 0 0 0 0 0 0 0 0 0 0 0.0263635026865665 0 0 0 0 0 0 0 0 -0.173048007803725 0 0 0 0 -1.6132335249315 -0.255091891554662 0 0 -0.228115286513052 -0.563902459391333 -5.20783421830213 0 -0.413937102344336 0 0
0 0 0 0 0 0 0 0 0 0 0 0 0 0 0 0 0 0.824604449482755 0 0 0 0 0 0 0 0 0 0 0 0 0 0 0 0 0 -0.173048007803725 0 0 0 -4.02339973951158 -0.109849059230516 -0.122524711589284 0 -0.0985364315104869 -1.453736678363 -0.862362671204359 0 -0.955637281353788 0 0
0 0 0 0 0 0 0 0 0 0 0 0 0 0 0 0 0 0 0 0 0 0 0 0 0 0 0 0 0.234844305895995 0.122141538706627 0 0 0 0 0 0 -0.173048007803725 0 0 -0.465530189565388 0 0 -0.743187969539593 0 0 0 0 0 0 -0.356586822940483
0 0 0 1.71173092629178 0 0.102950966940492 0 0 0 0 0 0 0 0 0 0 0 0 0 0 0 0 0 0 0 0 0 0 0 0 0 0 0 0 0 0 0 -0.173048007803725 0 -0.814555850222095 0 0 -10.4581230220706 0 0 0 0 0 0 0
0 0 0 0 0 0 0 0 0 0 0 0 0 0 0 0 0 0 0.239575094542698 0.347374949543151 0.258598454364527 0.0423446174858962 0.0145630010997472 0.144945130785271 0 0 0 0 0 0 0 0 0 0 0 0 0 0 -0.173048007803725 -0.546972242867521 -1.83492199911584 0 -1.35444180568177 0 0 0 0 0 0 0
0 0 0 0 0 0 0 0 0 0 0 0 0 0 0 0 0 0 0 0 0 0 0 0 0 0.218842614924898 0.418358233390492 0.129885733149824 0 0.287944873213514 0 0 0.586372687929187 0 0.29821442121652 0.796104390591289 0.0885122046768805 0.156312260247782 0.113412106090484 -0.173048007803725 0 0 -1.01884211650548 0 0 0 0 0 0 0
0 0 0 0 0 0 0 0 0 0 0 0 0 0 0 0 0 0 0 0 0 0 0 0 0 0 0 0 0 0 1.03111950324764 0.349865405303738 0 0.39743903297362 0.0486760566436897 0.0219230023752508 0 0 0.38387472918682 0 -0.173048007803725 0 0 0 0 0 0 0 0 -0.390617715381985
0 0 0 0 0 0 0 0 0 0 0 0 0 0 0 0 0 0 0.100728088490123 0.0775707517647117 0.0731850186020963 0.329571205514987 0.228837992264882 0 0.085276159358877 0.603376627367372 0.336437872585102 0.180679907077307 0 0.0417321206457964 0.0414045558045722 0.499407483074316 0 1.83111811399315 0 0.0257439344927364 0 0 0 0 0 -0.173048007803725 0 0 0 0 0 0 0 0
0 0 0 0 0 0 0 0 0 0 0 0 0 0 0 0 0 0 0 0 0 0 0 0 0 0 0 0 0 0 0 0 0 0.393755541017351 0 0 0.129727541558175 1.9412684209221 0.259641250282208 0.204953550401804 0 0 -0.173048007803725 0 0 0 0 0 0 0
0 0 0 0 0 0 0 0 0 0 0 0 0 0 0 0 0 0 0 0 0 0 0 0 0 0 0 0 0 0 0 0 0.422900958015331 0.126728193894312 0.0494023214130376 0.0182244781417654 0 0 0 0 0 0 0 -0.173048007803725 0 0 0 0 0 0
0 0 0 0 0 0 0 0 0 0 0 0 0 0 0 0 0 0 0 0 0 0 0 0 0 0 0 0 0 0 0 1.47360992666559 0.140318880772957 0.133877687226084 0.11701043299056 0.279421052723077 0 0 0 0 0 0 0 0 -0.173048007803725 0 0 0 0 0
0 0 0 0 0 0 0 0 0 0 0 0 0 0 0 0 0 0 0 0 0 0 0 0 0 0 0 0 0 0 0 0 0.42642588133651 0.24482449563525 1.12217012264837 0.163749406338265 0 0 0 0 0 0 0 0 0 -0.173048007803725 0 0 0 0
0 0 0 0 0 0 0 0 0 0 0 0 0 0.329823322669642 0 0.62834624830983 0.236098597303193 0 0 0 0 0 0 0 0 0 0 0 0 0 0 0 0 0 0 0 0 0 0 0 0 0 0 0 0 0 -0.173048007803725 0 0 0
0 0 0 0 0 0 0 0 0 0 0 0 0 0 0 0 0 0 0 0 0 0 0 0 0 0 0 0 0 0 0 0 0 0 0.0759662059745957 0.189052705321436 0 0 0 0 0 0 0 0 0 0 0 -0.173048007803725 0 0
0 0 0 0 0.201001490077441 0 0 0.804227796203273 1.32399647122675 0.229255467981149 0.150186372558396 0 1.10868577564989 0 0.0948310470855936 0 0 0 0 0 0 0 0 0 0 0 0 0 0 0 0 0 0 0 0 0 0 0 0 0 0 0 0 0 0 0 0 0 -0.173048007803725 0
0 0 0 0 0 0 0 0 0 0 0 0 0 0 0 0 0 0 0 0 0 0 0 0 0 0 0 0 0 0 0 0 0 0 0 0 0.0728484036896454 0 0 0 0.0783090292723355 0 0 0 0 0 0 0 0 -0.173048007803725
