-1.04988091437291 0 -0.438633173336532 0 0 0 0 0 0 0 0 0 0 0 0 0 0 0 0 0 0 0 0 0 0 0 0 0 0 0 0 0 0 0 0 0 0 0 0 0 0 0 0 0 0 0 0 0 0 0
0 -1.04988091437291 0 0 0 0 0 0 0 0 0 0 0 -0.335352684539812 0 0 0 0 0 0 0 0 0 0 0 0 0 0 0 0 0 0 0 0 0 0 0 0 0 0 0 0 0 0 0 0 0 0 0 0
0.0773961794309265 0 -1.04988091437291 0 0 0 0 0 0 0 0 0 -0.256014349800998 -1.27783459418068 0 0 0 0 0 0 0 0 0 0 0 0 0 0 0 0 0 0 0 0 0 0 0 0 0 0 0 0 0 0 0 0 0 0 0 0
0 0 0 -1.04988091437291 0 0 0 0 0 0 0 0 -1.37876766397276 0 0 0 0 0 0 0 0 0 0 0 0 0 0 0 0 0 0 0 0 0 0 0 0 0 0 0 0 0 0 0 0 0 0 0 0 0
0 0 0 0 -1.04988091437291 0 0 0 0 -1.73217530382243 0 0 0 0 0 0 0 0 0 0 0 0 0 0 0 0 0 0 0 0 0 0 0 0 0 0 0 0 0 0 0 0 0 0 0 0 0 0 0 0
0 0 0 0 0 -1.04988091437291 0.165098855597689 0 0 -0.375561204752461 -0.629402806158802 0 0 0 0 0 0 0 0 0 0 0 0 0 0 0 0 0 0 0 0 0 0 0 0 0 0 0 0 0 0 0 0 0 -2.58450112282041 0 0 0 0 0
0 0 0 0 0 -0.815870657914984 -1.04988091437291 0 -0.23278255457142 0 -1.44986713440197 0 0 0 -0.729827041719661 -0.983654160063674 0 0 0 0 0 0 0 0 0 0 0 0 0 0 0 0 0 0 0 0 0 0 0 0 0 0 0 0 -0.786944550875265 0 0 0 0 0
0 0 0 0 0 0 0 -1.04988091437291 0 -3.05754525315133 0 0 0 0 -1.87282189838959 0 0 0 0 0 0 0 0 0 0 0 0 0 0 0 0 0 0 0 0 0 0 0 0 0 0 0 0 0 -0.333720329955226 0 0 0 0 0
0 0 0 0 0 0 0.0506147643633767 0 -1.04988091437291 0 0 0 0 0 0 0 0 -1.41184488108975 0 0 -0.277310124630231 0 0 0 0 0 0 0 0 0 0 0 0 0 0 0 0 0 0 0 0 0 0 0 0 0 0 0 0 0
0 0 0 0 0.331377935906297 0.075060635077942 0 0.663030481944152 0 -1.04988091437291 0 0 0 0 0 0 0 -2.0422176336676 0 0 -0.157103733311481 0 -0.342919957643202 0 0 0 0 0 0 0 -2.32320023795019 0 0 0 0 0 0 0 0 0 0 0 0 0 -1.29017258209606 0 0 0 0 0
0 0 0 0 0 0.131560455276361 0.294978305372808 0 0 0 -1.04988091437291 -2.44147582101221 0 0 0 0 0 0 0 0 0 0 0 0 0 0 0 0 0 0 -2.70146539448885 0 0 0 0 0 0 0 0 0 0 0 0 0 0 0 0 0 0 0
0 0 0 0 0 0 0 0 0 0 0.519557756097572 -1.04988091437291 0 0 0 0 0 0 0 0 0 0 0 0 0 0 0 0 0 0 -1.09707695983113 0 0 0 0 0 0 0 0 0 0 0 0 0 0 0 0 0 0 0
0 0 0.0508866220613896 0.279187527693647 0 0 0 0 0 0 0 0 -1.04988091437291 0 0 0 -5.02622440120685 0 0 0 0 0 0 0 0 0 0 0 0 0 0 0 0 0 0 0 0 0 0 0 0 0 0 0 0 0 0 0 0 0
0 0.0643488347958401 0.270776149233082 0 0 0 0 0 0 0 0 0 0 -1.04988091437291 0 0 -1.25178606596624 0 0 0 0 0 0 0 0 0 0 0 0 0 -0.500213625713338 0 0 0 0 0 0 0 0 0 0 0 0 0 0 0 0 0 0 0
0 0 0 0 0 0 0.144224829525405 0.370749658371128 0 0 0 0 0 0 -1.04988091437291 0 -0.323269731890597 0 0 0 0 0 0 0 0 0 0 0 0 0 0 0 0 0 0 0 0 0 0 0 0 0 0 0 0 0 0 0 0 0
0 0 0 0 0 0 0.203126098533505 0 0 0 0 0 0 0 0 -1.04988091437291 -1.32095938326848 0 0 0 0 0 0 0 0 0 0 0 0 0 0 0 0 0 0 0 0 0 0 0 0 0 0 0 0 0 0 0 0 0
0 0 0 0 0 0 0 0 0 0 0 0 1.00086585296319 0.272878242082711 0.0645851996601436 0.24217836298328 -1.04988091437291 0.330128726466112 0 0 0 0 0 0 0 0 0 0 0 0 0 0 0 0 0 0 0 0 0 0 0 0 0 0 0 0 0 0 0 0
0 0 0 0 0 0 0 0 0.286822465005296 0.382470708137623 0 0 0 0 0 0 -1.66618430055152 -1.04988091437291 0 0 0 0 0 0 0 0 0 0 0 0 0 0 0 0 0 0 0 0 0 0 0 0 0 0 0 0 0 0 0 0
0 0 0 0 0 0 0 0 0 0 0 0 0 0 0 0 0 0 -1.04988091437291 0 0 -1.26973015298857 0 -0.64257878210416 0 0 0 0 0 0 0 0 0 0 0 0 0 0 0 0 0 0 0 0 0 0 0 0 0 0
0 0 0 0 0 0 0 0 0 0 0 0 0 0 0 0 0 0 0 -1.04988091437291 0 0 0 0 -1.066751290028 0 -2.17667446448354 0 0 0 0 0 0 0 0 0 0 0 0 0 0 0 0 0 0 0 0 0 0 0
0 0 0 0 0 0 0 0 0.0544101279144191 0.0283397009606936 0 0 0 0 0 0 0 0 0 0 -1.04988091437291 -2.46854228747763 0 0 -0.644700326005073 0 0 0 0 0 0 0 0 0 0 0 0 0 0 0 0 0 0 0 0 0 -0.182010887245489 0 0 -1.56280193711153
0 0 0 0 0 0 0 0 0 0 0 0 0 0 0 0 0 0 0.250057638887217 0 0.477460973444606 -1.04988091437291 0.568945717107701 0 0 -2.74389399700697 0 0 0 0 0 0 0 0 0 0 0 0 0 0 0 0 0 0 0 0 0 0 0 -0.229014432975698
0 0 0 0 0 0 0 0 0 0.0729332529507653 0 0 0 0 0 0 0 0 0 0 0 -2.91234352265747 -1.04988091437291 0 0 0 0 0 0 0 0 0 0 0 0 0 0 0 0 0 0 0 0 0 0 0 0 0 0 0
0 0 0 0 0 0 0 0 0 0 0 0 0 0 0 0 0 0 0.132095676423645 0 0 0 0 -1.04988091437291 0 -1.356389762385 0 0 0 0 0 0 0 0 0 0 0 0 0 0 0 0 0 0 0 0 0 0 0 -1.20129221290872
0 0 0 0 0 0 0 0 0 0 0 0 0 0 0 0 0 0 0 0.207144450602321 0.132567487525675 0 0 0 -1.04988091437291 -0.909124580137389 0 0 0 0 0 0 0 0 0 0 0 0 0 0 0 0 0 0 0 0 0 0 0 -0.624752402774206
0 0 0 0 0 0 0 0 0 0 0 0 0 0 0 0 0 0 0 0 0 0.514272287461645 0 0.263844963593572 0.194678364104043 -1.04988091437291 0 0 0 0 0 0 -0.595779150786375 0 0 -0.228362882411788 0 0 0 -1.24641718436383 0 0 0 0 0 0 0 0 0 -2.21790317988131
0 0 0 0 0 0 0 0 0 0 0 0 0 0 0 0 0 0 0 0.402414992016592 0 0 0 0 0 0 -1.04988091437291 0 0 0 0 0 -2.11747720639003 0 -0.484198489537022 -0.447606596478127 0 0 0 -6.08200885584236 0 0 0 0 0 0 0 0 0 -0.599268711463681
0 0 0 0 0 0 0 0 0 0 0 0 0 0 0 0 0 0 0 0 0 0 0 0 0 0 0 -1.04988091437291 0 0 0 0 -4.80031835536975 0 0 0 0 0 0 -6.92945116332637 0 0 0 0 0 0 0 -1.0300812701597 0 -0.931880813629486
0 0 0 0 0 0 0 0 0 0 0 0 0 0 0 0 0 0 0 0 0 0 0 0 0 0 0 0 -1.04988091437291 0 0 0 0 0 -0.703197253771099 0 0 0 0 -0.43842369732134 0 0 0 0 0 0 0 -2.28725798188407 0 -0.393107269284513
0 0 0 0 0 0 0 0 0 0 0 0 0 0 0 0 0 0 0 0 0 0 0 0 0 0 0 0 0 -1.04988091437291 0 0 0 0 0 0 -0.683691421009794 0 0 0 -0.932584465747004 -0.407434550346005 0 0 0 0 0 0 0 -0.581725622124853
0 0 0 0 0 0 0 0 0 0.480153131063131 0.554003587125373 0.214045850971547 0 0.100060155025823 0 0 0 0 0 0 0 0 0 0 0 0 0 0 0 0 -1.04988091437291 0 0 0 0 0 0 0 0 -0.172351742256866 0 0 0 0 0 -2.06272567237758 0 0 0 -1.99127457231581
0 0 0 0 0 0 0 0 0 0 0 0 0 0 0 0 0 0 0 0 0 0 0 0 0 0 0 0 0 0 0 -1.04988091437291 0 0 0 0 0 0 0 0 0 0 0 0 0 0 0 0 0 -0.700959101045254
0 0 0 0 0 0 0 0 0 0 0 0 0 0 0 0 0 0 0 0 0 0 0 0 0 0.126852784553419 0.433273942429336 1.02564741841745 0 0 0 0 -1.04988091437291 0 0 0 -0.489837897135001 0 0 -1.32316605031887 -9.47939908456519 -0.165408013023701 0 0 0 -0.45666840404867 0 0 -0.437459858838121 -1.43325460340417
0 0 0 0 0 0 0 0 0 0 0 0 0 0 0 0 0 0 0 0 0 0 0 0 0 0 0 0 0 0 0 0 0 -1.04988091437291 0.245425348410182 0.0739281508984688 0.97818060805023 0.136301692136418 0 -1.80807722783136 -2.74367761926824 0 0 -0.412744203661666 0 0 0 0 0 0
0 0 0 0 0 0 0 0 0 0 0 0 0 0 0 0 0 0 0 0 0 0 0 0 0 0 0.0944434568624669 0 0.14070512290922 0 0 0 0 -1.32878569661211 -1.04988091437291 0 -0.404961026334914 -0.364877450196465 0 -0.555438276622038 -0.317902055259033 0 0 -0.411303757813515 0 -5.06923656125449 0 0 0 0
0 0 0 0 0 0 0 0 0 0 0 0 0 0 0 0 0 0 0 0 0 0 0 0 0 0.0448944796137494 0.0899644438113731 0 0 0 0 0 0 -0.397952873149955 0 -1.04988091437291 -2.20009195733467 -0.570861733144718 0 0 0 0 0 0 0 0 0 0 0 0
0 0 0 0 0 0 0 0 0 0 0 0 0 0 0 0 0 0 0 0 0 0 0 0 0 0 0 0 0 0.142340865804025 0 0 0.0869421017949252 -4.95779516603885 0.0718714525827546 0.415853014263168 -1.04988091437291 0.124866553263052 0 -1.14928821648034 0 0 0 -1.68052497138955 0 0 0 0 0 0
0 0 0 0 0 0 0 0 0 0 0 0 0 0 0 0 0 0 0 0 0 0 0 0 0 0 0 0 0 0 0 0 0 -0.632574310096374 0.0761477826419926 0.109822667065516 -0.676331267915839 -1.04988091437291 0.0928560283187834 0 0 0 0 -3.44552543664176 0 0 0 0 0 0
0 0 0 0 0 0 0 0 0 0 0 0 0 0 0 0 0 0 0 0 0 0 0 0 0 0 0 0 0 0 0 0 0 0 0 0 0 -0.449820872475439 -1.04988091437291 -1.13220193830758 0 0 0 0 0 0 0 0 0 0
0 0 0 0 0 0 0 0 0 0 0 0 0 0 0 0 0 0 0 0 0 0 0 0 0 0.25647302800982 1.08680360241197 1.36449659888792 0.0898234643712787 0 0.0373926062739549 0 0.26503574300628 0.349466129684833 0.107758444710182 0 0.258741303779686 0 0.221460685529509 -1.04988091437291 0.447687302848316 0.717270006313703 0 0 0 0 0 0 0 0
0 0 0 0 0 0 0 0 0 0 0 0 0 0 0 0 0 0 0 0 0 0 0 0 0 0 0 0 0 0.18127272120701 0 0 1.82547016057246 0.518222389830823 0.0626499926274285 0 0 0 0 -2.2996157732866 -1.04988091437291 0 0 -4.74027754109304 0 0 0 0 0 0
0 0 0 0 0 0 0 0 0 0 0 0 0 0 0 0 0 0 0 0 0 0 0 0 0 0 0 0 0 0.081875425690439 0 0 0.0364731136596121 0 0 0 0 0 0 -3.59003016795259 0 -1.04988091437291 0 0 0 0 0 0 0 0
0 0 0 0 0 0 0 0 0 0 0 0 0 0 0 0 0 0 0 0 0 0 0 0 0 0 0 0 0 0 0 0 0 0 0 0 0 0 0 0 0 0 -1.04988091437291 -4.35564492224299 0 0 0 0 0 0
0 0 0 0 0 0 0 0 0 0 0 0 0 0 0 0 0 0 0 0 0 0 0 0 0 0 0 0 0 0 0 0 0 0.0753846357664177 0.0888207349577331 0 0.324936090471555 0.74260386310751 0 0 0.952891497843079 0 0.841720363920698 -1.04988091437291 0 0 0 0 0 0
0 0 0 0 0 0.547705932476271 0.148486942623853 0.0703514415873977 0 0.2744312751801 0 0 0 0 0 0 0 0 0 0 0 0 0 0 0 0 0 0 0 0 0 0 0 0 0 0 0 0 0 0 0 0 0 0 -1.04988091437291 0 0 0 0 0
0 0 0 0 0 0 0 0 0 0 0 0 0 0 0 0 0 0 0 0 0 0 0 0 0 0 0 0 0 0 0.397712103625465 0 0.0990057093105121 0 1.02339327586462 0 0 0 0 0 0 0 0 0 0 -1.04988091437291 0 0 0 0
0 0 0 0 0 0 0 0 0 0 0 0 0 0 0 0 0 0 0 0 0.0375931404050361 0 0 0 0 0 0 0 0 0 0 0 0 0 0 0 0 0 0 0 0 0 0 0 0 0 -1.04988091437291 0 0 0
0 0 0 0 0 0 0 0 0 0 0 0 0 0 0 0 0 0 0 0 0 0 0 0 0 0 0 0.204688734688606 0.44258155723407 0 0 0 0 0 0 0 0 0 0 0 0 0 0 0 0 0 0 -1.04988091437291 0 0
0 0 0 0 0 0 0 0 0 0 0 0 0 0 0 0 0 0 0 0 0 0 0 0 0 0 0 0 0 0 0 0 0.0813785988149777 0 0 0 0 0 0 0 0 0 0 0 0 0 0 0 -1.04988091437291 0
0 0 0 0 0 0 0 0 0 0 0 0 0 0 0 0 0 0 0 0 0.308383141809074 0.0492400446967952 0 0.222241870262751 0.125448049200791 0.419469065962461 0.134540494638302 0.158405992720519 0.080482863537886 0.121433731363304 0.397425761530901 0.134991958689481 0.302576528848593 0 0 0 0 0 0 0 0 0 0 0 0 0 0 0 0 -1.04988091437291
