8.19585609166931
0.91859763847948
0.339676442418314
1.52931817466763
0.209268833328555
0.24567127879778
0.919419657331772
5.95340924006361
1.8021701844832
0.436260173943244
1.16546199642668
1.03514913617579
0.352292376501414
0.161064970073791
2.96133312344916
0.199837403002937
2.37670520187474
1.68724968834944
0.561420138911438
0.636370990024868
0.767554844654439
1.15919619754188
0.754582706933889
4.79953962809554
0.985320652039135
5.73381789628525
1.84857797329954
0.49935947009409
0.746480165013132
1.96120979584654
1.08605509423616
1.5565037146135
4.46372049208939
0.844441067574477
2.00068669260721
1.31639290058412
3.21613113850406
0.328173557844309
1.51606583118725
0.809345588426121
3.50930580377292
1.15478205300825
0.905541286701603
4.25340757607287
2.60340181510868
0.245809555092399
0.508783203716049
0.317568822199758
0.450410567721789
3.18199958464466
