-0.18007745080982 0 0 -0.386956946400782 0 -1.0643415080906 0 0 0 0 0 0 0 0 0 0 0 0 0 0 0 0 0 0 0 0 0 0 0 0 0 0 -2.10331052524385 0 0 0 0 0 0 0 0 0 0 0 0 0 0 0 0 0
0 -0.18007745080982 0 -0.70139780541263 -1.59586086536546 -0.431784968492348 0 0 0 0 0 0 0 0 0 0 0 0 0 0 0 0 0 0 0 0 0 0 0 0 0 0 -1.41775393973896 0 0 0 0 0 0 0 0 0 0 0 0 0 0 0 0 0
0 0 -0.18007745080982 0 0 -0.777997503833973 0 0 0 0 0 0 0 0 0 0 0 0 0 0 0 0 0 0 0 0 0 0 0 -10.0404155868266 0 0 0 0 0 0 0 0 0 0 0 0 0 0 0 0 0 0 0 0
0.0731764169311199 0.135250263156902 0 -0.18007745080982 0 0 0 -0.310091242222081 0 -2.04004695090777 0 0 0 0 0 0 0 0 0 0 0 0 0 0 0 0 0 -0.48240045622397 0 -4.76282501190737 0 0 -0.803297221250016 0 0 0 0 -0.997470440724218 0 0 0 0 0 0 0 0 0 0 0 0
0 0.296454537796975 0 0 -0.18007745080982 0 0 -1.3779586793056 0 0 0 0 0 0 0 0 0 0 0 0 0 0 0 0 0 0 0 -5.53778243921743 0 -0.353301215467468 0 0 0 0 0 0 0 0 0 0 0 0 0 0 0 0 0 0 -0.582475651773765 0
0.20299030754423 0.0844002535640465 0.160806663786438 0 0 -0.18007745080982 0 -0.236983750818513 0 0 0 0 0 0 0 0 0 0 0 0 0 0 0 0 0 0 0 0 0 -0.251668555389063 0 0 -0.448166434486458 0 0 0 0 -1.56036083172426 0 0 0 0 0 0 0 0 0 0 0 0
0 0 0 0 0 0 -0.18007745080982 0 0 0 0 0 0 0 0 0 0 0 0 0 0 0 0 0 -1.64771462838305 0 0 -0.205617160035005 0 -3.0009184648943 0 0 -0.194277744292388 0 0 0 0 0 0 0 0 0 0 0 0 0 0 0 0 0
0 0 0 0.0636726282373947 0.275500014047576 0.0498641003748079 0 -0.18007745080982 0.567288618635003 0.131803645649483 0 0 0 0 0 0 0 0 0 0 0 0 0 0 -2.22740777683645 0 0 -0.822207803482554 0 0 0 0 -2.3784934036841 0 0 0 0 0 0 0 0 0 0 0 0 0 0 0 -0.760525103450872 0
0 0 0 0 0 0 0 -2.76047157458553 -0.18007745080982 0 -1.54605094031017 0 -2.27433121897066 0 0 0 0 0 0 0 0 0 0 0 0 0 0 -0.605761540340097 0 -1.20118240063088 0 0 -0.353805337864549 0 0 0 0 0 0 0 0 0 0 0 0 0 0 0 -0.707744151892064 0
0 0 0 0.407852960685616 0 0 0 -0.668471714020989 0 -0.18007745080982 -5.11289137231412 0 0 0 0 0 0 0 -0.334932789453331 0 0 0 0 0 0 0 0 0 0 0 0 0 0 0 0 0 0 0 0 0 0 0 0 0 0 0 0 0 -0.150871289114008 0
0 0 0 0 0 0 0 0 0.299380546824413 1.01447356448889 -0.18007745080982 0 0 0 0 0 0 0 0 0 0 0 0 0 0 0 0 0 0 0 0 0 -0.286497793581594 0 0 0 0 0 0 0 0 0 0 0 0 0 0 0 -7.43367289139931 0
0 0 0 0 0 0 0 0 0 0 0 -0.18007745080982 0 0 0 0 0 0 -0.345059943815273 0 0 0 0 0 0 -1.30729101456466 0 -0.469089932681906 0 -0.638433745386228 0 0 0 0 0 0 0 0 0 0 0 0 0 0 0 0 0 0 0 0
0 0 0 0 0 0 0 0 0.463413581620292 0 0 0 -0.18007745080982 0 0 0 0 0 -2.3615339353832 0 0 0 0 0 0 -2.10503691906447 0 0 0 -1.79388982861915 0 0 0 0 0 0 0 0 0 0 0 0 0 0 0 0 0 0 -0.167906536308848 0
0 0 0 0 0 0 0 0 0 0 0 0 0 -0.18007745080982 0 0 0 0 0 0 0 0 0 0 0 0 0 0 0 -1.77132849182633 0 0 -0.27156595094668 0 0 0 0 0 0 0 0 0 0 0 0 0 -0.563599653394811 0 0 0
0 0 0 0 0 0 0 0 0 0 0 0 0 0 -0.18007745080982 0 0 0 -2.00741874415898 0 0 0 0 0 0 0 0 -1.53605131283022 0 0 0 0 0 0 0 0 0 0 0 0 0 0 0 0 0 0 0 0 -0.435488628923455 0
0 0 0 0 0 0 0 0 0 0 0 0 0 0 0 -0.18007745080982 0 0 0 0 0 0 0 0 0 0 0 0 0 0 0 0 0 0 0 0 0 0 0 0 0 0 0 0 0 0 -1.90116222386023 0 0 0
0 0 0 0 0 0 0 0 0 0 0 0 0 0 0 0 -0.18007745080982 0 0 0 0 0 0 0 0 0 0 0 0 0 0 0 0 0 0 0 0 0 0 0 0 0 0 0 0 0 -0.810984929283245 0 0 0
0 0 0 0 0 0 0 0 0 0 0 0 0 0 0 0 0 -0.18007745080982 -1.36977563212024 0 0 0 0 0 0 0 0 0 0 0 0 0 0 0 0 -2.89786175801585 0 0 0 0 0 0 0 0 0 0 0 0 0 0
0 0 0 0 0 0 0 0 0 0.062527594467368 0 0.0674749586806401 0.440836651124113 0 0.411353568229475 0 0 0.27395327104576 -0.18007745080982 0 -0.636216500226912 0 0 0 0 0 0 0 -1.12553471859024 0 0 0 0 0 0 0 0 0 -0.717369909140179 0 0 -1.79218369284438 0 0 0 0 0 0 0 0
0 0 0 0 0 0 0 0 0 0 0 0 0 0 0 0 0 0 0 -0.18007745080982 0 0 0 0 0 0 0 0 -0.532021809753022 0 0 0 0 0 0 0 0 0 -0.423978112113665 0 0 -9.05249423244328 0 0 0 0 0 0 0 0
0 0 0 0 0 0 0 0 0 0 0 0 0 0 0 0 0 0 0.125693443776683 0 -0.18007745080982 0 0 0 0 0 0 0 0 0 0 0 0 0 0 0 0 0 -0.490805356266998 0 0 -1.08910681687879 0 0 0 0 0 0 0 0
0 0 0 0 0 0 0 0 0 0 0 0 0 0 0 0 0 0 0 0 0 -0.18007745080982 0 0 0 0 0 0 0 0 0 0 0 -0.679822751334214 0 0 0 0 -0.424334096731025 0 0 -0.743439546919504 0 0 0 0 0 0 0 0
0 0 0 0 0 0 0 0 0 0 0 0 0 0 0 0 0 0 0 0 0 0 -0.18007745080982 0 0 0 0 0 0 0 0 0 0 -0.752267822349261 0 0 0 0 -0.809051251014127 0 0 -0.906651112174993 0 0 0 0 0 0 0 0
0 0 0 0 0 0 0 0 0 0 0 0 0 0 0 0 0 0 0 0 0 0 0 -0.18007745080982 0 0 0 0 0 0 0 -2.04736046978503 0 -0.530609720188205 0 0 0 0 -0.632314019659261 0 0 0 0 0 0 0 0 0 0 0
0 0 0 0 0 0 0.308901520247932 0.428710281590867 0 0 0 0 0 0 0 0 0 0 0 0 0 0 0 0 -0.18007745080982 0 0 0 -0.380947084657062 0 0 -3.92610414928192 0 -1.84755614107917 0 0 0 0 0 0 0 -0.656020831685653 0 0 0 0 0 0 0 0
0 0 0 0 0 0 0 0 0 0 0 0.254315549803573 0.420320130954124 0 0 0 0 0 0 0 0 0 0 0 0 -0.18007745080982 0 0 -0.842842116390048 0 0 0 0 -1.84356337738041 -0.262904812667026 0 0 0 0 -0.63003122317566 0 -0.591284827522837 0 0 0 0 0 0 0 0
0 0 0 0 0 0 0 0 0 0 0 0 0 0 0 0 0 0 0 0 0 0 0 0 0 0 -0.18007745080982 0 0 0 0 0 0 -0.492472502661341 0 0 0 0 0 -1.56564445816914 0 -6.05470035975767 0 0 0 0 0 0 0 0
0 0 0 0.0992548631253359 1.11069172990981 0 0.039893252941761 0.153669599049842 0.127766180188921 0 0 0.093688297438605 0 0 0.303830036238255 0 0 0 0 0 0 0 0 0 0 0 0 -0.18007745080982 0 0 0 0 0 -1.72700194970565 0 0 0 0 0 -0.700819113423642 0 -0.582075229124694 0 0 0 0 0 0 0 0
0 0 0 0 0 0 0 0 0 0 0 0 0 0 0 0 0 0 0.2327200632053 0.102266626954201 0 0 0 0 0.0834286374531076 0.168422515257425 0 0 -0.18007745080982 0 0 0 0 0 0 0 -1.35196791352882 0 0 0 0 0 0 0 0 0 0 0 0 0
0 0 2.14201619517362 0.917671271892012 0.0756799715639207 0.0477429653266265 0.61501419651041 0 0.243759826758815 0 0 0.129879574208157 0.3395431657367 0.362297902929295 0 0 0 0 0 0 0 0 0 0 0 0 0 0 0 -0.18007745080982 0 0 0 -0.239264421435268 0 0 -0.438689701277452 0 0 -1.11820256776611 0 -1.40408727057771 0 0 0 0 0 0 0 0
0 0 0 0 0 0 0 0 0 0 0 0 0 0 0 0 0 0 0 0 0 0 0 0 0 0 0 0 0 0 -0.18007745080982 0 0 0 0 0 0 0 0 0 -0.226281094573058 -0.741130897056236 0 0 0 0 0 0 0 0
0 0 0 0 0 0 0 0 0 0 0 0 0 0 0 0 0 0 0 0 0 0 0 0.436381882235491 0.790406808031385 0 0 0 0 0 0 -0.18007745080982 0 -1.31125248497482 0 0 0 0 0 0 -1.16640321044482 -1.00061604578001 0 0 -2.45859102879272 0 0 0 0 0
0.441882992316155 0.306268709592215 0 0.149145110151941 0 0.0865475641238752 0.0391453247476351 0.515816384869075 0.0698087935582429 0 0.0569786279836393 0 0 0.0554791139702968 0 0 0 0 0 0 0 0 0 0 0 0 0 0 0 0 0 0 -0.18007745080982 0 0 0 0 0 0 -2.38683558303227 0 0 0 -0.641339667210983 -0.458172839968811 -1.07028893419049 0 0 0 0
0 0 0 0 0 0 0 0 0 0 0 0 0 0 0 0 0 0 0 0 0 0.139213716721748 0.148516194030907 0.108914262866553 0.358055491755742 0.348965681653884 0.100667325933125 0.365021245311544 0 0.0475617607790441 0 0.261704343757631 0 -0.18007745080982 0 0 0 0 0 0 -1.21989320799199 -0.629453159705551 -2.80292625815139 -0.435911701844768 -0.311461455661355 -0.502138259297229 0 0 0 0
0 0 0 0 0 0 0 0 0 0 0 0 0 0 0 0 0 0 0 0 0 0 0 0 0 0.0521270102976605 0 0 0 0 0 0 0 0 -0.18007745080982 0 0 0 0 -0.729929903706742 -1.33845746751484 0 0 -2.50946969307567 -0.294505783691776 -0.907844706813465 0 -1.2416780809369 0 0
0 0 0 0 0 0 0 0 0 0 0 0 0 0 0 0 0 0.535521231851196 0 0 0 0 0 0 0 0 0 0 0 0 0 0 0 0 0 -0.18007745080982 0 0 0 -1.09209944911099 -1.82134628772542 -0.92424528933772 0 -0.566725268197331 -4.75341591675438 -0.888824048153973 0 -1.34962222559415 0 0
0 0 0 0 0 0 0 0 0 0 0 0 0 0 0 0 0 0 0 0 0 0 0 0 0 0 0 0 0.260787561359651 0.08037105102018 0 0 0 0 0 0 -0.18007745080982 0 0 -0.507848465204554 0 0 -1.1421965456873 0 0 0 0 0 0 -0.350619759099153
0 0 0 0.19054443753808 0 0.306507820905919 0 0 0 0 0 0 0 0 0 0 0 0 0 0 0 0 0 0 0 0 0 0 0 0 0 0 0 0 0 0 0 -0.18007745080982 0 -1.64219075980141 0 0 -0.34972872306941 0 0 0 0 0 0 0
0 0 0 0 0 0 0 0 0 0 0 0 0 0 0 0 0 0 0.140443476701316 0.0848951952182325 0.105160632348367 0.0847389058956957 0.157313200211199 0.1253723515082 0 0 0 0 0 0 0 0 0 0 0 0 0 0 -0.18007745080982 -0.892191543349525 -2.40487318910474 0 -3.03297577066274 0 0 0 0 0 0 0
0 0 0 0 0 0 0 0 0 0 0 0 0 0 0 0 0 0 0 0 0 0 0 0 0 0.124696602602168 0.333038025662906 0.14088926543919 0 0.232443720395513 0 0 0.478016705957535 0 0.157258972765278 0.204196811257478 0.0998330975978605 0.352452764039727 0.185993790940737 -0.18007745080982 0 0 -0.0715790225163671 0 0 0 0 0 0 0
0 0 0 0 0 0 0 0 0 0 0 0 0 0 0 0 0 0 0 0 0 0 0 0 0 0 0 0 0 0 0.0471773247415251 0.235622489468249 0 0.267727124161405 0.250607959523635 0.391689296665192 0 0 0.4570514199295 0 -0.18007745080982 0 0 0 0 0 0 0 0 -1.29966605326148
0 0 0 0 0 0 0 0 0 0 0 0 0 0 0 0 0 0 0.373000247928679 1.79904753793895 0.221457147795267 0.135272033201006 0.192976881441371 0 0.133251318237416 0.111925280307666 1.12293927097295 0.113281521916009 0 0.302569057883826 0.150276720256627 0.194102884099006 0 0.12144944544848 0 0.175668282575433 0 0 0 0 0 -0.18007745080982 0 0 0 0 0 0 0 0
0 0 0 0 0 0 0 0 0 0 0 0 0 0 0 0 0 0 0 0 0 0 0 0 0 0 0 0 0 0 0 0 0 0.569405361781339 0 0 0.226277430644504 0.0674993311119778 0.610257199192501 0.014147068099486 0 0 -0.18007745080982 0 0 0 0 0 0 0
0 0 0 0 0 0 0 0 0 0 0 0 0 0 0 0 0 0 0 0 0 0 0 0 0 0 0 0 0 0 0 0 0.131628112568666 0.085398260734096 0.498109779009321 0.123341553625139 0 0 0 0 0 0 0 -0.18007745080982 0 0 0 0 0 0
0 0 0 0 0 0 0 0 0 0 0 0 0 0 0 0 0 0 0 0 0 0 0 0 0 0 0 0 0 0 0 0.48823464754783 0.0893500925598858 0.0627815762903336 0.0587694305018199 1.01775584209994 0 0 0 0 0 0 0 0 -0.18007745080982 0 0 0 0 0
0 0 0 0 0 0 0 0 0 0 0 0 0 0 0 0 0 0 0 0 0 0 0 0 0 0 0 0 0 0 0 0 0.225515133917809 0.098875863035905 0.189261010513432 0.179208839289039 0 0 0 0 0 0 0 0 0 -0.18007745080982 0 0 0 0
0 0 0 0 0 0 0 0 0 0 0 0 0 0.121841794163378 0 0.434681600776466 0.167151448722657 0 0 0 0 0 0 0 0 0 0 0 0 0 0 0 0 0 0 0 0 0 0 0 0 0 0 0 0 0 -0.18007745080982 0 0 0
0 0 0 0 0 0 0 0 0 0 0 0 0 0 0 0 0 0 0 0 0 0 0 0 0 0 0 0 0 0 0 0 0 0 0.227161858076098 0.267277032438681 0 0 0 0 0 0 0 0 0 0 0 -0.18007745080982 0 0
0 0 0 0 0.120823953477149 0 0 0.151345152953145 0.132691856966837 0.0327522178593375 1.36321561362129 0 0.0310809998776906 0 0.0848706051886455 0 0 0 0 0 0 0 0 0 0 0 0 0 0 0 0 0 0 0 0 0 0 0 0 0 0 0 0 0 0 0 0 0 -0.18007745080982 0
0 0 0 0 0 0 0 0 0 0 0 0 0 0 0 0 0 0 0 0 0 0 0 0 0 0 0 0 0 0 0 0 0 0 0 0 0.0640221380743886 0 0 0 0.248374804863663 0 0 0 0 0 0 0 0 -0.18007745080982
