-0.167652996318709 0 0 -0.306035340560332 0 0 0 0 0 0 0 0 0 0 0 0 0 0 0 0 0 0 0 0 0 0 0 0 0 0 0 0 0 0 0 0 0 0 0 0 0 0 0 0 0 0 0 0 0 0
0 -0.167652996318709 0 0 0 0 0 0 -2.42450406640211 0 0 0 0 0 0 0 0 0 0 0 0 0 0 0 0 0 0 0 0 0 0 0 0 0 0 0 0 0 0 0 0 0 0 0 0 0 0 0 -1.77386185131686 0
0 0 -0.167652996318709 0 0 0 0 0 0 0 0 0 0 0 0 0 0 -0.693255432868367 0 0 -2.78692578129274 0 0 0 0 0 0 0 0 0 0 0 0 0 0 0 0 0 0 0 0 0 0 0 0 -1.32401946477872 0 0 0 0
0.0595928799035379 0 0 -0.167652996318709 0 -0.688973983555973 -1.9453564733886 0 0 -1.06817147466085 0 0 0 0 0 0 0 0 0 0 -1.2133203302101 0 0 0 0 0 0 0 0 0 0 0 0 0 0 0 0 0 0 0 0 0 0 0 0 0 -0.79677702367006 0 -0.191859485263234 0
0 0 0 0 -0.167652996318709 0 0 0 0 0 0 0 0 -3.61064777561933 0 0 0 0 0 0 -0.835569447357861 0 0 -5.75576185987801 0 0 0 -0.555762901942775 0 0 0 0 0 0 -0.566671084645411 0 -3.02391927496461 0 0 0 0 0 0 0 0 -2.92023937464177 0 0 0 0
0 0 0 0.141009122865124 0 -0.167652996318709 0 0 0 0 0 0 0 -1.04688663156406 0 0 0 0 0 0 -0.9347736586677 0 0 -1.2367468684507 0 0 0 0 0 0 0 0 0 0 -0.904204261680537 0 -0.68029798004188 0 0 0 0 0 0 0 0 -9.98785797377121 -0.954391783251332 0 -1.77884612896895 0
0 0 0 0.350302517930529 0 0 -0.167652996318709 0 0 0 0 0 0 -0.603691660288751 0 0 0 0 0 0 -1.15130146169079 0 -3.93011168538571 -1.74213960656095 0 0 0 0 0 0 0 0 0 0 0 0 0 0 0 0 0 0 0 0 0 -3.68114215191198 -0.710208008079273 0 -1.21074344327763 0
0 0 0 0 0 0 0 -0.167652996318709 0 0 0 0 0 -0.548924707584024 0 0 0 0 0 0 0 0 -0.576392488998673 -1.06142247004291 0 0 0 -0.812188128301969 0 0 0 0 0 0 0 0 0 0 0 0 0 0 0 0 0 0 0 0 -1.5615015978741 0
0 0.494403296351978 0 0 0 0 0 0 -0.167652996318709 0 0 0 0 -2.53984396566581 0 0 0 0 0 0 -0.961765106471054 0 -0.915855333871986 -0.400499882511417 0 0 0 -0.479913178298933 0 0 0 0 0 0 0 0 0 0 0 0 0 0 0 0 0 -1.04780018327341 -0.109766753206743 0 -1.26274766270307 0
0 0 0 0.206183277337381 0 0 0 0 0 -0.167652996318709 0 0 0 0 0 0 0 0 0 0 -0.434132785033087 0 -1.5850248896364 0 0 0 0 0 0 0 0 0 0 0 0 0 0 -0.898735476219904 0 0 0 0 0 0 0 -0.396771636739594 -0.198462624159425 0 -1.16014359072139 0
0 0 0 0 0 0 0 0 0 0 -0.167652996318709 0 0 0 0 0 0 0 0 0 0 0 -3.40995757522171 -0.816657883270775 0 0 0 0 0 0 -0.957358436547353 0 0 0 0 0 0 -2.4741911687499 0 0 0 0 0 0 0 -0.311967739599428 0 0 0 0
0 0 0 0 0 0 0 0 0 0 0 -0.167652996318709 0 0 0 0 0 0 0 0 -0.31585450704438 -0.12474853166567 -0.945169862887361 -4.29529054721316 0 0 0 0 0 0 -1.19357962410347 0 0 0 0 0 0 0 0 0 0 0 0 0 0 0 -0.616390306800512 0 0 0
0 0 0 0 0 0 0 0 0 0 0 0 -0.167652996318709 0 0 0 0 0 0 0 -1.65948011672342 -1.09750433937509 0 -0.503306818435264 0 0 0 0 0 0 -1.92662478104756 0 0 0 0 0 0 -0.495560455189327 0 0 0 0 0 0 0 0 0 0 0 0
0 0 0 0 0.713638375234753 0.190365152964402 0.123753478079362 0.0995804395811897 0.51288619241147 0 0 0 0 -0.167652996318709 0 0 0 0 0 0 0 -1.94531472443916 -2.12828480442116 0 0 0 0 0 0 -4.24292287496004 -0.663839569800073 0 0 0 0 0 0 0 0 0 0 0 0 0 0 0 -2.93945698464385 0 0 0
0 0 0 0 0 0 0 0 0 0 0 0 0 0 -0.167652996318709 0 0 0 0 -2.80253637805064 0 -1.59704707078033 0 0 0 0 0 0 0 -0.548931568494076 -0.348080025761306 0 0 0 0 0 0 -2.73202452466506 0 0 0 0 0 0 0 0 -1.76854146736128 0 0 0
0 0 0 0 0 0 0 0 0 0 0 0 0 0 0 -0.167652996318709 0 0 0 0 0 0 0 0 0 -1.10600128394711 0 0 0 -3.41065686909245 -0.141138634062581 0 0 0 0 0 0 -0.505231521118857 0 0 0 0 0 0 0 0 0 0 0 0
0 0 0 0 0 0 0 0 0 0 0 0 0 0 0 0 -0.167652996318709 1.14774207638769 0.505775816415847 0 0 0 0 0 0 0 0 0 0 -0.477350274494401 -0.213587224543314 0 -0.232456098689665 0 0 0 0 0 0 0 0 0 0 0 0 0 0 0 0 0
0 0 0.155163942667078 0 0 0 0 0 0 0 0 0 0 0 0 0 -6.04566927587203 -0.167652996318709 0 0 0 0 0 0 0 0 0 0 0 0 -0.892732968331672 0 0 0 0 0 0 0 0 -3.11514963049487 0 0 0 0 0 0 0 0 0 0
0 0 0 0 0 0 0 0 0 0 0 0 0 0 0 0 -2.44498544178489 0 -0.167652996318709 0 0 0 0 0 0 0 0 0 0 0 0 0 0 0 0 0 0 0 0 0 0 0 0 0 0 0 0 0 0 0
0 0 0 0 0 0 0 0 0 0 0 0 0 0 0.540949795637379 0 0 0 0 -0.167652996318709 0 0 0 0 0 0 -0.552928199135961 0 0 -0.482417311611914 0 0 0 0 0 0 0 0 0 -0.47352988456509 -0.478317179914323 0 0 0 -4.82135069779644 0 0 0 0 0
0 0 0.571597068304636 0.231931383287941 0.155405671690693 0.193897884738476 0.22305344162003 0 0.197874513899307 0.0876716476157503 0 0.061429394039648 0.337575031032347 0 0 0 0 0 0 0 -0.167652996318709 0 0 0 0 0 0 0 0 0 0 0 0 0 0 0 0 0 0 -4.67036083995105 -9.83427634231631 0 0 0 -0.472639703096514 0 0 0 0 0
0 0 0 0 0 0 0 0 0 0 0 0.0244649329571929 0.230370152908212 0.402487108900757 0.308023051550125 0 0 0 0 0 0 -0.167652996318709 0 0 0 0 -3.55330641661645 0 0 0 -0.151563728976382 0 0 0 0 0 0 0 0 0 -1.58741592744783 0 0 0 0 0 0 0 0 0
0 0 0 0 0 0 0.773768520417482 0.118574205606774 0.17921098595955 0.347655321921118 0.696079713641767 0.156787829285752 0 0.419397153095902 0 0 0 0 0 0 0 0 -0.167652996318709 0 0 0 -0.561162488749787 0 0 0 0 0 0 0 0 0 0 0 0 0 -1.42595029908498 0 0 0 -1.08071711517587 0 0 0 0 0
0 0 0 0 1.09209064174936 0.245089169505617 0.331311284803941 0.22016634286246 0.0698229609807212 0 0.181635847220001 0.845407314908718 0.104191304192688 0 0 0 0 0 0 0 0 0 0 -0.167652996318709 0 0 0 0 -0.200005861430712 0 0 0 0 -2.17246804199706 0 0 0 0 0 0 0 0 0 0 0 0 0 -0.527161660823603 0 0
0 0 0 0 0 0 0 0 0 0 0 0 0 0 0 0 0 0 0 0 0 0 0 0 -0.167652996318709 0 0 0 0 0 0 0 0 -0.586030195731063 0 -0.146409104123327 0 0 0 0 0 -0.66490031536047 0 0 0 0 0 0 0 0
0 0 0 0 0 0 0 0 0 0 0 0 0 0 0 0.220553224869489 0 0 0 0 0 0 0 0 0 -0.167652996318709 0 0 -0.548420425370155 0 0 -0.205627107395324 0 0 0 -0.810864589278602 0 0 0 0 0 -1.77383122657335 0 0 0 0 0 0 0 0
0 0 0 0 0 0 0 0 0 0 0 0 0 0 0 0 0 0 0 0.117017431849786 0 0.70674143135568 0.109294759648615 0 0 0 -0.167652996318709 0 0 0 0 -0.406670545312839 0 -0.949481545096979 0 -0.204891282969583 0 0 0 0 0 0 0 0 0 0 0 0 0 0
0 0 0 0 0.116555173006163 0 0 0.164619493793032 0.101438076690241 0 0 0 0 0 0 0 0 0 0 0 0 0 0 0 0 0 0 -0.167652996318709 0 0 0 0 0 -0.254230852917781 0 0 0 0 0 0 0 0 0 0 0 0 0 0 0 0
0 0 0 0 0 0 0 0 0 0 0 0 0 0 0 0 0 0 0 0 0 0 0 0.0415237518411641 0 0.115423767787745 0 0 -0.167652996318709 0 0 0 0 -0.845391539159409 0 0 0 0 0 0 0 0 0 0 0 0 0 0 0 0
0 0 0 0 0 0 0 0 0 0 0 0 0 0.91639309092656 0.10341936581201 0.706948913330526 0.094678113844436 0 0 0.106810904187672 0 0 0 0 0 0 0 0 0 -0.167652996318709 0 0 0 -0.575120365610858 0 0 0 0 0 0 0 0 0 0 0 0 0 0 0 0
0 0 0 0 0 0 0 0 0 0 0.181865227943027 0.218772093177244 0.381389178679296 0.134607096637175 0.066052025454368 0.0279320866017567 0.0389530696303986 0.164847081575072 0 0 0 0.029709081006798 0 0 0 0 0 0 0 0 -0.167652996318709 0 0 -0.617334062584148 0 0 0 0 0 0 0 0 0 0 0 0 0 0 0 0
0 0 0 0 0 0 0 0 0 0 0 0 0 0 0 0 0 0 0 0 0 0 0 0 0 0.0423947325910854 0.0845339417410536 0 0 0 0 -0.167652996318709 0 -0.844690336546416 0 0 0 0 0 0 0 0 0 0 0 0 0 0 0 0
0 0 0 0 0 0 0 0 0 0 0 0 0 0 0 0 0.0446938125115908 0 0 0 0 0 0 0 0 0 0 0 0 0 0 0 -0.167652996318709 0 0 0 0 0 0 0 0 0 0 0 0 0 0 0 0 0
0 0 0 0 0 0 0 0 0 0 0 0 0 0 0 0 0 0 0 0 0 0 0 0.429103182802812 0.10484770326581 0 0.178842570193723 0.056366255560227 0.1634284661859 0.116858196273531 0.118045725919077 0.162490238431481 0 -0.167652996318709 0 0 0 0 0 0 0 0 0 0 0 0 0 0 0 0
0 0 0 0 0.126727899771426 0.175243019518989 0 0 0 0 0 0 0 0 0 0 0 0 0 0 0 0 0 0 0 0 0 0 0 0 0 0 0 0 -0.167652996318709 0 0 0 0 0 0 0 0 0 0 0 0 0 0 0
0 0 0 0 0 0 0 0 0 0 0 0 0 0 0 0 0 0 0 0 0 0 0 0 0.0312924426032623 0.155116071807379 0.0411395924116865 0 0 0 0 0 0 0 0 -0.167652996318709 0 0 0 0 0 0 0 0 0 0 0 0 0 0
0 0 0 0 0.59136631393975 0.143637767526237 0 0 0 0 0 0 0 0 0 0 0 0 0 0 0 0 0 0 0 0 0 0 0 0 0 0 0 0 0 0 -0.167652996318709 0 0 0 0 0 0 -3.86110571882089 0 0 0 0 0 0
0 0 0 0 0 0 0 0 0 0.178951186714474 0.489304329033646 0 0.109629570377208 0 0.550954547165809 0.0963901389885709 0 0 0 0 0 0 0 0 0 0 0 0 0 0 0 0 0 0 0 0 0 -0.167652996318709 0 0 0 0 0 -2.21341979265061 0 0 0 0 0 0
0 0 0 0 0 0 0 0 0 0 0 0 0 0 0 0 0 0 0 0 0 0 0 0 0 0 0 0 0 0 0 0 0 0 0 0 0 0 -0.167652996318709 0 0 0 0 -5.06072302203619 0 0 0 0 0 0
0 0 0 0 0 0 0 0 0 0 0 0 0 0 0 0 0 0.580225428264364 0 0.0880738815330115 0.922143909613634 0 0 0 0 0 0 0 0 0 0 0 0 0 0 0 0 0 0 -0.167652996318709 0 0 0 -0.642515887736743 0 0 0 0 0 0
0 0 0 0 0 0 0 0 0 0 0 0 0 0 0 0 0 0 0 0.0878922701653871 1.92792197481644 0.314009961421702 0.269388638238931 0 0 0 0 0 0 0 0 0 0 0 0 0 0 0 0 0 -0.167652996318709 0 0 -1.64452077204558 0 0 0 0 0 -0.676417151227583
0 0 0 0 0 0 0 0 0 0 0 0 0 0 0 0 0 0 0 0 0 0 0 0 0.122964230341359 0.354747777316626 0 0 0 0 0 0 0 0 0 0 0 0 0 0 0 -0.167652996318709 0 0 0 0 0 0 0 -0.442623291124384
0 0 0 0 0 0 0 0 0 0 0 0 0 0 0 0 0 0 0 0 0 0 0 0 0 0 0 0 0 0 0 0 0 0 0 0 0 0 0 0 0 0 -0.167652996318709 0 0 0 0 0 0 -0.80424036709638
0 0 0 0 0 0 0 0 0 0 0 0 0 0 0 0 0 0 0 0 0 0 0 0 0 0 0 0 0 0 0 0 0 0 0 0 0.895186891103887 0.451402611438807 0.994846568731751 0.125008079260142 0.323979963790511 0 0 -0.167652996318709 0.568911892324001 0 0 0 0 0
0 0 0 0 0 0 0 0 0 0 0 0 0 0 0 0 0 0 0 0.902212144395969 0.0895008666229108 0 0.223443999858326 0 0 0 0 0 0 0 0 0 0 0 0 0 0 0 0 0 0 0 0 -2.81018040781606 -0.167652996318709 0 0 0 0 0
0 0 0.243233962520555 0 0.515994972154373 1.91568280735952 0.671561211887405 0 0.211410859891438 0.0876984549706093 0.0593537722752765 0 0 0 0 0 0 0 0 0 0 0 0 0 0 0 0 0 0 0 0 0 0 0 0 0 0 0 0 0 0 0 0 0 0 -0.167652996318709 0 0 0 -0.567574199798671
0 0 0 0.162697299305238 0 0.190647341034729 0.145062966969325 0 0.0226552511866385 0.0369826704425751 0 0.123294188680309 0 0.553381455389557 0.35856146704347 0 0 0 0 0 0 0 0 0 0 0 0 0 0 0 0 0 0 0 0 0 0 0 0 0 0 0 0 0 0 0 -0.167652996318709 0 0 -0.445363248082836
0 0 0 0 0 0 0 0 0 0 0 0 0 0 0 0 0 0 0 0 0 0 0 0.098544750302468 0 0 0 0 0 0 0 0 0 0 0 0 0 0 0 0 0 0 0 0 0 0 0 -0.167652996318709 0 -0.496937385434232
0 0.342154782672749 0 0.0361983704823054 0 0.337074959970178 0.264421207112996 0.322224339526818 0.234138873731235 0.240936460288281 0 0 0 0 0 0 0 0 0 0 0 0 0 0 0 0 0 0 0 0 0 0 0 0 0 0 0 0 0 0 0 0 0 0 0 0 0 0 -0.167652996318709 0
0 0 0 0 0 0 0 0 0 0 0 0 0 0 0 0 0 0 0 0 0 0 0 0 0 0 0 0 0 0 0 0 0 0 0 0 0 0 0 0 0.128190526243535 0.0871986621166942 0.160552734692802 0 0 0.114424128840454 0.0924178480503366 0.102580628315699 0 -0.167652996318709
