2.78093150372447
0.873219102681951
0.752401378087125
0.455860443668594
0.770527505477846
0.282450374889074
4.53538592036185
1.10799285406131
0.236540575123693
1.82404468839279
0.303924849365706
1.04884738444174
0.228449952662747
2.91122402910644
3.04718046490538
0.0942751250512184
0.419353208792096
5.3006123219686
0.15418290589063
3.83584937080404
6.07991652244981
3.55800056454043
1.01636992770098
1.63764751071118
0.241002972817911
3.95329229299846
0.179798236165652
0.259646948645469
0.919664361478378
9.75806664899216
2.94581178335675
1.34972618383278
0.774027218353589
1.12336254824533
1.92281413672436
1.37063779685124
0.932930614081461
0.245267237422791
1.32657943255257
1.22312536075684
6.58158892421124
0.608347786206434
0.566213690391631
0.224738990165452
2.14691082939525
1.10677447985634
0.276776979495596
0.888603339550988
0.549731188492342
0.662421972491503
