0.144009345642387
0.354822625197884
0.924365258458673
3.21128546510342
0.109240105098967
0.352911401674473
4.34456163058244
1.7305369887513
1.19632857097539
0.186446521457549
0.290015556307196
1.53028759015986
1.46433556765164
0.454136289887877
2.14870192607719
3.45805472856099
3.73044733647902
0.190835223854239
0.494032653162201
2.13408115232592
0.903043074743954
4.76373011532011
3.33948421531356
0.38040571441118
0.247061125228767
0.0674171189170009
1.25252173220908
1.11040146350806
0.659378134426434
0.862957919491814
0.937096472614645
5.32633921025567
0.361984416563818
0.778759654751911
0.748814357016074
1.64755463837779
1.12642763532684
3.69540490707525
0.480377577856892
1.18629197397638
0.462355578450248
3.00070009128918
2.17196793894356
0.298977021972273
2.18277674916648
0.483653206868449
2.56277044159274
0.314152699814879
6.72181170507118
0.58177062671108
