0.62651244461209
0.730194902797987
0.570391010074743
2.51059742426182
5.82821007075957
1.24381330839914
1.84345892445381
2.33659817084201
0.56693491034576
3.24480666931236
0.844910910960022
2.4493934722818
0.36895269035077
1.82111437373735
1.77104389087091
3.64395664787721
1.97899544092892
5.12767477488028
1.07295605538458
0.473325997494451
0.641207545476685
1.49528107086745
1.70259184383855
5.0276504779377
9.70595350748422
2.40508372091257
3.69038341578479
3.10294396855701
0.389691682107667
2.98602867437066
0.946141772911796
1.49744909604225
2.74359023587748
0.82510539792546
1.23125526308418
5.4319184214961
1.7796023574217
0.326186310827449
0.248054345957812
5.94862691032983
0.300630634106266
0.379474175757878
1.02867375763619
0.243595024692836
0.726565046521871
0.296277732486344
1.50033443813973
0.710567719614498
6.30866009212505
4.52165647455483
