-0.127028389792635 0 0 0 0 0 0 0 0 0 0 0 0 -2.19112982141847 0 0 0 0 0 0 -1.56404352556688 0 0 0 0 0 0 0 0 0 0 0 0 0 0 0 0 0 0 0 0 0 0 0 0 0 0 0 0 0
0 -0.127028389792635 0 0 0 0 0 -0.0716280702283933 0 -1.48535143817304 0 0 0 0 0 0 0 0 0 0 -0.41999623740528 0 0 0 0 0 0 0 0 0 0 0 0 0 0 0 0 0 0 0 0 0 0 0 0 0 -0.445191486734584 0 0 0
0 0 -0.127028389792635 0 0 0 0 -1.11328617571735 0 -1.55332426679814 0 0 0 0 0 0 0 0 0 0 -0.119578523072758 0 0 0 0 0 0 0 0 0 0 0 0 0 0 0 0 0 0 0 0 0 0 0 0 0 -1.43168282376564 0 0 0
0 0 0 -0.127028389792635 0 0 0 -0.994051304935589 0 -0.935738353924998 0 0 0 0 0 0 0 0 0 0 0 0 0 0 0 0 0 0 0 0 0 0 0 0 0 0 0 0 0 0 0 0 0 0 0 0 0 0 0 0
0 0 0 0 -0.127028389792635 0 0 0 0 -0.890581149929974 0 0 -3.07534177306391 0 0 0 0 0 0 0 0 0 0 0 0 0 0 0 0 0 0 0 0 0 0 0 0 0 0 0 0 0 0 0 0 0 -0.826741369015204 0 0 0
0 0 0 0 0 -0.127028389792635 0 0 0 -2.06080940769649 0 0 0 0 0 0 0 0 0 0 0 0 0 0 0 0 0 0 0 0 0 0 0 0 0 0 0 0 0 0 0 0 0 0 0 0 0 0 0 0
0 0 0 0 0 0 -0.127028389792635 0 0 -1.29422610295589 0 0 -3.24075660971711 0 0 0 0 0 0 0 -0.318870057990925 0 0 0 0 0 0 0 0 0 0 0 0 0 0 0 0 0 0 0 0 -0.222997321800993 0 0 0 0 -0.0594716059998656 0 0 0
0 0.0134653598081946 0.214334622745605 0.210973211103897 0 0 0 -0.127028389792635 0 -0.695620921388802 0 -0.448693040262637 0 0 0 0 0 0 0 -0.612697832843826 -0.200590015098727 0 0 -0.557543707665266 0 0 0 0 0 0 0 0 0 0 0 0 0 0 0 0 0 0 0 0 0 0 -4.41190686759371 0 0 0
0 0 0 0 0 0 0 0 -0.127028389792635 -0.496104437228332 -6.38797435668656 0 0 0 0 0 0 0 0 0 -5.76957771806049 0 -0.617023222382117 0 0 0 0 0 0 0 0 0 0 0 0 0 0 0 0 0 0 0 0 0 0 0 -0.243600412656124 0 0 0
0 0.276228254166313 0.312540178684004 0.182106102837179 0.192485948170391 0.440062503774148 0.239447354391643 0.142208497630337 0.0936216027686499 -0.127028389792635 -0.0989630298937072 0 0 0 0 0 0 0 -1.17585315516697 0 0 0 0 0 0 -2.68374873122801 0 0 0 0 0 0 0 0 0 0 0 0 0 0 0 0 0 0 0 0 -0.592100528975648 0 0 0
0 0 0 0 0 0 0 0 1.3526186011423 0.0189789678498741 -0.127028389792635 0 0 0 0 0 0 0 -0.478644389953033 0 0 0 0 0 0 -0.323974650805415 0 0 0 0 0 0 0 0 0 0 0 0 0 0 0 0 0 0 0 0 -0.542491370070582 0 0 0
0 0 0 0 0 0 0 0.0914194293146408 0 0 0 -0.127028389792635 0 0 0 0 0 -3.01498775176325 -10.5978382618791 0 0 0 0 0 0 0 0 0 0 0 0 0 0 0 0 0 0 0 0 0 0 0 0 0 0 0 -0.90782002021174 0 0 0
0 0 0 0 0.62278094825326 0 0.628450008571169 0 0 0 0 0 -0.127028389792635 0 0 0 0 -2.24471336310271 -1.45263760988101 0 0 0 0 0 0 0 0 0 0 0 0 0 0 0 0 0 0 0 0 0 0 0 0 0 0 0 0 0 0 0
0.469643325337962 0 0 0 0 0 0 0 0 0 0 0 0 -0.127028389792635 0 0 0 -0.741256868943103 -0.512927169906977 -0.512169515905717 0 0 0 0 0 -2.66708747598794 0 0 0 0 0 0 0 0 0 0 0 0 0 0 -0.755134599539185 0 0 0 0 0 0 0 0 0
0 0 0 0 0 0 0 0 0 0 0 0 0 0 -0.127028389792635 0 0 0 0 -0.629725352314883 0 0 0 0 0 0 0 0 0 0 0 0 0 0 0 0 0 0 0 0 -1.66487733292314 0 0 0 0 0 0 0 0 0
0 0 0 0 0 0 0 0 0 0 0 0 0 0 0 -0.127028389792635 0 -2.67387656574643 0 0 0 0 0 0 0 0 0 0 0 0 0 0 0 0 0 0 -0.454354330042535 0 0 0 -0.132788799677508 0 0 0 0 0 0 0 0 0
0 0 0 0 0 0 0 0 0 0 0 0 0 0 0 0 -0.127028389792635 0 0 0 0 0 0 0 0 0 0 0 0 0 0 0 0 0 0 0 -0.545642064980816 0 0 0 0 0 0 0 0 0 0 0 0 0
0 0 0 0 0 0 0 0 0 0 0 0.54082422206709 0.435978603364243 0.135908317099425 0 0.554969077713666 0 -0.127028389792635 0 0 0 0 0 0 0 0 0 0 -0.780219822205488 0 0 0 0 0 0 0 -4.44464307583673 0 0 0 0 0 -1.1916965806137 0 0 0 0 0 0 0
0 0 0 0 0 0 0 0 0 0.234328464716277 0.0918459659506296 2.10575190594769 0.279842786769888 0.107777569001287 0 0 0 0 -0.127028389792635 0 0 0 0 0 0 0 0 0 0 0 0 0 0 0 0 0 -2.85715916320031 0 0 0 0 0 0 0 0 0 0 0 0 0
0 0 0 0 0 0 0 0.124383017514468 0 0 0 0 0 0.115124839155331 0.126733558261273 0 0 0 0 -0.127028389792635 0 0 0 0 -9.07887865163728 0 0 0 -0.323327933135977 0 0 0 0 0 0 0 -0.637591506096295 0 0 0 0 0 -1.4927291421179 0 0 0 0 0 0 0
0.306908284170183 0.0850816224692875 0.0236592849396957 0 0 0 0.0621909060049922 0.0392565047951786 1.21235063053066 0 0 0 0 0 0 0 0 0 0 0 -0.127028389792635 0 0 0 -5.15498735136681 0 0 0 -0.373867444993402 0 0 0 0 0 0 0 -1.45347769108779 0 0 -0.276590275442781 0 0 -2.48711460897432 0 0 0 0 0 0 0
0 0 0 0 0 0 0 0 0 0 0 0 0 0 0 0 0 0 0 0 0 -0.127028389792635 0 0 0 0 0 0 0 0 0 0 0 0 0 -0.540550910534008 -2.76767408888641 0 0 0 0 0 -0.638871288360751 0 0 0 0 0 0 0
0 0 0 0 0 0 0 0 0.110556631573028 0 0 0 0 0 0 0 0 0 0 0 0 0 -0.127028389792635 0 -3.05476417332164 0 0 0 0 0 0 0 0 0 0 -2.68171635563605 0 0 0 0 0 0 -0.763672210929818 0 0 0 0 0 0 0
0 0 0 0 0 0 0 0.109811021135239 0 0 0 0 0 0 0 0 0 0 0 0 0 0 0 -0.127028389792635 0 0 0 0 0 0 0 0 0 0 0 -2.08127812168247 0 0 0 0 0 0 -0.144357070846272 0 -0.310330234464961 0 0 0 0 0
0 0 0 0 0 0 0 0 0 0 0 0 0 0 0 0 0 0 0 1.75781547711298 0.997373356741575 0 0.627620269679812 0 -0.127028389792635 0 0 0 0 0 0 0 0 0 0 -1.48645507599059 0 0 0 0 0 0 0 0 -1.36094424849327 0 0 0 0 0
0 0 0 0 0 0 0 0 0 0.543766286399494 0.0670319282190598 0 0 0.526182103737233 0 0 0 0 0 0 0 0 0 0 0 -0.127028389792635 0 -0.996511398596893 0 0 0 0 0 0 0 0 0 0 0 0 0 0 0 0 0 0 0 0 0 0
0 0 0 0 0 0 0 0 0 0 0 0 0 0 0 0 0 0 0 0 0 0 0 0 0 0 -0.127028389792635 -0.715283957316731 0 0 -1.6674519084972 0 0 -0.681693622121284 0 0 0 0 0 0 0 0 0 0 -0.221641358741245 0 0 0 0 0
0 0 0 0 0 0 0 0 0 0 0 0 0 0 0 0 0 0 0 0 0 0 0 0 0 0.218094052777578 0.143329536439656 -0.127028389792635 0 0 -1.0267130388433 0 0 0 0 0 0 0 0 0 0 0 0 0 -2.28118165984347 0 0 0 0 0
0 0 0 0 0 0 0 0 0 0 0 0 0 0 0 0 0 0.154008574195206 0 0.0644062532574526 0.0783642842698583 0 0 0 0 0 0 0 -0.127028389792635 0 0 0 0 0 0 0 0 0 0 0 0 0 0 0 -0.915983136937961 0 0 0 -2.29978421750978 0
0 0 0 0 0 0 0 0 0 0 0 0 0 0 0 0 0 0 0 0 0 0 0 0 0 0 0 0 0 -0.127028389792635 0 0 0 0 -0.340525786099864 0 0 0 0 0 0 0 0 0 0 0 0 0 -0.29051280520305 0
0 0 0 0 0 0 0 0 0 0 0 0 0 0 0 0 0 0 0 0 0 0 0 0 0 0 0.337110526559547 0.201133384580516 0 0 -0.127028389792635 0 0 0 -1.11092399755653 0 0 0 0 0 0 0 0 0 -0.367407722732529 0 0 0 -0.994849845387033 0
0 0 0 0 0 0 0 0 0 0 0 0 0 0 0 0 0 0 0 0 0 0 0 0 0 0 0 0 0 0 0 -0.127028389792635 -1.1131109176793 0 -0.701103913598246 0 0 0 -1.95580964397596 0 0 0 0 0 -0.904898632009981 0 0 0 -6.94329983833027 0
0 0 0 0 0 0 0 0 0 0 0 0 0 0 0 0 0 0 0 0 0 0 0 0 0 0 0 0 0 0 0 0.238650181557656 -0.127028389792635 0 0 0 0 -2.27009170864151 -4.45161136354229 0 0 0 0 0 -2.30167524889644 0 0 0 -0.132812417021827 -0.51124117670586
0 0 0 0 0 0 0 0 0 0 0 0 0 0 0 0 0 0 0 0 0 0 0 0 0 0 0.143658992145891 0 0 0 0 0 0 -0.127028389792635 -1.03375314946133 0 0 -4.47275995887552 -0.836251488209582 0 0 0 0 0 0 0 0 0 0 -0.20936040996934
0 0 0 0 0 0 0 0 0 0 0 0 0 0 0 0 0 0 0 0 0 0 0 0 0 0 0 0 0 0.0701589892917462 0.219692522733888 0.134650385456485 0 0.218133970290467 -0.127028389792635 0.146864700951371 0.464838649283747 -4.440761959749 -9.52670360164391 0 0 0 0 0 0 0 0 0 -0.621229320407348 0
0 0 0 0 0 0 0 0 0 0 0 0 0 0 0 0 0 0 0 0 0 0.115190566150637 0.567942377122786 0.420334335233432 0.299816286592561 0 0 0 0 0 0 0 0 0 -0.724310840594312 -0.127028389792635 0 -0.911064710317771 0 0 0 0 0 0 0 0 0 0 -2.20460352633688 -3.0489348581031
0 0 0 0 0 0 0 0 0 0 0 0 0 0 0 0.0881581058444453 0.105035952450633 0.893834745441609 0.607643465618261 0.126789429233314 0.313893845148898 0.553835276943582 0 0 0 0 0 0 0 0 0 0 0 0 -2.20067723145661 0 -0.127028389792635 -0.309199932313234 -1.38412796317201 0 0 0 0 0 0 0 0 0 -0.785326385758063 -2.47866736096356
0 0 0 0 0 0 0 0 0 0 0 0 0 0 0 0 0 0 0 0 0 0 0 0 0 0 0 0 0 0 0 0 0.427204253365307 0.851867716225006 0.961740158577585 0.192625466720927 0.0606866909706975 -0.127028389792635 0 0 0 0 0 0 0 0 0 0 0 0
0 0 0 0 0 0 0 0 0 0 0 0 0 0 0 0 0 0 0 0 0 0 0 0 0 0 0 0 0 0 0 0.386920628207465 0.944020898503808 0.180449960672992 1.89835023989197 0 0.306703452992345 0 -0.127028389792635 0 0 0 0 0 0 0 0 0 0 0
0 0 0 0 0 0 0 0 0 0 0 0 0 0 0 0 0 0 0 0 0.0592145533563552 0 0 0 0 0 0 0 0 0 0 0 0 0 0 0 0 0 0 -0.127028389792635 0 0 0 0 0 0 0 0 0 0
0 0 0 0 0 0 0 0 0 0 0 0 0 0.15947044343194 0.346325053393041 0.02757398628845 0 0 0 0 0 0 0 0 0 0 0 0 0 0 0 0 0 0 0 0 0 0 0 0 -0.127028389792635 0 0 0 0 0 0 0 0 0
0 0 0 0 0 0 0.0407532196466209 0 0 0 0 0 0 0 0 0 0 0 0 0 0 0 0 0 0 0 0 0 0 0 0 0 0 0 0 0 0 0 0 0 0 -0.127028389792635 0 0 0 -0.581796848085484 0 0 0 0
0 0 0 0 0 0 0 0 0 0 0 0 0 0 0 0 0 0.212472319372943 0 0.298749092320707 0.497011114427956 0.132630095470643 0.162791842166254 0.0256533425277944 0 0 0 0 0 0 0 0 0 0 0 0 0 0 0 0 0 0 -0.127028389792635 0 0 -0.315526799115717 0 0 0 0
0 0 0 0 0 0 0 0 0 0 0 0 0 0 0 0 0 0 0 0 0 0 0 0 0 0 0 0 0 0 0 0 0 0 0 0 0 0 0 0 0 0 0 -0.127028389792635 0 -0.537865686070346 0 0 0 0
0 0 0 0 0 0 0 0 0 0 0 0 0 0 0 0 0 0 0 0 0 0 0 0.0607757365440818 0.279242750820723 0 0.0483557687807686 0.420766064592737 0.178736745333748 0 0.074438762720845 0.180457768048326 0.516441339151146 0 0 0 0 0 0 0 0 0 0 0 -0.127028389792635 0 0 0 0 0
0 0 0 0 0 0 0 0 0 0 0 0 0 0 0 0 0 0 0 0 0 0 0 0 0 0 0 0 0 0 0 0 0 0 0 0 0 0 0 0 0 0.115228348401469 0.0643636956147381 0.102985960407208 0 -0.127028389792635 0.291873536518347 0.0435438569471657 0.88784344746476 0.283525005120428
0 0.0888661431956048 0.258884359373939 0 0.176819215672181 0 0.0114303253122207 0.862803303336777 0.0484332468065038 0.11717510738097 0.0960017039470544 0.203298579947213 0 0 0 0 0 0 0 0 0 0 0 0 0 0 0 0 0 0 0 0 0 0 0 0 0 0 0 0 0 0 0 0 0 -1.45068981496182 -0.127028389792635 0 0 0
0 0 0 0 0 0 0 0 0 0 0 0 0 0 0 0 0 0 0 0 0 0 0 0 0 0 0 0 0 0 0 0 0 0 0 0 0 0 0 0 0 0 0 0 0 -0.232855215936006 0 -0.127028389792635 0 0
0 0 0 0 0 0 0 0 0 0 0 0 0 0 0 0 0 0 0 0 0 0 0 0 0 0 0 0 0.445175440155117 0.0633937979342068 0.196459476867292 1.44309298951073 0.0242180289539619 0 0.134953947008879 0.457974492863703 0.143106640355253 0 0 0 0 0 0 0 0 -4.44359670636095 0 0 -0.127028389792635 0
0 0 0 0 0 0 0 0 0 0 0 0 0 0 0 0 0 0 0 0 0 0 0 0 0 0 0 0 0 0 0 0 0.0983521878469575 0.0438597794234983 0 0.618648978843246 0.474078952571488 0 0 0 0 0 0 0 0 -1.45686804580861 0 0 0 -0.127028389792635
