-0.221636048924954 0 -0.801105777661137 0 0 0 0 0 0 0 0 0 0 0 0 0 0 -0.864477153732136 0 0 0 0 0 0 0 0 0 0 0 0 0 0 0 0 0 0 0 0 0 0 0 0 0 0 0 0 0 0 0 0
0 -0.221636048924954 0 0 0 0 0 0 0 0 0 0 0 0 0 0 0 -1.24527916628243 0 0 0 0 0 0 0 0 0 0 0 0 0 0 0 0 0 0 0 0 0 0 0 0 0 0 0 0 0 0 0 0
0.160548979152964 0 -0.221636048924954 0 0 0 0 0 0 0 0 0 0 0 0 0 0 0 0 0 0 0 0 0 0 0 0 0 0 0 0 0 0 0 0 0 0 0 0 0 0 0 0 0 0 0 0 0 0 0
0 0 0 -0.221636048924954 0 0 0 0 0 0 0 0 0 0 0 0 0 0 0 0 0 -3.89379889793524 0 0 0 0 0 0 0 0 0 0 0 0 -3.0339562133837 -0.334993008774853 0 0 0 0 0 -0.619977990421057 0 0 0 0 0 0 0 0
0 0 0 0 -0.221636048924954 0 0 0 0 0 0 0 0 0 0 0 0 0 0 0 -0.97105017741034 -0.946340130669738 0 0 0 0 0 0 0 0 0 0 0 0 -2.24307833239888 -3.73623466668465 0 0 0 0 0 -2.6719576317573 0 0 0 0 0 0 0 0
0 0 0 0 0 -0.221636048924954 0 0 0 0 0 0 0 0 0 0 0 0 0 0 0 -0.630792809532287 0 0 0 0 0 0 0 0 0 0 0 0 -0.852478552885464 -1.95297530416657 0 0 0 0 0 -1.75120851903606 0 0 0 0 0 0 0 0
0 0 0 0 0 0 -0.221636048924954 0 -0.394110190168173 0 0 0 0 0 0 0 0 0 0 0 -0.537075370817655 -0.569180178678162 0 0 0 0 0 0 0 0 0 -0.363711563233737 0 0 -0.461450038156771 0 0 0 0 0 0 0 0 0 0 0 0 0 0 0
0 0 0 0 0 0 0 -0.221636048924954 0 0 0 0 0 0 0 -2.16325286909149 -2.49966796322942 0 0 0 0 0 0 0 0 0 0 0 0 0 0 0 0 0 -1.37293455839583 -1.17187788941768 -2.39930949720511 0 0 0 0 0 0 0 0 0 0 0 0 0
0 0 0 0 0 0 0.0821386438167001 0 -0.221636048924954 0 0 0 0 0 0 -2.87540646845456 0 0 0 0 0 0 0 0 0 0 0 0 0 0 0 -1.34709696137036 0 0 0 -0.744169244153275 -1.07491470948994 0 0 0 0 0 0 -0.94186669236573 0 0 0 0 0 0
0 0 0 0 0 0 0 0 0 -0.221636048924954 0 0 0 0 0 -0.643973898158355 0 0 0 0 0 0 0 0 0 0 0 0 0 0 0 -0.571566397988449 0 0 -0.747321165992617 0 0 0 0 0 0 0 -1.29006272345586 0 0 0 0 0 0 0
0 0 0 0 0 0 0 0 0 0 -0.221636048924954 0 -1.50622039733176 0 0 -1.54337641979409 0 0 0 0 0 0 0 0 0 0 0 0 0 0 0 -0.177910020568449 0 0 0 0 0 -0.688478597309112 0 0 0 0 -4.18899486601479 0 0 0 0 0 0 -1.38288339615143
0 0 0 0 0 0 0 0 0 0 0 -0.221636048924954 0 0 -0.649206052510576 0 0 0 -0.770349401380478 0 0 0 0 0 0 0 0 0 0 0 0 0 0 0 -1.18988726210348 0 -0.258363674030121 0 0 0 0 0 0 0 0 0 0 0 0 -1.96456385495355
0 0 0 0 0 0 0 0 0 0 0.263574980347037 0 -0.221636048924954 0 -3.60629056901102 0 0 0 0 0 0 0 0 0 0 0 0 0 0 0 0 0 0 0 0 0 -1.04850597845655 0 0 0 0 0 0 0 0 0 0 0 0 0
0 0 0 0 0 0 0 0 0 0 0 0 0 -0.221636048924954 0 0 0 0 -0.703153707330012 0 0 0 0 0 0 0 0 0 0 0 0 -8.4183083527314 0 0 0 0 -0.0843459379567267 0 0 0 0 0 0 0 0 0 0 0 0 0
0 0 0 0 0 0 0 0 0 0 0 0.135061744331398 0.714796880227833 0 -0.221636048924954 0 0 0 0 0 0 0 0 0 0 0 0 0 0 -0.294170362949364 0 -1.83604086771611 0 0 0 0 0 0 0 0 0 0 0 0 0 0 0 0 0 -0.907076950223535
0 0 0 0 0 0 0 0.439646790748747 0.562205195381466 0.12571233133567 0.326696216899399 0 0 0 0 -0.221636048924954 0 0 -0.85735304068205 0 0 0 0 0 0 0 0 0 0 0 0 -0.606191164116397 0 0 0 0 0 0 0 0 0 0 0 0 0 0 0 0 0 -1.20205535652162
0 0 0 0 0 0 0 0.505588671880976 0 0 0 0 0 0 0 0 -0.221636048924954 0 -0.293904338889283 0 0 0 0 0 -0.15087736827278 0 0 0 0 0 0 -0.397582613282701 0 0 0 0 0 0 0 0 0 0 0 0 0 0 0 0 0 0
0.159111383752637 0.229212964322066 0 0 0 0 0 0 0 0 0 0 0 0 0 0 0 -0.221636048924954 -1.64374602466185 0 0 0 0 0 -0.118352141889667 0 -2.64267569200089 0 0 -0.468135662553398 0 -2.22750997957011 0 0 0 0 0 0 0 0 0 0 0 0 0 0 0 0 0 -2.92995044427261
0 0 0 0 0 0 0 0 0 0 0 0.168670363243402 0 0.136217495432542 0 0.138252453936037 0.0589727771184717 0.331019341517384 -0.221636048924954 0 0 0 0 0 0 0 -0.346094090373108 0 -5.97338905737546 -4.96518108453206 0 -0.360810072791139 0 0 0 0 0 0 0 0 0 0 0 0 0 0 0 0 0 0
0 0 0 0 0 0 0 0 0 0 0 0 0 0 0 0 0 0 0 -0.221636048924954 0 0 0 -6.08311938996937 0 0 0 0 -5.42354340339777 -1.89661521681414 0 0 0 0 0 0 0 0 0 0 0 0 0 0 0 0 0 0 0 0
0 0 0 0 0.189336743813891 0 0.105344235460666 0 0 0 0 0 0 0 0 0 0 0 0 0 -0.221636048924954 0 0 -1.00915677917538 0 0 -0.338134683557523 0 0 0 0 -0.440126801649484 0 0 0 0 0 0 -1.56337407718261 0 0 0 0 0 0 0 0 0 0 -1.36467445504818
0 0 0 0.756586627947883 0.172761702435398 0.125673127958843 0.112367270264125 0 0 0 0 0 0 0 0 0 0 0 0 0 0 -0.221636048924954 0 0 0 0 -0.793817405052704 0 -0.139788521894385 -0.191381970952061 0 -2.31509261780415 0 0 0 0 0 0 0 0 0 0 0 0 0 0 0 0 0 0
0 0 0 0 0 0 0 0 0 0 0 0 0 0 0 0 0 0 0 0 0 0 -0.221636048924954 0 0 0 0 0 0 0 0 -2.75405181679593 0 0 0 0 0 0 0 0 0 0 0 0 0 0 0 0 0 -0.726374614601543
0 0 0 0 0 0 0 0 0 0 0 0 0 0 0 0 0 0 0 1.18935409394134 0.200422012361573 0 0 -0.221636048924954 0 0 0 -3.42115436476898 0 0 -0.798555473103759 0 0 0 0 0 0 0 0 0 0 0 0 0 0 -1.01323852946582 0 0 0 -1.19001332019551
0 0 0 0 0 0 0 0 0 0 0 0 0 0 0 0 0.0280561912577064 0.024919001630228 0 0 0 0 0 0 -0.221636048924954 0 0 0 0 0 -0.291649079855266 0 0 0 0 0 0 0 0 0 0 0 0 0 0 -0.460947014424388 0 0 0 -2.97712609952412
0 0 0 0 0 0 0 0 0 0 0 0 0 0 0 0 0 0 0 0 0 0 0 0 0 -0.221636048924954 0 0 0 0 0 0 0 0 0 0 0 0 0 0 0 0 0 0 0 -7.32162040168571 0 0 0 0
0 0 0 0 0 0 0 0 0 0 0 0 0 0 0 0 0 0.539790589080135 0.0751175050193649 0 0.0642189068939044 0.151190584328848 0 0 0 0 -0.221636048924954 0 0 0 -2.42219105263474 0 0 0 0 0 0 0 0 0 0 0 0 0 0 0 0 0 0 -0.4745159977628
0 0 0 0 0 0 0 0 0 0 0 0 0 0 0 0 0 0 0 0 0 0 0 0.726054905221137 0 0 0 -0.221636048924954 0 0 -1.49194674947098 0 0 0 0 0 0 0 0 0 0 0 0 0 0 0 0 0 0 -1.61157891813729
0 0 0 0 0 0 0 0 0 0 0 0 0 0 0 0 0 0 1.19210580123765 1.13290114575966 0 0.0264901516867276 0 0 0 0 0 0 -0.221636048924954 0 -0.294526834954554 0 0 0 0 0 0 0 0 0 0 0 0 0 0 0 0 0 0 -0.453109943858631
0 0 0 0 0 0 0 0 0 0 0 0 0 0 0.059069527920672 0 0 0.0917857074643723 1.05275511834317 0.392915606994509 0 0.0410080271958252 0 0 0 0 0 0 0 -0.221636048924954 -2.83473546521197 0 0 -1.88058536089143 0 0 0 0 0 0 0 0 0 0 0 0 0 0 0 -0.801489782978225
0 0 0 0 0 0 0 0 0 0 0 0 0 0 0 0 0 0 0 0 0 0 0 0.143863262564983 0.0575343635332917 0 0.484271073889557 0.284367948311097 0.0620049545444193 0.577473116654637 -0.221636048924954 0 0.216397639078155 0.212632721258763 0.247123016089133 0.205408344873669 0 0 0 0 0 0 0 0 0 0 0 0 0 -2.85896738913342
0 0 0 0 0 0 0.0653944387678708 0 0.272270155865181 0.110915676317564 0.0319427761115309 0 0 1.60941938229708 0.345828934895507 0.11495694117855 0.0781434881247262 0.426658679582655 0.0693623561723539 0 0.0938339198950384 0.469130827928265 0.556081156804656 0 0 0 0 0 0 0 0 -0.221636048924954 0 -0.95657562063634 0 0 0 0 0 0 0 0 0 0 0 0 0 0 0 -0.509195026994109
0 0 0 0 0 0 0 0 0 0 0 0 0 0 0 0 0 0 0 0 0 0 0 0 0 0 0 0 0 0 -1.05372621579581 0 -0.221636048924954 0 0 0 0 0 0 0 0 0 0 0 0 0 0 0 0 -0.956847698552485
0 0 0 0 0 0 0 0 0 0 0 0 0 0 0 0 0 0 0 0 0 0 0 0 0 0 0 0 0 0.365106522233488 -0.946272010998035 0.203951081222528 0 -0.221636048924954 0 0 0 0 0 0 0 0 0 0 0 0 0 0 0 -1.54434304461844
0 0 0 0.570177244790279 0.452848808763327 0.161968899930912 0.0852067719748182 0.28011513534154 0 0.146453644609011 0 0.234337210449685 0 0 0 0 0 0 0 0 0 0 0 0 0 0 0 0 0 0 -1.32358355303184 0 0 0 -0.221636048924954 0 0 0 0 0 0 0 0 0 0 0 0 0 0 -3.76910978477245
0 0 0 0.0666305915959388 0.753090091477576 0.369679309727942 0 0.250881919835007 0.146272479686074 0 0 0 0 0 0 0 0 0 0 0 0 0 0 0 0 0 0 0 0 0 -1.03665897210083 0 0 0 0 -0.221636048924954 0 0 0 0 0 0 0 0 0 0 -0.475840440915789 0 0 -0.745525670065639
0 0 0 0 0 0 0 0.518314150099687 0.215122096250186 0 0 0.0527054438706354 0.196227553884942 0.0169429258242895 0 0 0 0 0 0 0 0 0 0 0 0 0 0 0 0 0 0 0 0 0 0 -0.221636048924954 0 0 0 0 0 0 0 0 0 -2.45350027378835 0 0 -0.0990522759570914
0 0 0 0 0 0 0 0 0 0 0.131363385337754 0 0 0 0 0 0 0 0 0 0 0 0 0 0 0 0 0 0 0 0 0 0 0 0 0 0 -0.221636048924954 0 0 0 0 0 0 0 0 -0.415538938234252 0 0 0
0 0 0 0 0 0 0 0 0 0 0 0 0 0 0 0 0 0 0 0 0.299022994393571 0 0 0 0 0 0 0 0 0 0 0 0 0 0 0 0 0 -0.221636048924954 0 0 0 0 0 0 0 0 0 0 -0.498997188883999
0 0 0 0 0 0 0 0 0 0 0 0 0 0 0 0 0 0 0 0 0 0 0 0 0 0 0 0 0 0 0 0 0 0 0 0 0 0 0 -0.221636048924954 0 0 0 0 0 0 0 0 0 -0.304196366533414
0 0 0 0 0 0 0 0 0 0 0 0 0 0 0 0 0 0 0 0 0 0 0 0 0 0 0 0 0 0 0 0 0 0 0 0 0 0 0 0 -0.221636048924954 0 0 0 -1.01330817050714 0 0 0 0 0
0 0 0 0.122188903074737 0.554774128582934 0.385683337290545 0 0 0 0 0 0 0 0 0 0 0 0 0 0 0 0 0 0 0 0 0 0 0 0 0 0 0 0 0 0 0 0 0 0 0 -0.221636048924954 0 0 -0.441850521949609 0 0 -3.32676464500411 0 0
0 0 0 0 0 0 0 0 0 0.266024933456623 0.886250575946788 0 0 0 0 0 0 0 0 0 0 0 0 0 0 0 0 0 0 0 0 0 0 0 0 0 0 0 0 0 0 0 -0.221636048924954 0 -0.655586503688751 0 0 -1.70369728442591 0 0
0 0 0 0 0 0 0 0 0.194848214811794 0 0 0 0 0 0 0 0 0 0 0 0 0 0 0 0 0 0 0 0 0 0 0 0 0 0 0 0 0 0 0 0 0 0 -0.221636048924954 0 0 0 -0.516780509392915 0 0
0 0 0 0 0 0 0 0 0 0 0 0 0 0 0 0 0 0 0 0 0 0 0 0 0 0 0 0 0 0 0 0 0 0 0 0 0 0 0 0 0.213721351461075 0.0894931837308009 0.131544453354104 0 -0.221636048924954 0 0 -1.55872725573251 0 0
0 0 0 0 0 0 0 0 0 0 0 0 0 0 0 0 0 0 0 0 0 0 0 0.188748996112563 0.0885751739248608 1.41387431216241 0 0 0 0 0 0 0 0 0 0 0 0 0 0 0 0 0 0 0 -0.221636048924954 0 0 0 0
0 0 0 0 0 0 0 0 0 0 0 0 0 0 0 0 0 0 0 0 0 0 0 0 0 0 0 0 0 0 0 0 0 0 0 0.0934068764751234 0.435057751031266 0.0840948124302317 0 0 0 0 0 0 0 0 -0.221636048924954 -3.01519119930604 -0.175524043830733 0
0 0 0 0 0 0 0 0 0 0 0 0 0 0 0 0 0 0 0 0 0 0 0 0 0 0 0 0 0 0 0 0 0 0 0 0 0 0 0 0 0 0.702099948542657 0.312704035535195 0.10211727923033 0.297530348220813 0 0.574701301427517 -0.221636048924954 -0.808923154633827 0
0 0 0 0 0 0 0 0 0 0 0 0 0 0 0 0 0 0 0 0 0 0 0 0 0 0 0 0 0 0 0 0 0 0 0 0 0 0 0 0 0 0 0 0 0 0 0.0364239852322639 0.157540026702948 -0.221636048924954 0
0 0 0 0 0 0 0 0 0 0 0.272169217025972 0.411078215068471 0 0 0.199894284085079 0.24546324159437 0 0.558652687636111 0 0 0.273026387166424 0 0.145428406912506 0.26216625074672 0.607197961282356 0 0.0962370276511138 0.302732631053664 0.091327159813431 0.170579362469986 0.588511414860167 0.10409140646047 0.193867784009081 0.322072232157972 0.726118765698534 0.147855193495529 0.0195426518253532 0 0.0983360215389474 0.0634098477767183 0 0 0 0 0 0 0 0 0 -0.221636048924954
