-0.106604246094044 0 0 0 0 0 0 0 0 0 0 0 0 -1.37524959078596 0 0 0 0 0 0 -0.589938102574897 0 0 0 0 0 0 0 0 0 0 0 0 0 0 0 0 0 0 0 0 0 0 0 0 0 0 0 0 0
0 -0.106604246094044 0 0 0 0 0 -1.07498625895006 0 -0.796386438165981 0 0 0 0 0 0 0 0 0 0 -0.389956792620766 0 0 0 0 0 0 0 0 0 0 0 0 0 0 0 0 0 0 0 0 0 0 0 0 0 -0.621077134450734 0 0 0
0 0 -0.106604246094044 0 0 0 0 -1.63947714572064 0 -0.382534256725984 0 0 0 0 0 0 0 0 0 0 -0.476609904723101 0 0 0 0 0 0 0 0 0 0 0 0 0 0 0 0 0 0 0 0 0 0 0 0 0 -1.79967010409961 0 0 0
0 0 0 -0.106604246094044 0 0 0 -0.928898291731807 0 -7.60544408626033 0 0 0 0 0 0 0 0 0 0 0 0 0 0 0 0 0 0 0 0 0 0 0 0 0 0 0 0 0 0 0 0 0 0 0 0 0 0 0 0
0 0 0 0 -0.106604246094044 0 0 0 0 -0.567987029659745 0 0 -0.665319381123793 0 0 0 0 0 0 0 0 0 0 0 0 0 0 0 0 0 0 0 0 0 0 0 0 0 0 0 0 0 0 0 0 0 -6.08113347086509 0 0 0
0 0 0 0 0 -0.106604246094044 0 0 0 -1.54401021362515 0 0 0 0 0 0 0 0 0 0 0 0 0 0 0 0 0 0 0 0 0 0 0 0 0 0 0 0 0 0 0 0 0 0 0 0 0 0 0 0
0 0 0 0 0 0 -0.106604246094044 0 0 -0.968238386091725 0 0 -2.07044329856169 0 0 0 0 0 0 0 -0.443965887302969 0 0 0 0 0 0 0 0 0 0 0 0 0 0 0 0 0 0 0 0 -0.216795110633555 0 0 0 0 -0.292004911366216 0 0 0
0 0.220875415533541 0.336616534494174 0.179079414894771 0 0 0 -0.106604246094044 0 -0.405874278418751 0 -2.77954505371744 0 0 0 0 0 0 0 -2.61599928405583 -0.15632204795413 0 0 -0.544093452984029 0 0 0 0 0 0 0 0 0 0 0 0 0 0 0 0 0 0 0 0 0 0 -0.511373195165271 0 0 0
0 0 0 0 0 0 0 0 -0.106604246094044 -3.90855302273136 -0.687563201494682 0 0 0 0 0 0 0 0 0 -0.961729753202732 0 -1.18775401875905 0 0 0 0 0 0 0 0 0 0 0 0 0 0 0 0 0 0 0 0 0 0 0 -0.475271544388998 0 0 0
0 0.159936798508981 0.0803381230009304 1.44184584393104 0.119095238611422 0.336519466483002 0.193781795426839 0.0798464068556087 0.822477092194709 -0.106604246094044 -0.443479721638054 0 0 0 0 0 0 0 -2.01837244299499 0 0 0 0 0 0 -2.50965546314413 0 0 0 0 0 0 0 0 0 0 0 0 0 0 0 0 0 0 0 0 -0.70649283782696 0 0 0
0 0 0 0 0 0 0 0 0.140834453037685 0.0929553851802434 -0.106604246094044 0 0 0 0 0 0 0 -3.9665457216038 0 0 0 0 0 0 -4.06279379342063 0 0 0 0 0 0 0 0 0 0 0 0 0 0 0 0 0 0 0 0 -1.96406823064501 0 0 0
0 0 0 0 0 0 0 0.553231251004909 0 0 0 -0.106604246094044 0 0 0 0 0 -1.11069439156154 -1.13809907623135 0 0 0 0 0 0 0 0 0 0 0 0 0 0 0 0 0 0 0 0 0 0 0 0 0 0 0 -0.67157726128514 0 0 0
0 0 0 0 0.137372447399188 0 0.400748758946622 0 0 0 0 0 -0.106604246094044 0 0 0 0 -2.95347497985069 -10.5694082618431 0 0 0 0 0 0 0 0 0 0 0 0 0 0 0 0 0 0 0 0 0 0 0 0 0 0 0 0 0 0 0
0.272078094982085 0 0 0 0 0 0 0 0 0 0 0 0 -0.106604246094044 0 0 0 -0.286091141244167 -0.52755804409709 -1.98399929755831 0 0 0 0 0 -2.47197678753248 0 0 0 0 0 0 0 0 0 0 0 0 0 0 -0.590103188353702 0 0 0 0 0 0 0 0 0
0 0 0 0 0 0 0 0 0 0 0 0 0 0 -0.106604246094044 0 0 0 0 -0.500558543047782 0 0 0 0 0 0 0 0 0 0 0 0 0 0 0 0 0 0 0 0 -0.504683737930658 0 0 0 0 0 0 0 0 0
0 0 0 0 0 0 0 0 0 0 0 0 0 0 0 -0.106604246094044 0 -1.242935119965 0 0 0 0 0 0 0 0 0 0 0 0 0 0 0 0 0 0 -2.8107014526073 0 0 0 -1.10719103479122 0 0 0 0 0 0 0 0 0
0 0 0 0 0 0 0 0 0 0 0 0 0 0 0 0 -0.106604246094044 0 0 0 0 0 0 0 0 0 0 0 0 0 0 0 0 0 0 0 -0.930436111776185 0 0 0 0 0 0 0 0 0 0 0 0 0
0 0 0 0 0 0 0 0 0 0 0 0.231033865924188 0.570827636668106 0.0560536745856243 0 0.233356641102545 0 -0.106604246094044 0 0 0 0 0 0 0 0 0 0 -0.16176499626287 0 0 0 0 0 0 0 -0.138129950924892 0 0 0 0 0 -2.18215361294322 0 0 0 0 0 0 0
0 0 0 0 0 0 0 0 0 0.416463157698735 0.78794458833507 0.233875433352152 2.15945730994549 0.114939305130828 0 0 0 0 -0.106604246094044 0 0 0 0 0 0 0 0 0 0 0 0 0 0 0 0 0 -1.36122437764379 0 0 0 0 0 0 0 0 0 0 0 0 0
0 0 0 0 0 0 0 0.51968213907748 0 0 0 0 0 0.390408260716269 0.103180718682157 0 0 0 0 -0.106604246094044 0 0 0 0 -0.330319006193439 0 0 0 -0.326777092522427 0 0 0 0 0 0 0 -1.07522418375919 0 0 0 0 0 -2.35915161519241 0 0 0 0 0 0 0
0.113344086583031 0.0773042345006522 0.0929520588520429 0 0 0 0.0866039211150137 0.0313500855207957 0.184999022288631 0 0 0 0 0 0 0 0 0 0 0 -0.106604246094044 0 0 0 -0.576066396776637 0 0 0 -0.998783903392749 0 0 0 0 0 0 0 -0.139459355132579 0 0 -1.38658550427202 0 0 -0.200122663809601 0 0 0 0 0 0 0
0 0 0 0 0 0 0 0 0 0 0 0 0 0 0 0 0 0 0 0 0 -0.106604246094044 0 0 0 0 0 0 0 0 0 0 0 0 0 -0.246832609940868 -0.296002673872747 0 0 0 0 0 -0.850895641722458 0 0 0 0 0 0 0
0 0 0 0 0 0 0 0 0.240088434778176 0 0 0 0 0 0 0 0 0 0 0 0 0 -0.106604246094044 0 -1.34522080351827 0 0 0 0 0 0 0 0 0 0 -0.829883766225098 0 0 0 0 0 0 -1.53279725450107 0 0 0 0 0 0 0
0 0 0 0 0 0 0 0.109099344121277 0 0 0 0 0 0 0 0 0 0 0 0 0 0 0 -0.106604246094044 0 0 0 0 0 0 0 0 0 0 0 -1.26892193943362 0 0 0 0 0 0 -2.85597767638271 0 -0.443524794291506 0 0 0 0 0
0 0 0 0 0 0 0 0 0 0 0 0 0 0 0 0 0 0 0 0.0706066153780623 0.116084423180651 0 0.277794669675624 0 -0.106604246094044 0 0 0 0 0 0 0 0 0 0 -2.56172026278771 0 0 0 0 0 0 0 0 -10.5651458608597 0 0 0 0 0
0 0 0 0 0 0 0 0 0 0.543331235653895 0.806922287432684 0 0 0.500463122638029 0 0 0 0 0 0 0 0 0 0 0 -0.106604246094044 0 -2.26450868499267 0 0 0 0 0 0 0 0 0 0 0 0 0 0 0 0 0 0 0 0 0 0
0 0 0 0 0 0 0 0 0 0 0 0 0 0 0 0 0 0 0 0 0 0 0 0 0 0 -0.106604246094044 -1.32021377308547 0 0 -1.43425853418647 0 0 -1.15985972326915 0 0 0 0 0 0 0 0 0 0 -3.11263801866459 0 0 0 0 0
0 0 0 0 0 0 0 0 0 0 0 0 0 0 0 0 0 0 0 0 0 0 0 0 0 0.419877145757772 0.258455207262497 -0.106604246094044 0 0 -0.813464797877622 0 0 0 0 0 0 0 0 0 0 0 0 0 -3.89416363430679 0 0 0 0 0
0 0 0 0 0 0 0 0 0 0 0 0 0 0 0 0 0 0.0338048317475148 0 0.0622879588395273 0.191623481677797 0 0 0 0 0 0 0 -0.106604246094044 0 0 0 0 0 0 0 0 0 0 0 0 0 0 0 -0.716257354549566 0 0 0 -0.205879958828026 0
0 0 0 0 0 0 0 0 0 0 0 0 0 0 0 0 0 0 0 0 0 0 0 0 0 0 0 0 0 -0.106604246094044 0 0 0 0 -0.118438418126225 0 0 0 0 0 0 0 0 0 0 0 0 0 -1.37293909006715 0
0 0 0 0 0 0 0 0 0 0 0 0 0 0 0 0 0 0 0 0 0 0 0 0 0 0 0.292021628959689 0.159927188743819 0 0 -0.106604246094044 0 0 0 -2.75399877820187 0 0 0 0 0 0 0 0 0 -0.66292370361318 0 0 0 -3.39141215549776 0
0 0 0 0 0 0 0 0 0 0 0 0 0 0 0 0 0 0 0 0 0 0 0 0 0 0 0 0 0 0 0 -0.106604246094044 -0.617982453891292 0 -1.28913930806201 0 0 0 -0.492553384640694 0 0 0 0 0 -1.29399898742022 0 0 0 -1.06047231921649 0
0 0 0 0 0 0 0 0 0 0 0 0 0 0 0 0 0 0 0 0 0 0 0 0 0 0 0 0 0 0 0 0.130549782888557 -0.106604246094044 0 0 0 0 -1.94415969341412 -0.365914898128482 0 0 0 0 0 -6.95836912375409 0 0 0 -0.418454529708713 -3.18353098784734
0 0 0 0 0 0 0 0 0 0 0 0 0 0 0 0 0 0 0 0 0 0 0 0 0 0 0.21973536001074 0 0 0 0 0 0 -0.106604246094044 -0.209263300498772 0 0 -1.39094982589732 -0.378591030765436 0 0 0 0 0 0 0 0 0 0 -0.266797704816375
0 0 0 0 0 0 0 0 0 0 0 0 0 0 0 0 0 0 0 0 0 0 0 0 0 0 0 0 0 0.0240652225521586 0.57327815071044 0.249861685028382 0 0.0439512220650388 -0.106604246094044 0.321646103979911 0.0557196972960124 -1.65946741101373 -0.305067306413134 0 0 0 0 0 0 0 0 0 -0.73297683387049 0
0 0 0 0 0 0 0 0 0 0 0 0 0 0 0 0 0 0 0 0 0 0.054425583538984 0.195305218986107 0.277845193900496 0.475681972049065 0 0 0 0 0 0 0 0 0 -1.5435202912217 -0.106604246094044 0 -1.37860482780241 0 0 0 0 0 0 0 0 0 0 -2.35779144074343 -5.78981239228479
0 0 0 0 0 0 0 0 0 0 0 0 0 0 0 0.526101744700742 0.199387334290267 0.0277180280205442 0.270825107248061 0.211680740894721 0.0270196470356498 0.0592509238791193 0 0 0 0 0 0 0 0 0 0 0 0 -0.267899666713535 0 -0.106604246094044 -1.12315443284095 -0.619940097971442 0 0 0 0 0 0 0 0 0 -2.35937036988284 -2.04031987994444
0 0 0 0 0 0 0 0 0 0 0 0 0 0 0 0 0 0 0 0 0 0 0 0 0 0 0 0 0 0 0 0 0.434280773540097 0.272612801491143 0.319479910413131 0.26320013649175 0.217606408176137 -0.106604246094044 0 0 0 0 0 0 0 0 0 0 0 0
0 0 0 0 0 0 0 0 0 0 0 0 0 0 0 0 0 0 0 0 0 0 0 0 0 0 0 0 0 0 0 0.0913118548574472 0.0754520899053119 0.0777363283752885 0.0577097517627132 0 0.128752852205262 0 -0.106604246094044 0 0 0 0 0 0 0 0 0 0 0
0 0 0 0 0 0 0 0 0 0 0 0 0 0 0 0 0 0 0 0 0.28719168284283 0 0 0 0 0 0 0 0 0 0 0 0 0 0 0 0 0 0 -0.106604246094044 0 0 0 0 0 0 0 0 0 0
0 0 0 0 0 0 0 0 0 0 0 0 0 0.115674613517042 0.104099904419595 0.210292801871396 0 0 0 0 0 0 0 0 0 0 0 0 0 0 0 0 0 0 0 0 0 0 0 0 -0.106604246094044 0 0 0 0 0 0 0 0 0
0 0 0 0 0 0 0.041642687722405 0 0 0 0 0 0 0 0 0 0 0 0 0 0 0 0 0 0 0 0 0 0 0 0 0 0 0 0 0 0 0 0 0 0 -0.106604246094044 0 0 0 -1.04812928799717 0 0 0 0
0 0 0 0 0 0 0 0 0 0 0 0 0 0 0 0 0 0.457115067309421 0 0.4844971611468 0.0413661044314189 0.170538692956579 0.299811858673741 0.520622698864299 0 0 0 0 0 0 0 0 0 0 0 0 0 0 0 0 0 0 -0.106604246094044 0 0 -6.08019353501783 0 0 0 0
0 0 0 0 0 0 0 0 0 0 0 0 0 0 0 0 0 0 0 0 0 0 0 0 0 0 0 0 0 0 0 0 0 0 0 0 0 0 0 0 0 0 0 -0.106604246094044 0 -0.512628401112804 0 0 0 0
0 0 0 0 0 0 0 0 0 0 0 0 0 0 0 0 0 0 0 0 0 0 0 0.0836951891727292 1.99526639088608 0 0.632261927298343 0.761159310794809 0.135334078204344 0 0.132079841631655 0.250788563453883 1.3996159366034 0 0 0 0 0 0 0 0 0 0 0 -0.106604246094044 0 0 0 0 0
0 0 0 0 0 0 0 0 0 0 0 0 0 0 0 0 0 0 0 0 0 0 0 0 0 0 0 0 0 0 0 0 0 0 0 0 0 0 0 0 0 0.220086327069708 1.20419073322702 0.107870419831809 0 -0.106604246094044 0.204526860423497 0.107222886829658 0.196319325347432 0.0444686127557638
0 0.11225540546016 0.359001551647564 0 1.18304185434961 0 0.063420143310221 0.105728422509365 0.101812899977717 0.148964015325933 0.376283572311996 0.136610876153424 0 0 0 0 0 0 0 0 0 0 0 0 0 0 0 0 0 0 0 0 0 0 0 0 0 0 0 0 0 0 0 0 0 -0.993551248449586 -0.106604246094044 0 0 0
0 0 0 0 0 0 0 0 0 0 0 0 0 0 0 0 0 0 0 0 0 0 0 0 0 0 0 0 0 0 0 0 0 0 0 0 0 0 0 0 0 0 0 0 0 -0.536703635562394 0 -0.106604246094044 0 0
0 0 0 0 0 0 0 0 0 0 0 0 0 0 0 0 0 0 0 0 0 0 0 0 0 0 0 0 0.0417085713911504 0.278710462496925 0.714475710844349 0.205072169736595 0.0919346339154178 0 0.153792713692872 0.48930797904148 0.452254599627603 0 0 0 0 0 0 0 0 -0.976219019338228 0 0 -0.106604246094044 0
0 0 0 0 0 0 0 0 0 0 0 0 0 0 0 0 0 0 0 0 0 0 0 0 0 0 0 0 0 0 0 0 0.635597406116154 0.0523185686308448 0 1.19297714404901 0.400270734211127 0 0 0 0 0 0 0 0 -0.239476861696521 0 0 0 -0.106604246094044
