0.299609720383251
0.45956105265589
2.75096108982455
0.561594131411792
1.57546882835888
0.188105325575543
0.519368527715349
3.58801041873276
0.718194645981598
6.47487307184386
1.15150390194775
4.90927411266393
1.26434370220586
0.892404993929152
1.14274570048832
2.11972313466965
2.45313004882217
2.39005368674563
3.93965752577377
0.373677020285322
0.872714305569137
0.326844435186102
5.69810746479803
1.11555805313972
0.423286751350885
9.61520473918698
0.836733847297007
0.52705223912981
0.216311633594731
0.39023825860148
5.46269205716028
0.366482884745764
3.14085929209565
2.43430000154966
2.55303922488189
6.51365254186955
0.398162212911941
0.27326941813757
2.40056250917253
1.23885261332139
4.70547072967498
1.09107719079395
1.52278066429016
0.168381213050617
0.86000211175687
0.178242281891985
0.405982698928536
1.3713179589796
2.23712499540842
0.748846368275418
