0.137426261622767
1.36847386331019
1.00273778382284
0.452443111681499
3.08087736128408
0.920900526873047
0.593932819965135
1.64594786161767
4.44284800604522
1.1072313487036
1.63845310680019
3.88441427505052
0.577628784281582
1.1701660275751
2.35430921962859
3.76573146720079
4.26804528403755
0.470528119644578
0.400380754782868
1.48753672296856
1.96780832687952
0.500498680478678
1.03615642469159
2.26585979495693
2.70497487954983
2.02710900057041
2.15201867526427
1.14527381442213
0.791185325856159
1.46994243254418
1.62184110060331
2.15339998250824
3.16172991931243
0.262686201895659
0.337646288277155
2.27760045114398
5.97257839205645
0.505624968028953
0.439873055368229
1.79129371187728
0.615460444914602
0.692701633807302
0.879062010739287
5.61884925741163
1.52503948891443
0.74386456162122
2.5648453012588
0.332651171375995
0.547874020931158
1.32515552985794
