1.89277446289046
0.226857652632874
1.5357013064087
1.35995233679121
1.35532211452221
1.06812073897529
0.679017301129002
3.0503788654409
0.134982144265281
1.26244479792871
1.01230711948265
6.66121352024504
0.807861594505687
0.791471377057544
1.10763966327532
0.209745790878546
2.0877427776881
1.35711743860612
0.626595238344914
2.15191124242696
1.35367534917372
1.59641056073013
1.6693040488123
0.332845230386005
0.62755250642219
1.71566723701856
0.524600104611455
1.17817845002372
0.793098024834948
1.3711244649947
1.64060219054404
0.682338595183961
0.487472993357679
0.519924964322916
1.92877322624461
5.25969285948179
1.29539243232815
2.5959330152814
0.957664405945673
2.38710310950617
2.50625272169931
1.54157409202656
0.362335249322873
1.10210819076427
0.266640618698424
2.63935846206105
3.37611128113476
0.607949196559659
0.81207509383949
0.792848188438636
