0.855197394532589
2.21588850375758
2.60895868774129
1.19596998047814
1.3923181035758
1.00749335174504
0.348913235211742
1.74872791373082
2.96572613102486
0.403472816482862
1.16655734237761
0.777566641033328
0.588931731804564
1.04489325398448
0.299857649312752
1.61528591552678
0.349817145419921
0.664463214124009
1.16282937753599
0.709308192470361
1.3409108464267
0.850687507290055
0.232286054841071
0.523676052368051
0.306703288569779
0.245791071230553
0.597397476185715
0.127278938774996
0.97207817637909
0.0957332727085064
1.54404396250223
0.160854180578939
1.06476858266927
0.242342253294307
0.541269199692304
0.675916523224736
0.192633256155123
3.85913412510314
0.834937420782244
0.241428672184113
0.775814887700425
4.99696428155661
0.779254985558845
5.27089419751796
1.27994875301258
1.38228501040587
5.7736926778862
0.317171265811237
0.993850597046608
1.08533566526168
