-0.266848904746489 0 0 0 0 0 0 0 -1.41790616550488 0 0 0 0 0 0 0 0 0 -6.12204957730477 0 0 0 0 -1.98887230399783 0 0 0 0 0 0 0 0 0 0 0 0 0 0 0 0 0 0 0 0 0 0 0 0 0 0
0 -0.266848904746489 0 0 0 0 0 0 -0.227933716580348 0 0 0 0 0 0 0 0 0 -0.26396267073745 0 0 0 0 0 0 0 0 0 0 0 0 0 0 0 0 0 0 0 0 0 0 0 0 0 0 0 0 0 0 0
0 0 -0.266848904746489 0 0 0 0 0 0 0 0 0 0 -1.03812307955544 0 0 0 0 0 0 0 0 0 0 0 0 0 0 0 0 0 0 0 0 0 0 0 0 0 0 0 0 0 0 0 0 0 0 0 0
0 0 0 -0.266848904746489 0 0 0 0 0 0 0 0 0 0 0 0 0 0 0 0 0 0 0 0 0 0 0 0 0 0 0 0 0 0 0 -0.952228299097491 0 0 0 0 0 0 0 0 0 0 0 0 0 0
0 0 0 0 -0.266848904746489 0 0 0 0 0 0 0 0 0 -1.08220605520858 0 0 0 0 0 0 0 0 0 0 0 0 0 0 0 0 0 0 0 0 0 0 0 0 0 0 0 0 0 0 0 0 0 0 0
0 0 0 0 0 -0.266848904746489 0 0 0 -0.194952848215907 0 0 0 -0.784419834552259 0 0 0 0 0 0 0 0 0 0 0 0 0 0 0 0 0 0 0 0 0 -0.770500015030153 0 0 0 0 0 0 0 0 0 0 0 0 0 0
0 0 0 0 0 0 -0.266848904746489 0 0 0 0 0 0 0 -2.14932875066259 0 0 0 0 0 0 0 0 0 0 0 0 -1.50237636122074 0 0 0 0 0 0 0 -0.514021745070617 0 0 0 0 0 0 0 0 0 0 0 0 0 0
0 0 0 0 0 0 0 -0.266848904746489 0 0 0 0 0 0 -3.26944383244583 0 0 0 0 0 0 0 0 0 0 0 0 0 0 0 0 0 0 0 0 0 0 0 0 0 0 0 0 0 0 0 0 0 0 0
0.312863911704714 0.0463620434791593 0 0 0 0 0 0 -0.266848904746489 0 0 0 0 0 -0.249768951098303 -1.92542211349168 0 0 0 -0.665540188582606 0 0 0 0 0 0 0 0 0 0 0 0 0 0 0 -2.63639358619582 0 0 0 0 0 0 0 0 0 0 0 0 0 0
0 0 0 0 0 0.040000293224616 0 0 0 -0.266848904746489 0 -3.0990822007647 0 0 0 0 0 0 0 -0.867832726893864 0 -0.676158822063883 0 0 0 -1.51390948151151 -0.697345884277056 0 0 0 0 0 0 0 0 -0.802905453730211 0 0 0 0 0 0 0 0 0 0 0 0 0 0
0 0 0 0 0 0 0 0 0 0 -0.266848904746489 -0.805138960440473 0 0 0 0 0 0 0 0 0 0 0 0 0 0 -4.88943162664488 0 -0.908377070399788 0 0 0 0 0 0 -3.06937544216955 0 0 0 0 0 0 0 0 0 0 0 0 0 0
0 0 0 0 0 0 0 0 0 0.616933060370429 0.16058261528323 -0.266848904746489 0 0 0 0 0 0 0 0 0 0 0 0 0 0 0 0 0 0 -1.53635890485299 0 0 0 0 0 0 0 0 0 0 0 -2.79817599643942 0 0 0 0 0 0 -2.30173575050515
0 0 0 0 0 0 0 0 0 0 0 0 -0.266848904746489 0 0 0 0 0 0 0 0 0 0 0 -0.602707293880619 0 0 0 0 0 0 0 0 0 0 0 -0.877543226039543 0 0 0 0 0 -1.26930418074532 0 0 0 0 0 0 -1.13386492368187
0 0 0.212713486486333 0 0 0.162188613579132 0 0 0 0 0 0 0 -0.266848904746489 0 0 0 0 0 0 0 0 -1.49086952712285 0 -5.7524813589023 0 0 0 0 0 0 0 0 0 0 0 -5.79500247146568 0 0 0 0 0 -0.84997514172922 0 0 0 0 0 0 0
0 0 0 0 0.207834676800853 0 0.442743981911588 0.623788224616892 0.0480768763331409 0 0 0 0 0 -0.266848904746489 0 0 0 0 0 0 0 -0.618703153862717 0 0 0 0 0 0 0 0 0 0 0 0 0 0 0 0 0 0 0 0 0 0 0 0 0 0 -1.31117591746624
0 0 0 0 0 0 0 0 0.365976320348627 0 0 0 0 0 0 -0.266848904746489 0 0 0 0 -0.350501271538865 0 -0.0775784294956936 0 0 0 0 0 0 0 0 0 0 0 0 0 0 0 0 0 0 0 0 0 0 0 0 0 0 -1.4827432147671
0 0 0 0 0 0 0 0 0 0 0 0 0 0 0 0 -0.266848904746489 0 0 0 0 0 -0.886050952171676 0 0 0 0 0 0 0 0 0 0 0 0 0 0 0 0 0 0 0 -0.209411235202898 0 0 0 0 0 0 -1.41399499537585
0 0 0 0 0 0 0 0 0 0 0 0 0 0 0 0 0 -0.266848904746489 0.0453100639212553 0 0 0 0 0 0 0 0 0 0 0 0 0 0 0 0 0 0 0 0 0 0 0 -0.414539511476702 0 0 0 0 0 0 -0.179467056881982
1.14803587522686 0.0552203242613771 0 0 0 0 0 0 0 0 0 0 0 0 0 0 0 -0.214716628575237 -0.266848904746489 0 0 0 0 0 0 0 0 0 0 0 0 0 0 0 0 0 0 -0.216711400466025 0 0 0 0 -0.613044326960073 0 0 0 0 0 0 0
0 0 0 0 0 0 0 0 0.130260680009694 0.159736134704106 0 0 0 0 0 0 0 0 0 -0.266848904746489 0 0 0 0 0 0 0 0 0 0 0 0 0 0 0 0 0 -3.0131410866158 0 0 0 0 -4.80547401807874 0 0 0 0 0 0 -0.645479212696773
0 0 0 0 0 0 0 0 0 0 0 0 0 0 0 0.0723520400502457 0 0 0 0 -0.266848904746489 0 0 0 0 0 0 0 0 0 0 -2.96730850306067 0 0 0 0 0 0 0 0 0 0 -2.07169839003848 0 0 0 0 0 0 -0.448342473819953
0 0 0 0 0 0 0 0 0 0.14339237919105 0 0 0 0 0 0 0 0 0 0 0 -0.266848904746489 0 0 0 0 0 0 0 0 0 0 -0.307241883759624 0 0 0 0 0 0 0 -0.342373704975031 0 -1.17200761442012 0 0 0 0 0 0 -1.13460294857814
0 0 0 0 0 0 0 0 0 0 0 0 0 0.297218239632885 0.117732563475156 0.0153536586351981 0.173087119475851 0 0 0 0 0 -0.266848904746489 0 0 0 0 0 0 0 0 -2.01962597068407 -0.411993166994347 0 0 0 0 0 0 0 0 0 0 -0.420479912364578 0 0 0 0 0 0
0.390909017309444 0 0 0 0 0 0 0 0 0 0 0 0 0 0 0 0 0 0 0 0 0 0 -0.266848904746489 0 0 0 0 0 0 0 -0.557797486863275 0 0 0 0 0 0 0 0 -1.78517700857388 -0.224899134981673 0 -0.362090446504685 0 0 0 0 -1.62332810076739 -0.796339898883304
0 0 0 0 0 0 0 0 0 0 0 0 0.127010563550227 1.09704455995036 0 0 0 0 0 0 0 0 0 0 -0.266848904746489 0 0 0 0 0 0 0 -0.540666197535536 0 0 0 0 0 0 0 -0.5008144028258 -0.145992724060333 0 -1.10927740078056 0 0 0 0 -2.88202428776937 -0.932565912791922
0 0 0 0 0 0 0 0 0 0.311656606430169 0 0 0 0 0 0 0 0 0 0 0 0 0 0 0 -0.266848904746489 0 0 0 0 0 -2.24559991931217 -2.67391202229559 0 0 0 0 0 0 0 -1.01200456040502 -0.474354164573645 0 -2.7699903632586 0 0 0 0 0 -0.292619092061548
0 0 0 0 0 0 0 0 0 0.14081869153327 1.04173974338196 0 0 0 0 0 0 0 0 0 0 0 0 0 0 0 -0.266848904746489 0 0 0 0 -2.15592326810971 -0.275596211721162 0 0 0 0 0 0 0 -0.581589225917113 -5.66394079314278 0 0 0 0 0 0 0 -0.868229417011897
0 0 0 0 0 0 0.28642033276407 0 0 0 0 0 0 0 0 0 0 0 0 0 0 0 0 0 0 0 0 -0.266848904746489 0 0 0 0 -1.05319152450468 0 0 0 0 0 0 0 0 -1.2819483580587 0 -1.80496553591648 -2.62665598837077 0 0 0 0 0
0 0 0 0 0 0 0 0 0 0 0.171529049587264 0 0 0 0 0 0 0 0 0 0 0 0 0 0 0 0 0 -0.266848904746489 0 0 0 -1.50136935826186 0 0 0 0 0 0 0 -0.873988762231295 0 0 0 -3.77937660712073 0 0 0 -3.55363568041539 -0.108066498185366
0 0 0 0 0 0 0 0 0 0 0 0 0 0 0 0 0 0 0 0 0 0 0 0 0 0 0 0 0 -0.266848904746489 0 0 -0.327559245563492 0 0 0 0 0 0 0 -0.486327255264811 0 0 -1.76066787057394 -0.206055034461159 0 0 0 0 -1.82690243985238
0 0 0 0 0 0 0 0 0 0 0 0.309714975441963 0 0 0 0 0 0 0 0 0 0 0 0 0 0 0 0 0 0 -0.266848904746489 0 0 0 0 0 0 0 0 0 -0.964692561328783 0 0 0 0 0 0 0 0 0
0 0 0 0 0 0 0 0 0 0 0 0 0 0 0 0 0 0 0 0 0.613852316376229 0 0.417023054383925 0.108565576817834 0 0.515477324118357 0.419078511007887 0 0 0 0 -0.266848904746489 -0.870124233800739 0 0 0 0 0 0 0 -0.541967035112639 -2.14844130296284 0 -6.36425293377815 0 0 0 -0.957035558111634 0 0
0 0 0 0 0 0 0 0 0 0 0 0 0 0 0 0 0 0 0 0 0 0.0619967429155806 0.0855994104512205 0 0.105518773359385 0.555621565851694 0.0599733531096169 0.19099055660774 0.293307106952323 0.0733889026680354 0 0.176393352391575 -0.266848904746489 0.197003216132193 0.378228469932542 0.145415571654717 0.184388568438133 1.05801176202737 0 0 -0.271216254548941 -0.689118286885004 0 -1.94791040080111 0 0 0 -0.742435978666253 0 -2.31115594559217
0 0 0 0 0 0 0 0 0 0 0 0 0 0 0 0 0 0 0 0 0 0 0 0 0 0 0 0 0 0 0 0 -0.961749200253649 -0.266848904746489 0 0 0 0 0 0 -0.346235202780033 -3.11407622702103 0 -0.228727259537489 0 0 0 0 0 -1.98273439129419
0 0 0 0 0 0 0 0 0 0 0 0 0 0 0 0 0 0 0 0 0 0 0 0 0 0 0 0 0 0 0 0 -1.89544696976242 0 -0.266848904746489 0 0 0 0 0 -1.72671875218968 -0.424223602563161 0 -0.270500005158276 0 0 0 -0.701884428232026 0 0
0 0 0 0.190235044830827 0 0.159642393040118 0.100770536508795 0 0.542718681943977 0.158032609085307 0.600613262656315 0 0 0 0 0 0 0 0 0 0 0 0 0 0 0 0 0 0 0 0 0 -0.796212141023973 0 0 -0.266848904746489 0 0 0 0 0 0 0 0 0 0 0 0 0 0
0 0 0 0 0 0 0 0 0 0 0 0 0.18303811960894 1.20292015739359 0 0 0 0 0 0 0 0 0 0 0 0 0 0 0 0 0 0 -0.944588441708848 0 0 0 -0.266848904746489 0 0 0 -2.51925246236213 0 0 0 0 0 0 0 0 0
0 0 0 0 0 0 0 0 0 0 0 0 0 0 0 0 0 0 0.0439380055375045 0.605320427153389 0 0 0 0 0 0 0 0 0 0 0 0 -5.23265878418711 0 0 0 0 -0.266848904746489 0 0 0 0 0 -2.52523558397699 0 0 0 0 0 0
0 0 0 0 0 0 0 0 0 0 0 0 0 0 0 0 0 0 0 0 0 0 0 0 0 0 0 0 0 0 0 0 0 0 0 0 0 0 -0.266848904746489 0 -11.1044251391636 0 0 -4.08059882134373 0 0 0 0 0 0
0 0 0 0 0 0 0 0 0 0 0 0 0 0 0 0 0 0 0 0 0 0 0 0 0 0 0 0 0 0 0 0 0 0 0 0 0 0 0 -0.266848904746489 0 0 0 0 0 -0.544256927603773 -1.70935346937728 0 0 0
0 0 0 0 0 0 0 0 0 0 0 0 0 0 0 0 0 0 0 0 0 0.0738091014488443 0 0.343163633462245 0.0972618930102771 0.201414490624009 0.0988427338234643 0 0.159887866373323 0.0948916049186524 0.190892439436354 0.104854665698478 0.0507578366085457 0.0638820234422949 0.336334729251518 0 0.50359024013104 0 2.19894861237947 0 -0.266848904746489 0 0 0 0 0 0 0 0 0
0 0 0 0 0 0 0 0 0 0 0 0 0 0 0 0 0 0 0 0 0 0 0 0.0423388763523621 0.0308603844023557 0.0908452558201708 1.08916598116468 0.253624196786554 0 0 0 0.446335688351521 0.141919415430695 0.632210010712414 0.0778962135359739 0 0 0 0 0 0 -0.266848904746489 0 0 0 0 0 0 0 0
0 0 0 0 0 0 0 0 0 0 0 0.521396077956519 0.268050606704215 0.169243430285527 0 0 0.0429970881798043 0.0864155667908914 0.126391558071337 0.899827903973268 0.402276658862142 0.228654904737492 0 0 0 0 0 0 0 0 0 0 0 0 0 0 0 0 0 0 0 0 -0.266848904746489 0 0 -0.345619315804706 0 0 0 0
0 0 0 0 0 0 0 0 0 0 0 0 0 0 0 0 0 0 0 0 0 0 0.0822799255580808 0.0702527930364881 0.220505725551776 0.561191286089538 0 0.33275256593391 0 0.352684927340091 0 1.3095134044649 0.349206887782261 0.0464682523607761 0.0512352084586034 0 0 0.472972848225324 0.726793105709693 0 0 0 0 -0.266848904746489 0 -0.218021515653196 0 0 0 0
0 0 0 0 0 0 0 0 0 0 0 0 0 0 0 0 0 0 0 0 0 0 0 0 0 0 0 0.523925505747662 0.74717319933799 0.0409524976856422 0 0 0 0 0 0 0 0 0 0 0 0 0 0 -0.266848904746489 -1.22983373375005 0 0 0 0
0 0 0 0 0 0 0 0 0 0 0 0 0 0 0 0 0 0 0 0 0 0 0 0 0 0 0 0 0 0 0 0 0 0 0 0 0 0 0 0.123184994222692 0 0 0.0721617610781681 0.0412995335301014 0.255789464385798 -0.266848904746489 0.0881817106871325 0 0.758991478642435 0
0 0 0 0 0 0 0 0 0 0 0 0 0 0 0 0 0 0 0 0 0 0 0 0 0 0 0 0 0 0 0 0 0 0 0 0 0 0 0 0.32051954897746 0 0 0 0 0 -0.46846583144757 -0.266848904746489 0 0 0
0 0 0 0 0 0 0 0 0 0 0 0 0 0 0 0 0 0 0 0 0 0 0 0 0 0 0 0 0 0 0 0.196377999872123 0.147631542989519 0 0.150652771824595 0 0 0 0 0 0 0 0 0 0 0 0 -0.266848904746489 0 0
0 0 0 0 0 0 0 0 0 0 0 0 0 0 0 0 0 0 0 0 0 0 0 0.336866171493023 0.57465266277569 0 0 0 0.756475031805216 0 0 0 0 0 0 0 0 0 0 0 0 0 0 0 0 -3.76902618905157 0 0 -0.266848904746489 0
0 0 0 0 0 0 0 0 0 0 0 0.469136251646129 0.237204171236345 0 0.266762012699554 0.294087220303524 0.297173922794342 0.0346251023171408 0 0.124352438217179 0.09788824023555 0.24199942194001 0 0.165030404625785 0.183055262594468 0.0590942796063798 0.173715182305534 0 0.0214442253346588 0.349509324322328 0 0 0.456669920622811 0.404103570995261 0 0 0 0 0 0 0 0 0 0 0 0 0 0 0 -0.266848904746489
