-0.0933106646785632 0 -0.366192101440753 0 -1.04694968939033 0 -1.71594655693809 -1.61986831625384 0 0 0 0 0 0 0 0 -0.828467012433212 0 0 0 0 0 0 0 0 0 -1.40311860629738 0 0 0 0 0 0 -0.40830289233315 0 0 0 0 0 0 0 -0.226988531034051 -0.344232072070466 0 0 0 0 0 0 0
0 -0.0933106646785632 0 0 0 0 0 0 0 0 0 0 0 0 0 0 -0.969026054818986 0 0 0 0 0 0 0 0 0 0 0 -2.24601532050066 0 0 0 0 -0.514545216755069 0 0 0 0 0 0 -1.54666986969495 -0.373271008760354 0 0 0 0 0 0 0 0
0.0743640682384553 0 -0.0933106646785632 0 0 0 0 0 0 0 0 0 0 0 0 0 -1.63531835650827 0 0 0 0 0 0 0 0 0 0 0 -2.47396203113478 0 0 0 0 0 0 0 0 0 0 0 0 -1.20717796901839 0 0 0 0 0 0 0 0
0 0 0 -0.0933106646785632 0 0 0 0 0 0 0 0 0 0 0 -0.339112250476898 0 0 0 0 0 0 0 0 0 -1.51719941687082 -0.619214884323472 0 -2.67270057652895 0 0 0 0 0 0 0 0 0 0 0 -1.59754870955396 -1.48961960147658 0 -0.202948739531058 0 0 0 0 0 0
0.212886501686287 0 0 0 -0.0933106646785632 0 0 0 0 0 0 0 0 0 0 -1.94104589068183 0 0 0 0 0 0 0 0 0 -3.60393550631238 -0.403883265007194 0 -1.64035162007641 0 0 0 0 -1.79099732865386 0 0 0 0 0 0 -2.44042269069887 -0.545734627403377 0 -0.262794105391065 0 0 0 0 0 0
0 0 0 0 0 -0.0933106646785632 0 0 0 0 0 0 0 -0.41413491129747 0 0 0 0 0 0 0 0 0 0 0 -0.218137456054207 0 0 -0.450302249700709 0 0 0 0 -1.09177119506528 0 0 0 0 0 -0.62784597768868 -0.140198882687475 0 0 0 0 0 0 0 0 0
0.365633307581596 0 0 0 0 0 -0.0933106646785632 0 0 0 0 0 0 0 0 -0.654943946271146 0 0 0 0 0 0 -2.12148373300044 0 0 -5.38168054630204 0 0 -0.443529568196544 0 0 0 0 -6.60639205383048 0 0 0 0 0 0 0 0 0 0 0 0 0 0 0 0
0.336757152928509 0 0 0 0 0 0 -0.0933106646785632 0 0 0 0 0 -12.2882613042561 0 -0.457613759057032 0 0 0 0 0 0 -0.265907314755223 0 0 -0.540840209720901 0 0 -1.42393325952272 0 0 0 0 0 0 0 0 0 0 0 -0.348990399866333 0 0 0 0 0 0 0 0 0
0 0 0 0 0 0 0 0 -0.0933106646785632 0 0 0 0 -0.888134642891088 0 0 0 0 0 0 0 0 0 0 0 0 -0.742206781526932 0 -0.935574023975785 0 -0.34380918040703 0 0 -1.96728966370313 0 0 0 0 0 0 0 0 0 0 0 0 0 0 0 0
0 0 0 0 0 0 0 0 0 -0.0933106646785632 0 0 0 0 0 0 0 0 0 0 0 0 -1.46981063943167 0 0 -0.303425656609938 -2.58223278756222 0 -3.84503157715807 0 0 0 0 -2.60154198089479 0 0 0 0 0 0 0 0 0 0 0 0 0 0 0 0
0 0 0 0 0 0 0 0 0 0 -0.0933106646785632 0 0 -0.141927532311543 0 0 0 0 0 0 0 0 -1.4059423459123 0 0 0 -0.963869388104922 0 -0.482678349637492 0 0 0 0 -0.441946803499365 0 0 0 0 0 0 0 0 0 0 0 0 0 0 0 0
0 0 0 0 0 0 0 0 0 0 0 -0.0933106646785632 0 -0.599274364129054 0 0 0 0 0 0 0 0 0 0 0 0 0 0 -0.253901215973253 0 0 0 0 0 0 0 0 0 0 0 0 0 0 0 0 0 0 0 0 0
0 0 0 0 0 0 0 0 0 0 0 0 -0.0933106646785632 0 0 0 0 0 0 0 0 0 -2.34247582741769 0 0 0 -0.14084384857441 0 -0.0863855655570991 0 -0.310993710328369 0 0 0 0 0 0 0 0 0 0 0 0 0 0 0 0 0 0 0
0 0 0 0 0 0.0864604683037882 0 2.36161882524292 0.191367508708524 0 0.0314140721829217 0.12084051197233 0 -0.0933106646785632 0.510671089652265 0 0 0 0 0 0 0 0 0 0 0 0 0 0 0 0 0 0 -0.0433533065616041 0 0 0 0 0 0 0 0 0 0 0 0 0 0 0 0
0 0 0 0 0 0 0 0 0 0 0 0 0 -2.56530935891691 -0.0933106646785632 0 0 0 0 0 -1.27285658220722 0 0 0 0 0 0 0 -0.456302912882405 0 0 -2.2193161512055 0 -1.60091376649043 0 0 0 0 0 0 0 0 0 0 0 0 0 0 0 0
0 0 0 0.0657974347556685 0.403343160053054 0 0.129495418467143 0.0900663950896403 0 0 0 0 0 0 0 -0.0933106646785632 0 0 0 0 0 0 0 0 0 0 0 0 -0.270425719276486 0 0 -0.557619198043503 0 0 0 0 0 0 0 0 0 0 0 0 0 0 0 0 0 0
0.174904514990213 0.180712796561487 0.320804203273887 0 0 0 0 0 0 0 0 0 0 0 0 0 -0.0933106646785632 0 0 0 0 0 0 0 0 0 0 0 0 0 0 0 0 0 0 0 0 -0.718811678535462 0 0 0 0 0 0 0 0 0 0 0 0
0 0 0 0 0 0 0 0 0 0 0 0 0 0 0 0 0 -0.0933106646785632 0 0 -2.33441127188688 0 0 0 0 0 0 0 0 0 0 -1.00495084020863 0 -2.44324748722387 0 0 -4.32043104649947 0 0 0 0 0 0 0 0 0 0 0 0 0
0 0 0 0 0 0 0 0 0 0 0 0 0 0 0 0 0 0 -0.0933106646785632 0 0 0 0 0 0 0 0 0 0 0 0 -1.22606933042317 0 0 0 0 -0.605441715062504 0 0 0 0 0 0 0 0 0 0 0 0 0
0 0 0 0 0 0 0 0 0 0 0 0 0 0 0 0 0 0 0 -0.0933106646785632 0 0 0 0 0 0 0 0 0 0 0 0 0 0 0 0 -1.54468361157547 0 0 0 0 0 0 0 0 0 0 0 0 0
0 0 0 0 0 0 0 0 0 0 0 0 0 0 0.239746933787143 0 0 0.470443882459684 0 0 -0.0933106646785632 0 0 0 0 0 0 0 0 0 0 -0.378224462919086 0 0 0 0 0 0 0 0 0 0 0 0 0 0 0 0 0 0
0 0 0 0 0 0 0 0 0 0 0 0 0 0 0 0 0 0 0 0 0 -0.0933106646785632 0 0 0 0 0 0 0 0 0 0 0 0 0 0 -0.602552408522201 -1.41866689114401 0 0 0 0 0 0 0 0 0 -3.8623379741366 0 0
0 0 0 0 0 0 0.43744870190062 0.0538909664253152 0 0.309454746361939 0.327132436719705 0 0.44874155750753 0 0 0 0 0 0 0 0 0 -0.0933106646785632 0 0 0 0 0 0 0 0 0 0 0 -3.00933754538972 0 0 0 -1.65066516163391 0 0 0 0 0 0 -0.630211293870355 0 0 0 0
0 0 0 0 0 0 0 0 0 0 0 0 0 0 0 0 0 0 0 0 0 0 0 -0.0933106646785632 0 0.491567908656134 0 0 0 0 0 0 0 0 -5.65316649927306 0 0 0 -0.919427686086983 0 0 0 0 0 0 -1.35662673747548 0 0 0 -0.949069072553325
0 0 0 0 0 0 0 0 0 0 0 0 0 0 0 0 0 0 0 0 0 0 0 0 -0.0933106646785632 0 0 0 0 0 0 0 0 0 0 0 0 0 -0.942143493329022 0 0 0 0 0 0 0 0 0 0 -0.618222077344274
0 0 0 0.296429558477602 0.801491239673994 0.0424419039864908 1.03795901847998 0.108617709882681 0 0.0581694445130092 0 0 0 0 0 0 0 0 0 0 0 0 0 -2.58740110603011 0 -0.0933106646785632 0 0 0 0 0 0 0 0 -2.31038834802321 0 0 0 -0.703315535776365 0 0 0 0 0 0 0 0 0 0 0
0.281772009056517 0 0 0.123529684783366 0.0775801826065076 0 0 0 0.147536695777452 0.51530021027398 0.188237246095176 0 0.0282501529432097 0 0 0 0 0 0 0 0 0 0 0 0 0 -0.0933106646785632 0 0 -3.02993031684015 0 0 0 0 -0.149996139512155 0 0 0 -3.04467002930727 0 0 0 0 0 0 0 0 0 0 0
0 0 0 0 0 0 0 0 0 0 0 0 0 0 0 0 0 0 0 0 0 0 0 0 0 0 0 -0.0933106646785632 0 -0.423244100057075 0 0 0 0 -0.771989191702601 0 0 0 0 0 0 0 0 0 0 0 0 0 0 0
0 0.428466156464917 0.482835598102357 0.55395572332995 0.341640120642491 0.0842815863607687 0.0835197992130175 0.268866229653183 0.201530649791583 0.739157391116573 0.0945196764404342 0.0526418586760527 0.0191338351581135 0 0.0957213858965927 0.0521386993818431 0 0 0 0 0 0 0 0 0 0 0 0 -0.0933106646785632 0 0 0 0 0 -0.969265215704895 0 0 0 -0.662789033593721 0 0 0 0 0 0 0 0 0 0 0
0 0 0 0 0 0 0 0 0 0 0 0 0 0 0 0 0 0 0 0 0 0 0 0 0 0 0.614467133115575 0.0837478573553372 0 -0.0933106646785632 0.0685146821497769 0 0 0 0 0 0 0 -0.623158995950985 0 0 0 0 0 0 0 0 0 0 0
0 0 0 0 0 0 0 0 0.0708635238396559 0 0 0 0.0546780381571575 0 0 0 0 0 0 0 0 0 0 0 0 0 0 0 0 -0.335166340960354 -0.0933106646785632 0 0 0 0 0 0 0 -1.70463958695568 0 0 0 0 0 0 0 0 0 0 0
0 0 0 0 0 0 0 0 0 0 0 0 0 0 0.476946581036693 0.106861683875763 0 0.181308544796831 0.226737366461397 0 0.0672684991430152 0 0 0 0 0 0 0 0 0 0 -0.0933106646785632 0 0 0 0 0 0 -4.4029009108485 0 0 0 0 0 -0.23137146934509 0 -0.673340124739188 0 0 0
0 0 0 0 0 0 0 0 0 0 0 0 0 0 0 0 0 0 0 0 0 0 0 0 0 0 0 0 0 0 0 0 -0.0933106646785632 0 -5.50662171327521 0 0 0 -1.3503896345679 0 0 0 0 0 -2.56267275224285 0 0 0 0 0
0.0827996870686741 0.105926547669089 0 0 0.345722222650933 0.242774100325454 1.32625708645018 0 0.404962649308131 0.506366790964006 0.0918846576723961 0 0 0.00884795535238682 0.325152242770275 0 0 0.483052435093415 0 0 0 0 0 0 0 0 0 0 0 0 0 0 0 -0.0933106646785632 -1.68017404856117 0 0 0 0 0 0 0 0 0 -0.379321143394185 0 0 0 0 0
0 0 0 0 0 0 0 0 0 0 0 0 0 0 0 0 0 0 0 0 0 0 0.579959654788601 1.20647940323128 0 0.477584503058616 0.0316174433927699 0.148253057023081 0.201343928465615 0 0 0 1.04877154663565 0.319641635970909 -0.0933106646785632 0.140188826275499 1.96148354122674 0 0.156242306406522 0.341174376519364 0 0 0 0 -0.272756226678234 0 0 0 0 0
0 0 0 0 0 0 0 0 0 0 0 0 0 0 0 0 0 0 0 0 0 0 0 0 0 0 0 0 0 0 0 0 0 0 -0.738099438646687 -0.0933106646785632 0 0 0 0 0 0 0 0 -1.32894400239645 0 -0.26302271950989 0 0 0
0 0 0 0 0 0 0 0 0 0 0 0 0 0 0 0 0 0.847500249802041 0.120046082764095 0.319097168263327 0 0.123730352325786 0 0 0 0 0 0 0 0 0 0 0 0 -9.80705213218532 0 -0.0933106646785632 0 0 0 0 0 0 0 -0.412592559355117 0 0 0 0 0
0 0 0 0 0 0 0 0 0 0 0 0 0 0 0 0 0.136259900982264 0 0 0 0 0.276874334444513 0 0 0 0 0 0 0 0 0 0 0 0 0 0 0 -0.0933106646785632 0 0 0 0 0 0 -2.04212363813968 0 -0.521481977057803 0 0 0
0 0 0 0 0 0 0 0 0 0 0 0 0 0 0 0 0 0 0 0 0 0 0.299265284222688 0.18032515844928 0.184961617519631 0.146111854721351 0.593857786924749 0 0.134203504736609 0.12396487109789 0.365233477537548 0.924031779961412 0.263904132158664 0 -0.811581334761057 0 0 0 -0.0933106646785632 0 0 0 0 0 -1.63911723631278 0 0 0 0 0
0 0 0 0 0 0.117263853764839 0 0 0 0 0 0 0 0 0 0 0 0 0 0 0 0 0 0 0 0 0 0 0 0 0 0 0 0 -1.84096849122268 0 0 0 0 -0.0933106646785632 0 0 0 0 -6.36873402607416 0 0 0 0 0
0 0.329568359367856 0 0.333063461243658 0.454290237989921 0.0298484014242777 0 0.0728266678083543 0 0 0 0 0 0 0 0 0 0 0 0 0 0 0 0 0 0 0 0 0 0 0 0 0 0 0 0 0 0 0 0 -0.0933106646785632 0 0 0 -1.35015465010229 0 -2.85997750798655 0 0 0
0.0466772377175634 0.0723972484443927 0.242468401444309 0.295975908711201 0.111890643339591 0 0 0 0 0 0 0 0 0 0 0 0 0 0 0 0 0 0 0 0 0 0 0 0 0 0 0 0 0 0 0 0 0 0 0 0 -0.0933106646785632 0 0 0 0 -4.20044758004343 0 0 0
0.0671780290639178 0 0 0 0 0 0 0 0 0 0 0 0 0 0 0 0 0 0 0 0 0 0 0 0 0 0 0 0 0 0 0 0 0 0 0 0 0 0 0 0 0 -0.0933106646785632 0 0 0 -0.574639273096765 0 0 0
0 0 0 0.0440542996476526 0.0521095840885963 0 0 0 0 0 0 0 0 0 0 0 0 0 0 0 0 0 0 0 0 0 0 0 0 0 0 0 0 0 0 0 0 0 0 0 0 0 0 -0.0933106646785632 -0.621349352794401 0 -0.730283659849959 0 0 0
0 0 0 0 0 0 0 0 0 0 0 0 0 0 0 0 0 0 0 0 0 0 0 0 0 0 0 0 0 0 0 0.0479584401527561 0.552116353393903 0.0816830601723299 0.0502587146661118 0.273332979739767 0.0882615882785303 0.403411747820243 0.308950003295879 1.279875591233 0.265582106263107 0 0 0.116352845045753 -0.0933106646785632 0.042241732211662 0 0.499391027530897 -2.46923271148274 0
0 0 0 0 0 0 0 0 0 0 0 0 0 0 0 0 0 0 0 0 0 0 0.12786917704412 0.288835140281497 0 0 0 0 0 0 0 0 0 0 0 0 0 0 0 0 0 0 0 0 -0.218925859859078 -0.0933106646785632 0 0 -2.36673274796867 0
0 0 0 0 0 0 0 0 0 0 0 0 0 0 0 0 0 0 0 0 0 0 0 0 0 0 0 0 0 0 0 0.143454072586646 0 0 0 0.0514381792372456 0 0.104239719764532 0 0 0.495375009798593 0.838042911980055 0.109462330128501 0.152020225175156 0 0 -0.0933106646785632 0 0 0
0 0 0 0 0 0 0 0 0 0 0 0 0 0 0 0 0 0 0 0 0 0.788325788918908 0 0 0 0 0 0 0 0 0 0 0 0 0 0 0 0 0 0 0 0 0 0 -2.45479789717724 0 0 -0.0933106646785632 0 0
0 0 0 0 0 0 0 0 0 0 0 0 0 0 0 0 0 0 0 0 0 0 0 0 0 0 0 0 0 0 0 0 0 0 0 0 0 0 0 0 0 0 0 0 0.470201490065534 0.444322334698293 0 0 -0.0933106646785632 0
0 0 0 0 0 0 0 0 0 0 0 0 0 0 0 0 0 0 0 0 0 0 0 0.209116643013184 0.126982630903001 0 0 0 0 0 0 0 0 0 0 0 0 0 0 0 0 0 0 0 0 0 0 0 0 -0.0933106646785632
