-0.0737763141089318 0 0 -5.11861083978099 0 0 0 0 0 0 0 0 0 0 0 0 0 0 0 0 0 0 0 0 0 0 0 0 0 0 0 0 0 0 0 0 0 0 0 0 0 0 0 0 0 0 0 0 0 0
0 -0.0737763141089318 0 0 0 0 0 0 -0.226368156179642 0 0 0 0 0 0 0 0 0 0 0 0 0 0 0 0 0 0 0 0 0 0 0 0 0 0 0 0 0 0 0 0 0 0 0 0 0 0 0 -0.532323244076551 0
0 0 -0.0737763141089318 0 0 0 0 0 0 0 0 0 0 0 0 0 0 -4.65195355411106 0 0 -0.214848206760195 0 0 0 0 0 0 0 0 0 0 0 0 0 0 0 0 0 0 0 0 0 0 0 0 -0.63942650777233 0 0 0 0
0.995494373655866 0 0 -0.0737763141089318 0 -0.262021180320225 -0.501698072093746 0 0 -1.00310419881934 0 0 0 0 0 0 0 0 0 0 -1.86748303372529 0 0 0 0 0 0 0 0 0 0 0 0 0 0 0 0 0 0 0 0 0 0 0 0 0 -4.07103740005156 0 -2.44761245463981 0
0 0 0 0 -0.0737763141089318 0 0 0 0 0 0 0 0 -0.553525699040064 0 0 0 0 0 0 -0.597817348100322 0 0 -0.463174588905736 0 0 0 -2.53957678107963 0 0 0 0 0 0 -1.75053723647477 0 -0.70845081336139 0 0 0 0 0 0 0 0 -0.49086915250353 0 0 0 0
0 0 0 0.0519157421296843 0 -0.0737763141089318 0 0 0 0 0 0 0 -0.688311789982027 0 0 0 0 0 0 -0.582406765464609 0 0 -0.707065324987969 0 0 0 0 0 0 0 0 0 0 -1.01383090576504 0 -1.13777618673237 0 0 0 0 0 0 0 0 -3.96371403277585 -0.243952633166639 0 -0.161226070156511 0
0 0 0 0.099065301840054 0 0 -0.0737763141089318 0 0 0 0 0 0 -2.95170296036439 0 0 0 0 0 0 -3.11639567344006 0 -0.720430639492008 -0.690739025603171 0 0 0 0 0 0 0 0 0 0 0 0 0 0 0 0 0 0 0 0 0 -1.06029158321737 -0.947169324373419 0 -0.66805311896073 0
0 0 0 0 0 0 0 -0.0737763141089318 0 0 0 0 0 -0.739545084730799 0 0 0 0 0 0 0 0 -2.84158618821409 -1.09630144229038 0 0 0 -0.926202157014418 0 0 0 0 0 0 0 0 0 0 0 0 0 0 0 0 0 0 0 0 -1.15281722458117 0
0 0.0455824977819096 0 0 0 0 0 0 -0.0737763141089318 0 0 0 0 -0.700261100375275 0 0 0 0 0 0 -0.269124509502216 0 -0.369248471942668 -0.425773929630703 0 0 0 -0.392601117787376 0 0 0 0 0 0 0 0 0 0 0 0 0 0 0 0 0 -2.35180501030055 -0.583928964537351 0 -1.0317722986726 0
0 0 0 0.215564537159255 0 0 0 0 0 -0.0737763141089318 0 0 0 0 0 0 0 0 0 0 -1.32891349613305 0 -1.5079318578289 0 0 0 0 0 0 0 0 0 0 0 0 0 0 -0.721140094529631 0 0 0 0 0 0 0 -0.299769237470907 -1.03660173607237 0 -0.618917896047287 0
0 0 0 0 0 0 0 0 0 0 -0.0737763141089318 0 0 0 0 0 0 0 0 0 0 0 -2.11578412996146 -0.665272367510014 0 0 0 0 0 0 -0.943367652701971 0 0 0 0 0 0 -0.295827021751006 0 0 0 0 0 0 0 -5.6657415923636 0 0 0 0
0 0 0 0 0 0 0 0 0 0 0 -0.0737763141089318 0 0 0 0 0 0 0 0 -9.93459559849859 -0.333817807709097 -2.19546515810044 -2.86023053883094 0 0 0 0 0 0 -0.639689607464032 0 0 0 0 0 0 0 0 0 0 0 0 0 0 0 -1.70315208150084 0 0 0
0 0 0 0 0 0 0 0 0 0 0 0 -0.0737763141089318 0 0 0 0 0 0 0 -0.224474173366191 -0.181014314244679 0 -1.33903769095212 0 0 0 0 0 0 -0.397816333437418 0 0 0 0 0 0 -0.656482331619884 0 0 0 0 0 0 0 0 0 0 0 0
0 0 0 0 0.115177772515413 0.136672903609553 0.609102603318745 0.149698396508846 0.129878056156759 0 0 0 0 -0.0737763141089318 0 0 0 0 0 0 0 -0.722465136858214 -0.253716622413254 0 0 0 0 0 0 -1.11243981156379 -1.65011290961351 0 0 0 0 0 0 0 0 0 0 0 0 0 0 0 -0.178385923389922 0 0 0
0 0 0 0 0 0 0 0 0 0 0 0 0 0 -0.0737763141089318 0 0 0 0 -0.166796891298281 0 -0.0518992722424888 0 0 0 0 0 0 0 -0.61422482261779 -1.52178813695096 0 0 0 0 0 0 -0.17531802832949 0 0 0 0 0 0 0 0 -2.21324349916383 0 0 0
0 0 0 0 0 0 0 0 0 0 0 0 0 0 0 -0.0737763141089318 0 0 0 0 0 0 0 0 0 -0.492810093884549 0 0 0 -0.718439337447335 -6.32300399235806 0 0 0 0 0 0 -0.348078237657476 0 0 0 0 0 0 0 0 0 0 0 0
0 0 0 0 0 0 0 0 0 0 0 0 0 0 0 0 -0.0737763141089318 0.108641400142778 1.75437335564334 0 0 0 0 0 0 0 0 0 0 -1.07975903067445 -0.128232034925999 0 -0.643601747211652 0 0 0 0 0 0 0 0 0 0 0 0 0 0 0 0 0
0 0 0.890401448422213 0 0 0 0 0 0 0 0 0 0 0 0 0 -0.555111252546103 -0.0737763141089318 0 0 0 0 0 0 0 0 0 0 0 0 -0.783407292689145 0 0 0 0 0 0 0 0 -0.964648213002962 0 0 0 0 0 0 0 0 0 0
0 0 0 0 0 0 0 0 0 0 0 0 0 0 0 0 -8.95339974452263 0 -0.0737763141089318 0 0 0 0 0 0 0 0 0 0 0 0 0 0 0 0 0 0 0 0 0 0 0 0 0 0 0 0 0 0 0
0 0 0 0 0 0 0 0 0 0 0 0 0 0 0.0336456881052604 0 0 0 0 -0.0737763141089318 0 0 0 0 0 0 -0.802386789797761 0 0 -0.226636076267125 0 0 0 0 0 0 0 0 0 -0.920621320778861 -0.62380869365076 0 0 0 -0.399421697955631 0 0 0 0 0
0 0 0.0408491242913083 0.366981078128836 0.121203209647833 0.12013651700605 0.628960563601493 0 0.0549227197439638 0.273477950851365 0 2.01018411079068 0.0467752985164756 0 0 0 0 0 0 0 -0.0737763141089318 0 0 0 0 0 0 0 0 0 0 0 0 0 0 0 0 0 0 -0.944387696527287 -0.838727065216517 0 0 0 -1.74322412118614 0 0 0 0 0
0 0 0 0 0 0 0 0 0 0 0 0.0643333133194496 0.0352119882522669 0.154374294626222 0.0102538733381267 0 0 0 0 0 0 -0.0737763141089318 0 0 0 0 -0.758389022070536 0 0 0 -1.77587242119381 0 0 0 0 0 0 0 0 0 -0.942528666862352 0 0 0 0 0 0 0 0 0
0 0 0 0 0 0 0.137895189636713 0.531317895870508 0.076391156924542 0.300515964273201 0.438334127026036 0.4009685046359 0 0.0501979525774806 0 0 0 0 0 0 0 0 -0.0737763141089318 0 0 0 -0.724879634326569 0 0 0 0 0 0 0 0 0 0 0 0 0 -1.14896088068961 0 0 0 -0.230622637663619 0 0 0 0 0
0 0 0 0 0.0952066116989668 0.143197493360522 0.135921505555616 0.205517117641868 0.0866107072485835 0 0.126991290853148 0.545389191023543 0.261896737542584 0 0 0 0 0 0 0 0 0 0 -0.0737763141089318 0 0 0 0 -2.85086711927694 0 0 0 0 -3.36135760596938 0 0 0 0 0 0 0 0 0 0 0 0 0 -0.367142502187123 0 0
0 0 0 0 0 0 0 0 0 0 0 0 0 0 0 0 0 0 0 0 0 0 0 0 -0.0737763141089318 0 0 0 0 0 0 0 0 -0.562116648184543 0 -3.38266202893704 0 0 0 0 0 -1.69933547658281 0 0 0 0 0 0 0 0
0 0 0 0 0 0 0 0 0 0 0 0 0 0 0 0.102627022787307 0 0 0 0 0 0 0 0 0 -0.0737763141089318 0 0 -0.58216698899513 0 0 -1.7587754774913 0 0 0 -0.740471012064258 0 0 0 0 0 -1.9953807639695 0 0 0 0 0 0 0 0
0 0 0 0 0 0 0 0 0 0 0 0 0 0 0 0 0 0 0 0.154062320664422 0 0.152250707048441 0.147315895220272 0 0 0 -0.0737763141089318 0 0 0 0 -0.773737868193487 0 -0.256717160766853 0 -2.21197824122947 0 0 0 0 0 0 0 0 0 0 0 0 0 0
0 0 0 0 0.496809070066767 0 0 0.192973732710159 0.0732727206975937 0 0 0 0 0 0 0 0 0 0 0 0 0 0 0 0 0 0 -0.0737763141089318 0 0 0 0 0 -5.16991930229341 0 0 0 0 0 0 0 0 0 0 0 0 0 0 0 0
0 0 0 0 0 0 0 0 0 0 0 0 0 0 0 0 0 0 0 0 0 0 0 0.577456043699819 0 0.109603364132573 0 0 -0.0737763141089318 0 0 0 0 -1.52873619802928 0 0 0 0 0 0 0 0 0 0 0 0 0 0 0 0
0 0 0 0 0 0 0 0 0 0 0 0 0 0.222616269975651 0.128130574338305 0.14457596926652 0.215674387502104 0 0 0.0446397139594825 0 0 0 0 0 0 0 0 0 -0.0737763141089318 0 0 0 -3.02344107720963 0 0 0 0 0 0 0 0 0 0 0 0 0 0 0 0
0 0 0 0 0 0 0 0 0 0 0.201811851276516 0.130472507966873 0.0851266654387293 0.349897534395122 0.318356080581258 1.3643709956021 0.0236031383298727 0.156790975369941 0 0 0 0.350958457572313 0 0 0 0 0 0 0 0 -0.0737763141089318 0 0 -1.06323581145912 0 0 0 0 0 0 0 0 0 0 0 0 0 0 0 0
0 0 0 0 0 0 0 0 0 0 0 0 0 0 0 0 0 0 0 0 0 0 0 0 0 0.349634455363118 0.151570229174966 0 0 0 0 -0.0737763141089318 0 -0.154632500622557 0 0 0 0 0 0 0 0 0 0 0 0 0 0 0 0
0 0 0 0 0 0 0 0 0 0 0 0 0 0 0 0 0.135906032206753 0 0 0 0 0 0 0 0 0 0 0 0 0 0 0 -0.0737763141089318 0 0 0 0 0 0 0 0 0 0 0 0 0 0 0 0 0
0 0 0 0 0 0 0 0 0 0 0 0 0 0 0 0 0 0 0 0 0 0 0 0.707689434500348 0.11077889043348 0 0.0538268872606983 1.07369568756654 0.299186982569695 0.551359163012859 0.222371446836688 0.0311296542847458 0 -0.0737763141089318 0 0 0 0 0 0 0 0 0 0 0 0 0 0 0 0
0 0 0 0 0.347589426826022 0.212957449380513 0 0 0 0 0 0 0 0 0 0 0 0 0 0 0 0 0 0 0 0 0 0 0 0 0 0 0 0 -0.0737763141089318 0 0 0 0 0 0 0 0 0 0 0 0 0 0 0
0 0 0 0 0 0 0 0 0 0 0 0 0 0 0 0 0 0 0 0 0 0 0 0 0.690814227974131 0.144940259306895 0.427890757442897 0 0 0 0 0 0 0 0 -0.0737763141089318 0 0 0 0 0 0 0 0 0 0 0 0 0 0
0 0 0 0 0.129137665443988 0.205699919064678 0 0 0 0 0 0 0 0 0 0 0 0 0 0 0 0 0 0 0 0 0 0 0 0 0 0 0 0 0 0 -0.0737763141089318 0 0 0 0 0 0 -2.96525273241876 0 0 0 0 0 0
0 0 0 0 0 0 0 0 0 0.138052874083154 0.0594608454118676 0 0.138552946854901 0 0.034727485534147 0.0699331656268838 0 0 0 0 0 0 0 0 0 0 0 0 0 0 0 0 0 0 0 0 0 -0.0737763141089318 0 0 0 0 0 -2.15418123880989 0 0 0 0 0 0
0 0 0 0 0 0 0 0 0 0 0 0 0 0 0 0 0 0 0 0 0 0 0 0 0 0 0 0 0 0 0 0 0 0 0 0 0 0 -0.0737763141089318 0 0 0 0 -6.47887299510775 0 0 0 0 0 0
0 0 0 0 0 0 0 0 0 0 0 0 0 0 0 0 0 0.19844011948785 0 0.192644171662418 0.182542216050169 0 0 0 0 0 0 0 0 0 0 0 0 0 0 0 0 0 0 -0.0737763141089318 0 0 0 -0.507616149569661 0 0 0 0 0 0
0 0 0 0 0 0 0 0 0 0 0 0 0 0 0 0 0 0 0 0.117433387355932 0.160242890500465 0.187551286936195 0.241165311946375 0 0 0 0 0 0 0 0 0 0 0 0 0 0 0 0 0 -0.0737763141089318 0 0 -0.103594166462596 0 0 0 0 0 -0.738454322844322
0 0 0 0 0 0 0 0 0 0 0 0 0 0 0 0 0 0 0 0 0 0 0 0 0.327395725852415 0.428655072962826 0 0 0 0 0 0 0 0 0 0 0 0 0 0 0 -0.0737763141089318 0 0 0 0 0 0 0 -1.3014679197595
0 0 0 0 0 0 0 0 0 0 0 0 0 0 0 0 0 0 0 0 0 0 0 0 0 0 0 0 0 0 0 0 0 0 0 0 0 0 0 0 0 0 -0.0737763141089318 0 0 0 0 0 0 -0.635502936337144
0 0 0 0 0 0 0 0 0 0 0 0 0 0 0 0 0 0 0 0 0 0 0 0 0 0 0 0 0 0 0 0 0 0 0 0 0.612945469950039 0.425384429172674 1.21984204371769 0.100224316971467 0.0189854506856248 0 0 -0.0737763141089318 0.433222215038353 0 0 0 0 0
0 0 0 0 0 0 0 0 0 0 0 0 0 0 0 0 0 0 0 0.0820655154012934 0.339569363267737 0 0.0426530858865999 0 0 0 0 0 0 0 0 0 0 0 0 0 0 0 0 0 0 0 0 -2.28751977572409 -0.0737763141089318 0 0 0 0 0
0 0 0.13330366890376 0 0.0923048198466881 0.812347750482724 0.211446890459177 0 0.444110614157294 0.063206398833993 1.1016704504497 0 0 0 0 0 0 0 0 0 0 0 0 0 0 0 0 0 0 0 0 0 0 0 0 0 0 0 0 0 0 0 0 0 0 -0.0737763141089318 0 0 0 -0.822098254606213
0 0 0 0.769797751437152 0 0.0515333460680841 0.178110789863797 0 0.118240699292967 0.203329063359113 0 0.315406074015111 0 0.0343205066877808 0.418503087548124 0 0 0 0 0 0 0 0 0 0 0 0 0 0 0 0 0 0 0 0 0 0 0 0 0 0 0 0 0 0 0 -0.0737763141089318 0 0 -2.37735645909031
0 0 0 0 0 0 0 0 0 0 0 0 0 0 0 0 0 0 0 0 0 0 0 0.0718817171111409 0 0 0 0 0 0 0 0 0 0 0 0 0 0 0 0 0 0 0 0 0 0 0 -0.0737763141089318 0 -0.172792143725568
0 0.11067056729425 0 0.516992788602524 0 0.0342014809308617 0.124327152994462 0.234505440604854 0.199320768114434 0.134989225823709 0 0 0 0 0 0 0 0 0 0 0 0 0 0 0 0 0 0 0 0 0 0 0 0 0 0 0 0 0 0 0 0 0 0 0 0 0 0 -0.0737763141089318 0
0 0 0 0 0 0 0 0 0 0 0 0 0 0 0 0 0 0 0 0 0 0 0 0 0 0 0 0 0 0 0 0 0 0 0 0 0 0 0 0 0.143234811740215 0.276367496587456 0.124514438321988 0 0 0.165775851099674 0.472896565948163 0.0317545377699772 0 -0.0737763141089318
