1.09492903465854
0.455681863104369
2.05698768005051
2.93292016589227
0.909874943677578
0.909569934987772
1.39315966277888
1.94889104061259
0.506939152536697
1.29971517732465
1.43178610524821
0.178533391959392
0.334735421054248
1.43951173924286
1.02777801854666
1.18220897992899
0.623225287882242
0.214082901111875
0.603988400491193
4.17783674998384
1.46305569969365
0.0922952541152765
1.73247332735465
0.170303829037973
1.95994149136757
0.305185261726559
3.05219308083765
0.905405425662542
1.79710275222429
2.55347221375995
0.927595275515564
0.793301777465787
1.25854900802341
0.741373093588356
1.0390667261872
0.496356994914174
3.70997994793363
0.369906640682321
1.17405453618577
3.5133450538493
3.31342172506087
0.925968729930247
1.59519572051445
1.53436384409448
2.03204235661495
0.604654927828354
1.75652710685318
4.06427634825969
2.18951325796602
1.09622330524791
