0.806003781054917
5.52940800394079
1.4165268364747
0.331407743437853
0.928361561283044
0.819634887162512
0.246384578830265
3.91466281847212
1.20841331956616
1.05175673141224
0.3490566587594
0.437545566648035
0.397557916826457
0.349280943546681
0.914280437024776
3.57396285936655
3.76242845382626
0.771857226692753
0.252559059762715
2.13720798800005
2.66475022936819
1.84650939083539
1.71782062560447
0.483806212966914
0.156420486233965
1.18631602300499
6.44548287158155
0.296768342530141
0.475000806099232
7.72303747372168
5.11366558806749
0.350876364727306
3.97100335662344
0.943096355145435
1.45191156661437
0.418367745072084
0.681322400228691
0.0701584220703416
0.578871749307873
0.490471224482266
0.896461619807524
0.20500035037581
0.879379896393337
1.21327436982495
1.23293039050081
1.20563497408958
3.16166305743946
1.23725187891916
2.68731025187556
0.668927420125376
