0.581220337590927
0.548508256334543
4.19068921461273
0.770308448022187
0.967863736560224
2.41321064926589
0.295229578886614
1.22437179620541
2.59773560900693
0.262383547973944
0.101083902490322
0.960019228337096
0.597889774639214
0.674219945598612
0.718168026077666
0.694918650768785
0.338218497715896
1.94158173035004
0.359311140378964
0.812613241839211
0.289036489613983
6.83787030166842
1.89241358153512
1.84082889467737
3.70107905938517
0.336043827280629
0.564080082510268
0.435945407650626
2.31800484947635
2.97955192758861
1.22329568601215
0.557178308061081
3.99188251949322
1.13338500340986
1.40394435693655
1.89916800730068
0.817285322501203
1.36704660721899
1.02043964321579
0.133058699327502
0.135307070034644
0.549491154616305
1.78288090071936
0.139269545689046
4.4901062966229
0.833818847105306
1.62010405041399
1.19223100594641
1.72330217487987
0.763180068046459
