0.309436659439368
0.446068442563948
1.25891364304795
0.111931023304562
1.41477185606411
0.14294830747855
0.667481575886321
0.317318541358848
2.68795654652143
2.31357442215926
1.54346001105354
0.612676431183052
0.32766223857698
0.488852124695494
0.558070839878419
0.973822484863738
2.91534331505961
2.38679789699792
3.2707045564853
3.42217497126705
2.28738004069389
1.33832512290641
0.581112526680823
2.96024227254057
4.80195802523942
0.112034442090449
1.17309904729367
1.77956933797775
1.878437801509
1.08818059656279
0.243612680038873
0.792415960262582
1.38362167247983
1.64310689686026
1.81142892660754
1.04434719439518
1.01505281539777
0.279550183882906
1.59960370235846
0.907313190493104
1.16618752491539
0.445975285323129
0.526004744749519
2.11004405748262
5.95331926703339
0.123577317102444
1.33595971817816
6.10831390848249
2.88467938320237
1.22600883724346
