0.508552186241778
0.21548045586164
5.6720587695031
0.592141119299777
0.975098443244598
5.34113150754422
2.52026682193376
1.94664086323847
1.03527057894449
1.35759798226667
0.698575845757093
0.234360058170134
5.07197021784952
2.11799158626451
2.67999061731414
1.21524843242058
0.803393790479223
0.911915982638181
0.308940007685021
2.60350272522079
3.63658670447215
2.31624209275124
4.39055258703946
0.742295511340529
0.809036237387468
1.06338909142035
0.472548394672948
0.192027241482527
5.02887690795437
0.258733537897275
0.618387515515983
0.129141964327815
1.05880086198016
0.612713394784082
0.341961379130126
3.00085055210438
0.144732573721716
1.62039643794679
3.48238783072935
1.48301356977568
0.251009150137315
1.49778989553388
1.59807820729835
0.44199496827872
1.06406582353873
1.40510766913778
1.81948965740228
1.46123821835345
1.30766335052872
3.24628989783117
