-0.291234966726226 0 0 0 0 0 0 0 0 0 0 0 0 -4.46147972782528 0 0 0 0 0 0 -1.96867263754995 0 0 0 0 0 0 0 0 0 0 0 0 0 0 0 0 0 0 0 0 0 0 0 0 0 0 0 0 0
0 -0.291234966726226 0 0 0 0 0 -1.91472336985403 0 -0.854062580372862 0 0 0 0 0 0 0 0 0 0 -1.32807140512753 0 0 0 0 0 0 0 0 0 0 0 0 0 0 0 0 0 0 0 0 0 0 0 0 0 -0.89516625722427 0 0 0
0 0 -0.291234966726226 0 0 0 0 -0.235140809393457 0 -1.34574879843335 0 0 0 0 0 0 0 0 0 0 -0.749705269548012 0 0 0 0 0 0 0 0 0 0 0 0 0 0 0 0 0 0 0 0 0 0 0 0 0 -0.462418611896564 0 0 0
0 0 0 -0.291234966726226 0 0 0 -0.484797798254781 0 -2.60744642828573 0 0 0 0 0 0 0 0 0 0 0 0 0 0 0 0 0 0 0 0 0 0 0 0 0 0 0 0 0 0 0 0 0 0 0 0 0 0 0 0
0 0 0 0 -0.291234966726226 0 0 0 0 -2.1370268137103 0 0 -1.98426988034059 0 0 0 0 0 0 0 0 0 0 0 0 0 0 0 0 0 0 0 0 0 0 0 0 0 0 0 0 0 0 0 0 0 -1.03921716285238 0 0 0
0 0 0 0 0 -0.291234966726226 0 0 0 -6.05169490395855 0 0 0 0 0 0 0 0 0 0 0 0 0 0 0 0 0 0 0 0 0 0 0 0 0 0 0 0 0 0 0 0 0 0 0 0 0 0 0 0
0 0 0 0 0 0 -0.291234966726226 0 0 -2.93873128267942 0 0 -1.72223346982547 0 0 0 0 0 0 0 -1.30796842240847 0 0 0 0 0 0 0 0 0 0 0 0 0 0 0 0 0 0 0 0 -1.07842023922111 0 0 0 0 -0.255563644489861 0 0 0
0 0.379871003657035 0.0474456853920165 0.0978905079398252 0 0 0 -0.291234966726226 0 -0.54272382761329 0 -1.78963651849577 0 0 0 0 0 0 0 -0.537738776635506 -1.04410002632737 0 0 -0.293797827227512 0 0 0 0 0 0 0 0 0 0 0 0 0 0 0 0 0 0 0 0 0 0 -2.59959461871085 0 0 0
0 0 0 0 0 0 0 0 -0.291234966726226 -0.624540830732442 -0.945290199608954 0 0 0 0 0 0 0 0 0 -0.569261562129288 0 -0.2450950912486 0 0 0 0 0 0 0 0 0 0 0 0 0 0 0 0 0 0 0 0 0 0 0 -0.67937979335145 0 0 0
0 0.172060081170671 0.27970746828038 0.544058939688988 0.43431250179788 1.09016603270946 0.618169565698025 0.111254323762013 0.122694838601032 -0.291234966726226 -2.84376968282915 0 0 0 0 0 0 0 -0.756351740681648 0 0 0 0 0 0 -0.362369343901681 0 0 0 0 0 0 0 0 0 0 0 0 0 0 0 0 0 0 0 0 -0.578399318111226 0 0 0
0 0 0 0 0 0 0 0 0.182245645428321 0.578728529472224 -0.291234966726226 0 0 0 0 0 0 0 -3.409670512919 0 0 0 0 0 0 -2.47499362568345 0 0 0 0 0 0 0 0 0 0 0 0 0 0 0 0 0 0 0 0 -4.50068617668598 0 0 0
0 0 0 0 0 0 0 0.396819277965391 0 0 0 -0.291234966726226 0 0 0 0 0 -0.703985342012169 -3.2746707709779 0 0 0 0 0 0 0 0 0 0 0 0 0 0 0 0 0 0 0 0 0 0 0 0 0 0 0 -2.0361593616865 0 0 0
0 0 0 0 0.387595198834936 0 0.336442904821765 0 0 0 0 0 -0.291234966726226 0 0 0 0 -0.625760842457751 -1.43973389550657 0 0 0 0 0 0 0 0 0 0 0 0 0 0 0 0 0 0 0 0 0 0 0 0 0 0 0 0 0 0 0
1.02244486069624 0 0 0 0 0 0 0 0 0 0 0 0 -0.291234966726226 0 0 0 -6.98339730016711 -1.75445308201385 -0.892575345871935 0 0 0 0 0 -0.20163295815831 0 0 0 0 0 0 0 0 0 0 0 0 0 0 -1.77557207606804 0 0 0 0 0 0 0 0 0
0 0 0 0 0 0 0 0 0 0 0 0 0 0 -0.291234966726226 0 0 0 0 -0.141121519195181 0 0 0 0 0 0 0 0 0 0 0 0 0 0 0 0 0 0 0 0 -0.990453482853764 0 0 0 0 0 0 0 0 0
0 0 0 0 0 0 0 0 0 0 0 0 0 0 0 -0.291234966726226 0 -0.649076493472846 0 0 0 0 0 0 0 0 0 0 0 0 0 0 0 0 0 0 -2.01720803129365 0 0 0 -0.351622599052928 0 0 0 0 0 0 0 0 0
0 0 0 0 0 0 0 0 0 0 0 0 0 0 0 0 -0.291234966726226 0 0 0 0 0 0 0 0 0 0 0 0 0 0 0 0 0 0 0 -1.8310192751616 0 0 0 0 0 0 0 0 0 0 0 0 0
0 0 0 0 0 0 0 0 0 0 0 0.138320663888105 0.122434470827317 1.34577495933187 0 0.129292207452282 0 -0.291234966726226 0 0 0 0 0 0 0 0 0 0 -0.928706245062024 0 0 0 0 0 0 0 -1.44226537154468 0 0 0 0 0 -0.687000795774786 0 0 0 0 0 0 0
0 0 0 0 0 0 0 0 0 0.148690140005448 0.675669952190442 0.676070038535275 0.296795943331528 0.336887736175064 0 0 0 0 -0.291234966726226 0 0 0 0 0 0 0 0 0 0 0 0 0 0 0 0 0 -1.26866528727693 0 0 0 0 0 0 0 0 0 0 0 0 0
0 0 0 0 0 0 0 0.10718326875933 0 0 0 0 0 0.187360091032237 0.0274651716893169 0 0 0 0 -0.291234966726226 0 0 0 0 -0.808314263041333 0 0 0 -1.74083467830285 0 0 0 0 0 0 0 -0.650459668358243 0 0 0 0 0 -0.586566547088705 0 0 0 0 0 0 0
0.418422835430415 0.25656390758068 0.153381489672479 0 0 0 0.286876533836372 0.205479579773634 0.105820782013003 0 0 0 0 0 0 0 0 0 0 0 -0.291234966726226 0 0 0 -1.27024507066076 0 0 0 -1.46174087188946 0 0 0 0 0 0 0 -9.33502319166297 0 0 -0.370153671105397 0 0 -0.805682688288109 0 0 0 0 0 0 0
0 0 0 0 0 0 0 0 0 0 0 0 0 0 0 0 0 0 0 0 0 -0.291234966726226 0 0 0 0 0 0 0 0 0 0 0 0 0 -1.39570880159323 -2.12238632159115 0 0 0 0 0 -0.133577505521884 0 0 0 0 0 0 0
0 0 0 0 0 0 0 0 0.0480448785651961 0 0 0 0 0 0 0 0 0 0 0 0 0 -0.291234966726226 0 -0.18701546309043 0 0 0 0 0 0 0 0 0 0 -7.91361075679373 0 0 0 0 0 0 -0.632482326100265 0 0 0 0 0 0 0
0 0 0 0 0 0 0 0.0606723226713418 0 0 0 0 0 0 0 0 0 0 0 0 0 0 0 -0.291234966726226 0 0 0 0 0 0 0 0 0 0 0 -2.77697568292526 0 0 0 0 0 0 -0.571504219486156 0 -3.19588056030494 0 0 0 0 0
0 0 0 0 0 0 0 0 0 0 0 0 0 0 0 0 0 0 0 0.173587776453825 0.268627761615753 0 0.0356650299312771 0 -0.291234966726226 0 0 0 0 0 0 0 0 0 0 -2.37749051411427 0 0 0 0 0 0 0 0 -0.568096948192673 0 0 0 0 0
0 0 0 0 0 0 0 0 0 0.0737830403508077 0.481378147352968 0 0 0.0411725937329246 0 0 0 0 0 0 0 0 0 0 0 -0.291234966726226 0 -11.7176227046409 0 0 0 0 0 0 0 0 0 0 0 0 0 0 0 0 0 0 0 0 0 0
0 0 0 0 0 0 0 0 0 0 0 0 0 0 0 0 0 0 0 0 0 0 0 0 0 0 -0.291234966726226 -0.568555804459939 0 0 -2.90135203764949 0 0 -0.327657921476726 0 0 0 0 0 0 0 0 0 0 -0.745697885193832 0 0 0 0 0
0 0 0 0 0 0 0 0 0 0 0 0 0 0 0 0 0 0 0 0 0 0 0 0 0 2.46177759865577 0.112575125152596 -0.291234966726226 0 0 -0.828682161318773 0 0 0 0 0 0 0 0 0 0 0 0 0 -0.372575230484064 0 0 0 0 0
0 0 0 0 0 0 0 0 0 0 0 0 0 0 0 0 0 0.182725073438213 0 0.360834930233657 0.306756577621548 0 0 0 0 0 0 0 -0.291234966726226 0 0 0 0 0 0 0 0 0 0 0 0 0 0 0 -1.19607461504927 0 0 0 -0.860960223927859 0
0 0 0 0 0 0 0 0 0 0 0 0 0 0 0 0 0 0 0 0 0 0 0 0 0 0 0 0 0 -0.291234966726226 0 0 0 0 -3.25490404596018 0 0 0 0 0 0 0 0 0 0 0 0 0 -0.631325533900322 0
0 0 0 0 0 0 0 0 0 0 0 0 0 0 0 0 0 0 0 0 0 0 0 0 0 0 0.565660299235154 0.152737094730316 0 0 -0.291234966726226 0 0 0 -0.720952090925655 0 0 0 0 0 0 0 0 0 -0.436850667856798 0 0 0 -0.176885576057047 0
0 0 0 0 0 0 0 0 0 0 0 0 0 0 0 0 0 0 0 0 0 0 0 0 0 0 0 0 0 0 0 -0.291234966726226 -1.41938103621295 0 -1.30543250534344 0 0 0 -0.819686214671375 0 0 0 0 0 -0.655699916902918 0 0 0 -0.142963360568771 0
0 0 0 0 0 0 0 0 0 0 0 0 0 0 0 0 0 0 0 0 0 0 0 0 0 0 0 0 0 0 0 0.259768321220167 -0.291234966726226 0 0 0 0 -1.5569121723262 -1.49420802468719 0 0 0 0 0 -3.88808138647114 0 0 0 -0.42447995950093 -6.93550335693337
0 0 0 0 0 0 0 0 0 0 0 0 0 0 0 0 0 0 0 0 0 0 0 0 0 0 0.0690043925808362 0 0 0 0 0 0 -0.291234966726226 -3.33804898647639 0 0 -0.511025134259508 -0.537795422417859 0 0 0 0 0 0 0 0 0 0 -0.236842074851232
0 0 0 0 0 0 0 0 0 0 0 0 0 0 0 0 0 0 0 0 0 0 0 0 0 0 0 0 0 0.679893473897793 0.139756929452421 0.24506151801871 0 0.658987288042244 -0.291234966726226 0.385098833943818 0.253240461643468 -0.318614751567987 -0.227301167577529 0 0 0 0 0 0 0 0 0 -0.966420447290577 0
0 0 0 0 0 0 0 0 0 0 0 0 0 0 0 0 0 0 0 0 0 0.277337200634258 1.5354779818264 0.541947880701324 0.479597226380878 0 0 0 0 0 0 0 0 0 -1.86712601300265 -0.291234966726226 0 -0.0578025374397108 0 0 0 0 0 0 0 0 0 0 -0.405024198879851 -1.8760394993583
0 0 0 0 0 0 0 0 0 0 0 0 0 0 0 0.411867381934911 0.387347134481149 0.296834501688063 0.251648633567846 0.13268416908055 1.92842243354312 0.399949449541379 0 0 0 0 0 0 0 0 0 0 0 0 -1.32605762930713 0 -0.291234966726226 -1.11981733422843 -1.79627637492407 0 0 0 0 0 0 0 0 0 -0.350418491964537 -0.973313076455707
0 0 0 0 0 0 0 0 0 0 0 0 0 0 0 0 0 0 0 0 0 0 0 0 0 0 0 0 0 0 0 0 0.292112872224702 0.0993279178770552 0.0647054686024396 0.0113142153190937 0.218811487856981 -0.291234966726226 0 0 0 0 0 0 0 0 0 0 0 0
0 0 0 0 0 0 0 0 0 0 0 0 0 0 0 0 0 0 0 0 0 0 0 0 0 0 0 0 0 0 0 0.159776933807012 0.29260788562139 0.116054754357343 0.0467738933289028 0 0.383683440032323 0 -0.291234966726226 0 0 0 0 0 0 0 0 0 0 0
0 0 0 0 0 0 0 0 0 0 0 0 0 0 0 0 0 0 0 0 0.0708287272968337 0 0 0 0 0 0 0 0 0 0 0 0 0 0 0 0 0 0 -0.291234966726226 0 0 0 0 0 0 0 0 0 0
0 0 0 0 0 0 0 0 0 0 0 0 0 0.393305087110656 0.181207844691276 0.0738622757161379 0 0 0 0 0 0 0 0 0 0 0 0 0 0 0 0 0 0 0 0 0 0 0 0 -0.291234966726226 0 0 0 0 0 0 0 0 0
0 0 0 0 0 0 0.205664465510922 0 0 0 0 0 0 0 0 0 0 0 0 0 0 0 0 0 0 0 0 0 0 0 0 0 0 0 0 0 0 0 0 0 0 -0.291234966726226 0 0 0 -3.30073201424469 0 0 0 0
0 0 0 0 0 0 0 0 0 0 0 0 0 0 0 0 0 0.146402316710576 0 0.130018267484554 0.160624309684196 0.0280752163494608 0.131965000610079 0.114297203724613 0 0 0 0 0 0 0 0 0 0 0 0 0 0 0 0 0 0 -0.291234966726226 0 0 -0.223425586509697 0 0 0 0
0 0 0 0 0 0 0 0 0 0 0 0 0 0 0 0 0 0 0 0 0 0 0 0 0 0 0 0 0 0 0 0 0 0 0 0 0 0 0 0 0 0 0 -0.291234966726226 0 -3.51168840158696 0 0 0 0
0 0 0 0 0 0 0 0 0 0 0 0 0 0 0 0 0 0 0 0 0 0 0 0.650323834404111 0.117930000667688 0 0.158022290833408 0.0761996617843612 0.234418082151188 0 0.0882872111644941 0.13484025327578 0.790091328833601 0 0 0 0 0 0 0 0 0 0 0 -0.291234966726226 0 0 0 0 0
0 0 0 0 0 0 0 0 0 0 0 0 0 0 0 0 0 0 0 0 0 0 0 0 0 0 0 0 0 0 0 0 0 0 0 0 0 0 0 0 0 0.664997795748699 0.043975379870877 0.698947714991682 0 -0.291234966726226 0.341905791901839 0.0418396320423193 0.14227702117018 0.0635434318084286
0 0.185494923221654 0.0834035515822932 0 0.202581642317507 0 0.0511491049929721 0.550083481345971 0.12996747414349 0.116627283298127 0.862169841298182 0.373942078037764 0 0 0 0 0 0 0 0 0 0 0 0 0 0 0 0 0 0 0 0 0 0 0 0 0 0 0 0 0 0 0 0 0 -1.7159772115318 -0.291234966726226 0 0 0
0 0 0 0 0 0 0 0 0 0 0 0 0 0 0 0 0 0 0 0 0 0 0 0 0 0 0 0 0 0 0 0 0 0 0 0 0 0 0 0 0 0 0 0 0 -0.215942190515565 0 -0.291234966726226 0 0
0 0 0 0 0 0 0 0 0 0 0 0 0 0 0 0 0 0 0 0 0 0 0 0 0 0 0 0 0.168854329105835 0.122132926061368 0.0341686059600636 0.0260145008675683 0.0804000623174037 0 0.176678808146341 0.0725520093344156 0.0693085762739021 0 0 0 0 0 0 0 0 -0.745177824858675 0 0 -0.291234966726226 0
0 0 0 0 0 0 0 0 0 0 0 0 0 0 0 0 0 0 0 0 0 0 0 0 0 0 0 0 0 0 0 0 1.38419710890755 0.0494993068376155 0 0.368673998730816 0.189294423316481 0 0 0 0 0 0 0 0 -0.326122016931104 0 0 0 -0.291234966726226
