-0.0633502646183535 0 0 0 0 0 0 0 -0.370097192632038 0 0 0 0 -2.68963676739278 0 0 0 0 0 0 0 0 0 0 0 0 0 0 0 0 0 0 0 0 0 0 0 0 0 0 0 0 0 0 0 0 0 0 0 0
0 -0.0633502646183535 0 0 0 0 0 0 0 0 0 0 0 0 0 0 0 -4.99320542979911 0 0 0 0 0 0 0 0 0 0 0 0 0 0 -0.213452351252394 0 0 0 0 0 0 0 0 0 0 0 0 0 0 0 0 0
0 0 -0.0633502646183535 0 0 0 0 0 -0.334744469767518 0 0 0 0 -0.785162650086847 0 0 0 -3.46002578725204 0 0 0 0 0 0 0 0 0 0 0 0 0 0 0 0 0 0 0 0 0 0 0 0 0 0 0 0 0 0 0 0
0 0 0 -0.0633502646183535 0 0 0 0 0 -2.17944698430345 0 0 0 0 0 0 0 0 0 0 0 0 0 0 0 0 0 0 0 -0.91224319841577 0 0 -0.871499163880816 0 0 0 0 0 0 0 0 0 0 0 0 0 0 0 0 0
0 0 0 0 -0.0633502646183535 0 0.0944825159422548 0 0 0 -0.403717951773437 0 0 0 0 0 0 0 -0.400602921638663 0 0 0 0 0 0 0 0 -0.400871816927599 0 0 0 0 0 0 0 0 0 0 0 0 0 0 0 0 0 0 0 -0.398817013729483 0 -0.345964065407343
0 0 0 0 0 -0.0633502646183535 0 0 0 0 0 0 0 0 0 0 0 -1.71112342501474 -0.644075851003794 0 0 0 0 0 0 0 0 -0.639990063878666 0 0 -0.436240213279489 0 0 0 0 0 0 0 0 0 0 0 0 0 0 0 0 0 0 -2.38902535242671
0 0 0 0 -0.485801113604964 0 -0.0633502646183535 0 0 0 0 0 0 0 0 0 0 0 0 0 0 0 0 0 0 0 0 -0.480608205508542 0 0 -3.85789423995516 0 0 0 0 0 0 0 0 0 0 0 0 0 0 0 0 0 0 -1.66634015850411
0 0 0 0 0 0 0 -0.0633502646183535 0 0 0 0 0 0 0 0 0 0 0 0 0 0 0 0 0 0 0 -0.854197233719828 0 0 0 0 0 0 0 0 0 0 0 0 0 0 0 0 0 0 0 0 0 -0.491078261148071
0.0798354277340083 0 0.0747549282461917 0 0 0 0 0 -0.0633502646183535 0 0 0 0 0 0 0 0 0 0 0 0 -2.35250904688299 0 0 0 0 0 -0.653490954203768 0 0 0 0 0 0 0 0 0 0 0 0 0 0 0 0 0 0 0 0 -0.95900262067065 0
0 0 0 0.447978621706896 0 0 0 0 0 -0.0633502646183535 0 0 0 0 0 0 0 0 0 0 0 -3.29725990414463 0 0 0 0 0 -0.341106607006122 0 0 -3.87426944048022 0 0 0 0 0 0 0 0 0 0 0 0 0 0 0 0 0 -1.93172204316526 -11.0728011357506
0 0 0 0 0.0828905290186451 0 0 0 0 0 -0.0633502646183535 0 0 0 0 0 0 0 0 0 0 0 0 0 0 0 0 -0.213591405485948 0 0 0 0 0 0 0 0 0 0 0 0 0 0 0 0 0 0 0 0 -4.85727595771458 -0.371776504780464
0 0 0 0 0 0 0 0 0 0 0 -0.0633502646183535 0 0 0 0 0 0 0 0 0 0 0 0 0 0 0 -0.681441924747314 0 0 -0.601266971590798 0 0 0 0 0 0 0 0 0 0 0 0 0 0 0 0 0 0 -1.35323700349064
0 0 0 0 0 0 0 0 0 0 0 0 -0.0633502646183535 0 0 0 0 0 0 0 0 0 0 0 0 0 0 -1.04690842631834 0 0 -1.46987680407174 0 0 0 0 0 0 0 0 0 0 0 0 0 0 0 0 0 -0.386460519255154 -3.61254870908182
0.555230642114843 0 0.167133756291635 0 0 0 0 0 0 0 0 0 0 -0.0633502646183535 0 0 0 0 0 0 0 -4.18046618493551 0 0 -1.03581830318439 0 0 0 0 0 0 0 0 0 0 0 0 0 0 0 0 0 0 0 0 0 -0.592798392596008 0 -0.418613546364059 -3.69817343717866
0 0 0 0 0 0 0 0 0 0 0 0 0 0 -0.0633502646183535 0 0 0 0 0 0 -1.04184517787313 0 0 -0.578938328561836 0 0 0 0 0 0 0 0 0 0 0 0 0 0 0 0 0 0 0 0 0 -1.40336641098824 0 -1.94618141535513 -0.323231447769524
0 0 0 0 0 0 0 0 0 0 0 0 0 0 0 -0.0633502646183535 0 0 0 0 0 0 0 0 0 0 0 0 0 0 0 0 0 -0.612497329425215 0 0 0 0 0 0 0 0 0 0 0 0 -0.203741388246107 0 0 0
0 0 0 0 0 0 0 0 0 0 0 0 0 0 0 0 -0.0633502646183535 0 0 0 0 0 0 0 0 0 0 0 0 0 0 0 0 -3.15701286322822 0 0 0 0 0 0 0 0 0 0 0 0 0 0 -0.263786504695256 0
0 1.06281571389412 0.689371808660643 0 0 0.363607831673494 0 0 0 0 0 0 0 0 0 0 0 -0.0633502646183535 0 0 0 0 0 0 0 0 0 0 0 0 0 0 0 0 0 0 0 0 0 0 -0.327312615310941 0 0 0 0 0 -12.074554105811 0 -0.325191016579128 0
0 0 0 0 0.07591340928336 0.125195130033006 0 0 0 0 0 0 0 0 0 0 0 0 -0.0633502646183535 0 0 0 0 0 0 0 0 0 0 0 0 0 0 0 0 0 0 0 0 0 -0.504704791756971 0 0 0 0 0 0 0 -0.251369710939792 0
0 0 0 0 0 0 0 0 0 0 0 0 0 0 0 0 0 0 0 -0.0633502646183535 0 0 0 0 0 0 0 0 0 0 0 0 0 0 0 0 0 0 0 0 -1.29892796273553 0 0 0 0 0 0 0 -0.509424857342531 0
0 0 0 0 0 0 0 0 0 0 0 0 0 0 0 0 0 0 0 0 -0.0633502646183535 0 0 0 0 0 0 0 0 0 0 0 0 0 0 0 0 0 0 0 -6.25404996670624 0 0 0 0 0 0 0 0 0
0 0 0 0 0 0 0 0 0.490775684391982 0.656801292338166 0 0 0 0.834288434945995 0.208837652650072 0 0 0 0 0 0 -0.0633502646183535 0 0 0 0 0 0 0 0 0 0 0 0 0 0 0 0 0 0 -0.484138328242806 0 0 0 0 0 0 0 0 0
0 0 0 0 0 0 0 0 0 0 0 0 0 0 0 0 0 0 0 0 0 0 -0.0633502646183535 0 0 0 0 0 0 0 0 0 0 0 0 0 0 0 0 0 -0.742739525432822 0 0 0 0 0 0 0 0 0
0 0 0 0 0 0 0 0 0 0 0 0 0 0 0 0 0 0 0 0 0 0 0 -0.0633502646183535 0 0 0 0 0 0 0 0 0 0 0 -1.14424293006099 0 -0.681717740738229 0 0 -0.863571375180069 0 -0.790824362605148 -0.45885922501418 0 0 0 0 0 0
0 0 0 0 0 0 0 0 0 0 0 0 0 0.208748787467077 0.112831773492443 0 0 0 0 0 0 0 0 0 -0.0633502646183535 0 0 0 0 0 0 0 0 0 0 -3.99019500784161 0 -0.482400995873099 0 0 -0.389308478043944 0 -1.83657014811773 -1.64374292637159 0 0 0 0 0 0
0 0 0 0 0 0 0 0 0 0 0 0 0 0 0 0 0 0 0 0 0 0 0 0 0 -0.0633502646183535 0 0 0 0 0 0 0 0 0 -0.947956402858206 0 -0.552321357037828 0 0 0 0 -4.07287076495302 -2.56203978409029 0 0 0 0 0 0
0 0 0 0 0 0 0 0 0 0 0 0 0 0 0 0 0 0 0 0 0 0 0 0 0 0 -0.0633502646183535 0 0 0 0 0 0 0 0 0 0 -10.802781849933 0 0 -1.26265326002555 0 -1.27374383727221 -4.64929608757566 0 0 0 0 0 0
0 0 0 0 0.0801419345990199 0.131529100541237 0.0994014619440504 0.178527346411991 0.119424084536648 0.0662936640397608 0.0440678641163218 0.12822353623475 0.217664276935085 0 0 0 0 0 0 0 0 0 0 0 0 0 0 -0.0633502646183535 -0.784220674485346 0 0 -0.892804093336926 0 0 0 -1.33329371004479 0 -2.00258462937762 0 0 -0.338448305246682 0 0 -0.488856542014796 0 0 0 0 0 0
0 0 0 0 0 0 0 0 0 0 0 0 0 0 0 0 0 0 0 0 0 0 0 0 0 0 0 0.14746057123085 -0.0633502646183535 0 0 -3.36086129819704 0 0 0 0 0 -1.04964875393111 0 0 -3.97321372148051 0 0 -0.299168821638455 0 0 0 0 0 0
0 0 0 0.181606291655694 0 0 0 0 0 0 0 0 0 0 0 0 0 0 0 0 0 0 0 0 0 0 0 0 0 -0.0633502646183535 0 -0.691663550638456 0 0 0 0 0 0 0 0 0 0 0 -0.629651887731819 0 0 0 0 0 0
0 0 0 0 0 0.0936271365413526 0.776146184080662 0 0 0.742171517515205 0 0.117748773309231 0.274766683297131 0 0 0 0 0 0 0 0 0 0 0 0 0 0 0 0 0 -0.0633502646183535 0 0 0 0 0 0 0 0 0 -1.53952500880417 0 0 -0.447746249640959 0 0 0 0 0 0
0 0 0 0 0 0 0 0 0 0 0 0 0 0 0 0 0 0 0 0 0 0 0 0 0 0 0 0.171499636098049 0.690486030758725 0.142973259840482 0 -0.0633502646183535 0 0 -1.27624141692961 0 0 0 0 0 0 0 0 0 0 -0.23768868161095 0 0 0 0
0 0.0447037577497268 0 0.174889544974123 0 0 0 0 0 0 0 0 0 0 0 0 0 0 0 0 0 0 0 0 0 0 0 0 0 0 0 0 -0.0633502646183535 0 -0.964450079045225 0 0 0 0 0 0 0 0 0 0 0 0 0 0 0
0 0 0 0 0 0 0 0 0 0 0 0 0 0 0 0.114920025787088 0.602506359005975 0 0 0 0 0 0 0 0 0 0 0 0 0 0 0 0 -0.0633502646183535 0 0 0 0 0 0 0 -2.1632490566232 0 0 0 -2.30688713937838 0 0 0 0
0 0 0 0 0 0 0 0 0 0 0 0 0 0 0 0 0 0 0 0 0 0 0 0 0 0 0 0 0 0 0 0.278484315896358 0.183063433137372 0 -0.0633502646183535 0 0 0 -0.957711133410215 0 0 -1.29693315117593 0 0 0 -2.57926783076843 0 0 0 0
0 0 0 0 0 0 0 0 0 0 0 0 0 0 0 0 0 0 0 0 0 0 0 0.223082160751905 0.807374012502728 0.182997563132237 0 0.253196556358971 0 0 0 0 0 0 0 -0.0633502646183535 0 0 0 0 0 0 0 0 0 -0.655185229858294 0 0 0 0
0 0 0 0 0 0 0 0 0 0 0 0 0 0 0 0 0 0 0 0 0 0 0 0 0 0 0 0 0 0 0 0 0 0 0 0 -0.0633502646183535 0 -0.761511577359632 0 0 -3.5251316824329 0 0 0 -2.65623385417079 0 0 0 0
0 0 0 0 0 0 0 0 0 0 0 0 0 0 0 0 0 0 0 0 0 0 0 0.133532642650242 0.0915211959130794 0.113959028815403 2.22543597793798 0.414936414173016 0.221210125346829 0 0 0 0 0 0 0 0 -0.0633502646183535 -0.761200438317424 0 0 -2.12016429187845 0 0 0 -0.664696917568023 0 0 0 0
0 0 0 0 0 0 0 0 0 0 0 0 0 0 0 0 0 0 0 0 0 0 0 0 0 0 0 0 0 0 0 0 0 0 0.191264570681413 0 0.160404128888844 0.148365631776273 -0.0633502646183535 0.161493543456586 0 -0.278530549529626 0 0 0 -0.140252161174575 0 0 0 0
0 0 0 0 0 0 0 0 0 0 0 0 0 0 0 0 0 0 0 0 0 0 0 0 0 0 0 0 0 0 0 0 0 0 0 0 0 0 -0.887409381093544 -0.0633502646183535 0 -4.68758932957953 0 0 0 0 0 0 0 0
0 0 0 0 0 0 0 0 0 0 0 0 0 0 0 0 0 0.0642359752593576 0.0998895668443194 0.259210921437354 1.23734106867392 0.10105826022322 0.152869198639807 0.173972263076035 0.0816895021843879 0 0.270759730749579 0.0657019009340769 0.756862356193837 0 0.316796962538913 0 0 0 0 0 0 0 0 0 -0.0633502646183535 -3.02630344640918 0 0 0 0 0 0 0 0
0 0 0 0 0 0 0 0 0 0 0 0 0 0 0 0 0 0 0 0 0 0 0 0 0 0 0 0 0 0 0 0 0 0.433824404017476 0.249771415861653 0 0.720488043353727 0.432114389698638 0.0519722434079524 0.932677676751268 0.588957941396163 -0.0633502646183535 0.779704034347027 0.0212254683310827 0.0352888266639679 0 0.0718588058173159 0 0.406811760175574 0
0 0 0 0 0 0 0 0 0 0 0 0 0 0 0 0 0 0 0 0 0 0 0 0.175291330696144 0.368494659307994 0.805983046436974 0.241012181910703 0 0 0 0 0 0 0 0 0 0 0 0 0 0 -3.7465816400974 -0.0633502646183535 0 0 0 0 0 0 0
0 0 0 0 0 0 0 0 0 0 0 0 0 0 0 0 0 0 0 0 0 0 0 0.0884338169760033 0.308824132521835 0.500915541815456 0.958991052933201 0.093212321786746 0.0569068525708429 0.122464139911752 0.0909475981228433 0 0 0 0 0 0 0 0 0 0 -0.11066305143092 0 -0.0633502646183535 0 0 0 0 0 0
0 0 0 0 0 0 0 0 0 0 0 0 0 0 0 0 0 0 0 0 0 0 0 0 0 0 0 0 0 0 0 0 0 0 0 0 0 0 0 0 0 -0.175496524642512 0 0 -0.0633502646183535 0 0 0 0 0
0 0 0 0 0 0 0 0 0 0 0 0 0 0 0 0 0 0 0 0 0 0 0 0 0 0 0 0 0 0 0 0.0421103715050241 0 0.433694894460058 0.559234781427166 0.133917685500382 0.504605177276864 0.140379094422888 0.0319739709241694 0 0 0 0 0 0 -0.0633502646183535 0 0 0 0
0 0 0 0 0 0 0 0 0 0 0 0 0 0.117294547274214 0.290529010122624 0.0374792579333699 0 2.48617246094269 0 0 0 0 0 0 0 0 0 0 0 0 0 0 0 0 0 0 0 0 0 0 0 -0.343453667063595 0 0 0 0 -0.0633502646183535 0 0 0
0 0 0 0 0.0798550172407321 0 0 0 0 0 0 0 0 0 0 0 0 0 0 0 0 0 0 0 0 0 0 0 0 0 0 0 0 0 0 0 0 0 0 0 0 0 0 0 0 0 0 -0.0633502646183535 0 0
0 0 0 0 0 0 0 0 0.192021409691636 0.395812210025431 1.06114813815875 0 0.0760366020770737 0.0856726227816424 0.404954622239021 0 0.0520049525931558 0.0595740148418665 0.0546529142544573 0.113699090229262 0 0 0 0 0 0 0 0 0 0 0 0 0 0 0 0 0 0 0 0 0 -1.89988394830119 0 0 0 0 0 0 -0.0633502646183535 0
0 0 0 0 0.0679311586040694 0.491152796865851 0.317337021015959 0.0985549927998425 0 2.13998672741412 0.0799837591931377 0.287527229833861 0.739066199271331 0.722650193115562 0.0639012193995972 0 0 0 0 0 0 0 0 0 0 0 0 0 0 0 0 0 0 0 0 0 0 0 0 0 0 0 0 0 0 0 0 0 0 -0.0633502646183535
