-0.403623764209341 0 0 0 0 0 0 0 0 0 0 0 0 0 0 0 0 0 0 0 0 0 0 0 0 0 0 0 0 0 0 0 0 0 0 0 -0.0722349335673337 0 0 0 0 0 0 0 0 0 0 0 0 0
0 -0.403623764209341 0 0 0 0 0 0 0 -0.340679522560823 0 0 0 0 0 0 0 0 0 0 0 0 0 0 0 0 0 0 0 0 0 0 0 0 0 0 0 0 0 0 0 0 0 0 0 0 0 0 0 0
0 0 -0.403623764209341 0 0 -2.75436516089442 0 0 0 0 0 0 0 0 0 0 0 0 0 0 0 0 0 0 0 0 0 0 0 -0.32415740110139 0 0 0 0 0 0 -10.6772077687198 0 0 0 0 0 0 0 0 0 0 0 0 0
0 0 0 -0.403623764209341 0 0 0 0 0 0 -0.651513148603669 0 0 0 0 0 0 0 0 0 0 0 0 0 0 -0.0870143963800204 0 0 0 -1.77630766334633 0 0 0 0 0 0 -6.10365458717435 0 0 0 0 0 0 0 0 0 0 0 0 0
0 0 0 0 -0.403623764209341 0 0 0 0 0 -1.16476186887846 0 0 0 0 0 0 0 0 0 0 0 0 0 0 0 0 0 0 -0.485876360496192 0 0 0 0 0 0 -0.519373929939484 0 0 0 0 0 0 0 0 0 0 0 0 0
0 0 0.583454978985976 0 0 -0.403623764209341 0 0 0 0 0 0 0 0 0 0 0 0 0 0 0 0 0 0 0 0 0 0 0 -0.353831121171252 0 0 0 0 0 0 -0.3442003600034 0 0 0 0 0 0 0 0 0 0 0 0 0
0 0 0 0 0 0 -0.403623764209341 0 0 0 0 0 -0.208965616936053 0 0 0 0 0 0 0 0 0 0 0 0 0 0 0 0 -0.811437527906293 0 0 0 0 0 0 0 0 0 0 -0.13786753812475 0 0 0 0 0 0 0 0 0
0 0 0 0 0 0 0 -0.403623764209341 0 0 0 0 0 0 0 0 0 0 0 0 0 0 0 0 0 0 0 0 0 -0.421641959787356 0 0 0 0 0 0 -1.24639455214911 0 0 0 -0.280323041221551 0 0 0 0 0 0 0 0 0
0 0 0 0 0 0 0 0 -0.403623764209341 0 0 -0.0912041051439897 -0.400676614597234 0 0 0 0 0 0 0 0 0 0 0 0 0 0 0 0 -0.452415483608159 0 0 0 0 0 0 -0.231344544442429 0 0 0 -1.84586006004081 0 0 0 0 0 0 0 0 0
0 0.0701295153591764 0 0 0 0 0 0 0 -0.403623764209341 0 0 -2.04655431763353 -3.40781358279924 0 0 0 0 0 0 0 -2.7841051574584 0 0 0 0 0 0 0 0 0 0 0 0 0 0 -2.98178353150528 0 0 0 -5.86129690953567 0 0 0 0 0 0 0 -0.466808239362614 0
0 0 0 0.130939812389845 0.233635830359364 0 0 0 0 0 -0.403623764209341 -0.767168382291286 -2.16597278259821 0 0 0 0 0 0 0 0 -3.27589869547744 0 0 0 0 0 0 0 0 0 0 0 0 0 0 0 0 0 0 0 0 0 0 0 0 0 0 -1.06519384588221 0
0 0 0 0 0 0 0 0 0.0184168459949546 0 0.163756055824784 -0.403623764209341 -0.180793062881322 -0.968729972252634 0 0 0 0 0 0 0 0 0 0 0 0 0 0 0 0 0 0 0 0 0 0 -0.938633273870283 0 0 0 0 0 0 0 0 0 0 0 -12.0943897008207 0
0 0 0 0 0 0 0.0437182254645468 0 0.0822496620956605 0.434299656894301 0.430537750013509 0.0373622389233968 -0.403623764209341 0 0 0 0 -1.75883899498468 0 0 0 -1.7689166513708 0 0 0 0 0 0 0 0 0 0 -1.14713692684472 0 0 0 0 0 0 0 0 0 0 0 0 0 0 0 0 0
0 0 0 0 0 0 0 0 0 0.636439411675049 0 0.209461801759838 0 -0.403623764209341 0 0 0 0 0 0 0 0 0 0 0 0 0 0 0 0 0 0 0 0 -1.94353201514912 0 -2.07615554177847 0 0 0 -6.0517745730141 0 0 0 0 0 0 0 0 0
0 0 0 0 0 0 0 0 0 0 0 0 0 0 -0.403623764209341 0 0 0 0 0 0 0 0 0 0 0 0 0 0 0 0 0 -2.06497158977706 0 0 0 -1.75696962745755 0 0 0 -2.95281903647043 0 0 0 0 0 0 0 -0.91117240968433 0
0 0 0 0 0 0 0 0 0 0 0 0 0 0 0 -0.403623764209341 0 0 0 0 0 0 -1.21205309647294 0 0 0 0 0 0 0 0 0 -0.703050468066496 0 -1.48051149191801 0 -1.25225618870507 0 0 0 -2.51370576869747 0 0 0 0 0 0 0 -0.149602328429864 0
0 0 0 0 0 0 0 0 0 0 0 0 0 0 0 0 -0.403623764209341 0 0 0 0 0 0 0 0 0 0 0 0 0 0 0 0 0 0 -1.97323279611998 0 0 0 0 -3.4902909605396 0 0 0 0 0 0 -0.0338475266365456 -0.773860167978258 0
0 0 0 0 0 0 0 0 0 0 0 0 0.354838824280254 0 0 0 0 -0.403623764209341 0 0 0 0 0 0 0 0 0 0 0 0 0 0 0 0 0 -0.829155809935736 -0.379366045595866 0 0 0 0 0 0 0 0 0 0 0 0 0
0 0 0 0 0 0 0 0 0 0 0 0 0 0 0 0 0 0 -0.403623764209341 0.462926727560131 0.116658394078852 0.0626930912754047 0.39160394304214 0.257711913768562 0 0 -0.213880730852237 -1.54905059647129 0 0 0 0 -0.568503255406347 0 0 0 0 0 0 -0.426847851085114 0 0 0 0 0 0 0 0 -0.361833895164451 0
0 0 0 0 0 0 0 0 0 0 0 0 0 0 0 0 0 0 -2.38156260271242 -0.403623764209341 0 0 0 0 -0.651349967272807 0 -0.419952770628255 0 0 0 0 0 -2.50177893116634 0 0 0 0 0 0 -3.79391828844874 0 0 -0.227411335292318 0 0 0 0 0 -4.78910703151673 0
0 0 0 0 0 0 0 0 0 0 0 0 0 0 0 0 0 0 -0.569817677184125 0 -0.403623764209341 0 0 0 0 0 -2.45838927161053 0 0 0 0 0 -5.21684656410734 0 0 0 0 0 0 0 0 0 0 0 0 0 0 0 -3.90578568723962 0
0 0 0 0 0 0 0 0 0 0.529803389356103 0.750204648586081 0 0.340811285245758 0 0 0 0 0 -0.303907343098441 0 0 -0.403623764209341 0 0 0 0 0 -1.4568758432354 0 0 0 0 -5.83511604147628 0 0 0 0 0 0 0 0 0 -0.624639335425466 0 0 0 0 0 0 0
0 0 0 0 0 0 0 0 0 0 0 0 0 0 0 0.246487646096833 0 0 -1.98249943324835 0 0 0 -0.403623764209341 0 -0.216862652514609 0 -0.836406478641341 -0.507328443872605 0 0 0 0 -1.89470257859932 0 0 0 0 0 0 -4.29077440732786 0 0 -0.833055747867255 0 0 0 0 0 -1.01447997288107 0
0 0 0 0 0 0 0 0 0 0 0 0 0 0 0 0 0 0 -1.29013807657264 0 0 0 0 -0.403623764209341 0 0 -0.993247905864446 0 0 0 0 0 -0.585559710832747 0 0 0 0 0 0 -3.07154810383048 0 0 0 0 0 0 0 0 -0.179697339511172 0
0 0 0 0 0 0 0 0 0 0 0 0 0 0 0 0 0 0 0 0.131697563471339 0 0 0.0433164315853658 0 -0.403623764209341 0 0 -0.461376542809352 0 0 0 0 -0.115950819474825 0 0 0 0 0 0 0 0 0 0 0 0 0 0 0 0 0
0 0 0 0.0167049824286646 0 0 0 0 0 0 0 0 0 0 0 0 0 0 0 0 0 0 0 0 0 -0.403623764209341 0 0 0 0 0 0 0 0 0 0 0 0 0 0 0 -0.999492451370264 -0.168693333347723 0 0 0 0 0 0 0
0 0 0 0 0 0 0 0 0 0 0 0 0 0 0 0 0 0 0.0407137625236754 0.0758150297400211 0.488700578020403 0 0.170740935538872 0.206697638707754 0 0 -0.403623764209341 0 0 0 0 0 -1.64004693619294 0 0 0 0 0 0 0 0 -3.34402540575413 -0.267661706298165 0 0 0 0 0 0 0
0 0 0 0 0 0 0 0 0 0 0 0 0 0 0 0 0 0 0.318805999445387 0 0 0.286568178102557 0.104064593477693 0 0.0922825984836877 0 0 -0.403623764209341 0 0 0 0 -1.07251175769731 0 0 0 0 0 0 0 0 0 0 0 0 0 0 0 0 0
0 0 0 0 0 0 0 0 0 0 0 0 0 0 0 0 0 0 0 0 0 0 0 0 0 0 0 0 -0.403623764209341 0 -0.159699685343343 -1.05546678527985 -2.8561706324671 0 0 0 0 0 0 0 0 -0.203872637622956 0 0 0 0 0 0 0 0
0 0 0.0654649653222034 0.363375925199862 0.0922490217388126 0.0650689218245067 0.14931769576353 0.0899839834211621 0.100172218490199 0 0 0 0 0 0 0 0 0 0 0 0 0 0 0 0 0 0 0 0 -0.403623764209341 0 0 0 0 0 0 0 0 0 0 0 -1.54827725094602 0 0 0 -0.963999816674159 0 0 0 0
0 0 0 0 0 0 0 0 0 0 0 0 0 0 0 0 0 0 0 0 0 0 0 0 0 0 0 0 0.0308877924754202 0 -0.403623764209341 0 0 0 0 0 0 0 -0.71511381218701 0 0 0 0 0 0 0 -2.59099447257357 0 0 0
0 0 0 0 0 0 0 0 0 0 0 0 0 0 0 0 0 0 0 0 0 0 0 0 0 0 0 0 0.210396812671025 0 0 -0.403623764209341 0 0 0 0 0 0 -0.858427656406362 0 0 0 0 0 0 -2.27250881038494 0 0 0 0
0 0 0 0 0 0 0 0 0 0 0 0 0.211584711071748 0 0.446357434213441 0.14064670294495 0 0 0.10958344322882 0.515997129546792 1.03458485624277 1.15807354654275 0.413655345059102 0.100533280887533 0.0244896524721327 0 0.29209286034149 0.204299603609803 0.560160605894629 0 0 0 -0.403623764209341 0 0 0 0 0 0 0 0 0 0 -2.07691769689489 -4.08216948045748 -1.82593840934881 -2.35851796536963 0 0 0
0 0 0 0 0 0 0 0 0 0 0 0 0 0 0 0 0 0 0 0 0 0 0 0 0 0 0 0 0 0 0 0 0 -0.403623764209341 0 0 0 0 0 0 0 0 0 0 0 -4.76459874830728 -0.698156591288133 0 0 0
0 0 0 0 0 0 0 0 0 0 0 0 0 0.370579102455954 0 0.297011399844617 0 0 0 0 0 0 0 0 0 0 0 0 0 0 0 0 0 0 -0.403623764209341 0 0 0 0 0 0 0 0 0 -0.417870770545181 0 0 0 0 0
0 0 0 0 0 0 0 0 0 0 0 0 0 0 0 0 0.354622903088637 0.160553419142404 0 0 0 0 0 0 0 0 0 0 0 0 0 0 0 0 0 -0.403623764209341 0 0 0 0 0 0 0 -4.21827789195601 -2.49911075304686 0 -0.28815999198613 0 0 -0.972380857991763
0.0147479533919776 0 2.23151764306469 1.27035838453829 0.108295605809414 0.0736074430326868 0 0.258165781851097 0.0502316198774076 0.543889712269228 0 0.183157090133505 0 0.440015197344674 0.357038132313353 0.238761924181791 0 0.0734144224763252 0 0 0 0 0 0 0 0 0 0 0 0 0 0 0 0 0 0 -0.403623764209341 0 0 0 0 0 0 0 -1.52600289267634 0 0 0 0 -1.31221550595768
0 0 0 0 0 0 0 0 0 0 0 0 0 0 0 0 0 0 0 0 0 0 0 0 0 0 0 0 0 0 0 0 0 0 0 0 0 -0.403623764209341 0 0 0 0 0 0 -0.178931048942293 -1.65732780261157 0 0 0 0
0 0 0 0 0 0 0 0 0 0 0 0 0 0 0 0 0 0 0 0 0 0 0 0 0 0 0 0 0 0 0.155546013439075 0.175200462479539 0 0 0 0 0 0 -0.403623764209341 0 0 0 0 -1.17316847426658 -0.56548207393503 -0.741550914545993 0 0 0 -0.365004239083499
0 0 0 0 0 0 0 0 0 0 0 0 0 0 0 0 0 0 0.0844742954645429 0.68381773400673 0 0 0.866778374841066 0.61794206676358 0 0 0 0 0 0 0 0 0 0 0 0 0 0 0 -0.403623764209341 0 0 0 -3.19944743242557 -1.78189039828748 0 0 0 0 -10.0328167834252
0 0 0 0 0 0 0.0298925952439138 0.0602193223612661 0.370357113672887 1.21414829542414 0 0 0 1.17077412412311 0.581122109091008 0.482524426346629 0.677658765327664 0 0 0 0 0 0 0 0 0 0 0 0 0 0 0 0 0 0 0 0 0 0 0 -0.403623764209341 0 0 0 0 -2.40891256963245 0 0 0 0
0 0 0 0 0 0 0 0 0 0 0 0 0 0 0 0 0 0 0 0 0 0 0 0 0 0.205402860876815 0.649797051928096 0 0.0423436557945224 0.280026785464829 0 0 0 0 0 0 0 0 0 0 0 -0.403623764209341 0 0 0 0 0 0 0 0
0 0 0 0 0 0 0 0 0 0 0 0 0 0 0 0 0 0 0 0.0494563159362004 0 0.112806212521709 0.156571160289288 0 0 0.0343635164443552 0.0506391655124284 0 0 0 0 0 0 0 0 0 0 0 0 0 0 0 -0.403623764209341 0 0 -0.979159748484555 0 0 0 0
0 0 0 0 0 0 0 0 0 0 0 0 0 0 0 0 0 0 0 0 0 0 0 0 0 0 0 0 0 0 0 0 0.406336612149014 0 0 0.800895132766561 0 0 0.253630375117884 0.661996790409884 0 0 0 -0.403623764209341 0 0 0 0 0 0
0 0 0 0 0 0 0 0 0 0 0 0 0 0 0 0 0 0 0 0 0 0 0 0 0 0 0 0 0 0 0 0 0.737882858432421 0 0.081131190448092 0.499287930183817 0.318457473992025 0.0347344037953955 0.112629664391541 0.352658748349215 0 0 0 0 -0.403623764209341 -0.485659568157799 0 0 0 0
0 0 0 0 0 0 0 0 0 0 0 0 0 0 0 0 0 0 0 0 0 0 0 0 0 0 0 0 0 0.183508958348722 0 0.447157525247477 0.38873043545345 0.98288257037502 0 0 0 0.34033056759053 0.142290153610854 0 0.50383563026801 0 0.202020179477572 0 0.0955320866064813 -0.403623764209341 0.292784098153386 0.713723603476516 0 0
0 0 0 0 0 0 0 0 0 0 0 0 0 0 0 0 0 0 0 0 0 0 0 0 0 0 0 0 0 0 0.523849024043271 0 0.458354532277488 0.144767177900647 0 0.0589503842289567 0 0 0 0 0 0 0 0 0 -1.50218210801306 -0.403623764209341 0 0 0
0 0 0 0 0 0 0 0 0 0 0 0 0 0 0 0 0.00705271958622138 0 0 0 0 0 0 0 0 0 0 0 0 0 0 0 0 0 0 0 0 0 0 0 0 0 0 0 0 -3.45112482840614 0 -0.403623764209341 0 0
0 0 0 0 0 0 0 0 0 0.0827370016269187 0.21223938644475 2.3289712501353 0 0 0.193477949067826 0.0292885428675574 0.147535948458237 0 0.0741344364518136 0.928877336891053 0.721225582261943 0 0.225955849606696 0.0348330613938649 0 0 0 0 0 0 0 0 0 0 0 0 0 0 0 0 0 0 0 0 0 0 0 0 -0.403623764209341 0
0 0 0 0 0 0 0 0 0 0 0 0 0 0 0 0 0 0 0 0 0 0 0 0 0 0 0 0 0 0 0 0 0 0 0 0.191214439711397 0.24959029841203 0 0.0710152392759915 2.10085950771632 0 0 0 0 0 0 0 0 0 -0.403623764209341
