-0.385232356179927 0 -0.479931621363059 0 0 0 0 0 0 0 0 0 0 0 0 0 0 0 0 0 0 0 0 0 0 0 0 0 0 0 0 0 0 0 0 0 0 0 0 0 0 0 0 0 0 0 0 0 0 0
0 -0.385232356179927 0 0 0 0 0 0 0 0 0 0 0 -1.78563956966167 0 0 0 0 0 0 0 0 0 0 0 0 0 0 0 0 0 0 0 0 0 0 0 0 0 0 0 0 0 0 0 0 0 0 0 0
0.0894346998122603 0 -0.385232356179927 0 0 0 0 0 0 0 0 0 -0.443128239148385 -2.55384837612165 0 0 0 0 0 0 0 0 0 0 0 0 0 0 0 0 0 0 0 0 0 0 0 0 0 0 0 0 0 0 0 0 0 0 0 0
0 0 0 -0.385232356179927 0 0 0 0 0 0 0 0 -0.908378972686632 0 0 0 0 0 0 0 0 0 0 0 0 0 0 0 0 0 0 0 0 0 0 0 0 0 0 0 0 0 0 0 0 0 0 0 0 0
0 0 0 0 -0.385232356179927 0 0 0 0 -0.686475703091821 0 0 0 0 0 0 0 0 0 0 0 0 0 0 0 0 0 0 0 0 0 0 0 0 0 0 0 0 0 0 0 0 0 0 0 0 0 0 0 0
0 0 0 0 0 -0.385232356179927 0.1128684158561 0 0 -1.07306268582469 -5.82541519457632 0 0 0 0 0 0 0 0 0 0 0 0 0 0 0 0 0 0 0 0 0 0 0 0 0 0 0 0 0 0 0 0 0 -0.441165686258729 0 0 0 0 0
0 0 0 0 0 -0.580124166376347 -0.385232356179927 0 -0.562336096264782 0 -0.857801053564019 0 0 0 -5.12627277041354 -1.4435594485638 0 0 0 0 0 0 0 0 0 0 0 0 0 0 0 0 0 0 0 0 0 0 0 0 0 0 0 0 -0.806625162764358 0 0 0 0 0
0 0 0 0 0 0 0 -0.385232356179927 0 -1.04883242177668 0 0 0 0 -2.20169905396419 0 0 0 0 0 0 0 0 0 0 0 0 0 0 0 0 0 0 0 0 0 0 0 0 0 0 0 0 0 -0.468235028156911 0 0 0 0 0
0 0 0 0 0 0 0.11308866143999 0 -0.385232356179927 0 0 0 0 0 0 0 0 -0.447092555847687 0 0 -0.609885780300391 0 0 0 0 0 0 0 0 0 0 0 0 0 0 0 0 0 0 0 0 0 0 0 0 0 0 0 0 0
0 0 0 0 0.148447545549641 0.226871220389354 0 0.219339690356765 0 -0.385232356179927 0 0 0 0 0 0 0 -0.441989421520803 0 0 -0.855891234963134 0 -1.43380224936973 0 0 0 0 0 0 0 -1.4556985402641 0 0 0 0 0 0 0 0 0 0 0 0 0 -1.7134610382058 0 0 0 0 0
0 0 0 0 0 1.13244269190698 0.159219588797505 0 0 0 -0.385232356179927 -0.8366452528768 0 0 0 0 0 0 0 0 0 0 0 0 0 0 0 0 0 0 -0.497544795264744 0 0 0 0 0 0 0 0 0 0 0 0 0 0 0 0 0 0 0
0 0 0 0 0 0 0 0 0 0 0.177534647953854 -0.385232356179927 0 0 0 0 0 0 0 0 0 0 0 0 0 0 0 0 0 0 -0.147173171327328 0 0 0 0 0 0 0 0 0 0 0 0 0 0 0 0 0 0 0
0 0 0.0851798913012506 0.168635715435566 0 0 0 0 0 0 0 0 -0.385232356179927 0 0 0 -3.65895259656875 0 0 0 0 0 0 0 0 0 0 0 0 0 0 0 0 0 0 0 0 0 0 0 0 0 0 0 0 0 0 0 0 0
0 0.348551423465673 0.525348061767876 0 0 0 0 0 0 0 0 0 0 -0.385232356179927 0 0 -0.137571217387467 0 0 0 0 0 0 0 0 0 0 0 0 0 -0.225888962806446 0 0 0 0 0 0 0 0 0 0 0 0 0 0 0 0 0 0 0
0 0 0 0 0 0 1.05230203663973 0.41792717708452 0 0 0 0 0 0 -0.385232356179927 0 -0.604966145647026 0 0 0 0 0 0 0 0 0 0 0 0 0 0 0 0 0 0 0 0 0 0 0 0 0 0 0 0 0 0 0 0 0
0 0 0 0 0 0 0.305472248094458 0 0 0 0 0 0 0 0 -0.385232356179927 -0.593768782284315 0 0 0 0 0 0 0 0 0 0 0 0 0 0 0 0 0 0 0 0 0 0 0 0 0 0 0 0 0 0 0 0 0
0 0 0 0 0 0 0 0 0 0 0 0 0.772661851150673 0.026259663311708 0.124781418118478 0.116670083987935 -0.385232356179927 0.441336653720809 0 0 0 0 0 0 0 0 0 0 0 0 0 0 0 0 0 0 0 0 0 0 0 0 0 0 0 0 0 0 0 0
0 0 0 0 0 0 0 0 0.088197259249846 0.091407363932791 0 0 0 0 0 0 -2.07892239001407 -0.385232356179927 0 0 0 0 0 0 0 0 0 0 0 0 0 0 0 0 0 0 0 0 0 0 0 0 0 0 0 0 0 0 0 0
0 0 0 0 0 0 0 0 0 0 0 0 0 0 0 0 0 0 -0.385232356179927 0 0 -0.226628057930335 0 -0.269551966256182 0 0 0 0 0 0 0 0 0 0 0 0 0 0 0 0 0 0 0 0 0 0 0 0 0 0
0 0 0 0 0 0 0 0 0 0 0 0 0 0 0 0 0 0 0 -0.385232356179927 0 0 0 0 -0.630924772937458 0 -3.89932252698657 0 0 0 0 0 0 0 0 0 0 0 0 0 0 0 0 0 0 0 0 0 0 0
0 0 0 0 0 0 0 0 0.116699349056614 0.17012133683258 0 0 0 0 0 0 0 0 0 0 -0.385232356179927 -1.1534862648254 0 0 -1.94947665882717 0 0 0 0 0 0 0 0 0 0 0 0 0 0 0 0 0 0 0 0 0 -1.04739892551505 0 0 -1.06502154473967
0 0 0 0 0 0 0 0 0 0 0 0 0 0 0 0 0 0 0.0444548414478387 0 0.222999752876661 -0.385232356179927 0.528520639295353 0 0 -1.1426794995618 0 0 0 0 0 0 0 0 0 0 0 0 0 0 0 0 0 0 0 0 0 0 0 -1.63566927231372
0 0 0 0 0 0 0 0 0 0.298930808690195 0 0 0 0 0 0 0 0 0 0 0 -2.51672925877285 -0.385232356179927 0 0 0 0 0 0 0 0 0 0 0 0 0 0 0 0 0 0 0 0 0 0 0 0 0 0 0
0 0 0 0 0 0 0 0 0 0 0 0 0 0 0 0 0 0 0.0498951762094965 0 0 0 0 -0.385232356179927 0 -2.62414920393871 0 0 0 0 0 0 0 0 0 0 0 0 0 0 0 0 0 0 0 0 0 0 0 -0.0907064925658735
0 0 0 0 0 0 0 0 0 0 0 0 0 0 0 0 0 0 0 0.132566002464765 0.365827141998097 0 0 0 -0.385232356179927 -1.0091259680552 0 0 0 0 0 0 0 0 0 0 0 0 0 0 0 0 0 0 0 0 0 0 0 -0.806569204281835
0 0 0 0 0 0 0 0 0 0 0 0 0 0 0 0 0 0 0 0 0 0.252409534664273 0 0.549406823300497 0.198878500016715 -0.385232356179927 0 0 0 0 0 0 -0.718306234825159 0 0 -1.42958097863154 0 0 0 -0.980075472928314 0 0 0 0 0 0 0 0 0 -0.481051279936435
0 0 0 0 0 0 0 0 0 0 0 0 0 0 0 0 0 0 0 0.845589254386094 0 0 0 0 0 0 -0.385232356179927 0 0 0 0 0 -1.23475409423716 0 -0.801939861509599 -2.23833473128669 0 0 0 -2.37533073783602 0 0 0 0 0 0 0 0 0 -0.315591437318598
0 0 0 0 0 0 0 0 0 0 0 0 0 0 0 0 0 0 0 0 0 0 0 0 0 0 0 -0.385232356179927 0 0 0 0 -0.270825761405146 0 0 0 0 0 0 -3.46064119380362 0 0 0 0 0 0 0 -1.6681480665558 0 -0.560020515579223
0 0 0 0 0 0 0 0 0 0 0 0 0 0 0 0 0 0 0 0 0 0 0 0 0 0 0 0 -0.385232356179927 0 0 0 0 0 -7.54130858345652 0 0 0 0 -0.519983917664513 0 0 0 0 0 0 0 -0.372591294797692 0 -3.4786021076279
0 0 0 0 0 0 0 0 0 0 0 0 0 0 0 0 0 0 0 0 0 0 0 0 0 0 0 0 0 -0.385232356179927 0 0 0 0 0 0 -0.214740186928235 0 0 0 -0.272360225551537 -4.0902715548624 0 0 0 0 0 0 0 -1.86899835914011
0 0 0 0 0 0 0 0 0 0.303426656646019 0.0916812238370117 0.0289763130813699 0 0.0471445919139567 0 0 0 0 0 0 0 0 0 0 0 0 0 0 0 0 -0.385232356179927 0 0 0 0 0 0 0 0 -6.51255497164983 0 0 0 0 0 -0.929781871822819 0 0 0 -8.64620844048653
0 0 0 0 0 0 0 0 0 0 0 0 0 0 0 0 0 0 0 0 0 0 0 0 0 0 0 0 0 0 0 -0.385232356179927 0 0 0 0 0 0 0 0 0 0 0 0 0 0 0 0 0 -0.955806741851984
0 0 0 0 0 0 0 0 0 0 0 0 0 0 0 0 0 0 0 0 0 0 0 0 0 0.151833325562877 0.244568666577512 0.061122972824267 0 0 0 0 -0.385232356179927 0 0 0 -0.182956412829259 0 0 -0.40189618767936 -0.536662851047749 -0.36460891699457 0 0 0 -0.345739137541586 0 0 -0.310847761869421 -0.218452403346014
0 0 0 0 0 0 0 0 0 0 0 0 0 0 0 0 0 0 0 0 0 0 0 0 0 0 0 0 0 0 0 0 0 -0.385232356179927 0.580848790302349 0.0685983423443264 0.451122632560664 0.0321366769017681 0 -0.297457495444919 -0.367208427028395 0 0 -1.26040479945641 0 0 0 0 0 0
0 0 0 0 0 0 0 0 0 0 0 0 0 0 0 0 0 0 0 0 0 0 0 0 0 0 0.156988159380629 0 1.35755548419873 0 0 0 0 -2.70935165682371 -0.385232356179927 0 -0.0485042323325512 -1.94788184694241 0 -3.47681208424729 -0.400347478243122 0 0 -3.2628046389409 0 -0.91325213151472 0 0 0 0
0 0 0 0 0 0 0 0 0 0 0 0 0 0 0 0 0 0 0 0 0 0 0 0 0 0.298753572817972 0.465825067187003 0 0 0 0 0 0 -0.35710561684219 0 -0.385232356179927 -1.14658869665189 -1.2081037097261 0 0 0 0 0 0 0 0 0 0 0 0
0 0 0 0 0 0 0 0 0 0 0 0 0 0 0 0 0 0 0 0 0 0 0 0 0 0 0 0 0 0.043253664934142 0 0 0.0340819688560333 -2.22941522417365 0.00963979558370272 0.240323166156004 -0.385232356179927 0.243561921015594 0 -0.987794416677236 0 0 0 -0.939883741694349 0 0 0 0 0 0
0 0 0 0 0 0 0 0 0 0 0 0 0 0 0 0 0 0 0 0 0 0 0 0 0 0 0 0 0 0 0 0 0 -0.148972044761615 0.4061118883907 0.266848683766252 -1.11091605003039 -0.385232356179927 0.0259159293529375 0 0 0 0 -2.49584013673912 0 0 0 0 0 0
0 0 0 0 0 0 0 0 0 0 0 0 0 0 0 0 0 0 0 0 0 0 0 0 0 0 0 0 0 0 0 0 0 0 0 0 0 -0.129612578273794 -0.385232356179927 -0.423875902040447 0 0 0 0 0 0 0 0 0 0
0 0 0 0 0 0 0 0 0 0 0 0 0 0 0 0 0 0 0 0 0 0 0 0 0 0.202320340734374 0.496895471505186 0.662960275169763 0.110305632578683 0 1.39923909000158 0 0.0838155497008552 0.0608233660421367 0.691922174387188 0 0.20055290067203 0 0.0806450006810712 -0.385232356179927 0.587923992292657 0.172339016029768 0 0 0 0 0 0 0 0
0 0 0 0 0 0 0 0 0 0 0 0 0 0 0 0 0 0 0 0 0 0 0 0 0 0 0 0 0 0.0535102409342149 0 0 0.10036680516864 0.0748965995069311 0.0744890680393847 0 0 0 0 -2.77314980801508 -0.385232356179927 0 0 -1.86232805703697 0 0 0 0 0 0
0 0 0 0 0 0 0 0 0 0 0 0 0 0 0 0 0 0 0 0 0 0 0 0 0 0 0 0 0 0.713165359226653 0 0 0.0714220936266107 0 0 0 0 0 0 -0.933997431075871 0 -0.385232356179927 0 0 0 0 0 0 0 0
0 0 0 0 0 0 0 0 0 0 0 0 0 0 0 0 0 0 0 0 0 0 0 0 0 0 0 0 0 0 0 0 0 0 0 0 0 0 0 0 0 0 -0.385232356179927 -0.613266161672915 0 0 0 0 0 0
0 0 0 0 0 0 0 0 0 0 0 0 0 0 0 0 0 0 0 0 0 0 0 0 0 0 0 0 0 0 0 0 0 0.262815626489258 0.691122860873455 0 0.190438312722139 0.481140992854875 0 0 0.38062325129338 0 0.122521616045519 -0.385232356179927 0 0 0 0 0 0
0 0 0 0 0 0.091951295750708 0.157549498740435 0.10109652337507 0 0.330433118202381 0 0 0 0 0 0 0 0 0 0 0 0 0 0 0 0 0 0 0 0 0 0 0 0 0 0 0 0 0 0 0 0 0 0 -0.385232356179927 0 0 0 0 0
0 0 0 0 0 0 0 0 0 0 0 0 0 0 0 0 0 0 0 0 0 0 0 0 0 0 0 0 0 0 0.179448979505831 0 0.0665311944393172 0 0.186609520545952 0 0 0 0 0 0 0 0 0 0 -0.385232356179927 0 0 0 0
0 0 0 0 0 0 0 0 0 0 0 0 0 0 0 0 0 0 0 0 0.186196696996018 0 0 0 0 0 0 0 0 0 0 0 0 0 0 0 0 0 0 0 0 0 0 0 0 0 -0.385232356179927 0 0 0
0 0 0 0 0 0 0 0 0 0 0 0 0 0 0 0 0 0 0 0 0 0 0 0 0 0 0 0.327118855982238 0.0815737634465027 0 0 0 0 0 0 0 0 0 0 0 0 0 0 0 0 0 0 -0.385232356179927 0 0
0 0 0 0 0 0 0 0 0 0 0 0 0 0 0 0 0 0 0 0 0 0 0 0 0 0 0 0 0 0 0 0 0.0616464610262975 0 0 0 0 0 0 0 0 0 0 0 0 0 0 0 -0.385232356179927 0
0 0 0 0 0 0 0 0 0 0 0 0 0 0 0 0 0 0 0 0 0.202072228459372 0.319764929721105 0 0.019234389858058 0.159398458948013 0.0948911284596868 0.0578479453836725 0.0958409882039369 0.731657771805617 0.372334377195039 1.86953253045787 0.206885198436975 0.0449413063395269 0 0 0 0 0 0 0 0 0 0 0 0 0 0 0 0 -0.385232356179927
