0.210860065111122
1.01106493601982
0.163447152273061
0.920571641326735
0.472609267441786
0.793208940168449
0.47458325178337
0.69437858676256
0.895622281890205
1.62450374266946
0.652802953015578
0.335408574294261
2.73925585529959
0.705884703553672
1.6414072944771
0.650284608788657
0.39361128090811
2.7843473903868
0.961512390198642
0.645842809371608
6.21629838770767
3.82284946857003
0.970698633143627
0.777980888161654
1.45245298864205
0.951306390586282
0.061290707979974
2.24529679967786
4.15066114508465
1.54633175580492
0.785511464921245
8.85686902000187
0.0749461418136605
1.99715563750227
0.850141407482429
1.83603334183479
3.57334216382586
4.05192149298833
0.621848587110982
0.532356439492716
0.895981115768134
2.23023813359418
2.0540893278735
0.712800643344613
0.170694383922276
2.52763924083584
0.368603403501897
0.589842331135422
0.269106946956368
1.80026143998066
