2.05991629694675
3.16108895231618
1.51927624381264
0.191409633751645
1.83644220673394
1.70159473571222
0.578004654657964
1.53650358912758
3.80167257678843
0.507650318105269
0.347065155942559
0.925719207022872
1.44939050773777
0.295998468463725
0.75715362020919
0.3326642287151
1.62281975946372
1.65778327394375
0.372091606806986
1.02177158746812
1.38252193237715
0.47669238832999
2.16779326686791
0.607950691734042
1.59949028538169
1.10747199896173
2.28928930713139
4.14259603743869
0.282492837546829
2.5288351926636
1.22898437073841
2.31943089672814
4.15654200659701
0.560461711341626
0.25380433583526
1.48780613018877
2.58691396935857
1.31204724741458
0.773406826396485
6.89079367301583
1.41797748987051
2.03693981093841
1.29530036171018
2.7970499342384
0.406811767905856
4.54935063886082
3.66081520327374
2.88986046575142
0.941063705930343
5.53415928926149
