-0.92633284516642 0 0 0 0 0 0 0 0 0 0 0 0 0 0 0 0 0 0 0 0 -1.76309093342933 0 0 0 0 0 0 0 0 0 0 0 0 0 0 0 -1.74246176626491 0 0 0 0 0 0 0 0 0 0 0 0
0 -0.92633284516642 0 -0.822957424697213 0 -0.194068169938345 0 0 0 0 0 0 0 0 0 0 0 0 0 0 0 0 0 0 0 0 0 0 0 -2.18910205283236 0 -1.11632785558821 0 0 0 0 0 0 0 0 0 0 0 0 0 0 0 0 0 0
0 0 -0.92633284516642 0 0 -9.04807920484769 0 0 0 0 0 0 0 0 0 0 0 0 0 0 0 0 0 0 0 0 0 0 0 -1.04023565065414 0 -0.624191086452579 0 0 0 0 0 -1.15692213126423 0 0 0 0 0 0 0 0 0 -1.41108532433397 0 0
0 0.160480764746757 0 -0.92633284516642 0 -1.88419170534444 0 0 0 0 0 0 0 0 0 0 0 0 0 -1.83567383564508 0 0 0 0 0 0 0 0 0 0 0 -0.309613544716325 0 0 0 0 0 -0.300377064900465 0 0 0 0 0 0 0 0 0 -0.630918399500064 0 0
0 0 0 0 -0.92633284516642 0 0 0 -2.96403938369558 0 0 0 0 0 0 0 0 0 0 0 0 0 0 0 0 0 0 0 0 -0.461621783174194 0 0 0 0 0 0 0 0 0 0 0 0 0 0 0 0 0 0 0 0
0 0.0404907002446751 1.82044300751981 0.354254634738384 0 -0.92633284516642 0 0 0 0 0 0 0 0 0 0 0 0 0 -0.297973063578899 0 0 0 0 0 -2.07234175055516 0 0 -1.10451122556084 -2.99261788495627 0 0 0 0 0 0 0 0 0 0 -0.92670701864514 0 0 0 -4.40572088519371 0 0 -2.01924673798725 0 0
0 0 0 0 0 0 -0.92633284516642 0 0 0 0 0 0 0 0 0 0 0 0 0 0 0 0 0 0 -0.466173543952806 0 0 0 0 0 0 0 0 0 0 0 -0.268405895829292 0 0 -3.01556685231746 0 0 0 -1.43604183888094 0 0 0 0 0
0 0 0 0 0 0 0 -0.92633284516642 0 0 0 0 0 0 0 0 0 0 0 0 0 0 0 0 0 -2.50384897019777 0 0 0 0 0 0 0 0 0 0 0 0 0 0 0 0 0 0 0 0 0 0 0 0
0 0 0 0 0.61693816694334 0 0 0 -0.92633284516642 -0.56501854961671 0 0 -0.900192788047056 0 0 0 0 0 0 0 0 0 0 0 0 0 0 0 0 0 0 0 0 0 0 0 0 0 0 0 0 0 0 0 0 0 0 -0.112935589758763 0 0
0 0 0 0 0 0 0 0 0.109036741981025 -0.92633284516642 0 0 0 -1.82936980847303 0 0 0 0 0 0 0 0 0 0 0 -0.883643813920933 0 -0.50258772102057 0 0 0 0 0 0 0 0 0 0 0 0 0 0 0 0 0 0 0 0 0 0
0 0 0 0 0 0 0 0 0 0 -0.92633284516642 0 0 0 0 0 0 -1.39056249897985 0 0 0 0 0 0 0 0 -2.29910408554875 0 0 0 0 0 0 0 0 -0.730175262061641 0 0 0 0 0 -0.39796985243908 0 0 0 0 0 -1.91566482966049 0 0
0 0 0 0 0 0 0 0 0 0 0 -0.92633284516642 0 0 0 0 0 0 0 0 0 0 0 0 0 0 0 0 0 0 0 0 0 0 0 -3.21884299459152 0 0 0 0 0 0 0 0 0 0 0 -0.200211968281925 0 0
0 0 0 0 0 0 0 0 0.179445030688142 0 0 0 -0.92633284516642 0 0 0 0 -0.433191760755021 0 0 0 0 0 0 0 -0.442875028522909 -1.07177188008617 0 0 0 0 0 0 0 0 -0.899147190383293 0 0 0 0 0 -1.26054612843226 0 0 0 0 0 -0.299040383807394 0 0
0 0 0 0 0 0 0 0 0 0.348459608783209 0 0 0 -0.92633284516642 0 0 0 -0.26016183231283 0 0 0 0 0 0 0 -1.33773949434562 -0.623813310028497 0 0 0 0 0 0 0 0 -1.14753525200056 0 0 0 0 0 -2.55678894685586 0 0 0 0 0 -0.813902765183223 0 0
0 0 0 0 0 0 0 0 0 0 0 0 0 0 -0.92633284516642 0 0 -0.60540439221171 0 0 0 0 0 0 0 0 -0.385939587467118 0 0 0 0 0 0 0 0 0 0 0 0 0 0 0 0 0 0 0 0 0 0 0
0 0 0 0 0 0 0 0 0 0 0 0 0 0 0 -0.92633284516642 0 -1.58278485638159 0 0 0 0 0 0 0 -1.63890174990234 -0.56183929528175 0 0 0 0 0 0 0 0 -4.71031462376541 0 0 0 0 0 0 0 0 0 0 0 0 0 0
0 0 0 0 0 0 0 0 0 0 0 0 0 0 0 0 -0.92633284516642 0 -1.27726570121505 0 0 0 -2.40729674017668 0 0 0 -0.244603567805783 0 0 0 0 0 0 0 0 -1.37393523550874 0 0 0 0 0 0 0 0 0 0 0 0 0 0
0 0 0 0 0 0 0 0 0 0 0.297277193080399 0 0.0827074615624777 0.0531613585871194 0.121801660424708 0.305454562458635 0 -0.92633284516642 -0.671631516755336 0 0 0 0 0 0 0 -1.45581217557537 0 0 0 0 0 0 0 0 0 0 0 0 0 0 0 0 0 0 0 0 0 0 0
0 0 0 0 0 0 0 0 0 0 0 0 0 0 0 0 0.273733595821717 0.132754858300109 -0.92633284516642 0.188481473192418 0.707027102392854 0 0 0 0 0 -8.65399773836354 0 0 0 0 0 0 0 0 0 0 0 0 0 0 0 -4.0214880823896 0 0 0 0 -0.397254215324178 0 0
0 0 0 0.391434420006116 0 0.0579049356403639 0 0 0 0 0 0 0 0 0 0 0 0 -0.936518897280963 -0.92633284516642 0 0 0 0 0 0 0 0 0 0 0 0 0 0 0 0 0 0 0 0 0 0 -0.428893734398461 0 0 0 0 -0.689506007198171 0 0
0 0 0 0 0 0 0 0 0 0 0 0 0 0 0 0 0 0 -3.60712997259089 0 -0.92633284516642 0 0 0 0 0 0 0 0 0 0 0 0 0 0 0 0 0 0 0 0 0 -10.2294537590894 0 0 0 0 -0.64371686929625 0 0
0.347047950327211 0 0 0 0 0 0 0 0 0 0 0 0 0 0 0 0 0 0 0 0 -0.92633284516642 0 0 0 0 0 0 0 0 0 0 0 0 0 0 0 0 0 0 0 0 0 0 0 0 0 -0.476825321844044 -0.358573307586343 0
0 0 0 0 0 0 0 0 0 0 0 0 0 0 0 0 0.515210416657167 0 0 0 0 0 -0.92633284516642 0 0 0 0 0 0 0 0 0 0 0 0 0 0 0 0 0 0 0 -1.05216146069286 0 0 0 0 -1.84131058004874 -0.811631358248543 0
0 0 0 0 0 0 0 0 0 0 0 0 0 0 0 0 0 0 0 0 0 0 0 -0.92633284516642 0 0 0 0 0 0 0 0 0 0 0 0 0 0 0 0 0 0 0 0 0 0 0 0 -0.806349704324983 0
0 0 0 0 0 0 0 0 0 0 0 0 0 0 0 0 0 0 0 0 0 0 0 0 -0.92633284516642 0 0 0 0 0 0 0 0 0 0 0 0 0 0 0 0 0 -0.629408759314949 0 0 0 0 0 -0.138618963228991 0
0 0 0 0 0 0.41284806564714 0.0915948814216124 0.512198593305955 0 0.174085470114741 0 0 0.0874872670829162 0.266349391886818 0 0.341656649993243 0 0 0 0 0 0 0 0 0 -0.92633284516642 0 0 0 0 0 0 0 0 0 0 0 0 0 0 0 0 0 0 0 0 0 -2.39706953986259 -0.705958363893129 0
0 0 0 0 0 0 0 0 0 0 0.464128432107183 0 0.204810565303064 0.120824446763315 0.0748461815048801 0.12574182923546 0.0493548794079704 0.253551394331545 1.59141021975037 0 0 0 0 0 0 0 -0.92633284516642 0 0 0 0 0 0 0 0 0 0 0 0 0 0 0 -2.54067050170885 0 0 0 0 0 -3.4777053837052 0
0 0 0 0 0 0 0 0 0 0.103810578951635 0 0 0 0 0 0 0 0 0 0 0 0 0 0 0 0 0 -0.92633284516642 0 0 0 0 0 0 0 0 0 0 0 0 0 0 0 0 0 0 0 -0.859006002218586 -0.538733971865364 0
0 0 0 0 0 0.235354183184825 0 0 0 0 0 0 0 0 0 0 0 0 0 0 0 0 0 0 0 0 0 0 -0.92633284516642 0 0 0 0 0 0 0 0 0 0 0 0 0 0 0 0 0 0 -0.9764149404707 0 0
0 0.422826268414028 0.224073786897377 0 0.091333768907052 0.593412617975753 0 0 0 0 0 0 0 0 0 0 0 0 0 0 0 0 0 0 0 0 0 0 0 -0.92633284516642 -0.398487925544053 0 0 0 -0.913045535280801 0 0 0 0 0 0 0 0 0 0 0 0 0 -2.67734590477843 -0.140897834311961
0 0 0 0 0 0 0 0 0 0 0 0 0 0 0 0 0 0 0 0 0 0 0 0 0 0 0 0 0 0.0773297879448446 -0.92633284516642 0 0 0 0 0 0 0 0 0 0 0 0 0 0 -1.00222757531056 0 0 -0.668992559884026 0
0 0.231772627608089 0.121506292382561 0.0622009492336492 0 0 0 0 0 0 0 0 0 0 0 0 0 0 0 0 0 0 0 0 0 0 0 0 0 0 0 -0.92633284516642 0 0 -0.441868307696844 0 0 0 0 0 0 0 0 0 0 0 0 -0.288172131625625 0 0
0 0 0 0 0 0 0 0 0 0 0 0 0 0 0 0 0 0 0 0 0 0 0 0 0 0 0 0 0 0 0 0 -0.92633284516642 0 -0.90204304785583 0 0 0 0 0 0 0 0 0 0 0 0 0 -1.45025958724179 -0.915551652993008
0 0 0 0 0 0 0 0 0 0 0 0 0 0 0 0 0 0 0 0 0 0 0 0 0 0 0 0 0 0 0 0 0 -0.92633284516642 -2.47602685292584 0 0 0 0 0 0 0 0 0 0 0 0 0 -0.723911162628894 -0.12974025973457
0 0 0 0 0 0 0 0 0 0 0 0 0 0 0 0 0 0 0 0 0 0 0 0 0 0 0 0 0 0.202990028553173 0 0.0826238830503628 0.159121166489946 0.476561105831079 -0.92633284516642 0.29665478031638 0.628246633669814 0.349403208734368 0 0 0 0 0 0 0 0 0 0 0 0
0 0 0 0 0 0 0 0 0 0 0.146058101519115 0.698620964222518 0.168375319245717 0.237011140130132 0 1.02277297640016 0.275781779274018 0 0 0 0 0 0 0 0 0 0 0 0 0 0 0 0 0 -1.47429581934968 -0.92633284516642 0 0 0 0 0 0 0 0 0 0 0 0 -2.71150342595239 -1.10116271124272
0 0 0 0 0 0 0 0 0 0 0 0 0 0 0 0 0 0 0 0 0 0 0 0 0 0 0 0 0 0 0 0 0 0 -3.07252901832229 0 -0.92633284516642 0 0 0 0 0 0 0 0 0 0 0 0 0
0.309866451193349 0 0.232303302759427 0.058996524351467 0 0 0.0539261073677337 0 0 0 0 0 0 0 0 0 0 0 0 0 0 0 0 0 0 0 0 0 0 0 0 0 0 0 -1.74729134796327 0 0 -0.92633284516642 0 0 0 0 0 0 0 0 0 0 0 -0.590163051600774
0 0 0 0 0 0 0 0 0 0 0 0 0 0 0 0 0 0 0 0 0 0 0 0 0 0 0 0 0 0 0 0 0 0 0 0 0 0 -0.92633284516642 0 0 0 0 -2.10394441991582 0 0 0 0 0 -2.48835139165626
0 0 0 0 0 0 0 0 0 0 0 0 0 0 0 0 0 0 0 0 0 0 0 0 0 0 0 0 0 0 0 0 0 0 0 0 0 0 0 -0.92633284516642 0 0 0 -7.78647550376943 0 0 0 0 0 0
0 0 0 0 0 0.197447348757464 0.59482042909063 0 0 0 0 0 0 0 0 0 0 0 0 0 0 0 0 0 0 0 0 0 0 0 0 0 0 0 0 0 0 0 0 0 -0.92633284516642 0 0 0 0 0 0 0 0 -1.58527647347668
0 0 0 0 0 0 0 0 0 0 0.0823039336521532 0 0.257592842544489 0.52626803705446 0 0 0 0 0 0 0 0 0 0 0 0 0 0 0 0 0 0 0 0 0 0 0 0 0 0 0 -0.92633284516642 0 0 0 0 0 0 0 0
0 0 0 0 0 0 0 0 0 0 0 0 0 0 0 0 0 0 0.776891295401807 0.0839589999528997 2.04234839665956 0 0.203670835750247 0 0.120897768559737 0 0.576286136093472 0 0 0 0 0 0 0 0 0 0 0 0 0 0 0 -0.92633284516642 0 0 0 0 0 0 -1.30910348431923
0 0 0 0 0 0 0 0 0 0 0 0 0 0 0 0 0 0 0 0 0 0 0 0 0 0 0 0 0 0 0 0 0 0 0 0 0 0 0.399954323002289 1.41233682105004 0 0 0 -0.92633284516642 0 0 0 0 0 -0.242715522222874
0 0 0 0 0 0.864145856112807 0.265311474072999 0 0 0 0 0 0 0 0 0 0 0 0 0 0 0 0 0 0 0 0 0 0 0 0 0 0 0 0 0 0 0 0 0 0 0 0 0 -0.92633284516642 0 -4.68985996644607 0 0 -0.655840780097356
0 0 0 0 0 0 0 0 0 0 0 0 0 0 0 0 0 0 0 0 0 0 0 0 0 0 0 0 0 0 0.217436671350985 0 0 0 0 0 0 0 0 0 0 0 0 0 0 -0.92633284516642 -0.578015525744982 0 0 -0.62676864269884
0 0 0 0 0 0 0 0 0 0 0 0 0 0 0 0 0 0 0 0 0 0 0 0 0 0 0 0 0 0 0 0 0 0 0 0 0 0 0 0 0 0 0 0 0.986761292133397 0.122540128621973 -0.92633284516642 0 0 0
0 0 0.262805454925903 0.143283758394292 0 0.382903883700337 0 0 0.021687523633586 0 0.359163714880582 0.0390296793455457 0.0631587244871296 0.168137873550919 0 0 0 0 0.0854389484471548 0.121624610255865 0.127179082397656 0.0914133936481161 0.348552032061425 0 0 0.454605349693576 0 0.165188088636355 0.183914830346238 0 0 0.0601554466928375 0 0 0 0 0 0 0 0 0 0 0 0 0 0 0 -0.92633284516642 0 -0.305120642815937
0 0 0 0 0 0 0 0 0 0 0 0 0 0 0 0 0 0 0 0 0 0.069572948298611 0.154076674876318 0.162466260851071 0.028496958309756 0.136074402697568 0.684271180571312 0.116296359516614 0 0.558617025193011 0.132975325901868 0 0.311247493484886 0.15316140710907 0 0.535453203602324 0 0 0 0 0 0 0 0 0 0 0 0 -0.92633284516642 -1.93588158472786
0 0 0 0 0 0 0 0 0 0 0 0 0 0 0 0 0 0 0 0 0 0 0 0 0 0 0 0 0 0.0251504808273464 0 0 0.188941461860712 0.0263370409596762 0 0.220228379810194 0 0.113272780614724 0.504221471588326 0 0.307422909226517 0 0.268513756670557 0.0494501592041519 0.129058910613968 0.131636526099886 0 0.0604974581853465 0.392256631671432 -0.92633284516642
