3.71539334281997
1.97602107680282
0.676935211806223
1.52592946287849
0.402711261846251
0.535504522397296
1.68814280287918
0.605925425350238
0.234719076446526
0.348096060305653
0.0843201540451737
0.436766375728127
1.89926893374891
0.0791035295018992
3.54595499223588
0.638725500751831
0.943178601061323
1.0516323389292
0.941371848457807
0.612133102835333
1.25449830453484
0.910141896997059
4.28311384600553
0.223804611618362
1.19846077400004
0.645531655791073
1.51020110422583
1.48704024456635
3.33998258766454
0.296427853559291
0.22196137160427
1.92056061445416
0.998934069001427
0.322539453739244
2.75874127277699
1.9010947847658
1.39489675058581
0.598248442349801
4.03683751793873
0.370557680796616
3.80321648609234
4.27840587854544
2.1637692617067
4.36877163079731
1.13015892667513
0.244634350994947
1.03760966097093
0.225887561985112
0.574161195783258
0.139024762993053
