0 0 0 0 0 0 -2.43264134102066 0 0 0 0 0 0 0 0 0 0 0 0 0 0 0 0 0 0 0 0 0 0 0 0 0 0 0 0 0 0 0 0 0 0 0 0 0 0 0 0 0 0 0
0 0 -0.320450617100232 0 0 0 -0.283393889473326 0 0 0 0 0 0 0 0 0 0 0 0 0 0 0 0 0 0 0 -5.171677080808 0 0 0 0 0 0 0 0 0 0 0 0 0 0 0 0 0 0 0 0 0 0 0
0 0.0679304670950727 0 -1.51557642251269 0 0 -0.242478790129161 0 0 0 0 0 0 0 0 -1.66808311028429 0 0 0 0 0 0 0 0 0 0 0 0 0 0 0 0 0 0 0 0 0 0 0 0 0 0 -2.32939334447384 0 0 0 0 0 0 0
0 0 0.305061995228953 0 0 0 0 0 0 0 0 0 0 0 0 0 0 0 0 0 0 0 0 0 0 0 -1.09118364007204 0 0 0 0 0 0 0 0 0 0 0 0 0 0 -0.377131687697845 -0.68909742998286 0 0 0 0 0 0 0
0 0 0 0 0 0 0 0 0 0 0 0 0 0 0 -1.3195275725356 0 0 0 0 0 0 0 0 0 0 -0.467248165315643 0 0 0 0 0 0 0 0 0 0 0 0 0 0 -0.507698764438792 0 0 0 0 0 0 0 0
0 0 0 0 0 0 0 0 0 0 0 0 0 0 0 -1.00541224454258 0 0 0 0 0 0 0 0 0 0 -0.951210891855166 0 0 0 0 0 0 0 0 0 0 0 0 0 0 0 0 0 0 0 0 0 0 0
0.49302781977854 0.0562930204179908 0.0463480926950056 0 0 0 0 0 0 0 0 0 -2.57274676025073 0 0 0 0 0 0 0 0 0 0 0 0 0 0 0 0 0 0 0 0 0 0 0 0 0 0 0 0 0 -5.51229757206107 0 0 0 0 0 0 0
0 0 0 0 0 0 0 0 0 0 0 0 0 0 0 0 0 0 0 0 0 0 0 0 0 0 0 0 0 0 0 0 0 0 0 0 0 0 0 0 0 0 -0.514266193862631 0 0 0 0 0 0 0
0 0 0 0 0 0 0 0 0 0 0 0 0 0 -1.12467376606885 0 0 0 0 0 0 0 0 0 0 0 0 0 0 0 0 0 0 0 0 0 0 0 0 0 0 0 0 0 0 0 0 0 0 0
0 0 0 0 0 0 0 0 0 0 0 0 0 0 0 0 0 0 0 0 0 0 0 0 -2.336330141185 -0.110672927994755 0 -0.968001235674398 0 0 0 0 0 0 0 0 0 0 0 0 0 0 -0.251682657642887 0 0 0 0 0 0 0
0 0 0 0 0 0 0 0 0 0 0 0 0 0 0 0 0 0 0 0 -4.12621586565495 0 0 0 0 -0.17396503236938 0 0 0 0 0 0 0 0 0 -0.814747765632679 0 -0.188692126124658 0 0 0 0 0 0 0 0 0 0 0 0
0 0 0 0 0 0 0 0 0 0 0 0 0 0 0 0 0 0 0 0 -1.87789335880183 0 0 0 0 0 0 0 0 0 0 0 0 0 0 -1.11990235866943 0 0 0 0 0 0 0 0 0 0 0 0 0 0
0 0 0 0 0 0 0.533027539718862 0 0 0 0 0 0 0 0 0 0 0 0 0 0 0 0 0 0 0 0 0 0 0 0 0 0 0 0 -0.401481166688896 0 0 0 0 0 0 -0.282467409799691 0 0 0 0 0 0 0
0 0 0 0 0 0 0 0 0 0 0 0 0 0 0 0 0 -0.610397846575335 0 0 0 -0.50865692377917 0 0 0 0 0 0 0 0 0 0 0 0 0 0 0 0 0 0 0 0 -0.850835745120974 0 0 0 0 0 0 0
0 0 0 0 0 0 0 0 0.213158837451906 0 0 0 0 0 0 0 0 0 0 0 0 -1.68205205396573 0 0 0 0 0 -0.242760491320744 0 0 0 -0.76434557975126 0 0 0 -1.20469878522571 0 0 0 0 0 0 -0.407023676399669 0 0 0 0 0 0 0
0 0 0.358090579166302 0 0.256873737417125 0.203075498048524 0 0 0 0 0 0 0 0 0 0 0 0 0 0 0 -2.08546796813763 0 0 0 0 0 -1.25100529106806 0 0 0 -0.299908047151509 0 0 0 -0.561711878505974 0 0 0 0 0 0 -0.719970166531748 0 0 0 0 -3.42075618539596 0 0
0 0 0 0 0 0 0 0 0 0 0 0 0 0 0 0 0 -1.05091898487634 0 0 0 0 0 0 0 0 0 0 -3.11107503569531 0 0 -0.787644744436877 0 0 0 -0.163751804495468 0 0 0 0 0 0 0 0 0 0 0 -1.88629761276704 0 0
0 0 0 0 0 0 0 0 0 0 0 0 0 0.125574945565893 0 0 0.203908011600858 0 0 0 0 0 0 0 0 0 0 -0.287701008916479 0 0 0 0 0 0 0 0 0 0 0 0 -0.457499822169108 0 -4.05844232552047 0 0 -1.89133120758319 0 -1.65340756677433 0 0
0 0 0 0 0 0 0 0 0 0 0 0 0 0 0 0 0 0 0 0.300366290323555 0 0 0 0 0 0 0 0 0 0 0 0 0 0 0 0 0 0 0 0 0 0 0 0 0 0 0 0 0 0
0 0 0 0 0 0 0 0 0 0 0 0 0 0 0 0 0 0 -1.58330040638262 0 0.289688567113086 0 0 0 0 0 0 0 0 0 0 0 0 0 0 0 0 0 0 0 0 0 -0.251704842674772 0 0 0 0 -0.820156243974604 0 0
0 0 0 0 0 0 0 0 0 0 0.816792242682241 0.374125400436723 0 0 0 0 0 0 0 -1.47146911875876 0 -0.773048686637265 0 0 0 0 0 0 0 0 0 0 0 0 0 0 0 0 -0.376639132443468 0 -0.8641781103207 0 0 0 0 0 0 0 0 0
0 0 0 0 0 0 0 0 0 0 0 0 0 0.0974304445202392 0.344834305596517 0.404169736275464 0 0 0 0 0.147796374981212 0 0 0 0 0 0 0 -0.26767073781405 0 0 0 0 0 0 0 0 0 -0.303464039877699 0 0 0 0 0 0 0 0 -0.490462630051704 0 0
0 0 0 0 0 0 0 0 0 0 0 0 0 0 0 0 0 0 0 0 0 0 0 0 0 0 0 0 0 0 0 0 0 0 0 0 0 0 -0.651941305010514 0 0 0 -0.155819869286255 0 0 0 0 0 0 0
0 0 0 0 0 0 0 0 0 0 0 0 0 0 0 0 0 0 0 0 0 0 0 0 0 0 0 0 0 -1.9185785887744 0 0 0 0 0 0 0 0 -1.11620377494023 0 -1.32187480976438 0 0 0 0 0 0 0 0 0
0 0 0 0 0 0 0 0 0 0.529174405292171 0 0 0 0 0 0 0 0 0 0 0 0 0 0 0 0 0 0 -1.26853727967527 -0.404283868025865 0 0 0 0 0 0 -0.207789736644189 0 0 0 0 0 0 0 0 0 0 -0.888737971737928 0 0
0 0 0 0 0 0 0 0 0 0.024276035280592 0.0344952169483629 0 0 0 0 0 0 0 0 0 0 0 0 0 0 0 0 0 -0.206153686443509 -0.400040577606912 0 0 0 0 0 0 -3.58023700883404 0 -0.872620978723497 0 -1.28330001040089 0 0 0 0 0 0 0 0 0
0 1.0059324864012 0 0.216505959366902 0.101015537061395 0.195052387661393 0 0 0 0 0 0 0 0 0 0 0 0 0 0 0 0 0 0 0 0 0 0 0 0 0 0 0 0 0 0 0 0 0 0 0 0 -0.68956735319661 0 0 0 0 -0.409014061893081 0 0
0 0 0 0 0 0 0 0 0 0.195510852666774 0 0 0 0 0.0483569052190708 0.260165110414481 0 0.0576120990128061 0 0 0 0 0 0 0 0 0 0 0 0 0 0 0 0 0 0 0 0 0 0 0 0 0 0 0 0 -0.684397615005613 0 0 0
0 0 0 0 0 0 0 0 0 0 0 0 0 0 0 0 0.611302961495206 0 0 0 0 0.0524935877394775 0 0 0.26273541913318 0.0392312562172177 0 0 0 0 0 0 0 0 0 0 0 0 0 0 0 0 0 -0.192330765426477 0 0 0 -0.753939804850633 0 0
0 0 0 0 0 0 0 0 0 0 0 0 0 0 0 0 0 0 0 0 0 0 0 0.415594237986021 0.0822685954911158 0.0819461645640064 0 0 0 0 0 0 0 0 -2.96231373718983 0 0 0 0 0 0 0 0 0 0 0 0 -0.4783951820705 0 0
0 0 0 0 0 0 0 0 0 0 0 0 0 0 0 0 0 0 0 0 0 0 0 0 0 0 0 0 0 0 0 0 0 0 0 0 0 0 0 -5.82741665467041 0 0 0 -0.353134934274005 0 0 0 -2.09538713875728 0 0
0 0 0 0 0 0 0 0 0 0 0 0 0 0 0.156062707848431 0.0588241452012313 0.160632007968173 0 0 0 0 0 0 0 0 0 0 0 0 0 0 0 0 0 0 0 0 0 0 0 0 0 0 0 0 0 0 0 0 0
0 0 0 0 0 0 0 0 0 0 0 0 0 0 0 0 0 0 0 0 0 0 0 0 0 0 0 0 0 0 0 0 0 0 0 0 0 0 0 0 0 0 0 -6.8358101515311 0 0 0 0 -0.738085649386149 0
0 0 0 0 0 0 0 0 0 0 0 0 0 0 0 0 0 0 0 0 0 0 0 0 0 0 0 0 0 0 0 0 0 0 0 0 0 0 0 0 0 0 0 0 -0.600347276602588 0 0 0 0 0
0 0 0 0 0 0 0 0 0 0 0 0 0 0 0 0 0 0 0 0 0 0 0 0 0 0 0 0 0 0.558955503832613 0 0 0 0 0 0 0 0 0 0 0 0 0 -0.674218853879971 0 0 0 -2.0083853361095 0 0
0 0 0 0 0 0 0 0 0 0 0.185951853104809 0.234786917763019 0.0767164944202627 0 0.242600440564855 0.111248856452536 0.0296924736757129 0 0 0 0 0 0 0 0 0 0 0 0 0 0 0 0 0 0 0 0 0 0 0 0 0 0 0 -3.94294275143285 0 0 0 -0.795075360385435 0
0 0 0 0 0 0 0 0 0 0 0 0 0 0 0 0 0 0 0 0 0 0 0 0 0.04148499103842 0.723642687225055 0 0 0 0 0 0 0 0 0 0 0 0 0 0 0 0 0 -2.70231388145839 -0.422382840731317 0 0 0 0 0
0 0 0 0 0 0 0 0 0 0 0.038234695294581 0 0 0 0 0 0 0 0 0 0 0 0 0 0 0 0 0 0 0 0 0 0 0 0 0 0 0 0 0 0 0 0 0 -0.212429512355386 0 0 0 0 0
0 0 0 0 0 0 0 0 0 0 0 0 0 0 0 0 0 0 0 0 0.0740179338050858 0.0564866646492306 0.128233753684591 0.222433998806943 0 0.186149441469922 0 0 0 0 0 0 0 0 0 0 0 0 0 0 0 0 0 0 -0.118629123962358 0 0 0 -2.02633366620591 0
0 0 0 0 0 0 0 0 0 0 0 0 0 0 0 0 0 0 0 0 0 0 0 0 0 0 0 0 0 0 1.11824674166468 0 0 0 0 0 0 0 0 0 0 0 0 0 0 0 0 0 0 0
0 0 0 0 0 0 0 0 0 0 0 0 0 0 0 0 0 0.0884289761735133 0 0 0.164147691198279 0 0 0.270128989739736 0 0.246735384387159 0 0 0 0 0 0 0 0 0 0 0 0 0 0 0 0 0 -1.59072825030306 -1.6294528245744 0 0 0 0 -2.04564682684846
0 0 0 0.0789897493427982 0.103597170922572 0 0 0 0 0 0 0 0 0 0 0 0 0 0 0 0 0 0 0 0 0 0 0 0 0 0 0 0 0 0 0 0 0 0 0 0 0 0 -1.15747395557291 -1.44442615513771 0 0 0 0 0
0 0 0.509483781657725 0.13422988950854 0 0 1.00790807939079 0.0902526537361821 0 0.0524378532526382 0 0 0.0512053549843174 0.175818648842759 0.0837290017155491 0.141266724541715 0 0.784179281096348 0 0.0510958663501186 0 0 0.0322165793407779 0 0 0 0.13110361532772 0 0 0 0 0 0 0 0 0 0 0 0 0 0 0 0 -1.30405765039187 -0.605249512046519 0 0 0 0 0
0 0 0 0 0 0 0 0 0 0 0 0 0 0 0 0 0 0 0 0 0 0 0 0 0 0 0 0 0.0395328173539347 0 0.0697879661778965 0 1.34118765722003 0 0.127323483176854 0 0.557776320256896 0 0 0 0.339089312207029 0.239331682596999 0.279246946090167 0 -2.46536307524713 0 0 0 -0.261733080756801 0
0 0 0 0 0 0 0 0 0 0 0 0 0 0 0 0 0 0 0 0 0 0 0 0 0 0 0 0 0 0 0 0 0 0.117883059411547 0 0.840542496207329 0.0824377902824492 0.0447180698237319 0.024309032129356 0 0.294791207402927 0.302573016892125 0.113615069256932 0.49959796205522 0 0 0 0 -0.240980469612149 0
0 0 0 0 0 0 0 0 0 0 0 0 0 0 0 0 0 0.367520545775771 0 0 0 0 0 0 0 0 0 0 0 0 0 0 0 0 0 0 0 0 0 0 0 0 0 0 0 0 0 0 0 0
0 0 0 0 0 0 0 0 0 0 0 0 0 0 0 0 0 0 0 0 0 0 0 0 0 0 0 0.143083426815376 0 0 0 0 0 0 0 0 0 0 0 0 0 0 0 0 0 0 0 0 0 -0.744505169264469
0 0 0 0 0 0 0 0 0 0 0 0 0 0 0 0.653352332399249 0.398829177919154 0.33204132833627 0 0.157415109309461 0 0.0918862586693455 0 0 0.180177536969727 0 0.0865982597068245 0 0.137957108109443 0.0899710128849035 0.41204329397413 0 0 0 0.430144287194556 0 0 0 0 0 0 0 0 0 0 0 0 0 0 -0.286029911240303
0 0 0 0 0 0 0 0 0 0 0 0 0 0 0 0 0 0 0 0 0 0 0 0 0 0 0 0 0 0 0 0 0.156138668861699 0 0 0.157125267220777 0 0 0.41486897583646 0 0 0 0 0.0515380329201197 0.0493093347953503 0 0 0 0 0
0 0 0 0 0 0 0 0 0 0 0 0 0 0 0 0 0 0 0 0 0 0 0 0 0 0 0 0 0 0 0 0 0 0 0 0 0 0 0 0 0.425747602345628 0 0 0 0 0 0.14559630195555 0.0554766175966453 0 0
