0.596905881411277
1.25778564549979
1.34450716306294
1.17436536690641
0.0235967471846371
0.642006774338174
2.55674653869484
3.11262582607683
0.395784468759371
1.71733941702897
0.0815335953178988
0.399954660525078
1.44102843490697
0.23217788070202
2.85876674187791
0.918709105833236
2.47386649119095
3.27735012062346
0.298389463167532
0.524688280688322
0.568223520418812
0.196758608154146
0.136272385731548
0.191023635234421
2.47670082670827
0.0720274108951817
0.702196678130755
2.3513820417658
0.111437376222115
3.9849665180943
0.131323325614567
1.89252348396461
0.693512064327868
0.24421140120697
0.488830728124148
0.503123821912642
0.437798267861783
0.0992818357279263
0.0210270731947403
0.41305224768332
0.445635535073779
1.3213209511616
0.235930199263003
2.52179126191314
0.0614473160433004
1.48557595755578
0.187299421747867
0.986567203289358
0.296419393663728
0.150163235978819
