1.22913019639312
0.390902051471459
0.799917048209901
4.55653831977635
0.903325159205635
1.25048356666028
2.0736624998203
0.338307207542349
0.233103591312017
0.56840457179209
0.257380904792304
0.356208717917359
0.436386467102883
0.578131505030858
0.376803117135097
0.452310536706806
0.548547578685199
1.57830929559345
0.414237819223513
1.53657377023339
0.933577864500711
0.651670681343124
0.791288883528388
2.3463619872083
2.99043178119951
0.356907715116698
0.484692427527148
0.952535924064378
0.598336810928253
0.253305006180765
1.19244540288967
0.856940552305865
2.75362531416589
1.22077510844651
0.465940060152215
1.79525707909445
0.63216046947396
2.41640473995026
0.606963037039
5.15024913294736
3.14559988260755
1.93066495271848
2.23707527632004
0.766961610436439
5.42343768416213
0.459885332542648
1.19629635941171
3.51947457217413
5.12885423033079
0.611486413537562
