0.591977502199128
2.25739610866135
2.56360382756464
1.31448288233771
0.872188006667339
0.457750837725943
2.09596090786053
0.197007908317671
0.381922969826159
1.00124792505158
2.17830364915281
0.22656781521256
0.395825181250214
0.618904223646051
3.6852029683382
0.216880961711188
1.20181852168378
0.539716570055777
0.784161160082365
1.74483621773972
0.567824106003973
0.753814529653043
0.728390928071732
4.06355577244507
0.696122207123849
0.0996850352555131
2.30239204323124
3.26239519333415
0.739201030014638
0.0737451863243873
0.291768677500462
1.23146648831738
0.172907841758952
0.482758577935346
0.536595902803428
0.526489901457305
0.20914443562684
0.0694826503045162
0.152201879851038
0.296886161479094
0.797167039004976
0.776563484449235
0.0496683105908582
1.38989860157018
0.61043286859172
1.34391488683165
0.160817623278703
2.45010598762096
0.991878803324815
0.0465711024998323
