1.83193781518139
0.0674043375348396
0.877072418414413
0.401262928838738
0.108950625121901
1.02011046636384
0.304930599211484
0.969249806336018
0.361277716133186
0.217735081059254
0.694462598025827
0.0469921947880472
0.997530170691598
0.797375601975896
0.951764358640955
3.19482494611413
0.224748711493822
0.167621027685832
0.493862517695594
0.285944459206915
3.91089311732024
3.247406574077
0.256662226086522
1.00288826616741
0.463251367888186
1.59084363372838
0.485279147111951
2.42303377761956
0.188239247065833
0.309999010637658
2.01289351731684
1.23500194066168
0.780781222925989
0.400411060721971
1.07884032095508
2.81137879087341
1.72138159785976
0.840104647983998
2.63373629278072
0.0714166956628231
0.706979471062907
0.566502898664373
0.178514526967011
0.177516446546967
0.127959315907479
2.92623332930053
2.33879013904297
6.70879193764068
1.29796147137635
0.0402943439049257
