0.25412797590594
2.53080053758782
0.542338054035002
0.201488408818856
0.0263303783873202
1.15527995655453
0.319084640537824
1.81001531560309
1.62232411029915
1.34209117884085
0.354615861515606
0.228461617422741
0.730204959776333
1.99783804163121
1.05775317911549
0.496123728094587
4.11564506135161
0.192054595195409
0.845464700991586
0.45479264434417
0.163564700557452
0.744410071618884
0.132190908905949
0.279397224542158
0.368182910010212
3.17335320328848
0.37486313185068
1.08666898820638
0.332189647042004
3.84544351366197
2.16761818058023
1.42144639967405
2.0426870167854
0.952683825861852
0.524692582877895
2.37310696489954
0.4341408545268
0.542959023575424
1.45983122595705
4.1156496825716
1.526143464736
0.325588273863295
0.997726864647726
1.21766734945603
0.459397542513859
0.407711437324694
1.63734915398473
3.52272456361002
4.1693424763272
0.587818038648351
