0.296758697758163
0.253651341308129
0.476718232156081
0.495953956266715
0.501464149415528
0.00771923532006934
0.167523469159887
0.524132424506196
0.139269253511243
0.125265274027743
0.659426274534342
0.482503925114774
1.16308497105459
0.0683128602593988
1.39820843921625
0.0299735233879702
0.787591106147758
0.58956145499981
1.50137349540858
0.782507115349758
0.0392695315018241
1.17906537006063
2.02139520716074
1.2279137316439
0.825891735940109
0.284036493465905
0.15638237470668
0.451875977010128
1.86338658922821
0.685282831554951
0.4300877258632
0.236353986477265
0.0318617418134717
0.142275000296356
0.237234495248176
0.153827709359981
0.0912603283296888
0.00810858445692187
0.360822695569552
2.95318855972634
0.383741871291517
1.93672306971285
2.58665232907346
2.23884456433476
1.23796585141732
0.25899880252254
0.06059477207824
4.11634998144888
0.140159360035396
3.54234127681332
