1.14690623129038
0.935195303860736
0.696875733196553
0.365187662058096
0.215205893039444
1.00173218224283
0.483985319017807
0.492187084269957
0.338140688643531
1.39302695280492
0.506967421797745
0.238842553827446
0.56801345170372
0.879463968947155
0.586881585691782
1.05049551578879
0.584265039106286
0.551442594940965
2.59649443141158
1.40901900014159
0.504210494478802
1.0012954069252
0.643499070095552
1.91770628067544
1.81014306175929
0.588397748594419
3.20783684931411
0.290739694859428
0.109288373877591
2.88346513956039
0.514305220764046
1.01817336018493
0.489350640339118
0.46550940229269
0.360095936701704
0.293534522902136
0.319251311703565
1.17878547080992
1.26023909011859
2.24849422784517
2.49932047968306
2.52402657567687
0.679525563716613
0.484691638835101
1.28771225665528
1.6933824848481
0.969987022230654
0.823962641019443
1.3047027573885
1.0810416704742
