1.05373064747929
0.149471278273934
0.283296876023375
1.05940214273421
0.363003877422655
0.164024131248129
0.0618818674845727
0.0625040027454947
1.55575504193262
1.08502007288171
1.10738033248882
0.423642218174412
0.557590202704557
0.386300208927408
0.281894339940271
2.60614102301146
0.178839609918969
0.146594469213073
3.45626674895122
0.514710740264067
0.12886512279996
0.366690771852695
0.0635813851696052
0.839139250418686
0.178645432877083
0.285625052569254
0.351828975437796
0.0323888853628865
0.20207263343024
0.298215768029774
0.597129232606529
0.87391776129078
0.758436727408565
0.353375993564481
0.443436180270294
0.298568229821076
0.13079652984848
1.63313844314501
0.0904321339249003
1.35676650193718
0.166182271946546
1.06997962205304
6.58865821703314
0.00493586160440494
2.19279376827677
0.128310542568817
0.428468569760494
0.340275900562433
0.120339181774532
0.154414093076743
