0 -3.54721156915078 0 0 0 0 0 0 0 0 0 0 0 0 -0.471183565063019 0 0 0 0 0 0 0 0 0 0 0 0 0 0 0 0 0 0 0 0 0 0 0 0 0 0 0 0 0 0 0 0 0 0 0
0.708104213780875 0 0 0 0 0 0 0 0 0 0 0 0 0 -0.168759594099906 0 0 0 0 0 0 0 0 0 0 0 0 0 0 0 0 0 0 0 0 0 0 0 0 0 0 0 0 0 0 0 0 0 0 0
0 0 0 0 0 0 0 0 0 0 -0.38253333242943 0 0 -5.8044515223289 -1.12668129579808 0 0 0 0 0 0 0 0 0 0 0 0 0 0 0 0 0 0 0 0 0 0 0 0 0 0 0 0 0 0 0 0 0 0 0
0 0 0 0 0 0 0 -9.60785971333809 0 0 0 0 0 0 0 0 0 0 0 0 0 0 -3.76389709614373 -5.17379989689166 0 0 0 -1.20852451870597 0 0 0 0 0 0 0 0 0 0 0 0 0 0 0 0 0 0 0 0 0 0
0 0 0 0 0 0 -8.51151600273318 0 0 0 0 0 0 0 0 0 0 0 -0.354188781669012 0 0 0 0 -2.84934640213687 0 0 0 0 0 0 0 -0.597283064988189 0 0 0 0 0 0 0 0 0 0 0 0 0 0 0 0 0 0
0 0 0 0 0 0 -0.93453426636559 -0.19357063654334 0 0 0 0 0 0 0 0 0 0 -0.706555881548979 0 0 0 -4.20103639178685 0 0 0 0 -0.897068655309132 0 0 0 -3.57827785017615 0 0 0 0 0 0 0 0 0 0 0 0 0 0 0 0 0 0
0 0 0 0 1.66792091727453 0.1874719356878 0 0 -1.40628251671546 0 0 0 0 0 0 0 0 0 -0.113891410293292 0 0 0 0 0 0 0 0 -0.306588919252812 0 0 0 -0.578950095769769 0 0 0 0 0 0 0 0 0 0 0 0 0 0 -0.618799063180034 0 0 0
0 0 0 1.87074555479885 0 0.0367086329350753 0 0 0 0 0 0 0 0 0 0 0 0 0 0 0 0 -2.12490528280663 0 0 0 0 -1.61429058188913 0 0 0 -0.474678860308166 0 0 0 0 0 0 0 0 0 0 0 0 0 0 -1.43384929490694 0 0 0
0 0 0 0 0 0 0.252428297346792 0 0 0 0 0 0 0 0 0 0 0 0 0 0 0 0 0 0 0 0 -2.77757879237333 0 0 0 0 0 0 0 0 0 0 0 0 0 0 0 0 0 0 -0.701395314015299 0 0 0
0 0 0 0 0 0 0 0 0 0 0 0 0 0 0 0 0 0 -0.912722318060515 0 0 0 0 0 0 0 0 -0.109330878806036 0 0 0 -0.7905569223796 0 0 0 0 0 0 0 0 0 0 0 0 0 0 -4.54137900444873 0 0 0
0 0 0.0861932150308921 0 0 0 0 0 0 0 0 0 0 0 0 0 0 0 0 0 0 0 0 0 0 0 0 0 0 0 0 0 0 0 0 0 0 0 0 0 0 0 0 0 0 0 0 0 0 0
0 0 0 0 0 0 0 0 0 0 0 0 0 0 0 0 0 0 0 0 0 0 0 0 0 0 0 0 0 0 0 -1.71945791807112 0 0 0 0 0 0 0 0 0 0 0 0 0 0 -1.01585454724668 0 0 0
0 0 0 0 0 0 0 0 0 0 0 0 0 0 0 0 0 -1.77674262525104 0 0 0 0 0 0 0 0 0 -1.14692542661621 0 0 0 0 0 0 0 0 0 0 0 0 0 0 0 0 0 0 0 0 0 0
0 0 1.21023278741457 0 0 0 0 0 0 0 0 0 0 0 0 0 0 0 0 0 0 0 0 0 0 0 -0.272803783037043 0 -2.10071320385633 0 0 0 0 0 0 0 0 0 0 0 0 0 0 0 0 0 0 0 0 0
0.0867368110516065 0.0333470704663841 0.211312825584342 0 0 0 0 0 0 0 0 0 0 0 0 0 0 -0.751416580049474 0 0 0 0 0 0 0 0 0 0 -3.38596967400575 0 0 0 0 0 0 0 0 0 0 0 0 0 0 0 0 0 0 0 0 0
0 0 0 0 0 0 0 0 0 0 0 0 0 0 0 0 0 0 0 0 0 0 0 0 0 0 0 0 0 0 0 0 0 0 0 0 0 0 0 0 0 0 0 0 0 0 -0.842179367320542 0 0 0
0 0 0 0 0 0 0 0 0 0 0 0 0 0 0 0 0 0 0 0 0 0 0 0 0 0 0 0 0 0 0 0 0 0 0 0 0 0 0 0 0 0 0 0 0 0 -1.03787050370155 0 0 0
0 0 0 0 0 0 0 0 0 0 0 0 0.331342541774658 0 0.148059616561262 0 0 0 0 0 0 0 0 0 0 0 0 0 0 0 0 0 0 -0.86884200267113 0 0 0 0 0 0 0 0 0 0 0 0 0 0 0 0
0 0 0 0 0.0755058481952993 0.147860480146215 0.0213088718201102 0 0 0.17863639034989 0 0 0 0 0 0 0 0 0 0 0 0 0 0 0 0 0 0 0 0 0 0 0 -0.103664779859085 0 0 -1.85657610443048 0 0 0 -2.70201843469119 0 0 0 0 0 -0.824177412883285 0 0 0
0 0 0 0 0 0 0 0 0 0 0 0 0 0 0 0 0 0 0 0 0 0 0 0 0 0 0 0 0 0 -3.1941658156434 0 0 -0.697207936486013 0 0 -0.179515360074367 0 0 0 0 0 0 0 0 0 0 0 0 0
0 0 0 0 0 0 0 0 0 0 0 0 0 0 0 0 0 0 0 0 0 0 0 0 0 0 0 0 0 0 -0.436849889497752 0 0 0 0 0 -0.511069937184731 0 0 0 0 0 0 0 0 0 -1.43837885056415 0 0 0
0 0 0 0 0 0 0 0 0 0 0 0 0 0 0 0 0 0 0 0 0 0 0 0 0 0 0 0 0 0 0 0 0 0 0 0 -0.998804027044215 0 0 0 0 0 0 0 0 0 -1.61446320750118 0 0 0
0 0 0 0.694108669342632 0 0.841206946352708 0 0.425393922008255 0 0 0 0 0 0 0 0 0 0 0 0 0 0 0 0 0 0 0 0 0 0 0 0 0 0 0 0 0 0 0 0 0 0 0 0 0 0 -3.07444418343505 0 0 0
0 0 0 1.09190381870383 0.555913165190468 0 0 0 0 0 0 0 0 0 0 0 0 0 0 0 0 0 0 0 0 0 0 0 0 0 -1.08300235088614 0 0 -0.617968341069902 0 0 0 0 0 0 -8.30940064918147 0 0 0 0 0 0 0 0 0
0 0 0 0 0 0 0 0 0 0 0 0 0 0 0 0 0 0 0 0 0 0 0 0 0 0 0 0 0 0 -0.389414675611229 0 0 -0.265610949180634 0 0 -0.421651278857487 0 0 0 0 0 0 0 0 0 -2.18050525552909 0 -1.32839831143696 0
0 0 0 0 0 0 0 0 0 0 0 0 0 0 0 0 0 0 0 0 0 0 0 0 0 0 0 0 0 -0.532658486943672 -1.34244203764511 0 0 -1.17502554735379 0 0 0 -1.04606821655134 0 0 -0.49958571679412 0 0 0 0 0 -4.24684619861555 0 -1.36816330083706 0
0 0 0 0 0 0 0 0 0 0 0 0 0 0.0540802209142101 0 0 0 0 0 0 0 0 0 0 0 0 0 0 0 -3.89724296673831 0 0 0 -0.570487359331663 -2.37379001967252 0 0 -5.09082339559502 0 0 0 0 0 0 0 0 -0.685813267918457 -1.70036043665474 0 0
0 0 0 0.241480453428391 0 0.193659346932709 0.0577599163616044 0.336451836563824 0.557707226592267 0.0209363194991729 0 0 0.241060455565061 0 0 0 0 0 0 0 0 0 0 0 0 0 0 0 0 0 0 0 0 0 0 -1.55093295940496 0 0 0 0 -0.144895664606297 0 0 0 0 0 0 -0.683866977349464 0 0
0 0 0 0 0 0 0 0 0 0 0 0 0 0.395178061657748 0.662501351434178 0 0 0 0 0 0 0 0 0 0 0 0 0 0 -0.423909513927031 0 0 0 -1.69713602347085 0 -0.305794461125548 0 0 0 -0.415710934146551 0 0 0 0 0 0 0 0 -1.33950739339459 0
0 0 0 0 0 0 0 0 0 0 0 0 0 0 0 0 0 0 0 0 0 0 0 0 0 0.109793591217083 0.751943622138744 0 0.0862366744955755 0 0 0 0 -1.18403901402088 0 -0.427269869643729 0 0 0 0 0 0 0 0 0 0 0 -0.244320540721671 -0.988445190961556 0
0 0 0 0 0 0 0 0 0 0 0 0 0 0 0 0 0 0 0 0.655665708573262 0.0879922758268339 0 0 0.224928275268364 0.0744376888664814 0.255103148933045 0 0 0 0 0 0 0 -1.91231479828087 -1.56243046113872 -0.297542001821613 0 0 0 0 0 0 0 0 0 0 0 0 -1.67157143914231 0
0 0 0 0 0.126132391473922 0.731974447143072 0.124287444858431 0.0995261280823319 0 0.16243061272637 0 0.375846645655897 0 0 0 0 0 0 0 0 0 0 0 0 0 0 0 0 0 0 0 0 0 0 0 -2.94396704184121 0 0 -0.314864265859727 0 0 0 0 0 0 0 0 0 0 0
0 0 0 0 0 0 0 0 0 0 0 0 0 0 0 0 0 0 0 0 0 0 0 0 0 0 0 0 0 0 0 0 0 0 -0.553202263192249 0 0 0 0 0 -0.662473923119735 0 -0.496104277176352 -0.38445513292126 0 0 0 0 0 0
0 0 0 0 0 0 0 0 0 0 0 0 0 0 0 0 0 0.183608677514563 0.0221570424018002 0.132226954115892 0 0 0 0.1195191160307 0.053185724300079 0.231431905591609 0.108815653828525 0 0.342186660629539 0.252219461238011 0.394810588239515 0 0 0 -2.56339038682272 0 0 0 0 -1.25028044271445 0 0 0 -0.197346107399265 0 0 0 0 0 0
0 0 0 0 0 0 0 0 0 0 0 0 0 0 0 0 0 0 0 0 0 0 0 0 0 0 0.443165513487267 0 0 0 0.312056539065018 0 0.112900557939822 0.493145998846715 0 0 0.138958021731977 0.20305283017374 0 0 0 0 0 -1.68566932510958 0 0 0 0 -1.72514428296513 0
0 0 0 0 0 0 0 0 0 0 0 0 0 0 0 0 0 0 0 0 0 0 0 0 0 0 0 0.292600091246519 0.0586927167768912 0.0839675728040716 0.0581831340626271 0.632324659348035 0 0 0 0 0 0 0 -2.55740897500867 0 0 0 0 0 0 0 0 -1.43731529421084 0
0 0 0 0 0 0 0 0 0 0 0 0 0 0 0 0 0 0 0.373350959384867 0.0341469847698178 0.100652548241754 0.191209839401547 0 0 0.0843812586401213 0 0 0 0 0 0 0 0 0 -0.657127602298269 0 0 0 0 0 0 0 0 0 0 0 0 0 0 0
0 0 0 0 0 0 0 0 0 0 0 0 0 0 0 0 0 0 0 0 0 0 0 0 0 0.214598443367969 1.05798166435996 0 0 0 0 0 0 0 -1.02262399514843 0 0 0 0 0 0 0 0 0 -1.4889635455304 0 0 0 0 0
0 0 0 0 0 0 0 0 0 0 0 0 0 0 0 0 0 0 0 0 0 0 0 0 0 0 0 0 0 0 0 0.061813542550506 0 0 0 0 0 0 0 0 0 0 0 0 0 0 0 0 -0.119048459121161 0
0 0 0 0 0 0 0 0 0 0 0 0 0 0 0 0 0 0 0 0 0 0 0 0 0 0 0 0 0.0805311941173816 0 0 0 0 0.26652221301551 0 0.521057493423684 0 0 0 0 0 0 0 0 -0.205728319337095 0 0 0 0 0
0 0 0 0 0 0 0 0 0 0 0 0 0 0 0 0 0 0 0.534207423591963 0 0 0 0 1.75891529776891 0 0.0953878207627524 0 0.0276599669293584 0 0 0 0 0.133812668124677 0 0 0 0 0 0 0 0 0 0 0 0 0 0 0 0 0
0 0 0 0 0 0 0 0 0 0 0 0 0 0 0 0 0 0 0 0 0 0 0 0 0 0 0 0 0 0 0 0 0 0 0 0 0 0 0 0 0 0 0 0 -2.28448126300734 -1.38499781964797 0 0 0 0
0 0 0 0 0 0 0 0 0 0 0 0 0 0 0 0 0 0 0 0 0 0 0 0 0 0 0 0 0 0 0 0 0.0931434003508748 0 0 0 0 0 0 0 0 0 0 0 -0.609430903854777 -3.17732244870263 0 0 0 0
0 0 0 0 0 0 0 0 0 0 0 0 0 0 0 0 0 0 0 0 0 0 0 0 0 0 0 0 0 0 0 0 0.0788977776152258 0.0365307365882827 0.339733985573128 0 0 0 0 0 0 0 0 0 0 0 0 0 0 0
0 0 0 0 0 0 0 0 0 0 0 0 0 0 0 0 0 0 0 0 0 0 0 0 0 0 0 0 0 0 0 0 0 0 0 0 0 0.294207423860602 0 0.0389742474302036 0 0.4833087198601 0.137884308811703 0 0 0 0 0 0 0
0 0 0 0 0 0 0 0 0 0 0 0 0 0 0 0 0 0 0 0 0 0 0 0 0 0 0 0 0 0 0 0 0 0 0 0 0 0 0 0 0 0.249341205627038 0.647742741431219 0 0 0 0.292427833690796 0.267565618673098 0 0.537245696689078
0 0 0 0 0 0 0.126343382671037 0.274312371841678 0.135358977434754 0.948675259734921 0 0.205094668054107 0 0 0 0.174838927791772 0.209042394461768 0 0.143298588604714 0 0.287139621190218 0.328533852834118 0.597178648878284 0 0.41073252931323 0.885981254679134 0.149389522699664 0 0 0 0 0 0 0 0 0 0 0 0 0 0 0 0 0 0 -1.34408109378492 0 0 0 0
0 0 0 0 0 0 0 0 0 0 0 0 0 0 0 0 0 0 0 0 0 0 0 0 0 0 0.331266725060774 0.137030592394583 0 0.0466128890128744 0 0 0 0 0 0 0 0 0 0 0 0 0 0 0 -1.35562719466025 0 0 0 0
0 0 0 0 0 0 0 0 0 0 0 0 0 0 0 0 0 0 0 0 0 0 0 0 0.286880908978736 0.274898408233097 0 0 0.28061852582242 0.189194756228806 0.333902736216512 0 0 0 0.344015663206605 0.29598473816483 0 0 0.0257195385085964 0 0 0 0 0 0 0 0 0 0 0
0 0 0 0 0 0 0 0 0 0 0 0 0 0 0 0 0 0 0 0 0 0 0 0 0 0 0 0 0 0 0 0 0 0 0 0 0 0 0 0 0 0 0 0 0 -2.94369916430951 0 0 0 0
