0 -6.33948186622365 0 0 0 0 0 0 0 0 0 0 0 0 -0.229425353505155 0 0 0 0 0 0 0 0 0 0 0 0 0 0 0 0 0 0 0 0 0 0 0 0 0 0 0 0 0 0 0 0 0 0 0
1.27167538608602 0 0 0 0 0 0 0 0 0 0 0 0 0 -0.534896953580125 0 0 0 0 0 0 0 0 0 0 0 0 0 0 0 0 0 0 0 0 0 0 0 0 0 0 0 0 0 0 0 0 0 0 0
0 0 0 0 0 0 0 0 0 0 -0.681936446759059 0 0 -1.44961831116331 -1.84827678220261 0 0 0 0 0 0 0 0 0 0 0 0 0 0 0 0 0 0 0 0 0 0 0 0 0 0 0 0 0 0 0 0 0 0 0
0 0 0 0 0 0 0 -1.27165476731712 0 0 0 0 0 0 0 0 0 0 0 0 0 0 -0.506320091539795 -1.78963169115109 0 0 0 -0.384670378159336 0 0 0 0 0 0 0 0 0 0 0 0 0 0 0 0 0 0 0 0 0 0
0 0 0 0 0 0 -0.3510593243422 0 0 0 0 0 0 0 0 0 0 0 -0.450236162536698 0 0 0 0 -0.259005028466565 0 0 0 0 0 0 0 -0.717035360240577 0 0 0 0 0 0 0 0 0 0 0 0 0 0 0 0 0 0
0 0 0 0 0 0 -1.43825271586797 -1.91653264604373 0 0 0 0 0 0 0 0 0 0 -1.10978396987049 0 0 0 -0.656229719413582 0 0 0 0 -0.319134683088211 0 0 0 -0.376663120147781 0 0 0 0 0 0 0 0 0 0 0 0 0 0 0 0 0 0
0 0 0 0 0.0660259793291697 0.288150342693465 0 0 -1.18868203998479 0 0 0 0 0 0 0 0 0 -0.162813885603598 0 0 0 0 0 0 0 0 -1.64740590165292 0 0 0 -0.53434383093698 0 0 0 0 0 0 0 0 0 0 0 0 0 0 -1.31114201508861 0 0 0
0 0 0 0.251062041532427 0 0.384447373731587 0 0 0 0 0 0 0 0 0 0 0 0 0 0 0 0 -0.601630698361933 0 0 0 0 -1.15697265763132 0 0 0 -2.42767331448403 0 0 0 0 0 0 0 0 0 0 0 0 0 0 -3.65177759017208 0 0 0
0 0 0 0 0 0 0.224677220628624 0 0 0 0 0 0 0 0 0 0 0 0 0 0 0 0 0 0 0 0 -0.146790334014632 0 0 0 0 0 0 0 0 0 0 0 0 0 0 0 0 0 0 -4.76953175207041 0 0 0
0 0 0 0 0 0 0 0 0 0 0 0 0 0 0 0 0 0 -0.389073717052178 0 0 0 0 0 0 0 0 -1.10938216097948 0 0 0 -1.53317105224307 0 0 0 0 0 0 0 0 0 0 0 0 0 0 -1.71917663786308 0 0 0
0 0 0.130243180663652 0 0 0 0 0 0 0 0 0 0 0 0 0 0 0 0 0 0 0 0 0 0 0 0 0 0 0 0 0 0 0 0 0 0 0 0 0 0 0 0 0 0 0 0 0 0 0
0 0 0 0 0 0 0 0 0 0 0 0 0 0 0 0 0 0 0 0 0 0 0 0 0 0 0 0 0 0 0 -0.283581762168133 0 0 0 0 0 0 0 0 0 0 0 0 0 0 -3.70761230680089 0 0 0
0 0 0 0 0 0 0 0 0 0 0 0 0 0 0 0 0 -1.66940769967781 0 0 0 0 0 0 0 0 0 -0.382454351905255 0 0 0 0 0 0 0 0 0 0 0 0 0 0 0 0 0 0 0 0 0 0
0 0 0.252518680056918 0 0 0 0 0 0 0 0 0 0 0 0 0 0 0 0 0 0 0 0 0 0 0 -2.58856289602277 0 -1.07538248546215 0 0 0 0 0 0 0 0 0 0 0 0 0 0 0 0 0 0 0 0 0
0.0455103802653409 0.106162809339472 0.383978546794561 0 0 0 0 0 0 0 0 0 0 0 0 0 0 -1.82667932110744 0 0 0 0 0 0 0 0 0 0 -1.31273724228128 0 0 0 0 0 0 0 0 0 0 0 0 0 0 0 0 0 0 0 0 0
0 0 0 0 0 0 0 0 0 0 0 0 0 0 0 0 0 0 0 0 0 0 0 0 0 0 0 0 0 0 0 0 0 0 0 0 0 0 0 0 0 0 0 0 0 0 -0.922302946866265 0 0 0
0 0 0 0 0 0 0 0 0 0 0 0 0 0 0 0 0 0 0 0 0 0 0 0 0 0 0 0 0 0 0 0 0 0 0 0 0 0 0 0 0 0 0 0 0 0 -0.292660289403831 0 0 0
0 0 0 0 0 0 0 0 0 0 0 0 0.32560661920395 0 0.358823490639764 0 0 0 0 0 0 0 0 0 0 0 0 0 0 0 0 0 0 -0.297842695526089 0 0 0 0 0 0 0 0 0 0 0 0 0 0 0 0
0 0 0 0 0.0835120392024351 0.210009908076887 0.0322018821294994 0 0 0.076939286981386 0 0 0 0 0 0 0 0 0 0 0 0 0 0 0 0 0 0 0 0 0 0 0 -0.415370016870013 0 0 -7.68850784983256 0 0 0 -5.29890336178769 0 0 0 0 0 -0.525266429014542 0 0 0
0 0 0 0 0 0 0 0 0 0 0 0 0 0 0 0 0 0 0 0 0 0 0 0 0 0 0 0 0 0 -0.897979937656441 0 0 -0.890808628432756 0 0 -0.225753298471736 0 0 0 0 0 0 0 0 0 0 0 0 0
0 0 0 0 0 0 0 0 0 0 0 0 0 0 0 0 0 0 0 0 0 0 0 0 0 0 0 0 0 0 -0.314854308925047 0 0 0 0 0 -1.00757858432541 0 0 0 0 0 0 0 0 0 -0.528451054469498 0 0 0
0 0 0 0 0 0 0 0 0 0 0 0 0 0 0 0 0 0 0 0 0 0 0 0 0 0 0 0 0 0 0 0 0 0 0 0 -2.41260500540673 0 0 0 0 0 0 0 0 0 -1.2267673894755 0 0 0
0 0 0 0.0992619133912159 0 0.138467529531098 0 0.128168250450749 0 0 0 0 0 0 0 0 0 0 0 0 0 0 0 0 0 0 0 0 0 0 0 0 0 0 0 0 0 0 0 0 0 0 0 0 0 0 -2.32410536570095 0 0 0
0 0 0 0.350363579661215 0.0487632037883606 0 0 0 0 0 0 0 0 0 0 0 0 0 0 0 0 0 0 0 0 0 0 0 0 0 -0.265680476382722 0 0 -0.556324485476482 0 0 0 0 0 0 -0.474639753395848 0 0 0 0 0 0 0 0 0
0 0 0 0 0 0 0 0 0 0 0 0 0 0 0 0 0 0 0 0 0 0 0 0 0 0 0 0 0 0 -0.423474714845668 0 0 -2.13173480963767 0 0 -0.595210230532158 0 0 0 0 0 0 0 0 0 -0.90103927143715 0 -1.07986474961284 0
0 0 0 0 0 0 0 0 0 0 0 0 0 0 0 0 0 0 0 0 0 0 0 0 0 0 0 0 0 -1.30482682233053 -0.769751982223048 0 0 -3.02020190535559 0 0 0 -0.0726836344605896 0 0 -3.50882831431207 0 0 0 0 0 -4.86561764461989 0 -3.15490392931548 0
0 0 0 0 0 0 0 0 0 0 0 0 0 0.482620532299004 0 0 0 0 0 0 0 0 0 0 0 0 0 0 0 -0.439009746931599 0 0 0 -0.719320730568436 -0.602728155697376 0 0 -1.30489444798766 0 0 0 0 0 0 0 0 -0.250096831617514 -0.0922678777229908 0 0
0 0 0 0.0778100621628462 0 0.0633355943693021 0.336917340339952 0.226116512986017 0.0311118364215241 0.214346918609632 0 0 0.0712130819493385 0 0 0 0 0 0 0 0 0 0 0 0 0 0 0 0 0 0 0 0 0 0 -0.685370048363828 0 0 0 0 -1.97279227739077 0 0 0 0 0 0 -1.17059986695267 0 0
0 0 0 0 0 0 0 0 0 0 0 0 0 0.223325555328815 0.26989903777763 0 0 0 0 0 0 0 0 0 0 0 0 0 0 -1.55710367169093 0 0 0 -0.284185935465475 0 -1.97401967423609 0 0 0 -3.56328812557321 0 0 0 0 0 0 0 0 -6.51815929855188 0
0 0 0 0 0 0 0 0 0 0 0 0 0 0 0 0 0 0 0 0 0 0 0 0 0 0.2623022684599 0.0893304232903924 0 0.334253194877214 0 0 0 0 -0.573669734988127 0 -1.40631396555634 0 0 0 0 0 0 0 0 0 0 0 -0.781476639949391 -3.72039550388553 0
0 0 0 0 0 0 0 0 0 0 0 0 0 0 0 0 0 0 0 0.182145159120551 0.0669316998518149 0 0 0.052568161719241 0.0808264731495964 0.163535294595351 0 0 0 0 0 0 0 -0.672115559031148 -0.266807539730597 -1.1242771910484 0 0 0 0 0 0 0 0 0 0 0 0 -0.0401098140069696 0
0 0 0 0 0.143729678688413 0.0731319890242583 0.111230240799191 0.51985801315042 0 0.306908921904148 0 0.0525412331110703 0 0 0 0 0 0 0 0 0 0 0 0 0 0 0 0 0 0 0 0 0 0 0 -0.144846920285153 0 0 -1.04211824121237 0 0 0 0 0 0 0 0 0 0 0
0 0 0 0 0 0 0 0 0 0 0 0 0 0 0 0 0 0 0 0 0 0 0 0 0 0 0 0 0 0 0 0 0 0 -0.212656265477928 0 0 0 0 0 -1.36534540125768 0 -0.649366015755125 -9.42281006506348 0 0 0 0 0 0
0 0 0 0 0 0 0 0 0 0 0 0 0 0 0 0 0 0.0584878023381138 0.07680400893874 0.181869520933108 0 0 0 0.116957699814811 0.409099589989201 0.564599846134255 0.137048722575856 0 0.054819839309491 0.113800452667194 0.138288150224136 0 0 0 -1.38879220658256 0 0 0 0 -0.329639149748483 0 0 0 -0.610130480924609 0 0 0 0 0 0
0 0 0 0 0 0 0 0 0 0 0 0 0 0 0 0 0 0 0 0 0 0 0 0 0 0 0.118158999852864 0 0 0 0.0542270024370388 0 0.0400659789179517 0.28200493714616 0 0 0.310438045831373 0.795670282609989 0 0 0 0 0 -2.15657881269364 0 0 0 0 -0.714797699109504 0
0 0 0 0 0 0 0 0 0 0 0 0 0 0 0 0 0 0 0 0 0 0 0 0 0 0 0 0.138852785862495 0.371576709323509 0.270996142965808 0.233783212000602 0.0283992515865523 0 0 0 0 0 0 0 -0.380505604416905 0 0 0 0 0 0 0 0 -6.64718726783304 0
0 0 0 0 0 0 0 0 0 0 0 0 0 0 0 0 0 0 1.46178565992853 0.0503799542372753 0.188756710729491 0.44111397233766 0 0 0.125698294522512 0 0 0 0 0 0 0 0 0 -1.52945718594552 0 0 0 0 0 0 0 0 0 0 0 0 0 0 0
0 0 0 0 0 0 0 0 0 0 0 0 0 0 0 0 0 0 0 0 0 0 0 0 0 0.0143973944046506 0.279157768645731 0 0 0 0 0 0 0 -4.16920328534489 0 0 0 0 0 0 0 0 0 -1.36830918889331 0 0 0 0 0
0 0 0 0 0 0 0 0 0 0 0 0 0 0 0 0 0 0 0 0 0 0 0 0 0 0 0 0 0 0 0 0.196901577290521 0 0 0 0 0 0 0 0 0 0 0 0 0 0 0 0 -1.08863795747642 0
0 0 0 0 0 0 0 0 0 0 0 0 0 0 0 0 0 0 0 0 0 0 0 0 0 0 0 0 0.695815876806413 0 0 0 0 0.0688456695266875 0 0.0749415177395781 0 0 0 0 0 0 0 0 -1.2796245210289 0 0 0 0 0
0 0 0 0 0 0 0 0 0 0 0 0 0 0 0 0 0 0 1.1616077356931 0 0 0 0 0.0967643911171468 0 0.664983615939108 0 0.377449106411629 0 0 0 0 0.274409185081261 0 0 0 0 0 0 0 0 0 0 0 0 0 0 0 0 0
0 0 0 0 0 0 0 0 0 0 0 0 0 0 0 0 0 0 0 0 0 0 0 0 0 0 0 0 0 0 0 0 0 0 0 0 0 0 0 0 0 0 0 0 -2.6122194850331 -0.671712700358176 0 0 0 0
0 0 0 0 0 0 0 0 0 0 0 0 0 0 0 0 0 0 0 0 0 0 0 0 0 0 0 0 0 0 0 0 0.129888108472155 0 0 0 0 0 0 0 0 0 0 0 -0.539426071898037 -0.287798023145019 0 0 0 0
0 0 0 0 0 0 0 0 0 0 0 0 0 0 0 0 0 0 0 0 0 0 0 0 0 0 0 0 0 0 0 0 1.83895714175405 0.106621544338084 0.445615014322112 0 0 0 0 0 0 0 0 0 0 0 0 0 0 0
0 0 0 0 0 0 0 0 0 0 0 0 0 0 0 0 0 0 0 0 0 0 0 0 0 0 0 0 0 0 0 0 0 0 0 0 0 0.279194017746791 0 0.246978426312772 0 0.507249715803532 0.114911606272246 0 0 0 0 0 0 0
0 0 0 0 0 0 0 0 0 0 0 0 0 0 0 0 0 0 0 0 0 0 0 0 0 0 0 0 0 0 0 0 0 0 0 0 0 0 0 0 0 0.132032079262886 0.0557957224798859 0 0 0 0.328891957962026 0.0798048593583045 0 0.342494581558958
0 0 0 0 0 0 0.237694275907727 0.754707015953529 1.02855167806747 0.314919652831478 0 0.730607430451828 0 0 0 0.173451551596721 0.0571670986600182 0 0.10170491476159 0 0.112952072880801 0.2440906704832 0.490585941025647 0 0.181934359308993 1.02428356430282 0.0492702029556122 0 0 0 0 0 0 0 0 0 0 0 0 0 0 0 0 0 0 -1.59022480860792 0 0 0 0
0 0 0 0 0 0 0 0 0 0 0 0 0 0 0 0 0 0 0 0 0 0 0 0 0 0 0.0173314185574226 0.230370087612522 0 0.163228531581538 0 0 0 0 0 0 0 0 0 0 0 0 0 0 0 -0.376340634500236 0 0 0 0
0 0 0 0 0 0 0 0 0 0 0 0 0 0 0 0 0 0 0 0 0 0 0 0 0.234121185889924 0.58180663611301 0 0 1.27609563224372 0.701909123311797 0.0079925732034904 0 0 0 0.150703221078099 1.26194221606279 0 0 0.21177157293831 0 0 0 0 0 0 0 0 0 0 0
0 0 0 0 0 0 0 0 0 0 0 0 0 0 0 0 0 0 0 0 0 0 0 0 0 0 0 0 0 0 0 0 0 0 0 0 0 0 0 0 0 0 0 0 0 -1.74885952755026 0 0 0 0
