0 0 0 0 0 0 0 0 0 0 0 0 0 -0.341774563489571 0 0 0 0 0 0 -2.72809107958516 -1.11013024960787 0 0 -1.16544184246775 0 0 0 0 0 0 0 0 0 0 0 0 0 0 0 0 0 0 0 0 0 0 0 0 0
0 0 0 -0.262710405428903 0 0 0 0 0 0 0 0 0 -2.83743531424073 0 0 0 0 0 0 -0.669391770638987 0 0 0 0 0 0 0 0 0 0 0 0 0 0 0 0 0 0 0 0 0 0 0 0 0 0 0 0 0
0 0 0 -0.110386539134221 -1.22305691371768 -3.56684745315182 0 0 0 0 0 0 0 0 0 0 0 0 0 0 -1.67394562599139 0 0 0 0 0 0 0 0 0 0 0 0 0 0 0 0 0 0 0 0 0 0 0 0 0 0 0 0 0
0 0.0535958693926745 0.022994117721826 0 0 0 0 0 0 0 0 0 0 0 -3.69674867516386 0 0 0 0 0 -1.85092950225335 0 0 -9.33224937432624 0 0 0 0 0 0 0 0 0 0 0 0 0 0 0 0 0 0 0 0 0 0 0 0 0 0
0 0 0.235665627969329 0 0 0 0 0 0 0 0 -0.530604157113527 -3.47484022810965 0 0 0 -0.599295801231332 0 0 0 -3.09400335675807 0 0 -0.578804168832069 0 0 0 0 0 -5.68267703102567 0 -2.47817401680425 0 0 -6.20450094557764 0 0 0 0 0 0 0 0 0 0 0 0 0 0 0
0 0 0.677423825698678 0 0 0 0 0 0 0 0 0 0 0 0 -0.956993298968876 0 0 0 0 0 -1.80800529031867 0 0 0 0 0 0 0 0 0 0 -0.266578179517052 0 -1.04814436501935 0 0 0 0 0 0 0 0 0 0 0 0 -0.96051329618446 0 0
0 0 0 0 0 0 0 0 -1.07437513370792 0 0 0 0 0 0 -0.365320214708131 0 0 0 0 -1.41449122385224 0 0 0 0 0 0 0 0 -0.332259400660813 0 0 0 0 0 0 0 0 0 0 0 0 0 0 0 0 0 -0.437501175206244 0 0
0 0 0 0 0 0 0 0 0 0 0 0 0 0 0 -0.0600376986281675 0 0 0 0 0 0 -0.240047707671806 0 0 0 0 0 0 0 -0.163313170188867 -1.88650515197027 -3.54655008301878 0 0 0 0 0 0 0 0 0 0 0 0 0 0 -0.694817184648723 0 0
0 0 0 0 0 0 0.212645587039583 0 0 0.146097674449439 0 0 -0.120118087961384 0 0 -0.167189675986441 0 0 0 0 -0.446757536039187 -0.417676059353392 -0.205326165872428 0 0 0 0 0 0 0 0 0 0 0 0 0 0 0 0 0 0 0 0 0 0 0 0 0 0 0
0 0 0 0 0 0 0 0 -0.736118224552354 0 0 0 0 0 0 -0.881379676955165 0 0 0 0 0 0 -0.265541814362647 0 0 0 -1.58246342633498 0 0 0 -0.466290383837135 -3.08676976608893 -4.07831996419935 0 -0.545224026428573 0 0 0 0 0 0 0 0 0 0 0 0 0 0 0
0 0 0 0 0 0 0 0 0 0 0 0 -0.685460152022782 0 0 0 0 -0.207536180988592 0 -4.04540754022358 0 0 -0.639413053656933 0 0 0 -5.49359726326578 0 0 0 0 0 0 0 0 0 0 0 0 0 0 0 -1.99253806022077 0 0 0 0 -0.949426967769781 0 0
0 0 0 0 0.106299207580224 0 0 0 0 0 0 0 0 0 0 0 0 0 0 -5.22037401395796 -0.975883241599618 0 -1.11131809351229 0 0 0 -1.85142946455632 0 0 0 -0.605004756892762 0 0 0 -2.60919828041717 0 0 0 0 0 0 0 -2.29754953850857 0 0 0 0 0 0 0
0 0 0 0 0.706594106708355 0 0 0 0.0231257740797672 0 0.133382717883357 0 0 0 0.183898285287128 0 0 0 -1.95002026935047 0 0 0 0 0 0 0 0 0 0 0 -0.299711576131525 0 0 0 -0.664580460007299 0 0 0 0 0 0 0 0 0 0 0 0 -0.909885099187663 0 0
0.0730745936445114 0.586090316212897 0 0 0 0 0 0 0 0 0 0 0 0 0 0 0 0 -1.06188031169216 0 0 -0.61810947531878 0 0 0 0 0 0 0 0 0 -0.469303227695754 0 0 0 0 0 0 0 0 0 0 -5.94433082386629 0 0 0 0 0 0 0
0 0 0 0.782441852875286 0 0 0 0 0 0 0 0 -0.930892898367023 0 0 0 0 -0.310716433892349 -0.649281184523641 0 0 -0.868119998036877 0 0 0 0 0 0 0 0 -1.25300959032845 0 0 0 -2.16069434390463 0 0 0 0 0 0 0 0 0 0 0 0 -0.413529433615224 0 0
0 0 0 0 0 0.179205620082845 0.0725174220200219 0.0117595470973897 0.0308330654292521 0.177000767579284 0 0 0 0 0 0 0 -0.304534864603547 -1.8405947256422 0 0 -0.185262917729847 0 0 0 0 -0.908677323172645 0 0 0 -0.193447401895592 0 0 0 -0.673681560513653 0 0 0 0 0 0 0 -0.23936904210828 0 0 0 0 0 0 0
0 0 0 0 0.110202418186206 0 0 0 0 0 0 0 0 0 0 0 0 0 -6.50384390669152 0 0 0 0 0 0 0 0 0 0 0 -0.996589450356571 0 0 0 -2.36902666993254 0 0 -2.3871421554684 0 0 0 0 -1.22666658365986 0 0 0 0 -0.279166841205803 0 0
0 0 0 0 0 0 0 0 0 0 0.0457843321405155 0 0 0 0.0588587667654912 0.0589348789753323 0 0 -0.949571659155529 0 0 0 0 0 0 0 0 0 0 0 0 0 0 0 0 0 0 -2.93914248215908 0 0 0 0 0 0 0 0 0 -1.90237377170967 0 0
0 0 0 0 0 0 0 0 0 0 0 0 0.403570456954193 0.208468622773597 0.115283041535926 0.412054136983355 1.31430400793632 0.186925533091716 0 0.252842576440915 0 0.0565941800373943 0 0 0 0 0 0 0 0 -2.28536899820102 0 0 0 -1.40175329398015 0 0 0 0 0 0 0 0 0 0 0 0 -1.5199495864988 0 0
0 0 0 0 0 0 0 0 0 0 0.781346689063429 0.994116758845391 0 0 0 0 0 0 -1.33645378343984 0 0 0 0 0 0 0 0 0 0 0 0 0 0 0 0 0 0 0 0 0 0 0 0 0 0 0 0 0 0 0
0.524488589054659 0.133315984295138 0.287749221072502 0.390294204081691 0.646418615446104 0 0.273250173763266 0 0.0982720196974618 0 0 0.189369836520859 0 0 0 0 0 0 0 0 0 0 0 0 0 0 0 0 0 0 0 0 0 0 0 -3.16913638713625 0 0 0 0 0 0 -0.460932366631446 0 0 0 0 0 0 0
0.219361060431668 0 0 0 0 0.37308504890972 0 0 0.0855027891326452 0 0 0 0 0.117773347654884 0.165757360967943 0.0365002228405653 0 0 -0.292809027883218 0 0 0 0 0 0 0 0 0 0 0 0 0 0 0 0 0 0 0 0 0 0 -0.252404126664635 0 0 0 0 0 0 0 0
0 0 0 0 0 0 0 0.0485511184589693 0.0432598394853313 0.0582183111726845 0.140416027501085 0.197845456884545 0 0 0 0 0 0 0 0 0 0 0 0 0 0 0 0 0 0 0 0 0 0 0 0 -0.892909268015961 0 0 0 0 0 0 0 0 0 0 0 0 0
0 0 0 1.80697587877812 0.120907862749874 0 0 0 0 0 0 0 0 0 0 0 0 0 0 0 0 0 0 0 0 0 0 0 0 0 0 0 0 0 0 0 0 0 0 0 0 0 0 0 0 0 0 0 0 0
0.236570339444776 0 0 0 0 0 0 0 0 0 0 0 0 0 0 0 0 0 0 0 0 0 0 0 0 0 0 0 0 0 0 0 0 0 0 0 -1.20260751554612 0 0 0 0 -0.328880970945478 0 0 -0.929368020962448 0 0 0 0 0
0 0 0 0 0 0 0 0 0 0 0 0 0 0 0 0 0 0 0 0 0 0 0 0 0 0 0 0 0 0 0 0 0 0 0 0 0 0 0 0 0 -0.48898724974449 0 0 0 0 0 0 0 0
0 0 0 0 0 0 0 0 0 0.278630426659922 1.11105320809008 0.38083047350175 0 0 0 0.184868107895894 0 0 0 0 0 0 0 0 0 0 0 -0.697735316938827 0 0 0 0 0 0 0 0 0 0 0 0 0 -0.924031738730866 0 0 -3.39994152314837 0 0 0 0 0
0 0 0 0 0 0 0 0 0 0 0 0 0 0 0 0 0 0 0 0 0 0 0 0 0 0 0.132337293542098 0 0 0 0 0 0 0 0 0 -2.13785955983813 0 0 0 -1.83237299573131 -0.139415167836983 0 0 0 0 0 0 0 0
0 0 0 0 0 0 0 0 0 0 0 0 0 0 0 0 0 0 0 0 0 0 0 0 0 0 0 0 0 0 0 0 0 0 0 0 0 0 0 0 0 0 0 0 -3.50120598415056 0 0 0 0 0
0 0 0 0 1.05898972073094 0 0.0693859716473161 0 0 0 0 0 0 0 0 0 0 0 0 0 0 0 0 0 0 0 0 0 0 0 0 0 0 0 0 0 -0.212402833367288 0 0 0 0 -0.942983007073847 0 0 -1.5736332410313 0 0 0 0 0
0 0 0 0 0 0 0 0.0301500819308056 0 0.0944464929084952 0 0.126985686180105 0.0593495351282565 0 0.24896127759798 0.0391132211573668 0.199431062891977 0 0.457059810810938 0 0 0 0 0 0 0 0 0 0 0 0 0 0 0 0 0 -1.71150684596601 0 0 0 0 0 0 0 0 0 0 0 0 0
0 0 0 0 0.490330465063828 0 0 0.38246680672837 0 0.592996418350889 0 0 0 0.08782197877222 0 0 0 0 0 0 0 0 0 0 0 0 0 0 0 0 0 0 0 0 0 0 -0.358432701498128 0 0 0 0 -2.30853770000769 0 0 -0.480315591707319 0 -0.403361760629047 0 0 0
0 0 0 0 0 0.0561066985182452 0 0.724645095997992 0 0.78947558497592 0 0 0 0 0 0 0 0 0 0 0 0 0 0 0 0 0 0 0 0 0 0 0 0 0 0 -0.290268527988757 0 0 -5.08726360117834 0 -0.708520711011193 0 0 0 0 0 0 -4.10110264896315 0
0 0 0 0 0 0 0 0 0 0 0 0 0 0 0 0 0 0 0 0 0 0 0 0 0 0 0 0 0 0 0 0 0 0 0 0 0 0 0 -10.8749321663321 0 0 0 0 0 0 0 0 -0.656149873084753 0
0 0 0 0 1.27912675920667 0.211490190529959 0 0 0 0.106304477347293 0 0.543390120620135 0.12453335446461 0 0.435552719054077 0.132099359507637 0.473277908339403 0 0.278050775023128 0 0 0 0 0 0 0 0 0 0 0 0 0 0 0 0 0 0 0 0 0 0 0 0 -3.2254499799685 0 0 0 0 0 0
0 0 0 0 0 0 0 0 0 0 0 0 0 0 0 0 0 0 0 0 0.633664244901458 0 0 0 0 0 0 0 0 0 0 0 0 0 0 0 0 0 0 0 0 0 0 -0.733538049829148 0 -0.424276249116577 0 0 0 0
0 0 0 0 0 0 0 0 0 0 0 0 0 0 0 0 0 0 0 0 0 0 0.189071451383639 0 0.242875057348953 0 0 0.430438915219899 0 0.0446605499102324 0.358116570413711 0.0708273841648387 0.0566996121680446 0 0 0 0 0 0 0 0 0 0 0 0 0 0 0 0 0
0 0 0 0 0 0 0 0 0 0 0 0 0 0 0 0 0.522465855408259 0.563930809659742 0 0 0 0 0 0 0 0 0 0 0 0 0 0 0 0 0 0 0 0 0 0 0 0 0 0 0 0 0 0 0 0
0 0 0 0 0 0 0 0 0 0 0 0 0 0 0 0 0 0 0 0 0 0 0 0 0 0 0 0 0 0 0 0 0 0 0 0 0 0 0 0 0 0 0 0 0 0 0 0 0 -0.107883550588144
0 0 0 0 0 0 0 0 0 0 0 0 0 0 0 0 0 0 0 0 0 0 0 0 0 0 0 0 0 0 0 0 1.00910847488786 2.15957815155473 0 0 0 0 0 0 0 0 0 -0.9967983504712 0 0 0 0 0 0
0 0 0 0 0 0 0 0 0 0 0 0 0 0 0 0 0 0 0 0 0 0 0 0 0 0 0 0.365067864706499 0 0 0 0 0 0 0 0 0 0 0 0 0 0 0 -0.807849260578438 0 0 0 0 0 0
0 0 0 0 0 0 0 0 0 0 0 0 0 0 0 0 0 0 0 0 0 0.0462187928007587 0 0 0.0631886300354488 0.0914637151869056 0.193790398154863 0.0271985238903867 0 0.184743355961559 0 0.450898201908597 0.146127927318704 0 0 0 0 0 0 0 0 0 0 0 0 0 0 0 0 -0.766225138080368
0 0 0 0 0 0 0 0 0 0 0.378840684686287 0.434325980758392 0 1.2362748760934 0 0.0468222740645691 0.233861332832505 0 0 0 0.0953402697973176 0 0 0 0 0 0 0 0 0 0 0 0 0 0 0 0 0 0 0 0 0 0 0 0 0 0 0 0 0
0 0 0 0 0 0 0 0 0 0 0 0 0 0 0 0 0 0 0 0 0 0 0 0 0 0 0 0 0 0 0 0 0 0 0.641610158725646 0.135473787404433 0 0 0 0.199594948323793 0.161163151658273 0 0 0 0 0 0 0 0 -0.761400602507767
0 0 0 0 0 0 0 0 0 0 0 0 0 0 0 0 0 0 0 0 0 0 0 0 0.196942247407885 0 0.598648403188885 0 0.726463511074619 0.350473770959243 0 0.0862799784738322 0 0 0 0 0 0 0 0 0 0 0 0 0 0 0 0 0 0
0 0 0 0 0 0 0 0 0 0 0 0 0 0 0 0 0 0 0 0 0 0 0 0 0 0 0 0 0 0 0 0 0 0 0 0.0836385067465845 0 0 0 0 0 0 0 0 0 0 0 0 0 0
0 0 0 0 0 0 0 0 0 0 0 0 0 0 0 0 0 0 0 0 0 0 0 0 0 0 0 0 0 0 0 0.0797821322628515 0 0 0 0 0 0 0 0 0 0 0 0 0 0 0 0 0 0
0 0 0 0 0 0.206908283244064 0.0908452630191329 0.139269266440732 0 0 0.186265449826057 0 0.184726829444297 0 0.0841802264777138 0 0.0540779093552638 0.393242078913236 0.308473025997002 0 0 0 0 0 0 0 0 0 0 0 0 0 0 0 0 0 0 0 0 0 0 0 0 0 0 0 0 0 0 0
0 0 0 0 0 0 0 0 0 0 0 0 0 0 0 0 0 0 0 0 0 0 0 0 0 0 0 0 0 0 0 0 0.81328685074489 0.127124927526344 0 0 0 0 0 0 0 0 0 0 0 0 0 0 0 0
0 0 0 0 0 0 0 0 0 0 0 0 0 0 0 0 0 0 0 0 0 0 0 0 0 0 0 0 0 0 0 0 0 0 0 0 0 0 0.0208274731791103 0 0 0.160116389556895 0 0.155025166552964 0 0 0 0 0 0
