0.0200710754958477
0.163553893349786
0.511815611152152
0.0919345662429848
0.501473716618798
0.0392368924717544
1.45314887864749
0.146544255460657
0.227618608992444
0.20109666555048
3.78312022586922
0.274752567820471
0.123572245157493
0.57939914067073
0.929292449231103
1.00189979780179
0.130008540069415
0.18377449669041
0.702805682663082
0.359112573897842
0.574295950287406
0.733171963717076
0.390649358374023
2.56891222616589
0.240486367347282
0.16313110931196
2.50042747697576
0.12108494554655
0.229961146043
4.30134372866425
0.465608936983285
0.405161456572254
1.95283501311195
0.152269033775401
0.414391597579342
0.20101150625114
0.499155054692705
0.661934083718065
0.00220382445377755
0.778958948744086
0.437670274182822
0.395634740304308
3.7222593691257
0.07492752229294
0.174451810762971
0.883050918969979
1.34645637794526
0.180022882622049
1.5625645827111
1.48911750583956
