0.130568361104125
0.0638856383505354
0.0926378620567088
0.214229679021694
1.34554888239049
1.70599532197822
0.137873160526638
0.200266658320477
0.422894372584619
0.321450191440857
1.98199973845196
1.70524083093573
1.31812817957372
2.57247438818522
0.161070765698285
0.376738449282693
0.114443907593694
0.618150416217882
0.18640922538366
0.667864121293939
0.450012813524239
5.76784292447649
0.258066374828067
2.69938741265167
0.492417080564383
1.89035347771028
0.549575566885564
0.708106351543926
0.29789459065332
0.5437971420284
0.789456884448117
0.225416068298658
0.481072077196958
0.332169819104325
0.21908126356657
0.0286993194984473
0.282382245229845
0.064884781531852
3.56588876933568
0.0851710299273499
0.929907764626166
1.04611744780552
0.0354384046910216
2.37922017672698
4.89217009789645
0.334609875354543
0.0351764642994732
0.974261231279467
1.47396697990991
6.22211955820806
