0.212075180950635
0.436313458797611
0.266756379994558
0.966654359898634
4.28062684481077
3.42443602569143
1.48035977913642
0.339574864982986
1.76610880415172
0.127686008450554
3.46052306254822
0.165140698101841
0.521607490588367
0.453433374791347
0.480452724702631
1.80479139386059
0.637925986903859
0.279209586802205
1.51993747675685
0.114317396034475
0.430418652747076
1.45281380023842
0.253467125915819
2.15883145924245
5.0115944333106
0.0476000085730774
0.638836834934245
0.858814426826895
0.290485968617492
0.249435074937596
0.187140249998336
0.231334494630623
0.460227695449926
1.42804160206284
0.175651980541795
1.39592856370704
0.466975839035212
0.306389278564243
0.127132023294223
0.0419361886617362
0.463345549274252
1.53341820420891
0.951692376462381
3.74142771029638
0.323735050803868
0.586943392795052
1.13740600618868
0.401105562857799
0.332472060571941
0.916033483690306
