0 0 0 -0.346147583678607 0 0 0 0 0 0 0 0 0 0 0 0 0 0 0 0 0 0 0 0 0 0 0 0 0 0 0 0 0 0 0 0 0 0 0 0 0 0 0 0 0 0 0 0 0 0
0 0 0 0 0 0 0 0 0 0 0 0 0 0 0 -0.243643682657668 -6.12855697126427 0 0 0 0 0 0 0 0 0 0 0 0 0 0 0 0 0 -3.19760311513038 0 0 0 0 0 0 0 0 0 0 0 0 0 0 0
0 0 0 0 -0.708458598948046 0 0 0 0 0 0 0 0 0 0 -3.98852693383739 -0.317466980194413 0 0 0 0 0 0 0 0 0 0 0 0 0 0 0 0 0 -2.31743000153234 0 0 0 0 0 0 0 0 0 0 0 0 0 0 0
0.0713870632599457 0 0 0 0 0 0 0 0 0 0 0 0 0 0 -0.347063551305015 -0.446861603512262 0 0 0 0 0 0 0 0 0 0 0 -1.78940822610307 0 0 0 0 0 0 0 0 0 0 0 0 0 0 0 0 0 0 0 0 0
0 0 0.152599475393188 0 0 0 0 0 0 -2.59240374229021 0 0 -1.53142450861053 0 0 0 0 0 0 0 0 0 0 0 0 0 0 0 0 0 0 0 0 0 -6.87516101007562 0 0 0 0 -0.343065040338045 0 0 0 0 0 0 0 0 0 0
0 0 0 0 0 0 0 0 0 0 0 0 0 0 0 0 -2.51322038580282 0 -1.75671923394252 0 0 0 0 0 0 0 0 0 0 0 0 0 0 -0.995919739365914 -2.14027401822269 0 0 0 -2.49115921032719 -3.63453578136819 0 0 0 0 0 0 0 0 0 0
0 0 0 0 0 0 0 -1.06724140802211 0 0 0 0 0 0 0 -2.27738353554361 0 0 0 0 0 0 -0.531746471938023 0 0 0 0 0 0 0 0 0 0 -2.0746029384175 0 0 0 0 -0.791008160872227 0 0 0 0 0 0 0 0 0 0 0
0 0 0 0 0 0 0.212668436332492 0 0.168381577290173 0 0 0 -0.306477738894909 0 0 0 -1.77613379406459 0 0 0 0 0 0 0 0 0 0 0 0 0 0 0 0 -0.554833279367467 -1.71299992012498 0 0 0 -0.52115316349006 -0.700390539819915 0 0 0 0 0 0 0 0 0 0
0 0 0 0 0 0 0 -0.82856220086447 0 0 0 0 -1.18178851421208 0 0 0 0 0 -1.08540299136576 0 0 0 -4.53433580881744 0 0 0 0 0 0 0 0 0 0 -0.676638702355102 -0.794913587144315 0 0 0 0 0 0 0 0 0 0 0 0 0 0 0
0 0 0 0 0.540413464179749 0 0 0 0 0 0 0 0 0 0 0 0 0 -0.653342208163289 0 0 0 0 0 0 0 0 -0.288134944263545 0 0 0 0 0 0 0 0 0 0 0 -5.7959892868037 0 0 0 0 0 0 0 0 0 0
0 0 0 0 0 0 0 0 0 0 0 0 0 0 0 0 0 0 0 0 0 0 0 0 0 0 0 -4.99475515964562 0 -1.15675543863955 0 -0.485793975563747 0 0 0 0 0 0 0 0 0 0 0 -0.81461351038274 0 0 0 0 0 0
0 0 0 0 0 0 0 0 0 0 0 0 0 0 0 0 0 0 -2.03562499498203 -0.42557196963864 0 0 0 0 0 0 0 -0.4523664174698 0 -4.43171029041015 0 0 0 0 0 -0.936868774891845 0 0 0 0 0 0 0 0 0 0 0 0 0 0
0 0 0 0 0.273403692304482 0 0 0.0677828134624793 0.234199577443502 0 0 0 0 0 0 0 0 0 0 0 0 0 0 0 0 0 0 0 0 -5.94220550931468 0 0 0 0 0 -2.01224298083094 0 0 0 -0.724698688395976 0 -2.58689506993065 0 -0.564326686689932 0 0 0 0 0 0
0 0 0 0 0 0 0 0 0 0 0 0 0 0 0 0 0 0 -1.2802226601091 -0.324356154492246 0 0 0 0 0 0 0 0 0 -2.70085919474066 0 0 0 0 0 -0.967497870563999 0 0 0 -0.167300248673812 0 -1.96657564322746 0 -1.73808130995731 0 0 0 0 0 0
0 0 0 0 0 0 0 0 0 0 0 0 0 0 0 0 0 0 -1.62695478353423 -0.332116596202382 0 0 0 0 0 0 0 -0.576364629243066 0 -0.653948917631594 0 -4.29480429367429 0 0 0 0 0 0 0 -1.51933475335947 0 0 0 -0.125284135433205 0 0 0 0 0 0
0 0.0513551208424305 0.812334400177414 0.0664261981930329 0 0 0.447290040778766 0 0 0 0 0 0 0 0 0 0 0 0 0 0 0 0 0 0 0 0 0 0 -3.43979970854281 0 0 0 0 0 0 0 0 0 0 0 0 0 0 0 0 0 0 0 0
0 1.21463620226698 0.0609329199908113 0.0867235866187599 0 0.521153990549925 0 0.388045847838962 0 0 0 0 0 0 0 0 0 0 0 0 0 0 0 0 0 0 0 0 0 -1.24865450550171 0 0 0 0 0 0 0 0 0 0 0 -0.795000059792914 -0.190862218077625 -0.764227833911976 0 0 0 0 0 0
0 0 0 0 0 0 0 0 0 0 0 0 0 0 0 0 0 0 0 -0.916628258131633 0 0 0 0 0 0 -1.0002300993616 0 0 -3.24879029166823 0 0 0 0 0 0 0 0 0 0 0 -1.33163685220782 -0.188820234127344 -0.246091820009636 0 0 0 0 0 0
0 0 0 0 0 0.344749220980976 0 0 0.229271532853671 0.133273255436748 0 0.406329067575022 0 0.26902994022072 0.310114541348418 0 0 0 0 0 0 0 0 -1.03048922714084 0 0 -1.01850269597969 0 0 0 0 0 0 0 0 0 -4.4680496448157 0 0 0 0 0 -0.157821133658969 -5.50641344269415 0 0 0 0 0 0
0 0 0 0 0 0 0 0 0 0 0 0.0882535573395512 0 0.0605336008148386 0.0695625366192611 0 0 0.171339465263842 0 0 0 0 0 -0.741398356405484 -0.564983396717608 0 0 0 0 0 0 0 0 0 0 0 -0.257553048432893 0 0 0 0 -0.728486055491066 0 0 0 0 0 0 0 0
0 0 0 0 0 0 0 0 0 0 0 0 0 0 0 0 0 0 0 0 0 0 0 0 0 0 0 0 0 0 0 0 0 0 0 0 0 -0.811582991832758 0 0 0 -1.9183034713516 0 0 0 0 0 0 0 0
0 0 0 0 0 0 0 0 0 0 0 0 0 0 0 0 0 0 0 0 0 0 0 -1.77636935712582 -2.02310645302374 0 0 0 0 0 0 0 0 0 0 0 0 -0.305857318644696 0 0 0 0 0 0 0 0 0 0 0 0
0 0 0 0 0 0 0.0965225803187801 0 0.905818055967123 0 0 0 0 0 0 0 0 0 0 0 0 0 0 0 0 0 0 0 0 0 0 0 0 0 0 0 -0.624385280776991 -0.365741645635749 0 0 0 0 0 0 0 0 0 0 0 0
0 0 0 0 0 0 0 0 0 0 0 0 0 0 0 0 0 0 0.195773237082907 0.146261436872431 0 0.346346430502833 0 0 0.568871026388321 0 0 0 0 0 0 0 0 0 0 0 0 0 0 0 0 0 0 0 0 0 0 0 0 0
0 0 0 0 0 0 0 0 0 0 0 0 0 0 0 0 0 0 0 0.121785578870619 0 0.372871433401932 0 -2.93602009791265 0 0 0 0 0 0 0 0 0 0 0 0 -1.89955937811013 -0.607884367517775 0 0 0 0 0 0 0 0 0 0 0 0
0 0 0 0 0 0 0 0 0 0 0 0 0 0 0 0 0 0 0 0 0 0 0 0 0 0 0 0 0 0 0 0 0 0 0 0 0 -1.9977192322531 0 0 0 0 0 0 0 0 0 0 0 0
0 0 0 0 0 0 0 0 0 0 0 0 0 0 0 0 0 0.214247474723013 0.202349099298699 0 0 0 0 0 0 0 0 0 0 0 0 0 0 0 0 0 0 -1.08422975301766 0 0 0 0 0 0 0 0 0 0 0 0
0 0 0 0 0 0 0 0 0 0.0589259855188576 0.976449729469741 0.0776345001843437 0 0 0.120123008883871 0 0 0 0 0 0 0 0 0 0 0 0 0 0 0 0 0 0 0 0 0 -0.332794192283898 -3.53111531921308 0 0 0 0 0 0 0 0 0 0 0 0
0 0 0 0.35729370667147 0 0 0 0 0 0 0 0 0 0 0 0 0 0 0 0 0 0 0 0 0 0 0 0 0 0 0 0 0 0 0 0 0 -2.2608567735866 0 0 0 0 0 0 0 0 0 0 0 0
0 0 0 0 0 0 0 0 0 0 0.24546772437886 0.867489227898751 1.17875302145015 0.571115627364695 0.125501038017244 0.655297460172219 0.245016582934747 0.676615302931421 0 0 0 0 0 0 0 0 0 0 0 0 0 0 0 0 0 0 0 -1.1147905848236 0 0 -0.436515293248765 0 0 0 0 0 0 0 0 0
0 0 0 0 0 0 0 0 0 0 0 0 0 0 0 0 0 0 0 0 0 0 0 0 0 0 0 0 0 0 0 0 0 0 0 0 -4.9047398017404 0 0 0 0 0 0 0 0 0 0 0 0 0
0 0 0 0 0 0 0 0 0 0 0.0935712425996672 0 0 0 0.867436825114116 0 0 0 0 0 0 0 0 0 0 0 0 0 0 0 0 0 0 0 0 0 0 0 0 0 0 0 0 0 0 0 0 0 0 0
0 0 0 0 0 0 0 0 0 0 0 0 0 0 0 0 0 0 0 0 0 0 0 0 0 0 0 0 0 0 0 0 0 0 0 0 0 -3.97416280119111 0 0 0 0 0 0 0 0 0 0 0 0
0 0 0 0 0 0.202179612501245 0.392952938316637 0.112343694769159 0.137906618153655 0 0 0 0 0 0 0 0 0 0 0 0 0 0 0 0 0 0 0 0 0 0 0 0 0 0 0 -1.72796161675963 -0.277469792705903 0 0 0 0 0 0 0 0 0 0 0 -8.1026010885372
0 0.628598889815747 0.475933810944484 0 1.4565242724643 0.42643938553636 0 0.33851759079899 0.16818584541527 0 0 0 0 0 0 0 0 0 0 0 0 0 0 0 0 0 0 0 0 0 0 0 0 0 0 0 0 0 0 0 0 0 0 0 0 0 -5.56939064445576 -1.83271754293099 0 -0.280787236760307
0 0 0 0 0 0 0 0 0 0 0 0.207887379480524 0.401945038880734 0.191614616671976 0 0 0 0 0 0 0 0 0 0 0 0 0 0 0 0 0 0 0 0 0 0 0 -1.314707247477 0 0 0 0 0 0 0 0 -5.56335300543827 0 0 -0.124441175765851
0 0 0 0 0 0 0 0 0 0 0 0 0 0 0 0 0 0 0.867457087515583 0.0518195508496287 0 0 0.121270975144478 0 0.387151665509062 0 0 0.0663630106226341 0 0 0.937491312619661 0 0 0.364836669409999 0 0 0 -2.1597463134531 0 0 0 0 0 0 0 0 0 -2.31314390778637 0 0
0 0 0 0 0 0 0 0 0 0 0 0 0 0 0 0 0 0 0 0 0.159307349150394 0.0646352423689126 0.08151970424453 0 0.121010011268323 0.412576151226002 0.201978398887072 0.674189901080226 0.462598668839281 0.22841440079413 0 0 0.785894195062971 0.0602471062605575 0 0.253601419803113 0.397893446592557 0 0.0725306616406187 0 0 0 0 0 0 0 0 0 0 0
0 0 0 0 0 0.521360823721922 0.153129553718651 0.107704768128937 0 0 0 0 0 0 0 0 0 0 0 0 0 0 0 0 0 0 0 0 0 0 0 0 0 0 0 0 0 -0.364248363263232 0 0 0 0 0 0 0 0 -2.50231367975687 0 0 -2.05093486405886
0 0 0 0 0.0676549079970011 0.771823203178431 0 0.131424170881232 0 1.17062663446551 0 0 0.14550744037731 0.0333352215387466 0.3188079759198 0 0 0 0 0 0 0 0 0 0 0 0 0 0 0 0 0 0 0 0 0 0 0 0 0 0 0 0 0 0 0 -1.68393812289681 0 0 -0.549888116940219
0 0 0 0 0 0 0 0 0 0 0 0 0 0 0 0 0 0 0 0 0 0 0 0 0 0 0 0 0 0.0908500806793318 0 0 0 0 0 0 0 0 0 0 0 0 0 0 0 0 0 0 0 0
0 0 0 0 0 0 0 0 0 0 0 0 0.511198377168594 0.377559054791699 0 0 0.176657175953868 0.242636207633735 0 0.14124035023896 0.408153045064089 0 0 0 0 0 0 0 0 0 0 0 0 0 0 0 0 0 0 0 0 0 0 0 0 0 -0.316075724999886 -5.98483560248774 0 -0.724336381974591
0 0 0 0 0 0 0 0 0 0 0 0 0 0 0 0 0.0382698104266163 0.0387769506560045 0.0304092925053001 0 0 0 0 0 0 0 0 0 0 0 0 0 0 0 0 0 0 0 0 0 0 0 0 0 0 0 -0.846146610314852 0 0 -0.566410491356594
0 0 0 0 0 0 0 0 0 0 0.164727021782816 0 0.117121206524262 0.360719739285903 0.0258822924650828 0 0.155860957822088 0.0492226288880319 1.10095854828545 0 0 0 0 0 0 0 0 0 0 0 0 0 0 0 0 0 0 0 0 0 0 0 0 0 0 0 0 0 0 -6.786784677389
0 0 0 0 0 0 0 0 0 0 0 0 0 0 0 0 0 0 0 0 0 0 0 0 0 0 0 0 0 0 0 0 0 0 0 0 0 0 0 0 0 0 0 0 0 0 -0.949309766892253 -0.884886804143623 0 0
0 0 0 0 0 0 0 0 0 0 0 0 0 0 0 0 0 0 0 0 0 0 0 0 0 0 0 0 0 0 0 0 0 0 0 0 0 0 0 0 0 0 0 0 0 0 -0.919092229602861 -2.55508373298791 0 -1.96668922727333
0 0 0 0 0 0 0 0 0 0 0 0 0 0 0 0 0 0 0 0 0 0 0 0 0 0 0 0 0 0 0 0 0 0 1.18737066502846 1.16379556977736 0 0 0.486523616535899 0.310174860613684 0 0.0587584201142633 0.173168721008447 0 0.18036718870368 0.181815788080446 0 0 -0.585191575116853 0
0 0 0 0 0 0 0 0 0 0 0 0 0 0 0 0 0 0 0 0 0 0 0 0 0 0 0 0 0 0 0 0 0 0 0.364977795539988 0 0.441749405802457 0 0 0 0 1.19259687800748 0 0 0.17741410308911 0.557171481503701 0 0 0 0
0 0 0 0 0 0 0 0 0 0 0 0 0 0 0 0 0 0 0 0 0 0 0 0 0 0 0 0 0 0 0 0 0 0 0 0 0 0 0 0 0 0 0 0 0 0 0.117354682239399 0 0 0
0 0 0 0 0 0 0 0 0 0 0 0 0 0 0 0 0 0 0 0 0 0 0 0 0 0 0 0 0 0 0 0 0 1.58629995102443 0.0572791551730855 0.0240044035983834 0 0 0.390172171632196 0.110808844807362 0 0.150203843306033 0.105862105641352 1.33894267503319 0 0.396727291412416 0 0 0 0
