0.586106521875631
3.35896211334951
0.29943259234702
2.18552831001442
0.467378842269918
0.737162512021645
1.30884414847364
3.88069364380785
3.52169375041688
0.532877316864022
2.04850338210216
3.86040165311968
0.540144567107205
0.568849266885604
0.188258637973509
0.0781116661278395
3.9821864072212
7.6768333602177
0.420583283359569
2.05346112977086
0.0243767319682116
0.614366374233177
0.0744625247329754
0.0593829779752156
0.301144727811126
0.91485265433539
1.05367617347645
1.03770202809606
1.34945043542158
0.0130441636878734
0.220268718224565
2.95507956893138
0.199028423956299
1.83853375152953
0.477584365725119
0.492194534248677
0.553840578733804
0.172554331140096
0.012578131086466
0.138026519195517
0.43924377693404
1.35925536111132
0.832170904007605
0.160478555817176
0.765307070382234
0.257754296922026
1.32137591763946
0.865355724687883
0.447015107585936
0.033013057152487
