0.205184753851185
0.638572432532212
0.819540633534042
0.356675003079693
0.340322320291202
0.23061804387753
0.29706823847979
0.11621812207652
0.466681509509718
1.88664475626197
1.22545390491536
0.232232350069941
0.466267219490874
0.0421801887247899
0.819927690899066
1.65131114654075
0.418220791738265
0.144273078997928
2.18071765900478
0.545139990294623
0.273550243071154
0.144995352500442
0.169864917871861
0.213965550818644
1.17971662712159
0.0968171677189686
0.622482859001604
0.279874958439573
0.148970695170779
0.314176826545391
1.65820227004335
1.30183963130156
1.33519516270977
0.0415311039068548
1.31535837038822
0.347344219706212
0.473157213271433
0.246479129196442
1.17481539616326
0.623562095231199
1.10619951701471
0.325184540007246
0.634041670056265
0.212014207929615
0.17237509355841
2.06874514198174
0.740348082673624
1.52375872409038
0.221665935342995
0.467838185240251
