0 0 0 0 0 0 0 0 0 0 0 0 0 0 0 0 0 0 0 0 -0.698447073729088 0 0 0 -0.796126038064748 0 0 0 0 0 0 0 0 0 0 0 0 0 0 0 0 0 0 0 0 0 0 0 0 0
0 0 0 0 -2.37391982754984 -0.712018318424371 0 0 0 0 0 0 0 0 0 0 0 0 0 0 0 0 0 0 -1.84072117889544 0 0 0 0 0 0 0 0 0 0 0 0 0 0 0 0 0 0 0 0 0 -0.284667198808139 0 0 0
0 0 0 0 -4.62771254617623 0 0 0 0 0 0 0 0 0 0 0 0 0 0 0 0 0 0 0 0 0 0 0 0 0 0 0 0 0 0 0 0 -1.57399402405221 0 0 0 0 0 0 0 0 -2.45621104354694 0 0 0
0 0 0 0 -2.05688253461603 0 0 0 0 0 0 0 0 0 0 0 0 0 0 0 0 0 0 0 0 0 0 0 0 0 0 0 0 -1.96362799597014 0 0 0 0 0 0 0 0 0 0 0 0 0 0 0 0
0 0.486723477973676 0.916021639328499 0.395978379267151 0 0 -0.535864914986991 -0.948779424616641 0 0 0 0 0 0 0 0 0 0 0 0 0 0 0 0 0 0 -1.32484761058743 0 0 0 0 0 0 -5.24652847198707 0 0 0 0 0 0 0 0 0 0 0 0 0 0 0 0
0 0.160728416685876 0 0 0 0 0 -8.15712820203944 0 0 0 0 0 0 -9.03280079757448 0 0 0 0 0 0 0 0 0 0 0 -0.178424212798225 0 0 0 -2.33668500196627 0 0 -0.135250048743776 0 0 0 -2.90827908679932 0 0 0 0 0 0 0 0 0 0 0 0
0 0 0 0 0.116408881292423 0 0 0 0 0 0 0 0 0 -1.14833562260351 0 0 0 0 0 0 0 0 0 0 0 0 0 0 0 0 0 0 -2.016318792557 0 0 0 -0.612272487208761 0 0 0 0 0 0 0 0 -0.195838377997645 -0.811982849481444 0 0
0 0 0 0 0.182287798622299 1.64677986187224 0 0 0 -0.595118954449406 0 0 0 -2.7093620912347 -4.74640096298097 0 0 0 0 0 0 -1.00877262454134 0 0 0 0 0 0 0 0 0 0 0 0 0 0 0 -1.62954602190682 0 0 0 0 0 0 0 0 -2.19757002361899 0 0 0
0 0 0 0 0 0 0 0 0 -0.343976659452688 0 0 0 -0.891880786391454 0 0 0 0 0 0 0 0 0 0 0 -1.30954799334281 0 0 0 -0.215107287736275 0 0 0 0 0 0 0 -0.438398715532087 0 0 0 0 0 0 0 0 -1.69698636671389 -2.57967273623058 0 0
0 0 0 0 0 0 0 0.119677117494897 0.0750373870899994 0 0 0 0 0 0 0 0 0 0 0 0 -7.60329938133799 0 0 0 0 0 0 0 0 0 0 0 0 0 0 0 0 0 0 0 0 0 0 0 0 0 -1.04923915778378 0 -0.375962058164166
0 0 0 0 0 0 0 0 0 0 0 0 0 0 0 0 0 0 0 0 0 0 0 0 0 0 0 0 0 0 0 0 0 0 0 -0.51018096735485 0 0 0 0 0 0 0 0 0 0 0 -3.32067149510284 0 -1.03298942808994
0 0 0 0 0 0 0 0 0 0 0 0 0 0 0 0 0 0 0 0 0 0 0 0 0 0 0 0 0 -0.197040827908827 0 0 0 0 0 -6.59123221359976 0 -2.9937893621929 0 0 0 0 0 0 0 0 0 -0.19647852675214 0 -0.745264157012434
0 0 0 0 0 0 0 0 0 0 0 0 0 0 0 0 0 0 0 0 0 0 0 0 0 0 0 0 0 -0.541216743151881 0 0 0 0 0 0 0 0 -0.352450174776736 0 0 0 0 0 0 0 -1.07885505859698 -0.299963703359658 0 0
0 0 0 0 0 0 0 0.546563979498498 0.188014355480593 0 0 0 0 0 0 -0.809202608428595 -0.772570904183135 -0.2691577814979 0 0 0 0 0 -2.34918179868592 0 0 0 0 0 0 0 0 0 0 0 0 0 0 -0.671972720242052 0 0 0 0 0 0 0 0 0 0 0
0 0 0 0 0 1.8340787598234 0.221191198391281 0.925092375071432 0 0 0 0 0 0 0 0 0 -1.50651536801151 0 0 0 0 0 0 0 0 0 0 0 -0.766715773544099 0 0 0 0 0 0 0 0 -0.989301132492362 0 0 0 0 0 0 0 0 -0.731984413793765 0 0
0 0 0 0 0 0 0 0 0 0 0 0 0 0.153000306112479 0 0 0.316307422456984 0.231891327918957 0 0 0 0 0 0 0 0 0 0 0 -0.830261868661579 0 0 0 0 0 0 0 0 -1.1977137658562 0 0 0 0 0 0 0 0 -0.369750442948732 0 0
0 0 0 0 0 0 0 0 0 0 0 0 0 0.154716924005467 0 -1.46403832129093 0 -0.21119741235786 0 0 0 0 0 0 0 0 0 0 0 0 0 0 0 0 0 0 0 0 -1.43087419892036 0 0 0 0 0 0 0 0 -1.13024583834097 0 0
0 0 0 0 0 0 0 0 0 0 0 0 0 0.0502748805339166 0.309190272115032 -1.2932107334506 0.0412830586942882 0 0.151358066891856 0 0 0 0 0 0 0 0 0 0 -0.936234830568553 0 0 0 0 0 0 0 0 -0.290157147313666 0 0 0 0 0 0 0 0 0 0 0
0 0 0 0 0 0 0 0 0 0 0 0 0 0 0 0 0 -0.707126631667796 0 0 0 0 0 0 0 0 0 0 -1.44870969685646 0 0 0 0 0 0 0 0 0 0 0 0 0 0 0 0 0 0 0 0 0
0 0 0 0 0 0 0 0 0 0 0 0 0 0 0 0 0 0 0 0 0 0 0 0 0 0 0 0 -0.764158893776001 0 0 0 0 0 0 0 0 0 0 0 0 0 0 0 0 0 0 0 0 0
0.128085145132797 0 0 0 0 0 0 0 0 0 0 0 0 0 0 0 0 0 0 0 0 0 0 0 0 0 0 0 -0.140252735680093 0 0 0 0 0 0 0 0 0 0 0 0 0 0 0 0 0 0 -2.42815360556175 0 0
0 0 0 0 0 0 0 0.207318062855279 0 1.47593392408516 0 0 0 0 0 0 0 0 0 0 0 0 0 0 0 0 0 0 0 0 0 0 0 0 0 0 0 0 0 0 0 0 0 0 0 0 0 -2.18717262347932 0 0
0 0 0 0 0 0 0 0 0 0 0 0 0 0 0 0 0 0 0 0 0 0 0 0 0 0 0 0 -0.551784919992992 0 0 0 0 0 0 0 0 0 0 0 0 0 0 0 0 0 0 0 0 0
0 0 0 0 0 0 0 0 0 0 0 0 0 0.447897741195884 0 0 0 0 0 0 0 0 0 0 0 0 0 0 0 0 0 0 0 0 0 0 0 0 0 0 0 0 0 0 0 0 0 -11.8835269507578 0 0
0.165077598002585 0.38894175886397 0 0 0 0 0 0 0 0 0 0 0 0 0 0 0 0 0 0 0 0 0 0 0 0 0 0 -1.55480719212186 0 0 0 0 0 0 0 0 0 0 0 0 0 -1.4040597346702 -0.295049062347339 0 -2.80980235642622 0 0 0 0
0 0 0 0 0 0 0 0 0.280102086906385 0 0 0 0 0 0 0 0 0 0 0 0 0 0 0 0 0 0 0 -0.375932741192633 0 0 0 0 0 0 0 0 0 0 0 0 0 -1.74017305449379 0 0 -1.50133848431749 0 -1.72837180108327 0 0
0 0 0 0 0.267276772021506 0.0340194602820451 0 0 0 0 0 0 0 0 0 0 0 0 0 0 0 0 0 0 0 0 0 0 -0.294209123556195 0 0 0 0 0 0 0 0 0 0 0 0 0 -1.21750118324783 -1.38854012063743 0 -0.482559787394334 0 0 0 0
0 0 0 0 0 0 0 0 0 0 0 0 0 0 0 0 0 0 0 0 0 0 0 0 0 0 0 0 -0.601003892550232 0 0 0 0 0 0 0 0 0 0 0 0 0 0 -2.64342458895714 0 0 0 0 0 0
0 0 0 0 0 0 0 0 0 0 0 0 0 0 0 0 0 0 0.302340555946965 0.165168770889059 0.0287474837550492 0 0.116535017571863 0 0.282502802091263 0.082834313886218 0.0606516418552666 0.123551603902982 0 0 0.0859700781698266 0 0 0 0 0 0 0 0 0 0 0 0 -0.189076116615608 0 -1.69776288496838 0 0 0 0
0 0 0 0 0 0 0 0 0.038768380259901 0 0 0.0424306808219732 0.108626364623084 0 0.15879529237255 0.163264471343136 0 0.183798766448153 0 0 0 0 0 0 0 0 0 0 0 0 0 0 0 0 0 0 0 0 0 0 0 0 -2.63444482774906 0 0 -1.67929105597914 0 0 0 0
0 0 0 0 0 0.446061241826976 0 0 0 0 0 0 0 0 0 0 0 0 0 0 0 0 0 0 0 0 0 0 -0.44453240401231 0 0 0 -0.710046020480745 0 0 0 0 0 0 0 0 0 0 0 0 -1.22693475780051 0 0 0 0
0 0 0 0 0 0 0 0 0 0 0 0 0 0 0 0 0 0 0 0 0 0 0 0 0 0 0 0 0 0 0 0 -0.997791085772673 0 0 0 0 0 0 0 0 0 0 0 0 0 0 0 0 0
0 0 0 0 0 0 0 0 0 0 0 0 0 0 0 0 0 0 0 0 0 0 0 0 0 0 0 0 0 0 0.143901414995626 0.209369330777784 0 0 0 0 -1.7473120519377 0 0 0 0 0 0 0 0 -2.06839597553604 0 0 0 0
0 0 0 0.391111255371268 1.08600052082416 0.0249663982971992 0.389500500381445 0 0 0 0 0 0 0 0 0 0 0 0 0 0 0 0 0 0 0 0 0 0 0 0 0 0 0 0 0 0 0 0 0 0 0 0 0 0 0 0 0 0 0
0 0 0 0 0 0 0 0 0 0 0 0 0 0 0 0 0 0 0 0 0 0 0 0 0 0 0 0 0 0 0 0 0 0 0 0 0 0 0 0 0 0 0 0 0 -7.00077488393799 0 0 -0.359354892837027 0
0 0 0 0 0 0 0 0 0 0 0.0992917306943978 1.44433843691478 0 0 0 0 0 0 0 0 0 0 0 0 0 0 0 0 0 0 0 0 0 0 0 0 0 0 0 0 0 0 0 0 0 0 0 0 -0.467406307132726 0
0 0 0 0 0 0 0 0 0 0 0 0 0 0 0 0 0 0 0 0 0 0 0 0 0 0 0 0 0 0 0 0 0.342240013180412 0 0 0 0 0 0 0 0 0 0 0 -0.258420667670431 0 0 0 -2.2011422634806 0
0 0 0.31341127977108 0 0 0.604003086641464 0.117104006369595 0.342309867999226 0.0854875618573762 0 0 0.5755822614501 0 0 0 0 0 0 0 0 0 0 0 0 0 0 0 0 0 0 0 0 0 0 0 0 0 0 0 0 0 0 0 0 -1.186103115105 0 0 0 0 0
0 0 0 0 0 0 0 0 0 0 0 0 0.0745628192046558 0.142226904609917 0.191039328598328 0.238282826088892 0.283824999125214 0.0573169136754656 0 0 0 0 0 0 0 0 0 0 0 0 0 0 0 0 0 0 0 0 0 0 0 0 0 0 -2.72759472464218 0 0 0 0 0
0 0 0 0 0 0 0 0 0 0 0 0 0 0 0 0 0 0 0 0 0 0 0 0 0 0 0 0 0 0 0 0 0 0 0 0 0 0 0 0 0 0 0 0 -2.37290591997816 0 0 0 -2.72197759423864 0
0 0 0 0 0 0 0 0 0 0 0 0 0 0 0 0 0 0 0 0 0 0 0 0 0 0 0 0 0 0 0 0 0 0 0 0 0 0 0 0 0 0 0 0 0 0 0 0 -1.95568238731612 0
0 0 0 0 0 0 0 0 0 0 0 0 0 0 0 0 0 0 0 0 0 0 0 0 0 0 0 0 0 0 0 0 0 0 0 0 0 0 0 0 0 0 0 0 0 0 0 0 -0.204799087520642 0
0 0 0 0 0 0 0 0 0 0 0 0 0 0 0 0 0 0 0 0 0 0 0 0 0.300909557596911 0.338327929387255 0.234326598246139 0 0 0.576205691707328 0 0 0 0 0 0 0 0 0 0 0 0 0 0 0 0 0 0 -5.72901951912617 0
0 0 0 0 0 0 0 0 0 0 0 0 0 0 0 0 0 0 0 0 0 0 0 0 0.0566634609561499 0 0.276653141795001 0.550836951599959 0.0402313930613042 0 0 0 0 0 0 0 0 0 0 0 0 0 0 0 0 0 0 0 -1.25478527940294 0
0 0 0 0 0 0 0 0 0 0 0 0 0 0 0 0 0 0 0 0 0 0 0 0 0 0 0 0 0 0 0 0 0 0 0 0 0.0493372940773424 0.244435036780166 0.520563536762685 0.521576438362695 0 0 0 0 0 0 0 0 0 0
0 0 0 0 0 0 0 0 0 0 0 0 0 0 0 0 0 0 0 0 0 0 0 0 0.567674653934932 0.299947631555417 0.0906440620030336 0 0.316548354771714 0.349196655663861 0.253607852320079 0 0.353900663263205 0 1.28909160236204 0 0 0 0 0 0 0 0 0 0 0 0 0 -2.50533414911378 0
0 0.0605413189954691 0.447075233526312 0 0 0 0.0415647877136462 0.425369228911293 0.328777901031388 0 0 0 0.201843263006565 0 0 0 0 0 0 0 0 0 0 0 0 0 0 0 0 0 0 0 0 0 0 0 0 0 0 0 0 0 0 0 0 0 0 0 0 0
0 0 0 0 0 0 0.171296606350672 0 0.561089194368814 0.203312973138885 0.66718352297912 0.0387381255276573 0.060367785757109 0 0.162045873533218 0.0780499474013499 0.195516918058372 0 0 0 0.49281449562082 0.455127089124319 0 2.32026421352989 0 0.350925546618698 0 0 0 0 0 0 0 0 0 0 0 0 0 0 0 0 0 0 0 0 0 0 -1.82059877886902 0
0 0 0 0 0 0 0 0 0 0 0 0 0 0 0 0 0 0 0 0 0 0 0 0 0 0 0 0 0 0 0 0 0 0 0.0709429124544868 0.0874997263510604 0.4535244571611 0 0 0.490744538451654 0.385891002594123 0.0400378009806983 1.30978901358313 0.245341843276539 0 0.488622672545826 0 0.342101986139264 0 0
0 0 0 0 0 0 0 0 0 0.0785690925458199 0.237011022204766 0.148994706010514 0 0 0 0 0 0 0 0 0 0 0 0 0 0 0 0 0 0 0 0 0 0 0 0 0 0 0 0 0 0 0 0 0 0 0 0 0 0
