0 0 0 0 0 0 0 -10.2655476085986 0 0 0 0 0 0 0 0 0 0 0 0 0 0 0 0 0 0 0 0 0 0 0 0 0 0 0 0 0 0 0 0 0 0 0 0 0 0 0 0 0 0
0 0 0 0 0 0 0 -0.36084291574286 0 0 0 0 0 0 0 0 0 0 0 0 0 0 0 0 0 0 0 -0.308322164946915 0 0 0 0 0 0 0 0 0 0 0 0 0 0 0 0 0 0 0 0 0 0
0 0 0 -3.62023635486083 0 0 0 0 0 0 0 0 0 0 0 0 0 0 0 0 0 0 0 0 0 0 0 0 0 0 0 0 0 0 0 0 0 0 0 0 0 0 0 0 0 0 0 0 0 -4.71376364781321
0 0 0.72256942588185 0 0 -0.502197664427039 0 0 0 0 0 0 0 0 0 0 0 0 0 0 0 0 0 0 0 0 0 -1.69475826932689 0 0 0 0 -2.29008259887228 0 0 0 0 0 0 0 0 0 0 0 0 0 0 0 0 0
0 0 0 0 0 0 0 0 0 -0.712810540264352 0 0 0 0 0 0 0 0 0 0 0 0 0 0 0 0 0 -0.769616410573085 0 0 0 0 0 0 0 0 -0.280481863854277 0 0 0 0 0 0 0 0 0 0 0 0 0
0 0 0 0.102074759717047 0 0 0 0 0 0 0 0 0 0 0 0 0 -0.482142597208615 0 0 0 0 0 0 0 0 0 0 0 0 0 0 -0.507851440327726 0 0 0 -0.811792967285126 0 0 0 0 0 0 0 0 0 0 0 0 -0.283627975364845
0 0 0 0 0 0 0 0 0 0 0 0 -5.83496430458077 0 0 0 0 -0.687149344249893 0 0 0 0 0 0 -0.781543966500446 0 0 0 0 0 0 0 -2.87497676939483 0 0 0 0 0 0 0 -0.540390745305644 0 0 0 0 0 0 0 0 -0.361184918687134
2.20047211995803 0.0684296858064512 0 0 0 0 0 0 0 0 0 0 -2.06801961170165 0 0 -2.43632663477712 0 0 -1.64738009021887 0 0 -1.18892963166262 0 -0.712059691961323 -0.622063801790156 -1.98363342934366 0 0 0 0 0 0 0 0 0 0 0 0 0 0 -0.46956141197588 0 0 0 0 0 0 0 0 0
0 0 0 0 0 0 0 0 0 0 -1.42696127962512 0 0 0 0 0 0 0 -3.47297337851191 0 0 -3.98467209256854 0 0 -0.606831827974986 0 0 0 0 0 0 0 0 0 -0.473136140004983 0 0 0 0 0 -0.531081263977604 0 0 0 0 0 0 0 0 -1.41392418832902
0 0 0 0 0.14614284708805 0 0 0 0 0 0 -2.31827750078552 0 0 0 0 0 0 0 -1.49109907315817 0 0 0 0 -1.89676039716607 0 -0.109499277947624 0 0 0 0 0 0 0 -1.62322711914978 0 0 0 0 0 -0.51621472957205 0 0 0 0 0 0 0 0 0
0 0 0 0 0 0 0 0 0.28967262848224 0 0 -3.70792324649561 0 0 0 0 0 0 0 0 0 0 0 0 0 0 -3.27974684591158 0 0 0 0 0 0 0 0 0 0 0 0 0 -2.50910050459504 0 0 -1.70726023678551 0 0 -0.575627307191414 0 0 0
0 0 0 0 0 0 0 0 0 0.490826327970732 0.719876843346193 0 0 0 0 0 0 0 0 -0.877072401206331 0 0 0 0 0 0 -0.259352291239769 0 0 0 0 0 0 0 -1.33755778012568 0 0 0 0 0 0 0 0 0 0 0 -0.340152848353638 0 0 0
0 0 0 0 0 0 1.24072725478345 0.410786767513473 0 0 0 0 0 0 0 0 0 0 0 0 0 -1.48279309696148 0 0 0 0 0 0 0 0 0 0 0 -0.596474153497629 -1.2966731555206 0 0 0 0 0 -0.395986849011837 0 0 0 0 -0.50260728011384 0 0 -2.56530491962228 0
0 0 0 0 0 0 0 0 0 0 0 0 0 0 0.130678696292433 0.154753258008213 0.0520245500219376 0 0 0 0 -1.67665436822514 0 0 0 0 0 0 0 0 0 0 0 -0.895058569853567 0 -5.7609979585153 0 0 0 0 0 -0.450007878981152 0 0 0 0 0 0 0 0
0 0 0 0 0 0 0 0 0 0 0 0 0 -0.582698596261452 0 0 0 0 0 0 0 0 0 0 0 0 0 0 0 0 0 0 0 -0.150167293232058 -0.304137212282547 0 0 0 0 0 0 0 0 0 0 -1.38753580732495 0 0 0 0
0 0 0 0 0 0 0 0.491040486277855 0 0 0 0 0 -0.795368701758382 0 0 0 0 0 0 0 0 0 0 0 0 0 0 0 0 0 0 0 -2.12848901351376 -0.439871740913406 -1.33734367454767 0 0 0 -2.11210534904749 0 -1.42790194206203 0 0 0 -2.32676964995227 0 0 0 0
0 0 0 0 0 0 0 0 0 0 0 0 0 -0.257184515116191 0 0 0 0 0 0 0 0 0 0 0 0 0 0 0 0 0 0 0 -0.34331656544165 -3.63137079893984 -0.397041559672562 0 0 0 -0.93442474831098 0 -0.117733352005827 0 0 0 0 0 0 -1.18486123603682 0
0 0 0 0 0 0.0895260774017478 0.151644374261018 0 0 0 0 0 0 0 0 0 0 0 0 0 0 -0.363589408019099 0 0 0 0 0 0 0 0 0 0 0 0 -0.527453816483231 0 0 0 0 0 0 -0.396046192192305 0 0 0 0 0 0 0 0
0 0 0 0 0 0 0 0.327888339402169 0.737474687876395 0 0 0 0 0 0 0 0 0 0 0 0 -2.07334242997031 0 0 0 0 0 0 0 0 0 0 0 -0.57088209306279 -1.6380502762579 0 0 0 0 0 0 0 0 0 0 0 0 0 0 0
0 0 0 0 0 0 0 0 0 0.289642683464059 0 0.17909564784199 0 0 0 0 0 0 0 0 0 -0.584283845577379 0 0 0 0 0 0 0 0 0 0 0 0 -0.5983827751223 -1.00416178100302 0 0 0 -1.12461525100445 0 0 0 0 0 0 0 0 0 0
0 0 0 0 0 0 0 0 0 0 0 0 0 0 0 0 0 0 0 0 0 0 0 0 0 0 0 0 0 0 -1.14502894979423 0 0 -0.384736899252457 0 -0.484091210617571 0 0 0 0 0 0 0 0 0 0 0 0 0 0
0 0 0 0 0 0 0 0.225640902774337 0.847792156409863 0 0 0 0.310665237583972 0.32072330409131 0 0 0 0.0716405988079289 0.409948416381277 0.119093252319934 0 0 0 0 0 0 0 0 0 0 0 0 0 0 0 -0.905678150576688 0 0 0 -3.78317276160299 0 0 0 0 0 0 0 0 0 0
0 0 0 0 0 0 0 0 0 0 0 0 0 0 0 0 0 0 0 0 0 0 0 0 0 0 0 0 0 0 0 0 0 0 0 -0.286055531379652 0 0 0 -2.09901518876947 0 0 0 0 0 0 0 0 0 0
0 0 0 0 0 0 0 0.142091176904665 0 0 0 0 0 0 0 0 0 0 0 0 0 0 0 0 0 0 0 0 0 0 -1.25320751573378 0 0 0 0 -0.299908027183171 0 0 0 -2.04564318825208 0 0 0 0 0 0 0 0 0 0
0 0 0 0 0 0 0.158550682823012 0.117740130422045 0.119505889225347 0.410348742823993 0 0 0 0 0 0 0 0 0 0 0 0 0 0 0 0 0 0 0 0 -0.084492568157721 0 0 -0.280332499662152 0 -2.85436608291343 0 -1.22225817679998 0 -1.54510952478074 0 0 0 0 0 0 0 0 0 0
0 0 0 0 0 0 0 0.366101617924799 0 0 0 0 0 0 0 0 0 0 0 0 0 0 0 0 0 0 0 0 0 0 -0.401587062745246 0 0 0 0 -7.22979640756218 0 -0.842985361150727 0 0 0 0 0 0 0 0 0 0 0 0
0 0 0 0 0 0 0 0 0 0.021844946471357 0.624019862310232 0.0524518956013478 0 0 0 0 0 0 0 0 0 0 0 0 0 0 0 0 0 0 -4.10145058734045 0 0 0 0 -0.325485255211194 0 -2.98934156184634 0 -0.578606884888945 0 0 0 0 0 0 0 0 0 0
0 0.0601902745235309 0 0.327792098952272 0.14267617042512 0 0 0 0 0 0 0 0 0 0 0 0 0 0 0 0 0 0 0 0 0 0 0 0 0 0 0 0 0 0 0 0 -1.70868747354188 0 -0.715306807184408 0 0 0 0 0 0 0 0 0 0
0 0 0 0 0 0 0 0 0 0 0 0 0 0 0 0 0 0 0 0 0 0 0 0 0 0 0 0 0 0 0 0 0 0 0 0 0 -0.740586422875126 0 0 0 0 -0.767153158830991 0 0 0 0 0 0 0
0 0 0 0 0 0 0 0 0 0 0 0 0 0 0 0 0 0 0 0 0 0 0 0 0 0 0 0 0 0 0 0 0 0 0 0 0 -0.84366143531176 -0.177752596957198 0 0 0 0 0 0 0 0 -0.181237204253547 0 0
0 0 0 0 0 0 0 0 0 0 0 0 0 0 0 0 0 0 0 0 0.215872715899724 0 0 0.251263806810329 0.0161985540253919 0.0762710813429982 0.746174838810025 0 0 0 0 0 0 0 0 0 0 -2.53985602799396 -0.902677469047457 0 0 0 -0.191005159448344 0 -2.26870004625075 0 0 -0.774008278420522 0 0
0 0 0 0 0 0 0 0 0 0 0 0 0 0 0 0 0 0 0 0 0 0 0 0 0 0 0 0 0 0 0 0 0 0 0 0 0 -3.99590396451023 0 0 0 0 0 0 -1.79939036554814 0 0 0 0 0
0 0 0 0.466538323328282 0 0.103833294524495 0.579964651177973 0 0 0 0 0 0 0 0 0 0 0 0 0 0 0 0 0 0 0 0 0 0 0 0 0 0 0 0 0 0 -0.433436249749502 0 -0.638145434900334 0 0 -0.12709572373258 0 -0.608320968960986 0 0 0 0 0
0 0 0 0 0 0 0 0 0 0 0 0 0.119409192330019 0.168444237189192 0.0297657939138792 0.429136054582649 0.0668493681790093 0 0.107060783766589 0 0.0712252414093819 0 0 0 0.0570750450545456 0 0 0 0 0 0 0 0 0 0 0 0 0 0 0 0 0 -5.13171240566768 0 0 0 0 0 0 0
0 0 0 0 0 0 0 0 0.096063108228741 0.332967996264109 0 0.270214440499825 0.27330502096732 0 0.0620709230341052 0.0862525896058954 0.754800328674621 0.105060339962093 0.34383440467749 0.120046581152922 0 0 0 0 0 0 0 0 0 0 0 0 0 0 0 0 0 0 0 0 0 0 0 0 0 0 0 -0.989237745168308 0 0
0 0 0 0 0 0 0 0 0 0 0 0 0 1.14019301101263 0 0.249602176827545 0.0754057879774275 0 0 0.20985429656519 0.0942228259158622 0.181705402611805 0.0573114955009622 0.0593303296885765 0.574959644613342 1.42851925168403 0.0681773579352221 0 0 0 0 0 0 0 0 0 0 0 0 -0.119475856065853 0 0 0 0 0 0 0 0 0 0
0 0 0 0 0.056127378640299 0.16763157433498 0 0 0 0 0 0 0 0 0 0 0 0 0 0 0 0 0 0 0 0 0 0 0 0 0 0 0 0 0 0 0 0 0 0 0 0 0 0 0 0 0 -1.22181102504485 0 0
0 0 0 0 0 0 0 0 0 0 0 0 0 0 0 0 0 0 0 0 0 0 0 0 0.258623596934653 0.174328626007369 0.595822295184134 0.348726935486608 0.15227286171653 0.177766861362621 0.488478823674808 0.782219096114791 0.0886656015850141 0 0 0 0 0 0 0 0 0 0 0 0 0 0 -0.495574174606629 0 0
0 0 0 0 0 0 0 0 0 0 0 0 0 0 0 0 0 0 0 0 0 0 0 0 0 0 0 0 0 0.0365503576649975 0.163986740028797 0 0 0 0 0 0 0 0 0 0 0 0 0 0 0 0 -0.981576970954104 0 0
0 0 0 0 0 0 0 0 0 0 0 0 0 0 0 0.411296276376154 0.199455586995444 0 0 0.24475262330392 0 0.755741109125532 0.457295995086057 0.405556843041651 0.319152491945031 0 0.113818799222043 0.155324662424539 0 0 0 0 0.130298583895247 0 0 0.0227460083314222 0 0 0 0 0 0 0 0 0 0 0 0 0 0
0 0 0 0 0 0 0.0949314415024516 0.0929334260363641 0.0956121648936107 0.102453770900562 0.523232993028875 0 0.0765009211594416 0 0 0 0 0 0 0 0 0 0 0 0 0 0 0 0 0 0 0 0 0 0 0 0 0 0 0 0 0 0 0 0 0 0 -0.255162063146074 0 0
0 0 0 0 0 0 0 0 0 0 0 0 0 0.0902252109497114 0 0.281152543407444 0.0229876001840667 0.0825852495746805 0 0 0 0 0 0 0 0 0 0 0 0 0 0 0 0 0 0 0 0 0 0 0 0 0 0 0 0 0 -1.40359314935069 0 0
0 0 0 0 0 0 0 0 0 0 0 0 0 0 0 0 0 0 0 0 0 0 0 0 0 0 0 0 0.152037480858634 0 0.0380145925791548 0 0.0246366401018791 1.06926729154549 0 0 0 0 0 0 0 0 0 0 0 0 0 0 0 0
0 0 0 0 0 0 0 0 0 0 0.364292204053482 0 0 0 0 0 0 0 0 0 0 0 0 0 0 0 0 0 0 0 0 0 0 0 0 0 0 0 0 0 0 0 0 0 0 0 0 0 0 0
0 0 0 0 0 0 0 0 0 0 0 0 0 0 0 0 0 0 0 0 0 0 0 0 0 0 0 0 0 0 0.464624132041228 0.358381398350852 0.117568080067872 0 0 0 0 0 0 0 0 0 0 0 0 0 0 0 0 0
0 0 0 0 0 0 0 0 0 0 0 0 0.098416602215057 0 0.269422363735107 0.425824605588863 0 0 0 0 0 0 0 0 0 0 0 0 0 0 0 0 0 0 0 0 0 0 0 0 0 0 0 0 0 0 0 0 0 0
0 0 0 0 0 0 0 0 0 0 0.119416843484906 0.065204692941685 0 0 0 0 0 0 0 0 0 0 0 0 0 0 0 0 0 0 0 0 0 0 0 0 0 0 0 0 0 0 0 0 0 0 0 0 0 0
0 0 0 0 0 0 0 0 0 0 0 0 0 0 0 0 0 0 0 0 0 0 0 0 0 0 0 0 0 0.0371972181291109 0.171422198273659 0 0 0 0.203385408970157 0 0.236510179165576 0.104703183985651 0.184271978288321 0 0.0465247622518638 0.288012600036453 0 0 0 0 0 0 0 0
0 0 0 0 0 0 0 0 0 0 0 0 0.477705910933234 0 0 0 0.247925100921588 0 0 0 0 0 0 0 0 0 0 0 0 0 0 0 0 0 0 0 0 0 0 0 0 0 0 0 0 0 0 0 0 0
0 0 0.874747863042903 0 0 0.054947033260921 0.0741510978633721 0 0.243252898120092 0 0 0 0 0 0 0 0 0 0 0 0 0 0 0 0 0 0 0 0 0 0 0 0 0 0 0 0 0 0 0 0 0 0 0 0 0 0 0 0 0
