0 0 0 0 0 0 0 0 0 0 0 0 0 -0.650707446204478 0 0 0 0 0 0 0 0 0 0 0 0 0 0 0 0 0 0 0 0 0 0 0 0 0 0 0 0 0 0 0 0 0 0 0 0
0 0 0 0 0 -0.557696667910435 0 0 0 0 0 0 0 -0.772110145907035 0 0 0 0 0 0 0 0 0 0 0 0 0 0 -2.18976102882247 0 0 0 0 0 0 0 0 0 0 0 0 0 0 0 0 0 0 0 0 0
0 0 0 0 0 -0.610936706994055 0 0 0 0 0 0 0 -0.48438099515896 0 0 0 -1.25157612665447 0 0 0 0 0 0 0 0 0 0 -3.07925945022628 0 0 0 0 0 0 0 0 0 0 0 0 0 0 0 0 0 0 0 0 0
0 0 0 0 0 -2.06851517402385 0 0 0 0 0 0 0 -1.21400611617872 0 0 0 -1.60992541257758 0 0 0 0 0 0 0 0 0 0 -0.340932719476174 0 0 0 0 0 0 0 0 0 0 0 0 0 0 0 0 0 0 0 0 0
0 0 0 0 0 0 0 0 0 0 0 0 0 0 0 0 0 -1.48977398865767 0 -0.455846383749966 0 0 0 0 0 0 0 0 0 0 0 0 0 0 0 0 0 0 0 0 0 0 0 0 0 0 0 0 0 0
0 0.102015507468657 0.123150871357467 0.400577619067621 0 0 0 0 0 -1.58421711579867 0 0 0 0 0 0 0 -1.65853029760738 0 -2.07047157839326 0 0 0 0 0 0 0 0 -1.17951612257591 0 0 0 0 0 0 0 0 0 0 0 0 0 0 0 0 0 0 0 0 -0.327992980903839
0 0 0 0 0 0 0 -0.147409486826229 0 0 0 -0.304929588163752 0 0 0 0 0 0 0 0 0 0 -0.579961729129476 0 0 0 0 0 -0.94901452254306 0 0 0 0 0 0 0 0 0 0 0 0 0 0 0 0 0 0 0 0 -0.606360984198916
0 0 0 0 0 0 0.0283534673814747 0 0 0 0 0 0 0 0 0 0 0 -1.04330033516164 0 0 0 0 0 0 0 0 0 0 0 0 0 0 0 0 0 0 0 0 0 0 0 0 0 0 0 0 0 0 -0.192795301021774
0 0 0 0 0 0 0 0 0 0 0 0 0 0 0 0 0 0 -3.14363335740099 0 0 0 0 0 0 0 0 0 0 0 0 0 0 0 0 0 0 0 0 0 0 0 0 0 0 0 0 0 0 0
0 0 0 0 0 0.333077835334615 0 0 0 0 0 0 0 0 -0.61088742563229 0 0 0 -3.78583029667802 0 0 0 0 0 0 0 0 0 -0.725485410874724 0 0 0 0 0 0 0 0 0 0 0 0 0 0 0 0 0 0 0 0 -0.586748138165017
0 0 0 0 0 0 0 0 0 0 0 0 0 0 0 0 0 0 0 0 -1.516736699319 0 0 0 0 0 0 0 0 0 0 0 0 0 0 0 0 0 0 0 0 0 0 0 0 -0.085154344102016 0 0 0 0
0 0 0 0 0 0 0.0612797459044274 0 0 0 0 0 -1.13970061081771 0 0 0 0 0 0 0 0 -2.58934731088861 0 0 0 0 0 0 0 0 0 0 0 0 0 0 0 0 0 0 0 0 0 0 0 -1.10527541960465 0 0 0 -1.38290112134677
0 0 0 0 0 0 0 0 0 0 0 0.234891706267998 0 0 0 0 0 0 0 0 0 0 0 0 0 0 0 -1.32006703347712 -0.20504449686009 0 0 0 0 0 0 0 0 0 0 0 0 0 0 0 0 0 0 0 0 -6.32237287013235
0.127583362448161 0.155966637373052 0.094744096784038 0.246742804158043 0 0 0 0 0 0 0 0 0 0 0 0 0 0 0 0 -0.339970284588343 0 0 0 0 -0.727862264264039 0 0 0 0 0 0 0 0 0 0 0 0 -0.254006078559973 0 0 0 0 0 0 0 0 0 0 0
0 0 0 0 0 0 0 0 0 0.124483012363312 0 0 0 0 0 0 0 0 0 0 -0.44539733087068 0 0 0 0 -2.13501864827206 0 0 -4.11449803546414 0 0 0 0 0 0 0 0 0 -3.5118322265039 0 0 0 0 -4.95959692793425 0 0 0 0 0 -0.980534853951888
0 0 0 0 0 0 0 0 0 0 0 0 0 0 0 0 -3.89558570685451 0 0 0 -4.81444055459718 0 0 0 -0.714457926838564 0 0 0 -1.26774722193511 0 0 0 0 0 0 0 0 0 0 0 0 0 0 -7.04215718584651 0 0 0 0 0 0
0 0 0 0 0 0 0 0 0 0 0 0 0 0 0 0.695695289680213 0 0 0 0 0 0 0 0 0 0 0 0 0 0 0 0 0 0 0 0 0 0 -0.744642335179729 0 0 0 0 0 0 0 0 0 0 -0.387309553911736
0 0 0.258184441702272 0.298917969053667 0.301801319692407 0.336069997959111 0 0 0 0 0 0 0 0 0 0 0 0 0 0 0 0 0 0 0 0 0 0 0 0 0 0 0 0 0 0 -1.26638804172911 0 0 0 0 0 0 -0.241101385420936 0 0 -0.972782869504914 0 0 -0.959563653929297
0 0 0 0 0 0 0 0.211563917316766 0.61632027600411 0.831499718842603 0 0 0 0 0 0 0 0 0 0 0 0 0 0 -0.41512913854589 0 0 0 0 0 0 0 0 0 0 0 -0.732716968727711 0 -4.72775882810541 0 0 0 0 0 0 0 -1.63044440136236 0 0 -5.51624786512096
0 0 0 0 0.0909618264550539 0.392675839579626 0 0 0 0 0 0 0 0 0 0 0 0 0 0 0 0 0 0 0 0 0 0 0 0 0 0 0 0 0 0 0 -0.556159039331741 0 0 0 0 0 0 0 0 0 0 0 0
0 0 0 0 0 0 0 0 0 0 0.304236443838074 0 0 0.071968301153582 0.0893059502946005 0.885613033100388 0 0 0 0 0 0 0 0 -3.6043271586719 0 0 0 -0.680739432994571 0 0 0 0 0 0 0 -0.642973349568053 -1.23199995871146 0 0 0 0 0 0 -1.11798097169024 0 -1.61808309799784 0 0 -12.154249147378
0 0 0 0 0 0 0 0 0 0 0 0.486421221622009 0 0 0 0 0 0 0 0 0 0 0 0 0 0 0 0 -0.426453406381652 0 0 0 0 0 0 0 -1.07394669478163 -0.327371018848493 -0.639613166764347 0 0 0 0 -0.580638085372426 -0.567459180081115 0 0 0 0 0
0 0 0 0 0 0 0.119128776171722 0 0 0 0 0 0 0 0 0 0 0 0 0 0 0 0 0 0 0 0 0 -2.09594944976504 0 0 0 0 0 0 0 0 -1.47765165920509 -0.276356749979126 0 0 0 0 0 -0.559287098523168 0 0 0 0 0
0 0 0 0 0 0 0 0 0 0 0 0 0 0 0 0 0 0 0 0 0 0 0 0 0 0 0 0 0 0 0 0 0 0 0 0 0 -1.930774326602 -0.141426161086682 0 0 0 0 0 0 0 0 0 0 0
0 0 0 0 0 0 0 0 0 0 0 0 0 0 0 0.141323155511722 0 0 0.0824109629398639 0 0.715143690038305 0 0 0 0 0 0 0 -2.35448140194306 0 0 0 0 0 0 0 -7.35305228338945 -1.68252827776461 -0.994515525747211 0 0 0 0 -1.42489063452141 0 0 0 0 0 -0.415710681219915
0 0 0 0 0 0 0 0 0 0 0 0 0 0.139937449419205 0.45933887116622 0 0 0 0 0 0 0 0 0 0 0 0 0 0 0 0 0 0 0 0 0 0 -0.512278818119028 -1.84324049725447 0 0 0 0 -0.405011598458016 0 0 0 0 0 0
0 0 0 0 0 0 0 0 0 0 0 0 0 0 0 0 0 0 0 0 0 0 0 0 0 0 0 0 0 0 -1.72805187065599 0 0 0 0 0 0 0 -3.34469487957518 0 0 -0.404635066510822 0 0 0 0 0 0 0 0
0 0 0 0 0 0 0 0 0 0 0 0 0.282715666515265 0 0 0 0 0 0 0 0 0 0 0 0 0 0 0 0 0 0 0 0 -0.894202644704504 0 0 0 0 0 0 0 0 0 0 0 0 0 0 0 0
0 0.415310021366893 0.605848049200736 0.066281619049352 0 0.235441693622819 0.180064164431814 0 0 0.140731990810487 0 0 0.0433333491305411 0 0.799281493297798 0.261650585594185 0 0 0 0 0.120487690930002 0.0882868481534467 0.400315513218627 0 0.457869434227091 0 0 0 0 0 0 0 0 0 0 0 0 -0.405370490177537 -0.845297930691167 0 0 0 0 0 0 0 0 0 0 0
0 0 0 0 0 0 0 0 0 0 0 0 0 0 0 0 0 0 0 0 0 0 0 0 0 0 0 0 0 0 0 0 0 -1.42133492379891 0 0 0 0 -2.29250729927422 0 0 0 0 0 0 0 0 0 0 -0.59368024902452
0 0 0 0 0 0 0 0 0 0 0 0 0 0 0 0 0 0 0 0 0 0 0 0 0 0 0.370607672494114 0 0 0 0 0 0 0 0 0 0 0 -0.884383478470038 0 0 0 0 0 0 0 0 0 0 0
0 0 0 0 0 0 0 0 0 0 0 0 0 0 0 0 0 0 0 0 0 0 0 0 0 0 0 0 0 0 0 0 0 -1.92876020491218 0 0 0 -1.41832032271559 -0.0520058421626324 0 0 0 0 0 0 0 0 0 0 0
0 0 0 0 0 0 0 0 0 0 0 0 0 0 0 0 0 0 0 0 0 0 0 0 0 0 0 0 0 0 0 0 0 -0.698686400072206 0 0 0 -0.981337263802371 0 0 0 0 0 0 0 0 0 0 0 0
0 0 0 0 0 0 0 0 0 0 0 0 0 0 0 0 0 0 0 0 0 0 0 0 0 0 0 0.170113625354951 0 0.272548640694714 0 0.383299262910954 0.127860764745874 0 0 0 0 0 0 0 0 0 0 0 0 0 0 0 0 0
0 0 0 0 0 0 0 0 0 0 0 0 0 0 0 0 0 0 0 0 0 0 0 0 0 0 0 0 0 0 0 0 0 0 0 -0.303556198228131 0 -1.61760719847703 0 0 0 0 0 0 0 0 0 0 0 -1.16427923681623
0 0 0 0 0 0 0 0 0 0 0 0 0 0 0 0 0 0 0 0 0 0 0 0 0 0 0 0 0 0 0 0 0 0 0.0602628459662291 0 0 0 0 0 0 0 0 0 0 0 0 0 0 0
0 0 0 0 0 0 0 0 0 0 0 0 0 0 0 0 0 0.261548779431992 0.151773007512513 0 0.134960861774988 0.217856126527729 0 0 1.48763531466993 0 0 0 0 0 0 0 0 0 0 0 0 0 0 0 0 0 0 0 0 0 0 0 0 0
0 0 0 0 0 0 0 0 0 0 0 0 0 0 0 0 0 0 0 0.126198066770352 0.259542437303071 0.0746640390265111 0.31822489873577 0.398487246995087 0.361363158667698 0.0994386543818084 0 0 0.0798618754641314 0 0 0.251079001896689 0.196321104782688 0 0.325912199748688 0 0 0 0 0 0 0 0 0 0 0 0 0 -0.848908353940312 0
0 0 0 0 0 0 0 0 0 0 0 0 0 0.049778679232008 0.727136384184962 0 0.15554644993715 0 0.929610151111609 0 0 0.134805387539835 0.0511727125363272 0.0248720672131967 0.208053515422837 0.369012770069764 0.68756022562319 0 0.166558208514323 0.483270090456605 0.163851243893402 0.0105651578938312 0 0 0 0 0 0 0 0 0 0 0 0 0 0 0 0 -0.607884387811957 0
0 0 0 0 0 0 0 0 0 0 0 0 0 0 0 0 0 0 0 0 0 0 0 0 0 0 0 0 0 0 0 0 0 0 0 0 0 0 0 0 0 0 0 0 0 0 0 -1.38443811659534 0 0
0 0 0 0 0 0 0 0 0 0 0 0 0 0 0 0 0 0 0 0 0 0 0 0 0 0 0 0 0 0 0 0 0 0 0 0 0 0 0 0 0 0 0 0 0 0 0 0 -0.534429457021696 0
0 0 0 0 0 0 0 0 0 0 0 0 0 0 0 0 0 0 0 0 0 0 0 0 0 0 0.0871313077214437 0 0 0 0 0 0 0 0 0 0 0 0 0 0 0 0 0 0 0 0 -0.282181132151593 -1.7913344770655 0
0 0 0 0 0 0 0 0 0 0 0 0 0 0 0 0 0 0 0 0 0 0 0 0 0 0 0 0 0 0 0 0 0 0 0 0 0 0 0 0 0 0 0 0 0 0 0 -0.242197981730555 0 0
0 0 0 0 0 0 0 0 0 0 0 0 0 0 1.04628217635793 1.45125722219003 0 0.0465926833432494 0 0 0 0.123699800996074 0 0 0.288363561988065 0.0827117519880803 0 0 0 0 0 0 0 0 0 0 0 0 0 0 0 0 0 0 0 0 0 0 0 0
0 0 0 0 0 0 0 0 0 0 0 0 0 0 0 0 0 0 0 0 0.210993770598241 0.117290825955101 0.114623816636407 0 0 0 0 0 0 0 0 0 0 0 0 0 0 0 0 0 0 0 0 0 0 0 0 -2.7422842380321 0 0
0 0 0 0 0 0 0 0 0 0 0.0179664661415098 0.230840602148261 0 0 0 0 0 0 0 0 0 0 0 0 0 0 0 0 0 0 0 0 0 0 0 0 0 0 0 0 0 0 0 0 0 0 0 -2.16218429047448 0 0
0 0 0 0 0 0 0 0 0 0 0 0 0 0 0 0 0 0.212359869200757 0.327076331528687 0 0.307492684865614 0 0 0 0 0 0 0 0 0 0 0 0 0 0 0 0 0 0 0 0 0 0 0 0 0 0 -0.519978882571194 0 0
0 0 0 0 0 0 0 0 0 0 0 0 0 0 0 0 0 0 0 0 0 0 0 0 0 0 0 0 0 0 0 0 0 0 0 0 0 0 0 0.274493709694635 0 0.0591320793480267 0.0544309700134841 0 0.577622757634379 0.404042108277641 0.0969081860345131 0 0 0
0 0 0 0 0 0 0 0 0 0 0 0 0 0 0 0 0 0 0 0 0 0 0 0 0 0 0 0 0 0 0 0 0 0 0 0 0 0.175872191037846 0.127204716558632 0 0.109914232417048 0.359295238496229 0 0 0 0 0 0 0 0
0 0 0 0 0 0.0696156592426777 0.121911501882957 0.036782855717356 0 0.116192629643853 0 0.286439748432148 1.29361313159968 0 0.187706274658823 0 0.0814488037238513 0.189414799925335 1.13582635725997 0 2.62634502119533 0 0 0 0.0848773455629807 0 0 0 0 0.11317442455057 0 0 0 0 0.241453261349961 0 0 0 0 0 0 0 0 0 0 0 0 0 0 0
