0 0 0 -2.45099771278154 -0.43340460114343 0 0 0 0 0 0 0 0 0 0 0 0 0 0 0 0 0 0 0 0 0 0 0 0 0 0 0 0 0 0 0 0 0 0 0 0 0 0 0 0 0 0 0 0 0
0 0 0 0 0 0 0 0 0 0 0 0 0 -0.360025032392539 0 0 0 0 0 0 0 0 0 0 0 0 0 0 0 0 0 0 0 0 0 0 0 0 0 0 0 0 0 0 0 -2.44191037822309 0 0 0 0
0 0 0 0 0 0 0 0 0 0 0 0 0 -0.605080314570796 0 0 0 0 0 0 0 0 0 0 0 0 0 0 0 0 0 0 0 0 0 0 0 0 0 0 0 0 0 0 0 -1.08371597281851 0 0 0 0
0.529802709696689 0 0 0 0 0 0 0 0 0 0 0 0 0 0 0 0 0 0 0 0 0 0 0 0 0 0 0 0 0 0 0 0 0 0 -3.63474520208594 0 0 0 0 0 0 0 0 0 0 0 0 0 0
0.0830536001060719 0 0 0 0 0 0 0 0 0 0 0 0 0 -2.33154775138508 0 0 0 0 0 0 0 0 0 0 -3.79439660521772 0 0 0 0 0 0 0 0 0 0 0 0 0 0 0 0 -4.03639421150186 0 -0.985341203849823 0 0 0 0 0
0 0 0 0 0 0 0 0 0 0 0 0 0 0 0 -1.26797106765571 0 0 0 0 0 0 0 0 0 -1.25977427662197 0 -0.541730804336296 0 0 0 0 0 0 0 0 0 0 0 0 0 0 0 0 -2.31565404007563 0 0 0 0 0
0 0 0 0 0 0 0 0 -2.78761504436062 0 0 0 0 0 -0.781529306555701 -3.55471162152437 0 0 0 0 0 0 0 0 0 0 0 -0.048548766291428 0 0 0 0 0 0 0 0 0 0 0 0 0 0 0 0 -1.35561409123654 0 0 0 0 0
0 0 0 0 0 0 0 0 -0.216991545313103 0 0 0 0 0 0 0 0 0 0 0 0 0 0 -0.605383080818814 -1.74831371042721 0 0 0 0 0 0 0 0 0 -1.96643014984035 0 0 0 0 0 0 0 -2.70402786325855 0 0 0 -1.61625404716499 0 0 0
0 0 0 0 0 0 0.586551090155208 0.0401955022041032 0 0 0 0 0 0 -1.96461325386069 0 0 0 0 0 0 0 0 0 -1.25828780254611 -0.835585856456672 0 0 0 0 0 0 0 -5.18869774047585 -1.43543397444837 0 0 0 0 0 -1.00145171801832 0 0 0 0 0 -0.671039159302236 0 0 0
0 0 0 0 0 0 0 0 0 0 0 -0.214767067204149 0 0 -0.572358954935238 0 0 0 0 0 0 -1.61476627690807 0 0 0 0 0 0 0 0 0 0 0 -1.11031676728314 0 0 0 0 0 0 0 0 0 0 0 0 0 0 0 0
0 0 0 0 0 0 0 0 0 0 0 0 0 0 0 0 0 0 0 0 0 0 0 0 -0.541454297621803 0 0 0 0 0 0 0 0 0 0 0 -3.40825822840345 0 0 0 -0.77975914397045 -0.157625497497178 0 0 0 0 -0.366559194808132 0 0 0
0 0 0 0 0 0 0 0 0 0.0456289472321162 0 0 0 0 -3.07715168933276 0 0 -0.335304592838684 0 0 0 0 0 0 0 0 0 0 0 0 0 -4.11715104741466 0 0 0 0 0 0 0 0 -0.960772298084068 -1.40018675720905 0 0 0 0 -0.929730898526403 0 0 0
0 0 0 0 0 0 0 0 0 0 0 0 0 0 0 0 0 0 0 -0.344981352695646 0 0 0 0 0 0 0 0 0 0 0 0 -1.78578340316014 0 0 0 0 0 0 0 -0.677617309778699 0 0 0 0 0 0 0 0 0
0 0.0749477644835409 0.11673168165364 0 0 0 0 0 0 0 0 0 0 0 0 0 0 0 -0.22251773364797 -3.00104753541118 0 0 0 0 -0.133776931277586 0 0 0 0 0 0 -7.91677369342942 0 0 0 0 0 0 0 0 0 -0.244737033930885 0 0 0 0 -1.73913963316726 0 0 0
0 0 0 0 0.422537903603003 0 0.151525384573311 0 0.388079284096199 0.115175182713359 0 0.601097901822168 0 0 0 0 0 0 -2.23900278333929 -0.33215277176882 0 0 0 0 -0.381573896564362 0 0 0 0 0 0 0 0 -1.13648885407639 0 0 0 0 0 0 -0.360183198032975 0 0 0 0 0 0 0 0 0
0 0 0 0 0 0.254977951852429 0.721420304756919 0 0 0 0 0 0 0 0 0 0 0 -0.870901485239465 0 0 0 0 0 -1.86614721092847 0 0 0 0 0 0 0 0 -1.21058492016965 0 0 0 0 0 0 0 0 0 0 0 0 0 0 0 0
0 0 0 0 0 0 0 0 0 0 0 0 0 0 0 0 0 0 -0.199634845335666 -0.910930786381208 0 0 0 0 -0.551330657501243 0 0 0 0 0 0 0 0 -5.01075708276565 0 0 0 0 0 0 -0.673667506365431 0 0 0 0 0 0 0 0 0
0 0 0 0 0 0 0 0 0 0 0 0.0702034261259308 0 0 0 0 0 0 0 0 0 0 0 0 0 0 0 0 0 0 0 0 -0.296196451507379 0 0 0 0 0 0 0 -0.175578534803325 0 0 0 0 0 -0.57424193132397 0 0 0
0 0 0 0 0 0 0 0 0 0 0 0 0 0.0496787176667899 0.473520344731693 0.179574233748025 0.0362254335080705 0 0 0 0 0 0 0 0 0 0 0 0 0 0 -0.27390707770732 -1.2912846071675 -0.88817077898713 0 0 0 0 0 0 -0.492213276334608 0 0 0 0 0 -1.2282288443233 0 0 0
0 0 0 0 0 0 0 0 0 0 0 0 0.0680430181908333 0.619273670114373 0.0699562732498542 0 0.166732415327927 0 0 0 -4.04852718098406 0 0 0 -1.69660076967056 0 0 0 0 0 0 0 0 0 0 0 0 0 0 0 0 0 0 0 0 0 0 0 0 0
0 0 0 0 0 0 0 0 0 0 0 0 0 0 0 0 0 0 0 0.836336244358032 0 0 0 0 0 0 0 0 0 0 -0.506392559633833 0 -1.86821198415609 -0.439832786325183 0 0 0 0 0 0 0 0 0 0 0 0 0 0 0 0
0 0 0 0 0 0 0 0 0 0.325072474919085 0 0 0 0 0 0 0 0 0 0 0 0 0 0 0 0 0 0 0 0 -0.659612256699361 0 0 -2.78048103437768 0 0 0 0 0 0 0 0 0 0 0 0 0 0 0 0
0 0 0 0 0 0 0 0 0 0 0 0 0 0 0 0 0 0 0 0 0 0 0 0 0 0 0 0 0 0 0 0 0 0 0 0 0 0 0 0 0 0 0 0 0 0 -0.530980882234283 0 0 0
0 0 0 0 0 0 0 0.111591740977057 0 0 0 0 0 0 0 0 0 0 0 0 0 0 0 0 0 0 0 0 0 0 0 0 -1.30829285810425 0 0 0 0 0 0 0 0 0 0 0 0 0 -0.597368618864172 0 0 0
0 0 0 0 0 0 0 0.368263416701013 0.242466240260857 0 0.105050018548847 0 0 0.0266314036716597 0.0710593766453849 0.389024520210318 0.112924817481552 0 0 0.35040082764378 0 0 0 0 0 0 0 0 0 0 0 0 0 0 0 0 0 0 0 0 0 0 0 0 0 0 0 0 0 0
0 0 0 0 0.787557496316268 0.259483980276933 0 0 0.174268141716647 0 0 0 0 0 0 0 0 0 0 0 0 0 0 0 0 0 -0.343441854658139 0 -0.743774230127404 0 0 0 -2.08836852161955 0 0 0 0 0 0 0 0 0 0 0 0 0 0 0 -3.96381048807705 0
0 0 0 0 0 0 0 0 0 0 0 0 0 0 0 0 0 0 0 0 0 0 0 0 0 0.0702524772831577 0 0 0 0 0 0 0 0 0 0 0 0 0 -1.90282095140904 0 0 0 0 0 0 0 -5.68582743914386 -2.29372071825934 0
0 0 0 0 0 0.100373565949597 0.0094388165159091 0 0 0 0 0 0 0 0 0 0 0 0 0 0 0 0 0 0 0 0 0 -3.24633670594344 0 0 0 0 0 0 0 0 0 0 -1.80829862717075 0 0 0 0 0 0 0 0 0 0
0 0 0 0 0 0 0 0 0 0 0 0 0 0 0 0 0 0 0 0 0 0 0 0 0 0.154089371167211 0 0.635747445720327 0 -1.0757384823179 0 0 0 0 0 0 0 0 0 0 0 0 0 0 0 0 0 0 -1.09519892098293 0
0 0 0 0 0 0 0 0 0 0 0 0 0 0 0 0 0 0 0 0 0 0 0 0 0 0 0 0 0.202084841544764 0 0 0 0 0 0 0 0 0 0 -0.722984483226969 0 0 0 0 0 0 0 0 0 0
0 0 0 0 0 0 0 0 0 0 0 0 0 0 0 0 0 0 0 0 0.102974151613865 0.136602869241185 0 0 0 0 0 0 0 0 0 0 0 0 0 0 0 0 0 0 0 0 0 0 0 0 0 0 0 0
0 0 0 0 0 0 0 0 0 0 0 0.899713025283817 0 1.4516948169363 0 0 0 0 0.0582887567148006 0 0 0 0 0 0 0 0 0 0 0 0 0 0 0 0 0 0 0 0 0 0 0 0 0 0 0 0 0 0 0
0 0 0 0 0 0 0 0 0 0 0 0 0.366632016706819 0 0 0 0 0.0586044326459093 0.26115701395119 0 0.343812490673238 0 0 0.267038911628035 0 0.457833279674748 0 0 0 0 0 0 0 0 0 0 0 0 0 0 0 0 0 0 0 0 0 0 0 0
0 0 0 0 0 0 0 0 0.996256351926641 0.236287512388692 0 0 0 0 0.22360693624651 0.233141794809097 0.912348904161798 0 0.174902732945844 0 0.0893969478216907 0.603305819432749 0 0 0 0 0 0 0 0 0 0 0 0 0 0 0 0 0 0 0 0 0 0 0 0 0 0 0 0
0 0 0 0 0 0 0 0.440312889114588 0.294270021164717 0 0 0 0 0 0 0 0 0 0 0 0 0 0 0 0 0 0 0 0 0 0 0 0 0 0 0 0 0 0 0 0 0 0 0 0 0 0 0 0 0
0 0 0 0.72375183587003 0 0 0 0 0 0 0 0 0 0 0 0 0 0 0 0 0 0 0 0 0 0 0 0 0 0 0 0 0 0 0 0 0 0 0 0 0 0 0 0 0 0 0 0 0 0
0 0 0 0 0 0 0 0 0 0 0.647139094122623 0 0 0 0 0 0 0 0 0 0 0 0 0 0 0 0 0 0 0 0 0 0 0 0 0 0 0 0 0 0 0 0 0 0 0 0 0 0 0
0 0 0 0 0 0 0 0 0 0 0 0 0 0 0 0 0 0 0 0 0 0 0 0 0 0 0 0 0 0 0 0 0 0 0 0 0 0 0 0 0 0 0 -2.07493838343539 0 0 0 0 0 0
0 0 0 0 0 0 0 0 0 0 0 0 0 0 0 0 0 0 0 0 0 0 0 0 0 0 0 0 0 0 0 0 0 0 0 0 0 0 0 0 0 0 0 -4.5405248365874 0 0 0 0 0 0
0 0 0 0 0 0 0 0 0 0 0 0 0 0 0 0 0 0 0 0 0 0 0 0 0 0 0.353243622569956 0.337887900273889 0 0.131332258108023 0 0 0 0 0 0 0 0 0 0 0 0 0 0 0 0 0 0 0 0
0 0 0 0 0 0 0 0 0.202281307941323 0 0.174799255682662 0.19436902775125 0.152410315917546 0 0.0704031756987169 0 0.144781969293776 0.0323425358094585 0.0949921247505988 0 0 0 0 0 0 0 0 0 0 0 0 0 0 0 0 0 0 0 0 0 0 0 0 -0.477108889383651 0 0 0 0 0 0
0 0 0 0 0 0 0 0 0 0 0.0327222436194791 0.274789820704581 0 0.0466195354014244 0 0 0 0 0 0 0 0 0 0 0 0 0 0 0 0 0 0 0 0 0 0 0 0 0 0 0 0 0 -0.673222564546883 0 0 0 0 0 0
0 0 0 0 0.837775067945786 0 0 0.532031905001754 0 0 0 0 0 0 0 0 0 0 0 0 0 0 0 0 0 0 0 0 0 0 0 0 0 0 0 0 0 0 0 0 0 0 0 0 0 0 0 0 0 0
0 0 0 0 0 0 0 0 0 0 0 0 0 0 0 0 0 0 0 0 0 0 0 0 0 0 0 0 0 0 0 0 0 0 0 0 0 0.412768166928315 0.885543212209988 0 0.0932107996883992 0.134273229258135 0 0 0 0 0 0 0 0
0 0 0 0 0.198253228748263 0.483864623761626 0.263146030769425 0 0 0 0 0 0 0 0 0 0 0 0 0 0 0 0 0 0 0 0 0 0 0 0 0 0 0 0 0 0 0 0 0 0 0 0 0 0 0 0 0 0 -0.24471165419158
0 0.456196172919645 0.225589899802429 0 0 0 0 0 0 0 0 0 0 0 0 0 0 0 0 0 0 0 0 0 0 0 0 0 0 0 0 0 0 0 0 0 0 0 0 0 0 0 0 0 0 0 0 0 0 0
0 0 0 0 0 0 0 0.300237860653437 0.138436244756123 0 0.0719296839759731 0.198029200541682 0 0.364990252991171 0 0 0 0.120574624916935 0.251333656128356 0 0 0 0.0984864302207324 0.121042712060693 0 0 0 0 0 0 0 0 0 0 0 0 0 0 0 0 0 0 0 0 0 0 0 0 0 -0.869066576396597
0 0 0 0 0 0 0 0 0 0 0 0 0 0 0 0 0 0 0 0 0 0 0 0 0 0 1.12702458877462 0 0 0 0 0 0 0 0 0 0 0 0 0 0 0 0 0 0 0 0 0 0 0
0 0 0 0 0 0 0 0 0 0 0 0 0 0 0 0 0 0 0 0 0 0 0 0 0 0.835783735483717 0.482715219876477 0 0.23143516548586 0 0 0 0 0 0 0 0 0 0 0 0 0 0 0 0 0 0 0 0 -0.856874738995482
0 0 0 0 0 0 0 0 0 0 0 0 0 0 0 0 0 0 0 0 0 0 0 0 0 0 0 0 0 0 0 0 0 0 0 0 0 0 0 0 0 0 0 0 0.0507978051838407 0 0.166105164345276 0 0.154493788882118 0
