0.112112560298777
0.776158245838461
0.598355238924012
0.172046984073718
0.931708104407464
0.119050806117794
0.681891982609066
0.480999413574097
0.435895973841143
0.626260986620952
0.617467063536099
0.0426382107352001
1.38690203308083
0.0663694654619887
0.786024497496679
0.482335854792054
4.5920981624117
4.53334813166309
1.26802174967134
2.2045266510492
0.335351037039385
0.302513673541345
0.284941300926642
0.575989417591174
0.294021133224391
1.01603704264626
0.235076602867415
0.139733795282718
2.35100680252959
0.528358442042767
2.14949045497676
0.51056566882686
0.0151148257968072
0.870281243752448
0.653412786657609
0.197277412641916
0.344489009554059
0.229431587264961
3.64014977732921
0.418779708928739
0.995577475883839
3.52209502193522
1.90498040548336
1.4100740201287
0.0832577881843193
1.04684130307732
0.102999536905572
0.672809541721802
0.514686497906432
0.0200044693100756
