4.87011036969415
0.10073212363444
0.496822333039152
0.0269890215465413
0.519305945359757
1.20506542373725
0.709342938085429
0.288269979238972
0.765498915975536
0.045725512359685
0.42731335501627
0.251811981586587
0.204081887880407
0.106371160970056
0.0452698412006773
1.11853912211999
0.950933854605657
0.0478692120666666
0.0468377445704962
0.876154452161289
2.52291807149561
0.74619690942997
1.63343090010923
0.383721514518646
1.01785924903902
2.3072243186786
0.294035402786516
0.234630857836582
0.512115009540337
0.255812302454048
0.217528639171134
0.736851391789523
0.974598643663088
0.701089882668908
3.36943243456317
0.581899916003542
0.594496939727415
0.430683894264302
0.970898212387425
0.169061119389533
0.255845268614856
4.01666319002814
0.0156525094505952
1.02498211616239
0.830246771204035
2.23292640699413
7.46254208656117
1.65670155071081
0.420820988350762
0.219881249721484
