1.0148820692382
0.145426655578806
0.805519112709102
1.31629175595032
3.68521696388566
1.54734363148457
0.512273329367875
0.10531386773833
2.82275499886465
5.14113086173078
0.276125921612872
2.814225307304
0.307778616848033
1.0132736303024
0.509414158343609
1.97090864397637
1.24760385568607
0.502531416179167
2.17035303099484
0.109305792117741
0.625128801277528
0.650957965860776
0.465809100087966
0.276010748187013
0.440164726221634
0.209005910850575
1.18655177682535
0.634731258212878
0.609374816255808
0.581341366482643
1.22803073311021
1.13322550673832
0.599330078958522
0.989979423778424
0.457314352882077
0.991998434994356
2.0864029655329
0.121769778663072
0.573556228961341
0.218047270132787
0.178379046043639
0.0613208966826022
0.329233451712203
0.517937689436038
0.525329662362163
1.10619305059086
1.25562642779672
0.380606090385476
1.1275711157565
0.140150446236658
