0 0 0 0 0 0 0 -1.14210902380932 0 0 0 0 0 0 0 0 0 0 0 0 0 0 0 0 0 0 0 0 0 0 0 0 0 0 0 0 0 0 0 0 0 0 0 0 0 0 0 0 0 0
0 0 0 0 0 0 0 -1.22789508714975 0 0 0 0 0 0 0 0 0 0 0 0 0 0 0 0 0 0 0 -2.55608183210902 0 0 0 0 0 0 0 0 0 0 0 0 0 0 0 0 0 0 0 0 0 0
0 0 0 -0.815633132646844 0 0 0 0 0 0 0 0 0 0 0 0 0 0 0 0 0 0 0 0 0 0 0 0 0 0 0 0 0 0 0 0 0 0 0 0 0 0 0 0 0 0 0 0 0 -0.906486176315048
0 0 0.16050516350919 0 0 -0.220171106710978 0 0 0 0 0 0 0 0 0 0 0 0 0 0 0 0 0 0 0 0 0 -0.952151591280089 0 0 0 0 -0.570320805967027 0 0 0 0 0 0 0 0 0 0 0 0 0 0 0 0 0
0 0 0 0 0 0 0 0 0 -1.3505605352891 0 0 0 0 0 0 0 0 0 0 0 0 0 0 0 0 0 -5.74749611275027 0 0 0 0 0 0 0 0 -0.253281741288269 0 0 0 0 0 0 0 0 0 0 0 0 0
0 0 0 0.0424997453245584 0 0 0 0 0 0 0 0 0 0 0 0 0 -0.721814122334722 0 0 0 0 0 0 0 0 0 0 0 0 0 0 -0.88364070310931 0 0 0 -0.557793684788014 0 0 0 0 0 0 0 0 0 0 0 0 -0.49522500221058
0 0 0 0 0 0 0 0 0 0 0 0 -1.58997270725575 0 0 0 0 -1.40716403562455 0 0 0 0 0 0 -1.39977100087786 0 0 0 0 0 0 0 -3.98377945063522 0 0 0 0 0 0 0 -0.627773470891269 0 0 0 0 0 0 0 0 -4.42011146921388
0.234431493529334 0.250611534360296 0 0 0 0 0 0 0 0 0 0 -0.740833063402297 0 0 -0.825922981556971 0 0 -0.971696917442368 0 0 -2.14218178025313 0 -0.552046170368348 -0.303949782402511 -0.723629162361535 0 0 0 0 0 0 0 0 0 0 0 0 0 0 -0.57793371701934 0 0 0 0 0 0 0 0 0
0 0 0 0 0 0 0 0 0 0 -1.36004160568486 0 0 0 0 0 0 0 -0.328279775836817 0 0 -0.442672513077205 0 0 -0.280063660218932 0 0 0 0 0 0 0 0 0 -4.61213762344597 0 0 0 0 0 -0.34780766461865 0 0 0 0 0 0 0 0 -2.86402577294407
0 0 0 0 0.258895445519668 0 0 0 0 0 0 -2.95557342582347 0 0 0 0 0 0 0 -2.71915146167424 0 0 0 0 -0.473809262721472 0 -0.140967574651311 0 0 0 0 0 0 0 -2.49545437649506 0 0 0 0 0 -2.32016627801501 0 0 0 0 0 0 0 0 0
0 0 0 0 0 0 0 0 0.295548800522689 0 0 -1.19502191304965 0 0 0 0 0 0 0 0 0 0 0 0 0 0 -0.456497485470815 0 0 0 0 0 0 0 0 0 0 0 0 0 -5.25085184353822 0 0 -1.12666435304383 0 0 -2.56633770691038 0 0 0
0 0 0 0 0 0 0 0 0 0.600575154120068 0.242515195721625 0 0 0 0 0 0 0 0 -0.920002935606841 0 0 0 0 0 0 -1.20393463144106 0 0 0 0 0 0 0 -0.99801665818675 0 0 0 0 0 0 0 0 0 0 0 -0.780127804216663 0 0 0
0 0 0 0 0 0 0.307828024665249 0.143775921736362 0 0 0 0 0 0 0 0 0 0 0 0 0 -0.0448177946303739 0 0 0 0 0 0 0 0 0 0 0 -2.21438308477707 -0.898574781899098 0 0 0 0 0 -0.195846256634407 0 0 0 0 -1.78975860203509 0 0 -1.24675778072429 0
0 0 0 0 0 0 0 0 0 0 0 0 0 0 0.226514747059844 0.250488431715928 0.148117326837898 0 0 0 0 -3.61279186048716 0 0 0 0 0 0 0 0 0 0 0 -3.49088087590763 0 -0.156494701950452 0 0 0 0 0 -0.98393552780798 0 0 0 0 0 0 0 0
0 0 0 0 0 0 0 0 0 0 0 0 0 -1.19114924178111 0 0 0 0 0 0 0 0 0 0 0 0 0 0 0 0 0 0 0 -0.868215244259511 -0.484716074414196 0 0 0 0 0 0 0 0 0 0 -2.27622720246144 0 0 0 0
0 0 0 0 0 0 0 0.172411468421431 0 0 0 0 0 -1.304012231484 0 0 0 0 0 0 0 0 0 0 0 0 0 0 0 0 0 0 0 -1.57929137719636 -1.44691206451853 -10.6648541692453 0 0 0 -4.16673398110091 0 -0.400878337247398 0 0 0 -1.70264927694954 0 0 0 0
0 0 0 0 0 0 0 0 0 0 0 0 0 -0.723986346102112 0 0 0 0 0 0 0 0 0 0 0 0 0 0 0 0 0 0 0 -0.913880459019181 -0.630536561487171 -0.931025812180291 0 0 0 -0.219517181003689 0 -0.931852925525108 0 0 0 0 0 0 -1.31822183283128 0
0 0 0 0 0 0.14290857261579 0.298825162649464 0 0 0 0 0 0 0 0 0 0 0 0 0 0 -0.29698318939106 0 0 0 0 0 0 0 0 0 0 0 0 -0.680466986683587 0 0 0 0 0 0 -0.383803560096206 0 0 0 0 0 0 0 0
0 0 0 0 0 0 0 0.199598995170904 0.0664775407055037 0 0 0 0 0 0 0 0 0 0 0 0 -0.361089145005751 0 0 0 0 0 0 0 0 0 0 0 -1.05596992067236 -2.4024977748952 0 0 0 0 0 0 0 0 0 0 0 0 0 0 0
0 0 0 0 0 0 0 0 0 0.54410361318885 0 0.174333652252604 0 0 0 0 0 0 0 0 0 -0.401422966137983 0 0 0 0 0 0 0 0 0 0 0 0 -1.18989141670565 -0.921286546706547 0 0 0 -0.788326506650389 0 0 0 0 0 0 0 0 0 0
0 0 0 0 0 0 0 0 0 0 0 0 0 0 0 0 0 0 0 0 0 0 0 0 0 0 0 0 0 0 -1.87074275860949 0 0 -1.44159649521986 0 -1.49739054363399 0 0 0 0 0 0 0 0 0 0 0 0 0 0
0 0 0 0 0 0 0 0.407222969249887 0.0875514799129104 0 0 0 0.00833811776590867 0.735041671766994 0 0 0 0.0565861509417972 0.0693280694004073 0.080271710748929 0 0 0 0 0 0 0 0 0 0 0 0 0 0 0 -5.28932707456555 0 0 0 -0.585316300043349 0 0 0 0 0 0 0 0 0 0
0 0 0 0 0 0 0 0 0 0 0 0 0 0 0 0 0 0 0 0 0 0 0 0 0 0 0 0 0 0 0 0 0 0 0 -0.521021667928358 0 0 0 -8.9132640508974 0 0 0 0 0 0 0 0 0 0
0 0 0 0 0 0 0 0.100633485897137 0 0 0 0 0 0 0 0 0 0 0 0 0 0 0 0 0 0 0 0 0 0 -0.957065785235322 0 0 0 0 -0.286968354450526 0 0 0 -12.2602696586758 0 0 0 0 0 0 0 0 0 0
0 0 0 0 0 0 0.291828279793273 0.0617278649429576 0.050080385658663 0.0979324103895964 0 0 0 0 0 0 0 0 0 0 0 0 0 0 0 0 0 0 0 0 -4.76853548665528 0 0 -0.983689466843297 0 -1.81962690479704 0 -0.351518790990282 0 -2.16964178242316 0 0 0 0 0 0 0 0 0 0
0 0 0 0 0 0 0 0.150479590773607 0 0 0 0 0 0 0 0 0 0 0 0 0 0 0 0 0 0 0 0 0 0 -3.37113815631223 0 0 0 0 -4.45057597989307 0 -1.3197484403714 0 0 0 0 0 0 0 0 0 0 0 0
0 0 0 0 0 0 0 0 0 0.0286645208878287 0.0869596558521849 0.238792923694881 0 0 0 0 0 0 0 0 0 0 0 0 0 0 0 0 0 0 -3.8410675853553 0 0 0 0 -4.00447124448441 0 -0.746701289222779 0 -0.299529933058827 0 0 0 0 0 0 0 0 0 0
0 0.48505498449646 0 0.179385547010648 1.13660394422801 0 0 0 0 0 0 0 0 0 0 0 0 0 0 0 0 0 0 0 0 0 0 0 0 0 0 0 0 0 0 0 0 -2.60017434715554 0 -0.73287391131403 0 0 0 0 0 0 0 0 0 0
0 0 0 0 0 0 0 0 0 0 0 0 0 0 0 0 0 0 0 0 0 0 0 0 0 0 0 0 0 0 0 0 0 0 0 0 0 -1.06235598493639 0 0 0 0 -0.262378634111607 0 0 0 0 0 0 0
0 0 0 0 0 0 0 0 0 0 0 0 0 0 0 0 0 0 0 0 0 0 0 0 0 0 0 0 0 0 0 0 0 0 0 0 0 -0.444555549881312 -3.1413723244722 0 0 0 0 0 0 0 0 -0.911276029291861 0 0
0 0 0 0 0 0 0 0 0 0 0 0 0 0 0 0 0 0 0 0 0.389144973369566 0 0 0.184812105556543 0.994660748774547 0.681348549704246 0.797852002060999 0 0 0 0 0 0 0 0 0 0 -0.654564971824892 -2.62521940361722 0 0 0 -1.49257382682876 0 -10.1433011460097 0 0 -1.26468724292778 0 0
0 0 0 0 0 0 0 0 0 0 0 0 0 0 0 0 0 0 0 0 0 0 0 0 0 0 0 0 0 0 0 0 0 0 0 0 0 -0.286904088506865 0 0 0 0 0 0 -1.46975116982829 0 0 0 0 0
0 0 0 0.1089626292994 0 0.179469744456921 0.769093938219374 0 0 0 0 0 0 0 0 0 0 0 0 0 0 0 0 0 0 0 0 0 0 0 0 0 0 0 0 0 0 -2.0410188089577 0 -0.410747208845303 0 0 -2.62105265146622 0 -3.46250847288271 0 0 0 0 0
0 0 0 0 0 0 0 0 0 0 0 0 0.452861624449173 0.674013071442115 0.167994478899758 0.311232902786002 0.195749500253662 0 0.211476142119142 0 0.279212014718576 0 0 0 0.186132918257205 0 0 0 0 0 0 0 0 0 0 0 0 0 0 0 0 0 -1.69943862404521 0 0 0 0 0 0 0
0 0 0 0 0 0 0 0 0.922767779820281 0.516362695402438 0 0.188988081743811 0.188816221785926 0 0.0844851660848642 0.264612348568764 0.125411393023395 0.139073388800074 0.463769184546726 0.246173091284006 0 0 0 0 0 0 0 0 0 0 0 0 0 0 0 0 0 0 0 0 0 0 0 0 0 0 0 -0.163195567555386 0 0
0 0 0 0 0 0 0 0 0 0 0 0 0 0.0310544805093705 0 2.13366910438381 0.182476678011351 0 0 0.193742067740655 0.294036435312036 1.09932498480658 0.105325379630107 0.0607858717457968 0.368860560550117 0.881678036176742 0.789853571418564 0 0 0 0 0 0 0 0 0 0 0 0 -1.56916271231162 0 0 0 0 0 0 0 0 0 0
0 0 0 0 0.0490973150739111 0.112850082778083 0 0 0 0 0 0 0 0 0 0 0 0 0 0 0 0 0 0 0 0 0 0 0 0 0 0 0 0 0 0 0 0 0 0 0 0 0 0 0 0 0 -1.53636350351977 0 0
0 0 0 0 0 0 0 0 0 0 0 0 0 0 0 0 0 0 0 0 0 0 0 0 0.0721338619806821 0.253398552349649 0.156233047522614 0.505736345638049 0.1891015290549 0.0946395487011156 0.1276913597149 0.0632384335892678 0.427628839072551 0 0 0 0 0 0 0 0 0 0 0 0 0 0 -0.602661026360776 0 0
0 0 0 0 0 0 0 0 0 0 0 0 0 0 0 0 0 0 0 0 0 0 0 0 0 0 0 0 0 0.609346391589335 0.52556248319919 0 0 0 0 0 0 0 0 0 0 0 0 0 0 0 0 -1.30174917111758 0 0
0 0 0 0 0 0 0 0 0 0 0 0 0 0 0 0.807422079340599 0.0457964060932273 0 0 0.148787362226498 0 0.113321302614729 1.84703313367831 2.3513157652353 0.438417619792858 0 0.0612280111423939 0.142275322503524 0 0 0 0 0.0822608005841054 0 0 0.315191670383811 0 0 0 0 0 0 0 0 0 0 0 0 0 0
0 0 0 0 0 0 0.127773888804203 0.106986192026204 0.0668644154230654 0.451437600439771 1.07176268561824 0 0.0391784972819588 0 0 0 0 0 0 0 0 0 0 0 0 0 0 0 0 0 0 0 0 0 0 0 0 0 0 0 0 0 0 0 0 0 0 -2.54179243487242 0 0
0 0 0 0 0 0 0 0 0 0 0 0 0 0.203974928947057 0 0.0833905517424289 0.176803811008328 0.0687057017214239 0 0 0 0 0 0 0 0 0 0 0 0 0 0 0 0 0 0 0 0 0 0 0 0 0 0 0 0 0 -0.844799269676456 0 0
0 0 0 0 0 0 0 0 0 0 0 0 0 0 0 0 0 0 0 0 0 0 0 0 0 0 0 0 0.0507421686303858 0 0.293227628450725 0 0.494930807013393 0.314901487741696 0 0 0 0 0 0 0 0 0 0 0 0 0 0 0 0
0 0 0 0 0 0 0 0 0 0 0.229655105906031 0 0 0 0 0 0 0 0 0 0 0 0 0 0 0 0 0 0 0 0 0 0 0 0 0 0 0 0 0 0 0 0 0 0 0 0 0 0 0
0 0 0 0 0 0 0 0 0 0 0 0 0 0 0 0 0 0 0 0 0 0 0 0 0 0 0 0 0 0 1.96563950939278 0.302520335059771 0.711885358438236 0 0 0 0 0 0 0 0 0 0 0 0 0 0 0 0 0
0 0 0 0 0 0 0 0 0 0 0 0 0.376613770034533 0 0.470768540391011 0.321827620097802 0 0 0 0 0 0 0 0 0 0 0 0 0 0 0 0 0 0 0 0 0 0 0 0 0 0 0 0 0 0 0 0 0 0
0 0 0 0 0 0 0 0 0 0 0.511661755450928 0.154697152232473 0 0 0 0 0 0 0 0 0 0 0 0 0 0 0 0 0 0 0 0 0 0 0 0 0 0 0 0 0 0 0 0 0 0 0 0 0 0
0 0 0 0 0 0 0 0 0 0 0 0 0 0 0 0 0 0 0 0 0 0 0 0 0 0 0 0 0 0.160779345362047 0.271204174456727 0 0 0 0.0358111400015851 0 0.301896303671217 0.119617372242387 0.265602830282357 0 0.49510298887379 0.186709282031456 0 0 0 0 0 0 0 0
0 0 0 0 0 0 0 0 0 0 0 0 0.245743864575985 0 0 0 0.246313390726582 0 0 0 0 0 0 0 0 0 0 0 0 0 0 0 0 0 0 0 0 0 0 0 0 0 0 0 0 0 0 0 0 0
0 0 0.184571450557615 0 0 0.100991160137392 0.873777234927272 0 0.592214294368038 0 0 0 0 0 0 0 0 0 0 0 0 0 0 0 0 0 0 0 0 0 0 0 0 0 0 0 0 0 0 0 0 0 0 0 0 0 0 0 0 0
