0 0 0 0 0 0 0 0 0 0 0 0 0 0 0 0 0 0 0 0 -1.34693440016538 0 0 0 -0.884023036764147 0 0 0 0 0 0 0 0 0 0 0 0 0 0 0 0 0 0 0 0 0 0 0 0 0
0 0 0 0 -0.550223082193723 -1.15317949307368 0 0 0 0 0 0 0 0 0 0 0 0 0 0 0 0 0 0 -0.452675345381659 0 0 0 0 0 0 0 0 0 0 0 0 0 0 0 0 0 0 0 0 0 -0.619698815511951 0 0 0
0 0 0 0 -0.260260279173658 0 0 0 0 0 0 0 0 0 0 0 0 0 0 0 0 0 0 0 0 0 0 0 0 0 0 0 0 0 0 0 0 -2.12509016119744 0 0 0 0 0 0 0 0 -1.10702712890377 0 0 0
0 0 0 0 -0.873104844412657 0 0 0 0 0 0 0 0 0 0 0 0 0 0 0 0 0 0 0 0 0 0 0 0 0 0 0 0 -0.748972733993993 0 0 0 0 0 0 0 0 0 0 0 0 0 0 0 0
0 0.112185276262018 0.053100467190352 0.160356491126395 0 0 -0.547003560413494 -8.64544568545896 0 0 0 0 0 0 0 0 0 0 0 0 0 0 0 0 0 0 -0.548794051850987 0 0 0 0 0 0 -1.19215572068009 0 0 0 0 0 0 0 0 0 0 0 0 0 0 0 0
0 0.250672744539172 0 0 0 0 0 -0.385971925463528 0 0 0 0 0 0 -0.619960575400467 0 0 0 0 0 0 0 0 0 0 0 -0.817327364484357 0 0 0 -2.83642684407845 0 0 -2.58884057251653 0 0 0 -1.00609594331357 0 0 0 0 0 0 0 0 0 0 0 0
0 0 0 0 0.10915781278734 0 0 0 0 0 0 0 0 0 -4.05567149699512 0 0 0 0 0 0 0 0 0 0 0 0 0 0 0 0 0 0 -0.747497251950037 0 0 0 -2.95312459729955 0 0 0 0 0 0 0 0 -0.578208697432135 -0.283395875137503 0 0
0 0 0 0 1.73641371085166 0.0774994763666548 0 0 0 -0.757542787840435 0 0 0 -0.67808256472247 -0.121627723289247 0 0 0 0 0 0 -0.655033756893466 0 0 0 0 0 0 0 0 0 0 0 0 0 0 0 -0.589500261205407 0 0 0 0 0 0 0 0 -1.3488914498855 0 0 0
0 0 0 0 0 0 0 0 0 -0.953415826284741 0 0 0 -0.456623608707184 0 0 0 0 0 0 0 0 0 0 0 -0.308799304817544 0 0 0 -1.75561094773895 0 0 0 0 0 0 0 -6.03544806965773 0 0 0 0 0 0 0 0 -0.702092704610571 -2.18748482755491 0 0
0 0 0 0 0 0 0 0.153202890312372 0.191661656169282 0 0 0 0 0 0 0 0 0 0 0 0 -0.240845350321755 0 0 0 0 0 0 0 0 0 0 0 0 0 0 0 0 0 0 0 0 0 0 0 0 0 -3.0943805319972 0 -0.820992565361437
0 0 0 0 0 0 0 0 0 0 0 0 0 0 0 0 0 0 0 0 0 0 0 0 0 0 0 0 0 0 0 0 0 0 0 -2.3470885999652 0 0 0 0 0 0 0 0 0 0 0 -1.20149593472828 0 -0.872183927695588
0 0 0 0 0 0 0 0 0 0 0 0 0 0 0 0 0 0 0 0 0 0 0 0 0 0 0 0 0 -3.49639032683426 0 0 0 0 0 -2.02786190413859 0 -0.391805838505867 0 0 0 0 0 0 0 0 0 -0.8460158270487 0 -3.05584069647711
0 0 0 0 0 0 0 0 0 0 0 0 0 0 0 0 0 0 0 0 0 0 0 0 0 0 0 0 0 -0.933321326783564 0 0 0 0 0 0 0 0 -0.683586041990983 0 0 0 0 0 0 0 -0.499859967303991 -0.800617090999117 0 0
0 0 0 0 0 0 0 0.140197818051361 0.0957933489831143 0 0 0 0 0 0 -7.25775512359374 -0.376585892205665 -1.84325210076452 0 0 0 0 0 -3.053215216486 0 0 0 0 0 0 0 0 0 0 0 0 0 0 -0.523146321944002 0 0 0 0 0 0 0 0 0 0 0
0 0 0 0 0 0.123677825815573 0.83738097766095 0.02251661421717 0 0 0 0 0 0 0 0 0 -0.234620411998717 0 0 0 0 0 0 0 0 0 0 0 -0.641750442469198 0 0 0 0 0 0 0 0 -0.452745587476059 0 0 0 0 0 0 0 0 -2.00292807205144 0 0
0 0 0 0 0 0 0 0 0 0 0 0 0 1.33538804571777 0 0 0.0327792798464018 0.0964900452291476 0 0 0 0 0 0 0 0 0 0 0 -0.259232634227298 0 0 0 0 0 0 0 0 -5.31366144890812 0 0 0 0 0 0 0 0 -0.549462250658639 0 0
0 0 0 0 0 0 0 0 0 0 0 0 0 0.0774913374882863 0 -0.171596178037349 0 -1.31565672789372 0 0 0 0 0 0 0 0 0 0 0 0 0 0 0 0 0 0 0 0 -0.405146660208771 0 0 0 0 0 0 0 0 -2.06007432623987 0 0
0 0 0 0 0 0 0 0 0 0 0 0 0 0.363883968680679 0.0456604784768668 -0.511883723718045 0.282391459415903 0 0.187731272645577 0 0 0 0 0 0 0 0 0 0 -0.0682110919898787 0 0 0 0 0 0 0 0 -0.50645317846003 0 0 0 0 0 0 0 0 0 0 0
0 0 0 0 0 0 0 0 0 0 0 0 0 0 0 0 0 -0.886477169066485 0 0 0 0 0 0 0 0 0 0 -0.966998241278005 0 0 0 0 0 0 0 0 0 0 0 0 0 0 0 0 0 0 0 0 0
0 0 0 0 0 0 0 0 0 0 0 0 0 0 0 0 0 0 0 0 0 0 0 0 0 0 0 0 -4.96427903842633 0 0 0 0 0 0 0 0 0 0 0 0 0 0 0 0 0 0 0 0 0
0.296321866794738 0 0 0 0 0 0 0 0 0 0 0 0 0 0 0 0 0 0 0 0 0 0 0 0 0 0 0 -0.661400426692504 0 0 0 0 0 0 0 0 0 0 0 0 0 0 0 0 0 0 -7.62335118839156 0 0
0 0 0 0 0 0 0 0.141171635963878 0 0.0495220711598083 0 0 0 0 0 0 0 0 0 0 0 0 0 0 0 0 0 0 0 0 0 0 0 0 0 0 0 0 0 0 0 0 0 0 0 0 0 -1.68130217835984 0 0
0 0 0 0 0 0 0 0 0 0 0 0 0 0 0 0 0 0 0 0 0 0 0 0 0 0 0 0 -1.1608724256525 0 0 0 0 0 0 0 0 0 0 0 0 0 0 0 0 0 0 0 0 0
0 0 0 0 0 0 0 0 0 0 0 0 0 0.674149007794858 0 0 0 0 0 0 0 0 0 0 0 0 0 0 0 0 0 0 0 0 0 0 0 0 0 0 0 0 0 0 0 0 0 -0.246451842126414 0 0
0.160912122271178 0.097991197610912 0 0 0 0 0 0 0 0 0 0 0 0 0 0 0 0 0 0 0 0 0 0 0 0 0 0 -0.201482243989258 0 0 0 0 0 0 0 0 0 0 0 0 0 -1.3875453906272 -0.692020671467245 0 -1.03297651154247 0 0 0 0
0 0 0 0 0 0 0 0 0.0596008769127547 0 0 0 0 0 0 0 0 0 0 0 0 0 0 0 0 0 0 0 -0.532463191769826 0 0 0 0 0 0 0 0 0 0 0 0 0 -1.11272216679783 0 0 -0.924702015636755 0 -0.659777381513467 0 0
0 0 0 0 0.106899654529963 0.165751236543286 0 0 0 0 0 0 0 0 0 0 0 0 0 0 0 0 0 0 0 0 0 0 -2.69138448784984 0 0 0 0 0 0 0 0 0 0 0 0 0 -0.271437520404917 -0.256788752615629 0 -0.670693862503082 0 0 0 0
0 0 0 0 0 0 0 0 0 0 0 0 0 0 0 0 0 0 0 0 0 0 0 0 0 0 0 0 -2.75807861911521 0 0 0 0 0 0 0 0 0 0 0 0 0 0 -0.741971633553282 0 0 0 0 0 0
0 0 0 0 0 0 0 0 0 0 0 0 0 0 0 0 0 0 0.19399040081225 0.970820687663476 0.129275539438604 0 0.22018463976099 0 0.0387770516710964 0.104271810591545 0.52426185099917 0.516316270013542 0 0 0.0330638233492582 0 0 0 0 0 0 0 0 0 0 0 0 -1.61219548274891 0 -1.0414508884824 0 0 0 0
0 0 0 0 0 0 0 0 0.353098485770443 0 0 0.706630662730459 0.190895513628683 0 0.129640002406087 0.0545595661284047 0 0.0132687524687896 0 0 0 0 0 0 0 0 0 0 0 0 0 0 0 0 0 0 0 0 0 0 0 0 -0.356871149302547 0 0 -0.401642467175297 0 0 0 0
0 0 0 0 0 0.552325791414526 0 0 0 0 0 0 0 0 0 0 0 0 0 0 0 0 0 0 0 0 0 0 -0.172643531190591 0 0 0 -0.361021636658657 0 0 0 0 0 0 0 0 0 0 0 0 -0.46700535811063 0 0 0 0
0 0 0 0 0 0 0 0 0 0 0 0 0 0 0 0 0 0 0 0 0 0 0 0 0 0 0 0 0 0 0 0 -2.24434475230003 0 0 0 0 0 0 0 0 0 0 0 0 0 0 0 0 0
0 0 0 0 0 0 0 0 0 0 0 0 0 0 0 0 0 0 0 0 0 0 0 0 0 0 0 0 0 0 0.0742235520421367 0.421358077640063 0 0 0 0 -0.633790946618778 0 0 0 0 0 0 0 0 -2.50981125084347 0 0 0 0
0 0 0 0.148262888125957 0.243120450669857 0.49444090617699 0.139706061224423 0 0 0 0 0 0 0 0 0 0 0 0 0 0 0 0 0 0 0 0 0 0 0 0 0 0 0 0 0 0 0 0 0 0 0 0 0 0 0 0 0 0 0
0 0 0 0 0 0 0 0 0 0 0 0 0 0 0 0 0 0 0 0 0 0 0 0 0 0 0 0 0 0 0 0 0 0 0 0 0 0 0 0 0 0 0 0 0 -2.74327486148913 0 0 -4.06625249269314 0
0 0 0 0 0 0 0 0 0 0 0.461009957201177 0.416548936213588 0 0 0 0 0 0 0 0 0 0 0 0 0 0 0 0 0 0 0 0 0 0 0 0 0 0 0 0 0 0 0 0 0 0 0 0 -1.31249385979281 0
0 0 0 0 0 0 0 0 0 0 0 0 0 0 0 0 0 0 0 0 0 0 0 0 0 0 0 0 0 0 0 0 0.117299273567564 0 0 0 0 0 0 0 0 0 0 0 -0.1805447666027 0 0 0 -2.63973411085092 0
0 0 0.440221843040683 0 0 0.203614397936528 0.596288278405514 0.115677085053162 1.20751934760846 0 0 0.0834173579724725 0 0 0 0 0 0 0 0 0 0 0 0 0 0 0 0 0 0 0 0 0 0 0 0 0 0 0 0 0 0 0 0 -0.587840531425212 0 0 0 0 0
0 0 0 0 0 0 0 0 0 0 0 0 0.123712234638667 0.103612581026169 0.0804384528200657 1.06163225272209 0.0803788489365385 0.102923290677376 0 0 0 0 0 0 0 0 0 0 0 0 0 0 0 0 0 0 0 0 0 0 0 0 0 0 -0.728758816866571 0 0 0 0 0
0 0 0 0 0 0 0 0 0 0 0 0 0 0 0 0 0 0 0 0 0 0 0 0 0 0 0 0 0 0 0 0 0 0 0 0 0 0 0 0 0 0 0 0 -3.54112111220934 0 0 0 -1.29710648186036 0
0 0 0 0 0 0 0 0 0 0 0 0 0 0 0 0 0 0 0 0 0 0 0 0 0 0 0 0 0 0 0 0 0 0 0 0 0 0 0 0 0 0 0 0 0 0 0 0 -3.22236298018798 0
0 0 0 0 0 0 0 0 0 0 0 0 0 0 0 0 0 0 0 0 0 0 0 0 0 0 0 0 0 0 0 0 0 0 0 0 0 0 0 0 0 0 0 0 0 0 0 0 -0.262001895841026 0
0 0 0 0 0 0 0 0 0 0 0 0 0 0 0 0 0 0 0 0 0 0 0 0 0.264058824355555 0.203538441738446 0.0538981476861158 0 0 0.0739582437853076 0 0 0 0 0 0 0 0 0 0 0 0 0 0 0 0 0 0 -1.03820431839333 0
0 0 0 0 0 0 0 0 0 0 0 0 0 0 0 0 0 0 0 0 0 0 0 0 0.132707419691292 0 0.0530704014341483 0.145298654843097 0.337025754567612 0 0 0 0 0 0 0 0 0 0 0 0 0 0 0 0 0 0 0 -0.476867932585888 0
0 0 0 0 0 0 0 0 0 0 0 0 0 0 0 0 0 0 0 0 0 0 0 0 0 0 0 0 0 0 0 0 0 0 0 0 0.0358597520558148 0.11767310678707 0.14982328069353 0.804637340540715 0 0 0 0 0 0 0 0 0 0
0 0 0 0 0 0 0 0 0 0 0 0 0 0 0 0 0 0 0 0 0 0 0 0 0.203078686756975 0.18786415714572 0.14062065773804 0 0.204412895973266 0.0842699359706245 0.0990626015523161 0 0.520923080695188 0 0.525878550240913 0 0 0 0 0 0 0 0 0 0 0 0 0 -3.30414803018193 0
0 0.127289810217097 0.204462087292802 0 0 0 0.113617728886521 0.284171764627213 0.133917707378468 0 0 0 0.0973253619386732 0 0 0 0 0 0 0 0 0 0 0 0 0 0 0 0 0 0 0 0 0 0 0 0 0 0 0 0 0 0 0 0 0 0 0 0 0
0 0 0 0 0 0 0.0573932140429172 0 0.455602588899085 0.599614966350244 0.233720643196319 0.188347621498865 0.15851697546788 0 0.395524968129259 0.116392454877082 0.40785838227532 0 0 0 1.58327583690469 0.35701239218309 0 0.0478661105505022 0 0.133179132457445 0 0 0 0 0 0 0 0 0 0 0 0 0 0 0 0 0 0 0 0 0 0 -1.95974729956025 0
0 0 0 0 0 0 0 0 0 0 0 0 0 0 0 0 0 0 0 0 0 0 0 0 0 0 0 0 0 0 0 0 0 0 0.797144775855665 0.262698175749715 0.54372497928775 0 0 0.274917260624131 0.618235527841853 0.0495823773854286 0.222531433074785 0.0923468000559399 0 0.666871387128302 0 0.386456472326966 0 0
0 0 0 0 0 0 0 0 0 0.171764591836793 0.182873557611785 0.581439604350975 0 0 0 0 0 0 0 0 0 0 0 0 0 0 0 0 0 0 0 0 0 0 0 0 0 0 0 0 0 0 0 0 0 0 0 0 0 0
