0 0 0 0 -0.185338297019319 0 0 -0.0680057758087756 0 -3.06821221105613 0 0 0 0 0 0 0 -5.82123322862557 0 0 0 0 0 0 0 0 0 0 0 -0.872908106274721 0 0 0 0 0 0 0 0 0 -1.4613173991632 0 0 0 0 -0.878125774669578 0 0 0 0 0
0 0 0 0 0 0 0 0 0 0 0 0 0 0 0 0 0 -1.08908959015288 0 0 0 0 0 0 0 0 0 0 0 -1.85964280269763 0 0 0 0 0 0 0 0 0 0 0 0 0 -4.87168747238703 0 0 0 0 0 0
0 0 0 0 -0.402897000917084 0 0 0 0 0 0 0 -1.14507308368984 -1.33500443594613 0 0 0 0 0 0 0 0 0 0 0 0 0 0 0 -0.504553311348327 -1.31838032433072 0 0 0 0 0 0 0 0 0 0 0 0 -3.3214732028377 -1.75472302572841 0 0 0 0 0
0 0 0 0 0 0 -0.773040025841446 0 0 -1.25882368202688 0 0 -1.87979773483399 0 0 0 0 -1.87101666902054 0 0 0 0 0 -1.37934571751734 0 0 0 0 0 -2.54430654374439 0 0 0 0 0 0 0 0 0 -1.23560669242455 0 0 0 -1.6321749850012 -0.877191589657243 0 0 0 0 0
0.0366704294009332 0 0.0868436334946553 0 0 -1.68876795058168 -0.199045303560833 0 0 0 0 0 -1.50598042279601 0 0 0 0 -2.04410288199453 0 0 0 0 0 -0.184164086279238 0 0 0 0 0 0 -0.628125817253265 0 0 0 0 0 0 0 0 0 0 0 0 0 -0.814002013983641 0 0 0 0 0
0 0 0 0 0.336424768248185 0 0 0 0 0 0 -0.402465396079773 0 0 0 0 0 -0.130816718854343 -0.948521574748829 -0.396528956738843 0 0 0 -0.391108130585934 0 -0.762335064428252 0 0 0 0 0 0 0 0 0 0 0 0 0 -0.947668094702395 0 0 0 0 -4.12685595057922 0 0 0 0 0
0 0 0 0.146284957895841 0.0414876551019885 0 0 0 0 0 0 -0.872716340045522 0 0 0 0 -1.0028444877506 0 -1.28885513147183 0 0 0 0 0 -0.539669092516618 0 0 -0.538192838604926 0 -0.572631920051668 0 0 0 0 0 0 0 0 0 0 0 0 0 0 0 0 0 0 -1.47790740767306 0
0.0132046523776042 0 0 0 0 0 0 0 0 0 0 0 0 0 0 0 -1.09914191507615 0 0 0 0 0 0 0 -1.16947438940023 -0.395614297842622 0 0 0 0 0 0 0 0 0 0 0 0 0 0 0 0 0 0 0 0 0 0 -0.385289719025648 0
0 0 0 0 0 0 0 0 0 0 0 0 0 0 0 0 -0.550179467689519 0 0 0 -0.794565035860391 0 0 0 -0.750624228850683 -1.40175495769061 0 0 0 0 0 0 0 0 0 -0.669010174354781 -0.575909683376054 0 0 0 0 0 0 0 0 -0.490631862776183 -10.9767975102615 0 0 0
0.611552558906492 0 0 0.256094651525394 0 0 0 0 0 0 0 0 0 0 0 0 0 0 0 0 -0.495035648170142 0 0 0 0 -0.791444700871449 -0.748121362557872 0 0 0 0 0 0 0 0 -1.92014348306763 -0.593332725787596 0 0 0 0 0 0 0 0 0 -1.41727310233114 0 0 -4.23889314768233
0 0 0 0 0 0 0 0 0 0 0 0 0 0 0 0 0 0 0 0 0 0 0 0 0 -0.780198980356975 -0.938839542553889 0 -0.420313741067365 0 0 0 0 0 -0.143675788819248 -0.230693171179859 0 0 0 0 0 0 0 0 0 0 -0.313638820716368 0 0 0
0 0 0 0 0 0.0877727908148015 0.18780761258243 0 0 0 0 0 0 0 0 0 0 0 0 0 0 0 -0.527100186783884 0 -1.05810474855107 -0.231876972381136 0 0 0 0 0 0 0 0 -1.80405934086951 -2.10282951313666 -1.34825707248522 0 0 0 0 0 0 0 0 0 0 -2.14876845574963 0 -0.625797030895234
0 0 0.242917382017805 0.381783557416213 0.315934252778689 0 0 0 0 0 0 0 0 0 0 0 0 0 0 0 -1.7345195270932 0 -0.64169848657722 0 -0.0498500371679446 0 0 0 0 0 0 0 0 0 0 -0.198987919952173 -1.0159093865338 0 0 0 0 0 0 0 0 0 -1.16016962707237 -0.938551321802598 0 -1.53020960030156
0 0 0.259481364951018 0 0 0 0 0 0 0 0 0 0 0 0 0 0 0 0 0 -1.58491920461181 0 -0.875908193909073 0 0 0 0 0 0 0 0 0 0 0 0 -0.591414686942729 0 0 0 0 0 0 0 0 0 0 0 0 0 -0.60732124467795
0 0 0 0 0 0 0 0 0 0 0 0 0 0 0 0 0 0 0 0 0 0 0 0 -1.98155089550816 -0.737045419256299 0 0 0 0 0 0 0 0 -0.609681214619743 -1.27861365619162 0 0 0 0 0 0 0 0 0 0 0 0 0 0
0 0 0 0 0 0 0 0 0 0 0 0 0 0 0 0 0 0 0 0 0 0 0 0 0 -0.999665719478965 0 0 0 0 0 0 0 0 0 -0.911981277872716 0 0 0 0 0 0 0 0 0 0 0 0 0 0
0 0 0 0 0 0 0.19756821693053 0.23133743542877 0.104466088567875 0 0 0 0 0 0 0 0 0 0 0 0 0 0 0 0 0 0 0 0 0 0 -1.05305177390286 0 0 0 0 0 0 0 0 0 0 0 0 0 0 0 0 0 0
1.12559100538368 0.217360875484408 0 0.406845840984447 0.408493723889985 0.0259868853851918 0 0 0 0 0 0 0 0 0 0 0 0 0 0 0 -0.891053711822962 0 0 0 0 0 0 0 0 0 -0.0866142505995601 0 0 0 0 0 0 -0.146085754978467 0 0 0 0 0 0 0 0 0 0 0
0 0 0 0 0 0.194710129525535 0.258912671537943 0 0 0 0 0 0 0 0 0 0 0 0 0 0 -6.56041784898703 0 0 0 0 0 0 0 0 0 0 0 0 0 0 0 0 -2.44188868976858 0 -0.589509959355215 0 0 0 0 0 0 0 0 0
0 0 0 0 0 0.0770603600416849 0 0 0 0 0 0 0 0 0 0 0 0 0 0 0 0 0 0 0 0 0 0 0 0 0 -0.421301263981892 0 0 -2.005900453994 0 0 0 0 0 -1.00366075125358 0 0 0 0 0 0 0 0 0
0 0 0 0 0 0 0 0 0.152131745046661 0.104491738385242 0 0 0.343783877961271 0.336157972999868 0 0 0 0 0 0 0 0 0 0 0 0 0 0 0 0 0 0 0 0 0 0 0 0 -1.90427755395588 0 -2.88647367654405 0 0 0 0 0 0 0 0 0
0 0 0 0 0 0 0 0 0 0 0 0 0 0 0 0 0 0.191744153756741 1.30550343230745 0 0 0 0 0 0 0 0 0 0 0 0 0 0 0 -1.55151180549855 0 0 0 0 0 -0.743686793099229 0 0 0 0 0 0 0 0 0
0 0 0 0 0 0 0 0 0 0 0 0.105820494860615 0.126783912576163 0.195298992014989 0 0 0 0 0 0 0 0 0 0 0 0 0 0 0 0 0 0 0 0 0 0 0 0 -0.209144300801944 0 0 0 0 0 0 0 0 0 0 0
0 0 0 0.281027896670966 0.0353700854332609 0.0748682412852665 0 0 0 0 0 0 0 0 0 0 0 0 0 0 0 0 0 0 0 0 0 0 0 0 0 0 0 0 -1.64647810727941 0 0 0 0 0 0 0 0 0 0 0 0 0 0 0
0 0 0 0 0 0 0.105788894542294 0.233626235928483 0.135676729876413 0 0 0.213640744868938 0.00977086287812213 0 0.366194346993508 0 0 0 0 0 0 0 0 0 0 0 0 0 0 0 0 0 0 0 0 0 0 0 0 0 0 0 0 0 0 0 0 0 0 0
0 0 0 0 0 0.154858906171312 0 0.0794314499904731 0.292592950145452 0.169807376491019 0.166729131654753 0.0455005253945853 0 0 0.154035384260916 0.204397032188082 0 0 0 0 0 0 0 0 0 0 0 0 0 0 0 0 0 0 -0.290102414058522 0 0 0 -1.35344307260807 0 0 0 0 0 0 0 0 0 0 0
0 0 0 0 0 0 0 0 0 0.142927156212554 0.179961276459284 0 0 0 0 0 0 0 0 0 0 0 0 0 0 0 0 0 0 0 0 0 0 -2.32612465425616 -0.761311042132793 0 0 0 -0.16555098430313 0 0 0 0 0 0 0 0 0 0 0
0 0 0 0 0 0 0.107243969872534 0 0 0 0 0 0 0 0 0 0 0 0 0 0 0 0 0 0 0 0 0 0 0 0 0 0 0 0 0 0 0 -0.603091806742519 0 0 0 0 0 0 0 0 0 0 0
0 0 0 0 0 0 0 0 0 0 0.0844018390845512 0 0 0 0 0 0 0 0 0 0 0 0 0 0 0 0 0 0 0 0 0 0 -1.34590749003578 0 0 0 0 -0.879672233555138 0 0 0 0 0 0 0 0 0 0 0
0.177111283962659 0.379696189620354 0.100546336893859 0.497592132772664 0 0 0.115485526447593 0 0 0 0 0 0 0 0 0 0 0 0 0 0 0 0 0 0 0 0 0 0 0 0 0 0 0 0 0 0 0 0 0 0 0 0 0 0 0 0 0 0 0
0 0 0.275499215493598 0 0.115428237251552 0 0 0 0 0 0 0 0 0 0 0 0 0 0 0 0 0 0 0 0 0 0 0 0 0 0 0 0 0 0 0 0 0 0 0 0 0 0 0 0 0 0 0 0 0
0 0 0 0 0 0 0 0 0 0 0 0 0 0 0 0 0.210429318686044 0.0167422991195652 0 0.0870352880306756 0 0 0 0 0 0 0 0 0 0 0 0 0 -0.582445142443631 0 0 0 0 0 0 0 0 0 0 0 0 0 0 0 0
0 0 0 0 0 0 0 0 0 0 0 0 0 0 0 0 0 0 0 0 0 0 0 0 0 0 0 0 0 0 0 0 0 -1.35860171959685 0 0 0 0 0 0 0 -0.475334562030525 0 0 0 0 0 0 0 0
0 0 0 0 0 0 0 0 0 0 0 0 0 0 0 0 0 0 0 0 0 0 0 0 0 0 0.447818735135446 0 0.274658816906089 0 0 0.11075126711742 0.295114573068654 0 0.585679431682342 0 0 0 0 0 0 0 0 0 0 0 0 0 0 0
0 0 0 0 0 0 0 0 0 0 0.0298776387868894 0.366567317395523 0 0 0.131261757600307 0 0 0 0 0.406523249806666 0 0.308515135919997 0 0.384811800328146 0 0.0556978642567762 0.154820621976492 0 0 0 0 0 0 -2.92905269639908 0 0 0 0 -0.129981170253542 0 0 0 0 0 0 0 0 0 0 0
0 0 0 0 0 0 0 0 0.124933558112388 0.387903805066104 0.0396411365434742 0.445702275523089 0.038497565693772 0.12205233308707 0.265768119234529 0.166230507967655 0 0 0 0 0 0 0 0 0 0 0 0 0 0 0 0 0 0 0 0 0 0 0 0 0 0 -6.64733319202878 0 0 0 0 0 0 0
0 0 0 0 0 0 0 0 0.107982786904808 0.110418216757923 0 0.264031439509126 0.202295898798278 0 0 0 0 0 0 0 0 0 0 0 0 0 0 0 0 0 0 0 0 0 0 0 0 0 -0.619895255510671 0 0 -1.40849396635956 -0.190286931000399 0 0 0 0 0 0 0
0 0 0 0 0 0 0 0 0 0 0 0 0 0 0 0 0 0 0 0 0 0 0 0 0 0 0 0 0 0 0 0 0 0 0 0 0 0 -1.56394876875795 0 0 0 -6.36074052161653 0 0 0 0 0 0 0
0 0 0 0 0 0 0 0 0 0 0 0 0 0 0 0 0 0.0303245350510103 0.506575619155797 0 0.346982717818107 0 0.0391827931613776 0 0 0.261604524036344 0.0307922050492268 0.127357332152644 0.192150082379565 0 0 0 0 0 0.0262969970206193 0 0.119513811466887 0.298589486140021 0 0 0 0 0.374143310638291 0.0755614211625768 0 0.580597041150263 0 0 0 0
0.298488147571099 0 0 0.255286344390101 0 0.208359466274591 0 0 0 0 0 0 0 0 0 0 0 0 0 0 0 0 0 0 0 0 0 0 0 0 0 0 0 0 0 0 0 0 0 0 0 0 0 0 0 0 0 0 0 0
0 0 0 0 0 0 0 0 0 0 0 0 0 0 0 0 0 0 0.113956732484176 0.199259480553448 0.612482007730341 0.144597372864662 0 0 0 0 0 0 0 0 0 0 0 0 0 0 0 0 0 0 0 -0.5807134748313 0 0 0 0 0 0 0 0
0 0 0 0 0 0 0 0 0 0 0 0 0 0 0 0 0 0 0 0 0 0 0 0 0 0 0 0 0 0 0 0 0.0966003288391678 0 0 0 0.259908834400879 0 0 0 0.116664580161885 0 0.797434298724497 1.0038013994096 0 0.224775326381074 0 0 0 0
0 0 0 0 0 0 0 0 0 0 0 0 0 0 0 0 0 0 0 0 0 0 0 0 0 0 0 0 0 0 0 0 0 0 0 1.35292992505416 0.0379443305131276 1.16897441554624 -2.06032248354191 0 0 -4.14365515122964 0 0 0 0 0 0 0 0
0 0.867978243920084 0.725489934849285 0.344276900112461 0 0 0 0 0 0 0 0 0 0 0 0 0 0 0 0 0 0 0 0 0 0 0 0 0 0 0 0 0 0 0 0 0 0 -0.386048131079895 0 0 -4.49143547132883 0 0 0 0 0 0 0 0
0.177084303452663 0 0.35235769542212 0.168071026453568 0.159102364714554 0.809261298304235 0 0 0 0 0 0 0 0 0 0 0 0 0 0 0 0 0 0 0 0 0 0 0 0 0 0 0 0 0 0 0 0 0 0 0 0 0 0 0 0 0 0 0 0
0 0 0 0 0 0 0 0 0.0955267911949151 0 0 0 0 0 0 0 0 0 0 0 0 0 0 0 0 0 0 0 0 0 0 0 0 0 0 0 0 0 -3.04010454782181 0 0 -1.04615513304917 0 0 0 0 0 0 0 0
0 0 0 0 0 0 0 0 2.09271995645405 0.257167023595711 0.0630884242651973 0 0.243548715387504 0 0 0 0 0 0 0 0 0 0 0 0 0 0 0 0 0 0 0 0 0 0 0 0 0 0 0 0 0 0 0 0 0 0 0 0 0
0 0 0 0 0 0 0 0 0 0 0 0.408376480204743 0.194474122069748 0 0 0 0 0 0 0 0 0 0 0 0 0 0 0 0 0 0 0 0 0 0 0 0 0 0 0 0 0 0 0 0 0 0 0 0 0
0 0 0 0 0 0 0.305680397993336 0.0750554812539649 0 0 0 0 0 0 0 0 0 0 0 0 0 0 0 0 0 0 0 0 0 0 0 0 0 0 0 0 0 0 0 0 0 0 0 0 0 0 0 0 0 0
0 0 0 0 0 0 0 0 0 0.848645377269866 0 0.142094385133206 0.301367834641857 0.118107312815993 0 0 0 0 0 0 0 0 0 0 0 0 0 0 0 0 0 0 0 0 0 0 0 0 0 0 0 0 0 0 0 0 0 0 0 0
