2.07578406327341
0.535889588174265
0.261115168483198
0.392460433720908
0.271363853426783
2.32691057963368
0.164511043662426
0.556838315235583
1.30758055496843
0.366654734961178
1.24437251082428
0.565569274880253
0.933053519816752
1.09859931891676
0.712388709839048
0.691333619080458
1.5606215388849
0.18298409643959
1.14473723522173
1.55391928300444
0.320043859232973
2.15436328837665
1.79124059191434
1.12220468435518
0.618823380988424
1.29554323806499
1.22599514834997
0.711979312490531
1.58123989431729
0.222596880697967
1.60537034970143
2.1507153575391
0.0665492373130556
0.860150150376443
1.87453741011553
0.550309290265528
0.677830540213338
0.392337812351507
0.0992014201987027
1.997912216767
0.441120877201835
0.270892706407959
1.97953492471051
1.42695570736008
0.551851577858846
1.68763823219117
1.15460856998585
1.05630050900031
1.63528139671727
0.959838678947457
