0 0 0 0 0 0 0 0 0 0 0 0 0 0 -0.167306468874951 0 0 0 0 0 0 0 0 0 0 0 0 0 0 0 0 0 0 0 0 0 -0.858112927975253 0 -1.33044742004536 0 0 0 0 0 0 0 0 0 0 0
0 0 0 0 0 0 0 0 0 0 0 0 0 0 -0.224406649614675 0 0 0 0 0 0 0 0 0 0 0 0 0 0 0 0 0 0 0 0 0 0 0 0 0 0 0 0 0 0 0 0 0 0 0
0 0 0 0 0 0 0 0 0 0 0 0 0 0 0 0 0 0 0 0 0 0 0 0 0 0 0 0 0 0 0 0 0 0 0 0 0 0 -0.91336741117553 0 0 0 0 0 0 0 0 0 0 0
0 0 0 0 0 0 -2.47404057278426 0 0 0 0 0 0 0 0 0 0 0 0 0 0 0 0 0 0 0 0 0 0 -0.114769868452227 0 0 0 0 0 0 -4.61558967928393 0 0 0 0 0 0 0 0 0 0 0 0 0
0 0 0 0 0 -1.24410201730398 -0.614347313509864 0 0 0 0 0 0 0 0 0 -2.50228848022105 0 0 0 0 0 0 0 0 0 0 0 0 0 0 0 0 0 0 0 -0.540035276070931 0 -2.27260831622357 0 0 0 0 0 0 0 0 0 0 0
0 0 0 0 0.224548282818568 0 0 0 0 0 0 0 0 0 0 -0.286411984447741 0 0 0 0 0 0 0 0 0 0 0 0 0 0 0 0 0 0 0 0 0 0 -0.772263248173416 0 0 0 0 0 0 0 0 0 0 0
0 0 0 0.522591014043431 0.124218351040175 0 0 0 0 0 0 0 0 0 0 0 0 0 0 0 0 0 0 0 0 0 0 0 0 0 0 0 0 -0.981977533723819 0 0 -0.65139719374082 0 0 0 0 0 0 0 0 0 0 0 0 0
0 0 0 0 0 0 0 0 0 0 0 0 0 0 0 0 0 0 -0.94182649250049 0 0 0 0 0 0 0 0 0 0 0 0 -0.497492447686061 0 0 -1.5028608706724 -2.67010752604088 0 0 0 0 0 0 0 0 0 -1.99706000115655 0 -0.474582261270011 0 0
0 0 0 0 0 0 0 0 0 0 0 0 0 0 0 0 0 0 0 0 0 0 0 0 0 0 0 0 0 0 0 0 0 0 -0.632329116696149 -1.42107919929308 0 0 0 -0.597312464721979 -3.62005090275229 0 -5.85635368505879 0 0 -2.30206087726692 0 -4.84725746876231 0 0
0 0 0 0 0 0 0 0 0 0 -0.219026533133573 0 0 0 0 0 0 0 0 0 0 0 0 0 0 0 0 0 0 0 0 -2.73623263442924 0 0 -4.5360874667198 0 0 -0.245259649205479 0 0 0 0 0 -2.14978950385682 0 -0.748963471804602 0 0 0 0
0 0 0 0 0 0 0 0 0 0.0422070279025472 0 0.231116792699362 0 0 0 0 0 0 0 -0.573903724885341 0 0 0 0 0 0 0 0 0 0 0 -0.139741398675538 0 0 -0.308407329837215 -1.16636332757112 0 0 0 0 0 0 0 0 0 0 0 0 0 0
0 0 0 0 0 0 0 0 0 0 -1.17465694739696 0 0 0 0 0 0 0 0 -3.68088105172129 0 0 -6.59835421329005 0 0 0 0 0 0 0 -0.508105748273159 0 0 0 -0.767048327220293 0 0 -0.218964134008506 0 0 -4.345471529283 0 0 0 0 0 0 0 0 0
0 0 0 0 0 0 0 0 0 0 0 0 0 0 0 0 0 0 0 0 0 0 -1.84864975365137 0 0 0 0 0 0 0 -0.851410759211286 0 0 0 -0.888564833691298 -0.999923610577607 0 0 0 0 -0.376214785541658 0 0 -0.281087164368119 0 0 0 0 0 0
0 0 0 0 0 0 0 0 0 0 0 0 0 0 0 0 0 0 0 -0.223689046529096 0 0 0 0 0 0 0 0 0 0 0 -2.36130397254014 0 0 -0.181461642363578 -0.459740225811388 0 0 0 0 -2.12435916215656 0 0 -0.890279122952286 0 0 0 0 0 0
0.0344759359584123 0.041615944958712 0 0 0 0 0 0 0 0 0 0 0 0 0 0 0 0 0 -0.43590985363605 0 0 0 0 0 0 0 0 0 0 -0.273596159308875 0 0 0 0 0 0 -0.990453542840894 0 -0.38938288753375 -0.873165081532188 0 0 0 0 0 0 0 0 0
0 0 0 0 0 0.0563964510299784 0 0 0 0 0 0 0 0 0 0 0 0 0 0 0 0 0 0 0 0 0 0 0 0 -0.975598895300789 0 0 0 0 0 0 0 0 0 0 0 0 -0.0913497112915549 0 0 0 0 0 0
0 0 0 0 0.489504458439701 0 0 0 0 0 0 0 0 0 0 0 0 0 0 0 0 0 0 0 0 -2.58291508041155 0 0 0 0 -1.05846526834063 -2.13144515271844 0 0 0 0 0 0 0 -2.18201384496716 0 0 0 -2.03212614953567 0 0 0 0 0 0
0 0 0 0 0 0 0 0 0 0 0 0 0 0 0 0 0 0 0 0 0 0 0 0 0 0 0 0 0 0 -11.0285792592148 0 0 0 0 0 0 0 0 0 0 -2.5162976493431 0 0 0 0 0 0 0 0
0 0 0 0 0 0 0 0.191741250607334 0 0 0 0 0 0 0 0 0 0 0 0 0 0 0 0 0 0 0 0 0 0 -0.493485343810978 0 0 0 0 0 0 0 0 0 0 -0.519311634286917 0 -0.246147878061056 0 0 0 0 0 0
0 0 0 0 0 0 0 0 0 0 0.11979908145935 0.797208420853144 0 0.0457085189127711 0.0828790277362315 0 0 0 0 0 0 0.238341020281061 0.240474555285633 0.0348332294045097 0 0 0 0 0 0 -0.850089012942329 0 0 0 0 0 0 0 0 0 0 -2.09074986146916 0 -0.328577834227004 0 0 0 0 0 -1.44913663847836
0 0 0 0 0 0 0 0 0 0 0 0 0 0 0 0 0 0 0 0 0 0 0 0 0 0 0 0 0 0 0 0 0 0 0 0 0 0 0 0 0 -1.12851314202101 0 -3.91141082137829 -0.811452567514024 0 0 0 0 -4.69075916032385
0 0 0 0 0 0 0 0 0 0 0 0 0 0 0 0 0 0 0 -1.18184316367056 0 0 0 0 0 0 0 0 0 0 0 0 0 0 0 0 0 0 0 0 0 0 0 0 -1.87545136826212 0 0 0 -0.853077589611376 -0.954344651887895
0 0 0 0 0 0 0 0 0 0 0 1.33315421067494 0.365719783181141 0 0 0 0 0 0 -1.31604880190487 0 0 0 0 0 0 0 0 -1.70382213529579 0 0 0 0 0 0 0 0 0 0 0 0 0 0 -0.674797649232169 -5.13517903247637 0 -0.809020821664576 0 -1.02787088923623 0
0 0 0 0 0 0 0 0 0 0 0 0 0 0 0 0 0 0 0 -0.183536469313311 0 0 0 0 0 0 0 0 0 0 0 0 0 0 0 0 0 0 0 0 0 -1.0196415707754 0 0 -2.23808794453976 0 -0.964909005804533 0 0 0
0 0 0 0 0 0 0 0 0 0 0 0 0 0 0 0 0 0 0 0 0 0 0 0 0 0 0 0 0 0 0 0 0 0 0 0 0 0 0 0 0 -1.5936263805416 0 0 -0.292103555089449 0 0 0 0 -0.751658080092224
0 0 0 0 0 0 0 0 0 0 0 0 0 0 0 0 0.550899903087091 0 0 0 0 0 0 0 0 0 0 0 0 0 0 0 0 0 0 0 0 0 0 0 0 0 0 0 -0.495358379815521 0 -0.827258571906632 0 0 -1.0237596570773
0 0 0 0 0 0 0 0 0 0 0 0 0 0 0 0 0 0 0 0 0 0 0 0 0 0 0 0 0 0 0 0 0 0 0 0 0 0 0 0 0 0 0 0 -2.18316690057987 0 0 0 -3.87162264811573 0
0 0 0 0 0 0 0 0 0 0 0 0 0 0 0 0 0 0 0 0 0 0 0 0 0 0 0 0 0 0 0 0 0 0 0 0 0 0 0 0 0 0 0 0 0 0 0 0 0 -0.601232629002248
0 0 0 0 0 0 0 0 0 0 0 0 0 0 0 0 0 0 0 0 0 0 0.363698689077856 0 0 0 0 0 0 0 0 0 0 0 0 0 0 0 0 0 0 0 0 0 -1.10192107396032 0 0 0 -0.143840018895635 -1.16938760113351
0 0 0 0.0252453093986081 0 0 0 0 0 0 0 0 0 0 0 0 0 0 0 0 0 0 0 0 0 0 0 0 0 0 0 0 0 0 0 0 0 0 0 0 0 0 0 0 0 0 0 0 0 -0.394341445696648
0 0 0 0 0 0 0 0 0 0 0 0.113136756012568 0.16446890403839 0 0.0580658979209205 0.196288506092992 0.199015834290389 2.13159008602563 0.0959464172666056 0.161213994641819 0 0 0 0 0 0 0 0 0 0 0 0 0 0 0 0 0 0 0 0 0 0 0 0 -0.462937926146965 0 0 0 -10.1808071913535 -1.35038122410805
0 0 0 0 0 0 0 0.103211801066551 0 0.550205306789888 0.0280232128349789 0 0 0.468664403526837 0 0 0.461718226860397 0 0 0 0 0 0 0 0 0 0 0 0 0 0 0 0 0 0 0 0 0 0 0 0 0 0 0 -2.68284061479153 0 0 0 0 -0.756156213943928
0 0 0 0 0 0 0 0 0 0 0 0 0 0 0 0 0 0 0 0 0 0 0 0 0 0 0 0 0 0 0 0 0 0 0 0 0 0 0 0 0 0 0 0 -1.2819315464982 0 0 0 -0.604228183791419 0
0 0 0 0 0 0 0.189409823745606 0 0 0 0 0 0 0 0 0 0 0 0 0 0 0 0 0 0 0 0 0 0 0 0 0 0 0 0 0 0 0 0 0 0 0 0 0 -0.368260290969797 0 0 0 -0.52083138224147 0
0 0 0 0 0 0 0 0.309578936142505 0.123169967603056 0.878237331821726 0.0619810825043217 0.14577914536547 0.200182046767819 0.0352302526780449 0 0 0 0 0 0 0 0 0 0 0 0 0 0 0 0 0 0 0 0 0 0 0 0 0 0 0 0 0 0 -0.507525630369915 0 0 0 -0.300404167717368 0
0 0 0 0 0 0 0 0.504309115372333 0.283004227045078 0 0.236854971900622 0 0.202295436045594 0.0929533279497145 0 0 0 0 0 0 0 0 0 0 0 0 0 0 0 0 0 0 0 0 0 0 0 0 0 0 0 0 0 0 0 0 0 0 -0.837596171883086 0
0.16870496908543 0 0 0.931460724240628 0.113102079034328 0 0.120234310511519 0 0 0 0 0 0 0 0 0 0 0 0 0 0 0 0 0 0 0 0 0 0 0 0 0 0 0 0 0 0 0 0 0 0 0 0 0 0 0 0 0 0 0
0 0 0 0 0 0 0 0 0 0.0458412391682634 0 0.043663451531895 0 0 0.204910895423074 0 0 0 0 0 0 0 0 0 0 0 0 0 0 0 0 0 0 0 0 0 0 0 0 0 0 0 0 0 -6.36487951983393 0 0 0 -0.647915399833691 0
0.266610842260181 0 0.180366156257975 0 0.467368473704889 0.155162993315213 0 0 0 0 0 0 0 0 0 0 0 0 0 0 0 0 0 0 0 0 0 0 0 0 0 0 0 0 0 0 0 0 0 0 0 0 0 0 0 0 0 0 0 0
0 0 0 0 0 0 0 0 0.116028921926208 0 0 0 0 0 0.0811974653758059 0 0.434362234164999 0 0 0 0 0 0 0 0 0 0 0 0 0 0 0 0 0 0 0 0 0 0 0 0 0 0 0 0 0 0 0 0 0
0 0 0 0 0 0 0 0 0.685807646699124 0 0 0.92254137231117 0.0752656858397697 0.394519186783569 0.173024732712611 0 0 0 0 0 0 0 0 0 0 0 0 0 0 0 0 0 0 0 0 0 0 0 0 0 0 0 0 0 0 0 0 0 -3.93013652211437 0
0 0 0 0 0 0 0 0 0 0 0 0 0 0 0 0 0 0.483767373868984 0.110125397749408 0.416830405727994 0.198021000811457 0 0 0.194259143144782 0.329413273802605 0 0 0 0 0 0 0 0 0 0 0 0 0 0 0 0 0 0 0 -0.734600879082637 0 0 0 -1.20567480245785 0
0 0 0 0 0 0 0 0 1.18446967306502 0 0 0 0 0 0 0 0 0 0 0 0 0 0 0 0 0 0 0 0 0 0 0 0 0 0 0 0 0 0 0 0 0 0 0 0 0 0 0 0 0
0 0 0 0 0 0 0 0 0 0.437696931318291 0 0 0.0582074897931296 0.185667699053289 0 0.0177516821914942 0.401434671359675 0 0.0532958844407582 0.0776576989847341 0.828319303761534 0 0.137160342783431 0 0 0 0 0 0 0 0 0 0 0 0 0 0 0 0 0 0 0 0 0 0 0 0 0 0 0
0 0 0 0 0 0 0 0 0 0 0 0 0 0 0 0 0 0 0 0 0.158634998997503 0.378738574584334 1.04193511217523 0.425815261409515 0.0565639576955324 0.0917324427920743 0.420313565480726 0 0.216167382171525 0 0.0948613004990921 0.543893748700489 0.252375912830655 0.0695579331330101 0.093543042070423 0 0 1.30032902385278 0 0 0 0.152872253350779 0 0 0 0 0 0 0 0
0 0 0 0 0 0 0 0.409644322251782 0.466667645653859 0.153240607659897 0 0 0 0 0 0 0 0 0 0 0 0 0 0 0 0 0 0 0 0 0 0 0 0 0 0 0 0 0 0 0 0 0 0 0 0 0 0 0 0
0 0 0 0 0 0 0 0 0 0 0 0 0 0 0 0 0 0 0 0 0 0 0.152325977299039 0.179901205065576 0 0.159734049529488 0 0 0 0 0 0 0 0 0 0 0 0 0 0 0 0 0 0 0 0 0 0 0 0
0 0 0 0 0 0 0 0.0973968824149289 0.9241101965461 0 0 0 0 0 0 0 0 0 0 0 0 0 0 0 0 0 0 0 0 0 0 0 0 0 0 0 0 0 0 0 0 0 0 0 0 0 0 0 0 0
0 0 0 0 0 0 0 0 0 0 0 0 0 0 0 0 0 0 0 0 0 0.168090784871719 0.205153126246826 0 0 0 0.798210716801218 0 0.0295774514023477 0 1.9706877152954 0 0.117820746341438 0.109789482779387 0.0560140868370092 0.170453043861522 0 0.130887253756566 0 0 0.785504287867917 0.254751257334324 0 0 0 0 0 0 0 0
0 0 0 0 0 0 0 0 0 0 0 0 0 0 0 0 0 0 0 0.287929438506032 0.912199678959156 0.18611857017246 0 0 0.148703712150251 0.182136569526114 0 0.120396571801446 0.242026327610049 0.0692449024162936 0.293025435102098 0.156055393361132 0 0 0 0 0 0 0 0 0 0 0 0 0 0 0 0 0 0
