0.638106524209293
0.322298830069173
0.136119478944422
0.89385980349646
0.538989056901388
0.598932927161415
0.386197328997924
0.843254963683268
1.45084718633477
0.95686396109829
2.03701022774576
0.890388132857029
0.861689396543626
2.160890910078
2.19575358465588
0.688329218607445
0.72239207197256
2.35063100712514
1.08318575224275
1.60469460225045
0.203967328034171
0.575011671557379
0.886139612499511
0.218421462284612
1.91395523317016
1.33146491574533
1.71207130870975
0.495655253047821
0.027739031422073
0.637903592150683
0.483547854788387
0.865213664004529
1.05430046178633
3.16420236077825
0.700768318857775
1.14332180445899
0.268319156429155
2.28989549233185
0.305916342697244
2.58099217040171
2.65674978740761
0.839628251042314
2.80699582260953
0.582772799400924
1.01842522920703
0.110522294962581
1.78384492688244
0.631602645472193
2.54278652914536
2.59122324593663
