0 0 0 0 0 0 0 -0.283928536620489 0 0 0 0 0 -0.259589809915249 0 0 0 0 0 0 0 0 0 0 0 0 0 0 0 0 0 0 0 0 0 0 0 0 0 -1.17302667642664 0 0 0 0 0 0 0 0 0 0
0 0 0 0 0 0 0 0 0 0 0 0 0 0 0 0 0 0 0 0 0 0 0 0 -2.55289617709194 0 0 0 0 -0.854392028706133 0 0 0 0 0 0 0 0 0 -0.457508452235738 0 -2.57415075967105 0 0 0 0 0 0 0 0
0 0 0 0 0 0 0 0 0 0 0 0 0 0 0 0 0 -0.509814494915598 0 0 0 0 0 0 -4.09744376377396 0 0 0 0 0 0 0 0 0 0 0 0 0 0 0 -1.25221619690404 -2.47426554707136 0 0 0 0 0 0 -5.63401180139918 0
0 0 0 0 0 0 -0.821391547176233 0 0 0 0 0 0 0 0 0 0 0 0 0 0 0 0 0 0 0 0 0 0 -2.68115585675894 0 0 0 0 0 0 0 0 0 -3.73092545264732 0 0 0 0 0 0 0 0 0 0
0 0 0 0 0 0 0 0 0 0 0 0 0 0 0 0 0 0 0 0 0 0 0 0 -0.441222157792787 0 0 0 0 -0.495286420792734 0 0 0 0 0 0 0 0 0 -0.67026203225349 0 0 0 0 0 0 0 0 -1.12987202725257 0
0 0 0 0 0 0 0 0 0 0 0 0 0 0 0 0 0 0 0 0 0 0 0 0 0 0 0 0 0 0 0 0 0 0 0 0 0 0 0 0 -3.68586639016956 0 0 0 0 0 0 0 -1.59982895359765 0
0 0 0 0.174045777498746 0 0 0 0 0 0 0 0 0 0 0 0 0 -0.997827899195611 0 0 0 0 0 -1.94097010099067 0 0 0 0 0 -2.87542184359651 0 0 0 0 0 0 0 0 0 -0.633763612177035 -0.294040706446408 -0.233044220406727 0 0 0 0 0 0 -1.97568643261095 0
0.0615313017370532 0 0 0 0 0 0 0 0 0 0 0 0 0 0 -4.22042558646173 0 0 0 0 0 0 0 0 0 0 0 0 0 0 0 0 0 0 0 0 0 0 0 -0.648450992914475 -2.35515097875666 0 0 0 0 0 0 0 -1.62680041379041 0
0 0 0 0 0 0 0 0 0 0 -0.926149012368574 0 0 0 0 0 0 -1.28362859985481 0 0 -0.825491090806377 0 0 0 0 0 0 0 0 0 0 0 0 0 0 0 0 0 0 0 -0.652008225646547 0 0 0 0 0 0 0 0 0
0 0 0 0 0 0 0 0 0 0 -0.537148063156268 0 0 0 0 -0.376075930343112 0 -0.820435512838999 0 0 0 0 0 0 0 0 0 0 0 0 0 0 0 -2.30462314605586 0 0 0 0 0 0 -0.291991316203688 0 0 0 0 0 0 0 -0.794832819767438 0
0 0 0 0 0 0 0 0 0.167610584301149 0.123713863411958 0 0 0 0 0 -2.01264595384736 0 -0.710088137218582 0 0 0 0 0 0 0 0 0 0 0 0 0 0 0 0 0 0 0 0 0 -0.951292616287459 0 0 0 0 0 0 0 0 0 0
0 0 0 0 0 0 0 0 0 0 0 0 0 0 0 -1.69869463188205 0 0 0 0 0 0 0 0 0 0 0 0 0 0 0 0 0 -1.21046913336885 0 0 0 0 0 0 0 0 0 0 0 0 0 0 0 0
0 0 0 0 0 0 0 0 0 0 0 0 0 0 0 -1.14326127943986 0 0 0 0 0 0 0 0 0 -7.07510484927056 0 0 0 0 0 0 0 -1.41412820450373 0 0 0 0 0 -1.9259031546881 0 0 0 0 0 0 0 0 -1.08965568105577 0
0.0527863091692605 0 0 0 0 0 0 0 0 0 0 0 0 0 0 -0.352892213508498 0 0 0 0 0 0 -0.328525738971197 0 0 -2.58286486294269 -4.80760718540054 0 0 0 0 0 0 0 0 0 0 0 0 -0.845674009607457 0 0 0 0 0 0 0 0 0 0
0 0 0 0 0 0 0 0 0 0 0 0 0 0 0 0 0 0 0 0 0 0 -1.66438622273907 0 0 -5.80000330267473 0 0 0 0 0 0 0 0 0 0 0 0 -7.1532570604579 -0.879748090396045 0 0 0 0 0 0 0 0 -0.471304239394395 0
0 0 0 0 0 0 0 0.84838915385644 0 0.0725966670614089 0.389315481721654 0.358023156339626 0.247786709506558 0.0651217254020635 0 0 0 0 0 0 0 0 0 0 0 0 0 0 0 0 -1.04185691822541 0 0 0 0 0 0 0 0 -1.87001759445075 0 0 0 0 0 0 0 0 0 0
0 0 0 0 0 0 0 0 0 0 0 0 0 0 0 0 0 0 0 0 0 0 -0.514815827099147 0 0 -1.37221196236233 0 0 0 0 0 0 0 0 0 0 0 -0.232766964294242 0 0 0 0 0 0 0 0 0 0 0 0
0 0 0.0984574466942601 0 0 0 0.194960937694621 0 0.250763597108565 0.173444612050255 0.153341654417691 0 0 0 0 0 0 0 0 0 0 -0.590774730065826 -0.564817927029895 0 0 -1.21209721909029 0 0 0 0 0 0 0 0 0 0 0 0 0 0 0 0 0 0 0 0 0 0 0 0
0 0 0 0 0 0 0 0 0 0 0 0 0 0 0 0 0 0 0 0 0 0 0 0 0 0 0 0 0 0 0 0 0 -0.605698094271996 0 0 0 -0.965647247602872 0 0 0 0 0 0 0 0 0 0 0 0
0 0 0 0 0 0 0 0 0 0 0 0 0 0 0 0 0 0 0 0 0 -2.6772760967559 -3.53358803630652 0 0 -0.871294865095895 0 0 0 0 0 0 0 -2.79533259331833 0 0 0 -3.60697839335535 0 0 0 0 0 0 0 0 0 0 0 0
0 0 0 0 0 0 0 0 0.171058118401827 0 0 0 0 0 0 0 0 0 0 0 0 -1.84625652724658 0 0 0 -0.35240457643109 0 0 0 0 0 0 0 0 0 0 0 0 0 0 0 0 0 0 0 -5.66696758153458 0 0 0 0
0 0 0 0 0 0 0 0 0 0 0 0 0 0 0 0 0 0.118557381966345 0 0.59062176738895 0.400300060313181 0 0 0 0 0 0 0 0 0 0 0 0 -1.95888707625846 0 0 0 -0.191502639656938 0 0 0 0 0 0 0 0 0 0 0 0
0 0 0 0 0 0 0 0 0 0 0 0 0 0.0687795020675785 0.333873583471471 0 0.106828011405582 0.112025941389203 0 0.71842134596493 0 0 0 0 0 0 0 0 0 0 0 -3.72288226628108 0 -1.53098797580223 0 0 0 0 0 0 0 0 0 0 -0.363612371473375 0 0 0 0 0
0 0 0 0 0 0 0.373200679147419 0 0 0 0 0 0 0 0 0 0 0 0 0 0 0 0 0 0 0 0 0 0 0 0 -4.97777058744998 0 0 0 0 0 -2.20237326570713 0 0 0 0 0 0 -0.110121495633797 -2.02411737433573 0 0 0 0
0 0.555616675207066 0.857193651426072 0 0.0795475887085618 0 0 0 0 0 0 0 0 0 0 0 0 0 0 0 0 0 0 0 0 0 0 0 0 0 0 0 0 -0.875688298907862 0 0 0 -1.57252171954157 0 0 0 0 0 0 -0.548534538253713 0 0 0 0 0
0 0 0 0 0 0 0 0 0 0 0 0 1.42860736226092 0.50498932244383 1.13158007340607 0 0.250131693433117 0.245524470195587 0 0.171272839340504 0.0704839820988048 0 0 0 0 0 0 0 0 0 0 0 0 -0.735098292708537 0 0 0 -1.17785998447192 0 0 0 0 0 0 -1.50380756367855 0 0 0 0 0
0 0 0 0 0 0 0 0 0 0 0 0 0 0.90917925466365 0 0 0 0 0 0 0 0 0 0 0 0 0 0 0 0 0 -0.271663342194774 0 0 0 0 0 0 0 0 0 0 0 0 -1.82032740117377 0 0 0 0 0
0 0 0 0 0 0 0 0 0 0 0 0 0 0 0 0 0 0 0 0 0 0 0 0 0 0 0 0 0 0 0 -1.77688275140739 0 -4.29779198125453 -0.513472248885808 0 0 0 0 0 0 0 0 0 0 0 0 0 0 0
0 0 0 0 0 0 0 0 0 0 0 0 0 0 0 0 0 0 0 0 0 0 0 0 0 0 0 0 0 0 0 0 0 0 0 0 -0.373491691745266 0 0 0 0 0 0 0 -0.500810790774553 0 0 0 0 -0.480828077773119
0 0.17485348862239 0 0.530419542482647 0.10225892614699 0 0.530588060927826 0 0 0 0 0 0 0 0 0 0 0 0 0 0 0 0 0 0 0 0 0 0 0 0 -8.79234151687327 0 -0.646376443227347 0 0 0 0 0 0 0 0 0 0 0 0 0 0 0 -0.0738114839269227
0 0 0 0 0 0 0 0 0 0 0 0 0 0 0 0.193836499820882 0 0 0 0 0 0 0 0 0 0 0 0 0 0 0 0 0 0 0 0 0 0 0 0 0 0 0 -1.02903633308881 0 0 0 0 0 0
0 0 0 0 0 0 0 0 0 0 0 0 0 0 0 0 0 0 0 0 0 0 0.820336110427633 1.01960069770341 0 0 0.0533457947665173 0.364323181821047 0 1.84895088362468 0 0 0.655495832209069 0 0 0 0 0 0 0 0 0 0 0 0 0 0 0 0 0
0 0 0 0 0 0 0 0 0 0 0 0 0 0 0 0 0 0 0 0 0 0 0 0 0 0 0 0 0 0 0 -3.70773377716491 0 0 0 0 0 0 0 0 0 0 0 0 0 0 -2.30677478426649 0 0 0
0 0 0 0 0 0 0 0 0 0.466395808954445 0 0.247979168843905 0.29163649280736 0 0 0 0 0 0.128226895343749 0.554475960784461 0 0.34847280003253 0.300627714612355 0 0.172847905707599 0.157797377079716 0 0.797690602037935 0 0.127715712858574 0 0 0 0 0 0 0 0 0 0 0 0 0 -0.245767136751264 0 0 -0.248411964323527 0 0 0
0 0 0 0 0 0 0 0 0 0 0 0 0 0 0 0 0 0 0 0 0 0 0 0 0 0 0 0.102854142426625 0 0 0 0 0 0 0 0 0 0 0 0 0 0 0 -3.78426335900573 0 0 -1.04226406914892 0 0 0
0 0 0 0 0 0 0 0 0 0 0 0 0 0 0 0 0 0 0 0 0 0 0 0 0 0 0 0 0 0 0 0 0 0 0 0 0 0 0 0 0 0 0 0 0 0 -0.631539094783627 -1.28765920695226 0 0
0 0 0 0 0 0 0 0 0 0 0 0 0 0 0 0 0 0 0 0 0 0 0 0 0 0 0 0 0.0746549245204673 0 0 0 0 0 0 0 0 0 0 0 0 0 0 0 0 0 -0.359744372711541 -1.0813006056081 0 0
0 0 0 0 0 0 0 0 0 0 0 0 0 0 0 0 0.045998501210223 0 0.189706135216075 0.742039946890422 0 0.0422586787924589 0 0.476481577233793 0.297050262060356 0.236577466550251 0 0 0 0 0 0 0 0 0 0 0 0 0 0 0 0 0 0 0 0 0 -1.7325382570563 0 0
0 0 0 0 0 0 0 0 0 0 0 0 0 0 1.43955333594794 0 0 0 0 0 0 0 0 0 0 0 0 0 0 0 0 0 0 0 0 0 0 0 0 0 0 0 0 0 0 0 -2.9693164208861 0 0 0
0.249035590074966 0.0953821610539072 0 0.736168722020312 0.128407487104979 0 0.131157090078884 0.132312041796304 0 0 0.193379644284561 0 0.406376924568312 0.171067384420831 0.176950413432642 0.379902021518587 0 0 0 0 0 0 0 0 0 0 0 0 0 0 0 0 0 0 0 0 0 0 0 0 0 0 0 0 0 0 -1.41026534697654 0 0 0
0 0 0.235978274778422 0 0 0.734791292623319 0.0612210299854104 0.467186464864438 0.132396127683921 0.0647212938150771 0 0 0 0 0 0 0 0 0 0 0 0 0 0 0 0 0 0 0 0 0 0 0 0 0 0 0 0 0 0 0 0 0 0 0 0 -1.02761375878494 0 0 0
0 0.456921660661469 0.515473570995639 0 0 0 0.0479597550159718 0 0 0 0 0 0 0 0 0 0 0 0 0 0 0 0 0 0 0 0 0 0 0 0 0 0 0 0 0 0 0 0 0 0 0 0 0 0 0 0 0 0 0
0 0 0 0 0 0 0 0 0 0 0 0 0 0 0 0 0 0 0 0 0 0 0 0 0 0 0 0 0 0 0 0 0 0 0 0 0 0 0 0 0 0 0 0 0 0 -1.88737526494705 0 0 0
0 0 0 0 0 0 0 0 0 0 0 0 0 0 0 0 0 0 0 0 0 0 0 0 0 0 0 0 0 0 0.202193362624064 0 0 0.0481447951941135 0.818080321438388 0 0 0 0 0 0 0 0 0 0 0 0 0 0 0
0 0 0 0 0 0 0 0 0 0 0 0 0 0 0 0 0 0 0 0 0 0 0.0720469532534667 0.0218076434162659 0.109754152465299 0.317383198740935 0.395920563752387 0 0.100500218611862 0 0 0 0 0 0 0 0 0 0 0 0 0 0 0 0 0 0 0 0 0
0 0 0 0 0 0 0 0 0 0 0 0 0 0 0 0 0 0 0 0 1.04127670140684 0 0 0.389953685864334 0 0 0 0 0 0 0 0 0 0 0 0 0 0 0 0 0 0 0 0 0 0 0 0 0 0
0 0 0 0 0 0 0 0 0 0 0 0 0 0 0 0 0 0 0 0 0 0 0 0 0 0 0 0 0 0 0 0 0.468892461628062 0.0504454347295952 0.205668974386258 0.137007959612523 0.0677954224735805 0 0.554476169450585 0.27077807273769 0.183703872825726 0 0.397345635741732 0 0 0 0 0 0 0
0 0 0 0 0 0 0 0 0 0 0 0 0 0 0 0 0 0 0 0 0 0 0 0 0 0 0 0 0 0 0 0 0 0 0 0.26675175949585 0.216730541216592 0.337489402688616 0 0 0 0 0 0 0 0 0 0 0 0
0 0 1.30660079127939 0 0.227311212009172 0.326120335010365 0.40603576892833 0.349275668543971 0 0.169643135780769 0 0 0.210166041910339 0 0.0844560369507387 0 0 0 0 0 0 0 0 0 0 0 0 0 0 0 0 0 0 0 0 0 0 0 0 0 0 0 0 0 0 0 0 0 0 0
0 0 0 0 0 0 0 0 0 0 0 0 0 0 0 0 0 0 0 0 0 0 0 0 0 0 0 0 0.0948323252546221 0.0155009102444671 0 0 0 0 0 0 0 0 0 0 0 0 0 0 0 0 0 0 0 0
