0.037923145096414
1.41936193800043
0.207909289828267
0.0743230130239868
0.135593253360006
3.72217407356758
1.39950476459005
0.461317509470681
0.244965037608927
0.158527579324148
0.891578394535112
0.610337229186362
1.70225986035292
0.618700522977288
0.681927549397723
2.46351127987975
1.02763863944483
0.659178431397222
0.680794585715943
0.228579923897928
1.19921347247231
0.784743077487735
0.0858927790770455
0.448050965205068
0.446481292564966
3.1705841836517
1.08719592463365
0.193802691849399
0.153117402104363
0.895159907743663
0.273433505718938
1.46279629725901
1.41397452618489
0.911056100279811
1.43806416767865
0.32485560083761
0.700102380687687
0.0924152941873012
0.45953791502244
0.372243162177574
0.663041034589804
0.637636402240649
2.42031750736571
0.100290573944196
0.50632945907265
0.916179645312414
0.334065116939828
0.108976792383862
1.70004768111683
0.414461355120285
