0 -5.70926384288749 0 0 0 0 0 0 0 0 0 0 0 0 0 0 0 -1.50127349692816 0 0 0 0 0 0 0 0 0 0 0 0 0 0 0 0 0 0 0 0 0 0 0 0 0 0 0 0 0 0 0 0
1.05061452192366 0 0 0 0 0 0 0 0 0 0 0 0 0 0 0 0 0 0 0 0 0 0 0 0 0 0 0 0 0 0 0 0 0 0 0 0 0 0 0 0 0 0 0 0 0 0 0 0 0
0 0 0 0 0 0 0 0 0 0 0 0 0 0 0 0 0 -0.608411614479293 0 0 0 0 0 0 0 0 0 0 0 0 0 0 0 0 0 0 0 0 0 0 0 0 0 0 0 0 0 0 0 0
0 0 0 0 0 0 0 0 0 0 0 0 -0.243806936143763 0 0 -4.08999475877519 0 0 0 0 0 0 0 0 0 0 0 0 0 0 0 0 0 0 0 0 0 0 0 0 0 0 0 0 0 0 0 0 0 0
0 0 0 0 0 0 0 0 0 0 0 -0.191921831729321 -0.385368108724736 0 -2.28834076311739 0 0 -0.421533780419229 0 0 0 0 0 0 0 0 0 0 0 0 0 0 0 0 0 0 0 0 0 0 0 0 0 0 0 0 0 0 0 0
0 0 0 0 0 0 0 0 0 0 0 -0.247089681872644 -0.300593085726743 0 0 -2.62075156963286 0 0 0 0 0 0 0 0 0 0 0 0 0 0 0 0 0 0 0 0 0 0 0 0 0 0 0 0 0 0 0 0 0 0
0 0 0 0 0 0 0 0 0 0 -0.234300905160003 -1.57999487387398 0 0 -0.624653507472491 0 0 0 0 0 0 0 0 0 0 0 -2.25776206318556 0 0 0 0 0 0 0 0 0 0 0 0 0 0 0 0 0 0 0 0 0 0 0
0 0 0 0 0 0 0 0 0 -0.533396635708461 0 0 0 -2.41507706553784 -0.631607930208821 0 0 0 0 -4.48807946349654 0 0 0 0 0 0 -4.56616124445871 0 0 0 0 0 0 0 -0.172775566341476 0 0 0 0 0 0 0 0 0 0 0 0 0 0 0
0 0 0 0 0 0 0 0 0 -0.340910740271206 0 -0.122396159660513 -0.894343034510021 -0.802611594343917 -1.15857430152769 0 0 0 0 -2.06574394126012 0 0 0 0 0 0 -3.69773606259711 0 0 0 0 0 0 0 -0.706190856567249 0 0 0 0 0 0 0 0 0 0 0 0 0 0 0
0 0 0 0 0 0 0 0.118873267560382 0.0668573396238346 0 0 0 -0.166756848325259 0 0 0 0 0 0 0 0 0 0 -0.779383078428974 0 0 0 0 0 0 0 0 0 -1.29134823841257 0 0 0 0 0 0 0 0 0 0 0 0 0 0 -0.506829470585931 0
0 0 0 0 0 0 0.0477701604136556 0 0 0 0 0 0 0 0 0 0 0 0 0 0 0 0 0 0 0 0 0 0 0 0 0 0 0 -1.42510506355768 0 0 0 0 0 0 0 0 0 0 -0.585697791027493 0 0 -2.78155957935062 0
0 0 0 0 0.0381869332247187 0.0472570773841232 0.33356422360585 0 0.0241046386546572 0 0 0 0 0 0 0 0 0 0 0 0 0 0 0 0 0 0 0 0 0 0 0 0 0 0 0 0 0 0 0 0 0 -2.38049326648633 0 0 -0.649552479099756 0 0 0 0
0 0 0 0.047477874450736 0.0793369647113858 0.0611361433998124 0 0 0.179806506407393 0.032478967788453 0 0 0 0 0 0 0 0 0 0 0 0 0 0 0 0 0 -0.699943911314316 0 0 0 0 0 0 0 0 0 -0.145309886764593 0 0 0 0 -0.496707327311323 0 0 -0.397080137073094 0 0 0 0
0 0 0 0 0 0 0 0.481310117684749 0.156058440917549 0 0 0 0 0 0 0 0 0 0 0 0 0 0 0 0 0 0 -0.28028558238406 0 0 0 0 0 0 0 0 0 0 0 0 0 0 0 0 0 -0.426124037977065 0 0 0 0
0 0 0 0 0.464695594147544 0 0.123090584000474 0.13198625425238 0.227759557420815 0 0 0 0 0 0 0 0 0 -1.01879814047408 0 0 0 0 0 0 0 0 0 0 0 0 0 0 0 0 0 0 0 0 0 0 0 -2.68011670172996 0 0 -0.113359540415983 0 0 0 0
0 0 0 0.794058731625822 0 0.554821789260793 0 0 0 0 0 0 0 0 0 0 0 0 0 0 0 0 0 0 0 0 0 0 0 0 0 0 0 0 0 -1.23533353577957 0 -0.701068522004672 0 0 0 -0.30794823186271 -0.988562423238837 0 0 -1.5762262168896 0 0 0 0
0 0 0 0 0 0 0 0 0 0 0 0 0 0 0 0 0 0 0 0 0 0 0 0 0 0 0 0 0 0 0 0 -0.305074331718406 0 0 -1.35815734731772 0 -1.57151494535443 0 0 0 -5.69210184639439 -0.308405049836936 0 0 0 0 0 0 0
0.303302910002335 0 0.109526276674569 0 0.0936054224764757 0 0 0 0 0 0 0 0 0 0 0 0 0 0 0 0 0 0 0 0 0 0 0 0 0 0 0 -0.207789013243815 0 0 -0.593036182514694 0 0 0 0 0 0 0 0 0 -3.97968090707961 0 0 0 0
0 0 0 0 0 0 0 0 0 0 0 0 0 0 0.200070687223102 0 0 0 0 0 0 0 0 0 0 0 0 0 0 0 0 -0.372958891175484 0 0 0 -0.746398009020926 0 0 0 0 0 0 0 0 0 0 0 0 0 0
0 0 0 0 0 0 0 0.9180144496218 0.412144770595772 0 0 0 0 0 0 0 0 0 0 0 0 0 0 0 0 0 0 0 0 0 0 -8.45172794653286 0 0 0 -1.67161544556698 0 -0.604701827084373 0 0 0 -0.0599177745618887 0 0 0 -3.75709985634143 0 -0.356547303480764 0 0
0 0 0 0 0 0 0 0 0 0 0 0 0 0 0 0 0 0 0 0 0 0 -0.470416910477384 0 0 -3.01292072702159 0 0 0 0 0 0 0 0 0 0 0 -0.852150905135364 0 0 0 -0.85216113856368 0 0 0 0 -2.12216208308668 0 0 0
0 0 0 0 0 0 0 0 0 0 0 0 0 0 0 0 0 0 0 0 0 0 -0.266068373773512 0 -1.69157588809799 0 0 0 0 0 0 -0.100627189566044 0 0 0 0 0 0 0 0 0 -0.329140603552649 0 0 0 -2.87574405749213 0 -0.181707138265377 0 0
0 0 0 0 0 0 0 0 0 0 0 0 0 0 0 0 0 0 0 0 0.091226033029675 0.0515209530816997 0 0.620992740811244 0.116940689418023 -2.37780737104456 0.143399734484042 0.216049948112723 0 -0.637729229933921 -1.38606092511507 0 0 0 0 -1.03580936826301 -1.06830567458937 -1.22266026087647 0 -0.448707623150161 0 -0.0949257408865651 0 0 -1.99703149672136 -0.607678366795149 0 0 0 0
0 0 0 0 0 0 0 0 0 0.14437432877642 0 0 0 0 0 0 0 0 0 0 0 0 -2.994889820462 0 0 -4.24658122024506 0 0 -2.76402152606674 -0.498985744061692 -2.49410644397633 0 0 0 0 0 0 0 0 -2.30660308608036 -0.105827420535333 0 0 0 0 0 0 0 0 0
0 0 0 0 0 0 0 0 0 0 0 0 0 0 0 0 0 0 0 0 0 0.357497144509151 -0.552023596334571 0 0 0 0 0 0 -1.78960436830169 -0.644214776736023 0 0 0 0 0 0 0 0 0 -3.12292203450455 0 0 -0.165464438968846 0 -0.936712625739352 0 -1.44051285957413 0 0
0 0 0 0 0 0 0 0 0 0 0 0 0 0 0 0 0 0 0 0 0.648667363895084 0 0.468359753633139 0.828191605832772 0 0 0 0 0 -1.33696973907249 0 0 0 0 0 0 0 0 0 0 0 0 0 -1.2861725778941 0 -2.02540578101732 0 0 0 0
0 0 0 0 0 0 0.490944247243317 0.854278336962817 0.779118207696723 0 0 0 0 0 0 0 0 0 0 0 0 0 -0.77280977356384 0 0 0 0 0 0 0 0 0 0 0 0 0 0 0 0 -0.934769587427992 -0.168273886641693 0 0 -1.81524639871761 0 0 0 0 0 0
0 0 0 0 0 0 0 0 0 0 0 0 0.147318798221888 0.0600320314791718 0 0 0 0 0 0 0 0 -1.07710377654123 0 0 0 0 0 0 0 -1.09130319759918 0 0 0 0 0 0 0 0 -0.368294080852147 0 0 0 0 0 0 0 0 0 0
0 0 0 0 0 0 0 0 0 0 0 0 0 0 0 0 0 0 0 0 0 0 0 0.534168951738451 0 0 0 0 0 0 0 0 0 0 0 0 0 0 0 0 -0.384388324673495 0 0 -3.01448449025028 -1.2994104664429 -0.107167158587308 0 0 0 0
0 0 0 0 0 0 0 0 0 0 0 0 0 0 0 0 0 0 0 0 0 0 0.124887727846738 0.0955733500628645 0.336954917736305 0.259491391002909 0 0 0 0 0 0 0 0 0 0 0 0 0 0 0 0 0 0 0 0 0 0 0 0
0 0 0 0 0 0 0 0 0 0 0 0 0 0 0 0 0 0 0 0 0 0 0.244746962170697 0.500423939371909 0.125524951694575 0 0 0.206615410435274 0 0 0 0 0.357795436270483 0 0 0 0 0 0 0 -0.587336131597371 0 0 0 0 -0.922592914168463 0 0 0 0
0 0 0 0 0 0 0 0 0 0 0 0 0 0 0 0 0 0 0.0806991619319647 1.64483442035412 0 0.0205296799777137 0 0 0 0 0 0 0 0 0 0 0 0 0 0 0 0 0 0 0 0 0 0 0 0 0 0 0 0
0 0 0 0 0 0 0 0 0 0 0 0 0 0 0 0 0.0598924965029179 0.0409573881664036 0 0 0 0 0 0 0 0 0 0 0 0 -1.76919480018901 0 0 0 0 0 0 0 0 0 0 0 0 0 0 0 0 0 0 -1.46700127985559
0 0 0 0 0 0 0 0 0 0.26519927217788 0 0 0 0 0 0 0 0 0 0 0 0 0 0 0 0 0 0 0 0 0 0 0 0 0 0 0 0 0 -2.32197039325904 0 0 0 0 0 0 0 0 0 0
0 0 0 0 0 0 0 0.0368332536680823 0.131217148712834 0 0.267251471292486 0 0 0 0 0 0 0 0 0 0 0 0 0 0 0 0 0 0 0 0 0 0 0 0 0 0 0 0 0 0 0 0 0 0 0 0 0 0 0
0 0 0 0 0 0 0 0 0 0 0 0 0 0 0 0.259637488771573 0.264468132233105 0.113078844804303 0.14762351428298 0.337443104091476 0 0 0.212965609139035 0 0 0 0 0 0 0 0 0 0 0 0 0 0 0 -1.36286353860286 0 0 0 0 0 0 0 0 0 0 0
0 0 0 0 0 0 0 0 0 0 0 0 0 0 0 0 0 0 0 0 0 0 0.220112003941789 0 0 0 0 0 0 0 0 0 0 0 0 0 0 0 -0.768946002031748 0 0 0 0 0 0 0 0 0 0 0
0 0 0 0 0 0 0 0 0 0 0 0 0.0279325794217547 0 0 0.139324393195326 0.33087463047024 0 0 0.115024549883566 0.164654333370983 0 0.225262581364954 0 0 0 0 0 0 0 0 0 0 0 0 0 0 0 0 0 0 0 0 0 0 0 0 0 0 0
0 0 0 0 0 0 0 0 0 0 0 0 0 0 0 0 0 0 0 0 0 0 0 0 0 0 0 0 0 0 0 0 0 0 0 0.271437447986913 0.154621093035915 0 0 0 0 0 0 0 0 0 0 0 0 0
0 0 0 0 0 0 0 0 0 0 0 0 0 0 0 0 0 0 0 0 0 0 0.0874840572913293 0.430863047216764 0 0 0.193106031915347 0.0738905995397074 0 0 0 0 0 0.456394809745641 0 0 0 0 0 0 0 0 0 0 0 0 0 0 0 0
0 0 0 0 0 0 0 0 0 0 0 0 0 0 0 0 0 0 0 0 0 0 0 0.0204844466564896 0.622984816304489 0 0.0332216912553453 0 0.0732153292367309 0 0.107443967246127 0 0 0 0 0 0 0 0 0 0 0 0 0 0 0 0 0 0 0
0 0 0 0 0 0 0 0 0 0 0 0 0 0 0 0.0588571527118091 1.1376924028165 0 0 0.0124483989165139 0.174257257159237 0.0692944154998581 0.0181023222043111 0 0 0 0 0 0 0 0 0 0 0 0 0 0 0 0 0 0 0 0 0 0 0 0 0 0 0
0 0 0 0 0 0 0 0 0 0 0 0.480754542059746 0.0954864811294762 0 0.539077647078166 0.200651137640625 0.0614860245017393 0 0 0 0 0 0 0 0 0 0 0 0 0 0 0 0 0 0 0 0 0 0 0 0 0 0 0 0 0 0 0 0 0
0 0 0 0 0 0 0 0 0 0 0 0 0 0 0 0 0 0 0 0 0 0 0 0 0.0348361644916203 0.245363108650589 0.33240920735747 0 0.650697100074118 0 0 0 0 0 0 0 0 0 0 0 0 0 0 0 0 0 0 0 0 0
0 0 0 0 0 0 0 0 0 0 0 0 0 0 0 0 0 0 0 0 0 0 0.404184596925056 0 0 0 0 0 0.254628353940827 0 0 0 0 0 0 0 0 0 0 0 0 0 0 0 0 0 0 0 0 0
0 0 0 0 0 0 0 0 0 0 0.122306948047264 0.135424656296158 0.0739011320277302 0.0864644619044385 0.0212753001167445 0.314623763723675 0 0.742447424634653 0 0.698749539295439 0 0.608506585510264 0.124200418596354 0 0.179703633173959 0.390198110089025 0 0 0.0210712923659879 0 0.193994325794272 0 0 0 0 0 0 0 0 0 0 0 0 0 0 0 0 0 0 0
0 0 0 0 0 0 0 0 0 0 0 0 0 0 0 0 0 0 0 0 0.382563709269303 0 0 0 0 0 0 0 0 0 0 0 0 0 0 0 0 0 0 0 0 0 0 0 0 0 0 0 0 0
0 0 0 0 0 0 0 0 0 0 0 0 0 0 0 0 0 0 0 0.0745234971373046 0 0.0328751472794064 0 0 0.304332419670495 0 0 0 0 0 0 0 0 0 0 0 0 0 0 0 0 0 0 0 0 0 0 0 0 0
0 0 0 0 0 0 0 0 0 0.100190041335933 0.514027558100266 0 0 0 0 0 0 0 0 0 0 0 0 0 0 0 0 0 0 0 0 0 0 0 0 0 0 0 0 0 0 0 0 0 0 0 0 0 0 0
0 0 0 0 0 0 0 0 0 0 0 0 0 0 0 0 0 0 0 0 0 0 0 0 0 0 0 0 0 0 0 0 0.282900264569131 0 0 0 0 0 0 0 0 0 0 0 0 0 0 0 0 0
