0.19478383599829
0.564641786131835
0.557135429124015
2.23662369824918
0.673339163840464
0.249253779096065
0.267104960709829
1.80865173770623
0.168834415120189
0.806905713676072
0.568573914036523
1.6214407301517
0.636262643263438
0.41803130070002
0.892100641720723
1.26091457334184
0.475235799232971
1.47408359219752
0.58723932343608
0.830765206497884
0.731450281021603
0.376741969121345
0.878071972824155
1.04056756090486
0.495862493959642
1.1197707648481
0.326817708842803
1.80444814726525
0.401742560414211
0.754137515074093
1.25529001203932
1.56277004734941
1.28359999582842
0.264811853003608
0.291375611969053
0.298358923459445
0.552444429477177
1.54391646790353
0.999275247924615
0.559912034798847
1.54457778007313
0.253993755087025
0.43805421705488
1.05318984301245
0.495213788453949
0.671104432349688
1.61542730391627
1.84662957987059
2.12432104094283
0.371487783682873
