1.65150998917229
1.78818250631611
0.832740149452435
1.95636635013597
0.355794238291032
1.73166016600725
2.16532318549696
0.726291688301301
1.5621035004843
1.20517501850835
0.320513320781352
0.755137938496794
1.2309670738902
1.03897982762959
0.453875284984183
0.305746449876943
1.89884837180042
0.934535491079761
0.364229662036663
0.398334121665271
1.77624684004815
0.550209620814988
0.426879142754428
0.761310959621188
1.85083527176237
0.109869296567655
1.03599052630145
0.304839526171785
0.695250313106827
1.93249737306265
1.85904827424897
0.72123337241429
0.410584654168914
1.44004307507094
0.714609982414552
0.653199611309735
0.517014984934541
1.99674548286107
1.27637159238269
0.189444066890264
1.2263333321241
0.0656966325379256
0.548466540942449
0.623480574163842
0.43023891498448
0.123617836271887
0.82661822067404
1.3753334649841
1.01289523361348
0.467006487399953
