0.0881081690413152
1.91380863905398
0.323951967924041
1.30878146334022
0.557854548588548
1.68972366172617
1.21886837091984
0.233675902884802
0.22086214999879
0.241011180986698
0.0474773513391716
0.171142799213934
0.942576930236954
1.73303034777267
1.58601665267358
0.311491719741594
0.279501375066846
0.358780578036922
0.477154957142006
0.582310208133422
0.691659681243928
0.317168133997138
0.337839688650453
0.413032920014789
2.7140924104558
0.64190271340409
0.477970422839399
0.253830526157179
0.167925599123086
0.0645209227356101
0.823145344270776
2.97634051909483
0.42005386752552
0.845759882817646
1.69269145894582
0.600979769091015
0.92122826161182
0.650048616393375
0.0209755092348353
0.0966368800373465
0.877211538574659
0.165984085014103
1.19640260729613
0.157864876283123
1.3432559150497
2.66611535826959
0.472676298736033
1.5232045849803
0.302126201128987
0.336417485117908
