0.261329890352134
0.0514218810077632
0.568655892607119
0.140379457546248
2.29317076678404
2.14370199192618
0.340930419321152
1.23971848824754
0.102778946797087
0.128600636376011
2.42722154100471
0.369998797715864
0.227469802516675
0.0425024275090207
1.56765787821157
0.144351235459274
0.0537443714357089
0.0789435573837293
0.857921054486528
0.780379736554957
0.159640270744753
0.895263381838008
1.07830404709683
0.151268541807031
0.524033386765362
0.792194562279509
5.00176198265697
0.291216018079368
0.586369608832375
0.10243796643912
0.0366356709015742
1.01749285068812
0.402470169509024
0.635452574607629
0.76932714777913
0.361552578518445
0.0584480724971612
0.0640290385998609
0.0669520468807422
0.200354312484622
0.321479803870194
3.58414905915542
0.0948888657187402
0.331114833461475
1.34165188525384
1.34836930898376
0.423207581603595
1.82217784183937
0.963035467473638
0.115524283040305
