0.288528781102852
0.403590400896221
1.13648838828906
0.362306935922767
0.0988677546288483
0.330219976672958
0.492373416544521
0.594002214899369
0.319249482645088
0.409912338218928
2.8071697848737
0.0150225126144661
0.570384789736696
2.0682798948466
0.366427444155949
1.75381106599153
1.21911471465586
1.4147232351968
0.0330356174071479
0.259164832895544
1.52615675947341
0.718488710628926
0.15613026937489
0.615502846783971
2.1383809098769
2.04520670422621
0.310989017021415
0.37601707657083
0.561675707170373
0.197097731321106
1.33480776478698
0.180618918133879
1.46962829798938
0.333052466493216
0.267570356713016
0.728426708203287
0.990278757964574
0.183815600472487
0.46005246460177
2.2532707749873
1.41347308941561
0.257540646847615
0.307458557074907
2.89286848412238
0.653092785457137
0.161248107639576
0.224100006135748
0.14041200798232
0.666646417406072
0.0571339693399182
