0 -2.2932579650407 0 0 -0.99044108115605 0 0 0 0 -1.32286287511742 0 0 0 0 0 0 0 0 0 0 0 0 0 0 0 0 0 0 0 0 0 0 0 0 0 0 0 0 0 0 0 0 0 0 0 0 0 0 0 0
0.43235868621056 0 0 -0.570767500490103 0 0 0 0 0 -0.851486753772157 0 0 0 0 0 0 0 0 0 0 0 0 0 0 0 0 0 0 0 0 0 0 0 0 0 0 0 0 0 0 0 0 0 0 0 0 0 0 0 0
0 0 0 0 0 0 0 0 0 0 0 0 0 0 0 0 0 0 0 0 0 0 0 0 0 0 0 0 0 0 0 0 0 0 -0.384951503411112 0 0 0 0 0 0 0 0 0 0 0 0 0 0 0
0 0.105130391857782 0 0 -0.321859882029339 0 0 0 -0.162039565439873 0 0 0 0 0 0 0 0 0 0 0 0 -3.23633703192466 0 0 0 0 0 0 0 -2.26596574373519 0 0 0 0 0 0 0 0 0 0 0 0 0 0 0 0 -3.38034657342934 0 0 0
0.196338885907248 0 0 0.0653959849961047 0 0 0 0 0 0 -1.94879228885201 0 0 0 -0.480813884508716 0 0 0 0 0 0 0 0 0 0 0 0 0 0 0 0 0 0 0 0 0 0 0 -0.351786879308161 0 0 0 0 0 0 0 -0.93968249354648 0 0 0
0 0 0 0 0 0 0 0 0 0 -0.319576949357211 0 0 0 0 0 0 0 0 0 0 0 0 0 0 0 0 0 0 0 0 0 0 0 0 0 0 0 -0.654696028763764 0 0 0 0 0 0 0 0 0 0 0
0 0 0 0 0 0 0 0 0 0 0 0 0 -0.323105597099325 -2.76424623251125 0 0 0 0 0 0 -0.386223339084513 0 0 -0.99198118293779 0 0 0 0 0 0 0 0 0 0 0 0 0 0 0 0 0 0 0 0 0 -0.283690995461697 -1.31947233977737 0 0
0 0 0 0 0 0 0 0 0 0 0 -1.92066025144985 0 0 -0.894446969715723 -0.135537160888203 0 0 0 0 0 -0.682802523981108 0 0 -0.535821470762236 0 0 0 0 0 0 0 0 0 0 0 0 0 -1.19295273222655 0 0 0 0 0 -0.892985748865195 0 0 0 0 0
0 0 0 0.0315730726372515 0 0 0 0 0 0 0 0 -3.04479115829961 0 0 -1.98913356761723 0 0 0 0 0 -0.840917531302785 0 -0.522437725952548 -0.589048157757092 -0.425856000061502 0 0 0 0 0 0 0 0 0 0 0 0 0 0 0 0 0 0 0 0 0 0 0 0
0.278584863958007 0.176158793543374 0 0 0 0 0 0 0 0 0 0 -0.684641384450024 0 0 0 0 -1.40370372387579 0 0 0 -3.88192107440195 0 0 -2.46062130479021 0 0 0 0 0 0 -0.332418814354527 -2.35967256525378 0 0 0 0 0 0 0 0 0 0 0 0 0 0 0 -0.722611706916096 0
0 0 0 0 0.381228384006401 0.0623557265279875 0 0 0 0 0 0 0 0 0 -1.20427366896829 0 0 -0.302153248228726 0 0 -0.530732102590003 0 -1.08356498395047 -0.508324860312145 0 0 0 0 0 0 -1.99795114132361 -1.14707227983176 0 0 0 0 0 -0.608905262890968 0 0 0 0 0 0 0 0 0 -0.145842087851626 0
0 0 0 0 0 0 0 0.38784669661746 0 0 0 0 0 0 0 -1.50472799082145 0 0 0 -3.3655149311456 -3.7814027810663 0 0 0 0 0 -0.695480968980376 0 0 0 0 0 0 0 0 0 0 0 -0.346065834771501 0 0 0 0 0 0 0 0 0 -1.46955549679358 0
0 0 0 0 0 0 0 0 0.575668900802143 0.14772543626114 0 0 0 0 0 -0.18493665881056 0 0 0 -0.432460911329665 0 0 0 0 -2.20260563735883 0 -1.00000292681384 0 0 0 0 -1.43619928134198 -0.12400225229438 0 0 0 0 0 0 0 0 0 0 0 0 0 0 0 -0.0700695362196272 0
0 0 0 0 0 0 0.0628094052389092 0 0 0 0 0 0 0 0 -1.91602534509871 0 0 0 0 -2.30747259223695 0 0 0 -5.01451219570466 0 -1.6602477885215 0 0 0 0 -3.34330082009502 0 0 0 0 0 0 -4.20821719010307 0 0 0 0 0 0 0 0 0 0 0
0 0 0 0 0.093015198231226 0 0.589462058909653 0.184727835250697 0 0 0 0 0 0 0 0 0 0 0 0 0 0 0 0 0 0 0 0 0 0 0 0 -2.50788368248226 0 0 0 0 0 0 -0.437011353232292 0 0 -0.334551869538986 0 0 0 0 0 -1.20017030818272 0
0 0 0 0 0 0 0 0.0311289062823732 0.38896295153709 0 0.222273296105032 0.290318539910922 0.0376858087093026 0.383793663908961 0 0 0 0 0.144961143309424 0 0 0 0 -0.508124238740594 0 0 -4.28992287592199 0 0 0 0 0 -1.03901934382359 0 0 0 0 0 -1.16599782650766 -0.4886492698459 0 0 -3.10200056301383 0 0 0 0 0 -4.4949439519857 0
0 0 0 0 0 0 0 0 0 0 0 0 0 0 0 0 0 0 0 0 0 0 0 -0.627001540205565 0 0 -3.83098683181948 0 0 0 0 -0.410511023541039 -4.00594859565129 0 0 0 0 0 -1.90005616893553 0 0 0 0 0 0 0 0 0 -1.8473100979009 0
0 0 0 0 0 0 0 0 0 0.297963621284067 0 0 0 0 0 0 0 0 0 0 0 0 0 -0.736778041326427 0 0 0 0 0 0 0 0 0 0 0 0 0 0 0 -1.21514015496022 0 0 -0.428804890512422 0 0 0 0 0 -0.244951358550427 0
0 0 0 0 0 0 0 0 0 0 0.0606870913515044 0 0 0 0 -0.71552595047096 0 0 0 0 0 0 0 0 0 0 -0.479549303471286 0 0 0 0 0 0 0 0 0 -0.840863365726588 0 0 -0.561107416594388 0 0 0 0 0 0 0 0 -1.48252659908639 0
0 0 0 0 0 0 0 0 0 0 0 0.670156029284579 0.0838003894815547 0 0 0 0 0 0 0 0 0 0 0 0 0 0 0 0 0 0 0 0 0 0 0 0 0 0 -3.21771233598104 -1.11020054626423 0 0 0 0 0 0 0 0 -6.18588849301168
0 0 0 0 0 0 0 0 0 0 0 0.74562411763223 0 0.492497444609883 0 0 0 0 0 0 0 0 0 0 0 0 0 0 0 0 0 0 0 0 0 0 0 0 0 -1.15021144996127 0 0 0 0 0 0 0 0 0 0
0 0 0 0.60879400664642 0 0 0.0786379782856781 0.145475230242834 0.168089892813472 0.735659595002163 0.107772558105681 0 0 0 0 0 0 0 0 0 0 0 -10.8979945071929 0 0 0 0 0 0 0 0 0 0 0 0 0 0 0 0 0 0 0 0 0 0 0 0 0 0 0
0 0 0 0 0 0 0 0 0 0 0 0 0 0 0 0 0 0 0 0 0 2.23293716793091 0 0 0 0 0 -0.594411011010388 0 0 -2.57256772226461 0 0 0 0 -0.220353808789238 0 0 0 -0.751960530080908 -2.59240692544077 0 0 0 0 0 0 0 0 0
0 0 0 0 0 0 0 0 0.0979534654583053 0 0.225276449242246 0 0 0 0 0.0994578200708034 0.129949017308418 0.135775980684661 0 0 0 0 0 0 0 0 0 0 0 0 -0.530367493756617 0 0 0 0 -0.0820790017144788 0 0 0 0 -2.76365816858707 0 0 0 0 0 0 0 0 0
0 0 0 0 0 0 0.200876761104337 0.10707414185324 0.121598442604639 0.461905581297745 0.102951846653262 0 0.407426463511941 0.990045528691471 0 0 0 0 0 0 0 0 0 0 0 0 0 0 0 0 -0.52414346054729 0 0 0 0 0 0 0 0 0 0 0 0 0 0 0 0 0 0 0
0 0 0 0 0 0 0 0 0.0827810304636623 0 0 0 0 0 0 0 0 0 0 0 0 0 0 0 0 0 0 -0.648990799449923 0 0 -0.589010873101204 0 0 0 0 -0.981677404012983 0 0 0 0 -0.430283370749173 0 0 0 0 0 0 0 0 0
0 0 0 0 0 0 0 0 0 0 0 0.135449507494296 0.193628449356067 0.31927928722545 0 0.875753649215908 0.782183050759403 0 0.0893870028783071 0 0 0 0 0 0 0 0 0 0 0 -0.746305202096398 0 0 0 0 0 0 0 0 -1.18380589538519 0 0 0 0 0 0 0 0 0 0
0 0 0 0 0 0 0 0 0 0 0 0 0 0 0 0 0 0 0 0 0 0 0.126133576879146 0 0 0.133852752895373 0 0 0 0 -0.691052017731211 0 0 0 0 -0.520180314139439 0 0 0 -4.8825323029442 -3.91548545398837 0 0 0 0 0 0 0 0 0
0 0 0 0 0 0 0 0 0 0 0 0 0 0 0 0 0 0 0 0 0 0 0 0 0 0 0 0 0 0 0 0 0 0 0 -1.44789312757647 0 0 0 0 0 0 0 0 0 0 0 0 0 0
0 0 0 0.489895722979516 0 0 0 0 0 0 0 0 0 0 0 0 0 0 0 0 0 0 0 0 0 0 0 0 0 0 0 0 0 0 0 0 0 0 0 0 0 0 0 0 0 0 0 0 0 0
0 0 0 0 0 0 0 0 0 0 0 0 0 0 0 0 0 0 0 0 0 0 0.465150195372961 0.111402195370357 0.107519411062821 0.122303344662372 0.14723226837114 0.143996752564998 0 0 0 0.725182743016312 0 0.357299703907324 0 0 0 0 0 0 0 0 0 0 0 0 0 0 0 0
0 0 0 0 0 0 0 0 0 0.0642300140684716 0.411136839536938 0 0.294104452714993 0.650422485855157 0 0 0.08246895605516 0 0 0 0 0 0 0 0 0 0 0 0 0 -3.69963818676329 0 0 0 0 -0.191332003378237 0 0 0 -3.71423838202778 -2.30836373192457 0 0 0 0 0 0 0 0 0
0 0 0 0 0 0 0 0 0 0.490807414208229 0.230624255749344 0 0.0238685963533777 0 0.522594141210693 0.199468370239131 0.789778835969818 0 0 0 0 0 0 0 0 0 0 0 0 0 0 0 0 0 0 0 0 0 0 -1.246710586232 0 0 0 0 0 0 0 0 0 0
0 0 0 0 0 0 0 0 0 0 0 0 0 0 0 0 0 0 0 0 0 0 0 0 0 0 0 0 0 0 -1.78198909749188 0 0 0 0 0 0 0 0 0 -1.80566504365713 0 0 0 0 0 0 0 0 0
0 0 0.0824773537826813 0 0 0 0 0 0 0 0 0 0 0 0 0 0 0 0 0 0 0 0 0 0 0 0 0 0 0 0 0 0 0 0 -1.65526992183568 0 0 0 0 0 -1.04113470080309 0 0 0 0 0 0 0 0
0 0 0 0 0 0 0 0 0 0 0 0 0 0 0 0 0 0 0 0 0 0 0.0461538810485 0.0168100959373043 0 0.206081102103543 0 0.101700321098129 0.301125737066808 0 0 0.042232505431637 0 0 0.319622338209781 0 0.433684253442355 0 0 0 -0.210439454152033 0 0 0 0 0 0 0 0 0
0 0 0 0 0 0 0 0 0 0 0 0 0 0 0 0 0 0 0.157326770353638 0 0 0 0 0 0 0 0 0 0 0 0 0 0 0 0 -2.21129938138827 0 0 0 0 -2.60710815924841 -0.166565679652067 0 0 0 0 0 0 0 0
0 0 0 0 0 0 0 0 0 0 0 0 0 0 0 0 0 0 0 0 0 0 0 0 0 0 0 0 0 0 0 0 0 0 0 0 0 0 0 0 -2.00075181532038 0 0 0 0 0 0 0 0 0
0 0 0 0 0.0669353260145004 0.144488538934156 0 0.254833073966448 0 0 0.118905735311776 0.0680428836376336 0 0.853361118714758 0 0.247877258354669 0.393453193275584 0 0 0 0 0 0 0 0 0 0 0 0 0 0 0 0 0 0 0 0 0 0 0 0 0 0 0 0 0 0 0 0 0
0 0 0 0 0 0 0 0 0 0 0 0 0 0 0.0845197280854913 0.102374264030338 0 0.244325345090246 0.118038004726772 0.664737619171152 0.260617521381951 0 0.149169745835308 0 0 0 0.245904064153685 1.01338799121172 0 0 0 0.775367282737572 0.239031430332455 0 0 0 0 0 0 0 0 0 0 0 0 -5.52792205358211 0 0 0 0
0 0 0 0 0 0 0 0 0 0 0 0 0 0 0 0 0 0 0 0.21229172300517 0 0 0.574480136415741 0.531503440183468 0 0.0892732293184924 0 0.802958619333223 0 0 0 0.453693914581241 0 0.353572044047942 0 0.0400710590613181 0.502652129633432 0.393893544804119 0 0 0 0 0 0 0 0 0 0 0 0
0 0 0 0 0 0 0 0 0 0 0 0 0 0 0 0 0 0 0 0 0 0 0 0 0 0 0 0 0 0 0 0 0 0 0.196999998031788 0 0.0321088736289914 0 0 0 0 0 0 0 0 -0.955105364837002 0 0 0 0
0 0 0 0 0 0 0 0 0 0 0 0 0 0 0.0677171322266916 0.650187074308103 0 0.0848057846316173 0 0 0 0 0 0 0 0 0 0 0 0 0 0 0 0 0 0 0 0 0 0 0 0 0 0 0 -1.23764161060618 0 0 0 0
0 0 0 0 0 0 0 0 0 0 0 0 0 0 0 0 0 0 0 0 0 0 0 0 0 0 0 0 0 0 0 0 0 0 0 0 0 0 0 0 0 0 0 0 0 -0.551586684154098 0 0 0 0
0 0 0 0 0 0 0 0.179629414437675 0 0 0 0 0 0 0 0 0 0 0 0 0 0 0 0 0 0 0 0 0 0 0 0 0 0 0 0 0 0 0 0 0 0 0 0 0 -0.357554386869139 0 0 0 0
0 0 0 0 0 0 0 0 0 0 0 0 0 0 0 0 0 0 0 0 0 0 0 0 0 0 0 0 0 0 0 0 0 0 0 0 0 0 0 1.10356023361606 0 0.183030312863398 0.247341097583607 0.111216397477538 0.0770245920969666 0 0 0 0 0
0 0 0 0.670848873916823 0.180340542660783 0 0.0598756795761667 0 0 0 0 0 0 0 0 0 0 0 0 0 0 0 0 0 0 0 0 0 0 0 0 0 0 0 0 0 0 0 0 0 0 0 0 0 0 0 0 0 0 0
0 0 0 0 0 0 0.249980969130623 0 0 0 0 0 0 0 0 0 0 0 0 0 0 0 0 0 0 0 0 0 0 0 0 0 0 0 0 0 0 0 0 0 0 0 0 0 0 0 0 0 0 0
0 0 0 0 0 0 0 0 0 0.134871427709514 0.0297904378769163 0.273666560603457 0.0141489580669945 0 0.237761278800537 0.915254892097589 0.355390058324135 0.0477240347547652 0.312863661844122 0 0 0 0 0 0 0 0 0 0 0 0 0 0 0 0 0 0 0 0 0 0 0 0 0 0 0 0 0 0 0
0 0 0 0 0 0 0 0 0 0 0 0 0 0 0 0 0 0 0 1.25033358673153 0 0 0 0 0 0 0 0 0 0 0 0 0 0 0 0 0 0 0 0 0 0 0 0 0 0 0 0 0 0
