3.93708874540737
1.94890172858355
1.90447192765793
0.634847206213937
5.86405731947434
0.351884560868675
6.2917256570993
3.71557171607553
1.02729252202237
3.12976197742118
1.33807841592872
1.09677215106319
0.62556104596513
0.454084616691388
2.22875057199416
0.744227090058388
0.101339650886066
0.95910015954541
2.26613907742218
1.00498698950287
0.853543198086803
1.29731386378485
0.89249692553826
0.804546973813587
0.231437415074352
5.65179217336918
0.553782996114834
1.65047581437893
0.245598395139177
0.230983307007785
2.91465448105539
1.961547526824
0.827534575844053
0.620072746007854
2.21975160163106
0.627913264209162
0.960719009377934
1.58783307098401
0.0900722572575631
0.711282617535482
1.74239511568701
0.27939396517979
0.580710807346367
0.69889325848646
0.867779559509194
0.790961605733223
0.293203494723952
0.975360914017532
1.5504603174515
2.25802574788671
