0 0 0 0 0 0 0 0 -1.53063481767374 0 0 -0.211697167995175 -0.599532358400465 0 0 0 0 0 0 0 0 0 0 0 0 0 0 0 0 0 0 0 0 0 0 0 0 0 0 0 0 0 0 0 0 0 0 0 0 0
0 0 -3.1855416465286 -0.595643915333991 0 0 -0.236843094797727 0 0 0 0 0 -0.218635649777549 0 0 -0.245949739873951 0 -1.03556492952281 0 0 0 0 0 0 0 0 0 0 0 0 0 0 0 0 0 0 0 0 0 0 0 0 0 0 0 0 0 0 0 0
0 0.61051283223446 0 0 -1.43596049143231 0 0 0 0 0 0 0 0 0 -1.16002228184917 0 0 0 0 0 0 0 -0.114120117669802 0 0 0 0 0 0 0 0 0 0 0 0 0 0 0 0 0 0 0 0 0 0 0 0 0 0 0
0 0.115116777191131 0 0 0 0 -0.603584905998357 0 0 0 0 0 0 0 0 0 0 0 0 0 0 0 0 0 0 0 0 0 0 0 0 0 0 0 0 -0.47928336322625 0 -1.03527918284931 0 0 0 0 0 0 0 0 0 0 0 0
0 0 0.285448592990667 0 0 0 0 0 0 0 0 0 0 0 -0.819145872843086 0 0 0 0 0 0 0 0 0 0 0 0 0 0 0 0 0 0 0 0 0 0 0 0 0 0 0 0 0 0 0 0 0 0 0
0 0 0 0 0 0 0 0 0 0 0 0 0 0 0 0 0 0 0 -1.23865395653931 0 0 0 0 0 0 0 0 -0.364157895455553 -2.01732453224871 0 0 0 0 0 0 0 -1.19729806112656 0 0 0 0 0 0 0 0 0 0 0 0
0 0.0481720844138025 0 0.115421459877851 0 0 0 0 0 0 0 0 0 0 0 0 0 0 0 -0.378871367024428 0 0 0 0 0 0 0 0 -0.976107513143188 0 0 0 0 0 0 -0.713993342338575 0 -0.631940834699763 0 0 0 0 0 0 -2.30414992400543 0 0 0 0 0
0 0 0 0 0 0 0 0 0 0 0 0 0 0 0 0 0 0 0 0 0 0 0 0 0 0 0 -1.77425999818833 0 -0.925458146163304 0 0 0 0 0 -0.949401993464539 0 -1.73724267653987 0 0 0 0 0 0 -0.969718713422794 0 0 0 0 0
0.328898344330184 0 0 0 0 0 0 0 0 0 0 0 0 0 0 0 0 0 0 0 0 0 0 0 0 0 0 0 -0.543574459183081 -1.22212131596587 0 0 0 0 0 0 0 -0.141510141426253 0 0 0 0 0 0 -1.01416577041198 0 0 0 0 0
0 0 0 0 0 0 0 0 0 0 0 0 0 0 0 0 0 0 0 0 0 0 0 0 0 0 0 0 0 -1.20573658459198 0 0 0 0 0 0 0 0 0 0 -1.07604011253959 0 0 0 -0.606302180532208 0 0 0 0 0
0 0 0 0 0 0 0 0 0 0 0 0 0 0 0 0 0 0 0 0 0 0 0 0 0 0 0 0 0 -1.12165634814962 0 0 0 0 0 0 0 0 0 0 0 0 0 0 -0.0966062978105115 0 0 0 0 0
0.0410729950496379 0 0 0 0 0 0 0 0 0 0 0 0 0 0 0 0 0 0 0 0 0 0 0 0 0 0 0 0 0 0 0 0 -1.10929887548976 0 0 0 0 0 0 0 0 0 0 -0.880740262782701 0 0 0 0 0
0.126667055601883 0.0396900665551642 0 0 0 0 0 0 0 0 0 0 0 0 0 0 -3.70855623347031 0 0 0 0 -0.80325039575055 0 0 0 0 0 0 0 0 0 0 0 0 0 -1.23611804394578 0 0 0 0 -1.03178665935185 0 0 0 0 -0.223944841040858 0 0 0 0
0 0 0 0 0 0 0 0 0 0 0 0 0 0 0 0 -2.50739268451694 0 0 0 0 -1.21896368357752 0 0 0 0 0 0 0 0 0 0 0 0 0 0 0 0 0 0 -2.09604628011469 0 0 0 -0.151787548847636 0 0 0 0 0
0 0 0.228053888039409 0 0.170349535189246 0 0 0 0 0 0 0 0 0 0 0 0 0 0 0 -8.42248940983088 0 0 0 0 0 0 -0.813672837249014 0 0 0 0 0 0 0 0 0 0 0 0 -0.509971767371392 0 0 0 0 0 0 0 0 0
0 0.0446037024323387 0 0 0 0 0 0 0 0 0 0 0 0 0 0 0 0 0 0 0 0 0 0 0 0 0 0 0 0 0 0 0 0 0 0 0 0 0 0 -7.76366708645503 0 0 0 0 0 0 0 0 0
0 0 0 0 0 0 0 0 0 0 0 0 0.787121919601669 0.491651072343126 0 0 0 0 0 0 -1.16412273935584 0 0 0 0 0 0 -0.488698576740163 0 0 0 0 0 0 0 -3.33180237090522 0 0 0 0 0 0 0 0 0 0 0 0 0 0
0 0.205711659534298 0 0 0 0 0 0 0 0 0 0 0 0 0 0 0 0 0 0 0 0 0 0 0 0 0 0 0 0 0 0 0 0 0 -1.33118840858169 0 0 0 0 0 0 0 0 0 0 0 0 0 0
0 0 0 0 0 0 0 0 0 0 0 0 0 0 0 0 0 0 0 0 -0.126277465256791 0 0 0 0 0 0 -2.82897771437617 0 0 0 0 0 0 0 -3.52037143577082 0 0 0 0 -1.19354444891073 0 0 0 0 0 0 0 0 0
0 0 0 0 0 0.24610334109788 0.0716964222634308 0 0 0 0 0 0 0 0 0 0 0 0 0 0 0 0 0 0 -0.77089878476096 0 0 0 0 0 0 0 0 0 0 -1.75905016351402 0 0 0 -1.62113858865747 0 0 0 0 0 0 0 0 0
0 0 0 0 0 0 0 0 0 0 0 0 0 0 1.73547863597046 0 0.223181040968386 0 0.0249717803559377 0 0 0 0 0 0.0501648854998987 0 0 -0.686867194333161 0 0 0 0 0 0 0 0 0 0 0 0 -4.15536198277569 0 0 0 0 0 0 0 0 0
0 0 0 0 0 0 0 0 0 0 0 0 0.160061646767591 0.253965637953326 0 0 0 0 0 0 0 0 0 0 0 0 0 0 0 0 0 0 0 0 0 0 -1.89887885073146 0 0 -1.05514049644877 0 0 0 -2.17243430356009 0 0 0 0 0 0
0 0 0.0228413578236115 0 0 0 0 0 0 0 0 0 0 0 0 0 0 0 0 0 0 0 0 0 0 -0.354048275885833 0 0 0 0 0 0 0 0 0 0 -2.95677891980541 0 0 -0.956160000088485 0 0 0 0 0 0 0 0 0 0
0 0 0 0 0 0 0 0 0 0 0 0 0 0 0 0 0 0 0 0 0 0 0 0 0 -0.167817263356084 0 -2.11804654151859 0 0 0 0 0 0 0 0 -1.51494970747028 0 0 -1.90140827022697 -0.333937138682097 0 0 -0.19970104548497 0 0 0 0 0 0
0 0 0 0 0 0 0 0 0 0 0 0 0 0 0 0 0 0 0 0 -0.27426951877524 0 0 0 0 0 0 -0.482856657403386 0 0 0 0 0 0 0 0 -2.52615301648568 0 0 -0.58433302354518 0 0 0 0 0 0 0 0 0 0
0 0 0 0 0 0 0 0 0 0 0 0 0 0 0 0 0 0 0 0.166474248327286 0 0 0.0640471627625778 0.0331307433205895 0 0 0 -0.36174994823096 0 0 0 0 0 0 0 0 0 0 0 0 -2.67507415785572 0 0 0 0 0 0 0 0 0
0 0 0 0 0 0 0 0 0 0 0 0 0 0 0 0 0 0 0 0 0 0 0 0 0 0 0 0 0 0 0 0 0 0 0 0 -0.338119114243596 0 0 0 0 0 0 0 0 0 0 0 0 0
0 0 0 0 0 0 0 0.34027208478917 0 0 0 0 0 0 0.17308633632999 0 0.0961814046734779 0 0.578553724836242 0 0.133103635396272 0 0 0.436299736047734 0.101825957627046 0.0741622342011386 0 0 1.24930532738442 0 0 0 0 0 0 0 0 0 0 -3.01778876497071 0 0 0 0 0 0 0 0 0 0
0 0 0 0 0 0.0707435326873068 0.197492331463061 0 0.114457518777901 0 0 0 0 0 0 0 0 0 0 0 0 0 0 0 0 0 0 -5.65005352123699 0 0 0 0 0 0 0 0 0 0 0 -0.44041281873609 0 0 0 0 0 0 0 0 0 0
0 0 0 0 0 0.374486164810649 0 0.17672889590836 0.241722270172278 0.267426727329423 0.226276372522314 0 0 0 0 0 0 0 0 0 0 0 0 0 0 0 0 0 0 0 0 0 0 0 0 0 0 0 0 0 0 0 -1.49656124736844 0 0 0 0 0 0 0
0 0 0 0 0 0 0 0 0 0 0 0 0 0 0 0 0 0 0 0 0 0 0 0 0 0 0 0 0 0 0 0 -0.678413600772064 0 0 0 0 0 0 0 0 0 -0.743067082833799 0 0 0 0 0 0 0
0 0 0 0 0 0 0 0 0 0 0 0 0 0 0 0 0 0 0 0 0 0 0 0 0 0 0 0 0 0 0 0 -2.4963634023356 0 0 0 0 0 -0.538596314893758 0 0 0 0 0 0 0 0 0 0 0
0 0 0 0 0 0 0 0 0 0 0 0 0 0 0 0 0 0 0 0 0 0 0 0 0 0 0 0 0 0 0.132798559063886 0.458873679997683 0 0 0 0 0 0 0 0 0 0 -4.51178754727837 0 0 0 0 0 -2.28211560736095 0
0 0 0 0 0 0 0 0 0 0 0 0.229586532858745 0 0 0 0 0 0 0 0 0 0 0 0 0 0 0 0 0 0 0 0 0 0 -4.24226925114413 0 0 0 0 0 0 0 -3.03620460671772 0 0 0 0 0 -0.54936559683079 0
0 0 0 0 0 0 0 0 0 0 0 0 0 0 0 0 0 0 0 0 0 0 0 0 0 0 0 0 0 0 0 0 0 0.894759391850237 0 0 0 0 -1.45858673573355 0 0 0 0 0 0 0 0 0 0 0
0 0 0 0.0929066972504711 0 0 0.138054620210503 0.190974615206444 0 0 0 0 0.245619724614635 0 0 0 0.650608543393106 0.243912841332549 0.689164463820502 0 0 0 0 0 0 0 0 0 0 0 0 0 0 0 0 0 0 0 0 0 0 -0.8715696689529 0 0 0 0 -0.86152529022116 -1.27040623731101 0 0
0 0 0 0 0 0 0 0 0 0 0 0 0 0 0 0 0 0 0 0.356634984455186 0 0.398510068271824 0.589499637941924 0.302961118828227 0.531557524924703 0 0.0667246885777131 0 0 0 0 0 0 0 0 0 0 0 0 0 0 -0.406658490380799 -2.60457744844627 0 0 0 -3.81964977369428 0 0 0
0 0 0 0.220704952283149 0 0.230257513243613 0.128097234765953 0.346553287650161 0.0305610737541813 0 0 0 0 0 0 0 0 0 0 0 0 0 0 0 0 0 0 0 0 0 0 0 0 0 0 0 0 0 0 0 0 -2.34672577192526 -0.870476903528487 0 0 0 0 -0.852043200273982 -0.327807542348636 0
0 0 0 0 0 0 0 0 0 0 0 0 0 0 0 0 0 0 0 0 0 0 0 0 0 0 0 0 0 0 0 0.10655169962778 0 0 0.294260607750255 0 0 0 0 0 0 -0.492779068288439 -0.272600477157872 0 0 0 -1.67311596072687 0 0 0
0 0 0 0 0 0 0 0 0 0 0 0 0 0 0 0 0 0 0 0 0 0.225190337684963 0.182863121134508 0.360283855230673 0.115305835015116 0 0 0.583248584496225 0.094384323726524 0 0 0 0 0 0 0 0 0 0 0 0 0 -3.51806747838405 0 0 0 0 -0.971782283472489 0 0
0 0 0 0 0 0 0 0 0 0.214563644117015 0 0 0.193290871515779 0.447503910276161 0.0979850513438627 1.60863047004616 0 0 0.250398966393081 0.295746512075435 0.777031240172452 0 0 0.0684680016398189 0 0.536994751284783 0 0 0 0 0 0 0 0 0 0 0 0 0 0 0 0 0 0 0 0 0 0 0 0
0 0 0 0 0 0 0 0 0 0 0 0 0 0 0 0 0 0 0 0 0 0 0 0 0 0 0 0 0 0 0 0 0 0 0 0.172121593265607 0.0803460338218123 0.458100851833936 0.0919099667974717 0 0 0 0 0 0 0 0 0 0 0
0 0 0 0 0 0 0 0 0 0 0 0 0 0 0 0 0 0 0 0 0 0 0 0 0 0 0 0 0 0.287922428483971 0.163458318474792 0 0.867807608681318 0.628631620809959 0 0 0.546232300835693 0.178069160561949 0.0561253962725158 0.729651030745012 0 0 0 0 0 0 0 0 0 0
0 0 0 0 0 0 0 0 0 0 0 0 0 0 0 0 0 0 0 0 0 0.452077355978042 0 0.0408873987068712 0 0 0 0 0 0 0 0 0 0 0 0 0 0 0 0 0 0 0 0 0 0 0 0 0 0
0 0 0 0 0 0 0.430551985743434 0.193161410912784 0.207370284799242 0.126643631716438 0.0182343764835151 0.186357996435867 0 0.0307377910221533 0 0 0 0 0 0 0 0 0 0 0 0 0 0 0 0 0 0 0 0 0 0 0 0 0 0 0 0 0 0 0 0 0 0 0 0
0 0 0 0 0 0 0 0 0 0 0 0 0.0416142125913026 0 0 0 0 0 0 0 0 0 0 0 0 0 0 0 0 0 0 0 0 0 0 0 0 0 0 0 0 0 0 0 0 0 0 0 0 0
0 0 0 0 0 0 0 0 0 0 0 0 0 0 0 0 0 0 0 0 0 0 0 0 0 0 0 0 0 0 0 0 0 0 0 0.178067066533719 0.784672344893815 0 0.330739583300885 0 0 0 0 0 0 0 0 0 0 -0.4540485959414
0 0 0 0 0 0 0 0 0 0 0 0 0 0 0 0 0 0 0 0 0 0 0 0 0 0 0 0 0 0 0 0 0 0 0 0.264135483341473 0 0.164508047874627 0 0.191343361995841 0 0 0 0 0 0 0 0 0 -0.417420356876674
0 0 0 0 0 0 0 0 0 0 0 0 0 0 0 0 0 0 0 0 0 0 0 0 0 0 0 0 0 0 0 0 0.461641763723879 0.112299405718804 0 0 0 0.0696972766836747 0 0 0 0 0 0 0 0 0 0 0 0
0 0 0 0 0 0 0 0 0 0 0 0 0 0 0 0 0 0 0 0 0 0 0 0 0 0 0 0 0 0 0 0 0 0 0 0 0 0 0 0 0 0 0 0 0 0 0.0884275338412946 0.0805527018032039 0 0
