1.75740435646288
1.41484814248332
3.71624041179379
0.206087596950124
0.469008882921059
0.337778065120987
1.39452600128849
1.8589555701484
0.041132719927626
0.566117811811556
0.352680320382655
0.865800070949863
0.450154869265106
1.48263940437544
0.866403269064819
1.49877864563269
2.16331213597661
0.555917558521524
4.01066291333299
0.612532618973553
1.03921734052224
0.067108892665681
0.886008456779573
0.126947621248545
2.55909062511055
0.75373880260175
0.607768286344001
0.267006989139416
1.489629091611
0.73767692979375
0.128995224530433
0.34723568899405
2.3032020833903
0.276414335575554
0.158818122324774
0.0504790732285822
3.41884449998009
0.538918846523129
0.0638547731071658
0.0681161506029363
0.191460552224137
0.398773144132221
0.197431909506553
0.254016965823111
0.123989693290175
0.444999914268194
0.425248652181682
1.27271297945531
1.08954877242624
0.678479169748758
