0.365175545641563
1.00451564063939
0.39793170599726
4.47270619398156
0.483425191185754
5.44905679534357
1.08231058956912
0.536106569549714
0.168397120160135
1.6915920206891
2.1088494446665
2.15527733483723
3.84192588596198
0.232949766067692
1.59932479107683
0.924854215733229
1.29155931768176
1.63885353392466
2.00605255834184
1.07446915240311
0.493249546173101
4.03075872348414
2.22419110642785
4.2523797831493
0.596566994599801
1.91150892336169
1.16280124937177
0.755266870799655
3.6390413843189
0.831732779592127
1.44112010787608
1.34567147580524
1.77569012586963
1.13954257332302
0.277937500132306
1.10547758567061
4.45138187102525
2.13461428623236
0.80099522763196
0.187259125836397
0.922863843540406
1.01819856863809
0.420301574751912
1.07763495196788
0.798873689049039
0.284262184170434
3.15716671623538
0.345601383335428
0.910136627377777
0.95825004746313
