0 0 0 0 0 0 0 -2.01775284580552 0 0 0 0 0 0 0 0 0 0 0 0 0 0 0 0 0 0 0 0 0 0 0 0 0 0 0 0 0 0 0 0 0 0 0 0 0 0 0 0 0 0
0 0 0 0 0 0 0 -1.06922139856917 0 0 0 0 0 0 0 0 0 0 0 0 0 0 0 0 0 0 0 -2.41911882305784 0 0 0 0 0 0 0 0 0 0 0 0 0 0 0 0 0 0 0 0 0 0
0 0 0 -0.331129245357455 0 0 0 0 0 0 0 0 0 0 0 0 0 0 0 0 0 0 0 0 0 0 0 0 0 0 0 0 0 0 0 0 0 0 0 0 0 0 0 0 0 0 0 0 0 -1.08710024151051
0 0 0.062297697979261 0 0 -1.03082197727572 0 0 0 0 0 0 0 0 0 0 0 0 0 0 0 0 0 0 0 0 0 -0.189519560705189 0 0 0 0 -1.59665634601195 0 0 0 0 0 0 0 0 0 0 0 0 0 0 0 0 0
0 0 0 0 0 0 0 0 0 -0.37547445068239 0 0 0 0 0 0 0 0 0 0 0 0 0 0 0 0 0 -0.777504610651444 0 0 0 0 0 0 0 0 -0.75203951021897 0 0 0 0 0 0 0 0 0 0 0 0 0
0 0 0 0.207249498432395 0 0 0 0 0 0 0 0 0 0 0 0 0 -2.61362395066478 0 0 0 0 0 0 0 0 0 0 0 0 0 0 -1.14359683631309 0 0 0 -1.1899611242209 0 0 0 0 0 0 0 0 0 0 0 0 -0.732957654101056
0 0 0 0 0 0 0 0 0 0 0 0 -0.341571792457555 0 0 0 0 -0.341869394568356 0 0 0 0 0 0 -0.208603883622683 0 0 0 0 0 0 0 -2.66631591421613 0 0 0 0 0 0 0 -6.38648047078238 0 0 0 0 0 0 0 0 -2.25972908574527
0.402151402020479 0.231621634950611 0 0 0 0 0 0 0 0 0 0 -0.360661685848468 0 0 -7.89751498123607 0 0 -0.486298446168579 0 0 -0.501002228039302 0 -1.51176432164803 -2.04536458792371 -1.3359645680764 0 0 0 0 0 0 0 0 0 0 0 0 0 0 -0.982649029324264 0 0 0 0 0 0 0 0 0
0 0 0 0 0 0 0 0 0 0 -1.15677269089938 0 0 0 0 0 0 0 -0.849940489441733 0 0 -4.35039016864872 0 0 -0.768444480669581 0 0 0 0 0 0 0 0 0 -0.102401919597802 0 0 0 0 0 -1.98011643770957 0 0 0 0 0 0 0 0 -0.448107384621704
0 0 0 0 0.0744948537099003 0 0 0 0 0 0 -2.71750629687764 0 0 0 0 0 0 0 -0.365089277311648 0 0 0 0 -0.914514399707953 0 -3.2527790676936 0 0 0 0 0 0 0 -0.468662429755516 0 0 0 0 0 -0.812121025170404 0 0 0 0 0 0 0 0 0
0 0 0 0 0 0 0 0 0.239024686205203 0 0 -0.439833807845895 0 0 0 0 0 0 0 0 0 0 0 0 0 0 -0.482478670993114 0 0 0 0 0 0 0 0 0 0 0 0 0 -0.237320384474611 0 0 -1.88331539323856 0 0 -0.673469726836874 0 0 0
0 0 0 0 0 0 0 0 0 0.491828787590866 0.08432897479454 0 0 0 0 0 0 0 0 -0.339602047647885 0 0 0 0 0 0 -0.573424826954555 0 0 0 0 0 0 0 -1.23415137261086 0 0 0 0 0 0 0 0 0 0 0 -0.129480044112434 0 0 0
0 0 0 0 0 0 0.0651179463152268 0.0673664214999589 0 0 0 0 0 0 0 0 0 0 0 0 0 -0.694770470877572 0 0 0 0 0 0 0 0 0 0 0 -0.366744928060481 -0.420558291397826 0 0 0 0 0 -3.83944423562684 0 0 0 0 -4.14421266493698 0 0 -0.702078348390752 0
0 0 0 0 0 0 0 0 0 0 0 0 0 0 0.200806834155466 0.0678879611356751 0.222834406780524 0 0 0 0 -2.79284797347109 0 0 0 0 0 0 0 0 0 0 0 -0.214904831394109 0 -0.788672008638684 0 0 0 0 0 -2.47663920209809 0 0 0 0 0 0 0 0
0 0 0 0 0 0 0 0 0 0 0 0 0 -1.06248637547949 0 0 0 0 0 0 0 0 0 0 0 0 0 0 0 0 0 0 0 -0.318144881513383 -1.70759765690422 0 0 0 0 0 0 0 0 0 0 -4.81426892162006 0 0 0 0
0 0 0 0 0 0 0 1.59302653975216 0 0 0 0 0 -0.357034345685564 0 0 0 0 0 0 0 0 0 0 0 0 0 0 0 0 0 0 0 -1.0005891122879 -2.65554831110055 -0.774782438567899 0 0 0 -1.30133754388614 0 -0.178385050539562 0 0 0 -2.33705144241281 0 0 0 0
0 0 0 0 0 0 0 0 0 0 0 0 0 -1.15896315160873 0 0 0 0 0 0 0 0 0 0 0 0 0 0 0 0 0 0 0 -9.56122048720075 -0.816505637834333 -0.361153552394263 0 0 0 -1.13507395080023 0 -1.47112959029462 0 0 0 0 0 0 -1.83057199785289 0
0 0 0 0 0 0.502411150046727 0.0701811542727462 0 0 0 0 0 0 0 0 0 0 0 0 0 0 -3.17977457745764 0 0 0 0 0 0 0 0 0 0 0 0 -0.384888599642492 0 0 0 0 0 0 -2.1606992346086 0 0 0 0 0 0 0 0
0 0 0 0 0 0 0 0.0917540740317469 0.161048566467358 0 0 0 0 0 0 0 0 0 0 0 0 -0.0911442589919025 0 0 0 0 0 0 0 0 0 0 0 -0.498233515991305 -1.13938894723226 0 0 0 0 0 0 0 0 0 0 0 0 0 0 0
0 0 0 0 0 0 0 0 0 0.0709065515492346 0 0.0694232443478017 0 0 0 0 0 0 0 0 0 -0.490905159802659 0 0 0 0 0 0 0 0 0 0 0 0 -0.229701518589013 -1.8806027431837 0 0 0 -0.415875856377224 0 0 0 0 0 0 0 0 0 0
0 0 0 0 0 0 0 0 0 0 0 0 0 0 0 0 0 0 0 0 0 0 0 0 0 0 0 0 0 0 -7.70189173722533 0 0 -4.18949178252007 0 -3.8987438335636 0 0 0 0 0 0 0 0 0 0 0 0 0 0
0 0 0 0 0 0 0 0.101901650793993 0.88495962297386 0 0 0 0.140872919429072 0.541563603698379 0 0 0 0.564820937685434 0.0181931563982125 0.0896652954347176 0 0 0 0 0 0 0 0 0 0 0 0 0 0 0 -0.740238672353154 0 0 0 -0.434641970204662 0 0 0 0 0 0 0 0 0 0
0 0 0 0 0 0 0 0 0 0 0 0 0 0 0 0 0 0 0 0 0 0 0 0 0 0 0 0 0 0 0 0 0 0 0 -3.91919454114964 0 0 0 -2.51008083752619 0 0 0 0 0 0 0 0 0 0
0 0 0 0 0 0 0 0.313674145299954 0 0 0 0 0 0 0 0 0 0 0 0 0 0 0 0 0 0 0 0 0 0 -0.878797552097305 0 0 0 0 -1.19852177663809 0 0 0 -3.48469646036639 0 0 0 0 0 0 0 0 0 0
0 0 0 0 0 0 0.0364085351763157 0.422371931217992 0.166362112253294 0.176916157580186 0 0 0 0 0 0 0 0 0 0 0 0 0 0 0 0 0 0 0 0 -1.19121179436858 0 0 -1.34719335804982 0 -0.193246175131743 0 -1.71075174970796 0 -1.17343892443711 0 0 0 0 0 0 0 0 0 0
0 0 0 0 0 0 0 0.251218730822844 0 0 0 0 0 0 0 0 0 0 0 0 0 0 0 0 0 0 0 0 0 0 -2.50681025829784 0 0 0 0 -0.295862125172384 0 -2.07376951821092 0 0 0 0 0 0 0 0 0 0 0 0
0 0 0 0 0 0 0 0 0 0.662683496831988 0.0922502833272701 0.118435552648919 0 0 0 0 0 0 0 0 0 0 0 0 0 0 0 0 0 0 -0.930181126555019 0 0 0 0 -0.993009921521986 0 -0.720174360275554 0 -0.833865239992555 0 0 0 0 0 0 0 0 0 0
0 0.472600647719134 0 0.0337193971582191 0.167127735660108 0 0 0 0 0 0 0 0 0 0 0 0 0 0 0 0 0 0 0 0 0 0 0 0 0 0 0 0 0 0 0 0 -0.500818920742867 0 -0.305603559945477 0 0 0 0 0 0 0 0 0 0
0 0 0 0 0 0 0 0 0 0 0 0 0 0 0 0 0 0 0 0 0 0 0 0 0 0 0 0 0 0 0 0 0 0 0 0 0 -8.86796153785074 0 0 0 0 -3.59525423665979 0 0 0 0 0 0 0
0 0 0 0 0 0 0 0 0 0 0 0 0 0 0 0 0 0 0 0 0 0 0 0 0 0 0 0 0 0 0 0 0 0 0 0 0 -1.44010034099295 -2.6468112493574 0 0 0 0 0 0 0 0 -1.32236462952817 0 0
0 0 0 0 0 0 0 0 0 0 0 0 0 0 0 0 0 0 0 0 1.52535862922224 0 0 0.168936592206576 0.242591188867792 0.484451784219551 0.191563968568488 0 0 0 0 0 0 0 0 0 0 -0.665889441137394 -1.78624235852754 0 0 0 -1.8368387179947 0 -2.44233370129019 0 0 -0.243401012880203 0 0
0 0 0 0 0 0 0 0 0 0 0 0 0 0 0 0 0 0 0 0 0 0 0 0 0 0 0 0 0 0 0 0 0 0 0 0 0 -0.177164182116177 0 0 0 0 0 0 -1.09400160583703 0 0 0 0 0
0 0 0 0.319045248244029 0 0.241476703777039 0.518352557372845 0 0 0 0 0 0 0 0 0 0 0 0 0 0 0 0 0 0 0 0 0 0 0 0 0 0 0 0 0 0 -0.268269101818085 0 -1.50481315593939 0 0 -3.81361218541113 0 -1.03114398399589 0 0 0 0 0
0 0 0 0 0 0 0 0 0 0 0 0 0.0728047532899779 0.0406976300153385 0.0630906401532495 0.214499359000301 1.9723088067361 0 0.0967028791339754 0 0.867031269418942 0 0 0 0.258017624776795 0 0 0 0 0 0 0 0 0 0 0 0 0 0 0 0 0 -2.62895175634015 0 0 0 0 0 0 0
0 0 0 0 0 0 0 0 0.0195690268185094 0.093073267590041 0 0.26378799723646 0.0852082005469589 0 0.347976677845119 0.509691040107497 0.165658389692362 0.078639808802831 0.228282187424217 0.043682689916566 0 0 0 0 0 0 0 0 0 0 0 0 0 0 0 0 0 0 0 0 0 0 0 0 0 0 0 -0.867996082997103 0 0
0 0 0 0 0 0 0 0 0 0 0 0 0 0.1646388107356 0 0.162223919992809 0.077227598479981 0 0 0.391660516622769 0.846796331141403 0.14540977898101 0.725542587451596 0.242710724932057 0.0384063828908866 0.0573178775189249 0.190694573189594 0 0 0 0 0 0 0 0 0 0 0 0 -0.270868024476751 0 0 0 0 0 0 0 0 0 0
0 0 0 0 0.142318915078386 0.262506123772819 0 0 0 0 0 0 0 0 0 0 0 0 0 0 0 0 0 0 0 0 0 0 0 0 0 0 0 0 0 0 0 0 0 0 0 0 0 0 0 0 0 -1.09131903901554 0 0
0 0 0 0 0 0 0 0 0 0 0 0 0 0 0 0 0 0 0 0 0 0 0 0 0.342212548638989 0.449967687142958 0.1391449289236 0.104478415533017 1.91320813219163 0.300986308564228 0.133852083096248 0.0348802385056456 0.0554853256717833 0 0 0 0 0 0 0 0 0 0 0 0 0 0 -0.291100878125262 0 0
0 0 0 0 0 0 0 0 0 0 0 0 0 0 0 0 0 0 0 0 0 0 0 0 0 0 0 0 0 0.531333365545949 0.350636353391492 0 0 0 0 0 0 0 0 0 0 0 0 0 0 0 0 -1.70189947626415 0 0
0 0 0 0 0 0 0 0 0 0 0 0 0 0 0 0.260655872512071 0.227495810378835 0 0 0.0919669823449179 0 0.0863529345951918 0.508641272375085 0.71595416142029 0.241688948161851 0 0.171326019537114 0.0623864884452532 0 0 0 0 0.268019861310005 0 0 0.0548637414631571 0 0 0 0 0 0 0 0 0 0 0 0 0 0
0 0 0 0 0 0 1.32766388417966 0.20241871473818 0.376571230709944 0.154764406356704 0.0476700793712035 0 0.692178071156238 0 0 0 0 0 0 0 0 0 0 0 0 0 0 0 0 0 0 0 0 0 0 0 0 0 0 0 0 0 0 0 0 0 0 -1.62146451393784 0 0
0 0 0 0 0 0 0 0 0 0 0 0 0 0.498775603121898 0 0.0350206107463234 0.30209197393381 0.437808308759754 0 0 0 0 0 0 0 0 0 0 0 0 0 0 0 0 0 0 0 0 0 0 0 0 0 0 0 0 0 -0.563545613497287 0 0
0 0 0 0 0 0 0 0 0 0 0 0 0 0 0 0 0 0 0 0 0 0 0 0 0 0 0 0 0.70108263183947 0 0.37215335812139 0 0.730000797057273 0.558711664731901 0 0 0 0 0 0 0 0 0 0 0 0 0 0 0 0
0 0 0 0 0 0 0 0 0 0 0.376613326809059 0 0 0 0 0 0 0 0 0 0 0 0 0 0 0 0 0 0 0 0 0 0 0 0 0 0 0 0 0 0 0 0 0 0 0 0 0 0 0
0 0 0 0 0 0 0 0 0 0 0 0 0 0 0 0 0 0 0 0 0 0 0 0 0 0 0 0 0 0 0.478874705706982 0.203439025782045 0.20770571262058 0 0 0 0 0 0 0 0 0 0 0 0 0 0 0 0 0
0 0 0 0 0 0 0 0 0 0 0 0 0.77940245670309 0 1.02377314934685 0.443463908710139 0 0 0 0 0 0 0 0 0 0 0 0 0 0 0 0 0 0 0 0 0 0 0 0 0 0 0 0 0 0 0 0 0 0
0 0 0 0 0 0 0 0 0 0 0.133613450230508 0.0253621145496106 0 0 0 0 0 0 0 0 0 0 0 0 0 0 0 0 0 0 0 0 0 0 0 0 0 0 0 0 0 0 0 0 0 0 0 0 0 0
0 0 0 0 0 0 0 0 0 0 0 0 0 0 0 0 0 0 0 0 0 0 0 0 0 0 0 0 0 0.272533985923602 0.0483930674916567 0 0 0 0.166511371294822 0 0.208270996172651 0.0613244653965069 0.377322852916518 0 0.305182588765115 0.101171962582749 0 0 0 0 0 0 0 0
0 0 0 0 0 0 0 0 0 0 0 0 0.144134832139311 0 0 0 0.366285172118916 0 0 0 0 0 0 0 0 0 0 0 0 0 0 0 0 0 0 0 0 0 0 0 0 0 0 0 0 0 0 0 0 0
0 0 0.214379843208999 0 0 0.141466881147664 0.463398972163005 0 0.0872031901680003 0 0 0 0 0 0 0 0 0 0 0 0 0 0 0 0 0 0 0 0 0 0 0 0 0 0 0 0 0 0 0 0 0 0 0 0 0 0 0 0 0
