2.09945042975527
1.70082512782962
1.27113389951851
0.134289423986666
0.81822479775489
2.01285643939304
2.43332950605909
1.80252101548837
0.44872546184291
0.291317847949394
2.55302861832117
1.06865239944555
1.08131713160259
0.324349858301686
0.649340738055837
0.194349343246858
1.38443647838433
4.01435871049004
0.806266023697659
0.349387276864819
0.541217458615577
3.86786690038031
0.251908295090611
0.870591410640709
1.42181075120333
0.986663429553224
2.59235904600692
0.491226968972425
0.799326719297192
2.99788917094755
0.455369676822253
2.95691309327968
0.729142961525849
0.785187189958265
0.776463246361476
2.73505795498852
0.65848219355516
1.75327673729871
1.0924451692916
2.90223688881602
0.250377103427786
2.23695658849635
1.58963723484821
0.225159756521469
1.08502845913169
0.744023663834411
0.448606670148641
0.555059412848712
1.76073880844656
1.22724193924288
