0 0 0 0 0 0 0 0 0 0 0 0 0 0 -2.35089777780154 0 0 0 0 0 0 0 0 0 0 0 0 0 0 0 0 0 0 0 0 0 -0.552560884230866 0 -0.273508649818707 0 0 0 0 0 0 0 0 0 0 0
0 0 0 0 0 0 0 0 0 0 0 0 0 0 -0.716250055376717 0 0 0 0 0 0 0 0 0 0 0 0 0 0 0 0 0 0 0 0 0 0 0 0 0 0 0 0 0 0 0 0 0 0 0
0 0 0 0 0 0 0 0 0 0 0 0 0 0 0 0 0 0 0 0 0 0 0 0 0 0 0 0 0 0 0 0 0 0 0 0 0 0 -2.36030285264298 0 0 0 0 0 0 0 0 0 0 0
0 0 0 0 0 0 -0.908584764243121 0 0 0 0 0 0 0 0 0 0 0 0 0 0 0 0 0 0 0 0 0 0 -0.345574546492013 0 0 0 0 0 0 -0.332577301762534 0 0 0 0 0 0 0 0 0 0 0 0 0
0 0 0 0 0 -0.416840069414257 -2.65670480659604 0 0 0 0 0 0 0 0 0 -0.212942769781763 0 0 0 0 0 0 0 0 0 0 0 0 0 0 0 0 0 0 0 -0.79072336270567 0 -1.05598209279546 0 0 0 0 0 0 0 0 0 0 0
0 0 0 0 0.0836916380373313 0 0 0 0 0 0 0 0 0 0 -1.38438900776722 0 0 0 0 0 0 0 0 0 0 0 0 0 0 0 0 0 0 0 0 0 0 -2.22713748136835 0 0 0 0 0 0 0 0 0 0 0
0 0 0 0.201171369094403 0.47341732212193 0 0 0 0 0 0 0 0 0 0 0 0 0 0 0 0 0 0 0 0 0 0 0 0 0 0 0 0 -0.258471265908738 0 0 -3.39030870954957 0 0 0 0 0 0 0 0 0 0 0 0 0
0 0 0 0 0 0 0 0 0 0 0 0 0 0 0 0 0 0 -0.736719176833637 0 0 0 0 0 0 0 0 0 0 0 0 -1.82266643551436 0 0 -2.86452673084008 -1.43546103999667 0 0 0 0 0 0 0 0 0 -0.763030819473205 0 -1.8894037518838 0 0
0 0 0 0 0 0 0 0 0 0 0 0 0 0 0 0 0 0 0 0 0 0 0 0 0 0 0 0 0 0 0 0 0 0 -2.48078855892071 -5.2231622266942 0 0 0 -0.679074349742588 -0.944095311228509 0 -0.813941469826426 0 0 -1.39469917694673 0 -0.757115485150232 0 0
0 0 0 0 0 0 0 0 0 0 -0.0818687180849119 0 0 0 0 0 0 0 0 0 0 0 0 0 0 0 0 0 0 0 0 -0.362956875166932 0 0 -2.09749319768883 0 0 -1.24245140226685 0 0 0 0 0 -6.86820024500985 0 -2.25033560864886 0 0 0 0
0 0 0 0 0 0 0 0 0 0.0156972229831218 0 0.245830650578537 0 0 0 0 0 0 0 -0.225005088535671 0 0 0 0 0 0 0 0 0 0 0 -6.85498151756797 0 0 -0.937578566796218 -2.9040014879178 0 0 0 0 0 0 0 0 0 0 0 0 0 0
0 0 0 0 0 0 0 0 0 0 -1.25455381924757 0 0 0 0 0 0 0 0 -0.714694025872689 0 0 -0.478247859368945 0 0 0 0 0 0 0 -0.94013567204556 0 0 0 -2.23727578728799 0 0 -0.484929549556211 0 0 -0.907949020217577 0 0 0 0 0 0 0 0 0
0 0 0 0 0 0 0 0 0 0 0 0 0 0 0 0 0 0 0 0 0 0 -1.01734039419641 0 0 0 0 0 0 0 -1.09780748410409 0 0 0 -4.71500316723811 -0.327634907916341 0 0 0 0 -0.254455911191893 0 0 -4.88156917500827 0 0 0 0 0 0
0 0 0 0 0 0 0 0 0 0 0 0 0 0 0 0 0 0 0 -1.1057342195788 0 0 0 0 0 0 0 0 0 0 0 -0.94664221852961 0 0 -0.881791228579257 -1.40193542902071 0 0 0 0 -0.158089978170147 0 0 -0.621210927136061 0 0 0 0 0 0
0.475500503560529 0.123568164527142 0 0 0 0 0 0 0 0 0 0 0 0 0 0 0 0 0 -1.08478837009517 0 0 0 0 0 0 0 0 0 0 -0.617070427554281 0 0 0 0 0 0 -1.84223794679761 0 -0.122695636084321 -5.31188523253238 0 0 0 0 0 0 0 0 0
0 0 0 0 0 0.279802146717504 0 0 0 0 0 0 0 0 0 0 0 0 0 0 0 0 0 0 0 0 0 0 0 0 -1.81352101266188 0 0 0 0 0 0 0 0 0 0 0 0 -2.67629456164115 0 0 0 0 0 0
0 0 0 0 0.0408849651409625 0 0 0 0 0 0 0 0 0 0 0 0 0 0 0 0 0 0 0 0 -0.133457448603443 0 0 0 0 -0.633710433507332 -1.00445563066765 0 0 0 0 0 0 0 -0.778426729604014 0 0 0 -0.978330421859003 0 0 0 0 0 0
0 0 0 0 0 0 0 0 0 0 0 0 0 0 0 0 0 0 0 0 0 0 0 0 0 0 0 0 0 0 -1.6890473992888 0 0 0 0 0 0 0 0 0 0 -1.10801820793295 0 0 0 0 0 0 0 0
0 0 0 0 0 0 0 0.149558299639674 0 0 0 0 0 0 0 0 0 0 0 0 0 0 0 0 0 0 0 0 0 0 -0.0870513206402359 0 0 0 0 0 0 0 0 0 0 -0.675259023403208 0 -1.71971625783136 0 0 0 0 0 0
0 0 0 0 0 0 0 0 0 0 0.0460211632451273 0.127931296916536 0 0.218941175605916 0.229393828680002 0 0 0 0 0 0 0.355235056566975 0.226944480025353 0.183438789573302 0 0 0 0 0 0 -0.4190869657112 0 0 0 0 0 0 0 0 0 0 -0.359792095897473 0 -0.208078306824973 0 0 0 0 0 -1.60896075808681
0 0 0 0 0 0 0 0 0 0 0 0 0 0 0 0 0 0 0 0 0 0 0 0 0 0 0 0 0 0 0 0 0 0 0 0 0 0 0 0 0 -10.4026322172565 0 -0.620031812544075 -0.536548773167048 0 0 0 0 -4.97091614913038
0 0 0 0 0 0 0 0 0 0 0 0 0 0 0 0 0 0 0 -1.89110544761747 0 0 0 0 0 0 0 0 0 0 0 0 0 0 0 0 0 0 0 0 0 0 0 0 -1.27807867274247 0 0 0 -1.53225086027501 -0.977187300293053
0 0 0 0 0 0 0 0 0 0 0 0.0888184989455842 0.216532869761671 0 0 0 0 0 0 -1.17973699993487 0 0 0 0 0 0 0 0 -0.923435536057662 0 0 0 0 0 0 0 0 0 0 0 0 0 0 -1.41071483720004 -0.847261922141882 0 -1.55855679437065 0 -3.98071718132747 0
0 0 0 0 0 0 0 0 0 0 0 0 0 0 0 0 0 0 0 -0.909078596738366 0 0 0 0 0 0 0 0 0 0 0 0 0 0 0 0 0 0 0 0 0 -0.771780684305692 0 0 -1.62118990351913 0 -1.62037221149515 0 0 0
0 0 0 0 0 0 0 0 0 0 0 0 0 0 0 0 0 0 0 0 0 0 0 0 0 0 0 0 0 0 0 0 0 0 0 0 0 0 0 0 0 -0.561031493804855 0 0 -0.22533458137049 0 0 0 0 -1.52596801312273
0 0 0 0 0 0 0 0 0 0 0 0 0 0 0 0 0.0222794893094477 0 0 0 0 0 0 0 0 0 0 0 0 0 0 0 0 0 0 0 0 0 0 0 0 0 0 0 -1.00965207171173 0 -4.26824820246199 0 0 -0.298818299011637
0 0 0 0 0 0 0 0 0 0 0 0 0 0 0 0 0 0 0 0 0 0 0 0 0 0 0 0 0 0 0 0 0 0 0 0 0 0 0 0 0 0 0 0 -0.597591184496862 0 0 0 -0.807915779758526 0
0 0 0 0 0 0 0 0 0 0 0 0 0 0 0 0 0 0 0 0 0 0 0 0 0 0 0 0 0 0 0 0 0 0 0 0 0 0 0 0 0 0 0 0 0 0 0 0 0 -1.76968955155605
0 0 0 0 0 0 0 0 0 0 0 0 0 0 0 0 0 0 0 0 0 0 0.181970420435349 0 0 0 0 0 0 0 0 0 0 0 0 0 0 0 0 0 0 0 0 0 -3.311506960752 0 0 0 -1.02076812147107 -0.866804159866797
0 0 0 0.065286146941047 0 0 0 0 0 0 0 0 0 0 0 0 0 0 0 0 0 0 0 0 0 0 0 0 0 0 0 0 0 0 0 0 0 0 0 0 0 0 0 0 0 0 0 0 0 -0.593740138016076
0 0 0 0 0 0 0 0 0 0 0 0.179140304895933 0.232761676387399 0 0.120692586199447 0.369889456379833 0.120649414424995 0.341629008175865 0.0171830054574551 0.0823774007886343 0 0 0 0 0 0 0 0 0 0 0 0 0 0 0 0 0 0 0 0 0 0 0 0 -0.177846734195925 0 0 0 -0.119219611771321 -2.54986618730807
0 0 0 0 0 0 0 0.356020475889608 0 0.0723116778561671 1.44319927581765 0 0 0.199071051008387 0 0 0.220544819846364 0 0 0 0 0 0 0 0 0 0 0 0 0 0 0 0 0 0 0 0 0 0 0 0 0 0 0 -1.37157067736222 0 0 0 0 -2.52384138026735
0 0 0 0 0 0 0 0 0 0 0 0 0 0 0 0 0 0 0 0 0 0 0 0 0 0 0 0 0 0 0 0 0 0 0 0 0 0 0 0 0 0 0 0 -1.79979486992325 0 0 0 -0.367671978341633 0
0 0 0 0 0 0 0.0565978516889779 0 0 0 0 0 0 0 0 0 0 0 0 0 0 0 0 0 0 0 0 0 0 0 0 0 0 0 0 0 0 0 0 0 0 0 0 0 -2.93532910725775 0 0 0 -0.381338127845492 0
0 0 0 0 0 0 0 0.559143922795675 0.439686882681852 0.434107422962203 0.174846146825346 0.448155014228643 0.891770656665413 0.17690472228403 0 0 0 0 0 0 0 0 0 0 0 0 0 0 0 0 0 0 0 0 0 0 0 0 0 0 0 0 0 0 -1.2985019310799 0 0 0 -0.476296809054476 0
0 0 0 0 0 0 0 0.311129284820638 1.13330913777108 0 0.58926741722669 0 0.062902825095884 0.286555323040787 0 0 0 0 0 0 0 0 0 0 0 0 0 0 0 0 0 0 0 0 0 0 0 0 0 0 0 0 0 0 0 0 0 0 -0.0792137871667448 0
0.103734968979456 0 0 0.0705818983339621 0.166270505610129 0 0.637481227857388 0 0 0 0 0 0 0 0 0 0 0 0 0 0 0 0 0 0 0 0 0 0 0 0 0 0 0 0 0 0 0 0 0 0 0 0 0 0 0 0 0 0 0
0 0 0 0 0 0 0 0 0 0.250525902916325 0 0.0993868749208411 0 0 0.344328439168172 0 0 0 0 0 0 0 0 0 0 0 0 0 0 0 0 0 0 0 0 0 0 0 0 0 0 0 0 0 -1.50522745957811 0 0 0 -2.00712791835747 0
0.055847086365203 0 0.468379669066898 0 0.20824699037429 0.432615740252369 0 0 0 0 0 0 0 0 0 0 0 0 0 0 0 0 0 0 0 0 0 0 0 0 0 0 0 0 0 0 0 0 0 0 0 0 0 0 0 0 0 0 0 0
0 0 0 0 0 0 0 0 0.136159327283803 0 0 0 0 0 0.0260637266510437 0 0.161383991184271 0 0 0 0 0 0 0 0 0 0 0 0 0 0 0 0 0 0 0 0 0 0 0 0 0 0 0 0 0 0 0 0 0
0 0 0 0 0 0 0 0 0.190563831324167 0 0 0.170723304921516 0.0479996456564292 0.0304213132346291 1.15896832950843 0 0 0 0 0 0 0 0 0 0 0 0 0 0 0 0 0 0 0 0 0 0 0 0 0 0 0 0 0 0 0 0 0 -1.09796503462079 0
0 0 0 0 0 0 0 0 0 0 0 0 0 0 0 0 0 0.213966682830089 0.134734074835066 0.0708496461103331 2.07085908121698 0 0 0.158354032089137 0.111946962775226 0 0 0 0 0 0 0 0 0 0 0 0 0 0 0 0 0 0 0 -0.586009440642696 0 0 0 -1.95595204093232 0
0 0 0 0 0 0 0 0 0.164235524167112 0 0 0 0 0 0 0 0 0 0 0 0 0 0 0 0 0 0 0 0 0 0 0 0 0 0 0 0 0 0 0 0 0 0 0 0 0 0 0 0 0
0 0 0 0 0 0 0 0 0 1.37742293734735 0 0 1.02661906268155 0.12089781074487 0 0.547003299125024 0.210098251692867 0 0.36439063265041 0.0448979755309344 0.126262276650871 0 0.263977378631093 0 0 0 0 0 0 0 0 0 0 0 0 0 0 0 0 0 0 0 0 0 0 0 0 0 0 0
0 0 0 0 0 0 0 0 0 0 0 0 0 0 0 0 0 0 0 0 0.11468004342 0.246284404794549 0.167150517894128 0.353846229238824 0.0472522931190029 0.21394520949453 0.114394341952941 0 0.701333747626737 0 0.0350598339206934 0.287265246521317 0.370388461862804 0.591439308641911 0.252092800420725 0 0 0.302558438251614 0 0 0 0.116922827158456 0 0 0 0 0 0 0 0
0 0 0 0 0 0 0 0.150913093759681 0.280189658896883 0.441302262917486 0 0 0 0 0 0 0 0 0 0 0 0 0 0 0 0 0 0 0 0 0 0 0 0 0 0 0 0 0 0 0 0 0 0 0 0 0 0 0 0
0 0 0 0 0 0 0 0 0 0 0 0 0 0 0 0 0 0 0 0 0 0 0.289682815557364 0.323108270993544 0 0.894169026015314 0 0 0 0 0 0 0 0 0 0 0 0 0 0 0 0 0 0 0 0 0 0 0 0
0 0 0 0 0 0 0 0.370773642181444 0.153873804307629 0 0 0 0 0 0 0 0 0 0 0 0 0 0 0 0 0 0 0 0 0 0 0 0 0 0 0 0 0 0 0 0 0 0 0 0 0 0 0 0 0
0 0 0 0 0 0 0 0 0 0 0 0 0 0 0 0 0 0 0 0 0 0.316233105865289 0.764589511774216 0 0 0 0.162844542012142 0 0.220409816859521 0 0.0237386794458395 0 0.0690727575884306 0.0683308733353072 0.0898464144575583 0.0164191420605581 0 0.38731811993287 0 0 0.214387263189786 0.419038819735023 0 0 0 0 0 0 0 0
0 0 0 0 0 0 0 0 0 0 0 0 0 0 0 0 0 0 0 0.337157614419266 0.981324867481662 0.188774320113524 0 0 0.308079664973034 0.0610398808027176 0 0.371877346542623 0.176766620702492 0.117490515414041 0.486116904934456 0.499493715907516 0 0 0 0 0 0 0 0 0 0 0 0 0 0 0 0 0 0
