0 0 0 0 0 0 0 0 0 0 0 0 0 0 0 0 0 0 0 0 0 0 0 0 -0.897658409766834 -1.39273915283017 0 0 0 0 0 0 0 0 0 0 0 0 0 0 0 0 0 0 0 0 0 0 0 0
0 0 0 0 -0.251991238790298 0 0 0 0 0 0 0 0 0 0 0 0 0 0 0 0 0 0 -2.10171650365842 0 0 0 0 0 0 0 0 0 0 0 0 0 0 0 0 0 0 0 0 0 0 0 0 0 0
0 0 0 0 0 0 0 0 0 0 0 0 0 0 0 0 0 -2.22122169731038 0 0 0 0 0 -1.16713005970592 0 0 0 0 0 0 0 0 0 0 0 0 0 0 0 0 0 0 0 0 0 0 0 0 0 0
0 0 0 0 0 0 0 0 0 0 0 0 0 0 0 0 0 0 0 0 0 0 0 0 0 0 0 0 0 0 0 0 0 0 -1.10122929423671 0 0 0 0 0 0 0 0 0 0 0 0 0 0 0
0 0.0523013869518467 0 0 0 0 0 0 0 0 0 0 0 0 -0.352142844280171 0 0 0 0 0 0 0 0 0 0 0 0 0 0 0 0 -0.653759872696149 0 0 -0.192014000674219 0 0 0 0 0 0 0 0 0 0 0 0 0 0 -0.718834430075269
0 0 0 0 0 0 0 0 0 0 0 0 0 0 0 0 0 0 0 0 0 -0.262130963790835 -5.60489265958615 -1.46327862522203 0 0 0 0 0 0 0 0 0 0 -4.05323986403573 0 0 0 0 0 0 0 0 0 0 0 0 0 0 -1.87394835052063
0 0 0 0 0 0 0 0 0 0 -0.730603095095747 0 0 0 0 0 0 0 0 0 0 0 -0.352818949875005 -1.10192017367638 0 0 0 0 0 0 0 0 0 0 0 0 -0.751055961616125 -0.712507509416334 -1.7832555859137 0 0 0 0 0 0 0 0 0 0 0
0 0 0 0 0 0 0 0 0 0 -5.10663356890358 0 0 0 0 -1.88440930888709 0 0 0 0 0 0 -3.51414941741386 -1.3765830324148 0 0 0 0 0 0 0 0 0 0 0 0 -0.761528761456307 0 -0.676591980534223 0 0 0 0 0 0 0 0 0 0 0
0 0 0 0 0 0 0 0 0 0 -1.72407775485407 0 0 0 0 -3.66310359097313 0 0 0 0 0 0 0 0 0 0 0 0 0 0 0 0 0 0 0 0 0 0 0 0 0 0 0 0 0 0 0 0 0 -0.0820999385650414
0 0 0 0 0 0 0 0 0 0 0 0 0 0 0 -2.72024961152194 0 0 0 -1.43935878133648 0 0 0 -0.701535875516495 0 0 0 0 0 0 0 0 0 0 -3.16025351698478 0 0 -0.397425475887478 0 0 0 0 -0.648914736940443 0 0 0 0 0 0 0
0 0 0 0 0 0 0.145242347524517 1.09531587304474 0.339954516959314 0 0 0 0 0 0 -0.691978988534365 -1.00810561620246 0 0 -0.763531171115066 0 0 0 0 0 0 0 0 -0.216911599112573 0 0 0 0 0 0 0 0 0 0 -2.06543748870747 0 0 -0.711759332749692 0 0 0 0 0 0 -0.82495585189424
0 0 0 0 0 0 0 0 0 0 0 0 0 -0.362915035339917 0 0 0 0 0 -0.646848145978817 0 0 0 0 0 0 0 0 0 0 0 0 0 0 0 0 0 0 0 0 0 0 0 0 0 0 0 0 0 -0.946872941391048
0 0 0 0 0 0 0 0 0 0 0 0 0 0 0 -1.17986688941142 0 0 0 -1.57527040048991 0 0 0 0 0 0 0 0 0 0 0 0 0 0 0 0 0 0 0 0 0 0 0 0 0 0 0 0 0 0
0 0 0 0 0 0 0 0 0 0 0 0.0671698898194378 0 0 0 -0.379055280153981 0 0 0 0 -1.16104710993354 0 0 0 0 0 0 0 0 0 0 0 0 0 0 0 0 0 0 -0.530022026491392 0 0 0 0 0 0 0 0 0 0
0 0 0 0 0.0739440875359906 0 0 0 0 0 0 0 0 0 0 0 0 0 0 0 -0.0999781970889956 0 0 0 0 0 0 0 0 0 0 0 0 0 0 0 0 0 0 0 0 0 0 0 0 0 0 0 0 -2.92432782613559
0 0 0 0 0 0 0 0.377190732791725 0.716290527038272 0.569833202225121 0.142663403593478 0 0.219561818638754 0.0779295538072547 0 0 0 0 0 0 -1.85628112438546 0 0 0 0 0 0 0 0 0 0 0 0 0 0 0 0 0 0 -0.275718071437254 0 -4.67853736030118 0 0 0 0 0 0 0 -3.61093323621848
0 0 0 0 0 0 0 0 0 0 0.204727273924947 0 0 0 0 0 0 0 0 0 0 0 0 0 0 0 -5.10607519954698 0 0 0 0 0 0 0 0 0 0 0 0 -1.30865335435553 0 0 0 0 0 0 0 0 0 -0.428524148208182
0 0 0.391617280820267 0 0 0 0 0 0 0 0 0 0 0 0 0 0 0 0 0 0 0 0 0 0 0 0 0 0 0 0 0 0 0 0 0 0 0 0 0 0 -0.522517162196662 0 0 0 0 0 0 0 0
0 0 0 0 0 0 0 0 0 0 0 0 0 0 0 0 0 0 0 0 0 0 0 0 0 0 -0.371411946593723 0 0 0 -0.189210716513438 0 0 0 0 0 0 0 0 -0.683107340892633 0 -2.49027541160414 0 0 0 0 0 0 0 0
0 0 0 0 0 0 0 0 0 0.290594354477905 0.139581444080163 0.139910670550576 0.327269803698033 0 0 0 0 0 0 0 0 0 0 0 0 0 -0.422416765629875 0 0 0 -5.19879456993461 0 0 0 0 0 0 0 0 0 0 -3.04073247020082 0 0 0 0 0 0 0 -1.03335619150599
0 0 0 0 0 0 0 0 0 0 0 0 0 0.232560639370777 0.0196439959861958 0.360215958553532 0 0 0 0 0 0 0 0 0 0 0 0 0 0 0 0 0 0 0 0 0 0 0 -0.528878262814898 0 -0.683010371265418 0 0 0 0 0 0 0 0
0 0 0 0 0 0.0472467647233334 0 0 0 0 0 0 0 0 0 0 0 0 0 0 0 0 0 0 0 0 0 0 0 0 0 0 0 0 0 0 0 0 0 0 0 0 0 0 0 0 0 0 0 0
0 0 0 0 0 1.18722948122868 0.0678599692814196 0.693059957377487 0 0 0 0 0 0 0 0 0 0 0 0 0 0 0 0 0 0 0 0 0 0 -0.703207707948203 0 0 0 0 0 0 0 0 -2.70363422242601 0 0 0 0 0 0 0 0 0 0
0 0.424187211020661 0.231728402612659 0 0 0.286548583911965 0.220368614413016 0.273429186392921 0 0.134275915814334 0 0 0 0 0 0 0 0 0 0 0 0 0 0 0 0 0 0 0 0 -1.32243961250972 0 0 0 0 0 0 0 0 -1.66345454816954 0 0 0 0 0 0 0 0 0 0
0.180917810049749 0 0 0 0 0 0 0 0 0 0 0 0 0 0 0 0 0 0 0 0 0 0 0 0 0 0 0 0 0 -1.0413537143783 0 0 0 0 0 0 0 0 0 0 0 0 0 0 0 0 0 0 0
0.282961352770104 0 0 0 0 0 0 0 0 0 0 0 0 0 0 0 0 0 0 0 0 0 0 0 0 0 0 0 0 0 0 0 0 0 0 0 0 0 0 0 0 0 0 0 0 0 0 0 0 0
0 0 0 0 0 0 0 0 0 0 0 0 0 0 0 0 0.990940399987522 0 0.0786841829531876 0.0876117577450295 0 0 0 0 0 0 0 0 0 0 -0.471408997446035 0 0 0 0 0 0 0 0 0 -2.66074606827176 0 0 0 0 0 0 0 0 0
0 0 0 0 0 0 0 0 0 0 0 0 0 0 0 0 0 0 0 0 0 0 0 0 0 0 0 0 0 0 0 0 0 0 0 0 0 0 0 0 -3.16059925929558 0 0 0 0 0 0 0 0 0
0 0 0 0 0 0 0 0 0 0 0.0426765596585434 0 0 0 0 0 0 0 0 0 0 0 0 0 0 0 0 0 0 0 -4.57726985667476 0 0 0 0 0 0 0 0 0 0 0 0 0 0 0 0 0 0 0
0 0 0 0 0 0 0 0 0 0 0 0 0 0 0 0 0 0 0 0 0 0 0 0 0 0 0 0 0 0 -0.863886996815318 0 0 0 0 -1.29417859389689 0 0 0 0 -0.399510857079377 0 0 0 0 0 0 0 0 0
0 0 0 0 0 0 0 0 0 0 0 0 0 0 0 0 0 0 0.0428366097736079 0.992637827353526 0 0 0.149428385357337 0.271328818075159 0.213070031648951 0 0.0921971702658868 0 0.870246011354189 0.171971283969098 0 0.126521519385517 0.0375023953098844 0 0 -1.8001212570442 0 0 0 0 -0.451327889665287 0 0 0 0 -0.203231150247992 0 0 0 0
0 0 0 0 0.124490982938774 0 0 0 0 0 0 0 0 0 0 0 0 0 0 0 0 0 0 0 0 0 0 0 0 0 -0.604514185483496 0 0 0 0 0 0 0 0 0 -1.13128793066648 0 0 0 0 -0.52831822212154 0 0 0 0
0 0 0 0 0 0 0 0 0 0 0 0 0 0 0 0 0 0 0 0 0 0 0 0 0 0 0 0 0 0 -0.203158795307059 0 0 0 0.124514056798951 0 0 0 0 0 -7.22396492195343 0 0 0 0 0 0 0 0 0
0 0 0 0 0 0 0 0 0 0 0 0 0 0 0 0 0 0 0 0 0 0 0 0 0 0 0 0 0 0 0 0 0 0 0 -2.96390625897496 0 0 0 0 0 0 0 0 0 -0.466965422064303 0 0 0 0
0 0 0 0.233974966663563 0.0394141810559938 0.768819171015415 0 0 0 0.604651123120538 0 0 0 0 0 0 0 0 0 0 0 0 0 0 0 0 0 0 0 0 0 0 -0.625696256105421 0 0 -0.680769430341033 0 0 0 0 -1.32414816283736 0 0 0 0 -0.333972955390543 0 0 0 0
0 0 0 0 0 0 0 0 0 0 0 0 0 0 0 0 0 0 0 0 0 0 0 0 0 0 0 0 0 0.232903055788758 0.355153027056878 0 0 0.578385930686914 0.14551247093147 0 0.216939818417255 0.146077025291909 0 0 -0.309325352216287 0 0 0 0 -1.39675822686687 0 0 0 0
0 0 0 0 0 0 0.145002764348314 0.156855511456976 0 0 0 0 0 0 0 0 0 0 0 0 0 0 0 0 0 0 0 0 0 0 0 0 0 0 0 -1.09068387505096 0 0 0 0 0 0 0 0 0 0 0 0 0 0
0 0 0 0 0 0 0.14028857765667 0 0 0.0786905375310512 0 0 0 0 0 0 0 0 0 0 0 0 0 0 0 0 0 0 0 0 0 0 0 0 0 -0.701754325214833 0 0 0 0 -2.78664718587917 0 0 0 0 -0.983596926287068 0 0 0 0
0 0 0 0 0 0 0.360944323260577 0.136622103461442 0 0 0 0 0 0 0 0 0 0 0 0 0 0 0 0 0 0 0 0 0 0 0 0 0 0 0 0 0 0 0 0 0 0 0 0 0 0 0 0 0 0
0 0 0 0 0 0 0 0 0 0 0.384481730886428 0 0 0.10618992445887 0 0.0565332896888813 0.258051988799181 0 0.137019733062106 0 0.108890815725426 0 0.504268715605119 0.354525823014664 0 0 0 0 0 0 0 0 0 0 0 0 0 0 0 0 0 0 0 0 0 0 0 0 0 0
0 0 0 0 0 0 0 0 0 0 0 0 0 0 0 0 0 0 0 0 0 0 0 0 0 0 0.542907714619525 0.65694265723549 0 0.0802193839547663 0.0912749559024099 0.236904470139485 1.49004389465992 0 0.279113752118889 0.0584542008515455 0 0.610053046515506 0 0 0 0 0 0 0 0 -4.27145614809181 0 0 0
0 0 0 0 0 0 0 0 0 0 0 0 0 0 0 0.942019244569789 0 0.110591854483199 0.521480990586655 0.54687428541059 0.13343853305597 0 0 0 0 0 0 0 0 0 0 0 0 0 0 0 0 0 0 0 0 0 0 0 0 0 -1.10660117080722 0 -1.5711353017486 0
0 0 0 0 0 0 0 0 0 0.132872400303976 0.15088298869345 0 0 0 0 0 0 0 0 0 0 0 0 0 0 0 0 0 0 0 0 0 0 0 0 0 0 0 0 0 0 0 0 0 0 0 0 0 0 0
0 0 0 0 0 0 0 0 0 0 0 0 0 0 0 0 0 0 0 0 0 0 0 0 0 0 0 0 0 0 0 0 0 0 0 0 0 0 0 0 0 0 0 0 0 0 -0.389534482393074 0 -3.29892168784007 0
0 0 0 0 0 0 0 0 0 0 0 0 0 0 0 0 0 0 0 0 0 0 0 0 0 0 0 0 0 0 0 0 0 0 0 0 0 0 0 0 0 0 0 0 0 0 -0.984464203668257 0 0 0
0 0 0 0 0 0 0 0 0 0 0 0 0 0 0 0 0 0 0 0 0 0 0 0 0 0 0 0 0 0 0.0410955193885765 0.100954593777241 0 0.104772566691119 0.0651375335872928 0.287633023880626 0 0.188191193764112 0 0 0 0 0 0 0 0 -1.53377742689157 0 -0.989570613741918 0
0 0 0 0 0 0 0 0 0 0 0 0 0 0 0 0 0 0 0 0 0 0 0 0 0 0 0 0 0 0 0 0 0 0 0 0 0 0 0 0 0.820664255603049 0.219944771082878 0 0.0829517586535923 0.192495694252838 0.29268441035706 0 0 0.198260532852508 0.289487072767679
0 0 0 0 0 0 0 0 0 0 0 0 0 0 0 0 0 0 0 0 0 0 0 0 0 0 0 0 0 0 0 0 0 0 0 0 0 0 0 0 0 0 0 0 0 0 0 0 -1.43196742133999 0
0 0 0 0 0 0 0 0 0 0 0 0 0 0 0 0 0 0 0 0 0 0 0 0 0 0 0 0 0 0 0 0 0 0 0 0 0 0 0 0 0 0.308538204778355 0 0.676982096562652 0 0.207438846423351 -0.939004662133021 0.299001145620209 0 0
0 0 0 0 0.148338894646525 0.381815033626627 0 0 0.0160394168870747 0 0.164517607758609 0.19039926346174 0 0 0.617931648873255 0.692512739021826 0.091378783819815 0 0 0.208980109339194 0 0 0 0 0 0 0 0 0 0 0 0 0 0 0 0 0 0 0 0 0 0 0 0 0 0 -1.51466302010186 0 0 0
