1.69040945393203
0.857175123009635
0.466236762186515
0.317286692477533
0.0961303418039863
2.09304158220875
2.24805634956721
0.866696774157903
1.29692203223208
0.165266157537258
0.13979336772367
1.00474952736175
3.53951263698754
0.965758193922913
2.41313933785497
0.481825492375407
0.856432230656025
2.80106341315315
3.80078100047369
0.39201262711995
0.281440197229257
1.87203443502704
1.49664983919795
0.706424305126452
1.53374637929651
0.320891344703335
0.357894230284697
1.10278634400046
0.235778248383527
0.408323355326301
1.43193752431508
2.89296309946305
3.10887830483087
0.275447439315419
0.466317459518484
0.368204525487919
2.33076077053459
0.728897955689582
0.428497886923817
0.271886251351482
0.992309065928246
2.42259439291372
1.8936420686539
0.173230235600991
0.0455700843672015
0.344102591681632
2.83819338938012
1.07625237471522
0.441026639996493
1.45253267240678
