1.24192658187139
1.12253847139042
0.206028147033339
1.70618015393401
1.26540604189584
0.0974338868247017
1.09039602884524
3.64702186188139
1.03426020552364
2.37492932592572
0.137209050573392
2.87577821139409
0.962162971212037
0.378008153848208
0.128283620508822
1.8528768232782
0.147603152083628
0.215295086472991
0.0402109273671776
0.0920218761147146
0.135023880075476
0.838122825765867
1.17803853908313
0.733519432795583
0.184635109264908
0.0314553911836486
1.56667551768275
0.194557016166081
0.573608627287502
0.115708568980913
0.817600075567587
0.282445888224933
0.280523291352426
0.286647364543566
0.289746565488846
2.02853718246078
2.72486013398718
0.502512343839342
0.703742877154397
0.199811110471156
0.344613027217816
1.26257854991007
0.299828094332075
1.95783308271165
0.229460878585155
0.359386699401094
0.179166379816559
1.00211859262996
0.118446270611136
1.44071993401658
