0.824978992688275
3.36798090143746
0.786639916670757
2.80468365176373
3.23961225911832
0.956480549902487
0.464536454697561
0.32323157626277
0.902401257934959
0.673188825003288
0.487165911664974
0.876235187409629
0.494801844813228
1.87677135072968
2.91364770481136
4.5595921299566
3.58386699135522
1.86343319021927
0.219951157485862
1.4348888015522
0.886650258655825
1.50686150077942
2.84928472498825
1.78639877456215
0.943792982199583
0.835845854638423
0.388990736191804
0.92939247684923
2.53296558102771
2.75570362200079
1.69854421229873
2.91889734701088
2.64253648682696
0.195408416997678
2.04733352055216
1.98314783023237
1.46957776883393
1.09420328359875
1.77269267885445
0.430249015947638
1.62528622613281
4.44442174644106
0.532586272310186
0.666034044933749
0.42978488857883
0.649803551572307
2.8500468326365
0.850349519897838
1.277664068208
0.800826475253539
