0 -0.776116405796621 0 0 0 0 0 0 0 0 0 0 0 0 0 0 0 -0.269809956333512 0 0 0 0 0 0 0 0 0 0 0 0 0 0 0 0 0 0 0 0 0 0 0 0 0 0 0 0 0 0 0 0
0.160387994910493 0 0 0 0 0 0 0 0 0 0 0 0 0 0 0 0 0 0 0 0 0 0 0 0 0 0 0 0 0 0 0 0 0 0 0 0 0 0 0 0 0 0 0 0 0 0 0 0 0
0 0 0 0 0 0 0 0 0 0 0 0 0 0 0 0 0 -2.825828999059 0 0 0 0 0 0 0 0 0 0 0 0 0 0 0 0 0 0 0 0 0 0 0 0 0 0 0 0 0 0 0 0
0 0 0 0 0 0 0 0 0 0 0 0 -8.53077773329715 0 0 -2.16299865461651 0 0 0 0 0 0 0 0 0 0 0 0 0 0 0 0 0 0 0 0 0 0 0 0 0 0 0 0 0 0 0 0 0 0
0 0 0 0 0 0 0 0 0 0 0 -1.22731734839923 -1.14146717323659 0 -1.99165791410795 0 0 -0.415435403784511 0 0 0 0 0 0 0 0 0 0 0 0 0 0 0 0 0 0 0 0 0 0 0 0 0 0 0 0 0 0 0 0
0 0 0 0 0 0 0 0 0 0 0 -0.0996601899568351 -1.7788594572059 0 0 -0.438399068340896 0 0 0 0 0 0 0 0 0 0 0 0 0 0 0 0 0 0 0 0 0 0 0 0 0 0 0 0 0 0 0 0 0 0
0 0 0 0 0 0 0 0 0 0 -0.63697248483027 -1.98675813509941 0 0 -7.12313836573762 0 0 0 0 0 0 0 0 0 0 0 -0.287653277022637 0 0 0 0 0 0 0 0 0 0 0 0 0 0 0 0 0 0 0 0 0 0 0
0 0 0 0 0 0 0 0 0 -0.831431934640145 0 0 0 -0.519763429748981 -2.61619165549458 0 0 0 0 -0.987993424559564 0 0 0 0 0 0 -1.01936109545352 0 0 0 0 0 0 0 -3.60355273594635 0 0 0 0 0 0 0 0 0 0 0 0 0 0 0
0 0 0 0 0 0 0 0 0 -1.11485432444544 0 -0.470464190477272 -2.80266461211536 -0.369503229886407 -2.17108826454866 0 0 0 0 -2.81622774197383 0 0 0 0 0 0 -2.16316690194787 0 0 0 0 0 0 0 -3.43461409437454 0 0 0 0 0 0 0 0 0 0 0 0 0 0 0
0 0 0 0 0 0 0 0.168870942803461 0.225427892024729 0 0 0 -0.627922093848038 0 0 0 0 0 0 0 0 0 0 -1.0261224349573 0 0 0 0 0 0 0 0 0 -0.627741452647792 0 0 0 0 0 0 0 0 0 0 0 0 0 0 -1.31142855254973 0
0 0 0 0 0 0 0.130284474279507 0 0 0 0 0 0 0 0 0 0 0 0 0 0 0 0 0 0 0 0 0 0 0 0 0 0 0 -1.24430144334794 0 0 0 0 0 0 0 0 0 0 -0.397174839161964 0 0 -1.49087637937259 0
0 0 0 0 0.252707107487406 0.0196754482462296 0.39632338601079 0 0.100740687875533 0 0 0 0 0 0 0 0 0 0 0 0 0 0 0 0 0 0 0 0 0 0 0 0 0 0 0 0 0 0 0 0 0 -2.0469890262346 0 0 -0.567827392133843 0 0 0 0
0 0 0 1.85188866773087 0.233082261205989 0.384945418137662 0 0 0.546198519925979 0.133338891012667 0 0 0 0 0 0 0 0 0 0 0 0 0 0 0 0 0 -5.07703270946713 0 0 0 0 0 0 0 0 0 -1.03534341181319 0 0 0 0 -5.51005306755432 0 0 -0.342974696819674 0 0 0 0
0 0 0 0 0 0 0 0.104490080653909 0.0722683512635258 0 0 0 0 0 0 0 0 0 0 0 0 0 0 0 0 0 0 -0.521954924818775 0 0 0 0 0 0 0 0 0 0 0 0 0 0 0 0 0 -2.3855152249715 0 0 0 0
0 0 0 0 0.386980432629492 0 1.40257189929792 0.515004874314219 0.481957120936517 0 0 0 0 0 0 0 0 0 -0.608326431560945 0 0 0 0 0 0 0 0 0 0 0 0 0 0 0 0 0 0 0 0 0 0 0 -0.614939640738592 0 0 -3.84727541562324 0 0 0 0
0 0 0 0.453536901782692 0 0.0881563747094577 0 0 0 0 0 0 0 0 0 0 0 0 0 0 0 0 0 0 0 0 0 0 0 0 0 0 0 0 0 -1.97697453996977 0 -1.99543159802527 0 0 0 -0.312895845297486 -0.772383421291696 0 0 -1.81916795545986 0 0 0 0
0 0 0 0 0 0 0 0 0 0 0 0 0 0 0 0 0 0 0 0 0 0 0 0 0 0 0 0 0 0 0 0 -0.80592987774357 0 0 -2.15303643577856 0 -0.364597058188506 0 0 0 -0.413537034163265 -0.926044426911248 0 0 0 0 0 0 0
0.0526439222458072 0 0.572489941833143 0 0.0870550346728985 0 0 0 0 0 0 0 0 0 0 0 0 0 0 0 0 0 0 0 0 0 0 0 0 0 0 0 -0.593560695350287 0 0 -1.61447679215771 0 0 0 0 0 0 0 0 0 -4.72313099389141 0 0 0 0
0 0 0 0 0 0 0 0 0 0 0 0 0 0 0.126973460540696 0 0 0 0 0 0 0 0 0 0 0 0 0 0 0 0 -0.992435032903121 0 0 0 -1.59559482011012 0 0 0 0 0 0 0 0 0 0 0 0 0 0
0 0 0 0 0 0 0 0.192010291426654 0.540154990462097 0 0 0 0 0 0 0 0 0 0 0 0 0 0 0 0 0 0 0 0 0 0 -0.481643098293102 0 0 0 -0.423013313454263 0 -0.408880277238187 0 0 0 -1.51200707091863 0 0 0 -0.572045229541942 0 -1.74524146836334 0 0
0 0 0 0 0 0 0 0 0 0 0 0 0 0 0 0 0 0 0 0 0 0 -0.984918271688213 0 0 -0.284278218061 0 0 0 0 0 0 0 0 0 0 0 -1.17913709120816 0 0 0 -0.467878463501353 0 0 0 0 -3.99669565056915 0 0 0
0 0 0 0 0 0 0 0 0 0 0 0 0 0 0 0 0 0 0 0 0 0 -2.32934921090077 0 -3.20547787539525 0 0 0 0 0 0 -0.476745194083934 0 0 0 0 0 0 0 0 0 -0.577842561193664 0 0 0 -0.747555710056919 0 -1.11043924979841 0 0
0 0 0 0 0 0 0 0 0 0 0 0 0 0 0 0 0 0 0 0 0.183401280056374 0.457018782539083 0 0.176920171551003 0.483394947849478 -2.30068250984138 0.409657922921306 0.859728003606455 0 -0.788538812856439 -0.58600854074237 0 0 0 0 -3.34367101676341 -0.398404667048832 -0.513695189649087 0 -1.02534485311034 0 -0.970561799140846 0 0 -0.376216134851363 -2.55220721215109 0 0 0 0
0 0 0 0 0 0 0 0 0 0.217426831918436 0 0 0 0 0 0 0 0 0 0 0 0 -0.884356326804051 0 0 -0.352929256434492 0 0 -1.28495517829146 -0.961834935534494 -4.19929344350823 0 0 0 0 0 0 0 0 -0.334141724895675 -2.51307516284983 0 0 0 0 0 0 0 0 0
0 0 0 0 0 0 0 0 0 0 0 0 0 0 0 0 0 0 0 0 0 0.617724161039492 -2.3955269219215 0 0 0 0 0 0 -2.65721726123842 -0.37542522801718 0 0 0 0 0 0 0 0 0 -1.34483405423075 0 0 -0.786746893171514 0 -0.111435881160578 0 -10.0170143991345 0 0
0 0 0 0 0 0 0 0 0 0 0 0 0 0 0 0 0 0 0 0 0.0602626751713631 0 0.448475275870975 0.0720417794649937 0 0 0 0 0 -0.599861343901235 0 0 0 0 0 0 0 0 0 0 0 0 0 -1.50661653072402 0 -10.2719625649021 0 0 0 0
0 0 0 0 0 0 0.0614962662820711 0.196606813974561 0.396151858436867 0 0 0 0 0 0 0 0 0 0 0 0 0 -2.11446452614605 0 0 0 0 0 0 0 0 0 0 0 0 0 0 0 0 -0.75444327301383 -0.383207439767474 0 0 -0.998869632652339 0 0 0 0 0 0
0 0 0 0 0 0 0 0 0 0 0 0 0.990987089175752 0.105665228689404 0 0 0 0 0 0 0 0 -4.51803543561939 0 0 0 0 0 0 0 -1.09903914473967 0 0 0 0 0 0 0 0 -1.391341713272 0 0 0 0 0 0 0 0 0 0
0 0 0 0 0 0 0 0 0 0 0 0 0 0 0 0 0 0 0 0 0 0 0 0.276911398293096 0 0 0 0 0 0 0 0 0 0 0 0 0 0 0 0 -1.36388863927407 0 0 -0.99331560278954 -1.05896895055061 -5.64591292426762 0 0 0 0
0 0 0 0 0 0 0 0 0 0 0 0 0 0 0 0 0 0 0 0 0 0 0.15798503743963 0.187312258288782 0.474615056923662 0.125645398827719 0 0 0 0 0 0 0 0 0 0 0 0 0 0 0 0 0 0 0 0 0 0 0 0
0 0 0 0 0 0 0 0 0 0 0 0 0 0 0 0 0 0 0 0 0 0 0.115838594637212 0.835709650588264 0.0727638798850968 0 0 0.239882997496027 0 0 0 0 0.277853817935103 0 0 0 0 0 0 0 -7.15993244912578 0 0 0 0 -0.274107433617586 0 0 0 0
0 0 0 0 0 0 0 0 0 0 0 0 0 0 0 0 0 0 0.195758293772204 0.0919292437367817 0 0.0923417026297193 0 0 0 0 0 0 0 0 0 0 0 0 0 0 0 0 0 0 0 0 0 0 0 0 0 0 0 0
0 0 0 0 0 0 0 0 0 0 0 0 0 0 0 0 0.163985521343871 0.120022034926116 0 0 0 0 0 0 0 0 0 0 0 0 -1.40057722344766 0 0 0 0 0 0 0 0 0 0 0 0 0 0 0 0 0 0 -0.746456806816113
0 0 0 0 0 0 0 0 0 0.135449512767826 0 0 0 0 0 0 0 0 0 0 0 0 0 0 0 0 0 0 0 0 0 0 0 0 0 0 0 0 0 -0.376990794305109 0 0 0 0 0 0 0 0 0 0
0 0 0 0 0 0 0 0.728521982754782 0.675643773587669 0 0.247268660790764 0 0 0 0 0 0 0 0 0 0 0 0 0 0 0 0 0 0 0 0 0 0 0 0 0 0 0 0 0 0 0 0 0 0 0 0 0 0 0
0 0 0 0 0 0 0 0 0 0 0 0 0 0 0 0.419491758568434 0.428291854049171 0.340403375312241 0.311524963363663 0.0826455872535348 0 0 0.636538174874289 0 0 0 0 0 0 0 0 0 0 0 0 0 0 0 -0.374367137691119 0 0 0 0 0 0 0 0 0 0 0
0 0 0 0 0 0 0 0 0 0 0 0 0 0 0 0 0 0 0 0 0 0 0.0779609122893239 0 0 0 0 0 0 0 0 0 0 0 0 0 0 0 -3.7155918158331 0 0 0 0 0 0 0 0 0 0 0
0 0 0 0 0 0 0 0 0 0 0 0 0.19775173599027 0 0 0.433958598123294 0.0724174854799683 0 0 0.0756355840162134 0.235950981471901 0 0.103626933956028 0 0 0 0 0 0 0 0 0 0 0 0 0 0 0 0 0 0 0 0 0 0 0 0 0 0 0
0 0 0 0 0 0 0 0 0 0 0 0 0 0 0 0 0 0 0 0 0 0 0 0 0 0 0 0 0 0 0 0 0 0 0 0.0714053421331123 0.679093849502856 0 0 0 0 0 0 0 0 0 0 0 0 0
0 0 0 0 0 0 0 0 0 0 0 0 0 0 0 0 0 0 0 0 0 0 0.201959907418223 0.069578045055783 0 0 0.158559891419782 0.262503331341863 0 0 0 0 0 0.0739243912926005 0 0 0 0 0 0 0 0 0 0 0 0 0 0 0 0
0 0 0 0 0 0 0 0 0 0 0 0 0 0 0 0 0 0 0 0 0 0 0 0.485372846194662 0.257637296648192 0 0.0779628846267303 0 0.282298359788576 0 1.50923675585301 0 0 0 0 0 0 0 0 0 0 0 0 0 0 0 0 0 0 0
0 0 0 0 0 0 0 0 0 0 0 0 0 0 0 0.0592818168114272 0.0828614223996749 0 0 0.296774501768819 0.0942895089056264 0.118222431423148 0.185218993951513 0 0 0 0 0 0 0 0 0 0 0 0 0 0 0 0 0 0 0 0 0 0 0 0 0 0 0
0 0 0 0 0 0 0 0 0 0 0 0.42547366781312 1.04782536241429 0 0.122809164882563 0.168485877318484 0.177303063489515 0 0 0 0 0 0 0 0 0 0 0 0 0 0 0 0 0 0 0 0 0 0 0 0 0 0 0 0 0 0 0 0 0
0 0 0 0 0 0 0 0 0 0 0 0 0 0 0 0 0 0 0 0 0 0 0 0 0.170479502199198 0.303903394976845 0.222532109649474 0 0.209418995772057 0 0 0 0 0 0 0 0 0 0 0 0 0 0 0 0 0 0 0 0 0
0 0 0 0 0 0 0 0 0 0 0 0 0 0 0 0 0 0 0 0 0 0 0.0803946894368343 0 0 0 0 0 0.209993542862207 0 0 0 0 0 0 0 0 0 0 0 0 0 0 0 0 0 0 0 0 0
0 0 0 0 0 0 0 0 0 0 0.0752909752618133 0.113326837918599 0.0681298163570746 0.475250288223483 0.779393270904182 0.394056180292402 0 0.931795740089895 0 0.114564222735552 0 0.148260996642814 0.54421380331363 0 0.020346576356095 1.95458395493604 0 0 1.14525388496218 0 0.0571606772334187 0 0 0 0 0 0 0 0 0 0 0 0 0 0 0 0 0 0 0
0 0 0 0 0 0 0 0 0 0 0 0 0 0 0 0 0 0 0 0 0.835913260693148 0 0 0 0 0 0 0 0 0 0 0 0 0 0 0 0 0 0 0 0 0 0 0 0 0 0 0 0 0
0 0 0 0 0 0 0 0 0 0 0 0 0 0 0 0 0 0 0 0.332023217029406 0 0.23445714529332 0 0 1.87017239276032 0 0 0 0 0 0 0 0 0 0 0 0 0 0 0 0 0 0 0 0 0 0 0 0 0
0 0 0 0 0 0 0 0 0 0.26451101218281 0.310661235138536 0 0 0 0 0 0 0 0 0 0 0 0 0 0 0 0 0 0 0 0 0 0 0 0 0 0 0 0 0 0 0 0 0 0 0 0 0 0 0
0 0 0 0 0 0 0 0 0 0 0 0 0 0 0 0 0 0 0 0 0 0 0 0 0 0 0 0 0 0 0 0 0.136418604757249 0 0 0 0 0 0 0 0 0 0 0 0 0 0 0 0 0
