0 0 0 0 -0.226999896310672 0 0 -0.953229595476314 0 -1.19472222852314 0 0 0 0 0 0 0 -1.56009416023628 0 0 0 0 0 0 0 0 0 0 0 -0.96791098887663 0 0 0 0 0 0 0 0 0 -1.82563530552434 0 0 0 0 -1.14343248522446 0 0 0 0 0
0 0 0 0 0 0 0 0 0 0 0 0 0 0 0 0 0 -0.324713091268819 0 0 0 0 0 0 0 0 0 0 0 -0.90050520378327 0 0 0 0 0 0 0 0 0 0 0 0 0 -0.821209465057966 0 0 0 0 0 0
0 0 0 0 -1.41512752903836 0 0 0 0 0 0 0 -0.198678109020885 -1.71654546451584 0 0 0 0 0 0 0 0 0 0 0 0 0 0 0 -3.07074313894514 -0.231266930791611 0 0 0 0 0 0 0 0 0 0 0 0 -0.348512488763322 -6.56406284876129 0 0 0 0 0
0 0 0 0 0 0 -0.309514263943529 0 0 -2.72517404552837 0 0 -0.619369264790557 0 0 0 0 -1.73429453522569 0 0 0 0 0 -0.746814094268525 0 0 0 0 0 -0.388589841290207 0 0 0 0 0 0 0 0 0 -2.07326248862435 0 0 0 -0.888501219709678 -2.15970798295163 0 0 0 0 0
0.0455182258684203 0 0.289040148696946 0 0 -0.643603779233497 -0.458794623284338 0 0 0 0 0 -2.4903083215351 0 0 0 0 -0.218820794685569 0 0 0 0 0 -0.754981362355646 0 0 0 0 0 0 -0.850119924052664 0 0 0 0 0 0 0 0 0 0 0 0 0 -3.1217376133337 0 0 0 0 0
0 0 0 0 0.127465577606414 0 0 0 0 0 0 -1.66569230708761 0 0 0 0 0 -0.489062512645356 -3.0120331654946 -4.14695564567934 0 0 0 -0.36813434140612 0 -0.384302505840592 0 0 0 0 0 0 0 0 0 0 0 0 0 -0.518824189554781 0 0 0 0 -0.436377749641793 0 0 0 0 0
0 0 0 0.0676064404272362 0.0879496751156246 0 0 0 0 0 0 -0.892877002757261 0 0 0 0 -0.996328476098893 0 -2.1387507484992 0 0 0 0 0 -5.32398268282403 0 0 -1.80501739122796 0 -0.868035976957657 0 0 0 0 0 0 0 0 0 0 0 0 0 0 0 0 0 0 -0.115053134314338 0
0.184517147694142 0 0 0 0 0 0 0 0 0 0 0 0 0 0 0 -2.10618393253562 0 0 0 0 0 0 0 -0.387175575116883 -0.400791792666741 0 0 0 0 0 0 0 0 0 0 0 0 0 0 0 0 0 0 0 0 0 0 -0.910261432658809 0
0 0 0 0 0 0 0 0 0 0 0 0 0 0 0 0 -0.407803528967951 0 0 0 -2.77565072797 0 0 0 -2.99911365525408 -1.28978457100092 0 0 0 0 0 0 0 0 0 -3.0402942740298 -1.05249037277095 0 0 0 0 0 0 0 0 -0.396253144710911 -2.11655327491477 0 0 0
0.217715892766431 0 0 0.556559034249831 0 0 0 0 0 0 0 0 0 0 0 0 0 0 0 0 -2.99098819686742 0 0 0 0 -1.06965345502555 -0.790781750541849 0 0 0 0 0 0 0 0 -0.336442209773984 -0.761015418485054 0 0 0 0 0 0 0 0 0 -0.206695844843797 0 0 -0.407813790810946
0 0 0 0 0 0 0 0 0 0 0 0 0 0 0 0 0 0 0 0 0 0 0 0 0 -0.760645342946573 -3.36520425571812 0 -0.52890731153772 0 0 0 0 0 -2.60623393544316 -0.925072866315049 0 0 0 0 0 0 0 0 0 0 -11.4016388630716 0 0 0
0 0 0 0 0 0.328828185952944 0.187421243273731 0 0 0 0 0 0 0 0 0 0 0 0 0 0 0 -0.818139348285491 0 -1.86049449858995 -0.791895652184227 0 0 0 0 0 0 0 0 -0.48131843507812 -3.4530154083063 -2.37929472839658 0 0 0 0 0 0 0 0 0 0 -0.191591381838543 0 -0.606021035163916
0 0 0.0395188817263134 0.119048900380634 0.502486987125083 0 0 0 0 0 0 0 0 0 0 0 0 0 0 0 -1.41969140026858 0 -3.94999558082573 0 -5.62665431494363 0 0 0 0 0 0 0 0 0 0 -3.2546595995188 -4.71507840597156 0 0 0 0 0 0 0 0 0 -0.523610483744248 -0.552679882462403 0 -0.47777076351199
0 0 0.313631214447708 0 0 0 0 0 0 0 0 0 0 0 0 0 0 0 0 0 -0.441490094965718 0 -0.929761075193122 0 0 0 0 0 0 0 0 0 0 0 0 -5.53672628909693 0 0 0 0 0 0 0 0 0 0 0 0 0 -11.2658394685252
0 0 0 0 0 0 0 0 0 0 0 0 0 0 0 0 0 0 0 0 0 0 0 0 -3.89317462828355 -1.0390753417672 0 0 0 0 0 0 0 0 -0.680530882251831 -0.21822688124365 0 0 0 0 0 0 0 0 0 0 0 0 0 0
0 0 0 0 0 0 0 0 0 0 0 0 0 0 0 0 0 0 0 0 0 0 0 0 0 -1.61347538111402 0 0 0 0 0 0 0 0 0 -0.551071703990036 0 0 0 0 0 0 0 0 0 0 0 0 0 0
0 0 0 0 0 0 0.191054176523921 0.432924074741075 0.0827109885446813 0 0 0 0 0 0 0 0 0 0 0 0 0 0 0 0 0 0 0 0 0 0 -6.08830226555058 0 0 0 0 0 0 0 0 0 0 0 0 0 0 0 0 0 0
0.312581760517379 0.0620150825442562 0 0.35483096860537 0.0464709076656859 0.0904553102258435 0 0 0 0 0 0 0 0 0 0 0 0 0 0 0 -0.068942037329493 0 0 0 0 0 0 0 0 0 -0.938321394946791 0 0 0 0 0 0 -0.646994070486834 0 0 0 0 0 0 0 0 0 0 0
0 0 0 0 0 0.566945920338654 0.461311393098465 0 0 0 0 0 0 0 0 0 0 0 0 0 0 -0.724826707487208 0 0 0 0 0 0 0 0 0 0 0 0 0 0 0 0 -0.410455951771975 0 -0.27914433663767 0 0 0 0 0 0 0 0 0
0 0 0 0 0 0.810554429323149 0 0 0 0 0 0 0 0 0 0 0 0 0 0 0 0 0 0 0 0 0 0 0 0 0 -0.669873410299854 0 0 -0.749317649752358 0 0 0 0 0 -0.631728855804623 0 0 0 0 0 0 0 0 0
0 0 0 0 0 0 0 0 0.523109619077866 0.631915412511613 0 0 0.272528529395514 0.0840271205466641 0 0 0 0 0 0 0 0 0 0 0 0 0 0 0 0 0 0 0 0 0 0 0 0 -7.00972621052114 0 -0.977252941158233 0 0 0 0 0 0 0 0 0
0 0 0 0 0 0 0 0 0 0 0 0 0 0 0 0 0 0.0144885889282107 0.144059657007524 0 0 0 0 0 0 0 0 0 0 0 0 0 0 0 -1.01649949198852 0 0 0 0 0 -4.77647908223691 0 0 0 0 0 0 0 0 0
0 0 0 0 0 0 0 0 0 0 0 0.163554203899104 0.794887377056461 0.184422518223143 0 0 0 0 0 0 0 0 0 0 0 0 0 0 0 0 0 0 0 0 0 0 0 0 -0.95328168908645 0 0 0 0 0 0 0 0 0 0 0
0 0 0 0.13952720321187 0.162345207039935 0.0775907655823915 0 0 0 0 0 0 0 0 0 0 0 0 0 0 0 0 0 0 0 0 0 0 0 0 0 0 0 0 -1.0980656458252 0 0 0 0 0 0 0 0 0 0 0 0 0 0 0
0 0 0 0 0 0 1.0935938159589 0.0742978619879237 0.629625409826874 0 0 0.390499839904478 1.05885354331491 0 0.752896675641614 0 0 0 0 0 0 0 0 0 0 0 0 0 0 0 0 0 0 0 0 0 0 0 0 0 0 0 0 0 0 0 0 0 0 0
0 0 0 0 0 0.0787564048819497 0 0.0809643687281994 0.236076883274662 0.214634361011349 0.142643537980309 0.164405696246916 0 0 0.206382091301312 0.308117784206368 0 0 0 0 0 0 0 0 0 0 0 0 0 0 0 0 0 0 -0.268206189981934 0 0 0 -1.69578033754289 0 0 0 0 0 0 0 0 0 0 0
0 0 0 0 0 0 0 0 0 0.147978557869002 0.641681885252699 0 0 0 0 0 0 0 0 0 0 0 0 0 0 0 0 0 0 0 0 0 0 -1.79763255343743 -0.300038746657833 0 0 0 -0.809512488117185 0 0 0 0 0 0 0 0 0 0 0
0 0 0 0 0 0 0.368751375441694 0 0 0 0 0 0 0 0 0 0 0 0 0 0 0 0 0 0 0 0 0 0 0 0 0 0 0 0 0 0 0 -2.01374353206275 0 0 0 0 0 0 0 0 0 0 0
0 0 0 0 0 0 0 0 0 0 0.102658021250253 0 0 0 0 0 0 0 0 0 0 0 0 0 0 0 0 0 0 0 0 0 0 -0.391539545618238 0 0 0 0 -0.475883745247692 0 0 0 0 0 0 0 0 0 0 0
0.212736755483873 0.185773006808874 0.601874573501055 0.0784897982916649 0 0 0.186492782090108 0 0 0 0 0 0 0 0 0 0 0 0 0 0 0 0 0 0 0 0 0 0 0 0 0 0 0 0 0 0 0 0 0 0 0 0 0 0 0 0 0 0 0
0 0 0.0417536730343703 0 0.176277183008854 0 0 0 0 0 0 0 0 0 0 0 0 0 0 0 0 0 0 0 0 0 0 0 0 0 0 0 0 0 0 0 0 0 0 0 0 0 0 0 0 0 0 0 0 0
0 0 0 0 0 0 0 0 0 0 0 0 0 0 0 0 1.37446843838712 0.201417916646564 0 0.127878640219164 0 0 0 0 0 0 0 0 0 0 0 0 0 -0.205619903740549 0 0 0 0 0 0 0 0 0 0 0 0 0 0 0 0
0 0 0 0 0 0 0 0 0 0 0 0 0 0 0 0 0 0 0 0 0 0 0 0 0 0 0 0 0 0 0 0 0 -0.388628715602945 0 0 0 0 0 0 0 -1.36133525390785 0 0 0 0 0 0 0 0
0 0 0 0 0 0 0 0 0 0 0 0 0 0 0 0 0 0 0 0 0 0 0 0 0 0 0.324390329135232 0 0.0715946211409214 0 0 0.0391081182810656 0.0734203725685226 0 0.0681285452282282 0 0 0 0 0 0 0 0 0 0 0 0 0 0 0
0 0 0 0 0 0 0 0 0 0 0.52723788474746 0.105687494214277 0 0 0.145689760341003 0 0 0 0 0.156526248568397 0 0.199918712013031 0 0.232367379945865 0 0.06009924710703 0.0585556073893456 0 0 0 0 0 0 -0.323121685884276 0 0 0 0 -0.675087238038966 0 0 0 0 0 0 0 0 0 0 0
0 0 0 0 0 0 0 0 0.627933500880762 0.0691977966698449 0.191425354421225 0.646846920935521 0.583381478646523 1.12572082590227 0.0510071908773369 0.100854852684069 0 0 0 0 0 0 0 0 0 0 0 0 0 0 0 0 0 0 0 0 0 0 0 0 0 0 -2.15555678812804 0 0 0 0 0 0 0
0 0 0 0 0 0 0 0 0.234901214428121 0.150831083843206 0 0.445209461342426 0.985633071317574 0 0 0 0 0 0 0 0 0 0 0 0 0 0 0 0 0 0 0 0 0 0 0 0 0 -2.28698476070304 0 0 -0.813880757244643 -3.58529780217402 0 0 0 0 0 0 0
0 0 0 0 0 0 0 0 0 0 0 0 0 0 0 0 0 0 0 0 0 0 0 0 0 0 0 0 0 0 0 0 0 0 0 0 0 0 -0.22617533900264 0 0 0 -0.466212791837464 0 0 0 0 0 0 0
0 0 0 0 0 0 0 0 0 0 0 0 0 0 0 0 0 0.134393722876311 0.0875315098588348 0 1.44668408199289 0 0.187097620722525 0 0 0.32843375426332 0.150528002512483 0.42709614324812 0.096649493373396 0 0 0 0 0 0.130034052827598 0 0.499648100520431 0.048715012403103 0 0 0 0 0.232175501964125 0.0786488602645404 0 0.158725477723097 0 0 0 0
0.347285144681194 0 0 0.419988866237125 0 0.0946945771824819 0 0 0 0 0 0 0 0 0 0 0 0 0 0 0 0 0 0 0 0 0 0 0 0 0 0 0 0 0 0 0 0 0 0 0 0 0 0 0 0 0 0 0 0
0 0 0 0 0 0 0 0 0 0 0 0 0 0 0 0 0 0 0.0582166304825849 0.124226848173092 0.192795014539708 0.946185031499531 0 0 0 0 0 0 0 0 0 0 0 0 0 0 0 0 0 0 0 -2.20100005960204 0 0 0 0 0 0 0 0
0 0 0 0 0 0 0 0 0 0 0 0 0 0 0 0 0 0 0 0 0 0 0 0 0 0 0 0 0 0 0 0 0.278135648725412 0 0 0 0.149840828598394 0 0 0 0.417350337276334 0 0.140549315805594 0.0274956374591348 0 0.0886339700837946 0 0 0 0
0 0 0 0 0 0 0 0 0 0 0 0 0 0 0 0 0 0 0 0 0 0 0 0 0 0 0 0 0 0 0 0 0 0 0 0.423490426425472 0.71126593108678 0.0890908899450071 -1.05636806292063 0 0 -0.660637323107445 0 0 0 0 0 0 0 0
0 0.171845610868871 0.0669464907813918 0.188730446422571 0 0 0 0 0 0 0 0 0 0 0 0 0 0 0 0 0 0 0 0 0 0 0 0 0 0 0 0 0 0 0 0 0 0 -0.372394167605251 0 0 -0.13526974785422 0 0 0 0 0 0 0 0
0.233276290047299 0 1.33734006132853 0.437799123868506 0.603486047933268 0.0904831391678414 0 0 0 0 0 0 0 0 0 0 0 0 0 0 0 0 0 0 0 0 0 0 0 0 0 0 0 0 0 0 0 0 0 0 0 0 0 0 0 0 0 0 0 0
0 0 0 0 0 0 0 0 0.0729756081270636 0 0 0 0 0 0 0 0 0 0 0 0 0 0 0 0 0 0 0 0 0 0 0 0 0 0 0 0 0 -0.786528414467718 0 0 -0.396292673894161 0 0 0 0 0 0 0 0
0 0 0 0 0 0 0 0 0.417751662671824 0.043400460262912 2.18844130193403 0 0.10721737692178 0 0 0 0 0 0 0 0 0 0 0 0 0 0 0 0 0 0 0 0 0 0 0 0 0 0 0 0 0 0 0 0 0 0 0 0 0
0 0 0 0 0 0 0 0 0 0 0 0.0375937188657679 0.103939714005435 0 0 0 0 0 0 0 0 0 0 0 0 0 0 0 0 0 0 0 0 0 0 0 0 0 0 0 0 0 0 0 0 0 0 0 0 0
0 0 0 0 0 0 0.023949087301587 0.193036777462521 0 0 0 0 0 0 0 0 0 0 0 0 0 0 0 0 0 0 0 0 0 0 0 0 0 0 0 0 0 0 0 0 0 0 0 0 0 0 0 0 0 0
0 0 0 0 0 0 0 0 0 0.0784161666303533 0 0.121006972675823 0.0992114272032171 2.18987386726325 0 0 0 0 0 0 0 0 0 0 0 0 0 0 0 0 0 0 0 0 0 0 0 0 0 0 0 0 0 0 0 0 0 0 0 0
