0.168400489099753
0.877379264543657
5.72094146412517
1.47747583347888
0.653554982654443
0.181785696004077
3.91838925481167
0.198743351022488
0.61662777744847
2.15096673409228
0.580747889745672
0.72133195433116
3.91317708803832
0.883038223682491
0.353039860721225
0.26122560145364
0.382562357636728
1.43502442687977
1.11064923184786
0.282988547863548
0.398966469461527
3.0722690614471
2.36257580430969
0.260797568671935
0.422870676314929
2.8994075172484
3.30140197380189
0.736750585941159
1.80170010236397
1.04366617259265
0.301946213425556
0.249785638297346
6.65827837456666
0.24915385211188
0.379072290402806
0.734219452852485
0.105965797524701
5.34554642613482
3.52170817062335
0.481919443559146
4.55511287863219
3.72467484847161
0.947539128407723
0.745272043021659
0.500030227644958
3.40594001977381
0.570327574229296
1.14122674666487
3.22194385569301
0.243940785972456
