0.925373095779259
0.439429117266031
0.153328113384928
0.290521706058512
0.3369965791882
2.21844442776724
0.340234175848528
0.304697375775406
2.39975228824821
0.960621516969492
1.36249110123102
0.798243824800987
1.14052016748938
2.1221459741428
2.8424695936283
3.72139169744823
2.49827225397471
1.23834693352042
1.01739114766125
3.49914823565663
0.502419866608604
0.411052214907188
1.90747340299473
0.241701579015758
1.8463975441059
2.25476375084807
1.44553212293518
3.50075530302654
1.97167308395912
1.20188138966682
0.964921751395393
0.574734187500787
0.294797146316381
0.702266302221047
0.458476471148786
1.15252148138193
1.31475642706873
2.78482562951286
0.376169648326067
0.253268988516255
1.03333335776336
0.287960062632302
0.759428439000883
3.77792180022763
1.9026009127505
0.39019923736077
0.531467054154038
2.85291562529385
1.07673195332936
0.585147370927434
