0.3543362170169
2.56718810673283
0.75505985501841
0.281521968735232
1.41415129569177
1.69299774474215
0.302491467655582
0.641590046514408
1.26975541099519
0.179049757769452
0.299810832470809
0.545573981276735
1.17509869083683
0.14139412311682
0.461319796572459
2.32265524247103
0.984506870145929
0.67375047458613
1.0344297035539
2.74530352153732
0.680911871563637
0.456006408669116
2.68170479974356
1.17068151522522
2.60395863652585
1.95790216970025
1.91397685953951
0.200601137335574
2.5436539438927
0.528592900105297
0.687880049567771
0.793448100972187
0.382837270090283
1.44525977764426
0.829688703918793
0.195914084722746
1.25450702268929
0.423558175601529
1.66931212922958
0.708622978680717
0.812534869545918
0.641146249333283
0.211757343919054
0.544094494954315
1.25307734988396
0.419436429501852
0.887760459559605
0.351316289873862
0.716849978557387
0.478008123720433
