0 0 0 0 0 0 0 0 0 0 0 0 0 0 -0.193530891173906 0 0 0 0 0 0 0 0 0 0 0 0 0 0 0 0 0 0 0 0 0 -1.99623542211258 0 -0.474575919622479 0 0 0 0 0 0 0 0 0 0 0
0 0 0 0 0 0 0 0 0 0 0 0 0 0 -1.04648640778816 0 0 0 0 0 0 0 0 0 0 0 0 0 0 0 0 0 0 0 0 0 0 0 0 0 0 0 0 0 0 0 0 0 0 0
0 0 0 0 0 0 0 0 0 0 0 0 0 0 0 0 0 0 0 0 0 0 0 0 0 0 0 0 0 0 0 0 0 0 0 0 0 0 -0.255801841383915 0 0 0 0 0 0 0 0 0 0 0
0 0 0 0 0 0 -1.88558626534036 0 0 0 0 0 0 0 0 0 0 0 0 0 0 0 0 0 0 0 0 0 0 -0.275331519311403 0 0 0 0 0 0 -9.02864304318893 0 0 0 0 0 0 0 0 0 0 0 0 0
0 0 0 0 0 -1.04896393428101 -0.63229565444851 0 0 0 0 0 0 0 0 0 -2.1035804041914 0 0 0 0 0 0 0 0 0 0 0 0 0 0 0 0 0 0 0 -0.257314087069838 0 -0.729821163009098 0 0 0 0 0 0 0 0 0 0 0
0 0 0 0 0.214251025397231 0 0 0 0 0 0 0 0 0 0 -0.864275472446995 0 0 0 0 0 0 0 0 0 0 0 0 0 0 0 0 0 0 0 0 0 0 -2.38575629809768 0 0 0 0 0 0 0 0 0 0 0
0 0 0 0.399524383968161 0.128978222268418 0 0 0 0 0 0 0 0 0 0 0 0 0 0 0 0 0 0 0 0 0 0 0 0 0 0 0 0 -0.363051966802238 0 0 -6.08620188352067 0 0 0 0 0 0 0 0 0 0 0 0 0
0 0 0 0 0 0 0 0 0 0 0 0 0 0 0 0 0 0 -0.590295311593703 0 0 0 0 0 0 0 0 0 0 0 0 -0.417114597250799 0 0 -0.197811849286536 -0.662402769908397 0 0 0 0 0 0 0 0 0 -1.02340634746695 0 -0.783925757286457 0 0
0 0 0 0 0 0 0 0 0 0 0 0 0 0 0 0 0 0 0 0 0 0 0 0 0 0 0 0 0 0 0 0 0 0 -1.40086931435196 -1.15366420293324 0 0 0 -0.524337956039248 -0.525403133887459 0 -2.48262852901225 0 0 -2.48478806035313 0 -0.618926257741015 0 0
0 0 0 0 0 0 0 0 0 0 -1.26570169101312 0 0 0 0 0 0 0 0 0 0 0 0 0 0 0 0 0 0 0 0 -2.45554445242398 0 0 -0.667547983734211 0 0 -0.203725767127692 0 0 0 0 0 -0.65963276677428 0 -5.18391819871922 0 0 0 0
0 0 0 0 0 0 0 0 0 0.248775969591917 0 0.297746669353099 0 0 0 0 0 0 0 -0.158919421394444 0 0 0 0 0 0 0 0 0 0 0 -0.699418025844224 0 0 -0.209854675994808 -2.24190717345234 0 0 0 0 0 0 0 0 0 0 0 0 0 0
0 0 0 0 0 0 0 0 0 0 -1.45187199745605 0 0 0 0 0 0 0 0 -1.68165305909592 0 0 -0.494630657417574 0 0 0 0 0 0 0 -1.2278520547188 0 0 0 -0.957681024055418 0 0 -0.376855100417205 0 0 -0.668354762811432 0 0 0 0 0 0 0 0 0
0 0 0 0 0 0 0 0 0 0 0 0 0 0 0 0 0 0 0 0 0 0 -1.03592495124393 0 0 0 0 0 0 0 -3.7762230899655 0 0 0 -0.449501846850075 -1.15187437340736 0 0 0 0 -2.05691212646174 0 0 -2.12233283495747 0 0 0 0 0 0
0 0 0 0 0 0 0 0 0 0 0 0 0 0 0 0 0 0 0 -0.905023849477905 0 0 0 0 0 0 0 0 0 0 0 -2.70323367710518 0 0 -4.20026415772045 -8.21851885006641 0 0 0 0 -0.101441942926275 0 0 -1.12890392995715 0 0 0 0 0 0
0.0373493407961996 0.20056968540261 0 0 0 0 0 0 0 0 0 0 0 0 0 0 0 0 0 -2.57781247155049 0 0 0 0 0 0 0 0 0 0 -0.962311703866817 0 0 0 0 0 0 -1.52040672001113 0 -2.03332832494909 -0.988173219596245 0 0 0 0 0 0 0 0 0
0 0 0 0 0 0.178377183408942 0 0 0 0 0 0 0 0 0 0 0 0 0 0 0 0 0 0 0 0 0 0 0 0 -0.462554187494754 0 0 0 0 0 0 0 0 0 0 0 0 -0.183256666020443 0 0 0 0 0 0
0 0 0 0 0.40071801483947 0 0 0 0 0 0 0 0 0 0 0 0 0 0 0 0 0 0 0 0 -1.41040449653614 0 0 0 0 -0.218769435071167 -0.589652119970756 0 0 0 0 0 0 0 -2.79512295112872 0 0 0 -1.91803174162357 0 0 0 0 0 0
0 0 0 0 0 0 0 0 0 0 0 0 0 0 0 0 0 0 0 0 0 0 0 0 0 0 0 0 0 0 -3.74894835890929 0 0 0 0 0 0 0 0 0 0 -2.93149608870029 0 0 0 0 0 0 0 0
0 0 0 0 0 0 0 0.0982718972099576 0 0 0 0 0 0 0 0 0 0 0 0 0 0 0 0 0 0 0 0 0 0 -5.60886365128837 0 0 0 0 0 0 0 0 0 0 -0.568471467582225 0 -1.21025191182492 0 0 0 0 0 0
0 0 0 0 0 0 0 0 0 0 0.0316435057551502 0.356227313264335 0 0.192939012526585 0.510290212607483 0 0 0 0 0 0 1.6750558932134 0.020426865743001 0.253136731097847 0 0 0 0 0 0 -0.686153001585648 0 0 0 0 0 0 0 0 0 0 -0.525619936369619 0 -0.922054253248233 0 0 0 0 0 -4.04108328766263
0 0 0 0 0 0 0 0 0 0 0 0 0 0 0 0 0 0 0 0 0 0 0 0 0 0 0 0 0 0 0 0 0 0 0 0 0 0 0 0 0 -10.2249879516698 0 -1.472098267385 -5.25506265211733 0 0 0 0 -6.09235186222579
0 0 0 0 0 0 0 0 0 0 0 0 0 0 0 0 0 0 0 -8.58840635405091 0 0 0 0 0 0 0 0 0 0 0 0 0 0 0 0 0 0 0 0 0 0 0 0 -0.949958102122355 0 0 0 -0.841130452278496 -0.613980861353136
0 0 0 0 0 0 0 0 0 0 0 0.0933604912495713 0.204237105218876 0 0 0 0 0 0 -0.100244873584341 0 0 0 0 0 0 0 0 -0.0663681661648321 0 0 0 0 0 0 0 0 0 0 0 0 0 0 -0.901532835887084 -0.873515266091887 0 -3.49261107142564 0 -1.06822868234684 0
0 0 0 0 0 0 0 0 0 0 0 0 0 0 0 0 0 0 0 -1.20032879101891 0 0 0 0 0 0 0 0 0 0 0 0 0 0 0 0 0 0 0 0 0 -1.54418029431082 0 0 -0.146741597679389 0 -0.840579630056885 0 0 0
0 0 0 0 0 0 0 0 0 0 0 0 0 0 0 0 0 0 0 0 0 0 0 0 0 0 0 0 0 0 0 0 0 0 0 0 0 0 0 0 0 -6.65013797306629 0 0 -1.02295756177147 0 0 0 0 -0.131689018047869
0 0 0 0 0 0 0 0 0 0 0 0 0 0 0 0 0.298096259371656 0 0 0 0 0 0 0 0 0 0 0 0 0 0 0 0 0 0 0 0 0 0 0 0 0 0 0 -0.363194849434125 0 -0.69576769708632 0 0 -0.355353640434731
0 0 0 0 0 0 0 0 0 0 0 0 0 0 0 0 0 0 0 0 0 0 0 0 0 0 0 0 0 0 0 0 0 0 0 0 0 0 0 0 0 0 0 0 -0.457570094380484 0 0 0 -3.6692299843709 0
0 0 0 0 0 0 0 0 0 0 0 0 0 0 0 0 0 0 0 0 0 0 0 0 0 0 0 0 0 0 0 0 0 0 0 0 0 0 0 0 0 0 0 0 0 0 0 0 0 -0.785048256653409
0 0 0 0 0 0 0 0 0 0 0 0 0 0 0 0 0 0 0 0 0 0 0.0122183757398004 0 0 0 0 0 0 0 0 0 0 0 0 0 0 0 0 0 0 0 0 0 -0.521373986804714 0 0 0 -0.170894940334675 -1.05013894571266
0 0 0 0.0571986720499866 0 0 0 0 0 0 0 0 0 0 0 0 0 0 0 0 0 0 0 0 0 0 0 0 0 0 0 0 0 0 0 0 0 0 0 0 0 0 0 0 0 0 0 0 0 -0.458625121265041
0 0 0 0 0 0 0 0 0 0 0 0.238378689558864 0.761541882619403 0 0.182204210468188 0.094199659087439 0.0444452970117869 0.731861296371579 1.22077059743769 0.139942589527852 0 0 0 0 0 0 0 0 0 0 0 0 0 0 0 0 0 0 0 0 0 0 0 0 -0.650650953962773 0 0 0 -1.18671694658895 -0.917010765013947
0 0 0 0 0 0 0 0.0757363624747036 0 0.513053721861259 0.144607532826533 0 0 0.537771349233683 0 0 0.118586317421769 0 0 0 0 0 0 0 0 0 0 0 0 0 0 0 0 0 0 0 0 0 0 0 0 0 0 0 -1.56641493147581 0 0 0 0 -0.523782395434082
0 0 0 0 0 0 0 0 0 0 0 0 0 0 0 0 0 0 0 0 0 0 0 0 0 0 0 0 0 0 0 0 0 0 0 0 0 0 0 0 0 0 0 0 -0.178131100526033 0 0 0 -1.10551764098424 0
0 0 0 0 0 0 0.0728064593025857 0 0 0 0 0 0 0 0 0 0 0 0 0 0 0 0 0 0 0 0 0 0 0 0 0 0 0 0 0 0 0 0 0 0 0 0 0 -0.992349701589897 0 0 0 -0.359299541523504 0
0 0 0 0 0 0 0 0.0393817274415541 0.289638137970865 0.131607401851597 0.0408448045861395 0.187289764255836 0.0911972622477082 0.80862684367878 0 0 0 0 0 0 0 0 0 0 0 0 0 0 0 0 0 0 0 0 0 0 0 0 0 0 0 0 0 0 -0.197359543518821 0 0 0 -1.58118966982195 0
0 0 0 0 0 0 0 0.141216344873004 0.232086415644733 0 0.45333751351349 0 0.229161382446925 1.83813031731764 0 0 0 0 0 0 0 0 0 0 0 0 0 0 0 0 0 0 0 0 0 0 0 0 0 0 0 0 0 0 0 0 0 0 -0.384517492448358 0
0.36788320165946 0 0 1.84598588877826 0.0516147498900226 0 1.09098260298951 0 0 0 0 0 0 0 0 0 0 0 0 0 0 0 0 0 0 0 0 0 0 0 0 0 0 0 0 0 0 0 0 0 0 0 0 0 0 0 0 0 0 0
0 0 0 0 0 0 0 0 0 0.0429927876856309 0 0.0801869945932751 0 0 0.304895072265251 0 0 0 0 0 0 0 0 0 0 0 0 0 0 0 0 0 0 0 0 0 0 0 0 0 0 0 0 0 -1.54791603883289 0 0 0 -0.962948197827637 0
0.101539817794363 0 0.049140274468293 0 0.155168339458213 0.490189973139168 0 0 0 0 0 0 0 0 0 0 0 0 0 0 0 0 0 0 0 0 0 0 0 0 0 0 0 0 0 0 0 0 0 0 0 0 0 0 0 0 0 0 0 0
0 0 0 0 0 0 0 0 0.10292170688013 0 0 0 0 0 0.428953734034216 0 0.567651822059511 0 0 0 0 0 0 0 0 0 0 0 0 0 0 0 0 0 0 0 0 0 0 0 0 0 0 0 0 0 0 0 0 0
0 0 0 0 0 0 0 0 0.0970292535658824 0 0 0.126167717395558 0.434975401176855 0.0201422071505532 0.190482441077128 0 0 0 0 0 0 0 0 0 0 0 0 0 0 0 0 0 0 0 0 0 0 0 0 0 0 0 0 0 0 0 0 0 -0.648769734451559 0
0 0 0 0 0 0 0 0 0 0 0 0 0 0 0 0 0 0.601884762308695 0.109429567566918 0.0982823779465053 2.02330076146442 0 0 0.325640732312728 1.20051527456661 0 0 0 0 0 0 0 0 0 0 0 0 0 0 0 0 0 0 0 -0.246924412706759 0 0 0 -0.560377615937687 0
0 0 0 0 0 0 0 0 0.44977788642363 0 0 0 0 0 0 0 0 0 0 0 0 0 0 0 0 0 0 0 0 0 0 0 0 0 0 0 0 0 0 0 0 0 0 0 0 0 0 0 0 0
0 0 0 0 0 0 0 0 0 0.125811662566573 0 0 0.423194493805162 0.224076479900943 0 0.0350642712487067 0.37118566922418 0 0.245600299738138 0.186487191476961 0.305289720488417 0 0.185415282118077 0 0 0 0 0 0 0 0 0 0 0 0 0 0 0 0 0 0 0 0 0 0 0 0 0 0 0
0 0 0 0 0 0 0 0 0 0 0 0 0 0 0 0 0 0 0 0 1.04696424251941 0.1801159497393 0.157811244380923 0.0296874211940512 0.211676089372858 0.0727718652156916 0.091377404762548 0 0.104436225737918 0 0.131500234659933 0.337848331847772 0.033846680140768 0.217221556479305 0.0413470947357238 0 0 0.306404737379942 0 0 0 0.0496508603918479 0 0 0 0 0 0 0 0
0 0 0 0 0 0 0 0.220271140593793 0.482803636409274 0.942973812177097 0 0 0 0 0 0 0 0 0 0 0 0 0 0 0 0 0 0 0 0 0 0 0 0 0 0 0 0 0 0 0 0 0 0 0 0 0 0 0 0
0 0 0 0 0 0 0 0 0 0 0 0 0 0 0 0 0 0 0 0 0 0 0.75662419496524 0.171414608958176 0 0.145740614691826 0 0 0 0 0 0 0 0 0 0 0 0 0 0 0 0 0 0 0 0 0 0 0 0
0 0 0 0 0 0 0 0.155151973990652 0.123831630980871 0 0 0 0 0 0 0 0 0 0 0 0 0 0 0 0 0 0 0 0 0 0 0 0 0 0 0 0 0 0 0 0 0 0 0 0 0 0 0 0 0
0 0 0 0 0 0 0 0 0 0 0 0 0 0 0 0 0 0 0 0 0 0.181690855229332 0.206449277357023 0 0 0 0.644730649646366 0 0.0357859685791939 0 0.238070604934393 0 0.241737764597202 0.0747548768334414 0.29182020113005 0.0785583621117662 0 0.200432558880056 0 0 0.13538732159479 0.112255423642296 0 0 0 0 0 0 0 0
0 0 0 0 0 0 0 0 0 0 0 0 0 0 0 0 0 0 0 0.815927653722464 1.24773287200256 0.122656680804399 0 0 0.0253891276689589 0.0745250918719107 0 0.157020067379092 0.175326249671205 0.104678632357782 0.196041248744256 0.102154301036638 0 0 0 0 0 0 0 0 0 0 0 0 0 0 0 0 0 0
