1.05170335478484
0.544335050398497
0.133198717523783
3.39948031863865
1.23897525865215
0.747387802113603
0.450382698200866
0.34055631648935
2.12788603432043
0.634284859348751
0.723792774159914
3.69752709873445
1.09873168611945
3.01051923496099
0.34783176475644
0.460886964328562
0.156516195728609
1.12817115173923
3.24322492721484
5.52408394915552
1.78961430580798
1.78510069209425
3.14852474550131
0.948963206533818
1.38135197207107
0.605886005896831
2.24077861293326
0.881423514441337
1.7966539008387
0.376396632475249
1.90947577931074
0.193928522569477
0.342111396341608
0.487573856072868
0.496048979658778
0.122988402312106
2.12702900365378
2.0321141881096
0.461842586846158
0.317911379991669
2.48803863223966
3.00041680389166
2.05022130234095
0.396181934286204
0.719694950067625
4.30704788867644
3.07765185564124
0.359772316651231
2.62288954826696
1.03145687479463
