2.49500047577573
0.423409064090644
4.57813775248084
0.421157276892074
1.21186202565369
2.32809339388173
3.93524543612077
0.221759114131666
0.612762237263677
0.80578587639817
0.37893490305757
1.2271140752246
0.862780378660748
1.05132751118779
1.4465906078342
0.783661575752327
0.46608259987596
0.0625788491436038
1.26779620740648
0.304226924020645
3.90738764203293
1.55937699562861
0.174719575513158
2.53891350712642
0.999396437645336
0.0613470398342087
0.599244077950315
0.316278953243632
0.991579945525234
0.35357846790576
2.12856113902115
1.21249203386319
0.341904634282062
1.50463809031549
0.244126736856446
1.73252970218714
1.68665811160291
1.18932764699584
6.07427481803602
0.44765779217719
1.01569085002873
0.199674735456172
0.476426194418442
0.685422998025082
0.524699133733685
0.0523363968265234
0.0706891678351854
1.22209165601135
1.7088508291388
0.880425052339983
