0 -2.57333003812323 0 0 0 0 0 0 0 0 0 0 0 0 -1.76414803411031 0 0 0 0 0 0 0 0 0 0 0 0 0 0 0 0 0 0 0 0 0 0 0 0 0 0 0 0 0 0 0 0 0 0 0
0.458138074297114 0 0 0 0 0 0 0 0 0 0 0 0 0 -7.64604908200717 0 0 0 0 0 0 0 0 0 0 0 0 0 0 0 0 0 0 0 0 0 0 0 0 0 0 0 0 0 0 0 0 0 0 0
0 0 0 0 0 0 0 0 0 0 -1.50490452919614 0 0 -3.49573783297149 -0.159130947382212 0 0 0 0 0 0 0 0 0 0 0 0 0 0 0 0 0 0 0 0 0 0 0 0 0 0 0 0 0 0 0 0 0 0 0
0 0 0 0 0 0 0 -5.16312948395783 0 0 0 0 0 0 0 0 0 0 0 0 0 0 -0.963597097710667 -0.722865007038533 0 0 0 -1.37641129677028 0 0 0 0 0 0 0 0 0 0 0 0 0 0 0 0 0 0 0 0 0 0
0 0 0 0 0 0 -4.04890027927748 0 0 0 0 0 0 0 0 0 0 0 -9.68764603567242 0 0 0 0 -2.4129620530886 0 0 0 0 0 0 0 -0.43049515203605 0 0 0 0 0 0 0 0 0 0 0 0 0 0 0 0 0 0
0 0 0 0 0 0 -2.12601306230226 -1.76799185265913 0 0 0 0 0 0 0 0 0 0 -2.83350052639339 0 0 0 -0.735978718788659 0 0 0 0 -5.11235586726428 0 0 0 -1.55340101245166 0 0 0 0 0 0 0 0 0 0 0 0 0 0 0 0 0 0
0 0 0 0 0.770688717145336 0.404632803232911 0 0 -0.896491139574214 0 0 0 0 0 0 0 0 0 -2.09986096151353 0 0 0 0 0 0 0 0 -1.5621387873084 0 0 0 -2.46907461755237 0 0 0 0 0 0 0 0 0 0 0 0 0 0 -3.94028279054915 0 0 0
0 0 0 1.02962269357986 0 0.314899205694247 0 0 0 0 0 0 0 0 0 0 0 0 0 0 0 0 -0.686222172788614 0 0 0 0 -0.848618668825197 0 0 0 -9.32469355307004 0 0 0 0 0 0 0 0 0 0 0 0 0 0 -1.88936242344788 0 0 0
0 0 0 0 0 0 0.18822785645514 0 0 0 0 0 0 0 0 0 0 0 0 0 0 0 0 0 0 0 0 -1.25529073975266 0 0 0 0 0 0 0 0 0 0 0 0 0 0 0 0 0 0 -1.99999461398189 0 0 0
0 0 0 0 0 0 0 0 0 0 0 0 0 0 0 0 0 0 -1.24530755981981 0 0 0 0 0 0 0 0 -1.51771385375897 0 0 0 -0.817441851223034 0 0 0 0 0 0 0 0 0 0 0 0 0 0 -0.543669593101808 0 0 0
0 0 0.291010789495609 0 0 0 0 0 0 0 0 0 0 0 0 0 0 0 0 0 0 0 0 0 0 0 0 0 0 0 0 0 0 0 0 0 0 0 0 0 0 0 0 0 0 0 0 0 0 0
0 0 0 0 0 0 0 0 0 0 0 0 0 0 0 0 0 0 0 0 0 0 0 0 0 0 0 0 0 0 0 -0.528226058491362 0 0 0 0 0 0 0 0 0 0 0 0 0 0 -0.569442077176912 0 0 0
0 0 0 0 0 0 0 0 0 0 0 0 0 0 0 0 0 -0.889299034819355 0 0 0 0 0 0 0 0 0 -0.940919491115742 0 0 0 0 0 0 0 0 0 0 0 0 0 0 0 0 0 0 0 0 0 0
0 0 0.715760775326666 0 0 0 0 0 0 0 0 0 0 0 0 0 0 0 0 0 0 0 0 0 0 0 -2.04053493429274 0 -0.0647227385511231 0 0 0 0 0 0 0 0 0 0 0 0 0 0 0 0 0 0 0 0 0
0.335119310535382 1.57094014128644 0.0330888702235325 0 0 0 0 0 0 0 0 0 0 0 0 0 0 -3.89806348793552 0 0 0 0 0 0 0 0 0 0 -1.06336225796754 0 0 0 0 0 0 0 0 0 0 0 0 0 0 0 0 0 0 0 0 0
0 0 0 0 0 0 0 0 0 0 0 0 0 0 0 0 0 0 0 0 0 0 0 0 0 0 0 0 0 0 0 0 0 0 0 0 0 0 0 0 0 0 0 0 0 0 -1.95817618695847 0 0 0
0 0 0 0 0 0 0 0 0 0 0 0 0 0 0 0 0 0 0 0 0 0 0 0 0 0 0 0 0 0 0 0 0 0 0 0 0 0 0 0 0 0 0 0 0 0 -1.66467529896029 0 0 0
0 0 0 0 0 0 0 0 0 0 0 0 0.170847182380398 0 0.768032593278834 0 0 0 0 0 0 0 0 0 0 0 0 0 0 0 0 0 0 -2.58792503813267 0 0 0 0 0 0 0 0 0 0 0 0 0 0 0 0
0 0 0 0 1.99548174916771 0.499422174541409 0.455593267769883 0 0 0.249767662580575 0 0 0 0 0 0 0 0 0 0 0 0 0 0 0 0 0 0 0 0 0 0 0 -2.97540572199575 0 0 -0.51473009986804 0 0 0 -0.636878114375803 0 0 0 0 0 -1.09703544610031 0 0 0
0 0 0 0 0 0 0 0 0 0 0 0 0 0 0 0 0 0 0 0 0 0 0 0 0 0 0 0 0 0 -0.701544966322804 0 0 -0.378684945234441 0 0 -1.83479293158588 0 0 0 0 0 0 0 0 0 0 0 0 0
0 0 0 0 0 0 0 0 0 0 0 0 0 0 0 0 0 0 0 0 0 0 0 0 0 0 0 0 0 0 -0.773478786946248 0 0 0 0 0 -2.34028233667241 0 0 0 0 0 0 0 0 0 -0.686381840750288 0 0 0
0 0 0 0 0 0 0 0 0 0 0 0 0 0 0 0 0 0 0 0 0 0 0 0 0 0 0 0 0 0 0 0 0 0 0 0 -0.307378332443764 0 0 0 0 0 0 0 0 0 -0.388449152628013 0 0 0
0 0 0 0.188582249936466 0 0.137334457153974 0 0.139221230701227 0 0 0 0 0 0 0 0 0 0 0 0 0 0 0 0 0 0 0 0 0 0 0 0 0 0 0 0 0 0 0 0 0 0 0 0 0 0 -0.491214569882668 0 0 0
0 0 0 0.151345969451294 0.490330070979604 0 0 0 0 0 0 0 0 0 0 0 0 0 0 0 0 0 0 0 0 0 0 0 0 0 -1.41090446815043 0 0 -0.486651359725122 0 0 0 0 0 0 -0.366952249649109 0 0 0 0 0 0 0 0 0
0 0 0 0 0 0 0 0 0 0 0 0 0 0 0 0 0 0 0 0 0 0 0 0 0 0 0 0 0 0 -1.23623306416902 0 0 -0.835844956771824 0 0 -0.607556982850566 0 0 0 0 0 0 0 0 0 -1.79102067560005 0 -0.43598437651096 0
0 0 0 0 0 0 0 0 0 0 0 0 0 0 0 0 0 0 0 0 0 0 0 0 0 0 0 0 0 -5.1716704338022 -1.13867019703979 0 0 -4.96943502819675 0 0 0 -0.253259979754216 0 0 -0.507195464165275 0 0 0 0 0 -4.07407070507431 0 -0.138233023370346 0
0 0 0 0 0 0 0 0 0 0 0 0 0 0.42184589318562 0 0 0 0 0 0 0 0 0 0 0 0 0 0 0 -0.262730225752287 0 0 0 -1.31579507055361 -2.90900014879437 0 0 -2.38014541808983 0 0 0 0 0 0 0 0 -2.63037754019634 -2.36649566568235 0 0
0 0 0 0.2714367672349 0 1.03277222153049 0.314606714519901 0.165602580217233 0.254825359719818 0.316275371955321 0 0 0.206049086973035 0 0 0 0 0 0 0 0 0 0 0 0 0 0 0 0 0 0 0 0 0 0 -1.9981767721213 0 0 0 0 -1.00185181100999 0 0 0 0 0 0 -2.02387708625861 0 0
0 0 0 0 0 0 0 0 0 0 0 0 0 0.0127146622548153 0.212428450674891 0 0 0 0 0 0 0 0 0 0 0 0 0 0 -0.415995949036517 0 0 0 -5.78507783687047 0 -2.80563750574476 0 0 0 -1.92778529342234 0 0 0 0 0 0 0 0 -0.286680658190585 0
0 0 0 0 0 0 0 0 0 0 0 0 0 0 0 0 0 0 0 0 0 0 0 0 0 1.00917853219571 0.0528383865375597 0 0.0847161908564917 0 0 0 0 -0.365459366342293 0 -1.01954641871588 0 0 0 0 0 0 0 0 0 0 0 -4.0218008910632 -0.852045324328824 0
0 0 0 0 0 0 0 0 0 0 0 0 0 0 0 0 0 0 0 0.145068591369831 0.149304222935955 0 0 0.271109899949788 0.229007231157969 0.224088928355526 0 0 0 0 0 0 0 -1.35708354607275 -0.15796477888929 -1.85956634100941 0 0 0 0 0 0 0 0 0 0 0 0 -0.567530756344063 0
0 0 0 0 0.0870592130793479 0.296449072112998 0.448977986051798 2.08120507230168 0 0.170235365624494 0 0.11115277533746 0 0 0 0 0 0 0 0 0 0 0 0 0 0 0 0 0 0 0 0 0 0 0 -0.529939485637802 0 0 -0.46084075509991 0 0 0 0 0 0 0 0 0 0 0
0 0 0 0 0 0 0 0 0 0 0 0 0 0 0 0 0 0 0 0 0 0 0 0 0 0 0 0 0 0 0 0 0 0 -0.717567195660894 0 0 0 0 0 -0.507158172017057 0 -0.700818090621714 -2.65627000725157 0 0 0 0 0 0
0 0 0 0 0 0 0 0 0 0 0 0 0 0 0 0 0 0.531190782774868 0.61805295974343 0.0716689068242333 0 0 0 0.103989951194699 0.166376620456681 1.04521434584504 0.263635578361724 0 1.09707627349832 0.0730975378497244 0.263462137002719 0 0 0 -1.98820095081852 0 0 0 0 -0.367265816715218 0 0 0 -1.69193040288766 0 0 0 0 0 0
0 0 0 0 0 0 0 0 0 0 0 0 0 0 0 0 0 0 0 0 0 0 0 0 0 0 0.588289740153973 0 0 0 0.0334113386866666 0 0.134804870762608 0.40750079033183 0 0 0.824585334233189 0.487269186171341 0 0 0 0 0 -0.623067030883325 0 0 0 0 -2.14650500173441 0
0 0 0 0 0 0 0 0 0 0 0 0 0 0 0 0 0 0 0 0 0 0 0 0 0 0 0 0.440064166570973 0.569069461939667 0.203060791725242 0.357864286142622 0.102629032960711 0 0 0 0 0 0 0 -1.05820921797904 0 0 0 0 0 0 0 0 -0.0603004428400831 0
0 0 0 0 0 0 0 0 0 0 0 0 0 0 0 0 0 0 0.0966105759929551 0.366584813802995 0.464095738093887 0.0609095041995736 0 0 0.115828733563751 0 0 0 0 0 0 0 0 0 -4.12995910781847 0 0 0 0 0 0 0 0 0 0 0 0 0 0 0
0 0 0 0 0 0 0 0 0 0 0 0 0 0 0 0 0 0 0 0 0 0 0 0 0 0.0514309493201314 0.513915888127982 0 0 0 0 0 0 0 -2.37469022904527 0 0 0 0 0 0 0 0 0 -0.35397660536611 0 0 0 0 0
0 0 0 0 0 0 0 0 0 0 0 0 0 0 0 0 0 0 0 0 0 0 0 0 0 0 0 0 0 0 0 0.0920910034699635 0 0 0 0 0 0 0 0 0 0 0 0 0 0 0 0 -0.710055269151072 0
0 0 0 0 0 0 0 0 0 0 0 0 0 0 0 0 0 0 0 0 0 0 0 0 0 0 0 0 0.364020215530812 0 0 0 0 0.0718795826252661 0 0.199173591460365 0 0 0 0 0 0 0 0 -0.795357184306581 0 0 0 0 0
0 0 0 0 0 0 0 0 0 0 0 0 0 0 0 0 0 0 0.12273600178644 0 0 0 0 0.0736703629111256 0 0.104645236607305 0 0.184249145212856 0 0 0 0 0.0994782406488448 0 0 0 0 0 0 0 0 0 0 0 0 0 0 0 0 0
0 0 0 0 0 0 0 0 0 0 0 0 0 0 0 0 0 0 0 0 0 0 0 0 0 0 0 0 0 0 0 0 0 0 0 0 0 0 0 0 0 0 0 0 -1.87235202338786 -0.918287193081587 0 0 0 0
0 0 0 0 0 0 0 0 0 0 0 0 0 0 0 0 0 0 0 0 0 0 0 0 0 0 0 0 0 0 0 0 0.134578497656586 0 0 0 0 0 0 0 0 0 0 0 -0.465328937325651 -0.512293958736861 0 0 0 0
0 0 0 0 0 0 0 0 0 0 0 0 0 0 0 0 0 0 0 0 0 0 0 0 0 0 0 0 0 0 0 0 0.548869300863511 0.308117982806363 0.125984182334684 0 0 0 0 0 0 0 0 0 0 0 0 0 0 0
0 0 0 0 0 0 0 0 0 0 0 0 0 0 0 0 0 0 0 0 0 0 0 0 0 0 0 0 0 0 0 0 0 0 0 0 0 0.0731241599201551 0 0.15286060372907 0 0.361684825823669 0.0928308994423941 0 0 0 0 0 0 0
0 0 0 0 0 0 0 0 0 0 0 0 0 0 0 0 0 0 0 0 0 0 0 0 0 0 0 0 0 0 0 0 0 0 0 0 0 0 0 0 0 0.162518388155711 0.100905562702451 0 0 0 0.711623275524375 0.746396178052617 0 0.685626818584175
0 0 0 0 0 0 0.830230384453635 0.37454131870137 0.429437123947165 0.112793399971596 0 0.110322296185431 0 0 0 0.370547271232431 0.329837860436516 0 0.214177269584691 0 0.136309518117346 0.074913700322032 0.103145690419164 0 0.364647411489905 0.829312062155293 0.526347253950122 0 0 0 0 0 0 0 0 0 0 0 0 0 0 0 0 0 0 -3.46765264771938 0 0 0 0
0 0 0 0 0 0 0 0 0 0 0 0 0 0 0 0 0 0 0 0 0 0 0 0 0 0 0.428083438100814 0.409730258390326 0 0.761995674614557 0 0 0 0 0 0 0 0 0 0 0 0 0 0 0 -3.79186148145323 0 0 0 0
0 0 0 0 0 0 0 0 0 0 0 0 0 0 0 0 0 0 0 0 0 0 0 0 0.0853810758707631 0.0292961875144679 0 0 0.056340537420015 0.155192020337935 0.102730918557929 0 0 0 0.471423453913361 0.0114642611918818 0 0 0.143256458821344 0 0 0 0 0 0 0 0 0 0 0
0 0 0 0 0 0 0 0 0 0 0 0 0 0 0 0 0 0 0 0 0 0 0 0 0 0 0 0 0 0 0 0 0 0 0 0 0 0 0 0 0 0 0 0 0 -3.40689048791554 0 0 0 0
