0 0 0 0 0 0 0 0 0 -0.366524716595347 0 0 0 0 0 0 0 0 0 0 0 0 0 0 0 0 0 0 0 0 0 0 0 0 0 0 0 0 0 0 0 0 0 0 0 0 0 0 0 0
0 0 0 -5.86918104288766 0 0 0 0 0 -0.465036224128842 0 0 0 0 0 0 0 0 0 0 0 0 0 0 0 0 0 0 0 -0.48584737009952 0 0 0 0 0 0 0 0 0 0 0 0 0 0 0 0 0 0 0 0
0 0 0 -1.22134429698972 0 0 0 0 0 0 0 0 -0.286030991826745 0 0 0 0 0 0 0 0 0 0 0 0 -0.568736403877221 0 0 -0.710379264025203 -0.997481264472923 0 0 0 0 0 0 0 0 0 0 0 0 0 0 0 0 0 0 0 0
0 1.16188103259398 0.220912656362386 0 -1.60729190665504 -1.12930811816122 0 0 0 0 0 0 0 0 -3.16846478771738 0 0 0 0 0 0 0 0 0 0 -0.402338360707934 0 0 0 0 0 0 0 0 0 0 0 0 0 0 0 0 0 0 0 0 0 0 0 0
0 0 0 0.30720315640164 0 0 -8.05856267689786 0 0 0 0 0 -2.86785672267456 0 -0.364794773403155 0 0 0 0 0 0 0 0 0 0 0 0 0 -0.717291153716947 0 0 0 0 0 0 0 0 0 0 0 0 0 0 0 0 0 0 0 0 0
0 0 0 0.226962495903267 0 0 -0.33537513805157 0 0 0 0 0 0 0 0 0 0 0 0 -1.85465988701695 0 0 0 0 0 0 0 0 0 -4.7447901413467 0 0 0 0 0 0 0 0 0 0 0 0 -0.401653561881143 0 0 0 0 0 0 0
0 0 0 0 1.5371723200453 0.0701279412533038 0 0 0 0 0 0 0 0 0 0 0 0 -1.17495378026811 0 0 0 0 0 0 0 -0.448267673713546 0 0 0 0 0 0 0 0 0 0 0 0 0 0 0 -1.95936070749574 0 0 0 0 0 0 0
0 0 0 0 0 0 0 0 0.0677049726455324 0 0 0 0 0 0 0 0 -0.778754184718111 0 0 0 0 0 0 0 0 -0.898447833733925 0 0 -0.349119048301581 0 -1.30156779047882 0 0 -0.525927300899489 0 0 0 0 0 0 0 0 0 0 0 0 0 0 0
0 0 0 0 0 0 0 -0.323121145733631 0 0 0 0 0 -0.885185962932769 0 0 -2.47132576803743 0 0 0 0 0 0 0 0 0 -2.67687087486253 0 0 0 0 0 0 0 -0.72363745128863 0 0 0 0 0 0 0 -6.20274606136944 0 0 0 0 0 0 0
0.0712745212162641 0.0894941054562705 0 0 0 0 0 0 0 0 0 -0.623934710927615 0 0 0 0 -0.419701009801713 -1.65463299941455 0 -1.66687130211518 0 0 0 0 0 0 -0.0552628294218066 0 0 -0.741252523942803 0 0 0 0 0 0 0 0 0 0 0 0 0 0 0 0 0 0 0 0
0 0 0 0 0 0 0 0 0 0 0 0 0 -0.0681919173792866 0 0 -0.400179710071702 -3.59239124049471 0 0 0 0 0 0 0 0 0 0 0 -1.76120730039981 0 -1.39855695684197 0 0 -3.66651492621138 0 0 0 -3.65344700002795 0 0 0 -0.210468052082651 0 0 0 0 0 0 0
0 0 0 0 0 0 0 0 0 0.11009579104819 0 0 0 -0.388634129532993 0 0 -2.54836296608572 -1.62820827038856 0 0 0 0 0 0 0 0 0 0 0 0 0 -0.851176644257475 0 0 0 0 0 0 -1.22331539535922 0 0 0 -2.97217303666039 0 0 0 0 0 0 0
0 0 0.0542282147578846 0 0.519196824351848 0 0 0 0 0 0 0 0 0 0 0 0 -2.6592239552618 0 0 0 0 0 0 0 0 -1.36181381437427 0 0 -2.12002221050675 0 0 0 0 -0.27526684574649 0 0 0 -2.3026114374919 0 0 0 -2.64774009696373 0 0 0 0 0 0 0
0 0 0 0 0 0 0 0 0.173855910997874 0 0.0141965762751611 0.0800724187244764 0 0 0 0 0 0 0 0 0 0 0 0 0 0 -0.921465754226028 0 0 -2.59586220821939 0 0 0 0 0 0 0 0 -1.01336615806156 0 0 0 -0.78376388770254 0 0 0 0 0 0 0
0 0 0 0.708471632269831 0.0760304504890438 0 0 0 0 0 0 0 0 0 0 0 0 0 0 0 0 0 0 0 0 0 0 -1.62888221759314 0 -0.880619143131859 0 -0.0948689160416253 0 0 0 0 0 0 -0.265743862183691 0 0 0 -0.785703485143242 0 0 0 0 0 0 0
0 0 0 0 0 0 0 0 0 0 0 0 0 0 0 0 0 0 0 0 0 0 0 0 0 0 -1.94196478309402 0 0 -1.51340309973091 0 0 0 0 0 0 0 0 0 0 0 0 0 0 0 0 0 0 0 -1.41746039990564
0 0 0 0 0 0 0 0 0.462182702162444 0.0833298895038942 0.0838425205097532 0.549813552530513 0 0 0 0 0 0 0 0 0 0 0 0 0 0 -0.485476799967185 0 0 0 0 -0.911050820190641 0 0 0 0 0 0 -2.10898807404535 0 0 0 0 0 0 0 0 0 0 -1.12114735622974
0 0 0 0 0 0 0 0.153442222838126 0 0.275925796582022 0.736128261888522 0.347981615670191 0.53820870076259 0 0 0 0 0 0 0 0 0 0 0 0 0 0 0 0 0 0 -4.24757680613627 0 -0.137182169677056 0 0 0 0 0 0 0 0 0 0 0 0 0 0 0 -1.13712200084501
0 0 0 0 0 0 0.231799803329186 0 0 0 0 0 0 0 0 0 0 0 0 0 0 0 0 -0.561936085924317 0 0 0 0 0 0 0 0 0 -0.227132845400709 0 0 0 0 0 0 0 0 0 0 0 0 0 0 0 0
0 0 0 0 0 0.359531059346814 0 0 0 0.360700274693066 0 0 0 0 0 0 0 0 0 0 0 0 0 -1.88574821289095 0 0 0 0 0 0 0 -0.884620560311645 0 0 0 0 0 0 0 0 0 0 0 0 0 0 0 0 -0.768915507663527 -5.0944573161803
0 0 0 0 0 0 0 0 0 0 0 0 0 0 0 0 0 0 0 0 0 0 0 -0.0794447769137543 0 0 0 0 0 0 0 -2.29943465654494 0 0 0 0 0 0 0 0 0 0 0 0 0 0 0 0 -0.626954115284892 -0.745134763839112
0 0 0 0 0 0 0 0 0 0 0 0 0 0 0 0 0 0 0 0 0 0 0 0 0 0 0 0 0 0 -1.36229245841477 0 -1.07297082082593 0 0 0 0 0 0 0 0 0 0 0 0 0 0 0 -0.488403407295075 0
0 0 0 0 0 0 0 0 0 0 0 0 0 0 0 0 0 0 0 0 0 0 0 0 0 0 0 0 0 0 0 -1.36531008531834 0 0 0 0 0 0 0 -3.57849592455523 0 0 0 0 0 0 0 0 0 -0.540706000873691
0 0 0 0 0 0 0 0 0 0 0 0 0 0 0 0 0 0 0.110249554269039 0.376659477474991 0.0146199836188718 0 0 0 0 0 0 0 0 0 -0.689378918491314 0 0 0 0 0 0 0 0 0 0 0 0 0 0 0 -0.624272335533912 0 -0.726368970121383 0
0 0 0 0 0 0 0 0 0 0 0 0 0 0 0 0 0 0 0 0 0 0 0 0 0 0 0 0 0 0 0 -0.795040608664409 0 0 0 0 0 0 0 0 0 0 0 0 0 -0.169424727414472 -0.162016241299116 0 -0.553745703070742 -0.494152852847449
0 0 0.118617381557338 0.0814583338336739 0 0 0 0 0 0 0 0 0 0 0 0 0 0 0 0 0 0 0 0 0 0 0 0 0 0 0 0 0 0 0 0 0 0 0 -0.322576245466678 0 0 0 0 0 -3.30810772110063 0 0 0 0
0 0 0 0 0 0 0.0796393735161353 0.179454420337355 0.533616333664657 0.0115935319760065 0 0 0.277970888064815 0.190491044729246 0 0.377204249381317 0.0913243212360602 0 0 0 0 0 0 0 0 0 0 0 0 0 0 0 0 0 0 0 0 0 0 -1.59998762392127 0 0 0 0 0 0 0 -3.10575952555788 0 -1.07777785499131
0 0 0 0 0 0 0 0 0 0 0 0 0 0 0.313894407285743 0 0 0 0 0 0 0 0 0 0 0 0 0 0 0 0 0 0 0 0 0 0 0 0 -2.22024427940034 0 0 0 0 0 0 0 -0.233483409693848 0 -4.49176400468915
0 0 0.141834282101119 0 0.140606043564552 0 0 0 0 0 0 0 0 0 0 0 0 0 0 0 0 0 0 0 0 0 0 0 0 0 0 0 0 0 0 0 0 0 0 -0.321709068262997 0 0 0 -3.90621714375275 0 0 0 -1.07352546691221 0 -1.38644398721625
0 0.0955942312659144 0.187868563418546 0 0 0.93381744797012 0 0.071830096956 0 0.146857511667099 0.342932355177113 0 0.422368177652978 0.524901721637486 0.191292057798648 0.291425235809458 0 0 0 0 0 0 0 0 0 0 0 0 0 0 0 0 0 0 0 0 0 0 0 0 0 0 0 -0.919699924752452 0 0 0 -0.558523195073835 0 0
0 0 0 0 0 0 0 0 0 0 0 0 0 0 0 0 0 0 0 0 0 0.304976186605223 0 0.148899734418792 0 0 0 0 0 0 0 0 0 0 0 0 0 0 0 -0.180471850919519 0 0 0 0 0 0 0 0 0 0
0 0 0 0 0 0 0 0.261025450630569 0 0 0.298751453728262 0.156601111154916 0 0 0.020562131112909 0 0.18427990893203 0.833598086937415 0 0.174427654099623 0.464101791425459 0 0.292404955365695 0 0.170808601261259 0 0 0 0 0 0 0 0 0 0 0 -0.695403525890672 0 0 -0.28372671838145 0 0 0 0 0 0 0 0 0 0
0 0 0 0 0 0 0 0 0 0 0 0 0 0 0 0 0 0 0 0 0 0.198998370136134 0 0 0 0 0 0 0 0 0 0 0 0 0 0 0 0 0 0 0 0 0 0 0 0 0 0 0 0
0 0 0 0 0 0 0 0 0 0 0 0 0 0 0 0 0 0.0302675566482643 0.0449994383491989 0 0 0 0 0 0 0 0 0 0 0 0 0 0 0 0 0 -0.456801876724541 0 0 -0.863341814234279 0 0 0 0 0 0 0 0 0 0
0 0 0 0 0 0 0 0.11345424818275 0.162995951642349 0 0.754785712539733 0 0.0508447447370769 0 0 0 0 0 0 0 0 0 0 0 0 0 0 0 0 0 0 0 0 0 0 0 -2.07334790243457 0 0 0 0 0 0 0 0 0 0 -1.06186923142838 0 0
0 0 0 0 0 0 0 0 0 0 0 0 0 0 0 0 0 0 0 0 0 0 0 0 0 0 0 0 0 0 0 0 0 0 0 0 0 0 0 0 0 0 0 0 -0.128500104584654 0 0 -0.307616511487825 0 0
0 0 0 0 0 0 0 0 0 0 0 0 0 0 0 0 0 0 0 0 0 0 0 0 0 0 0 0 0 0 0 0.128838725972034 0 0.0917544908624589 0.423197661011083 0 0 -2.14831047196795 0 -0.697692861700208 0 0 0 0 -1.12376845577009 0 0 0 0 0
0 0 0 0 0 0 0 0 0 0 0 0 0 0 0 0 0 0 0 0 0 0 0 0 0 0 0 0 0 0 0 0 0 0 0 0 0.44896061146466 0 0 -2.80230051222847 -9.83860272795275 0 0 0 -2.62582064162127 0 0 0 0 0
0 0 0 0 0 0 0 0 0 0 0.770054026614357 0.237005079209829 0.483555690264121 0.2007517743989 0.0532464851460602 0 0.394848670430147 0 0 0 0 0 0 0 0 0 0 0 0 0 0 0 0 0 0 0 0 0 0 0 -1.6775032178295 0 0 0 0 0 0 0 0 0
0 0 0 0 0 0 0 0 0 0 0 0 0 0 0 0 0 0 0 0 0 0 0.729572220951687 0 0 0.0613990055648432 0.326316011866599 0.411811275384942 0.0698000211389334 0 0.0365370277160172 0.0565594315635183 0 0.169907350265039 0 0 0.148617417203033 0.548056587020414 0 0 0 0 0 0 -0.895646422939507 0 0 0 0 0
0 0 0 0 0 0 0 0 0 0 0 0 0 0 0 0 0 0 0 0 0 0 0 0 0 0 0 0 0 0 0 0 0 0 0 0 0 2.01350470110372 0.315387978745973 0 0 0.0763679524379059 0 0.102594731137148 0 0 0 0 0 0
0 0 0 0 0 0 0 0 0 0 0 0 0 0 0 0 0 0 0 0 0 0 0 0 0 0 0 0 0 0 0 0 0 0 0 0 0 0 0 0 -0.370286853968399 0 0 0 -1.10615065608705 0 0 0 0 0
0 0 0 0 0 0.081151856410474 0.374876451168405 0 1.21632401785472 0 0.0404911628109291 0.629934794317405 0.581878942116221 0.170623627052868 0.164581667987293 0 0 0 0 0 0 0 0 0 0 0 0 0 0 0 0 0 0 0 0 0 0 0 0 0 0 0 0 0 -1.75099448930353 0 0 0 0 0
0 0 0 0 0 0 0 0 0 0 0 0 0 0 0 0 0 0 0 0 0 0 0 0 0 0 0 0 0.785022799268772 0.188044724723486 0 0 0 0 0 0 0 0 0 0 -0.471102098950585 0 0 0 -2.40297937042347 0 0 0 0 0
0 0 0 0 0 0 0 0 0 0 0 0 0 0 0 0 0 0 0 0 0 0 0 0 0 0 0 0 0 0 0 0 0 0 0 0.0261156150180197 0.213741680580306 0.512947704663829 0 0.176364758172263 0 0.191419725776715 0.336481748621967 0.419265882631481 0 0 0 0 0 0
0 0 0 0 0 0 0 0 0 0 0 0 0 0 0 0 0 0 0 0 0 0 0 0 0.0361905904958836 0.682432602191132 0 0 0 0 0 0 0 0 0 0 0 0 0 0 0 0 0 0 0 0 0 0 0 0
0 0 0 0 0 0 0 0 0 0 0 0 0 0 0 0 0 0 0 0 0 0 0 0.123319227921754 0.0334592247147951 0 0 0 0 0 0 0 0 0 0 0 0 0 0 0 0 0 0 0 0 0 0 0 0 0
0 0 0 0 0 0 0 0 0 0 0 0 0 0 0 0 0 0 0 0 0 0 0 0 0 0 0.644035384784432 0.0440966582407864 0.235773463331268 0.117361418402436 0 0 0 0 0.209949328414098 0.0665716591741386 0 0 0 0 0 0 0 0 0 0 0 0 0 0
0 0 0 0 0 0 0 0 0 0 0 0 0 0 0 0 0 0 0 0.155655834454398 0.130749319245201 0.0981692129172378 0 0.146500887045745 0.103678314943003 0 0 0 0 0 0 0 0 0 0 0 0 0 0 0 0 0 0 0 0 0 0 0 0 0
0 0 0 0 0 0 0 0 0 0 0 0 0 0 0 0.263029115544985 0.237661635137872 0.241755887184969 0 1.06845998312818 0.150652292293576 0 0.113159224217163 0 0.100902898714937 0 0.220114053736187 0.851065114144922 0.281021807413397 0 0 0 0 0 0 0 0 0 0 0 0 0 0 0 0 0 0 0 0 0
