0 0 0 0 0 0 0 0 0 0 0 0 0 0 0 0 0 0 0 0 0 0 0 0 0 0 0 0 0 0 0 0 0 0 0 0 0 0 0 0 0 0 0 0 0 0 0 0 0 -0.665072527525155
0 0 0 0 0 0 0 0 0 0 0 0 0 0 0 0 0 0 0 0 -0.958997570303261 0 0 0 0 0 0 0 0 0 0 0 0 0 0 0 0 0 0 0 0 0 0 0 0 0 0 0 0 0
0 0 0 -4.70654783079828 0 0 -0.418329363713705 0 0 0 0 0 0 0 0 0 0 0 0 0 -1.05337246271531 0 0 0 0 -1.62887678061466 0 0 0 0 0 0 0 0 0 0 0 0 0 0 0 0 0 0 0 0 0 0 0 0
0 0 0.860243721160294 0 0 0 0 0 0 0 0 0 0 0 0 0 0 0 0 0 -1.06181922899478 0 0 0 0 -0.836360680319531 0 0 0 0 0 0 0 0 0 0 0 0 0 0 0 0 0 0 0 0 0 0 0 0
0 0 0 0 0 0 0 0 0 0 0 0 0 0 0 0 0 0 0 0 -1.25965564849326 0 0 0 0 -0.320284260993447 0 0 0 0 0 0 0 0 0 -0.181509766654722 0 0 0 0 0 0 0 0 0 0 0 0 0 0
0 0 0 0 0 0 0 0 0 0 0 0 0 0 0 0 0 0 0 0 -0.301741679790283 0 0 0 0 0 0 0 0 0 0 0 0 0 0 0 0 0 0 0 0 0 0 0 0 0 0 0 0 0
0 0 0.0915020589015781 0 0 0 0 0 0 0 0 0 0 0 0 0 0 0 0 0 0 0 0 0 0 0 0 -1.01388812179848 0 0 0 0 0 0 0 0 0 0 0 0 0 0 0 0 0 0 0 0 0 -1.38440071453351
0 0 0 0 0 0 0 0 0 0 -2.08280885318336 0 0 0 0 0 0 0 0 0 -0.657024836486714 0 0 0 0 0 0 -2.9625199898935 0 0 0 0 0 0 0 0 0 0 0 0 0 0 0 0 0 0 0 0 0 -2.28181913714066
0 0 0 0 0 0 0 0 0 -0.360075041793837 -2.77360386455329 0 0 0 0 0 0 0 0 0 -3.09891031251967 0 0 0 0 0 0 -1.52601244717067 0 0 0 0 0 0 0 0 0 0 0 0 0 0 0 0 0 0 0 0 0 -0.536810273596761
0 0 0 0 0 0 0 0 0.0762930460021114 0 0 0 0 0 0 0 0 -0.10510139906156 0 0 0 0 0 0 0 0 -1.33154934119526 -1.20086095030752 0 0 0 0 0 -5.18576363470254 0 0 0 0 0 0 0 0 0 0 0 0 0 0 0 0
0 0 0 0 0 0 0 0.421868788428477 0.538283628695169 0 0 -1.18611546281329 0 0 0 0 0 0 0 0 0 0 0 0 0 0 0 0 0 0 0 -1.67652003781809 0 -0.289292306170549 0 0 0 0 0 0 0 0 0 0 0 0 0 0 0 0
0 0 0 0 0 0 0 0 0 0 0.265719309936422 0 0 0 0 0 0 0 0 0 0 0 0 -0.0824405504895621 0 0 0 -5.1466024632182 0 0 0 0 0 0 0 0 0 0 0 0 0 0 0 0 0 0 0 -0.667759163199165 0 0
0 0 0 0 0 0 0 0 0 0 0 0 0 0 0 0 0 -0.351270958688204 0 -1.58595609778497 0 0 0 -1.57271981269905 0 0 0 -0.491044402449299 0 0 0 0 0 0 0 0 0 0 0 0 0 0 0 0 0 0 0 -0.347811814732745 0 0
0 0 0 0 0 0 0 0 0 0 0 0 0 0 0 0 0 -1.14522122071238 0 0 0 0 -1.13077763984233 -0.65739632385127 0 0 0 0 0 0 0 0 -0.266722814271835 0 0 0 0 0 0 0 0 0 0 0 0 0 0 -0.456513742279711 0 0
0 0 0 0 0 0 0 0 0 0 0 0 0 0 0 0 0 -3.01380415395587 -1.01870292071298 -0.303679421527717 0 0 0 0 0 0 0 0 0 0 0 0 -2.31481853057824 0 0 0 0 0 0 0 0 0 0 0 0 0 0 0 0 0
0 0 0 0 0 0 0 0 0 0 0 0 0 0 0 0 0 -1.7050934256613 0 0 0 0 -7.35433479108489 -1.91336211974977 0 0 0 0 0 0 0 0 0 0 0 0 0 0 0 0 0 0 0 0 0 -2.84099386443824 0 0 0 0
0 0 0 0 0 0 0 0 0 0 0 0 0 0 0 0 0 0 0 0 0 0 0 -2.01956375162983 0 0 0 0 0 0 0 0 0 0 0 0 0 0 0 0 0 0 0 0 0 -0.207711146147545 0 0 0 0
0 0 0 0 0 0 0 0 0 0.0203932898894309 0 0 0.0699731033862926 0.243666876108753 0.549392278157882 0.350706497121308 0 0 0 0 0 0 -0.163158662086183 -0.84482367079582 0 0 0 0 0 0 0 0 0 0 0 0 0 0 0 0 0 0 0 0 0 0 0 0 0 0
0 0 0 0 0 0 0 0 0 0 0 0 0 0 0.205971781489121 0 0 0 0 0 0 0 -1.17403027821704 0 -6.29953716977035 0 0 0 0 0 0 0 0 0 -5.13670340161612 0 0 -0.0998481192914478 0 0 0 -0.581247518512706 0 0 0 -0.200982486567962 0 0 0 0
0 0 0 0 0 0 0 0 0 0 0 0 0.297994274480661 0 0.0600758812240249 0 0 0 0 0 0 0 -1.8669851087311 0 -10.8313128256199 0 0 0 0 0 0 0 0 0 0 0 0 -0.36700128733127 0 0 0 -1.58571607954903 0 0 0 0 0 0 0 0
0 0.18997374364549 0.198403926022958 0.218167487269727 0.218168989755754 0.0567123078769568 0 0.12178050488597 0.578995291190029 0 0 0 0 0 0 0 0 0 0 0 0 0 0 0 0 0 0 0 0 0 0 0 0 0 0 0 0 -0.798486797253124 0 0 0 -0.337892950985117 0 0 0 0 0 0 0 0
0 0 0 0 0 0 0 0 0 0 0 0 0 0 0 0 0 0 0 0 0 0 -1.04185018346023 0 0 0 0 0 0 0 0 0 0 0 -0.876132007005769 0 0 0 0 0 0 0 0 0 0 -2.21413352713628 0 0 0 0
0 0 0 0 0 0 0 0 0 0 0 0 0 0.246819570723566 0 1.4313982066653 0 0.0326420229980097 0.218407040373956 0.391477918182049 0 0.196718405028108 0 0 0 0 0 0 0 0 0 0 0 0 0 0 0 0 0 0 0 0 0 0 0 -3.88201899128359 -5.22648538984075 0 0 0
0 0 0 0 0 0 0 0 0 0 0 0.0153286875717518 0.333640862865923 0.138686305621835 0 0.356812130009073 0.391839799644818 0.171535564276169 0 0 0 0 0 0 0 0 0 0 0 0 0 0 0 0 0 0 0 0 0 0 0 0 0 0 0 0 -4.89483720126195 0 0 0
0 0 0 0 0 0 0 0 0 0 0 0 0 0 0 0 0 0 1.13696379603504 2.16729880540759 0 0 0 0 0 0 0 0 0 0 -1.01429692611866 0 0 0 0 0 0 0 0 0 0 0 0 0 0 0 -0.560485641783805 0 -1.66453345449628 0
0 0 0.303971135585131 0.168316144301377 0.0635291506487835 0 0 0 0 0 0 0 0 0 0 0 0 0 0 0 0 0 0 0 0 0 0 0 0 0 0 0 0 0 0 0 0 0 -2.9936724605611 0 -2.38750113683754 0 -0.507210262861808 0 0 0 -8.84501535376509 0 0 0
0 0 0 0 0 0 0 0 0 0.268869552319449 0 0 0 0 0 0 0 0 0 0 0 0 0 0 0 0 0 0 0 0 -1.13164595776184 0 0 0 0 0 0 0 0 0 -2.5153061716891 0 0 0 0 0 -1.36661172189003 0 -2.6992800817043 0
0 0 0 0 0 0 0.22023051517161 0.579623827444479 0.316223246493743 0.247072972684194 0 1.02817327002411 0.0978749078998273 0 0 0 0 0 0 0 0 0 0 0 0 0 0 0 0 0 0 0 0 0 0 0 0 0 0 0 -0.619248460762852 0 -0.280091078385656 0 0 0 -0.518283879303849 0 -0.21360422622018 0
0 0 0 0 0 0 0 0 0 0 0 0 0 0 0 0 0 0 0 0 0 0 0 0 0 0 0 0 0 0 -0.334078189493684 0 0 0 0 0 0 0 -0.547425509504745 0 -1.54699658456266 0 -0.188889656620826 0 0 0 0 0 0 0
0 0 0 0 0 0 0 0 0 0 0 0 0 0 0 0 0 0 0 0 0 0 0 0 0 0 0 0 0 0 0 0 0 0 0 0 0 0 -0.761098825280933 0 -1.01200906320617 0 -0.134674154314746 -2.61467306326527 0 0 -0.18088888170717 0 0 0
0 0 0 0 0 0 0 0 0 0 0 0 0 0 0 0 0 0 0 0 0 0 0 0 0.204292903118698 0 0.227025837758121 0 0.0675571004146833 0 0 0 0.0969735256869191 0.12646123871964 0 0.0635091794483507 0 0 0 0 -3.0532413570452 0 0 0 0 0 -2.56219022657133 0 0 0
0 0 0 0 0 0 0 0 0 0 0.324703014491609 0 0 0 0 0 0 0 0 0 0 0 0 0 0 0 0 0 0 0 0 0 0 0 0 0 0 0 -0.620147739502918 0 0 0 0 0 0 0 -1.455146491084 0 0 0
0 0 0 0 0 0 0 0 0 0 0 0 0 0.0512500289844695 0.467379072021215 0 0 0 0 0 0 0 0 0 0 0 0 0 0 0 -0.527969170908296 0 0 0 0 0 0 0 -0.685044522367788 0 -2.18707456633409 0 0 0 0 0 -1.32271905416676 0 0 0
0 0 0 0 0 0 0 0 0 1.04118884957123 0.0545076642702465 0 0 0 0 0 0 0 0 0 0 0 0 0 0 0 0 0 0 0 -0.658031095751598 0 0 0 0 0 0 0 0 0 0 0 0 0 0 0 -0.554210782110668 0 0 0
0 0 0 0 0 0 0 0 0 0 0 0 0 0 0 0 0 0 1.01636160219834 0 0 0.173475766870287 0 0 0 0 0 0 0 0 0 0 0 0 0 0 0 0 0 0 -0.365689068984687 0 -0.858007414968165 0 0 0 -6.18691560497932 0 0 0
0 0 0 0 0.0346262667065239 0 0 0 0 0 0 0 0 0 0 0 0 0 0 0 0 0 0 0 0 0 0 0 0 0 -0.311115254234367 0 0 0 0 0 0 0 0 -0.1856926096689 0 0 -3.1363463511357 0 0 0 -1.59558681328236 0 0 0
0 0 0 0 0 0 0 0 0 0 0 0 0 0 0 0 0 0 0 0 0 0 0 0 0 0 0 0 0 0 0 0 0 0 0 0 0 0 0 0 0 0 -1.04660269790467 0 0 0 0 0 0 0
0 0 0 0 0 0 0 0 0 0 0 0 0 0 0 0 0 0 0.0184577430898832 0.0806259940434931 0.143953465095082 0 0 0 0 0 0 0 0 0 0 0 0 0 0 0 0 0 0 0 0 0 -0.448289516496717 0 0 0 -0.52231656595047 0 0 0
0 0 0 0 0 0 0 0 0 0 0 0 0 0 0 0 0 0 0 0 0 0 0 0 0 0.604733841818647 0 0 0.108902991932149 0.165359416044986 0 0.123253031001629 0.132149244834724 0 0 0 0 0 0 0 0 0 -0.59842608083199 0 0 0 -0.72288869357207 0 0 0
0 0 0 0 0 0 0 0 0 0 0 0 0 0 0 0 0 0 0 0 0 0 0 0 0 0 0 0 0 0 0 0 0 0 0 0.0371202106480843 0 0 0 0 0 0 -3.10704516249208 0 0 0 0 0 0 0
0 0 0 0 0 0 0 0 0 0 0 0 0 0 0 0 0 0 0 0 0 0 0 0 0 0.485286875317275 0.471932147622906 0.124670383633318 0.285326676604897 0.219115832148334 0.58926045749527 0 0.433447878385125 0 0.0773625587187579 0 0 0 0 0 0 0 0 0 0 0 -0.816535169871897 0 0 0
0 0 0 0 0 0 0 0 0 0 0 0 0 0 0 0 0 0 0.121328658351398 0.358899301232209 0.0674082867482044 0 0 0 0 0 0 0 0 0 0 0 0 0 0 0 0 0 0 0 0 0 0 0 0 0 -1.67648846756163 0 0 0
0 0 0 0 0 0 0 0 0 0 0 0 0 0 0 0 0 0 0 0 0 0 0 0 0 0.0974141745062314 0 0.0543438293530493 0.0363508171543588 0.0267181033847455 0 0 0 0 0.158405503603003 0.607095753863306 0.224926126719378 0.094399045409262 0.117640562254873 0.5876553968813 0 0 0 0.281484563785755 0 0 -0.594586676999376 0 0 0
0 0 0 0 0 0 0 0 0 0 0 0 0 0 0 0 0 0 0 0 0 0 0 0 0 0 0 0 0 0.49185809440468 0 0 0 0 0 0 0 0 0 0 0 0 -1.39332299543962 0 0 0 -2.63584556083749 0 0 0
0 0 0 0 0 0 0 0 0 0 0 0 0 0 0 0 0 0 0 0 0 0 0 0 0 0 0 0 0 0 0 0 0 0 0 0 0 0 0 0 0 0 0 0 0 0 -0.94769152691563 0 0 0
0 0 0 0 0 0 0 0 0 0 0 0 0 0 0 0.574259707662353 0.0424319821398149 0 0.0404269777209087 0 0 0.467561651874838 0.836831725193867 0 0 0 0 0 0 0 0 0 0 0 0 0 0 0 0 0 0 0 0 0 0 0 0 0 0 0
0 0 0 0 0 0 0 0 0 0 0 0 0 0 0 0 0 0 0 0 0 0 0.958421270228901 0.963867649557497 0.107926516920623 1.73108887350337 0.268393318302933 0.107194968413633 0 0.0356232425661414 0.512123321527289 0.288824935365674 0.259455366958399 0.106114203025303 1.29094860682605 0.30782941195932 0 0.105919227268536 0.142154439394026 0 0.163233173658315 0.340815213539487 0.117768239270353 0.512301558371366 0.187245916616804 0 0 0 0 0
0 0 0 0 0 0 0 0 0 0 0 0.116364966284122 0.066916490141373 0.0958810468342851 0 0 0 0 0 0 0 0 0 0 0 0 0 0 0 0 0 0 0 0 0 0 0 0 0 0 0 0 0 0 0 0 0 0 0 0
0 0 0 0 0 0 0 0 0 0 0 0 0 0 0 0 0 0 0 0 0 0 0 0 0.33611054886371 0 0.472385945823604 0.0420698651623537 0 0 0 0 0 0 0 0 0 0 0 0 0 0 0 0 0 0 0 0 0 0
0.139007557211923 0 0 0 0 0 0.26511924264299 0.448411477205737 0.110146806045164 0 0 0 0 0 0 0 0 0 0 0 0 0 0 0 0 0 0 0 0 0 0 0 0 0 0 0 0 0 0 0 0 0 0 0 0 0 0 0 0 0
