0.832973694921451
1.1048252124786
0.173608321420913
1.00982018456501
0.432539518943529
0.212702273728019
2.05176198520926
0.542423492609517
3.6047195365623
0.993127942467223
0.0982876177033162
0.28733505387456
2.29765121851909
0.517920484839675
0.873064802898214
1.16221261028595
1.23036498408692
0.199666540379988
2.45242339820067
2.43553202810123
1.21856294332388
0.0718657702482411
1.58389499297917
0.153820079331781
0.461613030351156
2.14170624505642
0.386906161080833
0.213669992523276
0.130910489706524
2.30019308910932
2.11938304107177
3.42722275627375
0.493513793415014
2.9378425796952
1.53193197673709
4.12535492484692
1.02536812271744
2.52238350430299
2.52215663406011
0.991202718497358
2.01981569948147
0.284582871890429
0.220096425117401
0.952898207339308
1.36903747378433
0.250991562340773
2.33510735842813
0.272390894704246
0.494414292481171
1.74979459331653
