0.862503410715715
0.574595835490887
0.291984376496351
0.475626383136747
0.132277256087702
0.698826610279337
2.0844503548307
0.9203297093407
1.47207439229181
1.70827069434829
0.459523773924603
0.258381583232096
0.480487457592546
0.769925092514391
2.4500529804948
0.781876889864885
1.74890588546811
2.57889965519238
3.17182884757981
0.585297560696564
0.698387669318031
1.05023842235507
0.516253734083178
0.217254083536919
0.925046020556869
1.6777328261507
2.26258504864803
0.727556264185732
1.19341119329411
1.97151456773336
0.984447321408069
0.787529673317976
1.75851934697179
2.50562743313762
2.3886664649681
0.39196753592224
1.29671195783675
1.31033410944856
3.61029235746417
1.03963501920974
0.3525241914061
0.951518399113556
1.30051599769784
1.35333063348051
0.565356643895733
0.39098551356236
0.630851289677288
0.568220254889625
2.40302268811838
0.766593047419889
