0 0 0 0 0 0 0 -0.965005840925498 0 -1.12170150854858 0 0 0 0 0 0 0 0 0 0 0 0 0 0 0 0 0 0 0 0 0 0 0 0 0 0 0 0 0 0 0 0 0 0 0 0 0 0 0 0
0 0 0 0 0 0 0 0 -1.92790201033841 0 0 0 0 0 0 0 0 0 0 0 0 0 0 0 0 0 0 0 0 0 0 0 0 0 0 0 0 0 0 0 0 0 0 0 0 0 0 0 0 0
0 0 0 0 0 0 0 0 0 -1.05419876796349 0 0 0 0 0 0 0 0 0 0 0 0 0 0 0 0 0 0 0 0 0 0 0 0 0 0 0 0 0 0 0 0 0 0 0 0 0 0 0 0
0 0 0 0 0 0 0 0 0 -0.127310454626472 0 0 0 0 0 0 -0.587154011400036 0 0 0 0 0 0 -2.22059127149134 0 0 0 0 0 0 -1.23616316617998 0 0 0 0 0 0 0 0 0 0 0 0 0 0 0 0 0 0 0
0 0 0 0 0 0 0 0 0 0 0 0 0 0 0 0 0 0 0 0 0 0 0 -0.668747356505742 0 0 0 0 0 0 -1.07225310161227 0 0 0 0 0 0 0 0 0 0 0 0 0 0 0 0 0 0 0
0 0 0 0 0 0 0 0 0 0 0 0 0 0 0 0 -1.00495161594634 0 0 0 0 0 0 -1.65426178776818 0 0 0 0 0 0 0 0 0 0 0 0 0 0 0 0 0 0 0 0 0 0 0 0 0 0
0 0 0 0 0 0 0 0 0 0 0 0 0 0 0 0 -1.74319560729483 0 -0.756754968945343 0 0 0 0 0 0 0 0 0 0 0 0 0 0 0 0 0 0 0 0 0 0 0 0 0 0 0 0 0 0 0
0.218449066333316 0 0 0 0 0 0 0 0 0 0 0 -10.1530124250849 0 0 0 0 0 -2.23621032551102 0 0 0 0 0 0 0 0 0 0 0 0 0 0 0 0 0 0 0 0 -1.21975996125421 0 0 0 0 0 0 0 0 0 0
0 0.361881123463457 0 0 0 0 0 0 0 0 -0.882534442117228 0 -0.140002953867538 0 0 0 0 0 0 0 0 0 0 0 0 0 0 0 0 0 0 0 0 0 0 0 0 0 0 0 0 0 0 0 0 0 0 0 0 0
0.229020822979672 0 0.210937445097425 0.0252337943804805 0 0 0 0 0 0 0 0 0 0 -1.39077370231992 0 0 0 0 0 0 0 0 0 0 0 0 0 0 0 -0.86770552296747 0 0 0 0 0 0 0 0 -1.26808046557371 0 0 0 0 0 0 0 0 0 0
0 0 0 0 0 0 0 0 0.179390149374307 0 0 0 0 0 -0.844170118339061 0 0 -2.07786440471748 0 0 0 0 0 0 0 0 -3.7191082670947 0 0 0 -1.98318468480795 0 0 0 0 0 0 0 0 0 0 0 0 0 0 0 0 0 0 0
0 0 0 0 0 0 0 0 0 0 0 0 0 0 0 0 0 0 0 0 0 0 0 0 0 0 -0.244753373507601 0 0 0 0 0 0 0 0 0 -0.0644313367603595 0 0 0 -1.30562751179024 -0.114071341098516 0 0 0 0 0 0 0 0
0 0 0 0 0 0 0 2.05955809185061 0.0268601730198641 0 0 0 0 0 0 -3.00771311441703 0 0 0 0 0 0 0 0 0 0 0 0 0 0 0 -4.18434107903542 0 0 0 -0.47398292252539 -7.10907520200704 0 0 0 0 -2.4871180287265 0 0 0 0 0 0 0 0
0 0 0 0 0 0 0 0 0 0 0 0 0 0 0 -1.05028719545942 0 0 0 0 -0.984860351440546 0 0 0 0 0 0 0 0 0 0 -0.0809043851722466 0 0 0 -0.90300937758018 0 0 0 0 0 0 0 0 0 0 0 0 0 0
0 0 0 0 0 0 0 0 0 0.285988607529346 0.16992891177013 0 0 0 0 0 0 0 0 0 0 0 0 0 0 -0.253223906282348 0 0 0 0 0 -0.501931769942034 0 0 0 -0.978021894552644 0 0 0 -0.101481346941879 0 0 0 0 0 0 0 0 0 0
0 0 0 0 0 0 0 0 0 0 0 0 0.58580447946468 0.199600721074023 0 0 0 0 0 0 0 0 0 0 0 -1.85766951588273 -2.1130916101019 0 0 0 0 0 0 0 0 -1.10047522532582 0 0 0 -4.05649962004825 0 -2.40334884554396 0 0 0 0 0 0 0 0
0 0 0 0.125455855603549 0 0.19379561607652 0.343785471175679 0 0 0 0 0 0 0 0 0 0 0 0 0 0 0 0 0 0 0 0 0 0 0 0 -0.193929801396519 0 0 0 0 -0.69920691633832 0 0 0 0 0 0 0 0 0 0 0 0 0
0 0 0 0 0 0 0 0 0 0 0.439827750384153 0 0 0 0 0 0 0 0 -0.893669638900316 0 0 0 0 0 0 0 0 0 0 0 0 0 0 0 0 0 0 0 0 0 -0.356435681886781 0 -0.645932199709616 -2.09789769099363 0 0 0 0 0
0 0 0 0 0 0 0.152409917815432 0.444008783546324 0 0 0 0 0 0 0 0 0 0 0 -1.6582079661901 -0.413204759411189 0 0 0 0 0 0 -1.23573977208541 0 0 0 0 0 0 0 -0.646821975817136 -1.274792726502 -0.779496054935724 0 0 0 0 0 0 -0.564578212055503 0 0 0 0 0
0 0 0 0 0 0 0 0 0 0 0 0 0 0 0 0 0 0.19469526791731 0.335695395424337 0 0 0 0 0 0 0 0 -5.61996139198591 0 0 0 0 0 0 0 0 -2.19805116131779 -0.452567879304258 0 0 0 0 0 0 -5.90772017499669 0 0 0 0 0
0 0 0 0 0 0 0 0 0 0 0 0 0 0.211101283322505 0 0 0 0 0.0831737539679508 0 0 -0.755962218254953 0 0 0 0 0 -0.756297718708695 -0.715886949160052 0 0 0 0 0 0 0 0 0 0 0 0 0 0 0 -1.07792647949815 0 0 0 0 0
0 0 0 0 0 0 0 0 0 0 0 0 0 0 0 0 0 0 0 0 0.153929648543108 0 0 0 0 0 0 0 0 0 0 0 0 0 0 0 -0.285076348856227 0 0 0 0 0 0 0 0 0 0 0 0 0
0 0 0 0 0 0 0 0 0 0 0 0 0 0 0 0 0 0 0 0 0 0 0 0 0 0 0 0 0 0 0 0 0 0 0 0 -1.05291023204465 -0.528467381973551 0 0 0 0 0 0 0 0 0 0 0 -1.02944210022068
0 0 0 0.431850411353132 0.129863207863613 0.319575491697709 0 0 0 0 0 0 0 0 0 0 0 0 0 0 0 0 0 0 -0.179556491776348 0 0 0 0 0 0 0 0 -2.02327397074357 0 0 0 0 0 0 0 0 0 0 0 0 0 0 0 -6.90645678155192
0 0 0 0 0 0 0 0 0 0 0 0 0 0 0 0 0 0 0 0 0 0 0 0.0359576134625231 0 0 0 0 0 0 0 0 0 -1.28800688957173 0 0 0 -0.477306611499618 0 0 0 0 0 0 -0.126762155574137 0 0 -0.40474915307908 0 -3.39246184426688
0 0 0 0 0 0 0 0 0 0 0 0 0 0 0.0540953501579267 0.386350118984325 0 0 0 0 0 0 0 0 0 0 0 0 0 -0.837739239969425 0 0 0 -1.20398271961017 0 0 0 0 0 0 0 0 0 0 -1.39188363827134 0 0 0 0 0
0 0 0 0 0 0 0 0 0 0 0.768508411090577 0.0493068059346195 0 0 0 0.440614552541446 0 0 0 0 0 0 0 0 0 0 0 0 0 0 0 0 0 0 0 0 0 -0.977663284489449 0 0 0 0 0 0 -1.15109237372461 0 0 -0.813651241214877 0 -2.5218348338456
0 0 0 0 0 0 0 0 0 0 0 0 0 0 0 0 0 0 0.256708203358708 1.18597157618619 0.143282257390772 0 0 0 0 0 0 0 0 -4.48072016672006 0 0 0 0 0 0 0 0 0 0 0 0 0 0 -0.837310439704468 0 0 0 0 -0.438936193588535
0 0 0 0 0 0 0 0 0 0 0 0 0 0 0 0 0 0 0 0 0.136301672369258 0 0 0 0 0 0 0 0 -0.532940013319715 0 0 0 -0.229483730384846 0 0 0 -8.66725102399382 0 0 0 0 0 0 -4.23216115030748 0 -1.38820423634274 -0.169622937949089 0 0
0 0 0 0 0 0 0 0 0 0 0 0 0 0 0 0 0 0 0 0 0 0 0 0 0 0.164123241416949 0 0.881849606205828 0.10713020811059 0 0 0 0 0 0 0 0 -3.18563179990973 0 0 0 0 0 0 0 0 0 -0.727927546562797 -0.268232224586041 -1.01989082641684
0 0 0 0.274448759526797 0.220632410612419 0 0 0 0 0.165199471040774 0.402311548266302 0 0 0 0 0 0 0 0 0 0 0 0 0 0 0 0 0 0 0 0 0 0 -0.939201071262575 0 0 0 -6.08829837707333 0 0 0 0 0 0 -0.269112671644791 0 0 0 -5.66115098441634 -0.728651496613229
0 0 0 0 0 0 0 0 0 0 0 0 0.915022929367389 0.0163122071551123 0.107914546625063 0 0.0376543252136417 0 0 0 0 0 0 0 0 0 0 0 0 0 0 0 0 0 0 0 0 -0.210230142846394 0 0 0 0 0 0 0 0 -1.31194846359106 0 0 -0.441265391597554
0 0 0 0 0 0 0 0 0 0 0 0 0 0 0 0 0 0 0 0 0 0 0 0 0 0 0 0 0 0 0 0 0 0 0 0 0 0 0 0 0 0 0 0 0 0 -10.9888955131049 0 0 0
0 0 0 0 0 0 0 0 0 0 0 0 0 0 0 0 0 0 0 0 0 0 0 0.421460090080597 0.256457383137937 0.243714975849861 0 0 0.0472729865746958 0 0.213107019358553 0 0 0 0 0 0 -1.60343858221344 0 0 0 0 0 0 0 0 -1.75147137479593 0 0 0
0 0 0 0 0 0 0 0 0 0 0 0 0 0 0 0 0 0 0 0 0 0 0 0 0 0 0 0 0 0 0 0 0 0 0 0 0 -0.435400618354353 0 0 0 0 0 0 0 0 0 0 0 -0.535106742367936
0 0 0 0 0 0 0 0 0 0 0 0 0.0938063791419146 0.163594485177351 0.185366877759986 0.20246542968104 0 0 0.131578773783079 0 0 0 0 0 0 0 0 0 0 0 0 0 0 0 0 0 0 -0.101500339914778 0 0 0 0 0 0 0 0 -0.18068622251469 0 0 0
0 0 0 0 0 0 0 0 0 0 0 0.0129022958104075 1.48162480155231 0 0 0 0.142786349471529 0 0.280027185138133 0.44738612666138 0 0.0570864561410714 0.219642855057573 0 0 0 0 0 0 0 0 0 0 0 0 0 0 0 0 0 0 0 0 0 0 0 0 0 0 0
0 0 0 0 0 0 0 0 0 0 0 0 0 0 0 0 0 0 0.168888202707229 0.0931795978240385 0 0 0.0989588737580914 0 0.0998265983648002 0 0.187768666245913 0 1.60713083781673 0.683638555319124 1.27260371034626 0.0425393651015367 0 0.319186785042665 0.082619192450614 0.0211770459341849 0 0 0 0 0 0 0 0 0 0 -0.753466800983003 0 0 0
0 0 0 0 0 0 0 0 0 0 0 0 0 0 0 0 0 0 0 0 0 0 0 0 0 0 0 0 0 0 0 0 0 0 0 0 0 0 0 0 0 0 0 0 0 0 0 0 0 -0.23884418846125
0 0 0 0 0 0 0 0.240634091613156 0 0.257624549987861 0 0 0 0 0.0215203588732992 0.805763363414668 0 0 0 0 0 0 0 0 0 0 0 0 0 0 0 0 0 0 0 0 0 0 0 0 0 0 0 0 0 0 -0.880449942587152 0 0 -1.62359800727333
0 0 0 0 0 0 0 0 0 0 0 0.273207764248818 0 0 0 0 0 0 0 0 0 0 0 0 0 0 0 0 0 0 0 0 0 0 0 0 0 0 0 0 0 0 0 0 0 -1.01654011001325 0 0 0 -1.57832990070074
0 0 0 0 0 0 0 0 0 0 0 0.0245610063042264 0.517833395417283 0 0 0.483665086890584 0 0.0707728608553806 0 0 0 0 0 0 0 0 0 0 0 0 0 0 0 0 0 0 0 0 0 0 0 0 0 0 0 0 0 0 0 0
0 0 0 0 0 0 0 0 0 0 0 0 0 0 0 0 0 0 0 0 0 0 0 0 0 0 0 0 0 0 0 0 0 0 0 0 0 0 0 0 0 0 0 0 0 0 -2.8078911769364 0 0 -1.00499626261079
0 0 0 0 0 0 0 0 0 0 0 0 0 0 0 0 0 0.122534877995145 0 0 0 0 0 0 0 0 0 0 0 0 0 0 0 0 0 0 0 0 0 0 0 0 0 0 0 0 0 0 0 0
0 0 0 0 0 0 0 0 0 0 0 0 0 0 0 0 0 0.423993726773729 0.112157961062428 1.23348371426466 0.208185075854535 0 0 0 0.0262327386771938 0.292646818077691 0.227211689498956 0.163080517745092 0.768471421884901 0 0.0534514834221626 0 0 0 0 0 0 0 0 0 0 0 0 0 0 -1.17235926699378 -4.28554568206961 0 0 -0.563725420686989
0 0 0 0 0 0 0 0 0 0 0 0 0 0 0 0 0 0 0 0 0 0 0 0 0 0 0 0 0 0 0 0 0 0 0 0 0 0 0 0 0.218710544358917 0 0 0 0.23580415393648 0 0.461200192035419 0.876069285343976 0 -1.59207014058767
0 0 0 0 0 0 0 0 0 0 0 0 0 0 0 0 0 0 0 0 0 0 0 0 0 0 0 0 0.269216076757992 0 0 0.263569739330281 2.26093942580011 0.323395282560306 0 0.0390966540262022 0 0.149801086966242 0 0.190544001483874 0 0 0.534844852027496 0 0.869379016958461 -2.40483112663721 0 0.405465356473514 0.368773174273704 0.465341664578725
0 0 0 0 0 0 0 0 0 0 0 0 0 0 0 0 0 0 0 0 0 0 0 0 0.0829943549347668 0 0.160904704301631 0 0.0354899364824708 0.140788457703823 0 0 0 0 0 0 0 0 0 0 0 0 0 0 0 -4.27834426785008 -2.29328806199995 0 0 0
0 0 0 0 0 0 0 0 0 0 0 0 0 0 0 0 0 0 0 0 0 0 0 0 0 0 0 0 0 0.0490123436672088 1.21983922501503 0 0 0 0 0 0 0 0 0 0 0 0 0 0 0 -1.87217207597273 0 0 -0.852292339919566
0 0 0 0 0 0 0 0 0 0 0 0 0 0 0 0 0 0 0 0 0 0 0.208015251273077 1.30807239360913 0.690696983415844 0 0.493939240978822 0.0888003409209963 0 0.210068145258573 0.139306014607754 0.0866707076934134 0 0 0.11782314073005 0 0 0 0.04960560149819 0.321140709748803 0.317178986683532 0 0.185592836759556 0 0.112157810949873 0.319703095673875 -2.25219329241479 0 0.165330487397426 0
