0.282249317624224
1.10494259359582
0.862474141697129
0.297808266719206
0.671796224593405
2.65538437171195
2.74687314763785
2.12394810343206
2.18988985749075
3.17318955558401
1.3996597827051
0.333640615715677
0.414194856637562
0.692968336604713
0.510529945110178
1.97621080654268
3.26130379218386
1.34758422175518
0.460773979315631
0.263880865277426
1.54704650978009
2.26998055904076
0.628286245882102
2.55464525593527
0.317036463547756
2.3159731529225
2.59001263455897
0.391626003030132
1.5811285196581
0.926397647917338
0.165076083773785
1.15136197536927
1.28031050336182
2.09670263662673
0.210518976410756
2.23110792589241
0.522020620448824
2.68108635771387
0.944724465623858
1.38025547194832
0.458747944102713
0.313803360939401
0.199492854697273
1.19907720435649
3.34517111485162
0.462214067742966
0.160495614362019
0.541414049882842
1.02857371351157
0.76862627147508
