0 0 0 -0.488575824973121 -0.361711902728959 0 0 0 0 0 0 0 0 0 0 0 0 0 0 0 0 0 0 0 0 0 0 0 0 0 0 0 0 0 0 0 0 0 0 0 0 0 0 0 0 0 0 0 0 0
0 0 0 0 0 0 0 0 0 0 0 0 0 -0.722814588393715 0 0 0 0 0 0 0 0 0 0 0 0 0 0 0 0 0 0 0 0 0 0 0 0 0 0 0 0 0 0 0 -1.19834385058357 0 0 0 0
0 0 0 0 0 0 0 0 0 0 0 0 0 -3.30675926169766 0 0 0 0 0 0 0 0 0 0 0 0 0 0 0 0 0 0 0 0 0 0 0 0 0 0 0 0 0 0 0 -2.19779462109308 0 0 0 0
0.103001071884267 0 0 0 0 0 0 0 0 0 0 0 0 0 0 0 0 0 0 0 0 0 0 0 0 0 0 0 0 0 0 0 0 0 0 -0.387489881670868 0 0 0 0 0 0 0 0 0 0 0 0 0 0
0.0719098114488474 0 0 0 0 0 0 0 0 0 0 0 0 0 -0.299911745673567 0 0 0 0 0 0 0 0 0 0 -7.08005927376505 0 0 0 0 0 0 0 0 0 0 0 0 0 0 0 0 -0.533528221922402 0 -2.26130415581842 0 0 0 0 0
0 0 0 0 0 0 0 0 0 0 0 0 0 0 0 -0.486497688740681 0 0 0 0 0 0 0 0 0 -1.24513402079917 0 -1.39582463925053 0 0 0 0 0 0 0 0 0 0 0 0 0 0 0 0 -1.74350259734433 0 0 0 0 0
0 0 0 0 0 0 0 0 -0.413056141907049 0 0 0 0 0 -0.400273317927701 -1.20267340391454 0 0 0 0 0 0 0 0 0 0 0 -1.492749662004 0 0 0 0 0 0 0 0 0 0 0 0 0 0 0 0 -0.580576729255974 0 0 0 0 0
0 0 0 0 0 0 0 0 -1.58723958685421 0 0 0 0 0 0 0 0 0 0 0 0 0 0 -0.160948528282301 -3.84760849082682 0 0 0 0 0 0 0 0 0 -1.00620406459889 0 0 0 0 0 0 0 -0.176254173949687 0 0 0 -0.589143556242146 0 0 0
0 0 0 0 0 0 0.0821037792272905 0.316473888548852 0 0 0 0 0 0 -0.204358051702185 0 0 0 0 0 0 0 0 0 -0.356395257692291 -0.588743156684108 0 0 0 0 0 0 0 -0.333074493195089 -0.246586988546819 0 0 0 0 0 -0.697609046334461 0 0 0 0 0 -0.841144406007994 0 0 0
0 0 0 0 0 0 0 0 0 0 0 -3.04857721103927 0 0 -1.23731427989268 0 0 0 0 0 0 -1.03750121478924 0 0 0 0 0 0 0 0 0 0 0 -0.28804942148265 0 0 0 0 0 0 0 0 0 0 0 0 0 0 0 0
0 0 0 0 0 0 0 0 0 0 0 0 0 0 0 0 0 0 0 0 0 0 0 0 -2.16369824705937 0 0 0 0 0 0 0 0 0 0 0 -12.3270693248012 0 0 0 -3.5768415017076 -1.06415494623037 0 0 0 0 -0.167524833568437 0 0 0
0 0 0 0 0 0 0 0 0 0.630425565763827 0 0 0 0 -2.63672780199738 0 0 -0.354662628801058 0 0 0 0 0 0 0 0 0 0 0 0 0 -0.290508817266634 0 0 0 0 0 0 0 0 -1.66062326239857 -1.12389418636552 0 0 0 0 -0.629810894074547 0 0 0
0 0 0 0 0 0 0 0 0 0 0 0 0 0 0 0 0 0 0 -0.839406675627111 0 0 0 0 0 0 0 0 0 0 0 0 -0.928891836942651 0 0 0 0 0 0 0 -0.801412508783167 0 0 0 0 0 0 0 0 0
0 0.148658789650648 0.667482836888429 0 0 0 0 0 0 0 0 0 0 0 0 0 0 0 -0.0883328613040359 -0.343923374904265 0 0 0 0 -0.745773438655558 0 0 0 0 0 0 -1.1819062114116 0 0 0 0 0 0 0 0 0 -2.91632675363432 0 0 0 0 -0.26260145489086 0 0 0
0 0 0 0 0.0614007401322153 0 0.0828986647969791 0 0.0403953027955973 0.2286966234527 0 0.56562625855027 0 0 0 0 0 0 -2.00181649348641 -0.382364066453512 0 0 0 0 -0.407114903444289 0 0 0 0 0 0 0 0 -6.56508951008371 0 0 0 0 0 0 -1.01732957969906 0 0 0 0 0 0 0 0 0
0 0 0 0 0 0.0937458162687293 0.232800613470382 0 0 0 0 0 0 0 0 0 0 0 -0.0599442983215973 0 0 0 0 0 -0.575401245252442 0 0 0 0 0 0 0 0 -2.62153858293761 0 0 0 0 0 0 0 0 0 0 0 0 0 0 0 0
0 0 0 0 0 0 0 0 0 0 0 0 0 0 0 0 0 0 -3.7402125789406 -1.70710855860172 0 0 0 0 -1.63795719049228 0 0 0 0 0 0 0 0 -0.898764860797951 0 0 0 0 0 0 -1.04481940172603 0 0 0 0 0 0 0 0 0
0 0 0 0 0 0 0 0 0 0 0 0.0704566626959945 0 0 0 0 0 0 0 0 0 0 0 0 0 0 0 0 0 0 0 0 -0.836260557391636 0 0 0 0 0 0 0 -0.356282205514827 0 0 0 0 0 -0.651790185638008 0 0 0
0 0 0 0 0 0 0 0 0 0 0 0 0 0.0176275323103997 0.423555410099484 0.0119519509656865 0.671733750958232 0 0 0 0 0 0 0 0 0 0 0 0 0 0 -0.722851862174282 -2.43811165238048 -1.2107639328142 0 0 0 0 0 0 -1.47135865506779 0 0 0 0 0 -0.795576631160665 0 0 0
0 0 0 0 0 0 0 0 0 0 0 0 0.171619246059655 0.0676872498793129 0.0787400055272413 0 0.340474046046835 0 0 0 -0.0648606251224902 0 0 0 -0.309462660308918 0 0 0 0 0 0 0 0 0 0 0 0 0 0 0 0 0 0 0 0 0 0 0 0 0
0 0 0 0 0 0 0 0 0 0 0 0 0 0 0 0 0 0 0 0.012496242277498 0 0 0 0 0 0 0 0 0 0 -1.63751347236281 0 -1.62628307855714 -2.81926343322995 0 0 0 0 0 0 0 0 0 0 0 0 0 0 0 0
0 0 0 0 0 0 0 0 0 0.199019699743381 0 0 0 0 0 0 0 0 0 0 0 0 0 0 0 0 0 0 0 0 -0.711325194290332 0 0 -1.03272595913629 0 0 0 0 0 0 0 0 0 0 0 0 0 0 0 0
0 0 0 0 0 0 0 0 0 0 0 0 0 0 0 0 0 0 0 0 0 0 0 0 0 0 0 0 0 0 0 0 0 0 0 0 0 0 0 0 0 0 0 0 0 0 -0.361459268760717 0 0 0
0 0 0 0 0 0 0 0.032014552203816 0 0 0 0 0 0 0 0 0 0 0 0 0 0 0 0 0 0 0 0 0 0 0 0 -1.76592944432603 0 0 0 0 0 0 0 0 0 0 0 0 0 -2.96261529264901 0 0 0
0 0 0 0 0 0 0 0.751244638365036 0.0733515356890104 0 0.435435503565165 0 0 0.152901150282524 0.081870187495887 0.114899047702706 0.324271874163095 0 0 0.0598061368151361 0 0 0 0 0 0 0 0 0 0 0 0 0 0 0 0 0 0 0 0 0 0 0 0 0 0 0 0 0 0
0 0 0 0 1.39773645333705 0.251923947094696 0 0 0.124023006770383 0 0 0 0 0 0 0 0 0 0 0 0 0 0 0 0 0 -0.439832785538388 0 -0.484285015958036 0 0 0 -0.142596338276254 0 0 0 0 0 0 0 0 0 0 0 0 0 0 0 -0.782494977799752 0
0 0 0 0 0 0 0 0 0 0 0 0 0 0 0 0 0 0 0 0 0 0 0 0 0 0.0804922527871679 0 0 0 0 0 0 0 0 0 0 0 0 0 -1.68331472405976 0 0 0 0 0 0 0 -0.599434034746457 -2.28283974573308 0
0 0 0 0 0 0.25482210545833 0.30198805693241 0 0 0 0 0 0 0 0 0 0 0 0 0 0 0 0 0 0 0 0 0 -5.13061527178262 0 0 0 0 0 0 0 0 0 0 -0.686790183766655 0 0 0 0 0 0 0 0 0 0
0 0 0 0 0 0 0 0 0 0 0 0 0 0 0 0 0 0 0 0 0 0 0 0 0 0.0945247946167895 0 1.03773492394377 0 -0.794177276279861 0 0 0 0 0 0 0 0 0 0 0 0 0 0 0 0 0 0 -0.792776088015233 0
0 0 0 0 0 0 0 0 0 0 0 0 0 0 0 0 0 0 0 0 0 0 0 0 0 0 0 0 0.156699771604855 0 0 0 0 0 0 0 0 0 0 -0.0870575545364807 0 0 0 0 0 0 0 0 0 0
0 0 0 0 0 0 0 0 0 0 0 0 0 0 0 0 0 0 0 0 0.319850351692889 0.143857344700448 0 0 0 0 0 0 0 0 0 0 0 0 0 0 0 0 0 0 0 0 0 0 0 0 0 0 0 0
0 0 0 0 0 0 0 0 0 0 0 0.0568583202206465 0 0.219403770774858 0 0 0 0 0.146222063343365 0 0 0 0 0 0 0 0 0 0 0 0 0 0 0 0 0 0 0 0 0 0 0 0 0 0 0 0 0 0 0
0 0 0 0 0 0 0 0 0 0 0 0 0.183982949613475 0 0 0 0 0.171219829125063 0.480537764804396 0 0.328397538233595 0 0 0.39491369072638 0 0.0310308361100267 0 0 0 0 0 0 0 0 0 0 0 0 0 0 0 0 0 0 0 0 0 0 0 0
0 0 0 0 0 0 0 0 0.0647540149321795 0.0639217101915733 0 0 0 0 1.35074709085227 0.51570975152072 0.18963257039793 0 0.255998041191345 0 0.6098472731895 0.204047394017679 0 0 0 0 0 0 0 0 0 0 0 0 0 0 0 0 0 0 0 0 0 0 0 0 0 0 0 0
0 0 0 0 0 0 0 0.213188444344359 0.0493359277936397 0 0 0 0 0 0 0 0 0 0 0 0 0 0 0 0 0 0 0 0 0 0 0 0 0 0 0 0 0 0 0 0 0 0 0 0 0 0 0 0 0
0 0 0 0.0739704785198935 0 0 0 0 0 0 0 0 0 0 0 0 0 0 0 0 0 0 0 0 0 0 0 0 0 0 0 0 0 0 0 0 0 0 0 0 0 0 0 0 0 0 0 0 0 0
0 0 0 0 0 0 0 0 0 0 2.42058815048158 0 0 0 0 0 0 0 0 0 0 0 0 0 0 0 0 0 0 0 0 0 0 0 0 0 0 0 0 0 0 0 0 0 0 0 0 0 0 0
0 0 0 0 0 0 0 0 0 0 0 0 0 0 0 0 0 0 0 0 0 0 0 0 0 0 0 0 0 0 0 0 0 0 0 0 0 0 0 0 0 0 0 -0.252057638637063 0 0 0 0 0 0
0 0 0 0 0 0 0 0 0 0 0 0 0 0 0 0 0 0 0 0 0 0 0 0 0 0 0 0 0 0 0 0 0 0 0 0 0 0 0 0 0 0 0 -0.904801530383772 0 0 0 0 0 0
0 0 0 0 0 0 0 0 0 0 0 0 0 0 0 0 0 0 0 0 0 0 0 0 0 0 0.344249722671551 0.142821110788857 0 0.0172590839658761 0 0 0 0 0 0 0 0 0 0 0 0 0 0 0 0 0 0 0 0
0 0 0 0 0 0 0 0 0.14093517256896 0 0.752841204390677 0.309610845254538 0.154125662378103 0 0.185621975354153 0 0.207734279450201 0.0723293802329875 0.306866030624713 0 0 0 0 0 0 0 0 0 0 0 0 0 0 0 0 0 0 0 0 0 0 0 0 -0.447263203407617 0 0 0 0 0 0
0 0 0 0 0 0 0 0 0 0 0.238743086555322 0.235737527115032 0 0.602421955467242 0 0 0 0 0 0 0 0 0 0 0 0 0 0 0 0 0 0 0 0 0 0 0 0 0 0 0 0 0 -0.596859563532317 0 0 0 0 0 0
0 0 0 0 0.10919331580417 0 0 0.0356262503381612 0 0 0 0 0 0 0 0 0 0 0 0 0 0 0 0 0 0 0 0 0 0 0 0 0 0 0 0 0 0 0 0 0 0 0 0 0 0 0 0 0 0
0 0 0 0 0 0 0 0 0 0 0 0 0 0 0 0 0 0 0 0 0 0 0 0 0 0 0 0 0 0 0 0 0 0 0 0 0 0.0519351560376497 0.177534020226406 0 0.0827674990952214 0.118671232889582 0 0 0 0 0 0 0 0
0 0 0 0 0.487735225507534 0.367522151817146 0.118067923729212 0 0 0 0 0 0 0 0 0 0 0 0 0 0 0 0 0 0 0 0 0 0 0 0 0 0 0 0 0 0 0 0 0 0 0 0 0 0 0 0 0 0 -0.936476650737233
0 0.243057681325078 0.427145976663758 0 0 0 0 0 0 0 0 0 0 0 0 0 0 0 0 0 0 0 0 0 0 0 0 0 0 0 0 0 0 0 0 0 0 0 0 0 0 0 0 0 0 0 0 0 0 0
0 0 0 0 0 0 0 0.113707718561091 0.162007626961048 0 0.0354480403891017 0.128659032734191 0 0.0514006125069354 0 0 0 0.132549785931071 0.160666404639107 0 0 0 0.0746133154263495 0.577022330376405 0 0 0 0 0 0 0 0 0 0 0 0 0 0 0 0 0 0 0 0 0 0 0 0 0 -0.29612533526481
0 0 0 0 0 0 0 0 0 0 0 0 0 0 0 0 0 0 0 0 0 0 0 0 0 0 0.123991705557843 0 0 0 0 0 0 0 0 0 0 0 0 0 0 0 0 0 0 0 0 0 0 0
0 0 0 0 0 0 0 0 0 0 0 0 0 0 0 0 0 0 0 0 0 0 0 0 0 0.153675775299326 0.417390732550306 0 0.159733204503941 0 0 0 0 0 0 0 0 0 0 0 0 0 0 0 0 0 0 0 0 -0.608129221418111
0 0 0 0 0 0 0 0 0 0 0 0 0 0 0 0 0 0 0 0 0 0 0 0 0 0 0 0 0 0 0 0 0 0 0 0 0 0 0 0 0 0 0 0 0.195872643001035 0 0.0652034977533079 0 0.138007028577339 0
