0.299101876179437
1.64423930880712
0.168497844672624
1.31292814715106
0.132971764209638
0.355264697671234
1.05667973800105
0.449577021686072
1.20582620285873
1.90715386552064
0.915591700847381
0.115368277195705
0.411822721794554
0.529618308003476
0.148970673210477
1.90842908580973
0.123351869488472
0.189003763451979
0.321315352869084
0.67921751792815
1.85383555555339
0.760050182508758
1.77388403931984
0.383037414084793
1.56973188270747
0.316137192946893
1.38827030112536
0.456417074471666
0.163270205091761
0.560292014218503
0.22704397327096
1.01318981629223
0.593745407079539
1.41029396637662
0.952890372104066
1.32344653872092
0.321736540681892
0.54888840691276
1.10782821619176
0.0389731859880484
0.515340717236806
0.279446519662317
0.418619324208903
1.24138981518559
0.610054981688379
0.591847907413749
0.190051172756454
1.19069745965162
0.186244554537881
0.133376444915847
