1.17949921352566
0.105198169015675
1.67277127924265
1.86180924626493
0.999760299387478
0.63734832201102
5.1902101131325
2.16055020911324
2.77887398942189
3.62695877537805
1.18182266206307
0.259573538427633
2.34574654784264
2.43258127917786
3.34931516079238
0.453551270336165
4.19789817154963
0.612149166036185
2.86414523606487
2.22683645755212
0.686786178373328
2.69678468229559
0.607929298287049
0.45518009268289
2.32705859023738
3.46692664917325
0.818762403543004
0.238319618946086
1.02288114282597
0.287069725023685
0.6326975210218
0.695809708197839
0.631758496084117
0.491707822359559
1.65575416000722
0.605747024041673
1.00617929085467
1.6261700337028
1.94606811310153
1.5886345611985
1.41041557925177
3.42620394527833
0.390890253382313
0.564591678707157
2.15281099956297
1.99148264799283
0.504475446983966
0.357564128002807
0.082645477452052
2.05563693041421
