0.282316840257558
0.741370445245474
1.32306253047942
1.16237595325746
4.65187023339159
1.88572573942822
3.66320210218399
0.481036271396095
0.453612416833012
3.66749918416082
1.36619032467245
1.21954657463817
0.287130322865006
0.863679638006205
0.342569324953094
0.395099454245095
1.4561045065316
1.63603266878112
1.06424931312487
1.6544626203849
1.02110128956451
0.139894763191267
1.03209004402114
3.09407166553748
0.852261544467193
1.26397901264795
1.48492106152411
0.46389455311801
2.78191630570382
1.46500294402946
2.02954638434199
1.72836427950831
0.489777238383145
0.767367976693301
3.39944129280509
0.486630474931529
1.14194876489402
1.0470257428935
0.883691901661034
0.717988044517028
0.98275928839538
0.249984543258139
0.160471210836422
0.116904531250755
2.78635105583327
1.75392092805616
0.566600889524232
1.87777162508404
0.417701960590521
0.395304595885528
