0.248431548914431
0.515335320934326
0.683685659040017
0.861236384000261
2.3396363173979
2.48848562552776
0.45238804393923
0.753353076461333
1.01512272868582
1.13807610537976
2.19800718869393
1.92784270038598
2.75157247599792
3.75865434694865
0.243398875546913
0.419028150826213
0.594213735784103
1.86205695080579
1.11521599172097
0.771668248487732
0.521332299440115
6.30589625792609
0.423317895243131
4.15836756963607
0.714151431047276
2.60996749664218
1.03788299380021
0.977245677336577
0.392817065991976
0.595559558613809
1.93645369347468
0.814800574773612
0.605637896811996
0.580456530766241
0.768364079598402
0.244270267776921
0.413849067606521
0.173771232417718
3.72510393573739
0.512779389736962
2.08695991135607
1.14522853408123
0.175981089739564
3.84832561957648
5.02853350373125
0.912879205337042
0.292082166146025
1.49008182386314
1.84122091559786
6.34441161232274
