0.0727081696854028
0.629024875145033
3.61191281406646
0.136593629421938
0.48654698170841
0.199790790009592
0.531785052272722
0.0901639698667244
1.88816731556873
0.11785348041408
1.87512783516736
0.508321409451572
0.737151781465032
0.822545828117136
1.9093284996854
1.36649232843001
0.538171962166745
0.215818124971553
0.685141953858894
0.103717162753778
0.500742178567202
0.285772126825887
1.64566677061535
0.0425697819810622
0.15884439033762
0.897254956977729
0.499452410111028
1.69683478180487
3.36506280919121
0.242528259336253
0.401805743397801
0.140461166119427
0.875333190389178
0.801893846343202
0.11204178265146
0.632614441243964
1.82171573845549
2.69418869982013
1.6809876595351
1.0290549370844
0.178829722033235
0.282655135809183
0.471531598660437
1.50208229780597
1.94270709964823
0.101818014061584
0.946874762493962
1.7835159290897
0.431822779296662
0.0859301198904517
