0 0 0 0 0 0 0 0 -0.760573461941387 0 0 -3.22008856624844 -0.761711849664113 0 0 0 0 0 0 0 0 0 0 0 0 0 0 0 0 0 0 0 0 0 0 0 0 0 0 0 0 0 0 0 0 0 0 0 0 0
0 0 -0.329881637409093 -0.551425687474832 0 0 -8.42102600466083 0 0 0 0 0 -0.489539488574367 0 0 -0.312416031908188 0 -1.1042681740982 0 0 0 0 0 0 0 0 0 0 0 0 0 0 0 0 0 0 0 0 0 0 0 0 0 0 0 0 0 0 0 0
0 0.0652173345965226 0 0 -2.10097158910791 0 0 0 0 0 0 0 0 0 -2.03574919955335 0 0 0 0 0 0 0 -2.13517009396802 0 0 0 0 0 0 0 0 0 0 0 0 0 0 0 0 0 0 0 0 0 0 0 0 0 0 0
0 0.113923056470306 0 0 0 0 -0.881249536239854 0 0 0 0 0 0 0 0 0 0 0 0 0 0 0 0 0 0 0 0 0 0 0 0 0 0 0 0 -1.94298364162337 0 -0.836740421937584 0 0 0 0 0 0 0 0 0 0 0 0
0 0 0.434161013805844 0 0 0 0 0 0 0 0 0 0 0 -1.39226685153713 0 0 0 0 0 0 0 0 0 0 0 0 0 0 0 0 0 0 0 0 0 0 0 0 0 0 0 0 0 0 0 0 0 0 0
0 0 0 0 0 0 0 0 0 0 0 0 0 0 0 0 0 0 0 -0.699183259769595 0 0 0 0 0 0 0 0 -1.39998640541967 -1.05229030628465 0 0 0 0 0 0 0 -1.84231060646206 0 0 0 0 0 0 0 0 0 0 0 0
0 1.71534121719012 0 0.169424490335695 0 0 0 0 0 0 0 0 0 0 0 0 0 0 0 -4.38522779267405 0 0 0 0 0 0 0 0 -0.672271222598503 0 0 0 0 0 0 -0.748565904405701 0 -0.626140192061613 0 0 0 0 0 0 -0.236175853432571 0 0 0 0 0
0 0 0 0 0 0 0 0 0 0 0 0 0 0 0 0 0 0 0 0 0 0 0 0 0 0 0 -3.00167416111695 0 -0.125650346889009 0 0 0 0 0 -1.2228044898228 0 -1.17308008819909 0 0 0 0 0 0 -3.92644480394253 0 0 0 0 0
0.14748678737763 0 0 0 0 0 0 0 0 0 0 0 0 0 0 0 0 0 0 0 0 0 0 0 0 0 0 0 -0.373017610543426 -2.34246981731069 0 0 0 0 0 0 0 -0.709208594326528 0 0 0 0 0 0 -0.875898049191775 0 0 0 0 0
0 0 0 0 0 0 0 0 0 0 0 0 0 0 0 0 0 0 0 0 0 0 0 0 0 0 0 0 0 -0.556722729650412 0 0 0 0 0 0 0 0 0 0 -4.1975462699068 0 0 0 -1.51003169718635 0 0 0 0 0
0 0 0 0 0 0 0 0 0 0 0 0 0 0 0 0 0 0 0 0 0 0 0 0 0 0 0 0 0 -0.851173818912382 0 0 0 0 0 0 0 0 0 0 0 0 0 0 -1.53834151056194 0 0 0 0 0
0.630500849468895 0 0 0 0 0 0 0 0 0 0 0 0 0 0 0 0 0 0 0 0 0 0 0 0 0 0 0 0 0 0 0 0 -0.148887060707516 0 0 0 0 0 0 0 0 0 0 -8.28998434031001 0 0 0 0 0
0.145458349861908 0.101431985018429 0 0 0 0 0 0 0 0 0 0 0 0 0 0 -2.22994932593579 0 0 0 0 -1.37155324721745 0 0 0 0 0 0 0 0 0 0 0 0 0 -0.642033382201678 0 0 0 0 -3.08048693765486 0 0 0 0 -0.286340977573729 0 0 0 0
0 0 0 0 0 0 0 0 0 0 0 0 0 0 0 0 -0.287454654553638 0 0 0 0 -3.55008319621587 0 0 0 0 0 0 0 0 0 0 0 0 0 0 0 0 0 0 -3.65561078825597 0 0 0 -2.68323571285448 0 0 0 0 0
0 0 0.446839075330693 0 0.270946785164367 0 0 0 0 0 0 0 0 0 0 0 0 0 0 0 -0.591346346800302 0 0 0 0 0 0 -2.99114751351267 0 0 0 0 0 0 0 0 0 0 0 0 -0.49318268629092 0 0 0 0 0 0 0 0 0
0 0.0645441827195316 0 0 0 0 0 0 0 0 0 0 0 0 0 0 0 0 0 0 0 0 0 0 0 0 0 0 0 0 0 0 0 0 0 0 0 0 0 0 -1.99627308032261 0 0 0 0 0 0 0 0 0
0 0 0 0 0 0 0 0 0 0 0 0 0.468397519947751 0.0589959076529201 0 0 0 0 0 0 -2.59597484369323 0 0 0 0 0 0 -0.404113659623663 0 0 0 0 0 0 0 -1.34040107982768 0 0 0 0 0 0 0 0 0 0 0 0 0 0
0 0.209455066190032 0 0 0 0 0 0 0 0 0 0 0 0 0 0 0 0 0 0 0 0 0 0 0 0 0 0 0 0 0 0 0 0 0 -4.58597868103505 0 0 0 0 0 0 0 0 0 0 0 0 0 0
0 0 0 0 0 0 0 0 0 0 0 0 0 0 0 0 0 0 0 0 -1.10810231299731 0 0 0 0 0 0 -1.47064381601468 0 0 0 0 0 0 0 -0.193863359820764 0 0 0 0 -1.03597365957635 0 0 0 0 0 0 0 0 0
0 0 0 0 0 0.133820636230672 0.87609143117132 0 0 0 0 0 0 0 0 0 0 0 0 0 0 0 0 0 0 -1.64544430203032 0 0 0 0 0 0 0 0 0 0 -2.15323825009047 0 0 0 -1.18840820208735 0 0 0 0 0 0 0 0 0
0 0 0 0 0 0 0 0 0 0 0 0 0 0 0.126372132135638 0 0.530642804704043 0 0.233157551898325 0 0 0 0 0 0.281058260183033 0 0 -0.854837440329084 0 0 0 0 0 0 0 0 0 0 0 0 -1.84279909012034 0 0 0 0 0 0 0 0 0
0 0 0 0 0 0 0 0 0 0 0 0 0.269943807968852 0.689317838942896 0 0 0 0 0 0 0 0 0 0 0 0 0 0 0 0 0 0 0 0 0 0 -2.13817689017661 0 0 -5.70293319318867 0 0 0 -1.32736198176434 0 0 0 0 0 0
0 0 0.42411636579991 0 0 0 0 0 0 0 0 0 0 0 0 0 0 0 0 0 0 0 0 0 0 -0.592399423722137 0 0 0 0 0 0 0 0 0 0 -0.572790897289541 0 0 -4.44988860279897 0 0 0 0 0 0 0 0 0 0
0 0 0 0 0 0 0 0 0 0 0 0 0 0 0 0 0 0 0 0 0 0 0 0 0 -1.36014017314487 0 -0.752667919341433 0 0 0 0 0 0 0 0 -3.62145106957383 0 0 -5.64687739844502 -1.03974179769592 0 0 -1.95280410385814 0 0 0 0 0 0
0 0 0 0 0 0 0 0 0 0 0 0 0 0 0 0 0 0 0 0 -1.42535121572393 0 0 0 0 0 0 -0.708107242106671 0 0 0 0 0 0 0 0 -2.70287685925482 0 0 -1.73125792748249 0 0 0 0 0 0 0 0 0 0
0 0 0 0 0 0 0 0 0 0 0 0 0 0 0 0 0 0 0 0.345850249770479 0 0 0.117398737632218 0.284402064934671 0 0 0 -4.61914801915319 0 0 0 0 0 0 0 0 0 0 0 0 -1.09694554985897 0 0 0 0 0 0 0 0 0
0 0 0 0 0 0 0 0 0 0 0 0 0 0 0 0 0 0 0 0 0 0 0 0 0 0 0 0 0 0 0 0 0 0 0 0 -1.17088310685992 0 0 0 0 0 0 0 0 0 0 0 0 0
0 0 0 0 0 0 0 0.644929168746963 0 0 0 0 0 0 0.644355275211096 0 0.0814328283277752 0 0.302690493612239 0 0.164496624245235 0 0 0.158957588239185 0.149293889852756 0.967392578553519 0 0 0.0353635762311518 0 0 0 0 0 0 0 0 0 0 -0.974569406958463 0 0 0 0 0 0 0 0 0 0
0 0 0 0 0 0.297893491925603 0.140983245683958 0 0.0741128032715023 0 0 0 0 0 0 0 0 0 0 0 0 0 0 0 0 0 0 -0.164535293054074 0 0 0 0 0 0 0 0 0 0 0 -2.45504689631668 0 0 0 0 0 0 0 0 0 0
0 0 0 0 0 0.214045635270424 0 0.0255194610215102 0.511224881937202 0.113740648475369 0.177110888565345 0 0 0 0 0 0 0 0 0 0 0 0 0 0 0 0 0 0 0 0 0 0 0 0 0 0 0 0 0 0 0 -1.22519552897525 0 0 0 0 0 0 0
0 0 0 0 0 0 0 0 0 0 0 0 0 0 0 0 0 0 0 0 0 0 0 0 0 0 0 0 0 0 0 0 -0.0939412961873351 0 0 0 0 0 0 0 0 0 -1.22639494227849 0 0 0 0 0 0 0
0 0 0 0 0 0 0 0 0 0 0 0 0 0 0 0 0 0 0 0 0 0 0 0 0 0 0 0 0 0 0 0 -7.02620936045374 0 0 0 0 0 -2.93408680874391 0 0 0 0 0 0 0 0 0 0 0
0 0 0 0 0 0 0 0 0 0 0 0 0 0 0 0 0 0 0 0 0 0 0 0 0 0 0 0 0 0 0.0178944325618252 1.40388712971916 0 0 0 0 0 0 0 0 0 0 -0.401847639864808 0 0 0 0 0 -0.859438475693852 0
0 0 0 0 0 0 0 0 0 0 0 0.0300666046582387 0 0 0 0 0 0 0 0 0 0 0 0 0 0 0 0 0 0 0 0 0 0 -0.494507400181976 0 0 0 0 0 0 0 -0.498399400977003 0 0 0 0 0 -0.789933219495747 0
0 0 0 0 0 0 0 0 0 0 0 0 0 0 0 0 0 0 0 0 0 0 0 0 0 0 0 0 0 0 0 0 0 0.104123072905796 0 0 0 0 -0.461000104484367 0 0 0 0 0 0 0 0 0 0 0
0 0 0 0.393360273126412 0 0 0.157252636749885 0.267889646123296 0 0 0 0 0.139698544576079 0 0 0 0.276302889216465 0.964841235910772 0.0365724188694033 0 0 0 0 0 0 0 0 0 0 0 0 0 0 0 0 0 0 0 0 0 0 -1.5155946178417 0 0 0 0 -1.73907076289929 -0.183394834019911 0 0
0 0 0 0 0 0 0 0 0 0 0 0 0 0 0 0 0 0 0 0.427122821210604 0 0.439110647010028 0.120616919119852 0.76751043044195 0.519366300305916 0 0.229805734922736 0 0 0 0 0 0 0 0 0 0 0 0 0 0 -1.11722107828307 -1.14808575670919 0 0 0 -0.473234698136898 0 0 0
0 0 0 0.177114157350196 0 0.36553732589511 0.125348638326318 0.244400892673393 0.142501248041153 0 0 0 0 0 0 0 0 0 0 0 0 0 0 0 0 0 0 0 0 0 0 0 0 0 0 0 0 0 0 0 0 -1.14431978352402 -0.194983858809599 0 0 0 0 -1.25290758628371 -0.282959368711098 0
0 0 0 0 0 0 0 0 0 0 0 0 0 0 0 0 0 0 0 0 0 0 0 0 0 0 0 0 0 0 0 0.590142447821618 0 0 0.0963292235888971 0 0 0 0 0 0 -2.6778897937464 -0.344418398080395 0 0 0 -0.728844373556195 0 0 0
0 0 0 0 0 0 0 0 0 0 0 0 0 0 0 0 0 0 0 0 0 1.23514971247025 0.875740886296063 1.0980124263088 0.370931763645509 0 0 0.19959989023664 0.48673495628997 0 0 0 0 0 0 0 0 0 0 0 0 0 -2.55194894900719 0 0 0 0 -0.278712298512806 0 0
0 0 0 0 0 0 0 0 0 0.804865034241063 0 0 0.610859590910303 0.732552275415071 0.0922121340656179 0.378491424322672 0 0 0.212333438321535 0.239021221421206 0.359815617307597 0 0 0.204119946336272 0 0.237723453687393 0 0 0 0 0 0 0 0 0 0 0 0 0 0 0 0 0 0 0 0 0 0 0 0
0 0 0 0 0 0 0 0 0 0 0 0 0 0 0 0 0 0 0 0 0 0 0 0 0 0 0 0 0 0 0 0 0 0 0 0.292646116604839 0.200393173648928 0.19700427592269 0.501948109922084 0 0 0 0 0 0 0 0 0 0 0
0 0 0 0 0 0 0 0 0 0 0 0 0 0 0 0 0 0 0 0 0 0 0 0 0 0 0 0 0 0.253411327866519 0.237165010758667 0 0.0811624210155515 0.101892628885085 0 0 0.227818733244488 0.0364110217747257 0.0681430617290642 0.562812582457471 0 0 0 0 0 0 0 0 0 0
0 0 0 0 0 0 0 0 0 0 0 0 0 0 0 0 0 0 0 0 0 0.25576837326785 0 0.38329810038227 0 0 0 0 0 0 0 0 0 0 0 0 0 0 0 0 0 0 0 0 0 0 0 0 0 0
0 0 0 0 0 0 0.0529667234587603 0.827034045847156 0.179124063776556 0.319827443225039 0.321441185928265 1.53763654333918 0 0.521461405489805 0 0 0 0 0 0 0 0 0 0 0 0 0 0 0 0 0 0 0 0 0 0 0 0 0 0 0 0 0 0 0 0 0 0 0 0
0 0 0 0 0 0 0 0 0 0 0 0 0.0544934024794205 0 0 0 0 0 0 0 0 0 0 0 0 0 0 0 0 0 0 0 0 0 0 0 0 0 0 0 0 0 0 0 0 0 0 0 0 0
0 0 0 0 0 0 0 0 0 0 0 0 0 0 0 0 0 0 0 0 0 0 0 0 0 0 0 0 0 0 0 0 0 0 0 0.372771477202969 0.0990305039778867 0 0.148116120355183 0 0 0 0 0 0 0 0 0 0 -2.24046073603998
0 0 0 0 0 0 0 0 0 0 0 0 0 0 0 0 0 0 0 0 0 0 0 0 0 0 0 0 0 0 0 0 0 0 0 0.0352325233259622 0 0.251520086183472 0 0.0568437691005581 0 0 0 0 0 0 0 0 0 -4.44832213303097
0 0 0 0 0 0 0 0 0 0 0 0 0 0 0 0 0 0 0 0 0 0 0 0 0 0 0 0 0 0 0 0 0.159853595644433 0.174349499730971 0 0 0 0.0548173665264559 0 0 0 0 0 0 0 0 0 0 0 0
0 0 0 0 0 0 0 0 0 0 0 0 0 0 0 0 0 0 0 0 0 0 0 0 0 0 0 0 0 0 0 0 0 0 0 0 0 0 0 0 0 0 0 0 0 0 0.471531824371221 0.872023163192151 0 0
