0 0 0 0 -2.03983833341896 0 0 0 0 0 0 0 0 0 0 0 0 0 0 0 0 0 -5.34165067696332 0 0 0 0 0 0 0 0 0 0 0 0 0 0 0 0 0 0 0 0 0 0 0 0 0 0 0
0 0 0 0 -0.825218079317828 0 0 0 -1.89951662185111 0 0 0 0 0 0 0 0 0 0 0 0 0 0 0 0 0 0 0 0 0 0 0 -2.36870021040136 0 0 0 0 0 0 0 0 0 0 0 0 0 0 0 0 0
0 0 0 0 0 0 0 0 0 0 0 0 0 0 0 0 0 0 0 0 0 0 0 0 0 0 0 0 0 0 0 0 0 0 0 0 0 0 0 -1.45277005926123 0 0 0 0 0 0 0 0 0 0
0 0 0 0 0 0 0 0 -0.318052222728782 0 0 0 0 0 0 0 -1.65281976179706 0 0 0 0 0 0 0 -1.68401526557385 0 0 0 0 0 0 0 0 0 0 0 0 0 0 0 0 0 0 0 0 0 0 0 0 0
0.391013328870706 0.155983196980946 0 0 0 0 0 0 0 0 0 0 0 -5.05740409216043 0 0 -1.26985093941705 0 0 0 0 0 0 0 0 0 0 0 0 0 0 0 0 0 -0.641613582442832 0 0 0 0 0 0 0 0 0 0 0 0 0 0 0
0 0 0 0 0 0 0 0 0 0 0 0 0 0 0 0 0 0 0 0 0 0 0 0 -0.550102510879091 0 0 0 0 0 0 0 0 0 -1.22378452261998 0 0 0 0 0 0 0 0 0 0 0 0 0 0 0
0 0 0 0 0 0 0 0 0 0 0 0 0 0 0 0 0 0 0 0 0 0 0 0 -7.42789250873954 0 0 0 0 0 0 0 0 0 0 0 0 0 0 0 0 0 0 0 0 0 0 0 0 0
0 0 0 0 0 0 0 0 0 0 0 0 -1.20305779647166 0 0 0 0 0 0 0 0 0 0 0 -1.47636093342145 0 -0.911292777869956 0 0 0 0 0 0 0 0 0 0 0 0 0 0 0 0 0 0 0 0 0 0 0
0 0.394969908923729 0 0.0652082319386444 0 0 0 0 0 0 0 0 0 0 0 0 0 0 0 0 0 0 0 0 0 0 0 0 -0.655707314860151 -0.249120944636892 0 0 0 0 0 0 0 0 0 0 0 0 0 -1.07064648577686 0 0 0 0 0 0
0 0 0 0 0 0 0 0 0 0 -0.113015036819691 0 0 0 0 -9.09259370052046 0 0 0 0 0 0 0 0 0 0 0 0 -1.9965095247725 0 0 0 0 -1.1700856235472 0 0 0 0 0 0 0 0 0 0 0 0 0 0 -0.874007022811859 0
0 0 0 0 0 0 0 0 0 0.0237751770131143 0 0.254392775606518 0 0 0 0 0 0 -2.02892778039418 0 0 0 0 0 0 0 0 0 -1.63306063812694 -0.790421254652048 0 0 0 -0.635510555112409 0 0 0 0 0 0 0 0 0 -0.141766828570055 0 0 0 0 0 0
0 0 0 0 0 0 0 0 0 0 -1.20939550673807 0 0 0 0 -1.06826926747429 0 0 -2.03694306781736 0 0 0 0 0 0 0 0 0 0 0 0 0 0 0 0 0 0 0 0 0 0 0 0 -0.232012564079542 0 0 0 0 -0.443134149956901 0
0 0 0 0 0 0 0 0.217434998306277 0 0 0 0 0 0 0 -3.63657265334905 0 0 0 0 0 0 0 0 0 0 0 0 -1.48062515908207 -0.604177584910332 0 0 0 -1.15482309292512 0 0 0 0 0 0 0 0 0 -0.0974014884787133 0 0 0 0 0 0
0 0 0 0 1.08078788269621 0 0 0 0 0 0 0 0 0 0 0 0 0 0 0 0 0 0 0 0 0 0 0 0 -0.398196968817466 0 0 0 -1.38870122810014 0 0 0 0 0 0 0 0 0 -2.10653911865518 0 0 -0.676051424475377 0 -0.939846184766547 0
0 0 0 0 0 0 0 0 0 0 0 0 0 0 0 0 0 0 0 0 0 0 0 0 0 0 0 0 0 0 0 0 0 -0.608585028961772 0 0 0 0 0 0 0 0 0 -2.59300699982001 0 0 0 0 -4.65939879835426 0
0 0 0 0 0 0 0 0 0 1.73977581168025 0 0.208869651566538 0.745610694754265 0 0 0 0 0 -1.8165037697483 0 -0.468916879994448 0 0 0 0 0 0 0 0 -6.09842316777923 0 0 0 -1.26907220248566 0 0 0 0 0 0 0 0 0 -1.48381075330846 0 0 0 0 0 0
0 0 0 0.30644019569125 0.249000550445831 0 0 0 0 0 0 0 0 0 0 0 0 0 -2.3342135812976 0 -1.33037741830888 0 0 0 0 0 0 0 0 0 0 0 0 -0.764329096279958 0 0 0 0 0 0 0 0 0 -0.211318676640963 0 0 -0.914031455013722 0 0 0
0 0 0 0 0 0 0 0 0 0 0 0 0 0 0 0 0 0 0 0 0 0 0 0 0 0 0 0 0 -0.413902868343427 0 0 0 0 0 0 0 0 0 0 0 0 0 0 0 0 -1.62837260413985 0 0 0
0 0 0 0 0 0 0 0 0 0 0.436171197466687 0.407493160189903 0 0 0 0.367145506600765 0.492046335077167 0 0 0 0 0 0 0 0 0 0 0 0 0 0 0 0 -10.6476843585203 0 0 0 0 0 0 0 0 0 0 0 0 0 0 0 0
0 0 0 0 0 0 0 0 0 0 0 0 0 0 0 0 0 0 0 0 0 0 0 0 0 0 0 0 0 -0.246027136596827 0 0 0 0 0 0 0 0 0 0 0 0 0 0 0 0 -0.378937655805149 0 0 0
0 0 0 0 0 0 0 0 0 0 0 0 0 0 0 0.0973633274506137 0.249868005082219 0 0 0 0 0 0 0 0 0 0 0 0 0 0 0 0 0 0 0 0 0 0 0 0 0 0 -11.8384786561557 0 0 -1.6544441708325 0 0 0
0 0 0 0 0 0 0 0 0 0 0 0 0 0 0 0 0 0 0 0 0 0 0 0 0 -0.146461352107639 0 0 0 0 -3.99986257939766 0 0 0 0 0 0 0 0 0 0 0 0 -0.362445501424873 0 0 0 0 0 0
1.12480932110385 0 0 0 0 0 0 0 0 0 0 0 0 0 0 0 0 0 0 0 0 0 0 -2.82172720264678 0 0 0 0 0 0 -0.479015232678347 0 0 -0.447442210119252 0 0 -2.24558051715583 0 0 0 0 0 0 0 0 0 0 0 0 0
0 0 0 0 0 0 0 0 0 0 0 0 0 0 0 0 0 0 0 0 0 0 0.593048502765011 0 0.169033599662045 0.166170497547575 0 0 0 0 -2.0186225437535 0 0 -0.426768882593585 0 0 -1.3494319740961 0 0 0 0 0 0 0 0 0 0 0 0 0
0 0 0 0.346537247680495 0 0.110851966147964 1.52266528012007 0.334668506346922 0 0 0 0 0 0 0 0 0 0 0 0 0 0 0 -0.881861395567344 0 0 0 0 0 0 0 0 0 -2.07557631257866 0 0 -2.14468336921518 0 0 0 0 0 0 0 0 0 -0.951123183774998 0 0 0
0 0 0 0 0 0 0 0 0 0 0 0 0 0 0 0 0 0 0 0 0 0.030502801819155 0 -0.839539696285186 0 0 0 0 0 0 -0.694573861737494 0 0 -0.37681225118303 0 0 0 0 0 0 0 0 0 0 0 0 -2.00209523875528 0 0 0
0 0 0 0 0 0 0 0.173777759684626 0 0 0 0 0 0 0 0 0 0 0 0 0 0 0 0 0 0 0 0 0 0 -0.787374780146099 0 0 0 0 0 0 0 0 0 0 0 0 0 0 0 0 0 0 0
0 0 0 0 0 0 0 0 0 0 0 0 0 0 0 0 0 0 0 0 0 0 0 0 0 0 0 0 0 0 0 0 0 0 0 0 0 0 0 0 -0.899295251773197 -0.614996130367149 0 0 0 -0.675705728811974 0 0 0 0
0 0 0 0 0 0 0 0 0.137066438399271 0.370620429290293 0.366397107488588 0 0.2942758650933 0 0 0 0 0 0 0 0 0 0 0 0 0 0 0 0 0 0 0 0 0 0 0 0 0 0 0 0 -0.360331092982052 0 0 0 0 0 0 0 0
0 0 0 0 0 0 0 0 0.0491601442118688 0 0.170465628137639 0 0.116176114520129 0.0835874309092821 0 1.19199746554905 0 0.0805734088846868 0 0.0520101850096539 0 0 0 0 0 0 0 0 0 0 0 0 0 0 0 0 0 0 0 0 0 0 0 0 0 0 0 0 0 0
0 0 0 0 0 0 0 0 0 0 0 0 0 0 0 0 0 0 0 0 0 0.795196228774888 0.0983295007494615 0.423640687050198 0 0.141523951366961 0.149214991457069 0 0 0 0 0 0 0 0 0 0 0 0 0 0 -1.21918336563597 -0.297298305449781 0 0 0 0 -0.420559319846182 0 0
0 0 0 0 0 0 0 0 0 0 0 0 0 0 0 0 0 0 0 0 0 0 0 0 0 0 0 0 0 0 0 0 0 0 0 0 0 0 0 0 0 -1.59670939533519 0 0 0 -0.346363923580476 0 0 0 0
0 0.476674065004231 0 0 0 0 0 0 0 0 0 0 0 0 0 0 0 0 0 0 0 0 0 0 0 0 0 0 0 0 0 0 0 0 0 0 0 0 0 0 0 -0.86446387865901 0 0 0 0 0 0 0 0
0 0 0 0 0 0 0 0 0 0.225645611535168 0.12144089032901 0 0.229486227843342 0.278977978726325 0.129581066572165 0.256491649413247 0.144236145414184 0 2.31021486552727 0 0 0 0.0888790823964048 0.0779901122534953 0.421339570485475 0.0782213726503576 0 0 0 0 0 0 0 0 0 0 0 0 0 0 0 0 0 0 0 0 0 0 0 0
0 0 0 0 0.130366135298046 0.235601980391076 0 0 0 0 0 0 0 0 0 0 0 0 0 0 0 0 0 0 0 0 0 0 0 0 0 0 0 0 0 0 0 0 0 0 0 0 0 0 0 0 0 0 0 0
0 0 0 0 0 0 0 0 0 0 0 0 0 0 0 0 0 0 0 0 0 0 0 0 0 0 0 0 0 0 0 0 0 0 0 0 0 -1.92556293592034 0 0 0 0 0 0 0 -0.618379478998465 0 0 0 0
0 0 0 0 0 0 0 0 0 0 0 0 0 0 0 0 0 0 0 0 0 0 0.428203036429682 0.268911960510389 0.447891134491263 0 0 0 0 0 0 0 0 0 0 0 0 0 0 0 0 0 0 0 0 -0.748004942998771 0 0 0 -0.744989598361827
0 0 0 0 0 0 0 0 0 0 0 0 0 0 0 0 0 0 0 0 0 0 0 0 0 0 0 0 0 0 0 0 0 0 0 0.395054469545946 0 0 0 0 0 0 0 0 0 0 0 0 0 0
0 0 0 0 0 0 0 0 0 0 0 0 0 0 0 0 0 0 0 0 0 0 0 0 0 0 0 0 0 0 0 0 0 0 0 0 0 0 0 0 0 0 0 0 -1.7036817635484 -1.22146316393606 0 0 0 0
0 0 0.285259275515575 0 0 0 0 0 0 0 0 0 0 0 0 0 0 0 0 0 0 0 0 0 0 0 0 0 0 0 0 0 0 0 0 0 0 0 0 0 0 0 0 0 0 -0.986110512782723 0 0 0 0
0 0 0 0 0 0 0 0 0 0 0 0 0 0 0 0 0 0 0 0 0 0 0 0 0 0 0 0.187638014859752 0 0 0 0 0 0 0 0 0 0 0 0 0 0 0 0 0 0 0 0 0 0
0 0 0 0 0 0 0 0 0 0 0 0 0 0 0 0 0 0 0 0 0 0 0 0 0 0 0 0.120415516362294 0.0744690696115104 0 0.247737663669793 0.301481609144814 0.188236542548392 0 0 0 0 0 0 0 0 0 0 0 -1.01663229482919 -0.334936479774113 0 0 0 -0.602463088754632
0 0 0 0 0 0 0 0 0 0 0 0 0 0 0 0 0 0 0 0 0 0 0 0 0 0 0 0 0 0 0.0600312170542509 0 0 0 0 0 0 0 0 0 0 0 0 0 0 -0.530268065769554 0 0 0 -2.36409063421167
0 0 0 0 0 0 0 0 0.238511711153826 0 0.0282414062168243 0.0457633448199345 0.0188570112563312 0.439133802221088 0.502105894651969 0.283340797003116 0.043940686112589 0 0 0 2.35896589514921 0.065855569652962 0 0 0 0 0 0 0 0 0 0 0 0 0 0 0 0 0 0 0 0 0 0 0 0 0 0 0 -1.72500185321884
0 0 0 0 0 0 0 0 0 0 0 0 0 0 0 0 0 0 0 0 0 0 0 0 0 0 0 0 0 0 0 0 0 0 0 0 0 0 0.338909406974391 0 0 0.210599812451266 0 0 0 -0.947176237001856 0 0 0 -0.515042702774965
0 0 0 0 0 0 0 0 0 0 0 0 0 0 0 0 0 0 0 0 0 0 0 0 0 0 0 0.138501076228728 0 0 0 0.0707034043315758 0 0 0 0.120000938805801 0.137310434249129 0 0.248462736483657 0.189492302948149 0 0.070532413908647 0.102769296662046 0 0.199367915391531 0 1.25864074949586 0 0 -0.176254483892037
0 0 0 0 0 0 0 0 0 0 0 0 0 0.124959747036412 0 0 0.180464013251009 0.330907668031335 0 0.075996392152574 0.340607376619287 0 0 0 0.181481673732082 0.411427059563559 0 0 0 0 0 0 0 0 0 0 0 0 0 0 0 0 0 0 0 -6.06616290430885 0 0 0 0
0 0 0 0 0 0 0 0 0 0 0 0 0 0 0 0 0 0 0 0 0 0 0 0 0 0 0 0 0 0 0.0851793347816734 0 0 0 0 0 0 0 0 0 0 0 0 0 0 0 0 0 0 0
0 0 0 0 0 0 0 0 0 0.159050302722107 0 0.0881193852057522 0 0.201692879252837 0.92285214614087 0 0 0 0 0 0 0 0 0 0 0 0 0 0 0 0 0 0 0 0 0 0 0 0 0 0 0 0 0 0 0 0 0 0 -0.4020769948223
0 0 0 0 0 0 0 0 0 0 0 0 0 0 0 0 0 0 0 0 0 0 0 0 0 0 0 0 0 0 0 0 0 0 0 0 0.149153545566274 0 0 0 0 0.112269971226309 0.435491099060873 0.370413818681391 0.11048921785732 0.0328366925895719 0 0 0.0827419938371711 0
