0.13699829971681
0.194755085929144
1.13438391275987
0.757065499665395
0.403791733843053
0.757378730887338
2.7009577474024
0.135543286730967
0.0901571333824998
0.273431743453297
0.282732478620948
0.346459005625114
0.781574015745022
0.192846192809695
5.20375655749507
0.555482486314694
0.324215521717975
2.9542190272531
4.50003291436194
0.910184484844534
0.246543962246219
0.122273980701229
0.463231389202179
1.30680622682424
0.648258507749545
0.0953429597431559
0.824130400567663
0.39926849036268
1.20323433121605
0.667390953005266
0.560942782631747
0.998306771629737
0.249127042373813
0.454299475682457
1.86990606749729
1.62141617485744
7.39200680039414
0.375410292976106
1.65288967851775
0.170905907443323
2.17164501956283
0.400046022215543
0.618259861560983
0.545147745181276
0.0697278042768724
0.0717300415148068
0.685841683279576
0.0503639197871281
0.432401191791054
0.750992132250875
