0.818740873824577
0.621846199569151
0.0228427332401248
0.0530481543962711
3.75930496969902
0.153851257757986
0.168039163702292
0.688652757400684
0.0350091887598706
0.17365795565668
3.80867700053693
1.06111773314218
0.5688175439603
0.793937264465032
1.793458990177
0.369555979175703
0.478040935308906
1.0430341247368
0.693980492241752
1.46539144101321
0.589021222727379
0.999738347675064
0.513255975210447
0.61560908409318
0.181522605965456
7.85111060652279
4.88624122267599
1.32731862550848
0.0271901673139117
0.850165028191919
0.0332741241720233
0.104853275882718
0.321231256129936
0.0344480029770803
0.961875625361564
0.201035354463463
3.84474144824785
0.279949090474267
2.07417411082962
2.56464683552303
0.478948741565798
0.122669385348936
1.66266768703946
0.288005811134513
3.26303532946781
0.496016146286081
0.0854520429577634
1.74464751137714
0.0499931026553074
0.677161793032596
