0.620001101686422
0.406963732394152
0.108017120660051
0.248904451563717
0.211804852810636
0.0931077614477879
0.443237179625788
0.908488374931818
0.107743560889404
0.5385304146554
0.418152536862274
0.548818264126715
0.754221317003759
2.6392961237886
0.575781044966982
0.429326511573428
2.02842169494758
0.855356118854821
0.360266133284252
2.52457974322584
0.752852418683358
0.275208994735308
1.97524388030917
0.163678113961721
0.2443498548454
1.97466029467514
1.27113841661537
0.555956900151379
0.0802831492553618
0.749774972855322
1.96560103361943
0.455385904660388
0.843556810372116
1.93390180418479
0.133729058019765
0.510895348361732
1.42121423442592
1.23813309456414
0.433725677842201
0.90402615554761
0.022447701610611
1.96355725103574
0.121126601060832
2.30004175018317
0.810631531076745
1.73831631733676
1.40880903262436
0.0337299607841944
0.181451915501515
0.278960270320098
