1.0235287791306
1.4165014291095
0.094660861409481
2.1437209820604
1.37772259029388
0.254913794302956
2.97069106586832
0.287998410229502
1.37217913345622
0.088495147666369
0.449862652681514
0.0379304555510947
1.56590616637373
2.64531614636176
0.247253091651349
0.214845713293187
0.725127585735288
0.8094204033251
1.46479627793699
0.977094058233905
0.101974734490154
0.0201386448925627
4.03535924106639
0.0680272779263631
0.393555564643116
0.181998677300233
1.78254865948073
1.11533747853239
0.262622789121525
1.12886468353802
1.66368907039934
0.227142220215211
0.443977436946841
0.396885838937444
0.320409403781586
3.72346783034271
1.8674711371786
0.432888122202981
0.715183962627802
0.671000816876872
1.25740458189692
0.661252997701746
0.338210443469497
0.260600474653359
1.48601074881972
0.665037696284718
0.289085072518074
0.0814673085783562
1.13134997595108
0.385379429753829
