0 -0.729904076467252 0 0 0 0 0 0 0 0 0 0 0 0 0 0 0 -1.01572157388893 0 0 0 0 0 0 0 0 0 0 0 0 0 0 0 0 0 0 0 0 0 0 0 0 0 0 0 0 0 0 0 0
0.14606091121436 0 0 0 0 0 0 0 0 0 0 0 0 0 0 0 0 0 0 0 0 0 0 0 0 0 0 0 0 0 0 0 0 0 0 0 0 0 0 0 0 0 0 0 0 0 0 0 0 0
0 0 0 0 0 0 0 0 0 0 0 0 0 0 0 0 0 -0.496595644320916 0 0 0 0 0 0 0 0 0 0 0 0 0 0 0 0 0 0 0 0 0 0 0 0 0 0 0 0 0 0 0 0
0 0 0 0 0 0 0 0 0 0 0 0 -0.638122667112576 0 0 -9.33286404050296 0 0 0 0 0 0 0 0 0 0 0 0 0 0 0 0 0 0 0 0 0 0 0 0 0 0 0 0 0 0 0 0 0 0
0 0 0 0 0 0 0 0 0 0 0 -0.835308073859896 -0.697554133834983 0 -0.36044414770234 0 0 -3.34172330997148 0 0 0 0 0 0 0 0 0 0 0 0 0 0 0 0 0 0 0 0 0 0 0 0 0 0 0 0 0 0 0 0
0 0 0 0 0 0 0 0 0 0 0 -0.344741469767304 -0.818039082172179 0 0 -2.67995892043885 0 0 0 0 0 0 0 0 0 0 0 0 0 0 0 0 0 0 0 0 0 0 0 0 0 0 0 0 0 0 0 0 0 0
0 0 0 0 0 0 0 0 0 0 -1.05774912868145 -4.2127289382912 0 0 -0.904651469000223 0 0 0 0 0 0 0 0 0 0 0 -4.32596977341134 0 0 0 0 0 0 0 0 0 0 0 0 0 0 0 0 0 0 0 0 0 0 0
0 0 0 0 0 0 0 0 0 -0.174862876996975 0 0 0 -0.20062995658529 -0.11096596130235 0 0 0 0 -2.82507429582463 0 0 0 0 0 0 -1.09068495723537 0 0 0 0 0 0 0 -1.64081147562057 0 0 0 0 0 0 0 0 0 0 0 0 0 0 0
0 0 0 0 0 0 0 0 0 -0.731488179549595 0 -0.309984193473969 -1.11600718488443 -1.82811590818135 -5.49360819769686 0 0 0 0 -0.417266032001784 0 0 0 0 0 0 -1.34933653650755 0 0 0 0 0 0 0 -8.06582938167264 0 0 0 0 0 0 0 0 0 0 0 0 0 0 0
0 0 0 0 0 0 0 0.0351935681013476 0.148963400609149 0 0 0 -2.62205616538294 0 0 0 0 0 0 0 0 0 0 -1.18383508577241 0 0 0 0 0 0 0 0 0 -0.209856605005398 0 0 0 0 0 0 0 0 0 0 0 0 0 0 -2.63849432870131 0
0 0 0 0 0 0 0.218229074124844 0 0 0 0 0 0 0 0 0 0 0 0 0 0 0 0 0 0 0 0 0 0 0 0 0 0 0 -0.179197387197682 0 0 0 0 0 0 0 0 0 0 -0.426637362145415 0 0 -1.39768059060293 0
0 0 0 0 0.168449062214579 0.0660757786215375 0.858587580653373 0 0.0597275586829372 0 0 0 0 0 0 0 0 0 0 0 0 0 0 0 0 0 0 0 0 0 0 0 0 0 0 0 0 0 0 0 0 0 -1.54764839960022 0 0 -1.55853404264472 0 0 0 0
0 0 0 0.133796868865602 0.139480523754939 0.179885503457261 0 0 0.225043041023643 0.533588482680399 0 0 0 0 0 0 0 0 0 0 0 0 0 0 0 0 0 -2.83224141656908 0 0 0 0 0 0 0 0 0 -2.00574894243646 0 0 0 0 -1.60817776661338 0 0 -3.76267605626987 0 0 0 0
0 0 0 0 0 0 0 0.0413943327659881 0.34229336884489 0 0 0 0 0 0 0 0 0 0 0 0 0 0 0 0 0 0 -9.16435708679793 0 0 0 0 0 0 0 0 0 0 0 0 0 0 0 0 0 -1.11485947282733 0 0 0 0
0 0 0 0 0.0729866433245249 0 0.179467866177755 0.0214987488912963 1.0400717030504 0 0 0 0 0 0 0 0 0 -0.636363192698126 0 0 0 0 0 0 0 0 0 0 0 0 0 0 0 0 0 0 0 0 0 0 0 -1.41652824653861 0 0 -0.306142726841375 0 0 0 0
0 0 0 1.88852489765056 0 0.545097426163275 0 0 0 0 0 0 0 0 0 0 0 0 0 0 0 0 0 0 0 0 0 0 0 0 0 0 0 0 0 -0.519689033179764 0 -0.0871455985412905 0 0 0 -2.26362702885462 -0.768849807805057 0 0 -1.80387359478031 0 0 0 0
0 0 0 0 0 0 0 0 0 0 0 0 0 0 0 0 0 0 0 0 0 0 0 0 0 0 0 0 0 0 0 0 -0.239405695188922 0 0 -0.666097531806289 0 -1.19676513245955 0 0 0 -0.496911855765885 -1.63820772589142 0 0 0 0 0 0 0
0.210539316308495 0 0.100606967026749 0 0.655268549477396 0 0 0 0 0 0 0 0 0 0 0 0 0 0 0 0 0 0 0 0 0 0 0 0 0 0 0 -0.308489250798799 0 0 -1.85761896414223 0 0 0 0 0 0 0 0 0 -0.979608898197393 0 0 0 0
0 0 0 0 0 0 0 0 0 0 0 0 0 0 0.134154798966323 0 0 0 0 0 0 0 0 0 0 0 0 0 0 0 0 -0.893597860385604 0 0 0 -2.06579216222829 0 0 0 0 0 0 0 0 0 0 0 0 0 0
0 0 0 0 0 0 0 0.560314309635353 0.0860127936039799 0 0 0 0 0 0 0 0 0 0 0 0 0 0 0 0 0 0 0 0 0 0 -2.26582380675056 0 0 0 -1.20481511486661 0 -0.552465304890327 0 0 0 -0.142630466553801 0 0 0 -2.73860371884733 0 -0.77882790846985 0 0
0 0 0 0 0 0 0 0 0 0 0 0 0 0 0 0 0 0 0 0 0 0 -3.98366430591964 0 0 -0.764483832292379 0 0 0 0 0 0 0 0 0 0 0 -0.620033843487667 0 0 0 -0.325994776715545 0 0 0 0 -0.187590330889127 0 0 0
0 0 0 0 0 0 0 0 0 0 0 0 0 0 0 0 0 0 0 0 0 0 -0.14438585597274 0 -1.80157201144261 0 0 0 0 0 0 -1.1640858804316 0 0 0 0 0 0 0 0 0 -1.67698017397646 0 0 0 -2.37761900289291 0 -1.41119248865221 0 0
0 0 0 0 0 0 0 0 0 0 0 0 0 0 0 0 0 0 0 0 0.885622300710371 0.0291459056050469 0 0.0971264941710383 1.43507556048896 -3.80617650627805 0.254381782228159 0.14610854502895 0 -1.89454768961102 -0.884001672431197 0 0 0 0 -0.32514542689369 -1.8303388179984 -2.19430549966737 0 -0.250179281921318 0 -1.01237690056594 0 0 -0.359478653885206 -1.51129285391878 0 0 0 0
0 0 0 0 0 0 0 0 0 0.247659771758229 0 0 0 0 0 0 0 0 0 0 0 0 -0.54566324934707 0 0 -5.9348715888289 0 0 -0.287867628452389 -2.67991480692117 -3.28766527512597 0 0 0 0 0 0 0 0 -1.00486039866876 -0.717238970722365 0 0 0 0 0 0 0 0 0
0 0 0 0 0 0 0 0 0 0 0 0 0 0 0 0 0 0 0 0 0 0.347014920552904 -6.56164270144173 0 0 0 0 0 0 -0.320856151911033 -0.439535753632973 0 0 0 0 0 0 0 0 0 -1.45005909816571 0 0 -0.23435844653231 0 -0.821798448623499 0 -5.5485127104348 0 0
0 0 0 0 0 0 0 0 0 0 0 0 0 0 0 0 0 0 0 0 0.145310321693871 0 0.765334482862537 1.21223890393008 0 0 0 0 0 -1.03427106455921 0 0 0 0 0 0 0 0 0 0 0 0 0 -0.847661038749378 0 -0.345306335283291 0 0 0 0
0 0 0 0 0 0 0.8780318774709 0.220281401929436 0.251707483200417 0 0 0 0 0 0 0 0 0 0 0 0 0 -1.28316831157341 0 0 0 0 0 0 0 0 0 0 0 0 0 0 0 0 -0.902878010832632 -2.19103961758734 0 0 -0.305406597614816 0 0 0 0 0 0
0 0 0 0 0 0 0 0 0 0 0 0 0.576362943531027 1.82080011531699 0 0 0 0 0 0 0 0 -0.749093411028452 0 0 0 0 0 0 0 -1.46220448453306 0 0 0 0 0 0 0 0 -0.247426811860295 0 0 0 0 0 0 0 0 0 0
0 0 0 0 0 0 0 0 0 0 0 0 0 0 0 0 0 0 0 0 0 0 0 0.0564926202831506 0 0 0 0 0 0 0 0 0 0 0 0 0 0 0 0 -3.83640064249406 0 0 -0.487937865601876 -0.389641913005354 -0.524316352802429 0 0 0 0
0 0 0 0 0 0 0 0 0 0 0 0 0 0 0 0 0 0 0 0 0 0 0.369552781718334 0.51585716977683 0.0699746376539922 0.198330460841277 0 0 0 0 0 0 0 0 0 0 0 0 0 0 0 0 0 0 0 0 0 0 0 0
0 0 0 0 0 0 0 0 0 0 0 0 0 0 0 0 0 0 0 0 0 0 0.17942929295576 0.648893706683052 0.0894860849431005 0 0 0.28513246594963 0 0 0 0 0.0771513686063789 0 0 0 0 0 0 0 -1.0005238343484 0 0 0 0 -2.72375453601297 0 0 0 0
0 0 0 0 0 0 0 0 0 0 0 0 0 0 0 0 0 0 0.17019173802653 0.409018195995301 0 0.239296773946311 0 0 0 0 0 0 0 0 0 0 0 0 0 0 0 0 0 0 0 0 0 0 0 0 0 0 0 0
0 0 0 0 0 0 0 0 0 0 0 0 0 0 0 0 0.0479479498302474 0.0614103070168085 0 0 0 0 0 0 0 0 0 0 0 0 -0.389604858327872 0 0 0 0 0 0 0 0 0 0 0 0 0 0 0 0 0 0 -3.18944531854188
0 0 0 0 0 0 0 0 0 0.0432863431489784 0 0 0 0 0 0 0 0 0 0 0 0 0 0 0 0 0 0 0 0 0 0 0 0 0 0 0 0 0 -0.824276294738959 0 0 0 0 0 0 0 0 0 0
0 0 0 0 0 0 0 0.305965689078983 1.60020861272844 0 0.0329359149456787 0 0 0 0 0 0 0 0 0 0 0 0 0 0 0 0 0 0 0 0 0 0 0 0 0 0 0 0 0 0 0 0 0 0 0 0 0 0 0
0 0 0 0 0 0 0 0 0 0 0 0 0 0 0 0.102434341615535 0.133425467322074 0.365718431472755 0.440976736832955 0.230654437945674 0 0 0.0690592395115399 0 0 0 0 0 0 0 0 0 0 0 0 0 0 0 -9.89005469818519 0 0 0 0 0 0 0 0 0 0 0
0 0 0 0 0 0 0 0 0 0 0 0 0 0 0 0 0 0 0 0 0 0 0.416069818384476 0 0 0 0 0 0 0 0 0 0 0 0 0 0 0 -1.52835576926175 0 0 0 0 0 0 0 0 0 0 0
0 0 0 0 0 0 0 0 0 0 0 0 0.406010471839306 0 0 0.0193934034471807 0.251314408747163 0 0 0.113912610286131 0.124542931067338 0 0.427287752880027 0 0 0 0 0 0 0 0 0 0 0 0 0 0 0 0 0 0 0 0 0 0 0 0 0 0 0
0 0 0 0 0 0 0 0 0 0 0 0 0 0 0 0 0 0 0 0 0 0 0 0 0 0 0 0 0 0 0 0 0 0 0 2.08140430288741 0.282755850019065 0 0 0 0 0 0 0 0 0 0 0 0 0
0 0 0 0 0 0 0 0 0 0 0 0 0 0 0 0 0 0 0 0 0 0 0.051424703079119 0.195574075463166 0 0 0.182010799658759 0.0504246105304919 0 0 0 0 0 0.167517153009465 0 0 0 0 0 0 0 0 0 0 0 0 0 0 0 0
0 0 0 0 0 0 0 0 0 0 0 0 0 0 0 0 0 0 0 0 0 0 0 0.141323410729254 0.287636564612178 0 0.412671488189829 0 0.787062409997101 0 0.20121144947168 0 0 0 0 0 0 0 0 0 0 0 0 0 0 0 0 0 0 0
0 0 0 0 0 0 0 0 0 0 0 0 0 0 0 0.458911870885042 0.106288523522156 0 0 0.0276346958487459 0.063445309533404 0.354449508878317 0.192728593587329 0 0 0 0 0 0 0 0 0 0 0 0 0 0 0 0 0 0 0 0 0 0 0 0 0 0 0
0 0 0 0 0 0 0 0 0 0 0 0.328943878852181 0.327096717212378 0 0.296282712425879 0.150730314298312 0.274750781843328 0 0 0 0 0 0 0 0 0 0 0 0 0 0 0 0 0 0 0 0 0 0 0 0 0 0 0 0 0 0 0 0 0
0 0 0 0 0 0 0 0 0 0 0 0 0 0 0 0 0 0 0 0 0 0 0 0 0.0439618090627202 0.152347495839889 0.0590040037888344 0 0.0950595238246546 0 0 0 0 0 0 0 0 0 0 0 0 0 0 0 0 0 0 0 0 0
0 0 0 0 0 0 0 0 0 0 0 0 0 0 0 0 0 0 0 0 0 0 0.0709973188478931 0 0 0 0 0 0.083390474829878 0 0 0 0 0 0 0 0 0 0 0 0 0 0 0 0 0 0 0 0 0
0 0 0 0 0 0 0 0 0 0 0.0900582965214895 0.282395423312884 0.780797350327941 0.247915339052462 0.0637646810678106 0.375922335188645 0 0.195451601525707 0 0.560675823602377 0 0.443203819727924 0.288255798397887 0 0.173421185719304 0.0727993458716653 0 0 0.097882689154112 0 0.596854182163512 0 0 0 0 0 0 0 0 0 0 0 0 0 0 0 0 0 0 0
0 0 0 0 0 0 0 0 0 0 0 0 0 0 0 0 0 0 0 0 0.0388369133512608 0 0 0 0 0 0 0 0 0 0 0 0 0 0 0 0 0 0 0 0 0 0 0 0 0 0 0 0 0
0 0 0 0 0 0 0 0 0 0 0 0 0 0 0 0 0 0 0 0.148311982510563 0 0.2581406288077 0 0 1.12452443875476 0 0 0 0 0 0 0 0 0 0 0 0 0 0 0 0 0 0 0 0 0 0 0 0 0
0 0 0 0 0 0 0 0 0 0.585988887462765 0.293431137158114 0 0 0 0 0 0 0 0 0 0 0 0 0 0 0 0 0 0 0 0 0 0 0 0 0 0 0 0 0 0 0 0 0 0 0 0 0 0 0
0 0 0 0 0 0 0 0 0 0 0 0 0 0 0 0 0 0 0 0 0 0 0 0 0 0 0 0 0 0 0 0 0.662638053905454 0 0 0 0 0 0 0 0 0 0 0 0 0 0 0 0 0
