0.47068912941207
0.496826180656978
0.169423546292798
0.289925342134991
0.401123656880105
0.912432585292095
2.44645124797548
0.538688052342239
1.08942210852762
0.113834950869252
1.64459526640946
1.12540411856044
0.985157858395894
1.17259321888789
0.314976825319269
2.82720047941578
0.271682742309813
0.53421047475916
0.34381845238121
1.20946491969504
0.649231454256012
0.177818118393611
2.3293827370071
0.333192602264818
0.257021649398385
0.273025594036031
0.489715298556885
2.34722711000011
0.520187522002307
0.732921619326795
1.51985386893749
0.113422093757734
1.84160216402009
0.375235348337185
0.100854964993037
3.05186821405324
0.84625621131866
0.666979762985912
0.152310428326782
0.280446929781909
0.184101817275381
0.7872706564113
0.349989289009227
1.71121022480172
0.448666511630101
0.832792200725372
0.617140055262697
0.759429679637667
0.377824473102596
0.940371139201502
