0 0 0 0 0 0 -0.588512979134123 0 0 0 0 0 0 0 0 0 0 0 0 0 0 0 0 0 0 0 0 0 0 0 0 0 0 0 0 0 0 0 0 0 0 0 0 0 0 0 0 0 0 0
0 0 -1.32181907100495 0 0 0 -0.807665610308119 0 0 0 0 0 0 0 0 0 0 0 0 0 0 0 0 0 0 0 -0.674903132513738 0 0 0 0 0 0 0 0 0 0 0 0 0 0 0 0 0 0 0 0 0 0 0
0 0.253395621131049 0 -2.67071085519131 0 0 -7.25152834388508 0 0 0 0 0 0 0 0 -8.60856326429866 0 0 0 0 0 0 0 0 0 0 0 0 0 0 0 0 0 0 0 0 0 0 0 0 0 0 -0.713618254839447 0 0 0 0 0 0 0
0 0 0.520698449453276 0 0 0 0 0 0 0 0 0 0 0 0 0 0 0 0 0 0 0 0 0 0 0 -0.210557902554355 0 0 0 0 0 0 0 0 0 0 0 0 0 0 -1.53673991940401 -0.460695186851968 0 0 0 0 0 0 0
0 0 0 0 0 0 0 0 0 0 0 0 0 0 0 -3.29958986739673 0 0 0 0 0 0 0 0 0 0 -0.900337732339849 0 0 0 0 0 0 0 0 0 0 0 0 0 0 -0.352668663021157 0 0 0 0 0 0 0 0
0 0 0 0 0 0 0 0 0 0 0 0 0 0 0 -0.444674607280667 0 0 0 0 0 0 0 0 0 0 -9.12599476029727 0 0 0 0 0 0 0 0 0 0 0 0 0 0 0 0 0 0 0 0 0 0 0
0.113291269603567 0.159028591197739 1.61219883899464 0 0 0 0 0 0 0 0 0 -2.34988815667858 0 0 0 0 0 0 0 0 0 0 0 0 0 0 0 0 0 0 0 0 0 0 0 0 0 0 0 0 0 -2.57039876349715 0 0 0 0 0 0 0
0 0 0 0 0 0 0 0 0 0 0 0 0 0 0 0 0 0 0 0 0 0 0 0 0 0 0 0 0 0 0 0 0 0 0 0 0 0 0 0 0 0 -2.50067536262138 0 0 0 0 0 0 0
0 0 0 0 0 0 0 0 0 0 0 0 0 0 -0.890736155668239 0 0 0 0 0 0 0 0 0 0 0 0 0 0 0 0 0 0 0 0 0 0 0 0 0 0 0 0 0 0 0 0 0 0 0
0 0 0 0 0 0 0 0 0 0 0 0 0 0 0 0 0 0 0 0 0 0 0 0 -2.86851161870479 -1.96412332937572 0 -0.23988163576522 0 0 0 0 0 0 0 0 0 0 0 0 0 0 -0.35723139729543 0 0 0 0 0 0 0
0 0 0 0 0 0 0 0 0 0 0 0 0 0 0 0 0 0 0 0 -1.14345240715865 0 0 0 0 -0.562326536184244 0 0 0 0 0 0 0 0 0 -0.765154124148527 0 -0.35506441770751 0 0 0 0 0 0 0 0 0 0 0 0
0 0 0 0 0 0 0 0 0 0 0 0 0 0 0 0 0 0 0 0 -0.659165023659182 0 0 0 0 0 0 0 0 0 0 0 0 0 0 -0.253876969702054 0 0 0 0 0 0 0 0 0 0 0 0 0 0
0 0 0 0 0 0 0.466720378458317 0 0 0 0 0 0 0 0 0 0 0 0 0 0 0 0 0 0 0 0 0 0 0 0 0 0 0 0 -0.393443821294289 0 0 0 0 0 0 -0.940138066403853 0 0 0 0 0 0 0
0 0 0 0 0 0 0 0 0 0 0 0 0 0 0 0 0 -0.741564367959811 0 0 0 -4.15985814204213 0 0 0 0 0 0 0 0 0 0 0 0 0 0 0 0 0 0 0 0 -1.33492743690585 0 0 0 0 0 0 0
0 0 0 0 0 0 0 0 0.173219383308341 0 0 0 0 0 0 0 0 0 0 0 0 -0.618313277556951 0 0 0 0 0 -1.3300545259902 0 0 0 -0.549379365344301 0 0 0 -5.12328832484832 0 0 0 0 0 0 -2.5963911258177 0 0 0 0 0 0 0
0 0 1.73208874766498 0 0.707755307057932 0.0904766408852953 0 0 0 0 0 0 0 0 0 0 0 0 0 0 0 -0.825352826031749 0 0 0 0 0 -0.131361049471007 0 0 0 -0.821564914470724 0 0 0 -0.464542094127652 0 0 0 0 0 0 -0.219144884383462 0 0 0 0 -0.680510400574061 0 0
0 0 0 0 0 0 0 0 0 0 0 0 0 0 0 0 0 -1.80604106626652 0 0 0 0 0 0 0 0 0 0 -1.39432875035466 0 0 -1.5060067833815 0 0 0 -1.20696587923042 0 0 0 0 0 0 0 0 0 0 0 -0.392235335276862 0 0
0 0 0 0 0 0 0 0 0 0 0 0 0 0.14280536454941 0 0 0.359325299699421 0 0 0 0 0 0 0 0 0 0 -1.39021009664289 0 0 0 0 0 0 0 0 0 0 0 0 -0.236995981184751 0 -0.0760200381343435 0 0 -0.693492444643157 0 -1.39766535583097 0 0
0 0 0 0 0 0 0 0 0 0 0 0 0 0 0 0 0 0 0 0.347812259277979 0 0 0 0 0 0 0 0 0 0 0 0 0 0 0 0 0 0 0 0 0 0 0 0 0 0 0 0 0 0
0 0 0 0 0 0 0 0 0 0 0 0 0 0 0 0 0 0 -1.66277574948818 0 0.44393534247897 0 0 0 0 0 0 0 0 0 0 0 0 0 0 0 0 0 0 0 0 0 -0.396526765321306 0 0 0 0 -1.44627916795398 0 0
0 0 0 0 0 0 0 0 0 0 0.217549213691578 0.130406182232845 0 0 0 0 0 0 0 -2.22847499697948 0 -1.68237958503999 0 0 0 0 0 0 0 0 0 0 0 0 0 0 0 0 -1.64396012199833 0 -0.624083832209901 0 0 0 0 0 0 0 0 0
0 0 0 0 0 0 0 0 0 0 0 0 0 0.785907565851137 0.120524486182413 0.16929319179993 0 0 0 0 0.318065193383032 0 0 0 0 0 0 0 -0.627802547538242 0 0 0 0 0 0 0 0 0 -1.45650806962251 0 0 0 0 0 0 0 0 -1.29655911101225 0 0
0 0 0 0 0 0 0 0 0 0 0 0 0 0 0 0 0 0 0 0 0 0 0 0 0 0 0 0 0 0 0 0 0 0 0 0 0 0 -1.05321046245178 0 0 0 -2.85982048793942 0 0 0 0 0 0 0
0 0 0 0 0 0 0 0 0 0 0 0 0 0 0 0 0 0 0 0 0 0 0 0 0 0 0 0 0 -0.834584556430438 0 0 0 0 0 0 0 0 -1.23140018499937 0 -0.347296803115397 0 0 0 0 0 0 0 0 0
0 0 0 0 0 0 0 0 0 0.579630881870146 0 0 0 0 0 0 0 0 0 0 0 0 0 0 0 0 0 0 -2.27415869843803 -1.69292976561547 0 0 0 0 0 0 -1.78891582017586 0 0 0 0 0 0 0 0 0 0 -1.12942326382083 0 0
0 0 0 0 0 0 0 0 0 0.372889155223356 0.102718394338598 0 0 0 0 0 0 0 0 0 0 0 0 0 0 0 0 0 -1.53623124004651 -0.26550322067538 0 0 0 0 0 0 -2.35010924562299 0 -0.924040594884218 0 -2.87645989457111 0 0 0 0 0 0 0 0 0
0 0.133458108919643 0 0.038813133488889 0.196309967300093 1.88980028223143 0 0 0 0 0 0 0 0 0 0 0 0 0 0 0 0 0 0 0 0 0 0 0 0 0 0 0 0 0 0 0 0 0 0 0 0 -0.563606900042753 0 0 0 0 -1.88435754185788 0 0
0 0 0 0 0 0 0 0 0 0.0472486082709583 0 0 0 0 0.266280412619796 0.024052180497544 0 0.286564078714846 0 0 0 0 0 0 0 0 0 0 0 0 0 0 0 0 0 0 0 0 0 0 0 0 0 0 0 0 -0.274780941582737 0 0 0
0 0 0 0 0 0 0 0 0 0 0 0 0 0 0 0 0.266628021281891 0 0 0 0 0.125190546678655 0 0 0.486293033960631 0.329598725209924 0 0 0 0 0 0 0 0 0 0 0 0 0 0 0 0 0 -2.77017514619507 0 0 0 -1.26593658198823 0 0
0 0 0 0 0 0 0 0 0 0 0 0 0 0 0 0 0 0 0 0 0 0 0 0.168258119546661 0.343258595528598 0.0551198594102426 0 0 0 0 0 0 0 0 -0.795903151981521 0 0 0 0 0 0 0 0 0 0 0 0 -1.67516293773248 0 0
0 0 0 0 0 0 0 0 0 0 0 0 0 0 0 0 0 0 0 0 0 0 0 0 0 0 0 0 0 0 0 0 0 0 0 0 0 0 0 -2.50745504443726 0 0 0 -0.749173100057555 0 0 0 -1.33786814156273 0 0
0 0 0 0 0 0 0 0 0 0 0 0 0 0 0.120921183333607 0.16910814876368 0.296113317250279 0 0 0 0 0 0 0 0 0 0 0 0 0 0 0 0 0 0 0 0 0 0 0 0 0 0 0 0 0 0 0 0 0
0 0 0 0 0 0 0 0 0 0 0 0 0 0 0 0 0 0 0 0 0 0 0 0 0 0 0 0 0 0 0 0 0 0 0 0 0 0 0 0 0 0 0 -0.87412060371058 0 0 0 0 -2.24913908618223 0
0 0 0 0 0 0 0 0 0 0 0 0 0 0 0 0 0 0 0 0 0 0 0 0 0 0 0 0 0 0 0 0 0 0 0 0 0 0 0 0 0 0 0 0 -3.26561989495745 0 0 0 0 0
0 0 0 0 0 0 0 0 0 0 0 0 0 0 0 0 0 0 0 0 0 0 0 0 0 0 0 0 0 0.153779777441352 0 0 0 0 0 0 0 0 0 0 0 0 0 -0.282939064629157 0 0 0 -1.76271548331691 0 0
0 0 0 0 0 0 0 0 0 0 0.136777414168752 0.0471895762716691 0.0826367558820489 0 1.00329243102615 0.0945803317189978 0.256953254589227 0 0 0 0 0 0 0 0 0 0 0 0 0 0 0 0 0 0 0 0 0 0 0 0 0 0 0 -0.366742217946673 0 0 0 -0.619282311851635 0
0 0 0 0 0 0 0 0 0 0 0 0 0 0 0 0 0 0 0 0 0 0 0 0 0.349759783046113 0.466188802455659 0 0 0 0 0 0 0 0 0 0 0 0 0 0 0 0 0 -1.48537187649707 -0.183170681112713 0 0 0 0 0
0 0 0 0 0 0 0 0 0 0 0.0747115534309552 0 0 0 0 0 0 0 0 0 0 0 0 0 0 0 0 0 0 0 0 0 0 0 0 0 0 0 0 0 0 0 0 0 -0.751945310912657 0 0 0 0 0
0 0 0 0 0 0 0 0 0 0 0 0 0 0 0 0 0 0 0 0 0.318131975395212 0.298432264649478 0.219578039203146 0.240311854988072 0 0.194663718198211 0 0 0 0 0 0 0 0 0 0 0 0 0 0 0 0 0 0 -1.27268908783654 0 0 0 -1.65373115069645 0
0 0 0 0 0 0 0 0 0 0 0 0 0 0 0 0 0 0 0 0 0 0 0 0 0 0 0 0 0 0 0.470680947029132 0 0 0 0 0 0 0 0 0 0 0 0 0 0 0 0 0 0 0
0 0 0 0 0 0 0 0 0 0 0 0 0 0 0 0 0 0.0489360994611625 0 0 0.125777009636501 0 0 0.0710608259341405 0 0.578000792940592 0 0 0 0 0 0 0 0 0 0 0 0 0 0 0 0 0 -0.732064536313818 -0.765587614576368 0 0 0 0 -3.2126671240971
0 0 0 0.287993803578734 0.0711484127934944 0 0 0 0 0 0 0 0 0 0 0 0 0 0 0 0 0 0 0 0 0 0 0 0 0 0 0 0 0 0 0 0 0 0 0 0 0 0 -0.37754562101859 -2.55022446524942 0 0 0 0 0
0 0 0.144260104945246 0.0902805674667185 0 0 0.55008458490222 0.511059112524946 0 0.0707163605067644 0 0 0.185150923331983 0.26630052671471 0.491562091619506 0.0458758595828931 0 0.0158332475857293 0 0.0813607008465476 0 0 0.572595066037958 0 0 0 0.120332094953302 0 0 0 0 0 0 0 0 0 0 0 0 0 0 0 0 -0.743853774325061 -1.7837519630996 0 0 0 0 0
0 0 0 0 0 0 0 0 0 0 0 0 0 0 0 0 0 0 0 0 0 0 0 0 0 0 0 0 0.575225060413699 0 0.142011559854084 0 0.1825791353762 0 0.0509652183520202 0 0.286539158002417 0 0 0 0.15245562833766 0.0796502559558168 0.145872851506361 0 -0.469017206183402 0 0 0 -0.147543482978012 0
0 0 0 0 0 0 0 0 0 0 0 0 0 0 0 0 0 0 0 0 0 0 0 0 0 0 0 0 0 0 0 0 0 0.686124565826266 0 0.0747727590161353 0.0373496840207757 0.159394691367046 0.249176821717523 0 0.159922894486795 0.514774133142011 0.344329885322187 0.103185115356584 0 0 0 0 -2.84858413232086 0
0 0 0 0 0 0 0 0 0 0 0 0 0 0 0 0 0 0.130974465348992 0 0 0 0 0 0 0 0 0 0 0 0 0 0 0 0 0 0 0 0 0 0 0 0 0 0 0 0 0 0 0 0
0 0 0 0 0 0 0 0 0 0 0 0 0 0 0 0 0 0 0 0 0 0 0 0 0 0 0 0.0558749708355199 0 0 0 0 0 0 0 0 0 0 0 0 0 0 0 0 0 0 0 0 0 -2.73041389974877
0 0 0 0 0 0 0 0 0 0 0 0 0 0 0 0.129597705523245 0.0771459684315479 0.280575249591439 0 0.265967854866169 0 0.261086148715555 0 0 0.232548176218764 0 0.391302796002585 0 0.249757476398302 0.319864822361886 0.287715006133772 0 0 0 0.325069333788795 0 0 0 0 0 0 0 0 0 0 0 0 0 0 -0.68759438353731
0 0 0 0 0 0 0 0 0 0 0 0 0 0 0 0 0 0 0 0 0 0 0 0 0 0 0 0 0 0 0 0 0.440392914359968 0 0 0.120267949181706 0 0 0.309059452038386 0 0 0 0 0.0288199321587547 0.578641726377824 0 0 0 0 0
0 0 0 0 0 0 0 0 0 0 0 0 0 0 0 0 0 0 0 0 0 0 0 0 0 0 0 0 0 0 0 0 0 0 0 0 0 0 0 0 0.582888431968241 0 0 0 0 0 0.539527026803334 0.147173026428675 0 0
