3.44486043749085
1.06510499159076
0.438399537144128
1.78943329757187
0.889132658343295
0.401683718882112
0.0970224099133751
0.767831794260801
1.4489881812947
0.713788754898803
2.41974368091089
3.00622158433108
0.284818790217431
0.561642008936145
0.286581246608953
0.416779970594993
2.73304932967636
1.33062212086737
0.799249935023148
2.00772659161474
0.707627213982354
0.918306736523188
1.02051983293948
0.456802032075803
2.16283842754901
2.51650123505611
0.307535603210618
1.66025458507635
0.110915755698351
1.41547847610604
2.64097356717386
0.44481030689896
0.452103750667308
0.786605136848971
2.97471696221617
0.692765696307696
0.672995600670421
3.69285139892433
0.0987149245827915
0.694974537747236
0.675107207360701
1.04110370154184
1.22563585618617
1.97438509499329
0.353421593272406
3.91616396765056
1.46867380056413
0.496907167612315
0.342101917292252
1.20693412717356
