0 0 0 0 0 0 0 0 0 0 0 0 0 -0.212435668862014 0 0 0 0 0 0 0 0 0 0 0 0 0 -0.321107547440778 0 0 0 0 0 0 0 0 0 0 0 0 0 0 0 0 0 0 0 0 0 0
0 0 -4.70392501920354 0 0 0 0 0 0 0 0 0 0 0 0 -6.03725327462924 0 -0.383880789676115 0 0 0 0 0 0 0 0 0 0 0 0 0 0 0 0 0 0 0 0 0 0 -1.05909832693642 -0.301942166974673 0 0 0 0 0 -1.42520964956823 0 0
0 0.938716606942646 0 0 0 0 0 0 0 0 0 0 0 0 0 0 0 0 0 0 0 0 0 0 0 0 0 0 0 0 0 0 0 0 0 0 0 0 0 0 0 -1.31056860433345 0 0 0 0 0 -0.42207953268051 0 0
0 0 0 0 0 0 0 0 0 0 0 0 0 0 0 0 0 0 0 0 0 0 0 0 0 0 -0.306713017224955 0 0 0 0 0 0 0 0 0 0 0 0 0 -1.22538760533615 -5.94382921706828 0 0 0 0 0 -1.61607987381497 0 0
0 0 0 0 0 0 0 -6.90541632886837 0 0 0 0 0 0 0 0 0 -2.00146146532857 0 0 0 0 0 0 0 0 -1.80045813118604 0 0 0 0 0 0 0 0 0 0 0 0 0 -0.468183124578637 0 0 0 0 0 0 0 0 0
0 0 0 0 0 0 0 -0.284944084037483 0 -0.426487812399525 0 0 0 0 0 0 0 -12.3521207770734 0 0 0 0 0 0 0 0 0 0 0 0 0 0 0 0 0 0 0 0 0 -0.808285306250272 0 0 0 0 0 0 0 0 0 0
0 0 0 0 0 0 0 0 0 -0.480593964394714 0 0 -2.10983445824606 0 0 0 0 0 0 0 0 0 0 0 0 0 0 0 0 0 0 0 0 0 0 0 0 0 0 -0.358975235469684 0 0 0 0 0 0 0 0 0 0
0 0 0 0 1.40115678711814 0.0517892519713189 0 0 0 -0.828813234946149 0 0 0 0 0 0 0 0 0 0 0 0 0 0 0 0 0 0 0 0 0 0 0 0 0 0 0 -0.948716373106092 0 0 0 0 0 0 0 0 0 0 0 0
0 0 0 0 0 0 0 0 0 0 0 0 0 0 0 0 0 0 0 0 0 0 -0.656398996127941 0 0 0 0 0 0 0 0 0 0 0 0 0 0 0 -1.1122027370377 -1.25683856028791 0 0 0 0 0 0 0 0 0 0
0 0 0 0 0 0.0893971631975037 0.100933623709341 0.172458619412371 0 0 0 0 0 0 0 0 0 0 0 0 0 0 0 0 0 0 0 0 0 0 0 0 0 0 0 0 0 0 0 -2.10817813425806 0 0 0 0 0 0 0 0 0 0
0 0 0 0 0 0 0 0 0 0 0 0 0 0 0 0 0 0 0 0 0 0 0 0 0 0 0 0 0 0 0 0 0 0 0 0 0 0 0 -1.53682798546197 0 0 0 0 0 -3.59949418461631 0 0 0 0
0 0 0 0 0 0 0 0 0 0 0 0 0 0 0 0 0 0 0 0 -0.99609023994838 0 -1.43130345373153 0 0 0 0 0 0 0 0 0 0 0 0 0 0 0 -0.217272586980632 -1.47001140617098 0 0 0 0 0 -0.167822924136565 0 0 0 -1.31936252777741
0 0 0 0 0 0 0.441807352562462 0 0 0 0 0 0 0 0 0 0 0 0 0 0 0 -0.758505591539875 0 0 0 0 0 0 -1.02421534657196 0 -0.812333003976804 0 0 0 0 0 0 -1.73966644408848 0 0 0 0 0 0 0 0 0 0 0
0.0430254687340584 0 0 0 0 0 0 0 0 0 0 0 0 0 -1.74383741003385 0 0 0 0 0 0 0 -2.12757964065923 0 0 -2.46334727738002 0 0 0 -1.92573498240795 0 -0.306739471847686 0 0 0 0 0 0 -0.430379045113541 0 0 0 0 0 0 0 0 0 0 -1.57682440720962
0 0 0 0 0 0 0 0 0 0 0 0 0 0.353973405779114 0 0 0 0 0 0 0 0 0 0 0 0 0 0 0 0 0 0 0 -1.25341984566575 -0.197711054070065 0 -1.49651203047211 0 0 0 0 0 0 0 0 0 0 0 0 0
0 1.22352412581578 0 0 0 0 0 0 0 0 0 0 0 0 0 0 0 0 0 0 0 -2.228981038707 0 0 0 0 0 0 -4.4117867625641 0 0 0 0 -0.982414311453966 -0.361429353598582 0 -0.386733142697175 0 0 0 0 0 0 0 0 0 0 0 0 -1.6940898470353
0 0 0 0 0 0 0 0 0 0 0 0 0 0 0 0 0 0 0 0 0 0 0 0 0 0 0 0 0 0 0 0 0 -0.295804011652413 0 0 -0.168634405576012 0 0 0 0 0 0 0 0 0 0 0 0 0
0 0.0857292265747485 0 0 0.421693878548054 2.4384339604126 0 0 0 0 0 0 0 0 0 0 0 0 0 0 0 -6.22342891820359 0 0 0 0 0 0 -1.30653455790124 0 0 0 0 -0.958295517050392 0 0 -2.64483973317929 0 0 0 0 0 0 0 0 0 0 0 0 0
0 0 0 0 0 0 0 0 0 0 0 0 0 0 0 0 0 0 0 0 0 -0.986687985540998 0 0 0 0 0 0 0 0 0 0 0 -1.09921127609917 0 0 -3.79762349567341 0 0 0 0 0 -1.0198658813315 0 0 0 0 0 0 -2.19020071949909
0 0 0 0 0 0 0 0 0 0 0 0 0 0 0 0 0 0 0 0 0 -0.860229279689671 0 0 0 0 0 0 -0.253249969323323 0 0 0 0 0 -1.50196334994507 0 -0.543922033638039 0 0 0 0 0 -0.218935488186824 0 0 0 0 0 0 -5.96561221845027
0 0 0 0 0 0 0 0 0 0 0 0.211775778420483 0 0 0 0 0 0 0 0 0 -0.322068459198485 0 0 0 0 0 0 0 0 0 0 0 0 -0.242163290968529 -2.10511278254325 -11.009732077291 0 0 0 0 0 0 0 0 0 0 0 0 0
0 0 0 0 0 0 0 0 0 0 0 0 0 0 0 0.454047543538956 0 1.17855770661714 0.20410066637936 0.174381493294909 0.0643112098270319 0 0.186337312047327 0.0514684933166591 0.1390499748118 0.931276169282582 0 0 -0.910810184153943 0 0 0 0 0 -0.914109779736144 -5.03153791045965 -0.45727822843249 0 0 0 0 0 0 0 0 0 0 0 0 -0.117535834357398
0 0 0 0 0 0 0 0 0.136963833927267 0 0 0.30268144326468 0.15691260847966 0.358233543624438 0 0 0 0 0 0 0 -0.871552434234235 0 0 0 0 0 0 -0.670391834883393 0 -2.7980925348477 0 0 0 -0.93009320627156 0 0 0 0 0 0 0 0 0 0 0 0 0 0 0
0 0 0 0 0 0 0 0 0 0 0 0 0 0 0 0 0 0 0 0 0 -0.285596588270502 0 0 0 0 0 0 -0.244808217812288 0 0 0 0 0 0 -1.15940342292983 0 0 0 0 0 0 0 0 0 0 0 0 0 0
0 0 0 0 0 0 0 0 0 0 0 0 0 0 0 0 0 0 0 0 0 -0.743914259787314 0 0 0 0 0 0 -1.00752454179607 0 -0.149483926905934 0 0 0 -0.417144943647408 0 -4.56879646485539 0 0 0 0 0 0 0 -0.212838291035801 0 0 0 0 0
0 0 0 0 0 0 0 0 0 0 0 0 0 0.462935463015749 0 0 0 0 0 0 0 -4.4648806102733 0 0 0 0 0 0 0 0 0 0 0 0 -1.26556273273539 0 -0.886170602439749 0 0 0 0 0 0 0 0 0 0 0 0 -1.58578062052305
0 0 0 0.066421298151732 0.341618468291192 0 0 0 0 0 0 0 0 0 0 0 0 0 0 0 0 0 0 0 0 0 0 0 -1.36110502487402 0 -0.504779939813742 0 0 0 -2.11499655515541 0 0 0 0 0 0 0 0 0 -0.754665336473708 0 0 0 0 -1.36837933771437
0.0597914438391207 0 0 0 0 0 0 0 0 0 0 0 0 0 0 0 0 0 0 0 0 0 0 0 0 0 0 0 -0.22666521355643 0 -0.399055591185843 0 0 0 0 0 -3.7951242987691 0 0 0 0 0 0 0 0 0 0 0 0 0
0 0 0 0 0 0 0 0 0 0 0 0 0 0 0 0.867382213399175 0 0.260842231657746 0 0.0494614092039602 0 0.177755753413186 0.13368422483391 0.0475183020386451 0.199888112513987 0 0.285194124099802 0.0453023988207047 0 0 -0.57150009485576 0.123663294064146 0.241181680179561 0 -5.08543172171542 0 -2.45293422363606 0 0 0 0 0 0 0 -0.214545019572691 0 0 0 0 -2.03222609117599
0 0 0 0 0 0 0 0 0 0 0 0 0.217355865264652 0.387217901242391 0 0 0 0 0 0 0 0 0 0 0 0 0 0 0 0 0 0 0 0 -1.35311999753202 0 0 0 0 0 0 0 0 0 -0.602800973244582 0 0 0 0 -2.59375584459732
0 0 0 0 0 0 0 0 0 0 0 0 0 0 0 0 0 0 0 0 0 0 0.565567981528059 0 0.0309727198079726 0 0.0976582070596566 0.0778702388326271 0.110419576848465 0 0 0 0 0 0 0 0 0 0 0 0 0 0 0 -10.2501698009356 0 0 0 0 0
0 0 0 0 0 0 0 0 0 0 0 0 0.156819842830514 0.0618683933865368 0 0 0 0 0 0 0 0 0 0 0 0 0 0 -0.603081088636083 0 0 0 0 0 0 0 0 0 0 0 0 0 0 0 -2.15805117296112 0 0 0 0 0
0 0 0 0 0 0 0 0 0 0 0 0 0 0 0 0 0 0 0 0 0 0 0 0 0 0 0 0 -1.20407586491781 0 0 0 0 0 0 0 0 0 0 0 0 0 0 0 -0.56378260889493 0 0 0 0 0
0 0 0 0 0 0 0 0 0 0 0 0 0 0 0.265977002974442 0.204671903696068 0.0601968248016393 0.187044512406658 0.219201105384568 0 0 0 0 0 0 0 0 0 0 0 0 0 0 0 0 0 0 0 0 0 0 0 0 0 0 0 -2.27038317379535 0 0 0
0 0 0 0 0 0 0 0 0 0 0 0 0 0 0.0370065293392985 0.079578626734972 0 0 0 0.316855045040868 0.0504628929792769 0.184722144239124 0.183650609365509 0 0.081339931957723 0.294424856368532 0.426011069469822 0 0.993940760183829 0.261827438699076 0 0 0 0 0 0 0 0 0 0 0 0 0 0 0 0 -0.633639254780232 0 0 0
0 0 0 0 0 0 0 0 0 0 0 0 0 0 0 0 0 0 0 0 0.440274516035869 1.02629854877049 0 0.237624344720037 0 0 0 0 0 0 0 0 0 0 0 0 0 0 0 0 0 0 0 0 0 0 0 0 0 0
0 0 0 0 0 0 0 0 0 0 0 0 0 0 0.307457902290608 0.0746164150043059 0.0348648637880815 0.580366305227422 0.808099767824433 0.113525250154566 2.15152723511496 0.0944527178037727 0 0 1.00835375673175 0.182310022640907 0 0.716274019174219 0.538451497450539 0 0 0 0 0 0 0 0 0 0 0 0 0 0 0 -2.57530124884141 0 0 0 0 0
0 0 0 0 0 0 0 0.187123428659037 0 0 0 0 0 0 0 0 0 0 0 0 0 0 0 0 0 0 0 0 0 0 0 0 0 0 0 0 0 0 0 0 0 0 0 0 0 0 -4.03212085636889 0 0 0
0 0 0 0 0 0 0 0 0.221956168419533 0 0 0.0438845914628624 0.357471790826754 0.0826179552482284 0 0 0 0 0 0 0 0 0 0 0 0 0 0 0 0 0 0 0 0 0 0 0 0 0 0 0 0 0 0 0 0 0 0 0 0
0 0 0 0 0 0.164713679580702 0.0674528805231617 0 0.234027836838088 0.423638027007572 0.317472397243191 0.315699443856341 0 0 0 0 0 0 0 0 0 0 0 0 0 0 0 0 0 0 0 0 0 0 0 0 0 0 0 0 0 0 0 0 0 0 -2.94261789617984 0 0 0
0 0.224370956394158 0 0.242636313138441 0.099017655870451 0 0 0 0 0 0 0 0 0 0 0 0 0 0 0 0 0 0 0 0 0 0 0 0 0 0 0 0 0 0 0 0 0 0 0 0 0 0 0 0 0 -1.66538187134309 0 -4.06064327917243 0
0 0.0613250073154222 0.257137253058407 1.23146823948904 0 0 0 0 0 0 0 0 0 0 0 0 0 0 0 0 0 0 0 0 0 0 0 0 0 0 0 0 0 0 0 0 0 0 0 0 0 0 0 0 0 0 0 0 0 0
0 0 0 0 0 0 0 0 0 0 0 0 0 0 0 0 0 0 0.213115455616576 0.0444760435755041 0 0 0 0 0 0 0 0 0 0 0 0 0 0 0 0 0 0 0 0 0 0 0 0 0 0 0 0 0 0
0 0 0 0 0 0 0 0 0 0 0 0 0 0 0 0 0 0 0 0 0 0 0 0 0 0 0 0 0 0 0 0 0 0 0 0 0 0 0 0 0 0 0 0 0 0 -0.3869843608931 0 0 0
0 0 0 0 0 0 0 0 0 0 0 0 0 0 0 0 0 0 0 0 0 0 0 0 0.0424091775686762 0 0.136835791760578 0 0.0383662309597255 0.116985677159665 2.12586174524362 0.441574441867388 0.107400934332583 0 0 0 0.516012855461265 0 0 0 0 0 0 0 0 0 -4.34065033296459 0 0 0
0 0 0 0 0 0 0 0 0 0 0.679964152978821 0.0366780752938245 0 0 0 0 0 0 0 0 0 0 0 0 0 0 0 0 0 0 0 0 0 0 0 0 0 0 0 0 0 0 0 0 0 0 0 0 0 0
0 0 0 0 0 0 0 0 0 0 0 0 0 0 0 0 0 0 0 0 0 0 0 0 0 0 0 0 0 0 0 0 0 0.478753132516223 0.11982723577066 0 0 0.795693953269944 0 0.594526285485576 0.333333467317331 0 0 0.0759095815577446 0.787732911494767 0 0 0.384934626630984 0.444855827147626 0
0 0.272747025656154 0.0781299742668533 0.316218115545606 0 0 0 0 0 0 0 0 0 0 0 0 0 0 0 0 0 0 0 0 0 0 0 0 0 0 0 0 0 0 0 0 0 0 0 0 0 0 0 0 0 0 -1.87256264968323 0 0 0
0 0 0 0 0 0 0 0 0 0 0 0 0 0 0 0 0 0 0 0 0 0 0 0 0 0 0 0 0 0 0 0 0 0 0 0 0 0 0 0 0.833413390171108 0 0 0 0 0 -2.34925005699594 0 0 0
0 0 0 0 0 0 0 0 0 0 0 0.282861397790575 0 0.294475395867339 0 0.322660487232829 0 0 0.425187348399425 1.30516100156518 0 0.0233194010141621 0 0 0 0.33381083202068 0.269987824282456 0 0.397108747977547 0.542431467386903 0 0 0 0 0 0 0 0 0 0 0 0 0 0 0 0 0 0 0 0
