0 0 0 0 0 0 0 -0.73055578094068 0 0 0 0 0 0 0 0 0 0 0 0 0 0 0 0 0 0 0 0 0 0 0 0 0 0 0 0 0 0 0 0 0 0 0 0 0 0 0 0 0 0
0 0 0 0 0 0 0 -10.8963199885635 0 0 0 0 0 0 0 0 0 0 0 0 0 0 0 0 0 0 0 -1.20687016577923 0 0 0 0 0 0 0 0 0 0 0 0 0 0 0 0 0 0 0 0 0 0
0 0 0 -0.68497255909486 0 0 0 0 0 0 0 0 0 0 0 0 0 0 0 0 0 0 0 0 0 0 0 0 0 0 0 0 0 0 0 0 0 0 0 0 0 0 0 0 0 0 0 0 0 -0.905037096579166
0 0 0.127223665074189 0 0 -8.95586539379906 0 0 0 0 0 0 0 0 0 0 0 0 0 0 0 0 0 0 0 0 0 -1.502263448891 0 0 0 0 -0.742241651731951 0 0 0 0 0 0 0 0 0 0 0 0 0 0 0 0 0
0 0 0 0 0 0 0 0 0 -1.04450181176632 0 0 0 0 0 0 0 0 0 0 0 0 0 0 0 0 0 -1.60054781967656 0 0 0 0 0 0 0 0 -3.8339232073414 0 0 0 0 0 0 0 0 0 0 0 0 0
0 0 0 1.78450021069825 0 0 0 0 0 0 0 0 0 0 0 0 0 -1.81588810238407 0 0 0 0 0 0 0 0 0 0 0 0 0 0 -0.609413020209047 0 0 0 -7.27892085766765 0 0 0 0 0 0 0 0 0 0 0 0 -5.16924504700189
0 0 0 0 0 0 0 0 0 0 0 0 -0.9042560975731 0 0 0 0 -0.877865699073521 0 0 0 0 0 0 -1.77751639753854 0 0 0 0 0 0 0 -0.499686646762519 0 0 0 0 0 0 0 -0.904218563313889 0 0 0 0 0 0 0 0 -0.552443966676291
0.149159795575182 2.28995573888647 0 0 0 0 0 0 0 0 0 0 -1.35075411259186 0 0 -2.61939189194223 0 0 -1.70892729484427 0 0 -0.249910539021671 0 -0.456014593650509 -0.428491974869241 -0.515003560783362 0 0 0 0 0 0 0 0 0 0 0 0 0 0 -1.44429087335832 0 0 0 0 0 0 0 0 0
0 0 0 0 0 0 0 0 0 0 -0.874510351849636 0 0 0 0 0 0 0 -0.391370897426162 0 0 -1.02783623308385 0 0 -8.09552164032164 0 0 0 0 0 0 0 0 0 -1.4054347886188 0 0 0 0 0 -2.27892392242736 0 0 0 0 0 0 0 0 -8.96389759513491
0 0 0 0 0.218156371777004 0 0 0 0 0 0 -0.753835750679668 0 0 0 0 0 0 0 -0.857230395119696 0 0 0 0 -3.16205590304785 0 -0.214730267810407 0 0 0 0 0 0 0 -0.918065149840178 0 0 0 0 0 -0.810447347626955 0 0 0 0 0 0 0 0 0
0 0 0 0 0 0 0 0 0.186276662257505 0 0 -1.09082549410352 0 0 0 0 0 0 0 0 0 0 0 0 0 0 -6.10799848256648 0 0 0 0 0 0 0 0 0 0 0 0 0 -3.38046100823314 0 0 -0.521068720951673 0 0 -3.09672008543918 0 0 0
0 0 0 0 0 0 0 0 0 0.136730858442752 0.226754236427162 0 0 0 0 0 0 0 0 -1.14907547600427 0 0 0 0 0 0 -2.19258547631123 0 0 0 0 0 0 0 -1.70300743569665 0 0 0 0 0 0 0 0 0 0 0 -1.7126450899004 0 0 0
0 0 0 0 0 0 0.18954437713575 0.257768184890653 0 0 0 0 0 0 0 0 0 0 0 0 0 -1.57262257843345 0 0 0 0 0 0 0 0 0 0 0 -0.220176418027068 -2.81401164831453 0 0 0 0 0 -0.0789818670464115 0 0 0 0 -6.67876712620618 0 0 -9.27438145289525 0
0 0 0 0 0 0 0 0 0 0 0 0 0 0 0.340328083129565 0.296750772466505 0.198600465381346 0 0 0 0 -2.33948735405097 0 0 0 0 0 0 0 0 0 0 0 -0.78376808903909 0 -1.47724761824443 0 0 0 0 0 -0.46956115404061 0 0 0 0 0 0 0 0
0 0 0 0 0 0 0 0 0 0 0 0 0 -1.6374105135707 0 0 0 0 0 0 0 0 0 0 0 0 0 0 0 0 0 0 0 -1.15428304094096 -1.31063897147064 0 0 0 0 0 0 0 0 0 0 -0.859748817351618 0 0 0 0
0 0 0 0 0 0 0 0.503463670025676 0 0 0 0 0 -1.39560967597637 0 0 0 0 0 0 0 0 0 0 0 0 0 0 0 0 0 0 0 -0.47342448375323 -1.98573981907458 -1.7508664054506 0 0 0 -3.11243971206725 0 -0.428321339845303 0 0 0 -0.708110929151644 0 0 0 0
0 0 0 0 0 0 0 0 0 0 0 0 0 -0.987389053180677 0 0 0 0 0 0 0 0 0 0 0 0 0 0 0 0 0 0 0 -0.326525456286763 -1.18085022450929 -0.3297469884304 0 0 0 -0.942594269197652 0 -0.341465968882173 0 0 0 0 0 0 -0.237648567170017 0
0 0 0 0 0 0.366957374462159 0.17196003721197 0 0 0 0 0 0 0 0 0 0 0 0 0 0 -1.61232913948532 0 0 0 0 0 0 0 0 0 0 0 0 -0.302497313767625 0 0 0 0 0 0 -1.69328190502617 0 0 0 0 0 0 0 0
0 0 0 0 0 0 0 0.329202543902029 0.0730812796929445 0 0 0 0 0 0 0 0 0 0 0 0 -0.358717987715739 0 0 0 0 0 0 0 0 0 0 0 -5.98571826513767 -0.9754517056891 0 0 0 0 0 0 0 0 0 0 0 0 0 0 0
0 0 0 0 0 0 0 0 0 0.168672068254416 0 0.221684155424872 0 0 0 0 0 0 0 0 0 -0.453741837571627 0 0 0 0 0 0 0 0 0 0 0 0 -0.642337273427169 -2.52488731346305 0 0 0 -8.05697588237639 0 0 0 0 0 0 0 0 0 0
0 0 0 0 0 0 0 0 0 0 0 0 0 0 0 0 0 0 0 0 0 0 0 0 0 0 0 0 0 0 -0.833302206756557 0 0 -1.02388662997562 0 -2.57833628828624 0 0 0 0 0 0 0 0 0 0 0 0 0 0
0 0 0 0 0 0 0 0.0483126538597703 0.187765980590109 0 0 0 0.31742134348694 0.459233516124138 0 0 0 0.306203408840216 0.0699371899004174 0.0911910194740347 0 0 0 0 0 0 0 0 0 0 0 0 0 0 0 -0.82020977993417 0 0 0 -3.82189386834634 0 0 0 0 0 0 0 0 0 0
0 0 0 0 0 0 0 0 0 0 0 0 0 0 0 0 0 0 0 0 0 0 0 0 0 0 0 0 0 0 0 0 0 0 0 -1.98914617113444 0 0 0 -1.06037275037928 0 0 0 0 0 0 0 0 0 0
0 0 0 0 0 0 0 0.0813880777833458 0 0 0 0 0 0 0 0 0 0 0 0 0 0 0 0 0 0 0 0 0 0 -1.41890889443945 0 0 0 0 -1.40658691401907 0 0 0 -0.465642020717005 0 0 0 0 0 0 0 0 0 0
0 0 0 0 0 0 0.353470047170862 0.0828713100210214 1.54291792012994 0.662086613368407 0 0 0 0 0 0 0 0 0 0 0 0 0 0 0 0 0 0 0 0 -7.58274368066298 0 0 -1.1183881478849 0 -6.27355658906516 0 -1.03055187530739 0 -0.687580628631802 0 0 0 0 0 0 0 0 0 0
0 0 0 0 0 0 0 0.110739494263954 0 0 0 0 0 0 0 0 0 0 0 0 0 0 0 0 0 0 0 0 0 0 -1.25104988110423 0 0 0 0 -0.36103304118397 0 -1.01365251391842 0 0 0 0 0 0 0 0 0 0 0 0
0 0 0 0 0 0 0 0 0 0.0424900787586317 1.12787270345545 0.443956057935662 0 0 0 0 0 0 0 0 0 0 0 0 0 0 0 0 0 0 -0.868671784771114 0 0 0 0 -0.618760704014888 0 -1.19909040670744 0 -0.370878568328783 0 0 0 0 0 0 0 0 0 0
0 0.243056226719242 0 0.298668764642142 0.284443325498063 0 0 0 0 0 0 0 0 0 0 0 0 0 0 0 0 0 0 0 0 0 0 0 0 0 0 0 0 0 0 0 0 -0.246734020910332 0 -0.878162027015158 0 0 0 0 0 0 0 0 0 0
0 0 0 0 0 0 0 0 0 0 0 0 0 0 0 0 0 0 0 0 0 0 0 0 0 0 0 0 0 0 0 0 0 0 0 0 0 -3.95117272428259 0 0 0 0 -0.899124269303255 0 0 0 0 0 0 0
0 0 0 0 0 0 0 0 0 0 0 0 0 0 0 0 0 0 0 0 0 0 0 0 0 0 0 0 0 0 0 0 0 0 0 0 0 -3.81950691871355 -2.03669700471965 0 0 0 0 0 0 0 0 -0.35512957923741 0 0
0 0 0 0 0 0 0 0 0 0 0 0 0 0 0 0 0 0 0 0 0.168649106090617 0 0 0.263914116710043 1.46186337737895 0.23362358308691 0.184818713537046 0 0 0 0 0 0 0 0 0 0 -0.144746403077339 -1.11377749666189 0 0 0 -2.42065700791043 0 -2.88156178503631 0 0 -0.629630167807227 0 0
0 0 0 0 0 0 0 0 0 0 0 0 0 0 0 0 0 0 0 0 0 0 0 0 0 0 0 0 0 0 0 0 0 0 0 0 0 -0.84776666482889 0 0 0 0 0 0 -0.723005450816274 0 0 0 0 0
0 0 0 0.136632219463355 0 0.116806338372383 0.102994761260919 0 0 0 0 0 0 0 0 0 0 0 0 0 0 0 0 0 0 0 0 0 0 0 0 0 0 0 0 0 0 -1.38684127771072 0 -1.63649663878092 0 0 -2.82563076694644 0 -2.14972658161299 0 0 0 0 0
0 0 0 0 0 0 0 0 0 0 0 0 0.042510358267565 0.165340726363444 0.231912010499426 0.102486022613748 0.0640227413486726 0 1.15956570027235 0 0.193110490347238 0 0 0 0.202850055105836 0 0 0 0 0 0 0 0 0 0 0 0 0 0 0 0 0 -3.686904986734 0 0 0 0 0 0 0
0 0 0 0 0 0 0 0 0.29532406075401 0.18055718392042 0 0.355119503209209 0.547277730050054 0 0.258388415093607 0.386631628704262 0.237330993280048 0.0608691350701138 0.193117433840913 0.130794433871507 0 0 0 0 0 0 0 0 0 0 0 0 0 0 0 0 0 0 0 0 0 0 0 0 0 0 0 -1.39680877256202 0 0
0 0 0 0 0 0 0 0 0 0 0 0 0 0.290349979273536 0 0.352960324974266 0.0636859386511242 0 0 0.500312089810679 0.532742699690804 0.150829137912506 0.401449306279938 0.267874384980394 1.10318946190384 0.0763606354357291 0.135605607922286 0 0 0 0 0 0 0 0 0 0 0 0 -4.72982655502116 0 0 0 0 0 0 0 0 0 0
0 0 0 0 0.765962253322721 1.40495134627461 0 0 0 0 0 0 0 0 0 0 0 0 0 0 0 0 0 0 0 0 0 0 0 0 0 0 0 0 0 0 0 0 0 0 0 0 0 0 0 0 0 -0.901719253159413 0 0
0 0 0 0 0 0 0 0 0 0 0 0 0 0 0 0 0 0 0 0 0 0 0 0 0.179608849276056 0.206960210484654 0.226748419088122 0.0480599806090218 0.793333412471738 0.762527951357125 0.0286702342824484 0.168472743357287 0.294619212146535 0 0 0 0 0 0 0 0 0 0 0 0 0 0 -0.232358117175971 0 0
0 0 0 0 0 0 0 0 0 0 0 0 0 0 0 0 0 0 0 0 0 0 0 0 0 0 0 0 0 0.437006478471352 0.220099022372666 0 0 0 0 0 0 0 0 0 0 0 0 0 0 0 0 -2.88636841085408 0 0
0 0 0 0 0 0 0 0 0 0 0 0 0 0 0 0.694635805674178 0.187378006165903 0 0 1.40291904670678 0 0.747878856995848 0.206357094145889 0.0885422934884916 0.135031501933711 0 0.0711682660170013 0.170298066407959 0 0 0 0 0.327648401005559 0 0 1.0491940713292 0 0 0 0 0 0 0 0 0 0 0 0 0 0
0 0 0 0 0 0 0.174105478477492 0.303111583801614 0.444175952431298 0.182247877019873 0.692471410155851 0 0.0162530971537114 0 0 0 0 0 0 0 0 0 0 0 0 0 0 0 0 0 0 0 0 0 0 0 0 0 0 0 0 0 0 0 0 0 0 -0.415517102213753 0 0
0 0 0 0 0 0 0 0 0 0 0 0 0 0.0929776956633546 0 0.0870739845599 0.06979071461028 0.317800549196388 0 0 0 0 0 0 0 0 0 0 0 0 0 0 0 0 0 0 0 0 0 0 0 0 0 0 0 0 0 -0.477161619878423 0 0
0 0 0 0 0 0 0 0 0 0 0 0 0 0 0 0 0 0 0 0 0 0 0 0 0 0 0 0 0.181579481552415 0 0.449130123368285 0 0.522752781984225 0.674532919939655 0 0 0 0 0 0 0 0 0 0 0 0 0 0 0 0
0 0 0 0 0 0 0 0 0 0 0.107237102169088 0 0 0 0 0 0 0 0 0 0 0 0 0 0 0 0 0 0 0 0 0 0 0 0 0 0 0 0 0 0 0 0 0 0 0 0 0 0 0
0 0 0 0 0 0 0 0 0 0 0 0 0 0 0 0 0 0 0 0 0 0 0 0 0 0 0 0 0 0 0.571531588726015 0.137039210939579 0.423313173138352 0 0 0 0 0 0 0 0 0 0 0 0 0 0 0 0 0
0 0 0 0 0 0 0 0 0 0 0 0 1.39437997057365 0 0.16335746685481 0.136913843110447 0 0 0 0 0 0 0 0 0 0 0 0 0 0 0 0 0 0 0 0 0 0 0 0 0 0 0 0 0 0 0 0 0 0
0 0 0 0 0 0 0 0 0 0 0.649349858902237 0.333969663457463 0 0 0 0 0 0 0 0 0 0 0 0 0 0 0 0 0 0 0 0 0 0 0 0 0 0 0 0 0 0 0 0 0 0 0 0 0 0
0 0 0 0 0 0 0 0 0 0 0 0 0 0 0 0 0 0 0 0 0 0 0 0 0 0 0 0 0 0.0715760416006377 0.122722050071619 0 0 0 0.258720974548 0 0.175723775892901 0.0479393738730452 0.608635241182237 0 0.078388745183938 0.10031320955328 0 0 0 0 0 0 0 0
0 0 0 0 0 0 0 0 0 0 0 0 2.05812409811662 0 0 0 0.0513500543751667 0 0 0 0 0 0 0 0 0 0 0 0 0 0 0 0 0 0 0 0 0 0 0 0 0 0 0 0 0 0 0 0 0
0 0 0.171085576913618 0 0 1.01268165347041 0.105402229401793 0 1.81872735482329 0 0 0 0 0 0 0 0 0 0 0 0 0 0 0 0 0 0 0 0 0 0 0 0 0 0 0 0 0 0 0 0 0 0 0 0 0 0 0 0 0
