0.219636296203512
0.501292961256892
0.2344620317991
0.414714744185397
0.130457645736847
0.146600082589095
0.0400521066278398
0.0190899799953563
0.777824122024551
0.813495599134426
0.933642481552587
0.36536856895642
0.120186092756947
0.0530792890368423
1.12194605663919
1.39769280307751
0.63395873782223
0.520675995215581
0.32484122979402
0.782744713240336
0.339160363805982
0.577606223800199
0.904469202595315
1.88121870243471
1.75597767064485
0.567753856879081
0.477740335787521
0.196817035993131
0.176150715467626
1.42790236984346
0.12076920970439
0.402710049787606
1.93820631021061
0.248983969232309
1.76805283060493
0.118300100918685
0.986798367787279
0.304582842614659
0.560872764771317
0.177416821725098
0.0376326431125414
1.00175663983117
1.07454615289676
0.18213367781766
0.817751123381169
1.96714734818264
1.02391502221888
0.0788367875571284
0.906184646091763
1.41895153798182
