0 0 0 -2.04113769603735 -0.368028945719412 0 0 0 0 0 0 0 0 0 0 0 0 0 0 0 0 0 0 0 0 0 0 0 0 0 0 0 0 0 0 0 0 0 0 0 0 0 0 0 0 0 0 0 0 0
0 0 0 0 0 0 0 0 0 0 0 0 0 -3.04155244030494 0 0 0 0 0 0 0 0 0 0 0 0 0 0 0 0 0 0 0 0 0 0 0 0 0 0 0 0 0 0 0 -0.410015692038397 0 0 0 0
0 0 0 0 0 0 0 0 0 0 0 0 0 -0.487479868839649 0 0 0 0 0 0 0 0 0 0 0 0 0 0 0 0 0 0 0 0 0 0 0 0 0 0 0 0 0 0 0 -1.97915818991942 0 0 0 0
0.402256790207125 0 0 0 0 0 0 0 0 0 0 0 0 0 0 0 0 0 0 0 0 0 0 0 0 0 0 0 0 0 0 0 0 0 0 -5.17662045955788 0 0 0 0 0 0 0 0 0 0 0 0 0 0
0.0703283260276873 0 0 0 0 0 0 0 0 0 0 0 0 0 -0.127096510600824 0 0 0 0 0 0 0 0 0 0 -0.501851010189803 0 0 0 0 0 0 0 0 0 0 0 0 0 0 0 0 -5.42933022469173 0 -1.12156785809254 0 0 0 0 0
0 0 0 0 0 0 0 0 0 0 0 0 0 0 0 -4.01145013521621 0 0 0 0 0 0 0 0 0 -0.530932157929258 0 -0.422952396494727 0 0 0 0 0 0 0 0 0 0 0 0 0 0 0 0 -2.37885475828884 0 0 0 0 0
0 0 0 0 0 0 0 0 -4.76601484521128 0 0 0 0 0 -0.636401702155099 -1.29429595690414 0 0 0 0 0 0 0 0 0 0 0 -0.887503420668661 0 0 0 0 0 0 0 0 0 0 0 0 0 0 0 0 -5.34689053488186 0 0 0 0 0
0 0 0 0 0 0 0 0 -0.816857366475933 0 0 0 0 0 0 0 0 0 0 0 0 0 0 -0.333082105919486 -0.230301206071342 0 0 0 0 0 0 0 0 0 -0.106735595225914 0 0 0 0 0 0 0 -0.520527606944034 0 0 0 -0.460887267929199 0 0 0
0 0 0 0 0 0 0.94310996410057 0.16076300360274 0 0 0 0 0 0 -1.09729533360392 0 0 0 0 0 0 0 0 0 -0.719058511838931 -4.00721330629803 0 0 0 0 0 0 0 -1.89593952970282 -0.58784414548215 0 0 0 0 0 -1.31257153184183 0 0 0 0 0 -2.31115139517207 0 0 0
0 0 0 0 0 0 0 0 0 0 0 -1.39738256139871 0 0 -4.42048980607208 0 0 0 0 0 0 -2.08223264742371 0 0 0 0 0 0 0 0 0 0 0 -0.918673631830032 0 0 0 0 0 0 0 0 0 0 0 0 0 0 0 0
0 0 0 0 0 0 0 0 0 0 0 0 0 0 0 0 0 0 0 0 0 0 0 0 -1.4429089261771 0 0 0 0 0 0 0 0 0 0 0 -0.864661223162914 0 0 0 -0.445335268668435 -0.394760248092125 0 0 0 0 -0.562943574362119 0 0 0
0 0 0 0 0 0 0 0 0 0.276574357665142 0 0 0 0 -7.01423566209045 0 0 -0.274233490781351 0 0 0 0 0 0 0 0 0 0 0 0 0 -0.243584865326072 0 0 0 0 0 0 0 0 -1.49073765810577 -0.222188712392665 0 0 0 0 -1.15790474262454 0 0 0
0 0 0 0 0 0 0 0 0 0 0 0 0 0 0 0 0 0 0 -1.80300587616941 0 0 0 0 0 0 0 0 0 0 0 0 -0.0925228468286072 0 0 0 0 0 0 0 -1.8478194202262 0 0 0 0 0 0 0 0 0
0 0.603440614984797 0.0918192681867775 0 0 0 0 0 0 0 0 0 0 0 0 0 0 0 -4.56286481560719 -1.39015085545118 0 0 0 0 -1.22171026042091 0 0 0 0 0 0 -3.35098856801269 0 0 0 0 0 0 0 0 0 -3.07105448216592 0 0 0 0 -3.46550251449147 0 0 0
0 0 0 0 0.0230082403519524 0 0.134947032875097 0 0.229541556148994 0.854880956010413 0 1.41384170166983 0 0 0 0 0 0 -1.23163050942527 -3.13792060776965 0 0 0 0 -1.08866126929945 0 0 0 0 0 0 0 0 -1.21685039752978 0 0 0 0 0 0 -0.714943533612059 0 0 0 0 0 0 0 0 0
0 0 0 0 0 0.766488705585297 0.260586674959286 0 0 0 0 0 0 0 0 0 0 0 -0.231853991598342 0 0 0 0 0 -1.90488861799008 0 0 0 0 0 0 0 0 -1.19237081090489 0 0 0 0 0 0 0 0 0 0 0 0 0 0 0 0
0 0 0 0 0 0 0 0 0 0 0 0 0 0 0 0 0 0 -3.08758270550506 -3.95195617733676 0 0 0 0 -4.29848800311486 0 0 0 0 0 0 0 0 -0.935209761150513 0 0 0 0 0 0 -3.0482741006754 0 0 0 0 0 0 0 0 0
0 0 0 0 0 0 0 0 0 0 0 0.0500071574222313 0 0 0 0 0 0 0 0 0 0 0 0 0 0 0 0 0 0 0 0 -1.85958847982089 0 0 0 0 0 0 0 -1.14257774117568 0 0 0 0 0 -3.75796294518274 0 0 0
0 0 0 0 0 0 0 0 0 0 0 0 0 0.882158526632357 0.229866653388369 0.0438150954530827 0.617677230650015 0 0 0 0 0 0 0 0 0 0 0 0 0 0 -0.855499695844112 -0.783190383908508 -1.58685053327309 0 0 0 0 0 0 -1.05254608952486 0 0 0 0 0 -1.10791010792227 0 0 0
0 0 0 0 0 0 0 0 0 0 0 0 0.327357875827903 0.290954463849754 0.654129550173045 0 0.816012612384415 0 0 0 -0.123080251317114 0 0 0 -0.218563375545428 0 0 0 0 0 0 0 0 0 0 0 0 0 0 0 0 0 0 0 0 0 0 0 0 0
0 0 0 0 0 0 0 0 0 0 0 0 0 0 0 0 0 0 0 0.0265954961301874 0 0 0 0 0 0 0 0 0 0 -0.299359228148841 0 -0.419730295424277 -4.64571082805308 0 0 0 0 0 0 0 0 0 0 0 0 0 0 0 0
0 0 0 0 0 0 0 0 0 0.403822086290577 0 0 0 0 0 0 0 0 0 0 0 0 0 0 0 0 0 0 0 0 -2.30651116650863 0 0 -0.398817541219893 0 0 0 0 0 0 0 0 0 0 0 0 0 0 0 0
0 0 0 0 0 0 0 0 0 0 0 0 0 0 0 0 0 0 0 0 0 0 0 0 0 0 0 0 0 0 0 0 0 0 0 0 0 0 0 0 0 0 0 0 0 0 -0.810695006386645 0 0 0
0 0 0 0 0 0 0 0.0645341283460464 0 0 0 0 0 0 0 0 0 0 0 0 0 0 0 0 0 0 0 0 0 0 0 0 -1.17244121339099 0 0 0 0 0 0 0 0 0 0 0 0 0 -1.92118989501977 0 0 0
0 0 0 0 0 0 0 0.0465226708189968 0.152933409881902 0 0.266449881776346 0 0 0.270553145023285 0.235270275383998 0.395261726169176 0.793506313430414 0 0 0.0430507149105131 0 0 0 0 0 0 0 0 0 0 0 0 0 0 0 0 0 0 0 0 0 0 0 0 0 0 0 0 0 0
0 0 0 0 0.0994944089379166 0.0991116095183458 0 0 0.798557526614162 0 0 0 0 0 0 0 0 0 0 0 0 0 0 0 0 0 -0.239876891100149 0 -0.226151506969051 0 0 0 -0.457482685047488 0 0 0 0 0 0 0 0 0 0 0 0 0 0 0 -1.4897779360383 0
0 0 0 0 0 0 0 0 0 0 0 0 0 0 0 0 0 0 0 0 0 0 0 0 0 0.0487121079550287 0 0 0 0 0 0 0 0 0 0 0 0 0 -4.93213063266194 0 0 0 0 0 0 0 -4.67552863524664 -1.0409305373452 0
0 0 0 0 0 0.0917874456430111 0.172647614924166 0 0 0 0 0 0 0 0 0 0 0 0 0 0 0 0 0 0 0 0 0 -0.910251124914855 0 0 0 0 0 0 0 0 0 0 -0.53420628409565 0 0 0 0 0 0 0 0 0 0
0 0 0 0 0 0 0 0 0 0 0 0 0 0 0 0 0 0 0 0 0 0 0 0 0 0.0485992353584923 0 0.187108053861514 0 -3.29373276398166 0 0 0 0 0 0 0 0 0 0 0 0 0 0 0 0 0 0 -1.7557147796005 0
0 0 0 0 0 0 0 0 0 0 0 0 0 0 0 0 0 0 0 0 0 0 0 0 0 0 0 0 0.667274389624309 0 0 0 0 0 0 0 0 0 0 -2.35613563692646 0 0 0 0 0 0 0 0 0 0
0 0 0 0 0 0 0 0 0 0 0 0 0 0 0 0 0 0 0 0 0.0650322808104155 0.437067350361752 0 0 0 0 0 0 0 0 0 0 0 0 0 0 0 0 0 0 0 0 0 0 0 0 0 0 0 0
0 0 0 0 0 0 0 0 0 0 0 0.0509716197871542 0 0.662752636166918 0 0 0 0 0.157663142634298 0 0 0 0 0 0 0 0 0 0 0 0 0 0 0 0 0 0 0 0 0 0 0 0 0 0 0 0 0 0 0
0 0 0 0 0 0 0 0 0 0 0 0 0.0181368606453057 0 0 0 0 0.428577055535142 0.152181299991988 0 0.0787968602328065 0 0 0.234421322588066 0 0.0858969629259092 0 0 0 0 0 0 0 0 0 0 0 0 0 0 0 0 0 0 0 0 0 0 0 0
0 0 0 0 0 0 0 0 0.375758687477778 0.181919633650085 0 0 0 0 0.247894995624788 0.238087429525621 0.173603533124834 0 0.317842088205439 0 1.02375532460549 0.0715380538008445 0 0 0 0 0 0 0 0 0 0 0 0 0 0 0 0 0 0 0 0 0 0 0 0 0 0 0 0
0 0 0 0 0 0 0 0.0193600382987922 0.120979545187471 0 0 0 0 0 0 0 0 0 0 0 0 0 0 0 0 0 0 0 0 0 0 0 0 0 0 0 0 0 0 0 0 0 0 0 0 0 0 0 0 0
0 0 0 1.09521356128219 0 0 0 0 0 0 0 0 0 0 0 0 0 0 0 0 0 0 0 0 0 0 0 0 0 0 0 0 0 0 0 0 0 0 0 0 0 0 0 0 0 0 0 0 0 0
0 0 0 0 0 0 0 0 0 0 0.165902968651305 0 0 0 0 0 0 0 0 0 0 0 0 0 0 0 0 0 0 0 0 0 0 0 0 0 0 0 0 0 0 0 0 0 0 0 0 0 0 0
0 0 0 0 0 0 0 0 0 0 0 0 0 0 0 0 0 0 0 0 0 0 0 0 0 0 0 0 0 0 0 0 0 0 0 0 0 0 0 0 0 0 0 -0.461671509082644 0 0 0 0 0 0
0 0 0 0 0 0 0 0 0 0 0 0 0 0 0 0 0 0 0 0 0 0 0 0 0 0 0 0 0 0 0 0 0 0 0 0 0 0 0 0 0 0 0 -0.552330499370113 0 0 0 0 0 0
0 0 0 0 0 0 0 0 0 0 0 0 0 0 0 0 0 0 0 0 0 0 0 0 0 0 1.02549072167541 0.107310088304424 0 0.505482551562295 0 0 0 0 0 0 0 0 0 0 0 0 0 0 0 0 0 0 0 0
0 0 0 0 0 0 0 0 0.277209654504505 0 0.088851528029444 0.300054933168846 0.386707878991471 0 0.145168295146692 0 0.604884264788899 0.217817352232762 0.220533240641416 0 0 0 0 0 0 0 0 0 0 0 0 0 0 0 0 0 0 0 0 0 0 0 0 -3.00426853853647 0 0 0 0 0 0
0 0 0 0 0 0 0 0 0 0 0.0786872310351577 0.0468472075231848 0 0.664984756195291 0 0 0 0 0 0 0 0 0 0 0 0 0 0 0 0 0 0 0 0 0 0 0 0 0 0 0 0 0 -1.82929895882456 0 0 0 0 0 0
0 0 0 0 1.05552350876336 0 0 0.108625949616855 0 0 0 0 0 0 0 0 0 0 0 0 0 0 0 0 0 0 0 0 0 0 0 0 0 0 0 0 0 0 0 0 0 0 0 0 0 0 0 0 0 0
0 0 0 0 0 0 0 0 0 0 0 0 0 0 0 0 0 0 0 0 0 0 0 0 0 0 0 0 0 0 0 0 0 0 0 0 0 0.0951452985175287 0.10839445509389 0 0.611567097873159 0.381554732469259 0 0 0 0 0 0 0 0
0 0 0 0 0.206078690231446 0.442514588689804 0.990695382538638 0 0 0 0 0 0 0 0 0 0 0 0 0 0 0 0 0 0 0 0 0 0 0 0 0 0 0 0 0 0 0 0 0 0 0 0 0 0 0 0 0 0 -0.140698197358618
0 0.0766790471006051 0.401598416454529 0 0 0 0 0 0 0 0 0 0 0 0 0 0 0 0 0 0 0 0 0 0 0 0 0 0 0 0 0 0 0 0 0 0 0 0 0 0 0 0 0 0 0 0 0 0 0
0 0 0 0 0 0 0 0.0949169511361165 0.484117680659139 0 0.120521188095825 0.219214717331379 0 0.701920807104218 0 0 0 0.71834225561007 0.231356836110069 0 0 0 0.177303850591208 0.378234010198909 0 0 0 0 0 0 0 0 0 0 0 0 0 0 0 0 0 0 0 0 0 0 0 0 0 -1.26252832043843
0 0 0 0 0 0 0 0 0 0 0 0 0 0 0 0 0 0 0 0 0 0 0 0 0 0 0.967094545514477 0 0 0 0 0 0 0 0 0 0 0 0 0 0 0 0 0 0 0 0 0 0 0
0 0 0 0 0 0 0 0 0 0 0 0 0 0 0 0 0 0 0 0 0 0 0 0 0 0.2643206587009 0.193595780365584 0 0.344015512165644 0 0 0 0 0 0 0 0 0 0 0 0 0 0 0 0 0 0 0 0 -1.26016827554456
0 0 0 0 0 0 0 0 0 0 0 0 0 0 0 0 0 0 0 0 0 0 0 0 0 0 0 0 0 0 0 0 0 0 0 0 0 0 0 0 0 0 0 0 0.031293295989774 0 0.267607110674998 0 0.261293436306851 0
