0.593077806047842
0.229321415528138
1.59814276935868
0.397194072432028
1.88783988129523
0.919165150251735
2.57039799437366
0.0581226641965118
0.949058271021
1.40507926188046
0.184908184002587
0.0614214809287714
0.756967463813455
0.564801784232676
0.0797847796956544
0.358754655163499
1.6230764047624
0.076260353392641
0.615387942386718
0.0423868369317409
0.139001757662408
0.722749740447226
0.193382386206611
1.16599160373057
0.264868710933094
4.53427822445647
0.11234986293861
0.190742115818124
0.129390664683857
0.328347218644204
0.59691121313634
2.08558291030951
0.0860758961553302
1.23723270602571
0.863859796838988
1.4201841531182
0.138563006843601
0.198647333444468
0.727922047934485
2.40133253622764
2.03901980294409
0.296172847836987
0.252984163706503
0.539882978253311
0.0756413405854544
0.106349151949619
0.871830484761381
3.47565301529948
1.33429723717055
0.170742359250942
