0.180464784383623
0.818976789129915
4.00328181523367
1.33550490427059
0.699605417079222
0.708809665290906
2.54726537828458
0.436337080873391
0.532364225997475
4.76484241044016
2.94867851162085
0.128166004746988
0.429558843705125
0.7466146142547
1.08665567414129
0.773567945745179
0.795162348115647
0.115420342921551
1.8860028485072
0.663399747044804
0.379985775531182
2.15452789559632
0.629563581800416
5.41731520906871
0.977623957770958
0.744512062928728
5.39927514921589
4.44924367088134
4.22322084614265
1.77542471943387
1.44255816453571
0.716650733885172
0.208388412080012
1.84931926516105
0.240298048810303
0.887219479315105
3.2991066393249
0.124697697382515
0.45461863106333
0.882811058669494
0.294949559970618
1.4216831143553
0.767062022668789
0.437474761261697
0.393607617209446
0.904607478616056
2.1786794231295
0.6691636146904
0.932875627261837
3.70626207368642
