1.8712562665763
3.03623545555007
0.645741674387134
0.638896700838128
0.8281367538725
0.667888073157096
2.66701674464928
1.51841634475672
0.41282898780573
1.09808558949704
0.733595182884375
0.298045881912379
4.60491147670398
1.05706220275784
1.76226750688429
1.00031030088585
0.998702282961249
2.33054467251325
0.310478451544824
4.68769963486673
0.82335238097409
0.302719508460242
0.889961705035835
3.79908498615058
0.14477428220577
0.154492631400316
1.23461251577759
0.272549695598551
0.984371602816826
0.668633932373498
0.548063031061668
2.17459796972381
0.556252886137439
1.73508294876467
3.4671246148465
0.339603170388166
4.60347765954911
1.38896390877927
1.59683181354451
0.463202191582208
3.77942667743044
1.56921627417137
0.829197797721581
4.00176281841147
1.03350254974925
0.963988545104424
0.775081443960318
2.18124630883819
0.389760554703802
1.22490447986742
