1.25378777574817
0.458752429966293
0.447504194522311
2.05876064592455
2.43321986582294
0.804353800327787
0.600974768526977
1.91249139151139
1.29633026887149
0.99657624988519
1.69680880329183
1.14424375079246
0.358810471978782
0.356269089803146
1.78437956180443
0.6542477004059
0.692108894893115
0.33561627525225
0.692224148523227
1.26573194157004
0.778796799227142
0.208803747862858
0.182353302287103
0.91466360931876
0.991242004124295
1.31309092355861
1.88921252507511
0.378382546473561
2.5950587303886
2.08047586391782
0.986629265660441
0.960527917140932
0.904456226336045
2.44772260418802
0.605724270258692
0.639959235810828
1.99617708107315
0.664025279936101
1.25789356053653
0.801860968388613
0.401648579610883
1.04148930144022
1.31025801760611
1.0265054729688
1.51186299570302
1.09295435677554
1.48916209327115
0.984907345701296
1.22070284567629
1.93192848960351
