0.712441691963912
0.589314267621853
2.221444719253
1.1702916931112
0.988789113305339
0.806747272508353
1.77332001062267
1.98394139723516
3.10179127511954
0.962933619086272
0.548481574320964
1.21144373883401
0.12260086219396
2.18498814790457
0.98599603415313
0.124720197470062
0.925382709247163
3.08126375989719
0.069997488863477
3.58291862365901
0.653825543063499
2.0187146545648
1.79040403384241
0.530009792347887
1.25987003439378
0.279668120228258
2.99564754213514
0.479383766666126
1.4050779187448
3.31713486321291
2.97651013028162
0.555610340167948
0.123138854771391
2.10027647041164
1.36046933969004
0.245890736257686
0.179690181485758
2.30585138531912
0.933561289643527
0.466449413658864
1.90557027797007
0.0570537235609971
2.01592032302849
3.14926862795129
0.572640516694659
0.478828945079477
0.314343250525338
0.0763255225342984
1.03870736349951
2.82053041850937
