0 0 0 0 -0.514958038177141 0 -1.09124512749758 0 0 0 0 0 0 0 0 0 0 0 0 0 0 0 0 0 0 0 0 0 0 0 0 0 0 0 0 0 0 0 0 0 0 0 0 0 0 0 0 0 0 0
0 0 0 0 0 0 0 0 -1.82085636950488 0 -2.12336815767875 -1.13122036899915 0 0 0 0 0 0 0 0 0 0 0 0 0 0 0 0 0 0 0 0 0 0 0 0 0 0 0 0 0 0 0 0 0 0 0 0 -10.4745058096199 0
0 0 0 0 0 -0.322417263668655 0 0 -0.869871740110974 0 0 0 0 -1.18861690953289 0 0 0 0 0 0 0 0 0 0 0 0 0 0 0 0 0 0 -1.22097130904325 0 0 0 0 0 0 0 0 0 0 0 0 0 0 0 0 -0.599561413092721
0 0 0 0 0 0 0 0 0 0 0 0 0 0 0 0 0 0 0 0 0 0 0 0 0 0 0 0 0 0 0 0 0 0 0 0 0 0 0 0 0 0 0 0 0 0 0 0 -1.40213379785639 -1.45598847476131
0.106840068933266 0 0 0 0 0 0 0 0 0 0 0 0 0 0 0 0 0 0 0 0 0 0 0 0 0 0 0 0 0 0 0 0 0 0 0 0 0 0 0 0 0 0 0 0 0 0 0 -0.162822060796386 0
0 0 0.0625169023347004 0 0 0 0 0 0 0 0 0 0 0 0 0 0 0 0 0 0 0 0 0 0 0 0 0 0 0 -2.47034436225014 0 0 0 0 0 0 0 0 0 0 0 0 0 0 0 0 0 -4.53431436140297 0
0.217878751032858 0 0 0 0 0 0 0 0 0 0 0 0 0 0 0 0 -1.15253114845859 0 0 0 0 0 0 0 0 0 0 0 0 0 0 0 0 0 0 0 0 0 0 0 0 0 0 0 0 0 0 -0.311377224002305 0
0 0 0 0 0 0 0 0 0 0 0 0 0 0 0 0 0 0 0 0 0 0 0 0 0 0 0 0 0 0 0 -1.0592502045131 0 0 0 0 0 0 -0.17418692213806 0 0 0 0 0 0 0 0 0 0 0
0 0.340691704536504 0.160715007922648 0 0 0 0 0 0 0 0 0 0 0 0 0 0 -0.212731600913688 0 0 0 0 0 0 0 0 0 0 0 0 0 0 0 0 0 0 0 0 0 0 0 0 0 0 0 0 0 0 0 0
0 0 0 0 0 0 0 0 0 0 0 0 0 0 0 0 0 0 0 0 0 0 0 0 0 0 0 0 0 0 0 0 0 -0.237762766189836 0 0 0 0 0 0 0 0 0 0 0 0 0 0 -0.666075529113465 0
0 0.415964851394307 0 0 0 0 0 0 0 0 0 0 0 0 0 0 0 0 0 0 0 0 0 0 0 0 0 0 -8.12555441288893 0 0 0 0 0 0 0 0 0 0 0 0 0 0 0 0 0 0 0 0 0
0 0.213912648198615 0 0 0 0 0 0 0 0 0 0 0 0 0 0 0 0 0 0 0 0 0 0 0 0 0 0 0 0 0 0 0 -0.197089481926344 0 0 0 0 -0.550591339831898 0 0 0 0 0 0 0 0 -1.69298029397111 -0.807514581259506 0
0 0 0 0 0 0 0 0 0 0 0 0 0 0 0 0 0 0 0 0 0 0 0 0 0 0 0 0 0 -0.948488327319407 0 0 0 -1.09243382098777 0 0 0 0 0 0 0 0 0 0 -0.129284162315458 0 0 -0.278213945508771 0 0
0 0 0.229725802876686 0 0 0 0 0 0 0 0 0 0 0 0 0 0 0 0 0 -0.797073589109501 0 0 -0.73183718599129 0 -0.340108522266677 0 0 0 0 0 0 0 -0.612115078423374 0 0 0 0 -1.06492002883784 0 0 0 0 0 0 0 0 0 -1.11892867541588 0
0 0 0 0 0 0 0 0 0 0 0 0 0 0 0 0 0 0 0 0 0 0 0 -1.49365895553167 0 -2.61833614358715 0 0 0 0 0 0 0 -1.71392150088313 0 0 0 0 0 0 0 0 0 0 -5.90060589118603 0 0 -0.665219421806123 -0.601776178025541 0
0 0 0 0 0 0 0 0 0 0 0 0 0 0 0 0 0 0 0 0 -0.714343518612749 -2.58435671156309 0 -0.570624850287699 0 -0.605869215715736 0 0 0 0 0 0 0 0 0 0 0 0 -1.0996140014382 0 0 0 0 0 0 0 0 0 0 0
0 0 0 0 0 0 0 0 0 0 0 0 0 0 0 0 0 0 0 0 -3.70936090157373 -0.486531110163917 0 0 0 -3.96453540911662 0 0 0 0 0 0 0 0 0 0 0 0 0 0 0 0 0 0 0 0 0 0 0 0
0 0 0 0 0 0 0.231553717493666 0 0.0411856261925957 0 0 0 0 0 0 0 0 0 0 0 -1.59718234420676 0 0 0 0 0 0 0 0 0 0 0 0 0 0 0 0 0 -0.561716765987678 0 0 0 0 0 -1.54485684985206 0 0 0 0 0
0 0 0 0 0 0 0 0 0 0 0 0 0 0 0 0 0 0 0 -0.231150843895441 0 0 0 0 0 0 0 0 0 0 0 0 0 0 0 0 0 0 -0.150953562947753 -0.951074055018264 0 0 0 0 -0.100016109679223 -0.779873760486498 0 0 0 0
0 0 0 0 0 0 0 0 0 0 0 0 0 0 0 0 0 0 0.0440719841768929 0 0 0.208386892977369 0.129622142843186 0 0 0 -0.156859105925866 0 0 0 0 0 0 0 0 0 0 0 -1.93889221702281 -3.68924955609149 0 0 0 0 0 -3.81869591637907 0 0 0 0
0 0 0 0 0 0 0 0 0 0 0 0 0 0.150811936915199 0 0.140995848454354 0.736051132423337 0.325220313154276 0 0 0 0 0 0 0 0 0 0 0 0 0 0 0 0 0 0 -0.192207283601382 0 0 0 0 0 0 0 0 -1.33692586770949 0 0 0 0
0 0 0 0 0 0 0 0 0 0 0 0 0 0 0 0.527682228868123 0.0987179343316397 0 0 -0.983059074486264 0 0 0 0 0 0 0 -0.388522408124956 0 0 0 0 0 0 0 0 -0.95476294824121 0 -0.437042203054588 -3.16231499169577 0 0 0 0 0 -7.40006071587116 0 0 0 0
0 0 0 0 0 0 0 0 0 0 0 0 0 0 0 0 0 0 0 -0.628006180739762 0 0 0 0 0 0 0 0 0 0 0 0 0 0 -0.313029129061236 0 -0.0214060955733289 0 0 -4.79502649077386 0 0 0 0 0 -0.392245014325503 0 0 0 0
0 0 0 0 0 0 0 0 0 0 0 0 0 0.153638064131189 0.27363116892309 0.10406330093751 0 0 0 0 0 0 0 0 0 0 0 0 0 0 0 0 0 0 -1.58668798890004 0 0 0 0 0 0 0 0 0 0 0 0 0 0 0
0 0 0 0 0 0 0 0 0 0 0 0 0 0 0 0 0 0 0 0 0 0 0 0 0 0 0 0 0 0 0 0 0 0 0 0 0 0 -0.422242846684276 -1.12040642708653 0 0 0 0 0 -0.62676410525333 0 0 0 0
0 0 0 0 0 0 0 0 0 0 0 0 0 0.070210191723785 0.567084063739188 0.128263716951271 0.797100466408636 0 0 0 0 0 0 0 0 0 0 -1.75623290796381 0 0 0 0 0 0 0 0 0 0 0 0 0 0 0 0 0 -0.216905855438083 0 0 0 0
0 0 0 0 0 0 0 0 0 0 0 0 0 0 0 0 0 0 0 0.0324025872132954 0 0 0 0 0 0 0 0 0 0 0 0 0 0 0 0 0 0 -1.22168858911627 0 0 0 0 0 0 0 0 0 0 0
0 0 0 0 0 0 0 0 0 0 0 0 0 0 0 0 0 0 0 0 0 0.0784028186277132 0 0 0 0.33013812631816 0 0 0.0715548849753299 0.306435517885387 0 0 0 0 0 0 0 0 0 0 0 0 0 0 0 0 0 0 0 0
0 0 0 0 0 0 0 0 0 0 1.63872462164118 0 0 0 0 0 0 0 0 0 0 0 0 0 0 0 0 -0.333541785112589 0 0 0 0 0 0 0 0 0 0 0 0 0 -6.59700620373485 0 0 0 0 0 0 0 0
0 0 0 0 0 0 0 0 0 0 0 0 0.212274868710515 0 0 0 0 0 0 0 0 0 0 0 0 0 0 -1.43518947343623 0 0 0 0 0 0 0 0 0 0 0 0 0 -0.57946696313919 -0.225004260039972 0 0 -0.822006970100953 0 0 0 0
0 0 0 0 0 0.441450517162425 0 0 0 0 0 0 0 0 0 0 0 0 0 0 0 0 0 0 0 0 0 0 0 0 0 0 0 0 0 0 0 0 0 0 0 -3.01408295230222 -0.401679818822971 0 0 -1.18745800272711 0 0 0 0
0 0 0 0 0 0 0 0.217448218303791 0 0 0 0 0 0 0 0 0 0 0 0 0 0 0 0 0 0 0 0 0 0 0 0 0 0 0 0 0 0 0 -4.3191577482191 0 0 -2.07990358322979 0 0 -1.51381077859361 0 0 0 0
0 0 0.231316009156741 0 0 0 0 0 0 0 0 0 0 0 0 0 0 0 0 0 0 0 0 0 0 0 0 0 0 0 0 0 0 0 0 0 0 0 0 0 0 0 -0.568901860020347 0 0 -0.701565908531843 0 0 0 0
0 0 0 0 0 0 0 0 0 0.0424131855524164 0 0.0363995572352122 0.229805836579044 0.110631490213077 0.360780024918211 0 0 0 0 0 0 0 0 0 0 0 0 0 0 0 0 0 0 0 0 0 0 0 0 -0.912074549751671 0 0 0 0 0 0 0 0 0 0
0 0 0 0 0 0 0 0 0 0 0 0 0 0 0 0 0 0 0 0 0 0 0.0605893239070167 0.301880407518798 0 0 0 0 0 0 0 0 0 0 0 0 0 0 0 -2.30789774976553 0 0 0 0 0 0 0 0 0 0
0 0 0 0 0 0 0 0 0 0 0 0 0 0 0 0 0 0 0 0 0 0 0 0 0 0 0 0 0 0 0 0 0 0 0 0 0 0 0 -0.338331967140637 0 0 0 -1.67849701045808 0 0 0 0 0 0
0 0 0 0 0 0 0 0 0 0 0 0 0 0 0 0 0 0 0 0 0.0402670191913927 0.189491500680337 0.00416654571943711 0 0 0 0 0 0 0 0 0 0 0 0 0 0 0 0 0 0 0 0 -1.30072728013579 0 0 0 0 0 0
0 0 0 0 0 0 0 0 0 0 0 0 0 0 0 0 0 0 0 0 0 0 0 0 0 0 0 0 0 0 0 0 0 0 0 0 0 0 0 -0.789352399203727 0 0 0 0 0 0 0 0 0 0
0 0 0 0 0 0 0 0.0363859610194027 0 0 0 0.103739713139708 0 0.203704113033021 0 0.211292961958498 0 0.118654573143055 0.0319076148525317 0.394442518410842 0 0.0873477586885761 0 0 0.0876789154456875 0 0.24327978919734 0 0 0 0 0 0 0 0 0 0 0 0 0 0 0 0 0 0 0 0 0 0 0
0 0 0 0 0 0 0 0 0 0 0 0 0 0 0 0 0 0 0.202766913472131 0.718263681548106 0 0.611107095632801 1.05532765084036 0 0.212669791927977 0 0 0 0 0 0 0.822127874283468 0 0.193305319554197 0.479093191301428 0.0687263378509049 0 0.141688290845224 0 0 0.0527186232352048 0.0432585299755834 0 0 0 0 0 0 0 0
0 0 0 0 0 0 0 0 0 0 0 0 0 0 0 0 0 0 0 0 0 0 0 0 0 0 0 0 0 0 0 0 0 0 0 0 0 0 0 -0.266672986573099 0 0 0 0 0 0 0 0 0 0
0 0 0 0 0 0 0 0 0 0 0 0 0 0 0 0 0 0 0 0 0 0 0 0 0 0 0 0 1.36872326960778 0.119563336039092 0.641365880538209 0 0 0 0 0 0 0 0 -0.24985944464497 0 0 0 0 0 0 0 0 0 0
0 0 0 0 0 0 0 0 0 0 0 0 0 0 0 0 0 0 0 0 0 0 0 0 0 0 0 0 0 0.0454619496671146 0.0840024326459997 0.387037974752122 0.109774179695536 0 0 0 0 0 0 0 0 0 0 0 0 0 -0.672516513927084 0 0 0
0 0 0 0 0 0 0 0 0 0 0 0 0 0 0 0 0 0 0 0 0 0 0 0 0 0 0 0 0 0 0 0 0 0 0 0.357513751074703 0.268975313028889 0 0 0 0 0 0 0 0 0 -0.194796614079811 0 0 0
0 0 0 0 0 0 0 0 0 0 0 0 0.026566101954175 0 1.10837318457218 0 0 0.303847068368566 0.0211470341989743 0 0 0 0 0 0 0 0 0 0 0 0 0 0 0 0 0 0 0 0 0 0 0 0 0 0 0 -1.03301873547005 0 0 0
0 0 0 0 0 0 0 0 0 0 0 0 0 0 0 0 0 0 0.157178601034454 0.816394416475731 0.269388512301085 1.4425880042523 0.0710861492243658 0 0.120618039647534 0.0445433486379832 0 0 0 0.156896809767204 0.251021080508251 0.281579608045489 0.144265849664513 0 0 0 0 0 0 0 0 0 0 0 0 0 0 0 0 0
0 0 0 0 0 0 0 0 0 0 0 0 0 0 0 0 0 0 0 0 0 0 0 0 0 0 0 0 0 0 0 0 0 0 0 0 0 0 0 0 0 0 0.133512901126437 0.0379193181930593 0.195343461448989 0 0 0 0 0
0 0 0 0 0 0 0 0 0 0 0 0.348334960813484 0.0559438799976046 0 0.126404569411197 0 0 0 0 0 0 0 0 0 0 0 0 0 0 0 0 0 0 0 0 0 0 0 0 0 0 0 0 0 0 0 0 0 0 0
0 2.04952810069146 0 0.272115893899611 0.0318414023637041 0.96017589424367 0.055417105958572 0 0 0.130925475345574 0 0.164012879979304 0 0.236894949279889 0.116537797129983 0 0 0 0 0 0 0 0 0 0 0 0 0 0 0 0 0 0 0 0 0 0 0 0 0 0 0 0 0 0 0 0 0 0 0
0 0 0.116149827047017 0.296872626639734 0 0 0 0 0 0 0 0 0 0 0 0 0 0 0 0 0 0 0 0 0 0 0 0 0 0 0 0 0 0 0 0 0 0 0 0 0 0 0 0 0 0 0 0 0 0
