0.611083240224706
0.529228216377338
1.04260585671098
0.183630126758838
2.29546608182984
1.07419857871913
0.669734442432728
1.02455629813859
1.49208216626055
0.396607574491401
0.180893568820767
0.89495288962544
1.27502171933151
1.16278581901958
1.54751805372447
1.24715070314772
1.51942025469648
2.22308806232644
0.23201410467511
0.600233799106143
1.62773143237808
0.615021940784369
1.21358852107865
0.864439639293568
1.12007236703941
1.27386705501339
0.714238012904192
1.31977480881651
1.01899052933154
0.853809413039746
0.891861796053902
4.03620098347255
1.41175649070466
0.324581086673653
3.74600370280079
3.40882846167746
0.349914458639029
0.544976658084852
2.99898065115249
0.4634759934861
0.940990116428121
0.36237009302147
0.941049652403029
4.51008857952828
0.461256907983137
2.67147470416889
0.652033017751666
0.401564889960041
1.2710940705802
0.420068454547687
