0.174799354583998
0.262385071377245
0.811696390891348
0.326712574496382
0.195916669545362
1.41387794160963
0.455944701232359
1.03863613539993
1.42501508120977
1.00911434318375
0.568377970936077
0.614169443696604
0.244738632390841
0.26334994379628
1.01248939997907
0.970615680354647
1.43777541047516
0.0331739725026593
0.267538809275119
0.196104593252715
0.134928688654832
0.828554546035456
0.119618940089731
1.42188635072315
0.833300968736578
0.112577130487395
0.513169471820718
0.619282422471832
0.260244716407672
0.422081846001552
0.507432704684639
0.554624689701526
0.524714543494534
0.322294270359153
0.0762588799165633
0.301124154382312
0.061210604812991
1.11219550127458
0.234796294535432
0.102302395556765
0.0307129090336186
0.997574025474472
0.672278478426725
0.279222293112005
0.987450773492796
0.850731821896187
0.183938508446742
0.376323181017666
0.407442741304562
0.16665976334748
