0 0 0 0 -0.135813306207039 0 0 0 0 0 0 0 0 0 0 0 0 0 0 0 0 0 -1.3673540922764 0 0 0 0 0 0 0 0 0 0 0 0 0 0 0 0 0 0 0 0 0 0 0 0 0 0 0
0 0 0 0 -0.757964876745754 0 0 0 -1.21394582987873 0 0 0 0 0 0 0 0 0 0 0 0 0 0 0 0 0 0 0 0 0 0 0 -0.35080021019791 0 0 0 0 0 0 0 0 0 0 0 0 0 0 0 0 0
0 0 0 0 0 0 0 0 0 0 0 0 0 0 0 0 0 0 0 0 0 0 0 0 0 0 0 0 0 0 0 0 0 0 0 0 0 0 0 -0.839550370299686 0 0 0 0 0 0 0 0 0 0
0 0 0 0 0 0 0 0 -0.847831958252158 0 0 0 0 0 0 0 -0.188792980003843 0 0 0 0 0 0 0 -2.82006876282819 0 0 0 0 0 0 0 0 0 0 0 0 0 0 0 0 0 0 0 0 0 0 0 0 0
0.0265024582981911 0.152318355467744 0 0 0 0 0 0 0 0 0 0 0 -1.14867560558709 0 0 -2.01647238297794 0 0 0 0 0 0 0 0 0 0 0 0 0 0 0 0 0 -0.370601005858847 0 0 0 0 0 0 0 0 0 0 0 0 0 0 0
0 0 0 0 0 0 0 0 0 0 0 0 0 0 0 0 0 0 0 0 0 0 0 0 -0.514760508722252 0 0 0 0 0 0 0 0 0 -1.88993860322055 0 0 0 0 0 0 0 0 0 0 0 0 0 0 0
0 0 0 0 0 0 0 0 0 0 0 0 0 0 0 0 0 0 0 0 0 0 0 0 -4.46390816860528 0 0 0 0 0 0 0 0 0 0 0 0 0 0 0 0 0 0 0 0 0 0 0 0 0
0 0 0 0 0 0 0 0 0 0 0 0 -0.54491050465179 0 0 0 0 0 0 0 0 0 0 0 -0.842233733774354 0 -0.641918101296874 0 0 0 0 0 0 0 0 0 0 0 0 0 0 0 0 0 0 0 0 0 0 0
0 0.233834501302014 0 0.174514063425662 0 0 0 0 0 0 0 0 0 0 0 0 0 0 0 0 0 0 0 0 0 0 0 0 -1.89778028295778 -6.64182887477459 0 0 0 0 0 0 0 0 0 0 0 0 0 -2.71368316870675 0 0 0 0 0 0
0 0 0 0 0 0 0 0 0 0 -0.98036882016075 0 0 0 0 -0.27693385699673 0 0 0 0 0 0 0 0 0 0 0 0 -1.37432486160781 0 0 0 0 -1.77767394235054 0 0 0 0 0 0 0 0 0 0 0 0 0 0 -0.209594544037326 0
0 0 0 0 0 0 0 0 0 0.189786791763432 0 0.194454676439738 0 0 0 0 0 0 -1.26571697279224 0 0 0 0 0 0 0 0 0 -2.65974798377924 -2.69228944626257 0 0 0 -0.829885038360149 0 0 0 0 0 0 0 0 0 -1.36721010019339 0 0 0 0 0 0
0 0 0 0 0 0 0 0 0 0 -0.951106842958246 0 0 0 0 -0.80764306196409 0 0 -3.40311541483865 0 0 0 0 0 0 0 0 0 0 0 0 0 0 0 0 0 0 0 0 0 0 0 0 -1.69322009677224 0 0 0 0 -3.57172765347674 0
0 0 0 0 0 0 0 0.0974416692059616 0 0 0 0 0 0 0 -4.25834326524238 0 0 0 0 0 0 0 0 0 0 0 0 -0.235423006039854 -1.12609100615684 0 0 0 -0.394204518908284 0 0 0 0 0 0 0 0 0 -4.20387985721959 0 0 0 0 0 0
0 0 0 0 0.227764220298416 0 0 0 0 0 0 0 0 0 0 0 0 0 0 0 0 0 0 0 0 0 0 0 0 -2.47703509402684 0 0 0 -0.839193630008264 0 0 0 0 0 0 0 0 0 -0.0646246642882793 0 0 -1.27399723279459 0 -0.474474624385594 0
0 0 0 0 0 0 0 0 0 0 0 0 0 0 0 0 0 0 0 0 0 0 0 0 0 0 0 0 0 0 0 0 0 -1.1527414754792 0 0 0 0 0 0 0 0 0 -0.504433457544552 0 0 0 0 -12.4078789015502 0
0 0 0 0 0 0 0 0 0 0.0545391540983365 0 0.168280035270372 0.827314301075079 0 0 0 0 0 -0.819925480635001 0 -0.742383385231097 0 0 0 0 0 0 0 0 -0.374461348838345 0 0 0 -5.30929084843694 0 0 0 0 0 0 0 0 0 -0.511862486596723 0 0 0 0 0 0
0 0 0 0.0361505031813432 0.381030588169068 0 0 0 0 0 0 0 0 0 0 0 0 0 -1.5143633573063 0 -0.142772978392957 0 0 0 0 0 0 0 0 0 0 0 0 -4.78603020115196 0 0 0 0 0 0 0 0 0 -0.660610874597234 0 0 -2.98799593898521 0 0 0
0 0 0 0 0 0 0 0 0 0 0 0 0 0 0 0 0 0 0 0 0 0 0 0 0 0 0 0 0 -1.45926873796638 0 0 0 0 0 0 0 0 0 0 0 0 0 0 0 0 -0.356107515936132 0 0 0
0 0 0 0 0 0 0 0 0 0 0.266287618891414 0.640069877126538 0 0 0 0.160704067735495 0.307164396048786 0 0 0 0 0 0 0 0 0 0 0 0 0 0 0 0 -4.2118804854813 0 0 0 0 0 0 0 0 0 0 0 0 0 0 0 0
0 0 0 0 0 0 0 0 0 0 0 0 0 0 0 0 0 0 0 0 0 0 0 0 0 0 0 0 0 -0.573402940190487 0 0 0 0 0 0 0 0 0 0 0 0 0 0 0 0 -0.478059922967211 0 0 0
0 0 0 0 0 0 0 0 0 0 0 0 0 0 0 0.147498858104473 0.029261607424233 0 0 0 0 0 0 0 0 0 0 0 0 0 0 0 0 0 0 0 0 0 0 0 0 0 0 -0.377236081659481 0 0 -2.04858044739042 0 0 0
0 0 0 0 0 0 0 0 0 0 0 0 0 0 0 0 0 0 0 0 0 0 0 0 0 -2.70133780245277 0 0 0 0 -0.726204213514887 0 0 0 0 0 0 0 0 0 0 0 0 -0.351799209996936 0 0 0 0 0 0
0.278879066771162 0 0 0 0 0 0 0 0 0 0 0 0 0 0 0 0 0 0 0 0 0 0 -0.545663190835101 0 0 0 0 0 0 -0.505104385760948 0 0 -0.408337145221512 0 0 -0.249841846100503 0 0 0 0 0 0 0 0 0 0 0 0 0
0 0 0 0 0 0 0 0 0 0 0 0 0 0 0 0 0 0 0 0 0 0 0.108342088878141 0 0.293253008045016 0.0341484171962883 0 0 0 0 -1.59903688690518 0 0 -1.3503676813349 0 0 -1.93581834572458 0 0 0 0 0 0 0 0 0 0 0 0 0
0 0 0 0.553861419093595 0 0.099247654842756 0.890614446885591 0.152588817132739 0 0 0 0 0 0 0 0 0 0 0 0 0 0 0 -1.50554566290838 0 0 0 0 0 0 0 0 0 -1.26584906998249 0 0 -2.68455630927996 0 0 0 0 0 0 0 0 0 -0.0475117352626754 0 0 0
0 0 0 0 0 0 0 0 0 0 0 0 0 0 0 0 0 0 0 0 0 0.54882213961202 0 -0.17572014976282 0 0 0 0 0 0 -0.607106353539135 0 0 -0.470842184899966 0 0 0 0 0 0 0 0 0 0 0 0 -0.420085658008053 0 0 0
0 0 0 0 0 0 0 0.136890347172614 0 0 0 0 0 0 0 0 0 0 0 0 0 0 0 0 0 0 0 0 0 0 -0.786427841171567 0 0 0 0 0 0 0 0 0 0 0 0 0 0 0 0 0 0 0
0 0 0 0 0 0 0 0 0 0 0 0 0 0 0 0 0 0 0 0 0 0 0 0 0 0 0 0 0 0 0 0 0 0 0 0 0 0 0 0 -8.04260564616966 -0.430496982713101 0 0 0 -0.349700043446258 0 0 0 0
0 0 0 0 0 0 0 0 0.381618493805604 0.300172150384573 0.520631388504498 0 0.0466722752827338 0 0 0 0 0 0 0 0 0 0 0 0 0 0 0 0 0 0 0 0 0 0 0 0 0 0 0 0 -1.11861279623095 0 0 0 0 0 0 0 0
0 0 0 0 0 0 0 0 1.3025205993629 0 0.568214606239663 0 0.211493902735949 0.557991778033555 0 0.077187762353057 0 0.306014459964996 0 0.10756842963275 0 0 0 0 0 0 0 0 0 0 0 0 0 0 0 0 0 0 0 0 0 0 0 0 0 0 0 0 0 0
0 0 0 0 0 0 0 0 0 0 0 0 0 0 0 0 0 0 0 0 0 0.154395598355246 0.100009411897047 0.341273371728415 0 0.111473973056702 0.166434558102907 0 0 0 0 0 0 0 0 0 0 0 0 0 0 -1.78788873094216 -0.716055289711702 0 0 0 0 -5.8774798338005 0 0
0 0 0 0 0 0 0 0 0 0 0 0 0 0 0 0 0 0 0 0 0 0 0 0 0 0 0 0 0 0 0 0 0 0 0 0 0 0 0 0 0 -0.601550547167202 0 0 0 -0.272078685380995 0 0 0 0
0 0.0717566369532052 0 0 0 0 0 0 0 0 0 0 0 0 0 0 0 0 0 0 0 0 0 0 0 0 0 0 0 0 0 0 0 0 0 0 0 0 0 0 0 -0.612486806078265 0 0 0 0 0 0 0 0
0 0 0 0 0 0 0 0 0 0.352130694981302 0.151858645537566 0 0.0818195311316518 0.18265857303691 0.241947423602361 1.07803561921678 1.03087502482655 0 0.854211169880373 0 0 0 0.0850264528376597 0.286634608339567 0.243368271326763 0.0913129098074672 0 0 0 0 0 0 0 0 0 0 0 0 0 0 0 0 0 0 0 0 0 0 0 0
0 0 0 0 0.0758290277441467 0.394066939274415 0 0 0 0 0 0 0 0 0 0 0 0 0 0 0 0 0 0 0 0 0 0 0 0 0 0 0 0 0 0 0 0 0 0 0 0 0 0 0 0 0 0 0 0
0 0 0 0 0 0 0 0 0 0 0 0 0 0 0 0 0 0 0 0 0 0 0 0 0 0 0 0 0 0 0 0 0 0 0 0 0 -10.7777626527372 0 0 0 0 0 0 0 -0.454585138724188 0 0 0 0
0 0 0 0 0 0 0 0 0 0 0 0 0 0 0 0 0 0 0 0 0 0 0.0479981172624294 0.388397711825108 0.526187299486768 0 0 0 0 0 0 0 0 0 0 0 0 0 0 0 0 0 0 0 0 -1.22518531293843 0 0 0 -1.94875378323443
0 0 0 0 0 0 0 0 0 0 0 0 0 0 0 0 0 0 0 0 0 0 0 0 0 0 0 0 0 0 0 0 0 0 0 1.98528140194115 0 0 0 0 0 0 0 0 0 0 0 0 0 0
0 0 0 0 0 0 0 0 0 0 0 0 0 0 0 0 0 0 0 0 0 0 0 0 0 0 0 0 0 0 0 0 0 0 0 0 0 0 0 0 0 0 0 0 -1.11144499806369 -0.452682345389084 0 0 0 0
0 0 0.162912452011083 0 0 0 0 0 0 0 0 0 0 0 0 0 0 0 0 0 0 0 0 0 0 0 0 0 0 0 0 0 0 0 0 0 0 0 0 0 0 0 0 0 0 -1.16574421750709 0 0 0 0
0 0 0 0 0 0 0 0 0 0 0 0 0 0 0 0 0 0 0 0 0 0 0 0 0 0 0 1.48035899027632 0 0 0 0 0 0 0 0 0 0 0 0 0 0 0 0 0 0 0 0 0 0
0 0 0 0 0 0 0 0 0 0 0 0 0 0 0 0 0 0 0 0 0 0 0 0 0 0 0 0.0918866006865108 0.237914058783317 0 0.342666484059684 0.116465619248349 0.125649323146952 0 0 0 0 0 0 0 0 0 0 0 -2.39371329941121 -0.287912917100717 0 0 0 -0.897838697613307
0 0 0 0 0 0 0 0 0 0 0 0 0 0 0 0 0 0 0 0 0 0 0 0 0 0 0 0 0 0 0.131848546915987 0 0 0 0 0 0 0 0 0 0 0 0 0 0 -2.9221764245741 0 0 0 -0.0664228407865238
0 0 0 0 0 0 0 0 0.496116548819675 0 0.282160448699377 0.344666019008143 0.836032258186967 0.012677558335726 0.0979830818873667 0.102371092282293 0.129837332603125 0 0 0 0.0758522414788546 0.0699169817624023 0 0 0 0 0 0 0 0 0 0 0 0 0 0 0 0 0 0 0 0 0 0 0 0 0 0 0 -2.33042847873357
0 0 0 0 0 0 0 0 0 0 0 0 0 0 0 0 0 0 0 0 0 0 0 0 0 0 0 0 0 0 0 0 0 0 0 0 0 0 0.216675813348588 0 0 0.433109006784172 0 0 0 -0.757790604480368 0 0 0 -4.92274878320253
0 0 0 0 0 0 0 0 0 0 0 0 0 0 0 0 0 0 0 0 0 0 0 0 0 0 0 0.0757305456412362 0 0 0 0.0552180529673176 0 0 0 0.0842784324590079 0.221711252493056 0 0.0898693854954095 0.236780222520312 0 0.0602659649179186 0.594245980299069 0 0.151967143256071 0 0.0351844924726228 0 0 -0.43050318836588
0 0 0 0 0 0 0 0 0 0 0 0 0 0.250307721106779 0 0 0.612129275300357 0.0714554448439966 0 0.0997807721837778 0.36824063871565 0 0 0 0.0092203845838253 0.0904089398625766 0 0 0 0 0 0 0 0 0 0 0 0 0 0 0 0 0 0 0 -0.178749580434246 0 0 0 0
0 0 0 0 0 0 0 0 0 0 0 0 0 0 0 0 0 0 0 0 0 0 0 0 0 0 0 0 0 0 1.25077758229247 0 0 0 0 0 0 0 0 0 0 0 0 0 0 0 0 0 0 0
0 0 0 0 0 0 0 0 0 0.0409494980076129 0 0.74780737643697 0 0.0917980537443162 2.47784330675522 0 0 0 0 0 0 0 0 0 0 0 0 0 0 0 0 0 0 0 0 0 0 0 0 0 0 0 0 0 0 0 0 0 0 -1.07229794167973
0 0 0 0 0 0 0 0 0 0 0 0 0 0 0 0 0 0 0 0 0 0 0 0 0 0 0 0 0 0 0 0 0 0 0 0 0.402678882481493 0 0 0 0 0.176984978549939 0.0120101017076911 0.486580662190821 0.952049248660183 0.0891946710540192 0 0 0.227224151707682 0
