0.14008636773447
1.52151786560161
1.62107262332114
3.00815588812732
2.06696805090713
1.21983376761698
1.4208493228776
0.245210543358465
0.151630395446105
0.823304657627335
0.348751081616146
1.96931783391226
0.123292345591838
1.93071366966571
2.13633248190813
0.193902726434676
0.194234212447307
0.634794580922918
1.53406918264923
0.7330277909177
3.64823662509057
1.7608430591377
5.73673503938346
0.0654856390980532
0.616627683771191
0.0388261000664768
0.121439748020966
0.054953639115566
1.34856166086301
1.63497764382028
0.332730691543898
0.985234244166514
0.639528047068744
1.35004000706055
0.13671860313237
0.396584861927626
0.721108052279083
1.81994783320597
0.160494223773586
1.96639101399675
1.42116808787335
0.253058238155261
0.879138255201994
0.425967756872728
0.316924859142138
0.231279362812638
0.157273686758987
0.510712174750546
0.163056359519627
0.343501399502275
