0 0 0 0 0 0 0 0 0 0 0 0 0 -0.324859923953798 0 0 0 0 0 0 0 0 0 0 0 0 0 -1.12722177442119 0 0 0 0 0 0 0 0 0 0 0 0 0 0 0 0 0 0 0 0 0 0
0 0 -0.989781471707877 0 0 0 0 0 0 0 0 0 0 0 0 -3.65775714800227 0 -4.03091116932879 0 0 0 0 0 0 0 0 0 0 0 0 0 0 0 0 0 0 0 0 0 0 -3.25181724772088 -1.95865501130849 0 0 0 0 0 -2.01664376780094 0 0
0 0.199407533129073 0 0 0 0 0 0 0 0 0 0 0 0 0 0 0 0 0 0 0 0 0 0 0 0 0 0 0 0 0 0 0 0 0 0 0 0 0 0 0 -0.253982472419731 0 0 0 0 0 -1.04477592867069 0 0
0 0 0 0 0 0 0 0 0 0 0 0 0 0 0 0 0 0 0 0 0 0 0 0 0 0 -1.03469038740781 0 0 0 0 0 0 0 0 0 0 0 0 0 -1.29308635080226 -4.35892228743584 0 0 0 0 0 -0.303289976086872 0 0
0 0 0 0 0 0 0 -1.16986915360428 0 0 0 0 0 0 0 0 0 -3.77834310857288 0 0 0 0 0 0 0 0 -2.70368316824273 0 0 0 0 0 0 0 0 0 0 0 0 0 -0.648059518470734 0 0 0 0 0 0 0 0 0
0 0 0 0 0 0 0 -1.9936925846697 0 -0.710338405360171 0 0 0 0 0 0 0 -2.20276764058171 0 0 0 0 0 0 0 0 0 0 0 0 0 0 0 0 0 0 0 0 0 -2.96014137356623 0 0 0 0 0 0 0 0 0 0
0 0 0 0 0 0 0 0 0 -0.536612056388759 0 0 -0.771880466867722 0 0 0 0 0 0 0 0 0 0 0 0 0 0 0 0 0 0 0 0 0 0 0 0 0 0 -0.779836220166234 0 0 0 0 0 0 0 0 0 0
0 0 0 0 0.247112722047358 0.394011459863651 0 0 0 -0.507607977933858 0 0 0 0 0 0 0 0 0 0 0 0 0 0 0 0 0 0 0 0 0 0 0 0 0 0 0 -0.376443584544949 0 0 0 0 0 0 0 0 0 0 0 0
0 0 0 0 0 0 0 0 0 0 0 0 0 0 0 0 0 0 0 0 0 0 -1.72324896872666 0 0 0 0 0 0 0 0 0 0 0 0 0 0 0 -0.985941676326817 -0.672403872382004 0 0 0 0 0 0 0 0 0 0
0 0 0 0 0 0.144835147582019 0.113928213440727 0.103165772870409 0 0 0 0 0 0 0 0 0 0 0 0 0 0 0 0 0 0 0 0 0 0 0 0 0 0 0 0 0 0 0 -2.22931500692101 0 0 0 0 0 0 0 0 0 0
0 0 0 0 0 0 0 0 0 0 0 0 0 0 0 0 0 0 0 0 0 0 0 0 0 0 0 0 0 0 0 0 0 0 0 0 0 0 0 -0.685294366170275 0 0 0 0 0 -4.2954811171815 0 0 0 0
0 0 0 0 0 0 0 0 0 0 0 0 0 0 0 0 0 0 0 0 -1.42106084689935 0 -2.3186698426696 0 0 0 0 0 0 0 0 0 0 0 0 0 0 0 -0.55921824836948 -0.63021634871295 0 0 0 0 0 -4.18776192937603 0 0 0 -1.52829912458126
0 0 0 0 0 0 0.164701576650588 0 0 0 0 0 0 0 0 0 0 0 0 0 0 0 -0.574542357077615 0 0 0 0 0 0 -2.34572632626059 0 -3.1858419435963 0 0 0 0 0 0 -0.275914344720578 0 0 0 0 0 0 0 0 0 0 0
0.0638441826801346 0 0 0 0 0 0 0 0 0 0 0 0 0 -8.22327031281997 0 0 0 0 0 0 0 -0.436290234288699 0 0 -0.586059701037308 0 0 0 -0.474802371737626 0 -1.12455964593178 0 0 0 0 0 0 -0.177381494440333 0 0 0 0 0 0 0 0 0 0 -1.04679713240696
0 0 0 0 0 0 0 0 0 0 0 0 0 1.65541536871036 0 0 0 0 0 0 0 0 0 0 0 0 0 0 0 0 0 0 0 -5.68593720015823 -3.16632998889146 0 -7.50089820744798 0 0 0 0 0 0 0 0 0 0 0 0 0
0 0.723519007687069 0 0 0 0 0 0 0 0 0 0 0 0 0 0 0 0 0 0 0 -0.16842147912027 0 0 0 0 0 0 -0.48964252155883 0 0 0 0 -0.996309813234291 -1.22916248225129 0 -3.94575441045786 0 0 0 0 0 0 0 0 0 0 0 0 -0.733235471445398
0 0 0 0 0 0 0 0 0 0 0 0 0 0 0 0 0 0 0 0 0 0 0 0 0 0 0 0 0 0 0 0 0 -3.96984201799353 0 0 -1.08803579747913 0 0 0 0 0 0 0 0 0 0 0 0 0
0 0.802843116372714 0 0 0.782291454729868 0.445690605496978 0 0 0 0 0 0 0 0 0 0 0 0 0 0 0 -0.997748743999511 0 0 0 0 0 0 -2.04862911960609 0 0 0 0 -1.66196995869362 0 0 -0.342944076650797 0 0 0 0 0 0 0 0 0 0 0 0 0
0 0 0 0 0 0 0 0 0 0 0 0 0 0 0 0 0 0 0 0 0 -1.18987131546893 0 0 0 0 0 0 0 0 0 0 0 -0.866081421039486 0 0 -2.21114584868935 0 0 0 0 0 -0.947321824344503 0 0 0 0 0 0 -3.90535834589999
0 0 0 0 0 0 0 0 0 0 0 0 0 0 0 0 0 0 0 0 0 -1.05702668733661 0 0 0 0 0 0 -0.510585851334912 0 0 0 0 0 -3.93158864347942 0 -3.2666132993993 0 0 0 0 0 -5.89149225208894 0 0 0 0 0 0 -1.37858630642995
0 0 0 0 0 0 0 0 0 0 0 0.292429397073529 0 0 0 0 0 0 0 0 0 -2.29943049213692 0 0 0 0 0 0 0 0 0 0 0 0 -1.15178201086637 -0.177462408004078 -0.598353364302658 0 0 0 0 0 0 0 0 0 0 0 0 0
0 0 0 0 0 0 0 0 0 0 0 0 0 0 0 0.03173505691392 0 0.188091181807508 0.226313541831851 0.212717602362949 0.449343881038313 0 1.17570842143147 0.302330768521517 0.168509539608781 0.0498394607850411 0 0 -0.0788491667280725 0 0 0 0 0 -0.737893807905822 -0.496078758436975 -0.227144734865088 0 0 0 0 0 0 0 0 0 0 0 0 -1.11145916836873
0 0 0 0 0 0 0 0 0.335494743031843 0 0 0.487424526611551 0.113358999449841 0.0926579774690177 0 0 0 0 0 0 0 -6.20917396946651 0 0 0 0 0 0 -1.39332192505801 0 -3.31655758660001 0 0 0 -0.553442941854288 0 0 0 0 0 0 0 0 0 0 0 0 0 0 0
0 0 0 0 0 0 0 0 0 0 0 0 0 0 0 0 0 0 0 0 0 -1.47974988589738 0 0 0 0 0 0 -1.92866776401656 0 0 0 0 0 0 -2.29060877756346 0 0 0 0 0 0 0 0 0 0 0 0 0 0
0 0 0 0 0 0 0 0 0 0 0 0 0 0 0 0 0 0 0 0 0 -0.852828264282227 0 0 0 0 0 0 -0.718129808241452 0 -3.77648231548577 0 0 0 -0.806992383817099 0 -1.44007716140853 0 0 0 0 0 0 0 -0.877330825612267 0 0 0 0 0
0 0 0 0 0 0 0 0 0 0 0 0 0 0.12005811332349 0 0 0 0 0 0 0 -0.231136792052467 0 0 0 0 0 0 0 0 0 0 0 0 -1.00665961800948 0 -1.60087729258899 0 0 0 0 0 0 0 0 0 0 0 0 -0.690850720557296
0 0 0 0.193596446716469 0.531186278697539 0 0 0 0 0 0 0 0 0 0 0 0 0 0 0 0 0 0 0 0 0 0 0 -0.79028740518972 0 -1.11046522739956 0 0 0 -0.61634235878307 0 0 0 0 0 0 0 0 0 -0.812366934920907 0 0 0 0 -0.137622876360224
0.225360940805667 0 0 0 0 0 0 0 0 0 0 0 0 0 0 0 0 0 0 0 0 0 0 0 0 0 0 0 -0.4518321859122 0 -1.74399993251105 0 0 0 0 0 -5.60508896737167 0 0 0 0 0 0 0 0 0 0 0 0 0
0 0 0 0 0 0 0 0 0 0 0 0 0 0 0 0.0935751698445686 0 0.440172448408153 0 0.107986590622846 0 0.0151205999054256 0.289345186970892 0.356405302526581 0.137985347561794 0 0.153714449311543 0.0900769630464685 0 0 -2.69702027754601 0.111327039322967 0.27228561965578 0 -0.849725385620529 0 -2.49879543369748 0 0 0 0 0 0 0 -0.472503156743525 0 0 0 0 -0.50390850133505
0 0 0 0 0 0 0 0 0 0 0 0 0.448866490652315 0.0933481509570441 0 0 0 0 0 0 0 0 0 0 0 0 0 0 0 0 0 0 0 0 -0.749286358470746 0 0 0 0 0 0 0 0 0 -1.17459749166283 0 0 0 0 -0.719241787389201
0 0 0 0 0 0 0 0 0 0 0 0 0 0 0 0 0 0 0 0 0 0 0.727375833705599 0 0.744138721497337 0 0.23481922133289 0.348377995785726 0.527425549553785 0 0 0 0 0 0 0 0 0 0 0 0 0 0 0 -0.201523106471916 0 0 0 0 0
0 0 0 0 0 0 0 0 0 0 0 0 0.626128151932814 0.203837688335949 0 0 0 0 0 0 0 0 0 0 0 0 0 0 -0.569239917367143 0 0 0 0 0 0 0 0 0 0 0 0 0 0 0 -2.27203563989769 0 0 0 0 0
0 0 0 0 0 0 0 0 0 0 0 0 0 0 0 0 0 0 0 0 0 0 0 0 0 0 0 0 -1.35969150865726 0 0 0 0 0 0 0 0 0 0 0 0 0 0 0 -0.848362367897451 0 0 0 0 0
0 0 0 0 0 0 0 0 0 0 0 0 0 0 1.13053316934484 0.188782978324104 0.785017763951779 0.338619913593082 0.163011058406525 0 0 0 0 0 0 0 0 0 0 0 0 0 0 0 0 0 0 0 0 0 0 0 0 0 0 0 -0.495419240000943 0 0 0
0 0 0 0 0 0 0 0 0 0 0 0 0 0 0.647020751505382 0.240433386767557 0 0 0 0.748957790335989 0.246822168559171 0.140217393097638 0.113036723487148 0 0.164864490413743 0.202611249246266 0.120302078599154 0 0.155164543673019 0.140729089786448 0 0 0 0 0 0 0 0 0 0 0 0 0 0 0 0 -1.53098606894902 0 0 0
0 0 0 0 0 0 0 0 0 0 0 0 0 0 0 0 0 0 0 0 0.0344462839649767 0.0913715411409746 0 0.453176156965213 0 0 0 0 0 0 0 0 0 0 0 0 0 0 0 0 0 0 0 0 0 0 0 0 0 0
0 0 0 0 0 0 0 0 0 0 0 0 0 0 1.43314302533518 0.763916133851112 0.216563433983439 0.0696265081053079 0.439177427303306 0.650625708260561 0.118653288219541 0.045522208214207 0 0 0.307012645894387 0.30444383080411 0 1.12036082511094 0.493692160919199 0 0 0 0 0 0 0 0 0 0 0 0 0 0 0 -0.239477164387573 0 0 0 0 0
0 0 0 0 0 0 0 0.0747992697813234 0 0 0 0 0 0 0 0 0 0 0 0 0 0 0 0 0 0 0 0 0 0 0 0 0 0 0 0 0 0 0 0 0 0 0 0 0 0 -0.7192526579525 0 0 0
0 0 0 0 0 0 0 0 0.196306431701111 0 0 0.114859027658737 0.0500126610498769 0.0349396027785575 0 0 0 0 0 0 0 0 0 0 0 0 0 0 0 0 0 0 0 0 0 0 0 0 0 0 0 0 0 0 0 0 0 0 0 0
0 0 0 0 0 0.577749710201221 0.153705645518751 0 0.139511118957362 0.474286927219786 0.131493567794876 0.121064608828598 0 0 0 0 0 0 0 0 0 0 0 0 0 0 0 0 0 0 0 0 0 0 0 0 0 0 0 0 0 0 0 0 0 0 -2.08749554401599 0 0 0
0 0.619921336211158 0 0.237674082128318 0.126603663175732 0 0 0 0 0 0 0 0 0 0 0 0 0 0 0 0 0 0 0 0 0 0 0 0 0 0 0 0 0 0 0 0 0 0 0 0 0 0 0 0 0 -2.89193091418468 0 -0.900853615050625 0
0 0.381398060565237 0.0468236401171745 0.880774450656164 0 0 0 0 0 0 0 0 0 0 0 0 0 0 0 0 0 0 0 0 0 0 0 0 0 0 0 0 0 0 0 0 0 0 0 0 0 0 0 0 0 0 0 0 0 0
0 0 0 0 0 0 0 0 0 0 0 0 0 0 0 0 0 0 0.191279299437403 1.22392706632475 0 0 0 0 0 0 0 0 0 0 0 0 0 0 0 0 0 0 0 0 0 0 0 0 0 0 0 0 0 0
0 0 0 0 0 0 0 0 0 0 0 0 0 0 0 0 0 0 0 0 0 0 0 0 0 0 0 0 0 0 0 0 0 0 0 0 0 0 0 0 0 0 0 0 0 0 -0.670015664034026 0 0 0
0 0 0 0 0 0 0 0 0 0 0 0 0 0 0 0 0 0 0 0 0 0 0 0 0.18182321982837 0 0.14723500620704 0 0.0874327222153286 0.255601852006157 0.0417142774130963 0.440081229149877 0.151489530047381 0 0 0 0.0467290326787692 0 0 0 0 0 0 0 0 0 -0.427723196467174 0 0 0
0 0 0 0 0 0 0 0 0 0 0.894913977674155 0.880867465084633 0 0 0 0 0 0 0 0 0 0 0 0 0 0 0 0 0 0 0 0 0 0 0 0 0 0 0 0 0 0 0 0 0 0 0 0 0 0
0 0 0 0 0 0 0 0 0 0 0 0 0 0 0 0 0 0 0 0 0 0 0 0 0 0 0 0 0 0 0 0 0 0.0932873841550021 0.289884171673 0 0 0.14212983657782 0 0.414796365623307 0.568150762026423 0 0 0.129007031641939 0.0757011770598116 0 0 0.102732028081753 0.0509260068534959 0
0 0.412291849195185 0.211515574272272 0.0568064478500875 0 0 0 0 0 0 0 0 0 0 0 0 0 0 0 0 0 0 0 0 0 0 0 0 0 0 0 0 0 0 0 0 0 0 0 0 0 0 0 0 0 0 -0.534922583006791 0 0 0
0 0 0 0 0 0 0 0 0 0 0 0 0 0 0 0 0 0 0 0 0 0 0 0 0 0 0 0 0 0 0 0 0 0 0 0 0 0 0 0 0.169289275484087 0 0 0 0 0 -0.268074322288229 0 0 0
0 0 0 0 0 0 0 0 0 0 0 0.303201742889421 0 0.221166279477781 0 0.140406265601271 0 0 0.719872243546431 0.301557791981886 0 0.223556635781926 0 0 0 0.141375815517651 0.0270763093983395 0 0.100055435525345 0.156107272674583 0 0 0 0 0 0 0 0 0 0 0 0 0 0 0 0 0 0 0 0
