1.68707415499018
0.214064196144707
0.285998478537781
0.516127675616111
0.45014985735898
0.241503532360947
0.392210313081309
0.504410945286071
0.230774321483787
1.2438780992863
0.819740190082903
0.78218487906834
0.283743007618383
0.0590417730317331
0.566884556235597
0.116757891008728
0.652810791047363
5.0039305452108
0.0704199228158549
0.740892499419632
0.0286457844075688
0.570176307873082
0.493090061526772
0.0797670963706984
1.39614984033381
0.267199246411116
0.205696497252817
0.367999659295735
0.471977440291049
0.0599510363454183
0.322394084412952
0.0145219505086167
0.354036404475715
0.720060606009413
0.754084901414218
1.00801256249462
1.26508015870483
0.301720910573286
0.294950118483214
0.329451671708393
1.50365372612512
0.761478659424924
0.560390272884123
0.0607376353766871
0.28680464043625
0.359627595637253
0.93866740098779
2.95385951343433
0.339211260584888
0.708368015385809
