0.688857046937974
0.091943426725393
0.24721057519337
0.204759231800171
0.831907215892548
1.86931164398607
0.287435372735388
3.61595825316056
0.0302487173133441
0.353439426979038
3.12081467620946
0.608190442600909
0.120620529337772
1.4030465689276
0.288269956689549
0.0115683319825268
1.63633260425247
0.0285939437348056
1.41031254814207
0.0444589947054277
0.43492501137926
1.5679886032476
0.127504148093964
0.325529891819344
1.6577437673759
0.433141466238701
0.854340260086611
0.346362255604348
0.329943943730346
1.62151804979743
3.89698510681287
0.0603591988390699
0.213430685010609
0.424547899635548
0.515419941425725
0.164333676428927
0.301385211440266
0.427692908312327
2.47699555875042
0.561550146231247
0.794703419228174
0.693622353830409
0.987684063395231
0.233997969284328
1.64453032172948
0.55232681646467
0.955321616164383
0.0446259501350161
0.853646231537201
0.735181356521184
