0.609249949025308
0.265911458644865
0.507173183205277
0.430027839504396
0.0114810231161148
0.208976451861294
0.467389696301647
0.173940362549705
0.45623564683734
0.349545665881649
0.34676316968974
1.10898750295424
2.19863460310121
0.162189826316041
0.24731367588903
1.73914321299361
0.82525576632092
0.132842993506933
1.64035439437206
0.0922802510008228
0.443468618760891
4.15167502346427
0.791477978343211
0.382162744105118
0.659206653127803
1.98901687780006
0.432831035208939
0.888567467528
0.658432978411222
1.03769020196638
0.505717129821245
0.405708031837661
2.27440496464288
0.871930693120953
1.21115048562232
0.106769830723626
0.796844727429115
0.331770127585199
2.25096055468145
0.363696462798374
0.0593051398349255
0.362572878712046
0.191602345023816
0.310834966710849
0.95006921571877
2.35139940250689
0.478995514010048
0.0272064737697651
0.880479364746712
0.129366541673953
