3.12584149559839
0.543209393654751
2.58526467123525
0.346221378264633
0.772749971336613
0.846235435668516
2.08467620897535
2.85635970979051
0.897744193466035
2.15317136022217
0.649784157035625
0.429914745167432
0.653920719970023
0.506317698596644
0.485544996492881
1.12318027012632
0.0738226078117188
0.852386870673132
0.978715858979813
0.558152323580156
0.676230122468505
1.2450844548623
1.32377806847835
0.604931573998965
0.303742684922663
2.92301400668263
2.64903127088071
0.763663439751681
1.50515086553342
1.06530268588711
1.01643450120166
0.522619678388902
0.16238437725071
0.29867432561819
1.59700912454435
0.142295153631793
0.230149030548433
0.24657897942605
0.211728322929737
0.194429885873681
2.27087648712316
0.748604128910775
0.944675337892259
0.780277174329794
0.258324923225305
1.02808451845481
2.68116448149261
2.01259954928429
2.91192773027557
0.257431670113453
