0.407060126368284
0.315981007060511
0.118120263708115
0.430120822161056
0.194479339979171
5.16982602004879
1.01540992918501
2.46374253670872
0.204286434421101
0.273811971880238
0.258049545933762
0.446104605199826
1.01489941757746
0.016669866469855
0.391936646677316
0.890488846377344
0.624821300791265
3.35392855891716
1.80347241143141
0.108971444251277
1.03018321599573
0.506773285953576
2.0759434812944
0.488254549635962
2.19516064191361
3.28529782323923
0.796611595913788
2.24474738808514
0.155992851892958
0.0332730352844983
1.33579884710306
1.38949065690619
0.206466212722347
0.54982437399674
3.23750445036798
0.592152087379106
0.350024180216542
1.1272192370327
0.616504300016214
0.0199206527692196
0.148003154200476
0.546405852804085
0.419729959458867
0.495870456901159
0.398838817236531
1.17206950759934
0.0307282106038263
0.0934884405561373
2.47949263930624
0.0765272777394257
