2.56615993819272
0.0632636652148389
1.22939283181532
1.61565547543077
0.800418797265689
2.55841687741794
0.46327002664335
1.34065371064385
0.797416801459609
0.0484334480305504
0.0280605827551895
1.36798323818233
0.958108356365596
1.21956393813997
0.761524966101158
0.067241847230521
0.687742314318508
1.79427980767563
0.340563288621314
2.99800629058575
0.245423928134162
0.385787619960052
1.22753668868059
0.208336734079206
1.25789782715841
0.0641866522296017
0.618944444900006
0.0105164196301685
0.0507624466404365
1.76885002973203
0.0705527419372043
0.286458983701093
0.625951986412183
3.13740147878312
0.14259689406871
0.540102558033155
0.567920378479077
1.46897293488182
0.042060748354893
3.0812876338982
1.04601162695882
0.562671760382029
0.460082641889334
0.215614881689267
1.39467767988231
2.49216510712175
0.159297188368628
0.346448932735248
1.96485174684371
0.240306336663744
