0 0 0 0 0 0 0 -3.50078802239834 0 0 0 0 0 -5.742160083328 0 0 0 0 0 0 0 0 0 0 0 0 0 0 0 0 0 0 0 0 0 0 0 0 0 -0.259940517665534 0 0 0 0 0 0 0 0 0 0
0 0 0 0 0 0 0 0 0 0 0 0 0 0 0 0 0 0 0 0 0 0 0 0 -0.22428574644124 0 0 0 0 -0.27470262284808 0 0 0 0 0 0 0 0 0 -1.97178398067846 0 -0.719488952573395 0 0 0 0 0 0 0 0
0 0 0 0 0 0 0 0 0 0 0 0 0 0 0 0 0 -2.8709656823279 0 0 0 0 0 0 -0.692610712612786 0 0 0 0 0 0 0 0 0 0 0 0 0 0 0 -0.520654231183214 -0.580377010984592 0 0 0 0 0 0 -0.982902845319311 0
0 0 0 0 0 0 -1.31683599926963 0 0 0 0 0 0 0 0 0 0 0 0 0 0 0 0 0 0 0 0 0 0 -0.175018154649605 0 0 0 0 0 0 0 0 0 -1.02863432478641 0 0 0 0 0 0 0 0 0 0
0 0 0 0 0 0 0 0 0 0 0 0 0 0 0 0 0 0 0 0 0 0 0 0 -0.65967448568666 0 0 0 0 -6.2603673225887 0 0 0 0 0 0 0 0 0 -0.909695187349528 0 0 0 0 0 0 0 0 -0.192289939861653 0
0 0 0 0 0 0 0 0 0 0 0 0 0 0 0 0 0 0 0 0 0 0 0 0 0 0 0 0 0 0 0 0 0 0 0 0 0 0 0 0 -1.57162817801417 0 0 0 0 0 0 0 -0.341248118639191 0
0 0 0 0.247349525263714 0 0 0 0 0 0 0 0 0 0 0 0 0 -0.375888215834172 0 0 0 0 0 -0.322562929426242 0 0 0 0 0 -1.69452296196996 0 0 0 0 0 0 0 0 0 -1.29385832660367 -0.677904882323313 -4.67897509660572 0 0 0 0 0 0 -0.269772959016759 0
0.715080761499398 0 0 0 0 0 0 0 0 0 0 0 0 0 0 -3.43156864267213 0 0 0 0 0 0 0 0 0 0 0 0 0 0 0 0 0 0 0 0 0 0 0 -0.701820834587968 -0.458305331950135 0 0 0 0 0 0 0 -0.743070917622005 0
0 0 0 0 0 0 0 0 0 0 -0.698946565164956 0 0 0 0 0 0 -0.527297615783971 0 0 -0.790072149681883 0 0 0 0 0 0 0 0 0 0 0 0 0 0 0 0 0 0 0 -0.70024094352383 0 0 0 0 0 0 0 0 0
0 0 0 0 0 0 0 0 0 0 -1.33222371645177 0 0 0 0 -1.30856447769862 0 -1.39062935548501 0 0 0 0 0 0 0 0 0 0 0 0 0 0 0 -3.02329628323177 0 0 0 0 0 0 -0.573232357872723 0 0 0 0 0 0 0 -0.344785861907673 0
0 0 0 0 0 0 0 0 0.140113966429467 0.271282679269417 0 0 0 0 0 -0.524429361854591 0 -0.471450077237745 0 0 0 0 0 0 0 0 0 0 0 0 0 0 0 0 0 0 0 0 0 -0.200954237138555 0 0 0 0 0 0 0 0 0 0
0 0 0 0 0 0 0 0 0 0 0 0 0 0 0 -1.53289366093601 0 0 0 0 0 0 0 0 0 0 0 0 0 0 0 0 0 -0.490295371641127 0 0 0 0 0 0 0 0 0 0 0 0 0 0 0 0
0 0 0 0 0 0 0 0 0 0 0 0 0 0 0 -2.24331773944196 0 0 0 0 0 0 0 0 0 -1.90765197579287 0 0 0 0 0 0 0 -7.96822361541074 0 0 0 0 0 -4.14337746631434 0 0 0 0 0 0 0 0 -1.28697234998105 0
1.10787138950223 0 0 0 0 0 0 0 0 0 0 0 0 0 0 -0.326204391693377 0 0 0 0 0 0 -1.04383495527873 0 0 -0.269062533038696 -0.258630370132445 0 0 0 0 0 0 0 0 0 0 0 0 -1.06518670027802 0 0 0 0 0 0 0 0 0 0
0 0 0 0 0 0 0 0 0 0 0 0 0 0 0 0 0 0 0 0 0 0 -2.16420272711091 0 0 -0.361716769845599 0 0 0 0 0 0 0 0 0 0 0 0 -1.18011637407668 -0.776603206405518 0 0 0 0 0 0 0 0 -0.40151529697873 0
0 0 0 0 0 0 0 0.611566614603789 0 0.258101286795648 0.102845335968109 0.288196632374937 0.473020026254397 0.0695467742657666 0 0 0 0 0 0 0 0 0 0 0 0 0 0 0 0 -1.35196655600311 0 0 0 0 0 0 0 0 -0.850871830669878 0 0 0 0 0 0 0 0 0 0
0 0 0 0 0 0 0 0 0 0 0 0 0 0 0 0 0 0 0 0 0 0 -1.41578361591546 0 0 -0.437047766550677 0 0 0 0 0 0 0 0 0 0 0 -0.220823985711405 0 0 0 0 0 0 0 0 0 0 0 0
0 0 0.588203198564863 0 0 0 0.0797907534124902 0 0.112923957783231 0.299995727827088 0.0882622628392229 0 0 0 0 0 0 0 0 0 0 -0.751157159791751 -1.10187053674405 0 0 -0.561944171271583 0 0 0 0 0 0 0 0 0 0 0 0 0 0 0 0 0 0 0 0 0 0 0 0
0 0 0 0 0 0 0 0 0 0 0 0 0 0 0 0 0 0 0 0 0 0 0 0 0 0 0 0 0 0 0 0 0 -0.684214426228844 0 0 0 -0.464513969971434 0 0 0 0 0 0 0 0 0 0 0 0
0 0 0 0 0 0 0 0 0 0 0 0 0 0 0 0 0 0 0 0 0 -0.669189865640131 -2.696721117787 0 0 -3.67636643700328 0 0 0 0 0 0 0 -0.694156083218249 0 0 0 -1.03028295288333 0 0 0 0 0 0 0 0 0 0 0 0
0 0 0 0 0 0 0 0 0.152515195714213 0 0 0 0 0 0 0 0 0 0 0 0 -1.86990737818061 0 0 0 -0.403254313723968 0 0 0 0 0 0 0 0 0 0 0 0 0 0 0 0 0 0 0 -0.159923194684858 0 0 0 0
0 0 0 0 0 0 0 0 0 0 0 0 0 0 0 0 0 0.156673906099791 0 0.14642413141949 0.37324948590098 0 0 0 0 0 0 0 0 0 0 0 0 -0.57160451606872 0 0 0 -0.883187323254837 0 0 0 0 0 0 0 0 0 0 0 0
0 0 0 0 0 0 0 0 0 0 0 0 0 0.213220636900453 0.44788175126868 0 0.301778815984464 0.220673328018902 0 0.570434986819558 0 0 0 0 0 0 0 0 0 0 0 -1.03411081986554 0 -6.86073180282702 0 0 0 0 0 0 0 0 0 0 -2.82233782408425 0 0 0 0 0
0 0 0 0 0 0 0.0673114043704666 0 0 0 0 0 0 0 0 0 0 0 0 0 0 0 0 0 0 0 0 0 0 0 0 -0.940203564591619 0 0 0 0 0 -5.57601776908533 0 0 0 0 0 0 -1.40284370690293 -3.97657857777469 0 0 0 0
0 0.0453416033581783 0.127553501144424 0 0.134271542303196 0 0 0 0 0 0 0 0 0 0 0 0 0 0 0 0 0 0 0 0 0 0 0 0 0 0 0 0 -0.808890955326232 0 0 0 -1.70750292491217 0 0 0 0 0 0 -0.990849036644292 0 0 0 0 0
0 0 0 0 0 0 0 0 0 0 0 0 0.366970460743999 0.0518542609608973 0.0739435272910651 0 0.0881586990299281 0.118628284592153 0 0.687004111474739 0.0791240523198552 0 0 0 0 0 0 0 0 0 0 0 0 -0.453315114549212 0 0 0 -0.577561530829462 0 0 0 0 0 0 -6.4605466129468 0 0 0 0 0
0 0 0 0 0 0 0 0 0 0 0 0 0 0.0543850133475783 0 0 0 0 0 0 0 0 0 0 0 0 0 0 0 0 0 -0.729190482673995 0 0 0 0 0 0 0 0 0 0 0 0 -1.79566322524215 0 0 0 0 0
0 0 0 0 0 0 0 0 0 0 0 0 0 0 0 0 0 0 0 0 0 0 0 0 0 0 0 0 0 0 0 -2.84366134404798 0 -3.69001413795923 -0.39975580605982 0 0 0 0 0 0 0 0 0 0 0 0 0 0 0
0 0 0 0 0 0 0 0 0 0 0 0 0 0 0 0 0 0 0 0 0 0 0 0 0 0 0 0 0 0 0 0 0 0 0 0 -0.668372501265389 0 0 0 0 0 0 0 -0.306469147460414 0 0 0 0 -0.861105078289285
0 0.0557759665372657 0 0.0340328042748084 1.27537651988421 0 0.338046588054424 0 0 0 0 0 0 0 0 0 0 0 0 0 0 0 0 0 0 0 0 0 0 0 0 -1.29436305739027 0 -3.89287128779304 0 0 0 0 0 0 0 0 0 0 0 0 0 0 0 -4.19567859938363
0 0 0 0 0 0 0 0 0 0 0 0 0 0 0 0.281087734142589 0 0 0 0 0 0 0 0 0 0 0 0 0 0 0 0 0 0 0 0 0 0 0 0 0 0 0 -1.60863248925144 0 0 0 0 0 0
0 0 0 0 0 0 0 0 0 0 0 0 0 0 0 0 0 0 0 0 0 0 0.204142006336892 0.17209934537761 0 0 0.150689658605574 0.562265036135684 0 0.258861727451112 0 0 0.285803971412397 0 0 0 0 0 0 0 0 0 0 0 0 0 0 0 0 0
0 0 0 0 0 0 0 0 0 0 0 0 0 0 0 0 0 0 0 0 0 0 0 0 0 0 0 0 0 0 0 -1.33961155105652 0 0 0 0 0 0 0 0 0 0 0 0 0 0 -0.547357131996562 0 0 0
0 0 0 0 0 0 0 0 0 0.580695151941848 0 0.105486280606592 1.59878443510928 0 0 0 0 0 0.127987539824805 0.148871083470516 0 0.113520650443531 1.38478218908919 0 0.170886268175512 0.0955299507286658 0 0.77560258935331 0 0.761616307487478 0 0 0 0 0 0 0 0 0 0 0 0 0 -1.98600255485627 0 0 -1.84897427845459 0 0 0
0 0 0 0 0 0 0 0 0 0 0 0 0 0 0 0 0 0 0 0 0 0 0 0 0 0 0 0.0820718489055322 0 0 0 0 0 0 0 0 0 0 0 0 0 0 0 -0.170729305024803 0 0 -0.936200233611923 0 0 0
0 0 0 0 0 0 0 0 0 0 0 0 0 0 0 0 0 0 0 0 0 0 0 0 0 0 0 0 0 0 0 0 0 0 0 0 0 0 0 0 0 0 0 0 0 0 -0.647190651309027 -0.285497743241171 0 0
0 0 0 0 0 0 0 0 0 0 0 0 0 0 0 0 0 0 0 0 0 0 0 0 0 0 0 0 0.142219318818104 0 0 0 0 0 0 0 0 0 0 0 0 0 0 0 0 0 -3.92257075947376 -1.15631545791142 0 0
0 0 0 0 0 0 0 0 0 0 0 0 0 0 0 0 0.0426467794106214 0 0.0987002024427182 0.193515857717707 0 0.171792531099486 0 1.15924926130445 0.363551501198844 0.121116163165735 0 0 0 0 0 0 0 0 0 0 0 0 0 0 0 0 0 0 0 0 0 -0.983933481044867 0 0
0 0 0 0 0 0 0 0 0 0 0 0 0 0 0.246923068492261 0 0 0 0 0 0 0 0 0 0 0 0 0 0 0 0 0 0 0 0 0 0 0 0 0 0 0 0 0 0 0 -0.549886551530525 0 0 0
0.0547777959080842 0.370540034892898 0 0.208308719719052 0.181996532522698 0 0.261322057728385 0.132213428045342 0 0 0.0417697227713414 0 0.801460136243191 0.203609209189761 0.148631600131741 0.172831114631074 0 0 0 0 0 0 0 0 0 0 0 0 0 0 0 0 0 0 0 0 0 0 0 0 0 0 0 0 0 0 -0.745633621417377 0 0 0
0 0 0.109741852576967 0 0 0.293854700509656 0.12822426857073 0.0902427894989933 0.145948024102549 0.11922012755237 0 0 0 0 0 0 0 0 0 0 0 0 0 0 0 0 0 0 0 0 0 0 0 0 0 0 0 0 0 0 0 0 0 0 0 0 -1.62014693257717 0 0 0
0 0.140727709747791 0.118220901985469 0 0 0 0.973305149108206 0 0 0 0 0 0 0 0 0 0 0 0 0 0 0 0 0 0 0 0 0 0 0 0 0 0 0 0 0 0 0 0 0 0 0 0 0 0 0 0 0 0 0
0 0 0 0 0 0 0 0 0 0 0 0 0 0 0 0 0 0 0 0 0 0 0 0 0 0 0 0 0 0 0 0 0 0 0 0 0 0 0 0 0 0 0 0 0 0 -0.249945246164616 0 0 0
0 0 0 0 0 0 0 0 0 0 0 0 0 0 0 0 0 0 0 0 0 0 0 0 0 0 0 0 0 0 0.32418843712344 0 0 0.388505793759841 0.0338668139156119 0 0 0 0 0 0 0 0 0 0 0 0 0 0 0
0 0 0 0 0 0 0 0 0 0 0 0 0 0 0 0 0 0 0 0 0 0 0.572265095524645 0.26470702437302 0.205961364741355 1.24094877557669 0.337997678734953 0 0.0569800098169465 0 0 0 0 0 0 0 0 0 0 0 0 0 0 0 0 0 0 0 0 0
0 0 0 0 0 0 0 0 0 0 0 0 0 0 0 0 0 0 0 0 0.0324350874539938 0 0 0.757805005274206 0 0 0 0 0 0 0 0 0 0 0 0 0 0 0 0 0 0 0 0 0 0 0 0 0 0
0 0 0 0 0 0 0 0 0 0 0 0 0 0 0 0 0 0 0 0 0 0 0 0 0 0 0 0 0 0 0 0 0.105716370605144 0.363072217896254 0.200486736561787 0.123356969529736 0.892681122019001 0 0.109045109959396 0.151640905408421 0.319427614964626 0 0.0492471898545702 0 0 0 0 0 0 0
0 0 0 0 0 0 0 0 0 0 0 0 0 0 0 0 0 0 0 0 0 0 0 0 0 0 0 0 0 0 0 0 0 0 0 0.0578498227826943 0.256749430174516 0.200274662324341 0 0 0 0 0 0 0 0 0 0 0 0
0 0 0.221375490935526 0 0.03818940960491 0.0708087848317167 0.0523884720442162 0.153130989474319 0 0.0622212470029371 0 0 0.268918754421934 0 0.078930769621416 0 0 0 0 0 0 0 0 0 0 0 0 0 0 0 0 0 0 0 0 0 0 0 0 0 0 0 0 0 0 0 0 0 0 0
0 0 0 0 0 0 0 0 0 0 0 0 0 0 0 0 0 0 0 0 0 0 0 0 0 0 0 0 0.18407637488332 0.813129336428701 0 0 0 0 0 0 0 0 0 0 0 0 0 0 0 0 0 0 0 0
