0 0 0 0 0 0 0 0 0 0 0 0 0 0 0 0 0 0 0 0 0 0 0 0 0 0 0 0 0 0 0 0 0 0 0 0 0 0 0 0 0 0 0 0 -0.818819825256165 0 0 0 0 0
0 0 0 -0.479821465294094 0 0 0 0 0 -0.635135154411239 0 0 0 0 0 0 0 0 0 0 0 -0.71850132304178 0 -1.50442606626556 0 0 0 0 0 0 0 0 0 0 0 0 0 0 0 0 0 0 0 0 0 0 0 -0.364347993632001 0 0
0 0 0 0 0 -1.67166322740262 0 0 0 0 0 -2.21692598665571 0 0 0 0 0 0 0 0 0 0 0 0 0 0 0 0 0 0 0 0 0 -0.509505117689276 0 0 0 0 0 0 0 0 0 0 -1.74999139545355 0 0 0 0 0
0 0.102416950225033 0 0 -2.68709851806776 0 0 0 0 0 0 -0.688194684047786 0 0 0 0 0 0 0 0 0 -2.48309418214631 0 0 0 0 0 -1.16168342784341 0 0 0 0 0 -1.12125090708623 0 0 0 0 0 0 0 0 0 0 0 0 0 0 0 0
0 0 0 0.533971265958719 0 0 0 0 0 0 0 -1.48448014058167 0 0 0 0 0 0 0 0 0 0 0 0 0 0 0 0 0 0 0 0 0 -0.39059554915002 0 0 0 0 0 0 0 0 0 -1.92387396880363 -0.993105892976823 0 0 0 0 0
0 0 0.364070056404631 0 0 0 0 0 -2.41987798932065 0 -0.402408770770886 0 -1.03397503184126 0 0 0 0 0 0 0 0 0 0 0 0 0 -1.45675490295762 0 0 -0.828727706342555 0 0 0 0 0 0 0 0 0 0 0 0 0 -0.721058067433016 -7.52402954043635 0 0 0 0 0
0 0 0 0 0 0 0 0 0 0 0 0 0 0 0 0 0 0 0 0 0 0 0 0 0 0 -0.316239404227648 0 0 0 0 0 0 0 0 0 0 0 0 0 0 0 0 0 0 0 0 0 0 0
0 0 0 0 0 0 0 0 0 0 0 0 0 0 0 0 0 0 -0.668411153952913 0 0 0 0 0 0 0 -0.723209007453662 0 0 -0.782538320772386 0 0 0 0 0 0 0 0 0 0 0 0 0 0 -0.292939084054976 0 0 0 0 0
0 0 0 0 0 0.463895099868821 0 0 0 0.0622666282579973 0.0734148437254718 0 0 0 0 0 0 0 0 -3.08978629482287 0 -2.12736692327278 0 0 0 0 -1.54778750088508 0 0 -0.295221311840372 0 0 0 -3.81041323586881 0 0 0 0 0 0 0 0 0 0 -0.317423156324694 0 0 0 0 0
0 0.133473335514579 0 0 0 0 0 0 -0.305705972745099 0 0 0 0 0 0 0 0 0 0 -1.02238999649368 0 0 0 0 0 0 -0.328172588573642 0 0 -1.302536953663 0 0 0 -0.331571889444728 0 0 0 -1.67993747157394 0 0 0 0 0 0 0 0 0 0 0 0
0 0 0 0 0 0.0789212954776428 0 0 -0.403376415113269 0 0 0 0 0 0 0 0 0 0 -0.366468593925238 -0.776766271003713 0 0 0 0 0 0 0 0 -1.20209956245588 0 0 0 0 0 0 0 0 0 0 0 0 0 0 -7.69534832330963 0 0 0 0 0
0 0 0.450752219100308 0.134814284981901 0.315271828718158 0 0 0 0 0 0 0 0 0 0 0 -0.0814299955200086 -0.696076714172575 0 0 0 0 0 0 -0.216568433868967 0 0 0 0 0 0 0 0 0 0 0 0 0 0 0 0 0 0 0 0 0 0 0 0 0
0 0 0 0 0 0.212989434080759 0 0 0 0 0 0 0 0 0 0 -0.910036288596059 -1.71225711953478 0 0 0 0 0 0 0 0 0 0 0 0 0 0 0 0 0 0 0 -1.36231123235683 0 0 0 0 0 0 0 0 0 0 0 0
0 0 0 0 0 0 0 0 0 0 0 0 0 0 0 0 -1.43743644936257 0 0 0 0 0 0 0 0 0 0 0 0 0 0 0 0 0 0 0 0 -0.10383943951064 0 0 0 0 0 0 0 0 0 0 0 0
0 0 0 0 0 0 0 0 0 0 0 0 0 0 0 0 0 0 0 0 0 0 0 0 0 0 0 0 0 0 0 0 0 0 0 0 0 -0.665200948133408 0 0 -1.40136133403144 0 0 0 0 0 0 0 0 0
0 0 0 0 0 0 0 0 0 0 0 0 0 0 0 0 -0.121207138915979 -0.171191303201629 0 0 0 0 0 0 0 0 0 0 0 0 0 0 0 0 0 0 0 -1.25198838289881 0 0 0 0 0 0 0 0 0 0 0 0
0 0 0 0 0 0 0 0 0 0 0 0.0168880256960079 0.185791717711765 0.285052376970024 0 0.0251939826590936 0 -1.83097443317771 0 0 0 0 0 0 0 0 0 0 -4.62061483109674 0 0 -0.988189202113362 0 0 0 0 0 0 0 0 0 0 0 0 0 0 0 0 0 0
0 0 0 0 0 0 0 0 0 0 0 0.138308332288412 0.356176433085018 0 0 0.0356296407723827 0.386805596364162 0 0 0 0 0 0 0 0 -0.437523621707873 0 0 0 0 0 0 0 0 0 0 0 0 0 0 0 0 0 0 0 0 0 0 0 0
0 0 0 0 0 0 0 0.132102549491508 0 0 0 0 0 0 0 0 0 0 0 0 0 0 0 0 0 0 0 0 0 0 0 -0.269258903091557 0 0 0 0 0 0 0 0 -7.38068907610255 0 -1.00301225143438 0 0 0 0 0 0 0
0 0 0 0 0 0 0 0 0.586852808909227 0.201086588173019 0.0668044293830534 0 0 0 0 0 0 0 0 0 0 0 0 0 0 0 0 0 0 0 0 0 0 0 0 0 0 0 0 0 -2.17057853138519 0 -2.07531132292041 0 0 0 0 0 0 0
0 0 0 0 0 0 0 0 0 0 0.166762559279346 0 0 0 0 0 0 0 0 0 0 0 0 0 0 -1.4014906516432 0 0 0 0 0 0 0 0 0 0 0 0 0 0 0 0 -3.3210685314482 0 0 0 0 0 0 0
0 0.148109806014092 0 0.461239357083255 0 0 0 0 0.421144139108838 0 0 0 0 0 0 0 0 0 0 0 0 0 0 0 0 0 0 0 0 0 0 -5.47109440308294 0 0 0 0 0 0 0 0 -0.351576981011679 0 0 0 0 0 -0.896928878329497 0 0 0
0 0 0 0 0 0 0 0 0 0 0 0 0 0 0 0 0 0 0 0 0 0 0 0 0 0 0 0 0 0 0 -0.244644228510049 0 0 0 0 0 0 0 0 -3.42465587731638 0 0 0 0 0 0 0 0 0
0 0.311998157024905 0 0 0 0 0 0 0 0 0 0 0 0 0 0 0 0 0 0 0 0 0 0 0 -8.04872737200013 0 0 0 0 0 0 0 0 0 0 0 0 0 0 0 0 -0.839757772796679 0 0 0 0 0 0 0
0 0 0 0 0 0 0 0 0 0 0 0.0433115524157437 0 0 0 0 0 0 0 0 0 0 0 0 0 0 0 0 0 0 0 0 0 0 0 0 0 0 0 0 0 0 -1.29831093663221 0 0 0 -0.981470035780317 0 0 0
0 0 0 0 0 0 0 0 0 0 0 0 0 0 0 0 0 0.0829497233896128 0 0 0.289433947107995 0 0 1.64365316981521 0 0 0 0 0.0285087632368617 0 0 0 0 0 0 0 0 0 0 0 0 0 0 0 0 0 0 0 0 0
0 0 0 0 0 0.299508009122515 0.0691216706230501 0.129086677460174 0.283594462632123 0.0656572139289221 0 0 0 0 0 0 0 0 0 0 0 0 0 0 0 0 0 0 0 0 0 0 0 0 0 0 0 0 0 0 -0.658618237317816 0 -0.218374304582012 0 0 0 0 0 0 0
0 0 0 0.21241057612268 0 0 0 0 0 0 0 0 0 0 0 0 0 0 0 0 0 0 0 0 0 0 0 0 0 0 0 0 0 0 0 0 0 0 0 0 -0.848535820221131 0 -1.98849852665547 0 0 0 0 0 0 0
0 0 0 0 0 0 0 0 0 0 0 0 0 0 0 0 0.893603304165478 0 0 0 0 0 0 0 0 -0.141253930798152 0 0 0 0 0 0 0 0 0 0 0 0 0 0 -0.435931650048746 0 -0.665422035679777 0 0 0 0 0 0 0
0 0 0 0 0 0.165898757272529 0 0.152923211177065 0.0622378246741332 0.251469080823695 0.2527699417568 0 0 0 0 0 0 0 0 0 0 0 0 0 0 0 0 0 0 0 0 0 0 0 0 0 0 0 0 0 -0.492000897729572 0 -0.926590291623556 0 0 0 0 0 0 0
0 0 0 0 0 0 0 0 0 0 0 0 0 0 0 0 0 0 0 0 0 0 0 0 0 0 0 0 0 0 0 0 0 0 0 0 0 0 0 -5.30913983992816 0 0 -0.271313933796764 0 0 0 0 0 0 -0.616288565552689
0 0 0 0 0 0 0 0 0 0 0 0 0 0 0 0 0.196832583290629 0 0.0555705258503348 0 0 0.974370754798285 0.05162705088113 0 0 0 0 0 0 0 0 0 0 0 0 0 0 0 0 -0.333987530399353 -1.85169362703897 0 0 0 0 0 0 0 0 -0.850291660392842
0 0 0 0 0 0 0 0 0 0 0 0 0 0 0 0 0 0 0 0 0 0 0 0 0 0 0 0 0 0 0 0 0 0 0 0 0 0 0 -2.0808408768127 0 0 0 0 0 0 0 0 0 0
0 0 0.102411882160329 0.226157327155071 0.0798004546312655 0 0 0 0.704384526905392 0.0701562845852854 0 0 0 0 0 0 0 0 0 0 0 0 0 0 0 0 0 0 0 0 0 0 0 0 0 0 0 0 0 -2.34123003080484 -0.25945490617465 0 0 0 0 0 0 0 -2.88033586871861 0
0 0 0 0 0 0 0 0 0 0 0 0 0 0 0 0 0 0 0 0 0 0 0 0 0 0 0 0 0 0 0 0 0 0 0 0 0 0 0 -0.711663536048713 -0.42392880594515 0 0 0 0 0 0 0 0 0
0 0 0 0 0 0 0 0 0 0 0 0 0 0 0 0 0 0 0 0 0 0 0 0 0 0 0 0 0 0 0 0 0 0 0 0 0 0 0 -1.03910498725892 -0.679452246583165 0 0 0 0 0 0 0 0 0
0 0 0 0 0 0 0 0 0 0 0 0 0 0 0 0 0 0 0 0 0 0 0 0 0 0 0 0 0 0 0 0 0 0 0 0 0 0 0 -0.709619186964186 0 -0.138990221526044 0 0 0 0 0 0 -0.901309414581584 0
0 0 0 0 0 0 0 0 0 0.31458834386909 0 0 0.267614337172446 0.0198863380950425 0.134981330641191 0.248776732408661 0 0 0 0 0 0 0 0 0 0 0 0 0 0 0 0 0 0 0 0 0 0 0 0 -3.2421109116672 0 0 0 0 0 0 0 0 0
0 0 0 0 0 0 0 0 0 0 0 0 0 0 0 0 0 0 0 0 0 0 0 0 0 0 0 0 0 0 0 0 0 0 0 0 0 0 0 0 0 0 0 0 0 0 0 0 -0.388431675338625 0
0 0 0 0 0 0 0 0 0 0 0 0 0 0 0 0 0 0 0 0 0 0 0 0 0 0 0 0 0 0 1.13835262884005 0.0630661634778737 0.41066543591038 0.468952103769772 0.139764639677062 0.209006243761173 0.13544424124244 0 0 0 1.00525607954349 0 0 0 0 0 0 0 -0.118149530517324 0
0 0 0 0 0 0 0 0 0 0 0 0 0 0 0.257625952336504 0 0 0 1.40988729164695 0.430356497509904 0 0.0687296673396738 0.647611028290884 0 0 0 0.133725947023308 0.162759568222115 0.0916947730662063 0.100895566021206 0 0.370733253717221 0 0.0513352215245151 0.0824783345140087 0.129108846852963 0 0.643569276550263 0 -5.05774322805227 0 0 0 0 0 0 0 0 0 0
0 0 0 0 0 0 0 0 0 0 0 0 0 0 0 0 0 0 0 0 0 0 0 0 0 0 0 0 0 0 0 0 0 0 0 0 0.0266581737782179 0 0 0 0 0 0 0 0 0 0 0 -1.80484949348201 0
0 0 0 0 0 0 0 0 0 0 0 0 0 0 0 0 0 0 0.220273815121302 0.418227766243564 0.703800063218524 0 0 0.157847916337598 0.264385531060165 0 0.0408463997124535 0.423840209655984 0.122693676588653 0.18124688483525 0.0542325008678655 0 0 0 0 0 0 0 0 0 0 0 0 0 0 0 0 0 0 0
0 0 0 0 0.392776930383845 0.139611159481274 0 0 0 0 0 0 0 0 0 0 0 0 0 0 0 0 0 0 0 0 0 0 0 0 0 0 0 0 0 0 0 0 0 0 0 0 0 0 0 0 0 0 0 0
0.168310809507872 0 0.372328957408 0 0.194764081371713 1.43106581119326 0 0.0600067774758385 0.0665249533346044 0 1.6620595648067 0 0 0 0 0 0 0 0 0 0 0 0 0 0 0 0 0 0 0 0 0 0 0 0 0 0 0 0 0 0 0 0 0 0 0 0 0 0 0
0 0 0 0 0 0 0 0 0 0 0 0 0 0 0 0 0 0 0 0 0 0 0 0 0 0 0 0 0 0 0 0 0 0 0 0 0 0 0 0 0 0 0 0 0 0 0 0 -1.51438952878172 0
0 0 0 0 0 0 0 0 0 0 0 0 0 0 0 0 0 0 0 0 0 0.177685694794606 0 0 0.185205038327005 0 0 0 0 0 0 0 0 0 0 0 0 0 0 0 0 0 0 0 0 0 0 0 -0.353844877274936 0
0 0.0704804728140717 0 0 0 0 0 0 0 0 0 0 0 0 0 0 0 0 0 0 0 0 0 0 0 0 0 0 0 0 0 0 0 0 0 0 0 0 0 0 0 0 0 0 0 0 0 0 0 0
0 0 0 0 0 0 0 0 0 0 0 0 0 0 0 0 0 0 0 0 0 0 0 0 0 0 0 0 0 0 0 0 0 0.555648384402793 0 0 0.174523251967473 0 0.074979851765864 0.0231031639921862 0 0.327093255742933 0 0 0 0.30224615192941 0.0709754912949195 0 0 0
0 0 0 0 0 0 0 0 0 0 0 0 0 0 0 0 0 0 0 0 0 0 0 0 0 0 0 0 0 0 0.12728405165789 0.174197598301465 0 0 0 0 0 0 0 0 0 0 0 0 0 0 0 0 0 0
