3.70861470432383
1.46926472021162
0.199825352151014
1.00336182003831
1.03390345994704
1.88898804890477
0.147749143933448
0.29862193492963
0.123676566453316
0.749121783245989
1.21443154816383
0.472149890366468
0.137801649470894
0.238191695716696
2.76740353571724
0.202006049188361
1.22050917698192
2.04649953035714
0.243628775182273
4.26084784534159
4.25927315673081
0.527396585085041
0.0173995456228654
0.656739508858928
1.71482561413921
0.150133067071488
0.272980655828556
0.259294383270546
1.22469746206362
1.4409417739
0.888060216027256
1.62337094428573
0.390819501080066
3.67458802877585
0.528221671197499
1.42373588196834
2.60482206218402
1.14853885677888
0.772497677058024
0.592956698593988
0.109466685286592
0.781740802527334
2.18297216628188
0.187408429948431
0.404102923852833
0.169136299621413
1.16243092059709
0.024718845860186
0.203584484967022
0.698635455977259
