0 -0.711154231193554 0 0 0 0 0 0 0 0 0 0 0 0 0 0 0 -0.53456934984637 0 0 0 0 0 0 0 0 0 0 0 0 0 0 0 0 0 0 0 0 0 0 0 0 0 0 0 0 0 0 0 0
0.135051886224691 0 0 0 0 0 0 0 0 0 0 0 0 0 0 0 0 0 0 0 0 0 0 0 0 0 0 0 0 0 0 0 0 0 0 0 0 0 0 0 0 0 0 0 0 0 0 0 0 0
0 0 0 0 0 0 0 0 0 0 0 0 0 0 0 0 0 -7.98153444572772 0 0 0 0 0 0 0 0 0 0 0 0 0 0 0 0 0 0 0 0 0 0 0 0 0 0 0 0 0 0 0 0
0 0 0 0 0 0 0 0 0 0 0 0 -1.02645614445269 0 0 -0.592601161147102 0 0 0 0 0 0 0 0 0 0 0 0 0 0 0 0 0 0 0 0 0 0 0 0 0 0 0 0 0 0 0 0 0 0
0 0 0 0 0 0 0 0 0 0 0 -0.482989673777235 -0.163240252925882 0 -0.145583874062198 0 0 -2.6167826976045 0 0 0 0 0 0 0 0 0 0 0 0 0 0 0 0 0 0 0 0 0 0 0 0 0 0 0 0 0 0 0 0
0 0 0 0 0 0 0 0 0 0 0 -0.686089538629662 -0.96674722000577 0 0 -0.274076182988643 0 0 0 0 0 0 0 0 0 0 0 0 0 0 0 0 0 0 0 0 0 0 0 0 0 0 0 0 0 0 0 0 0 0
0 0 0 0 0 0 0 0 0 0 -1.22238685116259 -0.460882916549911 0 0 -0.740095791030844 0 0 0 0 0 0 0 0 0 0 0 -2.39907896446401 0 0 0 0 0 0 0 0 0 0 0 0 0 0 0 0 0 0 0 0 0 0 0
0 0 0 0 0 0 0 0 0 -0.983595539379493 0 0 0 -1.28855704023072 -0.674198475049986 0 0 0 0 -3.53164691667639 0 0 0 0 0 0 -0.58753556808491 0 0 0 0 0 0 0 -0.533677603755721 0 0 0 0 0 0 0 0 0 0 0 0 0 0 0
0 0 0 0 0 0 0 0 0 -1.63602903182184 0 -1.55183045756583 -1.97816144416238 -0.696874149903013 -1.96550110922865 0 0 0 0 -2.0933987470534 0 0 0 0 0 0 -1.15282105573146 0 0 0 0 0 0 0 -2.8310032166009 0 0 0 0 0 0 0 0 0 0 0 0 0 0 0
0 0 0 0 0 0 0 0.198628834976007 0.326029189971291 0 0 0 -2.12765398672236 0 0 0 0 0 0 0 0 0 0 -2.40989517464348 0 0 0 0 0 0 0 0 0 -0.769659943159807 0 0 0 0 0 0 0 0 0 0 0 0 0 0 -3.16112636768662 0
0 0 0 0 0 0 0.2561035628168 0 0 0 0 0 0 0 0 0 0 0 0 0 0 0 0 0 0 0 0 0 0 0 0 0 0 0 -1.71992970160471 0 0 0 0 0 0 0 0 0 0 -0.625092631823392 0 0 -0.383983549200559 0
0 0 0 0 0.102515362532001 0.13454714786351 0.0887407028413275 0 0.326243543700903 0 0 0 0 0 0 0 0 0 0 0 0 0 0 0 0 0 0 0 0 0 0 0 0 0 0 0 0 0 0 0 0 0 -2.89684567323377 0 0 -0.293304641819367 0 0 0 0
0 0 0 0.192288486819333 0.0328557115521981 0.200378207069358 0 0 0.3941333870993 0.410808291029672 0 0 0 0 0 0 0 0 0 0 0 0 0 0 0 0 0 -1.44155842104959 0 0 0 0 0 0 0 0 0 -0.203790434701024 0 0 0 0 -7.14359365789352 0 0 -2.28406444417165 0 0 0 0
0 0 0 0 0 0 0 0.235008132824894 0.14881774238907 0 0 0 0 0 0 0 0 0 0 0 0 0 0 0 0 0 0 -0.634612903801407 0 0 0 0 0 0 0 0 0 0 0 0 0 0 0 0 0 -0.30474018461619 0 0 0 0
0 0 0 0 0.0290425189757971 0 0.138359204667879 0.137178315054817 0.353895026254615 0 0 0 0 0 0 0 0 0 -0.228621351257175 0 0 0 0 0 0 0 0 0 0 0 0 0 0 0 0 0 0 0 0 0 0 0 -6.12516408904691 0 0 -0.23390783175509 0 0 0 0
0 0 0 0.126190139100701 0 0.0594469918977708 0 0 0 0 0 0 0 0 0 0 0 0 0 0 0 0 0 0 0 0 0 0 0 0 0 0 0 0 0 -7.314093568103 0 -2.27434380787204 0 0 0 -0.764299634704171 -0.602355416338426 0 0 -2.25676614173404 0 0 0 0
0 0 0 0 0 0 0 0 0 0 0 0 0 0 0 0 0 0 0 0 0 0 0 0 0 0 0 0 0 0 0 0 -0.447553675270418 0 0 -1.32464933813225 0 -2.74812373883288 0 0 0 -1.80031014577184 -0.731537163174767 0 0 0 0 0 0 0
0.10488125035044 0 1.52770727679056 0 0.497395664371474 0 0 0 0 0 0 0 0 0 0 0 0 0 0 0 0 0 0 0 0 0 0 0 0 0 0 0 -3.38062541502377 0 0 -0.989246447001855 0 0 0 0 0 0 0 0 0 -1.11609622402546 0 0 0 0
0 0 0 0 0 0 0 0 0 0 0 0 0 0 0.0464548424052135 0 0 0 0 0 0 0 0 0 0 0 0 0 0 0 0 -1.33982715485127 0 0 0 -0.541767654876683 0 0 0 0 0 0 0 0 0 0 0 0 0 0
0 0 0 0 0 0 0 0.691534249428921 0.445756140538453 0 0 0 0 0 0 0 0 0 0 0 0 0 0 0 0 0 0 0 0 0 0 -0.945292642544905 0 0 0 -0.604417944417204 0 -0.508518135757092 0 0 0 -3.2178967903182 0 0 0 -0.0561212203847268 0 -1.56818726369459 0 0
0 0 0 0 0 0 0 0 0 0 0 0 0 0 0 0 0 0 0 0 0 0 -0.186951930430306 0 0 -2.00310336924052 0 0 0 0 0 0 0 0 0 0 0 -0.169792323375518 0 0 0 -0.29030289797175 0 0 0 0 -1.38909061756914 0 0 0
0 0 0 0 0 0 0 0 0 0 0 0 0 0 0 0 0 0 0 0 0 0 -1.83520633856882 0 -2.40172683065478 0 0 0 0 0 0 -4.40035916212548 0 0 0 0 0 0 0 0 0 -0.802644104526023 0 0 0 -2.30103067418156 0 -0.59958316898196 0 0
0 0 0 0 0 0 0 0 0 0 0 0 0 0 0 0 0 0 0 0 0.0381185017271034 0.396612024942262 0 0.204257153003378 0.409452090791491 -1.46419493409354 0.0143424670548831 0.11470057797339 0 -1.56698057323579 -0.402633420455704 0 0 0 0 -0.118724124161845 -0.752073441017523 -4.25976060859341 0 -4.8161452184294 0 -3.02966043294099 0 0 -1.15314083504198 -0.788863908275282 0 0 0 0
0 0 0 0 0 0 0 0 0 0.515324297009565 0 0 0 0 0 0 0 0 0 0 0 0 -1.04752897781245 0 0 -0.756885346672937 0 0 -1.23787098271857 -0.239254400558067 -0.653378423864973 0 0 0 0 0 0 0 0 -2.24228533765904 -0.259834398069761 0 0 0 0 0 0 0 0 0
0 0 0 0 0 0 0 0 0 0 0 0 0 0 0 0 0 0 0 0 0 0.475460052877171 -1.98734657551457 0 0 0 0 0 0 -0.0948807879253129 -1.30335406766486 0 0 0 0 0 0 0 0 0 -0.238957515587701 0 0 -0.536837920274911 0 -1.09001160946318 0 -2.1509019193504 0 0
0 0 0 0 0 0 0 0 0 0 0 0 0 0 0 0 0 0 0 0 0.396736000510702 0 0.304931907517335 0.12514791573626 0 0 0 0 0 -0.846646224675385 0 0 0 0 0 0 0 0 0 0 0 0 0 -3.1085040063482 0 -0.361496901252617 0 0 0 0
0 0 0 0 0 0 0.5063751871886 0.119907910732282 0.23692523067988 0 0 0 0 0 0 0 0 0 0 0 0 0 -0.0761868983459217 0 0 0 0 0 0 0 0 0 0 0 0 0 0 0 0 -2.6137575762037 -4.64845217727381 0 0 -0.0917449222922141 0 0 0 0 0 0
0 0 0 0 0 0 0 0 0 0 0 0 0.300145225196314 0.127721816481686 0 0 0 0 0 0 0 0 -0.613752281384829 0 0 0 0 0 0 0 -0.82063139436459 0 0 0 0 0 0 0 0 -0.98757357434137 0 0 0 0 0 0 0 0 0 0
0 0 0 0 0 0 0 0 0 0 0 0 0 0 0 0 0 0 0 0 0 0 0 0.259766678774022 0 0 0 0 0 0 0 0 0 0 0 0 0 0 0 0 -1.07330280426166 0 0 -2.61949077777932 -0.683995831518072 -0.600617043490329 0 0 0 0
0 0 0 0 0 0 0 0 0 0 0 0 0 0 0 0 0 0 0 0 0 0 0.339595391583323 0.0426243630282429 0.0182694085210616 0.171103147394057 0 0 0 0 0 0 0 0 0 0 0 0 0 0 0 0 0 0 0 0 0 0 0 0
0 0 0 0 0 0 0 0 0 0 0 0 0 0 0 0 0 0 0 0 0 0 0.082679328876045 0.120352959308402 0.270890641620708 0 0 0.154760135849826 0 0 0 0 0.370084301693259 0 0 0 0 0 0 0 -0.682429863082021 0 0 0 0 -1.52895282391301 0 0 0 0
0 0 0 0 0 0 0 0 0 0 0 0 0 0 0 0 0 0 0.267063738053169 0.190585624761766 0 0.838301225413348 0 0 0 0 0 0 0 0 0 0 0 0 0 0 0 0 0 0 0 0 0 0 0 0 0 0 0 0
0 0 0 0 0 0 0 0 0 0 0 0 0 0 0 0 0.0876256988260456 0.679785896809259 0 0 0 0 0 0 0 0 0 0 0 0 -1.92627424058881 0 0 0 0 0 0 0 0 0 0 0 0 0 0 0 0 0 0 -3.19772487456758
0 0 0 0 0 0 0 0 0 0.143158629125475 0 0 0 0 0 0 0 0 0 0 0 0 0 0 0 0 0 0 0 0 0 0 0 0 0 0 0 0 0 -3.84475907965525 0 0 0 0 0 0 0 0 0 0
0 0 0 0 0 0 0 0.105314685277716 0.560306193838273 0 0.348081904124059 0 0 0 0 0 0 0 0 0 0 0 0 0 0 0 0 0 0 0 0 0 0 0 0 0 0 0 0 0 0 0 0 0 0 0 0 0 0 0
0 0 0 0 0 0 0 0 0 0 0 0 0 0 0 1.38843432133645 0.256047474790444 0.194359440704427 0.108707659107296 0.116539786979423 0 0 0.0235014814096128 0 0 0 0 0 0 0 0 0 0 0 0 0 0 0 -0.52399811895585 0 0 0 0 0 0 0 0 0 0 0
0 0 0 0 0 0 0 0 0 0 0 0 0 0 0 0 0 0 0 0 0 0 0.155951369285307 0 0 0 0 0 0 0 0 0 0 0 0 0 0 0 -0.850481032204835 0 0 0 0 0 0 0 0 0 0 0
0 0 0 0 0 0 0 0 0 0 0 0 0.0383796133718394 0 0 0.47105801619943 0.52030670394388 0 0 0.109703406872035 0.0344399797185039 0 0.820287102189879 0 0 0 0 0 0 0 0 0 0 0 0 0 0 0 0 0 0 0 0 0 0 0 0 0 0 0
0 0 0 0 0 0 0 0 0 0 0 0 0 0 0 0 0 0 0 0 0 0 0 0 0 0 0 0 0 0 0 0 0 0 0 0.110821083414619 0.169518550598913 0 0 0 0 0 0 0 0 0 0 0 0 0
0 0 0 0 0 0 0 0 0 0 0 0 0 0 0 0 0 0 0 0 0 0 0.985059002656994 0.434511742145966 0 0 0.538215570760947 0.204549798741868 0 0 0 0 0 0.76874008151752 0 0 0 0 0 0 0 0 0 0 0 0 0 0 0 0
0 0 0 0 0 0 0 0 0 0 0 0 0 0 0 0 0 0 0 0 0 0 0 0.0544249417621021 0.0469209140787317 0 0.920441088385434 0 0.238004287459473 0 0.135746358018657 0 0 0 0 0 0 0 0 0 0 0 0 0 0 0 0 0 0 0
0 0 0 0 0 0 0 0 0 0 0 0 0 0 0 0.154394713623087 0.341721065975685 0 0 0.648148795054614 0.0604198061052539 0.152520316661899 0.590492188711076 0 0 0 0 0 0 0 0 0 0 0 0 0 0 0 0 0 0 0 0 0 0 0 0 0 0 0
0 0 0 0 0 0 0 0 0 0 0 0.609180926143814 1.54327490189884 0 1.09812077313449 0.119676151637984 0.144603071740087 0 0 0 0 0 0 0 0 0 0 0 0 0 0 0 0 0 0 0 0 0 0 0 0 0 0 0 0 0 0 0 0 0
0 0 0 0 0 0 0 0 0 0 0 0 0 0 0 0 0 0 0 0 0 0 0 0 0.108902824192148 0.634378783141697 0.0196887523576118 0 0.515621219715285 0 0 0 0 0 0 0 0 0 0 0 0 0 0 0 0 0 0 0 0 0
0 0 0 0 0 0 0 0 0 0 0 0 0 0 0 0 0 0 0 0 0 0 0.227980366856108 0 0 0 0 0 0.135322775712839 0 0 0 0 0 0 0 0 0 0 0 0 0 0 0 0 0 0 0 0 0
0 0 0 0 0 0 0 0 0 0 0.12920734746196 0.0615123413010462 0.459706909757427 0.0549502763110848 0.0477746936211491 0.478342101946863 0 0.23737590014607 0 0.0107214325564192 0 0.455651453059509 0.173494423431893 0 0.224437451158956 0.0705696626902156 0 0 0.121385790368123 0 0.309212589500293 0 0 0 0 0 0 0 0 0 0 0 0 0 0 0 0 0 0 0
0 0 0 0 0 0 0 0 0 0 0 0 0 0 0 0 0 0 0 0 0.281019203803493 0 0 0 0 0 0 0 0 0 0 0 0 0 0 0 0 0 0 0 0 0 0 0 0 0 0 0 0 0
0 0 0 0 0 0 0 0 0 0 0 0 0 0 0 0 0 0 0 0.297712234693679 0 0.121930080409446 0 0 0.431156697098366 0 0 0 0 0 0 0 0 0 0 0 0 0 0 0 0 0 0 0 0 0 0 0 0 0
0 0 0 0 0 0 0 0 0 0.668501395676462 0.0790380399230633 0 0 0 0 0 0 0 0 0 0 0 0 0 0 0 0 0 0 0 0 0 0 0 0 0 0 0 0 0 0 0 0 0 0 0 0 0 0 0
0 0 0 0 0 0 0 0 0 0 0 0 0 0 0 0 0 0 0 0 0 0 0 0 0 0 0 0 0 0 0 0 0.712764211057953 0 0 0 0 0 0 0 0 0 0 0 0 0 0 0 0 0
