1.67928352332134
1.27263585615862
0.220586863241542
0.386657882355198
1.22749765758328
0.248434195948996
0.0175844362872724
0.287165095394354
0.439298289135419
0.431301707677768
0.754220431189063
0.628722854863394
1.38723223967968
0.792095516023476
0.171892002519963
1.83018418543413
0.196084049805689
0.449266379793496
0.135578762143289
1.89576599747827
0.337230267403908
0.561543284405181
0.740235203671031
1.83726987627953
0.297335815745339
0.309157526412738
2.36771255256278
0.586899369805754
0.124289480751267
0.260434993825386
1.53459258280812
0.225134822008581
1.15830683942345
0.338276052269966
0.110942565014953
1.64770639051257
1.06134282396122
2.25040950484941
0.0835229782882804
0.0994362373516583
0.973215981578146
0.729671001264626
0.0953612386600787
0.185915382655466
0.881973965226149
1.52193797384697
0.650808147263368
0.56812324229474
1.48080156258968
0.743285518611551
