0.286999372249975
1.01984495523015
0.148170657887486
1.22052311012491
1.16700771246685
0.990011065720431
2.04195614436238
0.253664452309858
0.321604763673123
0.194080630535381
0.765373798214068
0.19262222851618
1.94234179012328
0.190575718080437
0.421645868597509
0.126129928876959
8.15797246674887
0.217105008069724
0.156381708940096
0.60367118693227
0.341193089508511
1.16437236821829
1.44613876839538
1.65307395291578
0.179569538077039
0.209797160829126
0.137412112261226
0.200389426472735
0.859333459003365
1.18557544203951
0.367001118913854
1.23216119329645
0.305658269416211
0.41041786937604
0.0732868257864849
0.224590717883064
1.69684565122568
1.22147225293727
0.310413122666315
0.485447760187212
0.344591791964106
1.05856109532501
0.391805488683038
1.09620813344926
0.18701334532709
0.396634278135962
0.654029147034067
2.36670366443799
0.191313106146119
0.766782775443256
