0 -2.54064050482365 0 0 -0.425100283052783 0 0 0 0 -0.80551782439059 0 0 0 0 0 0 0 0 0 0 0 0 0 0 0 0 0 0 0 0 0 0 0 0 0 0 0 0 0 0 0 0 0 0 0 0 0 0 0 0
0.478862231418496 0 0 -1.58674557267137 0 0 0 0 0 -0.822858584830729 0 0 0 0 0 0 0 0 0 0 0 0 0 0 0 0 0 0 0 0 0 0 0 0 0 0 0 0 0 0 0 0 0 0 0 0 0 0 0 0
0 0 0 0 0 0 0 0 0 0 0 0 0 0 0 0 0 0 0 0 0 0 0 0 0 0 0 0 0 0 0 0 0 0 -1.6959376768716 0 0 0 0 0 0 0 0 0 0 0 0 0 0 0
0 0.290283973513305 0 0 -1.07631713621997 0 0 0 -5.32837991403765 0 0 0 0 0 0 0 0 0 0 0 0 -0.069837447308687 0 0 0 0 0 0 0 -0.114101678094673 0 0 0 0 0 0 0 0 0 0 0 0 0 0 0 0 -0.459436490119653 0 0 0
0.0806428506272569 0 0 0.227338003737791 0 0 0 0 0 0 -0.264117350309914 0 0 0 -1.32834111111846 0 0 0 0 0 0 0 0 0 0 0 0 0 0 0 0 0 0 0 0 0 0 0 -1.03272892616739 0 0 0 0 0 0 0 -0.038417797285449 0 0 0
0 0 0 0 0 0 0 0 0 0 -11.487951520396 0 0 0 0 0 0 0 0 0 0 0 0 0 0 0 0 0 0 0 0 0 0 0 0 0 0 0 -1.02741103946722 0 0 0 0 0 0 0 0 0 0 0
0 0 0 0 0 0 0 0 0 0 0 0 0 -10.589993570919 -0.303147842720392 0 0 0 0 0 0 -0.40647262630254 0 0 -0.291731466117112 0 0 0 0 0 0 0 0 0 0 0 0 0 0 0 0 0 0 0 0 0 -1.05773282234723 -0.537142352780568 0 0
0 0 0 0 0 0 0 0 0 0 0 -0.260465185531486 0 0 -4.97200050904588 -0.744784585064549 0 0 0 0 0 -1.06561474300081 0 0 -0.242973784658234 0 0 0 0 0 0 0 0 0 0 0 0 0 -3.7394522483553 0 0 0 0 0 -0.603524395398062 0 0 0 0 0
0 0 0 1.01842376247245 0 0 0 0 0 0 0 0 -1.54284227878328 0 0 -0.960039312400731 0 0 0 0 0 -0.793738498641777 0 -2.65526290417312 -0.880907294905071 -1.10894117887846 0 0 0 0 0 0 0 0 0 0 0 0 0 0 0 0 0 0 0 0 0 0 0 0
0.164500387867142 0.166934076430352 0 0 0 0 0 0 0 0 0 0 -1.35720589043013 0 0 0 0 -0.69891286056609 0 0 0 -1.50974227182705 0 0 -0.361982395150295 0 0 0 0 0 0 -0.91694403329079 -7.22681963356332 0 0 0 0 0 0 0 0 0 0 0 0 0 0 0 -0.591093320424563 0
0 0 0 0 0.0472166476813246 2.29004850082275 0 0 0 0 0 0 0 0 0 -0.683025690012548 0 0 -0.836074545190691 0 0 -0.0752382552369441 0 -1.32322022928513 -1.90274703513823 0 0 0 0 0 0 -0.305204492428687 -0.460882608089862 0 0 0 0 0 -3.83631975622978 0 0 0 0 0 0 0 0 0 -5.58039585786239 0
0 0 0 0 0 0 0 0.0485334137577408 0 0 0 0 0 0 0 -1.6943737269961 0 0 0 -0.970124432358949 -1.66862566155264 0 0 0 0 0 -0.683868676989129 0 0 0 0 0 0 0 0 0 0 0 -1.30173617873182 0 0 0 0 0 0 0 0 0 -0.725907336919266 0
0 0 0 0 0 0 0 0 0.34397784101704 0.27380816016963 0 0 0 0 0 -1.09600552919445 0 0 0 -0.626987471803146 0 0 0 0 -0.362910404255449 0 -3.69405905369419 0 0 0 0 -0.673215730668628 -2.398935166396 0 0 0 0 0 0 0 0 0 0 0 0 0 0 0 -0.405072572307512 0
0 0 0 0 0 0 2.33495580381696 0 0 0 0 0 0 0 0 -0.236068026721352 0 0 0 0 -2.10080777253633 0 0 0 -0.58424499085608 0 -0.385063788551131 0 0 0 0 -0.496602517288761 0 0 0 0 0 0 -2.14652689992859 0 0 0 0 0 0 0 0 0 0 0
0 0 0 0 0.258905717138206 0 0.0587433369310779 1.01630346393617 0 0 0 0 0 0 0 0 0 0 0 0 0 0 0 0 0 0 0 0 0 0 0 0 -0.739711030312946 0 0 0 0 0 0 -1.11634031187836 0 0 -0.291362715816176 0 0 0 0 0 -0.290767484260596 0
0 0 0 0 0 0 0 0.141097922057262 0.177567275487087 0 0.137191471523719 0.377507319466081 0.227109840739009 0.0484327380552811 0 0 0 0 0.137330230882635 0 0 0 0 -0.478416218125155 0 0 -0.232511062979182 0 0 0 0 0 -0.718654535576731 0 0 0 0 0 -0.282482857820237 -4.76910756549974 0 0 -0.42430283397566 0 0 0 0 0 -4.49781824044547 0
0 0 0 0 0 0 0 0 0 0 0 0 0 0 0 0 0 0 0 0 0 0 0 -0.503002897722591 0 0 -3.4569971230082 0 0 0 0 -0.711370155692452 -1.85866174024117 0 0 0 0 0 -2.03464118118082 0 0 0 0 0 0 0 0 0 -2.4764459709697 0
0 0 0 0 0 0 0 0 0 0.137024391951732 0 0 0 0 0 0 0 0 0 0 0 0 0 -2.01807218699166 0 0 0 0 0 0 0 0 0 0 0 0 0 0 0 -4.09294282637672 0 0 -2.87011507294905 0 0 0 0 0 -0.147866381270665 0
0 0 0 0 0 0 0 0 0 0 0.159018753739553 0 0 0 0 -0.647484037271047 0 0 0 0 0 0 0 0 0 0 -0.604943670611274 0 0 0 0 0 0 0 0 0 -1.10128361897524 0 0 -0.455413733847976 0 0 0 0 0 0 0 0 -1.47465023867198 0
0 0 0 0 0 0 0 0 0 0 0 0.201987209499173 0.118850432600081 0 0 0 0 0 0 0 0 0 0 0 0 0 0 0 0 0 0 0 0 0 0 0 0 0 0 -0.652175730856747 -0.388311349408716 0 0 0 0 0 0 0 0 -0.709214658827992
0 0 0 0 0 0 0 0 0 0 0 0.33992956576919 0 0.429975358973647 0 0 0 0 0 0 0 0 0 0 0 0 0 0 0 0 0 0 0 0 0 0 0 0 0 -0.622400833129627 0 0 0 0 0 0 0 0 0 0
0 0 0 0.0143187299903554 0 0 0.0886996927707414 0.234120668002686 0.153806161542196 0.309519200827798 0.0153925813689983 0 0 0 0 0 0 0 0 0 0 0 -0.536713250991738 0 0 0 0 0 0 0 0 0 0 0 0 0 0 0 0 0 0 0 0 0 0 0 0 0 0 0
0 0 0 0 0 0 0 0 0 0 0 0 0 0 0 0 0 0 0 0 0 0.10764662995482 0 0 0 0 0 -1.45063278250043 0 0 -0.70144331120408 0 0 0 0 -0.301925083288699 0 0 0 -0.645736406675272 -0.191913595818839 0 0 0 0 0 0 0 0 0
0 0 0 0 0 0 0 0 0.540632152043403 0 0.266363876869062 0 0 0 0 0.105854453358709 0.0967202184750568 0.403340392383901 0 0 0 0 0 0 0 0 0 0 0 0 -1.10233497123569 0 0 0 0 -1.8612732999745 0 0 0 0 -2.58249158613514 0 0 0 0 0 0 0 0 0
0 0 0 0 0 0 0.0612463795594928 0.0482659611684692 0.190898000302222 0.078911523470219 0.370925329452483 0 0.0716474684047019 0.129462465635363 0 0 0 0 0 0 0 0 0 0 0 0 0 0 0 0 -0.337460569405256 0 0 0 0 0 0 0 0 0 0 0 0 0 0 0 0 0 0 0
0 0 0 0 0 0 0 0 0.215558718981111 0 0 0 0 0 0 0 0 0 0 0 0 0 0 0 0 0 0 -1.03030986885057 0 0 -3.83417019485365 0 0 0 0 -3.13410452106587 0 0 0 0 -0.699100384787858 0 0 0 0 0 0 0 0 0
0 0 0 0 0 0 0 0 0 0 0 0.139279082490159 0.718985739538164 0.0797686432070452 0 0.0443773651597745 0.644737210387549 0 0.117362672838439 0 0 0 0 0 0 0 0 0 0 0 -0.335485050881539 0 0 0 0 0 0 0 0 -0.380292271451516 0 0 0 0 0 0 0 0 0 0
0 0 0 0 0 0 0 0 0 0 0 0 0 0 0 0 0 0 0 0 0 0 0.317972638522145 0 0 0.218010761021875 0 0 0 0 -1.07119058110875 0 0 0 0 -1.15555156297165 0 0 0 -0.566743036885869 -2.46751816477497 0 0 0 0 0 0 0 0 0
0 0 0 0 0 0 0 0 0 0 0 0 0 0 0 0 0 0 0 0 0 0 0 0 0 0 0 0 0 0 0 0 0 0 0 -0.842668881033137 0 0 0 0 0 0 0 0 0 0 0 0 0 0
0 0 0 0.0233012678229154 0 0 0 0 0 0 0 0 0 0 0 0 0 0 0 0 0 0 0 0 0 0 0 0 0 0 0 0 0 0 0 0 0 0 0 0 0 0 0 0 0 0 0 0 0 0
0 0 0 0 0 0 0 0 0 0 0 0 0 0 0 0 0 0 0 0 0 0 0.139153694885534 0.206703607400124 0.0676696990433063 0.780911901509505 0.0642112670271523 0.201836524969806 0 0 0 0.35636203703848 0 0.682149896767644 0 0 0 0 0 0 0 0 0 0 0 0 0 0 0 0
0 0 0 0 0 0 0 0 0 0.187829645363778 0.0662911149887962 0 0.119061269524598 0.0950066136098893 0 0 0.135833026190259 0 0 0 0 0 0 0 0 0 0 0 0 0 -1.76967960895836 0 0 0 0 -5.23699101595113 0 0 0 -0.479832695711479 -1.55875952232235 0 0 0 0 0 0 0 0 0
0 0 0 0 0 0 0 0 0 1.53232731180832 0.0925724488591954 0 0.514784560615624 0 0.148114511730168 0.147597402556284 0.349136913039263 0 0 0 0 0 0 0 0 0 0 0 0 0 0 0 0 0 0 0 0 0 0 -0.162341908694668 0 0 0 0 0 0 0 0 0 0
0 0 0 0 0 0 0 0 0 0 0 0 0 0 0 0 0 0 0 0 0 0 0 0 0 0 0 0 0 0 -3.48578199729075 0 0 0 0 0 0 0 0 0 -3.1194659327026 0 0 0 0 0 0 0 0 0
0 0 0.32589942755446 0 0 0 0 0 0 0 0 0 0 0 0 0 0 0 0 0 0 0 0 0 0 0 0 0 0 0 0 0 0 0 0 -0.323684449800333 0 0 0 0 0 -2.41841356996272 0 0 0 0 0 0 0 0
0 0 0 0 0 0 0 0 0 0 0 0 0 0 0 0 0 0 0 0 0 0 0.0623037585147773 0.340626058439783 0 0.604175429435354 0 0.214404883775019 0.161759081247822 0 0 0.905270393889862 0 0 0.0655395153038516 0 0.284464556144265 0 0 0 -0.156493571121397 0 0 0 0 0 0 0 0 0
0 0 0 0 0 0 0 0 0 0 0 0 0 0 0 0 0 0 0.232173869418923 0 0 0 0 0 0 0 0 0 0 0 0 0 0 0 0 -1.35935233725239 0 0 0 0 -0.455945067534749 -0.216177519291269 0 0 0 0 0 0 0 0
0 0 0 0 0 0 0 0 0 0 0 0 0 0 0 0 0 0 0 0 0 0 0 0 0 0 0 0 0 0 0 0 0 0 0 0 0 0 0 0 -1.87526151409861 0 0 0 0 0 0 0 0 0
0 0 0 0 0.212569397542749 0.202599931048484 0 0.693326605478519 0 0 0.757044468609274 0.233678088884343 0 0.443588451940275 0 0.052397554663207 0.374817432792825 0 0 0 0 0 0 0 0 0 0 0 0 0 0 0 0 0 0 0 0 0 0 0 0 0 0 0 0 0 0 0 0 0
0 0 0 0 0 0 0 0 0 0 0 0 0 0 0.201098142335751 0.881161727964201 0 0.809482845287919 0.0873332156533865 0.128791827864887 0.127394375450825 0 0.124592517733683 0 0 0 0.0768143972610839 0.107252391149477 0 0 0 0.0888807592455775 0.0337113360117585 0 0 0 0 0 0 0 0 0 0 0 0 -0.712319523611367 0 0 0 0
0 0 0 0 0 0 0 0 0 0 0 0 0 0 0 0 0 0 0 0.0793980226724479 0 0 0.0393961514093322 0.487588117407089 0 0.150580763072472 0 0.512305503990766 0 0 0 0.318726472289827 0 0.658407416521343 0 0.0345582450372314 0.0929876008691045 0.378229819444213 0 0 0 0 0 0 0 0 0 0 0 0
0 0 0 0 0 0 0 0 0 0 0 0 0 0 0 0 0 0 0 0 0 0 0 0 0 0 0 0 0 0 0 0 0 0 0.479484003486682 0 0.0399384234943631 0 0 0 0 0 0 0 0 -2.36127941330303 0 0 0 0
0 0 0 0 0 0 0 0 0 0 0 0 0 0 0.0606496857735744 0.0841434754219437 0 0.588361441590384 0 0 0 0 0 0 0 0 0 0 0 0 0 0 0 0 0 0 0 0 0 0 0 0 0 0 0 -0.480140706474076 0 0 0 0
0 0 0 0 0 0 0 0 0 0 0 0 0 0 0 0 0 0 0 0 0 0 0 0 0 0 0 0 0 0 0 0 0 0 0 0 0 0 0 0 0 0 0 0 0 -1.32159024408143 0 0 0 0
0 0 0 0 0 0 0 0.117567199654063 0 0 0 0 0 0 0 0 0 0 0 0 0 0 0 0 0 0 0 0 0 0 0 0 0 0 0 0 0 0 0 0 0 0 0 0 0 -0.692061206275588 0 0 0 0
0 0 0 0 0 0 0 0 0 0 0 0 0 0 0 0 0 0 0 0 0 0 0 0 0 0 0 0 0 0 0 0 0 0 0 0 0 0 0 0.131701926814745 0 0.447080965230318 0.0904317453355205 0.260388562490791 0.140867928393186 0 0 0 0 0
0 0 0 0.0837916193437251 0.0074783658055531 0 0.22883784279631 0 0 0 0 0 0 0 0 0 0 0 0 0 0 0 0 0 0 0 0 0 0 0 0 0 0 0 0 0 0 0 0 0 0 0 0 0 0 0 0 0 0 0
0 0 0 0 0 0 0.110403523507603 0 0 0 0 0 0 0 0 0 0 0 0 0 0 0 0 0 0 0 0 0 0 0 0 0 0 0 0 0 0 0 0 0 0 0 0 0 0 0 0 0 0 0
0 0 0 0 0 0 0 0 0 0.118355873306823 1.06707861964627 0.151137760295034 0.0781920378040139 0 0.0558060026356489 0.909885218809376 0.519170993159213 0.0286880128694836 0.299603881745005 0 0 0 0 0 0 0 0 0 0 0 0 0 0 0 0 0 0 0 0 0 0 0 0 0 0 0 0 0 0 0
0 0 0 0 0 0 0 0 0 0 0 0 0 0 0 0 0 0 0 0.139387333726274 0 0 0 0 0 0 0 0 0 0 0 0 0 0 0 0 0 0 0 0 0 0 0 0 0 0 0 0 0 0
