0.232383836998272
0.958083848784952
0.463861859682935
0.189924825459189
0.245094820658531
0.873010139455839
0.19118837072939
0.781073921671608
1.43195039411159
0.817868375745137
0.203637402276543
0.259238261093313
1.47379912588719
0.0614897342464505
1.95302649305506
0.604621549048356
0.724694100086624
0.107694431100899
0.356762467401315
0.323752148917427
1.22178687024549
1.19752586652909
0.166396007729819
0.683171827147757
0.481662003221514
0.53578248556644
0.408028282463008
0.111516542079787
0.66853601205307
0.146269823324147
1.92967543774159
0.558016764597684
0.0807148327104577
0.120805044298665
1.46330175675486
0.196314095390005
0.347096213888184
1.07073595840612
0.399613128542651
1.16190596764626
1.52267796459867
2.01550727860678
0.825528566187086
0.0918852789050271
1.8678558059043
0.163885718018511
0.0683619056298871
0.618867998571952
1.18880136319673
0.652573310875092
