0 0 0 0 0 0 0 0 0 0 0 0 0 -0.0978095421857531 0 0 0 0 0 0 0 0 0 0 0 0 0 0 0 0 0 0 0 0 0 0 0 0 0 0 0 0 0 0 0 0 0 0 0 0
0 0 0 0 0 -1.71709031549272 0 0 0 0 0 0 0 -0.943976171040413 0 0 0 0 0 0 0 0 0 0 0 0 0 0 -0.524834500993826 0 0 0 0 0 0 0 0 0 0 0 0 0 0 0 0 0 0 0 0 0
0 0 0 0 0 -3.56119276552543 0 0 0 0 0 0 0 -0.172993754494183 0 0 0 -0.636173955212268 0 0 0 0 0 0 0 0 0 0 -1.7069002864779 0 0 0 0 0 0 0 0 0 0 0 0 0 0 0 0 0 0 0 0 0
0 0 0 0 0 -1.52795660474074 0 0 0 0 0 0 0 -2.2548454332157 0 0 0 -1.57506785559893 0 0 0 0 0 0 0 0 0 0 -2.85976399660071 0 0 0 0 0 0 0 0 0 0 0 0 0 0 0 0 0 0 0 0 0
0 0 0 0 0 0 0 0 0 0 0 0 0 0 0 0 0 -0.176492683549638 0 -0.783364091271961 0 0 0 0 0 0 0 0 0 0 0 0 0 0 0 0 0 0 0 0 0 0 0 0 0 0 0 0 0 0
0 0.339693242015312 0.688195329568108 0.298851391274226 0 0 0 0 0 -0.817101332818127 0 0 0 0 0 0 0 -0.753563127411291 0 -7.38100105108151 0 0 0 0 0 0 0 0 -0.407417020228044 0 0 0 0 0 0 0 0 0 0 0 0 0 0 0 0 0 0 0 0 -3.32554463779319
0 0 0 0 0 0 0 -1.76232857683796 0 0 0 -0.574245786628128 0 0 0 0 0 0 0 0 0 0 -1.29382316439102 0 0 0 0 0 -0.716973556648174 0 0 0 0 0 0 0 0 0 0 0 0 0 0 0 0 0 0 0 0 -1.27862864035007
0 0 0 0 0 0 0.339602703950635 0 0 0 0 0 0 0 0 0 0 0 -1.46297597973469 0 0 0 0 0 0 0 0 0 0 0 0 0 0 0 0 0 0 0 0 0 0 0 0 0 0 0 0 0 0 -0.768868421093109
0 0 0 0 0 0 0 0 0 0 0 0 0 0 0 0 0 0 -0.32897772068105 0 0 0 0 0 0 0 0 0 0 0 0 0 0 0 0 0 0 0 0 0 0 0 0 0 0 0 0 0 0 0
0 0 0 0 0 0.162313676885707 0 0 0 0 0 0 0 0 -0.679287394219194 0 0 0 -3.53255596824928 0 0 0 0 0 0 0 0 0 -1.48100513838196 0 0 0 0 0 0 0 0 0 0 0 0 0 0 0 0 0 0 0 0 -2.93051780566319
0 0 0 0 0 0 0 0 0 0 0 0 0 0 0 0 0 0 0 0 -0.610927219770329 0 0 0 0 0 0 0 0 0 0 0 0 0 0 0 0 0 0 0 0 0 0 0 0 -0.591486772952758 0 0 0 0
0 0 0 0 0 0 0.11198986334934 0 0 0 0 0 -0.874133594889325 0 0 0 0 0 0 0 0 -0.372169737084333 0 0 0 0 0 0 0 0 0 0 0 0 0 0 0 0 0 0 0 0 0 0 0 -1.58330455287742 0 0 0 -1.43698227428086
0 0 0 0 0 0 0 0 0 0 0 0.176658858932385 0 0 0 0 0 0 0 0 0 0 0 0 0 0 0 -3.71029450830262 -1.13040828525989 0 0 0 0 0 0 0 0 0 0 0 0 0 0 0 0 0 0 0 0 -0.776301521099748
0.0211546929652434 0.210086161106585 0.0370334943804688 0.433205015696191 0 0 0 0 0 0 0 0 0 0 0 0 0 0 0 0 -0.74131200098834 0 0 0 0 -1.85932695856704 0 0 0 0 0 0 0 0 0 0 0 0 -0.913435188811274 0 0 0 0 0 0 0 0 0 0 0
0 0 0 0 0 0 0 0 0 0.143979956952145 0 0 0 0 0 0 0 0 0 0 -3.34539942732876 0 0 0 0 -1.40908751363801 0 0 -0.43198568601915 0 0 0 0 0 0 0 0 0 -0.834370913551649 0 0 0 0 -0.584406315670922 0 0 0 0 0 -1.20325075561429
0 0 0 0 0 0 0 0 0 0 0 0 0 0 0 0 -0.605823744613966 0 0 0 -1.83285594122454 0 0 0 -2.59980747267928 0 0 0 -0.290386187951614 0 0 0 0 0 0 0 0 0 0 0 0 0 0 -1.97726207189118 0 0 0 0 0 0
0 0 0 0 0 0 0 0 0 0 0 0 0 0 0 0.111667095272328 0 0 0 0 0 0 0 0 0 0 0 0 0 0 0 0 0 0 0 0 0 0 -3.75646048507644 0 0 0 0 0 0 0 0 0 0 -1.99465525195894
0 0 0.125551349571233 0.326403530870636 0.0356011470739366 0.143622317399095 0 0 0 0 0 0 0 0 0 0 0 0 0 0 0 0 0 0 0 0 0 0 0 0 0 0 0 0 0 0 -3.11296671995412 0 0 0 0 0 0 -1.41577327225739 0 0 -0.500263804877328 0 0 -0.392335247921028
0 0 0 0 0 0 0 0.297068271262728 0.0662906563450149 0.690143638249465 0 0 0 0 0 0 0 0 0 0 0 0 0 0 -1.59275700061332 0 0 0 0 0 0 0 0 0 0 0 -1.22252595674811 0 -0.613094684109644 0 0 0 0 0 0 0 -2.13353518802624 0 0 -0.330336288851339
0 0 0 0 0.153867906309308 1.52637367626345 0 0 0 0 0 0 0 0 0 0 0 0 0 0 0 0 0 0 0 0 0 0 0 0 0 0 0 0 0 0 0 -0.533167102416236 0 0 0 0 0 0 0 0 0 0 0 0
0 0 0 0 0 0 0 0 0 0 0.119255549414153 0 0 0.148634846720846 0.644349061889485 0.36579753791628 0 0 0 0 0 0 0 0 -0.18745598859385 0 0 0 -0.326034385713223 0 0 0 0 0 0 0 -1.65177697450478 -0.867279605797922 0 0 0 0 0 0 -0.495339971820147 0 -5.96067261986344 0 0 -1.96112710788423
0 0 0 0 0 0 0 0 0 0 0 0.072114990061675 0 0 0 0 0 0 0 0 0 0 0 0 0 0 0 0 -5.12707654332165 0 0 0 0 0 0 0 -10.4898539233195 -0.717865747185254 -1.3701390572966 0 0 0 0 -1.3353066305876 -0.80712436851491 0 0 0 0 0
0 0 0 0 0 0 0.275955144286707 0 0 0 0 0 0 0 0 0 0 0 0 0 0 0 0 0 0 0 0 0 -1.62667735718894 0 0 0 0 0 0 0 0 -2.31342247623573 -1.90739254595162 0 0 0 0 0 -2.64837055935706 0 0 0 0 0
0 0 0 0 0 0 0 0 0 0 0 0 0 0 0 0 0 0 0 0 0 0 0 0 0 0 0 0 0 0 0 0 0 0 0 0 0 -2.24929501127976 -0.720331047015113 0 0 0 0 0 0 0 0 0 0 0
0 0 0 0 0 0 0 0 0 0 0 0 0 0 0 0.56375612977391 0 0 0.312339342527726 0 0.0356216833951224 0 0 0 0 0 0 0 -0.532118405803128 0 0 0 0 0 0 0 -0.106529217700065 -0.372180554389516 -1.29114869510556 0 0 0 0 -0.52089594208082 0 0 0 0 0 -3.08600462924925
0 0 0 0 0 0 0 0 0 0 0 0 0 0.386436620290763 0.293472787416831 0 0 0 0 0 0 0 0 0 0 0 0 0 0 0 0 0 0 0 0 0 0 -0.990395584459543 -1.1753403908629 0 0 0 0 -0.97889280321682 0 0 0 0 0 0
0 0 0 0 0 0 0 0 0 0 0 0 0 0 0 0 0 0 0 0 0 0 0 0 0 0 0 0 0 0 -1.06260377330193 0 0 0 0 0 0 0 -1.29323388315275 0 0 -1.05958667538962 0 0 0 0 0 0 0 0
0 0 0 0 0 0 0 0 0 0 0 0 0.769359058176497 0 0 0 0 0 0 0 0 0 0 0 0 0 0 0 0 0 0 0 0 -0.916074555953809 0 0 0 0 0 0 0 0 0 0 0 0 0 0 0 0
0 0.109796645557256 0.29858307849888 0.575995290556551 0 0.0828424739630488 0.145693214409946 0 0 0.283682820114035 0 0 0.25045168605486 0 0.09889017118747 0.0622705166299177 0 0 0 0 0.0644267343238882 1.06159517033404 0.319097590805903 0 0.104552262107428 0 0 0 0 0 0 0 0 0 0 0 0 -0.645318525297831 -4.07661717721221 0 0 0 0 0 0 0 0 0 0 0
0 0 0 0 0 0 0 0 0 0 0 0 0 0 0 0 0 0 0 0 0 0 0 0 0 0 0 0 0 0 0 0 0 -2.13251351753914 0 0 0 0 -10.2738963918683 0 0 0 0 0 0 0 0 0 0 -0.341186793410783
0 0 0 0 0 0 0 0 0 0 0 0 0 0 0 0 0 0 0 0 0 0 0 0 0 0 0.224083036388558 0 0 0 0 0 0 0 0 0 0 0 -2.7607515564105 0 0 0 0 0 0 0 0 0 0 0
0 0 0 0 0 0 0 0 0 0 0 0 0 0 0 0 0 0 0 0 0 0 0 0 0 0 0 0 0 0 0 0 0 -3.75740361156417 0 0 0 -0.456731844730685 -0.284231480054379 0 0 0 0 0 0 0 0 0 0 0
0 0 0 0 0 0 0 0 0 0 0 0 0 0 0 0 0 0 0 0 0 0 0 0 0 0 0 0 0 0 0 0 0 -2.15937536835237 0 0 0 -0.364372416766124 0 0 0 0 0 0 0 0 0 0 0 0
0 0 0 0 0 0 0 0 0 0 0 0 0 0 0 0 0 0 0 0 0 0 0 0 0 0 0 0.178140978728137 0 0.432909532110113 0 0.68484408169686 0.42760156470109 0 0 0 0 0 0 0 0 0 0 0 0 0 0 0 0 0
0 0 0 0 0 0 0 0 0 0 0 0 0 0 0 0 0 0 0 0 0 0 0 0 0 0 0 0 0 0 0 0 0 0 0 -1.28637488545166 0 -0.481812015926669 0 0 0 0 0 0 0 0 0 0 0 -0.966965446098326
0 0 0 0 0 0 0 0 0 0 0 0 0 0 0 0 0 0 0 0 0 0 0 0 0 0 0 0 0 0 0 0 0 0 0.261203953845941 0 0 0 0 0 0 0 0 0 0 0 0 0 0 0
0 0 0 0 0 0 0 0 0 0 0 0 0 0 0 0 0 0.596953764926159 0.247915599121942 0 0.317468550623031 2.26216357944317 0 0 0.018721819188197 0 0 0 0 0 0 0 0 0 0 0 0 0 0 0 0 0 0 0 0 0 0 0 0 0
0 0 0 0 0 0 0 0 0 0 0 0 0 0 0 0 0 0 0 0.103789649606897 0.199331293263075 0.154622201051023 0.469490061364387 0.458692933843567 0.0805149119060175 0.202874366709264 0 0 0.145659493449388 0 0 0.089685510631347 0.0710027763414368 0 0.108722103929376 0 0 0 0 0 0 0 0 0 0 0 0 0 -0.79419858968285 0
0 0 0 0 0 0 0 0 0 0 0 0 0 0.17659430956368 0.157850188748233 0 0.791364935628304 0 0.122934837771861 0 0 0.276604139195894 0.329159101890689 0.154279585337958 0.259596637003279 0.206557550497814 0.26088650126368 0 0.773533669125402 2.07687660427113 0.55012482322633 0.0558715051639192 0 0 0 0 0 0 0 0 0 0 0 0 0 0 0 0 -2.04937149870135 0
0 0 0 0 0 0 0 0 0 0 0 0 0 0 0 0 0 0 0 0 0 0 0 0 0 0 0 0 0 0 0 0 0 0 0 0 0 0 0 0 0 0 0 0 0 0 0 -1.43428971511674 0 0
0 0 0 0 0 0 0 0 0 0 0 0 0 0 0 0 0 0 0 0 0 0 0 0 0 0 0 0 0 0 0 0 0 0 0 0 0 0 0 0 0 0 0 0 0 0 0 0 -3.72475402797549 0
0 0 0 0 0 0 0 0 0 0 0 0 0 0 0 0 0 0 0 0 0 0 0 0 0 0 0.205624615147431 0 0 0 0 0 0 0 0 0 0 0 0 0 0 0 0 0 0 0 0 -4.04995836981005 -1.92539197963468 0
0 0 0 0 0 0 0 0 0 0 0 0 0 0 0 0 0 0 0 0 0 0 0 0 0 0 0 0 0 0 0 0 0 0 0 0 0 0 0 0 0 0 0 0 0 0 0 -0.413193224565272 0 0
0 0 0 0 0 0 0 0 0 0 0 0 0 0 0.115601783860218 0.408204381953719 0 0.243663523717473 0 0 0 0.268123728207822 0 0 0.104710488465468 0.203960464994239 0 0 0 0 0 0 0 0 0 0 0 0 0 0 0 0 0 0 0 0 0 0 0 0
0 0 0 0 0 0 0 0 0 0 0 0 0 0 0 0 0 0 0 0 0.102939527813618 0.169629872037457 0.531323783888101 0 0 0 0 0 0 0 0 0 0 0 0 0 0 0 0 0 0 0 0 0 0 0 0 -2.59308878924906 0 0
0 0 0 0 0 0 0 0 0 0 0.125034059799867 0.337621886221377 0 0 0 0 0 0 0 0 0 0 0 0 0 0 0 0 0 0 0 0 0 0 0 0 0 0 0 0 0 0 0 0 0 0 0 -7.44617546894854 0 0
0 0 0 0 0 0 0 0 0 0 0 0 0 0 0 0 0 0.0936209476140623 0.40197249336705 0 1.27515711529538 0 0 0 0 0 0 0 0 0 0 0 0 0 0 0 0 0 0 0 0 0 0 0 0 0 0 -1.15130503810275 0 0
0 0 0 0 0 0 0 0 0 0 0 0 0 0 0 0 0 0 0 0 0 0 0 0 0 0 0 0 0 0 0 0 0 0 0 0 0 0 0 0.293933943576315 0 0.819431606964607 0.0816543829774587 0 0.522352738732393 1.51850623393803 0.230819280593955 0 0 0
0 0 0 0 0 0 0 0 0 0 0 0 0 0 0 0 0 0 0 0 0 0 0 0 0 0 0 0 0 0 0 0 0 0 0 0 0 0.165489397440296 0.392571794097232 0 0.768103488797102 0.374157491364043 0 0 0 0 0 0 0 0
0 0 0 0 0 0.664622404964264 0.240200476669565 0.162908484176121 0 0.549269641503657 0 0.258356387611078 0.148374358719685 0 0.252490510071238 0 0.399870973643205 0.0818269594473618 0.0658928666505394 0 0.388680555085526 0 0 0 0.564152886597445 0 0 0 0 0.0674834532537836 0 0 0 0 0.182279573024081 0 0 0 0 0 0 0 0 0 0 0 0 0 0 0
