0.576694551796933
0.679410355894569
0.260159963369634
3.1683360780837
0.695457687283001
0.704173902648842
0.0192575584266135
0.210277285702322
0.22029272616326
0.461200630648675
0.157331788198095
0.423812774452375
1.31585549531155
1.2632794160749
0.19155704386526
0.162366551413406
0.142617375616835
1.36896859624113
1.8820532760545
4.26199945632672
0.371963977247237
0.734379021963993
0.706151798945513
1.0654414588806
2.31646687317926
0.500015293927783
0.509342527194883
1.37679797819585
0.330245717627018
0.0188967073233007
1.07184921494161
0.322196702412995
1.86545843802248
0.511138506110785
3.05345859267173
0.342845812816001
0.137510175594536
1.90700017676608
0.103743443081441
1.8313374923078
0.220816234053945
0.161793238111157
0.458251013617263
0.398042563278516
0.10326496482684
0.278800630639397
0.314660457011532
0.432685092549966
0.163308580814184
0.206046391162921
