0.765411360121415
0.419631591639537
0.165849073368382
2.02146114820856
0.961772701829962
2.07641218327281
4.66022474139481
1.60715356998008
1.57553208458771
0.800267772035143
3.24727716831908
0.271991027362476
0.965970616310455
0.364192688478016
0.748132487031333
0.0902336298680169
2.06410660118993
0.220517275049467
0.626219070793289
3.96016537282011
0.898215547210786
0.933713956375702
0.790183043886695
0.564849477523432
0.230557913046367
1.34427602085351
1.07773935632094
0.442550792377389
0.579419257015649
1.2127661307655
0.611428804319492
0.364851905151934
0.485583221998573
1.83286584861434
0.748266282674629
0.338839453052643
0.124502739777174
4.15262087652075
0.10128915917705
1.50321625315571
3.47468047894119
1.91453456451587
0.665980499647084
0.923594552476142
2.37443034465784
1.64487827371162
0.25081677022972
2.79768957493269
1.26677933667643
0.725973513911101
