0.655791119108229
0.970326903885365
1.19257159785858
2.0242698598449
0.332623804183262
0.699289019212796
1.62367652143264
0.310875886162565
0.448407598559147
1.59311098981829
0.903506268593082
1.01102118556859
0.054652857836842
1.54226560807361
0.99755654837068
0.278918158738068
0.92859374074716
0.138443464671088
0.303124681458097
1.33144030520445
1.10719449056735
0.889411533022424
2.27161867507909
0.104885647987854
1.3753033254865
0.920324403117346
0.564855740662544
0.390800794734557
0.712061038753822
1.23487149091342
0.0817494329323659
0.790136284017969
0.63096824718587
0.46309880321234
1.91104871387673
0.323572632788088
1.10726420865041
0.116666778886338
0.229027429205373
0.407962711371449
2.27863546128331
1.62980482513367
0.154977516123237
1.29601224688356
0.453648575217708
0.305297774988044
0.461606114277601
0.576462220881059
0.302925482170058
0.460637980734623
