0.195858474486035
0.210322551033533
0.530066074131396
0.447802039788338
0.151609995143897
0.226698516576717
0.43149786579579
0.816660253087168
0.218765425956063
0.892537474079089
0.354987951124414
0.226247096993317
0.239071614216111
0.863173569177289
0.322195372073118
0.186062565663879
0.510198310764864
0.317592535595206
0.444139175533589
0.672850933293154
0.605847777149075
0.371272851289904
0.765272310813688
0.754958674307833
0.213402612024671
0.604326479469557
0.295127675860405
0.566816403893781
0.40835820164578
0.319990496335923
0.712196614909852
0.584739612325589
0.382388230773519
0.733249395850353
0.249176048137905
0.554516090722929
0.729197227898698
0.677911268498219
0.085101267076094
0.307733385299549
0.331701417532285
0.85951612957117
0.543751928720838
0.687866552189265
0.704688011142413
0.430032305771282
0.850797823133821
0.332145148653829
0.564957146426001
0.466090695697944
0.0795734194301345
0.620946887717631
0.912955368928223
0.311178152900329
0.776399734550814
0.695233904086968
0.372681108594521
0.16403932563893
0.592557422652604
0.378436817468285
0.150239883704559
0.516432984644201
0.153220149495271
0.888683163165263
0.629452253210965
0.546040790381728
0.400816863036139
0.548172086835559
0.863187754091774
0.60060777155789
0.639826437906258
0.506029671729926
0.283748934312672
0.88401904359433
0.527160766710796
0.844253825523315
0.773657042463557
0.461268964259706
0.895238627961632
0.583078328052724
0.63122770763417
0.771781384816929
0.259297622044763
0.47432126624734
0.598489955416823
0.291363271686321
0.391738548349988
0.138664306384923
0.273977341570258
0.229564359495188
0.510915430784779
0.766212054788536
0.317448864779906
0.402432970168283
0.370889937993901
0.562400022247955
0.176619869338041
0.533638433427853
0.248804645134946
0.887537859805104
0.481930591143721
0.737245803244229
0.564291560892879
0.389803745983072
0.145429142671005
0.678011824753655
0.638965714283953
0.601360791150502
0.794011463030087
0.37885562853372
0.554801808298268
0.365353147836224
0.482020029880336
0.297532169510679
0.617017314442967
0.579714728539969
0.165898343679362
0.765644319171995
0.177930662052349
0.299268001686494
0.370000668649677
0.393342588801078
0.158773817612847
0.54163559770432
0.784663552064165
0.308203937379863
0.708866985668826
0.110236370911013
0.134857258957454
0.841374104564845
0.0869356931388487
0.249768393334358
0.722066553703512
0.488201029927305
0.435225089551385
0.764207784192907
0.573129879753096
0.129705995991944
0.43107292145818
0.191536800807575
0.454294864198535
0.241639253236874
0.193971103552486
0.438381585744741
0.342643362514325
0.50933332307985
0.339236121738188
0.168088768481493
0.175423469511627
0.329196860287545
0.841498547293128
0.266360014802714
0.674188322217984
0.444359546699337
0.218034678364659
0.541166275426265
0.192513088625799
0.773059666192608
0.506731664929772
0.105848645578039
0.601953479648688
0.0878934170817801
0.351336047893353
0.71943894989716
0.430104414383247
0.0898327151109369
0.770771722963001
0.824779382457662
0.0951363709464371
0.559765971541813
0.158395679569176
0.324230595918937
0.804410192078938
0.622477038735722
0.782970630547058
0.213200724815273
0.0755289535777213
0.300119884052817
0.628076339952514
0.861740076410447
0.630703921282752
0.800489973529984
0.273784211149609
0.347352751388101
0.315282454271085
0.527819680118427
0.474861653908307
0.464386292226413
0.710023301074418
0.627864653797233
0.358803628373236
0.49186852180911
0.235501352053564
0.462975466971907
0.641272068194208
0.202741183520578
0.440056037211326
0.707777066553573
0.367294322386135
0.374527838579821
0.331604146760386
0.42513658877944
0.720512029001451
0.189704401271126
0.482764327741565
0.34097346850168
0.714247021227705
0.475825362702861
0.665085582887629
0.154324895029418
0.606731473585235
0.679719757238814
0.404550287495562
0.152920288251199
0.403962804590736
0.85879103001345
0.487068758509393
0.121941952340673
0.480701239477908
0.175899550359023
0.423541350121817
0.110892306859941
0.522336425864274
0.672644475209481
0.202298588764465
0.719580972762016
0.0386345148078187
0.698034391852761
0.274504684486193
0.873603557570261
