0.848754536230483
0.153844858689159
0.563964626620094
0.251230700797112
1.02031860008666
0.471494858824871
0.111441845591071
0.204645408377501
0.160906188926691
0.371696251977553
0.810386051358089
0.227645844039027
0.26525968776648
0.616654499590265
0.147479035181789
0.205481697806205
0.116311716271073
0.0466632222529564
0.133400921275605
0.106323240913565
0.536340052984547
0.733126243532043
0.869993395668871
0.220827259731091
0.23010950739587
0.722835110184097
0.502714236642763
0.37463221377225
0.466241459184298
0.45157802819351
0.623345565704722
0.293034703742153
0.574702904959614
0.0925522491630819
0.525569647720549
0.0967916072968528
0.96342512793182
0.404452263616852
0.188471029316512
1.04733557209083
0.0186256058019044
0.721513350413521
0.310759053185667
0.369817917626709
0.972217134594359
0.663705809650674
0.41639375512721
0.146730715808613
0.868619317436831
0.593093356905706
0.521799214281775
0.39658502953351
0.0415949603236232
0.0580122809066245
0.723795495785545
1.02392094636456
0.326512684665855
0.294037478911338
0.634018362266207
0.182777662496593
0.297928841997088
0.641837546188057
0.848092801070723
0.164488661506847
0.0496906817774342
0.467017532914241
0.761744296702372
0.0404356619241403
0.24008847972494
0.251956943129381
1.00428806685707
0.526304535116057
0.475223033984455
0.885529428709106
0.629541966143572
0.513541403091643
0.180411693675639
0.107109872513774
0.899245667467374
0.364273694118026
0.591422904320125
0.587024346309111
0.889973449976378
0.824842615348207
0.15613257057286
0.721156762132428
0.0973630475348901
0.298427699577105
0.323541718277986
0.365572164535237
0.442631044496573
1.05671785215875
0.775236618047704
0.709995378685482
0.406152939693007
0.15352470089651
0.123456203975497
0.369655632452847
0.159550631438063
0.570247117181265
0.393172314241524
0.731299012168881
0.74079352772508
0.423654181981827
0.492885922242199
0.313592522298314
1.04721731128749
0.362862399531188
0.577312728858602
0.337707150880223
0.883385921877522
0.257058840634279
0.654667395693535
0.309657637578604
0.441231120244756
0.797493273192815
0.12337197607414
0.168233192606567
0.0871954799253312
1.04573703185874
0.57374216382349
0.734762606760775
0.352476976799505
0.511725306341056
0.522953606599121
0.629258037685288
0.889776226576628
0.0246573653801819
0.884845067650312
1.02050106406101
0.305894665605632
0.600899984494429
1.05118442712364
0.741128691855862
0.309157643815632
0.279416837635348
0.183393384823124
0.659929492753518
0.81977587410424
0.171934197022918
0.498897368461833
0.708294940756257
0.318305553583486
1.04847370551637
0.277659586107285
0.438687492197697
0.932441572120834
0.875792073986264
0.0276405894245508
0.241557122658139
0.537167556863617
0.110779338106849
0.939198120554173
0.234555774144913
0.329023332268165
0.20711737738529
0.0369963488221861
0.989186598637487
0.726995834697127
0.169835732872736
0.335614807329969
0.841331724252654
0.254080329327447
0.0351741978185801
0.552494314073288
0.100600118997309
0.471695883304839
0.633381882918178
0.307210365268229
0.148568362814863
0.663246550107539
0.150153764480972
0.266701805140177
0.161221536929508
0.359807482655683
1.03983483875513
0.201875676955508
0.765471120225923
0.462826946247125
0.115542790250511
0.734208339538345
0.482427351773863
0.22442135501834
0.280694850148803
0.0853980858816023
0.219607552467184
0.477813353137657
0.327787793304827
0.211039639102481
0.129683102883919
1.04525352325052
1.0337097997288
0.521791591090301
0.852405404180149
0.414825965998792
0.751733387676742
0.811484997370828
0.208849100031921
0.0834200097042529
0.228391722470868
0.14498220759527
0.953247116048859
0.593804411956763
0.646014229375001
0.140293768390959
0.66052376424753
0.0751076067225837
0.058647743529681
0.51358675383999
0.832361089967128
0.773949973148798
0.726902765964371
0.089879284209816
0.513575527871566
0.422395115546987
0.5752828576187
0.918290487646206
0.464741778610945
1.04057102311602
0.341473864834927
0.400327155522575
0.600380508474502
0.135609120707709
1.06299150209854
0.540389406165501
0.328323415576892
0.371914551400973
0.147785642153826
0.263687119382398
0.344794109936186
