0.449144529594367
0.630090688360204
0.608413480716874
0.223863170654855
0.317630884976432
0.384468108731445
0.377888863662933
0.292547944028848
0.157092951147339
0.130924195008597
0.634341812147714
0.638127336121761
0.351013387597156
0.603321766362356
0.540220869510937
0.386620755353808
0.315619148686488
0.294776481299609
0.453145918172007
0.602343610141155
0.314014460105131
0.418628664973615
0.42471550145492
0.096461700867552
0.0287084925384506
0.400649334469686
0.345300836251086
0.107211754174609
0.0289036083460933
0.277613682731629
0.34900537641584
0.414855686162827
0.113672657708201
0.305518572306607
0.137215235102836
0.379810345675675
0.093579020404282
0.194475805546772
0.568352046241789
0.609703013295188
0.188051313576621
0.536012716404674
0.402057520480578
0.430788262260129
0.0678774531064847
0.443209242933706
0.13443211548313
0.324842742613376
0.487632721836846
0.12959713793297
0.173309929562634
0.320565259033166
0.245391869678721
0.645819192616979
0.130324041921581
0.380778261381031
0.428684418647558
0.349677350038019
0.405290946382378
0.324768292171211
0.123478116478297
0.220263529798802
0.258390274755269
0.527238417482387
0.212539126753251
0.28178014427943
0.660100699019623
0.494299829096568
0.476870703903903
0.370107089206689
0.265121094887157
0.130294747571964
0.430562405274284
0.16343446360066
0.548973138357433
0.52349973611026
0.446539724322345
0.321327433577877
0.50960329975941
0.183619516475682
0.200708236973912
0.0802975947219062
0.062068036490091
0.525582669734291
0.228481197371285
0.117542372300564
0.370069724077693
0.566429382161634
0.394263460182335
0.252673107926312
0.122646987203121
0.38581332878045
0.339350276201386
0.0793883371099575
0.474638042176195
0.501205809201969
0.3199112012075
0.17296416479391
0.611510699950836
0.352363106338573
0.646501084748645
0.362683724789182
0.476314213058548
0.494754666733324
0.440244307970651
0.132306296083855
0.340525811951904
0.174733344134685
0.112024824577609
0.242458001629098
0.245742484546477
0.139388413058451
0.137465064420258
0.607812450294888
0.433652654708344
0.620528243601598
0.0556491434596681
0.145956978875572
0.357130102215571
0.212720735108734
0.177908701400693
0.170518852515074
0.519428951722132
0.575057859878908
0.609210006531137
0.38053419552313
0.445338308980713
0.568977840328622
0.468164126204368
0.271580441537221
0.408057202661544
0.624311504845016
0.660722770695478
0.210544102853478
0.246135016279738
0.208374178736957
0.644376735086062
0.61374366971561
0.229108893691716
0.220119831200347
0.398035537885525
0.481905501652872
0.294161692946584
0.246055838667528
0.202774566094969
0.323816545049705
0.0282114085118739
0.375412378925971
0.551104798341521
0.234777117175066
0.28923817974488
0.483946637360839
0.135716221812119
0.459069307189514
0.0848280116741885
0.393729121640179
0.159556862885869
0.0249056823338809
0.342097616737896
0.622883183833237
0.356812379912231
0.623454613994469
0.162680400810545
0.0428908220543826
0.118093517060223
0.39309611172042
0.356023070502254
0.530591983246675
0.448888854676972
0.536688502805595
0.473971656623726
0.326914880935797
0.398653213329682
0.103940534064264
0.301843077869793
0.394096615077545
0.664595926441402
0.0844471451274414
0.23915894721784
0.640016749490684
0.632238339093487
0.466995283618338
0.131976028014503
0.445043087326808
0.282529822109125
0.282380878033191
0.333343044196155
0.454671779849851
0.176092231227569
0.226406829332742
0.215740294614834
0.0420413585169838
0.377938304434504
0.403178464864257
0.26564527854978
0.507910137608263
0.337577187435633
0.266367879765114
0.121518125699723
0.015521790761914
0.215387247602693
0.17652226426834
0.470490829739652
0.653340207129696
0.41215304651469
0.344139799616444
0.458841220010775
0.326894381241487
0.206684253748801
0.191232965157332
0.50801185675642
0.20349044679047
0.229481561158815
0.145092598092128
0.21483805141643
0.421799948293476
0.445679678776097
0.273000285492202
0.58069871108641
0.259528474294427
0.181003584396116
0.0265077913099809
0.447193319126035
0.148975690257626
0.233130171470073
0.104725084510685
0.40854143301434
0.514025449156624
0.497579184903084
0.020620343046478
