0.470212049888347
0.417859113780338
0.480528529068931
0.239451025211705
3.28470290455674
0.556501440107459
0.395201418008352
0.763388472113122
0.992183245789602
0.151999385802619
0.0961018559590548
2.12484140926018
1.27609556760172
0.516717363351783
0.222483571525542
2.38484313977325
2.96315120464122
3.09919879615969
0.0318947558708926
0.326302430135537
0.85754045743872
1.39252474260433
0.409646682883485
0.446819396880683
1.22761810652313
1.17302119144543
1.51217881825213
0.23785243352375
0.840900872544491
1.85318419292586
1.27477436707889
1.63627549428873
0.71695850945222
0.361353771179191
3.25678062628382
1.28080719053512
1.21738689116857
3.16402473620392
0.120859405571692
1.39411496461678
1.88264112332469
0.0756166777756055
3.03389330887916
3.04371739182884
1.81280851807943
0.952792429317815
1.77434487612569
1.03562314886623
0.317972227487521
2.42249556785661
0.657295015974212
1.73225541020895
0.796012508999606
0.381753254983303
0.208233322519008
3.09217145454213
0.606959368774936
1.81637172021863
1.33175817113673
0.403060430285379
0.806439585187641
2.93391275970301
1.64712080424856
0.555874586694982
0.855118810008822
0.513722986180276
1.21186370565132
0.691640909445309
0.640219226924725
0.731377524689833
0.751886514543163
2.59043676203343
1.92881449991149
1.88748271059481
0.223927794748038
0.44644252829065
0.534034871628192
0.151703682331722
1.13800968222038
2.17351695650596
1.17549612355707
2.86017117654986
0.0910011967564754
2.63289334298771
1.00565352918466
1.47929311262019
1.52734932507474
0.626864924705535
0.568602809820887
0.786451991057952
0.693727583513882
0.411439517269242
