3.50394215710206
0.439768507518808
1.30660399452217
1.36565171938643
0.478981672343091
0.829459031400537
0.396506223370034
2.19040714388128
1.84481577581793
0.754111232195557
3.02484398925663
0.486067184068366
0.921956015107915
0.556656389669173
5.03461511067636
0.319384882737955
1.54412219494587
0.575837686541077
1.17703042799932
0.818001212976792
0.94537294244595
3.36424009876101
1.87066954977567
4.30460244505981
2.10665386068074
2.53320110986041
0.397830180847815
3.80735450185289
0.570948898134303
0.335428871218308
0.45456541009072
0.498344607500296
1.05364967263612
1.38059565865031
0.19101066553271
1.30338877404107
0.507108696029227
0.614563154517371
0.55511229456788
1.52329257625644
0.0992339445174565
0.812129995213504
2.27576375938473
1.32093637223671
2.13833719545315
0.471392581628849
0.48929248320593
0.282524228747698
0.359942718606228
4.13781502522927
2.91778543302706
4.8656589555224
4.61193990645803
3.49065496018033
0.398854759008155
1.18585940449395
0.789639401580267
1.17487115154573
0.576046803325847
0.433338551337663
0.93552165669281
0.153612138832652
1.06259041155515
0.946186266055675
0.803909524593147
0.225631561976131
4.88472767510978
0.120293829946028
0.483524481200952
1.08666498590591
1.33214611399667
3.13839886706397
0.675620016044407
0.281168789150632
0.372308117613116
2.43059379446923
1.25726481657068
0.643444702131722
0.187096726072627
1.25034432247812
1.88467331614819
2.06511811162393
0.442095489242143
1.61141099068725
0.955008718061027
0.442548466429553
0.254144596808407
0.445191119342177
0.869744079521192
0.233939328071616
0.941961882057217
1.81676771196335
