0.492803533903891
0.4141125602973
0.965416108471615
0.87694236591621
2.33288948376036
0.759431651322418
1.02353224838185
1.19546856766586
0.722799495152204
1.37791817759204
0.726129825415861
1.15538567459575
0.768447973317245
0.582058044226201
0.624068275069597
1.45233222471959
1.37610662653454
0.958801155239452
0.577630661125744
2.16177479451413
0.330350630991235
0.307358645173358
0.428531259768645
0.910493745142733
0.173607384430598
0.0986351414599499
0.530411764994395
0.170618711076412
0.556385871086916
0.3476542200115
1.24104831644936
2.15965228588145
2.0192731153448
0.59582977461144
0.56393898025984
0.348722438752037
0.685041868701124
0.377986511852858
0.48913396788616
0.352049424247798
0.556434940843955
0.765710237576174
1.1912053829378
0.338585386821864
0.856229610279657
1.07786968407805
0.697999716412046
0.165685677328841
0.876870585268267
0.392292118528675
1.47604591274144
1.17794531962682
0.143481387460745
0.449728304901373
1.07416686465994
2.16395616273792
1.53296810317753
0.568030363059152
2.27714071244886
0.893804949520207
1.37330370697768
0.250706767549006
0.403441162264637
0.509539954238272
0.604739717757163
0.814455679831639
0.137693926183765
2.09856981754597
0.580468222964787
1.02409245492148
1.61156984957158
1.08293296333242
2.06876226335878
0.145799088617862
1.31406612401883
2.41443616719676
0.564315149124902
2.14286808205661
1.19624845345795
0.90114683923621
0.337112085083682
1.054535633559
1.19177833013057
0.93196175673777
0.515812851731438
1.00606169370905
0.454784616103527
0.69311088798917
0.284536494566549
1.70261945282889
0.867133566573561
0.333966749030206
