0.132224240733165
0.264460746564548
0.973637362714913
0.116413712676345
3.8756713661381
0.386470850540684
0.60443010319109
1.7033928035914
1.27538005697514
3.72871915026931
3.20079020869719
0.957880535719359
0.703782997934611
1.17351851146701
1.02122894471189
3.50151914624611
4.00041139509821
1.3748334048567
9.26408735154579
0.224045152701921
0.831595189166989
1.20805467214951
0.506169147651905
0.136487199831568
3.1324729457813
0.347804579079839
0.503475444348591
0.466859360048179
0.154136708480528
0.980769353198581
1.69118194623982
0.474380353840046
0.488737259213755
8.13189329614353
1.60760220101416
2.45580870555329
2.21331214039894
1.46677016794777
3.10618081110067
2.50843238635037
3.65205162991695
3.6506547030539
0.099008560484292
0.596139142903181
0.623820923569629
1.26236417429555
0.87002417341648
0.352740793717378
0.677318398457284
1.02857160335352
0.6243141297995
1.09434122772881
0.865510737806558
1.34457532711458
0.694787183589399
1.45662867100493
3.70173397818734
0.701226956805139
0.123775065372841
11.0743353650237
1.7322857480672
5.53496784450416
0.515176257609407
0.697226148401994
0.339259204551155
0.795809072958506
1.83696822028869
0.755237066226941
0.542064545036432
3.75640101159775
1.24567086412523
0.270449146912492
1.6734516029611
1.43277723847424
1.70405517064961
0.924003257583831
2.32413776002093
1.045283458842
0.704038565040235
0.492911072035175
2.13682498310178
0.871454301476442
0.173144830213158
0.594197965224425
0.568578982387803
0.391407839474049
0.503267881303417
0.181874308420988
1.83147916149544
1.32440928310084
2.49741236174002
1.03890231048348
0.326562545990369
1.88786824569588
0.433104017535298
2.34346012714626
0.795269367148217
0.256415603438345
0.73119107797683
1.44890832690232
2.71906602781352
1.22255407960393
6.68701814816774
0.821506543527314
0.592478453278611
0.551685180246814
0.88389127402085
0.300841932965804
0.664839279712264
0.516931998034211
1.33657035183654
0.826992187576967
0.345588772203053
1.23509428949032
7.97662903062423
1.75948164685789
0.683646082674499
0.208329575717762
3.41869420651307
0.471477033473049
1.08258779022925
0.444871514667773
0.339686785086812
3.52438351831742
4.96614174602661
3.01681418200451
3.99030565089451
1.27232529277661
0.258633833575341
0.730787009898566
1.6614702360648
1.15381508089908
4.42120492129487
1.51231670370014
1.69310462372356
0.9358219944782
1.51580471484678
1.81999668982777
4.68366463003991
0.334179851564779
0.354377942399585
2.37649614335123
3.51611942431681
0.520226574104967
1.56857602943127
3.42094567600691
3.80620612983219
2.15753384640211
1.47068747058754
1.15917346399434
0.170372018834489
0.632255250382666
1.44843230393878
0.1810846427368
0.797296780247708
0.809953837367553
2.10769188057094
2.6791594597223
2.97177036311998
1.23079900142003
0.943773692444919
5.61975199824685
0.512700890697798
0.222989523007789
0.949711654522407
0.213364924009539
0.339572351695368
1.3374538880331
2.33407518760721
0.374618377854564
1.43353563130944
0.849447351226512
1.78249980115214
0.143933001510715
0.603786315277478
1.12532108781334
1.18521414866713
0.571988095706374
0.296783730196333
0.528593092531791
