1.02428839630026
2.41622037714749
0.300293150643136
1.5654320964721
3.02358448398999
0.639391836994845
0.379845537167389
0.539923490881406
0.343704007968329
2.58052745700706
0.294195042289075
1.37690149188397
0.259522798562376
0.632695570659334
0.242986422489358
0.715434967842752
2.30365441158641
1.2601256189208
0.873555698713245
0.589069103702726
1.03815516029781
0.572428703580928
1.93268110848728
8.73322129549465
2.80166811634043
0.711595221030986
4.90287429857362
0.266534343296869
1.25000492484381
2.69972186508513
2.94781077842216
2.92839602036194
1.65013725089412
2.37567816470971
7.18190599104075
0.65701970813247
0.479242230355499
1.05265173155403
1.22563635894181
1.88923818255788
1.06473952389571
1.0031587617554
0.292144139234296
0.463094514301634
0.375518883336128
3.29921899025444
0.823224772561665
6.8027960308305
2.35902020664288
2.11379550288676
