-0.095042537949377 0 0 0 0 0 0 -0.931021900566315 0 0 0 0 -0.257927952994508 -0.623835094169203 0 0 0 0 0 -0.402647707450152 0 0 0 0 0 0 0 -0.122670402280743 0 0 0 0 -0.61723311516106 -3.14344045830617 0 0 0 0 0 0 0 0 0 0 0 0 0 0 0 0
0 -0.095042537949377 0 -0.304474223510548 0 0 0 0 0 0 0 -0.74749612592433 0 0 0 0 0 0 0 0 0 0 0 0 0 0 0 0 0 0 0 -0.710497630595408 -0.132420092327761 0 0 0 0 0 0 0 0 0 0 0 0 0 0 0 0 0
0 0 -0.095042537949377 0 0 0 0 -1.22341011777371 0 0 0 0 -1.79840298309184 0 0 0 0 0 0 -0.505367446437569 0 0 -0.133389535235196 0 0 0 -1.64001483760883 0 0 0 0 -1.46679245490447 -0.453739849675728 -2.06468660888904 -1.09916700630006 0 0 0 0 0 0 0 -0.607248999283815 0 0 0 0 0 0 0
0 0.064797453204204 0 -0.095042537949377 0 0 0 0 0 0 0 0 -3.98674504294111 0 0 0 0 0 0 -0.199357914299553 0 0 -0.365177582579409 0 0 0 0 -7.84705196598307 0 0 0 0 0 -1.40618573582509 -1.96702502995169 0 0 0 0 0 0 0 0 0 0 0 0 0 0 0
0 0 0 0 -0.095042537949377 0 -0.670848267702127 0 0 0 0 0 -1.04275873569372 0 0 0 0 0 0 0 0 0 -1.22562564986951 0 0 0 0 -1.71099051694688 0 0 0 -1.51571741707768 -0.949857042381535 -3.65102976796439 -0.153643531807951 0 0 0 0 0 0 0 0 0 0 0 0 0 0 0
0 0 0 0 0 -0.095042537949377 0 0 0 0 0 0 0 0 0 0 0 0 0 0 0 0 0 0 0 0 -0.905778229816897 -2.99796701046011 0 0 0 0 0 0 -1.20605134653619 0 0 0 0 0 0 0 0 0 0 0 0 0 0 0
0 0 0 0 0.134670952674894 0 -0.095042537949377 0 0 0 0 0 0 0 0 0 0 0 0 0 0 0 0 -0.824286003911577 0 0 0 0 0 0 0 -0.258134006552172 -0.570736577643886 0 0 0 0 0 0 0 0 0 0 0 0 0 0 0 0 0
0.178497143037838 0 0.253386939681146 0 0 0 0 -0.095042537949377 0 0 0 0 0 0 0 0 0 0 0 0 -2.24440946437128 0 -0.896959055323051 -1.7255832346679 0 0 0 0 -0.907869486456266 0 0 0 -0.564793406860537 0 -2.05521723268234 0 0 0 0 0 0 0 0 0 0 0 0 0 0 0
0 0 0 0 0 0 0 0 -0.095042537949377 0 0 0 0 0 0 0 0 0 0 0 -0.187317636558706 0 -1.10273352163723 -0.791046769790211 0 0 0 0 -2.2416121661475 0 0 0 -1.25321563051349 0 -0.338914872762383 0 0 0 0 0 0 0 0 0 0 0 0 0 0 0
0 0 0 0 0 0 0 0 0 -0.095042537949377 0 0 0 0 0 0 0 0 0 0 -0.307346260490363 0 0 -0.977298831328474 0 0 0 0 0 0 0 0 0 0 0 0 0 0 0 0 0 0 0 0 0 0 0 0 0 0
0 0 0 0 0 0 0 0 0 0 -0.095042537949377 0 0 0 0 0 0 0 0 0 -0.948517203085384 0 0 -0.467742808027718 0 0 0 0 -0.495970730631325 0 0 0 0 0 0 0 0 0 0 0 0 0 0 0 0 0 0 0 0 0
0 0.145731360403535 0 0 0 0 0 0 0 0 0 -0.095042537949377 0 0 0 0 0 0 0 0 0 0 0 -0.849188713123951 0 0 0 0 0 0 0 0 0 0 0 0 0 0 0 0 0 0 0 0 0 0 0 0 0 0
0.0489443948281546 0 0.359803971139987 0.757526622656934 0.206890492089541 0 0 0 0 0 0 0 -0.095042537949377 0 0 0 0 0 0 0 -0.952413515947031 0 -2.12361600643459 0 0 0 0 0 -0.563736557537431 0 0 0 0 0 0 0 0 0 0 0 0 0 0 0 0 0 -2.48354370962677 0 0 0
0.109923367383191 0 0 0 0 0 0 0 0 0 0 0 0 -0.095042537949377 0 0 0 0 0 0 -1.51825742950255 0 0 0 0 0 0 0 -4.47984476139362 0 0 0 0 0 0 0 0 0 0 0 0 0 0 0 0 0 -0.392896933191753 0 0 0
0 0 0 0 0 0 0 0 0 0 0 0 0 0 -0.095042537949377 -2.18578178493241 0 0 -2.16018716717155 0 0 0 0 0 0 0 0 0 0 0 0 0 0 0 0 0 0 0 0 0 0 0 0 0 0 0 0 0 0 0
0 0 0 0 0 0 0 0 0 0 0 0 0 0 0.431297208512139 -0.095042537949377 0 0 0 0 0 0 0 0 0 0 0 0 0 0 0 0 0 0 0 0 0 0 0 0 0 0 0 0 0 0 -0.41014031679915 0 0 0
0 0 0 0 0 0 0 0 0 0 0 0 0 0 0 0 -0.095042537949377 0.302446722693555 0 0.238738560118166 0.0711912988504896 0.085634611922162 0 0 0 0 0 0 0 0 0 0 0 0 0 0 0 0 0 0 0 0 0 0 0 0 -3.73002175748438 -0.341453350837899 0 0
0 0 0 0 0 0 0 0 0 0 0 0 0 0 0 0 -1.51408242231054 -0.095042537949377 0 0 0 0 0 0 0 0 0 0 0 0 0 0 0 0 0 0 0 0 0 0 0 -0.263030541508057 0 0 0 0 0 0 0 0
0 0 0 0 0 0 0 0 0 0 0 0 0 0 0.438032508861955 0 0 0 -0.095042537949377 0 0 0 0 0 0 0 0 0 0 0 0 0 0 0 0 0 0 0 0 0 0 0 0 0 0 0 -2.22287066914243 0 -1.94877514234862 0
0.0810059117408582 0 0.109883293852792 0.0385268853550957 0 0 0 0 0 0 0 0 0 0 0 0 -1.24106352406634 0 0 -0.095042537949377 0 0 0 0 0 0 0 0 0 0 0 0 0 0 0 0 0 0 0 0 0 0 0 0 0 0 -0.962433325134644 0 0 0
0 0 0 0 0 0 0 0.416824568506574 0.0368270799159536 0.0598183834722265 0.186005936469145 0 0.195995331886488 0.305620079220657 0 0 -0.333195109550401 0 0 0 -0.095042537949377 0 0 0 0 0 0 0 0 0 0 0 0 0 0 0 0 0 0 0 0 0 0 0 0 0 0 0 0 0
0 0 0 0 0 0 0 0 0 0 0 0 0 0 0 0 -0.418598920262795 0 0 0 0 -0.095042537949377 0 0 0 0 0 0 0 0 0 0 0 0 0 0 0 0 0 0 0 0 0 0 0 0 0 -0.31430698643651 -4.14885170675239 0
0 0 0.0266960428868829 0.0713955250358391 0.243100668566703 0 0 0.179475499211382 0.221590341694415 0 0 0 0.426254722728982 0 0 0 0 0 0 0 0 0 -0.095042537949377 0 0 0 0 0 0 0 0 0 0 0 0 0 0 0 0 0 0 0 0 0 0 0 0 0 0 0
0 0 0 0 0 0 0.174522518692381 0.345208602897638 0.167845440555194 0.184944312289009 0.0855180458359421 0.153664497632853 0 0 0 0 0 0 0 0 0 0 0 -0.095042537949377 0 0 0 0 0 0 0 0 0 0 0 0 0 0 0 0 0 0 0 0 0 0 0 -0.517565142319574 0 0
0 0 0 0 0 0 0 0 0 0 0 0 0 0 0 0 0 0 0 0 0 0 0 0 -0.095042537949377 0 0 0 0 0 0 0 0 0 0 0 0 0 0 0 0 0 0 0 0 0 0 0 -0.123204789379142 0
0 0 0 0 0 0 0 0 0 0 0 0 0 0 0 0 0 0 0 0 0 0 0 0 0 -0.095042537949377 0 0 0 0 0 0 0 0 0 0 -2.29825768294889 0 0 0 0 0 0 0 0 0 0 0 0 -0.40460896146633
0 0 0.31870216897027 0 0 0.176875116585308 0 0 0 0 0 0 0 0 0 0 0 0 0 0 0 0 0 0 0 0 -0.095042537949377 0 0 0 0 0 0 0 0 -0.197234943230507 0 0 0 0 0 0 0 0 0 0 0 -0.654656254719071 0 -1.91827216266997
0.0236194372603174 0 0 1.62829431498751 0.3105718056478 0.585785199542167 0 0 0 0 0 0 0 0 0 0 0 0 0 0 0 0 0 0 0 0 0 -0.095042537949377 0 0 0 0 0 0 0 -3.46669474519549 0 0 0 0 0 0 0 0 0 0 0 -0.331369308066432 0 0
0 0 0 0 0 0 0 0.182397627328706 0.461738403832881 0 0.0920227597214685 0 0.110611578752288 0.893150665603738 0 0 0 0 0 0 0 0 0 0 0 0 0 0 -0.095042537949377 0 0 0 0 0 0 -1.42556046379716 0 0 0 0 0 0 0 0 0 0 -1.03094499582906 0 -1.7050358047401 -0.497628654115229
0 0 0 0 0 0 0 0 0 0 0 0 0 0 0 0 0 0 0 0 0 0 0 0 0 0 0 0 0 -0.095042537949377 0 0 0 0 0 -0.625194549196122 0 0 0 0 0 0 0 0 -0.446890000031656 0 -0.173216649713626 -0.479790299546557 -0.835814328952095 -4.23100555462103
0 0 0 0 0 0 0 0 0 0 0 0 0 0 0 0 0 0 0 0 0 0 0 0 0 0 0 0 0 0 -0.095042537949377 0 0 0 0 -1.02739117917334 0 -0.878185145021043 0 0 0 0 0 0 0 0 0 0 0 0
0 0.145630636132618 0.295852855018691 0 0.311560624493989 0 0.0487079772614804 0 0 0 0 0 0 0 0 0 0 0 0 0 0 0 0 0 0 0 0 0 0 0 0 -0.095042537949377 0 0 0 0 0 -8.08554731432134 0 0 0 0 0 0 -0.297957773516561 0 0 0 0 -0.654164831355947
0.124142739982345 0.0274428176945493 0.0868069676260116 0 0.197602850296232 0 0.105166650871902 0.113488808440306 0.252754497828013 0 0 0 0 0 0 0 0 0 0 0 0 0 0 0 0 0 0 0 0 0 0 0 -0.095042537949377 0 0 0 0 0 0 0 0 0 0 0 -0.55246732264509 0 0 0 -0.30587597021352 0
0.640646521916906 0 0.425958804704714 0.295083040322053 0.768331950320211 0 0 0 0 0 0 0 0 0 0 0 0 0 0 0 0 0 0 0 0 0 0 0 0 0 0 0 0 -0.095042537949377 0 -0.717672378911324 0 0 0 0 0 0 0 0 0 0 0 0 -0.391970831399041 0
0 0 0.223112756456617 0.389134642561487 0.0303129199235839 0.234469446821777 0 0.419994418772246 0.0661715186313202 0 0 0 0 0 0 0 0 0 0 0 0 0 0 0 0 0 0 0 0 0 0 0 0 0 -0.095042537949377 -0.912215483223 0 -1.79785613513501 -0.64561719065391 0 0 0 0 0 -2.32552592310905 0 0 0 -0.87901045004832 -0.648102298077438
0 0 0 0 0 0 0 0 0 0 0 0 0 0 0 0 0 0 0 0 0 0 0 0 0 0 0.0380770425575636 0.688567694238567 0.286936797513997 0.127893217647732 0.208926919411679 0 0 0.135862155625568 0.174764177234346 -0.095042537949377 0 0.167636870420154 0.35424824014314 0 0 0 0 0 0 0 0 0 0 0
0 0 0 0 0 0 0 0 0 0 0 0 0 0 0 0 0 0 0 0 0 0 0 0 0 0.440123733015058 0 0 0 0 0 0 0 0 0 0 -0.095042537949377 0 0 -0.115020903466877 0 0 0 0 0 0 0 0 -0.886575107089595 -0.66608999670173
0 0 0 0 0 0 0 0 0 0 0 0 0 0 0 0 0 0 0 0 0 0 0 0 0 0 0 0 0 0 0.179120378335262 1.62186206865312 0 0 0.361186107407542 -0.849365773641608 0 -0.095042537949377 0.0562375046545439 -0.380765657400908 0.0700655499822621 0 0.218367461735684 0 0 0 0 0 -0.18399578430643 -0.26985860885512
0 0 0 0 0 0 0 0 0 0 0 0 0 0 0 0 0 0 0 0 0 0 0 0 0 0 0 0 0 0 0 0 0 0 0.131906764797304 -1.78740645569047 0 -0.273934884119423 -0.095042537949377 0 0 0 0 0 0 0 0 0 -0.509629134801068 0
0 0 0 0 0 0 0 0 0 0 0 0 0 0 0 0 0 0 0 0 0 0 0 0 0 0 0 0 0 0 0 0 0 0 0 0 0.0221044543248365 0.076181086457962 0 -0.095042537949377 0 0 0 -0.648513043842248 0 0 0 0 -0.323092904217266 0
0 0 0 0 0 0 0 0 0 0 0 0 0 0 0 0 0 0 0 0 0 0 0 0 0 0 0 0 0 0 0 0 0 0 0 0 0 -0.343950521513859 0 0 -0.095042537949377 0 0 0 0 0 0 0 -0.616307710510233 0
0 0 0 0 0 0 0 0 0 0 0 0 0 0 0 0 0 0.0552468223269239 0 0 0 0 0 0 0 0 0 0 0 0 0 0 0 0 0 0 0 0 0 0 0 -0.095042537949377 0 0 0 0 0 0 -1.83394563692378 0
0 0 0.119874275579412 0 0 0 0 0 0 0 0 0 0 0 0 0 0 0 0 0 0 0 0 0 0 0 0 0 0 0 0 0 0 0 0 0 0 -1.02083139691077 0 0 0 0 -0.095042537949377 0 0 0 0 0 0 0
0 0 0 0 0 0 0 0 0 0 0 0 0 0 0 0 0 0 0 0 0 0 0 0 0 0 0 0 0 0 0 0 0 0 0 0 0 0 0 0.126255625241123 0 0 0 -0.095042537949377 0 0 0 0 -0.832123202130477 0
0 0 0 0 0 0 0 0 0 0 0 0 0 0 0 0 0 0 0 0 0 0 0 0 0 0 0 0 0 0.0913621581610766 0 0.0580058308013982 0.117277878359927 0 0.479520357721895 0 0 0 0 0 0 0 0 0 -0.095042537949377 0 0 0 0 0
0 0 0 0 0 0 0 0 0 0 0 0 0 0 0 0 0 0 0 0 0 0 0 0 0 0 0 0 0 0 0 0 0 0 0 0 0 0 0 0 0 0 0 0 0 -0.095042537949377 0 0 -3.3451353552124 0
0 0 0 0 0 0 0 0 0 0 0 0 0.506618262368156 0.0763590419318021 0 0.0817135557594256 0.758988889730573 0 0.450858382871488 0.177284962772148 0 0 0 0 0 0 0 0 0.228057149660893 0.0340113025989462 0 0 0 0 0 0 0 0 0 0 0 0 0 0 0 0 -0.095042537949377 0 -1.85835463449765 0
0 0 0 0 0 0 0 0 0 0 0 0 0 0 0 0 0.0679130483232715 0 0 0 0 0.0610139953232962 0 0.0958630176457594 0 0 0.136265894499589 0.0647384397268862 0 0.0964808173001902 0 0 0 0 0 0 0 0 0 0 0 0 0 0 0 0 0 -0.095042537949377 0 0
0 0 0 0 0 0 0 0 0 0 0 0 0 0 0 0 0 0 0.394226186451486 0 0 0.789415609797587 0 0 0.0265594545166289 0 0 0 0.351919801555498 0.147109673559903 0 0 0.0608570702466579 0.0783087478223831 0.18299023590371 0 0.173145032601558 0.0371332257246316 0.109283892968301 0.0672280295575872 0.126156866194803 0.339686580897123 0 0.18446425649554 0 0.660378997198257 0.353890563068977 0 -0.095042537949377 0
0 0 0 0 0 0 0 0 0 0 0 0 0 0 0 0 0 0 0 0 0 0 0 0 0 0.0755785554872526 0.390440773296611 0 0.0962296158116483 0.830821662947594 0 0.125998551740147 0 0 0.121275400931773 0 0.132342523043915 0.0498129632418622 0 0 0 0 0 0 0 0 0 0 0 -0.095042537949377
