8.04092227416765
0.461334602165211
0.337403025596042
1.13651307674997
0.110894457350031
0.8526484461195
1.27104463446891
0.630328379060828
1.89353241826669
1.13249459197163
0.985163795539667
1.65817299641773
0.287230443019471
1.41450214519511
0.210834096516047
1.08986187332721
0.29262124924006
4.40767302199864
9.34140352119946
0.971219944422201
0.328154745160352
0.945147419314759
1.58613249756608
1.8510178282543
1.42122089867286
0.210148191368573
0.553819515461153
4.8118525485596
1.3879922997152
1.92533944028313
0.18635360774218
0.214050187184166
0.498760229455039
1.79320744452426
0.569745209162558
0.305374934834193
2.36489119703538
1.53010769180523
5.6152199938557
0.241315914751399
4.52476894447389
0.578301160379367
0.533006900559612
0.348978982367494
0.729069064253865
2.36811093081546
0.353378036400869
1.52045841197385
3.35047632455511
0.142659893985541
