-0.37734972001019 0 0 0 0 0 0 0 0 -5.38199518988696 -0.923249126934711 0 0 0 0 0 0 0 0 0 -1.72863206659019 0 0 0 0 0 0 -2.03177653550169 0 0 0 0 0 0 0 -2.85750237663808 0 0 0 0 0 0 0 0 0 0 0 0 -0.6157743173189 0
0 -0.37734972001019 0 0 0 0 0 0 0 -2.26216783124964 0 -0.621352722615848 0 0 0 0 0 0 0 -0.312853025945072 -0.26074025548348 0 0 0 0 0 0 0 0 0 0 0 0 0 0 0 0 0 0 0 0 0 0 0 0 0 0 0 -0.59651577421255 0
0 0 -0.37734972001019 0 0 0 0 0 -0.911777200594919 -2.74011869271662 -0.739460033902167 0 0 0 0 0 0 0 0 -6.40382060319963 0 0 0 0 0 0 0 0 0 0 0 0 0 0 0 -4.36015596295303 0 0 0 0 0 0 0 0 0 0 0 0 -0.403941826687435 0
0 0 0 -0.37734972001019 0 0 0 0 0 0 0 -3.36052144061702 0 0 0 0 0 0 0 0 0 0 -0.325703999938887 0 0 -2.64661118225226 -1.20176368260067 0 0 0 0 0 0 0 0 -3.14240699754814 0 0 0 0 0 0 0 0 0 0 0 0 -3.09878830230614 0
0 0 0 0 -0.37734972001019 0 0 0 0 0 0 -0.976086467879286 0 0 0 0 0 0 0 0 0 0 -1.32034227522844 0 0 0 -0.429917732539112 0 0 0 0 0 0 0 0 0 0 0 0 0 0 0 0 0 0 0 0 0 -3.75365501343554 0
0 0 0 0 0 -0.37734972001019 0 0 0 0 0 0 -2.90616233818109 0 0 0 0 0 0 0 -4.48808517423552 0 0 0 0 -2.01474346869764 0 0 0 0 0 0 0 0 0 0 0 0 0 0 0 0 0 0 0 0 0 0 0 0
0 0 0 0 0 0 -0.37734972001019 0 0 0 0 0 0 0 0 0 0 0 0 0 -0.463880653212111 0 -2.60020219846394 0 0 -0.723449042697603 -0.136213593086237 0 0 0 0 0 0 0 0 0 0 0 0 0 0 0 0 0 0 0 0 0 0 0
0 0 0 0 0 0 0 -0.37734972001019 0 0 0 0 0 0 0 0 0 0 0 0 0 -3.23984933591677 0 0 0 -3.19317534656909 -2.85585640350272 0 0 0 0 0 0 0 0 0 0 0 0 0 0 0 0 0 0 0 0 0 -4.49712690287828 0
0 0 0.180149562771236 0 0 0 0 0 -0.37734972001019 0 0 0 0 0 0 0 0 0 0 0 -0.390540461834715 0 0 0 0 -2.47269995540247 0 0 0 0 0 0 0 0 0 0 0 0 0 0 0 0 0 0 0 0 0 0 0 0
1.12286656280019 0.484971168744744 0.589060111626818 0 0 0 0 0 0 -0.37734972001019 0 0 0 0 0 0 0 -2.24305531841415 0 0 0 -8.40414957614584 0 0 0 0 0 0 0 0 0 0 0 0 0 0 0 0 0 0 0 0 0 0 0 0 0 0 0 0
0.200971915046516 0 0.141903690264784 0 0 0 0 0 0 0 -0.37734972001019 0 0 0 0 0 -0.411632314667749 -0.529302323093401 0 0 0 0 0 0 0 0 0 0 0 0 -6.09178437663179 0 0 0 0 0 0 0 0 0 0 0 0 0 0 0 0 0 0 0
0 0.120473766665595 0 0.692786811773453 0.191670989547582 0 0 0 0 0 0 -0.37734972001019 0 0 0 0 0 -1.43879122909092 0 0 0 0 0 0 0 0 0 0 0 0 0 0 0 0 0 0 0 0 0 0 0 0 0 0 0 0 0 0 0 0
0 0 0 0 0 0.60988899502665 0 0 0 0 0 0 -0.37734972001019 0 -0.971808970650857 0 0 0 0 0 0 0 0 0 0 0 0 0 0 0 0 0 0 0 0 0 0 0 0 0 -0.513044067123786 0 0 0 0 0 0 0 0 0
0 0 0 0 0 0 0 0 0 0 0 0 0 -0.37734972001019 0 0 0 0 0 0 0 0 0 0 0 0 0 0 0 0 0 -0.986207512955165 -1.06453934141776 0 0 0 0 0 0 0 0 0 0 0 0 0 0 0 0 0
0 0 0 0 0 0 0 0 0 0 0 0 0.192107841977186 0 -0.37734972001019 0 0 0 0 0 0 0 0 0 0 0 0 0 0 0 0 0 -0.884002599433427 0 0 0 0 0 0 0 0 0 0 0 0 0 0 0 0 -0.642180273879729
0 0 0 0 0 0 0 0 0 0 0 0 0 0 0 -0.37734972001019 0 0 0 0 0 0 0 0 0 0 0 0 0 0 0 -0.0790402552748526 -0.914357931129376 0 0 0 0 0 0 0 0 0 0 0 0 0 0 0 0 0
0 0 0 0 0 0 0 0 0 0 0.0770583632157098 0 0 0 0 0 -0.37734972001019 0 -3.14440082068405 0 0 0 0 0 0 0 0 0 0 0 0 -1.53220604618995 0 0 0 0 0 0 0 0 0 0 0 0 0 0 0 0 0 0
0 0 0 0 0 0 0 0 0 0.438522644046407 0.100789423635117 0.26025211868887 0 0 0 0 0 -0.37734972001019 0 0 0 0 0 0 0 0 0 0 0 0 0 -2.1850178662147 0 0 0 0 0 0 0 0 0 0 0 0 0 0 0 0 0 -4.15372571485008
0 0 0 0 0 0 0 0 0 0 0 0 0 0 0 0 0.632980043598946 0 -0.37734972001019 0 0 0 0 0 0 0 0 0 0 0 0 0 0 0 0 0 0 0 0 0 0 0 0 -1.14259890466815 0 0 0 0 0 -1.0357865642944
0 0.0671020438552323 1.32003324343685 0 0 0 0 0 0 0 0 0 0 0 0 0 0 0 0 -0.37734972001019 0 0 0 0 0 0 0 0 0 0 0 0 0 0 0 0 0 0 0 0 0 0 0 -0.40341505515243 0 0 0 0 0 -0.294646821319443
0.368172943066696 0.0525090853664986 0 0 0 0.861019779972487 0.0949510914865822 0 0.0852404936897805 0 0 0 0 0 0 0 0 0 0 0 -0.37734972001019 0 0 0 0 0 0 0 0 0 0 0 0 0 0 0 0 -1.4934221414851 0 0 0 0 0 -3.88158325230175 0 0 0 0 0 0
0 0 0 0 0 0 0 0.67736309973676 0 1.83291642161677 0 0 0 0 0 0 0 0 0 0 0 -0.37734972001019 0 0 0 0 0 0 0 0 0 0 0 0 0 0 0 -3.7221472720381 0 0 0 0 0 0 0 0 0 0 0 0
0 0 0 0.0739734411014112 0.245660393972419 0 0.545226824165778 0 0 0 0 0 0 0 0 0 0 0 0 0 0 0 -0.37734972001019 0 0 0 0 0 0 0 0 0 0 0 0 0 0 -1.49190933960496 0 0 0 0 0 -1.75349498562925 0 0 0 0 0 0
0 0 0 0 0 0 0 0 0 0 0 0 0 0 0 0 0 0 0 0 0 0 0 -0.37734972001019 0 0 0 0 0 0 0 0 0 0 -2.12118604310436 0 0 -0.908848149224394 -0.716022679314155 0 0 -2.4646759987663 0 -1.14860641339451 0 0 0 0 0 0
0 0 0 0 0 0 0 0 0 0 0 0 0 0 0 0 0 0 0 0 0 0 0 0 -0.37734972001019 0 0 0 0 0 0 0 0 0 -0.558980801741282 0 0 0 -3.27782743315594 0 0 0 0 0 0 0 0 0 0 0
0 0 0 0.515057425411424 0 0.411940363967605 0.155098141234956 0.603344199747202 0.469299460360377 0 0 0 0 0 0 0 0 0 0 0 0 0 0 0 0 -0.37734972001019 0 0 0 0 0 0 0 0 -1.21088805992398 0 0 0 0 0 0 -2.12778051340479 0 0 0 0 0 0 0 0
0 0 0 0.246845532373274 0.086015064461761 0 0.0274036239833441 0.544704053469591 0 0 0 0 0 0 0 0 0 0 0 0 0 0 0 0 0 0 -0.37734972001019 0 0 0 0 0 0 0 -0.846123251273314 0 0 0 -0.454989587430402 -0.346745778315435 0 0 0 -3.78921572293941 0 0 0 0 0 0
0.434533855333582 0 0 0 0 0 0 0 0 0 0 0 0 0 0 0 0 0 0 0 0 0 0 0 0 0 0 -0.37734972001019 0 0 0 0 0 0 -1.36687894640491 0 0 -0.468680920339695 -2.45830300556601 -0.940872764043311 0 0 -0.75405137290018 -0.38076686676191 0 -4.61219927428018 0 0 0 0
0 0 0 0 0 0 0 0 0 0 0 0 0 0 0 0 0 0 0 0 0 0 0 0 0 0 0 0 -0.37734972001019 0 0 0 0 0 0 0 0 0 -1.59949326074624 -0.797835468726114 0 0 -1.62940175999676 0 0 -3.1786012500899 0 0 0 0
0 0 0 0 0 0 0 0 0 0 0 0 0 0 0 0 0 0 0 0 0 0 0 0 0 0 0 0 0 -0.37734972001019 0 0 0 0 0 0 0 0 -0.365225414742015 0 0 -0.13934362200294 -1.75207429691935 0 0 -0.424295475284834 0 0 0 0
0 0 0 0 0 0 0 0 0 0 1.2253410437516 0 0 0 0 0 0 0 0 0 0 0 0 0 0 0 0 0 0 0 -0.37734972001019 0 0 0 0 0 0 -2.29788606480865 -1.79728376752816 0 0 0 -0.43771932360764 -1.60070074954293 0 -0.307099263105863 0 0 0 0
0 0 0 0 0 0 0 0 0 0 0 0 0 0.194592081596566 0 0.0158605219591582 0.311077940656756 0.448770238709199 0 0 0 0 0 0 0 0 0 0 0 0 0 -0.37734972001019 0 0 -1.00050956371378 0 0 -0.940225516293612 -1.01516622879404 0 0 -3.03447264953525 -1.56802806777408 0 0 -0.210530839021556 0 0 0 0
0 0 0 0 0 0 0 0 0 0 0 0 0 0.193170076398608 0.192217730936801 0.194397712202696 0 0 0 0 0 0 0 0 0 0 0 0 0 0 0 0 -0.37734972001019 0 -2.53122965958122 0 0 0 0 0 0 -2.05117392001681 0 -0.756947205805651 0 0 0 0 0 0
0 0 0 0 0 0 0 0 0 0 0 0 0 0 0 0 0 0 0 0 0 0 0 0 0 0 0 0 0 0 0 0 0 -0.37734972001019 0 0 0 0 0 0 0 -1.8604703287008 -1.50215605223724 0 0 -0.563182803162354 0 0 0 0
0 0 0 0 0 0 0 0 0 0 0 0 0 0 0 0 0 0 0 0 0 0 0 0.456657152702394 0.115162651858505 0.246798433710358 0.184473477856689 0.291410906653777 0 0 0 0.203932147663895 0.522318349310244 0 -0.37734972001019 0.313507438213847 0 0 0 -0.190894609290391 0 -1.86237977625252 0 0 0 -9.60447176828563 0 -0.610079476983442 0 0
0.502474936349458 0 0.957773473175829 0.574509920907155 0 0 0 0 0 0 0 0 0 0 0 0 0 0 0 0 0 0 0 0 0 0 0 0 0 0 0 0 0 0 -1.52357422779645 -0.37734972001019 0 0 0 0 0 -0.520003341262288 0 -0.204938824047575 0 -1.09442547844808 0 -1.9966305053535 0 0
0 0 0 0 0 0 0 0 0 0 0 0 0 0 0 0 0 0 0 0 0 0 0 0 0 0 0 0 0 0 0 0 0 0 0 0 -0.37734972001019 0 0 0 0 0 0 0 0 -0.357667198456982 0 -1.17734811786951 0 0
0 0 0 0 0 0 0 0 0 0 0 0 0 0 0 0 0 0 0 0 0.286508254250645 0.755836995319887 0.313845195191315 0.181680928474818 0 0 0 0.0886818933664511 0 0 0.478069260006641 0.202931035353173 0 0 0 0 0 -0.37734972001019 0 0 0 0 0 0 0 -0.24179692276154 0 0 0 0
0 0 0 0 0 0 0 0 0 0 0 0 0 0 0 0 0 0 0 0 0 0 0 0.150152984567181 0.681945978552879 0 0.0991694768183618 0.516417366651376 0.315558822664662 0.0794888132530271 0.387215120428463 0.192121935678446 0 0 0 0 0 0 -0.37734972001019 0 0 0 0 0 0 -0.333278945683866 0 0 0 0
0 0 0 0 0 0 0 0 0 0 0 0 0 0 0 0 0 0 0 0 0 0 0 0 0 0 0.0721151425312901 0.188723694382183 0.161317808523427 0 0 0 0 0 0.0399298885476163 0 0 0 0 -0.37734972001019 0 0 0 0 0 -0.904681667246366 0 -1.57556545114415 0 0
0 0 0 0 0 0 0 0 0 0 0 0 0.105004736124943 0 0 0 0 0 0 0 0 0 0 0 0 0 0 0 0 0 0 0 0 0 0 0 0 0 0 0 -0.37734972001019 0 0 0 0 0 0 0 0 0
0 0 0 0 0 0 0 0 0 0 0 0 0 0 0 0 0 0 0 0 0 0 0 0.497719588547817 0 0.416144512350661 0 0 0 0.0287936632580134 0 0.586042727515063 0.397778227958866 0.352403281586283 0.374222593035704 0.112836195978637 0 0 0 0 0 -0.37734972001019 0 0 0 0 0 -3.39517034142317 0 0
0 0 0 0 0 0 0 0 0 0 0 0 0 0 0 0 0 0 0 0 0 0 0 0 0 0 0 0.160344780436705 0.324883801080006 0.351269071303048 0.089084456221931 0.316004428284325 0 0.330012247943829 0 0 0 0 0 0 0 0 -0.37734972001019 0 0 0 0 0 0 0
0 0 0 0 0 0 0 0 0 0 0 0 0 0 0 0 0 0 0.237213246280225 0.0824309328017773 0.721917740763284 0 0.34935394578901 0.219721331279332 0 0 0.732732887767124 0.0710402416909496 0 0 0.317816779549273 0 0.146346760246496 0 0 0.0414450732461454 0 0 0 0 0 0 0 -0.37734972001019 0 0 0 -0.144226748441648 0 0
0 0 0 0 0 0 0 0 0 0 0 0 0 0 0 0 0 0 0 0 0 0 0 0 0 0 0 0 0 0 0 0 0 0 0 0 0 0 0 0 0 0 0 0 -0.37734972001019 0 0 -3.19750076799119 0 0
0 0 0 0 0 0 0 0 0 0 0 0 0 0 0 0 0 0 0 0 0 0 0 0 0 0 0 0.934433483586665 0.647758861871633 0.0854306920950883 0.0629506366358658 0.0436753701759052 0 0.103398355540642 1.97228409613666 0.214387636336383 0.0737003685678167 0.0455338648329095 0.0644546251866587 0.168970706514655 0 0 0 0 0 -0.37734972001019 0 -4.88898313558345 0 0
0 0 0 0 0 0 0 0 0 0 0 0 0 0 0 0 0 0 0 0 0 0 0 0 0 0 0 0 0 0 0 0 0 0 0 0 0 0 0 0 0 0 0 0 0 0 -0.37734972001019 -2.14848658384733 0 0
0 0 0 0 0 0 0 0 0 0 0 0 0 0 0 0 0 0 0 0 0 0 0 0 0 0 0 0 0 0 0 0 0 0 0.119870528980473 0.432669018252577 0.242083047417508 0 0 0.326740129730348 0 0.695287172790385 0 0.0288665486827394 0.595778338919213 1.00975082708 0.419204218659277 -0.37734972001019 0 0.0501018912099823
0.124356695914706 0.116539788727609 0.0847747384107263 0.611230643848716 0.723562985674812 0 0 0.904649104137678 0 0 0 0 0 0 0 0 0 0 0 0 0 0 0 0 0 0 0 0 0 0 0 0 0 0 0 0 0 0 0 0 0 0 0 0 0 0 0 0 -0.37734972001019 0
0 0 0 0 0 0 0 0 0 0 0 0 0 0 0.131203979145748 0 0 0.830975645685754 0.192092909697469 0.0559132403629312 0 0 0 0 0 0 0 0 0 0 0 0 0 0 0 0 0 0 0 0 0 0 0 0 0 0 0 -0.244261654457505 0 -0.37734972001019
