-0.261358457103707 0 0 0 0 -0.194270009294282 0 0 0 0 0 0 0 0 0 0 0 0 0 0 0 0 0 -3.4273738480264 0 0 0 0 -0.269889236646333 0 0 0 0 0 0 0 0 0 0 0 0 0 0 0 0 0 0 0 0 0
0 -0.261358457103707 -3.85366420557228 0 0 0 0 0 0 0 0 0 0 -1.57819699898579 0 0 0 0 -1.28237590770491 0 0 0 0 -0.161077255819826 0 0 0 0 0 0 0 0 -1.11198529919708 0 0 0 0 0 0 0 0 0 0 0 0 0 0 0 0 0
0 0.700856059397484 -0.261358457103707 0 0 0 0 0 -1.23004774639129 0 0 0 0 0 0 0 0 0 -0.61481825827157 0 0 0 0 -0.508397872345596 0 0 0 0 0 0 0 0 -10.1736586093923 0 0 0 0 0 0 0 0 0 0 0 0 -1.31285348616035 0 0 0 0
0 0 0 -0.261358457103707 0 0 0 0 0 0 0 0 0 0 0 0 0 -0.551621424418998 0 0 0 0 0 -0.0715701814132636 0 0 0 0 0 0 0 0 -0.243059235520057 0 0 0 0 -0.390329661947768 0 0 0 0 0 0 0 0 0 0 0 0
0 0 0 0 -0.261358457103707 0 0 0 0 0 0 0 0 0 0 0 0 0 0 0 0 0 0 -0.539199463954095 0 0 0 0 0 0 0 0 -0.881318119815163 0 0 0 0 0 0 0 0 0 0 0 0 -0.178856279265186 0 0 0 0
0.0376520855710158 0 0 0 0 -0.261358457103707 0 0 0 0 0 0 0 0 0 0 0 -1.33172434683717 0 0 0 0 0 0 0 0 0 0 0 0 0 0 0 0 0 0 0 -1.06091550140479 0 0 0 0 0 0 0 -1.66742950995729 0 0 0 0
0 0 0 0 0 0 -0.261358457103707 -1.21184588395811 0 0 0 0 0 0 -0.997742527741757 -1.26822641045363 0 0 0 -2.51564055719144 0 -0.787571166739309 0 0 0 0 0 0 0 0 0 0 0 0 0 0 0 -0.978224075425767 0 0 0 0 0 0 0 0 0 0 0 0
0 0 0 0 0 0 0.253287161553165 -0.261358457103707 0 0 0 0 -0.901223218198528 0 0 0 0 0 0 -1.86080592266398 0 -1.00351527437704 0 0 -2.49790185622149 0 0 0 0 0 0 -3.79138969964817 0 0 0 0 0 -2.69404274273778 0 0 0 0 0 0 0 0 0 0 0 0
0 0 0.251494887421686 0 0 0 0 0 -0.261358457103707 0 0 0 -3.21785938983247 0 0 0 0 0 0 0 0 0 0 0 0 0 0 0 0 0 0 -0.437474415455845 0 -0.934645870365309 0 0 -0.0693391347376089 -0.257545766086727 0 0 0 0 -3.61141147292718 -2.50329395262847 -3.56395062647945 0 0 0 0 0
0 0 0 0 0 0 0 0 0 -0.261358457103707 0 0 0 0 0 0 0 0 0 0 0 0 0 0 0 0 0 0 0 0 0 0 0 -0.515768933763229 0 0 -0.374348227050204 0 0 0 0 0 -2.06888961898814 0 -0.36125727657083 0 0 0 0 0
0 0 0 0 0 0 0 0 0 0 -0.261358457103707 0 -1.98926233622375 0 0 0 0 0 0 0 -0.39610085423511 0 0 0 0 0 0 0 0 0 0 -1.52961657855384 0 0 0 0 0 -0.738722629947736 0 0 0 0 -2.56334256766855 -6.38505265734393 -1.21515248475052 0 0 0 0 0
0 0 0 0 0 0 0 0 0 0 0 -0.261358457103707 0 0 0 0 0 0 0 0 0 0 0 0 0 0 0 0 0 0 0 -0.0287362730891989 0 0 0 0 0 0 0 0 0 0 0 0 -0.404212756574932 0 0 0 0 0
0 0 0 0 0 0 0 0.176087687649314 0.599509687119955 0 0.389267746307266 0 -0.261358457103707 0 0 0 0 0 0 0 -4.31402939707232 0 0 0 0 0 0 0 0 0 0 -0.802173585654266 0 0 0 0 0 0 0 0 0 0 0 0 0 0 0 0 0 0
0 0.307011604801861 0 0 0 0 0 0 0 0 0 0 0 -0.261358457103707 0 0 0 0 0 0 0 0 0 0 0 0 0 0 0 0 0 0 0 -2.08206551818812 0 0 0 0 0 0 0 0 0 0 -0.640861918443344 0 0 0 0 0
0 0 0 0 0 0 0.187407739433845 0 0 0 0 0 0 0 -0.261358457103707 0 0 0 0 0 0 0 0 0 0 0 0 0 0 0 0 -0.194879495306209 0 -1.70576108546777 0 0 -4.95636621754524 0 0 0 0 0 0 0 0 0 0 0 0 0
0 0 0 0 0 0 0.245274899684803 0 0 0 0 0 0 0 0 -0.261358457103707 0 0 0 0 -4.00805701470359 0 0 0 0 0 0 0 0 0 0 0 0 0 0 0 -2.10721564359578 0 0 0 0 0 0 0 -0.279205948483478 0 0 0 0 -0.925293703209196
0 0 0 0 0 0 0 0 0 0 0 0 0 0 0 0 -0.261358457103707 0 0 0 -6.87326981799007 0 0 0 0 -0.658217129879584 0 0 0 -2.44844594534211 0 -4.4093710038079 0 -0.245720938558057 0 0 0 0 0 0 0 0 0 0 -3.19026193518914 0 0 0 0 0
0 0 0 0.115024801411443 0 0.270035757834569 0 0 0 0 0 0 0 0 0 0 0 -0.261358457103707 0 0 -0.808539506762133 0 0 0 0 0 0 0 0 -0.124861914252705 0 0 0 0 0 0 0 0 0 0 0 0 0 0 0 0 0 0 0 0
0 0.249312038559609 0.124066994210274 0 0 0 0 0 0 0 0 0 0 0 0 0 0 0 -0.261358457103707 0 0 0 0 0 0 0 0 0 0 0 -1.78880383795101 0 0 -0.467234836079488 0 0 0 0 0 0 0 0 0 0 -0.249046027418672 0 0 0 0 0
0 0 0 0 0 0 0.483956278600616 0.375785234939874 0 0 0 0 0 0 0 0 0 0 0 -0.261358457103707 0 0 0 0 0 0 -0.853185231906979 0 0 0 0 0 0 0 0 0 -0.258806020284623 0 0 0 0 0 0 0 -5.81365888839886 0 0 0 0 0
0 0 0 0 0 0 0 0 0 0 0.080107900983117 0 0.747510445715186 0 0 0.830056494185615 1.26905376949819 0.168939411522947 0 0 -0.261358457103707 0 0 0 0 0 0 0 0 0 0 0 0 0 0 0 0 0 0 0 -3.40017246737426 0 0 0 0 0 0 -1.20224098911037 0 0
0 0 0 0 0 0 0.163935673678994 0.199956699474825 0 0 0 0 0 0 0 0 0 0 0 0 0 -0.261358457103707 0 0 0 0 0 0 0 -1.0098031062271 0 0 0 -1.85805540002706 0 -0.760030781779839 -0.379394180788637 0 0 0 -0.247537539718315 0 0 0 0 0 0 -2.49912758678466 0 0
0 0 0 0 0 0 0 0 0 0 0 0 0 0 0 0 0 0 0 0 0 0 -0.261358457103707 0 0 0 0 0 0 -1.92677244870414 0 0 0 -1.10462003889872 0 0 0 0 0 0 0 0 0 0 -0.3358257779833 0 0 -1.02016631775096 0 0
0.72842017641768 0.0318632335400228 0.10184260531814 0.0140130616366387 0.111893661667777 0 0 0 0 0 0 0 0 0 0 0 0 0 0 0 0 0 0 -0.261358457103707 0 0 0 0 0 -0.383184989846837 0 0 0 0 0 0 0 0 0 0 0 -0.95566893977326 0 0 0 0 0 0 0 0
0 0 0 0 0 0 0 0.503773606558569 0 0 0 0 0 0 0 0 0 0 0 0 0 0 0 0 -0.261358457103707 0 0 0 0 0 0 0 0 -0.841879111447078 0 0 0 0 0 0 -0.237591041972046 -0.295760094288233 0 0 0 0 0 -1.26482558216186 0 0
0 0 0 0 0 0 0 0 0 0 0 0 0 0 0 0 0.128662488823358 0 0 0 0 0 0 0 0 -0.261358457103707 0 0 0 0 0 0 0 -0.247820888554478 0 0 0 0 0 0 -0.428198712928707 -2.35710432013367 0 0 0 0 0 0 -4.48523744527358 0
0 0 0 0 0 0 0 0 0 0 0 0 0 0 0 0 0 0 0 0.175615422590566 0 0 0 0 0 0 -0.261358457103707 0 0 0 0 0 0 -0.709229349013357 0 0 0 0 0 0 -4.5766845403276 0 0 0 0 0 0 0 0 0
0 0 0 0 0 0 0 0 0 0 0 0 0 0 0 0 0 0 0 0 0 0 0 0 0 0 0 -0.261358457103707 0 0 0 0 0 0 0 0 0 0 0 0 -0.875920951899398 0 0 0 0 0 0 0 0 0
0.0575399642050396 0 0 0 0 0 0 0 0 0 0 0 0 0 0 0 0 0 0 0 0 0 0 0 0 0 0 0 -0.261358457103707 0 0 0 0 -0.506974832986261 0 0 0 0 0 0 -1.02673540707638 0 0 0 0 0 0 0 -0.295562001631321 0
0 0 0 0 0 0 0 0 0 0 0 0 0 0 0 0 0.511654567246371 0.0258786366212959 0 0 0 0.189070604321118 0.393639111357492 0.0795686004437914 0 0 0 0 0 -0.261358457103707 0 0 0 0 0 0 0 0 0 0 0 -3.08426955352539 0 0 0 0 0 0 0 0
0 0 0 0 0 0 0 0 0 0 0 0 0 0 0 0 0 0 0.371617580461682 0 0 0 0 0 0 0 0 0 0 0 -0.261358457103707 0 0 0 0 0 0 0 0 0 -0.801971743514336 0 0 0 0 0 0 0 0 0
0 0 0 0 0 0 0 0.80418072337612 0.0875420828141095 0 0.295463242869989 0.00579154996932223 0.152581193094467 0 0.0376635256097421 0 0.883935745971615 0 0 0 0 0 0 0 0 0 0 0 0 0 0 -0.261358457103707 0 0 0 0 0 0 0 0 0 0 0 0 0 0 0 0 -0.984187455300412 0
0 0.228117239856254 2.18794502378661 0.0490401852893293 0.17759589194113 0 0 0 0 0 0 0 0 0 0 0 0 0 0 0 0 0 0 0 0 0 0 0 0 0 0 0 -0.261358457103707 0 -0.55846538459362 0 0 0 0 0 -0.138073504709671 -0.179633116776995 0 0 0 0 0 0 -0.823930683530891 0
0 0 0 0 0 0 0 0 0.194959933458482 0.0992760380300844 0 0 0 0.394242858093131 0.341495830935197 0 0.0487546365701315 0 0.0920084691914315 0 0 0.41411623204931 0.250952463451421 0 0.164883140450749 0.0496216376358664 0.135611847364509 0 0.0999183035307365 0 0 0 0 -0.261358457103707 -0.459494984767404 0 0 0 0 -1.36220032823051 0 -0.164106318140572 0 0 0 0 0 0 0 0
0 0 0 0 0 0 0 0 0 0 0 0 0 0 0 0 0 0 0 0 0 0 0 0 0 0 0 0 0 0 0 0 0.116933118324709 0.101301931560753 -0.261358457103707 0 0 0 0 0 -1.69964094430462 -0.419806865801733 0 0 0 0 -0.187072117590835 0 -1.23964456870801 0
0 0 0 0 0 0 0 0 0 0 0 0 0 0 0 0 0 0 0 0 0 0.147277397245111 0 0 0 0 0 0 0 0 0 0 0 0 0 -0.261358457103707 0 0 0 0 0 -0.914625537396784 0 0 0 0 -1.25376267634008 0 0 0
0 0 0 0 0 0 0 0 0.0143519004260893 0.0790534899716272 0 0 0 0 0.892447930539308 0.429996047684861 0 0 0 0.05637636740104 0 0.075615182026955 0 0 0 0 0 0 0 0 0 0 0 0 0 0 -0.261358457103707 0 0 0 -0.402275105292836 -0.498815656480824 0 0 0 0 -0.669824384088328 0 -0.351887535170345 0
0 0 0 0.0767763036047607 0 0.195175119847126 0.199677926409191 0.516756148005464 0.0523251284003655 0 0.128827568065328 0 0 0 0 0 0 0 0 0 0 0 0 0 0 0 0 0 0 0 0 0 0 0 0 0 0 -0.261358457103707 0 0 0 0 0 0 0 0 0 0 0 0
0 0 0 0 0 0 0 0 0 0 0 0 0 0 0 0 0 0 0 0 0 0 0 0 0 0 0 0 0 0 0 0 0 0 0 0 0 0 -0.261358457103707 0 0 -0.190482037773367 0 0 0 0 -0.774870553103355 0 0 0
0 0 0 0 0 0 0 0 0 0 0 0 0 0 0 0 0 0 0 0 0 0 0 0 0 0 0 0 0 0 0 0 0 0.267112473318652 0 0 0 0 0 -0.261358457103707 0 0 0 0 0 0 0 0 -0.382840983932676 0
0 0 0 0 0 0 0 0 0 0 0 0 0 0 0 0 0 0 0 0 0.711474556194468 0.0484740701607084 0 0 0.0480239737262875 0.0903630171223055 0.870940241745098 0.183942567504051 0.213626091525059 0 0.15410763573042 0 0.0295589990142012 0 0.328943275328192 0 0.0845565917693321 0 0 0 -0.261358457103707 0 0 0 0 0 0 0 -1.45487102853092 0
0 0 0 0 0 0 0 0 0 0 0 0 0 0 0 0 0 0 0 0 0 0 0 0.205360945174465 0.061787897661349 0.478562586517219 0 0 0 0.610628872580628 0 0 0.0364777291336612 0.0305675535534758 0.081541150150228 0.175356619668586 0.101841088558388 0 0.0382097366493582 0 0 -0.261358457103707 0 0 0 0 0 0 0 0
0 0 0 0 0 0 0 0 0.647763225882144 0.422608286563337 0.507230500349766 0 0 0 0 0 0 0 0 0 0 0 0 0 0 0 0 0 0 0 0 0 0 0 0 0 0 0 0 0 0 0 -0.261358457103707 0 0 0 -3.14670010848201 0 -0.347958305344024 0
0 0 0 0 0 0 0 0 0.507972928277744 0 1.35163073001069 0 0 0 0 0 0 0 0 0 0 0 0 0 0 0 0 0 0 0 0 0 0 0 0 0 0 0 0 0 0 0 0 -0.261358457103707 0 0 -1.46836264875063 0 0 0
0 0 0 0 0 0 0 0 0.728488025851219 0.0732773614314176 0.237428575322931 0.0780791746012807 0 0.129813052724803 0 0.0548504567369042 0.616663534157463 0 0.0489550846610201 1.15266249625214 0 0 0.0632481261813019 0 0 0 0 0 0 0 0 0 0 0 0 0 0 0 0 0 0 0 0 0 -0.261358457103707 0 0 0 -0.746630229249641 0
0 0 0.254018438797058 0 0.0368397074101667 0.356491580479162 0 0 0 0 0 0 0 0 0 0 0 0 0 0 0 0 0 0 0 0 0 0 0 0 0 0 0 0 0 0 0 0 0 0 0 0 0 0 0 -0.261358457103707 -1.02840150134555 0 -0.40769446527125 0
0 0 0 0 0 0 0 0 0 0 0 0 0 0 0 0 0 0 0 0 0 0 0 0 0 0 0 0 0 0 0 0 0 0 0.0358583960418007 0.259117944849338 0.138808214399571 0 0.140077829967619 0 0 0 0.590140948408194 0.294748640104252 0 0.222592517248245 -0.261358457103707 0.271540739354437 -2.71183258892926 0
0 0 0 0 0 0 0 0 0 0 0 0 0 0 0 0 0 0 0 0 0.228271278672087 0.546202245451146 0.190940815992355 0 0.224359014008526 0 0 0 0 0 0 0 0 0 0 0 0 0 0 0 0 0 0 0 0 0 -1.35682039064438 -0.261358457103707 0 0
0 0 0 0 0 0 0 0 0 0 0 0 0 0 0 0 0 0 0 0 0 0 0 0 0 0.881003402717188 0 0 0.0560142687975327 0 0 0.192999335862478 0.167743452678489 0 0.239075188378209 0 0.0686955892099453 0 0 0.0767642712795006 0.303135518097577 0 0.068879484621238 0 0.150331216569978 0.083682105151584 0.597985845380717 0 -0.261358457103707 0
0 0 0 0 0 0 0 0 0 0 0 0 0 0 0 0.177585427427286 0 0 0 0 0 0 0 0 0 0 0 0 0 0 0 0 0 0 0 0 0 0 0 0 0 0 0 0 0 0 0 0 0 -0.261358457103707
