-0.248848706783708 0 0 0 0 0 0 0 0 -0.219286892949096 0 0 0 0 0 0 0 0 0 0 0 -3.80030138657873 0 0 0 0 -0.825550389282051 0 0 0 0 0 0 0 0 0 0 0 0 0 0 0 0 0 0 0 0 0 0 0
0 -0.248848706783708 0 0 0 0 0 0 0 -0.823527857608498 0 0 0 0 0 0 0 0 0 0 0 -5.0065053890393 0 0 0 0 -1.06446378127138 -0.310263692052223 0 0 0 0 0 0 0 0 0 0 0 0 0 0 0 0 0 0 0 0 0 0
0 0 -0.248848706783708 0 -2.24663211281949 0 0 0 -0.797768650790834 0 0 0 0 0 -1.00944933015612 0 0 0 0 0 0 -0.0893571244942121 0 0 0 -9.10766452960834 0 0 -1.93481330376808 0 0 0 0 0 0 0 0 0 0 0 0 0 0 0 0 0 -0.653100933751033 0 0 0
0 0 0 -0.248848706783708 -0.566822947379558 0 0 -6.59049324528504 0 0 0 0 0 0 0 0 0 -1.49725862909416 0 0 0 0 0 0 0 0 0 0 -0.657525819489923 0 0 0 0 0 0 0 0 0 0 0 0 0 -2.11101240948312 0 0 0 -1.52096171174598 0 0 0
0 0 0.408091516437741 0.116538548101653 -0.248848706783708 0 -5.1314130357229 0 0 0 0 0 0 0 0 0 0 0 0 -2.1482997368247 0 0 0 0 0 0 0 0 0 0 -4.12346751758924 0 -0.15166159017306 0 0 0 0 0 0 0 0 0 0 0 0 0 -0.432493213108492 0 0 0
0 0 0 0 0 -0.248848706783708 -0.231192910715773 0 0 0 0 0 0 0 -0.365620026839778 0 0 0 0 0 0 -1.5420004275137 0 0 0 0 0 0 0 0 -1.20646803399981 0 -1.37827166852919 0 0 0 0 0 0 -1.50874669302258 0 0 -1.10071776199742 0 0 0 0 0 0 0
0 0 0 0 1.03859288027672 0.0468797836738406 -0.248848706783708 0 0 0 0 0 0 0 0 0 0 0 0 -0.574557229294637 0 0 0 0 0 0 0 0 0 0 -0.379323275118422 0 0 0 0 0 0 -1.42501576089595 0 -0.248464562764773 0 0 0 0 0 0 0 0 0 0
0 0 0 1.30372041815141 0 0 0 -0.248848706783708 0 0 0 0 0 0 0 0 0 0 0 0 0 0 0 0 0 0 0 0 0 0 -1.57313550505438 0 0 0 0 0 0 0 0 -0.969167364071536 0 0 0 0 0 0 0 0 0 0
0 0 0.155400554669948 0 0 0 0 0 -0.248848706783708 0 0 0 0 0 0 0 0 0 0 -2.99191330779041 0 0 0 0 -0.951337127952723 0 0 0 0 0 0 0 0 0 0 0 0 -0.819948967592229 0 -1.41280337816719 0 0 0 0 0 0 0 0 0 0
0.0448680783181916 0.15588983824617 0 0 0 0 0 0 0 -0.248848706783708 0 0 0 0 0 0 0 0 0 0 0 0 0 0 -0.0630755081906777 0 0 0 0 0 0 0 0 0 0 0 0 0 0 -2.31281432374017 0 0 0 0 0 0 0 0 0 0
0 0 0 0 0 0 0 0 0 0 -0.248848706783708 -2.13694952887392 0 0 0 0 0 0 0 -2.1541156531694 0 0 0 0 -1.97811527055914 0 0 0 0 0 0 0 0 0 0 0 0 0 0 -0.701892747283227 0 0 0 0 0 0 0 0 0 0
0 0 0 0 0 0 0 0 0 0 0.409255859662818 -0.248848706783708 0 0 0 0 0 0 0 -1.41120149610158 0 0 0 0 -3.27682950954157 0 0 0 0 0 -2.07930055796863 0 0 0 0 0 0 0 0 0 0 -0.0947135949746005 0 0 0 0 0 0 0 0
0 0 0 0 0 0 0 0 0 0 0 0 -0.248848706783708 0 0 0 0 0 0 0 0 0 0 -2.05154851771225 0 0 0 0 0 0 0 0 0 0 0 0 0 0 0 0 0 0 0 0 0 -1.11516496566198 0 0 0 0
0 0 0 0 0 0 0 0 0 0 0 0 0 -0.248848706783708 0 0 0 0 0 0 0 0 0 0 0 0 0 0 0 0 0 -0.28049891693454 0 0 0 0 0 0 0 0 0 -0.690319724500252 0 0 0 0 0 0 0 0
0 0 0.196872903115013 0 0 0.0764044396410311 0 0 0 0 0 0 0 0 -0.248848706783708 0 -1.16264376259249 0 0 0 -1.16155838982235 0 0 0 0 0 0 0 0 0 0 0 0 0 0 0 0 0 0 0 0 0 0 0 0 0 0 0 -0.297045456857104 0
0 0 0 0 0 0 0 0 0 0 0 0 0 0 0 -0.248848706783708 -1.55946110131648 0 0 0 0 0 0 0 0 0 0 0 0 0 0 -3.00556793562562 0 0 0 0 0 0 0 0 0 0 0 0 0 -0.264254236054782 0 0 0 0
0 0 0 0 0 0 0 0 0 0 0 0 0 0 0.231158625161583 0.307919332146827 -0.248848706783708 0.1926702105031 0.108568072164398 0 -0.733848857908572 0 0.154379762301344 0 0.19404154468946 0 0 0 0 -1.30829085806467 0 0 0 0 0 0 0 0 0 0 0 0 0 0 0 -0.342666883494088 0 0 0 0
0 0 0 0.29947411615804 0 0 0 0 0 0 0 0 0 0 0 0 -0.904961983706995 -0.248848706783708 0 0 0 0 0 0 0 0 0 0 0 -1.12400507713232 0 0 0 0 0 0 0 0 0 0 0 0 0 0 0 -0.624014329569496 0 0 -0.291348466480595 0
0 0 0 0 0 0 0 0 0 0 0 0 0 0 0 0 -0.53045815920623 0 -0.248848706783708 0 0 0 0 0 0 0 0 0 0 0 0 -1.28946867253935 0 0 0 0 0 0 0 0 0 0 0 0 0 -0.500608750053841 0 0 0 0
0 0 0 0 0.417432331100688 0 0.111537565423187 0 0.589826048842797 0 0.404238796407552 0.293698160731356 0 0 0 0 0 0 0 -0.248848706783708 -0.538056500682934 0 0 0 0 0 0 0 0 0 0 -0.81935410187059 0 0 0 0 0 0 0 0 0 0 0 0 0 -5.54264083700579 0 0 0 0
0 0 0 0 0 0 0 0 0 0 0 0 0 0 0.244794263632032 0 0.154948182591052 0 0 0.115258290534335 -0.248848706783708 0.240218592179487 0 0.116845970401885 0 0 0 0 0 0 0 -1.3949370039388 0 0 0 0 0 0 0 0 -9.6712888670361 0 0 0 0 0 0 0 -2.05966326512823 0
0.749870524192387 1.0329192880551 0.0174754881408337 0 0 0.287507090292279 0 0 0 0 0 0 0 0 0 0 0 0 0 0 -1.18329908106298 -0.248848706783708 0 0 0 0 0 0 0 0 0 0 0 0 0 0 0 0 0 0 0 0 0 0 0 0 0 0 0 0
0 0 0 0 0 0 0 0 0 0 0 0 0 0 0 0 -0.731615834308249 0 0 0 0 0 -0.248848706783708 0 0 0 0 0 0 0 0 0 0 0 0 0 0 0 0 0 0 0 0 0 0 -0.470044799154675 0 0 -0.13500907874725 0
0 0 0 0 0 0 0 0 0 0 0 0 0.417232597714329 0 0 0 0 0 0 0 -0.592958608838488 0 0 -0.248848706783708 0 0 0 0 0 0 0 0 0 0 0 0 0 0 0 0 -0.338540297566753 0 0 0 0 0 0 0 0 0
0 0 0 0 0 0 0 0 0.196794617646671 0.0123392356032265 0.405363672938643 0.637752553566991 0 0 0 0 -1.04474742346555 0 0 0 0 0 0 0 -0.248848706783708 0 0 0 0 0 0 -1.06588591815044 0 0 0 0 0 0 0 0 -2.14538088831847 0 0 0 0 0 0 0 0 0
0 0 1.87408264427263 0 0 0 0 0 0 0 0 0 0 0 0 0 0 0 0 0 0 0 0 0 0 -0.248848706783708 0 0 0 0 0 -1.02368713251774 0 0 0 0 0 0 0 0 -2.41317345754966 0 0 0 0 -2.70404179183917 0 0 -0.304532372028911 0
0.172000462208124 0.225269039763727 0 0 0 0 0 0 0 0 0 0 0 0 0 0 0 0 0 0 0 0 0 0 0 0 -0.248848706783708 0 0 0 0 0 0 0 0 0 0 0 0 0 0 0 0 0 0 -1.43306122224543 0 0 0 0
0 0.0654815875745179 0 0 0 0 0 0 0 0 0 0 0 0 0 0 0 0 0 0 0 0 0 0 0 0 0 -0.248848706783708 0 0 0 -0.789720386826242 0 0 0 0 0 0 0 0 0 0 0 0 0 -0.330401029478182 0 0 -1.48437532288037 0
0 0 0.401016673287561 0.134317138698674 0 0 0 0 0 0 0 0 0 0 0 0 0 0 0 0 0 0 0 0 0 0 0 0 -0.248848706783708 0 0 -2.37064997645561 0 0 0 0 0 0 0 0 0 0 0 0 0 0 0 0 -1.9208372564423 0
0 0 0 0 0 0 0 0 0 0 0 0 0 0 0 0 0.258183162631527 0.215172765577721 0 0 0 0 0 0 0 0 0 0 0 -0.248848706783708 0 0.362866741600227 0 0 0 0 0 0 0 0 0 0 0 0 0 0 0 0 0 0
0 0 0 0 0.881344058102561 0.232169217834594 0.0803003833469619 0.332670755458717 0 0 0 0.445847693670929 0 0 0 0 0 0 0 0 0 0 0 0 0 0 0 0 0 0 -0.248848706783708 0 0 0 0 0 0 0 0 0 0 0 0 0 0 0 0 0 0 0
0 0 0 0 0 0 0 0 0 0 0 0 0 0.0586610311273657 0 0.586486304474329 0 0 0.244658870569398 0.156601148500221 0.284969066355732 0 0 0 0.220733959255513 0.202893944661584 0 0.168314458392902 0.479794140007283 -1.75373656936284 0 -0.248848706783708 0 0 0 0 0 0 0 0 0 0 0 -0.152826155009401 0 0 0 -0.587570584622614 0 0
0 0 0 0 0.0286546727117179 0.266768093692424 0 0 0 0 0 0 0 0 0 0 0 0 0 0 0 0 0 0 0 0 0 0 0 0 0 0 -0.248848706783708 0 0 0 0 0 0 0 0 0 0 -0.208810336502291 0 0 0 0 0 0
0 0 0 0 0 0 0 0 0 0 0 0 0 0 0 0 0 0 0 0 0 0 0 0 0 0 0 0 0 0 0 0 0 -0.248848706783708 0 0 0 0 -0.51903914041253 0 0 0 0 -0.486512160389075 0 0 0 0 0 -1.31858959909899
0 0 0 0 0 0 0 0 0 0 0 0 0 0 0 0 0 0 0 0 0 0 0 0 0 0 0 0 0 0 0 0 0 0 -0.248848706783708 0 0 0 -3.53156522515598 0 0 0 0 0 0 0 0 0 0 -6.05077033539308
0 0 0 0 0 0 0 0 0 0 0 0 0 0 0 0 0 0 0 0 0 0 0 0 0 0 0 0 0 0 0 0 0 0 0 -0.248848706783708 0 0 0 0 0 0 0 -0.383719167228521 0 0 0 -0.594530952025685 0 -0.850655975355031
0 0 0 0 0 0 0 0 0 0 0 0 0 0 0 0 0 0 0 0 0 0 0 0 0 0 0 0 0 0 0 0 0 0 0 0 -0.248848706783708 0 0 0 0 0 0 -0.269741300893759 -0.354319953965533 0 0 -2.10897449768178 0 0
0 0 0 0 0 0 0.280281012025376 0 0.150667049064419 0 0 0 0 0 0 0 0 0 0 0 0 0 0 0 0 0 0 0 0 0 0 0 0 0 0 0 0 -0.248848706783708 0 0 0 0 0 -0.784481055814627 -0.140870030865767 0 0 0 0 -0.295630787360148
0 0 0 0 0 0 0 0 0 0 0 0 0 0 0 0 0 0 0 0 0 0 0 0 0 0 0 0 0 0 0 0 0 0.0993772117150808 0.68938682438245 0 0 0 -0.248848706783708 0 0 0 0 0 0 0 0 0 0 0
0 0 0 0 0 0.327413115986762 0.0522063368719902 0.164221780539074 0.2857125404331 0.442150422751456 0.14633100262185 0 0 0 0 0 0 0 0 0 0 0 0 0 0 0 0 0 0 0 0 0 0 0 0 0 0 0 0 -0.248848706783708 0 0 0 -0.308776967226405 0 0 0 -0.769029453777966 0 -0.553607961110362
0 0 0 0 0 0 0 0 0 0 0 0 0 0 0 0 0 0 0 0 2.0957639842463 0 0 0.0723472057590801 0.449799331800694 0.476561572251621 0 0 0 0 0 0 0 0 0 0 0 0 0 0 -0.248848706783708 0 0 0 0 0 0 0 0 -0.390060730013799
0 0 0 0 0 0 0 0 0 0 0 0.0178780244298525 0 0.129401670534148 0 0 0 0 0 0 0 0 0 0 0 0 0 0 0 0 0 0 0 0 0 0 0 0 0 0 0 -0.248848706783708 0 0 0 0 0 -1.59234399190033 0 0
0 0 0 0.424560797879729 0 0.208186873737964 0 0 0 0 0 0 0 0 0 0 0 0 0 0 0 0 0 0 0 0 0 0 0 0 0 0 0 0 0 0 0 0 0 0 0 0 -0.248848706783708 0 0 0 0 0 0 0
0 0 0 0 0 0 0 0 0 0 0 0 0 0 0 0 0 0 0 0 0 0 0 0 0 0 0 0 0 0 0 0.0310652002074361 0.0397380683354588 0.0956902080333845 0 0.0769777510864859 0.0544536434879271 0.150564514310905 0 0.0606613048908482 0 0 0 -0.248848706783708 0 0 0 0 0 0
0 0 0 0 0 0 0 0 0 0 0 0 0 0 0 0 0 0 0 0 0 0 0 0 0 0 0 0 0 0 0 0 0 0 0 0 0.065246971007457 0.0262649963267424 0 0 0 0 0 0 -0.248848706783708 0 0 0 0 0
0 0 0 0 0 0 0 0 0 0 0 0 0.224085090668249 0 0 0.0556898619923427 0.0702945503726768 0.120813955727941 0.0933947739959605 1.00425615269181 0 0 0.0927512540622864 0 0 0.543356477042219 0.30489157206567 0.0732327663484438 0 0 0 0 0 0 0 0 0 0 0 0 0 0 0 0 0 -0.248848706783708 0 0 0 0
0 0 0.127703474837243 0.322684921199232 0.0857104789163074 0 0 0 0 0 0 0 0 0 0 0 0 0 0 0 0 0 0 0 0 0 0 0 0 0 0 0 0 0 0 0 0 0 0 0 0 0 0 0 0 0 -0.248848706783708 0 0 0
0 0 0 0 0 0 0 0 0 0 0 0 0 0 0 0 0 0 0 0 0 0 0 0 0 0 0 0 0 0 0 0.116085853673339 0 0 0 0.121803980631643 0.399566473378727 0 0 0.139035546898265 0 0.318849467620494 0 0 0 0 0 -0.248848706783708 0 0
0 0 0 0 0 0 0 0 0 0 0 0 0 0 0.0608717743018899 0 0 0.0577773621153907 0 0 0.414288970376952 0 0.0281094999351443 0 0 0.0602823319563205 0 0.299464901839343 0.372377920177021 0 0 0 0 0 0 0 0 0 0 0 0 0 0 0 0 0 0 0 -0.248848706783708 0
0 0 0 0 0 0 0 0 0 0 0 0 0 0 0 0 0 0 0 0 0 0 0 0 0 0 0 0 0 0 0 0 0 0.266532495070963 1.24177695117304 0.177519134548769 0 0.05911101904414 0 0.121095395300886 0.0792101164162334 0 0 0 0 0 0 0 0 -0.248848706783708
