-0.208205906318311 0 -1.08588901734813 0 0 0 0 0 0 0 0 0 0 -5.90166038577249 0 0 0 0 0 0 0 0 0 0 0 0 0 0 0 0 0 0 0 0 0 0 0 0 0 0 0 0 0 0 0 0 -4.25160807774015 0 0 0
0 -0.208205906318311 0 0 0 -0.881815210742238 0 0 0 -10.5603540282614 0 0 0 0 0 0 0 0 0 0 0 0 -6.25347573663932 0 0 0 0 0 0 0 0 0 0 0 0 0 0 0 0 0 0 0 -0.331993949726519 0 0 0 -0.593194754330377 0 0 0
0.227789665065251 0 -0.208205906318311 0 0 -2.82089286332024 0 -0.437165050644224 0 -1.8628472862233 0 0 0 0 0 0 0 0 0 0 0 0 -0.810463538396486 0 0 0 0 0 0 0 0 0 0 0 0 0 0 0 0 0 0 0 -1.17633113636863 0 0 0 -2.82125059982122 0 0 0
0 0 0 -0.208205906318311 0 0 0 0 -6.7019379609812 -1.92828825024081 0 0 0 0 0 0 0 0 0 0 0 0 0 0 0 0 0 0 0 0 0 0 0 0 0 0 0 0 0 0 0 0 -1.85211129021121 0 0 0 0 0 0 0
0 0 0 0 -0.208205906318311 0 0 0 -0.0862358530415738 -1.44738910023686 0 0 0 0 -0.536621008676488 0 0 0 0 0 0 0 0 0 0 0 0 0 0 0 0 0 0 0 0 0 0 0 0 0 0 0 0 0 0 0 -6.84206769672268 0 0 0
0 0.188547424263899 0.557125352740764 0 0 -0.208205906318311 0 0 0 0 0 0 0 0 0 0 0 0 0 0 0 0 0 0 0 0 0 0 0 0 0 0 0 0 -2.54528071049088 0 0 0 0 0 0 0 0 0 0 0 0 0 0 0
0 0 0 0 0 0 -0.208205906318311 0 0 0 -1.62004434808853 0 0 0 0 0 0 0 0 0 0 0 0 0 0 0 0 0 0 -1.25261119894966 0 0 0 0 -1.04727827835849 0 0 0 0 0 0 0 0 0 0 0 0 0 0 0
0 0 0.0860561266794492 0 0 0 0 -0.208205906318311 0 0 0 -0.161918767821091 0 0 0 0 0 0 0 0 0 0 0 0 0 0 0 0 0 0 0 0 0 0 0 0 0 -0.572541507940901 0 0 0 0 0 0 0 -2.7817259260466 0 0 0 0
0 0 0 1.41856958315916 0.0164918693533419 0 0 0 -0.208205906318311 0 0 -1.00139224882667 0 0 0 -3.1521949425174 0 0 0 0 0 0 0 0 0 0 -1.1779701095399 0 0 -0.851651327792948 0 -2.54636270912333 0 0 0 0 0 0 0 0 0 0 0 0 0 0 0 0 0 0
0 2.1635207469455 0.369502469568514 0.383222919277536 0.296897608840568 0 0 0 0 -0.208205906318311 0 -0.443275825994052 0 0 0 0 0 0 0 0 0 0 0 0 0 0 0 0 0 -1.6628680625865 0 -1.84457328682147 0 0 0 0 0 -1.21885869054673 0 0 0 0 0 0 0 0 -1.03052928456759 0 0 0
0 0 0 0 0 0 0.327572398603799 0 0 0 -0.208205906318311 -0.737789370660697 0 0 0 0 0 0 0 0 0 0 0 0 0 0 -5.54982053815481 0 0 -4.81757582754313 0 -1.31351648770842 0 -0.794236389918147 0 0 0 0 0 0 0 0 0 0 0 -2.29424448915871 -0.630344918006869 0 0 0
0 0 0 0 0 0 0 0.0318237340547071 0.182966884306209 0.0872683242968095 0.155083660743474 -0.208205906318311 0.16936448939034 0.067421357283686 0 0 -0.738719854510106 0 0 0 0 0 0 0 0 0 -4.3638475314639 -3.24079973122419 0 0 0 -0.0887858392827185 0 0 0 0 0 0 0 0 0 0 0 0 0 -1.46454672373995 -1.45242711357181 0 0 0
0 0 0 0 0 0 0 0 0 0 0 -0.852042251486365 -0.208205906318311 0 0 0 0 0 0 0 0 0 0 0 0 0 0 -0.300044719976677 0 0 0 0 0 -0.29895987907056 0 0 0 0 0 0 0 0 0 0 0 0 0 0 0 0
1.2283234385716 0 0 0 0 0 0 0 0 0 0 -0.338338353904114 0 -0.208205906318311 0 0 0 0 0 0 0 0 0 0 0 0 0 0 0 0 0 0 0 0 0 0 0 0 -0.916721123766565 0 0 0 0 0 0 0 0 0 0 0
0 0 0 0 0.105026422660241 0 0 0 0 0 0 0 0 0 -0.208205906318311 0 0 0 0 0 0 0 0 0 0 0 0 -1.3728278327702 0 0 -1.00890719739438 0 0 -4.39803011484486 0 0 0 0 -5.96216828303674 0 0 0 0 0 0 -0.682172356850645 -0.238755981328092 0 0 0
0 0 0 0 0 0 0 0 0.676460143642362 0 0 0 0 0 0 -0.208205906318311 0 -0.359942396273581 0 -0.720067287990001 0 0 0 -1.08195042236405 0 0 0 0 0 0 -1.49583520349758 0 0 -0.524251765508119 0 0 0 0 -0.719095796044817 0 0 0 0 -1.06086509367542 0 0 -2.12381968033593 0 -0.729172033677116 0
0 0 0 0 0 0 0 0 0 0 0 0.155207585354194 0 0 0 0 -0.208205906318311 -0.369710854134941 0 0 0 0 0 -0.95171834565362 -3.8275743806991 0 0 -5.49438661726862 0 0 0 0 0 0 0 0 -3.00552127345029 0 -1.36410422758495 0 0 0 0 0 0 0 -0.787917944075386 0 -2.15593565625797 0
0 0 0 0 0 0 0 0 0 0 0 0 0 0 0 0.0640075704250341 0.073501003081283 -0.208205906318311 0 -3.96851322090934 0 0 0 0 0 0 0 -0.283238758850505 0 0 0 0 0 0 0 0 -0.961678315426755 -0.424293527456633 0 0 0 0 0 -0.505946902582674 0 0 0 0 0 0
0 0 0 0 0 0 0 0 0 0 0 0 0 0 0 0 0 0 -0.208205906318311 0 -0.618334413301408 0 0 0 0 0 0 0 0 0 0 0 0 0 0 -1.18532020977757 0 0 0 0 0 0 0 0 0 0 0 0 0 0
0 0 0 0 0 0 0 0 0 0 0 0 0 0 0 0.144770467355376 0 0.781550205951628 0 -0.208205906318311 0 -1.26513409383896 0 0 0 0 0 0 0 0 0 0 0 0 0 -5.19140621363755 0 0 0 0 0 0 0 0 0 0 0 0 0 0
0 0 0 0 0 0 0 0 0 0 0 0 0 0 0 0 0 0 0.116997802885151 0 -0.208205906318311 -0.346353719229688 0 0 0 0 0 -0.77156317800621 0 0 0 0 0 0 0 -0.287713905545024 0 0 0 0 0 0 0 0 0 0 0 0 0 0
0 0 0 0 0 0 0 0 0 0 0 0 0 0 0 0 0 0 0 0.250473185513371 0.0751735315619204 -0.208205906318311 0 0 0 0.29250990036928 0 -0.129000118066776 0 0 0 0 0 0 0 0 0 0 0 0 0 0 0 0 0 0 0 0 0 0
0 1.17168744870507 0.179416879272066 0 0 0 0 0 0 0 0 0 0 0 0 0 0 0 0 0 0 0 -0.208205906318311 0 0 0 0 -2.15779278056351 0 0 0 0 0 0 0 0 0 0 0 0 0 0 0 0 0 0 0 0 0 0
0 0 0 0 0 0 0 0 0 0 0 0 0 0 0 0.211141945493097 0.186411805637276 0 0 0 0 0 0 -0.208205906318311 0 0 0 0 0 0 0 0 0 0 0 -0.624094354251859 0 0 0 0 0 0 0 0 0 0 0 0 0 -0.463802315483531
0 0 0 0 0 0 0 0 0 0 0 0 0 0 0 0 0.736057504853699 0 0 0 0 0 0 0 -0.208205906318311 0 0 -1.70709777730612 0 0 0 0 0 0 0 -0.373333987380199 0 0 0 0 0 0 0 0 0 0 0 0 0 0
0 0 0 0 0 0 0 0 0 0 0 0 0 0 0 0 0 0 0 0 0 -1.37471717606151 0 0 0 -0.208205906318311 0 -3.3148484207881 0 0 0 0 0 0 0 0 0 0 0 0 0 0 0 0 0 0 0 0 0 0
0 0 0 0 0 0 0 0 0.228925319480113 0 1.20497468748079 0.884527328111663 0 0 0 0 0 0 0 0 0 0 0 0 0 0 -0.208205906318311 0 0 0 0 0 0 0 0 -1.24139586274886 0 0 0 0 0 0 0 0 0 0 0 0 0 0
0 0 0 0 0 0 0 0 0 0 0 0.602627303402777 0.0612615691269532 0 0.271888136665654 0 1.12019379199355 0.0559619228272891 0 0 0.150995263484863 0.0267121462569622 0.447162038450494 0 0.33395652820827 0.670395850307339 0 -0.208205906318311 0.818696448470819 0 0 0 0.293907837909717 0 0 0 0 0 0 0 0 0 0 0 0 0 0 -0.777739325401467 0 0
0 0 0 0 0 0 0 0 0 0 0 0 0 0 0 0 0 0 0 0 0 0 0 0 0 0 0 -4.1290690280179 -0.208205906318311 0 0 0 0 0 0 0 0 0 0 0 0 0 0 0 0 0 0 -1.61348939113387 0 0
0 0 0 0 0 0 0.258271647921382 0 0.165226780110528 0.318604837662036 0.963720891913427 0 0 0 0 0 0 0 0 0 0 0 0 0 0 0 0 0 0 -0.208205906318311 0 0 0 0 0 0 0 0 0 0 0 0 0 0 0 0 0 0 0 -3.37211943839436
0 0 0 0 0 0 0 0 0 0 0 0 0 0 0.189313314328063 0.264781474373429 0 0 0 0 0 0 0 0 0 0 0 0 0 0 -0.208205906318311 0 0 0 0 0 0 0 0 0 0 0 0 0 0 0 0 0 0 0
0 0 0 0 0 0 0 0 0.541174727692804 0.383827198643224 0.26538095981569 0.0178517727829615 0 0 0 0 0 0 0 0 0 0 0 0 0 0 0 0 0 0 0 -0.208205906318311 0 0 0 0 0 0 0 0 0 0 0 0 0 0 0 0 0 -0.45403062265703
0 0 0 0 0 0 0 0 0 0 0 0 0 0 0 0 0 0 0 0 0 0 0 0 0 0 0 -1.40516458143591 0 0 0 0 -0.208205906318311 0 0 0 0 0 0 0 0 0 0 0 0 0 0 0 0 0
0 0 0 0 0 0 0 0 0 0 0.155248576575016 0 0.0574780346356131 0 0.959710109516765 0.0981476808612821 0 0 0 0 0 0 0 0 0 0 0 0 0 0 0 0 0 -0.208205906318311 0 0 0 0 0 0 0 0 0 0 0 0 0 0 0 0
0 0 0 0 0 0.53795963954308 0.19503905435165 0 0 0 0 0 0 0 0 0 0 0 0 0 0 0 0 0 0 0 0 0 0 0 0 0 0 0 -0.208205906318311 0 0 0 0 0 0 -0.367626070192316 0 0 0 0 0 0 0 -7.35423706794539
0 0 0 0 0 0 0 0 0 0 0 0 0 0 0 0 0 0 0.209604629195277 1.02181446234903 0.0546918122406215 0 0 0.128996409427549 0.0754105485677531 0 0.244945724495642 0 0 0 0 0 0 0 0 -0.208205906318311 0 0 0 0 0 -0.314192578344463 0 0 -0.511408730339729 0 0 0 0 0
0 0 0 0 0 0 0 0 0 0 0 0 0 0 0 0 0.638551089356079 0.1801828640295 0 0 0 0 0 0 0 0 0 0 0 0 0 0 0 0 0 0 -0.208205906318311 0 0 0 0 0 0 0 0 0 0 0 0 0
0 0 0 0 0 0 0 0.113208729753795 0 0.233121803031559 0 0 0 0 0 0 0 0.0934109134793832 0 0 0 0 0 0 0 0 0 0 0 0 0 0 0 0 0 0 0 -0.208205906318311 0 0 0 0 0 0 -1.22822602935436 0 0 0 0 0
0 0 0 0 0 0 0 0 0 0 0 0 0 0.169978851887266 1.15443258553207 0.153660196808858 0.266513180977206 0 0 0 0 0 0 0 0 0 0 0 0 0 0 0 0 0 0 0 0 0 -0.208205906318311 0 -5.96324729095217 -0.316582456538954 0 0 -0.670937852586224 0 0 0 0 0
0 0 0 0 0 0 0 0 0 0 0 0 0 0 0 0 0 0 0 0 0 0 0 0 0 0 0 0 0 0 0 0 0 0 0 0 0 0 0 -0.208205906318311 -1.13582555838542 0 0 0 0 0 0 0 0 0
0 0 0 0 0 0 0 0 0 0 0 0 0 0 0 0 0 0 0 0 0 0 0 0 0 0 0 0 0 0 0 0 0 0 0 0 0 0 1.16451360423323 0.215902890127737 -0.208205906318311 -2.50071587313014 0 0 0 0 0 0 0 0
0 0 0 0 0 0 0 0 0 0 0 0 0 0 0 0 0 0 0 0 0 0 0 0 0 0 0 0 0 0 0 0 0 0 0.074115589671505 0.0587492377586279 0 0 0.0631192267405056 0 0.482311187582359 -0.208205906318311 2.14522068331722 0 -2.46727586115959 0 0 0 0 0
0 0.0708049025253803 0.23124271594981 0.365485752852701 0 0 0 0 0 0 0 0 0 0 0 0 0 0 0 0 0 0 0 0 0 0 0 0 0 0 0 0 0 0 0 0 0 0 0 0 0 -10.889610336269 -0.208205906318311 0 -2.56703552626646 0 0 0 0 0
0 0 0 0 0 0 0 0 0 0 0 0 0 0 0 0.206358476706836 0 0.0981825147868994 0 0 0 0 0 0 0 0 0 0 0 0 0 0 0 0 0 0 0 0 0 0 0 0 0 -0.208205906318311 0 0 0 0 0 0
0 0 0 0 0 0 0 0 0 0 0 0 0 0 0 0 0 0 0 0 0 0 0 0 0 0 0 0 0 0 0 0 0 0 0 0.104315008892934 0 0.246821729701076 0.123933349207144 0 0 0.506303031418335 0.507365088663449 0 -0.208205906318311 0 0 0 0 0
0 0 0 0 0 0 0 0.542461622272866 0 0 0.452462336801382 0.276377320696131 0 0 0.139606607502194 0 0 0 0 0 0 0 0 0 0 0 0 0 0 0 0 0 0 0 0 0 0 0 0 0 0 0 0 0 0 -0.208205906318311 0 0 0 0
0.84922898020727 0.124634042232176 0.574260057930889 0 1.32500930709198 0 0 0 0 0.212599698718306 0.127515931037168 0.303778868802938 0 0 0.0507647186910908 0.435913732233657 0.157511140331535 0 0 0 0 0 0 0 0 0 0 0 0 0 0 0 0 0 0 0 0 0 0 0 0 0 0 0 0 0 -0.208205906318311 0 0 0
0 0 0 0 0 0 0 0 0 0 0 0 0 0 0 0 0 0 0 0 0 0 0 0 0 0 0 0.147989731669922 0.329226766168956 0 0 0 0 0 0 0 0 0 0 0 0 0 0 0 0 0 0 -0.208205906318311 0 0
0 0 0 0 0 0 0 0 0 0 0 0 0 0 0 0.138258237135249 0.405117086163998 0 0 0 0 0 0 0 0 0 0 0 0 0 0 0 0 0 0 0 0 0 0 0 0 0 0 0 0 0 0 0 -0.208205906318311 0
0 0 0 0 0 0 0 0 0 0 0 0 0 0 0 0 0 0 0 0 0 0 0 0.0972111579082313 0 0 0 0 0 0.711316960155209 0 0.0884200869357415 0 0 1.45351252625326 0 0 0 0 0 0 0 0 0 0 0 0 0 0 -0.208205906318311
