-0.201998666582573 0 0 0 0 0 0 0 -1.70781812821393 0 0 0 0 0 0 0 0 0 0 0 0 0 0 0 0 0 0 0 0 0 0 0 0 0 0 0 0 0 0 0 0 0 0 0 0 0 0 0 0 0
0 -0.201998666582573 0 -2.81303108403897 0 0 0 0 -1.69670716346443 0 0 0 0 0 0 0 0 -0.363342479372432 0 0 0 0 0 0 0 0 0 0 0 0 0 0 0 0 0 0 0 0 0 0 0 0 0 0 0 0 -1.67554907636071 0 0 0
0 0 -0.201998666582573 0 0 0 -0.697443798648846 0 0 0 0 0 0 0 0 0 0 -8.18780192814286 0 0 0 0 0 0 0 0 -0.619971136702431 0 0 0 0 0 0 0 0 0 0 0 0 0 0 0 0 0 0 0 0 0 0 0
0 0.548608610382513 0 -0.201998666582573 0 0 0 0 0 0 0 0 0 0 0 0 0 -3.10742642786346 0 0 0 0 0 0 0 0 -0.167199073488639 0 0 0 0 0 0 0 0 0 0 0 0 -0.380895474862607 0 0 0 0 0 0 0 0 0 0
0 0 0 0 -0.201998666582573 0 0 0 0 0 0 0 0 0 0 0 0 -0.873466627389682 0 0 0 0 0 0 0 0 0 0 0 0 0 0 0 0 0 0 0 0 0 0 0 0 0 0 0 0 -0.27912125508466 0 0 0
0 0 0 0 0 -0.201998666582573 0 0 0 0 0 0 0 0 0 -0.613423468774249 0 0 0 -0.186392436176581 0 0 0 0 0 0 0 0 0 0 0 0 0 0 0 0 0 0 0 0 0 0 0 0 0 0 -1.14461812765405 0 0 0
0 0 0.134136149838926 0 0 0 -0.201998666582573 0 0 0 0 0 0 0 -0.843119841575976 -1.41663048668507 0 -2.23147601552031 0 -0.200200606912186 0 0 0 0 0 0 0 0 0 0 0 0 0 -0.758217261513883 0 0 0 0 0 -1.68435787931141 0 0 0 0 0 0 0 0 0 0
0 0 0 0 0 0 0 -0.201998666582573 0 0 -0.250496679254941 0 0 0 0 0 0 0 0 -2.88400552963236 0 0 0 0 0 0 0 0 0 -3.98574061673732 0 0 0 -0.559787787507739 0 0 0 0 0 0 0 0 0 0 0 0 0 0 0 0
0.339973871897061 0.294553565367587 0 0 0 0 0 0 -0.201998666582573 0 -1.45855973497364 0 0 -0.81614503384201 0 0 0 0 0 0 0 0 0 0 0 0 0 0 0 0 0 0 0 0 0 0 0 0 0 0 -0.542679715656221 0 0 -3.39541371203986 0 -0.274262744226201 0 0 0 0
0 0 0 0 0 0 0 0 0 -0.201998666582573 -2.88419511606319 0 0 0 0 0 -4.39977391263833 0 0 0 0 0 0 0 0 0 0 0 0 -3.79522880708916 0 0 0 -0.875920828838073 0 0 0 0 0 0 0 0 0 -0.687580424647557 0 -0.799421791858612 0 0 0 0
0 0 0 0 0 0 0 0.0465004021498523 0.302713436400413 0.600483500150043 -0.201998666582573 0 0 0 0 0 0 0 0 -2.50015214361531 0 0 0 0 0 0 0 -0.281463262382599 0 0 0 0 0 -1.36950880304213 0 0 0 0 0 0 0 0 0 0 0 -1.37719536378644 0 -0.173377771494169 0 0
0 0 0 0 0 0 0 0 0 0 0 -0.201998666582573 0 0 0 0 -0.646828512617147 0 0 0 0 0 0 0 0 0 0 -0.228658056484454 0 -0.417016563197875 0 0 0 0 0 0 0 0 0 0 -0.492022481472017 0 0 0 0 -1.09931971037378 0 -1.08651606246672 0 0
0 0 0 0 0 0 0 0 0 0 0 0 -0.201998666582573 0 0 0 -0.328401761245268 0 0 0 0 0 0 0 0 0 0 -1.45201162399501 0 -1.95369412720245 0 0 0 0 0 0 0 0 0 0 -1.10824420067168 0 0 0 0 -4.64335102562758 0 -0.944221919557309 0 0
0 0 0 0 0 0 0 0 0.164250137726603 0 0 0 0 -0.201998666582573 0 0 -0.248281309546101 0 0 0 -0.102290126658947 -0.107655047770396 0 0 0 0 0 0 0 0 0 0 0 0 0 0 0 0 0 0 -0.226753348387317 0 0 0 0 0 0 -2.26510067065077 0 0
0 0 0 0 0 0 0.169084893682788 0 0 0 0 0 0 0 -0.201998666582573 0 0 0 0 0 -3.91978327456078 0 0 0 0 -0.433045391869612 0 0 0 0 0 0 0 0 -1.03789011647153 0 0 0 0 0 0 0 0 0 0 0 0 -1.59856998223802 0 0
0 0 0 0 0 0.120584299651702 0.287095148242398 0 0 0 0 0 0 0 0 -0.201998666582573 0 0 0 0 0 0 0 0 0 0 0 0 0 0 0 0 0 0 -1.27290061719607 0 0 0 0 0 0 0 0 0 0 -1.87828102764856 0 -1.07233038867684 0 0
0 0 0 0 0 0 0 0 0 0.790167459305506 0 0.126051737151278 0.0625540186457208 0.0516648379031254 0 0 -0.201998666582573 0 0 0 0 0 0 0 0 0 0 0 0 0 0 0 0 0 -2.49416207632794 0 0 0 0 0 0 0 0 0 0 0 0 0 0 0
0 0.0772072747294731 1.73199440458031 0.646489422544853 0.165583384949434 0 0.461823309201242 0 0 0 0 0 0 0 0 0 0 -0.201998666582573 0 0 0 0 0 -0.621343580881661 0 0 0 0 0 0 0 0 0 0 -0.316549009915838 0 0 0 0 0 0 0 0 0 0 0 0 -0.149912612691903 0 0
0 0 0 0 0 0 0 0 0 0 0 0 0 0 0 0 0 0 -0.201998666582573 0 0 0 0 -1.17771290921732 0 0 0 0 0 0 -6.12223323960649 0 0 0 0 0 0 0 0 0 0 0 0 0 0 0 0 -0.559071707583652 0 0
0 0 0 0 0 0.0396263808498795 0.0377080715016467 0.575280744417106 0 0 0.516532022967712 0 0 0 0 0 0 0 0 -0.201998666582573 0 0 0 0 0 0 0 0 0 0 -3.38394577537189 0 0 0 0 0 0 0 0 0 0 0 0 0 0 0 0 -0.620386050396296 0 0
0 0 0 0 0 0 0 0 0 0 0 0 0 0.0192669181957488 0.75599764995542 0 0 0 0 0 -0.201998666582573 0.049366973562439 0.305133735532811 0 0.659217049140849 0.239825589463397 0.651903785330958 0 0 0 0 0 -2.04498099228318 0 0 0 0 0 0 0 0 0 0 0 0 0 0 0 0 0
0 0 0 0 0 0 0 0 0 0 0 0 0 0.0214878726636036 0 0 0 0 0 0 -0.241004029896028 -0.201998666582573 0 0 0 0 0 0 0 0 0 0 -2.14843582076739 0 0 -1.81169038819203 0 0 0 0 0 0 0 0 0 0 0 -0.926388775569519 0 0
0 0 0 0 0 0 0 0 0 0 0 0 0 0 0 0 0 0 0 0 -1.47019291950935 0 -0.201998666582573 0 0 0 0 0 0 0 0 -0.497408556642225 0 0 0 -0.41987528459201 0 0 0 0 0 0 0 0 0 0 0 -1.36751853228765 0 0
0 0 0 0 0 0 0 0 0 0 0 0 0 0 0 0 0 0.110319129086079 0.241852239835302 0 0 0 0 -0.201998666582573 0 0 0 0 0 0 0 0 0 0 0 0 0 0 -0.265914693932446 0 0 0 0 0 0 0 0 -0.28098731497229 0 0
0 0 0 0 0 0 0 0 0 0 0 0 0 0 0 0 0 0 0 0 -3.36000100919279 0 0 0 -0.201998666582573 0 0 0 0 0 0 0 0 0 0 0 0 0 0 0 0 0 0 0 0 0 0 -0.651079320413777 0 0
0 0 0 0 0 0 0 0 0 0 0 0 0 0 0.0836687044924319 0 0 0 0 0 -1.21834085207135 0 0 0 0 -0.201998666582573 0 0 0 0 0 0 0 0 0 0 0 0 0 0 0 0 0 0 0 0 0 0 0 0
0 0 0.123679693685306 0.0315437679175916 0 0 0 0 0 0 0 0 0 0 0 0 0 0 0 0 -3.3287766709702 0 0 0 0 0 -0.201998666582573 0 0 0 0 0 0 0 0 0 0 0 -0.695678475529385 0 0 0 0 0 0 0 0 -4.46027233878504 -0.537567933289434 0
0 0 0 0 0 0 0 0 0 0 0.058818577106975 0.0478756023008661 0.295971324402732 0 0 0 0 0 0 0 0 0 0 0 0 0 0 -0.201998666582573 0 0 0 0 0 0 0 0 0 0 -0.241683494742563 0 0 0 0 0 0 0 0 -1.2378349034872 0 0
0 0 0 0 0 0 0 0 0 0 0 0 0 0 0 0 0 0 0 0 0 0 0 0 0 0 0 0 -0.201998666582573 0 0 0 0 0 0 0 0 0 -3.59425411100542 0 0 0 0 0 0 0 0 -1.38060907247947 0 0
0 0 0 0 0 0 0 0.79450833168856 0 0.760534015546379 0 0.0863633886770689 0.383067254517687 0 0 0 0 0 0 0 0 0 0 0 0 0 0 0 0 -0.201998666582573 0 0 0 0 0 0 0 0 0 0 0 0 0 0 0 0 0 0 -0.581541335930596 0
0 0 0 0 0 0 0 0 0 0 0 0 0 0 0 0 0 0 1.18251638437791 0.688301014982319 0 0 0 0 0 0 0 0 0 0 -0.201998666582573 0 0 0 0 0 0 0 -1.90102761513974 0 0 0 0 0 0 0 0 0 0 0
0 0 0 0 0 0 0 0 0 0 0 0 0 0 0 0 0 0 0 0 0 0 0.0909379037260224 0 0 0 0 0 0 0 0 -0.201998666582573 0 0 0 0 0 0 -1.40156998755459 0 0 0 0 0 0 0 0 0 -0.450635231985664 0
0 0 0 0 0 0 0 0 0 0 0 0 0 0 0 0 0 0 0 0 0.424266091574114 0.461403758835768 0 0 0 0 0 0 0 0 0 0 -0.201998666582573 0 0 0 0 0 -0.153163329794691 0 0 0 0 0 0 0 0 0 -0.187550325409335 0
0 0 0 0 0 0 0.154049171008056 0.117203148080109 0 0.179920022890066 0.285206118032877 0 0 0 0 0 0 0 0 0 0 0 0 0 0 0 0 0 0 0 0 0 0 -0.201998666582573 0 0 0 0 -0.682431480378318 0 0 0 0 0 0 0 0 0 0 0
0 0 0 0 0 0 0 0 0 0 0 0 0 0 0.203616616246595 0.237655557667199 0.460845933239628 0.0602641859951607 0 0 0 0 0 0 0 0 0 0 0 0 0 0 0 0 -0.201998666582573 0 0 0 -4.36205459915034 0 0 0 0 0 0 0 0 0 0 0
0 0 0 0 0 0 0 0 0 0 0 0 0 0 0 0 0 0 0 0 0 0.342269678091853 0.0861418617611965 0 0 0 0 0 0 0 0 0 0 0 0 -0.201998666582573 0 -2.33409604788053 0 0 0 0 0 0 0 0 0 0 0 -1.27230415017845
0 0 0 0 0 0 0 0 0 0 0 0 0 0 0 0 0 0 0 0 0 0 0 0 0 0 0 0 0 0 0 0 0 0 0 0 -0.201998666582573 0 0 0 0 0 -0.606432175500242 0 0 0 0 0 0 0
0 0 0 0 0 0 0 0 0 0 0 0 0 0 0 0 0 0 0 0 0 0 0 0 0 0 0 0 0 0 0 0 0 0 0 0.478652097733071 0 -0.201998666582573 0 0 0 0 -1.32832910130746 0 0 0 0 0 0 -0.506104921091593
0 0 0 0 0 0 0 0 0 0 0 0 0 0 0 0 0 0 0 0 0 0 0 0.0518708120345548 0 0 0.136320499424623 0.0509816042675246 0.775107167175297 0 0.379346765168349 0.292280097283303 0.0324139262066374 0.147619475124866 0.936335110786088 0 0 0 -0.201998666582573 0 0 0 -0.8900811645344 0 0 0 0 0 0 0
0 0 0 0.0748877654597274 0 0 0.306682431568116 0 0 0 0 0 0 0 0 0 0 0 0 0 0 0 0 0 0 0 0 0 0 0 0 0 0 0 0 0 0 0 0 -0.201998666582573 0 0 0 0 0 0 0 0 0 0
0 0 0 0 0 0 0 0 0.113087549734792 0 0 0.0911615076128532 0.197741410293077 0.0475025779109975 0 0 0 0 0 0 0 0 0 0 0 0 0 0 0 0 0 0 0 0 0 0 0 0 0 0 -0.201998666582573 0 0 0 0 0 0 0 0 -0.642677898524557
0 0 0 0 0 0 0 0 0 0 0 0 0 0 0 0 0 0 0 0 0 0 0 0 0 0 0 0 0 0 0 0 0 0 0 0 0 0 0 0 0 -0.201998666582573 0 0 0 0 0 0 0 -2.07928734906121
0 0 0 0 0 0 0 0 0 0 0 0 0 0 0 0 0 0 0 0 0 0 0 0 0 0 0 0 0 0 0 0 0 0 0 0 0.126088074659402 0.271062518837649 0.180139147772647 0 0 0 -0.201998666582573 0 0 0 0 0 0 -1.79007224033221
0 0 0 0 0 0 0 0 0.659765489032813 0.124527276825508 0 0 0 0 0 0 0 0 0 0 0 0 0 0 0 0 0 0 0 0 0 0 0 0 0 0 0 0 0 0 0 0 0 -0.201998666582573 0 0 0 0 0 0
0 0 0 0 0 0 0 0 0 0 0 0 0 0 0 0 0 0 0 0 0 0 0 0 0 0 0 0 0 0 0 0 0 0 0 0 0 0 0 0 0 0 0 0 -0.201998666582573 0 0 0 0 -1.63315427194498
0 0 0 0 0 0 0 0 0.0561802485717471 0.154232174755268 0.256398619962318 0.204876012906843 0.907281522845733 0 0 0.410192886868564 0 0 0 0 0 0 0 0 0 0 0 0 0 0 0 0 0 0 0 0 0 0 0 0 0 0 0 0 0 -0.201998666582573 0 0 0 0
0 0.33671777477169 0 0 0.0565029973353893 0.221292549500839 0 0 0 0 0 0 0 0 0 0 0 0 0 0 0 0 0 0 0 0 0 0 0 0 0 0 0 0 0 0 0 0 0 0 0 0 0 0 0 0 -0.201998666582573 0 0 0
0 0 0 0 0 0 0 0 0 0 0.035072663317882 0.232319600642827 0.184390264129313 0.469551578313606 0.312422883033865 0.230835029393897 0 0.0320658665473766 0.112292104436896 0.12582901006113 0 0.178466627807544 0.27302867739074 0.0563299554505066 0.132425928804898 0 0.865585282114255 0.259901594614734 0.275417633408669 0 0 0 0 0 0 0 0 0 0 0 0 0 0 0 0 0 0 -0.201998666582573 0 -2.48818980154166
0 0 0 0 0 0 0 0 0 0 0 0 0 0 0 0 0 0 0 0 0 0 0 0 0 0 0.10602479423118 0 0 0.113626610148006 0 0.094561543759153 0.0406768661023463 0 0 0 0 0 0 0 0 0 0 0 0 0 0 0 -0.201998666582573 0
0 0 0 0 0 0 0 0 0 0 0 0 0 0 0 0 0 0 0 0 0 0 0 0 0 0 0 0 0 0 0 0 0 0 0 0.244905201038064 0 0.104083208294814 0 0 0.134559725534073 0.409761366084402 0.33353227718742 0 0.327402521258952 0 0 0.471712524942575 0 -0.201998666582573
