0.775012916690047
2.22399290463961
1.8124016732849
0.652696247627574
0.562567014047296
0.421936563944156
0.547200681919588
5.4836514144813
1.16285084832337
0.614963009297293
1.69253348294797
0.973993756676302
1.49439585178319
0.223606076493748
0.904310786071465
0.507166794351612
0.565235305506998
0.901093824892643
0.397964728571548
1.16993811186141
1.1535048276829
7.05424454666634
0.790154881559396
2.86010331457928
1.02721908392787
2.60381117817466
0.930299086327991
0.327298281236424
0.97279477740775
1.41580161439981
3.67786091152658
0.441014233877466
0.247830834360007
0.683021805593696
0.604520856477846
0.871237261721009
0.606461399790431
3.56279051274981
0.536648576846807
2.21996526469599
0.904819165779919
3.68829802486961
0.265763083967921
1.25421695256177
0.30755652094202
0.730051528745532
0.661889020626594
0.689258793916092
0.599822011287931
0.502347552078376
