0.923614305424431
0.671241141035058
1.01067372994494
0.857479926724288
0.899595023649378
0.184350218042803
0.426111642357021
0.601608561437751
0.238858910539462
1.247646764285
0.715243256811521
0.241643420443847
0.5085601780231
1.47373384503582
0.459193639740716
2.11623711434173
1.25271028105168
0.23335115482235
1.6403565912322
3.02933706008472
4.55480903920926
0.236357944863155
0.834267870046598
4.26290581979864
0.265091722232533
0.598343984129847
0.393942710389353
1.68050546882034
2.12669412552907
0.869349660300811
0.0657624552761277
0.412611707169664
0.908402127027422
0.557776760008369
0.932057003789042
0.510958291610201
0.72113517799089
1.07141423767643
1.80199521111189
1.44676492976165
6.2233217191946
1.00412412817043
0.435096925214346
6.82186241983963
4.6170216561098
1.43849272500305
0.373950092233504
0.422663840804785
1.7364009715709
0.172465407341998
