-0.278611851564224 0 0 -0.509585034216188 0 0 0 0 0 0 0 0 0 0 0 0 0 0 0 0 0 0 0 0 0 0 0 0 0 0 0 0 0 0 0 0 0 0 0 0 0 0 0 0 0 0 0 0 0 0
0 -0.278611851564224 0 -3.6892167690157 0 0 0 0 0 0 0 0 0 0 0 0 0 0 0 0 0 0 0 0 0 0 0 0 0 0 0 0 0 0 0 0 0 0 0 0 0 0 0 0 0 0 0 0 0 0
0 0 -0.278611851564224 0 -0.696467315207736 0 0 -2.95658978169207 0 0 0 0 0 0 0 0 0 0 0 0 0 0 0 0 0 0 0 0 0 0 0 0 0 0 0 0 0 0 0 0 0 0 0 0 0 0 0 0 0 0
0.112392657347509 0.785144434924046 0 -0.278611851564224 0 0 0 0 0 0 0 -0.390514002623201 0 0 0 0 -2.07437150893431 0 0 0 0 0 0 0 0 0 0 0 0 0 0 0 0 0 0 0 0 0 0 0 0 0 0 0 0 0 0 0 0 0
0 0 0.147920966086338 0 -0.278611851564224 0 0 0 0 0 -2.02856376117934 -0.163223202722493 0 0 0 0 0 0 0 0 0 0 0 0 0 0 0 0 0 0 0 0 0 0 0 0 0 0 0 0 0 0 0 0 0 0 0 0 0 0
0 0 0 0 0 -0.278611851564224 0 0 0 0 0 0 0 0 0 0 0 0 0 0 0 0 0 0 0 -1.10884511024271 0 0 0 0 0 0 0 0 0 0 0 0 0 0 0 0 0 0 0 0 0 0 0 0
0 0 0 0 0 0 -0.278611851564224 0 0 0 0 0 0 0 0 0 0 0 0 0 0 0 0 0 0 -0.953234719882233 0 0 0 0 0 0 0 0 0 0 0 0 0 0 0 0 0 0 0 0 0 0 0 0
0 0 0.570072685000848 0 0 0 0 -0.278611851564224 0 0 0 0 0 0 0 0 0 0 0 0 -0.584973065781803 0 0 0 0 0 0 0 0 0 0 0 0 0 0 0 0 0 0 0 0 0 0 0 0 -1.83416906099266 0 0 0 0
0 0 0 0 0 0 0 0 -0.278611851564224 0 0 0 0 0 0 0 0 0 0 0 -0.753054292843152 0 0 0 0 -2.14900392820881 0 0 0 0 0 0 0 0 0 0 0 0 0 0 0 0 0 0 0 -0.258698051784093 0 0 0 0
0 0 0 0 0 0 0 0 0 -0.278611851564224 0 0 0 0 -1.73792778150048 0 0 0 0 0 0 -0.158771470041302 0 0 0 0 0 0 0 -0.137206075439798 0 0 0 0 0 0 0 0 0 0 0 0 0 0 0 0 0 0 0 0
0 0 0 0 0.410402472560332 0 0 0 0 0 -0.278611851564224 0 0 0 0 0 0 0 0 0 -4.81612444204366 -1.25229968936588 -4.6551781724612 0 0 0 0 0 0 0 0 0 0 0 0 0 0 0 0 0 0 0 0 0 0 -2.45912041150855 0 0 0 -0.252150793089745
0 0 0 0.0795866510015864 0.0328134201948899 0 0 0 0 0 0 -0.278611851564224 0 0 0 0 0 0 0 0 0 0 0 0 0 0 0 0 0 -0.475639029654021 0 0 0 0 0 0 0 0 0 0 0 0 0 0 0 -1.74739255383908 0 0 0 0
0 0 0 0 0 0 0 0 0 0 0 0 -0.278611851564224 -1.60699054557553 0 0 0 0 0 0 0 -3.98212441093118 0 0 -2.1562852155478 0 0 0 0 -2.67818245647642 0 0 0 0 0 0 0 0 0 0 -0.997527744381497 0 0 0 0 -0.90072003233964 0 0 0 -0.732342909329174
0 0 0 0 0 0 0 0 0 0 0 0 0.315917968077052 -0.278611851564224 0 0 0 0 0 0 0 -0.482298117738054 0 0 -0.760443947238599 0 0 -2.76129484998736 -0.330455964729476 0 0 0 0 0 0 0 0 0 0 -1.5569991406912 0 0 0 0 -0.0946786594809244 -1.86844048292122 0 0 0 -0.993152660356305
0 0 0 0 0 0 0 0 0 0.37331257609397 0 0 0 0 -0.278611851564224 0 0 0 0 0 0 -0.291832023391771 0 0 0 0 0 -10.6204821901203 0 -0.18880042322296 0 0 0 0 0 0 0 0 0 -1.55397911134932 -1.64736506049586 0 0 0 0 -0.190779102599371 -1.72623446439077 0 0 -3.98695818279108
0 0 0 0 0 0 0 0 0 0 0 0 0 0 0 -0.278611851564224 0 0 0 0 0 -3.54879869472778 0 0 -2.15679581999333 0 0 -1.05094310200524 -0.733033242027313 0 0 0 0 0 0 0 0 0 0 0 -0.535606444671167 -0.698504618817128 0 0 0 0 0 0 0 0
0 0 0 0.416065449208966 0 0 0 0 0 0 0 0 0 0 0 0 -0.278611851564224 0 0 0 0 -0.798785339445681 0 0 0 0 0 -1.08973964830342 0 -0.811206977334373 0 0 0 0 0 0 0 0 0 0 -0.129643078119022 -0.803948223807613 0 0 -2.69268284628576 0 0 0 0 0
0 0 0 0 0 0 0 0 0 0 0 0 0 0 0 0 0 -0.278611851564224 0 0 0 0 0 0 -1.53598020915261 0 0 -0.31151049920694 -0.452961113513116 -0.900200692162679 0 0 0 -0.493388409303166 0 0 0 0 0 -0.0584716352911046 -0.0451118385512022 -2.10652169414493 0 0 0 0 -0.923603297793436 0 0 0
0 0 0 0 0 0 0 0 0 0 0 0 0 0 0 0 0 0 -0.278611851564224 0 0 0 0 0 -1.45028278623419 0 0 0 -2.08251026300813 -3.95391740926327 0 0 0 -0.929046714458317 0 0 0 0 0 -1.37678861682728 -0.953183087253892 -3.43144969980864 0 0 0 0 -2.55595724500055 0 0 0
0 0 0 0 0 0 0 0 0 0 0 0 0 0 0 0 0 0 0 -0.278611851564224 0 0 0 0 -1.25176106008905 0 0 -0.780850392787397 0 -2.47509609725431 0 0 0 0 0 0 0 0 0 0 -0.406598433463783 -1.31401919517022 0 0 0 0 0 0 0 0
0 0 0 0 0 0 0 0.120461698516738 0.148544782143392 0 0.921400257701981 0 0 0 0 0 0 0 0 0 -0.278611851564224 0 0 0 -1.35447091822738 0 0 -1.93182731580031 0 -0.175766224982029 0 0 0 0 0 -2.08499782699115 0 0 0 0 -4.5573333311069 -0.932607731293307 0 0 0 -1.29145822452153 0 0 0 0
0 0 0 0 0 0 0 0 0 0.0341414404891456 0.264117589266944 0 0.794761521723457 0.0903277054593011 0.0639631431175985 0.690404385561445 0.152026532190712 0 0 0 0 -0.278611851564224 0 -0.425232716406838 0 0 0 0 0 -0.133142258303838 0 0 0 0 0 0 0 0 0 0 -1.36531844463793 -1.31123517617902 0 0 0 -0.0796842481011282 0 0 0 0
0 0 0 0 0 0 0 0 0 0 0.872218258931491 0 0 0 0 0 0 0 0 0 0 0 -0.278611851564224 -0.549703103445427 0 0 0 0 0 -0.931260555880347 -0.88663827813256 0 0 0 0 0 0 0 0 0 0 -3.25491253704947 0 0 0 -0.102650526143348 0 0 0 0
0 0 0 0 0 0 0 0 0 0 0 0 0 0 0 0 0 0 0 0 0 0.0885794187580207 0.119507948305984 -0.278611851564224 0 0 0 -0.985140711307999 0 -1.42508521185967 -0.104481366660662 0 0 0 0 0 0 0 0 0 0 0 0 0 0 0 0 0 0 0
0 0 0 0 0 0 0 0 0 0 0 0 0.39382312372488 0.150334279262885 0 0.42678993529362 0 0.279633354860083 0.305831479384476 0.237834356188456 0.262643264715408 0 0 0 -0.278611851564224 0 0 0 0 -0.69565261592713 0 0 0 0 0 0 0 0 0 0 0 0 0 0 0 0 0 0 0 0
0 0 0 0 0 0.212704530960773 0.194677163328623 0 0.444763617660858 0 0 0 0 0 0 0 0 0 0 0 0 0 0 0 0 -0.278611851564224 0 0 0 -0.898581209818207 0 0 0 0 0 -1.0062621567198 -0.554821567533059 0 0 0 0 0 0 0 0 -0.67430025182849 0 0 0 0
0 0 0 0 0 0 0 0 0 0 0 0 0 0 0 0 0 0 0 0 0 0 0 0 0 0 -0.278611851564224 0 0 0 -0.142305611678317 0 0 0 0 -1.33390219123527 0 0 0 0 0 0 0 0 0 -1.10304695417306 0 0 0 0
0 0 0 0 0 0 0 0 0 0 0 0 0 0.545656186094827 2.2604710646506 0.238970360438127 0.239092821427916 0.0633754119407432 0 0.160772352620758 0.423049792276305 0 0 0.196946514212062 0 0 0 -0.278611851564224 0 0.197922296605169 0.276866355604748 0.29497590721053 0.263902359113182 0 0 -1.30142506816833 0 0 0 0 0 0 0 0 0 0 0 -1.14391512092943 0 0
0 0 0 0 0 0 0 0 0 0 0 0 0 0.0694579134959395 0 0.14714526403329 0 0.0877074948759987 0.463196145372472 0 0 0 0 0 0 0 0 0 -0.278611851564224 0 0 0 0 0 0 -2.72651963852759 0 0 0 0 0 0 0 0 0 0 0 0 0 0
0 0 0 0 0 0 0 0 0 0.0259581071904359 0 0.0955353848976206 0.571292015818124 0 0.0376548076016525 0 0.163218132402409 0.177738353736707 0.880886863324264 0.486765213848606 0.0366477834964592 0.0250836682639787 0.182471253071032 0.299589438933142 0.151902361071898 0.18393137039389 0 -0.981145685228069 0 -0.278611851564224 -0.723022425028703 0 0 0 0 -5.25850659861958 -3.71678618968001 0 0 0 0 0 0 0 0 0 0 0 0 0
0 0 0 0 0 0 0 0 0 0 0 0 0 0 0 0 0 0 0 0 0 0 0.189654458018577 0.0203979595385905 0 0 0.0265881787933179 -1.42158851612706 0 0.143817452838015 -0.278611851564224 0 0 0 0 -1.32881023908777 0 0 0 0 0 0 0 -0.526995357412272 0 0 0 0 0 0
0 0 0 0 0 0 0 0 0 0 0 0 0 0 0 0 0 0 0 0 0 0 0 0 0 0 0 -1.61866220779928 0 0 0 -0.278611851564224 0 0 0 0 -0.599249460077195 0 0 0 0 0 0 0 0 0 0 0 0 0
0 0 0 0 0 0 0 0 0 0 0 0 0 0 0 0 0 0 0 0 0 0 0 0 0 0 0 -1.31420376951636 0 0 0 0 -0.278611851564224 0 0 0 -0.961281895138271 0 0 0 0 0 0 -3.34629073197166 0 -5.15637070514401 0 -1.87199263686161 0 0
0 0 0 0 0 0 0 0 0 0 0 0 0 0 0 0 0 0.0955710766793242 0.208018635364641 0 0 0 0 0 0 0 0 0 0 0 0 0 0 -0.278611851564224 0 -1.80158300632587 -1.42833809576492 0 0 0 0 0 0 0 0 0 0 -1.56735058542626 0 0
0 0 0 0 0 0 0 0 0 0 0 0 0 0 0 0 0 0 0 0 0 0 0 0 0 0 0 0 0 0 0 0 0 0 -0.278611851564224 0 0 -0.112266255428216 0 0 0 0 0 -2.86110818738555 0 0 0 0 0 0
0 0 0 0 0 0 0 0 0 0 0 0 0 0 0 0 0 0 0 0 0.423781635210385 0 0 0 0 0.206971153635496 0.245055833852299 0.25997527744384 0.553127893313636 1.14058571564696 0.283250284137968 0 0 0.362018817587534 0 -0.278611851564224 0 0 0 0 0 0 0 0 0 -0.167016120303381 0 0 0 0
0 0 0 0 0 0 0 0 0 0 0 0 0 0 0 0 0 0 0 0 0 0 0 0 0 0.114758794775079 0 0 0 0.773893154921563 0 0.119707357914954 0.188169185550849 0.28890231776051 0 0 -0.278611851564224 0 0 0 0 0 0 0 0 -0.49361655135329 0 0 0 0
0 0 0 0 0 0 0 0 0 0 0 0 0 0 0 0 0 0 0 0 0 0 0 0 0 0 0 0 0 0 0 0 0 0 0.021836241742786 0 0 -0.278611851564224 0 0 0 0 0 -0.464857515970508 0 -0.9415116388821 0 0 0 0
0 0 0 0 0 0 0 0 0 0 0 0 0 0 0 0 0 0 0 0 0 0 0 0 0 0 0 0 0 0 0 0 0 0 0 0 0 0 -0.278611851564224 0 0 0 -1.68886388469846 -1.29562324304115 0 -0.568677602191054 0 0 -0.547466327609292 0
0 0 0 0 0 0 0 0 0 0 0 0 0 0.336568498895126 0.337943161615267 0 0 0.011932265857927 0.257229097366015 0 0 0 0 0 0 0 0 0 0 0 0 0 0 0 0 0 0 0 0 -0.278611851564224 0 0 0 0 0 0 0 0 0 0
0 0 0 0 0 0 0 0 0 0 0 0 0.199134661526681 0 0.315773871717996 0.105894398314558 0.0256677855347725 0.00963662399879609 0.164440473461286 0.0822073629902146 0.812541832164676 0.27709680839433 0 0 0 0 0 0 0 0 0 0 0 0 0 0 0 0 0 0 -0.278611851564224 0 0 0 0 0 0 0 0 0
0 0 0 0 0 0 0 0 0 0 0 0 0 0 0 0.146244918085175 0.168143947535927 0.452178262271273 0.679676211110098 0.251999235987282 0.194049767741667 0.262377722995904 0.670900752488125 0 0 0 0 0 0 0 0 0 0 0 0 0 0 0 0 0 0 -0.278611851564224 0 0 0 0 0 0 0 0
0 0 0 0 0 0 0 0 0 0 0 0 0 0 0 0 0 0 0 0 0 0 0 0 0 0 0 0 0 0 0 0 0 0 0 0 0 0 0.351663620388342 0 0 0 -0.278611851564224 0 0 0 0 0 0 0
0 0 0 0 0 0 0 0 0 0 0 0 0 0 0 0 0 0 0 0 0 0 0 0 0 0 0 0 0 0 0.106505419100578 0 0.682876882366056 0 0.576334989806364 0 0 0.090672325401366 0.247876558743331 0 0 0 0 -0.278611851564224 0 0 0 0 0 0
0 0 0 0 0 0 0 0 0 0 0 0 0 0.0202889016109468 0 0 0.570898959246359 0 0 0 0 0 0 0 0 0 0 0 0 0 0 0 0 0 0 0 0 0 0 0 0 0 0 0 -0.278611851564224 0 0 0 0 0
0 0 0 0 0 0 0 0.380010586095803 0.0551578200942949 0 0.490794322395901 0.372166127471821 0.173452655978429 0.377404950774091 0.0385664239032877 0 0 0 0 0 0.253163344602261 0.0148033232952816 0.0204780560466349 0 0 0.146534332049181 0.228634937554353 0 0 0 0 0 1.09429352718207 0 0 0.0356068403299839 0.11295389282883 0.189854101451145 0.109986118989133 0 0 0 0 0 0 -0.278611851564224 0 0 0 0
0 0 0 0 0 0 0 0 0 0 0 0 0 0 0.341527816877031 0 0 0.190165345811371 0.532101458817518 0 0 0 0 0 0 0 0 0 0 0 0 0 0 0 0 0 0 0 0 0 0 0 0 0 0 0 -0.278611851564224 0 0 0
0 0 0 0 0 0 0 0 0 0 0 0 0 0 0 0 0 0 0 0 0 0 0 0 0 0 0 0.21394226568675 0 0 0 0 0.353080529090651 0.324243972000187 0 0 0 0 0 0 0 0 0 0 0 0 0 -0.278611851564224 0 0
0 0 0 0 0 0 0 0 0 0 0 0 0 0 0 0 0 0 0 0 0 0 0 0 0 0 0 0 0 0 0 0 0 0 0 0 0 0 0.108026843900128 0 0 0 0 0 0 0 0 0 -0.278611851564224 0
0 0 0 0 0 0 0 0 0 0 0.0536552059902775 0 0.128521789447467 0.197324150143605 0.757093098584335 0 0 0 0 0 0 0 0 0 0 0 0 0 0 0 0 0 0 0 0 0 0 0 0 0 0 0 0 0 0 0 0 0 0 -0.278611851564224
