-0.157320504177233 0 0 -0.680031716446219 0 0 0 0 0 0 0 0 0 0 0 0 0 0 0 0 0 0 0 0 0 0 0 0 0 0 0 0 0 0 0 0 0 0 0 0 0 0 0 0 0 0 0 0 0 0
0 -0.157320504177233 0 0 -0.676780045025995 0 0 0 0 0 0 0 0 0 0 0 0 0 0 0 0 0 0 0 0 0 0 0 0 0 0 0 0 0 0 0 0 0 0 0 0 0 0 0 0 0 0 0 0 0
0 0 -0.157320504177233 0 -0.996925067468936 0 0 0 0 0 0 0 0 0 0 0 0 0 0 0 0 0 0 0 0 0 0 0 0 0 0 0 0 0 0 0 0 0 0 0 0 0 0 0 0 0 0 0 0 0
0.143184767216557 0 0 -0.157320504177233 0 -4.26386206571375 -4.03340710049142 0 0 0 0 0 -0.57445881455595 0 0 0 0 0 0 0 0 0 0 -1.30405477263023 0 -0.924428576505947 0 0 0 0 -0.742130135199973 0 0 0 0 0 0 0 0 0 0 0 0 0 0 0 0 0 0 0
0 0.135042477735604 0.193854273956978 0 -0.157320504177233 0 0 0 0 0 0 0 0 0 0 0 0 0 0 0 0 0 0 0 0 0 0 0 0 0 -0.446367480889194 0 0 0 0 0 0 0 0 0 0 0 0 0 0 0 0 0 0 0
0 0 0 0.878130257900791 0 -0.157320504177233 -0.686289571291766 0 0 0 0 0 0 0 0 0 0 0 0 0 0 0 0 -5.87036496035551 0 0 0 0 0 0 -1.39715819573199 0 0 0 0 0 0 0 0 0 0 0 0 0 0 0 0 0 0 0
0 0 0 0.809412759050202 0 0.133188790002876 -0.157320504177233 0 0 0 0 0 0 0 0 0 0 0 0 0 0 0 0 -0.714467296939144 0 -0.734927230317692 0 0 0 0 0 0 0 0 0 0 0 0 0 0 0 0 0 0 0 0 0 0 0 0
0 0 0 0 0 0 0 -0.157320504177233 0 0 0 0 0 -2.15411737890095 0 0 0 0 0 0 0 0 0 -0.477559737384752 0 -1.83877128188334 0 0 0 0 0 0 0 0 0 0 0 0 0 0 0 0 0 0 0 0 0 0 0 0
0 0 0 0 0 0 0 0 -0.157320504177233 0 0 0 0 -1.27979775013396 0 0 0 0 0 0 0 0 0 0 0 0 0 0 0 0 0 0 0 0 0 0 0 0 0 0 0 0 0 0 0 0 0 0 0 0
0 0 0 0 0 0 0 0 0 -0.157320504177233 0 -1.30641568086766 0 0 0 0 0 0 0 0 0 0 0 0 0 -0.398788702622181 0 0 0 0 0 0 0 0 0 0 0 0 0 0 0 0 0 0 0 0 0 0 0 0
0 0 0 0 0 0 0 0 0 0 -0.157320504177233 0 0 0 0 0 0 0 0 0 0 0 0 0 0 -0.703122157502797 0 0 0 0 0 0 0 0 0 0 0 0 0 0 0 0 0 0 0 0 0 0 0 0
0 0 0 0 0 0 0 0 0 0.253373907839499 0 -0.157320504177233 0 0 0 0 0 0 0 0 0 0 0 0 0 -2.23137502210528 0 0 0 0 0 0 0 0 0 0 0 0 0 0 0 0 0 0 0 0 0 0 0 0
0 0 0 0.111201935530211 0 0 0 0 0 0 0 0 -0.157320504177233 0 -0.169728702771891 0 0 0 0 0 0 0 0 0 0 0 0 0 0 0 0 0 0 0 0 0 0 0 0 0 0 0 0 0 0 0 0 0 0 0
0 0 0 0 0 0 0 0.434456942832534 0.275976566250509 0 0 0 0 -0.157320504177233 -0.0949426124763912 0 0 0 0 0 0 0 0 0 0 0 0 0 0 0 0 0 0 0 0 0 0 0 0 0 0 0 0 0 0 0 0 0 0 0
0 0 0 0 0 0 0 0 0 0 0 0 0.0304915062386675 0.0196618955321221 -0.157320504177233 0 0 0 0 0 0 0 0 0 0 0 0 0 0 0 0 0 0 0 0 0 -0.909776948095059 0 0 0 0 0 0 0 0 0 0 0 -1.46372592101262 0
0 0 0 0 0 0 0 0 0 0 0 0 0 0 0 -0.157320504177233 0 0 -0.983111330718177 0 0 0 0 0 0 0 0 0 0 0 0 0 0 0 0 0 -0.337701778998662 0 0 0 0 0 0 0 0 0 0 0 0 0
0 0 0 0 0 0 0 0 0 0 0 0 0 0 0 0 -0.157320504177233 0 -9.16684981422907 0 0 0 0 0 0 0 0 0 0 0 0 0 0 0 0 0 -1.68770171874364 0 0 0 0 0 0 0 0 0 0 0 0 0
0 0 0 0 0 0 0 0 0 0 0 0 0 0 0 0 0 -0.157320504177233 -0.283744538524024 0 0 0 0 0 0 0 0 -2.86898629346369 0 0 0 0 0 0 0 0 -1.00270366409568 0 0 0 0 0 0 0 -0.81284108201853 0 0 0 0 0
0 0 0 0 0 0 0 0 0 0 0 0 0 0 0 0.201043917971824 1.79012198383137 0.0592178427934498 -0.157320504177233 0 0 0 0 0 0 0 0 -3.64726164039723 -0.828407083644067 0 0 0 0 0 0 0 0 -0.693224204871392 0 0 0 0 0 0 -1.46399027874484 0 0 0 0 0
0 0 0 0 0 0 0 0 0 0 0 0 0 0 0 0 0 0 0 -0.157320504177233 0 0 -1.65585123583308 0 0 0 0 -1.54257903039676 -2.01361118564239 0 0 -0.53765286012161 0 0 0 0 -0.922239788209568 0 0 0 0 0 0 0 0 0 0 0 0 0
0 0 0 0 0 0 0 0 0 0 0 0 0 0 0 0 0 0 0 0 -0.157320504177233 0 0 0 0 0 0 -2.43612183654255 -2.56373326098444 0 0 -0.401695016392091 0 0 0 0 -0.467568318388628 -0.197365310500096 0 0 0 0 0 0 -0.271480251647658 0 0 0 0 0
0 0 0 0 0 0 0 0 0 0 0 0 0 0 0 0 0 0 0 0 0 -0.157320504177233 0 0 0 0 0 -0.391077724629153 -3.829701560884 0 0 0 0 0 0 0 0 0 0 0 0 -0.894751547257864 0 0 -0.378702193595209 0 0 0 0 0
0 0 0 0 0 0 0 0 0 0 0 0 0 0 0 0 0 0 0 0.361103575192058 0 0 -0.157320504177233 0 0 0 0 -0.319852061915021 -0.253946829987593 0 0 0 0 0 -0.591617574970936 0 0 -0.436364556708991 0 0 0 -2.12572264801622 0 0 0 0 0 0 0 0
0 0 0 0.276298505283665 0 1.12599559121943 0.137575400348761 0.098142328384174 0 0 0 0 0 0 0 0 0 0 0 0 0 0 0 -0.157320504177233 0 0 0 0 0 0 0 0 0 0 0 0 0 -1.08305377716238 0 0 0 -0.992023737220725 -1.51039661400192 0 0 0 0 0 0 0
0 0 0 0 0 0 0 0 0 0 0 0 0 0 0 0 0 0 0 0 0 0 0 0 -0.157320504177233 0 0 0 -0.113320627238645 0 0 0 0 0 -1.5577105156855 0 0 0 0 0 0 -1.48249912820705 -1.88324783890356 0 0 0 0 0 0 0
0 0 0 0.177610230446444 0 0 0.152601466578685 0.348732058739589 0 0.0781772522131182 0.147230707277024 0.474509364515025 0 0 0 0 0 0 0 0 0 0 0 0 0 -0.157320504177233 0 0 0 0 0 0 0 0 0 0 0 0 0 0 0 0 -1.14320954485473 0 0 0 0 0 0 0
0 0 0 0 0 0 0 0 0 0 0 0 0 0 0 0 0 0 0 0 0 0 0 0 0 0 -0.157320504177233 0 -0.399036382520491 0 0 0 0 0 -0.453294730894501 0 0 0 0 0 0 -0.228434039059642 -2.19335061546054 0 -1.27039698571697 0 0 0 0 0
0 0 0 0 0 0 0 0 0 0 0 0 0 0 0 0 0 0.608291410989978 0.658481004290381 0.32072411782512 0.518695697934749 0.0816934700408658 0.0604871735654137 0 0 0 0 -0.157320504177233 -0.431430601131946 0 0 0 0 0 -0.565783466733394 0 0 0 0 0 0 -4.85312322777605 -0.799238877902 0 0 0 0 0 0 0
0 0 0 0 0 0 0 0 0 0 0 0 0 0 0 0 0 0 0.174992640194334 0.388102270657661 0.526214415047445 0.703653211400399 0.0467929822538223 0 0.0220968127166429 0 0.0852119646869386 0.0907862218838197 -0.157320504177233 0 0 0 0 0 0 0 0 0 0 0 0 -0.599506530367276 -1.43444782890279 0 0 0 0 0 0 0
0 0 0 0 0 0 0 0 0 0 0 0 0 0 0 0 0 0 0 0 0 0 0 0 0 0 0 0 0 -0.157320504177233 0 0 0 0 0 0 0 0 -0.558060868187107 0 0 0 -1.56069644827755 0 0 -0.581284208297832 0 0 0 0
0 0 0 0.152483110692558 0.0924016515414119 0.26530386740284 0 0 0 0 0 0 0 0 0 0 0 0 0 0 0 0 0 0 0 0 0 0 0 0 -0.157320504177233 0 0 0 -4.70993205576695 0 0 0 0 0 0 0 -1.43639736590358 0 0 0 0 0 0 0
0 0 0 0 0 0 0 0 0 0 0 0 0 0 0 0 0 0 0 0.103131464946432 0.0776862370959603 0 0 0 0 0 0 0 0 0 0 -0.157320504177233 0 -1.99094041456415 0 -5.66809919228075 0 0 0 0 0 0 0 0 0 -1.24160303223542 0 -1.93724547288852 0 0
0 0 0 0 0 0 0 0 0 0 0 0 0 0 0 0 0 0 0 0 0 0 0 0 0 0 0 0 0 0 0 0 -0.157320504177233 0 0 0 0 0 0 0 0 0 0 0 0 -0.349378454347473 0 0 0 0
0 0 0 0 0 0 0 0 0 0 0 0 0 0 0 0 0 0 0 0 0 0 0 0 0 0 0 0 0 0 0 0.409024609870611 0 -0.157320504177233 0 0 0 0 0 0 0 0 0 0 0 0 0 0 0 0
0 0 0 0 0 0 0 0 0 0 0 0 0 0 0 0 0 0 0 0 0 0 0.117158282824667 0 0.312475007689182 0 0.0873462971067786 0.113313708175502 0 0 0.899330003311264 0 0 0 -0.157320504177233 0 0 0 0 0 0 0 0 0 0 0 -1.55817215353631 0 0 0
0 0 0 0 0 0 0 0 0 0 0 0 0 0 0 0 0 0 0 0 0 0 0 0 0 0 0 0 0 0 0 1.18595130569116 0 0 0 -0.157320504177233 0 0 0 0 0 0 0 0 0 -1.22816571986053 -2.63634756493991 0 0 -1.34331086201434
0 0 0 0 0 0 0 0 0 0 0 0 0 0 0.175180707275355 0.0650402915788148 0.351448222576103 0.187438562375475 0 0.189082145695712 0.0870981129752784 0 0 0 0 0 0 0 0 0 0 0 0 0 0 0 -0.157320504177233 0 0 0 0 0 0 0 0 0 -0.088363735654689 0 0 -1.33240892184914
0 0 0 0 0 0 0 0 0 0 0 0 0 0 0 0 0 0 0.143928285721484 0 0.0396729069791036 0 0.0829090221585004 0.199086352976112 0 0 0 0 0 0 0 0 0 0 0 0 0 -0.157320504177233 0 0 0 0 0 0 0 -0.31806236392943 -1.03693576490485 0 0 -0.338856457156463
0 0 0 0 0 0 0 0 0 0 0 0 0 0 0 0 0 0 0 0 0 0 0 0 0 0 0 0 0 0.116414961140026 0 0 0 0 0 0 0 0 -0.157320504177233 0 0 0 0 0 0 -1.40253654745674 -0.517667244190115 0 0 0
0 0 0 0 0 0 0 0 0 0 0 0 0 0 0 0 0 0 0 0 0 0 0 0 0 0 0 0 0 0 0 0 0 0 0 0 0 0 0 -0.157320504177233 0 0 0 0 0 -2.26814982510667 0 0 0 -1.53190917619409
0 0 0 0 0 0 0 0 0 0 0 0 0 0 0 0 0 0 0 0 0 0 0 0 0 0 0 0 0 0 0 0 0 0 0 0 0 0 0 0 -0.157320504177233 0 0 0 0 -4.23419737106722 0 0 0 0
0 0 0 0 0 0 0 0 0 0 0 0 0 0 0 0 0 0 0 0 0 0.170074712196867 0.420995176805636 0.203300722663814 0.327347226604709 0 0.0460090266118041 0.97659148705298 0.115213135405125 0 0 0 0 0 0 0 0 0 0 0 0 -0.157320504177233 0 0 0 -0.447917948224909 -0.0913146119270891 0 0 0
0 0 0 0 0 0 0 0 0 0 0 0 0 0 0 0 0 0 0 0 0 0 0 0.300301592872509 0.379426340272789 0.222947870638822 0.436081180670141 0.147855613389008 0.28539652480595 0.313291102139957 0.291425514159639 0 0 0 0 0 0 0 0 0 0 0 -0.157320504177233 0 0 0 0 0 0 -0.71956859914736
0 0 0 0 0 0 0 0 0 0 0 0 0 0 0 0 0 0 0 0 0 0 0 0 0 0 0 0 0 0 0 0 0 0 0 0 0 0 0 0 0 0 0 -0.157320504177233 0 0 0 0 0 -1.59953044329672
0 0 0 0 0 0 0 0 0 0 0 0 0 0 0 0 0 0.177637739942655 0.304081895556608 0 0.0542602453579973 0.0736321351354755 0 0 0 0 0.249618176547292 0 0 0 0 0 0 0 0 0 0 0 0 0 0 0 0 0 -0.157320504177233 0 0 0 0 -0.433124186240902
0 0 0 0 0 0 0 0 0 0 0 0 0 0 0 0 0 0 0 0 0 0 0 0 0 0 0 0 0 0.117983066270076 0 0.226969094305607 0.075104254590959 0 0 0.254881382551068 0 0.0624679571843143 0.280492762552496 0.430856578725724 0.818628501827726 0.0915668224581147 0 0 0 -0.157320504177233 0 0 0 0
0 0 0 0 0 0 0 0 0 0 0 0 0 0 0 0 0 0 0 0 0 0 0 0 0 0 0 0 0 0 0 0 0 0 0.301653963173899 0.54352100179793 0.0169808944924203 0.210592731041904 0.105938191677477 0 0 0.0170822724681844 0 0 0 0 -0.157320504177233 0 0 0
0 0 0 0 0 0 0 0 0 0 0 0 0 0 0 0 0 0 0 0 0 0 0 0 0 0 0 0 0 0 0 0.380608354617703 0 0 0 0 0 0 0 0 0 0 0 0 0 0 0 -0.157320504177233 0 -0.13130389426264
0 0 0 0 0 0 0 0 0 0 0 0 0 0 0.317177942492928 0 0 0 0 0 0 0 0 0 0 0 0 0 0 0 0 0 0 0 0 0 0 0 0 0 0 0 0 0 0 0 0 0 -0.157320504177233 0
0 0 0 0 0 0 0 0 0 0 0 0 0 0 0 0 0 0 0 0 0 0 0 0 0 0 0 0 0 0 0 0 0 0 0 0.263087236982731 0.271587116150883 0.0701380617860248 0 0.289025993776847 0 0 0.146070767100747 0.329446037520585 0.0955944622421309 0 0 0.0250977167009469 0 -0.157320504177233
