-0.462350346178309 0 -1.95146787481209 0 -1.93179061839204 0 0 0 0 0 0 0 0 0 0 -0.0490944306782396 0 0 0 0 0 0 0 0 0 0 0 0 0 0 0 0 -2.51298601544917 0 0 0 0 0 0 0 0 -5.26140974150235 0 0 0 0 0 0 0 0
0 -0.462350346178309 -2.6279665558704 0 -0.429725880030624 0 0 0 -0.537022881056345 0 0 0 0 0 0 -3.88210667746413 0 0 0 0 0 0 0 0 0 0 0 0 0 0 0 0 -3.36571085698578 0 0 0 0 -1.77984152207338 0 0 -3.07967990461307 0 0 0 0 0 0 0 0 0
0.361590602213306 0.520628017313297 -0.462350346178309 0 0 0 0 0 -3.22606571079535 0 0 -0.647096264022851 0 0 0 0 0 0 0 0 0 0 0 -0.231213848861335 0 0 0 0 0 0 0 0 0 0 0 0 0 -1.0320825698017 0 0 0 -3.18883387363899 0 0 0 0 0 0 0 0
0 0 0 -0.462350346178309 0 0 -7.8094891439786 0 -3.95488407702515 0 -1.31141973018765 0 0 0 0 -0.938135862514112 0 0 0 0 0 0 0 0 0 0 0 0 0 0 -3.52181349224247 0 0 0 0 0 0 0 0 0 0 -2.05851133080857 0 0 0 0 0 0 0 0
0.400845627448307 0.0871011879304915 0 0 -0.462350346178309 0 0 0 -1.04157089952171 0 0 -0.577232064934658 0 0 0 -1.56851338334642 0 0 0 0 0 0 0 -0.895905329546586 0 0 0 0 0 0 0 0 -0.46509572060532 0 0 0 0 -0.768630365480526 0 0 0 -1.53958635425295 0 0 0 0 0 0 0 0
0 0 0 0 0 -0.462350346178309 0 0 -1.0355704867265 0 -0.920471265014504 0 0 0 0 0 0 0 0 0 0 0 0 0 0 0 0 0 0 0 0 0 0 0 0 0 0 0 0 0 0 0 0 0 0 0 0 0 0 0
0 0 0 1.58904150820163 0 0 -0.462350346178309 0 0 0 -6.18344842778282 0 -0.881116480686178 0 0 0 0 0 0 0 0 -4.87441447989281 0 -0.739561714810307 0 0 0 0 0 0 0 0 0 0 0 0 0 0 0 0 0 0 0 0 0 0 0 0 0 0
0 0 0 0 0 0 0 -0.462350346178309 0 0 0 0 -1.20930645824914 0 0 0 0 0 0 0 0 0 0 0 0 0 0 0 0 0 -0.741656200357497 0 0 0 0 0 0 -0.804055054012627 0 0 0 0 0 0 0 0 0 0 0 0
0 0.0978650852277588 0.564455794005908 0.775466538174688 0.210290987768043 0.235451783771991 0 0 -0.462350346178309 0 0 0 0 0 0 0 0 0 0 0 0 0 0 0 0 0 0 0 0 0 -1.64234259129634 0 0 0 0 0 0 0 0 0 0 -2.08425728129668 0 0 0 0 0 0 0 0
0 0 0 0 0 0 0 0 0 -0.462350346178309 0 0 -0.702933628842812 0 0 0 0 0 0 0 0 0 0 0 0 0 0 0 0 0 -2.88797076433041 0 0 0 0 0 0 0 0 0 0 -0.169655018219975 -1.63739682775389 0 0 0 0 0 0 0
0 0 0 0.266628742809185 0 0.196170037285514 1.31960771993177 0 0 0 -0.462350346178309 0 -1.01459951875201 0 0 0 0 0 -1.40953884996741 0 0 0 0 0 0 0 0 -1.12709287115369 0 0 0 0 0 0 0 0 0 0 0 0 0 -1.07249716778087 -1.21463542269482 0 0 0 0 0 0 -0.717173087049403
0 0 0.124547014389724 0 0.114297640237117 0 0 0 0 0 0 -0.462350346178309 -0.491326047319882 0 0 0 0 0 0 0 0 0 0 0 0 0 0 -1.73858382746985 0 0 0 0 0 0 0 0 0 -0.215515724557557 0 0 0 -0.946146418650374 -0.523530527320578 0 0 0 0 0 0 -0.358855069440887
0 0 0 0 0 0 0.177985958282555 0.223857252165861 0 0.143868369401049 0.205807445721802 0.102106726442778 -0.462350346178309 0 -0.999246530731831 0 0 0 0 0 -3.07963661729766 0 0 0 0 0 0 0 0 0 0 0 0 0 -1.00830094484774 0 0 0 0 0 0 0 0 0 0 0 0 0 0 0
0 0 0 0 0 0 0 0 0 0 0 0 0 -0.462350346178309 -0.344331798687049 0 0 0 0 0 -0.546393527478854 0 0 0 0 0 0 0 0 0 0 0 0 0 0 0 0 -1.0831616250263 0 0 0 0 -2.1795344454941 0 0 -1.49924560582325 0 0 0 0
0 0 0 0 0 0 0 0 0 0 0 0 0.185894983867843 0.0752373914602411 -0.462350346178309 0.0800230820727767 0 0 0.334076324556496 0 0.416855566593861 0 0 0 0 0 0 0 -0.418854810824319 0 0 0 0 0 0 0 0 0 0 0 0 0 -0.597361380710582 0 0 0 0 0 0 0
0.00990950620781259 0.795315117131457 0 0.197480986392527 0.316762978215924 0 0 0 0 0 0 0 0 0 -0.41430919538065 -0.462350346178309 0 0 0 0 0 0 0 0 0 0 0 0 0 0 0 -12.399783382373 0 0 0 0 0 -0.530928290990725 0 0 0 0 0 0 0 0 0 0 0 0
0 0 0 0 0 0 0 0 0 0 0 0 0 0 0 0 -0.462350346178309 0 0 0 0 0 -0.240536417523065 0 0 0 0 0 0 0 0 0 0 0 -3.66503598015313 0 0 -0.135698037834997 0 0 0 0 0 0 0 0 0 0 0 0
0 0 0 0 0 0 0 0 0 0 0 0 0 0 0 0 0 -0.462350346178309 0 0 0 0 -0.616574406633059 0 0 0 0 0 0 0 0 -4.16501429795237 0 0 0 0 0 0 0 0 0 0 -0.910691367915866 0 0 -0.573567340771588 0 0 0 0
0 0 0 0 0 0 0 0 0 0 0.275483024487854 0 0 0 -1.76027480036999 0 0 0 -0.462350346178309 0 0 0 -1.39258696327118 0 0 0 0 0 0 0 0 0 0 0 -0.151536926055428 -0.245829940560403 0 0 0 0 0 0 0 0 0 0 0 0 0 0
0 0 0 0 0 0 0 0 0 0 0 0 0 0 0 0 0 0 0 -0.462350346178309 0 0 0 0 0 0 -7.06479393535278 0 0 0 0 0 0 0 0 -1.13181597991041 0 -1.33353585374018 0 0 0 0 -0.347470403947574 0 0 0 0 0 0 0
0 0 0 0 0 0 0 0 0 0 0 0 0.57490691340174 0.105658759206334 -2.08920866492889 0 0 0 0 0 -0.462350346178309 0 0 0 0 0 -1.2990585185042 0 0 0 0 0 0 0 0 -0.59310938648241 0 -6.22191452277063 0 0 0 0 0 0 0 0 0 0 0 0
0 0 0 0 0 0 0.936080231169835 0 0 0 0 0 0 0 0 0 0 0 0 0 0 -0.462350346178309 -2.63604324778866 0 0 0 0 0 0 0 0 0 0 0 0 -0.17660921338418 0 0 0 0 0 0 0 0 -2.49968410394407 0 0 0 0 0
0 0 0 0 0 0 0 0 0 0 0 0 0 0 0 0 0.0459730376211147 0.127805537745142 0.292564818527582 0 0 0.516655599430811 -0.462350346178309 0 0 0 0 0 0 0 0 0 0 0 0 -0.156794457345964 0 0 0 0 0 0 0 0 0 0 0 0 -0.286473109396651 0
0 0 0.0459262343153606 0 0.178596553778241 0 0.150190742278954 0 0 0 0 0 0 0 0 0 0 0 0 0 0 0 0 -0.462350346178309 0 0 0 0 0 0 0 0 0 0 0 0 0 0 0 0 0 0 0 0 0 0 0 0 -0.542004226972792 0
0 0 0 0 0 0 0 0 0 0 0 0 0 0 0 0 0 0 0 0 0 0 0 0 -0.462350346178309 0 0 0 0 -8.92121899419682 0 0 0 0 0 -0.647694406656641 0 0 0 0 0 0 0 0 -0.494248719695936 0 0 0 0 0
0 0 0 0 0 0 0 0 0 0 0 0 0 0 0 0 0 0 0 0 0 0 0 0 0 -0.462350346178309 0 0 0 -0.914584782604402 0 0 0 0 0 0 0 0 0 0 0 0 0 0 -0.688675133134211 0 0 0 0 0
0 0 0 0 0 0 0 0 0 0 0 0 0 0 0 0 0 0 0 1.40121644597951 0.260364840696637 0 0 0 0 0 -0.462350346178309 0 0 0 0 0 0 0 0 -0.361395744962166 0 0 0 0 0 0 0 0 0 0 0 0 -0.0462730427342621 0
0 0 0 0 0 0 0 0 0 0 0.240003121122705 0.334109386823726 0 0 0 0 0 0 0 0 0 0 0 0 0 0 0 -0.462350346178309 0 0 0 0 0 0 0 0 0 0 0 0 0 0 0 0 -0.52108365684849 0 0 0 0 0
0 0 0 0 0 0 0 0 0 0 0 0 0 0 0.0868413757957217 0 0 0 0 0 0 0 0 0 0 0 0 0 -0.462350346178309 0 0 0 0 0 0 0 0 0 0 0 0 0 0 -0.858466777650838 0 0 0 0 0 0
0 0 0 0 0 0 0 0 0 0 0 0 0 0 0 0 0 0 0 0 0 0 0 0 1.75666764760045 0.196532793929772 0 0 0 -0.462350346178309 0 0 0 0 0 -2.72291372183175 0 0 0 0 0 0 0 -4.4213958763864 0 0 0 0 0 0
0 0 0 0.750928399612574 0 0 0 0.151160761660347 0.331590732731929 0.535368631100211 0 0 0 0 0 0 0 0 0 0 0 0 0 0 0 0 0 0 0 0 -0.462350346178309 0 0 0 0 -1.7687870238811 -1.68502275917868 0 0 0 0 0 0 -0.262767121690668 0 0 -2.01218120493487 0 0 0
0 0 0 0 0 0 0 0 0 0 0 0 0 0 0 2.40440612314663 0 0.827180641140981 0 0 0 0 0 0 0 0 0 0 0 0 0 -0.462350346178309 0 0 0 0 -1.56107580103049 0 0 0 0 0 0 -1.28034884576501 0 0 0 0 0 0
0.499029681778788 0.689014561523825 0 0 0.0860678283342021 0 0 0 0 0 0 0 0 0 0 0 0 0 0 0 0 0 0 0 0 0 0 0 0 0 0 0 -0.462350346178309 0 0 0 -0.526149024369398 0 0 0 0 0 0 0 0 0 -0.343427292280159 0 0 0
0 0 0 0 0 0 0 0 0 0 0 0 0 0 0 0 0 0 0 0 0 0 0 0 0 0 0 0 0 0 0 0 0 -0.462350346178309 0 0 0 0 0 0 0 0 0 0 0 0 0 -0.180968468219768 0 0
0 0 0 0 0 0 0 0 0 0 0 0 0.196203641317826 0 0 0 0.685799346632233 0 0.0288435871504751 0 0 0 0 0 0 0 0 0 0 0 0 0 0 0 -0.462350346178309 0 0 0 0 -0.206497609614678 0 0 0 0 0 0 0 -2.06357760000042 0 0
0 0 0 0 0 0 0 0 0 0 0 0 0 0 0 0 0 0 0.0529966900368987 0.229454369612385 0.123685586636419 0.0355394908907081 0.0286164269940364 0 0.128699089442841 0 0.0684271080493575 0 0 0.530115225747836 0.356267613037291 0 0 0 0 -0.462350346178309 0 0 -1.79602077697485 -1.64752134612628 0 0 0 0 0 0 0 0 0 0
0 0 0 0 0 0 0 0 0 0 0 0 0 0 0 0 0 0 0 0 0 0 0 0 0 0 0 0 0 0 0.366565110562196 0.327952142785937 0.105817294150424 0 0 0 -0.462350346178309 0.0331907447519715 0 -1.35212957774591 0 0 0 0 0 0 0 0 0 0
0 0.359043805343576 0.209239667521435 0 0.157253421579464 0 0 0.159902220309738 0 0 0 0.0409133280420172 0 0.218799651623629 0 0.10368747826879 0.0264438257218895 0 0 0.268940255135128 1.23901766452111 0 0 0 0 0 0 0 0 0 0 0 0 0 0 0 -0.173417479113133 -0.462350346178309 0 -0.861170120863195 0 0 0 0 0 0 0 -0.319419196533995 0 0
0 0 0 0 0 0 0 0 0 0 0 0 0 0 0 0 0 0 0 0 0 0 0 0 0 0 0 0 0 0 0 0 0 0 0 0.3623033221577 0 0 -0.462350346178309 0 0 0 0 0 0 0 0 -3.17578995497055 0 0
0 0 0 0 0 0 0 0 0 0 0 0 0 0 0 0 0 0 0 0 0 0 0 0 0 0 0 0 0 0 0 0 0 0 0.0410665868971215 0.299199273957693 0.262518683540105 0.164115912216829 0 -0.462350346178309 0.0927139681332585 0 0 0 0 0 0 0 0 0
0 0.581412771745948 0 0 0 0 0 0 0 0 0 0 0 0 0 0 0 0 0 0 0 0 0 0 0 0 0 0 0 0 0 0 0 0 0 0 0 0 0 -0.491156749852696 -0.462350346178309 0 0 0 0 0 0 0 0 0
1.04425557583972 0 0.652923963043106 0.387680219457649 0.321480837851166 0 0 0 0.406942515955007 0.0342510599956715 0.217077956487431 0.183117898058646 0 0 0 0 0 0 0 0 0 0 0 0 0 0 0 0 0 0 0 0 0 0 0 0 0 0 0 0 0 -0.462350346178309 0 0 0 0 0 -1.45330520319141 0 0
0 0 0 0 0 0 0 0 0 0.351495163017945 0.241606355995582 0.102930964055108 0 0.399166134601369 0.117998864734714 0 0 0.197143481333139 0 0.0661493981834824 0 0 0 0 0 0 0 0 0 0 0 0 0 0 0 0 0 0 0 0 0 0 -0.462350346178309 0 0 0 0 0 0 0
0 0 0 0 0 0 0 0 0 0 0 0 0 0 0 0 0 0 0 0 0 0 0 0 0 0 0 0 0.172680789918495 0.85702869703484 0.0533654460472741 0.269362043769954 0 0 0 0 0 0 0 0 0 0 0 -0.462350346178309 0 0 0 0 0 0
0 0 0 0 0 0 0 0 0 0 0 0 0 0 0 0 0 0 0 0 0 0.509982629210059 0 0 0.101454713043442 0.134413750629373 0 0.115330745447779 0 0 0 0 0 0 0 0 0 0 0 0 0 0 0 0 -0.462350346178309 0 0 0 0 0
0 0 0 0 0 0 0 0 0 0 0 0 0 0.301073788605091 0 0 0 0.123271182516037 0 0 0 0 0 0 0 0 0 0 0 0 0 0 0 0 0 0 0 0 0 0 0 0 0 0 0 -0.462350346178309 0 0 0 0
0 0 0 0 0 0 0 0 0 0 0 0 0 0 0 0 0 0 0 0 0 0 0 0 0 0 0 0 0 0 0.403020404776246 0 0.0685875722998272 0 0 0 0 0 0 0 0 0 0 0 0 0 -0.462350346178309 0 0 0
0 0 0 0 0 0 0 0 0 0 0 0 0 0 0 0 0 0 0 0 0 0 0 0 0 0 0 0 0 0 0 0 0 0.0369772547861869 0.409241464630188 0 0 0.0637141002540368 0.627041613527114 0 0 0.291503302818184 0 0 0 0 0 -0.462350346178309 0 0
0 0 0 0 0 0 0 0 0 0 0 0 0 0 0 0 0 0 0 0 0 0 0.0607683636458098 0.112890807417781 0 0 0.00897798783125641 0 0 0 0 0 0 0 0 0 0 0 0 0 0 0 0 0 0 0 0 0 -0.462350346178309 0
0 0 0 0 0 0 0 0 0 0 0.143608028241082 0.0700168305790379 0 0 0 0 0 0 0 0 0 0 0 0 0 0 0 0 0 0 0 0 0 0 0 0 0 0 0 0 0 0 0 0 0 0 0 0 0 -0.462350346178309
