-0.309005823274264 0 -0.638734223205975 0 -4.60972893357668 0 0 0 0 0 0 0 0 0 0 -1.56462168042406 0 0 0 0 0 0 0 0 0 0 0 0 0 0 0 0 -1.44798705685982 0 0 0 0 0 0 0 0 -4.19888304010537 0 0 0 0 0 0 0 0
0 -0.309005823274264 -1.91497059345982 0 -0.167146081051036 0 0 0 -5.16660933409875 0 0 0 0 0 0 -0.786126240194103 0 0 0 0 0 0 0 0 0 0 0 0 0 0 0 0 -0.975214922379966 0 0 0 0 -1.35563013743301 0 0 -0.141741574635671 0 0 0 0 0 0 0 0 0
0.119459149165588 0.359769480530124 -0.309005823274264 0 0 0 0 0 -3.23963727528379 0 0 -0.52890130330857 0 0 0 0 0 0 0 0 0 0 0 -0.406421723634996 0 0 0 0 0 0 0 0 0 0 0 0 0 -2.83254074603687 0 0 0 -0.499570206782371 0 0 0 0 0 0 0 0
0 0 0 -0.309005823274264 0 0 -1.89349660154116 0 -2.04529738551656 0 -0.659508130598283 0 0 0 0 -2.82693774736229 0 0 0 0 0 0 0 0 0 0 0 0 0 0 -0.240269745462388 0 0 0 0 0 0 0 0 0 0 -1.6777576451063 0 0 0 0 0 0 0 0
0.97658642349899 0.0356042391211542 0 0 -0.309005823274264 0 0 0 -0.37431905694009 0 0 -0.355053307669432 0 0 0 -0.432873268915113 0 0 0 0 0 0 0 -0.880203551920812 0 0 0 0 0 0 0 0 -1.18426481415639 0 0 0 0 -0.934268153535049 0 0 0 -0.35812085522282 0 0 0 0 0 0 0 0
0 0 0 0 0 -0.309005823274264 0 0 -0.4453829254098 0 -1.64343854208811 0 0 0 0 0 0 0 0 0 0 0 0 0 0 0 0 0 0 0 0 0 0 0 0 0 0 0 0 0 0 0 0 0 0 0 0 0 0 0
0 0 0 0.37798827949744 0 0 -0.309005823274264 0 0 0 -0.387267339486486 0 -0.250068838452677 0 0 0 0 0 0 0 0 -0.291832320740673 0 -2.56716967122922 0 0 0 0 0 0 0 0 0 0 0 0 0 0 0 0 0 0 0 0 0 0 0 0 0 0
0 0 0 0 0 0 0 -0.309005823274264 0 0 0 0 -1.16406330789601 0 0 0 0 0 0 0 0 0 0 0 0 0 0 0 0 0 -1.04682293325094 0 0 0 0 0 0 -0.614740418830849 0 0 0 0 0 0 0 0 0 0 0 0
0 1.01143496613728 0.596110117027703 0.431346248067266 0.0720256446334743 0.0901260550543154 0 0 -0.309005823274264 0 0 0 0 0 0 0 0 0 0 0 0 0 0 0 0 0 0 0 0 0 -2.07315720109361 0 0 0 0 0 0 0 0 0 0 -0.658819079888059 0 0 0 0 0 0 0 0
0 0 0 0 0 0 0 0 0 -0.309005823274264 0 0 -1.7180919290738 0 0 0 0 0 0 0 0 0 0 0 0 0 0 0 0 0 -3.21485044737065 0 0 0 0 0 0 0 0 0 0 -0.787176106387206 -0.847912453250919 0 0 0 0 0 0 0
0 0 0 0.128408566646814 0 0.332964537751834 0.0716407921148529 0 0 0 -0.309005823274264 0 -1.57847415118961 0 0 0 0 0 -0.76063878194553 0 0 0 0 0 0 0 0 -0.235217706153364 0 0 0 0 0 0 0 0 0 0 0 0 0 -0.303795075785447 -0.391602727490069 0 0 0 0 0 0 -3.9294674862317
0 0 0.107528841150464 0 0.0624924423223394 0 0 0 0 0 0 -0.309005823274264 -0.458237273577658 0 0 0 0 0 0 0 0 0 0 0 0 0 0 -0.425975226676414 0 0 0 0 0 0 0 0 0 -7.22127811567593 0 0 0 -4.87045005612899 -1.24512503261718 0 0 0 0 0 0 -1.85450831369666
0 0 0 0 0 0 0.0524538270235734 0.250836380279273 0 0.336278897951824 0.317579225906728 0.0963799943670163 -0.309005823274264 0 -0.449470066696218 0 0 0 0 0 -0.89061299909042 0 0 0 0 0 0 0 0 0 0 0 0 0 -2.03788661240141 0 0 0 0 0 0 0 0 0 0 0 0 0 0 0
0 0 0 0 0 0 0 0 0 0 0 0 0 -0.309005823274264 -0.754697952196787 0 0 0 0 0 -3.35940022529335 0 0 0 0 0 0 0 0 0 0 0 0 0 0 0 0 -1.83981969360249 0 0 0 0 -1.43033236647338 0 0 -1.35121603133502 0 0 0 0
0 0 0 0 0 0 0 0 0 0 0 0 0.0878110130426896 0.147511807577414 -0.309005823274264 0.483451398612129 0 0 0.578044640848758 0 0.112955396831039 0 0 0 0 0 0 0 -1.31810083940844 0 0 0 0 0 0 0 0 0 0 0 0 0 -2.24026729437982 0 0 0 0 0 0 0
0.260621225572489 0.149338811248363 0 0.58329219431706 0.0826996982339601 0 0 0 0 0 0 0 0 0 -2.34774107729182 -0.309005823274264 0 0 0 0 0 0 0 0 0 0 0 0 0 0 0 -0.888120340181777 0 0 0 0 0 -0.417737625923673 0 0 0 0 0 0 0 0 0 0 0 0
0 0 0 0 0 0 0 0 0 0 0 0 0 0 0 0 -0.309005823274264 0 0 0 0 0 -1.0474907687954 0 0 0 0 0 0 0 0 0 0 0 -3.42140009575591 0 0 -2.03486167164297 0 0 0 0 0 0 0 0 0 0 0 0
0 0 0 0 0 0 0 0 0 0 0 0 0 0 0 0 0 -0.309005823274264 0 0 0 0 -1.20486218648902 0 0 0 0 0 0 0 0 -1.3454927254572 0 0 0 0 0 0 0 0 0 0 -1.1610449785708 0 0 -0.303032265906047 0 0 0 0
0 0 0 0 0 0 0 0 0 0 0.157843322249853 0 0 0 -3.05581370628552 0 0 0 -0.309005823274264 0 0 0 -1.05035373625979 0 0 0 0 0 0 0 0 0 0 0 -2.5365951622648 -0.682422424705686 0 0 0 0 0 0 0 0 0 0 0 0 0 0
0 0 0 0 0 0 0 0 0 0 0 0 0 0 0 0 0 0 0 -0.309005823274264 0 0 0 0 0 0 -4.95936158440756 0 0 0 0 0 0 0 0 -0.64987212126904 0 -3.34592223122052 0 0 0 0 -2.71604284876519 0 0 0 0 0 0 0
0 0 0 0 0 0 0 0 0 0 0 0 0.174209559231839 0.704370443118414 -0.604177743021855 0 0 0 0 0 -0.309005823274264 0 0 0 0 0 -2.02590658780676 0 0 0 0 0 0 0 0 -0.787473987530473 0 -0.314064022516347 0 0 0 0 0 0 0 0 0 0 0 0
0 0 0 0 0 0 0.0614176731348691 0 0 0 0 0 0 0 0 0 0 0 0 0 0 -0.309005823274264 -0.962650298316462 0 0 0 0 0 0 0 0 0 0 0 0 -0.342653346323599 0 0 0 0 0 0 0 0 -3.33020454284898 0 0 0 0 0
0 0 0 0 0 0 0 0 0 0 0 0 0 0 0 0 0.205551987037437 0.232097145790482 0.234635368543441 0 0 0.195973016171329 -0.309005823274264 0 0 0 0 0 0 0 0 0 0 0 0 -0.281234369826525 0 0 0 0 0 0 0 0 0 0 0 0 -0.0263968386126503 0
0 0 0.0881202361864046 0 0.172830240706328 0 0.508060346444224 0 0 0 0 0 0 0 0 0 0 0 0 0 0 0 0 -0.309005823274264 0 0 0 0 0 0 0 0 0 0 0 0 0 0 0 0 0 0 0 0 0 0 0 0 -0.634603739336661 0
0 0 0 0 0 0 0 0 0 0 0 0 0 0 0 0 0 0 0 0 0 0 0 0 -0.309005823274264 0 0 0 0 -5.84493249389227 0 0 0 0 0 -0.41190190161274 0 0 0 0 0 0 0 0 -0.86684794676582 0 0 0 0 0
0 0 0 0 0 0 0 0 0 0 0 0 0 0 0 0 0 0 0 0 0 0 0 0 0 -0.309005823274264 0 0 0 -1.51874698042855 0 0 0 0 0 0 0 0 0 0 0 0 0 0 -1.26537853024896 0 0 0 0 0
0 0 0 0 0 0 0 0 0 0 0 0 0 0 0 0 0 0 0 1.06042935671375 0.406906132055637 0 0 0 0 0 -0.309005823274264 0 0 0 0 0 0 0 0 -2.424542855678 0 0 0 0 0 0 0 0 0 0 0 0 -0.388561323911308 0
0 0 0 0 0 0 0 0 0 0 0.0432160654384351 0.0843563822834059 0 0 0 0 0 0 0 0 0 0 0 0 0 0 0 -0.309005823274264 0 0 0 0 0 0 0 0 0 0 0 0 0 0 0 0 -0.91458586246627 0 0 0 0 0
0 0 0 0 0 0 0 0 0 0 0 0 0 0 0.241231341648787 0 0 0 0 0 0 0 0 0 0 0 0 0 -0.309005823274264 0 0 0 0 0 0 0 0 0 0 0 0 0 0 -0.198319251205355 0 0 0 0 0 0
0 0 0 0 0 0 0 0 0 0 0 0 0 0 0 0 0 0 0 0 0 0 0 0 1.03731597264785 0.288518697143521 0 0 0 -0.309005823274264 0 0 0 0 0 -0.504052776128258 0 0 0 0 0 0 0 -0.733088809733149 0 0 0 0 0 0
0 0 0 0.0531820007187485 0 0 0 0.212649478544482 0.403114756817101 0.650936821972628 0 0 0 0 0 0 0 0 0 0 0 0 0 0 0 0 0 0 0 0 -0.309005823274264 0 0 0 0 -0.528051845622141 -0.853408365102197 0 0 0 0 0 0 -3.03116960073458 0 0 -0.878892785621791 0 0 0
0 0 0 0 0 0 0 0 0 0 0 0 0 0 0 0.167272194161677 0 0.279462061044535 0 0 0 0 0 0 0 0 0 0 0 0 0 -0.309005823274264 0 0 0 0 -0.285102507065859 0 0 0 0 0 0 -1.05987470206345 0 0 0 0 0 0
0.310876723502154 0.190530279442859 0 0 0.23352558883242 0 0 0 0 0 0 0 0 0 0 0 0 0 0 0 0 0 0 0 0 0 0 0 0 0 0 0 -0.309005823274264 0 0 0 -0.661337272361936 0 0 0 0 0 0 0 0 0 -0.462457124181607 0 0 0
0 0 0 0 0 0 0 0 0 0 0 0 0 0 0 0 0 0 0 0 0 0 0 0 0 0 0 0 0 0 0 0 0 -0.309005823274264 0 0 0 0 0 0 0 0 0 0 0 0 0 -0.617340662157741 0 0
0 0 0 0 0 0 0 0 0 0 0 0 0.405561638968568 0 0 0 0.601294084687201 0 0.449627126326322 0 0 0 0 0 0 0 0 0 0 0 0 0 0 0 -0.309005823274264 0 0 0 0 -0.986286877041896 0 0 0 0 0 0 0 -0.854749123759627 0 0
0 0 0 0 0 0 0 0 0 0 0 0 0 0 0 0 0 0 0.131927890393099 0.127505517529089 0.158676861642581 0.066156705308472 0.0587803375539029 0 0.0817033601988014 0 0.46481068032521 0 0 0.0982960914771319 0.10965077100461 0 0 0 0 -0.309005823274264 0 0 -0.310482292901646 -0.501360552803909 0 0 0 0 0 0 0 0 0 0
0 0 0 0 0 0 0 0 0 0 0 0 0 0 0 0 0 0 0 0 0 0 0 0 0 0 0 0 0 0 0.175754927257088 0.0527450393696108 0.133979245600758 0 0 0 -0.309005823274264 0.311192842045531 0 -0.178461414014982 0 0 0 0 0 0 0 0 0 0
0 0.270339915511362 0.551070509614114 0 0.194402143101606 0 0 0.123675101915543 0 0 0 1.35495111862308 0 0.38599048702616 0 0.0884729603348582 0.390052556655265 0 0 0.655437602518734 0.0609930570031284 0 0 0 0 0 0 0 0 0 0 0 0 0 0 0 -1.50535811086095 -0.309005823274264 0 -0.576393748144289 0 0 0 0 0 0 0 -1.1341671880173 0 0
0 0 0 0 0 0 0 0 0 0 0 0 0 0 0 0 0 0 0 0 0 0 0 0 0 0 0 0 0 0 0 0 0 0 0 0.0571897653556199 0 0 -0.309005823274264 0 0 0 0 0 0 0 0 -4.48766208683087 0 0
0 0 0 0 0 0 0 0 0 0 0 0 0 0 0 0 0 0 0 0 0 0 0 0 0 0 0 0 0 0 0 0 0 0 0.205548445336646 0.0945286712781245 0.0340223027795517 0.119565697587063 0 -0.309005823274264 1.55651678260223 0 0 0 0 0 0 0 0 0
0 0.0298839361505991 0 0 0 0 0 0 0 0 0 0 0 0 0 0 0 0 0 0 0 0 0 0 0 0 0 0 0 0 0 0 0 0 0 0 0 0 0 -7.88707909616093 -0.309005823274264 0 0 0 0 0 0 0 0 0
0.862106967384511 0 0.0964636617243233 0.319279112110595 0.0719986662925467 0 0 0 0.12434123539532 0.149820204775039 0.0598847997785354 0.999026698305691 0 0 0 0 0 0 0 0 0 0 0 0 0 0 0 0 0 0 0 0 0 0 0 0 0 0 0 0 0 -0.309005823274264 0 0 0 0 0 -2.16402830459323 0 0
0 0 0 0 0 0 0 0 0 0.167742015169357 0.0797566655675321 0.272711781975714 0 0.289601878883185 0.455721326998972 0 0 0.230255041197164 0 0.540172293008263 0 0 0 0 0 0 0 0 0 0 0 0 0 0 0 0 0 0 0 0 0 0 -0.309005823274264 0 0 0 0 0 0 0
0 0 0 0 0 0 0 0 0 0 0 0 0 0 0 0 0 0 0 0 0 0 0 0 0 0 0 0 0.0413356912016103 0.143207856510667 0.637564729496878 0.215225631647922 0 0 0 0 0 0 0 0 0 0 0 -0.309005823274264 0 0 0 0 0 0
0 0 0 0 0 0 0 0 0 0 0 0 0 0 0 0 0 0 0 0 0 0.639933268957316 0 0 0.171602015855617 0.274945306063148 0 0.186397827418289 0 0 0 0 0 0 0 0 0 0 0 0 0 0 0 0 -0.309005823274264 0 0 0 0 0
0 0 0 0 0 0 0 0 0 0 0 0 0 0.305116409917777 0 0 0 0.059408480298055 0 0 0 0 0 0 0 0 0 0 0 0 0 0 0 0 0 0 0 0 0 0 0 0 0 0 0 -0.309005823274264 0 0 0 0
0 0 0 0 0 0 0 0 0 0 0 0 0 0 0 0 0 0 0 0 0 0 0 0 0 0 0 0 0 0 0.166142354797893 0 0.0976025649042787 0 0 0 0 0 0 0 0 0 0 0 0 0 -0.309005823274264 0 0 0
0 0 0 0 0 0 0 0 0 0 0 0 0 0 0 0 0 0 0 0 0 0 0 0 0 0 0 0 0 0 0 0 0 0.108972810495689 0.173633676402701 0 0 0.226621831938882 0.974868372856607 0 0 0.38345812259647 0 0 0 0 0 -0.309005823274264 0 0
0 0 0 0 0 0 0 0 0 0 0 0 0 0 0 0 0 0 0 0 0 0 0.00526756179557806 0.122859246806294 0 0 0.0767878117975323 0 0 0 0 0 0 0 0 0 0 0 0 0 0 0 0 0 0 0 0 0 -0.309005823274264 0
0 0 0 0 0 0 0 0 0 0 0.816805179789779 0.367476562501523 0 0 0 0 0 0 0 0 0 0 0 0 0 0 0 0 0 0 0 0 0 0 0 0 0 0 0 0 0 0 0 0 0 0 0 0 0 -0.309005823274264
