-0.214168526698133 0 0 -1.13530396292124 0 0 0 0 0 0 0 0 0 0 0 0 0 0 0 0 0 0 0 0 0 0 0 0 0 0 0 0 0 0 0 0 0 0 0 0 0 0 0 0 0 0 0 0 0 0
0 -0.214168526698133 0 0 0 0 0 0 0 0 0 -1.1099869188302 0 0 0 0 0 0 0 0 0 0 0 0 0 0 0 0 0 0 0 0 0 0 0 0 0 0 0 0 0 0 0 0 0 0 0 0 0 0
0 0 -0.214168526698133 0 0 0 0 0 0 0 0 0 0 0 -2.36439997085518 0 0 0 0 0 0 0 0 0 0 0 0 0 -0.228074814137373 0 0 0 0 0 0 0 0 0 0 0 0 0 0 0 0 0 0 0 0 0
0.217713563945019 0 0 -0.214168526698133 -1.40026621137959 0 0 0 0 0 0 0 0 0 0 0 0 0 0 0 0 0 0 0 0 0 0 0 0 0 0 0 0 0 0 0 0 0 0 0 0 0 0 0 0 -0.232873868836475 0 0 0 0
0 0 0 0.268229909564706 -0.214168526698133 0 0 0 0 0 0 0 0 0 0 0 0 0 0 0 0 0 0 0 0 0 0 0 -0.459927235124278 -1.89552312408078 0 0 0 0 0 0 0 0 0 0 0 0 0 0 0 -0.635201605706114 0 0 0 0
0 0 0 0 0 -0.214168526698133 0 0 0 0 0 0 0 0 -0.174705050911872 0 0 0 0 0 0 0 0 0 0 0 0 0 -1.32843153933293 0 0 0 0 0 0 0 0 0 0 0 0 0 0 0 0 -3.36336234331676 0 0 0 0
0 0 0 0 0 0 -0.214168526698133 0 0 0 -1.08210536627205 0 0 0 0 0 0 0 0 0 0 0 0 0 0 0 -0.189282202376909 0 0 0 0 0 0 0 0 0 0 0 0 -0.0899587255190843 0 0 0 0 0 0 0 0 0 0
0 0 0 0 0 0 0 -0.214168526698133 0 0 0 0 0 0 0 -0.259843201165473 -0.242349990608346 0 0 0 0 0 0 0 0 0 0 0 0 0 0 0 0 0 0 0 0 0 0 -0.866413094181586 0 0 0 0 0 -2.87126897306542 0 0 0 0
0 0 0 0 0 0 0 0 -0.214168526698133 0 0 0 0 0 0 -4.83546296104797 -3.50454970700292 0 0 0 0 0 0 0 0 0 0 0 0 0 0 0 0 0 0 0 0 0 0 0 0 0 0 0 0 0 0 0 0 0
0 0 0 0 0 0 0 0 0 -0.214168526698133 0 0 0 0 0 0 0 0 0 0 0 0 0 0 0 0 0 0 0 0 0 0 0 0 0 0 0 0 0 0 0 0 0 -0.348151552246764 0 0 0 0 0 0
0 0 0 0 0 0 0.224738586705446 0 0 0 -0.214168526698133 0 0 0 0 0 -1.92916062431404 0 0 0 0 0 0 0 0 0 0 0 0 0 0 0 0 0 0 0 0 0 0 0 0 0 0 -9.75795980474327 0 -9.66989706812406 0 0 0 0
0 0.227720711457998 0 0 0 0 0 0 0 0 0 -0.214168526698133 0 0 0 0 -6.42774103763824 0 0 0 0 0 0 0 0 -0.971162018790503 0 0 0 0 0 0 0 -3.92125135955754 0 0 0 0 0 0 0 0 0 0 0 0 0 0 0 0
0 0 0 0 0 0 0 0 0 0 0 0 -0.214168526698133 0 0 0 0 0 -2.39123909070459 0 0 0 0 -1.62213245942652 0 -0.716839487441127 0 0 0 0 0 0 0 0 0 0 0 0 0 0 0 0 0 0 0 -0.475608079248777 0 0 0 0
0 0 0 0 0 0 0 0 0 0 0 0 0 -0.214168526698133 0 0 -0.467476000856279 0 0 -1.32359253759734 0 0 0 -2.32927251741598 0 0 0 0 0 0 0 0 0 -0.590148288951702 0 0 0 -3.58479179628245 0 0 0 0 0 0 0 -0.951208902310284 0 0 0 0
0 0 0.502442876052523 0 0 0.0343685007326845 0 0 0 0 0 0 0 0 -0.214168526698133 0 0 0 0 -0.453304516936811 -0.369892526281254 0 0 0 0 0 0 0 0 0 0 0 0 -0.439361095240935 0 0 0 0 0 0 0 0 0 -0.748338785456617 0 -0.534033566582728 0 0 0 0
0 0 0 0 0 0 0 0.0542822391262474 0.959472377550373 0 0 0 0 0 0 -0.214168526698133 0 -0.692332122447422 0 0 -0.411605100588688 -2.26290282269078 -0.544997113421645 0 0 0 0 0 0 0 0 0 0 0 0 0 0 -0.840927944463975 0 0 0 0 0 0 0 0 0 0 0 0
0 0 0 0 0 0 0 0.0469213424072881 0.697778677976614 0 0.399949844780791 1.27410211937558 0 0.0935922518017033 0 0 -0.214168526698133 0 0 0 0 -0.925945958540819 0 0 0 0 0 0 0 0 0 0 0 0 0 -0.811778862635425 0 0 0 0 0 0 0 -1.38076509220018 0 0 0 -1.11295044382566 0 0
0 0 0 0 0 0 0 0 0 0 0 0 0 0 0 0.152583664606441 0 -0.214168526698133 0 0 0 -1.35184887413027 0 0 0 0 0 0 0 0 0 0 0 0 0 0 0 -0.555738269082883 0 0 0 0 0 -0.351985833512973 0 -0.94443537146356 0 -1.51743876735831 0 0
0 0 0 0 0 0 0 0 0 0 0 0 0.494335300772476 0 0 0 0 0 -0.214168526698133 0 0 -0.982372463076454 0 0 0 0 0 0 0 0 -2.74360566166381 0 0 0 0 0 0 -0.437212862045569 0 0 0 0 0 -1.52399668391976 0 0 0 -0.870843631982474 0 0
0 0 0 0 0 0 0 0 0 0 0 0 0 0.261504844655866 0.0962691496038665 0 0 0 0 -0.214168526698133 0 0 0 0 0 0 0 0 0 0 0 0 0 0 0 0 0 0 0 0 0 0 0 -0.85093889207553 0 -1.7612347293829 0 0 0 0
0 0 0 0 0 0 0 0 0 0 0 0 0 0 0.0739367015040167 0.0778640024484255 0 0 0 0 -0.214168526698133 0 0 0 0 0 0 -4.01126061978966 0 0 0 0 0 0 0 0 0 -0.852040020829768 0 0 0 0 0 -1.60232266764168 0 -0.638859979349282 0 -2.86824556079278 0 0
0 0 0 0 0 0 0 0 0 0 0 0 0 0 0 0.454837408988971 0.185921885666381 0.239155469543454 0.174265700903507 0 0 -0.214168526698133 0 0.26127733756789 0 0 0 -0.92477630977338 0 0 -0.264812861021037 0 0 0 0 0 0 -0.552107129920453 0 0 0 0 0 0 0 -0.325423498065655 0 -0.616893754379716 0 0
0 0 0 0 0 0 0 0 0 0 0 0 0 0 0 0.10335647735921 0 0 0 0 0 0 -0.214168526698133 0 0 0 0 -1.66102188234492 0 0 0 0 0 0 0 0 0 -1.25741354247477 0 0 0 0 0 -0.480131459820897 0 -1.65208141471677 0 -2.37221545529718 0 -0.388233759812038
0 0 0 0 0 0 0 0 0 0 0 0 0.328398844918316 0.458133417115665 0 0 0 0 0 0 0 -1.37610892551038 0 -0.214168526698133 0 0 0 -1.03482126732687 0 0 0 0 0 0 0 0 0 0 0 0 0 0 0 0 0 -2.00977569566723 0 -0.961202978623913 0 -2.29132042743508
0 0 0 0 0 0 0 0 0 0 0 0 0 0 0 0 0 0 0 0 0 0 0 0 -0.214168526698133 0 0 -1.39165375260871 0 0 -4.33017955283606 0 0 0 0 0 0 -0.321757075778532 0 0 0 0 0 -7.34086250199688 0 -0.836487889360667 0 0 0 0
0 0 0 0 0 0 0 0 0 0 0 0.187229997209109 0.13464221239272 0 0 0 0 0 0 0 0 0 0 0 0 -0.214168526698133 0 -0.657555205150102 0 0 0 0 0 0 0 0 0 0 0 0 0 0 0 -2.23957315406687 0 -0.555045189389299 0 0 0 -1.27132682006525
0 0 0 0 0 0 0.0382256125264107 0 0 0 0 0 0 0 0 0 0 0 0 0 0 0 0 0 0 0 -0.214168526698133 -0.174136939873956 0 0 -0.749132220126404 0 0 0 0 0 0 -1.16343677564329 0 0 0 0 0 -0.763740272982703 0 -1.88162098247573 0 -0.354760055285688 0 -0.184213190141709
0 0 0 0 0 0 0 0 0 0 0 0 0 0 0 0 0 0 0 0 0.772835920640695 0.17973088208642 0.338176776833322 0.204691401820112 0.275869297952077 0.135775419138574 0.0338417009124705 -0.214168526698133 0 0 -0.959200374505206 0 0 0 0 0 0 0 0 0 -0.863737377598891 0 0 0 0 -0.204008233829306 0 -0.354096891133501 0 -1.3217607094182
0 0 0.0482478165849903 0 0.0916817637297097 0.281118033946143 0 0 0 0 0 0 0 0 0 0 0 0 0 0 0 0 0 0 0 0 0 0 -0.214168526698133 0 0 0 0 0 0 0 0 0 0 0 -0.184377055642163 0 0 0 0 0 0 0 0 -2.26725919733683
0 0 0 0 0.361017610695373 0 0 0 0 0 0 0 0 0 0 0 0 0 0 0 0 0 0 0 0 0 0 0 0 -0.214168526698133 0 0 0 0 0 0 0 0 0 0 0 0 0 0 0 0 0 0 0 0
0 0 0 0 0 0 0 0 0 0 0 0 0 0 0 0 0 0 0.506566031022845 0 0 0.0540918769499431 0 0 0.880580451399864 0 0.150721312422175 0.183517287870243 0 0 -0.214168526698133 0 -2.53620778347709 0 0 0 0 0 0 0 -0.784982316203748 0 0 0 0 0 0 0 0 -0.72588165209748
0 0 0 0 0 0 0 0 0 0 0 0 0 0 0 0 0 0 0 0 0 0 0 0 0 0 0 0 0 0 0 -0.214168526698133 -2.63568326535905 0 0 0 0 0 0 0 0 0 0 0 0 0 0 -6.59419657877647 0 -1.34160182869405
0 0 0 0 0 0 0 0 0 0 0 0 0 0 0 0 0 0 0 0 0 0 0 0 0 0 0 0 0 0 0.540138265287463 0.547641226098148 -0.214168526698133 0.227170560126207 0 0 0 0 0 0 0 0 0 0 0 0 0 0 0 -0.471230073498132
0 0 0 0 0 0 0 0 0 0 0 0.71457133174172 0 0.112712442978893 0.0866352088192723 0 0 0 0 0 0 0 0 0 0 0 0 0 0 0 0 0 -1.17015914804574 -0.214168526698133 0 0 0 0 0 0 0 0 -0.822818732026241 0 0 0 0 0 0 -2.61990651252102
0 0 0 0 0 0 0 0 0 0 0 0 0 0 0 0 0 0 0 0 0 0 0 0 0 0 0 0 0 0 0 0 0 0 -0.214168526698133 0 0 0 0 0 0 0 0 0 0 0 0 -0.697364066124859 0 -0.29668506128281
0 0 0 0 0 0 0 0 0 0 0 0 0 0 0 0 0.156938630772002 0 0 0 0 0 0 0 0 0 0 0 0 0 0 0 0 0 0 -0.214168526698133 0 0 0 0 0 0 0 0 0 0 0 0 0 -1.36883432026561
0 0 0 0 0 0 0 0 0 0 0 0 0 0 0 0 0 0 0 0 0 0 0 0 0 0 0 0 0 0 0 0 0 0 0 0 -0.214168526698133 0 0 0 0 0 0 0 0 0 0 0 0 -1.20394389603466
0 0 0 0 0 0 0 0 0 0 0 0 0 0.727241374499368 0 0.179210491048575 0 0.115291778281533 0.0907568384352582 0 0.177925270780185 0.113756660105609 0.242845590911007 0 0.0633644387103469 0 0.229576633995367 0 0 0 0 0 0 0 0 0 0 -0.214168526698133 0 0 0 0 0 0 0 0 0 0 0 0
0 0 0 0 0 0 0 0 0 0 0 0 0 0 0 0 0 0 0 0 0 0 0 0 0 0 0 0 0 0 0 0 0 0 0 0 0 0 -0.214168526698133 0 0 0 0 0 0 0 0 0 0 -0.294085458584977
0 0 0 0 0 0 0.0169864706024197 0.168548462192781 0 0 0 0 0 0 0 0 0 0 0 0 0 0 0 0 0 0 0 0 0 0 0 0 0 0 0 0 0 0 0 -0.214168526698133 0 0 0 0 -0.118305008175794 0 0 -2.05853793152025 -1.87358992593966 -0.175329928942907
0 0 0 0 0 0 0 0 0 0 0 0 0 0 0 0 0 0 0 0 0 0 0 0 0 0 0 0.165441390998085 0.037327779526666 0 0.157603284127861 0 0 0 0 0 0 0 0 0 -0.214168526698133 0 0 0 -0.850486470335219 0 0 0 0 0
0 0 0 0 0 0 0 0 0 0 0 0 0 0 0 0 0 0 0 0 0 0 0 0 0 0 0 0 0 0 0 0 0 0 0 0 0 0 0 0 0 -0.214168526698133 0 0 -0.663512205612409 0 0 -4.02731969495358 -1.5330385536066 -1.54416145950667
0 0 0 0 0 0 0 0 0 0 0 0 0 0 0 0 0 0 0 0 0 0 0 0 0 0 0 0 0 0 0 0 0 0.170863626108522 0 0 0 0 0 0 0 0 -0.214168526698133 0 0 0 0 0 0 -0.776120292724622
0 0 0 0 0 0 0 0 0 0.0753775253068204 1.93489878087913 0 0 0 0.155498937750887 0 0.29066827748567 0.0725035834293029 0.300598390544532 0.169269889736517 0.302136721887401 0 0.0971078278853267 0 1.35216719251549 0.383755484169555 0.162446616360063 0 0 0 0 0 0 0 0 0 0 0 0 0 0 0 0 -0.214168526698133 -0.385413719885674 0 0 -3.68371484151269 0 0
0 0 0 0 0 0 0 0 0 0 0 0 0 0 0 0 0 0 0 0 0 0 0 0 0 0 0 0 0 0 0 0 0 0 0 0 0 0 0 0.0252657963742533 0.167717406974484 0.141818881636439 0 0.0818724490640663 -0.214168526698133 0 0 0 0 0
0 0 0 0.0450452683970666 0.117257991920241 0.674208390351393 0 0.542731351724651 0 0 1.95490842583444 0 0.0914492343766505 0.176692829122555 0.1211155382295 0 0 0.203635805080907 0 0.3341461827766 0.130896780430702 0.0619515538682872 0.325340832946671 0.360002818884529 0.159274573291418 0.116698743886239 0.368069971964362 0.0383159651185028 0 0 0 0 0 0 0 0 0 0 0 0 0 0 0 0 0 -0.214168526698133 0 0 0 0
0 0 0 0 0 0 0 0 0 0 0 0 0 0 0 0 0 0 0 0 0 0 0 0 0 0 0 0 0 0 0 0 0 0 0 0 0 0 0 0 0 0 0 0 0 0 -0.214168526698133 0 0 -0.289683156155693
0 0 0 0 0 0 0 0 0 0 0 0 0 0 0 0 0.227030673662692 0.315092864619001 0.152350543753872 0 0.564464725464897 0.123441582651827 0.466935636968219 0.181199288964151 0 0 0.0752441456514515 0.0677291044178685 0 0 0 1.33574506878701 0 0 0.133100166222297 0 0 0 0 0.38838455198366 0 0.805755714072719 0 0.765221340086402 0 0 0 -0.214168526698133 0.0796262866811517 0
0 0 0 0 0 0 0 0 0 0 0 0 0 0 0 0 0 0 0 0 0 0 0 0 0 0 0 0 0 0 0 0 0 0 0 0 0 0 0 0.371880458655868 0 0.314147682571116 0 0 0 0 0 -0.409904413135331 -0.214168526698133 0
0 0 0 0 0 0 0 0 0 0 0 0 0 0 0 0 0 0 0 0 0 0 0.0799410215567152 0.44278059069675 0 0.260984686604238 0.0365469739141584 0.265321540756798 0.446176695035067 0 0.154267019803687 0.258157661158628 0.0968604491277086 0.582949861901653 0.0596635549748281 0.267078898106443 0.243785402244916 0 0.0613880057018587 0.0350856153469322 0 0.339882512083598 0.156597701305672 0 0 0 0.0568709583147876 0 0 -0.214168526698133
