0.493762140425506
0.352524863506463
0.49024981510812
2.15201805191824
0.569375742230229
0.354141874390723
1.82351171997815
0.29409846271526
1.60736456031616
2.69316992993024
7.13089610113673
0.0727741819732701
0.733795047717672
1.73770385228296
2.06256734201395
0.549382135166994
1.76166778693425
0.308194000407549
0.407397847029474
1.51564258702079
2.55090174905531
0.547702489502875
2.53868378209888
0.399579308710984
0.588359217819518
0.71151153933261
1.64125662708976
3.60498095310631
0.86451897506963
2.44294123520244
2.6458105673046
0.82141437664849
3.28519342490973
1.65111617512228
0.400835456000268
0.330974896880106
1.03502858533151
0.745525952743775
0.370887901837122
0.582324971812404
0.756339614069367
2.99938449463524
7.26438245954293
0.116101792629802
1.06856550077607
0.0275598796098416
0.896144413337465
1.10426162735456
0.255297385811454
2.57849529623506
