0.742825873894952
0.900964510618458
1.11366069003825
1.06156044933463
1.41304497031433
0.436468708763196
0.364546510173112
0.101762458850536
5.79371405189662
0.41045247186403
2.23018113016224
0.702640589553162
0.388049897051373
3.13576130987334
0.407917174075582
0.245688525487715
0.128224997173234
0.378092895158484
0.814342911689725
0.572323828495368
1.08501437124861
6.81171079262725
2.8152467899971
0.304032476084348
2.13995975765045
4.15823476333777
2.34759857068656
1.65955250205
1.57607769787479
0.418966457822569
0.382869726903074
0.993086959792466
1.04796377203078
3.36912169385874
1.17382563983733
0.818658271039846
0.941155960346506
2.2980945219165
1.1739268853309
1.18047924492873
0.459905084557818
1.21817241908507
1.99381451962871
0.239156272202497
0.211101329012186
0.560449841464961
1.08165717726279
0.550418581080958
0.074194437633371
0.489335430644002
