-0.304372858197861 0 0 0 0 0 0 0 0 0 0 0 0 0 0 0 0 0 0 0 0 0 0 0 0 0 0 0 0 0 -0.129503288919678 0 0 0 0 0 0 0 0 0 0 0 0 0 0 0 0 0 0 0
0 -0.304372858197861 -0.238556616838824 0 0 0 0 0 0 0 0 0 0 0 0 0 0 0 0 -0.830174953854746 0 0 0 0 0 0 0 -1.99313749724411 0 0 -0.186541186315045 -8.92963163196733 0 0 0 0 0 0 0 0 0 0 0 0 0 0 0 0 0 0
0 0.0499852117176998 -0.304372858197861 0 0 0 0 0 0 0 0 0 0 0 0 0 0 -1.47803198049129 0 0 0 0 0 0 0 0 0 -1.51205522599187 0 0 -1.22748904367888 -0.56645441196919 0 0 0 0 0 0 0 0 0 0 0 0 0 -1.48804000061367 0 0 0 0
0 0 0 -0.304372858197861 0 0 0 0 0 0 0 0 0 0 0 0 0 0 0 0 0 0 0 -0.58936466176688 -1.29788708278478 0 0 0 0 0 0 -2.16065253744914 0 0 0 0 0 0 0 0 0 0 0 0 0 -5.98145587122743 0 0 0 0
0 0 0 0 -0.304372858197861 -0.190901091416322 0 0 0 0 0 0 0 0 0 -0.510126763043089 0 0 0 0 0 0 0 0 0 0 -0.602463787417896 -0.655370295079833 0 0 0 0 0 0 0 0 0 0 0 0 0 0 0 0 0 -0.748119042329374 0 0 0 -0.117858507427848
0 0 0 0 0.0373676071986744 -0.304372858197861 0 0 0 0 0 0 -1.09143322498502 0 -0.273457394560222 0 0 0 0 0 0 0 0 0 0 0 0 0 0 0 0 0 0 0 0 0 0 0 0 0 -0.0501207595116821 0 0 0 0 -0.909424917508835 0 0 0 -0.639668361749093
0 0 0 0 0 0 -0.304372858197861 0 0 -0.677004608740092 -3.61901065587181 0 -4.82811704063541 -2.79544458510556 -2.11838817443743 0 0 0 0 0 0 0 0 0 0 0 0 -0.155285372936316 0 0 0 0 0 0 0 0 0 0 0 0 0 0 0 0 0 0 0 0 0 -1.18441903001627
0 0 0 0 0 0 0 -0.304372858197861 0 0 0 0 -0.367236496823457 0 0 0 0 0 0 0 0 0 0 0 0 0 0 0 0 0 0 0 0 0 0 0 0 0 0 0 -0.327998026070414 0 0 0 0 0 0 0 0 0
0 0 0 0 0 0 0 0 -0.304372858197861 0 0 0 -1.17164509393323 -0.672109381189318 -0.538265530453346 0 0 0 0 0 0 0 0 0 0 0 -1.84002859883552 0 0 0 0 0 0 0 0 0 0 0 0 0 -0.430985992023477 0 0 0 0 -1.05624281293927 0 0 0 0
0 0 0 0 0 0 0.13724291134547 0 0 -0.304372858197861 0 -0.577217881773958 0 0 -1.15387143740541 0 0 0 0 0 0 0 0 0 0 0 0 -2.80781642267998 0 0 0 0 0 0 0 0 0 0 0 0 0 0 0 0 0 0 0 0 0 0
0 0 0 0 0 0 0.678998645525491 0 0 0 -0.304372858197861 0 0 0 -1.39348929834488 0 0 0 0 0 0 0 0 0 0 0 0 0 -1.21524625391523 0 0 0 0 0 0 0 0 0 0 -2.019472022887 0 0 0 0 0 0 0 0 0 0
0 0 0 0 0 0 0 0 0 0.11903754797147 0 -0.304372858197861 0 0 0 0 0 0 0 0 0 0 0 0 0 -1.5069806984195 0 0 -1.08259434064713 0 0 0 0 0 0 0 0 0 0 0 0 0 0 0 0 0 0 0 0 0
0 0 0 0 0 0.218143462074491 1.04929732224847 0.0751471693039115 0.245937339401279 0 0 0 -0.304372858197861 0 -0.864811663921986 0 0 0 0 0 0 0 0 0 0 -4.4904577141723 0 -0.430642073112981 -0.544798783486652 0 0 0 0 0 0 0 0 0 0 0 -0.341090319486122 0 0 0 0 0 0 0 0 0
0 0 0 0 0 0 0.557404321066824 0 0.130112566242716 0 0 0 0 -0.304372858197861 -0.782708058938215 0 0 0 0 0 0 0 -0.354470517018123 0 0 0 0 -0.333811393140751 -0.739009225545747 0 0 0 0 0 0 0 0 0 0 -0.938496845125712 0 0 0 0 0 0 0 0 0 0
0 0 0 0 0 0.0550154815147183 0.405954731977586 0 0.10940261837471 0.210846284526217 0.286738508746198 0 0.169635960107152 0.160897142206934 -0.304372858197861 0 0 0.0672225791305582 0 0 0 0 -3.25736766428465 0 0 0 0 -0.707464980725538 0 0 0 0 0 0 0 0 0 0 0 0 0 0 0 0 0 0 0 0 0 0
0 0 0 0 0.100657871011782 0 0 0 0 0 0 0 0 0 0 -0.304372858197861 0 0 0 0 0 0 -1.32935862058592 0 0 -0.338453245855346 0 0 0 0 0 0 0 0 0 0 0 0 0 0 -3.25778777737483 0 0 0 0 0 0 0 0 0
0 0 0 0 0 0 0 0 0 0 0 0 0 0 0 0 -0.304372858197861 0 0 0 0 0 0 0 0 -0.0571429393317665 0 -0.653052892260809 0 0 0 0 0 0 0 0 0 0 0 0 -1.2247308106627 0 0 0 0 0 0 0 0 0
0 0 0.273677317097677 0 0 0 0 0 0 0 0 0 0 0 -0.345385544210269 0 0 -0.304372858197861 0 0 0 0 0 0 0 0 0 -6.02088414989104 0 0 0 0 0 0 0 0 0 0 0 0 0 0 0 0 0 0 0 0 0 0
0 0 0 0 0 0 0 0 0 0 0 0 0 0 0 0 0 0 -0.304372858197861 0 0 0 0 0 0 0 0 -2.12513399188694 0 0 0 0 0 0 0 0 0 0 0 0 0 0 0 0 0 0 0 0 0 0
0 0.161922611922191 0 0 0 0 0 0 0 0 0 0 0 0 0 0 0 0 0 -0.304372858197861 -1.64740459511378 0 0 0 0 -1.45464772500012 0 -0.616905694505158 0 0 0 0 0 0 0 0 0 0 0 0 0 0 0 0 0 0 0 0 0 0
0 0 0 0 0 0 0 0 0 0 0 0 0 0 0 0 0 0 0 0.317983491034777 -0.304372858197861 0 0 0 0 0 0 0 0 0 0 0 0 0 0 0 0 0 0 0 0 -0.738040527974536 0 0 -2.22982227039775 0 0 0 0 0
0 0 0 0 0 0 0 0 0 0 0 0 0 0 0 0 0 0 0 0 0 -0.304372858197861 0 0 0 0 0 0 0 0 0 0 0 0 0 0 0 -10.3543583295156 0 0 0 -1.65970011887565 0 0 0 0 0 0 0 0
0 0 0 0 0 0 0 0 0 0 0 0 0 0.0732725419428249 0.639517469872441 0.28472994559961 0 0 0 0 0 0 -0.304372858197861 0 0 0 0 0 0 0 0 0 0 0 0 0 0 -1.31421645808433 0 0 0 0 0 0 0 0 0 0 0 0
0 0 0 0.123125572985791 0 0 0 0 0 0 0 0 0 0 0 0 0 0 0 0 0 0 0 -0.304372858197861 0 0 0 0 0 0 0 0 0 0 0 0 -0.526122083333268 0 0 0 0 0 0 0 0 0 0 0 0 0
0 0 0 0.26601173702384 0 0 0 0 0 0 0 0 0 0 0 0 0 0 0 0 0 0 0 0 -0.304372858197861 0 0 0 0 0 0 0 0 0 -3.56123051092871 0 -1.00215965493415 -1.60442348400647 0 0 0 0 0 0 0 0 0 0 0 0
0 0 0 0 0 0 0 0 0 0 0 0.304435485924252 0.902870998583342 0 0 0.0690886543743232 0.0109908567996057 0 0 0.321883779513631 0 0 0 0 0 -0.304372858197861 0 0 0 0 0 0 0 0 0 0 -1.42129878873718 0 0 0 0 -1.21042378995496 0 0 0 0 -0.240807787810189 0 0 0
0 0 0 0 0.123570865555948 0 0 0 0.366352904615963 0 0 0 0 0 0 0 0 0 0 0 0 0 0 0 0 0 -0.304372858197861 0 0 0 0 0 0 0 -2.81565998427816 0 -0.640502168772299 0 0 0 0 -5.2477485842682 0 0 0 0 0 0 0 0
0 0.401700292525669 0.311521634039341 0 0.128495788660731 0 0.0309254766652492 0 0 0.550130959965845 0 0 0.081752755664166 0.0677147105660162 0.133813234549236 0 0.132293673330418 1.15382089531609 0.436607792098778 0.127480678351239 0 0 0 0 0 0 0 -0.304372858197861 0 0 0 0 0 0 -1.13496070463295 0 0 0 0 0 0 -0.99033476368588 0 0 0 0 0 -0.826267777903851 0 0
0 0 0 0 0 0 0 0 0 0 0.22313112375176 0.220662480959932 0.104505405297075 0.150223029471145 0 0 0 0 0 0 0 0 0 0 0 0 0 0 -0.304372858197861 0 0 0 0 0 -1.22911442443779 0 0 0 0 0 0 0 0 0 0 0 -0.22859976860867 0 0 0
0 0 0 0 0 0 0 0 0 0 0 0 0 0 0 0 0 0 0 0 0 0 0 0 0 0 0 0 0 -0.304372858197861 0 0 0 0 -3.08400267215238 0 -1.74417494699872 0 0 0 0 -2.72086230186209 0 0 0 0 0 0 0 0
0.024682757965788 0.0399488413258201 0.239555644367435 0 0 0 0 0 0 0 0 0 0 0 0 0 0 0 0 0 0 0 0 0 0 0 0 0 0 0 -0.304372858197861 0 0 0 -1.44958309853199 0 -2.99550258734026 0 0 0 0 0 0 0 0 0 -0.567987646766037 0 -2.22610578902393 0
0 1.53485654483989 0.10905787811457 0.439333294019119 0 0 0 0 0 0 0 0 0 0 0 0 0 0 0 0 0 0 0 0 0 0 0 0 0 0 0 -0.304372858197861 0 0 0 0 -0.281199577229839 0 0 0 0 -0.767567313952346 0 0 0 0 -0.572369078904452 0 0 0
0 0 0 0 0 0 0 0 0 0 0 0 0 0 0 0 0 0 0 0 0 0 0 0 0 0 0 0 0 0 0 0 -0.304372858197861 -1.69613778171231 0 -0.882204176464119 0 0 -0.0839527451134924 0 0 -0.0726714972084164 0 0 0 0 0 -0.323016991103221 -1.68234517293109 0
0 0 0 0 0 0 0 0 0 0 0 0 0 0 0 0 0 0 0 0 0 0 0 0 0 0 0 0 0 0 0 0 0.359983998199247 -0.304372858197861 0 0 0 0 -0.348359393168621 0 0 -2.12438037667767 0 0 0 0 0 -2.5103164117149 -1.23783340298224 0
0 0 0 0 0 0 0 0 0 0 0 0 0 0 0 0 0 0 0 0 0 0 0 0 0.716511583543494 0 0.579126679101617 0.23345821062143 0.235609548670642 0.610593465013607 0.29667946675018 0 0 0 -0.304372858197861 0 0 0 -1.57445335774171 0 0 -9.12872021048861 0 0 0 0 0 0 -0.725158686274416 0
0 0 0 0 0 0 0 0 0 0 0 0 0 0 0 0 0 0 0 0 0 0 0 0 0 0 0 0 0 0 0 0 0.191874372039668 0 0 -0.304372858197861 0 0 -0.897731938846085 0 0 -0.833855364353338 0 0 0 0 0 -0.223476420692851 0 0
0 0 0 0 0 0 0 0 0 0 0 0 0 0 0 0 0 0 0 0 0 0 0 0.11012436633887 0.205899562316627 0.262094241542288 0.131362348388663 0 0 0.345464618228928 0.600797459243885 0.0578476773183739 0 0 0 0 -0.304372858197861 0 0 0 0 0 0 0 0 0 0 -0.368070359118761 -0.134528012403235 0
0 0 0 0 0 0 0 0 0 0 0 0 0 0 0 0 0 0 0 0 0 2.03796788435717 0.262616059724226 0 0.331183958094219 0 0 0 0 0 0 0 0 0 0 0 0 -0.304372858197861 0 0 0 -2.11727102714 0 0 0 0 0 -0.730947232889738 -0.176258374801224 0
0 0 0 0 0 0 0 0 0 0 0 0 0 0 0 0 0 0 0 0 0 0 0 0 0 0 0 0 0 0 0 0 0.0159787018629313 0.0648560758325375 0.325660706270006 0.175555906785762 0 0 -0.304372858197861 0 0 0 0 0 0 0 0 0 0 0
0 0 0 0 0 0 0 0 0 0 0.379552473010418 0 0 0.198011553936629 0 0 0 0 0 0 0 0 0 0 0 0 0 0 0 0 0 0 0 0 0 0 0 0 0 -0.304372858197861 0 0 0 0 0 0 0 0 -4.21684548582654 0
0 0 0 0 0 0.00995362748760679 0 0.0702889454810392 0.0852220791051363 0 0 0 0.0692074385732452 0 0 0.634094893570343 0.194289432393851 0 0 0 0 0 0 0 0 0 0 0 0 0 0 0 0 0 0 0 0 0 0 0 -0.304372858197861 0 0 0 0 0 0 0 0 0
0 0 0 0 0 0 0 0 0 0 0 0 0 0 0 0 0 0 0 0 0.149134650836857 0.332241434230022 0 0 0 0.237454102850304 0.946919574227642 0.211112066243225 0 0.513917036615175 0 0.162384178046611 0.0140599514742342 0.446908919982448 1.68782816788808 0.163746316524696 0 0.420254454472499 0 0 0 -0.304372858197861 0 0 0 0 0 -0.293864303370309 0 0
0 0 0 0 0 0 0 0 0 0 0 0 0 0 0 0 0 0 0 0 0 0 0 0 0 0 0 0 0 0 0 0 0 0 0 0 0 0 0 0 0 0 -0.304372858197861 0 0 0 0 -0.270923239350611 0 0
0 0 0 0 0 0 0 0 0 0 0 0 0 0 0 0 0 0 0 0 0 0 0 0 0 0 0 0 0 0 0 0 0 0 0 0 0 0 0 0 0 0 0 -0.304372858197861 0 0 0 -0.982702676101946 0 0
0 0 0 0 0 0 0 0 0 0 0 0 0 0 0 0 0 0 0 0 0.442356414689734 0 0 0 0 0 0 0 0 0 0 0 0 0 0 0 0 0 0 0 0 0 0 0 -0.304372858197861 0 0 -0.500384441664633 0 0
0 0 0.313669300161266 1.21453610862923 0.161197184867543 0.18402955363336 0 0 0.219880944070196 0 0 0 0 0 0 0 0 0 0 0 0 0 0 0 0 0 0 0 0 0 0 0 0 0 0 0 0 0 0 0 0 0 0 0 0 -0.304372858197861 0 0 0 0
0 0 0 0 0 0 0 0 0 0 0 0 0 0 0 0 0 0 0 0 0 0 0 0 0 0.0498405744244495 0 0 0.0432688077384526 0 0.116447584350853 0.111022115508342 0 0 0 0 0 0 0 0 0 0 0 0 0 0 -0.304372858197861 -2.10190425416267 0 0
0 0 0 0 0 0 0 0 0 0 0 0 0 0 0 0 0 0 0 0 0 0 0 0 0 0 0 0.174209520581944 0 0 0 0 0.0608865610743444 0.4795859121012 0 0.0459794161054524 0.076827329992553 0.146707116133857 0 0 0 0.060835570422936 0.059016868302499 0.188251812098306 0.100237666035629 0 0.460278794733315 -0.304372858197861 0.0290646989568953 0
0 0 0 0 0 0 0 0 0 0 0 0 0 0 0 0 0 0 0 0 0 0 0 0 0 0 0 0 0 0 0.469633179961586 0 0.313043272498003 0.258063793346293 0.155735167271324 0 0.0268143414344465 0.0337508279875964 0 0.862889739632592 0 0 0 0 0 0 0 -0.152427431433681 -0.304372858197861 0
0 0 0 0 0.0247343082660047 0.135063635785108 0.22370161704691 0 0 0 0 0 0 0 0 0 0 0 0 0 0 0 0 0 0 0 0 0 0 0 0 0 0 0 0 0 0 0 0 0 0 0 0 0 0 0 0 0 0 -0.304372858197861
