-0.364697573181627 0 0 0 0 0 0 -0.740422072371912 0 0 0 0 -0.384272062155989 -1.20728212622134 0 0 0 0 0 -0.355045157198981 0 0 0 0 0 0 0 -0.633525792982515 0 0 0 0 -1.17297870046468 -0.412366507797118 0 0 0 0 0 0 0 0 0 0 0 0 0 0 0 0
0 -0.364697573181627 0 -0.597972263326156 0 0 0 0 0 0 0 -0.505842452184198 0 0 0 0 0 0 0 0 0 0 0 0 0 0 0 0 0 0 0 -2.25903295372572 -0.71069070070285 0 0 0 0 0 0 0 0 0 0 0 0 0 0 0 0 0
0 0 -0.364697573181627 0 0 0 0 -3.84772387103206 0 0 0 0 -1.09063263929661 0 0 0 0 0 0 -0.963637754961608 0 0 -3.58663420016202 0 0 0 -1.71765875013528 0 0 0 0 -1.92494287122701 -0.617414888697195 -0.245849813504962 -3.49415134425269 0 0 0 0 0 0 0 -2.9670440869061 0 0 0 0 0 0 0
0 0.120089783648561 0 -0.364697573181627 0 0 0 0 0 0 0 0 -0.578242097083627 0 0 0 0 0 0 -0.67127908310842 0 0 -3.38895811258439 0 0 0 0 -0.81830376285419 0 0 0 0 0 -0.369714083795616 -0.22201225270143 0 0 0 0 0 0 0 0 0 0 0 0 0 0 0
0 0 0 0 -0.364697573181627 0 -0.645746399119138 0 0 0 0 0 -1.01737677126924 0 0 0 0 0 0 0 0 0 -3.02931961278693 0 0 0 0 -1.51424282730824 0 0 0 -1.78323055645652 -1.10474290278785 -3.25727379602011 -0.976038146173672 0 0 0 0 0 0 0 0 0 0 0 0 0 0 0
0 0 0 0 0 -0.364697573181627 0 0 0 0 0 0 0 0 0 0 0 0 0 0 0 0 0 0 0 0 -1.51113492643041 -0.374916689291853 0 0 0 0 0 0 -0.216896966165298 0 0 0 0 0 0 0 0 0 0 0 0 0 0 0
0 0 0 0 0.127851187380972 0 -0.364697573181627 0 0 0 0 0 0 0 0 0 0 0 0 0 0 0 0 -2.54036814922398 0 0 0 0 0 0 0 -0.432802918109445 -0.802344446303135 0 0 0 0 0 0 0 0 0 0 0 0 0 0 0 0 0
0.137774087761963 0 0.807095814037153 0 0 0 0 -0.364697573181627 0 0 0 0 0 0 0 0 0 0 0 0 -0.603209984097515 0 -0.336435920929012 -1.45313585868962 0 0 0 0 -6.6852616058858 0 0 0 -0.117524364505967 0 -0.0490380169967395 0 0 0 0 0 0 0 0 0 0 0 0 0 0 0
0 0 0 0 0 0 0 0 -0.364697573181627 0 0 0 0 0 0 0 0 0 0 0 -1.23943923739864 0 -0.792360075042583 -0.163976892346828 0 0 0 0 -2.73635320434906 0 0 0 -1.3967019840831 0 -0.915576608365577 0 0 0 0 0 0 0 0 0 0 0 0 0 0 0
0 0 0 0 0 0 0 0 0 -0.364697573181627 0 0 0 0 0 0 0 0 0 0 -0.958665695488156 0 0 -0.813141181499962 0 0 0 0 0 0 0 0 0 0 0 0 0 0 0 0 0 0 0 0 0 0 0 0 0 0
0 0 0 0 0 0 0 0 0 0 -0.364697573181627 0 0 0 0 0 0 0 0 0 -2.20362175257438 0 0 -2.25302140055486 0 0 0 0 -0.287024223337389 0 0 0 0 0 0 0 0 0 0 0 0 0 0 0 0 0 0 0 0 0
0 0.101551402231965 0 0 0 0 0 0 0 0 0 -0.364697573181627 0 0 0 0 0 0 0 0 0 0 0 -2.50633903425126 0 0 0 0 0 0 0 0 0 0 0 0 0 0 0 0 0 0 0 0 0 0 0 0 0 0
0.0806480884373363 0 0.207724520518821 0.119648494718584 0.212830790988618 0 0 0 0 0 0 0 -0.364697573181627 0 0 0 0 0 0 0 -0.763096672838434 0 -4.68538378109867 0 0 0 0 0 -0.83809717480718 0 0 0 0 0 0 0 0 0 0 0 0 0 0 0 0 0 -2.12098065001998 0 0 0
0.231942567714097 0 0 0 0 0 0 0 0 0 0 0 0 -0.364697573181627 0 0 0 0 0 0 -1.337394229306 0 0 0 0 0 0 0 -1.00753260070757 0 0 0 0 0 0 0 0 0 0 0 0 0 0 0 0 0 -0.305518377702502 0 0 0
0 0 0 0 0 0 0 0 0 0 0 0 0 0 -0.364697573181627 -6.20648280989987 0 0 -0.723057036676339 0 0 0 0 0 0 0 0 0 0 0 0 0 0 0 0 0 0 0 0 0 0 0 0 0 0 0 0 0 0 0
0 0 0 0 0 0 0 0 0 0 0 0 0 0 1.28429349167427 -0.364697573181627 0 0 0 0 0 0 0 0 0 0 0 0 0 0 0 0 0 0 0 0 0 0 0 0 0 0 0 0 0 0 -0.545690460637695 0 0 0
0 0 0 0 0 0 0 0 0 0 0 0 0 0 0 0 -0.364697573181627 0.228982654790958 0 0.0998236286715278 0.442126927173644 0.112065420368994 0 0 0 0 0 0 0 0 0 0 0 0 0 0 0 0 0 0 0 0 0 0 0 0 -0.37196897037298 -1.38278387463117 0 0
0 0 0 0 0 0 0 0 0 0 0 0 0 0 0 0 -1.1582309144589 -0.364697573181627 0 0 0 0 0 0 0 0 0 0 0 0 0 0 0 0 0 0 0 0 0 0 0 -0.485269577908695 0 0 0 0 0 0 0 0
0 0 0 0 0 0 0 0 0 0 0 0 0 0 0.137676916532952 0 0 0 -0.364697573181627 0 0 0 0 0 0 0 0 0 0 0 0 0 0 0 0 0 0 0 0 0 0 0 0 0 0 0 -1.15703479918041 0 -0.689689939794304 0
0.0682698943910797 0 0.196034712651237 0.15021441160522 0 0 0 0 0 0 0 0 0 0 0 0 -0.493385341519513 0 0 -0.364697573181627 0 0 0 0 0 0 0 0 0 0 0 0 0 0 0 0 0 0 0 0 0 0 0 0 0 0 -3.05284401686647 0 0 0
0 0 0 0 0 0 0 0.125004066337947 0.236373910401003 0.183510031737186 0.455763701515634 0 0.154326338895533 0.259219811931705 0 0 -2.26497726363115 0 0 0 -0.364697573181627 0 0 0 0 0 0 0 0 0 0 0 0 0 0 0 0 0 0 0 0 0 0 0 0 0 0 0 0 0
0 0 0 0 0 0 0 0 0 0 0 0 0 0 0 0 -0.567785562510168 0 0 0 0 -0.364697573181627 0 0 0 0 0 0 0 0 0 0 0 0 0 0 0 0 0 0 0 0 0 0 0 0 0 -1.68841522258188 -0.269510398408154 0
0 0 0.732046262816774 0.727623755597314 0.635300495246992 0 0 0.0637578840864795 0.15662163995976 0 0 0 0.893226892266399 0 0 0 0 0 0 0 0 0 -0.364697573181627 0 0 0 0 0 0 0 0 0 0 0 0 0 0 0 0 0 0 0 0 0 0 0 0 0 0 0
0 0 0 0 0 0 0.456134631843145 0.314379533322931 0.0330684133049184 0.151617220019269 0.38984475857231 0.507500510493658 0 0 0 0 0 0 0 0 0 0 0 -0.364697573181627 0 0 0 0 0 0 0 0 0 0 0 0 0 0 0 0 0 0 0 0 0 0 0 -1.76948029529141 0 0
0 0 0 0 0 0 0 0 0 0 0 0 0 0 0 0 0 0 0 0 0 0 0 0 -0.364697573181627 0 0 0 0 0 0 0 0 0 0 0 0 0 0 0 0 0 0 0 0 0 0 0 -0.171596239740728 0
0 0 0 0 0 0 0 0 0 0 0 0 0 0 0 0 0 0 0 0 0 0 0 0 0 -0.364697573181627 0 0 0 0 0 0 0 0 0 0 -1.65869531340752 0 0 0 0 0 0 0 0 0 0 0 0 -0.814175188173709
0 0 0.342538018104015 0 0 0.321982208310749 0 0 0 0 0 0 0 0 0 0 0 0 0 0 0 0 0 0 0 0 -0.364697573181627 0 0 0 0 0 0 0 0 -0.686889082969061 0 0 0 0 0 0 0 0 0 0 0 -3.34938680273102 0 -0.648621228657357
0.127031004032351 0 0 0.157426263613992 0.314203625417165 0.0829866588695236 0 0 0 0 0 0 0 0 0 0 0 0 0 0 0 0 0 0 0 0 0 -0.364697573181627 0 0 0 0 0 0 0 -1.10974669396905 0 0 0 0 0 0 0 0 0 0 0 -0.368987804362373 0 0
0 0 0 0 0 0 0 1.32615127991693 0.577223540642876 0 0.0545019403157276 0 0.167789169358753 0.196380343787432 0 0 0 0 0 0 0 0 0 0 0 0 0 0 -0.364697573181627 0 0 0 0 0 0 -0.680145250611861 0 0 0 0 0 0 0 0 0 0 -0.406094180400736 0 -1.83558520974205 -1.14657234464923
0 0 0 0 0 0 0 0 0 0 0 0 0 0 0 0 0 0 0 0 0 0 0 0 0 0 0 0 0 -0.364697573181627 0 0 0 0 0 -6.96143253628328 0 0 0 0 0 0 0 0 -2.68820762141629 0 -4.44331530651434 -0.415878801782503 -4.60549064178724 -1.19401562991738
0 0 0 0 0 0 0 0 0 0 0 0 0 0 0 0 0 0 0 0 0 0 0 0 0 0 0 0 0 0 -0.364697573181627 0 0 0 0 -0.949222196710292 0 -0.562518535956484 0 0 0 0 0 0 0 0 0 0 0 0
0 0.453035894906638 0.385883948972943 0 0.349176769177656 0 0.0893655052734222 0 0 0 0 0 0 0 0 0 0 0 0 0 0 0 0 0 0 0 0 0 0 0 0 -0.364697573181627 0 0 0 0 0 -3.48782977669224 0 0 0 0 0 0 -0.254390547657201 0 0 0 0 -0.423410509694425
0.235131786471537 0.149166888235024 0.123863120394004 0 0.240615662298451 0 0.144025744091854 0.0235911194629088 0.292557124698439 0 0 0 0 0 0 0 0 0 0 0 0 0 0 0 0 0 0 0 0 0 0 0 -0.364697573181627 0 0 0 0 0 0 0 0 0 0 0 -0.818398448208788 0 0 0 -0.595438817749906 0
0.0833129415096122 0 0.0479240247257722 0.0739972986277925 0.628237829478572 0 0 0 0 0 0 0 0 0 0 0 0 0 0 0 0 0 0 0 0 0 0 0 0 0 0 0 0 -0.364697573181627 0 -0.924080970817363 0 0 0 0 0 0 0 0 0 0 0 0 -0.823995680419369 0
0 0 0.646523544046256 0.0453990978656635 0.188120391418082 0.043529301427009 0 0.0101453569028165 0.185786771360613 0 0 0 0 0 0 0 0 0 0 0 0 0 0 0 0 0 0 0 0 0 0 0 0 0 -0.364697573181627 -2.06833633206249 0 -0.142877587673228 -0.22706750430483 0 0 0 0 0 -0.88313315740124 0 0 0 -0.604073758637401 -0.506383578636755
0 0 0 0 0 0 0 0 0 0 0 0 0 0 0 0 0 0 0 0 0 0 0 0 0 0 0.148898255940456 0.231365371508345 0.132336709582822 1.28423141143698 0.194438236408934 0 0 0.175882180414511 0.422206874237817 -0.364697573181627 0 0.151101982856484 0.133638197563645 0 0 0 0 0 0 0 0 0 0 0
0 0 0 0 0 0 0 0 0 0 0 0 0 0 0 0 0 0 0 0 0 0 0 0 0 0.341761463604249 0 0 0 0 0 0 0 0 0 0 -0.364697573181627 0 0 -1.61284267683917 0 0 0 0 0 0 0 0 -0.365145114405999 -0.257158495539476
0 0 0 0 0 0 0 0 0 0 0 0 0 0 0 0 0 0 0 0 0 0 0 0 0 0 0 0 0 0 0.117756090909225 0.676244883312828 0 0 0.0291106516973962 -0.876386670451136 0 -0.364697573181627 0.281535213484214 -1.09921342282487 0.375953425668679 0 0.235050616017543 0 0 0 0 0 -1.0349044550346 -0.241891465102498
0 0 0 0 0 0 0 0 0 0 0 0 0 0 0 0 0 0 0 0 0 0 0 0 0 0 0 0 0 0 0 0 0 0 0.0433707105185621 -0.639211990965735 0 -1.47799743829505 -0.364697573181627 0 0 0 0 0 0 0 0 0 -5.65373330018112 0
0 0 0 0 0 0 0 0 0 0 0 0 0 0 0 0 0 0 0 0 0 0 0 0 0 0 0 0 0 0 0 0 0 0 0 0 0.326750852311232 0.218905679214664 0 -0.364697573181627 0 0 0 -1.16676159371465 0 0 0 0 -1.4506799417249 0
0 0 0 0 0 0 0 0 0 0 0 0 0 0 0 0 0 0 0 0 0 0 0 0 0 0 0 0 0 0 0 0 0 0 0 0 0 -1.9123573733902 0 0 -0.364697573181627 0 0 0 0 0 0 0 -0.60366079777799 0
0 0 0 0 0 0 0 0 0 0 0 0 0 0 0 0 0 0.0992519007965997 0 0 0 0 0 0 0 0 0 0 0 0 0 0 0 0 0 0 0 0 0 0 0 -0.364697573181627 0 0 0 0 0 0 -1.80774667078101 0
0 0 0.61857346402282 0 0 0 0 0 0 0 0 0 0 0 0 0 0 0 0 0 0 0 0 0 0 0 0 0 0 0 0 0 0 0 0 0 0 -1.18048424604688 0 0 0 0 -0.364697573181627 0 0 0 0 0 0 0
0 0 0 0 0 0 0 0 0 0 0 0 0 0 0 0 0 0 0 0 0 0 0 0 0 0 0 0 0 0 0 0 0 0 0 0 0 0 0 0.241190899625223 0 0 0 -0.364697573181627 0 0 0 0 -2.52691096999429 0
0 0 0 0 0 0 0 0 0 0 0 0 0 0 0 0 0 0 0 0 0 0 0 0 0 0 0 0 0 0.540059651027026 0 0.0491019489931176 0.162821730502679 0 0.164068449808765 0 0 0 0 0 0 0 0 0 -0.364697573181627 0 0 0 0 0
0 0 0 0 0 0 0 0 0 0 0 0 0 0 0 0 0 0 0 0 0 0 0 0 0 0 0 0 0 0 0 0 0 0 0 0 0 0 0 0 0 0 0 0 0 -0.364697573181627 0 0 -0.551871043050365 0
0 0 0 0 0 0 0 0 0 0 0 0 0.401414999549771 0.0620057576949233 0 0.104894939631272 0.0739152376173896 0 0.213112001223765 0.600659966295767 0 0 0 0 0 0 0 0 0.0833580840680178 0.883949645934378 0 0 0 0 0 0 0 0 0 0 0 0 0 0 0 0 -0.364697573181627 0 -3.92873145289051 0
0 0 0 0 0 0 0 0 0 0 0 0 0 0 0 0 0.257802408623425 0 0 0 0 0.342071800396221 0 0.342201893701938 0 0 0.640115520540514 0.0691518198921684 0 0.0857263622998731 0 0 0 0 0 0 0 0 0 0 0 0 0 0 0 0 0 -0.364697573181627 0 0
0 0 0 0 0 0 0 0 0 0 0 0 0 0 0 0 0 0 0.131181643014016 0 0 0.0561901215512345 0 0 0.0357503737644734 0 0 0 0.366277316913131 0.940098233964707 0 0 0.120579658440421 0.166916618607933 0.118098596905181 0 0.0699986444595332 0.207980291335009 1.12436957582503 0.286988396131499 0.107531626229286 0.410766792320973 0 0.511671857122129 0 0.110693991403735 0.761087798563456 0 -0.364697573181627 0
0 0 0 0 0 0 0 0 0 0 0 0 0 0 0 0 0 0 0 0 0 0 0 0 0 0.151490830636246 0.127896831024118 0 0.235065079251191 0.242179076348324 0 0.0853379792852462 0 0 0.104446505525558 0 0.0525126051806017 0.0513628954402625 0 0 0 0 0 0 0 0 0 0 0 -0.364697573181627
