0.166339387018872
0.582138999651722
7.18193632689192
2.44911270459396
0.702023906685803
1.53190702928576
1.97762575564169
1.18872548559169
0.265839014805172
0.729264910987739
0.518196054002714
1.13704168720575
1.52860979440481
0.194062214450837
1.31887891967892
1.94801912424952
0.752919072053768
1.76892400657046
1.18440134279379
0.34548900511708
2.9219020914524
2.13540549961976
1.0045820214915
0.874801886885723
1.24864233852302
3.88705191056255
3.10076191934431
1.0790805118084
2.83131034950009
2.50616254172353
0.600122896131633
0.156176765535358
0.229595968313273
1.35350763313765
0.22263629279433
1.8778398604993
5.78822053953588
5.51986951233252
0.285462555083544
2.903753621179
3.34368046968544
9.40732303068311
0.307542178199228
0.32694351379782
1.63435944473113
0.67244364795204
2.02840725378656
1.66529706701765
2.14231309086593
0.935877297477927
