-0.374463457799423 -0.480201836572916 -1.85411446135207 -0.409545004161529 0 0 0 0 0 0 0 0 0 0 0 0 0 0 0 0 0 0 0 0 0 0 0 0 0 0 0 0 0 0 0 0 0 0 0 0 0 0 0 0 0 0 0 0 0 0
0.0963760909879365 -0.374463457799423 0 -1.13673248473559 0 0 0 0 0 0 0 0 0 0 0 0 0 0 0 0 0 0 0 0 0 0 0 0 0 0 0 0 0 0 0 0 0 0 0 0 0 0 0 0 0 0 0 0 0 0
0.376293347370279 0 -0.374463457799423 0 0 0 0 0 0 0 0 0 0 0 0 -0.737095458818825 0 0 0 0 0 0 0 0 0 0 0 0 0 0 0 0 0 0 0 0 0 0 0 0 0 0 0 0 0 0 0 0 0 0
0.0829621320661191 0.204631804427006 0 -0.374463457799423 0 0 0 0 0 0 0 0 0 0 0 -0.258081528436879 0 0 0 0 0 0 0 0 0 0 0 0 0 0 0 0 0 0 0 0 0 0 0 0 0 0 0 0 0 0 0 0 0 -9.84814745161682
0 0 0 0 -0.374463457799423 0 0 -0.116622094755587 0 0 0 -1.79426534782108 0 0 0 0 0 -0.922920474161525 0 0 0 0 0 0 0 0 0 0 0 0 0 0 0 0 0 0 0 0 0 0 0 0 0 0 0 0 0 0 0 -0.394185934300686
0 0 0 0 0 -0.374463457799423 0 0 0 0 0 0 0 0 0 0 0 0 0 0 0 0 0 0 0 0 0 0 0 0 0 0 0 0 0 0 0 0 0 0 0 0 0 0 0 0 0 0 0 -0.495842235657566
0 0 0 0 0 0 -0.374463457799423 0 0 0 0 0 0 0 0 0 0 -0.113562453801945 -0.475724110499412 0 0 0 0 0 0 0 0 0 0 0 0 0 0 0 0 0 0 0 0 0 0 0 0 0 0 0 0 0 0 0
0 0 0 0 0.0243279949406118 0 0 -0.374463457799423 0 0 -1.34031136153987 0 0 0 0 0 0 0 0 0 0 0 0 0 0 0 -2.41998640697657 0 0 0 -0.548157560333391 0 0 0 0 0 0 0 -0.498322926227012 0 0 0 0 0 0 0 0 0 0 -0.36116923432272
0 0 0 0 0 0 0 0 -0.374463457799423 0 0 0 0 0 0 0 0 -0.555371190906885 -1.53204421513461 0 0 0 0 0 -0.735193820728394 0 -0.488641707572 0 0 0 0 0 0 0 0 0 0 0 -0.234222214630027 0 0 0 0 0 0 0 0 0 0 -3.0158851713886
0 0 0 0 0 0 0 0 0 -0.374463457799423 -0.664233759423529 0 0 0 0 0 0 0 0 -0.619375985508849 0 0 0 0 0 0 -0.228540168932386 0 0 0 0 0 0 0 0 0 0 0 0 0 0 0 0 0 0 0 0 0 0 -0.665987563026888
0 0 0 0 0 0 0 0.264660839884866 0 0.131681958896166 -0.374463457799423 0 0 0 0 0 0 0 0 -1.06717242948658 0 0 0 0 0 0 0 0 0 0 0 0 0 -1.06627263225356 0 0 0 0 -0.690965314244115 0 0 0 0 0 0 0 0 0 0 -0.844181131850258
0 0 0 0 0.331312767577708 0 0 0 0 0 0 -0.374463457799423 0 0 -0.374269913296886 0 0 0 0 0 0 0 -0.175082170897328 0 -0.763563210281442 0 0 0 0 0 0 0 0 0 0 0 0 0 0 0 0 0 0 0 0 0 -2.1743213871829 0 0 0
0 0 0 0 0 0 0 0 0 0 0 0 -0.374463457799423 0 0 0 0 0 0 -0.735679787659993 0 0 0 0 -1.4836306501026 0 0 0 0 0 0 0 0 0 0 0 0 0 -1.05311120216452 0 0 0 0 0 0 0 0 0 0 -3.21006933954043
0 0 0 0 0 0 0 0 0 0 0 0 0 -0.374463457799423 -1.75799304199579 0 0 0 0 -0.362857311934278 0 0 0 0 0 0 0 0 0 0 0 0 0 0 0 0 0 0 0 0 0 0 0 0 0 0 0 0 0 0
0 0 0 0 0 0 0 0 0 0 0 0.0702039990652235 0 0.355164312823898 -0.374463457799423 0 0 0 0 -0.257400519561522 0 0 0 0 0 0 0 0 0 0 0 0 0 0 0 0 0 0 0 0 0 0 0 0 0 0 -0.872003151378934 0 0 0
0 0 0.152256249480551 0.0542753209554504 0 0 0 0 0 0 0 0 0 0 0 -0.374463457799423 0 0 0 0 0 0 -0.42937266212912 0 0 0 0 0 0 0 0 0 0 0 0 0 0 0 0 0 0 0 0 0 0 0 -0.402788389275374 0 0 0
0 0 0 0 0 0 0 0 0 0 0 0 0 0 0 0 -0.374463457799423 0 0 0 0 0 -1.97670662890775 0 0 0 0 0 0 0 0 0 0 0 0 0 0 0 -2.2348098539415 0 0 0 0 0 0 0 -0.513089977517187 0 0 0
0 0 0 0 0.183725233663331 0 0.0202133100031208 0 0.115000952919078 0 0 0 0 0 0 0 0 -0.374463457799423 0 0 0 0 0 0 0 0 0 0 0 0 0 0 0 0 0 0 0 0 0 0 0 0 0 0 0 0 0 0 0 0
0 0 0 0 0 0 0.0937445409695215 0 0.277629198635591 0 0 0 0 0 0 0 0 0 -0.374463457799423 0 0 0 0 0 0 0 0 0 0 0 0 0 0 0 0 0 0 0 0 0 0 0 0 0 0 0 -0.548319177247618 0 0 0
0 0 0 0 0 0 0 0 0 0.121524438008643 0.214410593136056 0 0.133526635992868 0.0690115834105742 0.0526462916144052 0 0 0 0 -0.374463457799423 0 0 -4.63303545815772 0 0 0 0 0 0 0 0 0 0 0 0 0 0 0 0 0 0 0 0 0 0 0 -0.505513858349719 0 0 0
0 0 0 0 0 0 0 0 0 0 0 0 0 0 0 0 0 0 0 0 -0.374463457799423 0 -0.853904690560065 0 0 0 0 0 -1.67179158149757 0 0 0 0 0 0 0 0 0 0 0 0 0 0 -2.71750962746893 0 0 0 0 0 0
0 0 0 0 0 0 0 0 0 0 0 0 0 0 0 0 0 0 0 0 0 -0.374463457799423 0 0 0 -0.713335426429791 0 -0.277659935466164 0 0 0 0 0 0 0 0 0 0 0 0 -1.01575971295849 0 0 0 0 0 0 0 0 0
0 0 0 0 0 0 0 0 0 0 0 0.036640153465689 0 0 0 0.0831045132703579 0.401664281714669 0 0 0.920062967594325 0.172630708938894 0 -0.374463457799423 0 0 0 0 0 0 -1.4993575355858 0 0 0 0 -1.52329008871335 0 -0.891887716668577 0 0 0 -4.00138218547843 0 0 0 0 0 0 0 -0.970880758289907 0
0 0 0 0 0 0 0 0 0 0 0 0 0 0 0 0 0 0 0 0 0 0 0 -0.374463457799423 0 0 0 0 -0.353980694375673 -0.288417674786728 0 0 0 0 0 0 0 -0.777156173798385 0 0 0 0 0 0 0 0 0 0 0 0
0 0 0 0 0 0 0 0 0.158708898415538 0 0 0.162945233334135 0.335850604460719 0 0 0 0 0 0 0 0 0 0 0 -0.374463457799423 0 0 0 -3.34613214716618 -0.451381647129283 0 0 0 0 -1.06099076378665 0 0 -0.42805573754236 0 0 -0.40630897609843 0 0 -3.66698284873598 0 0 0 0 0 0
0 0 0 0 0 0 0 0 0 0 0 0 0 0 0 0 0 0 0 0 0 0.139215122883673 0 0 0 -0.374463457799423 0 0 0 0 0 0 0 0 0 0 0 -0.576448874209077 0 0 -1.05494029488908 0 0 -0.642628969299035 0 0 0 0 0 0
0 0 0 0 0 0 0 0.48132277832691 0.0954966800412964 0.0434773659154033 0 0 0 0 0 0 0 0 0 0 0 0 0 0 0 0 -0.374463457799423 0 0 0 0 0 0 0 0 0 0 -0.747274977699163 0 0 -0.185351492932286 -1.32574027064833 0 -0.646172551883876 0 0 0 0 0 0
0 0 0 0 0 0 0 0 0 0 0 0 0 0 0 0 0 0 0 0 0 0.0556987244848906 0 0 0 0 0 -0.374463457799423 0 0 0 -1.00661411910659 0 0 0 0 0 -0.617889923732993 0 0 -0.604035547508495 -1.64333817349322 0 0 0 0 0 0 -2.9900480688946 0
0 0 0 0 0 0 0 0 0 0 0 0 0 0 0 0 0 0 0 0 0.349291962413292 0 0 0.0692851078894546 0.658049947791059 0 0 0 -0.374463457799423 0 0 0 0 0 0 0 -0.620603625402372 0 0 0 -3.02011869767153 0 0 -1.31297069942772 0 0 0 0 -0.426069620798087 0
0 0 0 0 0 0 0 0 0 0 0 0 0 0 0 0 0 0 0 0 0 0 0.313182622718984 0.0589497858382438 0.0909376876752292 0 0 0 0 -0.374463457799423 0 -0.769847708261673 0 0 0 0 0 -0.564729921840495 0 0 0 -3.01902132544715 0 0 0 0 0 0 -4.81365911816884 0
0 0 0 0 0 0 0 0.108115354494715 0 0 0 0 0 0 0 0 0 0 0 0 0 0 0 0 0 0 0 0 0 0 -0.374463457799423 -0.621280700184821 0 0 0 0 0 -1.52977549932077 0 0 0 -0.951317275519237 0 0 0 0 0 0 -0.75677775150591 0
0 0 0 0 0 0 0 0 0 0 0 0 0 0 0 0 0 0 0 0 0 0 0 0 0 0 0 0.218009851828957 0 0.148183026393322 0.129032326598154 -0.374463457799423 0 0 0 0 0 0 0 0 -2.25080257457014 -1.63985347806532 0 0 0 0 0 0 -0.242669277645536 0
0 0 0 0 0 0 0 0 0 0 0 0 0 0 0 0 0 0 0 0 0 0 0 0 0 0 0 0 0 0 0 0 -0.374463457799423 0 0 0 0 -1.16769168701732 0 0 0 -0.388770208702733 0 0 0 0 0 0 0 0
0 0 0 0 0 0 0 0 0 0 0.223142491817084 0 0 0 0 0 0 0 0 0 0 0 0 0 0 0 0 0 0 0 0 0 0 -0.374463457799423 0 0 0 0 0 0 0 0 0 0 0 0 0 0 0 0
0 0 0 0 0 0 0 0 0 0 0 0 0 0 0 0 0 0 0 0 0 0 0.292842751324268 0 0.217522361642419 0 0 0 0 0 0 0 0 0 -0.374463457799423 -1.03137536656534 0 -2.36354907438013 0 -5.12261141527932 0 -1.12241309811775 0 0 0 0 0 0 -0.459287566715578 0
0 0 0 0 0 0 0 0 0 0 0 0 0 0 0 0 0 0 0 0 0 0 0 0 0 0 0 0 0 0 0 0 0 0 0.226338396270131 -0.374463457799423 0 0 0 0 0 -7.08672508141361 0 0 0 0 0 -2.28468907221428 -0.290948174806271 0
0 0 0 0 0 0 0 0 0 0 0 0 0 0 0 0 0 0 0 0 0 0 0.194880854023575 0 0 0 0 0 0.128867421972475 0 0 0 0 0 0 0 -0.374463457799423 0 0 0 0 -3.98473310396737 0 0 0 0 0 0 -2.26124314481031 0
0 0 0 0 0 0 0 0 0 0 0 0 0 0 0 0 0 0 0 0 0 0 0 0.150137267617722 0.0897302725563877 0.115371881443716 0.153232014463492 0.123033269414873 0 0.111555159046434 0.309685282418106 0 0.225385931797867 0 0.459318819101316 0 0 -0.374463457799423 0 0 0 0 0 0 0 0 0 -0.630185554627879 0 0
0 0 0 0 0 0 0 0.0941523619209753 0.0477726871125161 0 0.134851158402858 0 0.227702162503755 0 0 0 0.439866656516216 0 0 0 0 0 0 0 0 0 0 0 0 0 0 0 0 0 0 0 0 0 -0.374463457799423 0 0 0 0 0 0 0 0 0 0 0
0 0 0 0 0 0 0 0 0 0 0 0 0 0 0 0 0 0 0 0 0 0 0 0 0 0 0 0 0 0 0 0 0 0 1.056592120427 0 0 0 0 -0.374463457799423 0 0 0 0 -0.581180256777623 0 0 -0.31893283742535 0 0
0 0 0 0 0 0 0 0 0 0 0 0 0 0 0 0 0 0 0 0 0 0.2260644275286 0.795482405855101 0 0.0864348173641091 0.200075064500239 0.0371128989871473 0.126417763030027 0.642859432034795 0 0 0.416902748620397 0 0 0 0 0 0 0 0 -0.374463457799423 0 0 0 0 0 0 0 0 0
0 0 0 0 0 0 0 0 0 0 0 0 0 0 0 0 0 0 0 0 0 0 0 0 0 0 0.262147863349973 0.304889727697431 0 0.611296452502896 0.184293560342556 0.332616716416899 0.0751545433040444 0 0.235082294697422 1.49842456468961 0.786653491940961 0 0 0 0 -0.374463457799423 0 0 -2.92468493528388 -0.786106469896705 0 0 0 0
0 0 0 0 0 0 0 0 0 0 0 0 0 0 0 0 0 0 0 0 0 0 0 0 0 0 0 0 0 0 0 0 0 0 0 0 0 0 0 0 0 0 -0.374463457799423 0 -0.859504714272756 0 0 0 0 0
0 0 0 0 0 0 0 0 0 0 0 0 0 0 0 0 0 0 0 0 0.515402550668501 0 0 0 0.759435499414544 0.127352785375066 0.134624133280542 0 0.256107844285364 0 0 0 0 0 0 0 0 0 0 0 0 0 0 -0.374463457799423 -0.459754890104297 0 0 0 0 0
0 0 0 0 0 0 0 0 0 0 0 0 0 0 0 0 0 0 0 0 0 0 0 0 0 0 0 0 0 0 0 0 0 0 0 0 0 0 0 0.118727589460928 0 0.594082714734127 0.177459648142648 0.0977816956415972 -0.374463457799423 0 0 -3.49075931248875 0 0
0 0 0 0 0 0 0 0 0 0 0 0 0 0 0 0 0 0 0 0 0 0 0 0 0 0 0 0 0 0 0 0 0 0 0 0 0 0 0 0 0 0.156550628869144 0 0 0 -0.374463457799423 0 0 0 0
0 0 0 0 0 0 0 0 0 0 0 0.384559602798701 0 0 0.182899966334472 0.0785683239940187 0.104077334785076 0 0.103487954835532 0.115334797187127 0 0 0 0 0 0 0 0 0 0 0 0 0 0 0 0 0 0 0 0 0 0 0 0 0 0 -0.374463457799423 -0.491810288166236 0 0
0 0 0 0 0 0 0 0 0 0 0 0 0 0 0 0 0 0 0 0 0 0 0 0 0 0 0 0 0 0 0 0 0 0 0 0.44889761881242 0 0.139269492081668 0 0.0592512677429106 0 0 0 0 0.746020961380744 0 0.0949122157487157 -0.374463457799423 0 0
0 0 0 0 0 0 0 0 0 0 0 0 0 0 0 0 0 0 0 0 0 0 0.18337353380874 0 0 0 0 0.63328972622855 0.0859066865645139 0.948806680740477 0.148154451517424 0.047140958016442 0 0 0.090107757759821 0.055683308587848 0.459438353622179 0 0 0 0 0 0 0 0 0 0 0 -0.374463457799423 0
0 0 0 2.00203595685117 0.083485927894809 0.100065913265445 0 0.0713797055852246 0.602616319880417 0.124006345727619 0.172140966264337 0 0.666672148348592 0 0 0 0 0 0 0 0 0 0 0 0 0 0 0 0 0 0 0 0 0 0 0 0 0 0 0 0 0 0 0 0 0 0 0 0 -0.374463457799423
