-0.142160582818687 0 0 0 0 0 0 0 0 -0.405615283922892 0 0 0 0 0 0 0 0 0 0 0 -1.68295348536858 0 0 0 0 -1.76787818143342 0 0 0 0 0 0 0 0 0 0 0 0 0 0 0 0 0 0 0 0 0 0 0
0 -0.142160582818687 0 0 0 0 0 0 0 -1.07139944554986 0 0 0 0 0 0 0 0 0 0 0 -0.105061205264026 0 0 0 0 -7.7744992212147 -0.172527970205567 0 0 0 0 0 0 0 0 0 0 0 0 0 0 0 0 0 0 0 0 0 0
0 0 -0.142160582818687 0 -2.03939564343968 0 0 0 -2.0731292445205 0 0 0 0 0 -0.151432018607377 0 0 0 0 0 0 -0.783907512512426 0 0 0 -0.376914079979169 0 0 -1.25005504447671 0 0 0 0 0 0 0 0 0 0 0 0 0 0 0 0 0 -1.95648685162074 0 0 0
0 0 0 -0.142160582818687 -11.868447504773 0 0 -7.3680582824176 0 0 0 0 0 0 0 0 0 -0.509520939849477 0 0 0 0 0 0 0 0 0 0 -1.48261737318838 0 0 0 0 0 0 0 0 0 0 0 0 0 -0.278913827148201 0 0 0 -1.02631810503882 0 0 0
0 0 0.359234421403991 2.25943918853766 -0.142160582818687 0 -1.29521713876486 0 0 0 0 0 0 0 0 0 0 0 0 -1.5909604871135 0 0 0 0 0 0 0 0 0 0 -2.00458239934609 0 -0.627854027742555 0 0 0 0 0 0 0 0 0 0 0 0 0 -0.515848151593781 0 0 0
0 0 0 0 0 -0.142160582818687 -2.27031149924091 0 0 0 0 0 0 0 -0.307955873708684 0 0 0 0 0 0 -3.05046849217286 0 0 0 0 0 0 0 0 -3.76092016032106 0 -0.81230846969851 0 0 0 0 0 0 -0.78348234301905 0 0 -0.404765095495258 0 0 0 0 0 0 0
0 0 0 0 0.245130198474035 0.474866606393435 -0.142160582818687 0 0 0 0 0 0 0 0 0 0 0 0 -0.231716348631102 0 0 0 0 0 0 0 0 0 0 -2.37848684096504 0 0 0 0 0 0 -0.779927781990268 0 -0.437908340705954 0 0 0 0 0 0 0 0 0 0
0 0 0 1.53103731796817 0 0 0 -0.142160582818687 0 0 0 0 0 0 0 0 0 0 0 0 0 0 0 0 0 0 0 0 0 0 -6.9669917914038 0 0 0 0 0 0 0 0 -0.482685698564524 0 0 0 0 0 0 0 0 0 0
0 0 0.397813910808365 0 0 0 0 0 -0.142160582818687 0 0 0 0 0 0 0 0 0 0 -0.647014032633114 0 0 0 0 -2.39900151649764 0 0 0 0 0 0 0 0 0 0 0 0 -4.1078848589003 0 -0.18178722493071 0 0 0 0 0 0 0 0 0 0
0.0805345897577319 0.214298147691687 0 0 0 0 0 0 0 -0.142160582818687 0 0 0 0 0 0 0 0 0 0 0 0 0 0 -0.402797474978067 0 0 0 0 0 0 0 0 0 0 0 0 0 0 -1.8908684675481 0 0 0 0 0 0 0 0 0 0
0 0 0 0 0 0 0 0 0 0 -0.142160582818687 -0.392354193021777 0 0 0 0 0 0 0 -0.635629901537075 0 0 0 0 -0.223393469699289 0 0 0 0 0 0 0 0 0 0 0 0 0 0 -0.361629568251218 0 0 0 0 0 0 0 0 0 0
0 0 0 0 0 0 0 0 0 0 0.0730835322525297 -0.142160582818687 0 0 0 0 0 0 0 -0.368824781417675 0 0 0 0 -1.0951210116483 0 0 0 0 0 -2.21245158395302 0 0 0 0 0 0 0 0 0 0 -0.891464994337883 0 0 0 0 0 0 0 0
0 0 0 0 0 0 0 0 0 0 0 0 -0.142160582818687 0 0 0 0 0 0 0 0 0 0 -2.66590564863467 0 0 0 0 0 0 0 0 0 0 0 0 0 0 0 0 0 0 0 0 0 -0.242443127678197 0 0 0 0
0 0 0 0 0 0 0 0 0 0 0 0 0 -0.142160582818687 0 0 0 0 0 0 0 0 0 0 0 0 0 0 0 0 0 -3.02351622093405 0 0 0 0 0 0 0 0 0 -7.64372895657441 0 0 0 0 0 0 0 0
0 0 0.029689533652864 0 0 0.0605779181395425 0 0 0 0 0 0 0 0 -0.142160582818687 0 -1.89024509469659 0 0 0 -7.71704823993398 0 0 0 0 0 0 0 0 0 0 0 0 0 0 0 0 0 0 0 0 0 0 0 0 0 0 0 -0.481998226955371 0
0 0 0 0 0 0 0 0 0 0 0 0 0 0 0 -0.142160582818687 -0.230632026027367 0 0 0 0 0 0 0 0 0 0 0 0 0 0 -1.28025855122639 0 0 0 0 0 0 0 0 0 0 0 0 0 -1.26595952011828 0 0 0 0
0 0 0 0 0 0 0 0 0 0 0 0 0 0 0.375475671756116 0.0444266898281507 -0.142160582818687 0.0603523645511899 0.183272336253354 0 -0.686851413741639 0 0.385689249181598 0 0.502029217548512 0 0 0 0 -1.08056125269199 0 0 0 0 0 0 0 0 0 0 0 0 0 0 0 -1.33222813593468 0 0 0 0
0 0 0 0.09673357343243 0 0 0 0 0 0 0 0 0 0 0 0 -0.3024713018257 -0.142160582818687 0 0 0 0 0 0 0 0 0 0 0 -0.907782096593266 0 0 0 0 0 0 0 0 0 0 0 0 0 0 0 -1.99720275863451 0 0 -8.62319373530762 0
0 0 0 0 0 0 0 0 0 0 0 0 0 0 0 0 -0.922898652265191 0 -0.142160582818687 0 0 0 0 0 0 0 0 0 0 0 0 -0.925349790262023 0 0 0 0 0 0 0 0 0 0 0 0 0 -1.64087956726527 0 0 0 0
0 0 0 0 0.323910744504501 0 0.0452252703244632 0 0.135687800392319 0 0.128357954010669 0.0718820944195714 0 0 0 0 0 0 0 -0.142160582818687 -1.58801382457013 0 0 0 0 0 0 0 0 0 0 -0.665147357942178 0 0 0 0 0 0 0 0 0 0 0 0 0 -0.669614482519444 0 0 0 0
0 0 0 0 0 0 0 0 0 0 0 0 0 0 1.57265332806039 0 0.134224364667547 0 0 0.326897284590547 -0.142160582818687 0.0550640298396834 0 0.108374136935797 0 0 0 0 0 0 0 -2.46798192352096 0 0 0 0 0 0 0 0 -4.30647492237406 0 0 0 0 0 0 0 -7.19150543047877 0
0.310473307552036 0.0203651739800628 0.151308618183458 0 0 0.618245125262254 0 0 0 0 0 0 0 0 0 0 0 0 0 0 -0.291249844274181 -0.142160582818687 0 0 0 0 0 0 0 0 0 0 0 0 0 0 0 0 0 0 0 0 0 0 0 0 0 0 0 0
0 0 0 0 0 0 0 0 0 0 0 0 0 0 0 0 -1.95324313849762 0 0 0 0 0 -0.142160582818687 0 0 0 0 0 0 0 0 0 0 0 0 0 0 0 0 0 0 0 0 0 0 -0.864409685340262 0 0 -1.34862855936493 0
0 0 0 0 0 0 0 0 0 0 0 0 0.483546475885259 0 0 0 0 0 0 0 -0.581539090440778 0 0 -0.142160582818687 0 0 0 0 0 0 0 0 0 0 0 0 0 0 0 0 -0.217177599292902 0 0 0 0 0 0 0 0 0
0 0 0 0 0 0 0 0 0.438439503440572 0.0795247704492424 0.0445055892308196 0.212907953554831 0 0 0 0 -2.42039944475481 0 0 0 0 0 0 0 -0.142160582818687 0 0 0 0 0 0 -1.07565582677608 0 0 0 0 0 0 0 0 -2.62770928776619 0 0 0 0 0 0 0 0 0
0 0 0.0753597728543632 0 0 0 0 0 0 0 0 0 0 0 0 0 0 0 0 0 0 0 0 0 0 -0.142160582818687 0 0 0 0 0 -1.7622673096425 0 0 0 0 0 0 0 0 -0.208873159970882 0 0 0 0 -0.510923485415366 0 0 -2.76350341881064 0
0.339954226502719 1.54697700725293 0 0 0 0 0 0 0 0 0 0 0 0 0 0 0 0 0 0 0 0 0 0 0 0 -0.142160582818687 0 0 0 0 0 0 0 0 0 0 0 0 0 0 0 0 0 0 -0.557900883797591 0 0 0 0
0 0.0343842911342102 0 0 0 0 0 0 0 0 0 0 0 0 0 0 0 0 0 0 0 0 0 0 0 0 0 -0.142160582818687 0 0 0 -0.837246067391107 0 0 0 0 0 0 0 0 0 0 0 0 0 -0.96979915349689 0 0 -1.4650885572488 0
0 0 0.238711628976947 0.29598219593923 0 0 0 0 0 0 0 0 0 0 0 0 0 0 0 0 0 0 0 0 0 0 0 0 -0.142160582818687 0 0 -0.167084832631317 0 0 0 0 0 0 0 0 0 0 0 0 0 0 0 0 -0.396308864969535 0
0 0 0 0 0 0 0 0 0 0 0 0 0 0 0 0 0.214856626326094 0.172749562378272 0 0 0 0 0 0 0 0 0 0 0 -0.142160582818687 0 0.167655746868573 0 0 0 0 0 0 0 0 0 0 0 0 0 0 0 0 0 0
0 0 0 0 0.375320128055285 0.739488058127341 0.480823725223872 1.41837925380707 0 0 0 0.431355742303958 0 0 0 0 0 0 0 0 0 0 0 0 0 0 0 0 0 0 -0.142160582818687 0 0 0 0 0 0 0 0 0 0 0 0 0 0 0 0 0 0 0
0 0 0 0 0 0 0 0 0 0 0 0 0 0.630975971162059 0 0.248602406171071 0 0 0.188142991250688 0.144973654031091 0.45694831109614 0 0 0 0.224321197174129 0.342719967575889 0 0.169772894516639 0.0325766680614724 -0.881551587719357 0 -0.142160582818687 0 0 0 0 0 0 0 0 0 0 0 -2.3553653370793 0 0 0 -0.96708268010655 0 0
0 0 0 0 0.130030749273792 0.167235767870325 0 0 0 0 0 0 0 0 0 0 0 0 0 0 0 0 0 0 0 0 0 0 0 0 0 0 -0.142160582818687 0 0 0 0 0 0 0 0 0 0 -0.439337729070568 0 0 0 0 0 0
0 0 0 0 0 0 0 0 0 0 0 0 0 0 0 0 0 0 0 0 0 0 0 0 0 0 0 0 0 0 0 0 0 -0.142160582818687 0 0 0 0 -3.48549385338968 0 0 0 0 -0.133094665684333 0 0 0 0 0 -2.23173922190695
0 0 0 0 0 0 0 0 0 0 0 0 0 0 0 0 0 0 0 0 0 0 0 0 0 0 0 0 0 0 0 0 0 0 -0.142160582818687 0 0 0 -2.09887584007423 0 0 0 0 0 0 0 0 0 0 -0.647686546003521
0 0 0 0 0 0 0 0 0 0 0 0 0 0 0 0 0 0 0 0 0 0 0 0 0 0 0 0 0 0 0 0 0 0 0 -0.142160582818687 0 0 0 0 0 0 0 -2.95907003716418 0 0 0 -0.517166314817658 0 -1.26844994064608
0 0 0 0 0 0 0 0 0 0 0 0 0 0 0 0 0 0 0 0 0 0 0 0 0 0 0 0 0 0 0 0 0 0 0 0 -0.142160582818687 0 0 0 0 0 0 -0.353529857517038 -1.39933585685468 0 0 -0.277967109384237 0 0
0 0 0 0 0 0 0.141812630933961 0 0.831752290045282 0 0 0 0 0 0 0 0 0 0 0 0 0 0 0 0 0 0 0 0 0 0 0 0 0 0 0 0 -0.142160582818687 0 0 0 0 0 -4.9451100532022 -1.10393891581818 0 0 0 0 -2.40293966435139
0 0 0 0 0 0 0 0 0 0 0 0 0 0 0 0 0 0 0 0 0 0 0 0 0 0 0 0 0 0 0 0 0 0.755056333424403 0.404993979098371 0 0 0 -0.142160582818687 0 0 0 0 0 0 0 0 0 0 0
0 0 0 0 0 0.159240771331939 0.0894461944004505 0.0915737633190076 0.0374723979292898 0.38749294078908 0.0659583398865703 0 0 0 0 0 0 0 0 0 0 0 0 0 0 0 0 0 0 0 0 0 0 0 0 0 0 0 0 -0.142160582818687 0 0 0 -0.393154252634302 0 0 0 -0.640521227308013 0 -3.67896832379462
0 0 0 0 0 0 0 0 0 0 0 0 0 0 0 0 0 0 0 0 0.874035386741775 0 0 0.0462972052873675 0.52681881290608 0.0402322251286621 0 0 0 0 0 0 0 0 0 0 0 0 0 0 -0.142160582818687 0 0 0 0 0 0 0 0 -0.794474667024017
0 0 0 0 0 0 0 0 0 0 0 0.196178710059431 0 1.44620514833152 0 0 0 0 0 0 0 0 0 0 0 0 0 0 0 0 0 0 0 0 0 0 0 0 0 0 0 -0.142160582818687 0 0 0 0 0 -3.13887820236523 0 0
0 0 0 0.0536445565280328 0 0.0802610996155792 0 0 0 0 0 0 0 0 0 0 0 0 0 0 0 0 0 0 0 0 0 0 0 0 0 0 0 0 0 0 0 0 0 0 0 0 -0.142160582818687 0 0 0 0 0 0 0
0 0 0 0 0 0 0 0 0 0 0 0 0 0 0 0 0 0 0 0 0 0 0 0 0 0 0 0 0 0 0 0.458830992926959 0.089452655086113 0.0271760010851908 0 0.592118580301893 0.0704650016612406 0.963327161713754 0 0.079353188721542 0 0 0 -0.142160582818687 0 0 0 0 0 0
0 0 0 0 0 0 0 0 0 0 0 0 0 0 0 0 0 0 0 0 0 0 0 0 0 0 0 0 0 0 0 0 0 0 0 0 0.297468580194393 0.204853558903246 0 0 0 0 0 0 -0.142160582818687 0 0 0 0 0
0 0 0 0 0 0 0 0 0 0 0 0 0.0486644868631861 0 0 0.236247007285709 0.251290233231478 0.40821766538513 0.302086951306101 0.124736382400087 0 0 0.181815451933102 0 0 0.104121433544435 0.101385529809589 0.187827267732521 0 0 0 0 0 0 0 0 0 0 0 0 0 0 0 0 0 -0.142160582818687 0 0 0 0
0 0 0.382717037424077 0.22212921589829 0.100499828425334 0 0 0 0 0 0 0 0 0 0 0 0 0 0 0 0 0 0 0 0 0 0 0 0 0 0 0 0 0 0 0 0 0 0 0 0 0 0 0 0 0 -0.142160582818687 0 0 0
0 0 0 0 0 0 0 0 0 0 0 0 0 0 0 0 0 0 0 0 0 0 0 0 0 0 0 0 0 0 0 0.183336195062629 0 0 0 0.105145922650135 0.0571431951185382 0 0 0.134060654247337 0 0.621836275495361 0 0 0 0 0 -0.142160582818687 0 0
0 0 0 0 0 0 0 0 0 0 0 0 0 0 0.0990425603995283 0 0 1.7492877903113 0 0 1.42397753413668 0 0.268109439328168 0 0 0.53193230244544 0 0.278226637200514 0.0728558933650689 0 0 0 0 0 0 0 0 0 0 0 0 0 0 0 0 0 0 0 -0.142160582818687 0
0 0 0 0 0 0 0 0 0 0 0 0 0 0 0 0 0 0 0 0 0 0 0 0 0 0 0 0 0 0 0 0 0 0.466699370350752 0.141091406887068 0.254508347840132 0 0.476649201453217 0 0.716531980702411 0.166439805630022 0 0 0 0 0 0 0 0 -0.142160582818687
