-0.24153684166826 0 0 0 0 0 0 0 0 -0.520315290192417 0 0 0 0 0 0 0 0 0 0 0 0 0 0 0 0 -0.755806059522396 0 0 0 0 0 0 0 0 0 0 0 0 0 0 0 0 0 -1.0935120253631 0 0 0 0 0
0 -0.24153684166826 0 0 0 0 0 0 0 0 0 0 0 0 0 0 0 0 0 0 0 0 0 0 0 0 0 0 0 0 0 0 0 0 0 0 0 0 0 0 0 0 0 0 -3.22417649887273 0 0 0 0 0
0 0 -0.24153684166826 0 0 0 0 0 0 -3.26617778717756 0 0 0 0 0 0 0 0 0 0 0 0 0 0 0 0 -0.721724662262284 0 0 0 0 0 0 0 0 0 0 0 0 0 0 0 0 0 0 0 0 0 0 0
0 0 0 -0.24153684166826 0 -0.377258714550497 0 0 -0.820698039356159 0 0 0 0 0 0 0 0 0 0 0 0 0 0 0 0 -0.18032109630099 -0.426921212138419 0 0 0 0 0 0 0 0 0 0 0 0 0 0 0 0 0 -0.290559564871325 -0.444250980193204 0 0 0 0
0 0 0 0 -0.24153684166826 0 0 0 0 0 0 0 0 0 0 0 0 0 0 0 0 0 0 0 0 0 -1.31038616036331 0 0 0 0 0 0 0 -2.97616875350426 0 0 0 0 0 0 0 0 0 0 0 0 0 0 0
0 0 0 0.070148196978347 0 -0.24153684166826 0 0 0 0 0 0 0 0 0 0 0 0 0 0 0 0 0 0 0 0 -1.49881037204177 0 0 0 0 0 0 0 -0.425748321368985 0 0 0 0 0 0 0 0 0 0 -2.13514659388859 -0.925108573407988 0 0 0
0 0 0 0 0 0 -0.24153684166826 0 0 0 0 0 0 0 0 0 0 0 0 0 0 0 -1.11847720247102 0 0 0 -0.269758584220563 0 0 0 0 0 0 0 -0.23926603385671 0 0 0 0 0 0 0 0 0 0 0 0 0 0 0
0 0 0 0 0 0 0 -0.24153684166826 0 0 0 0 0 0 0 0 0 0 0 -0.99369145009983 0 0 -1.0113391405192 0 0 0 -1.01790086593869 0 0 0 0 0 0 0 -1.65669600154432 0 0 0 0 0 0 0 0 0 0 0 -0.815374619125961 0 0 0
0 0 0 0.166152970142781 0 0 0 0 -0.24153684166826 0 0 0 0 0 0 0 0 0 0 -0.931026843872819 0 -3.77749608838678 -1.11854799771651 0 0 0 0 0 -0.652364559741642 0 0 -3.81579532559505 0 0 -1.2035402973537 0 0 0 0 0 0 0 0 0 0 -1.90360883185883 0 0 0 0
0.105578603042362 0 0.626447146481351 0 0 0 0 0 0 -0.24153684166826 0 0 0 0 0 0 0 0 0 -0.494066760651478 0 0 -0.581680831631811 0 0 0 0 0 0 0 0 -3.4511670958434 0 0 0 0 0 0 0 0 0 0 0 0 0 0 0 0 0 0
0 0 0 0 0 0 0 0 0 0 -0.24153684166826 0 -0.34411244640872 -0.881185869185422 0 0 0 0 0 -0.249557185579482 0 0 0 0 0 0 0 -1.30138193224774 0 0 0 0 0 0 0 0 0 0 0 0 0 0 0 0 0 -1.90225470969532 -2.14666339286559 0 0 0
0 0 0 0 0 0 0 0 0 0 0 -0.24153684166826 -0.690965495353988 0 0 0 0 0 -3.25276644009137 0 0 0 0 0 0 0 0 0 0 0 0 0 0 0 0 0 0 0 0 0 0 0 0 0 0 -0.296159950476059 -0.153636053604309 0 0 0
0 0 0 0 0 0 0 0 0 0 0.0659538541086764 0.138683226028885 -0.24153684166826 0.267917321801755 0.178893305546512 0.454826557336861 0.214934477068446 -1.75133066759011 -2.12345044063814 -0.713071959174955 0 0 0 0 0 0 0 -0.412147748106054 0 0 0 0 0 0 0 0 0 0 0 0 0 0 0 0 0 -1.00336053203466 0 0 0 0
0 0 0 0 0 0 0 0 0 0 0.172790412377787 0 -1.36854410780631 -0.24153684166826 0 0 0 -1.71869503647076 -0.786742823029099 0 0 0 0 0 0 0 0 -0.226482889684599 0 0 0 0 0 0 0 0 0 0 -0.850188314779258 0 0 0 0 0 0 0 0 0 0 0
0 0 0 0 0 0 0 0 0 0 0 0 -0.883758338929009 0 -0.24153684166826 0 0 0 -4.37871788715815 0 0 0 0 0 0 0 0 -0.213004511822337 0 0 0 0 0 0 0 0 0 0 0 0 0 0 0 0 0 0 0 0 0 0
0 0 0 0 0 0 0 0 0 0 0 0 -2.33945888657066 0 0 -0.24153684166826 0 -0.174606841329625 0 0 0 0 0 0 0 0 0 -2.80792218153412 0 0 0 0 0 0 0 0 0 0 0 0 0 0 0 0 0 0 0 0 0 0
0 0 0 0 0 0 0 0 0 0 0 0 -1.01995766787957 0 0 0 -0.24153684166826 0 0 0 0 0 0 0 0 0 0 0 0 0 0 0 0 0 0 0 0 0 0 0 0 0 0 0 0 0 0 0 0 0
0 0 0 0 0 0 0 0 0 0 0 0 0.362337410444271 0.361774692084362 0 0.0368720052739238 0 -0.24153684166826 0 0 0 0 0 0 0 0 0 0 0 0 0 0 0 0 0 0 0 0 0 0 0 0 0 0 0 -3.19346877522168 0 0 0 0
0 0 0 0 0 0 0 0 0 0 0 0.645380527174085 0.459123728833165 0.14979420719584 0.851464525279996 0 0 0 -0.24153684166826 0 0 0 0 0 0 0 0 0 0 0 0 0 0 0 0 0 0 -1.80204208293331 0 0 0 0 0 -2.28762049320564 0 -1.74610302742379 0 0 0 0
0 0 0 0 0 0 0 0.193527982226723 0.172604602326238 0.0940318201118421 0.0454378660192254 0 0.134052463380176 0 0 0 0 0 0 -0.24153684166826 0 0 0 0 0 0 0 0 0 0 0 0 0 0 0 0 0 0 0 0 0 0 0 -4.05909564373252 0 -1.2875450809678 0 0 0 0
0 0 0 0 0 0 0 0 0 0 0 0 0 0 0 0 0 0 0 0 -0.24153684166826 0 0 0 0 0 0 0 0 0 0 0 0 0 0 0 0 -0.652370940401993 0 0 0 0 0 0 0 -0.214900317122875 0 0 0 0
0 0 0 0 0 0 0 0 0.738537217737861 0 0 0 0 0 0 0 0 0 0 0 0 -0.24153684166826 0 0 0 0 0 0 0 -0.334205879802501 0 0 0 0 0 0 0 -0.19899423402642 0 0 0 0 0 0 0 0 0 0 0 0
0 0 0 0 0 0 0.209498482736234 0.224865804400285 0.224890164111544 0.115941701620378 0 0 0 0 0 0 0 0 0 0 0 0 -0.24153684166826 0 0 0 0 0 0 -1.75940623789202 0 0 0 0 0 0 0 0 0 0 0 0 -1.73200899979537 -0.792522370194123 0 0 0 -2.00596024593476 0 0
0 0 0 0 0 0 0 0 0 0 0 0 0 0 0 0 0 0 0 0 0 0 0 -0.24153684166826 0.184076169023508 0.556627119518259 0.1879130024107 2.42277616589654 0.403259564812295 0 0 0 0 0 0 0 0 0 0 0 0 0 0 -0.848168600868139 0 0 0 0 -0.215998987213301 0
0 0 0 0 0 0 0 0 0 0 0 0 0 0 0 0 0 0 0 0 0 0 0 -0.902397006544651 -0.24153684166826 0 0 0 0 0 -2.57331269963186 0 0 -2.88258375984274 0 0 0 0 0 0 0 0 -0.941090536626521 -1.54829467121661 0 0 0 0 -0.293364690014573 0
0 0 0 0.0345211987816242 0 0 0 0 0 0 0 0 0 0 0 0 0 0 0 0 0 0 0 -2.55497846442092 0 -0.24153684166826 0 0 0 0 0 0 0 -0.887829591891364 0 0 0 0 0 0 0 -0.265601691424882 -0.45927164799326 0 0 0 0 0 0 0
0.145765336729914 0 0.137894715046793 0.0850984928724654 0.243085045557894 0.314725631091889 0.0551340585186841 0.188206461682173 0 0 0 0 0 0 0 0 0 0 0 0 0 0 0 -0.950892238839833 0 0 -0.24153684166826 0 0 0 0 0 0 0 0 -0.651178116798058 0 0 0 0 0 -0.292921608305868 -0.41342065791221 -2.96881381207125 0 0 0 0 0 -1.58619995665273
0 0 0 0 0 0 0 0 0 0 0.272347434366818 0 0.0883831878249725 0.0449020686188627 0.0364039210381576 0.552800109804171 0 0 0 0 0 0 0 -11.8222177953602 0 0 0 -0.24153684166826 0 0 0 0 0 0 0 0 0 0 0 0 -2.06348361032142 -2.52340782102703 -1.70991888385532 -0.487629344465829 0 0 0 0 0 0
0 0 0 0 0 0 0 0 0.122067932029081 0 0 0 0 0 0 0 0 0 0 0 0 0 0 -2.06829244972067 0 0 0 0 -0.24153684166826 0 0 0 0 0 0 0 0 0 0 0 0 0 0 0 0 0 0 0 0 0
0 0 0 0 0 0 0 0 0 0 0 0 0 0 0 0 0 0 0 0 0 0.06540508236469 0.376985730950265 0 0 0 0 0 0 -0.24153684166826 0 0 0 0 0 0 0 0 0 0 -1.69404710537722 -0.428724645243644 0 -0.571923521619513 0 0 0 0 0 -0.343409093364384
0 0 0 0 0 0 0 0 0 0 0 0 0 0 0 0 0 0 0 0 0 0 0 0 0.500377472494154 0 0 0 0 0 -0.24153684166826 0 0 0 0 0 -0.396017329965851 0 0 0 0 0 0 0 0 0 0 0 0 0
0 0 0 0 0 0 0 0 0.744204360150758 0.676370391579512 0 0 0 0 0 0 0 0 0 0 0 0 0 0 0 0 0 0 0 0 0 -0.24153684166826 0 0 0 0 0 0 0 -0.57965439497544 0 0 -2.46802676706225 0 0 0 0 0 0 -0.704042764955948
0 0 0 0 0 0 0 0 0 0 0 0 0 0 0 0 0 0 0 0 0 0 0 0 0 0 0 0 0 0 0 0 -0.24153684166826 0 0 0 0 0 0 -2.26020267000551 0 0 0 0 0 0 0 0 0 -0.182331200012208
0 0 0 0 0 0 0 0 0 0 0 0 0 0 0 0 0 0 0 0 0 0 0 0 0.573882411753664 0.164771326660984 0 0 0 0 0 0 0 -0.24153684166826 0 0 -1.78105356969181 0 0 0 0 0 0 0 0 0 0 0 0 0
0 0 0 0 0.644462368102347 0.0865584558810999 0.0474801167735681 0.348447594560593 0.247901296674401 0 0 0 0 0 0 0 0 0 0 0 0 0 0 0 0 0 0 0 0 0 0 0 0 0 -0.24153684166826 0 -8.50785467259605 0 0 -0.293672931348174 0 -0.169920055105912 0 0 0 0 0 0 0 -0.239749743770461
0 0 0 0 0 0 0 0 0 0 0 0 0 0 0 0 0 0 0 0 0 0 0 0 0 0 0.133479958780261 0 0 0 0 0 0 0 0 -0.24153684166826 0 0 0 0 0 0 0 0 0 0 0 0 0 0
0 0 0 0 0 0 0 0 0 0 0 0 0 0 0 0 0 0 0 0 0 0 0 0 0 0 0 0 0 0 0.0817106110507358 0 0 0.361646976403831 1.75412236791802 0 -0.24153684166826 0 0 -0.551005394771619 0 0 0 0 0 0 0 0 0 -1.54540749913854
0 0 0 0 0 0 0 0 0 0 0 0 0 0 0 0 0 0 0.335570692410357 0 0.136545674767016 0.0404109358075186 0 0 0 0 0 0 0 0 0 0 0 0 0 0 0 -0.24153684166826 0 0 0 0 0 0 0 0 0 0 0 0
0 0 0 0 0 0 0 0 0 0 0 0 0 0.180885936721826 0 0 0 0 0 0 0 0 0 0 0 0 0 0 0 0 0 0 0 0 0 0 0 0 -0.24153684166826 -0.324174800367279 0 0 0 0 0 0 0 0 0 0
0 0 0 0 0 0 0 0 0 0 0 0 0 0 0 0 0 0 0 0 0 0 0 0 0 0 0 0 0 0 0 0.104037788692197 0.470807624083145 0 0.0542608766444907 0 0.102392312065242 0 0.0654245254399516 -0.24153684166826 0 0 0.195366117723686 0 0 0 0 0 0 -8.28508201390489
0 0 0 0 0 0 0 0 0 0 0 0 0 0 0 0 0 0 0 0 0 0 0 0 0 0 0 0.391289564299276 0 0.354712050743187 0 0 0 0 0 0 0 0 0 0 -0.24153684166826 0 0 0 0 0 0 0 0 0
0 0 0 0 0 0 0 0 0 0 0 0 0 0 0 0 0 0 0 0 0 0 0 0 0 0.0587565650611409 0.0576950800111704 0.49396450117511 0 0.0870013592344595 0 0 0 0 0.0313443748068075 0 0 0 0 0 0 -0.24153684166826 0 0 0 0 0 0 0 -4.28027234879027
0 0 0 0 0 0 0 0 0 0 0 0 0 0 0 0 0 0 0 0 0 0 0.358136117493337 0 0.169134260287249 0.080595011283992 0.078340574028131 0.346438824086081 0 0 0 0.519306016402716 0 0 0 0 0 0 0 -0.932104549566409 0 0 -0.24153684166826 0 0 0 0 0 0 -1.3558722705157
0 0 0 0 0 0 0 0 0 0 0 0 0 0 0 0 0 0 0.467342784238083 0.853121854099783 0 0 0.158332995545614 0.168974933244935 0.322090899542941 0 0.622622767963913 0.108105645591197 0 0.13198354380983 0 0 0 0 0 0 0 0 0 0 0 0 0 -0.24153684166826 0 0 0 0 0 0
0.229920768293069 0.64548336402499 0 0.0567316547644728 0 0 0 0 0 0 0 0 0 0 0 0 0 0 0 0 0 0 0 0 0 0 0 0 0 0 0 0 0 0 0 0 0 0 0 0 0 0 0 0 -0.24153684166826 0 0 0 0 0
0 0 0 0.085698480056826 0 0.437252417162401 0 0 0.322906995812264 0 0.379352568155018 0.0569568314569453 0.20363098121313 0 0 0 0 0.65787100198133 0.359254266985267 0.258068178901534 0.042481232331822 0 0 0 0 0 0 0 0 0 0 0 0 0 0 0 0 0 0 0 0 0 0 0 0 -0.24153684166826 0 0 0 0
0 0 0 0 0 0.190697249605207 0 0.162700156279758 0 0 0.427833370313419 0.0290300560496052 0 0 0 0 0 0 0 0 0 0 0 0 0 0 0 0 0 0 0 0 0 0 0 0 0 0 0 0 0 0 0 0 0 0 -0.24153684166826 0 0 0
0 0 0 0 0 0 0 0 0 0 0 0 0 0 0 0 0 0 0 0 0 0 0.440893699505521 0 0 0 0 0 0 0 0 0 0 0 0 0 0 0 0 0 0 0 0 0 0 0 0 -0.24153684166826 0 0
0 0 0 0 0 0 0 0 0 0 0 0 0 0 0 0 0 0 0 0 0 0 0 0.0426317674474926 0.0602831543178767 0 0 0 0 0 0 0 0 0 0 0 0 0 0 0 0 0 0 0 0 0 0 0 -0.24153684166826 0
0 0 0 0 0 0 0 0 0 0 0 0 0 0 0 0 0 0 0 0 0 0 0 0 0 0 0.296572796519908 0 0 0.0672454501203776 0 0.138896996518405 0.0357075464384547 0 0.0474918722407744 0 0.29377021165772 0 0 1.6496721760684 0 0.906185389068111 0.240422734722263 0 0 0 0 0 0 -0.24153684166826
