-0.188289930945867 0 -2.83420888094713 0 0 0 0 0 0 0 0 0 0 -3.07995271646441 0 0 0 0 0 0 0 0 0 0 0 0 0 0 0 0 0 0 0 0 0 0 0 0 0 0 0 0 0 0 0 0 -1.70272514672684 0 0 0
0 -0.188289930945867 0 0 0 -0.885083555645439 0 0 0 -0.495719441984017 0 0 0 0 0 0 0 0 0 0 0 0 -0.244122651634616 0 0 0 0 0 0 0 0 0 0 0 0 0 0 0 0 0 0 0 -0.0869295347615187 0 0 0 -2.50457746854812 0 0 0
0.537162357375849 0 -0.188289930945867 0 0 -0.306281418231946 0 -1.77565920256243 0 -0.506253374552791 0 0 0 0 0 0 0 0 0 0 0 0 -1.18154363091875 0 0 0 0 0 0 0 0 0 0 0 0 0 0 0 0 0 0 0 -0.520042427133361 0 0 0 -1.65785498408414 0 0 0
0 0 0 -0.188289930945867 0 0 0 0 -1.3965745614789 -2.59051204986125 0 0 0 0 0 0 0 0 0 0 0 0 0 0 0 0 0 0 0 0 0 0 0 0 0 0 0 0 0 0 0 0 -5.44555403790049 0 0 0 0 0 0 0
0 0 0 0 -0.188289930945867 0 0 0 -1.23099935105565 -1.76121315002627 0 0 0 0 -1.20655685012116 0 0 0 0 0 0 0 0 0 0 0 0 0 0 0 0 0 0 0 0 0 0 0 0 0 0 0 0 0 0 0 -0.470371761407172 0 0 0
0 0.198084918323326 0.0654610089089077 0 0 -0.188289930945867 0 0 0 0 0 0 0 0 0 0 0 0 0 0 0 0 0 0 0 0 0 0 0 0 0 0 0 0 -3.98345746431028 0 0 0 0 0 0 0 0 0 0 0 0 0 0 0
0 0 0 0 0 0 -0.188289930945867 0 0 0 -0.42875486944213 0 0 0 0 0 0 0 0 0 0 0 0 0 0 0 0 0 0 -1.81089081455294 0 0 0 0 -4.34276213321153 0 0 0 0 0 0 0 0 0 0 0 0 0 0 0
0 0 0.35102046863244 0 0 0 0 -0.188289930945867 0 0 0 -0.846039661924715 0 0 0 0 0 0 0 0 0 0 0 0 0 0 0 0 0 0 0 0 0 0 0 0 0 -0.678884886060231 0 0 0 0 0 0 0 -2.68351168460111 0 0 0 0
0 0 0 0.287974149050501 0.251882305195382 0 0 0 -0.188289930945867 0 0 -0.96354289723536 0 0 0 -0.589305561588925 0 0 0 0 0 0 0 0 0 0 -1.12116303317757 0 0 -0.751814014094958 0 -0.714838721055165 0 0 0 0 0 0 0 0 0 0 0 0 0 0 0 0 0 0
0 0.0946033095609013 0.0985466382910314 0.544295394515733 0.354330684204669 0 0 0 0 -0.188289930945867 0 -0.694004245533535 0 0 0 0 0 0 0 0 0 0 0 0 0 0 0 0 0 -1.10578179478723 0 -3.16782040657912 0 0 0 0 0 -0.656358201629932 0 0 0 0 0 0 0 0 -0.999900230810459 0 0 0
0 0 0 0 0 0 0.0884114584198027 0 0 0 -0.188289930945867 -1.53121145010767 0 0 0 0 0 0 0 0 0 0 0 0 0 0 -1.05882963817198 0 0 -0.583138334728075 0 -0.714305634393849 0 -2.8990973798419 0 0 0 0 0 0 0 0 0 0 0 -0.854450887787423 -2.05849591096304 0 0 0
0 0 0 0 0 0 0 0.185350062792664 0.176571413098817 0.144959602917527 0.30825824217391 -0.188289930945867 0.24250421728418 0.826836767034919 0 0 -0.750954929150198 0 0 0 0 0 0 0 0 0 -4.17643513620289 -0.993249332477066 0 0 0 -0.520595307784199 0 0 0 0 0 0 0 0 0 0 0 0 0 -1.58781332596363 -1.67065579647047 0 0 0
0 0 0 0 0 0 0 0 0 0 0 -1.16182783396817 -0.188289930945867 0 0 0 0 0 0 0 0 0 0 0 0 0 0 -1.43115211599705 0 0 0 0 0 -1.07024533755843 0 0 0 0 0 0 0 0 0 0 0 0 0 0 0 0
0.706735710677159 0 0 0 0 0 0 0 0 0 0 -4.3154932622367 0 -0.188289930945867 0 0 0 0 0 0 0 0 0 0 0 0 0 0 0 0 0 0 0 0 0 0 0 0 -0.71195447170184 0 0 0 0 0 0 0 0 0 0 0
0 0 0 0 0.227194081401408 0 0 0 0 0 0 0 0 0 -0.188289930945867 0 0 0 0 0 0 0 0 0 0 0 0 -0.475501243711931 0 0 -2.10938487775435 0 0 -2.96874016579161 0 0 0 0 -0.924993409046817 0 0 0 0 0 0 -0.260170043485365 -1.17735289714957 0 0 0
0 0 0 0 0 0 0 0 0.129501248521302 0 0 0 0 0 0 -0.188289930945867 0 -2.5113752954509 0 -5.73936304910074 0 0 0 -0.643599523833559 0 0 0 0 0 0 -2.59542595519282 0 0 -6.03111514797788 0 0 0 0 -0.789682721607633 0 0 0 0 -0.783497975899197 0 0 -1.04837501388184 0 -0.830541601335347 0
0 0 0 0 0 0 0 0 0 0 0 0.151195212507529 0 0 0 0 -0.188289930945867 -0.849222447516732 0 0 0 0 0 -0.31663435106215 -0.526216114236004 0 0 -3.04965351580535 0 0 0 0 0 0 0 0 -0.967029504834072 0 -1.70573311361173 0 0 0 0 0 0 0 -0.214230239279142 0 -2.01657815907238 0
0 0 0 0 0 0 0 0 0 0 0 0 0 0 0 0.517463132588131 0.174884278134892 -0.188289930945867 0 -0.493820707030306 0 0 0 0 0 0 0 -0.296910296986514 0 0 0 0 0 0 0 0 -0.359510076365047 -0.281427438948695 0 0 0 0 0 -1.78217988723787 0 0 0 0 0 0
0 0 0 0 0 0 0 0 0 0 0 0 0 0 0 0 0 0 -0.188289930945867 0 -0.26448244064022 0 0 0 0 0 0 0 0 0 0 0 0 0 0 -3.81377903838719 0 0 0 0 0 0 0 0 0 0 0 0 0 0
0 0 0 0 0 0 0 0 0 0 0 0 0 0 0 1.15312696905587 0 0.0989482925696488 0 -0.188289930945867 0 -0.807897922953627 0 0 0 0 0 0 0 0 0 0 0 0 0 -0.533207774513036 0 0 0 0 0 0 0 0 0 0 0 0 0 0
0 0 0 0 0 0 0 0 0 0 0 0 0 0 0 0 0 0 0.0510209508135558 0 -0.188289930945867 -0.479106658633792 0 0 0 0 0 -0.292632735331453 0 0 0 0 0 0 0 -2.24513685510584 0 0 0 0 0 0 0 0 0 0 0 0 0 0
0 0 0 0 0 0 0 0 0 0 0 0 0 0 0 0 0 0 0 0.164666886455301 0.0943111920118317 -0.188289930945867 0 0 0 0.0813975414876637 0 -1.69987734415608 0 0 0 0 0 0 0 0 0 0 0 0 0 0 0 0 0 0 0 0 0 0
0 0.0488387410806794 0.227351517986544 0 0 0 0 0 0 0 0 0 0 0 0 0 0 0 0 0 0 0 -0.188289930945867 0 0 0 0 -0.162568523068905 0 0 0 0 0 0 0 0 0 0 0 0 0 0 0 0 0 0 0 0 0 0
0 0 0 0 0 0 0 0 0 0 0 0 0 0 0 0.126566912222567 0.0612131544947796 0 0 0 0 0 0 -0.188289930945867 0 0 0 0 0 0 0 0 0 0 0 -0.124277827758006 0 0 0 0 0 0 0 0 0 0 0 0 0 -5.52090503722384
0 0 0 0 0 0 0 0 0 0 0 0 0 0 0 0 0.104029087206631 0 0 0 0 0 0 0 -0.188289930945867 0 0 -0.898958169087675 0 0 0 0 0 0 0 -1.0507643455335 0 0 0 0 0 0 0 0 0 0 0 0 0 0
0 0 0 0 0 0 0 0 0 0 0 0 0 0 0 0 0 0 0 0 0 -0.421817441972564 0 0 0 -0.188289930945867 0 -0.37252552747286 0 0 0 0 0 0 0 0 0 0 0 0 0 0 0 0 0 0 0 0 0 0
0 0 0 0 0 0 0 0 0.22168024507126 0 0.204600307152504 0.775743597337874 0 0 0 0 0 0 0 0 0 0 0 0 0 0 -0.188289930945867 0 0 0 0 0 0 0 0 -1.46998914842137 0 0 0 0 0 0 0 0 0 0 0 0 0 0
0 0 0 0 0 0 0 0 0 0 0 0.203679633621904 0.286998768913025 0 0.0882645348308822 0 0.585207170104437 0.0589920560495986 0 0 0.0564900326671498 0.323880912998803 0.0329649045730796 0 0.190849166190031 0.0791314687414031 0 -0.188289930945867 0.0901942939154751 0 0 0 0.213297753883612 0 0 0 0 0 0 0 0 0 0 0 0 0 0 -1.69056998174013 0 0
0 0 0 0 0 0 0 0 0 0 0 0 0 0 0 0 0 0 0 0 0 0 0 0 0 0 0 -0.429213680747651 -0.188289930945867 0 0 0 0 0 0 0 0 0 0 0 0 0 0 0 0 0 0 -1.38183428429427 0 0
0 0 0 0 0 0 0.337217425686269 0 0.146423065111091 0.206358275567103 0.107506969860455 0 0 0 0 0 0 0 0 0 0 0 0 0 0 0 0 0 0 -0.188289930945867 0 0 0 0 0 0 0 0 0 0 0 0 0 0 0 0 0 0 0 -1.79610225544619
0 0 0 0 0 0 0 0 0 0 0 0 0 0 0.43747998047052 0.53039822025666 0 0 0 0 0 0 0 0 0 0 0 0 0 0 -0.188289930945867 0 0 0 0 0 0 0 0 0 0 0 0 0 0 0 0 0 0 0
0 0 0 0 0 0 0 0 0.155593705292733 0.588514217247806 0.128319006429247 0.101894240742018 0 0 0 0 0 0 0 0 0 0 0 0 0 0 0 0 0 0 0 -0.188289930945867 0 0 0 0 0 0 0 0 0 0 0 0 0 0 0 0 0 -1.56223636344046
0 0 0 0 0 0 0 0 0 0 0 0 0 0 0 0 0 0 0 0 0 0 0 0 0 0 0 -0.987452618455114 0 0 0 0 -0.188289930945867 0 0 0 0 0 0 0 0 0 0 0 0 0 0 0 0 0
0 0 0 0 0 0 0 0 0 0 0.604674445710642 0 0.216713380407853 0 0.626662188323611 1.18269322715355 0 0 0 0 0 0 0 0 0 0 0 0 0 0 0 0 0 -0.188289930945867 0 0 0 0 0 0 0 0 0 0 0 0 0 0 0 0
0 0 0 0 0 0.848922420493146 0.849509609624538 0 0 0 0 0 0 0 0 0 0 0 0 0 0 0 0 0 0 0 0 0 0 0 0 0 0 0 -0.188289930945867 0 0 0 0 0 0 -0.946979817600549 0 0 0 0 0 0 0 -0.844696048089056
0 0 0 0 0 0 0 0 0 0 0 0 0 0 0 0 0 0 0.777132006226911 0.106980615324254 0.436927215073874 0 0 0.0245383352597126 0.211604910941257 0 0.293292377377339 0 0 0 0 0 0 0 0 -0.188289930945867 0 0 0 0 0 -0.640414490044155 0 0 -0.206770842947803 0 0 0 0 0
0 0 0 0 0 0 0 0 0 0 0 0 0 0 0 0 0.201879932845466 0.0690884370442426 0 0 0 0 0 0 0 0 0 0 0 0 0 0 0 0 0 0 -0.188289930945867 0 0 0 0 0 0 0 0 0 0 0 0 0
0 0 0 0 0 0 0 0.122468837088698 0 0.131916396995214 0 0 0 0 0 0 0 0.0536143567059231 0 0 0 0 0 0 0 0 0 0 0 0 0 0 0 0 0 0 0 -0.188289930945867 0 0 0 0 0 0 -0.718711794994446 0 0 0 0 0
0 0 0 0 0 0 0 0 0 0 0 0 0 0.150128275325313 0.192429281503934 0.153479510843843 0.329991596405104 0 0 0 0 0 0 0 0 0 0 0 0 0 0 0 0 0 0 0 0 0 -0.188289930945867 0 -2.2712993215617 -1.28718032620155 0 0 -0.339704541219678 0 0 0 0 0
0 0 0 0 0 0 0 0 0 0 0 0 0 0 0 0 0 0 0 0 0 0 0 0 0 0 0 0 0 0 0 0 0 0 0 0 0 0 0 -0.188289930945867 -0.520955606155734 0 0 0 0 0 0 0 0 0
0 0 0 0 0 0 0 0 0 0 0 0 0 0 0 0 0 0 0 0 0 0 0 0 0 0 0 0 0 0 0 0 0 0 0 0 0 0 0.420903853927989 0.0985806702001719 -0.188289930945867 -1.66280566765993 0 0 0 0 0 0 0 0
0 0 0 0 0 0 0 0 0 0 0 0 0 0 0 0 0 0 0 0 0 0 0 0 0 0 0 0 0 0 0 0 0 0 0.195153961905191 0.126239840572134 0 0 0.23772819865937 0 0.344007137854228 -0.188289930945867 0.10194243359915 0 -2.98199497541398 0 0 0 0 0
0 0.0173790288374804 0.100949794276824 1.0427941567027 0 0 0 0 0 0 0 0 0 0 0 0 0 0 0 0 0 0 0 0 0 0 0 0 0 0 0 0 0 0 0 0 0 0 0 0 0 -0.587872924054473 -0.188289930945867 0 -0.166496428512527 0 0 0 0 0
0 0 0 0 0 0 0 0 0 0 0 0 0 0 0 0.159885896256231 0 0.366055020729167 0 0 0 0 0 0 0 0 0 0 0 0 0 0 0 0 0 0 0 0 0 0 0 0 0 -0.188289930945867 0 0 0 0 0 0
0 0 0 0 0 0 0 0 0 0 0 0 0 0 0 0 0 0 0 0 0 0 0 0 0 0 0 0 0 0 0 0 0 0 0 0.0422061477865481 0 0.153064087711177 0.0671498001437996 0 0 0.56342867804011 0.0346218141685772 0 -0.188289930945867 0 0 0 0 0
0 0 0 0 0 0 0 0.521379258679865 0 0 0.176656697321931 0.311758469208041 0 0 0.0553265434768756 0 0 0 0 0 0 0 0 0 0 0 0 0 0 0 0 0 0 0 0 0 0 0 0 0 0 0 0 0 0 -0.188289930945867 0 0 0 0
0.342774696496134 0.530863235498454 0.327632624899507 0 0.0925233408066346 0 0 0 0 0.191295188246572 0.461889470884174 0.34962479182209 0 0 0.238213192196107 0.197248184129766 0.0436093484801948 0 0 0 0 0 0 0 0 0 0 0 0 0 0 0 0 0 0 0 0 0 0 0 0 0 0 0 0 0 -0.188289930945867 0 0 0
0 0 0 0 0 0 0 0 0 0 0 0 0 0 0 0 0 0 0 0 0 0 0 0 0 0 0 0.360664934395845 0.285551567451857 0 0 0 0 0 0 0 0 0 0 0 0 0 0 0 0 0 0 -0.188289930945867 0 0
0 0 0 0 0 0 0 0 0 0 0 0 0 0 0 0.166611489361172 0.425724528396384 0 0 0 0 0 0 0 0 0 0 0 0 0 0 0 0 0 0 0 0 0 0 0 0 0 0 0 0 0 0 0 -0.188289930945867 0
0 0 0 0 0 0 0 0 0 0 0 0 0 0 0 0 0 0 0 0 0 0 0 1.01153251140227 0 0 0 0 0 0.378987515615163 0 0.301967953558295 0 0 0.185075463060894 0 0 0 0 0 0 0 0 0 0 0 0 0 0 -0.188289930945867
