-0.212102168489801 0 0 0 0 0 -3.92769143586953 0 0 0 0 0 0 0 0 0 0 -1.33107425809957 0 0 0 0 -1.09388016181701 0 0 0 0 0 0 0 0 0 0 -0.997682988467706 0 0 0 0 0 0 0 -0.571308139441509 -0.285512581898214 0 0 0 0 0 0 0
0 -0.212102168489801 0 0 0 0 -1.31788489700923 0 0 0 0 0 0 0 0 0 0 0 0 0 0 0 0 0 0 0 0 0 0 0 0 0 0 -0.602566782969634 0 0 0 0 0 0 0 -0.920743282794635 -3.39854486828684 0 0 0 0 0 0 0
0 0 -0.212102168489801 0 -1.5423196911458 0 -1.19811508472386 0 0 0 0 0 0 0 0 0 0 -0.378946776631471 0 0 0 0 0 0 0 0 0 0 0 0 0 0 0 0 0 0 0 0 0 0 0 0 -4.2219531974266 0 0 0 0 0 0 0
0 0 0 -0.212102168489801 -0.321654135183432 0 0 0 0 -0.428212732370826 0 0 0 0 0 0 0 -1.01480670735051 0 0 0 0 0 0 0 0 0 0 0 0 0 0 0 -1.03718265382707 0 0 0 0 0 0 0 -0.76462998354807 -1.50859813796824 0 0 0 0 0 0 0
0 0 0.316137823109155 0.060898936709428 -0.212102168489801 0 0 0 0 -1.77236359520808 0 0 0 0 0 0 0 0 0 0 0 0 0 0 0 0 0 0 0 0 0 0 -0.345007716404932 0 0 0 0 0 0 0 0 0 0 0 0 0 0 0 0 0
0 0 0 0 0 -0.212102168489801 0 0 0 0 0 0 0 0 0 0 0 0 0 0 0 0 0 0 -1.52199953249486 0 0 0 0 0 0 0 -1.12877549264163 0 0 0 0 0 0 0 0 0 0 0 0 0 0 0 0 0
0.78352015501704 0.2544444357985 0.241963948594602 0 0 0 -0.212102168489801 0 0 0 0 0 0 0 0 0 0 0 0 0 0 0 0 0 -0.457168057232974 0 0 0 0 0 0 0 0 0 0 0 0 0 0 0 0 0 0 0 0 0 0 0 0 0
0 0 0 0 0 0 0 -0.212102168489801 0 0 0 0 0 0 0 0 0 -7.51065205894592 0 0 0 0 0 0 -0.4126192702702 0 0 0 0 0 0 0 0 0 0 0 0 0 0 0 0 -0.593586168260848 0 0 0 0 -0.678165326126357 0 0 0
0 0 0 0 0 0 0 0 -0.212102168489801 0 0 -5.0499036417025 0 0 0 0 0 0 0 0 0 0 0 0 0 0 0 0 0 0 0 0 0 0 0 0 0 0 0 0 0 0 0 0 0 0 -1.20416633011118 0 0 0
0 0 0 0.089142664094112 0.348300532199523 0 0 0 0 -0.212102168489801 0 -1.84180978228351 0 0 0 0 0 0 0 0 0 0 0 0 -1.00575466723382 0 0 -0.0855788634900893 0 0 0 0 0 0 0 0 0 0 0 0 0 0 0 0 0 0 -2.14540161862108 0 0 0
0 0 0 0 0 0 0 0 0 0 -0.212102168489801 0 0 0 -6.97830348614903 0 0 0 0 0 0 0 0 0 0 0 0 0 0 0 0 0 0 0 0 0 0 -1.1246259389788 0 0 0 0 0 0 0 0 -0.352853701929527 0 0 0
0 0 0 0 0 0 0 0 1.02272342346018 0.357394307805133 0 -0.212102168489801 0 0 -0.634722622749355 0 0 0 0 0 0 0 0 0 0 0 0 -0.468918205464118 0 0 -0.860351146862361 0 0 0 0 0 0 -0.694533099278364 0 0 0 0 0 0 0 0 -0.641750016773705 0 0 0
0 0 0 0 0 0 0 0 0 0 0 0 -0.212102168489801 0 0 0 0 0 0 0 0 0 0 0 0 0 0 0 0 0 0 0 0 0 0 0 0 0 0 0 0 0 0 0 0 0 -0.946290264822126 0 0 -0.189796271481566
0 0 0 0 0 0 0 0 0 0 0 0 0 -0.212102168489801 -0.222156910904831 0 0 0 0 0 0 0 0 0 0 0 0 0 0 0 -0.762520727948668 0 0 0 0 0 0 0 0 0 0 0 0 -1.02754821293122 0 0 0 0 0 -0.819753855899084
0 0 0 0 0 0 0 0 0 0 1.54532202260218 0.131756105408671 0 0.0434760444802656 -0.212102168489801 0.260344202817551 0 0 0 0 0 -0.451039658275042 0 0 0 0 0 0 0 0 -1.09267414072997 0 0 0 0 0 0 0 0 0 0 0 0 0 0 -1.2003156682368 -1.09915231274814 0 0 -3.4597653903818
0 0 0 0 0 0 0 0 0 0 0 0 0 0 -1.25093213719146 -0.212102168489801 0 0 0 0 0 -0.490082715388356 0 0 0 0 0 0 0 0 -1.13437776442377 0 0 0 0 0 0 0 0 0 0 0 0 -0.273333023153311 0 -11.6082005116082 0 0 0 0
0 0 0 0 0 0 0 0 0 0 0 0 0 0 0 0 -0.212102168489801 0 -3.26367025188013 0 0 0 0 0 0 0 -0.750518246672836 0 -2.37641975264474 0 -0.725028343341403 0 0 0 0 0 0 0 0 0 0 0 0 -1.89042852289602 0 -0.349857694044712 -0.685467979529051 0 0 0
0.294690162739881 0 0.0767822067689574 0.201037713963281 0 0 0 1.59660889091567 0 0 0 0 0 0 0 0 0 -0.212102168489801 0 0 0 0 0 0 0 0 0 0 -1.24474587188105 0 0 0 0 0 0 0 0 0 0 0 0 0 0 -0.114188408712429 0 -0.152122568909582 -0.694145971891806 0 -1.75353367748021 -2.0546256637814
0 0 0 0 0 0 0 0 0 0 0 0 0 0 0 0 0.593921771045356 0 -0.212102168489801 -2.74011393099588 0 0 0 0 0 0 0 0 0 0 -1.009889485446 0 0 0 0 -0.819999756889971 0 0 0 0 0 0 0 -0.279167679586287 0 0 -1.77527089845257 0 0 -0.342049010495835
0 0 0 0 0 0 0 0 0 0 0 0 0 0 0 0 0 0 0.477241916697465 -0.212102168489801 0 0 0 0 0 0 0 0 0 0 -0.379661120559481 0 0 0 0 0 0 0 0 0 0 0 0 0 0 0 0 0 -0.513942538396679 -2.38471847772255
0 0 0 0 0 0 0 0 0 0 0 0 0 0 0 0 0 0 0 0 -0.212102168489801 0 0 0 0 0 0 0 -0.288885195945162 0 0 0 0 0 0 0 0 0 0 0 0 0 0 0 0 0 -0.607138377263392 -1.4792501485242 -0.135476034223147 0
0 0 0 0 0 0 0 0 0 0 0 0 0 0 0.0802732455253923 0.090450622741096 0 0 0 0 0 -0.212102168489801 0 0 0 -0.950271291191785 0 0 -0.40232927987253 -0.501254344692255 -0.59809243985681 0 0 0 0 -2.50346763910806 0 0 0 0 0 0 0 -0.992145823642312 0 0 0 0 0 -0.442079305844461
0.227405748424179 0 0 0 0 0 0 0 0 0 0 0 0 0 0 0 0 0 0 0 0 0 -0.212102168489801 0 0 0 0 0 -0.773857911373609 0 -0.209907681795208 0 0 0 0 -2.40912735131886 0 0 0 0 0 0 0 0 0 0 0 0 -1.25687331339438 0
0 0 0 0 0 0 0 0 0 0 0 0 0 0 0 0 0 0 0 0 0 0 0 -0.212102168489801 0 0 0 0 -1.28782460840987 -0.706194228752374 -1.77971720389618 -0.262517572310709 0 0 0 -0.667973577526536 0 0 0 0 0 0 0 0 0 0 0 -0.298512704915202 0 0
0 0 0 0 0 0.290567974751008 0.0954269127511398 0.0903989102693064 0 0.217235794978321 0 0 0 0 0 0 0 0 0 0 0 0 0 0 -0.212102168489801 -1.56224186933484 0 0 0 0 -5.44955807146156 0 0 0 0 0 0 0 0 0 0 0 0 -0.852626619879792 -1.26856676928941 0 0 -0.674226184753761 -2.2426531287079 -2.07354576005593
0 0 0 0 0 0 0 0 0 0 0 0 0 0 0 0 0 0 0 0 0 0.189391519351317 0 0 0.326150863475361 -0.212102168489801 0 0.026238674942798 0 0 0 -0.638969485239809 0 0 0 0 0 0 0 0 0 0 0 -2.35882657602029 0 0 0 0 -4.05526549863197 0
0 0 0 0 0 0 0 0 0 0 0 0 0 0 0 0 0.164646520456661 0 0 0 0 0 0 0 0 0 -0.212102168489801 0 0 0 -2.08440106909709 0 0 0 0 0 -0.585232965701248 0 0 0 0 0 0 -0.48535272040431 0 0 0 0 0 0
0 0 0 0 0 0 0 0 0 0.0152228541827347 0 0.0925557344300088 0 0 0 0 0 0 0 0 0 0 0 0 0 -0.130045093037081 0 -0.212102168489801 0 0 0 0 0 0 0 0 -0.437767045068196 0 -0.652473582971312 0 0 0 0 -0.442679663222994 0 0 0 -1.01042730519531 -6.36255484534798 -1.15050003171459
0 0 0 0 0 0 0 0 0 0 0 0 0 0 0 0 0.474987792427772 0.249555073939401 0 0 0.0554287262432513 0.0863769324755719 0.162723086696153 0.254028395250699 0 0 0 0 -0.212102168489801 0 0 0 0 0 0 0 0 0 0 0 0 0 0 0 0 0 0 0 0 0
0 0 0 0 0 0 0 0 0 0 0 0 0 0 0 0 0 0 0 0 0 0.106490474785507 0 0.151316576296745 0 0 0 0 0 -0.212102168489801 0 0 0 0 0 0 0 0 0 0 0 0 0 0 0 0 0 0 -0.499939370277076 0
0 0 0 0 0 0 0 0 0 0 0 0.180134382648284 0 0.151044706672709 0.223483763205504 0.234045033099756 0.146184742775231 0 0.214775202923411 0.0749150422086135 0 0.123962205408747 0.041542880056242 0.371209563581693 1.13202095377086 0 0.417728162776011 0 0 0 -0.212102168489801 0 0 0 0 0 0 0 0 0 0 0 0 -0.289795565206963 0 0 0 0 -0.771685211446646 0
0 0 0 0 0 0 0 0 0 0 0 0 0 0 0 0 0 0 0 0 0 0 0 0.053731044122424 0 0.121339856343703 0 0 0 0 0 -0.212102168489801 0 0 0 0 0 0 0 0 0 0 0 -2.21795116387672 0 0 0 0 -0.404875136648178 0
0 0 0 0 0.0659070953036735 0.228437665463019 0 0 0 0 0 0 0 0 0 0 0 0 0 0 0 0 0 0 0 0 0 0 0 0 0 0 -0.212102168489801 0 0 0 0 0 0 0 0 0 0 -1.55477451097186 0 0 0 0 -0.703415690030543 0
0.191665127678572 0.112883490229064 0 0.212156805179256 0 0 0 0 0 0 0 0 0 0 0 0 0 0 0 0 0 0 0 0 0 0 0 0 0 0 0 0 0 -0.212102168489801 0 0 0 0 0 0 0 0 0 0 0 0 0 0 -8.73612201770142 0
0 0 0 0 0 0 0 0 0 0 0 0 0 0 0 0 0 0 0 0 0 0 0 0 0 0 0 0 0 0 0 0 0 0 -0.212102168489801 0 0 0 0 0 0 0 0 0 0 0 0 0 -0.446599138294572 0
0 0 0 0 0 0 0 0 0 0 0 0 0 0 0 0 0 0 0.161566026083427 0 0 0.489197604417393 0.48037520215159 0.135664645934572 0 0 0 0 0 0 0 0 0 0 0 -0.212102168489801 0 0 0 0 0 0 0 -0.951416849798309 0 0 0 0 0 0
0 0 0 0 0 0 0 0 0 0 0 0 0 0 0 0 0 0 0 0 0 0 0 0 0 0 0.120417886281121 0.0875952373569352 0 0 0 0 0 0 0 0 -0.212102168489801 0 0 0 0 0 0 -0.549077828856688 0 0 0 0 -2.25030951914739 0
0 0 0 0 0 0 0 0 0 0 0.223689673207143 0.143077070032449 0 0 0 0 0 0 0 0 0 0 0 0 0 0 0 0 0 0 0 0 0 0 0 0 0 -0.212102168489801 0 0 -2.81784259247429 0 0 -1.19985915613577 0 0 0 0 -1.7246450914665 0
0 0 0 0 0 0 0 0 0 0 0 0 0 0 0 0 0 0 0 0 0 0 0 0 0 0 0 0.135907637559046 0 0 0 0 0 0 0 0 0 0 -0.212102168489801 0 -0.22966101999613 0 0 -0.101967821380995 0 0 0 0 0 0
0 0 0 0 0 0 0 0 0 0 0 0 0 0 0 0 0 0 0 0 0 0 0 0 0 0 0 0 0 0 0 0 0 0 0 0 0 0 0 -0.212102168489801 0 0 0 -1.77015114438462 0 0 0 0 0 0
0 0 0 0 0 0 0 0 0 0 0 0 0 0 0 0 0 0 0 0 0 0 0 0 0 0 0 0 0 0 0 0 0 0 0 0 0 0.556856201403337 0.0473237342880877 0 -0.212102168489801 0 0 0 0 0 0 0 0 0
0.108881901782739 0.183108960094715 0 0.150947729825236 0 0 0 0.117862415279412 0 0 0 0 0 0 0 0 0 0 0 0 0 0 0 0 0 0 0 0 0 0 0 0 0 0 0 0 0 0 0 0 0 -0.212102168489801 0 0 0 0 0 0 0 0
0.0543388611643275 0.671724854938828 0.940567586938548 0.310144208340514 0 0 0 0 0 0 0 0 0 0 0 0 0 0 0 0 0 0 0 0 0 0 0 0 0 0 0 0 0 0 0 0 0 0 0 0 0 0 -0.212102168489801 -4.55134039977981 0 0 0 0 0 0
0 0 0 0 0 0 0 0 0 0 0 0 0 0.195240388707576 0 0.0495287634833766 0.369378307480973 0.0239262828918447 0.0597717836459147 0 0 0.190236276811384 0 0 0.157795388524607 0.467416799131884 0.0996985791116655 0.0941941575107699 0 0 0.0557596897520724 0.457169668720608 0.323087098800302 0 0 0.203787441029163 0.108243643445005 0.23311238864801 0.0197544533360131 0.350852210853206 0 0 1.02014120456253 -0.212102168489801 0 0 0 0 0 0
0 0 0 0 0 0 0 0 0 0 0 0 0 0 0 0 0 0 0 0 0 0 0 0 0.237099764191589 0 0 0 0 0 0 0 0 0 0 0 0 0 0 0 0 0 0 0 -0.212102168489801 0 0 0 0 0
0 0 0 0 0 0 0 0 0 0 0 0 0 0 0.255129077632182 2.48936412785893 0.0668715161792424 0.031312921751574 0 0 0 0 0 0 0 0 0 0 0 0 0 0 0 0 0 0 0 0 0 0 0 0 0 0 0 -0.212102168489801 0 0 0 0
0 0 0 0 0 0 0 0.136655396078937 0.264124416602096 0.430121908655638 0.0681657670692635 0.136613648883827 0.188371498363958 0 0.220722796198563 0 0.145171731476134 0.139183967850683 0.366329576013018 0 0.111781759308194 0 0 0 0 0 0 0 0 0 0 0 0 0 0 0 0 0 0 0 0 0 0 0 0 0 -0.212102168489801 0 0 0
0 0 0 0 0 0 0 0 0 0 0 0 0 0 0 0 0 0 0 0 0.277841612303187 0 0 0.0583852744508889 0.134498356119421 0 0 0.199361362252687 0 0 0 0 0 0 0 0 0 0 0 0 0 0 0 0 0 0 0 -0.212102168489801 0 0
0 0 0 0 0 0 0 0 0 0 0 0 0 0 0 0 0 0.346423454080687 0 0.0880804586964804 0.0270818845993385 0 0.23678583300765 0 0.44682409898886 0.818083000428027 0 1.23052174284425 0 0.0932010645367784 0.15709362554075 0.0816925247029096 0.149248522279489 1.74099203207912 0.0859407299679448 0 0.446857658534694 0.329403406242729 0 0 0 0 0 0 0 0 0 0 -0.212102168489801 0
0 0 0 0 0 0 0 0 0 0 0 0 0.0348476741580643 0.158025577648664 0.703902377545724 0 0 0.40580956466723 0.067138861004943 0.456407314494442 0 0.084840451885228 0 0 0.417449823000455 0 0 0.227570786469929 0 0 0 0 0 0 0 0 0 0 0 0 0 0 0 0 0 0 0 0 0 -0.212102168489801
