2.68243512972865
1.95021542195933
4.46091625714023
0.475854549593724
1.25864679841685
0.523390104603675
1.93610565803651
1.7299072807853
0.987425618625818
0.20856993761031
0.356040291044248
0.934812122131961
2.0040980744067
4.41503979347055
0.741088476081437
0.115968439278565
4.99120834010889
1.74649037193492
0.345027430875304
0.667467543749221
0.252076727924955
0.741817123156298
0.406949583139386
0.571635815988957
0.690008376267504
0.523445497862754
0.661694664288617
1.45595898338847
5.60362186808566
2.25943410350977
0.229557143021975
2.44720005595393
1.77545192398558
0.348628804907776
0.695439301380449
0.446135015908129
0.509554160094626
1.12891296408756
0.491734881899586
0.61018309718673
1.80830402673143
0.0259865131638464
2.02832614723563
0.422400296593404
7.17672235353552
0.60619842220985
0.172968692299731
2.22243081246261
2.2400686275418
1.77736965398175
