0.546487994191667
0.977684665747106
0.107792681696321
0.789193195999608
0.661371179181233
4.18234243043995
1.6056386491278
1.57787861065506
2.65970337708709
0.551140696252566
0.311335882762708
1.46578810645972
0.128858378275366
0.168560824267254
1.36680464080591
1.0766762178056
1.48174270059565
0.393876774493315
0.272542669335198
1.97986944972219
0.142468368164684
1.07813225187171
0.0601923323077027
0.793035681175633
0.379577619261592
1.70843321857844
0.763776796233094
6.19134308897485
2.43253811469267
1.65035445203302
0.9677161522999
1.48678764528313
0.199478363723911
0.237185690180752
0.297164385268118
0.180004655888327
1.48638184832565
0.260610400532881
2.19480327325923
5.26057954148404
0.5874037953408
1.91843262623853
0.762643118830988
0.887316490177772
1.8240314213932
3.06264323302977
0.122412278996603
1.7416268082792
0.484872601303668
1.15919586786204
