3.31655278189949
0.996258257149092
1.20027052705707
2.26814773321867
1.0496924216927
0.119417080130711
0.430365601600248
0.382958826664778
1.46129736624053
7.62430624098864
1.0137931275309
0.0671099124843182
0.704573910198614
2.02210988967027
1.5969329927057
0.540702049990424
1.65089328446956
1.55863500415132
0.451581312048284
4.38024574554275
3.56818816829013
0.15636944140346
0.859463809963732
3.667557011982
2.43606612509089
0.812691372742144
1.24710312225874
0.563303717521787
2.56961886152418
0.876483071769684
2.28379528885991
0.490858034016316
1.09788689864213
0.355140554291124
0.143274069759548
0.37840421483222
0.462865444283302
0.991396583812318
0.204804681287675
3.8680791094664
1.79386220216411
1.9912920895484
2.36615470042121
0.733425462897502
0.383251534127155
1.47991865794247
1.33027009089062
2.27762516532015
0.735540818220585
5.93608991200582
