-0.141160356242212 0 0 0 0 0 -0.273930191994002 0 0 0 0 0 0 0 0 0 0 0 0 0 -0.284984510518707 0 -0.230758925046686 0 0 0 0 0 0 0 0 0 0 0 0 0 0 0 0 0 0 0 0 0 0 0 0 0 0 0
0 -0.141160356242212 0 0 0 0 0 0 0 0 0 0 0 0 0 0 0 0 0 0 0 0 -2.95550207966297 0 0 0 0 0 0 0 0 0 0 0 0 0 0 0 0 0 0 0 0 0 0 0 0 0 0 0
0 0 -0.141160356242212 0 0 0 0 0 0 0 0 0 0 0 0 0 0 0 -0.508436838024555 0 -4.19902948247727 0 0 0 0 0 0 0 0 0 0 0 0 0 0 0 0 0 0 0 0 0 0 0 0 0 0 0 0 0
0 0 0 -0.141160356242212 0 0 0 0 0 0 0 -0.252714913519149 0 -2.52795244977019 0 0 0 0 0 0 0 0 0 0 0 0 0 0 0 0 0 0 0 0 0 0 0 -1.16452688440628 0 0 0 0 0 0 0 0 0 0 0 0
0 0 0 0 -0.141160356242212 0 0 0 0 0 0 0 0 0 0 -0.987315876368269 0 0 0 0 -1.82823788656217 0 0 -0.0652049224582328 0 0 0 -1.15850437923718 0 -0.392132655945954 0 0 0 0 0 0 0 0 0 0 0 0 0 0 0 0 0 0 0 0
0 0 0 0 0 -0.141160356242212 0 0 0 0 0 0 0 0 0 -2.27120695337741 0 0 0 0 -0.659925899719854 0 0 -2.06177150457188 0 0 0 -0.123207969032401 0 -2.43841957134187 0 0 0 -0.118620343618003 0 0 0 0 0 0 0 0 0 0 0 0 0 0 0 0
0.0561944329591006 0 0 0 0 0 -0.141160356242212 -0.132738273798665 0 0 0 -4.67122308892984 0 0 0 0 0 0 0 0 -0.664062105550914 0 0 0 0 0 0 -0.682710848253777 0 0 0 0 0 0 0 0 0 -1.1781003855523 0 0 0 0 0 0 0 0 0 0 0 0
0 0 0 0 0 0 0.0269515674068947 -0.141160356242212 0 0 0 0 0 0 0 0 0 0 0 0 0 0 0 0 0 0 0 0 -1.92323431429442 -1.36390187466422 0 0 0 -2.39890026351451 0 0 0 0 0 0 0 0 0 -1.26191426931068 0 0 0 0 0 0
0 0 0 0 0 0 0 0 -0.141160356242212 0 0 0 0 0 0 -1.23132616525598 0 0 0 0 -0.267374205798505 0 0 0 0 0 0 0 -1.06793958351337 0 0 0 0 -0.627794430519708 0 0 0 0 0 0 0 0 0 -1.41195067958576 0 0 0 0 0 0
0 0 0 0 0 0 0 0 0 -0.141160356242212 0 0 0 0 0 -0.37056697266491 0 0 0 0 -1.02205067260768 0 0 0 0 0 0 0 -5.94053858453801 -2.88805633038599 0 0 0 -0.182448406163481 0 0 0 0 0 0 0 0 0 0 0 0 -7.88493309498582 0 0 0
0 0 0 0 0 0 0 0 0 0 -0.141160356242212 0 0 0 0 0 0 0 0 0 0 0 0 0 0 0 0 0 0 -0.357744506854971 0 0 0 -2.40098581637022 0 0 0 0 0 0 0 0 0 -0.521433430917836 0 0 -0.677436291432076 0 0 0
0 0 0 0.0549379552995046 0 0 0.877497316025818 0 0 0 0 -0.141160356242212 0 0 0 0 0 0 0 0 -0.338518256073247 0 0 0 0 0 0 0 0 -0.864955581320415 0 0 0 -0.232153185004244 0 0 0 0 0 0 0 0 0 -0.674990525646801 0 0 -0.445520539411174 0 0 0
0 0 0 0 0 0 0 0 0 0 0 0 -0.141160356242212 0 0 0 0 0 0 0 -1.71488013604865 0 0 0 0 0 0 0 0 0 0 0 0 -3.69643688266557 0 0 0 0 0 0 0 0 0 0 0 0 0 0 0 0
0 0 0 0.507863419138813 0 0 0 0 0 0 0 0 0 -0.141160356242212 -2.96602736915638 -0.805462879677198 0 0 0 0 0 0 0 0 0 0 0 0 0 0 0 0 0 -1.97415993281591 0 0 0 0 0 0 0 0 0 -0.605431654329658 0 0 0 0 0 0
0 0 0 0 0 0 0 0 0 0 0 0 0 0.550490396649757 -0.141160356242212 -1.69535138180972 0 0 0 0 0 0 0 0 0 0 0 0 0 0 0 0 0 0 0 0 0 0 0 0 0 0 0 0 0 0 0 0 0 0
0 0 0 0 0.198347806822689 0.463188142914852 0 0 0.258667124010505 0.0744158011234255 0 0 0 0.16641622538096 0.317494730192182 -0.141160356242212 0 0 0 0 0 0 0 0 0 0 0 0 0 0 0 -0.903029300602235 0 0 0 0 0 0 0 0 0 -0.370821804535891 0 -0.433014791297514 0 0 0 0 0 0
0 0 0 0 0 0 0 0 0 0 0 0 0 0 0 0 -0.141160356242212 0 0 0 0 0 0 0 0 -0.571286028576511 0 0 0 0 0 0 0 0 0 0 0 0 0 0 0 0 0 -0.12775317099046 0 0 0 0 0 0
0 0 0 0 0 0 0 0 0 0 0 0 0 0 0 0 0 -0.141160356242212 0 0 0 0 0 0 0 0 0 0 0 0 0 0 0 0 0 0 0 0 -2.14832886725722 0 0 -0.347489318339867 0 0 0 0 0 0 0 0
0 0 0.0995886707100492 0 0 0 0 0 0 0 0 0 0 0 0 0 0 0 -0.141160356242212 0 0 0 0 0 0 -0.324948005718662 0 0 0 0 0 -0.320624558763448 0 0 0 -3.0000834103957 0 0 0 0 0 0 0 0 0 -1.24453128961292 0 0 0 0
0 0 0 0 0 0 0 0 0 0 0 0 0 0 0 0 0 0 0 -0.141160356242212 0 0 0 0 0 0 0 0 0 0 0 0 0 0 0 -0.823137686779233 0 0 0 0 0 -0.173823894406038 0 -5.70455571984542 0 -0.62444680888922 0 0 0 0
0.0575956987180392 0 0.816609568419948 0 0.344001749100685 0.127316017237182 0.124183057697289 0 0.0557168723781595 0.204706435114489 0 0.0678456686060492 0.327909826795437 0 0 0 0 0 0 0 -0.141160356242212 0 0 0 0 -0.587223852899152 0 0 0 0 0 0 0 0 0 0 0 0 0 0 0 0 0 0 0 -0.525000024587286 0 0 0 0
0 0 0 0 0 0 0 0 0 0 0 0 0 0 0 0 0 0 0 0 0 -0.141160356242212 0 0 0 -0.454399661540318 0 0 0 0 0 -1.92103752130203 0 0 0 -0.215461468807711 0 0 0 0 0 -0.949656447888695 0 0 0 0 0 0 0 0
0.0450055597147121 0.573370468216434 0 0 0 0 0 0 0 0 0 0 0 0 0 0 0 0 0 0 0 0 -0.141160356242212 0 0 -0.541640114742328 0 0 0 0 -0.855561721779159 0 0 0 0 0 0 0 0 -1.76802930203236 0 -0.185899363626508 0 0 0 0 0 0 0 0
0 0 0 0 0.0129014567449568 0.396683022205593 0 0 0 0 0 0 0 0 0 0 0 0 0 0 0 0 0 -0.141160356242212 0 -8.53809532428714 0 0 0 0 -2.21824650732982 0 0 0 0 0 0 0 0 -0.973351842145052 0 -0.472994373500192 0 0 0 0 0 0 0 0
0 0 0 0 0 0 0 0 0 0 0 0 0 0 0 0 0 0 0 0 0 0 0 0 -0.141160356242212 -3.4704213954414 0 0 0 0 0 -0.441041285595743 0 0 0 0 0 0 0 -0.181720252535322 0 -0.537777290203688 0 0 -1.0543790191059 0 0 0 0 0
0 0 0 0 0 0 0 0 0 0 0 0 0 0 0 0 0.117461509504777 0 0.0668724568335732 0 0.123025767825965 0.0898675834910013 0.101811470000588 1.66127501528134 0.647867840548229 -0.141160356242212 0.0659577467566781 0.115153569724408 0.248548969354677 0 0 -1.04993516205879 0 0 0 0 -0.84395581523186 0 0 -5.47567229099935 0 -0.379211152261286 0 0 -0.639667205329222 0 0 0 0 0
0 0 0 0 0 0 0 0 0 0 0 0 0 0 0 0 0 0 0 0 0 0 0 0 0 -0.278209772548341 -0.141160356242212 0 0 0 -0.385357632177926 -0.531460952064842 0 0 0 0 -3.79690368101786 0 0 -0.285349968563182 0 0 0 0 -2.90462291946212 0 0 0 0 0
0 0 0 0 0.234449977441035 0.0258702619907498 0.131904313759463 0 0 0 0 0 0 0 0 0 0 0 0 0 0 0 0 0 0 -0.526835681298828 0 -0.141160356242212 0 0 0 -2.6336797340265 0 0 0 0 -2.64679386762361 0 0 -0.19220062721578 0 0 0 0 -0.799355576807483 0 0 0 0 0
0 0 0 0 0 0 0 0.359125354238974 0.204610729687019 1.09220459957503 0 0 0 0 0 0 0 0 0 0 0 0 0 0 0 -1.18168605351731 0 0 -0.141160356242212 0 0 0 0 0 0 0 -0.909944698912111 0 0 0 0 -1.63165156902524 0 0 0 0 0 0 0 0
0 0 0 0 0.0819850431967918 0.494935843538493 0 0.277529463252526 0 0.592337357215393 0.0652002334592445 0.166712196717324 0 0 0 0 0 0 0 0 0 0 0 0 0 0 0 0 0 -0.141160356242212 0 0 0 0 0 0 0 0 0 0 0 -0.528130929818179 0 0 0 0 0 0 -2.16049391438058 0
0 0 0 0 0 0 0 0 0 0 0 0 0 0 0 0 0 0 0 0 0 0 0.163152968086183 0.466042800628414 0 0 0.0817449286098938 0 0 0 -0.141160356242212 0 0 0 0 0 0 0 0 0 0 -1.1570907450944 0 0 0 0 0 0 -1.17935625076109 0
0 0 0 0 0 0 0 0 0 0 0 0 0 0 0 0.190215610264477 0 0 0.0661447097396627 0 0 0.405321667776051 0 0 0.0891738809137115 0.219593264886386 0.0972021095153341 0.509121613805561 0 0 0 -0.141160356242212 0 0 0 0 -0.281807259790292 0 0 0 0 0 0 0 0 0 0 0 -1.32738497631998 0
0 0 0 0 0 0 0 0 0 0 0 0 0 0 0 0 0 0 0 0 0 0 0 0 0 0 0 0 0 0 0 0 -0.141160356242212 0 0 0 -3.67365082011263 0 0 0 0 -1.04160516873191 0 0 0 0 0 0 -3.23917471309121 0
0 0 0 0 0 0.0235357278537038 0 0.466492034130629 0.125645304027793 0.0369471571889209 0.458062563969876 0.047520963491139 0.764067746574304 0.427113221952796 0 0 0 0 0 0 0 0 0 0 0 0 0 0 0 0 0 0 0 -0.141160356242212 0 0 0 0 0 0 0 0 0 0 0 0 0 -1.25505250231197 0 0
0 0 0 0 0 0 0 0 0 0 0 0 0 0 0 0 0 0 0 0 0 0 0 0 0 0 0 0 0 0 0 0 0 0 -0.141160356242212 0 0 0 0 0 0 0 0 0 0 0 0 0 -0.988377432650079 0
0 0 0 0 0 0 0 0 0 0 0 0 0 0 0 0 0 0 0.586898713246282 0.161257645834131 0 0.0461525041454381 0 0 0 0 0 0 0 0 0 0 0 0 0 -0.141160356242212 0 0 0 0 0 0 0 0 0 0 0 -0.751392007140921 0 -0.205222892148147
0 0 0 0 0 0 0 0 0 0 0 0 0 0 0 0 0 0 0 0 0 0 0 0 0 0.169166995195327 0.811224843948284 0.517587429327013 0.185270361155554 0 0 0.0579669253595563 0.761090561558888 0 0 0 -0.141160356242212 0 0 0 0 0 0 0 0 0 0 -0.865506949466768 0 0
0 0 0 0.240654308571733 0 0 0.237331254309915 0 0 0 0 0 0 0 0 0 0 0 0 0 0 0 0 0 0 0 0 0 0 0 0 0 0 0 0 0 0 -0.141160356242212 0 0 0 0 0 0 0 0 0 -0.619390336033337 0 0
0 0 0 0 0 0 0 0 0 0 0 0 0 0 0 0 0 0.445785600952335 0 0 0 0 0 0 0 0 0 0 0 0 0 0 0 0 0 0 0 0 -0.141160356242212 0 0 0 0 0 0 0 0 0 -5.4323836354596 0
0 0 0 0 0 0 0 0 0 0 0 0 0 0 0 0 0 0 0 0 0 0 0.397356862416591 0.197851070606275 0.0375278391590822 1.07516916802011 0.0564430287328862 0.0373877192839634 0 0 0 0 0 0 0 0 0 0 0 -0.141160356242212 0 0 0 0 0 0 0 -0.569842391248995 0 0
0 0 0 0 0 0 0 0 0 0 0 0 0 0 0 0 0 0 0 0 0 0 0 0 0 0 0 0 0 0 0 0 0 0 0 0 0 0 0 0 -0.141160356242212 0 0 0 0 0 0 -1.05446106912476 -1.69237632423704 0
0 0 0 0 0 0 0 0 0 0 0 0 0 0 0 0.0778519026141106 0 0.0704117347457805 0 0.0330714715194469 0 0.179581725658412 0.0362986621867029 0.0975141958377466 0.101267634104362 0.0805853973310072 0 0 0.328103828524516 0.103763857105338 0.224909657667124 0 0.21741232895684 0 0 0 0 0 0 0 0 -0.141160356242212 0 0 0 0 0 -0.899296119400272 0 0
0 0 0 0 0 0 0 0 0 0 0 0 0 0 0 0 0 0 0 0 0 0 0 0 0 0 0 0 0 0 0 0 0 0 0 0 0 0 0 0 0 0 -0.141160356242212 0 0 0 0 -1.0496035192594 -1.62507491274505 0
0 0 0 0 0 0 0 0.249145393096028 0.27639189536672 0 0.102726346554399 0.121139314783566 0 0.117453484775335 0 0.0875403831849843 0.0259434033919419 0 0 1.28031057799644 0 0 0 0 0 0 0 0 0 0 0 0 0 0 0 0 0 0 0 0 0 0 0 -0.141160356242212 0 0 0 -1.38852612213108 0 0
0 0 0 0 0 0 0 0 0 0 0 0 0 0 0 0 0 0 0 0 0 0 0 0 0.204202962919304 0.128058660626609 0.549193967235447 0.167399970186417 0 0 0 0 0 0 0 0 0 0 0 0 0 0 0 0 -0.141160356242212 0 0 -0.338550868844275 0 0
0 0 0 0 0 0 0 0 0 0 0 0 0 0 0 0 0 0 0.275817192776055 0.128621311441474 0.0991593109746922 0 0 0 0 0 0 0 0 0 0 0 0 0 0 0 0 0 0 0 0 0 0 0 0 -0.141160356242212 0 -0.127084244931795 0 0
0 0 0 0 0 0 0 0 0 1.58777560190712 0.133941337539952 0.0874543038001299 0 0 0 0 0 0 0 0 0 0 0 0 0 0 0 0 0 0 0 0 0 0 0 0 0 0 0 0 0 0 0 0 0 0 -0.141160356242212 0 0 0
0 0 0 0 0 0 0 0 0 0 0 0 0 0 0 0 0 0 0 0 0 0 0 0 0 0 0 0 0 0 0 0 0 0.247480459306138 0 0.148131679376441 0.172088672665247 0.12396676182733 0 0.0996453462200126 0.230105908042406 0.178545560904843 0.205474799143471 0.278214176652025 0.071056416384957 0.0271140316831091 0 -0.141160356242212 -1.51270665895167 0
0 0 0 0 0 0 0 0 0 0 0 0 0 0 0 0 0 0 0 0 0 0 0 0 0 0 0 0 0 0.463388064075854 0.246030285503409 0.284680922874837 0.624789853696374 0 0.203126348187605 0 0 0 1.01426777172532 0 0.325219043439512 0 0.304618233669168 0 0 0 0 0.313405961243811 -0.141160356242212 0.123718677542923
0 0 0 0 0 0 0 0 0 0 0 0 0 0 0 0 0 0 0 0 0 0 0 0 0 0 0 0 0 0 0 0 0 0 0 0.0426057873134493 0 0 0 0 0 0 0 0 0 0 0 0 -0.57341740241791 -0.141160356242212
