-0.215471489933479 0 -2.53051740838941 0 0 0 0 0 0 0 0 0 0 0 0 0 0 0 0 0 0 0 0 0 0 0 0 0 0 0 0 0 0 0 0 0 0 0 0 0 0 0 0 0 0 0 0 0 0 0
0 -0.215471489933479 0 0 0 0 0 0 0 0 0 0 0 0 0 0 0 0 0 0 -0.440379809231418 0 0 0 0 0 0 0 0 0 0 0 0 0 0 0 0 0 0 0 0 0 0 0 0 -1.08150444378481 0 0 0 0
0.536789536258549 0 -0.215471489933479 0 0 0 0 0 0 0 0 0 0 0 0 0 0 0 0 0 -0.592654228994157 0 0 0 0 0 0 0 0 0 0 0 0 0 0 0 0 0 0 0 0 0 0 0 0 0 0 0 0 0
0 0 0 -0.215471489933479 -5.59335286557063 0 0 0 0 0 0 0 0 0 0 0 0 0 0 0 -1.59101438045323 0 0 0 0 0 0 0 0 0 0 0 0 0 0 0 0 0 0 0 0 0 0 0 0 0 0 0 0 -0.35663656446219
0 0 0 1.10172654568597 -0.215471489933479 0 0 0 0 0 0 0 0 0 0 0 0 0 0 0 -0.579072711309415 0 0 0 0 0 0 0 0 0 0 0 0 0 0 0 0 0 0 0 0 0 0 0 0 0 0 0 0 0
0 0 0 0 0 -0.215471489933479 0 -1.93777479021838 0 -1.3397836482003 0 0 0 0 0 0 0 0 0 0 -0.569061737811998 0 0 0 0 0 0 0 0 0 0 0 0 0 0 0 0 0 0 0 0 0 0 0 0 0 0 0 0 0
0 0 0 0 0 0 -0.215471489933479 0 0 -0.542421379807833 0 0 0 0 0 0 0 0 0 0 0 0 0 0 0 -8.86676567647033 0 0 0 0 0 0 0 0 0 0 0 0 0 0 0 0 0 0 0 0 0 0 0 0
0 0 0 0 0 0.368950579364704 0 -0.215471489933479 -2.65962655535912 -0.49907581485786 0 0 0 0 0 0 0 0 0 0 0 0 0 0 0 0 0 0 0 0 0 0 0 0 0 -4.03422632547146 0 0 0 0 0 0 0 0 0 -2.6492544492116 0 0 0 0
0 0 0 0 0 0 0 0.517596978337333 -0.215471489933479 0 0 0 0 0 0 0 0 0 0 -0.424181084833017 0 0 0 0 0 0 0 0 0 0 0 0 0 0 0 0 0 0 0 0 0 0 0 0 0 0 0 0 0 0
0 0 0 0 0 0.278397136921825 0.0958052601120876 0.110278357508452 0 -0.215471489933479 0 0 0 0 -2.25619292926464 0 0 0 0 0 0 0 0 0 0 0 0 0 0 0 0 0 0 0 0 0 0 0 0 0 0 0 0 0 0 0 0 0 0 0
0 0 0 0 0 0 0 0 0 0 -0.215471489933479 0 0 -0.0942277133092793 -0.536265360820796 0 0 0 0 0 0 0 0 0 0 0 0 0 0 0 0 0 0 0 0 -0.0707148717266227 0 0 0 0 0 0 0 0 0 0 0 0 0 0
0 0 0 0 0 0 0 0 0 0 0 -0.215471489933479 0 0 -2.66299369710364 0 0 0 0 0 0 0 -0.944122591841829 -0.322804361005003 0 0 0 -1.2891672184879 0 0 0 0 0 0 0 -0.651524519606902 0 0 0 0 0 0 0 0 0 0 0 -0.376977470037461 0 0
0 0 0 0 0 0 0 0 0 0 0 0 -0.215471489933479 -8.39377737507587 0 0 0 -0.23241621505215 0 0 0 0 -3.43423349530314 -0.224024227375313 0 0 0 0 0 0 0 0 0 0 0 -0.55635722385798 0 0 0 0 0 0 0 0 0 0 0 -2.34326959616825 0 0
0 0 0 0 0 0 0 0 0 0 0.0190107607285811 0 1.63228825353363 -0.215471489933479 0 0 0 0 0 0 0 0 0 0 0 0 0 0 0 0 0 0 -0.934885829093045 0 0 0 0 0 0 0 0 0 0 0 0 0 0 -0.774879359932149 0 0
0 0 0 0 0 0 0 0 0 0.470090739192812 0.104775016498557 0.531637441274877 0 0 -0.215471489933479 0 0 0 0 0 0 0 0 0 0 0 0 0 0 0 0 0 0 0 0 0 0 0 0 0 0 0 0 0 0 0 0 0 0 0
0 0 0 0 0 0 0 0 0 0 0 0 0 0 0 -0.215471489933479 0 0 0 0 0 0 -0.306102910381523 0 0 0 0 -1.2514002934251 0 0 0 -2.14959581911421 -0.584375051788893 0 0 -0.782077211524846 0 0 0 0 0 0 0 0 0 0 0 -0.819265791849891 0 0
0 0 0 0 0 0 0 0 0 0 0 0 0 0 0 0 -0.215471489933479 0 0 0 0 0 0 0 0 0 0 -0.237494175006479 0 0 0 -2.87791281309098 0 0 0 0 0 0 0 0 0 0 0 0 0 0 0 0 0 0
0 0 0 0 0 0 0 0 0 0 0 0 0.0481094784313863 0 0 0 0 -0.215471489933479 0 0 0 0 -0.339093699420262 0 0 0 0 -2.62558406918005 0 0 0 0 0 0 0 -3.38438041083221 0 0 0 0 0 0 0 0 0 0 0 0 0 0
0 0 0 0 0 0 0 0 0 0 0 0 0 0 0 0 0 0 -0.215471489933479 0 0 0 -0.43180481370424 0 0 0 0 0 0 0 0 -2.10193789762516 -1.60592730502098 0 0 -1.74792551232914 0 0 0 0 0 0 0 0 0 0 0 -4.59030551508528 0 0
0 0 0 0 0 0 0 0 0.0854341362839163 0 0 0 0 0 0 0 0 0 0 -0.215471489933479 0 0 0 0 0 0 0 -1.82989983843585 0 0 0 -1.56890468982432 -0.821227955324902 0 0 0 0 0 0 0 0 0 0 0 0 0 0 0 0 0
0 0.0890195973832744 0.115835746017972 0.312647463757828 0.112628721138784 0.111973938869115 0 0 0 0 0 0 0 0 0 0 0 0 0 0 -0.215471489933479 0 -1.01062317550453 0 0 0 0 0 0 0 0 -0.931279817556982 0 0 0 -0.899185083560808 0 0 0 0 0 0 0 0 0 0 0 0 0 0
0 0 0 0 0 0 0 0 0 0 0 0 0 0 0 0 0 0 0 0 0 -0.215471489933479 0 0 -2.57250786248203 0 0 0 0 -1.09545363895047 0 0 0 0 0 0 0 0 0 0 0 0 0 0 0 0 0 0 0 0
0 0 0 0 0 0 0 0 0 0 0 0.188884403834141 0.661016983119282 0 0 0.0627987111945486 0 0.0655786429703224 0.0877449433623597 0 0.196817976179826 0 -0.215471489933479 0 0 0 0 0 0 0 0 0 0 0 0 0 0 0 0 0 0 0 0 0 0 0 -4.70981708922675 0 -0.450031970481111 0
0 0 0 0 0 0 0 0 0 0 0 0.0559099878419882 0.0435423987036487 0 0 0 0 0 0 0 0 0 0 -0.215471489933479 0 0 0 0 0 0 0 0 0 0 -2.65603038793947 0 0 -0.552331381440385 0 0 0 0 0 0 0 0 0 0 -3.4802766428304 0
0 0 0 0 0 0 0 0 0 0 0 0 0 0 0 0 0 0 0 0 0 0.54783048600604 0 0 -0.215471489933479 0 0 0 0 0 0 0 0 0 0 0 0 -1.10727338627911 0 0 0 0 0 0 0 0 -0.354075941609185 0 -0.300053249401324 0
0 0 0 0 0 0 1.77736213038256 0 0 0 0 0 0 0 0 0 0 0 0 0 0 0 0 0 0 -0.215471489933479 0 0 0 0 0 0 0 0 0 0 -0.0580547255138082 0 0 0 0 0 0 0 0 0 0 0 -0.992890947228925 0
0 0 0 0 0 0 0 0 0 0 0 0 0 0 0 0 0 0 0 0 0 0 0 0 0 0 -0.215471489933479 0 0 0 0 0 0 0 -1.53503158331979 0 -1.83416443068707 -0.940941676291623 0 0 0 0 0 0 0 0 0 0 -2.26472496254203 0
0 0 0 0 0 0 0 0 0 0 0 0.264861226162777 0 0 0 0.248055582595465 0.0461170503978426 0.482660750154295 0 0.389473723728246 0 0 0 0 0 0 0 -0.215471489933479 0 0 0 0 0 0 -1.9222422085742 0 -1.23073673670874 -2.39012330532972 0 0 0 0 0 0 0 0 -0.589106884003526 0 0 0
0 0 0 0 0 0 0 0 0 0 0 0 0 0 0 0 0 0 0 0 0 0 0 0 0 0 0 0 -0.215471489933479 0 0 0 0 0 -2.39803743093165 0 0 0 0 0 0 -4.18796210863966 0 0 0 0 -1.18625525254344 0 0 0
0 0 0 0 0 0 0 0 0 0 0 0 0 0 0 0 0 0 0 0 0 0.199277262654504 0 0 0 0 0 0 0 -0.215471489933479 0 0 0 0 -2.01777214218342 0 0 0 0 0 0 0 0 0 0 0 0 0 0 0
0 0 0 0 0 0 0 0 0 0 0 0 0 0 0 0 0 0 0 0 0 0 0 0 0 0 0 0 0 0 -0.215471489933479 0 0 0 -0.452900497493624 0 0 0 0 0 0 -2.23700844475674 0 0 0 0 0 0 -0.423486936135877 0
0 0 0 0 0 0 0 0 0 0 0 0 0 0 0 0.413945922023397 0.584061399008834 0 0.419940423558194 0.308352849104132 0.176661764180696 0 0 0 0 0 0 0 0 0 0 -0.215471489933479 0 0 0 0 -0.396819835260148 0 0 0 -1.3975381131923 -1.54203088623923 0 0 0 0 -0.526450050817176 0 -1.6058334025573 0
0 0 0 0 0 0 0 0 0 0 0 0 0 0.197597053304619 0 0.123878499828646 0 0 0.298658695135625 0.168281409777521 0 0 0 0 0 0 0 0 0 0 0 0 -0.215471489933479 0 -1.11415735631097 0 0 0 0 0 -0.816966426759553 0 0 -3.03606422807989 0 0 0 0 0 0
0 0 0 0 0 0 0 0 0 0 0 0 0 0 0 0 0 0 0 0 0 0 0 0 0 0 0 0 0 0 0 0 0 -0.215471489933479 0 0 0 0 0 -0.407805859490699 0 -1.84566284697933 0 0 0 0 -0.574835343831634 0 0 0
0 0 0 0 0 0 0 0 0 0 0 0 0 0 0 0 0 0 0 0 0 0 0 0.558209886829939 0 0 0.317522352075846 0.407968476159651 0.47774848682483 0.390269946361163 0.0964061411969274 0 0.239296951805719 0 -0.215471489933479 0 0 0 0 0 0 0 0 -0.644478720310649 0 0 -12.071137357935 0 0 0
0 0 0 0 0 0 0 0.792491928527845 0 0 0.0147635529939851 0.122059540229225 0.112258231802135 0 0 0.155005383890071 0 0.678280120379531 0.337225127102492 0 0.196303985202328 0 0 0 0 0 0 0 0 0 0 0 0 0 0 -0.215471489933479 0 0 0 -4.33705768032953 0 -3.68561792470201 0 0 0 0 -0.743258827388337 0 0 0
0 0 0 0 0 0 0 0 0 0 0 0 0 0 0 0 0 0 0 0 0 0 0 0 0 0.0121841429201297 0.362513292743357 0.237840793751517 0 0 0 0.0727895009814245 0 0 0 0 -0.215471489933479 0 0 0 -1.11001380012097 -0.10089123581487 0 0 0 0 0 0 0 0
0 0 0 0 0 0 0 0 0 0 0 0 0 0 0 0 0 0 0 0 0 0 0 0.108581405445327 0.227250646744258 0 0.190926816738193 0.505983205192338 0 0 0 0 0 0 0 0 0 -0.215471489933479 0 -0.359402671787738 0 0 0 0 0 0 0 0 0 0
0 0 0 0 0 0 0 0 0 0 0 0 0 0 0 0 0 0 0 0 0 0 0 0 0 0 0 0 0 0 0 0 0 0 0 0 0 0 -0.215471489933479 -3.04792506560002 -0.408299399090988 0 0 0 0 0 0 0 0 0
0 0 0 0 0 0 0 0 0 0 0 0 0 0 0 0 0 0 0 0 0 0 0 0 0 0 0 0 0 0 0 0 0 0.0879591180098483 0 0.89183727166729 0 0.0718670541128867 0.598850490464853 -0.215471489933479 0.587056236368696 0.209900540728378 0.0245841009857397 0.154133911327418 0.0790915047633117 0.347840332113203 2.20403165503694 0 0 0
0 0 0 0 0 0 0 0 0 0 0 0 0 0 0 0 0 0 0 0 0 0 0 0 0 0 0 0 0 0 0 0.295047057607275 0.16928553366953 0 0 0 0.244685487206573 0 0.0817118704605303 -3.04459617524498 -0.215471489933479 0 0 0 0 0 0 0 0 0
0 0 0 0 0 0 0 0 0 0 0 0 0 0 0 0 0 0 0 0 0 0 0 0 0 0 0 0 0.824347462900257 0 0.421356004313731 0.325166588794759 0 0.379818572501381 0 0.704403734587773 0.0199861536573161 0 0 -1.13398059503771 0 -0.215471489933479 0 0 0 0 0 0 0 0
0 0 0 0 0 0 0 0 0 0 0 0 0 0 0 0 0 0 0 0 0 0 0 0 0 0 0 0 0 0 0 0 0 0 0 0 0 0 0 -0.127893018470252 0 0 -0.215471489933479 0 0 0 0 0 0 0
0 0 0 0 0 0 0 0 0 0 0 0 0 0 0 0 0 0 0 0 0 0 0 0 0 0 0 0 0 0 0 0 0.598067363756435 0 0.132140991843093 0 0 0 0 -0.811983465509166 0 0 0 -0.215471489933479 0 0 0 0 0 0
0 0 0 0 0 0 0 0 0 0 0 0 0 0 0 0 0 0 0 0 0 0 0 0 0 0 0 0 0 0 0 0 0 0 0 0 0 0 0 -0.370723058311543 0 0 0 0 -0.215471489933479 0 0 0 0 0
0 0.216123355903473 0 0 0 0 0 0.557646754966089 0 0 0 0 0 0 0 0 0 0 0 0 0 0 0 0 0 0 0 0 0 0 0 0 0 0 0 0 0 0 0 -1.81971717039117 0 0 0 0 0 -0.215471489933479 0 0 0 0
0 0 0 0 0 0 0 0 0 0 0 0 0 0 0 0 0 0 0 0 0 0 0.914143865694149 0 0.0705996605218393 0 0 0.117858425184521 0.234411561936248 0 0 0.101363100856065 0 0.116905427992254 2.37413915121261 0.155915980245723 0 0 0 -10.6645268337386 0 0 0 0 0 0 -0.215471489933479 0 0 0
0 0 0 0 0 0 0 0 0 0 0 0.07529002209407 0.466273302592953 0.166036620490492 0 0.156893807961412 0 0 1.01048963155515 0 0 0 0 0 0 0 0 0 0 0 0 0 0 0 0 0 0 0 0 0 0 0 0 0 0 0 0 -0.215471489933479 0 0
0 0 0 0 0 0 0 0 0 0 0 0 0 0 0 0 0 0 0 0 0 0 0.086666657302816 0.731229238922879 0.0635518688004228 0.208005908403355 0.431127943659818 0 0 0 0.0906771353643063 0.283922626647077 0 0 0 0 0 0 0 0 0 0 0 0 0 0 0 0 -0.215471489933479 0
0 0 0 0.0746205896038644 0 0 0 0 0 0 0 0 0 0 0 0 0 0 0 0 0 0 0 0 0 0 0 0 0 0 0 0 0 0 0 0 0 0 0 0 0 0 0 0 0 0 0 0 0 -0.215471489933479
