-0.112650013237478 0 -0.445229463845313 0 0 0 0 0 0 0 0 0 0 0 0 0 0 0 0 0 0 0 0 0 0 0 0 0 0 0 0 0 0 0 0 0 0 0 0 0 0 0 0 0 0 0 0 0 0 0
0 -0.112650013237478 0 0 0 0 0 0 0 0 0 0 0 0 0 0 0 0 0 0 -1.07363900471276 0 0 0 0 0 0 0 0 0 0 0 0 0 0 0 0 0 0 0 0 0 0 0 0 -5.09812923972199 0 0 0 0
0.0927733806419369 0 -0.112650013237478 0 0 0 0 0 0 0 0 0 0 0 0 0 0 0 0 0 -0.251762638750045 0 0 0 0 0 0 0 0 0 0 0 0 0 0 0 0 0 0 0 0 0 0 0 0 0 0 0 0 0
0 0 0 -0.112650013237478 -1.43454956268329 0 0 0 0 0 0 0 0 0 0 0 0 0 0 0 -0.183868889490222 0 0 0 0 0 0 0 0 0 0 0 0 0 0 0 0 0 0 0 0 0 0 0 0 0 0 0 0 -1.55401175476656
0 0 0 0.288953819554374 -0.112650013237478 0 0 0 0 0 0 0 0 0 0 0 0 0 0 0 -2.72041990384876 0 0 0 0 0 0 0 0 0 0 0 0 0 0 0 0 0 0 0 0 0 0 0 0 0 0 0 0 0
0 0 0 0 0 -0.112650013237478 0 -0.337434772590594 0 -0.308871267470813 0 0 0 0 0 0 0 0 0 0 -0.977879705048454 0 0 0 0 0 0 0 0 0 0 0 0 0 0 0 0 0 0 0 0 0 0 0 0 0 0 0 0 0
0 0 0 0 0 0 -0.112650013237478 0 0 -1.39036400572351 0 0 0 0 0 0 0 0 0 0 0 0 0 0 0 -0.205792255095791 0 0 0 0 0 0 0 0 0 0 0 0 0 0 0 0 0 0 0 0 0 0 0 0
0 0 0 0 0 0.0663364761105803 0 -0.112650013237478 -1.29203592519039 -0.347013762525649 0 0 0 0 0 0 0 0 0 0 0 0 0 0 0 0 0 0 0 0 0 0 0 0 0 -0.131294480802418 0 0 0 0 0 0 0 0 0 -0.853650951244594 0 0 0 0
0 0 0 0 0 0 0 0.244233784494704 -0.112650013237478 0 0 0 0 0 0 0 0 0 0 -7.03303791607204 0 0 0 0 0 0 0 0 0 0 0 0 0 0 0 0 0 0 0 0 0 0 0 0 0 0 0 0 0 0
0 0 0 0 0 0.0588129872910801 0.271053356639249 0.0761943117574729 0 -0.112650013237478 0 0 0 0 -0.77629814072511 0 0 0 0 0 0 0 0 0 0 0 0 0 0 0 0 0 0 0 0 0 0 0 0 0 0 0 0 0 0 0 0 0 0 0
0 0 0 0 0 0 0 0 0 0 -0.112650013237478 0 0 -0.663872668493346 -0.414889487395941 0 0 0 0 0 0 0 0 0 0 0 0 0 0 0 0 0 0 0 0 -1.0496812397317 0 0 0 0 0 0 0 0 0 0 0 0 0 0
0 0 0 0 0 0 0 0 0 0 0 -0.112650013237478 0 0 -1.294086154977 0 0 0 0 0 0 0 -0.34712679594502 -1.23037849022374 0 0 0 -1.4989088814255 0 0 0 0 0 0 0 -0.293161818430936 0 0 0 0 0 0 0 0 0 0 0 -1.91928728000081 0 0
0 0 0 0 0 0 0 0 0 0 0 0 -0.112650013237478 -0.578555204225728 0 0 0 -2.01167513441818 0 0 0 0 -0.483140204441485 -0.149394887571911 0 0 0 0 0 0 0 0 0 0 0 -1.16363777976633 0 0 0 0 0 0 0 0 0 0 0 -0.359619724676366 0 0
0 0 0 0 0 0 0 0 0 0 0.141277493779116 0 0.13110443598592 -0.112650013237478 0 0 0 0 0 0 0 0 0 0 0 0 0 0 0 0 0 0 -0.81109631507965 0 0 0 0 0 0 0 0 0 0 0 0 0 0 -0.142342395182489 0 0
0 0 0 0 0 0 0 0 0 0.154290445028815 0.0740604175767505 0.263912783113656 0 0 -0.112650013237478 0 0 0 0 0 0 0 0 0 0 0 0 0 0 0 0 0 0 0 0 0 0 0 0 0 0 0 0 0 0 0 0 0 0 0
0 0 0 0 0 0 0 0 0 0 0 0 0 0 0 -0.112650013237478 0 0 0 0 0 0 -3.30286663356581 0 0 0 0 -2.11455123316911 0 0 0 -0.329680677303189 -1.89820953601096 0 0 -0.28928490285977 0 0 0 0 0 0 0 0 0 0 0 -3.00586664502214 0 0
0 0 0 0 0 0 0 0 0 0 0 0 0 0 0 0 -0.112650013237478 0 0 0 0 0 0 0 0 0 0 -3.16070431475634 0 0 0 -1.03230419243398 0 0 0 0 0 0 0 0 0 0 0 0 0 0 0 0 0 0
0 0 0 0 0 0 0 0 0 0 0 0 0.429453553930288 0 0 0 0 -0.112650013237478 0 0 0 0 -0.508013026105558 0 0 0 0 -0.440568195524025 0 0 0 0 0 0 0 -0.323915816228885 0 0 0 0 0 0 0 0 0 0 0 0 0 0
0 0 0 0 0 0 0 0 0 0 0 0 0 0 0 0 0 0 -0.112650013237478 0 0 0 -2.09724301631567 0 0 0 0 0 0 0 0 -0.0859873920196644 -1.80113859303544 0 0 -0.62690133100207 0 0 0 0 0 0 0 0 0 0 0 -0.727952580112317 0 0
0 0 0 0 0 0 0 0 1.46381578872837 0 0 0 0 0 0 0 0 0 0 -0.112650013237478 0 0 0 0 0 0 0 -0.3013078386776 0 0 0 -0.475218103676493 -5.8414960748895 0 0 0 0 0 0 0 0 0 0 0 0 0 0 0 0 0
0 0.199024543432495 0.0531892341633694 0.0348445372729647 0.595512945789133 0.194072155944458 0 0 0 0 0 0 0 0 0 0 0 0 0 0 -0.112650013237478 0 -1.69376770027415 0 0 0 0 0 0 0 0 -1.83423596581396 0 0 0 -1.26858280264978 0 0 0 0 0 0 0 0 0 0 0 0 0 0
0 0 0 0 0 0 0 0 0 0 0 0 0 0 0 0 0 0 0 0 0 -0.112650013237478 0 0 -0.456205388277933 0 0 0 0 -3.09115688242057 0 0 0 0 0 0 0 0 0 0 0 0 0 0 0 0 0 0 0 0
0 0 0 0 0 0 0 0 0 0 0 0.068592479676952 0.102781843276663 0 0 0.709603248160437 0 0.102716230637222 0.412513249698408 0 0.349032161808407 0 -0.112650013237478 0 0 0 0 0 0 0 0 0 0 0 0 0 0 0 0 0 0 0 0 0 0 0 -4.36511975392062 0 -0.849553201920323 0
0 0 0 0 0 0 0 0 0 0 0 0.260864790617077 0.0298370353600135 0 0 0 0 0 0 0 0 0 0 -0.112650013237478 0 0 0 0 0 0 0 0 0 0 -0.0914559693982589 0 0 -0.173261216649579 0 0 0 0 0 0 0 0 0 0 -0.935780001771732 0
0 0 0 0 0 0 0 0 0 0 0 0 0 0 0 0 0 0 0 0 0 0.095866349657887 0 0 -0.112650013237478 0 0 0 0 0 0 0 0 0 0 0 0 -1.6884334752151 0 0 0 0 0 0 0 0 -0.314489738655485 0 -0.289709582574491 0
0 0 0 0 0 0 0.0428142294747451 0 0 0 0 0 0 0 0 0 0 0 0 0 0 0 0 0 0 -0.112650013237478 0 0 0 0 0 0 0 0 0 0 -1.0651850853943 0 0 0 0 0 0 0 0 0 0 0 -0.873970769118498 0
0 0 0 0 0 0 0 0 0 0 0 0 0 0 0 0 0 0 0 0 0 0 0 0 0 0 -0.112650013237478 0 0 0 0 0 0 0 -5.79012780379521 0 -1.21408343478512 -0.381153886340218 0 0 0 0 0 0 0 0 0 0 -8.4154805750664 0
0 0 0 0 0 0 0 0 0 0 0 0.293598436583841 0 0 0 0.410672341113081 0.679069526287568 0.0901360657631885 0 0.0612839753942037 0 0 0 0 0 0 0 -0.112650013237478 0 0 0 0 0 0 -0.161463432730399 0 -0.287810612487852 -1.70958774130897 0 0 0 0 0 0 0 0 -4.52443766262984 0 0 0
0 0 0 0 0 0 0 0 0 0 0 0 0 0 0 0 0 0 0 0 0 0 0 0 0 0 0 0 -0.112650013237478 0 0 0 0 0 -0.736658018031132 0 0 0 0 0 0 -2.8521086355085 0 0 0 0 -0.36790108260772 0 0 0
0 0 0 0 0 0 0 0 0 0 0 0 0 0 0 0 0 0 0 0 0 0.654760719370039 0 0 0 0 0 0 0 -0.112650013237478 0 0 0 0 -1.51152959684807 0 0 0 0 0 0 0 0 0 0 0 0 0 0 0
0 0 0 0 0 0 0 0 0 0 0 0 0 0 0 0 0 0 0 0 0 0 0 0 0 0 0 0 0 0 -0.112650013237478 0 0 0 -0.494684875717381 0 0 0 0 0 0 -0.151252815471794 0 0 0 0 0 0 -1.48384918338296 0
0 0 0 0 0 0 0 0 0 0 0 0 0 0 0 0.0616152366534109 0.1993341427925 0 0.0165118146610809 0.0983745569314478 0.375527735877433 0 0 0 0 0 0 0 0 0 0 -0.112650013237478 0 0 0 0 -1.83306829367387 0 0 0 -0.770356901890565 -0.325666923445604 0 0 0 0 -1.20494908163775 0 -0.427228524021715 0
0 0 0 0 0 0 0 0 0 0 0 0 0 0.166948290998962 0 0.363987861927017 0 0 0.366897095568948 1.09328997248574 0 0 0 0 0 0 0 0 0 0 0 0 -0.112650013237478 0 -1.73701588185035 0 0 0 0 0 -0.430701377358467 0 0 -0.34222218309969 0 0 0 0 0 0
0 0 0 0 0 0 0 0 0 0 0 0 0 0 0 0 0 0 0 0 0 0 0 0 0 0 0 0 0 0 0 0 0 -0.112650013237478 0 0 0 0 0 -5.32530436656071 0 -0.927419165346647 0 0 0 0 -0.674389052421269 0 0 0
0 0 0 0 0 0 0 0 0 0 0 0 0 0 0 0 0 0 0 0 0 0 0 0.0184062364604827 0 0 1.08510813932831 0.0311767221582057 0.14967097909495 0.319727326740798 0.0940952217680386 0 0.357409264892059 0 -0.112650013237478 0 0 0 0 0 0 0 0 -0.774985354320469 0 0 -4.42468734410989 0 0 0
0 0 0 0 0 0 0 0.025206816198049 0 0 0.196005236125166 0.0581881609714209 0.207234030980824 0 0 0.0551659248505526 0 0.0621186693609398 0.115345979405944 0 0.261590237165343 0 0 0 0 0 0 0 0 0 0 0 0 0 0 -0.112650013237478 0 0 0 -0.103606002492597 0 -1.30576903155768 0 0 0 0 -0.577500237108393 0 0 0
0 0 0 0 0 0 0 0 0 0 0 0 0 0 0 0 0 0 0 0 0 0 0 0 0 0.213986704440308 0.238089082520811 0.0603237284053787 0 0 0 0.370670246686581 0 0 0 0 -0.112650013237478 0 0 0 -0.657016911001952 -2.2531347402073 0 0 0 0 0 0 0 0
0 0 0 0 0 0 0 0 0 0 0 0 0 0 0 0 0 0 0 0 0 0 0 0.0348776244209681 0.364073843827919 0 0.0778426326024482 0.364411859112561 0 0 0 0 0 0 0 0 0 -0.112650013237478 0 -0.97182893817059 0 0 0 0 0 0 0 0 0 0
0 0 0 0 0 0 0 0 0 0 0 0 0 0 0 0 0 0 0 0 0 0 0 0 0 0 0 0 0 0 0 0 0 0 0 0 0 0 -0.112650013237478 -0.833875003046372 -0.213014408241629 0 0 0 0 0 0 0 0 0
0 0 0 0 0 0 0 0 0 0 0 0 0 0 0 0 0 0 0 0 0 0 0 0 0 0 0 0 0 0 0 0 0 1.02885565585211 0 0.0225940837336249 0 0.182837076506141 0.164148505870732 -0.112650013237478 0.141851061557347 0.14908850186548 0.205108491881202 0.268989371870655 0.362843286331763 0.0464211770134194 0.147256249328023 0 0 0
0 0 0 0 0 0 0 0 0 0 0 0 0 0 0 0 0 0 0 0 0 0 0 0 0 0 0 0 0 0 0 0.16810269651397 0.0870073972260341 0 0 0 0.139511034107575 0 0.0447292470167955 -0.734177355807641 -0.112650013237478 0 0 0 0 0 0 0 0 0
0 0 0 0 0 0 0 0 0 0 0 0 0 0 0 0 0 0 0 0 0 0 0 0 0 0 0 0 0.588037723320105 0 0.0329277870544313 0.0659215813926464 0 0.183414614723995 0 0.259927187137949 0.456000315490381 0 0 -0.676664944935935 0 -0.112650013237478 0 0 0 0 0 0 0 0
0 0 0 0 0 0 0 0 0 0 0 0 0 0 0 0 0 0 0 0 0 0 0 0 0 0 0 0 0 0 0 0 0 0 0 0 0 0 0 -0.996664380037251 0 0 -0.112650013237478 0 0 0 0 0 0 0
0 0 0 0 0 0 0 0 0 0 0 0 0 0 0 0 0 0 0 0 0 0 0 0 0 0 0 0 0 0 0 0 0.068617920190556 0 0.154102317622762 0 0 0 0 -1.31291432836893 0 0 0 -0.112650013237478 0 0 0 0 0 0
0 0 0 0 0 0 0 0 0 0 0 0 0 0 0 0 0 0 0 0 0 0 0 0 0 0 0 0 0 0 0 0 0 0 0 0 0 0 0 -1.71665946314801 0 0 0 0 -0.112650013237478 0 0 0 0 0
0 1.04919580281776 0 0 0 0 0 0.183110477807351 0 0 0 0 0 0 0 0 0 0 0 0 0 0 0 0 0 0 0 0 0 0 0 0 0 0 0 0 0 0 0 -0.240455522581201 0 0 0 0 0 -0.112650013237478 0 0 0 0
0 0 0 0 0 0 0 0 0 0 0 0 0 0 0 0 0 0 0 0 0 0 0.93348025278697 0 0.0608347889124842 0 0 0.91435211918226 0.0735324727200914 0 0 0.236753419195824 0 0.123849489040131 0.883578316744854 0.112934235910027 0 0 0 -0.759895361322222 0 0 0 0 0 0 -0.112650013237478 0 0 0
0 0 0 0 0 0 0 0 0 0 0 0.37987345552814 0.0667202903114393 0.0262136870799832 0 0.624737440134868 0 0 0.155415491404316 0 0 0 0 0 0 0 0 0 0 0 0 0 0 0 0 0 0 0 0 0 0 0 0 0 0 0 0 -0.112650013237478 0 0
0 0 0 0 0 0 0 0 0 0 0 0 0 0 0 0 0 0 0 0 0 0 0.190323795220607 0.18984446514844 0.0597234615309402 0.16842940105362 1.86104695689248 0 0 0 0.251117238755197 0.0852056216582691 0 0 0 0 0 0 0 0 0 0 0 0 0 0 0 0 -0.112650013237478 0
0 0 0 0.290860763396012 0 0 0 0 0 0 0 0 0 0 0 0 0 0 0 0 0 0 0 0 0 0 0 0 0 0 0 0 0 0 0 0 0 0 0 0 0 0 0 0 0 0 0 0 0 -0.112650013237478
