-0.172896458455393 0 0 0 0 0 0 0 0 0 0 0 0 0 0 -1.02828426155091 0 0 0 0 0 0 0 0 0 0 0 0 0 0 0 0 0 0 0 0 0 0 0 0 0 0 0 0 0 0 0 0 0 0
0 -0.172896458455393 0 -1.61744282433332 0 0 -0.603155807353933 0 0 0 0 0 0 0 0 -1.07951059027371 0 0 0 0 0 0 0 0 0 0 0 0 0 0 0 0 0 0 0 0 0 0 0 0 0 0 0 0 0 0 0 0 0 0
0 0 -0.172896458455393 0 0 0 0 0 0 0 0 -3.74531519695037 0 0 -1.04042312090228 0 0 0 0 0 -1.12762613367926 0 0 0 0 0 0 0 0 0 0 0 0 0 0 0 0 0 0 0 0 0 0 0 0 0 0 0 0 0
0 0.306234477306903 0 -0.172896458455393 0 0 0 0 -0.745762079513428 0 0 0 0 0 0 -1.70697944859169 0 0 0 0 -1.58967492202416 0 0 0 0 0 0 0 0 0 0 0 0 0 0 0 0 0 0 0 0 0 0 0 0 0 0 0 0 0
0 0 0 0 -0.172896458455393 0 0 0 0 -0.723100752432774 0 -1.02281571820282 0 0 -2.10898374335765 -2.56809333831551 0 0 0 0 0 0 0 0 0 0 0 0 0 0 0 0 0 0 0 0 0 0 0 0 0 0 0 0 0 0 0 0 0 0
0 0 0 0 0 -0.172896458455393 0 0 0 -0.270839359114008 0 -0.724526968967317 0 0 0 0 0 0 0 0 0 0 0 0 0 -1.41038265429006 -2.80255153255194 0 0 0 0 0 0 0 0 0 0 0 0 0 0 0 0 0 0 0 0 0 0 0
0 0.125990670191959 0 0 0 0 -0.172896458455393 0 0 -0.205224562352225 -3.80521664498834 -0.633682254820417 0 0 0 -0.325326467580993 0 0 0 0 0 0 0 0 0 0 0 0 0 0 0 0 0 0 0 0 0 0 0 0 0 0 0 0 0 0 0 0 0 0
0 0 0 0 0 0 0 -0.172896458455393 0 0 -0.416265503011129 -0.203718797818894 0 0 -0.412521147616246 -0.651199775663873 0 0 0 0 0 0 0 0 0 0 0 0 0 0 0 0 0 0 0 0 0 0 0 0 0 0 0 0 0 0 0 0 0 0
0 0 0 0.151167224193196 0 0 0 0 -0.172896458455393 -4.47257681241419 0 0 0 0 0 0 -0.487687030545153 0 0 0 0 0 0 0 0 0 0 0 0 0 -2.80275046644774 0 0 0 0 0 0 0 0 0 0 0 0 0 0 0 0 0 0 0
0 0 0 0 0.14092924830286 0.0505043975934688 0.0419436808720535 0 0.877247328040659 -0.172896458455393 0 0 0 0 0 0 -0.359374929025947 0 0 0 0 0 0 0 0 0 0 0 0 0 -2.95816163647402 0 0 0 0 0 0 0 0 0 0 0 0 0 0 0 0 0 0 0
0 0 0 0 0 0 0.746069761159293 0.0829382892536455 0 0 -0.172896458455393 0 0 0 -0.558456938765252 0 -1.30370283105373 0 0 0 0 0 0 -0.420750954020549 0 -2.49338190311972 0 0 0 0 0 0 0 0 0 0 0 0 0 0 0 0 0 0 0 0 0 0 0 0
0 0 0.737834357420839 0 0.206818919622403 0.144345444336298 0.121459438547963 0.0402161850272342 0 0 0 -0.172896458455393 0 0 0 0 0 0 0 0 0 0 0 0 0 -0.190690664561916 0 0 -0.136751743754464 0 0 0 0 0 0 0 0 0 0 0 0 0 0 0 0 0 0 0 0 0
0 0 0 0 0 0 0 0 0 0 0 0 -0.172896458455393 0 0 0 0 -0.824378042616079 0 0 0 0 0 0 0 0 0 0 0 -2.75427684341278 0 0 0 0 0 0 -4.81043278734175 0 0 -0.300051474810828 0 0 0 0 0 0 0 0 0 -0.132366274737589
0 0 0 0 0 0 0 0 0 0 0 0 0 -0.172896458455393 0 0 0 -1.12940178677806 0 0 0 0 0 0 0 0 0 0 0 0 0 0 0 0 0 0 0 0 0 -0.481514845914386 0 0 0 0 0 0 0 0 0 -0.670963360063391
0 0 0.216868034874396 0 0.378272134293498 0 0 0.0797027338515837 0 0 0.115431849353423 0 0 0 -0.172896458455393 0 -0.29673796699042 -0.758210070821545 0 0 0 0 0 0 0 0 0 0 0 -0.570330706976463 0 0 0 0 0 0 0 0 0 0 0 0 0 0 0 0 0 0 0 0
0.219729337322053 0.207845247850165 0 0.356150638848273 0.497950359537419 0 0.0646299702474629 0.129079212989456 0 0 0 0 0 0 0 -0.172896458455393 0 -0.51272953611412 0 0 0 0 0 0 0 0 0 0 0 0 0 0 0 0 -0.974597466246322 0 -0.492806105751855 0 0 -0.259603569113398 0 0 -0.712293472373944 0 0 0 0 -0.681155846615345 0 0
0 0 0 0 0 0 0 0 0.098495622878255 0.0661977015874013 0.25437712573865 0 0 0 0.0550390805021657 0 -0.172896458455393 0 0 0 0 0 0 0 0 0 0 0 0 0 0 0 0 0 -0.267870180319898 0 -4.47356794808559 0 0 0 0 -0.70003406646799 -3.98038265375287 0 0 0 0 0 0 0
0 0 0 0 0 0 0 0 0 0 0 0 0.162861240217462 0.217708106373911 0.138100440857221 0.0943509183658633 0 -0.172896458455393 -1.53014121801468 0 0 0 0 0 0 0 0 0 0 0 0 0 0 0 -7.84087163166952 0 0 0 0 0 0 0 0 -0.69380955327377 0 0 0 0 0 0
0 0 0 0 0 0 0 0 0 0 0 0 0 0 0 0 0 0.285785692897386 -0.172896458455393 0 0 0 0 0 0 0 0 0 0 0 0 0 0 0 0 -2.17110105713856 -1.44951677428223 0 0 0 0 -2.94387371867229 -0.284685264357896 -1.72433180788194 0 0 0 0 0 -0.273896423120294
0 0 0 0 0 0 0 0 0 0 0 0 0 0 0 0 0 0 0 -0.172896458455393 0 0 0 0 0 0 0 0 0 0 0 0 0 0 0 -0.754175991555477 -1.30759832661839 0 0 0 0 0 -1.59975598056329 -0.752640993898878 0 0 0 0 0 0
0 0 0.216175030832779 0.33268187997544 0 0 0 0 0 0 0 0 0 0 0 0 0 0 0 0 -0.172896458455393 0 0 0 0 0 0 0 0 0 0 0 0 0 0 -1.06972808429076 0 0 0 0 0 -1.30178981723188 -0.418820516991505 -1.88604476993426 0 0 0 0 0 0
0 0 0 0 0 0 0 0 0 0 0 0 0 0 0 0 0 0 0 0 0 -0.172896458455393 0 0 -0.203279669642185 0 0 0 0 0 0 0 0 0 0 0 -1.44747456196475 0 0 0 0 0 0 0 0 0 0 0 0 -0.245435620030775
0 0 0 0 0 0 0 0 0 0 0 0 0 0 0 0 0 0 0 0 0 0 -0.172896458455393 0 -11.760560153354 0 0 0 0 0 0 0 0 0 0 -0.416223122913768 0 0 0 0 0 0 -1.04616111800956 0 0 0 0 0 0 0
0 0 0 0 0 0 0 0 0 0 0.0870000328736207 0 0 0 0 0 0 0 0 0 0 0 0 -0.172896458455393 0 0 0 0 0 0 0 0 0 0 0 0 0 0 0 0 0 -1.23942958260975 -0.73178631980854 -1.09345253684223 0 0 0 0 0 -1.36693739576715
0 0 0 0 0 0 0 0 0 0 0 0 0 0 0 0 0 0 0 0 0 0.0390960702399895 2.24336105293559 0 -0.172896458455393 0 0 0 0 0 0 0 0 0 0 -0.580422432977675 0 0 0 0 0 -0.443758114082709 -2.17879489597147 -0.439318147684798 0 0 0 0 0 -3.51849062327419
0 0 0 0 0 0.265476270414965 0 0 0 0 0.501651013292452 0.0391885095051993 0 0 0 0 0 0 0 0 0 0 0 0 0 -0.172896458455393 0 0 0 0 0 0 0 0 0 0 0 0 0 0 0 -0.981813066612569 0 0 0 0 0 0 0 -5.31356515821633
0 0 0 0 0 0.597007155366929 0 0 0 0 0 0 0 0 0 0 0 0 0 0 0 0 0 0 0 0 -0.172896458455393 0 0 0 0 0 0 0 0 -0.164829860657048 0 0 0 0 0 -0.850756302342876 -0.946291365642376 -1.17899362342079 0 0 0 0 0 -1.49637498094553
0 0 0 0 0 0 0 0 0 0 0 0 0 0 0 0 0 0 0 0 0 0 0 0 0 0 0 -0.172896458455393 0 0 0 0 0 0 0 0 0 0 0 0 0 -4.89802965059891 -1.3816131787487 0 0 0 0 0 0 0
0 0 0 0 0 0 0 0 0 0 0 0.0264003128607007 0 0 0 0 0 0 0 0 0 0 0 0 0 0 0 0 -0.172896458455393 0 0 -2.22092022464153 0 -4.1273072635079 0 0 0 0 0 0 0 -3.04052860487031 0 0 0 0 0 0 0 0
0 0 0 0 0 0 0 0 0 0 0 0 0.551284459965857 0 0.112689797770469 0 0 0 0 0 0 0 0 0 0 0 0 0 0 -0.172896458455393 0 0 0 -0.128381353373261 0 -0.162764776694311 0 -0.712534544788337 0 0 0 -1.66256160888651 0 0 0 0 0 0 0 0
0 0 0 0 0 0 0 0 0.604720639706658 0.629749669659227 0 0 0 0 0 0 0 0 0 0 0 0 0 0 0 0 0 0 0 0 -0.172896458455393 0 0 0 0 -2.84131638352998 0 -0.184893523869317 0 0 -0.445952901361418 -11.0470431864391 0 0 0 -0.509865195663913 0 0 0 -1.07407295695122
0 0 0 0 0 0 0 0 0 0 0 0 0 0 0 0 0 0 0 0 0 0 0 0 0 0 0 0 0.480872185274006 0 0 -0.172896458455393 0 0 0 0 0 0 0 0 0 -0.229607436318177 0 0 0 0 0 0 0 -0.958625866261954
0 0 0 0 0 0 0 0 0 0 0 0 0 0 0 0 0 0 0 0 0 0 0 0 0 0 0 0 0 0 0 0 -0.172896458455393 -0.0921474661137181 0 0 0 0 0 0 0 -0.414377539454819 0 0 0 0 0 0 0 -5.0471012057599
0 0 0 0 0 0 0 0 0 0 0 0 0 0 0 0 0 0 0 0 0 0 0 0 0 0 0 0 0.794689753187702 0.0272303754733362 0 0 0.0188659057118968 -0.172896458455393 0.38609375621789 0 0 0 0 0 0 0 0 0 0 -3.3201824184733 0 0 0 -1.58845921799326
0 0 0 0 0 0 0 0 0 0 0 0 0 0 0 0.176112632218754 0.0499991937877805 1.55702027692023 0 0 0 0 0 0 0 0 0 0 0 0 0 0 0 -1.8442354379809 -0.172896458455393 0 0 0 0 0 -3.6461791698283 0 0 0 0 -2.04770369078079 0 0 0 -1.22738653549051
0 0 0 0 0 0 0 0 0 0 0 0 0 0 0 0 0 0 0.458637261145332 0.147692713073379 0.219618064211862 0 0.0844477678591428 0 0.125715766728548 0 0.0303010656087992 0 0 0.0317003464581629 0.579742993809286 0 0 0 0 -0.172896458455393 0 0 0 0 0 0 0 0 0 -0.226020202102088 0 0 0 -0.399113566086465
0 0 0 0 0 0 0 0 0 0 0 0 0.986782506542213 0 0 0.102167001181642 0.878212852511092 0 0.312816518329641 0.270131616347916 0 0.278054865947145 0 0 0 0 0 0 0 0 0 0 0 0 0 0 -0.172896458455393 0 -0.855676740195212 0 0 0 0 0 0 0 -1.17178971054825 0 -0.154923769279084 0
0 0 0 0 0 0 0 0 0 0 0 0 0 0 0 0 0 0 0 0 0 0 0 0 0 0 0 0 0 0.146928343146348 0.0386921823755658 0 0 0 0 0 0 -0.172896458455393 0 0 0 0 0 0 0 0 -0.605072809984474 0 0 0
0 0 0 0 0 0 0 0 0 0 0 0 0 0 0 0 0 0 0 0 0 0 0 0 0 0 0 0 0 0 0 0 0 0 0 0 0.171178900774019 0 -0.172896458455393 0 0 0 0 0 0 0 0 0 0 0
0 0 0 0 0 0 0 0 0 0 0 0 0.0566730227289024 0.105821693622237 0 0.0477389364345017 0 0 0 0 0 0 0 0 0 0 0 0 0 0 0 0 0 0 0 0 0 0 0 -0.172896458455393 0 0 0 0 0 0 0 0 -0.360880573685637 0
0 0 0 0 0 0 0 0 0 0 0 0 0 0 0 0 0 0 0 0 0 0 0 0 0 0 0 0 0 0 0.0835925678419769 0 0 0 0.797785396465756 0 0 0 0 0 -0.172896458455393 0 0 0 0 0 0 0 -1.54560949795744 0
0 0 0 0 0 0 0 0 0 0 0 0 0 0 0 0 0.164847188682795 0 0.58396640917662 0 0.265320992456326 0 0 0.240320331760002 0.0960276319671268 0.190794342162576 0.17737791939177 0.986418255012828 0.64426952154389 0.347883454349253 2.31309787875371 0.045793139986072 0.0941170346785187 0 0 0 0 0 0 0 0 -0.172896458455393 0 0 -0.881246436289633 0 0 0 -0.603741285838088 0
0 0 0 0 0 0 0 0 0 0 0 0 0 0 0 0.15280817831478 0.750052367298542 0 0.0550632611826406 0.309732368407143 0.0776839921255008 0 0.201074363231786 0.151164526760139 0.462166004027486 0 0.185177631746587 0.292750144769556 0 0 0 0 0 0 0 0 0 0 0 0 0 0 -0.172896458455393 0 -2.52558617767549 0 0 0 -1.75723853132095 0
0 0 0 0 0 0 0 0 0 0 0 0 0 0 0 0 0 0.149381030533829 0.328506605841254 0.1562744365661 0.366256847158654 0 0 0.217844189509296 0.0809926490319381 0 0.220377628680471 0 0 0 0 0 0 0 0 0 0 0 0 0 0 0 0 -0.172896458455393 0 0 0 0 0 0
0 0 0 0 0 0 0 0 0 0 0 0 0 0 0 0 0 0 0 0 0 0 0 0 0 0 0 0 0 0 0 0 0 0 0 0 0 0 0 0 0 0.176491365432336 0.488356333782612 0 -0.172896458455393 0 0 0 0 0
0 0 0 0 0 0 0 0 0 0 0 0 0 0 0 0 0 0 0 0 0 0 0 0 0 0 0 0 0 0 0.103110083577813 0 0 0.667687425529022 0.411805229968879 0.0446491106471501 0 0 0 0 0 0 0 0 0 -0.172896458455393 0 0 0 0
0 0 0 0 0 0 0 0 0 0 0 0 0 0 0 0 0 0 0 0 0 0 0 0 0 0 0 0 0 0 0 0 0 0 0 0 0.230394438434341 0.130108413938347 0 0 0 0 0 0 0 0 -0.172896458455393 0 0 0
0 0 0 0 0 0 0 0 0 0 0 0 0 0 0 0.141435393488512 0 0 0 0 0 0 0 0 0 0 0 0 0 0 0 0 0 0 0 0 0 0 0 0 0 0 0 0 0 0 0 -0.172896458455393 0 0
0 0 0 0 0 0 0 0 0 0 0 0 0 0 0 0 0 0 0 0 0 0 0 0 0 0 0 0 0 0 0 0 0 0 0 0 0.0325102149435334 0 0 0.0667121301851688 0.314476090718837 0.117495772336104 0.343549824994806 0 0 0 0 0 -0.172896458455393 0
0 0 0 0 0 0 0 0 0 0 0 0 0.0255555876483201 0.127910045803367 0 0 0 0 0.0526030093779471 0 0 0.050561263611234 0 0.274078795249691 0.726766767121551 1.03917582200911 0.280735521062652 0 0 0 0.203445696538904 0.190117799427585 1.01603377856364 0.311462429180183 0.256178586037624 0.0771152215763342 0 0 0 0 0 0 0 0 0 0 0 0 0 -0.172896458455393
