-0.147637476031612 0 0 0 0 0 0 0 0 -4.19202010211058 0 0 0 0 0 0 0 -0.766630738128304 0 0 0 0 0 0 0 0 0 0 0 0 0 0 0 0 0 0 0 0 0 0 0 0 0 0 0 0 0 0 0 0
0 -0.147637476031612 0 0 0 0 0 0 0 0 0 -1.32911532765621 0 0 0 -0.806906345845973 0 -2.12929882429736 0 0 0 -0.9415658312908 0 0 0 0 0 0 0 0 0 0 0 0 0 0 0 0 0 0 0 0 0 0 0 0 0 0 0 0
0 0 -0.147637476031612 0 0 0 0 0 0 -3.29316650166693 0 -0.564271619936844 0 0 0 -1.56839623744376 0 -0.837321267143066 0 0 0 0 0 0 0 0 0 0 0 0 -0.261638052077861 0 0 0 0 0 0 0 0 0 0 0 0 0 0 0 0 0 0 0
0 0 0 -0.147637476031612 -0.380915618234325 -0.375063813177791 0 0 0 0 0 -0.450941012995198 0 0 -1.3203092894241 0 0 0 0 0 0 0 0 0 0 0 0 0 0 0 0 0 0 0 0 0 0 0 0 0 0 0 0 0 0 0 0 0 0 0
0 0 0 0.0742113015623365 -0.147637476031612 0 0 0 0 0 0 -0.654432023019674 0 0 -1.37522190965641 0 0 0 -1.51674032507734 0 -0.431111211921666 0 0 0 0 0 0 0 0 0 0 0 0 0 0 0 0 0 0 0 0 0 0 0 0 0 0 0 0 0
0 0 0 0.0786423145585203 0 -0.147637476031612 0 0 0 0 0 -2.74970937194135 0 0 0 -0.348112011771306 0 0 0 0 -0.925356014415585 0 0 0 0 0 0 0 0 0 0 0 0 0 0 0 0 0 0 0 0 0 0 0 0 0 0 0 0 0
0 0 0 0 0 0 -0.147637476031612 0 0 0 0 0 0 0 -0.468117065453257 -1.71773048399805 0 0 -1.75298050222492 0 0 0 0 0 0 0 0 0 0 0 0 0 0 0 0 0 0 0 0 0 0 0 0 0 0 0 0 0 0 0
0 0 0 0 0 0 0 -0.147637476031612 0 0 0 0 0 0 0 0 0 0 0 0 -0.929006701514212 0 0 0 0 0 0 0 0 0 0 0 0 0 0 0 0 0 0 0 0 0 0 0 0 0 0 0 0 0
0 0 0 0 0 0 0 0 -0.147637476031612 0 0 0 0 0 -0.111390259942402 -0.54875830886789 0 0 0 0 -1.96425459861943 0 0 0 0 0 0 0 0 0 0 0 0 -2.50960432040805 0 0 0 0 -0.552965589207469 0 0 0 0 0 0 0 0 0 0 -1.79154620271522
0.844477426039554 0 0.647829512503 0 0 0 0 0 0 -0.147637476031612 0 0 -0.814115353256199 0 0 0 0 0 0 0 0 0 0 0 0 0 0 0 0 0 0 0 0 0 0 0 0 0 -1.41232076921602 0 0 0 0 0 0 0 0 0 -2.3323005415841 0
0 0 0 0 0 0 0 0 0 0 -0.147637476031612 0 -2.48856305387243 0 0 -1.05336695525868 0 0 0 0 0 0 0 0 0 -0.205857004205717 0 0 0 0 0 0 0 0 0 0 0 0 -0.648499534390441 0 0 0 0 0 0 0 0 0 -1.49732887437619 0
0 0.25402153149025 0.107300207309198 0.090143258915516 0.119076951219637 0.57237094863477 0 0 0 0 0 -0.147637476031612 -1.51442713161575 0 0 0 0 0 0 0 0 0 0 0 0 -2.7927632746456 0 0 0 0 0 0 0 0 0 0 0 0 0 0 0 0 0 0 0 0 0 0 -6.35711818042889 0
0 0 0 0 0 0 0 0 0 0.169989866002977 0.510053076861631 0.282547872525087 -0.147637476031612 0 0 0 0 0 0 0 0 0 0 0 0 -0.482756351368823 0 0 0 0 0 0 0 0 -0.556982338567367 0 0 0 0 0 0 0 0 0 0 0 0 0 0 0
0 0 0 0 0 0 0 0 0 0 0 0 0 -0.147637476031612 0 0 0 0 0 0 0 0 0 0 0 0 0 -3.12965293761497 0 0 0 0 0 -5.04842432239691 -0.578242101288079 0 0 0 0 0 0 0 0 0 0 0 0 0 -0.589187284607723 0
0 0 0 0.272282926244048 0.274092047390055 0 0.0926422690180291 0 0.0238239050970798 0 0 0 0 0 -0.147637476031612 0 0 0 0 0 0 0 0 0 0 0 0 -0.538703578166824 0 0 0 0 -0.464684854587586 -1.22565844220376 -0.571832743810397 0 -0.473480620853749 0 -0.0908755272287522 0 0 0 0 0 0 0 0 0 -1.6135423984443 0
0 0.159771674757386 0.299681308901924 0 0 0.0702496918379985 0.346410904187439 0 0.112748582359165 0 0.233024072754019 0 0 0 0 -0.147637476031612 0 0 0 0 0 0 0 0 0 0 0 0 0 0 0 0 0 -0.281397866475728 -0.438430508933878 0 -2.33613888289021 0 -1.9300127230848 0 0 0 0 0 0 0 0 0 -1.06998030399574 0
0 0 0 0 0 0 0 0 0 0 0 0 0 0 0 0 -0.147637476031612 0 0 0 0 0 0 0 0 0 0 0 0 -2.39376401187942 0 0 -2.54489778992707 0 0 -1.64459163678128 -2.52434036000072 0 0 0 0 -1.13387118597652 0 0 0 0 0 0 -0.784172074888279 0
0.14674433750724 0.420874565472269 0.169875728271873 0 0 0 0 0 0 0 0 0 0 0 0 0 0 -0.147637476031612 0 0 0 0 0 0 0 0 0 0 -0.867708424460379 0 0 0 0 0 -0.28046947575851 0 0 0 -0.507044842366512 0 0 -0.729357800728148 0 0 0 0 0 -0.812422705493444 -7.23709245974219 0
0 0 0 0 0.324918541210406 0 0.366875384218141 0 0 0 0 0 0 0 0 0 0 0 -0.147637476031612 0 0 0 0 0 0 0 0 -0.721568000190198 0 0 0 0 -0.370534049470712 0 0 0 -0.530582981632252 0 -0.242462102467812 0 0 -0.570634642434464 0 0 0 0 0 0 -1.46608400262273 0
0 0 0 0 0 0 0 0 0 0 0 0 0 0 0 0 0 0 0 -0.147637476031612 0 0 0 0 0 0 0 0 0 0 0 0 0 0 0 -3.3377158402551 -1.24996307960793 0 0 0 0 -0.590655239894499 0 0 0 0 0 -0.416779094811131 -1.16985306159189 0
0 0 0 0 0.0883976595531502 0.180077983251529 0 0.192519349737048 0.378238218152451 0 0 0 0 0 0 0 0 0 0 0 -0.147637476031612 0 0 0 0 0 0 -3.90826685789176 0 0 0 0 0 0 0 -0.770163218385131 -1.23647039494885 0 0 0 0 -1.64052282735764 0 0 0 0 0 -2.30423954137793 -0.711673281278952 0
0 0.186467629158056 0 0 0 0 0 0 0 0 0 0 0 0 0 0 0 0 0 0 0 -0.147637476031612 0 0 0 0 0 0 0 0 0 0 0 0 -1.22997883635584 0 -1.02372405959387 0 0 0 0 0 0 0 0 0 0 0 0 0
0 0 0 0 0 0 0 0 0 0 0 0 0 0 0 0 0 0 0 0 0 0 -0.147637476031612 0.713451993050986 0 0 0 0 0 0 0 0 0 0 0 -1.57664555614877 0 0 0 0 -0.324624405480274 0 0 0 0 0 0 0 -0.694973035359177 0
0 0 0 0 0 0 0 0 0 0 0 0 0 0 0 0 0 0 0 0 0 0 -3.59507556936922 -0.147637476031612 0 0 0 0 0 0 0 0 0 0 -1.83654558540789 -1.05962739321421 0 0 0 0 0 0 0 0 0 0 0 0 0 0
0 0 0 0 0 0 0 0 0 0 0 0 0 0 0 0 0 0 0 0 0 0 0 0 -0.147637476031612 0 0 0 0 0 0 0 0 0 0 0 0 0 0 0 -0.928248240339337 -1.90437656235185 0 0 0 0 0 0 0 0
0 0 0 0 0 0 0 0 0 0 0.0402816329883284 0.588368117529856 0.100263223869968 0 0 0 0 0 0 0 0 0 0 0 0 -0.147637476031612 0 0 0 0 0 0 0 0 0 0 0 0 0 0 -3.53692335858801 -4.57974530067733 0 0 0 0 0 0 0 0
0 0 0 0 0 0 0 0 0 0 0 0 0 0 0 0 0 0 0 0 0 0 0 0 0 0 -0.147637476031612 0 0 0 0 0 0 0 0 0 0 0 0 0 0 -1.91925474350437 0 0 0 0 0 0 0 0
0 0 0 0 0 0 0 0 0 0 0 0 0 0.612081589471892 0.102680295587053 0 0 0 0.136797222527819 0 0.785757533178141 0 0 0 0 0 0 -0.147637476031612 0 0 0 0 0 0 0 0 0 0 0 0 0 -1.05156523527216 0 0 0 0 0 0 0 0
0 0 0 0 0 0 0 0 0 0 0 0 0 0 0 0 0 0.176220011881838 0 0 0 0 0 0 0 0 0 0 -0.147637476031612 0 0 0 0 0 0 0 0 0 0 0 0 0 0 0 0 0 0 0 0 0
0 0 0 0 0 0 0 0 0 0 0 0 0 0 0 0 0.499554998684208 0 0 0 0 0 0 0 0 0 0 0 0 -0.147637476031612 0 0 0 0 0 0 0 0 0 0 0 -3.05060219412626 0 0 0 0 0 0 0 0
0 0 0.0589636074280966 0 0 0 0 0 0 0 0 0 0 0 0 0 0 0 0 0 0 0 0 0 0 0 0 0 0 0 -0.147637476031612 0 0 0 0 0 0 0 0 0 0 -1.36531458909402 0 0 0 0 0 0 0 0
0 0 0 0 0 0 0 0 0 0 0 0 0 0 0 0 0 0 0 0 0 0 0 0 0 0 0 0 0 0 0 -0.147637476031612 0 0 0 0 0 0 0 0 0 -0.668361511267585 0 0 0 0 0 0 0 0
0 0 0 0 0 0 0 0 0 0 0 0 0 0 0.09275754946793 0 0.507996775695095 0 0.0753940187219222 0 0 0 0 0 0 0 0 0 0 0 0 0 -0.147637476031612 0 0 0 0 0 0 -0.33219315446723 0 -2.38275063432535 0 0 0 0 -0.777530715685115 0 0 0
0 0 0 0 0 0 0 0 0.513100289448034 0 0 0 0 1.04060092499608 0.26245568980528 0.0595467813825055 0 0 0 0 0 0 0 0 0 0 0 0 0 0 0 0 0 -0.147637476031612 0 0 0 0 0 0 0 0 0 0 0 0 -0.944427982747734 0 0 0
0 0 0 0 0 0 0 0 0 0 0 0 0.121184097284616 0.119499923651873 0.115079176713583 0.081506171155419 0 0.0576373231270841 0 0 0 0.253321457928717 0 0.348796647699948 0 0 0 0 0 0 0 0 0 0 -0.147637476031612 0 0 0 0 0 0 0 0 0 0 0 -4.04163475116332 0 0 0
0 0 0 0 0 0 0 0 0 0 0 0 0 0 0 0 0.311974157918227 0 0 0.682550698214755 0.148317395381884 0 0.321698160839646 0.228567989024097 0 0 0 0 0 0 0 0 0 0 0 -0.147637476031612 0 0 0 0 0 0 0 0 -1.21434011978974 0 0 0 0 0
0 0 0 0 0 0 0 0 0 0 0 0 0 0 0.0977954119480484 0.451645219364615 0.554372261683542 0 0.106442813789775 0.24827399509139 0.257585690947329 0.200208579723757 0 0 0 0 0 0 0 0 0 0 0 0 0 0 -0.147637476031612 0 0 0 0 0 -0.222202840033913 0 -1.16197239459479 0 0 0 0 0
0 0 0 0 0 0 0 0 0 0 0 0 0 0 0 0 0 0 0 0 0 0 0 0 0 0 0 0 0 0 0 0 0 0 0 0 0 -0.147637476031612 0 0 0 0 0 0 -0.83731458833321 0 -0.581696819084025 0 0 0
0 0 0 0 0 0 0 0 0.113298667860578 0.304669570997198 0.122864469432833 0 0 0 0.0171969349015152 0.35873828889019 0 0.105963237699388 0.0516858761559902 0 0 0 0 0 0 0 0 0 0 0 0 0 0 0 0 0 0 0 -0.147637476031612 0 0 0 -0.293898910625936 0 -0.136960756657995 0 -0.650828203233388 0 0 0
0 0 0 0 0 0 0 0 0 0 0 0 0 0 0 0 0 0 0 0 0 0 0 0 0 0 0 0 0 0 0 0 0.0689680775771936 0 0 0 0 0 0 -0.147637476031612 0 0 -0.653916522616291 0 -1.10783740972018 0 -0.414612382661392 0 0 0
0 0 0 0 0 0 0 0 0 0 0 0 0 0 0 0 0 0 0 0 0 0 0.0640944112822624 0 0.1931733553443 0.779580136491303 0 0 0 0 0 0 0 0 0 0 0 0 0 0 -0.147637476031612 0 0 0 -1.62559729984235 0 0 0 0 0
0 0 0 0 0 0 0 0 0 0 0 0 0 0 0 0 0.236427619097055 0.146568675061088 0.116357195256948 0.111503260913068 0.359512620438486 0 0 0 0.371222433573642 0.864376855254683 0.405208723940472 0.186823854196877 0 0.587186873090348 0.286486472442837 0.126344216343209 0.452446292864539 0 0 0 0 0 0 0 0 -0.147637476031612 -0.628532923387081 0 -1.36064219190466 0 0 0 0 0
0 0 0 0 0 0 0 0 0 0 0 0 0 0 0 0 0 0 0 0 0 0 0 0 0 0 0 0 0 0 0 0 0 0 0 0 0.0435628292778702 0 0.0567080580484107 0.135712545615955 0 0.1050365516346 -0.147637476031612 0.685873046649588 -0.443189313925525 0 0 0 0 0
0 0 0 0 0 0 0 0 0 0 0 0 0 0 0 0 0 0 0 0 0 0 0 0 0 0 0 0 0 0 0 0 0 0 0 0 0 0 0 0 0 0 -3.60476942463307 -0.147637476031612 0 0 0 0 0 0
0 0 0 0 0 0 0 0 0 0 0 0 0 0 0 0 0 0 0 0 0 0 0 0 0 0 0 0 0 0 0 0 0 0 0 0.246649549163217 0.231384721021144 0.161860149407652 0.0260474901962303 0.21448881415529 0.315012857812136 0.274188897299801 0.0866317919210063 0 -0.147637476031612 0.109384764257682 0 0 0 0
0 0 0 0 0 0 0 0 0 0 0 0 0 0 0 0 0 0 0 0 0 0 0 0 0 0 0 0 0 0 0 0 0 0 0 0 0 0 0 0 0 0 0 0 -0.555164983850976 -0.147637476031612 0 0 0 0
0 0 0 0 0 0 0 0 0 0 0 0 0 0 0 0 0 0 0 0 0 0 0 0 0 0 0 0 0 0 0 0 0.157279901670861 0.192485265962322 0.867474771134697 0 0 0.111413340334015 0.135938160941898 0.0785585057745236 0 0 0 0 0 0 -0.147637476031612 0 0 0
0 0 0 0 0 0 0 0 0 0 0 0 0 0 0 0 0 0.164095262047421 0 0.0815204604239108 0.445930853464526 0 0 0 0 0 0 0 0 0 0 0 0 0 0 0 0 0 0 0 0 0 0 0 0 0 0 -0.147637476031612 0 0
0 0 0 0 0 0 0 0 0 0.445054132191092 0.30586925674683 1.20767988656064 0 0.119674733392146 0.331959115421048 0.206717741867291 0.156586085384424 1.54535581978269 0.259657381592529 0.258387065524947 0.144607778240513 0 0.137378913872234 0 0 0 0 0 0 0 0 0 0 0 0 0 0 0 0 0 0 0 0 0 0 0 0 0 -0.147637476031612 0
0 0 0 0 0 0 0 0 0.350333899668824 0 0 0 0 0 0 0 0 0 0 0 0 0 0 0 0 0 0 0 0 0 0 0 0 0 0 0 0 0 0 0 0 0 0 0 0 0 0 0 0 -0.147637476031612
