0.812100250683263
2.72244497995861
1.63453879292424
1.83159117360648
1.2495032174776
2.99760634861758
0.715393398057489
0.957618029478251
6.10220529604518
0.509371630129604
0.97429754193528
0.718259506040046
0.111435064320623
0.635550045022348
0.482281769360892
0.568283385393954
1.05734427598545
0.962683109395749
1.23214223427642
0.666813136862909
1.5490641426679
1.63313656092926
0.946019314611333
0.490441593098198
4.50208645209994
0.240052237262779
0.82188081157008
1.28077751870357
2.19843152885652
0.694488988913114
1.08638267958459
1.08711009420887
0.450621768512839
2.69208052954621
4.97081511921603
0.694353151638261
1.22664985304078
0.957196936622323
0.890430588605835
1.45941619791974
0.774194652890701
0.513123677073735
7.28208740058145
1.31122378157755
6.75834069328879
1.02538579419741
1.50271803181144
1.37530496841702
1.3177778123423
2.53364423978136
