0.896717025922413
1.54449349410068
1.06985610487203
2.48102684266358
0.562975358109345
0.973032185496155
2.17712659077359
0.826150594547764
0.435082259771084
1.93966523458355
2.78067039487051
0.852919510564111
0.711051397477893
7.37123967413698
0.408069141514923
0.899541588709682
0.954935009257867
0.133346726720298
0.243278681155956
1.80922262693875
0.169262598737449
0.36942715772466
1.17672684016563
0.949450668976542
0.237065827262721
0.318741799669484
0.229176278357236
3.49402932761772
0.868115158516732
0.197281021231861
0.440451510176591
0.0990921111187015
2.82033622801791
0.657021886598864
1.00903538538058
1.49157160496384
1.57832704497491
1.79019171355393
0.843767531401247
0.924205527667317
0.834248954022865
1.47960290076113
11.7510172775323
2.49767568742454
1.81701793471272
0.390877163837582
0.374677840285048
2.58381986909507
0.692465098737818
2.47895895079688
