-0.114370478735457 0 0 0 0 0 0 0 0 0 0 0 0 0 0 0 0 0 0 0 -0.0571825056462429 0 0 0 0 0 0 0 0 0 0 0 0 0 0 0 0 0 0 0 0 0 0 0 -0.0907776170937457 0 0 0 0 0
0 -0.114370478735457 0 0 0 0 0 0 0 0 0 0 -1.18137105077712 0 0 0 0 0 0 0 -0.608320414089646 0 0 0 0 0 -2.08063830474502 0 0 0 0 0 0 0 0 0 0 0 0 0 0 0 0 0 -1.65879539363232 0 0 0 0 0
0 0 -0.114370478735457 0 0 0 0 0 0 0 0 0 0 0 0 0 0 0 0 0 -0.100161891131517 0 0 0 0 0 0 0 0 0 0 0 -0.254582468171591 0 0 0 0 0 0 0 -0.819533635764492 0 0 0 0 0 0 0 0 0
0 0 0 -0.114370478735457 0 0 0 0 0 0 0 0 0 0 0 0 0 0 0 0 0 0 0 0 0 0 0 0 0 0 0 0 -0.510092887866033 0 0 0 0 0 0 0 -1.70087210232664 0 0 0 -2.74479659394093 0 0 0 0 0
0 0 0 0 -0.114370478735457 0 0 0 0 0 0 0 0 0 0 0 0 0 0 0 0 0 0 -0.412682290077107 0 0 0 0 0 0 0 0 -0.309231917246928 0 0 0 0 0 0 0 0 0 0 0 -0.330093821144661 0 0 0 0 0
0 0 0 0 0 -0.114370478735457 -0.504799985723692 0 0 0 0 0 0 0 0 0 0 0 0 0 0 -0.849400024612251 0 -2.9687091946645 0 0 0 0 0 0 0 0 0 0 0 0 0 0 0 0 0 0 0 0 -0.365190722243467 0 0 0 0 0
0 0 0 0 0 0.094225545158882 -0.114370478735457 0 0 0 0 0 0 -1.2383159613802 0 -0.95585293097906 0 0 0 0 0 0 0 0 0 0 0 0 -0.982636044308797 0 0 0 0 0 0 0 0 0 0 0 0 0 0 0 -0.330833626479338 0 0 0 0 0
0 0 0 0 0 0 0 -0.114370478735457 0 0 0 0 0 0 0 0 0 0 0 0 0 0 0 -0.80229494555441 0 0 0 0 0 0 0 0 0 0 0 0 0 0 0 0 0 0 0 0 0 0 0 0 0 0
0 0 0 0 0 0 0 0 -0.114370478735457 0 0 0 0 0 0 0 0 0 0 -0.746059142538671 0 0 0 -1.7441758120182 0 0 0 0 0 0 0 0 0 0 0 0 0 0 0 0 0 0 0 0 -1.36200275380817 0 0 0 0 0
0 0 0 0 0 0 0 0 0 -0.114370478735457 0 0 0 0 0 0 0 0 0 -2.20705799688692 0 0 0 0 0 0 0 0 -0.466344281081039 0 0 0 0 0 0 0 0 0 0 0 0 0 0 0 0 0 0 0 0 0
0 0 0 0 0 0 0 0 0 0 -0.114370478735457 0 0 0 0 0 0 0 0 -0.915565912655873 0 0 0 0 0 0 0 0 -2.47818791802767 0 0 0 0 0 0 0 0 0 0 0 0 0 0 0 0 0 0 0 0 0
0 0 0 0 0 0 0 0 0 0 0 -0.114370478735457 0 0 0 0 0 0 0 0 0 0 0 0 0 0 0 0 -1.95309925866948 0 0 0 0 0 0 0 0 0 -1.72358644271822 0 0 0 0 0 0 0 0 0 0 0
0 0.24892896688345 0 0 0 0 0 0 0 0 0 0 -0.114370478735457 0 0 0 0 0 0 -1.27197876280004 0 0 0 -0.418190460788025 0 0 0 0 -1.06181272723347 0 0 0 0 0 0 0 0 0 0 0 0 0 0 0 0 0 0 0 0 0
0 0 0 0 0 0 0.266525108660281 0 0 0 0 0 0 -0.114370478735457 0 0 0 0 0 -3.01636419815293 0 0 0 0 0 0 0 0 0 0 0 0 0 0 0 0 0 0 -0.768801906111857 0 0 0 0 0 0 0 0 0 0 0
0 0 0 0 0 0 0 0 0 0 0 0 0 0 -0.114370478735457 0 0 0 0 0 0 0 0 0 0 0 0 0 0 0 0 0 0 0 0 0 0 0 0 0 0 0 0 0 -5.01378615774664 0 0 0 0 0
0 0 0 0 0 0 0.206413173076344 0 0 0 0 0 0 0 0 -0.114370478735457 0 -3.86627332096472 0 0 0 0 0 0 0 0 0 0 0 0 0 0 0 0 0 0 0 0 0 0 0 0 0 0 -1.82884852156776 0 0 0 0 0
0 0 0 0 0 0 0 0 0 0 0 0 0 0 0 0 -0.114370478735457 0 0 0 0 0 0 0 -1.681153760358 0 0 0 0 0 0 0 0 0 0 0 0 -0.304004153385405 0 0 0 0 0 -2.63173060393883 0 0 0 0 0 0
0 0 0 0 0 0 0 0 0 0 0 0 0 0 0 0.752965379464068 0 -0.114370478735457 1.73265282807908 0.0396475881005095 0 0 -0.155469348521931 0 0 0 0 0 -0.561348664707418 0 0 0 0 0 0 0 0 0 0 0 0 0 0 0 0 0 0 0 0 0
0 0 0 0 0 0 0 0 0 0 0 0 0 0 0 0 0 -8.97866760205245 -0.114370478735457 0 0 0 -3.2363391524297 0 -1.22228859784695 0 0 0 -2.16403620786425 0 0 0 0 0 0 0 0 0 0 0 0 0 0 0 0 0 0 0 0 0
0 0 0 0 0 0 0 0 0.148309819791986 0.445997515158178 0.183547530595044 0 0.257713719475185 0.633310841467311 0 0 0 -0.192545863241071 0 -0.114370478735457 0 0 0 0 0 0 0 0 0 0 0 0 0 0 0 0 0 -1.87439486219769 0 0 0 0 0 -0.62931080979227 0 0 0 0 0 0
0.0111471619345922 0.128079984833051 0.0195322772937249 0 0 0 0 0 0 0 0 0 0 0 0 0 0 0 0 0 -0.114370478735457 0 0 0 0 0 0 0 0 0 0 0 0 0 0 0 0 0 0 0 0 0 0 -0.818718283541049 0 0 0 0 0 0
0 0 0 0 0 0.176071313646299 0 0 0 0 0 0 0 0 0 0 0 0 0 0 0 -0.114370478735457 0 0 -3.65422144883454 0 0 -0.332004498377378 0 0 0 0 0 0 0 0 0 0 0 0 0 0 0 0 0 0 0 0 0 0
0 0 0 0 0 0 0 0 0 0 0 0 0 0 0 0 0 0.0323027982021438 0.620372375126294 0 0 0 -0.114370478735457 0 0 0 0 0 0 0 0 -0.0777756495453425 0 0 0 -0.500064662287107 0 0 0 0 0 0 0 -3.1281574307217 0 0 0 0 0 0
0 0 0 0 0.0826611010443808 0.600129789181721 0 0.146406214009315 0.344030484394931 0 0 0 0.0833389146229442 0 0 0 0 0 0 0 0 0 0 -0.114370478735457 0 0 0 0 0 0 0 0 0 0 0 -0.907117322385071 0 0 0 0 0 0 0 0 0 0 0 0 0 0
0 0 0 0 0 0 0 0 0 0 0 0 0 0 0 0 0.330812901102892 0 0.238257916924752 0 0 0.642384403758211 0 0 -0.114370478735457 0 0 0 0 0 0 0 0 0 0 -0.311602849538859 0 0 0 0 0 0 0 0 0 0 0 0 0 0
0 0 0 0 0 0 0 0 0 0 0 0 0 0 0 0 0 0 0 0 0 0 0 0 0 -0.114370478735457 0 0 0 0 0 -5.57384856201503 0 0 0 0 0 0 0 0 0 0 0 0 0 0 -1.83164753528914 0 0 0
0 0.407775842643267 0 0 0 0 0 0 0 0 0 0 0 0 0 0 0 0 0 0 0 0 0 0 0 0 -0.114370478735457 0 0 0 0 0 0 0 0 0 0 0 0 0 0 0 0 -0.486759623012557 0 0 -0.520828843441327 0 0 0
0 0 0 0 0 0 0 0 0 0 0 0 0 0 0 0 0 0 0 0 0 0.0651185887836737 0 0 0 0 0 -0.114370478735457 0 0 -0.850300112216609 0 0 0 0 0 0 0 0 0 0 0 0 0 0 0 -2.16089805821064 0 0 0
0 0 0 0 0 0 0.195357722918135 0 0 0.090067829296097 0.509462894805338 0.410242508587541 0.218874302455919 0 0 0 0 0.125056039892095 0.435755317765037 0 0 0 0 0 0 0 0 0 -0.114370478735457 0 0 0 0 0 0 0 0 0 0 0 0 0 0 -0.200469738720908 0 0 -0.563844032764178 0 0 0
0 0 0 0 0 0 0 0 0 0 0 0 0 0 0 0 0 0 0 0 0 0 0 0 0 0 0 0 0 -0.114370478735457 0 0 0 0 0 -0.738148270216044 0 0 0 0 0 0 0 -0.351444972812741 0 0 -0.67578126001331 0 0 0
0 0 0 0 0 0 0 0 0 0 0 0 0 0 0 0 0 0 0 0 0 0 0 0 0 0 0 0.171466221680688 0 0 -0.114370478735457 0 0 0 0 0 0 0 0 0 0 0 0 -0.700257168394939 0 0 -0.775979012531354 0 0 0
0 0 0 0 0 0 0 0 0 0 0 0 0 0 0 0 0 0 0 0 0 0 0.0152698004972492 0 0 1.1367192651053 0 0 0 0 0 -0.114370478735457 0 0 0 0 0 0 0 0 0 -1.50118947009313 0 0 0 0 0 0 0 0
0 0 0.0474007567829653 0.102844702530485 0.0619183608630088 0 0 0 0 0 0 0 0 0 0 0 0 0 0 0 0 0 0 0 0 0 0 0 0 0 0 0 -0.114370478735457 0 0 0 0 0 0 0 0 -2.36570889679327 0 0 0 0 0 0 0 0
0 0 0 0 0 0 0 0 0 0 0 0 0 0 0 0 0 0 0 0 0 0 0 0 0 0 0 0 0 0 0 0 0 -0.114370478735457 0 -1.17357889075006 0 0 0 0 0 -0.498354288216119 0 -1.70730529221031 0 0 -0.818381789687568 0 0 0
0 0 0 0 0 0 0 0 0 0 0 0 0 0 0 0 0 0 0 0 0 0 0 0 0 0 0 0 0 0 0 0 0 0 -0.114370478735457 -0.493998761057759 0 0 0 0 0 0 0 -0.735388918196759 0 0 -1.41148612807877 0 0 0
0 0 0 0 0 0 0 0 0 0 0 0 0 0 0 0 0 0 0 0 0 0 0.0995388735109271 0.195018507639005 0.0623821925268495 0 0 0 0 0.146047557691877 0 0 0 0.223324522780067 0.0967987536729919 -0.114370478735457 0.146878659812647 0 0.616818916605876 0 0 0 0 -0.347404983503531 0 0 -0.120924181664302 -1.70008506779409 0 0
0 0 0 0 0 0 0 0 0 0 0 0 0 0 0 0 0 0 0 0 0 0 0 0 0 0 0 0 0 0 0 0 0 0 0 -0.756033266267702 -0.114370478735457 0 0 0 0 0 0 0 0 0 -2.42748130691795 0 0 0
0 0 0 0 0 0 0 0 0 0 0 0 0 0 0 0 0.0590733883402874 0 0 0.39188624078711 0 0 0 0 0 0 0 0 0 0 0 0 0 0 0 0 0 -0.114370478735457 0 0 0 -0.544523937749755 0 0 0 0 0 -1.04643135307981 0 0
0 0 0 0 0 0 0 0 0 0 0 0.335433179891014 0 0.153975701260411 0 0 0 0 0 0 0 0 0 0 0 0 0 0 0 0 0 0 0 0 0 -2.99200678263675 0 0 -0.114370478735457 0 0 0 0 -0.790044003945037 0 0 0 -1.26800027019449 0 0
0 0 0 0 0 0 0 0 0 0 0 0 0 0 0 0 0 0 0 0 0 0 0 0 0 0 0 0 0 0 0 0 0 0 0 0 0 0 0 -0.114370478735457 0 0 0 -0.59318450922062 0 0 -0.472547666790088 -0.46982485052152 0 0
0 0 0.165286597612163 0.358518843118712 0 0 0 0 0 0 0 0 0 0 0 0 0 0 0 0 0 0 0 0 0 0 0 0 0 0 0 0 0 0 0 0 0 0 0 0 -0.114370478735457 0 0 -0.712216187277299 0 0 0 0 -0.183008074715226 0
0 0 0 0 0 0 0 0 0 0 0 0 0 0 0 0 0 0 0 0 0 0 0 0 0 0 0 0 0 0 0 0.315284824610016 0.508205289499199 0.0955341233983648 0 0 0 0.109028386948089 0 0 0 -0.114370478735457 0 0 0 0 0 0 0 0
0 0 0 0 0 0 0 0 0 0 0 0 0 0 0 0 0 0 0 0 0 0 0 0 0 0 0 0 0 0 0 0 0 0 0 0 0 0 0 0 0 0 -0.114370478735457 -0.781319823658761 0 0 0 0 -2.46494982480972 0
0 0 0 0 0 0 0 0 0 0 0 0 0 0 0 0 0.509978921958013 0 0 0.120422111385726 0.161998615569821 0 0.610685585417806 0 0 0 0.103036757994512 0 0.0364716397357365 0.0677804153249045 0.131637226863574 0 0 0.344534145706298 0.144335713579609 0.0755628403885696 0 0 0.168897920749092 0.111957650955589 0.14528437852717 0 0.151097750316688 -0.114370478735457 0 0 0 0 -0.457171933485431 0
0.0171747157869749 0.294145850632811 0 0.512475290168557 0.0627967226631398 0.0663501880662262 0.069593341528335 0 0.269030730199705 0 0 0 0 0 1.01587263044091 0.377238100097929 0 0 0 0 0 0 0 0 0 0 0 0 0 0 0 0 0 0 0 0 0 0 0 0 0 0 0 0 -0.114370478735457 0 0 0 -2.45107741843628 0
0 0 0 0 0 0 0 0 0 0 0 0 0 0 0 0 0 0 0 0 0 0 0 0 0 0 0 0 0 0 0 0 0 0 0 0 0 0 0 0 0 0 0 0 0 -0.114370478735457 0 0 -0.898235408575433 0
0 0 0 0 0 0 0 0 0 0 0 0 0 0 0 0 0 0 0 0 0 0 0 0 0 0.334096330468197 0.103131557921525 0.418949625990008 0.109402887509041 0.135915393914459 0.152549779364794 0 0 0.159229624793103 0.26901216751465 0.0256636097870902 0.479628465575064 0 0 0.0963401947677577 0 0 0 0 0 0 -0.114370478735457 0 -1.10084495099413 0
0 0 0 0 0 0 0 0 0 0 0 0 0 0 0 0 0 0 0 0 0 0 0 0 0 0 0 0 0 0 0 0 0 0 0 0.365630870356939 0 0.206217669757418 0.245573202281886 0.10072607345854 0 0 0 0 0 0 0 -0.114370478735457 -0.759613389564929 0
0 0 0 0 0 0 0 0 0 0 0 0 0 0 0 0 0 0 0 0 0 0 0 0 0 0 0 0 0 0 0 0 0 0 0 0 0 0 0 0 0.0386467677907487 0 0.506088454634491 0.0964988507075416 0.512474991274079 0.180700306486113 0.229885596251374 0.14921586822613 -0.114370478735457 0.239615290231961
0 0 0 0 0 0 0 0 0 0 0 0 0 0 0 0 0 0 0 0 0 0 0 0 0 0 0 0 0 0 0 0 0 0 0 0 0 0 0 0 0 0 0 0 0 0 0 0 -1.1356828139618 -0.114370478735457
