-0.0779156185464083 0 0 0 0 0 0 0 -0.394906718223394 0 0 0 0 0 0 0 0 0 0 0 0 0 0 0 0 0 0 0 0 0 0 0 0 0 0 0 0 0 0 0 0 0 0 0 0 0 0 0 0 0
0 -0.0779156185464083 0 -1.0311944773809 0 0 0 0 -4.17792425282027 0 0 0 0 0 0 0 0 -0.482802572584525 0 0 0 0 0 0 0 0 0 0 0 0 0 0 0 0 0 0 0 0 0 0 0 0 0 0 0 0 -0.689141560831413 0 0 0
0 0 -0.0779156185464083 0 0 0 -1.7037866027636 0 0 0 0 0 0 0 0 0 0 -0.312269043616789 0 0 0 0 0 0 0 0 -1.14586688972804 0 0 0 0 0 0 0 0 0 0 0 0 0 0 0 0 0 0 0 0 0 0 0
0 0.194899373179297 0 -0.0779156185464083 0 0 0 0 0 0 0 0 0 0 0 0 0 -7.87057482017747 0 0 0 0 0 0 0 0 -1.66258481895819 0 0 0 0 0 0 0 0 0 0 0 0 -3.56936339154044 0 0 0 0 0 0 0 0 0 0
0 0 0 0 -0.0779156185464083 0 0 0 0 0 0 0 0 0 0 0 0 -0.337566548347453 0 0 0 0 0 0 0 0 0 0 0 0 0 0 0 0 0 0 0 0 0 0 0 0 0 0 0 0 -0.817301493076568 0 0 0
0 0 0 0 0 -0.0779156185464083 0 0 0 0 0 0 0 0 0 -0.462105114875951 0 0 0 -3.21886138291946 0 0 0 0 0 0 0 0 0 0 0 0 0 0 0 0 0 0 0 0 0 0 0 0 0 0 -4.05462813837166 0 0 0
0 0 0.372074154446781 0 0 0 -0.0779156185464083 0 0 0 0 0 0 0 -2.71118827051949 -0.698263857923533 0 -1.1938051004397 0 -6.89158292461538 0 0 0 0 0 0 0 0 0 0 0 0 0 -1.34045398985376 0 0 0 0 0 -0.275585725469204 0 0 0 0 0 0 0 0 0 0
0 0 0 0 0 0 0 -0.0779156185464083 0 0 -0.473881884027104 0 0 0 0 0 0 0 0 -0.359161324566251 0 0 0 0 0 0 0 0 0 -0.929768577308948 0 0 0 -1.57531855903479 0 0 0 0 0 0 0 0 0 0 0 0 0 0 0 0
0.078659303041912 0.806494682690137 0 0 0 0 0 0 -0.0779156185464083 0 -0.575246939056498 0 0 -1.30394918011354 0 0 0 0 0 0 0 0 0 0 0 0 0 0 0 0 0 0 0 0 0 0 0 0 0 0 -0.383816434272661 0 0 -0.197830277199152 0 -0.120793652212546 0 0 0 0
0 0 0 0 0 0 0 0 0 -0.0779156185464083 -0.33381084759612 0 0 0 0 0 -0.690789528497739 0 0 0 0 0 0 0 0 0 0 0 0 -6.48909391503953 0 0 0 -1.17927627396686 0 0 0 0 0 0 0 0 0 -3.04187023852962 0 -0.12201032529406 0 0 0 0
0 0 0 0 0 0 0 0.0823263228355166 0.116498107026862 0.0627961241685951 -0.0779156185464083 0 0 0 0 0 0 0 0 -0.307196402756908 0 0 0 0 0 0 0 -0.795728556208777 0 0 0 0 0 -1.73593706221881 0 0 0 0 0 0 0 0 0 0 0 -2.98605428871331 0 -1.59786985690624 0 0
0 0 0 0 0 0 0 0 0 0 0 -0.0779156185464083 0 0 0 0 -2.65961599079404 0 0 0 0 0 0 0 0 0 0 -1.16606469637011 0 -0.729572423606748 0 0 0 0 0 0 0 0 0 0 -1.53002375707263 0 0 0 0 -0.774351343643974 0 -0.561321684489897 0 0
0 0 0 0 0 0 0 0 0 0 0 0 -0.0779156185464083 0 0 0 -0.418266613215721 0 0 0 0 0 0 0 0 0 0 -0.991765255642472 0 -3.55542519648949 0 0 0 0 0 0 0 0 0 0 -0.975898944679816 0 0 0 0 -0.421929717515094 0 -4.6899634910211 0 0
0 0 0 0 0 0 0 0 0.257555217711499 0 0 0 0 -0.0779156185464083 0 0 -0.316387410213573 0 0 0 -0.435674407356816 -1.29783210942531 0 0 0 0 0 0 0 0 0 0 0 0 0 0 0 0 0 0 -1.11993087192649 0 0 0 0 0 0 -0.287563842729055 0 0
0 0 0 0 0 0 0.52323687887992 0 0 0 0 0 0 0 -0.0779156185464083 0 0 0 0 0 -0.10199159129685 0 0 0 0 -0.503847743336541 0 0 0 0 0 0 0 0 -1.6015187261316 0 0 0 0 0 0 0 0 0 0 0 0 -1.00181554163811 0 0
0 0 0 0 0 0.0814438124941853 0.137778519582778 0 0 0 0 0 0 0 0 -0.0779156185464083 0 0 0 0 0 0 0 0 0 0 0 0 0 0 0 0 0 0 -0.783408423191848 0 0 0 0 0 0 0 0 0 0 -2.68905084533041 0 -0.846266473413504 0 0
0 0 0 0 0 0 0 0 0 0.150060466547343 0 0.529581483700313 0.0788228919288116 0.0626911653278915 0 0 -0.0779156185464083 0 0 0 0 0 0 0 0 0 0 0 0 0 0 0 0 0 -0.244593129193271 0 0 0 0 0 0 0 0 0 0 0 0 0 0 0
0 0.0980019348112885 0.0646824862020238 1.55388835837699 0.0660681162562611 0 0.244021809744066 0 0 0 0 0 0 0 0 0 0 -0.0779156185464083 0 0 0 0 0 -0.621245004602908 0 0 0 0 0 0 0 0 0 0 -2.53170038297486 0 0 0 0 0 0 0 0 0 0 0 0 -0.262148972877712 0 0
0 0 0 0 0 0 0 0 0 0 0 0 0 0 0 0 0 0 -0.0779156185464083 0 0 0 0 -2.85060984863029 0 0 0 0 0 0 -0.781745555936087 0 0 0 0 0 0 0 0 0 0 0 0 0 0 0 0 -2.52949670329577 0 0
0 0 0 0 0 0.637621706256205 1.42518708053925 0.0743000327677505 0 0 0.0655857162551593 0 0 0 0 0 0 0 0 -0.0779156185464083 0 0 0 0 0 0 0 0 0 0 -0.477665464043634 0 0 0 0 0 0 0 0 0 0 0 0 0 0 0 0 -0.806111805218247 0 0
0 0 0 0 0 0 0 0 0 0 0 0 0 0.0813762344771626 0.0208160354140004 0 0 0 0 0 -0.0779156185464083 0.151367125915826 1.26205194780134 0 0.853365262713462 0.156044547663424 0.132631684082821 0 0 0 0 0 -0.810041164181181 0 0 0 0 0 0 0 0 0 0 0 0 0 0 0 0 0
0 0 0 0 0 0 0 0 0 0 0 0 0 0.252596728561879 0 0 0 0 0 0 -0.820791308217449 -0.0779156185464083 0 0 0 0 0 0 0 0 0 0 -0.368206803649707 0 0 -4.83104526009602 0 0 0 0 0 0 0 0 0 0 0 -2.9117994404472 0 0
0 0 0 0 0 0 0 0 0 0 0 0 0 0 0 0 0 0 0 0 -5.93485517732233 0 -0.0779156185464083 0 0 0 0 0 0 0 0 -0.619364888056426 0 0 0 -2.78434190360055 0 0 0 0 0 0 0 0 0 0 0 -3.28225095891957 0 0
0 0 0 0 0 0 0 0 0 0 0 0 0 0 0 0 0 0.116854193173058 0.557952895133836 0 0 0 0 -0.0779156185464083 0 0 0 0 0 0 0 0 0 0 0 0 0 0 -2.15407796700609 0 0 0 0 0 0 0 0 -0.485735696295546 0 0
0 0 0 0 0 0 0 0 0 0 0 0 0 0 0 0 0 0 0 0 -4.319782410896 0 0 0 -0.0779156185464083 0 0 0 0 0 0 0 0 0 0 0 0 0 0 0 0 0 0 0 0 0 0 -4.54854078514199 0 0
0 0 0 0 0 0 0 0 0 0 0 0 0 0 0.104872100866847 0 0 0 0 0 -0.812239868123405 0 0 0 0 -0.0779156185464083 0 0 0 0 0 0 0 0 0 0 0 0 0 0 0 0 0 0 0 0 0 0 0 0
0 0 0.219895033375289 0.337166562151342 0 0 0 0 0 0 0 0 0 0 0 0 0 0 0 0 -0.650012510182169 0 0 0 0 0 -0.0779156185464083 0 0 0 0 0 0 0 0 0 0 0 -1.13449325976612 0 0 0 0 0 0 0 0 -0.195052381250467 -0.691438111503396 0
0 0 0 0 0 0 0 0 0 0 0.172392813825825 0.230434905073084 0.186195344166909 0 0 0 0 0 0 0 0 0 0 0 0 0 0 -0.0779156185464083 0 0 0 0 0 0 0 0 0 0 -1.19646762292732 0 0 0 0 0 0 0 0 -0.0974089019446742 0 0
0 0 0 0 0 0 0 0 0 0 0 0 0 0 0 0 0 0 0 0 0 0 0 0 0 0 0 0 -0.0779156185464083 0 0 0 0 0 0 0 0 0 -0.287002104509379 0 0 0 0 0 0 0 0 -1.8380142352149 0 0
0 0 0 0 0 0 0 0.180077894805892 0 1.39416303541539 0 0.146261917315024 0.629481202489486 0 0 0 0 0 0 0 0 0 0 0 0 0 0 0 0 -0.0779156185464083 0 0 0 0 0 0 0 0 0 0 0 0 0 0 0 0 0 0 -2.59216226312892 0
0 0 0 0 0 0 0 0 0 0 0 0 0 0 0 0 0 0 0.155952531557507 0.0986213356431639 0 0 0 0 0 0 0 0 0 0 -0.0779156185464083 0 0 0 0 0 0 0 -1.73340755837152 0 0 0 0 0 0 0 0 0 0 0
0 0 0 0 0 0 0 0 0 0 0 0 0 0 0 0 0 0 0 0 0 0 0.129459038511114 0 0 0 0 0 0 0 0 -0.0779156185464083 0 0 0 0 0 0 -1.3907230782728 0 0 0 0 0 0 0 0 0 -0.13933028835976 0
0 0 0 0 0 0 0 0 0 0 0 0 0 0 0 0 0 0 0 0 0.151780687213567 0.0769964219440466 0 0 0 0 0 0 0 0 0 0 -0.0779156185464083 0 0 0 0 0 -0.181568288274619 0 0 0 0 0 0 0 0 0 -1.16582366504524 0
0 0 0 0 0 0 0.274104103654278 0.279615037683956 0 0.233422252446789 0.343570482397609 0 0 0 0 0 0 0 0 0 0 0 0 0 0 0 0 0 0 0 0 0 0 -0.0779156185464083 0 0 0 0 -0.985450099008774 0 0 0 0 0 0 0 0 0 0 0
0 0 0 0 0 0 0 0 0 0 0 0 0 0 0.332721584913225 0.16419030731968 0.0498600526241245 0.503593695850451 0 0 0 0 0 0 0 0 0 0 0 0 0 0 0 0 -0.0779156185464083 0 0 0 -1.73635040835632 0 0 0 0 0 0 0 0 0 0 0
0 0 0 0 0 0 0 0 0 0 0 0 0 0 0 0 0 0 0 0 0 0.865845659218042 0.562819537314399 0 0 0 0 0 0 0 0 0 0 0 0 -0.0779156185464083 0 -0.289159794216083 0 0 0 0 0 0 0 0 0 0 0 -2.66537907642531
0 0 0 0 0 0 0 0 0 0 0 0 0 0 0 0 0 0 0 0 0 0 0 0 0 0 0 0 0 0 0 0 0 0 0 0 -0.0779156185464083 0 0 0 0 0 -0.648365880248832 0 0 0 0 0 0 0
0 0 0 0 0 0 0 0 0 0 0 0 0 0 0 0 0 0 0 0 0 0 0 0 0 0 0 0 0 0 0 0 0 0 0 0.0566069862604792 0 -0.0779156185464083 0 0 0 0 -0.106807140005286 0 0 0 0 0 0 -0.578547415047595
0 0 0 0 0 0 0 0 0 0 0 0 0 0 0 0 0 0 0 0 0 0 0 0.460848135509763 0 0 0.228929554418027 0.249943487803745 0.061954084666502 0 0.352559264256217 0.242694263637718 0.0369453769725875 0.198834698730088 0.361483472470802 0 0 0 -0.0779156185464083 0 0 0 -0.361392055673302 0 0 0 0 0 0 0
0 0 0 0.702414754134918 0 0 0.0498389182283683 0 0 0 0 0 0 0 0 0 0 0 0 0 0 0 0 0 0 0 0 0 0 0 0 0 0 0 0 0 0 0 0 -0.0779156185464083 0 0 0 0 0 0 0 0 0 0
0 0 0 0 0 0 0 0 0.076448389556825 0 0 0.305965407799945 0.20200918269917 0.215213019059516 0 0 0 0 0 0 0 0 0 0 0 0 0 0 0 0 0 0 0 0 0 0 0 0 0 0 -0.0779156185464083 0 0 0 0 0 0 0 0 -2.32411131589532
0 0 0 0 0 0 0 0 0 0 0 0 0 0 0 0 0 0 0 0 0 0 0 0 0 0 0 0 0 0 0 0 0 0 0 0 0 0 0 0 0 -0.0779156185464083 0 0 0 0 0 0 0 -0.785169583036293
0 0 0 0 0 0 0 0 0 0 0 0 0 0 0 0 0 0 0 0 0 0 0 0 0 0 0 0 0 0 0 0 0 0 0 0 0.136377916485718 0.0220483519741163 0.0705654716600494 0 0 0 -0.0779156185464083 0 0 0 0 0 0 -1.60401565447702
0 0 0 0 0 0 0 0 0.0385188063544688 0.626574560772072 0 0 0 0 0 0 0 0 0 0 0 0 0 0 0 0 0 0 0 0 0 0 0 0 0 0 0 0 0 0 0 0 0 -0.0779156185464083 0 0 0 0 0 0
0 0 0 0 0 0 0 0 0 0 0 0 0 0 0 0 0 0 0 0 0 0 0 0 0 0 0 0 0 0 0 0 0 0 0 0 0 0 0 0 0 0 0 0 -0.0779156185464083 0 0 0 0 -1.74175730333921
0 0 0 0 0 0 0 0 0.0225218993447731 0.0245653687365708 0.636865319310605 0.158423826434553 0.0869586255580512 0 0 0.52061852674279 0 0 0 0 0 0 0 0 0 0 0 0 0 0 0 0 0 0 0 0 0 0 0 0 0 0 0 0 0 -0.0779156185464083 0 0 0 0
0 0.134978543953245 0 0 0.1671841964146 0.801652819821295 0 0 0 0 0 0 0 0 0 0 0 0 0 0 0 0 0 0 0 0 0 0 0 0 0 0 0 0 0 0 0 0 0 0 0 0 0 0 0 0 -0.0779156185464083 0 0 0
0 0 0 0 0 0 0 0 0 0 0.314324791442706 0.113441888854027 0.961797960397687 0.0542467446735131 0.211822662708068 0.167783945952126 0 0.0546798081215121 0.487223786013793 0.159000074168251 0 0.540476717215717 0.657528750847031 0.103264755845859 0.934624586618132 0 0.0402345868603817 0.0185752032787159 0.338726305625999 0 0 0 0 0 0 0 0 0 0 0 0 0 0 0 0 0 0 -0.0779156185464083 0 -0.612954141541277
0 0 0 0 0 0 0 0 0 0 0 0 0 0 0 0 0 0 0 0 0 0 0 0 0 0 0.136516683264698 0 0 0.498994266369998 0 0.0269624884403392 0.220148944537615 0 0 0 0 0 0 0 0 0 0 0 0 0 0 0 -0.0779156185464083 0
0 0 0 0 0 0 0 0 0 0 0 0 0 0 0 0 0 0 0 0 0 0 0 0 0 0 0 0 0 0 0 0 0 0 0 0.52620417440916 0 0.121614368500213 0 0 0.479342516630043 0.152992450331237 0.330529321920403 0 0.358949642314342 0 0 0.128274817563177 0 -0.0779156185464083
