-0.198494243730688 0 0 0 0 0 0 0 0 -3.4314385038703 0 0 0 0 0 0 0 -0.416775034197594 0 0 0 0 0 0 0 0 0 0 0 0 0 0 0 0 0 0 0 0 0 0 0 0 0 0 0 0 0 0 0 0
0 -0.198494243730688 0 0 0 0 0 0 0 0 0 -0.90099102728427 0 0 0 -0.177269624341587 0 -4.31082911031092 0 0 0 -1.8277513093864 0 0 0 0 0 0 0 0 0 0 0 0 0 0 0 0 0 0 0 0 0 0 0 0 0 0 0 0
0 0 -0.198494243730688 0 0 0 0 0 0 -0.957057830620995 0 -1.69796050440157 0 0 0 -1.51864220401315 0 -1.67979370438686 0 0 0 0 0 0 0 0 0 0 0 0 -1.72083025922414 0 0 0 0 0 0 0 0 0 0 0 0 0 0 0 0 0 0 0
0 0 0 -0.198494243730688 -1.20130021497854 -1.70168996784089 0 0 0 0 0 -0.93635724219288 0 0 -1.80618172341561 0 0 0 0 0 0 0 0 0 0 0 0 0 0 0 0 0 0 0 0 0 0 0 0 0 0 0 0 0 0 0 0 0 0 0
0 0 0 0.234128531506853 -0.198494243730688 0 0 0 0 0 0 -3.27603762549822 0 0 -4.21622535176771 0 0 0 -0.599948380911003 0 -0.568983128999382 0 0 0 0 0 0 0 0 0 0 0 0 0 0 0 0 0 0 0 0 0 0 0 0 0 0 0 0 0
0 0 0 0.351813124067156 0 -0.198494243730688 0 0 0 0 0 -5.51136992733968 0 0 0 -0.984892454761765 0 0 0 0 -0.771535524331424 0 0 0 0 0 0 0 0 0 0 0 0 0 0 0 0 0 0 0 0 0 0 0 0 0 0 0 0 0
0 0 0 0 0 0 -0.198494243730688 0 0 0 0 0 0 0 -2.20433704219491 -2.00292584652402 0 0 -1.01075274593164 0 0 0 0 0 0 0 0 0 0 0 0 0 0 0 0 0 0 0 0 0 0 0 0 0 0 0 0 0 0 0
0 0 0 0 0 0 0 -0.198494243730688 0 0 0 0 0 0 0 0 0 0 0 0 -3.13800348027763 0 0 0 0 0 0 0 0 0 0 0 0 0 0 0 0 0 0 0 0 0 0 0 0 0 0 0 0 0
0 0 0 0 0 0 0 0 -0.198494243730688 0 0 0 0 0 -0.552442549326952 -9.78737923443737 0 0 0 0 -1.39693268587092 0 0 0 0 0 0 0 0 0 0 0 0 -1.58661377194777 0 0 0 0 -1.04054389483717 0 0 0 0 0 0 0 0 0 0 -0.598592176650021
0.671141889071685 0 0.182793150414272 0 0 0 0 0 0 -0.198494243730688 0 0 -0.776934396888961 0 0 0 0 0 0 0 0 0 0 0 0 0 0 0 0 0 0 0 0 0 0 0 0 0 -1.82201863810755 0 0 0 0 0 0 0 0 0 -0.829990076135018 0
0 0 0 0 0 0 0 0 0 0 -0.198494243730688 0 -0.664267408210354 0 0 -8.00512324495193 0 0 0 0 0 0 0 0 0 -0.380864257498266 0 0 0 0 0 0 0 0 0 0 0 0 -1.74180686400651 0 0 0 0 0 0 0 0 0 -1.17221657829153 0
0 0.177574865169349 0.331187811464958 0.196941911718067 0.739150110024655 1.02570327171641 0 0 0 0 0 -0.198494243730688 -3.68675250157807 0 0 0 0 0 0 0 0 0 0 0 0 -2.75834849581037 0 0 0 0 0 0 0 0 0 0 0 0 0 0 0 0 0 0 0 0 0 0 -2.36469120810606 0
0 0 0 0 0 0 0 0 0 0.141001693960207 0.130046279431643 0.779624241020732 -0.198494243730688 0 0 0 0 0 0 0 0 0 0 0 0 -0.359910474948605 0 0 0 0 0 0 0 0 -1.71804487956954 0 0 0 0 0 0 0 0 0 0 0 0 0 0 0
0 0 0 0 0 0 0 0 0 0 0 0 0 -0.198494243730688 0 0 0 0 0 0 0 0 0 0 0 0 0 -1.18272692337859 0 0 0 0 0 -1.9649201007446 -0.657239191015901 0 0 0 0 0 0 0 0 0 0 0 0 0 -0.910226911181695 0
0 0 0 0.368735972248038 0.798937989246138 0 0.452020835316676 0 0.121976551308139 0 0 0 0 0 -0.198494243730688 0 0 0 0 0 0 0 0 0 0 0 0 -1.28685124337226 0 0 0 0 -2.26033145698612 -2.27950183075313 -0.606579077769451 0 -1.01624749009757 0 -0.581324360258935 0 0 0 0 0 0 0 0 0 -0.373078967495838 0
0 0.0348244344535414 0.278140674933434 0 0 0.186191040306783 0.39975513314431 0 1.96410282099958 0 1.62033429129183 0 0 0 0 -0.198494243730688 0 0 0 0 0 0 0 0 0 0 0 0 0 0 0 0 0 -1.02381867443984 -1.24051396352532 0 -0.151476350505142 0 -3.51018028682989 0 0 0 0 0 0 0 0 0 -0.524823795360597 0
0 0 0 0 0 0 0 0 0 0 0 0 0 0 0 0 -0.198494243730688 0 0 0 0 0 0 0 0 0 0 0 0 -1.44905818387527 0 0 -0.243500657440552 0 0 -0.313409845433609 -4.3211657664335 0 0 0 0 -0.907127097511854 0 0 0 0 0 0 -0.467656772363618 0
0.0768747384267667 0.909996410199602 0.336375838011185 0 0 0 0 0 0 0 0 0 0 0 0 0 0 -0.198494243730688 0 0 0 0 0 0 0 0 0 0 -0.19180919412919 0 0 0 0 0 -0.207661138865594 0 0 0 -0.743566185754878 0 0 -8.08063287464461 0 0 0 0 0 -0.83445826420827 -2.15574651839157 0
0 0 0 0 0.120384208886472 0 0.187836094780104 0 0 0 0 0 0 0 0 0 0 0 -0.198494243730688 0 0 0 0 0 0 0 0 -1.55849411589142 0 0 0 0 -2.32937178530926 0 0 0 -6.94322698720282 0 -3.63407173832923 0 0 -0.579983442806469 0 0 0 0 0 0 -0.459838547221487 0
0 0 0 0 0 0 0 0 0 0 0 0 0 0 0 0 0 0 0 -0.198494243730688 0 0 0 0 0 0 0 0 0 0 0 0 0 0 0 -0.328620172856243 -0.179747230148402 0 0 0 0 -1.56081105056357 0 0 0 0 0 -0.885386484944608 -0.353464261605108 0
0 0 0 0 0.116254275601984 0.152040426874018 0 0.637613621586439 0.279973931096353 0 0 0 0 0 0 0 0 0 0 0 -0.198494243730688 0 0 0 0 0 0 -0.674051992149134 0 0 0 0 0 0 0 -0.279186251127463 -0.575530526987366 0 0 0 0 -1.03993878878343 0 0 0 0 0 -0.452903170518151 -0.735685505708813 0
0 0.343189513987894 0 0 0 0 0 0 0 0 0 0 0 0 0 0 0 0 0 0 0 -0.198494243730688 0 0 0 0 0 0 0 0 0 0 0 0 -1.12964240170966 0 -1.50789316773412 0 0 0 0 0 0 0 0 0 0 0 0 0
0 0 0 0 0 0 0 0 0 0 0 0 0 0 0 0 0 0 0 0 0 0 -0.198494243730688 0.853577604506624 0 0 0 0 0 0 0 0 0 0 0 -0.840274681581457 0 0 0 0 -7.52061127084034 0 0 0 0 0 0 0 -0.274525284995885 0
0 0 0 0 0 0 0 0 0 0 0 0 0 0 0 0 0 0 0 0 0 0 -3.89566985974448 -0.198494243730688 0 0 0 0 0 0 0 0 0 0 -0.0739001573814493 -0.501444372502567 0 0 0 0 0 0 0 0 0 0 0 0 0 0
0 0 0 0 0 0 0 0 0 0 0 0 0 0 0 0 0 0 0 0 0 0 0 0 -0.198494243730688 0 0 0 0 0 0 0 0 0 0 0 0 0 0 0 -0.383897364396164 -1.81141424514095 0 0 0 0 0 0 0 0
0 0 0 0 0 0 0 0 0 0 0.0746496208623213 0.564387069564801 0.069501917923621 0 0 0 0 0 0 0 0 0 0 0 0 -0.198494243730688 0 0 0 0 0 0 0 0 0 0 0 0 0 0 -7.32342643230724 -2.15821157223858 0 0 0 0 0 0 0 0
0 0 0 0 0 0 0 0 0 0 0 0 0 0 0 0 0 0 0 0 0 0 0 0 0 0 -0.198494243730688 0 0 0 0 0 0 0 0 0 0 0 0 0 0 -0.517842832754072 0 0 0 0 0 0 0 0
0 0 0 0 0 0 0 0 0 0 0 0 0 0.255843319612599 0.244140109634841 0 0 0 0.320643556889026 0 0.134077682406417 0 0 0 0 0 0 -0.198494243730688 0 0 0 0 0 0 0 0 0 0 0 0 0 -3.73471722945161 0 0 0 0 0 0 0 0
0 0 0 0 0 0 0 0 0 0 0 0 0 0 0 0 0 0.0407295313183685 0 0 0 0 0 0 0 0 0 0 -0.198494243730688 0 0 0 0 0 0 0 0 0 0 0 0 0 0 0 0 0 0 0 0 0
0 0 0 0 0 0 0 0 0 0 0 0 0 0 0 0 0.302444173505515 0 0 0 0 0 0 0 0 0 0 0 0 -0.198494243730688 0 0 0 0 0 0 0 0 0 0 0 -3.10249489968316 0 0 0 0 0 0 0 0
0 0 0.366279343941931 0 0 0 0 0 0 0 0 0 0 0 0 0 0 0 0 0 0 0 0 0 0 0 0 0 0 0 -0.198494243730688 0 0 0 0 0 0 0 0 0 0 -1.21180817451692 0 0 0 0 0 0 0 0
0 0 0 0 0 0 0 0 0 0 0 0 0 0 0 0 0 0 0 0 0 0 0 0 0 0 0 0 0 0 0 -0.198494243730688 0 0 0 0 0 0 0 0 0 -1.06673014969556 0 0 0 0 0 0 0 0
0 0 0 0 0 0 0 0 0 0 0 0 0 0 0.466550402496341 0 0.0471729064352857 0 0.504067952044248 0 0 0 0 0 0 0 0 0 0 0 0 0 -0.198494243730688 0 0 0 0 0 0 -0.61402918680685 0 -0.909630709342633 0 0 0 0 -2.37299473651452 0 0 0
0 0 0 0 0 0 0 0 0.322243531136888 0 0 0 0 0.36339035446184 0.44761823835542 0.225282721587399 0 0 0 0 0 0 0 0 0 0 0 0 0 0 0 0 0 -0.198494243730688 0 0 0 0 0 0 0 0 0 0 0 0 -3.30448595318955 0 0 0
0 0 0 0 0 0 0 0 0 0 0 0 0.312661000085339 0.121284653209364 0.113721585520519 0.265387381421925 0 0.0421432948512743 0 0 0 0.227156330254906 0 0.0153052973138746 0 0 0 0 0 0 0 0 0 0 -0.198494243730688 0 0 0 0 0 0 0 0 0 0 0 -1.74261883380182 0 0 0
0 0 0 0 0 0 0 0 0 0 0 0 0 0 0 0 0.0621678738049065 0 0 0.0681597651647083 0.0558100383173659 0 0.160718616283924 0.0963548557350073 0 0 0 0 0 0 0 0 0 0 0 -0.198494243730688 0 0 0 0 0 0 0 0 -0.379409195040909 0 0 0 0 0
0 0 0 0 0 0 0 0 0 0 0 0 0 0 0.198370783513114 0.0305518979193785 0.882095277121056 0 1.48296470134934 0.0361549635818268 0.122050445757477 0.282668893408061 0 0 0 0 0 0 0 0 0 0 0 0 0 0 -0.198494243730688 0 0 0 0 0 -0.329280379607476 0 -0.782232198241006 0 0 0 0 0
0 0 0 0 0 0 0 0 0 0 0 0 0 0 0 0 0 0 0 0 0 0 0 0 0 0 0 0 0 0 0 0 0 0 0 0 0 -0.198494243730688 0 0 0 0 0 0 -2.96591834560225 0 -0.949717219307516 0 0 0
0 0 0 0 0 0 0 0 0.23218748427581 0.366126819023266 0.354501906198487 0 0 0 0.116159345844725 0.762607395536933 0 0.142682775970984 0.77722689907224 0 0 0 0 0 0 0 0 0 0 0 0 0 0 0 0 0 0 0 -0.198494243730688 0 0 0 -0.337640615166976 0 -1.33074891033682 0 -3.70285306846575 0 0 0
0 0 0 0 0 0 0 0 0 0 0 0 0 0 0 0 0 0 0 0 0 0 0 0 0 0 0 0 0 0 0 0 0.12640127022349 0 0 0 0 0 0 -0.198494243730688 0 0 -0.43579614631483 0 -1.81503846648579 0 -5.63824081185823 0 0 0
0 0 0 0 0 0 0 0 0 0 0 0 0 0 0 0 0 0 0 0 0 0 1.49298216713772 0 0.078035310210463 1.51465492690057 0 0 0 0 0 0 0 0 0 0 0 0 0 0 -0.198494243730688 0 0 0 -2.64511125531801 0 0 0 0 0
0 0 0 0 0 0 0 0 0 0 0 0 0 0 0 0 0.178896720356782 1.68194266290726 0.122555821644536 0.280081107122592 0.220573515093696 0 0 0 0.355418101483336 0.404093805191319 0.104983815216483 0.699175810202846 0 0.609661710192343 0.252837134544097 0.217824443475501 0.168278013355764 0 0 0 0 0 0 0 0 -0.198494243730688 -1.87529015620347 0 -0.221539215067927 0 0 0 0 0
0 0 0 0 0 0 0 0 0 0 0 0 0 0 0 0 0 0 0 0 0 0 0 0 0 0 0 0 0 0 0 0 0 0 0 0 0.0654777988496907 0 0.0638119991211023 0.0939166082059702 0 0.36994371304846 -0.198494243730688 0.439055648676759 -0.408740449097331 0 0 0 0 0
0 0 0 0 0 0 0 0 0 0 0 0 0 0 0 0 0 0 0 0 0 0 0 0 0 0 0 0 0 0 0 0 0 0 0 0 0 0 0 0 0 0 -2.02693989113828 -0.198494243730688 0 0 0 0 0 0
0 0 0 0 0 0 0 0 0 0 0 0 0 0 0 0 0 0 0 0 0 0 0 0 0 0 0 0 0 0 0 0 0 0 0 0.079661101824501 0.150218050163739 0.55953224914932 0.26795375304518 0.367323820742723 0.4951560460436 0.043913410244617 0.0853974390106612 0 -0.198494243730688 0.563548522418047 0 0 0 0
0 0 0 0 0 0 0 0 0 0 0 0 0 0 0 0 0 0 0 0 0 0 0 0 0 0 0 0 0 0 0 0 0 0 0 0 0 0 0 0 0 0 0 0 -2.71105322886494 -0.198494243730688 0 0 0 0
0 0 0 0 0 0 0 0 0 0 0 0 0 0 0 0 0 0 0 0 0 0 0 0 0 0 0 0 0 0 0 0 0.480176225284504 0.615673673738725 0.342085563464407 0 0 0.193465335653838 0.722933329382574 1.20729357183339 0 0 0 0 0 0 -0.198494243730688 0 0 0
0 0 0 0 0 0 0 0 0 0 0 0 0 0 0 0 0 0.164305189667672 0 0.180981127005966 0.0848095231780794 0 0 0 0 0 0 0 0 0 0 0 0 0 0 0 0 0 0 0 0 0 0 0 0 0 0 -0.198494243730688 0 0
0 0 0 0 0 0 0 0 0 0.157842039186403 0.255193810351865 0.48671251317642 0 0.167789501292574 0.0788142669445949 0.110824254896312 0.0919604314590007 0.454094614748172 0.0948297616023351 0.0736987928698723 0.152338485449447 0 0.0521216005417385 0 0 0 0 0 0 0 0 0 0 0 0 0 0 0 0 0 0 0 0 0 0 0 0 0 -0.198494243730688 0
0 0 0 0 0 0 0 0 0.118737700782525 0 0 0 0 0 0 0 0 0 0 0 0 0 0 0 0 0 0 0 0 0 0 0 0 0 0 0 0 0 0 0 0 0 0 0 0 0 0 0 0 -0.198494243730688
