0.20357851227084
0.444108096508004
0.409645847864823
0.304661221119454
1.3741219248488
1.32306396483836
0.927851538822394
1.0916416034509
0.872203253059779
0.908942728790936
1.27382160514747
2.75397971024854
10.2152306895554
0.365929988685987
3.09126169911028
1.33636152399729
0.133331907151975
7.98296809700565
0.77596429715592
0.464888426607568
0.456502415198293
0.332171541861972
1.61703162264636
0.255292681196631
0.720006922603758
0.392048548838798
0.933836303026861
0.649601291977575
5.60211199597823
1.61267822611074
0.742732943691605
0.0660949325591892
1.77760737976986
0.633484077473354
2.06290596574292
0.487254643399927
2.32766850101963
1.83639662113255
2.15992050239014
0.427009091181688
1.60022007899791
5.94286232444933
0.555769477682789
5.60150462943128
2.29208885659265
0.581188576568127
0.581380911521443
0.897914626873888
4.12517877235047
1.73038172152676
