0.759556161412876
1.53642275954832
1.1195967875836
0.846257502071496
1.12012745044467
1.69598901218089
0.0991947739138084
0.945988112839231
0.426577714395307
0.366096155803963
1.07465990681605
1.4728047837812
0.654166058852015
1.26001473040013
0.865158321852262
0.626549969528185
0.788469507772713
2.66152939263117
0.549902393451187
0.549913551413989
1.84456650452443
0.258986918084302
0.674640845611979
2.66255424496369
0.888166645871436
0.804460320184058
1.37997129203457
3.19303597244083
1.09311389415112
6.59068158194239
0.323270401699127
2.37362697000491
0.315252638373602
0.435776783072495
1.89349256787514
0.609772489391397
0.375283632809576
0.417646001503647
0.642537459511615
2.61108024044644
0.48629491971192
1.0334043975108
0.131578657955616
0.442946464549118
0.843335583230143
0.747779116587592
1.12338633564284
5.14798572982626
0.329660656141509
0.321450023917834
