-0.208306633828215 0 0 0 0 0 0 0 -0.574853580093498 0 0 0 -0.337398756370439 0 0 0 0 0 0 0 0 0 0 0 0 0 0 0 0 0 0 0 0 0 0 0 0 0 0 0 0 0 0 0 0 0 0 0 0 0
0 -0.208306633828215 0 0 0 0 0 0 -0.14350514816272 0 0 0 -0.70527933202026 0 0 0 0 0 0 0 0 0 0 0 0 0 0 0 0 0 0 0 0 0 0 0 0 0 0 0 0 0 -2.00361410941609 0 0 0 0 0 0 0
0 0 -0.208306633828215 0 0 0 0 0 -1.51912438670605 0 0 0 -1.92170163474141 -0.761932926211025 0 0 0 0 0 0 0 0 0 0 0 0 0 0 0 0 0 0 0 0 0 0 0 0 0 0 0 0 -0.777734107417996 0 0 0 0 0 0 0
0 0 0 -0.208306633828215 0 0 0 0 0 0 0 0 0 0 0 0 0 0 0 0 0 0 0 0 0 0 0 0 0 0 0 0 0 0 0 0 0 0 0 0 0 0 -1.64467999083911 0 0 0 0 0 0 0
0 0 0 0 -0.208306633828215 0 0 0 -0.794515437534676 0 0 0 0 0 -1.12123910048757 0 0 0 0 0 0 0 0 0 0 0 0 0 0 0 0 0 0 0 0 -2.85828131110577 0 0 0 0 0 0 -0.365191107991908 0 0 0 0 0 -0.0224871251836817 0
0 0 0 0 0 -0.208306633828215 0 0 -0.283098660771658 0 0 0 0 0 0 0 0 0 0 0 0 0 0 0 0 0 0 0 0 0 0 0 0 0 0 0 0 0 0 0 0 0 -2.15659604397687 0 0 0 0 0 -0.34446104324269 0
0 0 0 0 0 0 -0.208306633828215 0 0 -0.172613847457927 -2.3652281383644 -0.271326878795821 0 0 0 0 0 0 0 0 0 0 -4.33499701082216 0 0 0 0 0 0 0 -0.307568694342036 -1.23169004517599 -0.930081496659791 0 0 0 0 0 0 0 0 0 0 0 0 0 0 0 -1.06790321173679 0
0 0 0 0 0 0 0 -0.208306633828215 0 0 0 0 0 0 0 0 0 0 0 0 0 0 0 0 0 0 0 0 0 0 0 0 -1.90344172165561 0 0 0 -1.94635666832684 0 0 0 -0.743819926306172 0 0 0 0 0 0 0 -1.0667288797848 0
0.116061798009106 0.028181316300247 0.32587891869897 0 0.162135541895773 0.0566372259658989 0 0 -0.208306633828215 0 -0.112360971468629 0 0 0 0 0 0 0 0 0 0 0 -1.10637599324898 0 0 0 0 0 0 0 -1.18939572840231 -5.40737329559687 0 0 0 0 0 0 0 0 -4.24918088600909 -0.310354296872762 -1.62854941997028 0 0 0 0 0 0 0
0 0 0 0 0 0 0.0340408143566514 0 0 -0.208306633828215 0 0 0 0 0 0 0 0 0 0 0 0 -1.28073094950458 0 0 0 0 0 0 0 0 -0.901092239259631 0 0 0 0 0 0 0 0 0 0 -0.636648248314331 0 0 -1.48470227521912 0 0 -0.211817900638458 0
0 0 0 0 0 0 0.447120867134965 0 0.0237812014703515 0 -0.208306633828215 0 0 0 0 0 0 0 0 0 0 0 -1.22828299683024 0 0 0 -1.1676935893745 0 0 0 0 -0.373016518725171 0 0 0 0 -1.41218805889874 0 0 0 0 0 -1.00178620267417 0 0 -0.628413157261661 0 0 0 0
0 0 0 0 0 0 0.0579803978575909 0 0 0 0 -0.208306633828215 0 0 0 0 0 0 0 0 0 0 0 0 -0.66312028401312 0 -1.69367764449519 0 0 0 0 -2.89172247540221 0 0 0 0 -0.53159370150629 0 0 0 -0.656347855488076 0 0 0 0 0 0 0 0 0
0.0631573920148324 0.129887053227752 0.364991753073602 0 0 0 0 0 0 0 0 0 -0.208306633828215 0 0 0 0 0 0 0 0 0 0 0 0 0 0 0 0 0 0 0 0 0 -4.80240416003829 0 0 0 -1.95489839783347 0 0 0 0 0 0 0 0 0 -0.419719068078377 0
0 0 0.15473316358781 0 0 0 0 0 0 0 0 0 0 -0.208306633828215 0 0 -0.897770764630457 0 0 0 0 0 0 0 0 0 -1.28464943431145 0 0 0 0 0 0 0 -0.711361528611714 0 -2.83461181832176 0 -0.301343542692053 0 -0.936568962214369 0 0 0 0 0 0 0 0 0
0 0 0 0 0.245684702235472 0 0 0 0 0 0 0 0 0 -0.208306633828215 0 -0.960420507229784 0 0 0 0 0 0 0 0 0 0 0 0 0 0 -0.682979369795091 0 0 0 0 0 0 -1.73731654937876 0 0 0 0 0 0 0 0 0 -1.3633771376199 0
0 0 0 0 0 0 0 0 0 0 0 0 0 0 0 -0.208306633828215 -0.357057504967506 0 0 -0.1944247493297 0 0 0 0 0 0 0 0 0 0 0 -0.248279782047227 0 0 0 0 0 0 -0.419115622370763 0 -0.477256383477147 0 0 0 0 0 0 0 0 0
0 0 0 0 0 0 0 0 0 0 0 0 0 0.172484806564965 0.210723538351211 0.0754816092009548 -0.208306633828215 0.469380318152763 0 0 0 0 0 0 0 0 0 0 0 0 0 -0.905877750131087 0 0 -1.07304191611131 0 0 0 0 0 -1.76117267477778 0 0 0 0 0 0 0 -0.39714380805338 0
0 0 0 0 0 0 0 0 0 0 0 0 0 0 0 0 -2.23503857681727 -0.208306633828215 0 0 0 0 0 -0.644248093489139 0 0 0 0 0 0 0 0 0 0 0 0 0 0 -0.141075999114236 0 0 0 0 0 0 -0.893985677505585 0 0 -0.249194789419161 0
0 0 0 0 0 0 0 0 0 0 0 0 0 0 0 0 0 0 -0.208306633828215 0 0 -1.57366805406739 0 -1.14268938013585 0 0 0 0 0 0 0 0 0 0 0 0 0 0 0 0 -2.63557191102725 0 0 0 0 0 0 0 -1.26812538848556 0
0 0 0 0 0 0 0 0 0 0 0 0 0 0 0 0.0436163047689078 0 0 0 -0.208306633828215 0 -0.778113806429595 0 0 0 0 0 -0.631193614953785 0 -0.451065482760409 0 0 0 0 0 0 0 0 0 0 0 0 0 0 0 -0.631941606831469 0 0 0 0
0 0 0 0 0 0 0 0 0 0 0 0 0 0 0 0 0 0 0 0 -0.208306633828215 0 0 0 0 0 0 0 0 -6.07450013029163 0 0 0 0 0 0 0 0 0 0 0 0 0 0 0 0 0 0 0 0
0 0 0 0 0 0 0 0 0 0 0 0 0 0 0 0 0 0 0.328680868979061 0.150192834068315 0 -0.208306633828215 0 0 0 0 0 0 0 0 0 0 0 0 0 0 0 0 0 0 0 0 0 0 0 -5.6187284424867 0 0 0 -5.04317078619343
0 0 0 0 0 0 0.844099096651888 0 0.218026960061098 0.246683960976323 0.266378025823209 0 0 0 0 0 0 0 0 0 0 0 -0.208306633828215 0 0 0 0 0 0 0 0 0 0 -0.25930455904584 0 0 0 0 0 0 -3.48749059510988 0 0 0 0 0 0 0 0 -1.15303129817984
0 0 0 0 0 0 0 0 0 0 0 0 0 0 0 0 0 0.130807446852789 0.244348042621592 0 0 0 0 -0.208306633828215 0 0 0 0 0 0 0 0 0 0 0 0 0 0 0 0 0 0 0 0 0 -0.875661034142631 0 0 0 0
0 0 0 0 0 0 0 0 0 0 0 0.129113958191442 0 0 0 0 0 0 0 0 0 0 0 0 -0.208306633828215 0 0 0 0 0 0 0 0 0 0 0 0 0 0 0 -1.2598832152127 0 0 0 0 0 0 0 0 0
0 0 0 0 0 0 0 0 0 0 0 0 0 0 0 0 0 0 0 0 0 0 0 0 0 -0.208306633828215 0 0 0 0 0 0 0 -1.34475341701558 0 0 0 0 0 0 -0.506196660047563 0 0 0 -0.392944564772914 0 0 0 0 0
0 0 0 0 0 0 0 0 0 0 0.224603937659478 0.314853728184636 0 0.239828357060267 0 0 0 0 0 0 0 0 0 0 0 0 -0.208306633828215 0 0 0 0 0 0 -1.1575429375052 0 0 0 0 0 0 0 0 0 0 0 0 0 0 0 0
0 0 0 0 0 0 0 0 0 0 0 0 0 0 0 0 0 0 0 0.130231914921091 0 0 0 0 0 0 0 -0.208306633828215 0 0 0 0 0 -0.617238513832805 0 0 0 0 0 0 0 0 0 0 -1.25028048646752 0 0 0 0 0
0 0 0 0 0 0 0 0 0 0 0 0 0 0 0 0 0 0 0 0 0 0 0 0 0 0 0 0 -0.208306633828215 0 0 0 0 0 0 0 0 0 0 0 0 0 0 0 -1.87650522522451 0 0 0 0 0
0 0 0 0 0 0 0 0 0 0 0 0 0 0 0 0 0 0 0 0.0930780299343028 1.17331391971444 0 0 0 0 0 0 0 0 -0.208306633828215 0 0 0 0 0 0 0 -0.875048883102046 0 0 0 0 0 0 0 0 -0.544270823345845 0 0 0
0 0 0 0 0 0 0.0628392970672089 0 0.243384533231049 0 0 0 0 0 0 0 0 0 0 0 0 0 0 0 0 0 0 0 0 0 -0.208306633828215 0 0 -0.155072710898946 0 0 0 -0.573431940966422 0 0 0 0 0 0 0 0 0 0 0 0
0 0 0 0 0 0 0.231225859191326 0 1.05975747046652 0.192212834036112 0.0795014958549321 0.595804675973964 0 0 0.138320595635726 0.0509617947189286 0.185374987803813 0 0 0 0 0 0 0 0 0 0 0 0 0 0 -0.208306633828215 0 -0.989796042043204 0 0 0 0 0 0 0 0 0 0 0 0 0 0 0 0
0 0 0 0 0 0 0.184731843289868 0.36010144466415 0 0 0 0 0 0 0 0 0 0 0 0 0 0 0 0 0 0 0 0 0 0 0 0 -0.208306633828215 0 0 0 0 -1.34874084271327 0 0 0 0 0 0 0 0 0 0 0 0
0 0 0 0 0 0 0 0 0 0 0 0 0 0 0 0 0 0 0 0 0 0 0.0569855267297062 0 0 0.283036096797529 0.228232431314725 0.126360523938969 0 0 0.0304534073032304 0.190031854177504 0 -0.208306633828215 0 0 0 0 0 0 0 0 0 0 0 0 0 0 0 0
0 0 0 0 0 0 0 0 0 0 0 0 0.907175780329433 0.141102322604566 0 0 0.246619518070725 0 0 0 0 0 0 0 0 0 0 0 0 0 0 0 0 0 -0.208306633828215 0 0 0 0 0 0 0 0 0 0 0 0 0 0 0
0 0 0 0 0.513551044822766 0 0 0 0 0 0 0 0 0 0 0 0 0 0 0 0 0 0 0 0 0 0 0 0 0 0 0 0 0 0 -0.208306633828215 0 -1.47433648639399 0 -0.517266917067799 0 0 0 0 0 0 0 0 0 0
0 0 0 0 0 0 0 0.377137626137742 0 0 0.256469585458562 0.100410310972308 0 0.585212793577812 0 0 0 0 0 0 0 0 0 0 0 0 0 0 0 0 0 0 0 0 0 0 -0.208306633828215 0 0 0 0 0 0 0 0 0 0 0 0 0
0 0 0 0 0 0 0 0 0 0 0 0 0 0 0 0 0 0 0 0 0 0 0 0 0 0 0 0 0 0.172788332735568 0.119910099708454 0 0.284778197162978 0 0 0.33013992978606 0 -0.208306633828215 0 0.00418013668004348 0.107154984501416 0.0605833324640645 0 0.117135124025207 0 0 0 0 0 0
0 0 0 0 0 0 0 0 0 0 0 0 0.389147934387084 0.0641488988827637 0.33798592433759 0.0886823290150778 0 0.0276345543273692 0 0 0 0 0 0 0 0 0 0 0 0 0 0 0 0 0 0 0 0 -0.208306633828215 0 0 0 0 -0.36324551162642 0 0 0 0 0 0
0 0 0 0 0 0 0 0 0 0 0 0 0 0 0 0 0 0 0 0 0 0 0 0 0 0 0 0 0 0 0 0 0 0 0 0.111947527990687 0 -0.0230422249086804 0 -0.208306633828215 0 0 0 0 0 0 0 0 0 0
0 0 0 0 0 0 0 0.145167036313397 0.785672126765929 0 0 0.124223368238259 0 0.194722300346388 0 0.0917701607754166 0.350531940140031 0 0.50940799140256 0 0 0 0.694026517338409 0 0.256301138254514 0.106328091943663 0 0 0 0 0 0 0 0 0 0 0 -0.503036640587492 0 0 -0.208306633828215 0 0 0 0 0 0 0 0 0
0 0 0 0 0 0 0 0 0.0602609186023837 0 0 0 0 0 0 0 0 0 0 0 0 0 0 0 0 0 0 0 0 0 0 0 0 0 0 0 0 -0.304474984084136 0 0 0 -0.208306633828215 0 -7.08018416199967 0 0 0 -0.876535444140926 0 0
0 0.425255188189147 0.150324310826775 0.308045689195884 0.0715854486716269 0.452602751846039 0 0 0.347544701963108 0.138867090694846 0.199646378880488 0 0 0 0 0 0 0 0 0 0 0 0 0 0 0 0 0 0 0 0 0 0 0 0 0 0 0 0 0 0 0 -0.208306633828215 -5.44300773024362 0 0 0 0 0 0
0 0 0 0 0 0 0 0 0 0 0 0 0 0 0 0 0 0 0 0 0 0 0 0 0 0 0 0 0 0 0 0 0 0 0 0 0 -0.571730570874761 0.0689320326229638 0 0 1.39015779834727 1.07927478407978 -0.208306633828215 0 1.2821999724186 0 0 0 0
0 0 0 0 0 0 0 0 0 0 0 0 0 0 0 0 0 0 0 0 0 0 0 0 0 0.0756157850922808 0 0.242047600883559 0.40649361677407 0 0 0 0 0 0 0 0 0 0 0 0 0 0 0 -0.208306633828215 0 0 0 0 0
0 0 0 0 0 0 0 0 0 0.304740749946393 0.133519834439895 0 0 0 0 0 0 0.182865771187769 0 0.119167841256879 0 1.15877733291418 0 0.184978218447317 0 0 0 0 0 0 0 0 0 0 0 0 0 0 0 0 0 0 0 -6.70069610533211 0 -0.208306633828215 0 0 0 0
0 0 0 0 0 0 0 0 0 0 0 0 0 0 0 0 0 0 0 0 0 0 0 0 0 0 0 0 0 0.105505959912896 0 0 0 0 0 0 0 0 0 0 0 0 0 0 0 0 -0.208306633828215 0 0 0
0 0 0 0 0 0 0 0 0 0 0 0 0 0 0 0 0 0 0 0 0 0 0 0 0 0 0 0 0 0 0 0 0 0 0 0 0 0 0 0 0 0.174293880181116 0 0 0 0 0 -0.208306633828215 0 0
0 0 0 0 0.00472348359098501 0.0629028743715996 0.191387423585974 0.212395798749231 0 0.0430819747983261 0 0 0.0846022575912854 0 0.247148909668751 0 0.0779042087154688 0.0467178554243422 0.253264947619935 0 0 0 0 0 0 0 0 0 0 0 0 0 0 0 0 0 0 0 0 0 0 0 0 0 0 0 0 0 -0.208306633828215 0
0 0 0 0 0 0 0 0 0 0 0 0 0 0 0 0 0 0 0 0 0 0.920349082932072 0.223667841221383 0 0 0 0 0 0 0 0 0 0 0 0 0 0 0 0 0 0 0 0 0 0 0 0 0 0 -0.208306633828215
