-0.362290639106767 0 -0.883615296409046 0 0 0 0 0 0 0 0 0 0 -1.46113443894544 0 0 0 0 0 0 0 0 0 0 0 0 0 0 0 0 0 0 0 0 0 0 0 0 0 0 0 0 0 0 0 0 -0.841457614597682 0 0 0
0 -0.362290639106767 0 0 0 -2.06474722444209 0 0 0 -0.778715659993744 0 0 0 0 0 0 0 0 0 0 0 0 -3.2277558957233 0 0 0 0 0 0 0 0 0 0 0 0 0 0 0 0 0 0 0 -0.463255456585158 0 0 0 -0.194451476934196 0 0 0
0.176082142036778 0 -0.362290639106767 0 0 -0.754221694165118 0 -2.28084479593351 0 -1.493493772827 0 0 0 0 0 0 0 0 0 0 0 0 -0.376914280825516 0 0 0 0 0 0 0 0 0 0 0 0 0 0 0 0 0 0 0 -2.16003750220965 0 0 0 -1.81743068689256 0 0 0
0 0 0 -0.362290639106767 0 0 0 0 -3.07583333947795 -3.4091027544788 0 0 0 0 0 0 0 0 0 0 0 0 0 0 0 0 0 0 0 0 0 0 0 0 0 0 0 0 0 0 0 0 -0.7409975273767 0 0 0 0 0 0 0
0 0 0 0 -0.362290639106767 0 0 0 -0.241028580015921 -8.72863031118524 0 0 0 0 -4.20845682981685 0 0 0 0 0 0 0 0 0 0 0 0 0 0 0 0 0 0 0 0 0 0 0 0 0 0 0 0 0 0 0 -0.481723545281706 0 0 0
0 0.419928393146601 0.139666881666202 0 0 -0.362290639106767 0 0 0 0 0 0 0 0 0 0 0 0 0 0 0 0 0 0 0 0 0 0 0 0 0 0 0 0 -8.24287114458514 0 0 0 0 0 0 0 0 0 0 0 0 0 0 0
0 0 0 0 0 0 -0.362290639106767 0 0 0 -2.33591602970488 0 0 0 0 0 0 0 0 0 0 0 0 0 0 0 0 0 0 -3.13191794527689 0 0 0 0 -6.37360052876138 0 0 0 0 0 0 0 0 0 0 0 0 0 0 0
0 0 0.446374342010462 0 0 0 0 -0.362290639106767 0 0 0 -0.230319957874259 0 0 0 0 0 0 0 0 0 0 0 0 0 0 0 0 0 0 0 0 0 0 0 0 0 -0.409668781361837 0 0 0 0 0 0 0 -1.24829569785206 0 0 0 0
0 0 0 0.627543357748234 0.0462859840402211 0 0 0 -0.362290639106767 0 0 -0.255115039664646 0 0 0 -2.06705868912594 0 0 0 0 0 0 0 0 0 0 -0.554317858621799 0 0 -0.933781071456438 0 -0.878611544501656 0 0 0 0 0 0 0 0 0 0 0 0 0 0 0 0 0 0
0 0.154186205711261 0.301141202165057 0.720193244837901 1.68873716094989 0 0 0 0 -0.362290639106767 0 -0.69674585769573 0 0 0 0 0 0 0 0 0 0 0 0 0 0 0 0 0 -1.45178704694568 0 -5.28885501620071 0 0 0 0 0 -0.491990719719019 0 0 0 0 0 0 0 0 -2.10474619167331 0 0 0
0 0 0 0 0 0 0.441242572501969 0 0 0 -0.362290639106767 -0.640198836206179 0 0 0 0 0 0 0 0 0 0 0 0 0 0 -1.1346262079442 0 0 -0.849658987678926 0 -0.214344209525072 0 -6.1133219079055 0 0 0 0 0 0 0 0 0 0 0 -0.704659024171804 -1.97503370421014 0 0 0
0 0 0 0 0 0 0 0.0439355608586522 0.0499248530693949 0.144183051378684 0.13447396271764 -0.362290639106767 0.517467786884204 0.525498537732164 0 0 -1.52756717071885 0 0 0 0 0 0 0 0 0 -2.92080015147615 -0.318070704875536 0 0 0 -0.656299193020239 0 0 0 0 0 0 0 0 0 0 0 0 0 -1.90631943878534 -0.364592843406457 0 0 0
0 0 0 0 0 0 0 0 0 0 0 -2.64375964014317 -0.362290639106767 0 0 0 0 0 0 0 0 0 0 0 0 0 0 -1.20914199836217 0 0 0 0 0 -3.1567828368033 0 0 0 0 0 0 0 0 0 0 0 0 0 0 0 0
0.296471656797824 0 0 0 0 0 0 0 0 0 0 -2.81072948601783 0 -0.362290639106767 0 0 0 0 0 0 0 0 0 0 0 0 0 0 0 0 0 0 0 0 0 0 0 0 -2.33781774700867 0 0 0 0 0 0 0 0 0 0 0
0 0 0 0 0.787153808864626 0 0 0 0 0 0 0 0 0 -0.362290639106767 0 0 0 0 0 0 0 0 0 0 0 0 -0.579324244842559 0 0 -0.308455257059651 0 0 -0.207311811045039 0 0 0 0 -2.20937039964306 0 0 0 0 0 0 -0.521309361229404 -0.472388847195807 0 0 0
0 0 0 0 0 0 0 0 0.418400854414522 0 0 0 0 0 0 -0.362290639106767 0 -0.618473033865724 0 -0.788250345241646 0 0 0 -0.525810211504453 0 0 0 0 0 0 -0.453981807512042 0 0 -0.433089911080062 0 0 0 0 -0.123922267839005 0 0 0 0 -1.82658112110412 0 0 -3.38396053613439 0 -5.10349708012301 0
0 0 0 0 0 0 0 0 0 0 0 0.307645763355475 0 0 0 0 -0.362290639106767 -4.23517033769762 0 0 0 0 0 -0.939922760220074 -2.19217611362405 0 0 -2.3880041621674 0 0 0 0 0 0 0 0 -2.28015940226622 0 -0.51745125516859 0 0 0 0 0 0 0 -3.31641925623023 0 -0.826792993185929 0
0 0 0 0 0 0 0 0 0 0 0 0 0 0 0 0.115236464454673 0.875269280114792 -0.362290639106767 0 -0.551457630403968 0 0 0 0 0 0 0 -2.87384202593302 0 0 0 0 0 0 0 0 -0.516778890321143 -2.06982600698397 0 0 0 0 0 -0.372730948465565 0 0 0 0 0 0
0 0 0 0 0 0 0 0 0 0 0 0 0 0 0 0 0 0 -0.362290639106767 0 -1.68482322420315 0 0 0 0 0 0 0 0 0 0 0 0 0 0 -2.9994852413128 0 0 0 0 0 0 0 0 0 0 0 0 0 0
0 0 0 0 0 0 0 0 0 0 0 0 0 0 0 0.164766391393586 0 0.110373647048055 0 -0.362290639106767 0 -0.616197428535265 0 0 0 0 0 0 0 0 0 0 0 0 0 -2.06463880032515 0 0 0 0 0 0 0 0 0 0 0 0 0 0
0 0 0 0 0 0 0 0 0 0 0 0 0 0 0 0 0 0 0.337717708868938 0 -0.362290639106767 -0.241651419855566 0 0 0 0 0 -3.10552091777731 0 0 0 0 0 0 0 -2.64816763360368 0 0 0 0 0 0 0 0 0 0 0 0 0 0
0 0 0 0 0 0 0 0 0 0 0 0 0 0 0 0 0 0 0 0.126732194093042 0.0480808495776313 -0.362290639106767 0 0 0 0.586261715310544 0 -0.136211221855136 0 0 0 0 0 0 0 0 0 0 0 0 0 0 0 0 0 0 0 0 0 0
0 0.622137955979827 0.0746898585972342 0 0 0 0 0 0 0 0 0 0 0 0 0 0 0 0 0 0 0 -0.362290639106767 0 0 0 0 -1.30934311185005 0 0 0 0 0 0 0 0 0 0 0 0 0 0 0 0 0 0 0 0 0 0
0 0 0 0 0 0 0 0 0 0 0 0 0 0 0 0.115026593504224 0.185476164135714 0 0 0 0 0 0 -0.362290639106767 0 0 0 0 0 0 0 0 0 0 0 -1.03264480718159 0 0 0 0 0 0 0 0 0 0 0 0 0 -0.16291907208863
0 0 0 0 0 0 0 0 0 0 0 0 0 0 0 0 0.419573976917263 0 0 0 0 0 0 0 -0.362290639106767 0 0 -0.334001162247019 0 0 0 0 0 0 0 -0.232328142182477 0 0 0 0 0 0 0 0 0 0 0 0 0 0
0 0 0 0 0 0 0 0 0 0 0 0 0 0 0 0 0 0 0 0 0 -2.93642792848145 0 0 0 -0.362290639106767 0 -0.916315568352075 0 0 0 0 0 0 0 0 0 0 0 0 0 0 0 0 0 0 0 0 0 0
0 0 0 0 0 0 0 0 0.109676617778646 0 0.235268892992363 0.600435776772258 0 0 0 0 0 0 0 0 0 0 0 0 0 0 -0.362290639106767 0 0 0 0 0 0 0 0 -1.91416636477588 0 0 0 0 0 0 0 0 0 0 0 0 0 0
0 0 0 0 0 0 0 0 0 0 0 0.0673077430922942 0.233321026316456 0 0.122207112397494 0 0.494184894889945 0.548297769395416 0 0 0.602097941368689 0.0266874472815235 0.244433701098246 0 0.0677383091571738 0.187418994597179 0 -0.362290639106767 0.291218991784476 0 0 0 0.0700655873495463 0 0 0 0 0 0 0 0 0 0 0 0 0 0 -0.811298972099006 0 0
0 0 0 0 0 0 0 0 0 0 0 0 0 0 0 0 0 0 0 0 0 0 0 0 0 0 0 -1.50899199468901 -0.362290639106767 0 0 0 0 0 0 0 0 0 0 0 0 0 0 0 0 0 0 -0.641205059985433 0 0
0 0 0 0 0 0 0.613456865750834 0 0.186852557677261 0.287967039045766 0.167304729912653 0 0 0 0 0 0 0 0 0 0 0 0 0 0 0 0 0 0 -0.362290639106767 0 0 0 0 0 0 0 0 0 0 0 0 0 0 0 0 0 0 0 -2.37429608441888
0 0 0 0 0 0 0 0 0 0 0 0 0 0 0.0612431329724566 0.0977167974246945 0 0 0 0 0 0 0 0 0 0 0 0 0 0 -0.362290639106767 0 0 0 0 0 0 0 0 0 0 0 0 0 0 0 0 0 0 0
0 0 0 0 0 0 0 0 0.173619220893681 1.09051667040342 0.0453657880611571 0.122019854392163 0 0 0 0 0 0 0 0 0 0 0 0 0 0 0 0 0 0 0 -0.362290639106767 0 0 0 0 0 0 0 0 0 0 0 0 0 0 0 0 0 -0.762183680533231
0 0 0 0 0 0 0 0 0 0 0 0 0 0 0 0 0 0 0 0 0 0 0 0 0 0 0 -0.353538010155367 0 0 0 0 -0.362290639106767 0 0 0 0 0 0 0 0 0 0 0 0 0 0 0 0 0
0 0 0 0 0 0 0 0 0 0 1.15713333696836 0 0.600747711095596 0 0.0433750640974767 0.0822238756861751 0 0 0 0 0 0 0 0 0 0 0 0 0 0 0 0 0 -0.362290639106767 0 0 0 0 0 0 0 0 0 0 0 0 0 0 0 0
0 0 0 0 0 1.6927781840368 1.27266042413025 0 0 0 0 0 0 0 0 0 0 0 0 0 0 0 0 0 0 0 0 0 0 0 0 0 0 0 -0.362290639106767 0 0 0 0 0 0 -1.13022743577593 0 0 0 0 0 0 0 -0.538656815224405
0 0 0 0 0 0 0 0 0 0 0 0 0 0 0 0 0 0 0.588849032746491 0.399242829071849 0.541447267964691 0 0 0.223771418412675 0.0476721603261628 0 0.376448976669084 0 0 0 0 0 0 0 0 -0.362290639106767 0 0 0 0 0 -0.518626857406361 0 0 -2.21967377046384 0 0 0 0 0
0 0 0 0 0 0 0 0 0 0 0 0 0 0 0 0 0.520098580696885 0.108778189953475 0 0 0 0 0 0 0 0 0 0 0 0 0 0 0 0 0 0 -0.362290639106767 0 0 0 0 0 0 0 0 0 0 0 0 0
0 0 0 0 0 0 0 0.0834264661711027 0 0.0911192827871747 0 0 0 0 0 0 0 0.399602467019108 0 0 0 0 0 0 0 0 0 0 0 0 0 0 0 0 0 0 0 -0.362290639106767 0 0 0 0 0 0 -4.29752221842196 0 0 0 0 0
0 0 0 0 0 0 0 0 0 0 0 0 0 0.487193176239827 0.46428330375489 0.0259149098533692 0.10728037469865 0 0 0 0 0 0 0 0 0 0 0 0 0 0 0 0 0 0 0 0 0 -0.362290639106767 0 -1.00481059072878 -1.17907457643573 0 0 -0.384441209916276 0 0 0 0 0
0 0 0 0 0 0 0 0 0 0 0 0 0 0 0 0 0 0 0 0 0 0 0 0 0 0 0 0 0 0 0 0 0 0 0 0 0 0 0 -0.362290639106767 -3.66670637301079 0 0 0 0 0 0 0 0 0
0 0 0 0 0 0 0 0 0 0 0 0 0 0 0 0 0 0 0 0 0 0 0 0 0 0 0 0 0 0 0 0 0 0 0 0 0 0 0.199080249324468 0.654299396108934 -0.362290639106767 -0.332488784650184 0 0 0 0 0 0 0 0
0 0 0 0 0 0 0 0 0 0 0 0 0 0 0 0 0 0 0 0 0 0 0 0 0 0 0 0 0 0 0 0 0 0 0.210923316016692 0.0998686790222225 0 0 0.230495852111946 0 0.0615073674596776 -0.362290639106767 0.102415666236695 0 -0.599061780437631 0 0 0 0 0
0 0.0851844885191998 0.45907405742422 0.154946905130974 0 0 0 0 0 0 0 0 0 0 0 0 0 0 0 0 0 0 0 0 0 0 0 0 0 0 0 0 0 0 0 0 0 0 0 0 0 -0.556934454713251 -0.362290639106767 0 -0.693120478346193 0 0 0 0 0
0 0 0 0 0 0 0 0 0 0 0 0 0 0 0 0.347187515143776 0 0.0759568912846704 0 0 0 0 0 0 0 0 0 0 0 0 0 0 0 0 0 0 0 0 0 0 0 0 0 -0.362290639106767 0 0 0 0 0 0
0 0 0 0 0 0 0 0 0 0 0 0 0 0 0 0 0 0 0 0 0 0 0 0 0 0 0 0 0 0 0 0 0 0 0 0.390666552252547 0 0.84441456017396 0.0780907186653404 0 0 0.115662848156319 0.129620265326029 0 -0.362290639106767 0 0 0 0 0
0 0 0 0 0 0 0 0.281458842837386 0 0 0.142170411256151 0.396120236641684 0 0 0.101790542206695 0 0 0 0 0 0 0 0 0 0 0 0 0 0 0 0 0 0 0 0 0 0 0 0 0 0 0 0 0 0 -0.362290639106767 0 0 0 0
0.172384807557811 0.03728238449775 0.347076360476958 0 0.11215538218093 0 0 0 0 0.425385354847882 0.401458888731686 0.0706680922843008 0 0 0.0865692815884603 0.626053804309884 0.692227554009688 0 0 0 0 0 0 0 0 0 0 0 0 0 0 0 0 0 0 0 0 0 0 0 0 0 0 0 0 0 -0.362290639106767 0 0 0
0 0 0 0 0 0 0 0 0 0 0 0 0 0 0 0 0 0 0 0 0 0 0 0 0 0 0 0.166726957777823 0.128431959011631 0 0 0 0 0 0 0 0 0 0 0 0 0 0 0 0 0 0 -0.362290639106767 0 0
0 0 0 0 0 0 0 0 0 0 0 0 0 0 0 1.0599812659013 0.16587373699871 0 0 0 0 0 0 0 0 0 0 0 0 0 0 0 0 0 0 0 0 0 0 0 0 0 0 0 0 0 0 0 -0.362290639106767 0
0 0 0 0 0 0 0 0 0 0 0 0 0 0 0 0 0 0 0 0 0 0 0 0.0331791820780353 0 0 0 0 0 0.488855636129109 0 0.152763552926136 0 0 0.101059256597194 0 0 0 0 0 0 0 0 0 0 0 0 0 0 -0.362290639106767
