1.09330527570673
0.428213309101294
1.06355964082761
1.51103603200853
0.154817760695372
1.63802229623339
0.679385813737837
2.13636657904284
0.268297229357919
0.969026690485381
4.34278627071768
1.39286438755478
1.38343793580902
0.637168458667697
1.11533297332408
0.0545581437545887
1.5513054173228
0.60707950507354
0.389343350539866
1.50608959039515
1.67203037718611
0.683230361328973
1.39141615782375
0.766107958261128
8.41941198751877
0.537910184699823
0.0730484026162997
0.844248323056453
1.23161118666939
0.724787489762124
0.430033495543169
1.07376930135036
0.959662538581882
0.889689313587888
0.324387096461646
2.33814311308287
1.71375753885328
2.6129000592927
0.596720962268084
1.22303518773382
5.43322515047062
0.926475155496577
0.705024280350167
0.266176626475816
3.15222945903334
0.1396396769048
5.52147955609461
0.116451566401446
0.103266022872744
0.966247391237932
