-0.166848929247539 0 0 0 0 0 -1.24995590586673 0 0 0 0 0 0 0 0 0 0 -0.496424373710885 0 0 0 0 -3.48902566297868 0 0 0 0 0 0 0 0 0 0 -0.982850894154296 0 0 0 0 0 0 0 -1.07519630267677 -0.906327437353372 0 0 0 0 0 0 0
0 -0.166848929247539 0 0 0 0 -1.23197440007622 0 0 0 0 0 0 0 0 0 0 0 0 0 0 0 0 0 0 0 0 0 0 0 0 0 0 -0.670807087506225 0 0 0 0 0 0 0 -0.663703081499638 -0.614173612779705 0 0 0 0 0 0 0
0 0 -0.166848929247539 0 -4.02190094074134 0 -0.279393345754442 0 0 0 0 0 0 0 0 0 0 -1.33287966734598 0 0 0 0 0 0 0 0 0 0 0 0 0 0 0 0 0 0 0 0 0 0 0 0 -2.58356321099738 0 0 0 0 0 0 0
0 0 0 -0.166848929247539 -7.12555499739891 0 0 0 0 -0.301986464030684 0 0 0 0 0 0 0 -8.6223378038101 0 0 0 0 0 0 0 0 0 0 0 0 0 0 0 -4.26302723489742 0 0 0 0 0 0 0 -0.202937316519864 -7.59930072086657 0 0 0 0 0 0 0
0 0 0.841767718689333 1.30325044299434 -0.166848929247539 0 0 0 0 -0.47550740541292 0 0 0 0 0 0 0 0 0 0 0 0 0 0 0 0 0 0 0 0 0 0 -1.65951813497128 0 0 0 0 0 0 0 0 0 0 0 0 0 0 0 0 0
0 0 0 0 0 -0.166848929247539 0 0 0 0 0 0 0 0 0 0 0 0 0 0 0 0 0 0 -0.0721342625513416 0 0 0 0 0 0 0 -2.84798215664054 0 0 0 0 0 0 0 0 0 0 0 0 0 0 0 0 0
0.272011296231324 0.249977851149567 0.0582465482585439 0 0 0 -0.166848929247539 0 0 0 0 0 0 0 0 0 0 0 0 0 0 0 0 0 -1.57138158527082 0 0 0 0 0 0 0 0 0 0 0 0 0 0 0 0 0 0 0 0 0 0 0 0 0
0 0 0 0 0 0 0 -0.166848929247539 0 0 0 0 0 0 0 0 0 -1.37304089884732 0 0 0 0 0 0 -0.154285629581658 0 0 0 0 0 0 0 0 0 0 0 0 0 0 0 0 -1.47924001286351 0 0 0 0 -1.18126884994559 0 0 0
0 0 0 0 0 0 0 0 -0.166848929247539 0 0 -2.03047784081193 0 0 0 0 0 0 0 0 0 0 0 0 0 0 0 0 0 0 0 0 0 0 0 0 0 0 0 0 0 0 0 0 0 0 -0.141449122189313 0 0 0
0 0 0 0.0619494809613921 0.0965670070434845 0 0 0 0 -0.166848929247539 0 -0.434429412953418 0 0 0 0 0 0 0 0 0 0 0 0 -5.16708181013038 0 0 -1.04427151689521 0 0 0 0 0 0 0 0 0 0 0 0 0 0 0 0 0 0 -1.49536241424606 0 0 0
0 0 0 0 0 0 0 0 0 0 -0.166848929247539 0 0 0 -11.5958140462835 0 0 0 0 0 0 0 0 0 0 0 0 0 0 0 0 0 0 0 0 0 0 -1.30108859771003 0 0 0 0 0 0 0 0 -1.04851042430087 0 0 0
0 0 0 0 0 0 0 0 0.413349658368798 0.0852834326780445 0 -0.166848929247539 0 0 -1.24873081583524 0 0 0 0 0 0 0 0 0 0 0 0 -0.72232390056109 0 0 -0.606737498892412 0 0 0 0 0 0 -1.24883107117359 0 0 0 0 0 0 0 0 -0.881420719052646 0 0 0
0 0 0 0 0 0 0 0 0 0 0 0 -0.166848929247539 0 0 0 0 0 0 0 0 0 0 0 0 0 0 0 0 0 0 0 0 0 0 0 0 0 0 0 0 0 0 0 0 0 -1.14061877094335 0 0 -1.0086171401581
0 0 0 0 0 0 0 0 0 0 0 0 0 -0.166848929247539 -0.809244873396358 0 0 0 0 0 0 0 0 0 0 0 0 0 0 0 -0.580759667528109 0 0 0 0 0 0 0 0 0 0 0 0 -1.38590649508651 0 0 0 0 0 -0.40868092843039
0 0 0 0 0 0 0 0 0 0 2.39577344151428 0.250872752124139 0 0.162341329963708 -0.166848929247539 0.206273284181101 0 0 0 0 0 -0.850865264749237 0 0 0 0 0 0 0 0 -1.02196236305767 0 0 0 0 0 0 0 0 0 0 0 0 0 0 -0.857134647179144 -3.34237997344178 0 0 -0.357348305941177
0 0 0 0 0 0 0 0 0 0 0 0 0 0 -1.12550427907553 -0.166848929247539 0 0 0 0 0 -6.68226622376762 0 0 0 0 0 0 0 0 -1.82042624873932 0 0 0 0 0 0 0 0 0 0 0 0 -0.474906154428376 0 -0.208962854902002 0 0 0 0
0 0 0 0 0 0 0 0 0 0 0 0 0 0 0 0 -0.166848929247539 0 -1.9030770459979 0 0 0 0 0 0 0 -0.904102865511688 0 -0.187988254880111 0 -0.546420123704534 0 0 0 0 0 0 0 0 0 0 0 0 -0.347819023840126 0 -1.12228713911365 -0.480170446607461 0 0 0
0.097997681052931 0 0.260652612928887 1.79563303903234 0 0 0 0.284229080668938 0 0 0 0 0 0 0 0 0 -0.166848929247539 0 0 0 0 0 0 0 0 0 0 -2.67901261822891 0 0 0 0 0 0 0 0 0 0 0 0 0 0 -0.256220548417141 0 -3.40359508118863 -0.13563675917384 0 -0.256845154304356 -1.10879536984053
0 0 0 0 0 0 0 0 0 0 0 0 0 0 0 0 0.397031490829392 0 -0.166848929247539 -0.424230248401705 0 0 0 0 0 0 0 0 0 0 -1.34329356965589 0 0 0 0 -0.162737818622948 0 0 0 0 0 0 0 -4.19308363541192 0 0 -0.933292301528997 0 0 -1.07556606620435
0 0 0 0 0 0 0 0 0 0 0 0 0 0 0 0 0 0 0.0829885393857173 -0.166848929247539 0 0 0 0 0 0 0 0 0 0 -0.269250784343821 0 0 0 0 0 0 0 0 0 0 0 0 0 0 0 0 0 -0.636692846144771 -1.04319650492779
0 0 0 0 0 0 0 0 0 0 0 0 0 0 0 0 0 0 0 0 -0.166848929247539 0 0 0 0 0 0 0 -0.490357349734894 0 0 0 0 0 0 0 0 0 0 0 0 0 0 0 0 0 -1.19232105510498 -0.82329990397337 -4.42443955909786 0
0 0 0 0 0 0 0 0 0 0 0 0 0 0 0.178049748471209 1.28591357130898 0 0 0 0 0 -0.166848929247539 0 0 0 -9.9979274990392 0 0 -2.19582142833786 -0.156626701238187 -0.817040724719466 0 0 0 0 -0.276242528414635 0 0 0 0 0 0 0 -0.234858790242922 0 0 0 0 0 -1.04948530478056
0.745456120418908 0 0 0 0 0 0 0 0 0 0 0 0 0 0 0 0 0 0 0 0 0 -0.166848929247539 0 0 0 0 0 -0.740265992206812 0 -0.141787631531267 0 0 0 0 -0.346468675387076 0 0 0 0 0 0 0 0 0 0 0 0 -0.902654309758333 0
0 0 0 0 0 0 0 0 0 0 0 0 0 0 0 0 0 0 0 0 0 0 0 -0.166848929247539 0 0 0 0 -0.185663247312989 -4.68723559257321 -0.889624377269188 -0.726370938271268 0 0 0 -3.48835931921045 0 0 0 0 0 0 0 0 0 0 0 -0.755148141907797 0 0
0 0 0 0 0 0.0154533435697211 0.327191773890093 0.0308221810691985 0 1.08979163941956 0 0 0 0 0 0 0 0 0 0 0 0 0 0 -0.166848929247539 -1.97249611924874 0 0 0 0 -0.319271881914235 0 0 0 0 0 0 0 0 0 0 0 0 -1.50387880294974 -2.45272098352439 0 0 -0.791758386405906 -4.12841293408598 -2.04405249292677
0 0 0 0 0 0 0 0 0 0 0 0 0 0 0 0 0 0 0 0 0 2.00162990446527 0 0 0.401135568342021 -0.166848929247539 0 0.357717036401921 0 0 0 -1.16960799761947 0 0 0 0 0 0 0 0 0 0 0 -0.5199469274249 0 0 0 0 -0.144958635272276 0
0 0 0 0 0 0 0 0 0 0 0 0 0 0 0 0 0.200058709717329 0 0 0 0 0 0 0 0 0 -0.166848929247539 0 0 0 -1.28926424156393 0 0 0 0 0 -1.35049689980046 0 0 0 0 0 0 -1.19961623266937 0 0 0 0 0 0
0 0 0 0 0 0 0 0 0 0.204405726359523 0 0.161568689448423 0 0 0 0 0 0 0 0 0 0 0 0 0 -1.79502510784662 0 -0.166848929247539 0 0 0 0 0 0 0 0 -1.10613286029388 0 -7.18693977800952 0 0 0 0 -1.64490395028655 0 0 0 -0.267967359190296 -0.745909485551092 -2.21593591470469
0 0 0 0 0 0 0 0 0 0 0 0 0 0 0 0 0.0390481319400472 0.504666137570824 0 0 0.0954433591321884 0.433949482876153 0.147364278917799 0.0408543591093084 0 0 0 0 -0.166848929247539 0 0 0 0 0 0 0 0 0 0 0 0 0 0 0 0 0 0 0 0 0
0 0 0 0 0 0 0 0 0 0 0 0 0 0 0 0 0 0 0 0 0 0.033916497264764 0 0.91855167600954 0 0 0 0 0 -0.166848929247539 0 0 0 0 0 0 0 0 0 0 0 0 0 0 0 0 0 0 -1.94932150157482 0
0 0 0 0 0 0 0 0 0 0 0 0.131450348370785 0 0.115580019839966 0.21358236974167 0.360430106882579 0.11219141062161 0 0.265585526930196 0.0566216047543163 0 0.187279340692145 0.0280145481853962 0.182215791446507 0.0638330774136892 0 0.266641966687684 0 0 0 -0.166848929247539 0 0 0 0 0 0 0 0 0 0 0 0 -3.50794632226535 0 0 0 0 -1.53776447183233 0
0 0 0 0 0 0 0 0 0 0 0 0 0 0 0 0 0 0 0 0 0 0 0 0.138287536544315 0 0.220731549226437 0 0 0 0 0 -0.166848929247539 0 0 0 0 0 0 0 0 0 0 0 -0.869812729041286 0 0 0 0 -1.32450770496743 0
0 0 0 0 0.320216702722109 0.538223312268362 0 0 0 0 0 0 0 0 0 0 0 0 0 0 0 0 0 0 0 0 0 0 0 0 0 0 -0.166848929247539 0 0 0 0 0 0 0 0 0 0 -1.16453770209666 0 0 0 0 -0.726074776918066 0
0.204512509846354 0.138602243169636 0 0.845777772634118 0 0 0 0 0 0 0 0 0 0 0 0 0 0 0 0 0 0 0 0 0 0 0 0 0 0 0 0 0 -0.166848929247539 0 0 0 0 0 0 0 0 0 0 0 0 0 0 -1.12826446579685 0
0 0 0 0 0 0 0 0 0 0 0 0 0 0 0 0 0 0 0 0 0 0 0 0 0 0 0 0 0 0 0 0 0 0 -0.166848929247539 0 0 0 0 0 0 0 0 0 0 0 0 0 -0.870663682376891 0
0 0 0 0 0 0 0 0 0 0 0 0 0 0 0 0 0 0 0.0339992280517305 0 0 0.0582812687560711 0.0763324410666537 0.689847215242294 0 0 0 0 0 0 0 0 0 0 0 -0.166848929247539 0 0 0 0 0 0 0 -1.8810799764982 0 0 0 0 0 0
0 0 0 0 0 0 0 0 0 0 0 0 0 0 0 0 0 0 0 0 0 0 0 0 0 0 0.272466765220134 0.218429179923896 0 0 0 0 0 0 0 0 -0.166848929247539 0 0 0 0 0 0 -6.58046591184675 0 0 0 0 -1.3851019274833 0
0 0 0 0 0 0 0 0 0 0 0.269118937801741 0.261520537979216 0 0 0 0 0 0 0 0 0 0 0 0 0 0 0 0 0 0 0 0 0 0 0 0 0 -0.166848929247539 0 0 -1.88393713349147 0 0 -1.84358929337255 0 0 0 0 -0.964926506400429 0
0 0 0 0 0 0 0 0 0 0 0 0 0 0 0 0 0 0 0 0 0 0 0 0 0 0 0 1.46549917886058 0 0 0 0 0 0 0 0 0 0 -0.166848929247539 0 -2.01830321186582 0 0 -0.639312365802622 0 0 0 0 0 0
0 0 0 0 0 0 0 0 0 0 0 0 0 0 0 0 0 0 0 0 0 0 0 0 0 0 0 0 0 0 0 0 0 0 0 0 0 0 0 -0.166848929247539 0 0 0 -1.56440307651401 0 0 0 0 0 0
0 0 0 0 0 0 0 0 0 0 0 0 0 0 0 0 0 0 0 0 0 0 0 0 0 0 0 0 0 0 0 0 0 0 0 0 0 0.36701350161742 0.434332991793842 0 -0.166848929247539 0 0 0 0 0 0 0 0 0
0.214052095627303 0.134369826900687 0 0.0409568305487338 0 0 0 0.312529554468519 0 0 0 0 0 0 0 0 0 0 0 0 0 0 0 0 0 0 0 0 0 0 0 0 0 0 0 0 0 0 0 0 0 -0.166848929247539 0 0 0 0 0 0 0 0
0.17486171108111 0.132217837885699 0.527712488490645 1.57435925297173 0 0 0 0 0 0 0 0 0 0 0 0 0 0 0 0 0 0 0 0 0 0 0 0 0 0 0 0 0 0 0 0 0 0 0 0 0 0 -0.166848929247539 -0.24786612142231 0 0 0 0 0 0
0 0 0 0 0 0 0 0 0 0 0 0 0 0.267225925279415 0 0.0883308603882772 0.0742995491703113 0.0564624026918499 0.832347884951934 0 0 0.0491321307777233 0 0 0.272973665145653 0.101564529702052 0.244032239568127 0.337277326278697 0 0 0.751030986159875 0.167321822823498 0.2475458636041 0 0 0.384271919080742 1.24956151937038 0.349061692286118 0.13150568231203 0.306386912849221 0 0 0.0508900882110755 -0.166848929247539 0 0 0 0 0 0
0 0 0 0 0 0 0 0 0 0 0 0 0 0 0 0 0 0 0 0 0 0 0 0 0.451246586185332 0 0 0 0 0 0 0 0 0 0 0 0 0 0 0 0 0 0 0 -0.166848929247539 0 0 0 0 0
0 0 0 0 0 0 0 0 0 0 0 0 0 0 0.16122970765574 0.0436729498163669 0.210393820012538 0.660305154726544 0 0 0 0 0 0 0 0 0 0 0 0 0 0 0 0 0 0 0 0 0 0 0 0 0 0 0 -0.166848929247539 0 0 0 0
0 0 0 0 0 0 0 0.24701869125453 0.026977979185546 0.301786917953187 0.205601144464607 0.184013890617291 0.246220224268678 0 0.712045300081674 0 0.097043351314331 0.0272285931327288 0.167822950757099 0 0.218303476332259 0 0 0 0 0 0 0 0 0 0 0 0 0 0 0 0 0 0 0 0 0 0 0 0 0 -0.166848929247539 0 0 0
0 0 0 0 0 0 0 0 0 0 0 0 0 0 0 0 0 0 0 0 0.165745702994323 0 0 0.144535653445363 0.162947999415914 0 0 0.0539166086506486 0 0 0 0 0 0 0 0 0 0 0 0 0 0 0 0 0 0 0 -0.166848929247539 0 0
0 0 0 0 0 0 0 0 0 0 0 0 0 0 0 0 0 0.0452721598461206 0 0.120175306088645 0.863589116419862 0 0.181653219503776 0 0.812841461774574 0.0293668866878688 0 0.151142393625599 0 0.425345223481407 0.322548485083338 0.264963732209267 0.149624051575295 0.217996494637384 0.172978387184829 0 0.280808618346737 0.198456275939235 0 0 0 0 0 0 0 0 0 0 -0.166848929247539 0
0 0 0 0 0 0 0 0 0 0 0 0 0.202435336495386 0.082639399700178 0.0808146880610446 0 0 0.213340153594207 0.222113582266159 0.203430874385457 0 0.228730838819884 0 0 0.414708698601651 0 0 0.454151588389963 0 0 0 0 0 0 0 0 0 0 0 0 0 0 0 0 0 0 0 0 0 -0.166848929247539
