0.395473705638701
0.621083379183951
0.52188683947698
0.304087190593088
5.41619161591643
0.831624027453822
0.193529400467983
1.52198196587293
0.266945732788742
0.457490930370777
1.37693722607068
1.34997086379022
0.93749795826057
0.224768015564946
0.799868742031706
0.315691601817737
0.923259676324377
0.31587059984753
2.52135670793066
0.857344507663609
1.02444029857205
0.757540046290753
1.04207992024102
0.751571240554193
0.139595196310796
4.87108987165976
0.422233087788323
0.787639678594853
0.48565049083094
1.17177951547737
1.63051178621299
0.922872222150867
0.816000263350541
10.7433930094154
3.34992589643993
2.12043403436726
2.23069874438658
1.82633041023329
0.558672081652482
0.181453984701414
1.74537327566213
1.14405820928864
0.641645961839997
3.62408762982217
1.26758070986783
0.225557074382864
0.249732541850901
0.515871636820842
1.45295616660236
0.399118008352545
