-0.258688487546445 -0.466895419625253 0 0 0 0 0 0 0 0 0 0 0 0 0 0 0 0 0 0 0 0 0 0 0 0 0 0 0 0 0 0 0 0 0 0 0 0 0 -0.174461097770433 0 0 0 0 0 0 0 0 0 0
0.0954707438898237 -0.258688487546445 0 0 0 0 0 0 0 0 0 0 0 0 0 0 0 0 0 0 0 0 0 0 0 0 0 0 0 0 0 0 0 0 0 0 0 0 0 -1.24492506708068 0 0 0 0 0 0 0 0 0 0
0 0 -0.258688487546445 0 0 0 -0.53576798485484 0 0 0 0 0 0 0 0 0 0 0 0 -0.878654729381777 0 0 0 0 0 0 0 0 0 0 0 0 0 0 0 0 0 0 0 0 0 0 0 0 0 0 0 0 0 0
0 0 0 -0.258688487546445 0 0 0 0 0 0 0 0 0 0 0 0 0 0 0 -2.22806695222536 0 0 0 0 0 0 0 0 0 0 0 0 0 0 0 0 0 0 0 -0.689548638379672 0 0 0 0 0 0 0 0 0 0
0 0 0 0 -0.258688487546445 -0.617692219718597 -0.219231970167878 0 0 -0.299133840922613 0 -5.30510187372042 0 0 -2.83222466326077 0 0 0 0 -0.632822244953468 0 0 0 0 0 0 0 0 0 0 0 -1.77055547400668 0 0 0 0 0 0 0 0 0 0 0 0 0 0 0 0 0 -0.788043202557192
0 0 0 0 0.117888963676854 -0.258688487546445 0.116995972469512 0 0 0 0 0 0 0 0 0 0 0 0 -0.492926162836383 0 0 0 0 0 0 0 0 0 0 -1.6762199487986 -0.270085982204845 0 0 0 0 0 0 0 0 0 0 0 0 0 0 0 0 0 -1.20807991687364
0 0 0.0970644161400583 0 0.0466234499953817 -0.598275989369618 -0.258688487546445 0 0 0 0 -0.444550000366188 0 0 0 0 0 0 0 0 0 0 0 0 0 0 0 0 0 0 -0.278267237906994 0 -0.700568490206902 0 0 0 0 0 0 0 0 0 0 0 0 0 0 0 0 -0.197561636419138
0 0 0 0 0 0 0 -0.258688487546445 0 0 0 -2.36225477347503 0 0 0 0 0 0 0 -1.39704066147392 0 0 0 0 0 0 0 0 0 0 -1.29131430217047 0 -0.216689282154784 0 0 0 0 0 0 0 0 0 0 0 0 0 0 0 0 0
0 0 0 0 0 0 0 0 -0.258688487546445 0 0 0 0 0 0 0 0 0 0 0 0 0 0 0 0 0 0 0 0 0 -1.69365926312902 -1.13861731422372 0 0 0 0 0 0 0 0 0 0 0 0 0 0 0 0 0 -0.227989537902165
0 0 0 0 0.0617504316099368 0 0 0 0 -0.258688487546445 0 0 0 0 0 -0.246482805872194 0 0 0 -0.503355156357856 0 0 0 0 0 0 0 0 0 0 -0.175661978178463 -1.78844403003055 0 0 0 0 0 0 0 0 0 0 0 0 0 0 0 0 0 0
0 0 0 0 0 0 0 0 0 0 -0.258688487546445 0 0 0 0 -0.380287652475457 0 0 0 -0.454263029842429 0 0 0 0 0 0 0 0 0 0 0 0 0 0 0 0 0 0 0 0 0 0 0 0 0 0 0 0 0 -1.80854712514888
0 0 0 0 1.01016537764133 0 0.0914136862315207 0.454698933548262 0 0 0 -0.258688487546445 -0.378764903485234 0 0 0 0 0 0 0 0 -0.840828483027283 0 0 0 0 -0.997169903965068 0 0 0 0 0 0 0 0 0 0 0 0 0 0 0 0 0 0 0 0 0 0 -0.83134324448033
0 0 0 0 0 0 0 0 0 0 0 0.0729077117142969 -0.258688487546445 1.0779762520243 0 0 0 0 0 -2.75151477643388 0 0 0 0 0 0 -2.45073021264553 -1.11126735167838 0 0 0 -2.67179908733446 0 0 0 0 0 0 0 0 -0.695322402508006 0 0 -0.397501742120859 0 0 0 0 0 -1.39946809272733
0 0 0 0 0 0 0 0 0 0 0 0 -5.09106282110395 -0.258688487546445 0 0 0 0 0 0 0 -0.779682871929027 0 0 0 0 0 0 0 0 0 0 0 0 0 0 0 0 0 0 0 0 0 0 0 0 0 0 0 0
0 0 0 0 0.586745735237877 0 0 0 0 0 0 0 0 0 -0.258688487546445 0 0 0 0 0 0 0 0 0 0 -3.09249511616978 -0.685519203891889 0 0 -0.0415802305236102 0 -0.913236401624796 0 0 0 -3.16583852615181 0 0 0 0 0 -0.465965729377211 0 0 0 0 0 -7.43461513973005 0 -0.351240803015723
0 0 0 0 0 0 0 0 0 0.050181036442966 0.0803905863329884 0 0 0 0 -0.258688487546445 0 0 0 -0.649562247595942 0 0 0 0 0 0 0 0 0 0 0 -0.50446156035485 0 0 0 0 0 0 0 0 0 0 0 0 0 0 0 0 0 -1.99959739651493
0 0 0 0 0 0 0 0 0 0 0 0 0 0 0 0 -0.258688487546445 0 0 0 0 0 0 0 0 0 0 0 0 0 0 0 0 0 0 0 0 0 0 0 0 -0.491959467937924 0 0 0 0 0 0 0 -1.08128758916893
0 0 0 0 0 0 0 0 0 0 0 0 0 0 0 0 0 -0.258688487546445 0 0 0 0 0 -0.323998436653964 0 0 0 0 -0.55747810638258 0 0 0 0 0 0 0 0 0 0 0 0 0 0 0 0 0 0 0 0 0
0 0 0 0 0 0 0 0 0 0 0 0 0 0 0 0 0 0 -0.258688487546445 0 0 0 -0.957186150991272 -1.82870951102348 0 0 0 0 -1.9088993542095 -0.581161413162701 0 0 0 0 0 0 0 0 0 0 0 0 0 0 0 0 0 -0.321696299023926 0 0
0 0 0.169546087958653 0.410152837247838 0.114289123952096 0.0904209472569733 0 0.320545570743802 0 0.107724598218507 0.0941256880632056 0 0.532946743089989 0 0 0.119514376139741 0 0 0 -0.258688487546445 -0.744731065694005 0 0 -0.171583857340924 0 0 0 0 -5.22982240877213 0 0 0 0 0 0 0 0 0 0 0 0 0 0 0 0 0 0 -2.24478976605966 0 0
0 0 0 0 0 0 0 0 0 0 0 0 0 0 0 0 0 0 0 0.153624209090538 -0.258688487546445 0.498520259073813 0 -2.07906376366657 0 0 0 0 -3.65479001772341 0 0 0 0 0 0 0 0 0 0 0 0 0 0 0 -2.22420820106436 0 0 0 0 0
0 0 0 0 0 0 0 0 0 0 0 0.156394342378575 0 0.155171012568744 0 0 0 0 0 0 -2.67310408402145 -0.258688487546445 0 0 0 0 0 0 0 0 0 0 0 0 0 0 0 0 0 0 0 0 0 0 0 0 0 0 0 0
0 0 0 0 0 0 0 0 0 0 0 0 0 0 0 0 0 0 0.177344779960883 0 0 0 -0.258688487546445 0 0 0 0 0 -2.74387670574771 -0.367078355555604 0 0 0 0 0 0 0 0 0 0 0 0 0 0 0 0 0 0 0 0
0 0 0 0 0 0 0 0 0 0 0 0 0 0 0 0 0 0.0534618608693121 0.356782512075434 0.0350862618926422 0.398762455200366 0 0 -0.258688487546445 0.0553344254858667 0.0900355989558028 0 0 -4.29217100866228 -0.166090070071157 0 0 0 0 0 0 0 0 0 0 0 0 -1.11143884316846 0 -0.458757491764638 0 0 0 0 0
0 0 0 0 0 0 0 0 0 0 0 0 0 0 0 0 0 0 0 0 0 0 0 -0.27801088301068 -0.258688487546445 0 0 0 0 0 0 0 0 0 -1.72147256300732 0 0 0 0 0 0 0 0 0 0 0 0 0 -3.43325548173865 0
0 0 0 0 0 0 0 0 0 0 0 0 0 0 0.639306837574007 0 0 0 0 0 0 0 0 -0.45613572397099 0 -0.258688487546445 0 0 0 -3.19266138052053 0 0 0 0 0 0 0 0 0 0 0 0 0 0 -0.758509743008475 0 0 0 -0.815777675230403 0
0 0 0 0 0 0 0 0 0 0 0 0.213180244122214 0.489957346508889 0 0.130666355334822 0 0 0 0 0 0 0 0 0 0 0 -0.258688487546445 0 0 0 0 0 0 0 -0.239532820117562 0 0 0 0 0 0 0 -0.345775499597889 0 0 0 0 0 0 0
0 0 0 0 0 0 0 0 0 0 0 0 0.212517350158992 0 0 0 0 0 0 0 0 0 0 0 0 0 0 -0.258688487546445 0 0 0 0 0 0 -0.885350933012081 0 0 0 0 0 0 0 0 0 0 0 -1.40899576444839 0 -0.781613936057195 0
0 0 0 0 0 0 0 0 0 0 0 0 0 0 0 0 0 0.107543804987086 0.364816378048701 1.05641541672277 0.754930962531514 0 0.506932910610114 0.843422992282692 0 0 0 0 -0.258688487546445 0 0 0 0 0 -0.931294315138934 0 0 0 0 0 0 0 0 0 0 0 0 0 0 0
0 0 0 0 0 0 0 0 0 0 0 0 0 0 0.00808868951689465 0 0 0 0.112870668640902 0 0 0 0.0757197028481108 0.0357215417919177 0 0.691071892898817 0 0 0 -0.258688487546445 0 0 0 0 -0.250770729405827 0 -5.30008781505872 0 0 0 0 0 0 0 0 0 0 0 -1.61240604137529 0
0 0 0 0 0 0.357971966398532 0.0532486596379892 0.265890818431163 0.315471319729681 0.0341567010296123 0 0 0 0 0 0 0 0 0 0 0 0 0 0 0 0 0 0 0 0 -0.258688487546445 0 0 0 0 0 0 0 0 0 0 0 -0.204867392312885 0 0 0 -1.50219443910108 0 -0.464232545899226 0
0 0 0 0 0.369588784905376 0.0527220084563894 0 0 0.227976728162646 0.352022774966805 0 0 0.517190158778093 0 0.195460485941065 0.106243546701991 0 0 0 0 0 0 0 0 0 0 0 0 0 0 0 -0.258688487546445 0 0 0 0 0 0 0 0 0 0 0 0 0 0 -0.88950612798287 0 0 0
0 0 0 0 0 0 0.142151347462554 0.0455941290584998 0 0 0 0 0 0 0 0 0 0 0 0 0 0 0 0 0 0 0 0 0 0 0 0 -0.258688487546445 0 0 0 0 0 0 0 0 0 -1.60832064055401 0 0 0 -0.351582523273572 0 -2.23970035716771 0
0 0 0 0 0 0 0 0 0 0 0 0 0 0 0 0 0 0 0 0 0 0 0 0 0 0 0 0 0 0 0 0 0 -0.258688487546445 0 0 -0.552269565959525 0 0 0 0 0 0 0 0 0 -1.51967263192476 0 0 0
0 0 0 0 0 0 0 0 0 0 0 0 0 0 0 0 0 0 0 0 0 0 0 0 0.332661045770741 0 0.0464405344792066 0.16229943669145 0.19209900067912 0.0541197360375359 0 0 0 0 -0.258688487546445 0 -0.618823486701252 0 0 0 0 0 0 0 -0.881586361118232 -2.41158907813709 -0.949430973274672 0 0 0
0 0 0 0 0 0 0 0 0 0 0 0 0 0 0.622718407013419 0 0 0 0 0 0 0 0 0 0 0 0 0 0 0 0 0 0 0 0 -0.258688487546445 0 0 0 0 0 0 0 0 0 0 -0.294817010759308 0 0 0
0 0 0 0 0 0 0 0 0 0 0 0 0 0 0 0 0 0 0 0 0 0 0 0 0 0 0 0 0 1.04967743251586 0 0 0 0.109176615258591 0.123133787759631 0 -0.258688487546445 0 0 0 0 0 0 0 0 0 -0.616110980473694 0 0 0
0 0 0 0 0 0 0 0 0 0 0 0 0 0 0 0 0 0 0 0 0 0 0 0 0 0 0 0 0 0 0 0 0 0 0 0 0 -0.258688487546445 0 0 0 0 0 0 0 0 -0.175070007391403 0 -0.187813558998702 0
0 0 0 0 0 0 0 0 0 0 0 0 0 0 0 0 0 0 0 0 0 0 0 0 0 0 0 0 0 0 0 0 0 0 0 0 0 0 -0.258688487546445 0 0 0 0 0 0 0 -0.763407680972919 0 -5.76775958708919 0
0.0359931433596713 0.251318879882949 0 0.141038276236507 0 0 0 0 0 0 0 0 0 0 0 0 0 0 0 0 0 0 0 0 0 0 0 0 0 0 0 0 0 0 0 0 0 0 0 -0.258688487546445 0 0 0 0 0 0 0 0 0 0
0 0 0 0 0 0 0 0 0 0 0 0 0.141648927932238 0 0 0 0 0 0 0 0 0 0 0 0 0 0 0 0 0 0 0 0 0 0 0 0 0 0 0 -0.258688487546445 0 0 0 0 0 0 0 -3.57190760863319 0
0 0 0 0 0 0 0 0 0 0 0 0 0 0 0.0998770745983188 0 0.105944831088524 0 0 0 0 0 0 0 0 0 0 0 0 0 0 0 0 0 0 0 0 0 0 0 0 -0.258688487546445 0 0 0 0 0 0 -2.17569989105387 0
0 0 0 0 0 0 0 0 0 0 0 0 0 0 0 0 0 0 0 0 0 0 0 0.216034752623486 0 0 0.0676151227429899 0 0 0 0.0417417927318828 0 0.300763805321072 0 0 0 0 0 0 0 0 0 -0.258688487546445 0 0 0 0 0 -1.54504637397084 0
0 0 0 0 0 0 0 0 0 0 0 0 0.0765569344948151 0 0 0 0 0 0 0 0 0 0 0 0 0 0 0 0 0 0 0 0 0 0 0 0 0 0 0 0 0 0 -0.258688487546445 0 0 0 0 0 0
0 0 0 0 0 0 0 0 0 0 0 0 0 0 0 0 0 0 0 0 0.448437486854173 0 0 0.0888140701949719 0 0.148854059339293 0 0 0 0 0 0 0 0 0.18492529157499 0 0 0 0 0 0 0 0 0 -0.258688487546445 0 0 0 0 0
0 0 0 0 0 0 0 0 0 0 0 0 0 0 0 0 0 0 0 0 0 0 0 0 0 0 0 0 0 0 0 0 0 0 0.485620108340112 0 0 0 0 0 0 0 0 0 0 -0.258688487546445 0 0 0 0
0 0 0 0 0 0 0 0 0 0 0 0 0 0 0 0 0 0 0 0 0 0 0 0 0 0 0 0.295712036447536 0 0 0.308025360474082 0.185877541463947 0.067727181800983 0.304868951772611 0.192948596987684 0.0588159147584857 0.124531260223192 0.0329511216928106 0.159453992075257 0 0 0 0 0 0 0 -0.258688487546445 0 0 0
0 0 0 0 0 0 0 0 0 0 0 0 0 0 1.5840592349321 0 0 0 0.0662595841972767 0.441058577808738 0 0 0 0 0 0 0 0 0 0 0 0 0 0 0 0 0 0 0 0 0 0 0 0 0 0 0 -0.258688487546445 0 0
0 0 0 0 0 0 0 0 0 0 0 0 0 0 0 0 0 0 0 0 0 0 0 0 0.663021559094869 0.180035299850589 0 0.14477113484018 0 0.310259220176188 0.0876770198602852 0 0.457627604309226 0 0 0 0 0.0343770405438887 1.16608501263116 0 0.714638154435831 0.461343266474154 0.296545316532 0 0 0 0 0 -0.258688487546445 0
0 0 0 0 0.163760402001564 0.247423943821468 0.0421012065129961 0 0.0451297792969765 0 0.366804659658556 0.172210022955662 0.263047779094489 0 0.070738474884839 0.389690062935227 0.208256419599452 0 0 0 0 0 0 0 0 0 0 0 0 0 0 0 0 0 0 0 0 0 0 0 0 0 0 0 0 0 0 0 0 -0.258688487546445
