1.53627570088552
3.08259921787963
0.102270398997819
0.333321146317793
2.09605880727772
1.23629347365767
2.35660807317864
0.470835414818911
0.546001227595595
0.223799650988433
1.0466323451903
0.137100308847871
0.521281121899787
1.93158779468483
1.16454769773296
9.49147088731707
0.159463601556275
2.57671994523157
1.66612523758707
2.5814509453314
0.812886667348722
0.455156677005456
0.734154461206737
0.552812251864733
1.05697658651524
1.27446882785817
10.3874460044045
0.297484655256932
0.628669402414223
0.589323504138638
3.96394289212561
0.630373014140458
0.378962964125068
3.37311486341585
0.787141773159625
2.37197625220176
1.00220157368424
0.188414848429616
1.44511311877396
2.02106800957227
0.178478563289279
3.13470268515468
1.14716228810758
0.69582739316688
4.06972175698528
1.88087209285141
1.91843513599193
0.449684014255358
1.05743522198619
12.2800306868378
