1.45243061547992
1.26774431330697
0.818251334685027
4.97074848356096
0.269938988149071
0.104846109671953
2.43355551162445
0.71515395025133
2.43113541924763
2.60758915759651
2.70987172405324
0.464200609834593
1.20526133827669
0.136906749556863
0.927515853593255
0.233243412869504
0.237308176799502
1.37710954686355
0.599356927955468
0.768305038428143
0.559858137630141
2.79494376030272
0.551883085239168
0.913318614573835
0.904639838558416
2.87504088918211
1.14020299257794
0.140799968113913
1.53933666149378
6.10079237213946
0.858816980711613
2.01332694556034
0.370592456938101
1.5126771349027
8.3378026109054
1.32131236065911
0.195335453182933
1.80896067672461
0.749159057365869
4.2215030293375
0.289040451011716
1.51645903406727
7.34042898410848
3.92477424379611
0.179675703644383
1.85615296688304
2.59619171335494
1.68525370015262
3.1590888890644
0.22125771976714
