-0.23828692583198 0 0 0 0 0 0 0 0 -1.3351652485941 -0.249476613779956 0 0 0 0 0 0 0 0 0 -7.71298738085504 0 0 0 0 0 0 -1.41378584271087 0 0 0 0 0 0 0 -0.61163313486639 0 0 0 0 0 0 0 0 0 0 0 0 -0.533341848955628 0
0 -0.23828692583198 0 0 0 0 0 0 0 -11.0436179436433 0 -0.587254258571632 0 0 0 0 0 0 0 -0.5051609652729 -1.55266230014266 0 0 0 0 0 0 0 0 0 0 0 0 0 0 0 0 0 0 0 0 0 0 0 0 0 0 0 -0.652538096913688 0
0 0 -0.23828692583198 0 0 0 0 0 -2.71805207135065 -0.657185895360323 -1.29465844305323 0 0 0 0 0 0 0 0 -2.57100066191926 0 0 0 0 0 0 0 0 0 0 0 0 0 0 0 -1.47734565568826 0 0 0 0 0 0 0 0 0 0 0 0 -0.285779547426879 0
0 0 0 -0.23828692583198 0 0 0 0 0 0 0 -0.517037187384217 0 0 0 0 0 0 0 0 0 0 -1.22683615110745 0 0 -1.75764152003107 -0.508809184882025 0 0 0 0 0 0 0 0 -0.415880501817907 0 0 0 0 0 0 0 0 0 0 0 0 -0.623385329703685 0
0 0 0 0 -0.23828692583198 0 0 0 0 0 0 -0.896770564486012 0 0 0 0 0 0 0 0 0 0 -0.859967967012699 0 0 0 -1.12799370994336 0 0 0 0 0 0 0 0 0 0 0 0 0 0 0 0 0 0 0 0 0 -2.56762210035764 0
0 0 0 0 0 -0.23828692583198 0 0 0 0 0 0 -1.9082168097217 0 0 0 0 0 0 0 -2.17478098942997 0 0 0 0 -1.34955060445868 0 0 0 0 0 0 0 0 0 0 0 0 0 0 0 0 0 0 0 0 0 0 0 0
0 0 0 0 0 0 -0.23828692583198 0 0 0 0 0 0 0 0 0 0 0 0 0 -1.18916232304192 0 -0.641396905739637 0 0 -1.14065063957004 -0.468430882129987 0 0 0 0 0 0 0 0 0 0 0 0 0 0 0 0 0 0 0 0 0 0 0
0 0 0 0 0 0 0 -0.23828692583198 0 0 0 0 0 0 0 0 0 0 0 0 0 -0.351331656999993 0 0 0 -0.427198533542437 -0.328575020220513 0 0 0 0 0 0 0 0 0 0 0 0 0 0 0 0 0 0 0 0 0 -0.0462696086507022 0
0 0 0.564026818816508 0 0 0 0 0 -0.23828692583198 0 0 0 0 0 0 0 0 0 0 0 -0.510813822614847 0 0 0 0 -1.52823075988458 0 0 0 0 0 0 0 0 0 0 0 0 0 0 0 0 0 0 0 0 0 0 0 0
0.256878090561225 2.14849972063737 0.124144795691198 0 0 0 0 0 0 -0.23828692583198 0 0 0 0 0 0 0 -0.702885665185998 0 0 0 -2.32981871327821 0 0 0 0 0 0 0 0 0 0 0 0 0 0 0 0 0 0 0 0 0 0 0 0 0 0 0 0
0.0532946811093954 0 0.282681207850359 0 0 0 0 0 0 0 -0.23828692583198 0 0 0 0 0 -2.32238153108626 -2.60232384983174 0 0 0 0 0 0 0 0 0 0 0 0 -2.36993931653776 0 0 0 0 0 0 0 0 0 0 0 0 0 0 0 0 0 0 0
0 0.11958605313468 0 0.100378286180865 0.172996384966799 0 0 0 0 0 0 -0.23828692583198 0 0 0 0 0 -0.4571609236286 0 0 0 0 0 0 0 0 0 0 0 0 0 0 0 0 0 0 0 0 0 0 0 0 0 0 0 0 0 0 0 0
0 0 0 0 0 0.361036589252247 0 0 0 0 0 0 -0.23828692583198 0 -2.49408388981674 0 0 0 0 0 0 0 0 0 0 0 0 0 0 0 0 0 0 0 0 0 0 0 0 0 -2.24975960792871 0 0 0 0 0 0 0 0 0
0 0 0 0 0 0 0 0 0 0 0 0 0 -0.23828692583198 0 0 0 0 0 0 0 0 0 0 0 0 0 0 0 0 0 -1.00478370957771 -0.676954190073341 0 0 0 0 0 0 0 0 0 0 0 0 0 0 0 0 0
0 0 0 0 0 0 0 0 0 0 0 0 0.515186772153404 0 -0.23828692583198 0 0 0 0 0 0 0 0 0 0 0 0 0 0 0 0 0 -0.532626196283204 0 0 0 0 0 0 0 0 0 0 0 0 0 0 0 0 -0.406507622260834
0 0 0 0 0 0 0 0 0 0 0 0 0 0 0 -0.23828692583198 0 0 0 0 0 0 0 0 0 0 0 0 0 0 0 -1.91440113989454 -1.47273131822054 0 0 0 0 0 0 0 0 0 0 0 0 0 0 0 0 0
0 0 0 0 0 0 0 0 0 0 0.456375006268947 0 0 0 0 0 -0.23828692583198 0 -1.70772475845069 0 0 0 0 0 0 0 0 0 0 0 0 -3.80488614555218 0 0 0 0 0 0 0 0 0 0 0 0 0 0 0 0 0 0
0 0 0 0 0 0 0 0 0 0.137191332720735 0.510167889357278 0.093905077858313 0 0 0 0 0 -0.23828692583198 0 0 0 0 0 0 0 0 0 0 0 0 0 -0.370498980306537 0 0 0 0 0 0 0 0 0 0 0 0 0 0 0 0 0 -0.0793220875958607
0 0 0 0 0 0 0 0 0 0 0 0 0 0 0 0 0.33319724958659 0 -0.23828692583198 0 0 0 0 0 0 0 0 0 0 0 0 0 0 0 0 0 0 0 0 0 0 0 0 -0.769397300435619 0 0 0 0 0 -1.20176684108563
0 0.0967776266965049 0.569793951902475 0 0 0 0 0 0 0 0 0 0 0 0 0 0 0 0 -0.23828692583198 0 0 0 0 0 0 0 0 0 0 0 0 0 0 0 0 0 0 0 0 0 0 0 -3.61609946555614 0 0 0 0 0 -1.05224285268236
1.7024260599999 0.309225320826824 0 0 0 0.416821077096478 0.254530375926999 0 0.105296906490094 0 0 0 0 0 0 0 0 0 0 0 -0.23828692583198 0 0 0 0 0 0 0 0 0 0 0 0 0 0 0 0 -0.341485072224383 0 0 0 0 0 -0.607091966095251 0 0 0 0 0 0
0 0 0 0 0 0 0 0.0689337307007327 0 0.492660419309067 0 0 0 0 0 0 0 0 0 0 0 -0.23828692583198 0 0 0 0 0 0 0 0 0 0 0 0 0 0 0 -3.60370005498632 0 0 0 0 0 0 0 0 0 0 0 0
0 0 0 0.240745037536354 0.182922020884673 0 0.130162842169029 0 0 0 0 0 0 0 0 0 0 0 0 0 0 0 -0.23828692583198 0 0 0 0 0 0 0 0 0 0 0 0 0 0 -1.05297947517515 0 0 0 0 0 -0.128146658743545 0 0 0 0 0 0
0 0 0 0 0 0 0 0 0 0 0 0 0 0 0 0 0 0 0 0 0 0 0 -0.23828692583198 0 0 0 0 0 0 0 0 0 0 -0.196046360016753 0 0 -0.257367058553334 -0.773126881429387 0 0 -0.920389070465912 0 -0.62711345222287 0 0 0 0 0 0
0 0 0 0 0 0 0 0 0 0 0 0 0 0 0 0 0 0 0 0 0 0 0 0 -0.23828692583198 0 0 0 0 0 0 0 0 0 -0.340949408120783 0 0 0 -1.01351268111512 0 0 0 0 0 0 0 0 0 0 0
0 0 0 0.339711070811008 0 0.25399356835628 0.249284356183636 0.0899723250405779 0.309876485347895 0 0 0 0 0 0 0 0 0 0 0 0 0 0 0 0 -0.23828692583198 0 0 0 0 0 0 0 0 -0.634586078045923 0 0 0 0 0 0 -9.88922360869268 0 0 0 0 0 0 0 0
0 0 0 0.0978480357704019 0.228511558026561 0 0.0974104913496652 0.0667615218770126 0 0 0 0 0 0 0 0 0 0 0 0 0 0 0 0 0 0 -0.23828692583198 0 0 0 0 0 0 0 -0.640777983410619 0 0 0 -4.27227838063494 -2.37148115525704 0 0 0 -0.187641686657047 0 0 0 0 0 0
0.265526055650419 0 0 0 0 0 0 0 0 0 0 0 0 0 0 0 0 0 0 0 0 0 0 0 0 0 0 -0.23828692583198 0 0 0 0 0 0 -5.36412628874012 0 0 -0.328287656097114 -0.565618655098709 -2.93428905705976 0 0 -0.19264942018351 -7.1410990028084 0 -2.40262127874515 0 0 0 0
0 0 0 0 0 0 0 0 0 0 0 0 0 0 0 0 0 0 0 0 0 0 0 0 0 0 0 0 -0.23828692583198 0 0 0 0 0 0 0 0 0 -0.954172667222073 -0.653794281135565 0 0 -3.97247625878217 0 0 -1.88733502000017 0 0 0 0
0 0 0 0 0 0 0 0 0 0 0 0 0 0 0 0 0 0 0 0 0 0 0 0 0 0 0 0 0 -0.23828692583198 0 0 0 0 0 0 0 0 -1.2467875349539 0 0 -1.69633869738769 -3.89602830590023 0 0 -0.129928572564609 0 0 0 0
0 0 0 0 0 0 0 0 0 0 0.474507570203373 0 0 0 0 0 0 0 0 0 0 0 0 0 0 0 0 0 0 0 -0.23828692583198 0 0 0 0 0 0 -2.66050390448539 -0.879392425156846 0 0 0 -0.252383865934036 -1.79345062949857 0 -0.638209078319496 0 0 0 0
0 0 0 0 0 0 0 0 0 0 0 0 0 0.196655989278241 0 0.364583854258413 0.767465684361792 0.0712747852376952 0 0 0 0 0 0 0 0 0 0 0 0 0 -0.23828692583198 0 0 -1.19352787871938 0 0 -0.932013101081939 -1.34507453565784 0 0 -1.23571703065183 -0.319141339884752 0 0 -1.64903463066132 0 0 0 0
0 0 0 0 0 0 0 0 0 0 0 0 0 0.127812379084288 0.108923817173668 0.28976297074263 0 0 0 0 0 0 0 0 0 0 0 0 0 0 0 0 -0.23828692583198 0 -0.564506636744671 0 0 0 0 0 0 -1.69062755209799 0 -1.37227680976339 0 0 0 0 0 0
0 0 0 0 0 0 0 0 0 0 0 0 0 0 0 0 0 0 0 0 0 0 0 0 0 0 0 0 0 0 0 0 0 -0.23828692583198 0 0 0 0 0 0 0 -1.19844057196256 -1.06384664583915 0 0 -2.40009748479149 0 0 0 0
0 0 0 0 0 0 0 0 0 0 0 0 0 0 0 0 0 0 0 0 0 0 0 0.0409785268823765 0.069750613866435 0.142027236770213 0.132559147560769 1.06592482338124 0 0 0 0.242979069376467 0.113675655221218 0 -0.23828692583198 0.126546766149175 0 0 0 -1.53604619932863 0 -0.193990143192629 0 0 0 -1.60274875170572 0 -4.56026284637237 0 0
0.117801059126278 0 0.297433385097435 0.0869652925056408 0 0 0 0 0 0 0 0 0 0 0 0 0 0 0 0 0 0 0 0 0 0 0 0 0 0 0 0 0 0 -0.650426861987111 -0.23828692583198 0 0 0 0 0 -5.83339413173173 0 -2.36269267166343 0 -2.69242386498139 0 -0.141086393878222 0 0
0 0 0 0 0 0 0 0 0 0 0 0 0 0 0 0 0 0 0 0 0 0 0 0 0 0 0 0 0 0 0 0 0 0 0 0 -0.23828692583198 0 0 0 0 0 0 0 0 -1.78245738334655 0 -1.74141584834335 0 0
0 0 0 0 0 0 0 0 0 0 0 0 0 0 0 0 0 0 0 0 0.0673809233367827 0.683809181057878 0.212849130059616 0.0519750247646809 0 0 0 0.0642607919229428 0 0 0.505464211197929 0.180826888555844 0 0 0 0 0 -0.23828692583198 0 0 0 0 0 0 0 -0.424450071177067 0 0 0 0
0 0 0 0 0 0 0 0 0 0 0 0 0 0 0 0 0 0 0 0 0 0 0 0.145501986160899 0.199556154197346 0 0.811053071213902 0.110029825308528 0.193769526907487 0.267427270149176 0.173481497581122 0.294853410271263 0 0 0 0 0 0 -0.23828692583198 0 0 0 0 0 0 -0.958026250100745 0 0 0 0
0 0 0 0 0 0 0 0 0 0 0 0 0 0 0 0 0 0 0 0 0 0 0 0 0 0 0.447639504677029 0.584090086459126 0.139384596057755 0 0 0 0 0 0.298915119345737 0 0 0 0 -0.23828692583198 0 0 0 0 0 -1.96699644817518 0 -0.0690268700304587 0 0
0 0 0 0 0 0 0 0 0 0 0 0 0.489376987991966 0 0 0 0 0 0 0 0 0 0 0 0 0 0 0 0 0 0 0 0 0 0 0 0 0 0 0 -0.23828692583198 0 0 0 0 0 0 0 0 0
0 0 0 0 0 0 0 0 0 0 0 0 0 0 0 0 0 0 0 0 0 0 0 0.181905813343155 0 1.90834781472791 0 0 0 0.357905728928361 0 0.232428569946341 0.326063816617647 0.237614987403163 0.0393149777552393 1.09332794826533 0 0 0 0 0 -0.23828692583198 0 0 0 0 0 -2.21509169895254 0 0
0 0 0 0 0 0 0 0 0 0 0 0 0 0 0 0 0 0 0 0 0 0 0 0 0 0 0 0.0357939294501677 0.738036154487277 0.800536509717743 0.0488811992933994 0.0660291412626287 0 0.202984724644945 0 0 0 0 0 0 0 0 -0.23828692583198 0 0 0 0 0 0 0
0 0 0 0 0 0 0 0 0 0 0 0 0 0 0 0 0 0 0.153345266603913 0.743019189961251 0.113723340093395 0 0.0246561301131802 0.129679221556711 0 0 0.0373854675844041 1.36803400579746 0 0 0.327443588755247 0 0.279006490911873 0 0 0.48776373315535 0 0 0 0 0 0 0 -0.23828692583198 0 0 0 -0.134984423279122 0 0
0 0 0 0 0 0 0 0 0 0 0 0 0 0 0 0 0 0 0 0 0 0 0 0 0 0 0 0 0 0 0 0 0 0 0 0 0 0 0 0 0 0 0 0 -0.23828692583198 0 0 -1.05411884296633 0 0
0 0 0 0 0 0 0 0 0 0 0 0 0 0 0 0 0 0 0 0 0 0 0 0 0 0 0 0.478247983991225 0.371107416500113 0.0257488040899415 0.138376847166421 0.330892388807785 0 0.448493021275828 0.330104134444486 0.598824422730242 0.36080301247577 0.0829231759816704 0.195417526648618 0.398496691124776 0 0 0 0 0 -0.23828692583198 0 -5.69570274802309 0 0
0 0 0 0 0 0 0 0 0 0 0 0 0 0 0 0 0 0 0 0 0 0 0 0 0 0 0 0 0 0 0 0 0 0 0 0 0 0 0 0 0 0 0 0 0 0 -0.23828692583198 -0.824896464686908 0 0
0 0 0 0 0 0 0 0 0 0 0 0 0 0 0 0 0 0 0 0 0 0 0 0 0 0 0 0 0 0 0 0 0 0 0.870723050690955 0.0283207114855987 0.367954295364844 0 0 0.0141632570878162 0 0.46084949231098 0 0.0271173155018232 0.204698285777899 1.1495301354884 0.158640902034282 -0.23828692583198 0 0.426781998452394
0.0985868372351499 0.115376775312477 0.0594511599632203 0.124474083634625 0.485315033653582 0 0 0.00932452129263942 0 0 0 0 0 0 0 0 0 0 0 0 0 0 0 0 0 0 0 0 0 0 0 0 0 0 0 0 0 0 0 0 0 0 0 0 0 0 0 0 -0.23828692583198 0
0 0 0 0 0 0 0 0 0 0 0 0 0 0 0.080134186064116 0 0 0.0167685980428732 0.229595426814118 0.206338470344643 0 0 0 0 0 0 0 0 0 0 0 0 0 0 0 0 0 0 0 0 0 0 0 0 0 0 0 -2.4138134912027 0 -0.23828692583198
