-0.188042468028402 0 0 0 0 0 0 0 0 0 0 0 0 0 0 0 -1.69193883044668 0 0 0 0 0 0 0 0 0 -11.924776590791 0 0 -0.862797577686931 0 0 0 0 0 0 0 0 0 0 0 0 0 0 0 0 0 0 0 0
0 -0.188042468028402 0 0 0 0 0 0 0 0 0 0 0 0 0 0 -2.37794159976572 -0.329666239284103 0 0 0 0 0 0 0 0 -0.569773835111381 0 0 -0.726404830030473 0 0 0 0 0 0 0 0 0 0 0 0 0 0 0 0 0 0 0 0
0 0 -0.188042468028402 0 0 0 0 0 0 0 0 0 0 0 0 0 0 0 0 0 0 0 0 0 0 0 -7.69122215806003 0 0 0 -0.678169297031404 0 0 0 0 0 0 0 0 0 0 0 0 0 0 0 0 0 0 0
0 0 0 -0.188042468028402 -0.219482374320712 0 0 0 0 0 0 0 0 0 0 0 0 -1.94193530173968 0 0 0 0 0 0 0 0 -1.12884995264241 0 0 -0.735671396118643 0 0 0 0 0 0 0 0 0 0 0 0 0 0 0 0 0 0 0 0
0 0 0 0.0451783600602905 -0.188042468028402 -1.29339441288638 -0.554045538145324 0 0 0 0 0 0 0 0 0 -1.27650684157342 0 0 0 0 0 0 0 0 0 -0.374170626557205 0 0 0 -5.0608349342333 0 -0.383292298078449 0 0 0 0 0 0 0 0 0 0 0 0 0 0 0 0 0
0 0 0 0 0.259404131365147 -0.188042468028402 -1.59442229116283 0 0 -2.8349056917792 0 0 -0.633403894942099 0 0 0 -1.15115320059656 -3.10357047251925 0 0 0 0 0 0 0 0 0 0 0 -2.10142808799745 0 0 -2.10624063144208 0 0 -0.961884731569168 0 0 0 0 0 0 0 0 0 0 0 0 0 0
0 0 0 0 0.103073511273988 0.32009488370457 -0.188042468028402 0 0 0 0 0 0 0 0 0 0 0 0 -0.690271309065122 0 0 0 -0.621148910854901 0 0 0 0 0 0 -0.656246179670478 0 -0.486604340850242 0 0 -2.87958031723619 0 0 0 0 0 0 0 0 0 0 0 0 0 0
0 0 0 0 0 0 0 -0.188042468028402 0 0 0 0 0 0 0 0 0 0 0 0 0 0 0 0 0 0 0 0 0 0 0 0 -2.11086227733252 0 0 0 0 0 -0.562903356464446 -3.84114252076027 0 0 0 0 0 0 0 0 0 0
0 0 0 0 0 0 0 0 -0.188042468028402 0 0 0 0 0 0 0 0 0 0 0 0 -0.89101880788585 0 0 0 0 0 0 0 0 -1.35203577515347 0 0 0 0 -0.123078990118983 0 0 0 -0.675508761642355 0 0 0 -0.59347295470869 0 0 0 0 0 0
0 0 0 0 0 0.55633796877591 0 0 0 -0.188042468028402 0 -0.382411013017742 0 0 0 0 0 0 0 0 0 -2.70733053546131 0 0 0 0 0 0 0 0 0 0 0 0 0 0 0 0 0 -0.644843164916035 0 0 0 -0.872831036920362 0 0 0 0 0 0
0 0 0 0 0 0 0 0 0 0 -0.188042468028402 -2.25240360269592 0 0 0 0 0 0 0 0 0 -0.312500588378523 0 0 0 0 0 0 0 0 -1.42434166701152 0 0 0 0 0 0 0 -0.520192986199948 -1.79145464090902 0 0 0 -0.379589657305584 0 0 0 0 0 0
0 0 0 0 0 0 0 0 0 0.079851316332097 0.466647556011866 -0.188042468028402 0 0.19629135735374 0 0 0.493834232486579 0 0 0 0 0 0 0 0 0 0 0 0 0 -0.336458441061076 0 0 0 0 -2.85163198205072 0 0 0 -0.971969374742976 0 0 0 0 0 0 0 0 0 0
0 0 0 0 0 0.129228871490039 0 0 0 0 0 0 -0.188042468028402 0 0 0 0 0 0 0 0 0 0 0 0 0 0 0 0 0 -0.283756764110682 0 0 0 0 -1.50454557140257 0 0 -0.151154853708524 -0.395331225796513 0 0 0 -1.95469692546189 0 0 0 0 0 0
0 0 0 0 0 0 0 0 0 0 0 -1.04612496638537 0 -0.188042468028402 0 0 0 0 0 0 0 -1.52922778345466 0 0 0 0 0 0 0 0 -6.9891699207135 0 0 0 0 0 0 0 -0.488201198560489 0 0 0 0 -0.387657817194542 0 0 0 0 0 0
0 0 0 0 0 0 0 0 0 0 0 0 0 0 -0.188042468028402 0 0 0 0 0 0 -0.781169396775998 0 0 0 0 0 0 0 0 0 0 0 0 0 -0.579102728551482 -9.99930169137321 0 -1.20434902127366 0 -0.450924196706047 0 0 -0.471627144336267 0 0 0 0 0 0
0 0 0 0 0 0 0 0 0 0 0 0 0 0 0 -0.188042468028402 0 0 0 0 0 0 0 0 0 0 0 0 0 0 -0.266455100720277 0 0 0 0 0 0 0 -0.861017144863448 0 0 0 0 -2.35803160133626 0 0 0 0 0 0
0.336514156927491 0.501969578543187 0 0 0.249379139489826 0.227098160196362 0 0 0 0 0 -2.50638726998325 0 0 0 0 -0.188042468028402 0 0 0 0 -1.25809555534094 0 0 0 0 0 0 0 0 -0.296335443824531 0 0 0 0 0 0 0 0 0 0 0 0 -0.339904179489348 0 0 0 0 0 0
0 0.062789632393287 0 0.377888158460785 0 0.65333800947505 0 0 0 0 0 0 0 0 0 0 0 -0.188042468028402 0 0 -0.174252175303622 -1.12004426080663 0 0 0 0 0 0 0 0 -4.27130301939752 0 0 0 0 0 0 0 0 0 0 0 0 0 0 0 0 0 0 0
0 0 0 0 0 0 0 0 0 0 0 0 0 0 0 0 0 0 -0.188042468028402 0 -0.567698443775058 0 0 0 0 0 0 0 0 0 0 0 0 0 0 0 0 0 0 0 -1.12013488620077 0 0 -1.27530104965364 0 0 0 -0.704967786779448 0 -2.14124752452635
0 0 0 0 0 0 0.14123411410428 0 0 0 0 0 0 0 0 0 0 0 0 -0.188042468028402 0 0 0 0 0 0 0 0 0 0 0 0 0 0 0 0 0 0 0 0 -0.579077482329912 0 -1.86740295329236 -1.19538673968748 0 0 0 0 0 0
0 0 0 0 0 0 0 0 0 0 0 0 0 0 0 0 0 0.0351653806142201 0.103234918513323 0 -0.188042468028402 0 0 0 0 -0.734535803227386 0 0 0 0 0 0 0 0 0 0 0 0 0 0 0 0 -1.31880732216635 -0.821795257777846 0 0 0 0 0 0
0 0 0 0 0 0 0 0 0.169456429947496 0.570914383237875 0.0677065249823838 0 0 0.284566007518283 0.15428093818089 0 0.260318163260751 0.21940424786576 0 0 0 -0.188042468028402 0 0 0 0 0 0 0 0 0 0 0 0 0 0 0 0 0 0 -0.311866616299367 0 0 0 0 0 0 -1.81238056387375 0 0
0 0 0 0 0 0 0 0 0 0 0 0 0 0 0 0 0 0 0 0 0 0 -0.188042468028402 0 -0.315064470565738 0 0 0 0 0 0 0 0 0 0 0 0 0 0 0 -0.137681483358156 0 0 0 0 0 0 -1.46442656415243 0 0
0 0 0 0 0 0 0.122192887952433 0 0 0 0 0 0 0 0 0 0 0 0 0 0 0 0 -0.188042468028402 0 0 0 0 -0.362263961940175 0 0 0 0 0 0 0 0 0 0 0 -3.36607714511569 0 0 0 0 0 0 -0.331343522895205 0 0
0 0 0 0 0 0 0 0 0 0 0 0 0 0 0 0 0 0 0 0 0 0 0.0679644080522557 0 -0.188042468028402 0 0 0 0 0 0 0 0 0 0 0 0 0 0 0 -1.49510091328186 0 0 0 0 0 0 -0.748074202421366 0 0
0 0 0 0 0 0 0 0 0 0 0 0 0 0 0 0 0 0 0 0 0.154957715120091 0 0 0 0 -0.188042468028402 0 0 0 0 0 0 0 0 0 0 0 0 0 0 0 0 0 0 0 0 0 0 -0.420369474978765 0
2.49869403917473 0.117727598710487 1.51696181546324 0.227066286485687 0.0792236775718277 0 0 0 0 0 0 0 0 0 0 0 0 0 0 0 0 0 0 0 0 0 -0.188042468028402 0 0 0 0 0 0 0 0 0 0 0 0 0 -1.17090797652344 0 0 0 0 0 0 0 -3.97441943141716 0
0 0 0 0 0 0 0 0 0 0 0 0 0 0 0 0 0 0 0 0 0 0 0 0 0 0 0 -0.188042468028402 0 0 0 0 0 0 0 0 0 0 0 0 -0.0927624280028417 0 0 0 0 0 0 -1.65444161849964 0 0
0 0 0 0 0 0 0 0 0 0 0 0 0 0 0 0 0 0 0 0 0 0 0 0.0736025158736319 0 0 0 0 -0.188042468028402 0 0 0 0 0 0 0 0 0 0 0 -2.2910040899661 0 0 0 0 0 0 -0.379294635598231 0 0
0.165980137690836 0.149475132457192 0 0.151039940334587 0 0.399199809460831 0 0 0 0 0 0 0 0 0 0 0 0 0 0 0 0 0 0 0 0 0 0 0 -0.188042468028402 0 0 0 -1.97812002725485 0 0 0 0 0 0 0 0 0 0 0 0 0 -7.34233479401232 0 0
0 0 0.145273655404284 0 1.04852823538273 0 0.130573507831398 0 0.277063241635822 0 0.304211497444773 0.0672941833424641 0.0557741209829396 1.32345546497722 0 0.048641092827767 0.0581785153103251 0.771036020825537 0 0 0 0 0 0 0 0 0 0 0 0 -0.188042468028402 0 0 0 0 0 0 0 0 0 0 0 0 0 0 0 0 -1.36074508375144 0 0
0 0 0 0 0 0 0 0 0 0 0 0 0 0 0 0 0 0 0 0 0 0 0 0 0 0 0 0 0 0 0 -0.188042468028402 0 -0.763602433352983 0 0 0 0 0 0 0 0 0 0 0 0 0 -0.639328136097912 -1.60470043748753 0
0 0 0 0 0.0747949862150221 0.377844105053384 0.0994131679562479 0.440666761657885 0 0 0 0 0 0 0 0 0 0 0 0 0 0 0 0 0 0 0 0 0 0 0 0 -0.188042468028402 0 0 0 0 0 0 0 0 0 0 0 0 -3.07114364252906 0 -0.963831354072286 -0.70885351265434 0
0 0 0 0 0 0 0 0 0 0 0 0 0 0 0 0 0 0 0 0 0 0 0 0 0 0 0 0 0 0.370749115853847 0 0.142459926975821 0 -0.188042468028402 0 0 0 0 0 0 0 0 0 0 0 0 0 0 -0.781679508641433 0
0 0 0 0 0 0 0 0 0 0 0 0 0 0 0 0 0 0 0 0 0 0 0 0 0 0 0 0 0 0 0 0 0 0 -0.188042468028402 0 0 0 0 0 0 0 0 0 0 -0.690184086595127 0 0 -4.16696578793191 0
0 0 0 0 0 0.207740905207767 0.560448401418853 0 0.0278654714872796 0 0 0.541124856886144 0.283701079696918 0 0.122606862336827 0 0 0 0 0 0 0 0 0 0 0 0 0 0 0 0 0 0 0 0 -0.188042468028402 0 0 0 0 0 0 0 0 0 -3.52258505669325 0 -0.170526386661361 -0.578727994305018 0
0 0 0 0 0 0 0 0 0 0 0 0 0 0 1.92412485861206 0 0 0 0 0 0 0 0 0 0 0 0 0 0 0 0 0 0 0 0 0 -0.188042468028402 0 0 0 0 0 0 0 0 0 0 0 0 0
0 0 0 0 0 0 0 0 0 0 0 0 0 0 0 0 0 0 0 0 0 0 0 0 0 0 0 0 0 0 0 0 0 0 0 0 0 -0.188042468028402 0 0 0 -0.40064417365366 0 0 0 0 0 -0.359164574614319 0 0
0 0 0 0 0 0 0 0.117625655338738 0 0 0.097087651235528 0 0.0295125929498088 0.0985693382920222 0.219112344045791 0.168292840592044 0 0 0 0 0 0 0 0 0 0 0 0 0 0 0 0 0 0 0 0 0 0 -0.188042468028402 0 0 -2.36163039313144 0 0 0 0 -0.467960294869891 -0.859703712843379 0 0
0 0 0 0 0 0 0 0.773851475603351 0.126854029260845 0.116135810602329 0.327504103296415 0.201366818979381 0.0760293629645459 0 0 0 0 0 0 0 0 0 0 0 0 0 0 0 0 0 0 0 0 0 0 0 0 0 0 -0.188042468028402 0 0 0 0 0 0 0 -2.42637082790954 0 0
0 0 0 0 0 0 0 0 0 0 0 0 0 0 0.0765070574985886 0 0 0 0.2213223680776 0.105868638552172 0 0.0607247394699765 0.026899393244843 0.678926412038984 0.275739460729394 0 0.233913780814913 0.0185063861813936 0.417397119031073 0 0 0 0 0 0 0 0 0 0 0 -0.188042468028402 -0.462634752159981 0 0 0 0 0 -2.17935081062858 0 0
0 0 0 0 0 0 0 0 0 0 0 0 0 0 0 0 0 0 0 0 0 0 0 0 0 0 0 0 0 0 0 0 0 0 0 0 0 0.0794500026450256 0.464948961427052 0 0.0907383909970698 -0.188042468028402 0 0 0 0 0 -0.160875814243001 0 0
0 0 0 0 0 0 0 0 0 0 0 0 0 0 0 0 0 0 0 0.356681834916467 0.295116338881841 0 0 0 0 0 0 0 0 0 0 0 0 0 0 0 0 0 0 0 0 0 -0.188042468028402 0 0 0 0 -1.45260237771948 0 0
0 0 0 0 0 0 0 0 0.110724328167919 0.172772621934018 0.080059833892593 0 0.392139347701143 0.0820150017284479 0.0919639465293977 0.451366250482301 0.0666237245989074 0 0.266256186078333 0.240486246549711 0.1754144840827 0 0 0 0 0 0 0 0 0 0 0 0 0 0 0 0 0 0 0 0 0 0 -0.188042468028402 0 0 -1.3462320706898 -6.45741556161522 0 0
0 0 0 0 0 0 0 0 0 0 0 0 0 0 0 0 0 0 0 0 0 0 0 0 0 0 0 0 0 0 0 0 0 0 0 0 0 0 0 0 0 0 0 0 -0.188042468028402 0 -0.511604585250635 -1.54353917965692 0 0
0 0 0 0 0 0 0 0 0 0 0 0 0 0 0 0 0 0 0 0 0 0 0 0 0 0 0 0 0 0 0 0 0.591965166520228 0 0.143091589272384 0.669746363848005 0 0 0 0 0 0 0 0 0 -0.188042468028402 -0.452698614685099 -0.562415658755259 0 0
0 0 0 0 0 0 0 0 0 0 0 0 0 0 0 0 0 0 0 0 0 0 0 0 0 0 0 0 0 0 0 0 0 0 0 0 0 0 0.103716263638925 0 0 0 0 0.25383318562352 0.105978655447573 0.092358684464045 -0.188042468028402 0.204119495283395 0.116437434073623 0.317159375031483
0 0 0 0 0 0 0 0 0 0 0 0 0 0 0 0 0 0 0.146282825661929 0 0 0.382455936384512 0.290457710662171 0.0640836351312012 0.152117243105698 0 0 0.356803859752997 0.0731865028261252 1.48567967916816 0.25871996239084 0.103573314205387 0.186240299600288 0 0 0.034837332883918 0 0.0696728923346881 0.172039438693645 0.50189800796237 0.474793390836474 0.0305791396189613 0.297516692926139 1.26695189521922 0.320142335197356 0.124131761009647 -1.01267031212184 -0.188042468028402 0 0
0 0 0 0 0 0 0 0 0 0 0 0 0 0 0 0 0 0 0 0 0 0 0 0 0 0.0867353080395163 0.858448302668879 0 0 0 0 0.317444346850931 0.130584995727438 0.146712191026347 0.856123746970197 0.113546633539837 0 0 0 0 0 0 0 0 0 0 -0.607311347043622 0 -0.188042468028402 0
0 0 0 0 0 0 0 0 0 0 0 0 0 0 0 0 0 0 0.446653764944575 0 0 0 0 0 0 0 0 0 0 0 0 0 0 0 0 0 0 0 0 0 0 0 0 0 0 0 -1.55932927309246 0 0 -0.188042468028402
