-0.208427629371189 0 0 -0.282945125134921 0 0 0 0 0 0 0 0 0 0 0 0 0 0 0 0 0 0 0 0 0 0 0 0 0 0 0 0 0 0 0 0 0 0 0 0 0 0 0 0 0 0 0 0 0 0
0 -0.208427629371189 0 0 -0.345505282996827 0 0 0 0 0 0 0 0 0 0 0 0 0 0 0 0 0 0 0 0 0 0 0 0 0 0 0 0 0 0 0 0 0 0 0 0 0 0 0 0 0 0 0 0 0
0 0 -0.208427629371189 0 -6.42776128215349 0 0 0 0 0 0 0 0 0 0 0 0 0 0 0 0 0 0 0 0 0 0 0 0 0 0 0 0 0 0 0 0 0 0 0 0 0 0 0 0 0 0 0 0 0
0.0634002917270891 0 0 -0.208427629371189 0 -0.188740620116015 -0.267996479108765 0 0 0 0 0 -0.216767591763336 0 0 0 0 0 0 0 0 0 0 -3.80996710699213 0 -2.19792972551924 0 0 0 0 -0.473180770533309 0 0 0 0 0 0 0 0 0 0 0 0 0 0 0 0 0 0 0
0 0.067627318100531 1.23808932209826 0 -0.208427629371189 0 0 0 0 0 0 0 0 0 0 0 0 0 0 0 0 0 0 0 0 0 0 0 0 0 -3.32393004766956 0 0 0 0 0 0 0 0 0 0 0 0 0 0 0 0 0 0 0
0 0 0 0.0366604863592285 0 -0.208427629371189 -0.685636042513503 0 0 0 0 0 0 0 0 0 0 0 0 0 0 0 0 -1.83018948098828 0 0 0 0 0 0 -0.706068610954462 0 0 0 0 0 0 0 0 0 0 0 0 0 0 0 0 0 0 0
0 0 0 0.0502314758463774 0 0.144794642241372 -0.208427629371189 0 0 0 0 0 0 0 0 0 0 0 0 0 0 0 0 -0.955616339317666 0 -0.548146054084415 0 0 0 0 0 0 0 0 0 0 0 0 0 0 0 0 0 0 0 0 0 0 0 0
0 0 0 0 0 0 0 -0.208427629371189 0 0 0 0 0 -0.326517394913977 0 0 0 0 0 0 0 0 0 -0.450952075280816 0 -0.0678837822027968 0 0 0 0 0 0 0 0 0 0 0 0 0 0 0 0 0 0 0 0 0 0 0 0
0 0 0 0 0 0 0 0 -0.208427629371189 0 0 0 0 -10.6445564200471 0 0 0 0 0 0 0 0 0 0 0 0 0 0 0 0 0 0 0 0 0 0 0 0 0 0 0 0 0 0 0 0 0 0 0 0
0 0 0 0 0 0 0 0 0 -0.208427629371189 0 -2.39037234864225 0 0 0 0 0 0 0 0 0 0 0 0 0 -0.372187029753979 0 0 0 0 0 0 0 0 0 0 0 0 0 0 0 0 0 0 0 0 0 0 0 0
0 0 0 0 0 0 0 0 0 0 -0.208427629371189 0 0 0 0 0 0 0 0 0 0 0 0 0 0 -1.76663032809396 0 0 0 0 0 0 0 0 0 0 0 0 0 0 0 0 0 0 0 0 0 0 0 0
0 0 0 0 0 0 0 0 0 0.460337424284487 0 -0.208427629371189 0 0 0 0 0 0 0 0 0 0 0 0 0 -0.533720047939897 0 0 0 0 0 0 0 0 0 0 0 0 0 0 0 0 0 0 0 0 0 0 0 0
0 0 0 0.0461912430071899 0 0 0 0 0 0 0 0 -0.208427629371189 0 -1.67474513372105 0 0 0 0 0 0 0 0 0 0 0 0 0 0 0 0 0 0 0 0 0 0 0 0 0 0 0 0 0 0 0 0 0 0 0
0 0 0 0 0 0 0 0.0661257901781394 2.18821820901754 0 0 0 0 -0.208427629371189 -3.77000899621332 0 0 0 0 0 0 0 0 0 0 0 0 0 0 0 0 0 0 0 0 0 0 0 0 0 0 0 0 0 0 0 0 0 0 0
0 0 0 0 0 0 0 0 0 0 0 0 0.326737984247409 0.771354297050971 -0.208427629371189 0 0 0 0 0 0 0 0 0 0 0 0 0 0 0 0 0 0 0 0 0 -0.844595786463128 0 0 0 0 0 0 0 0 0 0 0 -0.339288109413876 0
0 0 0 0 0 0 0 0 0 0 0 0 0 0 0 -0.208427629371189 0 0 -0.0623670464523 0 0 0 0 0 0 0 0 0 0 0 0 0 0 0 0 0 -0.635954548600021 0 0 0 0 0 0 0 0 0 0 0 0 0
0 0 0 0 0 0 0 0 0 0 0 0 0 0 0 0 -0.208427629371189 0 -1.74377751302932 0 0 0 0 0 0 0 0 0 0 0 0 0 0 0 0 0 -1.04964349770803 0 0 0 0 0 0 0 0 0 0 0 0 0
0 0 0 0 0 0 0 0 0 0 0 0 0 0 0 0 0 -0.208427629371189 -0.702409249427812 0 0 0 0 0 0 0 0 -0.851498428995009 0 0 0 0 0 0 0 0 -0.925539443761478 0 0 0 0 0 0 0 -0.448168156566614 0 0 0 0 0
0 0 0 0 0 0 0 0 0 0 0 0 0 0 0 0.0118600037893705 0.331629236569718 0.140053073124334 -0.208427629371189 0 0 0 0 0 0 0 0 -0.365872583529702 -0.389267092153032 0 0 0 0 0 0 0 0 -1.53087290311652 0 0 0 0 0 0 -2.51417661826019 0 0 0 0 0
0 0 0 0 0 0 0 0 0 0 0 0 0 0 0 0 0 0 0 -0.208427629371189 0 0 -0.315210573414717 0 0 0 0 -0.459597458824166 -1.66069326733651 0 0 -0.79093150585697 0 0 0 0 -1.35939137435207 0 0 0 0 0 0 0 0 0 0 0 0 0
0 0 0 0 0 0 0 0 0 0 0 0 0 0 0 0 0 0 0 0 -0.208427629371189 0 0 0 0 0 0 -0.286125952596296 -2.45414757859514 0 0 -0.407019170348695 0 0 0 0 -1.19327418963953 -0.410711168287558 0 0 0 0 0 0 -0.296847928488631 0 0 0 0 0
0 0 0 0 0 0 0 0 0 0 0 0 0 0 0 0 0 0 0 0 0 -0.208427629371189 0 0 0 0 0 -1.21002439309469 -2.88819729525253 0 0 0 0 0 0 0 0 0 0 0 0 -0.385749427964111 0 0 -0.193548116412299 0 0 0 0 0
0 0 0 0 0 0 0 0 0 0 0 0 0 0 0 0 0 0 0 0.066437634939338 0 0 -0.208427629371189 0 0 0 0 -0.455099718279585 -0.219145578496465 0 0 0 0 0 -0.860035579643167 0 0 -1.04360303819888 0 0 0 -0.822970344726486 0 0 0 0 0 0 0 0
0 0 0 0.788074805987895 0 0.37226638730852 0.202689992754626 0.0933882830974389 0 0 0 0 0 0 0 0 0 0 0 0 0 0 0 -0.208427629371189 0 0 0 0 0 0 0 0 0 0 0 0 0 -1.00264518261737 0 0 0 -1.08774197954064 -0.14097258928218 0 0 0 0 0 0 0
0 0 0 0 0 0 0 0 0 0 0 0 0 0 0 0 0 0 0 0 0 0 0 0 -0.208427629371189 0 0 0 -1.09239177167124 0 0 0 0 0 -0.18404978386241 0 0 0 0 0 0 -0.558458710827667 -1.32830320625295 0 0 0 0 0 0 0
0 0 0 0.461397753715035 0 0 0.111476045976587 0.0141663520149474 0 0.0709574721320091 0.331308863702676 0.103281234178407 0 0 0 0 0 0 0 0 0 0 0 0 0 -0.208427629371189 0 0 0 0 0 0 0 0 0 0 0 0 0 0 0 0 -0.145279460600211 0 0 0 0 0 0 0
0 0 0 0 0 0 0 0 0 0 0 0 0 0 0 0 0 0 0 0 0 0 0 0 0 0 -0.208427629371189 0 -2.78252103274252 0 0 0 0 0 -0.39897532921588 0 0 0 0 0 0 -0.31429247481915 -0.26619881832637 0 -0.279481782028751 0 0 0 0 0
0 0 0 0 0 0 0 0 0 0 0 0 0 0 0 0 0 0.184383300596265 0.0786349954376877 0.0959005801002605 0.0522296827039754 0.207674285045705 0.085249579438117 0 0 0 0 -0.208427629371189 -3.76978587321825 0 0 0 0 0 -3.29868205913499 0 0 0 0 0 0 -0.577311741944243 -2.42843683583825 0 0 0 0 0 0 0
0 0 0 0 0 0 0 0 0 0 0 0 0 0 0 0 0 0 0.0799865088370928 0.341171628970002 0.482025221461047 0.610609775066256 0.0486310462297439 0 0.214305754304891 0 0.55911457564195 0.837647420635474 -0.208427629371189 0 0 0 0 0 0 0 0 0 0 0 0 -0.934096415692746 -2.15829703954986 0 0 0 0 0 0 0
0 0 0 0 0 0 0 0 0 0 0 0 0 0 0 0 0 0 0 0 0 0 0 0 0 0 0 0 0 -0.208427629371189 0 0 0 0 0 0 0 0 -0.454267293097695 0 0 0 -1.66873498101833 0 0 -0.117572388518271 0 0 0 0
0 0 0 0.103452220224679 0.691137120329773 0.140760939416857 0 0 0 0 0 0 0 0 0 0 0 0 0 0 0 0 0 0 0 0 0 0 0 0 -0.208427629371189 0 0 0 -1.55061281818077 0 0 0 0 0 0 0 -0.426605946924116 0 0 0 0 0 0 0
0 0 0 0 0 0 0 0 0 0 0 0 0 0 0 0 0 0 0 0.16015072030867 0.0807955370469196 0 0 0 0 0 0 0 0 0 0 -0.208427629371189 0 -3.21479919054148 0 -3.72485479885623 0 0 0 0 0 0 0 0 0 -1.36756379628879 0 -0.649645829669265 0 0
0 0 0 0 0 0 0 0 0 0 0 0 0 0 0 0 0 0 0 0 0 0 0 0 0 0 0 0 0 0 0 0 -0.208427629371189 0 0 0 0 0 0 0 0 0 0 0 0 -1.39851138012467 0 0 0 0
0 0 0 0 0 0 0 0 0 0 0 0 0 0 0 0 0 0 0 0 0 0 0 0 0 0 0 0 0 0 0 0.654806679843399 0 -0.208427629371189 0 0 0 0 0 0 0 0 0 0 0 0 0 0 0 0
0 0 0 0 0 0 0 0 0 0 0 0 0 0 0 0 0 0 0 0 0 0 0.177597562574055 0 0.0369670693219739 0 0.0844610367077103 0.634100577984889 0 0 0.322718598487415 0 0 0 -0.208427629371189 0 0 0 0 0 0 0 0 0 0 0 -0.350855149533021 0 0 0
0 0 0 0 0 0 0 0 0 0 0 0 0 0 0 0 0 0 0 0 0 0 0 0 0 0 0 0 0 0 0 0.710452025658678 0 0 0 -0.208427629371189 0 0 0 0 0 0 0 0 0 -0.509070594690916 -5.60342599586975 0 0 -2.0645518893204
0 0 0 0 0 0 0 0 0 0 0 0 0 0 0.171934342204591 0.12658388103511 0.220568801996878 0.176253620875374 0 0.259692129017567 0.245311476196965 0 0 0 0 0 0 0 0 0 0 0 0 0 0 0 -0.208427629371189 0 0 0 0 0 0 0 0 0 -1.61584921598721 0 0 -0.326737104667541
0 0 0 0 0 0 0 0 0 0 0 0 0 0 0 0 0 0 0.293565223796881 0 0.0880719483129007 0 0.203453256044269 0.195519857672982 0 0 0 0 0 0 0 0 0 0 0 0 0 -0.208427629371189 0 0 0 0 0 0 0 -0.280405922667127 -0.979393508265624 0 0 -0.988608784898121
0 0 0 0 0 0 0 0 0 0 0 0 0 0 0 0 0 0 0 0 0 0 0 0 0 0 0 0 0 0.0892835457020233 0 0 0 0 0 0 0 0 -0.208427629371189 0 0 0 0 0 0 -1.24017165915912 -0.550906347138871 0 0 0
0 0 0 0 0 0 0 0 0 0 0 0 0 0 0 0 0 0 0 0 0 0 0 0 0 0 0 0 0 0 0 0 0 0 0 0 0 0 0 -0.208427629371189 0 0 0 0 0 -1.96905728059414 0 0 0 -0.162527281093861
0 0 0 0 0 0 0 0 0 0 0 0 0 0 0 0 0 0 0 0 0 0 0 0 0 0 0 0 0 0 0 0 0 0 0 0 0 0 0 0 -0.208427629371189 0 0 0 0 -0.885408030344932 0 0 0 0
0 0 0 0 0 0 0 0 0 0 0 0 0 0 0 0 0 0 0 0 0 0.0760833625443997 0.159636290920324 0.225284204339452 0.112702173235202 0 0.0658568875373287 0.122563198861538 0.197504676949365 0 0 0 0 0 0 0 0 0 0 0 0 -0.208427629371189 0 0 0 -2.79876193573756 -0.670497082503951 0 0 0
0 0 0 0 0 0 0 0 0 0 0 0 0 0 0 0 0 0 0 0 0 0 0 0.0299397701535575 0.278656174097496 0.0276539072158485 0.0559856799194851 0.474748312440021 0.443282727743955 0.345504933667851 0.0819834842007352 0 0 0 0 0 0 0 0 0 0 0 -0.208427629371189 0 0 0 0 0 0 -2.29884037275083
0 0 0 0 0 0 0 0 0 0 0 0 0 0 0 0 0 0 0 0 0 0 0 0 0 0 0 0 0 0 0 0 0 0 0 0 0 0 0 0 0 0 0 -0.208427629371189 0 0 0 0 0 -8.26712617774195
0 0 0 0 0 0 0 0 0 0 0 0 0 0 0 0 0 0.0979694944590702 0.500049183613054 0 0.0595998877231351 0.0362956067176637 0 0 0 0 0.0563291057350284 0 0 0 0 0 0 0 0 0 0 0 0 0 0 0 0 0 -0.208427629371189 0 0 0 0 -0.388286236382507
0 0 0 0 0 0 0 0 0 0 0 0 0 0 0 0 0 0 0 0 0 0 0 0 0 0 0 0 0 0.0240269429912274 0 0.269100397477858 0.278084308869065 0 0 0.105063182892698 0 0.0575170936911529 0.257073740981537 0.394383750832042 0.164022877432509 0.592953876824556 0 0 0 -0.208427629371189 0 0 0 0
0 0 0 0 0 0 0 0 0 0 0 0 0 0 0 0 0 0 0 0 0 0 0 0 0 0 0 0 0 0 0 0 0 0 0.0656100734280725 1.09382321919608 0.325609480256556 0.193567589917213 0.0996229419549545 0 0 0.130243275787088 0 0 0 0 -0.208427629371189 0 0 0
0 0 0 0 0 0 0 0 0 0 0 0 0 0 0 0 0 0 0 0 0 0 0 0 0 0 0 0 0 0 0 0.128179529731663 0 0 0 0 0 0 0 0 0 0 0 0 0 0 0 -0.208427629371189 0 -0.757497747944954
0 0 0 0 0 0 0 0 0 0 0 0 0 0 0.0632870754738591 0 0 0 0 0 0 0 0 0 0 0 0 0 0 0 0 0 0 0 0 0 0 0 0 0 0 0 0 0 0 0 0 0 -0.208427629371189 0
0 0 0 0 0 0 0 0 0 0 0 0 0 0 0 0 0 0 0 0 0 0 0 0 0 0 0 0 0 0 0 0 0 0 0 0.429384563310396 0.0646269567509322 0.184531661103177 0 0.0317810925861617 0 0 0.458675938585764 1.5495695731363 0.0789522425052733 0 0 0.147549964378061 0 -0.208427629371189
