-0.563493538998677 0 0 0 0 -1.81712218510526 0 0 0 0 0 0 0 0 0 0 0 0 0 0 0 0 0 -0.530000105736208 0 0 0 0 -0.675371658327894 0 0 0 0 0 0 0 0 0 0 0 0 0 0 0 0 0 0 0 0 0
0 -0.563493538998677 -3.79255516649053 0 0 0 0 0 0 0 0 0 0 -0.737672108748409 0 0 0 0 -3.11695874180497 0 0 0 0 -0.44356083657684 0 0 0 0 0 0 0 0 -4.03540207228648 0 0 0 0 0 0 0 0 0 0 0 0 0 0 0 0 0
0 0.727552808733927 -0.563493538998677 0 0 0 0 0 -0.760270650477472 0 0 0 0 0 0 0 0 0 -0.249744181267391 0 0 0 0 -1.421244538911 0 0 0 0 0 0 0 0 -2.25429960621839 0 0 0 0 0 0 0 0 0 0 0 0 -0.616820033407305 0 0 0 0
0 0 0 -0.563493538998677 0 0 0 0 0 0 0 0 0 0 0 0 0 -0.583430872090877 0 0 0 0 0 -2.13821851128747 0 0 0 0 0 0 0 0 -1.12116185961138 0 0 0 0 -0.980262296506686 0 0 0 0 0 0 0 0 0 0 0 0
0 0 0 0 -0.563493538998677 0 0 0 0 0 0 0 0 0 0 0 0 0 0 0 0 0 0 -0.307554818498613 0 0 0 0 0 0 0 0 -0.288751107826962 0 0 0 0 0 0 0 0 0 0 0 0 -0.39986884952152 0 0 0 0
0.376870380819404 0 0 0 0 -0.563493538998677 0 0 0 0 0 0 0 0 0 0 0 -0.42386056324119 0 0 0 0 0 0 0 0 0 0 0 0 0 0 0 0 0 0 0 -1.81039261525495 0 0 0 0 0 0 0 -0.318532495135831 0 0 0 0
0 0 0 0 0 0 -0.563493538998677 -1.09284082632144 0 0 0 0 0 0 -2.14942174014431 -4.91508824562929 0 0 0 -1.23148560716056 0 -0.900292375113248 0 0 0 0 0 0 0 0 0 0 0 0 0 0 0 -2.09013353523387 0 0 0 0 0 0 0 0 0 0 0 0
0 0 0 0 0 0 0.221252141827009 -0.563493538998677 0 0 0 0 -0.503958383463879 0 0 0 0 0 0 -1.39516374932469 0 -1.70707456456937 0 0 -1.0280322983963 0 0 0 0 0 0 -1.38842381567088 0 0 0 0 0 -0.923077715062752 0 0 0 0 0 0 0 0 0 0 0 0
0 0 0.167557879989805 0 0 0 0 0 -0.563493538998677 0 0 0 -0.235403074818854 0 0 0 0 0 0 0 0 0 0 0 0 0 0 0 0 0 0 -0.168077930891889 0 -0.908438500515578 0 0 -0.925927701582198 -2.14826396567024 0 0 0 0 -1.2848084847616 -0.648477736724342 -1.06470245600397 0 0 0 0 0
0 0 0 0 0 0 0 0 0 -0.563493538998677 0 0 0 0 0 0 0 0 0 0 0 0 0 0 0 0 0 0 0 0 0 0 0 -0.30604493204619 0 0 -1.32044695397549 0 0 0 0 0 -1.39533710665272 0 -0.663459524019441 0 0 0 0 0
0 0 0 0 0 0 0 0 0 0 -0.563493538998677 0 -2.55493354684296 0 0 0 0 0 0 0 -0.656355983071685 0 0 0 0 0 0 0 0 0 0 -0.182855317323828 0 0 0 0 0 -0.896913385007907 0 0 0 0 -0.943481663038096 -4.02709147700529 -4.19731628268805 0 0 0 0 0
0 0 0 0 0 0 0 0 0 0 0 -0.563493538998677 0 0 0 0 0 0 0 0 0 0 0 0 0 0 0 0 0 0 0 -0.350294210487166 0 0 0 0 0 0 0 0 0 0 0 0 -1.16774156045433 0 0 0 0 0
0 0 0 0 0 0 0 0.104089302023405 0.0480523798131645 0 0.507133554382816 0 -0.563493538998677 0 0 0 0 0 0 0 -0.592431029155215 0 0 0 0 0 0 0 0 0 0 -0.17439157874801 0 0 0 0 0 0 0 0 0 0 0 0 0 0 0 0 0 0
0 0.14864761418523 0 0 0 0 0 0 0 0 0 0 0 -0.563493538998677 0 0 0 0 0 0 0 0 0 0 0 0 0 0 0 0 0 0 0 -2.92506782386168 0 0 0 0 0 0 0 0 0 0 -0.233092962413916 0 0 0 0 0
0 0 0 0 0 0 0.400633923542229 0 0 0 0 0 0 0 -0.563493538998677 0 0 0 0 0 0 0 0 0 0 0 0 0 0 0 0 -0.292618645100932 0 -0.475086403637643 0 0 -0.441911337642333 0 0 0 0 0 0 0 0 0 0 0 0 0
0 0 0 0 0 0 1.05705166373176 0 0 0 0 0 0 0 0 -0.563493538998677 0 0 0 0 -0.182863273455261 0 0 0 0 0 0 0 0 0 0 0 0 0 0 0 -3.25864151853892 0 0 0 0 0 0 0 -0.462320311556383 0 0 0 0 -1.30573307770852
0 0 0 0 0 0 0 0 0 0 0 0 0 0 0 0 -0.563493538998677 0 0 0 -0.311771535116741 0 0 0 0 -2.27555969856171 0 0 0 -0.901103189886852 0 -11.8080878060391 0 -1.64133816053117 0 0 0 0 0 0 0 0 0 0 -0.848653088938737 0 0 0 0 0
0 0 0 0.119242961778603 0 0.0868349925152404 0 0 0 0 0 0 0 0 0 0 0 -0.563493538998677 0 0 -0.78792845709013 0 0 0 0 0 0 0 0 -0.136123567122394 0 0 0 0 0 0 0 0 0 0 0 0 0 0 0 0 0 0 0 0
0 0.665583703878041 0.051519455171086 0 0 0 0 0 0 0 0 0 0 0 0 0 0 0 -0.563493538998677 0 0 0 0 0 0 0 0 0 0 0 -2.61343627928548 0 0 -0.549084467292409 0 0 0 0 0 0 0 0 0 0 -3.7775505568485 0 0 0 0 0
0 0 0 0 0 0 0.235157383529473 0.280093704893259 0 0 0 0 0 0 0 0 0 0 0 -0.563493538998677 0 0 0 0 0 0 -1.47444016242371 0 0 0 0 0 0 0 0 0 -0.706520012326307 0 0 0 0 0 0 0 -2.27071666640312 0 0 0 0 0
0 0 0 0 0 0 0 0 0 0 0.127929353394686 0 0.117378166362174 0 0 0.0379704139302354 0.0623280590639879 0.174312613802782 0 0 -0.563493538998677 0 0 0 0 0 0 0 0 0 0 0 0 0 0 0 0 0 0 0 -3.05782048153988 0 0 0 0 0 0 -0.374818494603587 0 0
0 0 0 0 0 0 0.181433433228654 0.365819217403082 0 0 0 0 0 0 0 0 0 0 0 0 0 -0.563493538998677 0 0 0 0 0 0 0 -1.24144461868471 0 0 0 -0.613519628200591 0 -0.695148654561391 -0.657676710718821 0 0 0 -3.59278027094149 0 0 0 0 0 0 -3.57283613064818 0 0
0 0 0 0 0 0 0 0 0 0 0 0 0 0 0 0 0 0 0 0 0 0 -0.563493538998677 0 0 0 0 0 0 -0.4007513213731 0 0 0 -2.15309551747454 0 0 0 0 0 0 0 0 0 0 -0.271475355147747 0 0 -0.793931291701655 0 0
0.0990684022777129 0.0942487410592561 0.279541103592846 0.450969897911996 0.0611333134577249 0 0 0 0 0 0 0 0 0 0 0 0 0 0 0 0 0 0 -0.563493538998677 0 0 0 0 0 -9.43620071426133 0 0 0 0 0 0 0 0 0 0 0 -6.76349256297014 0 0 0 0 0 0 0 0
0 0 0 0 0 0 0 0.206452678209934 0 0 0 0 0 0 0 0 0 0 0 0 0 0 0 0 -0.563493538998677 0 0 0 0 0 0 0 0 -3.17946718542822 0 0 0 0 0 0 -4.17910791306415 -1.47176442736255 0 0 0 0 0 -0.5599697215872 0 0
0 0 0 0 0 0 0 0 0 0 0 0 0 0 0 0 0.477072543567816 0 0 0 0 0 0 0 0 -0.563493538998677 0 0 0 0 0 0 0 -1.29321290290403 0 0 0 0 0 0 -1.52694431867725 -0.474539985640477 0 0 0 0 0 0 -0.0951985307562537 0
0 0 0 0 0 0 0 0 0 0 0 0 0 0 0 0 0 0 0 0.277387564947189 0 0 0 0 0 0 -0.563493538998677 0 0 0 0 0 0 -0.0756087496566684 0 0 0 0 0 0 -0.524079675955103 0 0 0 0 0 0 0 0 0
0 0 0 0 0 0 0 0 0 0 0 0 0 0 0 0 0 0 0 0 0 0 0 0 0 0 0 -0.563493538998677 0 0 0 0 0 0 0 0 0 0 0 0 -3.59373910914082 0 0 0 0 0 0 0 0 0
0.136086297328583 0 0 0 0 0 0 0 0 0 0 0 0 0 0 0 0 0 0 0 0 0 0 0 0 0 0 0 -0.563493538998677 0 0 0 0 -1.55107320801641 0 0 0 0 0 0 -0.210785678999699 0 0 0 0 0 0 0 -1.38746376582093 0
0 0 0 0 0 0 0 0 0 0 0 0 0 0 0 0 0.161368671961725 0.0233350371612678 0 0 0 0.245345340017015 0.0831285211919387 1.82549136434515 0 0 0 0 0 -0.563493538998677 0 0 0 0 0 0 0 0 0 0 0 -3.38449977485003 0 0 0 0 0 0 0 0
0 0 0 0 0 0 0 0 0 0 0 0 0 0 0 0 0 0 0.494484259061781 0 0 0 0 0 0 0 0 0 0 0 -0.563493538998677 0 0 0 0 0 0 0 0 0 -0.843303656794936 0 0 0 0 0 0 0 0 0
0 0 0 0 0 0 0 0.271128123543936 0.0332913595985935 0 0.034096596084976 0.0698821592656346 0.0344281498691515 0 0.0597447477387865 0 2.44590022545288 0 0 0 0 0 0 0 0 0 0 0 0 0 0 -0.563493538998677 0 0 0 0 0 0 0 0 0 0 0 0 0 0 0 0 -0.708272715691294 0
0 0.84923912629207 0.427982260697106 0.221132928924803 0.0568314552432386 0 0 0 0 0 0 0 0 0 0 0 0 0 0 0 0 0 0 0 0 0 0 0 0 0 0 0 -0.563493538998677 0 -0.887615312319592 0 0 0 0 0 -0.377580591743903 -0.717016101554398 0 0 0 0 0 0 -1.33858833065172 0
0 0 0 0 0 0 0 0 0.166775111345405 0.0650683376243381 0 0 0 0.54464215917693 0.0898484897996199 0 0.342473401843575 0 0.107280216593054 0 0 0.120763837234411 0.431041862016238 0 0.654523876389168 0.268910522293066 0.013847119066624 0 0.287945646531684 0 0 0 0 -0.563493538998677 -0.729800446732369 0 0 0 0 -0.374004077186964 0 -0.876526447220705 0 0 0 0 0 0 0 0
0 0 0 0 0 0 0 0 0 0 0 0 0 0 0 0 0 0 0 0 0 0 0 0 0 0 0 0 0 0 0 0 0.176575415781378 0.138844852635747 -0.563493538998677 0 0 0 0 0 -1.64458958648886 -2.90656273853594 0 0 0 0 -5.58909962948357 0 -0.242818758684153 0
0 0 0 0 0 0 0 0 0 0 0 0 0 0 0 0 0 0 0 0 0 0.137612618814224 0 0 0 0 0 0 0 0 0 0 0 0 0 -0.563493538998677 0 0 0 0 0 -0.376426646929349 0 0 0 0 -0.343270804821345 0 0 0
0 0 0 0 0 0 0 0 0.184364534978014 0.264475411443891 0 0 0 0 0.0866690470916302 0.654991396389906 0 0 0 0.134570113796903 0 0.13018187696948 0 0 0 0 0 0 0 0 0 0 0 0 0 0 -0.563493538998677 0 0 0 -0.377277438322145 -0.845065994512025 0 0 0 0 -0.345324768232477 0 -6.85984479809607 0
0 0 0 0.199126056455624 0 0.374736988082063 0.441039465248851 0.19265821709961 0.43438116288017 0 0.168441437139444 0 0 0 0 0 0 0 0 0 0 0 0 0 0 0 0 0 0 0 0 0 0 0 0 0 0 -0.563493538998677 0 0 0 0 0 0 0 0 0 0 0 0
0 0 0 0 0 0 0 0 0 0 0 0 0 0 0 0 0 0 0 0 0 0 0 0 0 0 0 0 0 0 0 0 0 0 0 0 0 0 -0.563493538998677 0 0 -0.633190612812602 0 0 0 0 -1.34036868270674 0 0 0
0 0 0 0 0 0 0 0 0 0 0 0 0 0 0 0 0 0 0 0 0 0 0 0 0 0 0 0 0 0 0 0 0 0.0699725890613228 0 0 0 0 0 -0.563493538998677 0 0 0 0 0 0 0 0 -7.89144217029046 0
0 0 0 0 0 0 0 0 0 0 0 0 0 0 0 0 0 0 0 0 0.611731677577917 0.697500455636792 0 0 0.883637338001289 0.285896803547829 0.101618115133914 0.684925539187035 0.0411786432734694 0 0.165664046937642 0 0.0678609816761064 0 0.337148754310165 0 0.079267697528259 0 0 0 -0.563493538998677 0 0 0 0 0 0 0 -0.345154338257556 0
0 0 0 0 0 0 0 0 0 0 0 0 0 0 0 0 0 0 0 0 0 0 0 1.28640377683958 0.290807368833389 0.0999635685165917 0 0 0 0.695503743326935 0 0 0.120352543012406 0.193464104709509 0.585406728038814 0.0788814809646162 0.164773201519892 0 0.131371977031886 0 0 -0.563493538998677 0 0 0 0 0 0 0 0
0 0 0 0 0 0 0 0 0.248854829576708 0.284122337652083 0.207685027687381 0 0 0 0 0 0 0 0 0 0 0 0 0 0 0 0 0 0 0 0 0 0 0 0 0 0 0 0 0 0 0 -0.563493538998677 0 0 0 -1.13168478664957 0 -0.542777046471167 0
0 0 0 0 0 0 0 0 0.127956821393754 0 0.77816379135493 0 0 0 0 0 0 0 0 0 0 0 0 0 0 0 0 0 0 0 0 0 0 0 0 0 0 0 0 0 0 0 0 -0.563493538998677 0 0 -0.135960859993137 0 0 0
0 0 0 0 0 0 0 0 0.213873560105989 0.142028225055801 0.83759639600928 0.219674591337712 0 0.0441012679687886 0 0.0935127193567944 0.168381094510343 0 0.745844830661709 0.498203982363331 0 0 0.0546677533443743 0 0 0 0 0 0 0 0 0 0 0 0 0 0 0 0 0 0 0 0 0 -0.563493538998677 0 0 0 -1.01202120443694 0
0 0 0.119415041891313 0 0.076959246743275 0.0627316070442572 0 0 0 0 0 0 0 0 0 0 0 0 0 0 0 0 0 0 0 0 0 0 0 0 0 0 0 0 0 0 0 0 0 0 0 0 0 0 0 -0.563493538998677 -0.800879589029334 0 -1.0170529924615 0
0 0 0 0 0 0 0 0 0 0 0 0 0 0 0 0 0 0 0 0 0 0 0 0 0 0 0 0 0 0 0 0 0 0 1.14715833584411 0.0689966875362049 0.0675306080184912 0 0.250252841260334 0 0 0 0.220770205898833 0.0272457377592042 0 0.167266364477139 -0.563493538998677 0.708082628324798 -3.43189784902321 0
0 0 0 0 0 0 0 0 0 0 0 0 0 0 0 0 0 0 0 0 0.0706475804192945 0.715847563048184 0.148627942017905 0 0.120283246388168 0 0 0 0 0 0 0 0 0 0 0 0 0 0 0 0 0 0 0 0 0 -3.5687795610415 -0.563493538998677 0 0
0 0 0 0 0 0 0 0 0 0 0 0 0 0 0 0 0 0 0 0 0 0 0 0 0 0.0189335194484036 0 0 0.289469830008304 0 0 0.13639011659697 0.284826355773025 0 0.0482495306599437 0 1.43278152018704 0 0 1.56353773018674 0.0743784900397343 0 0.102881290630445 0 0.189741682832287 0.192787996174237 0.737699049149681 0 -0.563493538998677 0
0 0 0 0 0 0 0 0 0 0 0 0 0 0 0 0.278431284655749 0 0 0 0 0 0 0 0 0 0 0 0 0 0 0 0 0 0 0 0 0 0 0 0 0 0 0 0 0 0 0 0 0 -0.563493538998677
