-0.49364394153719 0 0 0 0 -2.90432966210637 0 -1.08032968094479 0 0 0 0 0 0 0 0 0 0 0 0 0 0 0 0 0 0 0 0 0 0 0 0 0 0 0 0 0 0 0 0 0 0 0 0 0 0 0 0 0 0
0 -0.49364394153719 0 0 0 -0.58791736034032 0 -1.5608422978718 0 0 0 0 0 0 0 0 0 0 0 0 0 0 0 0 0 0 0 0 -0.81165768367757 0 0 0 0 0 0 0 0 0 0 0 0 0 0 0 0 0 0 0 0 0
0 0 -0.49364394153719 0 0 0 0 0 0 0 0 0 0 0 0 0 0 0 0 0 0 0 0 0 0 0 0 0 -3.65105859485533 0 0 0 0 0 0 0 0 0 0 0 0 0 0 0 0 0 0 0 0 0
0 0 0 -0.49364394153719 0 -0.619864202011651 0 0 0 0 0 0 0 -2.88471836853873 0 0 0 0 0 0 0 0 0 0 0 0 0 0 -0.195039192256447 0 0 0 0 -4.97979615631818 0 0 0 0 0 0 0 0 0 0 0 0 0 0 0 0
0 0 0 0 -0.49364394153719 0 0 0 0 0 0 0 0 0 0 0 0 0 0 0 0 0 0 0 0 0 0 0 -0.910279801734422 0 0 0 0 -0.169173548877971 0 0 0 0 0 0 0 0 0 0 0 0 0 0 0 0
0.546784628700382 0.121589528459752 0 0.135729932221342 0 -0.49364394153719 0 0 0 0 0 0 0 0 0 0 0 0 0 0 0 0 0 0 0 0 0 0 0 0 0 0 0 -0.649220792325178 0 0 0 0 0 0 0 0 0 0 0 0 0 0 0 0
0 0 0 0 0 0 -0.49364394153719 0 0 0 0 0 0 0 0 0 0 0 0 0 0 0 0 0 0 0 0 0 -0.201803644924128 0 0 0 0 0 0 0 0 0 0 0 0 0 0 0 0 0 0 0 0 0
0.215977126942897 0.308335241985019 0 0 0 0 0 -0.49364394153719 -0.346561457130572 0 0 0 0 0 0 0 0 0 0 0 0 0 -0.358210354909322 0 0 0 0 0 -0.812544647291782 0 0 0 0 0 0 0 0 0 0 0 0 0 0 0 0 0 0 0 0 0
0 0 0 0 0 0 0 0.0730361940400833 -0.49364394153719 0 -0.129553633235745 0 0 0 0 0 0 0 0 0 0 0 0 0 0 0 0 0 -1.61396568880236 0 0 0 0 0 0 0 0 0 0 0 0 0 0 0 0 0 0 0 0 0
0 0 0 0 0 0 0 0 0 -0.49364394153719 0 0 0 0 -1.1365071767319 0 0 0 0 0 0 0 0 0 0 0 0 0 0 0 0 0 0 -0.48915736025713 0 0 0 0 -1.46939627148762 0 0 0 -0.649439519166337 0 0 0 0 0 0 0
0 0 0 0 0 0 0 0 0.0223599384183164 0 -0.49364394153719 0 0 0 -1.00539318204613 0 0 0 0 0 0 0 0 0 0 0 0 0 -2.88949556630256 0 0 0 0 -2.48238174960124 0 0 0 0 0 0 0 0 0 0 0 0 0 0 0 0
0 0 0 0 0 0 0 0 0 0 0 -0.49364394153719 0 0 0 0 0 0 0 0 -2.90282570822254 0 0 0 0 0 0 0 -0.625308138171956 0 0 0 0 0 0 0 0 0 0 0 0 0 -0.480095708074374 0 0 0 0 0 0 0
0 0 0 0 0 0 0 0 0 0 0 0 -0.49364394153719 0 0 0 0 -0.355248519515697 0 0 -3.37988753428574 0 0 0 0 0 0 0 0 0 0 0 0 0 0 0 0 0 -0.782412787778676 0 0 0 0 0 0 0 0 0 0 0
0 0 0 0.615178037726679 0 0 0 0 0 0 0 0 0 -0.49364394153719 0 0 0 0 0 0 -0.870312275522607 0 0 0 0 0 0 0 0 0 0 0 0 0 0 0 0 0 -0.419883885167499 -0.740206488853323 0 0 0 0 0 0 0 0 0 0
0 0 0 0 0 0 0 0 0 0.223520313768476 0.192833136405295 0 0 0 -0.49364394153719 0 0 -5.595240959988 0 0 0 0 0 0 0 0 0 0 0 0 0 0 0 0 0 0 0 0 0 0 0 0 0 0 0 0 0 0 0 -3.12823205534964
0 0 0 0 0 0 0 0 0 0 0 0 0 0 0 -0.49364394153719 0 0 0 0 0 0 0 0 0 0 0 0 0 0 0 0 0 0 0 0 0 0 -1.72593245055077 -3.10589775790048 -1.36839206316517 0 0 0 0 0 0 0 0 -1.00627960669689
0 0 0 0 0 0 0 0 0 0 0 0 0 0 0 0 -0.49364394153719 0 0 0 0 0 0 0 0 0 0 0 0 0 0 0 0 0 0 0 -0.215537255512994 0 0 0 0 0 0 0 0 0 0 0 0 -4.63352030263255
0 0 0 0 0 0 0 0 0 0 0 0 0.0741091838446248 0 1.14136499030314 0 0 -0.49364394153719 -1.16223080226004 0 0 0 0 0 0 0 0 0 0 0 0 0 0 0 0 0 -0.899961012040854 0 0 0 -2.80703643495164 0 0 0 0 0 0 0 0 -2.95708110885957
0 0 0 0 0 0 0 0 0 0 0 0 0 0 0 0 0 0.238994230284951 -0.49364394153719 0 0 0 0 -0.377876146856581 0 0 -0.636079830537993 0 0 0 -3.35048040752149 0 0 0 0 0 -1.9987931880181 0 0 0 -0.766902175228621 0 0 0 0 0 0 0 -1.47080869420468 -0.450010798421644
0 0 0 0 0 0 0 0 0 0 0 0 0 0 0 0 0 0 0 -0.49364394153719 0 0 0 -2.92055177401272 0 0 -0.724297454140663 -0.651905530759432 0 0 0 0 0 0 -1.04475767995233 0 -0.392368157936271 0 0 0 0 0 0 0 0 0 0 0 0 0
0 0 0 0 0 0 0 0 0 0 0 0.606814128178461 0.649635583366582 0.167329885271256 0 0 0 0 0 0 -0.49364394153719 0 0 -0.445104594435282 0 -0.228301340613586 0 -0.757933339734537 0 0 0 0 0 0 -0.5808150142292 0 -1.93807805042165 0 0 0 0 0 0 0 0 0 0 0 -2.82165213472781 -0.618511611824269
0 0 0 0 0 0 0 0 0 0 0 0 0 0 0 0 0 0 0 0 0 -0.49364394153719 0 -0.424792213772278 0 -0.628205280175361 -0.646253610581926 -0.701328061284655 0 0 0 -0.858028219586505 0 0 0 0 -1.80489427954575 0 0 0 0 0 0 0 0 0 0 0 0 -0.564107690010356
0 0 0 0 0 0 0 0.0735996385084062 0 0 0 0 0 0 0 0 0 0 0 0 0 0 -0.49364394153719 0 0 0 -0.467861963916068 0 0 0 0 0 0 0 0 0 0 0 0 0 0 0 0 0 0 0 0 0 0 -0.343200891379819
0 0 0 0 0 0 0 0 0 0 0 0 0 0 0 0 0 0 0.0718866216711466 0.59146128511051 0.0877506192839723 0.0876021732852378 0 -0.49364394153719 0 0 0 -1.34436911694485 0 0 0 -0.796391780552003 0 0 0 0 -0.229245356021247 0 0 0 0 0 0 0 0 -1.35280674095315 0 0 0 0
0 0 0 0 0 0 0 0 0 0 0 0 0 0 0 0 0 0 0 0 0 0 0 0 -0.49364394153719 0 0 0 0 0 0 0 -1.43005589571249 0 0 -1.64875622811816 -1.52143516825005 0 0 0 0 -1.61835635418666 0 0 0 0 0 0 -0.28633228536461 -1.68392111479051
0 0 0 0 0 0 0 0 0 0 0 0 0 0 0 0 0 0 0 0 0.0434354751687606 0.135086263022796 0 0 0 -0.49364394153719 0 0 0 0 0 -0.385488153810747 0 0 0 -1.34118707721783 0 0 0 0 0 -0.329940554889085 0 0 0 -0.385675384960397 -7.08542744498404 0 0 -1.69950456183611
0 0 0 0 0 0 0 0 0 0 0 0 0 0 0 0 0 0 0.129832104457818 0.14537506492283 0 0.133199249003516 0.0921962668978323 0 0 0 -0.49364394153719 0 0 0 0 -3.98065396211885 -0.46561273581225 0 0 -0.714952628539213 -0.468666547984132 0 0 0 0 0 0 0 0 -0.473231715979023 -8.07565029849261 0 0 0
0 0 0 0 0 0 0 0 0 0 0 0 0 0 0 0 0 0 0 0.129914220423532 0.154681813089464 0.13895965518135 0 0.269607677546899 0 0 0 -0.49364394153719 0 0 0 0 0 0 0 -0.043318608436828 0 0 0 0 0 0 0 0 0 0 0 0 0 0
0 0.152421142179893 0.765909674233489 0.0385148103354299 0.188805519113242 0 0.0389547653802717 0.174290080402305 0.336557308966383 0 0.571419241013121 0.129292378125042 0 0 0 0 0 0 0 0 0 0 0 0 0 0 0 0 -0.49364394153719 0 0 0 -0.813165557005549 0 0 0 0 0 0 0 0 0 0 0 0 -0.724594870038783 0 0 0 -1.79293369239763
0 0 0 0 0 0 0 0 0 0 0 0 0 0 0 0 0 0 0 0 0 0 0 0 0 0 0 0 0 -0.49364394153719 0 -0.402870363854498 -1.46585281089221 0 0 -0.987982236352989 0 0 0 0 0 0 0 0 0 -2.74656915936795 0 0 -1.18598897037413 0
0 0 0 0 0 0 0 0 0 0 0 0 0 0 0 0 0 0 0.650237525738788 0 0 0 0 0 0 0 0 0 0 0 -0.49364394153719 0 0 0 0 0 0 0 0 0 0 0 0 0 0 -1.68937372576498 0 0 -3.14859868633103 0
0 0 0 0 0 0 0 0 0 0 0 0 0 0 0 0 0 0 0 0 0 0.160641500181026 0 0.151011089273791 0 0.0789142546224037 0.838221963855146 0 0 0.0808681943075656 0 -0.49364394153719 -1.58742206092538 0 0 0 0 0 0 0 0 0 0 0 0 -1.6398289302071 0 0 -1.81535994336161 -3.00453597030025
0 0 0 0 0 0 0 0 0 0 0 0 0 0 0 0 0 0 0 0 0 0 0 0 0.275933162233863 0 0.0904946377318794 0 0.149959777534178 0.304163507529854 0 0.336677352456606 -0.49364394153719 0.0486614026207088 0.0841843282116825 0 0 0 0 0 0 0 0 0 0 0 0 0 -0.640792365040707 -2.98804621718429
0 0 0 0.866871857434613 0.0362915514968942 0.138614341976022 0 0 0 0.0946796514507115 0.527152734335461 0 0 0 0 0 0 0 0 0 0 0 0 0 0 0 0 0 0 0 0 0 -0.253612140782951 -0.49364394153719 0 0 0 0 0 0 0 0 0 0 0 0 0 0 -1.58029648953564 -2.00974680162359
0 0 0 0 0 0 0 0 0 0 0 0 0 0 0 0 0 0 0 0.214039571419347 0.118457289032707 0 0 0 0 0 0 0 0 0 0 0 -0.403462978284863 0 -0.49364394153719 0 0 0 0 0 0 0 0 0 0 0 0 0 -0.845727134349716 -0.769095263589518
0 0 0 0 0 0 0 0 0 0 0 0 0 0 0 0 0 0 0 0 0 0 0 0 0.331140590347452 0.271276008850218 0.158075202548346 0.00885581219613971 0 0.185074493226038 0 0 0 0 0 -0.49364394153719 0 0 0 0 0 0 0 0 -1.14088026840115 0 0 -0.866316450967353 -0.37644048935761 -0.611367713070955
0 0 0 0 0 0 0 0 0 0 0 0 0 0 0 0 0.0417223573064755 0.180625875607375 0.403609165107846 0.0806118073185068 0.371958434819365 0.356842670698003 0 0.046769478133608 0.283983052821404 0 0.100733182258021 0 0 0 0 0 0 0 0 0 -0.49364394153719 0 0 0 0 0 0 0 0 0 0 0 0 -0.402911863312505
0 0 0 0 0 0 0 0 0 0 0 0 0 0 0 0 0 0 0 0 0 0 0 0 0 0 0 0 0 0 0 0 0 0 0 0 0 -0.49364394153719 0 0 0 0 0 -0.859431732099965 0 0 0 -0.470739552328575 -2.35386512454986 -0.276375339570164
0 0 0 0 0 0 0 0 0 0.284108524861696 0 0 0.16403013180429 0.0810683211747231 0 0.350717283545422 0 0 0 0 0 0 0 0 0 0 0 0 0 0 0 0 0 0 0 0 0 0 -0.49364394153719 0 0 0 0 0 -7.58998986555184 0 0 0 0 0
0 0 0 0 0 0 0 0 0 0 0 0 0 0.145958432725746 0 0.624445319467288 0 0 0 0 0 0 0 0 0 0 0 0 0 0 0 0 0 0 0 0 0 0 0 -0.49364394153719 0 0 0 0 -0.748078016237838 0 0 0 0 -1.65410970022428
0 0 0 0 0 0 0 0 0 0 0 0 0 0 0 0.298601234882863 0 0.533346452060696 0.131648914842745 0 0 0 0 0 0 0 0 0 0 0 0 0 0 0 0 0 0 0 0 0 -0.49364394153719 0 0 0 0 0 0 0 0 0
0 0 0 0 0 0 0 0 0 0 0 0 0 0 0 0 0 0 0 0 0 0 0 0 0.326266403581611 0.0667978337118529 0 0 0 0 0 0 0 0 0 0 0 0 0 0 0 -0.49364394153719 0 0 0 0 0 0 0 0
0 0 0 0 0 0 0 0 0 0.12632875071466 0 0.0851993104250364 0 0 0 0 0 0 0 0 0 0 0 0 0 0 0 0 0 0 0 0 0 0 0 0 0 0 0 0 0 0 -0.49364394153719 0 0 0 0 0 0 0
0 0 0 0 0 0 0 0 0 0 0 0 0 0 0 0 0 0 0 0 0 0 0 0 0 0 0 0 0 0 0 0 0 0 0 0 0 0.174177483059876 0 0 0 0 0 -0.49364394153719 0 0 0 0 0 0
0 0 0 0 0 0 0 0 0 0 0 0 0 0 0 0 0 0 0 0 0 0 0 0 0 0 0 0 0 0 0 0 0 0 0 0.224663815965791 0 0 1.40622217272584 0.14613150646753 0 0 0 0 -0.49364394153719 0 0 0 0 0
0 0 0 0 0 0 0 0 0 0 0 0 0 0 0 0 0 0 0 0 0 0 0 0.293303598722552 0 0.0766337408198121 0.0960062865042973 0 0.135941816569749 0.580893826193428 0.317828396452998 0.335940068278477 0 0 0 0 0 0 0 0 0 0 0 0 0 -0.49364394153719 0 0 0 0
0 0 0 0 0 0 0 0 0 0 0 0 0 0 0 0 0 0 0 0 0 0 0 0 0 1.43256983358331 1.65771445940077 0 0 0 0 0 0 0 0 0 0 0 0 0 0 0 0 0 0 0 -0.49364394153719 0 0 0
0 0 0 0 0 0 0 0 0 0 0 0 0 0 0 0 0 0 0 0 0 0 0 0 0 0 0 0 0 0 0 0 0 0 0 0.179836335015761 0 0.0917983376154944 0 0 0 0 0 0 0 0 0 -0.49364394153719 0 0
0 0 0 0 0 0 0 0 0 0 0 0 0 0 0 0 0 0 0.285545889549541 0 0.524519518086369 0 0 0 0.0594311145836158 0 0 0 0 0.23745313045339 0.61018908890607 0.354116195334948 0.12806117866364 0.310058525597414 0.181006157667501 0.0681210546345783 0 0.507242699303967 0 0 0 0 0 0 0 0 0 0 -0.49364394153719 0
0 0 0 0 0 0 0 0 0 0 0 0 0 0 0.630640699709189 0.20458642289761 0.943360428084055 0.572621462290425 0.0903778698211249 0 0.121984074968008 0.108182321692937 0.065499937781243 0 0.360376102652118 0.358133784883041 0 0 0.355042641123817 0 0 0.577981783165765 0.578770480662604 0.388726951273722 0.161323615554423 0.122042527120459 0.0835892950907882 0.0505245987213545 0 0.332110073323777 0 0 0 0 0 0 0 0 0 -0.49364394153719
