-0.122161464207129 0 0 0 0 0 0 -0.31827061284884 0 0 0 0 -2.05304477768157 0 0 0 0 0 0 0 0 0 0 0 0 0 0 0 0 0 0 0 0 0 0 0 0 0 0 0 0 0 0 0 0 0 0 0 0 0
0 -0.122161464207129 0 0 0 0 0 0 -0.35581957230177 0 0 0 0 0 0 0 0 0 0 0 0 0 0 0 0 -0.583641188288247 0 0 0 0 0 0 0 0 0 0 0 0 0 0 0 0 0 0 0 0 0 0 0 0
0 0 -0.122161464207129 0 0 0 0 0 -0.530806985194772 0 0 -0.398315331871245 0 0 0 0 0 0 0 0 0 0 0 0 0 0 0 0 0 0 0 0 0 0 0 0 0 0 0 0 0 -0.543873810061164 0 0 0 0 0 0 0 0
0 0 0 -0.122161464207129 0 -0.358386287260627 0 0 0 0 0 -0.271576117497667 0 0 0 0 0 0 0 0 0 0 0 0 0 -1.28099860375121 0 0 0 0 0 0 0 0 0 0 0 0 0 0 0 -1.5449293018386 0 0 0 0 0 0 0 0
0 0 0 0 -0.122161464207129 -1.35846737501423 0 0 0 0 0 0 0 0 0 0 0 0 0 0 0 0 0 -2.18354089170781 0 0 0 0 0 0 0 0 0 0 0 0 0 0 0 0 0 -1.47507455141552 0 0 0 0 0 0 0 0
0 0 0 0.0710477641808091 0.269962794180009 -0.122161464207129 0 0 0 0 0 -1.22785080075687 0 0 0 0 0 0 0 0 0 0 0 -1.08011597294478 0 0 0 0 0 0 0 0 0 0 0 0 0 0 0 0 0 0 0 0 0 0 0 0 0 0
0 0 0 0 0 0 -0.122161464207129 0 0 0 0 -1.17966348009265 0 0 0 0 0 0 0 0 0 0 0 0 0 -0.220206457104028 0 0 0 0 0 0 0 0 0 0 0 0 0 0 0 0 0 0 0 0 0 0 0 0
0.0641225921767457 0 0 0 0 0 0 -0.122161464207129 0 0 0 0 0 0 0 -2.49266240367734 0 0 0 0 0 0 0 0 0 -1.28236891626146 0 0 0 0 0 0 0 0 0 0 0 0 0 0 -0.961601260697954 0 0 0 0 0 0 0 0 0
0 0.0725828002311352 0.120598944219896 0 0 0 0 0 -0.122161464207129 -2.02197740446631 -0.575133790173307 0 0 0 -2.90728074163479 -1.13052550680163 0 0 -0.355548229487247 0 0 0 -1.37016832782469 0 0 0 0 0 0 0 0 0 0 0 0 0 0 0 0 0 0 0 0 0 0 0 0 0 0 0
0 0 0 0 0 0 0 0 0.389918535115999 -0.122161464207129 -1.68534856428857 0 0 0 0 0 0 0 -0.445923130429411 0 0 0 0 -0.510934262667659 0 0 0 0 0 0 0 0 0 -1.89441746148683 0 0 0 0 0 0 -0.992462136128335 0 0 0 0 0 0 0 0 0
0 0 0 0 0 0 0 0 0.110447586853148 0.367833681488783 -0.122161464207129 0 0 0 0 0 0 0 0 -0.223674987848868 0 0 0 -1.11147449995032 -1.1818526751142 0 0 0 0 0 0 0 0 0 0 0 0 0 0 0 0 0 0 0 0 0 0 0 -1.23737663208264 0
0 0 0.0750872691894307 0.0556567056002119 0 0.270252836077116 0.248687889106446 0 0 0 0 -0.122161464207129 0 0 0 0 0 0 0 0 0 0 0 0 0 0 0 0 0 0 0 0 0 0 0 0 0 0 0 0 0 0 0 0 -0.0952806453451443 0 -0.0918610056853662 0 0 0
0.456048375333704 0 0 0 0 0 0 0 0 0 0 0 -0.122161464207129 0 0 0 0 0 0 -1.3600884538168 0 0 0 0 0 0 0 0 0 0 0 0 0 0 0 0 0 0 0 0 0 0 0 0 -1.0659272531023 0 -1.4240285898272 0 0 0
0 0 0 0 0 0 0 0 0 0 0 0 0 -0.122161464207129 0 0 0 0 0 -0.555938911043191 0 0 0 0 0 0 0 0 0 0 0 0 0 0 0 0 0 0 0 -0.808904831361866 0 0 0 0 0 0 -0.706754577318218 0 0 0
0 0 0 0 0 0 0 0 0.575736280335607 0 0 0 0 0 -0.122161464207129 0 0 0 0 0 0 0 0 0 -2.26589505405485 0 0 0 0 0 0 0 0 0 0 0 0 0 0 -1.28408132927313 0 0 0 0 -0.406800274535632 0 -2.02264285678585 0 0 0
0 0 0 0 0 0 0 0.525208958333323 0.216177176312251 0 0 0 0 0 0 -0.122161464207129 0 0 0 -0.599640025593012 0 0 0 0 0 0 0 0 0 0 0 0 0 0 0 0 0 0 0 0 0 0 0 0 -2.23492842432436 0 0 0 0 0
0 0 0 0 0 0 0 0 0 0 0 0 0 0 0 0 -0.122161464207129 0 0 0 0 0 0 0 -1.65454007355844 0 -0.382012024421852 0 0 0 0 0 0 0 0 0 0 0 0 -0.465888389341119 0 0 0 0 -0.449171905312235 0 0 0 0 0
0 0 0 0 0 0 0 0 0 0 0 0 0 0 0 0 0 -0.122161464207129 0 0 0 0 0 0 -0.368125598277939 0 -3.21650033261753 0 0 0 0 0 0 0 0 0 0 0 0 -0.995311936827949 0 0 0 0 -2.0494964388919 0 -1.33557834500555 0 0 0
0 0 0 0 0 0 0 0 0.0757191173016888 0.0908048835625511 0 0 0 0 0 0 0 0 -0.122161464207129 -1.23894932784214 0 0 0 0 0 0 -1.1453894259862 0 0 0 0 0 0 0 0 0 0 0 0 0 0 0 0 0 -1.67304800158567 0 -0.888270442103691 0 0 0
0 0 0 0 0 0 0 0 0 0 0.0425873247755061 0 0.293658294948221 0.115619964639233 0 0.120317365068514 0 0 0.259810474247324 -0.122161464207129 0 0 0 0 -1.03977379264753 0 -2.01216577610875 0 0 0 0 0 0 0 0 0 0 0 0 0 0 0 0 0 -0.886799568626516 0 -0.518739113176546 0 0 0
0 0 0 0 0 0 0 0 0 0 0 0 0 0 0 0 0 0 0 0 -0.122161464207129 0 0 0 0 0 0 0 0 0 -0.388584771944536 0 0 0 0 0 0 0 0 0 0 0 0 0 0 0 -2.89449073475841 0 0 0
0 0 0 0 0 0 0 0 0 0 0 0 0 0 0 0 0 0 0 0 0 -0.122161464207129 0 0 0 0 -2.90425696475869 0 0 0 0 0 0 0 0 0 0 0 0 0 0 0 0 0 0 0 0 0 0 0
0 0 0 0 0 0 0 0 0.259890625542966 0 0 0 0 0 0 0 0 0 0 0 0 0 -0.122161464207129 0 0 0 -0.307489304000541 0 0 0 -1.20508596572654 0 0 0 0 0 0 0 0 0 0 0 0 0 0 0 -0.896934799369517 0 0 0
0 0 0 0 0.435305066211444 0.221819077097694 0 0 0 0.0929135858920806 0.229349475804211 0 0 0 0 0 0 0 0 0 0 0 0 -0.122161464207129 0 0 0 0 0 0 0 0 0 0 0 0 0 0 0 0 0 0 0 0 0 0 0 0 0 0
0 0 0 0 0 0 0 0 0 0 0.248021287049369 0 0 0 0.442583915044878 0 0.324492663392955 0.0798611540917629 0 0.212502707540423 0 0 0 0 -0.122161464207129 0 0 0 0 0 0 0 0 0 0 0 0 0 0 0 0 0 0 0 0 0 0 0 0 0
0 0.111864946152414 0 0.248429959323859 0 0 0.0477859274838525 0.270829490171631 0 0 0 0 0 0 0 0 0 0 0 0 0 0 0 0 0 -0.122161464207129 0 0 0 -1.9421440700724 0 0 0 0 0 0 0 0 -0.360398280616984 0 0 0 0 -1.2738513670209 0 0 0 0 0 0
0 0 0 0 0 0 0 0 0 0 0 0 0 0 0 0 0.0764873518311406 0.654900224705858 0.232025229323854 0.389228962683307 0 0.61164456994721 0.0626879481248851 0 0 0 -0.122161464207129 0 0 0 -0.664348443666654 0 0 0 -1.30807152986817 0 0 0 -0.819360556676647 0 0 0 0 -0.528837204869498 0 0 0 0 0 0
0 0 0 0 0 0 0 0 0 0 0 0 0 0 0 0 0 0 0 0 0 0 0 0 0 0 0 -0.122161464207129 0 0 0 0 0 0 0 0 0 0 -1.90740621288977 0 0 0 0 0 0 0 0 0 0 0
0 0 0 0 0 0 0 0 0 0 0 0 0 0 0 0 0 0 0 0 0 0 0 0 0 0 0 0 -0.122161464207129 0 0 0 0 0 0 0 0 0 -0.609863490210793 0 0 0 0 0 0 0 0 0 0 0
0 0 0 0 0 0 0 0 0 0 0 0 0 0 0 0 0 0 0 0 0 0 0 0 0 0.377377822471344 0 0 0 -0.122161464207129 0 -0.221602443644316 0 0 0 0 -2.04897111319129 -0.313905879312344 -1.48213557565534 0 0 0 -2.66530035205685 -12.4023545358575 0 0 0 0 0 0
0 0 0 0 0 0 0 0 0 0 0 0 0 0 0 0 0 0 0 0 0.073634460902067 0 0.245251447757841 0 0 0 0.131223186087326 0 0 0 -0.122161464207129 0 0 0 0 -0.374015421892206 0 0 0 0 0 0 0 0 0 0 0 0 0 0
0 0 0 0 0 0 0 0 0 0 0 0 0 0 0 0 0 0 0 0 0 0 0 0 0 0 0 0 0 0.0475513513888459 0 -0.122161464207129 0 0 0 0 0 0 0 0 0 0 0 0 0 0 0 -0.500801964447162 0 0
0 0 0 0 0 0 0 0 0 0 0 0 0 0 0 0 0 0 0 0 0 0 0 0 0 0 0 0 0 0 0 0 -0.122161464207129 0 0 -0.0834540408153168 0 0 0 0 0 0 0 0 0 0 0 -0.213402612698356 0 0
0 0 0 0 0 0 0 0 0 0.382437706644775 0 0 0 0 0 0 0 0 0 0 0 0 0 0 0 0 0 0 0 0 0 0 0 -0.122161464207129 0 -0.437402976933521 0 0 0 0 0 0 0 0 0 0 0 -0.847579539180172 0 0
0 0 0 0 0 0 0 0 0 0 0 0 0 0 0 0 0 0 0 0 0 0 0 0 0 0 0.275737365344765 0 0 0 0 0 0 0 -0.122161464207129 0 0 0 0 0 0 0 0 0 0 0 0 -0.191155766710478 0 0
0 0 0 0 0 0 0 0 0 0 0 0 0 0 0 0 0 0 0 0 0 0 0 0 0 0 0 0 0 0 0.0742371923876286 0 0.0175203632773107 0.0927981709585151 0 -0.122161464207129 0 0 0 0 0 0 0 0 0 0 0 -0.329502361978318 0 0
0 0 0 0 0 0 0 0 0 0 0 0 0 0 0 0 0 0 0 0 0 0 0 0 0 0 0 0 0 0.397219466626079 0 0 0 0 0 0 -0.122161464207129 0 0 0 0 0 0 0 0 0 0 0 0 0
0 0 0 0 0 0 0 0 0 0 0 0 0 0 0 0 0 0 0 0 0 0 0 0 0 0 0 0 0 0.0635033178939179 0 0 0 0 0 0 0 -0.122161464207129 0 0 0 0 0 0 0 -3.4119647348245 0 0 0 0
0 0 0 0 0 0 0 0 0 0 0 0 0 0 0 0 0 0 0 0 0 0 0 0 0 0.0683602182687128 0.185937090595638 0.403661928114116 0.121762460395798 0.302149841593942 0 0 0 0 0 0 0 0 -0.122161464207129 0 0 0 0 0 0 -2.25364345080001 0 0 0 0
0 0 0 0 0 0 0 0 0 0 0 0 0 0.167031768669465 0.243711613260503 0 0.0902438763712793 0.189180294266322 0 0 0 0 0 0 0 0 0 0 0 0 0 0 0 0 0 0 0 0 0 -0.122161464207129 0 0 0 0 0 -3.32033680957882 0 0 0 0
0 0 0 0 0 0 0 0.20575615655084 0 0.196251102073605 0 0 0 0 0 0 0 0 0 0 0 0 0 0 0 0 0 0 0 0 0 0 0 0 0 0 0 0 0 0 -0.122161464207129 0 0 0 0 0 0 0 0 0
0 0 0.103945498459172 0.30037370142567 0.292796478891357 0 0 0 0 0 0 0 0 0 0 0 0 0 0 0 0 0 0 0 0 0 0 0 0 0 0 0 0 0 0 0 0 0 0 0 0 -0.122161464207129 0 0 0 -0.651045836086026 0 0 0 0
0 0 0 0 0 0 0 0 0 0 0 0 0 0 0 0 0 0 0 0 0 0 0 0 0 0 0 0 0 0.586267494773594 0 0 0 0 0 0 0 0 0 0 0 0 -0.122161464207129 0 0 -0.366060264680002 0 0 0 0
0 0 0 0 0 0 0 0 0 0 0 0 0 0 0 0 0 0 0 0 0 0 0 0 0 0.260761948879355 0.100439313467584 0 0 2.51131019559185 0 0 0 0 0 0 0 0 0 0 0 0 0 -0.122161464207129 0 -1.09989100700255 0 0 0 0
0 0 0 0 0 0 0 0 0 0 0 0.0187587498685149 0.219090686341064 0 0.0768565079957679 0.451326244910192 0.0888431190032846 0.410515649837159 0.350346450045841 0.18743368262858 0 0 0 0 0 0 0 0 0 0 0 0 0 0 0 0 0 0 0 0 0 0 0 0 -0.122161464207129 -0.61737888362551 0 0 0 -0.438981881260862
0 0 0 0 0 0 0 0 0 0 0 0 0 0 0 0 0 0 0 0 0 0 0 0 0 0 0 0 0 0 0 0 0 0 0 0 0 0.697339454654323 0.480621523452888 0.617632408841757 0 0.144229763270641 0.0714444687374136 0.212720809315907 0.129074900948009 -0.122161464207129 0.0371651755663929 0 0 -2.33749048446934
0 0 0 0 0 0 0 0 0 0 0 0.0174368061207003 0.295895553907247 0.133616958035875 0.421861819998451 0 0 0.2655175764638 0.181445848689636 0.0997806619216075 0.541645861627669 0 0.166805943389683 0 0 0 0 0 0 0 0 0 0 0 0 0 0 0 0 0 0 0 0 0 0 -0.17655504785888 -0.122161464207129 0 0 0
0 0 0 0 0 0 0 0 0 0 0 0 0 0 0 0 0 0 0 0 0 0 0 0 0 0 0 0 0 0 0 0.109136932110133 0.0419109620510865 0.175334559728138 0.0432158398819295 0.0704568081630573 0 0 0 0 0 0 0 0 0 0 0 -0.122161464207129 0 0
0 0 0 0 0 0 0 0 0 0 0.229960752066964 0 0 0 0 0 0 0 0 0 0 0 0 0 0 0 0 0 0 0 0 0 0 0 0 0 0 0 0 0 0 0 0 0 0 0 0 0 -0.122161464207129 0
0 0 0 0 0 0 0 0 0 0 0 0 0 0 0 0 0 0 0 0 0 0 0 0 0 0 0 0 0 0 0 0 0 0 0 0 0 0 0 0 0 0 0 0 0.0832023435310716 0.526419701896797 0 0 0 -0.122161464207129
