0.435665571585542
0.512065459406232
3.11175276982572
5.40145578723754
1.38786842201919
2.23990807000109
1.36472807189391
1.28171044566137
0.301073008478531
1.27627515162505
2.59323696957092
0.739433951826317
0.250014146916444
1.80490785758203
0.608946926540134
1.14213401492632
0.74766419206349
1.04761489831079
1.5188255352136
1.58798306820098
1.12904760227785
1.05006455801256
0.339369083188831
10.5211429937773
0.907258382401249
0.944063654709647
0.368650267017165
0.429327587298335
0.480422380924132
0.577103953913955
0.770881116558947
2.6808008220409
4.34182405101865
0.578645724848191
0.604780407989295
2.87578009345277
2.58866806031249
1.19356575560235
3.96456042080725
0.825476050067536
0.21814783563705
0.663106880045429
0.416954129933178
1.76909040397208
0.587372044431128
0.649694410992033
0.820439777557818
0.486228032405978
1.47414840191382
1.15692048882454
