0.481381477160167
0.411572423341382
0.334974070761011
1.40199926893179
0.353583017934382
0.338904159542336
0.905689810043899
3.42954179213282
0.666956228964943
2.13696810193478
7.20361279549395
2.34435347240176
5.03548061614552
1.35024289399674
0.172976023635944
9.47194526661898
2.52051178033388
0.774834826108944
0.372194357405876
2.71242842983888
7.5189675830158
0.885051346086468
0.562990510890237
3.62706964741741
2.84980369573113
0.56509274535333
1.45319456138168
0.300202294722657
1.50343224741141
1.27201165804487
0.742834675131276
6.56124290789471
4.73156476801997
0.336729209524071
0.781916747759957
0.484656261912102
4.48470738851262
0.994782396780556
1.99907680473879
1.07571902532157
0.84535310080712
1.67910705074699
0.612525175459693
0.537816964445292
0.429444874962554
0.358486243771856
0.24264935278971
0.474349670681096
1.65782358687074
5.20574789275293
