-0.120167189284613 0 0 0 0 0 0 0 0 0 0 0 0 0 0 -2.36207523825423 0 0 0 0 0 0 0 0 0 0 0 0 0 0 0 0 0 0 0 0 0 0 0 0 0 0 0 0 0 0 0 0 0 0
0 -0.120167189284613 0 -0.23539371296684 0 0 -0.398374047145412 0 0 0 0 0 0 0 0 -0.749581261090661 0 0 0 0 0 0 0 0 0 0 0 0 0 0 0 0 0 0 0 0 0 0 0 0 0 0 0 0 0 0 0 0 0 0
0 0 -0.120167189284613 0 0 0 0 0 0 0 0 -0.879178759340731 0 0 -0.464964905933189 0 0 0 0 0 -0.446546186752967 0 0 0 0 0 0 0 0 0 0 0 0 0 0 0 0 0 0 0 0 0 0 0 0 0 0 0 0 0
0 0.0444785944429815 0 -0.120167189284613 0 0 0 0 -0.667014040483874 0 0 0 0 0 0 -3.14553139376363 0 0 0 0 -0.628424133135849 0 0 0 0 0 0 0 0 0 0 0 0 0 0 0 0 0 0 0 0 0 0 0 0 0 0 0 0 0
0 0 0 0 -0.120167189284613 0 0 0 0 -0.360892999547552 0 -0.567920426900327 0 0 -1.84639531858768 -2.46068693662198 0 0 0 0 0 0 0 0 0 0 0 0 0 0 0 0 0 0 0 0 0 0 0 0 0 0 0 0 0 0 0 0 0 0
0 0 0 0 0 -0.120167189284613 0 0 0 -0.603508383000393 0 -0.544970221470847 0 0 0 0 0 0 0 0 0 0 0 0 0 -2.14891241499947 -2.39844215530788 0 0 0 0 0 0 0 0 0 0 0 0 0 0 0 0 0 0 0 0 0 0 0
0 0.0786791371174416 0 0 0 0 -0.120167189284613 0 0 -0.71523460866675 -0.243461523309547 -1.70920893174402 0 0 0 -3.18938824890069 0 0 0 0 0 0 0 0 0 0 0 0 0 0 0 0 0 0 0 0 0 0 0 0 0 0 0 0 0 0 0 0 0 0
0 0 0 0 0 0 0 -0.120167189284613 0 0 -1.01016515667228 -1.67938903312007 0 0 -1.00476899666292 -0.634177459641351 0 0 0 0 0 0 0 0 0 0 0 0 0 0 0 0 0 0 0 0 0 0 0 0 0 0 0 0 0 0 0 0 0 0
0 0 0 0.130751375658546 0 0 0 0 -0.120167189284613 -0.7002828323828 0 0 0 0 0 0 -1.00998739857173 0 0 0 0 0 0 0 0 0 0 0 0 0 -0.656583496524057 0 0 0 0 0 0 0 0 0 0 0 0 0 0 0 0 0 0 0
0 0 0 0 0.0778117552259263 0.118778496169855 0.140889824246616 0 0.15202266840682 -0.120167189284613 0 0 0 0 0 0 -1.43268469740538 0 0 0 0 0 0 0 0 0 0 0 0 0 -0.33713396754689 0 0 0 0 0 0 0 0 0 0 0 0 0 0 0 0 0 0 0
0 0 0 0 0 0 0.0445857669257048 0.210823971544355 0 0 -0.120167189284613 0 0 0 -5.11880509804024 0 -2.47733110830236 0 0 0 0 0 0 -0.671295893523387 0 -0.277204295490024 0 0 0 0 0 0 0 0 0 0 0 0 0 0 0 0 0 0 0 0 0 0 0 0
0 0 0.166268880539201 0 0.118275158499288 0.0988702111845354 0.380152346896391 0.333052664498659 0 0 0 -0.120167189284613 0 0 0 0 0 0 0 0 0 0 0 0 0 -0.239215879656974 0 0 -1.41996829869506 0 0 0 0 0 0 0 0 0 0 0 0 0 0 0 0 0 0 0 0 0
0 0 0 0 0 0 0 0 0 0 0 0 -0.120167189284613 0 0 0 0 -1.05114979559258 0 0 0 0 0 0 0 0 0 0 0 -0.396649845706852 0 0 0 0 0 0 -1.98990825013604 0 0 -0.464789028394098 0 0 0 0 0 0 0 0 0 -0.518431500278285
0 0 0 0 0 0 0 0 0 0 0 0 0 -0.120167189284613 0 0 0 -1.26287163949074 0 0 0 0 0 0 0 0 0 0 0 0 0 0 0 0 0 0 0 0 0 -0.800655473151792 0 0 0 0 0 0 0 0 0 -1.53830940564845
0 0 0.0878455071886916 0 0.377206772447259 0 0 0.193162003578871 0 0 0.990451706920949 0 0 0 -0.120167189284613 0 -1.07171084951177 -3.9424657719981 0 0 0 0 0 0 0 0 0 0 0 -0.893341171986278 0 0 0 0 0 0 0 0 0 0 0 0 0 0 0 0 0 0 0 0
0.433667338538447 0.15587271370028 0 0.61789444829464 0.484118184058364 0 0.674453916929523 0.126699843281991 0 0 0 0 0 0 0 -0.120167189284613 0 -2.51357881385355 0 0 0 0 0 0 0 0 0 0 0 0 0 0 0 0 -0.457024391959975 0 -0.9966772263593 0 0 -0.610412263798592 0 0 -4.56519510602601 0 0 0 0 -2.78380985991453 0 0
0 0 0 0 0 0 0 0 0.190711093410966 0.268722510902369 0.492609470849087 0 0 0 0.213631010937506 0 -0.120167189284613 0 0 0 0 0 0 0 0 0 0 0 0 0 0 0 0 0 -1.4122916432168 0 -1.21689818291241 0 0 0 0 -0.592414223878936 -0.736390045663928 0 0 0 0 0 0 0
0 0 0 0 0 0 0 0 0 0 0 0 0.187114010615199 0.254104504251738 0.746893553249657 0.470433229071418 0 -0.120167189284613 -0.317980827356773 0 0 0 0 0 0 0 0 0 0 0 0 0 0 0 -0.361061784309586 0 0 0 0 0 0 0 0 -2.28617182868316 0 0 0 0 0 0
0 0 0 0 0 0 0 0 0 0 0 0 0 0 0 0 0 0.0595551905468277 -0.120167189284613 0 0 0 0 0 0 0 0 0 0 0 0 0 0 0 0 -0.570857194771844 -0.842032906573518 0 0 0 0 -0.525114543136526 -1.03817799922956 -1.64139863065314 0 0 0 0 0 -1.25201893376061
0 0 0 0 0 0 0 0 0 0 0 0 0 0 0 0 0 0 0 -0.120167189284613 0 0 0 0 0 0 0 0 0 0 0 0 0 0 0 -1.64815281472078 -0.390038671345153 0 0 0 0 0 -1.06920289640357 -0.996752256132289 0 0 0 0 0 0
0 0 0.0944242184804792 0.127807472101985 0 0 0 0 0 0 0 0 0 0 0 0 0 0 0 0 -0.120167189284613 0 0 0 0 0 0 0 0 0 0 0 0 0 0 -0.343464749113616 0 0 0 0 0 -1.67070839083497 -2.07840114683353 -1.29634041945069 0 0 0 0 0 0
0 0 0 0 0 0 0 0 0 0 0 0 0 0 0 0 0 0 0 0 0 -0.120167189284613 0 0 -1.11582037808084 0 0 0 0 0 0 0 0 0 0 0 -0.351474312802343 0 0 0 0 0 0 0 0 0 0 0 0 -0.445323124334477
0 0 0 0 0 0 0 0 0 0 0 0 0 0 0 0 0 0 0 0 0 0 -0.120167189284613 0 -1.95770450135159 0 0 0 0 0 0 0 0 0 0 -1.08753235331906 0 0 0 0 0 0 -3.20193796505421 0 0 0 0 0 0 0
0 0 0 0 0 0 0 0 0 0 0.125464221897158 0 0 0 0 0 0 0 0 0 0 0 0 -0.120167189284613 0 0 0 0 0 0 0 0 0 0 0 0 0 0 0 0 0 -0.0903202201975549 -3.23184266990496 -0.235278761258941 0 0 0 0 0 -1.14825812874491
0 0 0 0 0 0 0 0 0 0 0 0 0 0 0 0 0 0 0 0 0 0.219969578116751 0.408206847904984 0 -0.120167189284613 0 0 0 0 0 0 0 0 0 0 -0.678908282490747 0 0 0 0 0 -2.25876380168906 -1.10250534442739 -1.26617992093403 0 0 0 0 0 -1.33526292220811
0 0 0 0 0 0.431753704273747 0 0 0 0 0.0494008052503681 0.049356005189464 0 0 0 0 0 0 0 0 0 0 0 0 0 -0.120167189284613 0 0 0 0 0 0 0 0 0 0 0 0 0 0 0 -0.49731170452483 0 0 0 0 0 0 0 -3.20377508256544
0 0 0 0 0 0.503471725528409 0 0 0 0 0 0 0 0 0 0 0 0 0 0 0 0 0 0 0 0 -0.120167189284613 0 0 0 0 0 0 0 0 -1.16869850575218 0 0 0 0 0 -0.338805069963337 -5.06274896271392 -1.12771699357797 0 0 0 0 0 -0.59292334267246
0 0 0 0 0 0 0 0 0 0 0 0 0 0 0 0 0 0 0 0 0 0 0 0 0 0 0 -0.120167189284613 0 0 0 0 0 0 0 0 0 0 0 0 0 -0.245802553603302 -2.34690446470071 0 0 0 0 0 0 0
0 0 0 0 0 0 0 0 0 0 0 0.284352740075362 0 0 0 0 0 0 0 0 0 0 0 0 0 0 0 0 -0.120167189284613 0 0 -0.197110934424226 0 -1.18770291115883 0 0 0 0 0 0 0 -1.35668591579419 0 0 0 0 0 0 0 0
0 0 0 0 0 0 0 0 0 0 0 0 0.0803413087663391 0 0.188186444529265 0 0 0 0 0 0 0 0 0 0 0 0 0 0 -0.120167189284613 0 0 0 -1.01463458990438 0 -2.32042594392552 0 -0.672453896863328 0 0 0 -0.642073111825336 0 0 0 0 0 0 0 0
0 0 0 0 0 0 0 0 0.124837741920622 0.0693856802884957 0 0 0 0 0 0 0 0 0 0 0 0 0 0 0 0 0 0 0 0 -0.120167189284613 0 0 0 0 -2.46279645972396 0 -0.611171654071929 0 0 -0.452987854939706 -1.34718320997159 0 0 0 -0.652602145706161 0 0 0 -2.01511812578187
0 0 0 0 0 0 0 0 0 0 0 0 0 0 0 0 0 0 0 0 0 0 0 0 0 0 0 0 0.0403306672435642 0 0 -0.120167189284613 0 0 0 0 0 0 0 0 0 -2.630303540757 0 0 0 0 0 0 0 -0.263925377338615
0 0 0 0 0 0 0 0 0 0 0 0 0 0 0 0 0 0 0 0 0 0 0 0 0 0 0 0 0 0 0 0 -0.120167189284613 -0.52352720616494 0 0 0 0 0 0 0 -0.913941781355589 0 0 0 0 0 0 0 -0.560633778661569
0 0 0 0 0 0 0 0 0 0 0 0 0 0 0 0 0 0 0 0 0 0 0 0 0 0 0 0 0.225434398005946 0.164261429721918 0 0 0.0990504659829149 -0.120167189284613 0.384050188837347 0 0 0 0 0 0 0 0 0 0 -0.669926442053301 0 0 0 -0.620996384169251
0 0 0 0 0 0 0 0 0 0 0 0 0 0 0 0.0888730951807604 0.278788977694596 0.0714033392135055 0 0 0 0 0 0 0 0 0 0 0 0 0 0 0 -1.86598434956559 -0.120167189284613 0 0 0 0 0 -1.59273871914008 0 0 0 0 -0.671269699972547 0 0 0 -0.729991277532129
0 0 0 0 0 0 0 0 0 0 0 0 0 0 0 0 0 0 0.114527905612442 0.322131289311483 0.0709307292933406 0 0.216891031898084 0 0.134670828660542 0 0.223439386023789 0 0 0.486520981965158 0.465965978227179 0 0 0 0 -0.120167189284613 0 0 0 0 0 0 0 0 0 -2.17499172410922 0 0 0 -1.96151137887803
0 0 0 0 0 0 0 0 0 0 0 0 0.386745832243296 0 0 0.201102558028905 0.241862557732463 0 0.162261212812156 0.0818720266613058 0 0.0727299994364966 0 0 0 0 0 0 0 0 0 0 0 0 0 0 -0.120167189284613 0 -0.383574431492029 0 0 0 0 0 0 0 -5.59559023130816 0 -1.45358530141613 0
0 0 0 0 0 0 0 0 0 0 0 0 0 0 0 0 0 0 0 0 0 0 0 0 0 0 0 0 0 0.126504988373727 0.115681355390339 0 0 0 0 0 0 -0.120167189284613 0 0 0 0 0 0 0 0 -0.890441793103667 0 0 0
0 0 0 0 0 0 0 0 0 0 0 0 0 0 0 0 0 0 0 0 0 0 0 0 0 0 0 0 0 0 0 0 0 0 0 0 0.0702331670235783 0 -0.120167189284613 0 0 0 0 0 0 0 0 0 0 0
0 0 0 0 0 0 0 0 0 0 0 0 0.0929371792744154 0.157092139442037 0 0.129628472723948 0 0 0 0 0 0 0 0 0 0 0 0 0 0 0 0 0 0 0 0 0 0 0 -0.120167189284613 0 0 0 0 0 0 0 0 -4.57066300740488 0
0 0 0 0 0 0 0 0 0 0 0 0 0 0 0 0 0 0 0 0 0 0 0 0 0 0 0 0 0 0 0.0815334600772844 0 0 0 0.321212003193461 0 0 0 0 0 -0.120167189284613 0 0 0 0 0 0 0 -0.216966040393489 0
0 0 0 0 0 0 0 0 0 0 0 0 0 0 0 0 0.116919590946448 0 0.1115062075399 0 0.327876688767352 0 0 0.0173299818434736 0.470472276371739 0.10104640982694 0.0648475705482636 0.0517410868804806 0.265573740039313 0.133449105933612 0.271251247148698 0.521908876615611 0.189647246688128 0 0 0 0 0 0 0 0 -0.120167189284613 0 0 -0.149290628874639 0 0 0 -1.68296300010696 0
0 0 0 0 0 0 0 0 0 0 0 0 0 0 0 0.939343474559426 0.147942375318315 0 0.202572037537707 0.210617758525206 0.437478739467719 0 0.648862375406414 0.602415519470598 0.221679387041496 0 1.04906029567286 0.456041120098067 0 0 0 0 0 0 0 0 0 0 0 0 0 0 -0.120167189284613 0 -0.149599562966084 0 0 0 -2.58103634479149 0
0 0 0 0 0 0 0 0 0 0 0 0 0 0 0 0 0 0.473937314011692 0.346737318263787 0.209409032415571 0.252625579624599 0 0 0.0441628932376464 0.250934064588834 0 0.215170295763478 0 0 0 0 0 0 0 0 0 0 0 0 0 0 0 0 -0.120167189284613 0 0 0 0 0 0
0 0 0 0 0 0 0 0 0 0 0 0 0 0 0 0 0 0 0 0 0 0 0 0 0 0 0 0 0 0 0 0 0 0 0 0 0 0 0 0 0 0.0279030383822718 0.0308611801304294 0 -0.120167189284613 0 0 0 0 0
0 0 0 0 0 0 0 0 0 0 0 0 0 0 0 0 0 0 0 0 0 0 0 0 0 0 0 0 0 0 0.122456099548188 0 0 0.13902522571813 0.135718811020701 0.441143070957804 0 0 0 0 0 0 0 0 0 -0.120167189284613 0 0 0 0
0 0 0 0 0 0 0 0 0 0 0 0 0 0 0 0 0 0 0 0 0 0 0 0 0 0 0 0 0 0 0 0 0 0 0 0 1.1087620804406 0.186378012638571 0 0 0 0 0 0 0 0 -0.120167189284613 0 0 0
0 0 0 0 0 0 0 0 0 0 0 0 0 0 0 0.548230161502934 0 0 0 0 0 0 0 0 0 0 0 0 0 0 0 0 0 0 0 0 0 0 0 0 0 0 0 0 0 0 0 -0.120167189284613 0 0
0 0 0 0 0 0 0 0 0 0 0 0 0 0 0 0 0 0 0 0 0 0 0 0 0 0 0 0 0 0 0 0 0 0 0 0 0.286002743162661 0 0 0.741969409333226 0.0483826095209797 0.310545314328172 0.541406804812443 0 0 0 0 0 -0.120167189284613 0
0 0 0 0 0 0 0 0 0 0 0 0 0.111317911924006 0.283479655409125 0 0 0 0 0.266286362202943 0 0 0.0879292562952542 0 0.231453663742765 0.273210799719315 0.636965335412887 0.116154502228702 0 0 0 0.407582916954469 0.0468557163376988 0.110821961870082 0.122628852404312 0.140210974712373 0.366706373465494 0 0 0 0 0 0 0 0 0 0 0 0 0 -0.120167189284613
