-0.264132582922304 0 0 0 0 0 0 -0.283717672147148 0 0 0 0 0 0 0 0 0 -0.555929319947557 0 0 0 0 0 0 0 0 0 0 0 0 0 0 0 0 0 -11.7930709887027 0 0 0 0 0 0 -2.67951870428023 0 0 -0.621429959396309 0 0 0 0
0 -0.264132582922304 0 0 0 0 0 -0.609806207230144 0 0 0 -3.12263576909669 0 0 0 0 0 0 -0.832645090824398 0 0 -0.181304180239304 0 0 0 0 0 0 -1.0346965321522 0 0 0 0 0 0 0 0 0 0 0 0 0 -0.115735977220501 0 0 -0.438882396364014 0 0 0 0
0 0 -0.264132582922304 0 0 0 0 0 0 0 0 -1.02846884184577 0 0 -2.81560210325557 0 0 0 -0.760060762702613 -2.64597678629259 0 0 0 0 0 0 0 0 -0.913254419392791 0 0 0 0 0 0 0 0 0 0 0 0 0 -0.59006421717772 0 0 0 0 0 0 0
0 0 0 -0.264132582922304 0 0 0 0 0 0 0 -0.712752248955549 0 0 -3.18402764592922 0 0 0 0 0 0 0 0 -2.65141032627875 0 0 0 0 0 0 0 0 0 0 0 0 0 0 0 0 -1.45573363367635 0 0 0 0 -1.77536242321435 0 0 0 0
0 0 0 0 -0.264132582922304 0 0 0 0 0 0 -1.06952610140121 0 0 -2.27799204153446 -0.68303576985779 0 0 0 -2.02077443888746 0 0 0 0 0 0 0 0 0 0 0 0 0 0 0 0 0 0 0 0 0 0 0 0 0 0 0 0 0 0
0 0 0 0 0 -0.264132582922304 0 0 0 0 0 -1.36491415216062 0 0 0 0 0 0 -0.537782339279856 0 0 0 0 -3.24507148385012 0 0 0 0 0 0 0 0 0 0 0 -0.448922638298279 0 0 0 0 0 0 -0.419515360067501 0 0 0 0 0 0 0
0 0 0 0 0 0 -0.264132582922304 0 0 0 0 0 0 0 0 0 0 0 0 0 0 0 0 0 0 0 0 0 0 0 0 0 0 0 0 -1.33857697637458 0 0 0 0 0 0 0 0 0 0 0 0 0 0
0.0551415313337221 0.123193931079984 0 0 0 0 0 -0.264132582922304 0 0 0 0 0 0 -2.21072169854279 0 0 0 -4.49958484483792 0 0 0 0 -0.635408499401753 0 0 0 0 0 0 0 0 0 0 0 0 0 0 0 0 0 0 0 0 0 -3.51134573661134 0 0 0 0
0 0 0 0 0 0 0 0 -0.264132582922304 0 0 0 0 0 -1.58398810863308 0 0 0 0 0 0 0 0 0 0 0 0 -0.185488373587592 0 0 0 0 0 0 0 0 0 0 0 0 0 0 0 0 0 0 0 0 0 0
0 0 0 0 0 0 0 0 0 -0.264132582922304 0 0 -2.54900186508514 0 0 0 0 0 -4.94910185647252 0 0 0 0 -1.06636982048691 0 0 0 0 0 0 0 0 0 0 0 0 0 0 0 0 -1.52287364173605 0 -0.671915581295886 0 0 -1.03768629208196 0 0 0 0
0 0 0 0 0 0 0 0 0 0 -0.264132582922304 0 -0.828219951425584 0 0 0 0 0 -1.4658764223117 0 0 0 0 -0.386002938920662 0 0 0 0 0 0 0 0 0 0 0 0 0 0 0 0 0 0 0 0 0 -1.67504891376414 0 0 0 0
0 0.614371129727102 0.205710032765553 0.147196365495289 0.207279521888804 0.284232597355812 0 0 0 0 0 -0.264132582922304 -1.5661897113723 -0.563947167372176 0 0 0 0 -1.59892513755552 0 0 0 0 -4.24897058274307 0 0 0 0 0 0 0 0 0 0 0 -3.45855796032744 0 0 0 0 -3.81858078232231 0 0 0 0 0 0 0 0 0
0 0 0 0 0 0 0 0 0 0.506326482859506 0.171955378659078 0.323498534911876 -0.264132582922304 0 0 0 0 0 0 0 0 0 0 0 0 0 0 0 0 0 0 0 0 0 0 0 0 0 0 0 0 0 0 0 0 0 0 0 0 0
0 0 0 0 0 0 0 0 0 0 0 0.114550849597043 0 -0.264132582922304 0 0 0 0 0 0 0 0 0 -2.35412528330501 0 0 0 0 0 0 0 0 0 0 0 0 0 0 0 0 0 0 0 0 0 0 0 0 0 0
0 0 0.555903214922779 0.61465846470154 0.443807655838513 0 0 0.440958267858522 0.3020369085223 0 0 0 0 0 -0.264132582922304 0 0 0 0 0 0 0 0 -0.981922982026941 0 0 0 0 0 0 0 0 0 0 0 0 0 -1.38552689243159 0 0 0 0 0 0 0 0 0 0 0 -1.74990743833064
0 0 0 0 0.127651952713139 0 0 0 0 0 0 0 0 0 0 -0.264132582922304 0 0 0 0 0 0 0 0 0 0 0 0 0 0 0 0 0 0 0 0 0 0 0 0 0 0 0 0 0 0 0 0 0 -7.67780825014315
0 0 0 0 0 0 0 0 0 0 0 0 0 0 0 0 -0.264132582922304 0 0 0 0 0 0 -3.61165213533944 0 0 0 0 0 0 0 0 0 0 0 0 0 0 0 0 0 0 0 0 0 0 0 0 0 -1.3155795628632
0.119627541177271 0 0 0 0 0 0 0 0 0 0 0 0 0 0 0 0 -0.264132582922304 0 0 0 0 0 -0.668016982314332 0 0 0 0 0 0 0 0 0 0 0 0 0 0 0 0 0 0 0 0 0 0 0 0 0 0
0 0.16286168233446 0.157337809124831 0 0 0.107343201123391 0 0.911511196346302 0 0.912789138318282 0.266421149156787 0.322554533474789 0 0 0 0 0 0 -0.264132582922304 0 0 0 0 0 0 0 0 0 0 0 0 0 0 0 -0.554168518004439 0 0 0 0 0 0 0 0 0 0 0 0 0 0 -0.220127924826579
0 0 0.557722390229206 0 0.369012136556082 0 0 0 0 0 0 0 0 0 0 0 0 0 0 -0.264132582922304 0 0 0 -1.9633350818994 0 0 0 0 0 0 0 0 0 0 -1.19609462912397 0 0 0 0 0 0 0 0 0 0 0 0 0 0 -0.708247399880112
0 0 0 0 0 0 0 0 0 0 0 0 0 0 0 0 0 0 0 0 -0.264132582922304 0 0 0 0 0 0 0 0 0 0 0 0 0 -1.20801856058847 0 0 0 0 0 0 0 0 0 0 0 0 0 0 -9.57401258730125
0 0.0353731954078396 0 0 0 0 0 0 0 0 0 0 0 0 0 0 0 0 0 0 0 -0.264132582922304 0 0 0 0 0 0 0 0 0 0 0 -2.59705597216864 0 0 0 -1.55095954495232 0 0 0 0 0 0 0 0 0 0 0 0
0 0 0 0 0 0 0 0 0 0 0 0 0 0 0 0 0 0 0 0 0 0 -0.264132582922304 0 -2.46431739826113 0 0 0 0 0 0 0 0 0 -0.20404670681246 0 0 0 0 0 0 0 0 0 0 0 0 0 0 0
0 0 0 0.531351278124807 0 0.66103864613055 0 0.133793466121441 0 0.215252722948112 0.0799389203036677 0.923772031899778 0 0.440950875683399 0.195949628856984 0 0.685952411624247 0.131052876771038 0 0.361087213250238 0 0 0 -0.264132582922304 -0.536053256184096 0 0 0 0 0 0 0 0 0 0 0 0 0 0 0 0 0 0 0 0 0 0 0 0 0
0 0 0 0 0 0 0 0 0 0 0 0 0 0 0 0 0 0 0 0 0 0 0.493389883369708 0.12556818876067 -0.264132582922304 0 0 0 0 0 0 0 0 0 0 0 0 0 -10.7349324201961 -0.839711511046209 0 0 0 0 0 0 0 0 0 0
0 0 0 0 0 0 0 0 0 0 0 0 0 0 0 0 0 0 0 0 0 0 0 0 0 -0.264132582922304 0 0 0 0 0 -1.23831699026855 0 0 -3.27568859695733 0 0 0 -1.12492951547243 -2.58329847692159 0 0 0 0 0 0 0 0 0 -0.225826060243252
0 0 0 0 0 0 0 0 0 0 0 0 0 0 0 0 0 0 0 0 0 0 0 0 0 0 -0.264132582922304 0 0 0 0 0 0 0 -3.04708040053844 0 0 0 0 -0.845659833863603 0 0 0 0 0 0 0 0 0 -0.207715537605189
0 0 0 0 0 0 0 0 0.0375843636004341 0 0 0 0 0 0 0 0 0 0 0 0 0 0 0 0 0 0 -0.264132582922304 0 0 -0.913440230282408 0 0 0 -1.52590102500534 0 0 0 -2.88394945554195 -2.35002261128459 0 0 0 0 0 0 -0.403044555102981 0 0 -0.727010857563292
0 0.208205844959683 0.198286718693363 0 0 0 0 0 0 0 0 0 0 0 0 0 0 0 0 0 0 0 0 0 0 0 0 0 -0.264132582922304 -0.128289490160777 0 0 0 0 -1.10746690627268 0 0 0 0 -0.352622930292456 0 0 0 0 0 0 -9.58643663170088 -0.3292555443939 0 0
0 0 0 0 0 0 0 0 0 0 0 0 0 0 0 0 0 0 0 0 0 0 0 0 0 0 0 0 0.0252453364505487 -0.264132582922304 0.308908406444107 0 0 0 0 0 0 0 0 -0.471752429190598 0 0 0 0 0 0 0 -2.0098013167717 0 -0.45958639641995
0 0 0 0 0 0 0 0 0 0 0 0 0 0 0 0 0 0 0 0 0 0 0 0 0 0 0 0.186586803801959 0 -1.55415272798515 -0.264132582922304 0 0 0 0 0 0 0 -0.319809037833193 0 0 0 0 0 0 0 0 0 0 -0.399051248481248
0 0 0 0 0 0 0 0 0 0 0 0 0 0 0 0 0 0 0 0 0 0 0 0 0 0.261171480262797 0 0 0 0 0 -0.264132582922304 0.447100730932519 0 -1.24777362730815 0 0 0 -0.6929304681595 0 0 0 0 0 0 0 -2.83263023850271 -0.334325979117825 0 0
0 0 0 0 0 0 0 0 0 0 0 0 0 0 0 0 0 0 0 0 0 0 0 0 0 0 0 0 0 0 0 -2.16024335260164 -0.264132582922304 0 0 0 0 0 -0.463680225763685 -0.575928050254309 0 0 0 0 0 0 0 -0.445291636544903 0 0
0 0 0 0 0 0 0 0 0 0 0 0 0 0 0 0 0 0 0 0 0 0.496934068036085 0 0 0 0 0 0 0 0 0 0 0 -0.264132582922304 0 0 0 0 0 -3.66458453569045 0 0 0 0 0 0 -4.46885854488682 -1.27681229868343 0 0
0 0 0 0 0 0 0 0 0 0 0 0 0 0 0 0 0 0 0.0981106994789008 0.258934054095051 0.224409358213872 0 0.0419964889516252 0 0 0.725954680973332 0.561929428886605 0.291351607572424 0.216187480602832 0 0 0.226634946871296 0 0 -0.264132582922304 0.0232867161630974 0 0 -1.88278379025102 -0.493308984588438 0 0 0 0 0 0 0 -0.606166202384906 0 0
2.26717581089332 0 0 0 0 0.0837831314668817 0.281465481033385 0 0 0 0 0.71685846249297 0 0 0 0 0 0 0 0 0 0 0 0 0 0 0 0 0 0 0 0 0 0 -0.116521472351477 -0.264132582922304 0 0 0 -1.02932706764462 0 0 0 -0.411048535104173 0 0 -0.172060407075501 0 0 0
0 0 0 0 0 0 0 0 0 0 0 0 0 0 0 0 0 0 0 0 0 0 0 0 0 0 0 0 0 0 0 0 0 0 0 0 -0.264132582922304 0 0 0 0 0 0 0 0 0 -0.661444318719139 0 0 0
0 0 0 0 0 0 0 0 0 0 0 0 0 0 0.272776070900544 0 0 0 0 0 0 0.33743028021614 0 0 0 0 0 0 0 0 0 0 0 0 0 0 0 -0.264132582922304 0 0 0 0 0 -0.363374686120853 0 0 0 0 0 0
0 0 0 0 0 0 0 0 0 0 0 0 0 0 0 0 0 0 0 0 0 0 0 0 2.21300381290796 0.217496833297492 0 0.531057928388571 0 0 0.0630555542883685 0.147734488905689 0.0933863209483215 0 0.353320323307907 0 0 0 -0.264132582922304 -0.563617749931686 0 0 0 -3.03155952024155 -0.284617044715571 0 0 0 0 0
0 0 0 0 0 0 0 0 0 0 0 0 0 0 0 0 0 0 0 0 0 0 0 0 0.182089275279178 0.533521697596163 0.174183217547862 0.531074671462558 0.0694789815730988 0.0968623492020265 0 0 0.119765420349829 0.69393316664243 0.0986076162543416 0.203266019165712 0 0 0.1154898084955 -0.264132582922304 0 0 0.185146447031587 -5.81291998837209 0 0 0 0 0 0
0 0 0 0.290180526443308 0 0 0 0 0 0.295338940256798 0 0.717117125019022 0 0 0 0 0 0 0 0 0 0 0 0 0 0 0 0 0 0 0 0 0 0 0 0 0 0 0 0 -0.264132582922304 0 0 0 -1.5676438962237 0 0 0 0 0
0 0 0 0 0 0 0 0 0 0 0 0 0 0 0 0 0 0 0 0 0 0 0 0 0 0 0 0 0 0 0 0 0 0 0 0 0 0 0 0 0 -0.264132582922304 0 -0.381019670783735 0 0 0 0 0 0
0.522473697419589 0.0246073508403367 0.116581918929821 0 0 0.0844450228211148 0 0 0 0.135587573067875 0 0 0 0 0 0 0 0 0 0 0 0 0 0 0 0 0 0 0 0 0 0 0 0 0 0 0 0 0 -0.929859275653805 0 0 -0.264132582922304 0 -0.155900210765834 0 0 0 0 0
0 0 0 0 0 0 0 0 0 0 0 0 0 0 0 0 0 0 0 0 0 0 0 0 0 0 0 0 0 0 0 0 0 0 0 0.0789510459834919 0 0.0742005204458928 0.591249691478755 1.17429027812059 0 0.0732631230106191 0 -0.264132582922304 0 0 0 0 -7.66958099777907 0
0 0 0 0 0 0 0 0 0 0 0 0 0 0 0 0 0 0 0 0 0 0 0 0 0 0 0 0 0 0 0 0 0 0 0 0 0 0 0.0609408923636608 0 0.315602802768889 0 0.0336790199247825 0 -0.264132582922304 0 0 0 -0.390865068377858 0
0.131085476371735 0.0860020758911764 0 0.336359359707232 0 0 0 0.639771915328159 0 0.222155367126889 0.355097075977973 0 0 0 0 0 0 0 0 0 0 0 0 0 0 0 0 0 0 0 0 0 0 0 0 0 0 0 0 0 0 0 0 0 0 -0.264132582922304 0 0 -9.60411748848485 0
0 0 0 0 0 0 0 0 0 0 0 0 0 0 0 0 0 0 0 0 0 0 0 0 0 0 0 0.0809045275953659 1.81731312537719 0 0 0.581963682360919 0 0.842711639296555 0 0.0342308413334529 0.141376852171228 0 0 0 0 0 0 0 0 0 -0.264132582922304 0 0 0
0 0 0 0 0 0 0 0 0 0 0 0 0 0 0 0 0 0 0 0 0 0 0 0 0 0 0 0 0.0706012303264466 0.359896128498989 0 0.0650249753437468 0.0937799587656598 0.264492059352982 0.124321618229954 0 0 0 0 0 0 0 0 0 0 0 0 -0.264132582922304 0 0
0 0 0 0 0 0 0 0 0 0 0 0 0 0 0 0 0 0 0 0 0 0 0 0 0 0 0 0 0 0 0 0 0 0 0 0 0 0 0 0 0 0 0 1.48741414893988 0.0804615920003337 1.71760031352636 0 0 -0.264132582922304 0
0 0 0 0 0 0 0 0 0 0 0 0 0 0 0.345760567359446 1.46318504477033 0.258587674433511 0 0.0421096915141824 0.150794240396046 1.98141857802655 0 0 0 0 0.0459894011077618 0.0442659038415431 0.130207809199234 0 0.099349976374194 0.0837806453723867 0 0 0 0 0 0 0 0 0 0 0 0 0 0 0 0 0 0 -0.264132582922304
