-0.255471525136553 0 -1.82837134857508 0 0 0 0 0 0 0 0 0 0 -4.20016878025644 0 0 0 0 0 0 0 0 0 0 0 0 0 0 0 0 0 0 0 0 0 0 0 0 0 0 0 0 0 0 0 0 -0.839845934820122 0 0 0
0 -0.255471525136553 0 0 0 -1.61171335931319 0 0 0 -0.986135768461621 0 0 0 0 0 0 0 0 0 0 0 0 -1.7362333759042 0 0 0 0 0 0 0 0 0 0 0 0 0 0 0 0 0 0 0 -1.75573162563277 0 0 0 -0.351703024871362 0 0 0
0.367321832334543 0 -0.255471525136553 0 0 -1.05381884204259 0 -4.71633553335264 0 -0.162399998107542 0 0 0 0 0 0 0 0 0 0 0 0 -0.602295118592174 0 0 0 0 0 0 0 0 0 0 0 0 0 0 0 0 0 0 0 -0.357713929782161 0 0 0 -0.962042032376203 0 0 0
0 0 0 -0.255471525136553 0 0 0 0 -1.14835495413108 -6.94467408864766 0 0 0 0 0 0 0 0 0 0 0 0 0 0 0 0 0 0 0 0 0 0 0 0 0 0 0 0 0 0 0 0 -1.92605707793173 0 0 0 0 0 0 0
0 0 0 0 -0.255471525136553 0 0 0 -1.7098007047148 -0.856824486782617 0 0 0 0 -1.67485758543662 0 0 0 0 0 0 0 0 0 0 0 0 0 0 0 0 0 0 0 0 0 0 0 0 0 0 0 0 0 0 0 -1.66497110192652 0 0 0
0 0.310319148235627 0.200824481404328 0 0 -0.255471525136553 0 0 0 0 0 0 0 0 0 0 0 0 0 0 0 0 0 0 0 0 0 0 0 0 0 0 0 0 -0.185302992591373 0 0 0 0 0 0 0 0 0 0 0 0 0 0 0
0 0 0 0 0 0 -0.255471525136553 0 0 0 -0.942278958832933 0 0 0 0 0 0 0 0 0 0 0 0 0 0 0 0 0 0 -1.29991836056882 0 0 0 0 -4.28674112636356 0 0 0 0 0 0 0 0 0 0 0 0 0 0 0
0 0 1.03331959095914 0 0 0 0 -0.255471525136553 0 0 0 -0.213813431325369 0 0 0 0 0 0 0 0 0 0 0 0 0 0 0 0 0 0 0 0 0 0 0 0 0 -0.930419519700908 0 0 0 0 0 0 0 -0.804219220892031 0 0 0 0
0 0 0 0.211354979683226 0.32476015368327 0 0 0 -0.255471525136553 0 0 -0.238434456044149 0 0 0 -0.295666896860173 0 0 0 0 0 0 0 0 0 0 -1.34846160763368 0 0 -0.274792305432811 0 -2.27447666857363 0 0 0 0 0 0 0 0 0 0 0 0 0 0 0 0 0 0
0 0.202160194177359 0.0313399833406621 1.46350716744864 0.175684881044054 0 0 0 0 -0.255471525136553 0 -0.605571680930353 0 0 0 0 0 0 0 0 0 0 0 0 0 0 0 0 0 -1.02323721600686 0 -0.74307750765056 0 0 0 0 0 -0.578401958096734 0 0 0 0 0 0 0 0 -1.76738534349135 0 0 0
0 0 0 0 0 0 0.170525133808727 0 0 0 -0.255471525136553 -3.44409738837955 0 0 0 0 0 0 0 0 0 0 0 0 0 0 -0.172529595663963 0 0 -2.46849441076512 0 -1.25353700275785 0 -1.16258912300576 0 0 0 0 0 0 0 0 0 0 0 -0.535596392445736 -0.751472285726077 0 0 0
0 0 0 0 0 0 0 0.0425138673878462 0.0488623240388786 0.120787500988388 0.655521204387233 -0.255471525136553 0.396668450390941 0.0963336447442835 0 0 -0.288694826547316 0 0 0 0 0 0 0 0 0 -0.166020447197142 -9.94960208433451 0 0 0 -0.533687593597267 0 0 0 0 0 0 0 0 0 0 0 0 0 -1.52658930364609 -0.674809575966039 0 0 0
0 0 0 0 0 0 0 0 0 0 0 -2.0039166212831 -0.255471525136553 0 0 0 0 0 0 0 0 0 0 0 0 0 0 -2.19114681378556 0 0 0 0 0 -0.965239535086881 0 0 0 0 0 0 0 0 0 0 0 0 0 0 0 0
0.776981070845562 0 0 0 0 0 0 0 0 0 0 -0.462176776693773 0 -0.255471525136553 0 0 0 0 0 0 0 0 0 0 0 0 0 0 0 0 0 0 0 0 0 0 0 0 -11.2681034105406 0 0 0 0 0 0 0 0 0 0 0
0 0 0 0 0.355466996751951 0 0 0 0 0 0 0 0 0 -0.255471525136553 0 0 0 0 0 0 0 0 0 0 0 0 -1.05919591325608 0 0 -0.556745285055097 0 0 -1.56292505089115 0 0 0 0 -0.61550980112947 0 0 0 0 0 0 -0.442301519608921 -3.45858440001121 0 0 0
0 0 0 0 0 0 0 0 0.0589059721700256 0 0 0 0 0 0 -0.255471525136553 0 -0.775822282658443 0 -0.292975970735106 0 0 0 -1.50267244007397 0 0 0 0 0 0 -0.582363598357563 0 0 -1.14677501372097 0 0 0 0 -0.767548763705644 0 0 0 0 -0.581482043736891 0 0 -0.43349942867659 0 -0.352231702404858 0
0 0 0 0 0 0 0 0 0 0 0 0.0610562622942504 0 0 0 0 -0.255471525136553 -1.96209212815926 0 0 0 0 0 -2.22835716581592 -0.14863651709177 0 0 -0.561120725645303 0 0 0 0 0 0 0 0 -0.714709005739497 0 -0.575000585008548 0 0 0 0 0 0 0 -0.300341041904042 0 -1.15779920562922 0
0 0 0 0 0 0 0 0 0 0 0 0 0 0 0 0.164103565015376 0.38084574507876 -0.255471525136553 0 -0.258376647927705 0 0 0 0 0 0 0 -2.4281451356637 0 0 0 0 0 0 0 0 -0.248286267547887 -4.53322052103209 0 0 0 0 0 -1.05839487629529 0 0 0 0 0 0
0 0 0 0 0 0 0 0 0 0 0 0 0 0 0 0 0 0 -0.255471525136553 0 -3.20403862713319 0 0 0 0 0 0 0 0 0 0 0 0 0 0 -2.69581755114219 0 0 0 0 0 0 0 0 0 0 0 0 0 0
0 0 0 0 0 0 0 0 0 0 0 0 0 0 0 0.0525007458955762 0 0.0461685766879772 0 -0.255471525136553 0 -5.01536949698499 0 0 0 0 0 0 0 0 0 0 0 0 0 -0.488858532879415 0 0 0 0 0 0 0 0 0 0 0 0 0 0
0 0 0 0 0 0 0 0 0 0 0 0 0 0 0 0 0 0 0.629209358961399 0 -0.255471525136553 -1.74858944557291 0 0 0 0 0 -0.159986322221428 0 0 0 0 0 0 0 -1.83494056288128 0 0 0 0 0 0 0 0 0 0 0 0 0 0
0 0 0 0 0 0 0 0 0 0 0 0 0 0 0 0 0 0 0 0.979736062963556 0.355483907345788 -0.255471525136553 0 0 0 0.164042615640177 0 -0.648286391137555 0 0 0 0 0 0 0 0 0 0 0 0 0 0 0 0 0 0 0 0 0 0
0 0.324416453336178 0.116143928991301 0 0 0 0 0 0 0 0 0 0 0 0 0 0 0 0 0 0 0 -0.255471525136553 0 0 0 0 -2.39757869082789 0 0 0 0 0 0 0 0 0 0 0 0 0 0 0 0 0 0 0 0 0 0
0 0 0 0 0 0 0 0 0 0 0 0 0 0 0 0.292500108008523 0.456793407420966 0 0 0 0 0 0 -0.255471525136553 0 0 0 0 0 0 0 0 0 0 0 -1.52356887637228 0 0 0 0 0 0 0 0 0 0 0 0 0 -2.01457643049323
0 0 0 0 0 0 0 0 0 0 0 0 0 0 0 0 0.0313660372319061 0 0 0 0 0 0 0 -0.255471525136553 0 0 -1.01302642209302 0 0 0 0 0 0 0 -0.624541973414465 0 0 0 0 0 0 0 0 0 0 0 0 0 0
0 0 0 0 0 0 0 0 0 0 0 0 0 0 0 0 0 0 0 0 0 -0.761194822585265 0 0 0 -0.255471525136553 0 -1.8521375181363 0 0 0 0 0 0 0 0 0 0 0 0 0 0 0 0 0 0 0 0 0 0
0 0 0 0 0 0 0 0 0.2627366140652 0 0.0311127564673058 0.0332128875319958 0 0 0 0 0 0 0 0 0 0 0 0 0 0 -0.255471525136553 0 0 0 0 0 0 0 0 -0.167013617546217 0 0 0 0 0 0 0 0 0 0 0 0 0 0
0 0 0 0 0 0 0 0 0 0 0 2.21152453934217 0.467085353418704 0 0.21312713815798 0 0.105078453048463 0.487518249372665 0 0 0.0330631453026526 0.121326134491389 0.481665419271036 0 0.22078775874471 0.349985901590495 0 -0.255471525136553 0.215205937608868 0 0 0 0.331861984285748 0 0 0 0 0 0 0 0 0 0 0 0 0 0 -1.21129052493274 0 0
0 0 0 0 0 0 0 0 0 0 0 0 0 0 0 0 0 0 0 0 0 0 0 0 0 0 0 -1.09644447211825 -0.255471525136553 0 0 0 0 0 0 0 0 0 0 0 0 0 0 0 0 0 0 -6.25189397426611 0 0
0 0 0 0 0 0 0.256489326508229 0 0.0545005308658402 0.209972787859063 0.495339496701226 0 0 0 0 0 0 0 0 0 0 0 0 0 0 0 0 0 0 -0.255471525136553 0 0 0 0 0 0 0 0 0 0 0 0 0 0 0 0 0 0 0 -0.942365818505025
0 0 0 0 0 0 0 0 0 0 0 0 0 0 0.105954123477722 0.12244586293234 0 0 0 0 0 0 0 0 0 0 0 0 0 0 -0.255471525136553 0 0 0 0 0 0 0 0 0 0 0 0 0 0 0 0 0 0 0
0 0 0 0 0 0 0 0 0.4620551222677 0.161101782957343 0.232240220048164 0.109130593097457 0 0 0 0 0 0 0 0 0 0 0 0 0 0 0 0 0 0 0 -0.255471525136553 0 0 0 0 0 0 0 0 0 0 0 0 0 0 0 0 0 -3.00036584480998
0 0 0 0 0 0 0 0 0 0 0 0 0 0 0 0 0 0 0 0 0 0 0 0 0 0 0 -1.62195786987544 0 0 0 0 -0.255471525136553 0 0 0 0 0 0 0 0 0 0 0 0 0 0 0 0 0
0 0 0 0 0 0 0 0 0 0 0.218928213056102 0 0.181868842484796 0 0.293678692666378 0.214082562547434 0 0 0 0 0 0 0 0 0 0 0 0 0 0 0 0 0 -0.255471525136553 0 0 0 0 0 0 0 0 0 0 0 0 0 0 0 0
0 0 0 0 0 0.0365361443615497 0.893889781468025 0 0 0 0 0 0 0 0 0 0 0 0 0 0 0 0 0 0 0 0 0 0 0 0 0 0 0 -0.255471525136553 0 0 0 0 0 0 -4.20108794420446 0 0 0 0 0 0 0 -0.572761529523443
0 0 0 0 0 0 0 0 0 0 0 0 0 0 0 0 0 0 0.547144383047133 0.0933430927829316 0.351427762331046 0 0 0.28084396700443 0.117685272656285 0 0.0349441126806841 0 0 0 0 0 0 0 0 -0.255471525136553 0 0 0 0 0 -1.33163354231152 0 0 -1.18621147900259 0 0 0 0 0
0 0 0 0 0 0 0 0 0 0 0 0 0 0 0 0 0.145154605774844 0.0520242674372849 0 0 0 0 0 0 0 0 0 0 0 0 0 0 0 0 0 0 -0.255471525136553 0 0 0 0 0 0 0 0 0 0 0 0 0
0 0 0 0 0 0 0 0.179686919526191 0 0.110884378800056 0 0 0 0 0 0 0 0.947980846111365 0 0 0 0 0 0 0 0 0 0 0 0 0 0 0 0 0 0 0 -0.255471525136553 0 0 0 0 0 0 -0.449400866967884 0 0 0 0 0
0 0 0 0 0 0 0 0 0 0 0 0 0 2.22700275782307 0.131672663832554 0.155604558751925 0.117980062770445 0 0 0 0 0 0 0 0 0 0 0 0 0 0 0 0 0 0 0 0 0 -0.255471525136553 0 -1.73982905004545 -0.430040948320987 0 0 -1.32866455221848 0 0 0 0 0
0 0 0 0 0 0 0 0 0 0 0 0 0 0 0 0 0 0 0 0 0 0 0 0 0 0 0 0 0 0 0 0 0 0 0 0 0 0 0 -0.255471525136553 -0.598380187578726 0 0 0 0 0 0 0 0 0
0 0 0 0 0 0 0 0 0 0 0 0 0 0 0 0 0 0 0 0 0 0 0 0 0 0 0 0 0 0 0 0 0 0 0 0 0 0 0.341673174756228 0.128705306238382 -0.255471525136553 -0.450683924915266 0 0 0 0 0 0 0 0
0 0 0 0 0 0 0 0 0 0 0 0 0 0 0 0 0 0 0 0 0 0 0 0 0 0 0 0 0 0 0 0 0 0 0.854957583413992 0.255665582258253 0 0 0.0913684329259402 0 0.0857520630620895 -0.255471525136553 0.213397791971007 0 -0.19005989327572 0 0 0 0 0
0 0.358810461555215 0.0694916388735248 0.377386325565378 0 0 0 0 0 0 0 0 0 0 0 0 0 0 0 0 0 0 0 0 0 0 0 0 0 0 0 0 0 0 0 0 0 0 0 0 0 -1.05108335947924 -0.255471525136553 0 -1.38205255973675 0 0 0 0 0
0 0 0 0 0 0 0 0 0 0 0 0 0 0 0 0.115141397367483 0 0.223907354692106 0 0 0 0 0 0 0 0 0 0 0 0 0 0 0 0 0 0 0 0 0 0 0 0 0 -0.255471525136553 0 0 0 0 0 0
0 0 0 0 0 0 0 0 0 0 0 0 0 0 0 0 0 0 0 0 0 0 0 0 0 0 0 0 0 0 0 0 0 0 0 0.216895734496919 0 0.0913231380827276 0.241896923872333 0 0 0.0381317482444677 0.292749267996817 0 -0.255471525136553 0 0 0 0 0
0 0 0 0 0 0 0 0.149404650628605 0 0 0.107335769432845 0.320053701187184 0 0 0.0876055257563846 0 0 0 0 0 0 0 0 0 0 0 0 0 0 0 0 0 0 0 0 0 0 0 0 0 0 0 0 0 0 -0.255471525136553 0 0 0 0
0.176791692648882 0.0696514195789204 0.181812221319883 0 0.357300966250762 0 0 0 0 0.36352333417323 0.154512488850342 0.127243293897993 0 0 0.703242279063793 0.0826289833832044 0.0606056439412926 0 0 0 0 0 0 0 0 0 0 0 0 0 0 0 0 0 0 0 0 0 0 0 0 0 0 0 0 0 -0.255471525136553 0 0 0
0 0 0 0 0 0 0 0 0 0 0 0 0 0 0 0 0 0 0 0 0 0 0 0 0 0 0 0.246882616961062 1.18020129298228 0 0 0 0 0 0 0 0 0 0 0 0 0 0 0 0 0 0 -0.255471525136553 0 0
0 0 0 0 0 0 0 0 0 0 0 0 0 0 0 0.0695849772221101 0.240718239072355 0 0 0 0 0 0 0 0 0 0 0 0 0 0 0 0 0 0 0 0 0 0 0 0 0 0 0 0 0 0 0 -0.255471525136553 0
0 0 0 0 0 0 0 0 0 0 0 0 0 0 0 0 0 0 0 0 0 0 0 0.432562076368127 0 0 0 0 0 0.191728113882733 0 0.622905198632034 0 0 0.123241622135033 0 0 0 0 0 0 0 0 0 0 0 0 0 0 -0.255471525136553
