-0.167754853080932 0 0 0 0 0 0 0 0 -0.988831837848102 -1.04008043234691 0 0 0 0 0 0 0 0 0 -4.22982735697367 0 0 0 0 0 0 -0.571608625490203 0 0 0 0 0 0 0 -0.376677564751055 0 0 0 0 0 0 0 0 0 0 0 0 -0.658266106485963 0
0 -0.167754853080932 0 0 0 0 0 0 0 -0.748941807579229 0 -1.12721489730269 0 0 0 0 0 0 0 -0.126738507803528 -9.12183760440353 0 0 0 0 0 0 0 0 0 0 0 0 0 0 0 0 0 0 0 0 0 0 0 0 0 0 0 -0.850994284289196 0
0 0 -0.167754853080932 0 0 0 0 0 -0.537785308213801 -2.64567034544874 -1.62425656003821 0 0 0 0 0 0 0 0 -4.44323983051616 0 0 0 0 0 0 0 0 0 0 0 0 0 0 0 -3.0288284717862 0 0 0 0 0 0 0 0 0 0 0 0 -8.63491101637864 0
0 0 0 -0.167754853080932 0 0 0 0 0 0 0 -3.75731179591321 0 0 0 0 0 0 0 0 0 0 -0.401829749623032 0 0 -2.88852792221809 -0.900077645874714 0 0 0 0 0 0 0 0 -3.71060730727157 0 0 0 0 0 0 0 0 0 0 0 0 -1.01986435641688 0
0 0 0 0 -0.167754853080932 0 0 0 0 0 0 -1.28233732903599 0 0 0 0 0 0 0 0 0 0 -0.0489419128184864 0 0 0 -1.52698178839626 0 0 0 0 0 0 0 0 0 0 0 0 0 0 0 0 0 0 0 0 0 -1.24925264119777 0
0 0 0 0 0 -0.167754853080932 0 0 0 0 0 0 -1.58351591166597 0 0 0 0 0 0 0 -1.55038899705216 0 0 0 0 -1.21466529278963 0 0 0 0 0 0 0 0 0 0 0 0 0 0 0 0 0 0 0 0 0 0 0 0
0 0 0 0 0 0 -0.167754853080932 0 0 0 0 0 0 0 0 0 0 0 0 0 -1.01980989230494 0 -1.15232329502699 0 0 -1.22641487240642 -0.1829858675532 0 0 0 0 0 0 0 0 0 0 0 0 0 0 0 0 0 0 0 0 0 0 0
0 0 0 0 0 0 0 -0.167754853080932 0 0 0 0 0 0 0 0 0 0 0 0 0 -0.528949275650042 0 0 0 -1.90135384416707 -0.822390870443508 0 0 0 0 0 0 0 0 0 0 0 0 0 0 0 0 0 0 0 0 0 -0.906968872994683 0
0 0 0.107829068959105 0 0 0 0 0 -0.167754853080932 0 0 0 0 0 0 0 0 0 0 0 -6.30724785288715 0 0 0 0 -0.176881229246667 0 0 0 0 0 0 0 0 0 0 0 0 0 0 0 0 0 0 0 0 0 0 0 0
0.210634022279069 0.171554877167967 0.513711242523942 0 0 0 0 0 0 -0.167754853080932 0 0 0 0 0 0 0 -3.31696171690474 0 0 0 -1.82426747112502 0 0 0 0 0 0 0 0 0 0 0 0 0 0 0 0 0 0 0 0 0 0 0 0 0 0 0 0
0.213562809857879 0 0.336811864324384 0 0 0 0 0 0 0 -0.167754853080932 0 0 0 0 0 -0.942919488398413 -0.284757939536361 0 0 0 0 0 0 0 0 0 0 0 0 -0.373081261728169 0 0 0 0 0 0 0 0 0 0 0 0 0 0 0 0 0 0 0
0 0.25336265877193 0 0.814776684121727 0.24466247292076 0 0 0 0 0 0 -0.167754853080932 0 0 0 0 0 -0.47183332203876 0 0 0 0 0 0 0 0 0 0 0 0 0 0 0 0 0 0 0 0 0 0 0 0 0 0 0 0 0 0 0 0
0 0 0 0 0 0.316033191140698 0 0 0 0 0 0 -0.167754853080932 0 -0.252549861988149 0 0 0 0 0 0 0 0 0 0 0 0 0 0 0 0 0 0 0 0 0 0 0 0 0 -1.17428840885044 0 0 0 0 0 0 0 0 0
0 0 0 0 0 0 0 0 0 0 0 0 0 -0.167754853080932 0 0 0 0 0 0 0 0 0 0 0 0 0 0 0 0 0 -0.697998541586075 -1.05543765658716 0 0 0 0 0 0 0 0 0 0 0 0 0 0 0 0 0
0 0 0 0 0 0 0 0 0 0 0 0 0.0495648185642966 0 -0.167754853080932 0 0 0 0 0 0 0 0 0 0 0 0 0 0 0 0 0 -2.73052254320618 0 0 0 0 0 0 0 0 0 0 0 0 0 0 0 0 -0.122345514463004
0 0 0 0 0 0 0 0 0 0 0 0 0 0 0 -0.167754853080932 0 0 0 0 0 0 0 0 0 0 0 0 0 0 0 -1.96630804939057 -4.29383993603084 0 0 0 0 0 0 0 0 0 0 0 0 0 0 0 0 0
0 0 0 0 0 0 0 0 0 0 0.182001736325457 0 0 0 0 0 -0.167754853080932 0 -4.48610063187905 0 0 0 0 0 0 0 0 0 0 0 0 -0.68102000501335 0 0 0 0 0 0 0 0 0 0 0 0 0 0 0 0 0 0
0 0 0 0 0 0 0 0 0 0.672771333938896 0.053536024541726 0.0977157696326542 0 0 0 0 0 -0.167754853080932 0 0 0 0 0 0 0 0 0 0 0 0 0 -0.389921762955894 0 0 0 0 0 0 0 0 0 0 0 0 0 0 0 0 0 -1.52898783149724
0 0 0 0 0 0 0 0 0 0 0 0 0 0 0 0 0.877756702900953 0 -0.167754853080932 0 0 0 0 0 0 0 0 0 0 0 0 0 0 0 0 0 0 0 0 0 0 0 0 -1.80919646547471 0 0 0 0 0 -0.799222866817325
0 0.0239254700055641 0.792976691573954 0 0 0 0 0 0 0 0 0 0 0 0 0 0 0 0 -0.167754853080932 0 0 0 0 0 0 0 0 0 0 0 0 0 0 0 0 0 0 0 0 0 0 0 -0.496674612292637 0 0 0 0 0 -2.59616428601904
0.907969408306767 1.73319429665577 0 0 0 0.321143984064957 0.211894297660711 0 1.35417007778247 0 0 0 0 0 0 0 0 0 0 0 -0.167754853080932 0 0 0 0 0 0 0 0 0 0 0 0 0 0 0 0 -1.84210088197514 0 0 0 0 0 -0.831383009652079 0 0 0 0 0 0
0 0 0 0 0 0 0 0.102425286711707 0 0.410977426796854 0 0 0 0 0 0 0 0 0 0 0 -0.167754853080932 0 0 0 0 0 0 0 0 0 0 0 0 0 0 0 -1.29144136190576 0 0 0 0 0 0 0 0 0 0 0 0
0 0 0 0.0817327539373259 0.00939301798672959 0 0.235720969096428 0 0 0 0 0 0 0 0 0 0 0 0 0 0 0 -0.167754853080932 0 0 0 0 0 0 0 0 0 0 0 0 0 0 -1.39231051144463 0 0 0 0 0 -1.3249507354825 0 0 0 0 0 0
0 0 0 0 0 0 0 0 0 0 0 0 0 0 0 0 0 0 0 0 0 0 0 -0.167754853080932 0 0 0 0 0 0 0 0 0 0 -1.48396742360097 0 0 -0.28125800791171 -1.93894848821392 0 0 -7.00082850900128 0 -0.501800816522981 0 0 0 0 0 0
0 0 0 0 0 0 0 0 0 0 0 0 0 0 0 0 0 0 0 0 0 0 0 0 -0.167754853080932 0 0 0 0 0 0 0 0 0 -3.7538657347299 0 0 0 -0.140741693485153 0 0 0 0 0 0 0 0 0 0 0
0 0 0 0.61195452997879 0 0.237867648744956 0.255374628708817 0.404184443703141 0.0345118347243585 0 0 0 0 0 0 0 0 0 0 0 0 0 0 0 0 -0.167754853080932 0 0 0 0 0 0 0 0 -0.361217867854238 0 0 0 0 0 0 -0.173432772794161 0 0 0 0 0 0 0 0
0 0 0 0.184427465040942 0.333224974087217 0 0.036526534803048 0.158130919305805 0 0 0 0 0 0 0 0 0 0 0 0 0 0 0 0 0 0 -0.167754853080932 0 0 0 0 0 0 0 -1.25501176248747 0 0 0 -0.659183611717014 -2.79933626420397 0 0 0 -0.148394930692834 0 0 0 0 0 0
0.10531447976498 0 0 0 0 0 0 0 0 0 0 0 0 0 0 0 0 0 0 0 0 0 0 0 0 0 0 -0.167754853080932 0 0 0 0 0 0 -0.270678798157052 0 0 -1.8075992561564 -1.18666005023854 -0.2690581682578 0 0 -0.387907309096293 -1.71423387527319 0 -4.40649835053191 0 0 0 0
0 0 0 0 0 0 0 0 0 0 0 0 0 0 0 0 0 0 0 0 0 0 0 0 0 0 0 0 -0.167754853080932 0 0 0 0 0 0 0 0 0 -0.568342544962074 -1.25263383279753 0 0 -0.27330762339792 0 0 -0.193360277413976 0 0 0 0
0 0 0 0 0 0 0 0 0 0 0 0 0 0 0 0 0 0 0 0 0 0 0 0 0 0 0 0 0 -0.167754853080932 0 0 0 0 0 0 0 0 -0.547034487027425 0 0 -1.08045485679066 -0.919338038029187 0 0 -0.384917790356918 0 0 0 0
0 0 0 0 0 0 0 0 0 0 0.069003058583362 0 0 0 0 0 0 0 0 0 0 0 0 0 0 0 0 0 0 0 -0.167754853080932 0 0 0 0 0 0 -0.259146439412624 -0.334602801622356 0 0 0 -0.713907093605599 -0.760457477497966 0 -6.27164161708176 0 0 0 0
0 0 0 0 0 0 0 0 0 0 0 0 0 0.139965789238839 0 0.416335338931656 0.134459132476712 0.0754946261347252 0 0 0 0 0 0 0 0 0 0 0 0 0 -0.167754853080932 0 0 -0.288051999023331 0 0 -0.921201344399665 -0.274195179850319 0 0 -0.619843445996649 -0.427775016646465 0 0 -0.311120086029081 0 0 0 0
0 0 0 0 0 0 0 0 0 0 0 0 0 0.205121037390185 0.555523776681903 0.885598489383112 0 0 0 0 0 0 0 0 0 0 0 0 0 0 0 0 -0.167754853080932 0 -0.61024891242722 0 0 0 0 0 0 -1.42048829922589 0 -2.50190179730032 0 0 0 0 0 0
0 0 0 0 0 0 0 0 0 0 0 0 0 0 0 0 0 0 0 0 0 0 0 0 0 0 0 0 0 0 0 0 0 -0.167754853080932 0 0 0 0 0 0 0 -0.946146241553569 -0.642565891972071 0 0 -1.42307612439889 0 0 0 0
0 0 0 0 0 0 0 0 0 0 0 0 0 0 0 0 0 0 0 0 0 0 0 0.317186879573915 0.713655627015901 0.0804913185490202 0.271748362115071 0.0501474963570991 0 0 0 0.0582823954025701 0.119153298911591 0 -0.167754853080932 0.0518717107632929 0 0 0 -5.92475678546428 0 -1.02086947363337 0 0 0 -0.553107667926214 0 -0.69428352939776 0 0
0.0814955753300178 0 0.607261368198344 0.753366683922175 0 0 0 0 0 0 0 0 0 0 0 0 0 0 0 0 0 0 0 0 0 0 0 0 0 0 0 0 0 0 -0.246293262475366 -0.167754853080932 0 0 0 0 0 -1.16287724501521 0 -4.24855361097321 0 -0.39878535189321 0 -0.739660499105961 0 0
0 0 0 0 0 0 0 0 0 0 0 0 0 0 0 0 0 0 0 0 0 0 0 0 0 0 0 0 0 0 0 0 0 0 0 0 -0.167754853080932 0 0 0 0 0 0 0 0 -0.751625984466431 0 -0.722413478065393 0 0
0 0 0 0 0 0 0 0 0 0 0 0 0 0 0 0 0 0 0 0 0.339135157467679 0.252413861460662 0.281115589726326 0.0591235768248006 0 0 0 0.36915917288314 0 0 0.0498042796946874 0.172284446709501 0 0 0 0 0 -0.167754853080932 0 0 0 0 0 0 0 -1.29208441081941 0 0 0 0
0 0 0 0 0 0 0 0 0 0 0 0 0 0 0 0 0 0 0 0 0 0 0 0.389202824552859 0.0296404036363448 0 0.141155071652521 0.230322428618022 0.10777813768104 0.10671354398363 0.0683800582818928 0.0546330588507907 0 0 0 0 0 0 -0.167754853080932 0 0 0 0 0 0 -2.23860891955554 0 0 0 0
0 0 0 0 0 0 0 0 0 0 0 0 0 0 0 0 0 0 0 0 0 0 0 0 0 0 0.58507085582747 0.0495740697828731 0.235410558713448 0 0 0 0 0 1.13335600239147 0 0 0 0 -0.167754853080932 0 0 0 0 0 -5.29121321923995 0 -1.249582625437 0 0
0 0 0 0 0 0 0 0 0 0 0 0 0.240924166835355 0 0 0 0 0 0 0 0 0 0 0 0 0 0 0 0 0 0 0 0 0 0 0 0 0 0 0 -0.167754853080932 0 0 0 0 0 0 0 0 0
0 0 0 0 0 0 0 0 0 0 0 0 0 0 0 0 0 0 0 0 0 0 0 1.39794102073255 0 0.0357278355128993 0 0 0 0.191071193535227 0 0.114257122878253 0.29253766880344 0.197418785110829 0.211996814287439 0.238819178068532 0 0 0 0 0 -0.167754853080932 0 0 0 0 0 -1.17254720050328 0 0
0 0 0 0 0 0 0 0 0 0 0 0 0 0 0 0 0 0 0 0 0 0 0 0 0 0 0 0.0776143326674473 0.0540342069448117 0.174211397213651 0.139297890271739 0.0870212466291319 0 0.128611038923104 0 0 0 0 0 0 0 0 -0.167754853080932 0 0 0 0 0 0 0
0 0 0 0 0 0 0 0 0 0 0 0 0 0 0 0 0 0 0.376726372822406 0.100736265046988 0.174683253298716 0 0.269752763956799 0.0998497319905726 0 0 0.0299950740889125 0.343753754913238 0 0 0.1377455733765 0 0.527253006345128 0 0 0.790400442908481 0 0 0 0 0 0 0 -0.167754853080932 0 0 0 -1.63441192264169 0 0
0 0 0 0 0 0 0 0 0 0 0 0 0 0 0 0 0 0 0 0 0 0 0 0 0 0 0 0 0 0 0 0 0 0 0 0 0 0 0 0 0 0 0 0 -0.167754853080932 0 0 -0.347743878682693 0 0
0 0 0 0 0 0 0 0 0 0 0 0 0 0 0 0 0 0 0 0 0 0 0 0 0 0 0 0.948569812102906 0.0366358435149463 0.0756980917045714 1.21806199995371 0.0575017632548768 0 0.283298980223727 0.104873169313667 0.0878022198524552 0.139379211591672 0.253899936933174 0.425101777161537 1.02996367780686 0 0 0 0 0 -0.167754853080932 0 -0.691747175782532 0 0
0 0 0 0 0 0 0 0 0 0 0 0 0 0 0 0 0 0 0 0 0 0 0 0 0 0 0 0 0 0 0 0 0 0 0 0 0 0 0 0 0 0 0 0 0 0 -0.167754853080932 -0.764480557082849 0 0
0 0 0 0 0 0 0 0 0 0 0 0 0 0 0 0 0 0 0 0 0 0 0 0 0 0 0 0 0 0 0 0 0 0 0.135655164348647 0.142160051412278 0.14618076311342 0 0 0.244241006736405 0 0.239672173821773 0 0.359997939617732 0.0642806533100673 0.132668157370258 0.159475636665961 -0.167754853080932 0 2.00191321903592
0.12995433263096 0.155764194590581 1.62295798812194 0.226248483497611 0.242457068081417 0 0 0.195191466442697 0 0 0 0 0 0 0 0 0 0 0 0 0 0 0 0 0 0 0 0 0 0 0 0 0 0 0 0 0 0 0 0 0 0 0 0 0 0 0 0 -0.167754853080932 0
0 0 0 0 0 0 0 0 0 0 0 0 0 0 0.0251252363984057 0 0 0.308035691655448 0.157235835393145 0.536353788828967 0 0 0 0 0 0 0 0 0 0 0 0 0 0 0 0 0 0 0 0 0 0 0 0 0 0 0 -10.0879874300003 0 -0.167754853080932
