2.82714731208926
0.159919352458755
1.85493152122114
0.550847867359106
0.541804343126245
0.230175385821547
0.441601833434747
11.8777939038704
2.45952699989037
0.6746404966792
1.5016728624484
1.13581698802587
0.617186134902822
0.397359016369416
0.366770978088967
0.266377195707569
0.323902113436837
1.10464078892357
0.585109036512693
0.907830967725248
0.590771518562251
0.200177365843546
3.28528959135741
0.261890719440401
1.0931879909503
0.680904032211133
1.07999927553396
0.341138205437193
0.853484594486315
0.392192653163839
0.566890506897769
1.42786906842598
0.137990962104076
0.275751229721565
0.916775794304583
4.34670055751899
1.56981491293608
4.5247259686081
1.43227112826692
2.29997324277356
0.695005240247469
0.576026900817133
2.70174561441716
3.56033951179264
1.37553742298401
1.5854850146833
1.53097566624829
0.439509681110204
0.835434407199257
1.01017276025796
