1.23805270680159
1.03501161624191
1.09198058159368
0.239873908337246
0.041637475529247
1.33511358823797
0.359633013242255
0.973918650858271
2.03615729455798
3.93991428898415
0.839847102400604
5.81297069460842
0.880958984687688
1.96907024442192
0.384673074906955
0.539963367707645
5.97255737601256
0.835469183947008
3.33572175466846
1.53994963447555
1.81249288657507
0.698108389681124
1.88437270508241
0.146374751859095
0.468594225779016
0.504105543986568
0.821207481243201
2.95546635056754
0.526193378901415
1.87015242738003
0.834642390876968
1.07726388122034
0.772818942556844
1.22522624847715
3.01494224214564
0.152653263750418
0.12568008573847
1.4493485575787
0.691890950372118
1.15356689408885
1.40195761441301
0.547606970349177
2.02089269231005
2.99631885371993
2.32711361639168
0.27255625001416
1.00639505535366
0.340812553672045
0.495658626872229
0.595995691464862
