0.246523043321271
0.310075249204089
0.241014282283817
1.77287311567297
2.40777687857596
2.41014616400607
0.486375027808863
0.124728735804394
0.753444506781523
0.220635855162494
2.03858562583697
3.39593129162379
0.71399968930075
3.02993413211472
0.106593011672445
0.829499645696882
0.448355119664329
4.34101291837542
0.445700780280885
0.410331104505794
6.63239250580288
0.385701885678454
0.96730816739899
0.313534066940872
1.82268911142707
2.35781530150988
3.39885183224623
1.56733638508521
1.1000163443426
1.38463972096665
1.12583961178209
0.441775095755931
3.93217764341566
3.31125001981614
1.19666417949816
0.392241452418974
0.442133622497474
0.675949832963633
3.43773573261558
1.14468098792652
0.931985573850306
0.717870448237613
0.44529106851835
6.1599411510221
2.83945852844239
1.40564559787869
0.939359824533873
0.674049367038201
2.03359683930616
0.258206104492721
