0.662576253816482
1.42207054186833
0.231997616149821
0.372782138078527
2.55696891405118
2.76328944520387
2.47843561939928
1.2034784677541
0.418201378242433
0.71175902760005
0.170388728752185
4.82302590001814
3.6048203027963
1.63702904511727
0.737824576220395
3.53183328324994
0.382801155908787
0.722623251045822
2.13228872805097
0.566207972408769
0.950459849024885
0.101230509145994
5.16338195671824
1.21268238308384
0.955444442210579
1.14257703472033
0.549010488648569
0.0733794777010843
3.27466345683616
0.19558805823574
0.675761111881684
2.20674633086222
2.75416990717049
1.44732140710199
0.109903580662369
0.621959786955831
0.132000151431638
2.78407790979257
2.12878185604649
4.03608445572629
3.53680867954448
0.266996809397153
0.663823003876215
1.00405794660912
3.29086162000303
0.285843752687525
5.75018673670168
0.863247388221637
0.735859105717438
2.60145910945829
