-0.297950390626298 0 0 0 0 0 0 0 0 0 0 0 0 0 0 0 0 0 0 0 0 0 0 0 0 0 0 0 0 0 0 0 0 0 0 0 -1.56931144897442 0 0 0 0 0 0 0 0 0 0 0 0 0
0 -0.297950390626298 0 0 0 0 0 0 0 0 0 0 0 0 0 0 0 0 0 0 0 0 0 0 0 0 0 0 0 0 0 0 0 0 0 0 -2.87843194820918 0 0 0 0 0 0 0 0 0 0 0 0 0
0 0 -0.297950390626298 0 0 0 0 0 0 0 0 0 0 0 0 0 0 0 0 0 0 0 0 0 0 0 0 0 -0.8621115974604 0 0 0 0 0 0 0 -1.27044283517764 0 0 0 0 0 0 0 0 0 0 0 0 0
0 0 0 -0.297950390626298 0 0 -0.137404620316525 -2.60362485287096 0 0 0 0 -1.98388497333446 0 -0.550285351890393 0 0 0 0 0 0 0 0 0 0 -3.32686595034656 0 0 -1.17268162220188 0 0 0 0 0 0 0 0 0 0 0 0 0 -0.952986654925681 0 0 0 0 0 0 0
0 0 0 0 -0.297950390626298 0 0 0 0 -1.84210104811299 0 0 0 0 -2.25901114226352 -1.13444554463066 0 0 0 0 0 0 0 0 0 -0.326187353471382 0 0 0 0 0 0 0 0 0 0 0 0 0 0 0 0 -3.2974493243158 0 0 0 0 0 0 0
0 0 0 0 0 -0.297950390626298 0 0 -2.20954289824725 0 0 0 0 0 0 0 0 0 0 0 0 0 0 0 0 -0.203198993720988 0 0 0 0 0 0 0 0 0 0 -0.762629367634636 0 0 0 0 0 0 0 0 0 0 0 0 0
0 0 0 0.026686998418949 0 0 -0.297950390626298 0 0 0 0 0 0 0 0 0 0 0 0 0 0 0 0 0 0 0 0 0 0 0 0 0 0 0 0 0 0 0 0 0 0 0 0 0 0 0 0 0 0 0
0 0 0 0.502830941065501 0 0 0 -0.297950390626298 0 0 0 0 0 0 0 0 0 -3.85204709488616 0 0 0 0 0 0 0 -0.859156712157459 0 0 0 0 0 0 0 0 0 0 0 0 0 0 0 0 -6.34358017103005 0 0 0 0 0 0 0
0 0 0 0 0 0.434224888543071 0 0 -0.297950390626298 0 0 0 0 0 0 0 -5.6489590909129 -0.282693713426907 0 0 0 0 0 0 0 0 0 0 0 0 0 0 0 0 0 0 0 0 0 0 0 0 -0.305120378208621 0 0 -0.922766383755572 0 0 0 0
0 0 0 0 0.371058007256449 0 0 0 0 -0.297950390626298 0 0 0 0 0 0 0 -0.439472301271091 0 0 0 0 0 0 0 -5.33447113620385 0 0 0 0 0 0 0 0 0 0 0 0 0 0 0 0 -1.24842622318808 0 0 -2.97258179977481 0 0 0 0
0 0 0 0 0 0 0 0 0 0 -0.297950390626298 0 0 0 0 0 -2.23685221531942 0 0 0 0 0 0 0 0 0 0 0 0 0 0 0 0 0 0 0 0 0 0 0 0 0 -1.1173651166863 0 0 0 0 0 0 0
0 0 0 0 0 0 0 0 0 0 0 -0.297950390626298 0 0 0 0 0 -0.297286321566796 0 0 0 -3.50083671199426 0 0 0 0 0 0 0 0 0 0 0 0 0 0 0 0 0 0 0 0 0 0 0 -0.514517297875883 0 0 0 0
0 0 0 0.408800624135469 0 0 0 0 0 0 0 0 -0.297950390626298 0 0 0 0 -4.05931673434915 0 0 0 0 0 0 0 0 0 0 0 0 0 0 0 0 0 0 0 0 0 0 0 0 0 0 0 0 0 0 0 0
0 0 0 0 0 0 0 0 0 0 0 0 0 -0.297950390626298 0 0 0 -0.860527668801859 0 0 0 0 0 0 0 0 0 0 0 0 -3.46984868590671 0 0 0 0 0 0 0 0 0 0 0 0 0 0 -0.336488451041312 0 0 0 0
0 0 0 0.124793589791865 0.502897496642961 0 0 0 0 0 0 0 0 0 -0.297950390626298 0 0 0 0 0 0 0 0 0 0 0 0 0 0 0 -2.62507998193853 0 0 0 0 0 0 0 0 0 0 0 -0.204096497355253 0 0 0 0 0 0 -0.339652588531691
0 0 0 0 0.230111371558624 0 0 0 0 0 0 0 0 0 0 -0.297950390626298 0 -3.34463049928507 0 0 0 0 0 0 0 0 0 0 0 0 -1.30823280934391 0 -0.661628261123458 0 0 0 0 -0.803432107073693 0 0 0 0 -0.496697533122179 0 0 -0.133086335904987 0 0 0 -0.273596974616062
0 0 0 0 0 0 0 0 1.05851563894812 0 0.479263844269898 0 0 0 0 0 -0.297950390626298 0 0 0 0 0 0 0 0 0 0 0 0 0 0 0 0 0 0 0 0 -4.76300557860417 0 0 0 0 -0.253417273837086 0 0 0 0 0 0 -0.831141374733606
0 0 0 0 0 0 0 0.774360158054862 0.0599351140667439 0.0818807177517979 0 0.0627954859957837 0.789644487093474 0.184302211363179 0 0.64051679714475 0 -0.297950390626298 0 0 0 0 0 0 0 0 0 -0.409064630541268 0 0 -2.54278248474148 0 0 0 0 0 0 0 0 0 0 0 0 0 0 0 0 0 0 0
0 0 0 0 0 0 0 0 0 0 0 0 0 0 0 0 0 0 -0.297950390626298 -1.19394567403404 0 0 -0.536798883824798 0 0 0 0 0 0 0 0 0 -0.200031239255895 0 0 0 0 -0.874657703096191 0 0 0 0 0 0 0 0 0 0 0 0
0 0 0 0 0 0 0 0 0 0 0 0 0 0 0 0 0 0 0.241672558591404 -0.297950390626298 0 0 0 0 0 0 0 0 0 0 -0.88887552190222 0 -2.20984127732361 -8.91972140536756 0 0 0 0 0 -0.163176267381808 0 0 0 0 0 0 0 0 -0.677260933294626 0
0 0 0 0 0 0 0 0 0 0 0 0 0 0 0 0 0 0 0 0 -0.297950390626298 0 0 0 -3.29962510258792 0 -1.27404529267287 0 0 0 0 0 0 0 0 0 0 0 0 0 0 0 0 -2.10193181276128 0 0 0 0 -1.33576183640885 0
0 0 0 0 0 0 0 0 0 0 0 0.690633011457412 0 0 0 0 0 0 0 0 0 -0.297950390626298 0 -1.39400158873087 -0.167451642308986 0 -1.8564109955828 0 0 0 0 0 -4.28061462280054 0 0 0 0 -0.856333977613308 0 -0.423988905849823 0 0 0 0 0 0 0 0 0 0
0 0 0 0 0 0 0 0 0 0 0 0 0 0 0 0 0 0 0.105267425606293 0 0 0 -0.297950390626298 0 0 0 0 0 0 0 0 0 0 -1.63528737691847 0 0 0 -0.768965088090757 0 -0.948191650336484 0 0 0 0 0 0 0 0 0 0
0 0 0 0 0 0 0 0 0 0 0 0 0 0 0 0 0 0 0 0 0 0.32102452035929 0 -0.297950390626298 -2.91758445263824 0 0 0 0 0 0 0 -1.73695805728909 0 0 0 0 0 0 -1.62495738453742 -2.3193671746584 0 0 0 0 0 0 0 0 0
0 0 0 0 0 0 0 0 0 0 0 0 0 0 0 0 0 0 0 0 0.674493527156298 0.0361693386017417 0 0.624833488716704 -0.297950390626298 0.112652053522063 -0.704117361185498 0 0 0 0 0 -0.15927968327519 0 0 0 0 0 0 0 0 0 0 -1.75298742489411 0 0 0 0 0 0
0 0 0 0.696400972774729 0.0633320061639323 0.040920191387804 0 0.181394870214898 0 1.07461344978218 0 0 0 0 0 0 0 0 0 0 0 0 0 0 -0.535792897302982 -0.297950390626298 0 0 0 0 0 0 0 -3.87431365288449 0 0 0 -4.00255596405299 0 0 0 0 0 -1.10588795743217 0 0 0 0 0 0
0 0 0 0 0 0 0 0 0 0 0 0 0 0 0 0 0 0 0 0 0.246705075656371 0.359952201181194 0 0 0.136548568413935 0 -0.297950390626298 0 0 0 0 0 0 0 0 0 0 -0.518750152352131 0 0 -3.24531565368634 0 0 0 0 0 0 0 0 0
0 0 0 0 0 0 0 0 0 0 0 0 0 0 0 0 0 0.0810421409939535 0 0 0 0 0 0 0 0 0 -0.297950390626298 0 0 0 0 -2.74283711980253 0 0 0 0 -0.73868742572947 0 0 -0.81281214352103 0 0 0 0 0 0 0 0 0
0 0 0.166974125018512 0.217166434411435 0 0 0 0 0 0 0 0 0 0 0 0 0 0 0 0 0 0 0 0 0 0 0 0 -0.297950390626298 -1.29207666617662 0 0 0 -3.43877613723777 -0.23994439437493 0 0 -0.163007770431205 0 0 -1.59361756551635 0 0 0 0 0 0 0 0 0
0 0 0 0 0 0 0 0 0 0 0 0 0 0 0 0 0 0 0 0 0 0 0 0 0 0 0 0 0.273294678341937 -0.297950390626298 0.290673699930955 0 0 -2.30762388687628 0.455348765211319 0 0 0 0 0 0 -2.20703279473688 0 -2.84398911339938 0 0 -0.724911467458366 0 0 0
0 0 0 0 0 0 0 0 0 0 0 0 0 0.703387019334409 0.540206813416192 0.247897200936691 0 0.465269930888279 0 0.166511590544438 0 0 0 0 0 0 0 0 0 -1.45152271496637 -0.297950390626298 0 0 -0.697875198619199 -1.58637319118885 0 0 0 0 0 -2.96303420499342 -2.50295011874457 0 -0.25563675820306 0 0 0 0 0 0
0 0 0 0 0 0 0 0 0 0 0 0 0 0 0 0 0 0 0 0 0 0 0 0 0 0 0 0 0 0 0 -0.297950390626298 0 -1.44928113028264 0 0 0 0 0 0 -0.618507160769504 -1.23379531563453 0 -1.30784482792467 0 0 0 0 0 0
0 0 0 0 0 0 0 0 0 0 0 0 0 0 0 0.129586658130399 0 0 0.0413532860509182 0.446379578305173 0 0.853726647684055 0 0.351967072222973 0.0349200044802157 0 0 0.53536888817327 0 0 0 0 -0.297950390626298 -0.582737350636491 0 0 0 -10.1997253170196 0 0 -0.124167029730934 0 0 -0.128213285093935 0 0 0 0 0 0
0 0 0 0 0 0 0 0 0 0 0 0 0 0 0 0 0 0 0 1.86345339995133 0 0 0.294857368866479 0 0 0.798875507438411 0 0 0.720291989735003 0.467002984820263 0.129423252832336 0.311125937432081 0.112346800144488 -0.297950390626298 0 -0.1975760420711 0 0 0 0 0 -1.44296531774576 0 0 0 0 -1.82077684328658 0 0 0
0 0 0 0 0 0 0 0 0 0 0 0 0 0 0 0 0 0 0 0 0 0 0 0 0 0 0 0 0.051447035154001 -2.44187607342918 0.300902347610061 0 0 0 -0.297950390626298 0 0 -0.446159496884011 0 0 0 -1.19438501385266 0 0 0 0 0 0 0 0
0 0 0 0 0 0 0 0 0 0 0 0 0 0 0 0 0 0 0 0 0 0 0 0 0 0 0 0 0 0 0 0 0 0.0391606207938489 0 -0.297950390626298 0.0665613975525913 -3.11256551842911 0 0 0 0 0 0 0 0 0 0 0 0
0.291985253157612 0.521029993513084 0.255761829053474 0 0 0.149000154944932 0 0 0 0 0 0 0 0 0 0 0 0 0 0 0 0 0 0 0 0 0 0 0 0 0 0 0 0 0 -0.332852894008273 -0.297950390626298 0 0 0 0 0 0 -0.204707640369053 0 0 0 0 0 0
0 0 0 0 0 0 0 0 0 0 0 0 0 0 0 0.155914943800183 0.981908040387051 0 0.174785147011304 0 0 0.182554932004192 0.138023577011697 0 0 0.792203861741425 0.0977798590190747 0.148248960786256 0.0361166699455209 0 0 0 1.88391847017239 0 0.0913689531351655 0.6890459709766 0 -0.297950390626298 0 0 0 0 0 -0.885374955167768 0 0 0 0 0 0
0 0 0 0 0 0 0 0 0 0 0 0 0 0 0 0 0 0 0 0 0 0 0 0 0 0 0 0 0 0 0 0 0 0 0 0 0 0 -0.297950390626298 0 0 -0.628021757103214 0 -1.11713098877152 0 0 0 0 0 0
0 0 0 0 0 0 0 0 0 0 0 0 0 0 0 0 0 0 0 0.033940071365113 0 0.0718714905717037 0.187675877270049 0.301271247677885 0 0 0 0 0 0 0 0 0 0 0 0 0 0 0 -0.297950390626298 0 -2.31899534716328 0 -1.56178102584041 0 0 0 0 0 0
0 0 0 0 0 0 0 0 0 0 0 0 0 0 0 0 0 0 0 0 0 0 0 0.487713204072304 0 0 0.664181916243375 0.167094455857752 0.327509046491053 0 0.564114259279327 0.123763357209991 0.0262975228124931 0 0 0 0 0 0 0 -0.297950390626298 0 0 -0.371568320602394 0 0 0 0 0 0
0 0 0 0 0 0 0 0 0 0 0 0 0 0 0 0 0 0 0 0 0 0 0 0 0 0 0 0 0 0.446326199843109 0.525754499942262 0.237755141757245 0 0.273748783098445 0.242679534409982 0 0 0 0.122930543278242 0.496808577648981 0 -0.297950390626298 0 0 0 0 0 0 0 0
0 0 0 0.197811996147633 0.694544769234825 0 0 1.22491844181855 0.0616166620839944 0.248123295859895 0.221364102011596 0 0 0 0.0407962903778052 0.108204205923034 0.0512587422748358 0 0 0 0 0 0 0 0 0 0 0 0 0 0 0 0 0 0 0 0 0 0 0 0 0 -0.297950390626298 -0.805639925500537 0 0 0 0 0 0
0 0 0 0 0 0 0 0 0 0 0 0 0 0 0 0 0 0 0 0 0.413979878519136 0 0 0 0.354064742814413 0.213211168354664 0 0 0 0.546494458384371 0.052756456568176 0.263136452730234 0.0249445937817444 0 0 0 0.0400871901518202 0.181746928855995 0.231459199511592 0.31938434306521 0.0704362553535019 0 0.15040763466643 -0.297950390626298 0 0 0 -0.507845373768919 0 0
0 0 0 0 0 0 0 0 0 0 0 0 0 0 0 0 0 0 0 0 0 0 0 0 0 0 0 0 0 0 0 0 0 0 0 0 0 0 0 0 0 0 0 0 -0.297950390626298 0 0 -0.152713813265682 0 0
0 0 0 0 0 0 0 0 0.187372276702824 0.622021945395065 0 0.111016944713747 0 0.0701491705168267 0 0.0262832719150996 0 0 0 0 0 0 0 0 0 0 0 0 0 0 0 0 0 0 0 0 0 0 0 0 0 0 0 0 0 -0.297950390626298 0 -0.514863584305977 0 0
0 0 0 0 0 0 0 0 0 0 0 0 0 0 0 0 0 0 0 0 0 0 0 0 0 0 0 0 0 0.149010966273104 0 0 0 0.339471375471522 0 0 0 0 0 0 0 0 0 0 0 0 -0.297950390626298 0 0 0
0 0 0 0 0 0 0 0 0 0 0 0 0 0 0 0 0 0 0 0 0 0 0 0 0 0 0 0 0 0 0 0 0 0 0 0 0 0 0 0 0 0 0 0.109084113931699 0.0295738446030497 0.105004842723008 0 -0.297950390626298 0 0
0 0 0 0 0 0 0 0 0 0 0 0 0 0 0 0 0 0 0 0.132171692908713 0.258721332444323 0 0 0 0 0 0 0 0 0 0 0 0 0 0 0 0 0 0 0 0 0 0 0 0 0 0 0 -0.297950390626298 0
0 0 0 0 0 0 0 0 0 0 0 0 0 0 0.071763126282358 0.049194528168697 0.164001347918637 0 0 0 0 0 0 0 0 0 0 0 0 0 0 0 0 0 0 0 0 0 0 0 0 0 0 0 0 0 0 0 0 -0.297950390626298
