0.380507412064077
0.583402012251616
0.549612902640383
1.41513058560865
2.11578131232778
4.92120974550766
0.293295510960593
0.403164956388957
0.795716198900155
0.742907257720222
0.519071120672028
0.534300914540439
1.17549936585962
1.01635890618798
5.53842215297276
6.69756373203435
4.2289859201815
2.02941334806691
1.91648187313864
1.58454892527345
0.237150719578924
2.26359204217354
0.480479681399387
0.275456348149668
1.6888034064513
0.488371344399568
0.473805658979535
10.5739650340851
2.48025379906632
0.3049120946303
0.810729698891487
1.23067456954411
2.99834994780494
8.29889720000257
3.70511580305867
0.610460835173555
0.900906502381133
0.510528982009767
2.27017612239303
0.260062048320082
1.09696850769604
0.450352487791841
3.86604234672417
0.404169837045168
0.14297816621576
0.218454081244838
2.14109378306138
2.31292450698563
0.729772878095858
1.53334380660218
