1.09549341891596
3.67929243970448
0.994300072580884
3.04240169480419
0.307650980224247
1.68733673348006
0.521818756669911
2.54057632990792
3.42223989118018
1.16562580943237
7.25282766641643
1.91908560050973
0.536369269046009
2.64724880312294
0.561571065909616
0.929575967024391
0.618883802377511
2.07471403552762
0.557087622164323
4.76439272639
2.99639595320237
0.135642436537608
1.10713297069919
2.39092769638747
0.835460519203846
5.96720414759437
7.71374528177708
1.03035343626617
0.481945259592786
0.709613596785541
1.56728307662241
2.06835858283788
0.715051775902294
2.66053743188965
1.26052618914968
0.892307521181058
2.86046234682362
2.44396919802595
0.23536886254413
0.837544866449697
3.21562950208725
0.874028629053542
0.77750559474652
0.83781684696814
1.74443707207687
1.53518652515447
0.942612077778473
0.256270268149803
2.61874681594966
0.495891763471859
