-0.218583438408838 0 0 0 0 0 0 0 0 0 0 0 0 0 0 0 -0.707213779751971 0 0 0 0 0 0 0 0 0 -0.16028810193253 0 0 -1.26597307641213 0 0 0 0 0 0 0 0 0 0 0 0 0 0 0 0 0 0 0 0
0 -0.218583438408838 0 0 0 0 0 0 0 0 0 0 0 0 0 0 -2.76058338923497 -1.28258857829768 0 0 0 0 0 0 0 0 -0.591125912772354 0 0 -3.3726433412556 0 0 0 0 0 0 0 0 0 0 0 0 0 0 0 0 0 0 0 0
0 0 -0.218583438408838 0 0 0 0 0 0 0 0 0 0 0 0 0 0 0 0 0 0 0 0 0 0 0 -1.41964286312233 0 0 0 -1.24697106406259 0 0 0 0 0 0 0 0 0 0 0 0 0 0 0 0 0 0 0
0 0 0 -0.218583438408838 -2.03634918256783 0 0 0 0 0 0 0 0 0 0 0 0 -5.19667748448568 0 0 0 0 0 0 0 0 -1.46414126796361 0 0 -0.455635679857507 0 0 0 0 0 0 0 0 0 0 0 0 0 0 0 0 0 0 0 0
0 0 0 0.374962889662958 -0.218583438408838 -1.32315460396259 -2.33280378768013 0 0 0 0 0 0 0 0 0 -5.7283859289149 0 0 0 0 0 0 0 0 0 -5.13771542308499 0 0 0 -1.1862876375227 0 -1.65329231332629 0 0 0 0 0 0 0 0 0 0 0 0 0 0 0 0 0
0 0 0 0 0.253224511014123 -0.218583438408838 -2.50213901192084 0 0 -1.09896326910981 0 0 -7.72466458996782 0 0 0 -0.367955602855369 -0.418797768612109 0 0 0 0 0 0 0 0 0 0 0 -0.856356784648625 0 0 -0.402786440387213 0 0 -0.549623966384149 0 0 0 0 0 0 0 0 0 0 0 0 0 0
0 0 0 0 0.467113528535576 0.529258350478835 -0.218583438408838 0 0 0 0 0 0 0 0 0 0 0 0 -1.57856724795815 0 0 0 -2.77192952376573 0 0 0 0 0 0 -1.77118702203152 0 -1.23469287564354 0 0 -0.461078299678277 0 0 0 0 0 0 0 0 0 0 0 0 0 0
0 0 0 0 0 0 0 -0.218583438408838 0 0 0 0 0 0 0 0 0 0 0 0 0 0 0 0 0 0 0 0 0 0 0 0 -0.617040376339882 0 0 0 0 0 -1.79479953131542 -0.52208385395982 0 0 0 0 0 0 0 0 0 0
0 0 0 0 0 0 0 0 -0.218583438408838 0 0 0 0 0 0 0 0 0 0 0 0 -3.32493039544617 0 0 0 0 0 0 0 0 -0.64195916056268 0 0 0 0 -0.398252469009456 0 0 0 -2.32881956663413 0 0 0 -3.8861718738475 0 0 0 0 0 0
0 0 0 0 0 0.243058869015013 0 0 0 -0.218583438408838 0 -0.341170472012415 0 0 0 0 0 0 0 0 0 -0.362815474084771 0 0 0 0 0 0 0 0 0 0 0 0 0 0 0 0 0 -0.654257401131072 0 0 0 -0.504722997836142 0 0 0 0 0 0
0 0 0 0 0 0 0 0 0 0 -0.218583438408838 -2.38611930362733 0 0 0 0 0 0 0 0 0 -2.29813454858348 0 0 0 0 0 0 0 0 -0.992970650430276 0 0 0 0 0 0 0 -0.361865031981621 -0.476871011283846 0 0 0 -2.04522286571063 0 0 0 0 0 0
0 0 0 0 0 0 0 0 0 0.0635893754662637 0.47172588971625 -0.218583438408838 0 0.641135817240098 0 0 0.19840764151745 0 0 0 0 0 0 0 0 0 0 0 0 0 -2.64376955425857 0 0 0 0 -0.336982141116536 0 0 0 -1.44082045869251 0 0 0 0 0 0 0 0 0 0
0 0 0 0 0 1.55355979218138 0 0 0 0 0 0 -0.218583438408838 0 0 0 0 0 0 0 0 0 0 0 0 0 0 0 0 0 -0.837215397082518 0 0 0 0 -1.17165058867847 0 0 -1.35944802871671 -0.82569946779615 0 0 0 -1.19780975995554 0 0 0 0 0 0
0 0 0 0 0 0 0 0 0 0 0 -3.29798472302174 0 -0.218583438408838 0 0 0 0 0 0 0 -6.83987354629351 0 0 0 0 0 0 0 0 -3.1893427097775 0 0 0 0 0 0 0 -8.86731312670522 0 0 0 0 -2.5903714301399 0 0 0 0 0 0
0 0 0 0 0 0 0 0 0 0 0 0 0 0 -0.218583438408838 0 0 0 0 0 0 -0.802479654368061 0 0 0 0 0 0 0 0 0 0 0 0 0 -0.7846208990501 -0.323794704339826 0 -0.756049365373675 0 -0.676952556726341 0 0 -0.370011549821264 0 0 0 0 0 0
0 0 0 0 0 0 0 0 0 0 0 0 0 0 0 -0.218583438408838 0 0 0 0 0 0 0 0 0 0 0 0 0 0 -0.587535113931424 0 0 0 0 0 0 0 -0.737757311544375 0 0 0 0 -0.869932936430723 0 0 0 0 0 0
0.14900571905904 0.508924827901786 0 0 1.14086768374095 0.0771806581688846 0 0 0 0 0 -0.906752663396445 0 0 0 0 -0.218583438408838 0 0 0 0 -1.10630114981967 0 0 0 0 0 0 0 0 -0.35274784539631 0 0 0 0 0 0 0 0 0 0 0 0 -1.18134257242051 0 0 0 0 0 0
0 0.271640601444753 0 0.98939986527738 0 0.085469840331532 0 0 0 0 0 0 0 0 0 0 0 -0.218583438408838 0 0 -0.325110062114252 -5.17812572054728 0 0 0 0 0 0 0 0 -0.780680861796076 0 0 0 0 0 0 0 0 0 0 0 0 0 0 0 0 0 0 0
0 0 0 0 0 0 0 0 0 0 0 0 0 0 0 0 0 0 -0.218583438408838 0 -1.20638464423336 0 0 0 0 0 0 0 0 0 0 0 0 0 0 0 0 0 0 0 -0.514905384732601 0 0 -2.17950820303827 0 0 0 -0.609415609526537 0 -0.51448997893794
0 0 0 0 0 0 0.292535860453081 0 0 0 0 0 0 0 0 0 0 0 0 -0.218583438408838 0 0 0 0 0 0 0 0 0 0 0 0 0 0 0 0 0 0 0 0 -0.700185318543314 0 -0.807458839922562 -2.91853574715373 0 0 0 0 0 0
0 0 0 0 0 0 0 0 0 0 0 0 0 0 0 0 0 0.0651796642461106 0.247862038534724 0 -0.218583438408838 0 0 0 0 -0.749426835278866 0 0 0 0 0 0 0 0 0 0 0 0 0 0 0 0 -1.60562642399724 -2.62343685696801 0 0 0 0 0 0
0 0 0 0 0 0 0 0 0.638608635464571 0.0709778329630628 0.446104264575285 0 0 1.35798085453784 0.158736472135515 0 0.204830186558704 1.06332736675537 0 0 0 -0.218583438408838 0 0 0 0 0 0 0 0 0 0 0 0 0 0 0 0 0 0 -0.112617106316805 0 0 0 0 0 0 -1.44046668925316 0 0
0 0 0 0 0 0 0 0 0 0 0 0 0 0 0 0 0 0 0 0 0 0 -0.218583438408838 0 -0.727626353747682 0 0 0 0 0 0 0 0 0 0 0 0 0 0 0 -4.15715843447909 0 0 0 0 0 0 -0.421182330782736 0 0
0 0 0 0 0 0 0.542358856938702 0 0 0 0 0 0 0 0 0 0 0 0 0 0 0 0 -0.218583438408838 0 0 0 0 -0.594373133668165 0 0 0 0 0 0 0 0 0 0 0 -3.68210201884394 0 0 0 0 0 0 -0.671233063442637 0 0
0 0 0 0 0 0 0 0 0 0 0 0 0 0 0 0 0 0 0 0 0 0 0.146542526869282 0 -0.218583438408838 0 0 0 0 0 0 0 0 0 0 0 0 0 0 0 -1.70525189380095 0 0 0 0 0 0 -1.27314482038693 0 0
0 0 0 0 0 0 0 0 0 0 0 0 0 0 0 0 0 0 0 0 0.143324946198286 0 0 0 0 -0.218583438408838 0 0 0 0 0 0 0 0 0 0 0 0 0 0 0 0 0 0 0 0 0 0 -0.953352368775892 0
0.029823440295074 0.108820085345419 0.289638266421326 0.298922433529385 1.0284721273812 0 0 0 0 0 0 0 0 0 0 0 0 0 0 0 0 0 0 0 0 0 -0.218583438408838 0 0 0 0 0 0 0 0 0 0 0 0 0 -1.01887800427762 0 0 0 0 0 0 0 -0.216383096979371 0
0 0 0 0 0 0 0 0 0 0 0 0 0 0 0 0 0 0 0 0 0 0 0 0 0 0 0 -0.218583438408838 0 0 0 0 0 0 0 0 0 0 0 0 -2.04364954776142 0 0 0 0 0 0 -0.59329706440633 0 0
0 0 0 0 0 0 0 0 0 0 0 0 0 0 0 0 0 0 0 0 0 0 0 0.121208453655972 0 0 0 0 -0.218583438408838 0 0 0 0 0 0 0 0 0 0 0 -3.76271379222652 0 0 0 0 0 0 -0.151264685727001 0 0
0.256976346195783 0.694199277156641 0 0.0925107513360231 0 0.163490063418633 0 0 0 0 0 0 0 0 0 0 0 0 0 0 0 0 0 0 0 0 0 0 0 -0.218583438408838 0 0 0 -0.315283065490585 0 0 0 0 0 0 0 0 0 0 0 0 0 -1.76883281469509 0 0
0 0 0.242165863062878 0 0.237576015818661 0 0.332985463941498 0 0.130118967723837 0 0.189156555508532 0.521342761012219 0.145188807448584 0.665102048284961 0 0.111993114177643 0.0760513705908092 0.157578670252735 0 0 0 0 0 0 0 0 0 0 0 0 -0.218583438408838 0 0 0 0 0 0 0 0 0 0 0 0 0 0 0 0 -0.331864826222767 0 0
0 0 0 0 0 0 0 0 0 0 0 0 0 0 0 0 0 0 0 0 0 0 0 0 0 0 0 0 0 0 0 -0.218583438408838 0 -1.26954925160233 0 0 0 0 0 0 0 0 0 0 0 0 0 -1.03222433672957 -0.827590478839837 0
0 0 0 0 0.30418087366192 0.0738966076555767 0.23930182506995 0.118994486815997 0 0 0 0 0 0 0 0 0 0 0 0 0 0 0 0 0 0 0 0 0 0 0 0 -0.218583438408838 0 0 0 0 0 0 0 0 0 0 0 0 -1.02638768412288 0 -0.323118203723844 -0.496209851948811 0
0 0 0 0 0 0 0 0 0 0 0 0 0 0 0 0 0 0 0 0 0 0 0 0 0 0 0 0 0 0.0619099582190611 0 0.239063467873793 0 -0.218583438408838 0 0 0 0 0 0 0 0 0 0 0 0 0 0 -4.83419447064102 0
0 0 0 0 0 0 0 0 0 0 0 0 0 0 0 0 0 0 0 0 0 0 0 0 0 0 0 0 0 0 0 0 0 0 -0.218583438408838 0 0 0 0 0 0 0 0 0 0 -0.725611983116929 0 0 -7.69930247045433 0
0 0 0 0 0 0.109289589501704 0.0890914381012037 0 0.0835817845393646 0 0 0.059438599129219 0.21064914743531 0 0.16490964497626 0 0 0 0 0 0 0 0 0 0 0 0 0 0 0 0 0 0 0 0 -0.218583438408838 0 0 0 0 0 0 0 0 0 -0.755942056562855 0 -0.257957806602478 -3.53326803756174 0
0 0 0 0 0 0 0 0 0 0 0 0 0 0 0.0688542616071137 0 0 0 0 0 0 0 0 0 0 0 0 0 0 0 0 0 0 0 0 0 -0.218583438408838 0 0 0 0 0 0 0 0 0 0 0 0 0
0 0 0 0 0 0 0 0 0 0 0 0 0 0 0 0 0 0 0 0 0 0 0 0 0 0 0 0 0 0 0 0 0 0 0 0 0 -0.218583438408838 0 0 0 -0.788404221312067 0 0 0 0 0 -0.747869030166334 0 0
0 0 0 0 0 0 0 0.34855606429084 0 0 0.0728426259752886 0 0.283150990233535 1.78620159495524 0.16244305234492 0.155044251290065 0 0 0 0 0 0 0 0 0 0 0 0 0 0 0 0 0 0 0 0 0 0 -0.218583438408838 0 0 -2.08969688797141 0 0 0 0 -0.199209440355499 -1.23339796032585 0 0
0 0 0 0 0 0 0 0.100905509582198 0.457804530106851 0.127848275408665 0.0980399886033147 0.266107055344691 0.167050870473861 0 0 0 0 0 0 0 0 0 0 0 0 0 0 0 0 0 0 0 0 0 0 0 0 0 0 -0.218583438408838 0 0 0 0 0 0 0 -1.29146211727685 0 0
0 0 0 0 0 0 0 0 0 0 0 0 0 0 0.132596544132289 0 0 0 0.101384637662015 0.133089320963107 0 0.0231712175730214 0.820426547273537 0.730544026372915 0.360198478005249 0 0.230852506197347 0.415631362783384 0.786904700779265 0 0 0 0 0 0 0 0 0 0 0 -0.218583438408838 -0.281845536421651 0 0 0 0 0 -1.38380053361849 0 0
0 0 0 0 0 0 0 0 0 0 0 0 0 0 0 0 0 0 0 0 0 0 0 0 0 0 0 0 0 0 0 0 0 0 0 0 0 0.166028995095052 0.412799503882616 0 0.0542285366797139 -0.218583438408838 0 0 0 0 0 -0.988716042702034 0 0
0 0 0 0 0 0 0 0 0 0 0 0 0 0 0 0 0 0 0 0.163247144629865 0.334149254736611 0 0 0 0 0 0 0 0 0 0 0 0 0 0 0 0 0 0 0 0 0 -0.218583438408838 0 0 0 0 -1.907450288003 0 0
0 0 0 0 0 0 0 0 0.768735990853051 0.102117634357502 0.381852613900337 0 0.211378464519678 0.524210943510798 0.0769916600978328 0.182990466143521 0.248177472719456 0 0.412369930545997 0.590745678230922 0.529031495709293 0 0 0 0 0 0 0 0 0 0 0 0 0 0 0 0 0 0 0 0 0 0 -0.218583438408838 0 0 -0.176069085041526 -8.65069661840518 0 0
0 0 0 0 0 0 0 0 0 0 0 0 0 0 0 0 0 0 0 0 0 0 0 0 0 0 0 0 0 0 0 0 0 0 0 0 0 0 0 0 0 0 0 0 -0.218583438408838 0 -0.380922139283467 -0.239505212573287 0 0
0 0 0 0 0 0 0 0 0 0 0 0 0 0 0 0 0 0 0 0 0 0 0 0 0 0 0 0 0 0 0 0 0.202156869475913 0 0.149998390030537 0.165113437893385 0 0 0 0 0 0 0 0 0 -0.218583438408838 -0.409559426310008 -0.614224187335125 0 0
0 0 0 0 0 0 0 0 0 0 0 0 0 0 0 0 0 0 0 0 0 0 0 0 0 0 0 0 0 0 0 0 0 0 0 0 0 0 0.0391700487988329 0 0 0 0 0.0369590785475817 0.0691040513762037 0.0799767733660586 -0.218583438408838 0.70970478810353 0.352897846649654 0.082033961292929
0 0 0 0 0 0 0 0 0 0 0 0 0 0 0 0 0 0 0.120784692622833 0 0 0.308982422317605 0.0856060582964034 0.127236852413888 0.275097659364122 0 0 0.11672818267269 0.0307771077171114 0.353910183197238 0.0692308930823028 0.199685247555471 0.0658516110510535 0 0 0.0505855777834384 0 0.14998480942404 0.234538175641911 0.255245988033102 0.286672131193694 0.197046292928631 0.385330301929363 1.7546120688792 0.049220517971168 0.127741226546075 -3.79731337991755 -0.218583438408838 0 0
0 0 0 0 0 0 0 0 0 0 0 0 0 0 0 0 0 0 0 0 0 0 0 0 0 0.20122957482209 0.041590319687421 0 0 0 0 0.162349039804415 0.107196107895562 0.993257359669975 1.60745654300742 0.738374894749664 0 0 0 0 0 0 0 0 0 0 -1.69187607652998 0 -0.218583438408838 0
0 0 0 0 0 0 0 0 0 0 0 0 0 0 0 0 0 0 0.097869773997102 0 0 0 0 0 0 0 0 0 0 0 0 0 0 0 0 0 0 0 0 0 0 0 0 0 0 0 -0.406663210533458 0 0 -0.218583438408838
