-0.147025901543577 0 0 0 0 0 0 0 0 0 -2.69978087724966 0 0 0 0 0 0 0 0 0 0 0 0 0 0 0 0 0 0 0 0 0 0 0 0 0 0 0 0 0 0 0 0 0 0 0 0 0 0 0
0 -0.147025901543577 0 0 0 0 0 0 0 0 0 0 0 0 0 0 0 0 0 0 0 0 0 0 0 0 0 0 0 0 0 -3.02266752885187 0 0 0 0 0 0 0 0 0 0 0 0 0 0 0 0 0 0
0 0 -0.147025901543577 0 0 0 0 0 0 0 0 0 0 0 0 0 0 0 0 0 0 0 -0.703776334747379 0 0 0 0 0 0 0 0 0 0 0 0 0 0 0 0 0 0 0 0 0 0 0 0 -1.0793150768811 0 0
0 0 0 -0.147025901543577 0 0 0 0 0 0 -4.9463355544817 0 0 0 0 0 -1.25625008514183 0 0 0 0 0 -3.23409929238094 0 0 0 0 0 0 0 0 0 0 0 0 0 0 0 0 0 0 0 0 0 0 0 0 0 0 0
0 0 0 0 -0.147025901543577 -1.71249128175068 0 0 0 0 -2.83492869803689 0 0 0 0 0 -0.735348641909153 0 0 0 0 0 0 0 0 0 0 0 0 0 0 0 0 0 0 0 0 0 0 0 0 0 0 0 0 0 0 0 0 0
0 0 0 0 0.363301818414838 -0.147025901543577 0 0 0 0 -2.3426233900829 0 0 0 0 0 0 0 0 0 0 0 0 0 0 0 0 0 0 0 0 -1.1297668308788 0 0 0 0 0 0 0 0 0 0 0 0 0 0 0 0 0 0
0 0 0 0 0 0 -0.147025901543577 0 0 0 -1.45893742332119 0 0 0 0 0 -0.940418544225712 0 0 0 0 0 0 0 0 0 0 0 0 0 -0.162032198072218 -1.20485900668293 0 0 0 0 0 0 0 0 0 0 0 0 0 0 0 0 0 0
0 0 0 0 0 0 0 -0.147025901543577 0 0 0 0 0 0 0 0 0 0 0 0 0 -1.63633688292982 0 0 -7.0350231960991 0 0 0 0 0 0 0 0 0 0 0 0 0 0 0 0 0 0 0 0 0 0 0 0 0
0 0 0 0 0 0 0 0 -0.147025901543577 0.110866644046405 0 0 0 0 0 0 0 0 0 -3.96593685176427 0 0 0 0 0 0 0 0 0 0 0 0 -1.11162377987967 -0.178935053770049 0 -0.414102080861394 0 0 0 0 0 0 0 0 0 0 0 0 0 0
0 0 0 0 0 0 0 0 -0.611731483111382 -0.147025901543577 0 0 0 0 0 0 0 0 0 0 0 0 0 0 0 0 0 0 0 0 0 0 -1.62134515190061 -0.779401337411754 0 0 0 0 0 0 0 0 0 0 0 0 0 0 0 0
0.511501684284841 0 0 0.997177715005234 0.565310120130961 0.497354468544646 0.315721712011875 0 0 0 -0.147025901543577 0 0 0 -1.03337499485468 0 0 0 0 -0.843099592555437 0 -0.384271925638857 0 0 0 0 0 0 0 0 0 0 0 0 0 0 0 0 0 0 0 0 0 0 0 0 0 0 0 0
0 0 0 0 0 0 0 0 0 0 0 -0.147025901543577 0 0 0 0 0 0 0 0 -0.425179312437607 0 0 0 0 0 0 0 0 -1.17336115210042 0 0 -0.289270853261598 0 0 0 0 0 0 0 0 -0.335398402647469 0 0 -1.47370469625009 0 0 0 0 0
0 0 0 0 0 0 0 0 0 0 0 0 -0.147025901543577 0 0 0 0 -2.64007185238344 0 -0.0832491592746474 -0.887596247506777 0 0 0 0 0 0 0 0 -4.45216089043859 0 0 0 -0.74153301283589 -0.325712691894134 0 0 0 0 0 0 -1.07746130115543 0 0 0 0 0 0 0 0
0 0 0 0 0 0 0 0 0 0 0 0 0 -0.147025901543577 0 0 0 -2.15952062123182 0 -0.400135486509303 0 0 0 0 0 0 0 0 0 0 0 0 0 0 0 0 0 0 0 0 0 0 0 0 -0.176571996194717 0 0 0 0 0
0 0 0 0 0 0 0 0 0 0 0.203237733528764 0 0 0 -0.147025901543577 0 0 -2.04402180128261 0 -7.23494927360259 0 0 0 0 0 0 0 0 0 -1.77898421751791 0 0 0 0 -1.36842028044852 0 0 0 0 0 0 0 0 0 0 0 0 0 0 0
0 0 0 0 0 0 0 0 0 0 0 0 0 0 0 -0.147025901543577 0 0 0 0 0 0 0 0 0 0 0 0 0 0 0 0 -11.7882074981418 -1.26868712879335 -0.540497726833939 0 0 0 0 0 0 0 0 0 0 0 0 0 0 0
0 0 0 0.262375161029106 0.150079540925364 0 0.187833599927154 0 0 0 0 0 0 0 0 0 -0.147025901543577 0 0 0 0 0 0 0 0 0 0 0 0 0 0 0 0 -2.66560484772076 0 0 0 0 0 0 0 -3.92691976655327 0 0 -11.754386695215 0 0 0 0 0
0 0 0 0 0 0 0 0 0 0 0 0 0.510371224434895 0.447850900465534 0.436823573766466 0 0 -0.147025901543577 0 0 0.0174315856177972 0 0 0 0 0 0 0 0 -1.98587771495031 0 0 0 -2.81068416716795 0 0 0 0 0 0 0 0 -2.42595450160539 0 -0.400527577729398 0 0 0 -1.07085653091486 0
0 0 0 0 0 0 0 0 0 0 0 0 0 0 0 0 0 0 -0.147025901543577 0 0 0 0 0 0 0 0 0 0 0 0 0 0 0 -1.81193517925438 0 0 0 0 0 0 -0.639413067947769 0 0 -0.313901464420276 0 0 0 -0.127525862147578 0
0 0 0 0 0 0 0 0 0.815926683096754 0 0.176184195600701 0 0.0140450737961994 0.0777870818726424 1.4791701569786 0 0 0 0 -0.147025901543577 0 0 0 0 0 0 0 0 0 0 0 0 -3.92173344395252 -0.112138594634552 -2.51724484000714 0 0 0 0 0 0 -0.319135313074523 0 0 -2.3993387034 0 0 0 -0.468323939474311 0
0 0 0 0 0 0 0 0 0 0 0 0.0879763679692445 0.168863523985411 0 0 0 0 -0.083259553281711 0 0 -0.147025901543577 0 0 0 0 0 0 0 0 0 0 0 -0.473941993210406 0 0 0 0 0 0 0 0 0 0 0 -1.06650760597828 0 0 0 -0.341643830628571 0
0 0 0 0 0 0 0 0.344473317314454 0 0 0.0749395488898105 0 0 0 0 0 0 0 0 0 0 -0.147025901543577 0 0 0 0 0 0 0 0 0 0 -1.96895698165499 0 -0.590278883412701 0 0 -1.01737290759279 0 0 0 0 0 0 0 0 0 0 0 0
0 0 0.137540728606142 0.611346472259091 0 0 0 0 0 0 0 0 0 0 0 0 0 0 0 0 0 0 -0.147025901543577 0 0 0 0 -0.494162327080642 0 0 0 0 -2.96516935228059 0 0 0 0 0 0 0 -0.825752798373208 0 0 0 0 0 0 0 0 0
0 0 0 0 0 0 0 0 0 0 0 0 0 0 0 0 0 0 0 0 0 0 0 -0.147025901543577 0 0 0 -1.2107621946288 0 0 0 0 -2.84985777874409 0 -0.423985133093514 0 0 -1.42557575530875 0 0 -1.29683777023042 0 0 0 0 0 0 0 -0.685550237167013 0
0 0 0 0 0 0 0 1.42813522898823 0 0 0 0 0 0 0 0 0 0 0 0 0 0 0 0 -0.147025901543577 0 0 -0.802372116790127 0 -5.3226668659799 0 0 0 0 0 0 0 -2.11914531788832 0 0 0 0 0 0 -2.01275348777532 0 -1.36303486336517 0 0 0
0 0 0 0 0 0 0 0 0 0 0 0 0 0 0 0 0 0 0 0 0 0 0 0 0 -0.147025901543577 0 -0.211170220231218 0 -0.260153459058572 0 0 0 0 0 0 -0.536983063790464 0 0 0 0 0 0 0 0 0 -2.66545583848222 0 0 0
0 0 0 0 0 0 0 0 0 0 0 0 0 0 0 0 0 0 0 0 0 0 0 0 0 0 -0.147025901543577 0 0 0 0 0 0 0 0 0 0 0 0 0 0 0 0 0 0 0 -0.581644911290219 0 0 0
0 0 0 0 0 0 0 0 0 0 0 0 0 0 0 0 0 0 0 0 0 0 0.102031435636487 0.236686809549831 0.171676359506285 0.0390124504213214 0 -0.147025901543577 0 -0.671711875533998 0 0 0 0 0 0 0 0 0 0 0 0 0 0 0 0 -0.180225293406563 0 0 0
0 0 0 0 0 0 0 0 0 0 0 0 0 0 0 0 0 0 0 0 0 0 0 0 0 0 0 0 -0.147025901543577 -0.554404684181035 0 0 0 0 0 0 0 -1.41801999198931 0 0 0 0 0 0 0 0 -0.149549290613793 0 0 0
0 0 0 0 0 0 0 0 0 0 0 0.23479227413212 0.86594395669801 0 0.372933632578141 0 0 0.376759879432905 0 0 0 0 0 0 1.00910102877059 0.0498966753340785 0 0.129061789932054 0.107530049973999 -0.147025901543577 0.8544711122902 0.910613258163918 0.347441815466183 0.131586010764165 0 0.0731075964631977 0.791295031062251 0 0 0 0 0 0 0 0 -1.29256418108037 0 0 0 0
0 0 0 0 0 0 0.0312699239933969 0 0 0 0 0 0 0 0 0 0 0 0 0 0 0 0 0 0 0 0 0 0 -4.16721354939833 -0.147025901543577 0 0 0 0 0 0 0 0 0 0 0 0 0 0 0 0 0 0 0
0 0.557989562812697 0 0 0 0.223748375197061 0.239716048651885 0 0 0 0 0 0 0 0 0 0 0 0 0 0 0 0 0 0 0 0 0 0 -4.48707566740912 0 -0.147025901543577 0 0 0 0 0 0 0 0 0 0 0 0 0 -0.27780999849055 0 0 0 0
0 0 0 0 0 0 0 0 0.222398378191829 0.332485529228251 0 0.0601563889108109 0 0 0 2.22869460175365 0 0 0 0.735792487869186 0.0916527276670694 0.40279888171218 0.578323269243945 0.584477430500114 0 0 0 0 0 -1.6911991805713 0 0 -0.147025901543577 0 0 0 0 0 0 0 0 0 0 0 0 0 0 0 0 0
0 0 0 0 0 0 0 0 0.0371630143177146 0.152125239654733 0 0 0.153202242674486 0 0 0.247894572227556 0.550254042835746 0.632898660713477 0 0.0213236073297864 0 0 0 0 0 0 0 0 0 -0.657388520230458 0 0 0 -0.147025901543577 0 0 0 0 0 0 0 0 0 0 0 -1.33247284056378 0 0 0 0
0 0 0 0 0 0 0 0 0 0 0 0 0.066320003675696 0 0.288908940331805 0.105215713732041 0 0 0.359665461771406 0.479292235150554 0 0.122709181616492 0 0.084878608153541 0 0 0 0 0 0 0 0 0 0 -0.147025901543577 0 0 0 0 0 0 0 0 0 0 -1.49288708726629 0 0 0 0
0 0 0 0 0 0 0 0 0.0768900794314954 0 0 0 0 0 0 0 0 0 0 0 0 0 0 0 0 0 0 0 0 -0.372661247396364 0 0 0 0 0 -0.147025901543577 0 0 -0.646027374212204 0 0 0 0 0 0 -0.772833045799953 0 0 0 0
0 0 0 0 0 0 0 0 0 0 0 0 0 0 0 0 0 0 0 0 0 0 0 0 0 0.117482777226258 0 0 0 -4.01323106059956 0 0 0 0 0 0 -0.147025901543577 0 0 0 0 0 0 0 0 -0.432586273263943 0 0 0 0
0 0 0 0 0 0 0 0 0 0 0 0 0 0 0 0 0 0 0 0 0 0.217233932944299 0 0.289576339537381 0.422278439749664 0 0 0 0.291047894816978 0 0 0 0 0 0 0 0 -0.147025901543577 0 0 0 0 0 0 0 0 0 0 0 0
0 0 0 0 0 0 0 0 0 0 0 0 0 0 0 0 0 0 0 0 0 0 0 0 0 0 0 0 0 0 0 0 0 0 0 0.134917147614552 0 0 -0.147025901543577 0.123720208332282 0 0 0 0 0 0 0 0 0 0
0 0 0 0 0 0 0 0 0 0 0 0 0 0 0 0 0 0 0 0 0 0 0 0 0 0 0 0 0 0 0 0 0 0 0 0 0 0 -0.616847795133483 -0.147025901543577 0 0 0 -1.40033460672427 0 -1.38883267798074 0 0 0 0
0 0 0 0 0 0 0 0 0 0 0 0 0 0 0 0 0 0 0 0 0 0 0.174524631951114 0.242688744488784 0 0 0 0 0 0 0 0 0 0 0 0 0 0 0 0 -0.147025901543577 0 0 -0.933257319401765 0 0 0 0 0 0
0 0 0 0 0 0 0 0 0 0 0 0.0669445045301087 0.203049589389826 0 0 0 0.697251911619471 0 0.137955126086716 0.0611969786978491 0 0 0 0 0 0 0 0 0 0 0 0 0 0 0 0 0 0 0 0 0 -0.147025901543577 0 0 0 0 0 0 0 -0.591714603994945
0 0 0 0 0 0 0 0 0 0 0 0 0 0 0 0 0 0.523617324799591 0 0 0 0 0 0 0 0 0 0 0 0 0 0 0 0 0 0 0 0 0 0 0 0 -0.147025901543577 0 0 0 0 0 0 0
0 0 0 0 0 0 0 0 0 0 0 0 0 0 0 0 0 0 0 0 0 0 0 0 0 0 0 0 0 0 0 0 0 0 0 0 0 0 0 0.305310874581157 0.196851023416139 0 0 -0.147025901543577 0 0 0 0 0 0
0 0 0 0 0 0 0 0 0 0 0 0.302132662741517 0 0.0344577515495557 0 0 2.4490441472723 0.0822334169476341 0.0586157084073959 0.471700475052314 0.219786088442701 0 0 0 0.372154727185829 0 0 0 0 0 0 0 0 0 0 0 0 0 0 0 0 0 0 0 -0.147025901543577 0 0 0 0 0
0 0 0 0 0 0 0 0 0 0 0 0 0 0 0 0 0 0 0 0 0 0 0 0 0 0 0 0 0 0.259874229179693 0 0.0607873700072952 0 0.284627286815662 0.282059111316266 0.159387154560025 0.0854884406534916 0 0 0.292337355482618 0 0 0 0 0 -0.147025901543577 0 0 0 0
0 0 0 0 0 0 0 0 0 0 0 0 0 0 0 0 0 0 0 0 0 0 0 0 0.258648128602529 0.575802159558678 0.116431024670572 0.0369790051315962 0.0292500284360541 0 0 0 0 0 0 0 0 0 0 0 0 0 0 0 0 0 -0.147025901543577 0 0 0
0 0 0.2261652328346 0 0 0 0 0 0 0 0 0 0 0 0 0 0 0 0 0 0 0 0 0 0 0 0 0 0 0 0 0 0 0 0 0 0 0 0 0 0 0 0 0 0 0 0 -0.147025901543577 0 0
0 0 0 0 0 0 0 0 0 0 0 0 0 0 0 0 0 0.226782573867418 0.0252297240793429 0.0952945997311939 0.0719880010825313 0 0 0.138967161100165 0 0 0 0 0 0 0 0 0 0 0 0 0 0 0 0 0 0 0 0 0 0 0 0 -0.147025901543577 0
0 0 0 0 0 0 0 0 0 0 0 0 0 0 0 0 0 0 0 0 0 0 0 0 0 0 0 0 0 0 0 0 0 0 0 0 0 0 0 0 0 0.115719477492524 0 0 0 0 0 0 0 -0.147025901543577
