-0.0552452858761238 0 0 0 0 -0.607558394888719 0 0 0 0 -4.79583301177454 0 -0.676002358284997 0 0 0 0 0 0 0 0 0 0 0 0 0 0 0 0 0 0 0 0 0 0 0 0 0 0 0 0 0 0 0 0 0 0 0 0 0
0 -0.0552452858761238 0 0 0 0 0 0 0 0 0 0 0 0 0 0 0 0 0 0 0 0 0 0 0 0 0 0 0 0 0 0 0 0 0 0 0 0 0 0 0 0 0 0 0 0 0 0 0 -0.847917146326574
0 0 -0.0552452858761238 0 0 0 0 0 0 0 0 0 0 0 0 0 0 0 -1.10775198324859 0 0 0 0 0 -0.660274593640052 0 0 0 0 0 0 0 0 0 0 0 0 0 0 0 0 0 0 0 0 0 0 0 0 0
0 0 0 -0.0552452858761238 0 0 0 0 0 0 0 0 0 -1.359953829388 0 0 0 0 -1.05574108898767 0 0 0 0 0 0 0 0 0 0 0 0 0 0 0 0 0 0 0 0 0 0 0 0 0 0 0 0 0 0 0
0 0 0 0 -0.0552452858761238 0 0 0 -1.06376946029466 0 0 0 0 -0.564156509426509 0 0 0 0 -1.44348745929893 0 0 0 0 0 0 0 0 0 0 0 0 0 0 0 0 0 0 0 0 0 0 0 0 0 0 -1.82715497876052 0 0 0 0
0.125035395926154 0 0 0 0 -0.0552452858761238 0 0 0 0 0 0 0 0 0 0 0 0 -3.20452876209419 0 0 0 0 0 0 -3.62057292199342 0 0 0 0 0 0 0 0 0 -0.454890041618043 0 0 0 0 0 0 0 0 0 0 0 0 0 0
0 0 0 0 0 0 -0.0552452858761238 0 0 0 0 0 0 0 0 0 0 -3.24559007287434 0 0 0 0 -0.897484996002404 0 0 -2.23975477243091 0 0 0 0 0 0 0 0 0 0 0 0 0 0 0 0 0 0 0 0 0 0 0 -1.42682110419508
0 0 0 0 0 0 0 -0.0552452858761238 0 0 0 0 0 0 0 0 0 0 0 0 0 0 0 0 0 0 0 0 0 0 0 0 0 0 0 0 0 0 0 0 -0.268656909435446 0 0 0 0 0 0 0 0 0
0 0 0 0 0.199411134242813 0 0 0 -0.0552452858761238 0 0 0 0 0 0 0 0 -0.50764946084075 0 -5.08885236883607 0 0 0 0 -2.87718579012558 0 0 0 0 0 0 0 0 0 0 0 0 0 0 0 -0.800709664070337 0 0 0 0 0 0 0 0 -1.45585159540407
0 0 0 0 0 0 0 0 0 -0.0552452858761238 0 0 0 0 0 0 0 0 0 -2.80951187148428 0 -0.202601056371275 0 0 -1.09485474386952 0 0 0 0 0 0 0 0 0 0 0 0 0 0 0 -2.88953817306245 0 0 0 0 0 0 0 0 -1.95960008742323
0.944057762278151 0 0 0 0 0 0 0 0 0 -0.0552452858761238 0 0 0 0 0 0 0 0 0 0 0 0 0 0 0 -2.73796934478931 0 0 0 0 0 0 0 0 -0.514891328863661 0 0 0 0 0 0 0 0 0 0 0 0 0 -0.233688299047758
0 0 0 0 0 0 0 0 0 0 0 -0.0552452858761238 0 0 0 -0.2558566475594 0 0 0 0 0 0 0 0 0 0 -4.47130889705751 0 0 -0.320939296801721 0 0 0 0 0 -0.168436805638411 0 0 0 0 0 0 0 0 0 0 0 0 -1.06302385384742 0
0.139900628495726 0 0 0 0 0 0 0 0 0 0 0 -0.0552452858761238 0 0 0 0 0 0 0 0 0 0 0 0 0 -0.334828436897386 0 0 0 0 0 0 0 0 -1.12782219627434 -0.239747042914174 0 0 0 0 0 0 0 0 0 0 0 0 0
0 0 0 0.247718172250597 0.119880754746618 0 0 0 0 0 0 0 0 -0.0552452858761238 0 -0.073184779103325 0 0 0 0 0 0 0 0 0 0 0 0 0 0 0 0 0 0 0 -0.313284380304334 0 0 0 0 0 0 0 0 0 0 0 0 0 -0.562104688724254
0 0 0 0 0 0 0 0 0 0 0 0 0 0 -0.0552452858761238 -0.265650858888923 0 0 0 0 0 0 0 0 0 0 -0.674091886778159 0 0 -2.29908264627284 0 0 0 0 -3.88689144842548 -3.2004698703875 0 0 0 0 0 0 0 0 0 0 0 0 0 -0.933412934718778
0 0 0 0 0 0 0 0 0 0 0 0.0515502848197843 0 0.0149793144308546 0.0562385329221404 -0.0552452858761238 0 0 0 0 0 0 0 0 0 0 -6.96449080533092 0 0 0 0 0 0 0 0 -1.15969001932096 -0.497649032571517 0 0 0 0 0 0 0 0 0 0 0 0 -0.336983388035896
0 0 0 0 0 0 0 0 0 0 0 0 0 0 0 0 -0.0552452858761238 0 0 0 0 0 0 0 0 0 0 0 0 -1.08704117593643 0 0 0 0 0 -3.43943763679275 -0.764200968686031 0 0 0 0 0 0 0 0 0 0 0 0 -0.413052578965172
0 0 0 0 0 0 0.678495835035172 0 0.101106078422556 0 0 0 0 0 0 0 0 -0.0552452858761238 0 0 0 0 0 0 0 0 0 0 0 -0.334866179634319 0 0 0 0 0 0 -2.58969541800506 0 0 0 0 0 0 0 0 0 0 0 0 -2.73221923092454
0 0 0.23772332500385 0.194057360804291 0.291084786351603 0.627130447992439 0 0 0 0 0 0 0 0 0 0 0 0 -0.0552452858761238 0 0 0 0 0 0 0 0 0 0 0 0 0 0 0 0 0 -0.269290478583606 0 -0.255612021853516 0 0 0 0 0 0 0 0 0 0 -0.647427761752604
0 0 0 0 0 0 0 0 1.06507736318828 0.546531923076385 0 0 0 0 0 0 0 0 0 -0.0552452858761238 0 0 0 0 0 0 -0.397429925214515 0 0 -0.899168887214986 0 0 0 0 0 0 0 0 -0.0769164950070946 0 0 0 0 0 0 0 0 0 0 0
0 0 0 0 0 0 0 0 0 0 0 0 0 0 0 0 0 0 0 0 -0.0552452858761238 0 0 0 0 0 -1.00041189796703 0 0 -3.83397906601333 0 0 0 0 0 0 0 0 0 0 0 0 0 0 0 0 0 0 0 0
0 0 0 0 0 0 0 0 0 0.0397593178402718 0 0 0 0 0 0 0 0 0 0 0 -0.0552452858761238 0 0 0 0 -12.1917061909967 0 0 -0.488579962628686 0 0 0 0 0 0 0 0 0 0 0 0 0 0 0 0 0 0 0 0
0 0 0 0 0 0 0.179844784772179 0 0 0 0 0 0 0 0 0 0 0 0 0 0 0 -0.0552452858761238 0 0 0 0 0 0 -0.257946219732182 0 0 0 0 0 0 0 0 0 0 0 0 0 0 0 0 0 0 0 0
0 0 0 0 0 0 0 0 0 0 0 0 0 0 0 0 0 0 0 0 0 0 0 -0.0552452858761238 0 0 0 0 0 -0.277779964462817 0 0 0 0 0 0 -1.50021468989462 0 0 0 0 0 0 0 0 0 0 0 0 0
0 0 0.135437571035703 0 0 0 0 0 0.532442409702517 0.229772381371762 0 0 0 0 0 0 0 0 0 0 0 0 0 0 -0.0552452858761238 0 0 0 0 -0.292973921175781 0 0 0 0 0 0 0 0 0 0 0 0 0 0 0 0 0 0 0 0
0 0 0 0 0 0.697771562542024 0.449963905735545 0 0 0 0 0 0 0 0 0 0 0 0 0 0 0 0 0 0 -0.0552452858761238 0 0 0 0 0 0 0 0 0 0 -0.0908574647919568 0 0 0 0 0 0 0 0 0 0 0 0 0
0 0 0 0 0 0 0 0 0 0 0.533860492062691 0.896845508577518 0.0667473448997681 0 0.136465153359905 1.36530198219389 0 0 0 0.0749133152656128 0.209593144806542 2.56121062434834 0 0 0 0 -0.0552452858761238 0 0 0 0 -2.13487172059313 0 0 0 0 0 0 0 0 0 0 0 0 0 0 0 0 0 0
0 0 0 0 0 0 0 0 0 0 0 0 0 0 0 0 0 0 0 0 0 0 0 0 0 0 0 -0.0552452858761238 0 0 0 -1.02377826927228 0 0 0 0 -0.529253036882077 0 0 0 0 0 0 0 0 0 0 0 0 0
0 0 0 0 0 0 0 0 0 0 0 0 0 0 0 0 0 0 0 0 0 0 0 0 0 0 0 0 -0.0552452858761238 0 0 -0.619770537672025 0 0 0 0 0 0 0 0 0 0 0 0 0 0 0 0 0 0
0 0 0 0 0 0 0 0 0 0 0 0.0672322009049803 0 0 0.444089279884247 0 0.227868315643151 0.0672728028278464 0 0.176984018382519 0.72804851122438 0.0978454637815773 0.0521004181273141 0.0542190686929634 0.0650770774799143 0 0 0 0 -0.0552452858761238 0 0 -1.45426534972574 0 0 0 0 0 0 0 0 0 0 0 0 0 0 0 0 0
0 0 0 0 0 0 0 0 0 0 0 0 0 0 0 0 0 0 0 0 0 0 0 0 0 0 0 0 0 0 -0.0552452858761238 0 0 -0.794890735307474 0 0 0 0 0 0 0 0 0 0 0 0 0 0 0 0
0 0 0 0 0 0 0 0 0 0 0 0 0 0 0 0 0 0 0 0 0 0 0 0 0 0 0.429285842906379 0.195976823724496 0.116333352763869 0 0 -0.0552452858761238 0 -0.434089541970351 0 0 0 0 0 0 0 0 0 0 0 0 0 0 0 0
0 0 0 0 0 0 0 0 0 0 0 0 0 0 0 0 0 0 0 0 0 0 0 0 0 0 0 0 0 0.300512990285169 0 0 -0.0552452858761238 0 0 0 0 0 0 0 0 0 0 0 0 0 0 0 0 0
0 0 0 0 0 0 0 0 0 0 0 0 0 0 0 0 0 0 0 0 0 0 0 0 0 0 0 0 0 0 0.169243964805851 0.085251793071271 0 -0.0552452858761238 0 0 0 0 0 0 0 0 0 0 0 0 -2.56531320172816 0 0 0
0 0 0 0 0 0 0 0 0 0 0 0 0 0 0.78402288603577 0 0 0 0 0 0 0 0 0 0 0 0 0 0 0 0 0 0 0 -0.0552452858761238 0 0 0 0 0 0 0 -2.48221705024322 0 0 0 0 0 0 0
0 0 0 0 0 0.0902043286935554 0 0 0 0 0.107606201397457 0.0339770200144456 0.23411793922014 0.0644192287875506 0.636535486771286 0.250719628980677 0.722061263356728 0 0 0 0 0 0 0 0 0 0 0 0 0 0 0 0 0 0 -0.0552452858761238 0 0 0 0 0 0 -2.98846542173757 0 0 0 0 0 0 0
0 0 0 0 0 0 0 0 0 0 0 0 0.047925926528524 0 0 0.0997304701706524 0.164717975864293 0.535244912523751 0.0550058405702377 0 0 0 0 0.320773380310341 0 0.0172598822609168 0 0.10341104417337 0 0 0 0 0 0 0 0 -0.0552452858761238 0 0 -0.19182371405974 0 0 -0.304522275094585 0 0 0 0 0 0 0
0 0 0 0 0 0 0 0 0 0 0 0 0 0 0 0 0 0 0 0 0 0 0 0 0 0 0 0 0 0 0 0 0 0 0 0 0 -0.0552452858761238 0 -0.36509972559672 0 0 0 0 0 0 0 0 0 0
0 0 0 0 0 0 0 0 0 0 0 0 0 0 0 0 0 0 0.0482334554522719 0.0165201728435935 0 0 0 0 0 0 0 0 0 0 0 0 0 0 0 0 0 0 -0.0552452858761238 -1.1366837740441 0 0 -0.569966954888167 0 0 0 0 0 0 0
0 0 0 0 0 0 0 0 0 0 0 0 0 0 0 0 0 0 0 0 0 0 0 0 0 0 0 0 0 0 0 0 0 0 0 0 0.0393273208399871 0.0728002935607925 0.212716633957929 -0.0552452858761238 0 0 0 0 0 0 0 -0.398560623105957 0 0
0 0 0 0 0 0 0 0.0525427288226667 0.15958672920073 0.595703241984635 0 0 0 0 0 0 0 0 0 0 0 0 0 0 0 0 0 0 0 0 0 0 0 0 0 0 0 0 0 0 -0.0552452858761238 -1.45211991260989 -3.50065199133689 0 0 0 0 0 0 0
0 0 0 0 0 0 0 0 0 0 0 0 0 0 0 0 0 0 0 0 0 0 0 0 0 0 0 0 0 0 0 0 0 0 0 0 0 0 0 0 0.286496391334893 -0.0552452858761238 -0.0736920829369334 0.121295226186307 0.0231000158576435 0 0 0 0 0
0 0 0 0 0 0 0 0 0 0 0 0 0 0 0 0 0 0 0 0 0 0 0 0 0 0 0 0 0 0 0 0 0 0 0.459378089476969 0.620274276788457 0.0620048150873826 0 0.117268776240142 0 0.686487040784959 0.0153482525734569 -0.0552452858761238 0 -1.4154655598042 0 0.0653478604459983 0.378640030950744 0.2086497619647 0.24253083197146
0 0 0 0 0 0 0 0 0 0 0 0 0 0 0 0 0 0 0 0 0 0 0 0 0 0 0 0 0 0 0 0 0 0 0 0 0 0 0 0 0 -0.579509376809044 0 -0.0552452858761238 -0.849745977180839 0 0 0 0 0
0 0 0 0 0 0 0 0 0 0 0 0 0 0 0 0 0 0 0 0 0 0 0 0 0 0 0 0 0 0 0 0 0 0 0 0 0 0 0 0 0 -0.117791566414322 0.291328183279169 0.169583596099228 -0.0552452858761238 0 0 0 0 0
0 0 0 0 0.370377460322747 0 0 0 0 0 0 0 0 0 0 0 0 0 0 0 0 0 0 0 0 0 0 0 0 0 0 0 0 0 0 0 0 0 0 0 0 0 0 0 0 -0.0552452858761238 0 0 0 0
0 0 0 0 0 0 0 0 0 0 0 0 0 0 0 0 0 0 0 0 0 0 0 0 0 0 0 0 0 0 0 0 0 0.496571619170571 0 0 0 0 0 0 0 0 -0.307559011807949 0 0 0 -0.0552452858761238 0 0 0
0 0 0 0 0 0 0 0 0 0 0 0 0 0 0 0 0 0 0 0 0 0 0 0 0 0 0 0 0 0 0 0 0 0 0 0 0 0 0 0.0769505085457734 0 0 -1.78568004265568 0 0 0 0 -0.0552452858761238 0 0
0 0 0 0 0 0 0 0 0 0 0 0.212219363820721 0 0 0 0 0 0 0 0 0 0 0 0 0 0 0 0 0 0 0 0 0 0 0 0 0 0 0 0 0 0 -1.09148507810956 0 0 0 0 0 -0.0552452858761238 0
0 0.176316968932942 0 0 0 0 0.290841172702239 0 0.304958178141053 0.415075229847731 0.0445332189054052 0 0 0.103856613286076 0.184755021103485 0.0661350503143276 0.0800825889227638 0.498950089429674 0.125507456543314 0 0 0 0 0 0 0 0 0 0 0 0 0 0 0 0 0 0 0 0 0 0 0 -1.22910554661222 0 0 0 0 0 0 -0.0552452858761238
