1.65028894936771
2.34312539908236
1.55031897680632
5.23033039544063
1.50674276855217
2.06286996345183
0.248517413445113
0.109427699449581
0.77644688231118
2.43780573392571
0.466683741078462
2.82852052268469
0.56967071336858
0.444861109371147
0.296551896266658
5.55712427079889
6.20733169193616
3.86978391482394
2.99428683697515
1.14085760052432
0.616327853202598
1.08640340933006
0.946455364532477
4.60414284350265
0.579101728225084
0.183093793557958
3.51183016407632
1.2420486132358
1.82371402517208
0.229054296500359
2.65701111659272
1.17013170284954
0.16886629336831
0.253276038514508
6.56211673878704
0.607156701360323
4.72838062227899
2.21517916242437
0.964341524539608
0.491339006989032
0.401973464206996
0.751771073677434
1.52433175337562
0.979817226894484
5.65160469191504
1.35653818586355
0.483468202409239
0.255945813130757
0.191203811096151
8.79640995232879
