2.05824328956232
0.74391172428604
1.58244763606539
1.35123277234531
0.312191234705779
0.196913407379079
1.58818063690898
0.770048621313156
6.1532831389608
0.993948251745126
1.43709807723484
1.88177288215223
0.334623386768343
1.59073160316313
0.98895691522935
1.58008971744164
1.32495222905334
0.462100764182995
0.882261981498571
1.3310996601995
0.390711628668502
0.283109838649265
1.94434666352814
0.780111800688704
1.27082905245759
1.70205113606973
0.675783992039987
0.0957955563521863
2.84469547845451
0.87112826797261
0.222658901585206
2.84992994061763
1.51801470013004
0.368260705193017
1.31785786941135
1.35712779948215
1.92156327830216
0.922737875145978
0.219939440078675
1.84467291663602
0.371857922366697
0.330419254712644
1.1913738138348
0.741397675495763
0.92475053390205
2.31653478058192
4.85492467932181
0.523287617611785
0.800223721805059
0.24557248168538
