0.411512815097397
2.00709504855089
0.547456016840898
0.704038242859945
2.34027869858018
0.80279269123897
0.17868438718285
0.449735355292049
3.52003686820415
0.093433177924875
1.77991389265625
0.473517003620701
1.00865791289507
1.4915114328874
1.820631221093
5.6648597881648
2.28124495011879
0.58673764929676
0.359001386058131
3.04271503931385
0.860911227577463
0.287294938048284
0.767038202279853
0.521430563236905
1.30112635100263
1.48737704901896
1.3707514116719
0.406595904989596
0.860830323736506
2.88159255228696
0.883842879580257
1.35551072612584
1.86397266422036
4.18949656213041
0.903728278494098
0.974034165849273
0.288099478924571
1.18556790874382
1.05576473012571
1.62548933777348
0.468352936172751
1.02389127716221
0.888120949396479
2.23995212412068
0.956504859424803
1.2495556519398
0.208903867988313
0.941665475096931
0.0791068875394642
1.56572723507266
