1.90543065970214
1.1345298049029
0.554962889717389
1.70767837521741
0.935973012408449
1.4858241626514
1.15859222139693
2.77827442493713
6.71974541460844
0.290904094893159
0.872978011205086
1.43372560777237
2.76644631511262
0.951712289299788
0.231313411824809
2.49895715937499
1.35810697759316
0.462574851140321
0.385971451843399
0.29993453870974
0.830590108189253
2.49580761766683
0.60621143313543
1.87964553223052
0.587590019013322
0.160824742185665
1.19454356084945
1.98948219234919
5.17387168468941
1.73865157271297
0.220213771861306
0.124315927956261
0.271356842649572
0.78222108055578
0.499927716046967
0.403888396123192
1.64396299560906
0.106837506560049
1.78697356044689
2.30691244867044
0.3682998062072
1.06970750002758
1.87286039840566
0.759556035057253
1.23631665871766
4.4704923781923
0.743150174005839
0.537124492733222
0.839350507798381
2.63689188529479
