0.800637559533134
0.729437161817299
2.09660057516962
1.19059882630059
0.854217012465818
0.930847388873432
0.30149470791556
1.50492489904683
0.720934071509088
0.723241934947881
1.29488700752429
0.769071403423078
2.65329387455945
2.16079441953046
1.88941409541918
0.190910912549089
3.16057447602205
0.566023101876382
2.20766994124562
2.46763900740481
0.226029372802865
6.38165816049009
0.709042957967253
1.17100682779213
1.59541945992101
2.02019046892936
0.312221143211345
3.51172528979359
0.207292116719488
0.299780214648161
0.340391196721746
1.37291851923933
0.63752502363752
2.41584166684796
0.468007168702063
0.467753561950497
0.744733155061553
0.194782372392258
3.96852597838418
0.702602408383015
0.697383647649691
3.3455296074679
3.42014263023175
0.587539636584777
0.0970702839398671
0.213244082798487
0.712640044097373
0.848800753182912
0.603540084652087
0.760897568148918
