0.275848788281806
2.80693564642591
0.189406867355902
2.47017893348413
0.59194630842798
1.06352124126119
0.799840568780332
0.954748943292362
1.34328529093833
0.366905569434557
0.375440531782116
1.06610401478017
0.658465510948112
0.269418067588856
4.21015829646872
9.82066920268684
0.995761478967906
0.805545816438579
1.54652927679552
0.316574320442984
0.988832299824894
3.27758024179731
4.86053666909014
0.0805489318187915
2.22123715058688
0.326292659480317
0.581143721735297
1.10971168047087
4.96203021585601
1.03117427268424
0.520961055376484
0.606363503130054
0.956318603884106
4.46155835035774
0.18126869561547
0.216222303980749
0.894444678596636
1.57416877261424
1.86747363186929
5.42527685232253
8.14552976718402
2.93226258881003
1.63417859788345
2.97890698288807
1.42350417228237
3.03762685803638
0.322091681318232
0.899218567483413
0.588906877894613
1.04977195398645
