2.13436551952704
1.2843481193774
0.300554693160061
0.482446082483455
0.517914611715362
0.47659003981107
1.35423118899777
0.980784530425558
0.0759264604240593
2.05287919650259
5.34963591551651
0.434100942831728
2.13976184614691
1.5159999187164
9.71357424500606
0.494461927388786
0.65846883905082
0.445778382914936
0.936310100081924
0.925484027893407
0.729839478023115
2.20597122333896
1.0162982108655
0.258033794518756
1.02202449315612
6.90462077104831
0.998015013109978
0.312959819083761
0.485499358525902
0.656024245593621
0.483061349984375
1.81466727416044
5.32228936995489
0.187046959982171
4.36286942266929
0.764459951576542
0.754665517984176
1.0206149061104
0.903529094426426
0.13486013147655
0.836173167233287
0.0973202643657754
1.81540043325995
0.35721221026923
1.38211620807193
0.843261715707183
0.603305440333786
1.91531135780447
0.419959279965288
0.305283332923175
