-0.193493468897562 -0.341499013134443 -1.05703854479297 -0.598959457419506 0 0 0 0 0 0 0 0 0 0 0 0 0 0 0 0 0 0 0 0 0 0 0 0 0 0 0 0 0 0 0 0 0 0 0 0 0 0 0 0 0 0 0 0 0 0
0.0635096400363372 -0.193493468897562 0 -0.305801710690399 0 0 0 0 0 0 0 0 0 0 0 0 0 0 0 0 0 0 0 0 0 0 0 0 0 0 0 0 0 0 0 0 0 0 0 0 0 0 0 0 0 0 0 0 0 0
0.210196569850448 0 -0.193493468897562 0 0 0 0 0 0 0 0 0 0 0 0 -0.725359809673755 0 0 0 0 0 0 0 0 0 0 0 0 0 0 0 0 0 0 0 0 0 0 0 0 0 0 0 0 0 0 0 0 0 0
0.120587010565008 0.0578861223720544 0 -0.193493468897562 0 0 0 0 0 0 0 0 0 0 0 -0.163643378471353 0 0 0 0 0 0 0 0 0 0 0 0 0 0 0 0 0 0 0 0 0 0 0 0 0 0 0 0 0 0 0 0 0 -0.107093134115911
0 0 0 0 -0.193493468897562 0 0 -2.46096803423898 0 0 0 -3.36090988731403 0 0 0 0 0 -3.62244470988799 0 0 0 0 0 0 0 0 0 0 0 0 0 0 0 0 0 0 0 0 0 0 0 0 0 0 0 0 0 0 0 -1.73253931004947
0 0 0 0 0 -0.193493468897562 0 0 0 0 0 0 0 0 0 0 0 0 0 0 0 0 0 0 0 0 0 0 0 0 0 0 0 0 0 0 0 0 0 0 0 0 0 0 0 0 0 0 0 -1.38584109301256
0 0 0 0 0 0 -0.193493468897562 0 0 0 0 0 0 0 0 0 0 -1.35327936202038 -0.18112804721518 0 0 0 0 0 0 0 0 0 0 0 0 0 0 0 0 0 0 0 0 0 0 0 0 0 0 0 0 0 0 0
0 0 0 0 0.503781398011534 0 0 -0.193493468897562 0 0 -0.723298635669647 0 0 0 0 0 0 0 0 0 0 0 0 0 0 0 -2.5274002003315 0 0 0 -1.23855431289331 0 0 0 0 0 0 0 -2.24824693131221 0 0 0 0 0 0 0 0 0 0 -0.506306629682478
0 0 0 0 0 0 0 0 -0.193493468897562 0 0 0 0 0 0 0 0 -2.81473577911076 -6.5064484658976 0 0 0 0 0 -1.50568752790561 0 -2.00174110742142 0 0 0 0 0 0 0 0 0 0 0 -4.57470541811561 0 0 0 0 0 0 0 0 0 0 -1.17421356252571
0 0 0 0 0 0 0 0 0 -0.193493468897562 -2.33452285436178 0 0 0 0 0 0 0 0 -1.79119027901134 0 0 0 0 0 0 -0.66334649631568 0 0 0 0 0 0 0 0 0 0 0 0 0 0 0 0 0 0 0 0 0 0 -0.617321990186014
0 0 0 0 0 0 0 0.143933847242627 0 0.445889554244292 -0.193493468897562 0 0 0 0 0 0 0 0 -0.248882286778816 0 0 0 0 0 0 0 0 0 0 0 0 0 -1.38241807356759 0 0 0 0 -4.05724259923985 0 0 0 0 0 0 0 0 0 0 -1.00847020512659
0 0 0 0 0.617560305979872 0 0 0 0 0 0 -0.193493468897562 0 0 -0.738645546657709 0 0 0 0 0 0 0 -0.790994312962171 0 -6.30337294827678 0 0 0 0 0 0 0 0 0 0 0 0 0 0 0 0 0 0 0 0 0 -1.32579766573112 0 0 0
0 0 0 0 0 0 0 0 0 0 0 0 -0.193493468897562 0 0 0 0 0 0 -0.295811074271891 0 0 0 0 -2.04632652713851 0 0 0 0 0 0 0 0 0 0 0 0 0 -0.194817606438473 0 0 0 0 0 0 0 0 0 0 -0.882670969111501
0 0 0 0 0 0 0 0 0 0 0 0 0 -0.193493468897562 -2.16051468721447 0 0 0 0 -1.4052690506666 0 0 0 0 0 0 0 0 0 0 0 0 0 0 0 0 0 0 0 0 0 0 0 0 0 0 0 0 0 0
0 0 0 0 0 0 0 0 0 0 0 0.160822369540445 0 0.433296433342205 -0.193493468897562 0 0 0 0 -0.309102424863572 0 0 0 0 0 0 0 0 0 0 0 0 0 0 0 0 0 0 0 0 0 0 0 0 0 0 -0.232999326391904 0 0 0
0 0 0.153080410759911 0.0329050804526384 0 0 0 0 0 0 0 0 0 0 0 -0.193493468897562 0 0 0 0 0 0 -2.43829320531527 0 0 0 0 0 0 0 0 0 0 0 0 0 0 0 0 0 0 0 0 0 0 0 -0.577582709213943 0 0 0
0 0 0 0 0 0 0 0 0 0 0 0 0 0 0 0 -0.193493468897562 0 0 0 0 0 -1.85652079157243 0 0 0 0 0 0 0 0 0 0 0 0 0 0 0 -0.871521362463864 0 0 0 0 0 0 0 -0.517439220787513 0 0 0
0 0 0 0 0.678723319792012 0 0.260375578997578 0 0.573375773450036 0 0 0 0 0 0 0 0 -0.193493468897562 0 0 0 0 0 0 0 0 0 0 0 0 0 0 0 0 0 0 0 0 0 0 0 0 0 0 0 0 0 0 0 0
0 0 0 0 0 0 0.0367485656718313 0 1.42749467241979 0 0 0 0 0 0 0 0 0 -0.193493468897562 0 0 0 0 0 0 0 0 0 0 0 0 0 0 0 0 0 0 0 0 0 0 0 0 0 0 0 -0.85540290185586 0 0 0
0 0 0 0 0 0 0 0 0 0.34531994939074 0.0467659291016951 0 0.0616556788031897 0.253401168809192 0.0585328011373282 0 0 0 0 -0.193493468897562 0 0 -0.5814850201827 0 0 0 0 0 0 0 0 0 0 0 0 0 0 0 0 0 0 0 0 0 0 0 -0.667400089277678 0 0 0
0 0 0 0 0 0 0 0 0 0 0 0 0 0 0 0 0 0 0 0 -0.193493468897562 0 -0.256147039542895 0 0 0 0 0 -1.37389336798923 0 0 0 0 0 0 0 0 0 0 0 0 0 0 -2.9688329538503 0 0 0 0 0 0
0 0 0 0 0 0 0 0 0 0 0 0 0 0 0 0 0 0 0 0 0 -0.193493468897562 0 0 0 -0.289962952314078 0 -1.19558147632014 0 0 0 0 0 0 0 0 0 0 0 0 -0.156903986925057 0 0 0 0 0 0 0 0 0
0 0 0 0 0 0 0 0 0 0 0 0.159810843108493 0 0 0 0.503355374086098 0.33315525653525 0 0 0.111995843276372 0.044275091339431 0 -0.193493468897562 0 0 0 0 0 0 -0.10323080474077 0 0 0 0 -1.78565242394318 0 -0.580331848267687 0 0 0 -2.23619234002876 0 0 0 0 0 0 0 -0.699803231843309 0
0 0 0 0 0 0 0 0 0 0 0 0 0 0 0 0 0 0 0 0 0 0 0 -0.193493468897562 0 0 0 0 -1.10048651641381 -2.92457558789333 0 0 0 0 0 0 0 -0.364935516951148 0 0 0 0 0 0 0 0 0 0 0 0
0 0 0 0 0 0 0 0 0.303170340597498 0 0 1.22934790790065 0.411606994350144 0 0 0 0 0 0 0 0 0 0 0 -0.193493468897562 0 0 0 -0.314017695842368 -1.52179372962691 0 0 0 0 -0.485873142784493 0 0 -9.33407422794439 0 0 -0.591478913634348 0 0 -0.931260540869334 0 0 0 0 0 0
0 0 0 0 0 0 0 0 0 0 0 0 0 0 0 0 0 0 0 0 0 0.0559162059352984 0 0 0 -0.193493468897562 0 0 0 0 0 0 0 0 0 0 0 -0.719206512059682 0 0 -0.586059521025143 0 0 -0.387076347326256 0 0 0 0 0 0
0 0 0 0 0 0 0 0.519839267188358 0.39260306571901 0.130962194796858 0 0 0 0 0 0 0 0 0 0 0 0 0 0 0 0 -0.193493468897562 0 0 0 0 0 0 0 0 0 0 -1.11623042726639 0 0 -0.938294843963861 -2.48393557829489 0 -0.879293308235988 0 0 0 0 0 0
0 0 0 0 0 0 0 0 0 0 0 0 0 0 0 0 0 0 0 0 0 0.258540198323062 0 0 0 0 0 -0.193493468897562 0 0 0 -0.516386447364989 0 0 0 0 0 -0.847735000755255 0 0 -4.26020155699064 -4.49596108917796 0 0 0 0 0 0 -0.969749810645037 0
0 0 0 0 0 0 0 0 0 0 0 0 0 0 0 0 0 0 0 0 0.250978737756621 0 0 0.219816745970799 0.0673343704736048 0 0 0 -0.193493468897562 0 0 0 0 0 0 0 -2.47047011897344 0 0 0 -1.43721030295877 0 0 -0.837200970919042 0 0 0 0 -0.31989564641517 0
0 0 0 0 0 0 0 0 0 0 0 0 0 0 0 0 0 0 0 0 0 0 0.0220721296509019 0.592475091012727 0.308121862471484 0 0 0 0 -0.193493468897562 0 -0.849568756807458 0 0 0 0 0 -0.183450707915552 0 0 0 -0.408312570060152 0 0 0 0 0 0 -2.05105553482583 0
0 0 0 0 0 0 0 0.229723743710713 0 0 0 0 0 0 0 0 0 0 0 0 0 0 0 0 0 0 0 0 0 0 -0.193493468897562 -0.670254440606783 0 0 0 0 0 -0.369348245217182 0 0 0 -0.875464721380296 0 0 0 0 0 0 -2.32066617102551 0
0 0 0 0 0 0 0 0 0 0 0 0 0 0 0 0 0 0 0 0 0 0 0 0 0 0 0 0.102945507598883 0 0.174809851000349 0.129556045456342 -0.193493468897562 0 0 0 0 0 0 0 0 -2.53783716533826 -0.613670051914432 0 0 0 0 0 0 -0.930762082476996 0
0 0 0 0 0 0 0 0 0 0 0 0 0 0 0 0 0 0 0 0 0 0 0 0 0 0 0 0 0 0 0 0 -0.193493468897562 0 0 0 0 -0.682827595953819 0 0 0 -0.2618840131379 0 0 0 0 0 0 0 0
0 0 0 0 0 0 0 0 0 0 0.27278646530153 0 0 0 0 0 0 0 0 0 0 0 0 0 0 0 0 0 0 0 0 0 0 -0.193493468897562 0 0 0 0 0 0 0 0 0 0 0 0 0 0 0 0
0 0 0 0 0 0 0 0 0 0 0 0 0 0 0 0 0 0 0 0 0 0 0.382013583088824 0 0.0959313836930523 0 0 0 0 0 0 0 0 0 -0.193493468897562 -0.510937212042941 0 -4.11157764559455 0 -1.52568992149345 0 -0.854005576425578 0 0 0 0 0 0 -1.54276815727149 0
0 0 0 0 0 0 0 0 0 0 0 0 0 0 0 0 0 0 0 0 0 0 0 0 0 0 0 0 0 0 0 0 0 0 0.0961239788640003 -0.193493468897562 0 0 0 0 0 -0.303860005014032 0 0 0 0 0 -1.05698337361209 -0.912868224007972 0
0 0 0 0 0 0 0 0 0 0 0 0 0 0 0 0 0 0 0 0 0 0 0.103722025499555 0 0 0 0 0 0.47434356362956 0 0 0 0 0 0 0 -0.193493468897562 0 0 0 0 -0.526173652068091 0 0 0 0 0 0 -2.40723773135866 0
0 0 0 0 0 0 0 0 0 0 0 0 0 0 0 0 0 0 0 0 0 0 0 0.0725978746796949 1.8531745337216 0.146772356619552 0.223004913696952 0.159183812502966 0 0.0386608099484001 0.071150107100972 0 0.139396207477209 0 0.812556434944883 0 0 -0.193493468897562 0 0 0 0 0 0 0 0 0 -0.579959360867856 0 0
0 0 0 0 0 0 0 0.484106359361786 0.899056421609298 0 0.835879873828344 0 0.0403922924219163 0 0 0 0.176448616644681 0 0 0 0 0 0 0 0 0 0 0 0 0 0 0 0 0 0 0 0 0 -0.193493468897562 0 0 0 0 0 0 0 0 0 0 0
0 0 0 0 0 0 0 0 0 0 0 0 0 0 0 0 0 0 0 0 0 0 0 0 0 0 0 0 0 0 0 0 0 0 0.326014107820346 0 0 0 0 -0.193493468897562 0 0 0 0 -1.56404354373908 0 0 -0.772056551931113 0 0
0 0 0 0 0 0 0 0 0 0 0 0 0 0 0 0 0 0 0 0 0 0.0322453368252125 0.460643404555842 0 0.13476309903148 0.111501198422311 0.196727891712001 0.83404711497788 0.303309668557974 0 0 0.515390533910176 0 0 0 0 0 0 0 0 -0.193493468897562 0 0 0 0 0 0 0 0 0
0 0 0 0 0 0 0 0 0 0 0 0 0 0 0 0 0 0 0 0 0 0 0 0 0 0 0.522166632941902 0.857420136194734 0 0.0814742053232027 0.176557608065264 0.126289152165352 0.0607511762668041 0 0.174348330185732 0.0637289464215259 0.102058939102286 0 0 0 0 -0.193493468897562 0 0 -8.08788060332445 -1.62961017713 0 0 0 0
0 0 0 0 0 0 0 0 0 0 0 0 0 0 0 0 0 0 0 0 0 0 0 0 0 0 0 0 0 0 0 0 0 0 0 0 0 0 0 0 0 0 -0.193493468897562 0 -0.438957934012282 0 0 0 0 0
0 0 0 0 0 0 0 0 0 0 0 0 0 0 0 0 0 0 0 0 0.603904745463732 0 0 0 0.190039754752987 0.0797358118896088 0.153293207897424 0 0.173286234490721 0 0 0 0 0 0 0 0 0 0 0 0 0 0 -0.193493468897562 -0.397810743084185 0 0 0 0 0
0 0 0 0 0 0 0 0 0 0 0 0 0 0 0 0 0 0 0 0 0 0 0 0 0 0 0 0 0 0 0 0 0 0 0 0 0 0 0 0.313944003111559 0 1.52425639404899 0.0886096962678935 0.0766611528222223 -0.193493468897562 0 0 -0.819552186670501 0 0
0 0 0 0 0 0 0 0 0 0 0 0 0 0 0 0 0 0 0 0 0 0 0 0 0 0 0 0 0 0 0 0 0 0 0 0 0 0 0 0 0 0.334219669517651 0 0 0 -0.193493468897562 0 0 0 0
0 0 0 0 0 0 0 0 0 0 0 0.279279860003868 0 0 0.0485645537937852 0.114060583820109 0.111724572932553 0 0.175075266781454 0.142957869506867 0 0 0 0 0 0 0 0 0 0 0 0 0 0 0 0 0 0 0 0 0 0 0 0 0 0 -0.193493468897562 -1.57536409525704 0 0
0 0 0 0 0 0 0 0 0 0 0 0 0 0 0 0 0 0 0 0 0 0 0 0 0 0 0 0 0 0 0 0 0 0 0 0.193360869516621 0 0.111591569122656 0 0.158727468694217 0 0 0 0 0.160973009972832 0 0.323493519512943 -0.193493468897562 0 0
0 0 0 0 0 0 0 0 0 0 0 0 0 0 0 0 0 0 0 0 0 0 0.136260141190582 0 0 0 0 0.198567796559956 0.0629165736585156 0.414244910544424 0.43605106046396 0.18817473866049 0 0 0.32691996841949 0.184848577851559 0.496161320848758 0 0 0 0 0 0 0 0 0 0 0 -0.193493468897562 0
0 0 0 0.0223599436152843 0.325830864822777 0.27421505195229 0 0.109037676941314 0.250868040878678 0.127730233185934 0.211610044167458 0 0.177916891241373 0 0 0 0 0 0 0 0 0 0 0 0 0 0 0 0 0 0 0 0 0 0 0 0 0 0 0 0 0 0 0 0 0 0 0 0 -0.193493468897562
