-0.132768951138279 0 0 0 0 0 -1.13293554237551 0 0 0 0 0 0 0 0 0 0 0 0 0 -0.274680834327695 0 -1.98122271547015 0 0 0 0 0 0 0 0 0 0 0 0 0 0 0 0 0 0 0 0 0 0 0 0 0 0 0
0 -0.132768951138279 0 0 0 0 0 0 0 0 0 0 0 0 0 0 0 0 0 0 0 0 -3.21796094520739 0 0 0 0 0 0 0 0 0 0 0 0 0 0 0 0 0 0 0 0 0 0 0 0 0 0 0
0 0 -0.132768951138279 0 0 0 0 0 0 0 0 0 0 0 0 0 0 0 -4.13513243131847 0 -0.540676243501431 0 0 0 0 0 0 0 0 0 0 0 0 0 0 0 0 0 0 0 0 0 0 0 0 0 0 0 0 0
0 0 0 -0.132768951138279 0 0 0 0 0 0 0 -0.959995437732165 0 -1.04212331425378 0 0 0 0 0 0 0 0 0 0 0 0 0 0 0 0 0 0 0 0 0 0 0 -0.259968422179385 0 0 0 0 0 0 0 0 0 0 0 0
0 0 0 0 -0.132768951138279 0 0 0 0 0 0 0 0 0 0 -1.19522428106681 0 0 0 0 -3.40938313005966 0 0 -0.850317159605345 0 0 0 -1.60180311588992 0 -0.733654508432876 0 0 0 0 0 0 0 0 0 0 0 0 0 0 0 0 0 0 0 0
0 0 0 0 0 -0.132768951138279 0 0 0 0 0 0 0 0 0 -1.16714344020042 0 0 0 0 -2.01385371272058 0 0 -0.174481832879634 0 0 0 -0.845921794826223 0 -2.35266584915976 0 0 0 -1.98464658050069 0 0 0 0 0 0 0 0 0 0 0 0 0 0 0 0
0.239373770742091 0 0 0 0 0 -0.132768951138279 -0.593320367958074 0 0 0 -0.501584343797558 0 0 0 0 0 0 0 0 -2.10580904251483 0 0 0 0 0 0 -3.78241308222052 0 0 0 0 0 0 0 0 0 -3.00280476264214 0 0 0 0 0 0 0 0 0 0 0 0
0 0 0 0 0 0 0.120584075309577 -0.132768951138279 0 0 0 0 0 0 0 0 0 0 0 0 0 0 0 0 0 0 0 0 -11.4112335179796 -0.799438722144322 0 0 0 -11.3601274924063 0 0 0 0 0 0 0 0 0 -0.393975314059416 0 0 0 0 0 0
0 0 0 0 0 0 0 0 -0.132768951138279 0 0 0 0 0 0 -0.664353364728802 0 0 0 0 -4.30390584360081 0 0 0 0 0 0 0 -1.66824190474936 0 0 0 0 -1.71749094034049 0 0 0 0 0 0 0 0 0 -0.223753334992575 0 0 0 0 0 0
0 0 0 0 0 0 0 0 0 -0.132768951138279 0 0 0 0 0 -0.189771830883784 0 0 0 0 -0.13182141306833 0 0 0 0 0 0 0 -0.989649261555466 -8.94830783925746 0 0 0 -1.44847837180126 0 0 0 0 0 0 0 0 0 0 0 0 -0.203934019224451 0 0 0
0 0 0 0 0 0 0 0 0 0 -0.132768951138279 0 0 0 0 0 0 0 0 0 0 0 0 0 0 0 0 0 0 -0.916177725796215 0 0 0 -0.227675143201585 0 0 0 0 0 0 0 0 0 -3.00364684401914 0 0 -0.924895103422159 0 0 0
0 0 0 0.183873964501655 0 0 0.0997574542034608 0 0 0 0 -0.132768951138279 0 0 0 0 0 0 0 0 -0.3363591801731 0 0 0 0 0 0 0 0 -1.23676284673429 0 0 0 -0.143983235221001 0 0 0 0 0 0 0 0 0 -2.53362507811981 0 0 -0.723184326556373 0 0 0
0 0 0 0 0 0 0 0 0 0 0 0 -0.132768951138279 0 0 0 0 0 0 0 -0.754326739169879 0 0 0 0 0 0 0 0 0 0 0 0 -0.602003623577763 0 0 0 0 0 0 0 0 0 0 0 0 0 0 0 0
0 0 0 0.220664972348181 0 0 0 0 0 0 0 0 0 -0.132768951138279 -1.36807689290743 -2.2482647032876 0 0 0 0 0 0 0 0 0 0 0 0 0 0 0 0 0 -1.353777141184 0 0 0 0 0 0 0 0 0 -0.323497956057414 0 0 0 0 0 0
0 0 0 0 0 0 0 0 0 0 0 0 0 0.282287621024315 -0.132768951138279 -0.365750429503113 0 0 0 0 0 0 0 0 0 0 0 0 0 0 0 0 0 0 0 0 0 0 0 0 0 0 0 0 0 0 0 0 0 0
0 0 0 0 0.240239162243897 0.258632594137666 0 0 0.12410374136527 0.04097627434853 0 0 0 0.454933358698297 0.0714628700154809 -0.132768951138279 0 0 0 0 0 0 0 0 0 0 0 0 0 0 0 -1.56735588718056 0 0 0 0 0 0 0 0 0 -1.1496941787459 0 -1.29892573914581 0 0 0 0 0 0
0 0 0 0 0 0 0 0 0 0 0 0 0 0 0 0 -0.132768951138279 0 0 0 0 0 0 0 0 -0.1525101534962 0 0 0 0 0 0 0 0 0 0 0 0 0 0 0 0 0 -1.00157671032851 0 0 0 0 0 0
0 0 0 0 0 0 0 0 0 0 0 0 0 0 0 0 0 -0.132768951138279 0 0 0 0 0 0 0 0 0 0 0 0 0 0 0 0 0 0 0 0 -2.65230319631081 0 0 -0.289836457332133 0 0 0 0 0 0 0 0
0 0 0.816498518779616 0 0 0 0 0 0 0 0 0 0 0 0 0 0 0 -0.132768951138279 0 0 0 0 0 0 -0.8254073113407 0 0 0 0 0 -0.363661354080656 0 0 0 -0.824990193301113 0 0 0 0 0 0 0 0 0 -0.887424275764708 0 0 0 0
0 0 0 0 0 0 0 0 0 0 0 0 0 0 0 0 0 0 0 -0.132768951138279 0 0 0 0 0 0 0 0 0 0 0 0 0 0 0 -0.603719200532079 0 0 0 0 0 -0.172955358628078 0 -0.555199637316764 0 -0.366809062726623 0 0 0 0
0.0590086797441027 0 0.106338204247827 0 0.720227412735277 0.410565559120096 0.406490864354403 0 0.947281548198531 0.0277945913129648 0 0.0675914123685777 0.155875675828051 0 0 0 0 0 0 0 -0.132768951138279 0 0 0 0 -0.680427990088301 0 0 0 0 0 0 0 0 0 0 0 0 0 0 0 0 0 0 0 -0.347244153658112 0 0 0 0
0 0 0 0 0 0 0 0 0 0 0 0 0 0 0 0 0 0 0 0 0 -0.132768951138279 0 0 0 -2.16807279892147 0 0 0 0 0 -1.43160259007031 0 0 0 -1.84250048609342 0 0 0 0 0 -1.01351616183155 0 0 0 0 0 0 0 0
0.406960855069485 0.594081624660931 0 0 0 0 0 0 0 0 0 0 0 0 0 0 0 0 0 0 0 0 -0.132768951138279 0 0 -1.50336302487765 0 0 0 0 -1.59393693125336 0 0 0 0 0 0 0 0 -0.917821852506286 0 -0.686599154311309 0 0 0 0 0 0 0 0
0 0 0 0 0.173338612439926 0.034538412848559 0 0 0 0 0 0 0 0 0 0 0 0 0 0 0 0 0 -0.132768951138279 0 -0.233954183484636 0 0 0 0 -0.792180885003785 0 0 0 0 0 0 0 0 -1.52036803464763 0 -0.376796944488927 0 0 0 0 0 0 0 0
0 0 0 0 0 0 0 0 0 0 0 0 0 0 0 0 0 0 0 0 0 0 0 0 -0.132768951138279 -0.906209027578907 0 0 0 0 0 -0.79898017138906 0 0 0 0 0 0 0 -1.67266844167199 0 -0.442126068214459 0 0 -2.14610073349402 0 0 0 0 0
0 0 0 0 0 0 0 0 0 0 0 0 0 0 0 0 0.0307126636223173 0 0.155136298697688 0 0.130234884809085 0.424834686695519 0.305622223054073 0.0448183993927825 0.185494714265673 -0.132768951138279 0.0939590657378963 0.507369282307659 0.17518494452861 0 0 -2.59619866135774 0 0 0 0 -7.70364968093186 0 0 -0.935028832501404 0 -0.272591528813818 0 0 -1.04882122669239 0 0 0 0 0
0 0 0 0 0 0 0 0 0 0 0 0 0 0 0 0 0 0 0 0 0 0 0 0 0 -0.494545768276073 -0.132768951138279 0 0 0 -8.21808655748372 -0.541663133012372 0 0 0 0 -1.4211049698307 0 0 -3.23525106196781 0 0 0 0 -0.23673589253789 0 0 0 0 0
0 0 0 0 0.33721934851566 0.148939196677268 0.76250552266736 0 0 0 0 0 0 0 0 0 0 0 0 0 0 0 0 0 0 -2.53632214939471 0 -0.132768951138279 0 0 0 -4.92125657059207 0 0 0 0 -2.11671226964947 0 0 -0.378843974811032 0 0 0 0 -0.337257636020282 0 0 0 0 0
0 0 0 0 0 0 0 2.34471296776463 0.342152889964065 0.189620515008776 0 0 0 0 0 0 0 0 0 0 0 0 0 0 0 -0.892018274611939 0 0 -0.132768951138279 0 0 0 0 0 0 0 -1.79953522022554 0 0 0 0 -1.11850761397561 0 0 0 0 0 0 0 0
0 0 0 0 0.142124426361138 0.454572435983985 0 0.151594162484995 0 1.63098764842061 0.179972469703412 0.236860274553962 0 0 0 0 0 0 0 0 0 0 0 0 0 0 0 0 0 -0.132768951138279 0 0 0 0 0 0 0 0 0 0 0 -0.165133513143601 0 0 0 0 0 0 -1.58209517746622 0
0 0 0 0 0 0 0 0 0 0 0 0 0 0 0 0 0 0 0 0 0 0 0.327192490675259 0.148328192987525 0 0 1.53663362398342 0 0 0 -0.132768951138279 0 0 0 0 0 0 0 0 0 0 -0.768121527423239 0 0 0 0 0 0 -3.12392065690824 0
0 0 0 0 0 0 0 0 0 0 0 0 0 0 0 0.318860701560063 0 0 0.0728244012395654 0 0 0.283107508100334 0 0 0.168464011032058 0.546958136949854 0.103695752118023 1.01427077989485 0 0 0 -0.132768951138279 0 0 0 0 -0.719059401486056 0 0 0 0 0 0 0 0 0 0 0 -2.11625957791514 0
0 0 0 0 0 0 0 0 0 0 0 0 0 0 0 0 0 0 0 0 0 0 0 0 0 0 0 0 0 0 0 0 -0.132768951138279 0 0 0 -2.78894953640244 0 0 0 0 -3.1587652530594 0 0 0 0 0 0 -0.257779453777795 0
0 0 0 0 0 0.393206813471984 0 2.34395968355349 0.33650847497136 0.307897054627759 0.0437056309991014 0.0272459987262503 0.121342118604411 0.288790282791352 0 0 0 0 0 0 0 0 0 0 0 0 0 0 0 0 0 0 0 -0.132768951138279 0 0 0 0 0 0 0 0 0 0 0 0 0 -0.951872407017583 0 0
0 0 0 0 0 0 0 0 0 0 0 0 0 0 0 0 0 0 0 0 0 0 0 0 0 0 0 0 0 0 0 0 0 0 -0.132768951138279 0 0 0 0 0 0 0 0 0 0 0 0 0 -0.246805843367938 0
0 0 0 0 0 0 0 0 0 0 0 0 0 0 0 0 0 0 0.163319143246458 0.124495312468444 0 0.374606593432521 0 0 0 0 0 0 0 0 0 0 0 0 0 -0.132768951138279 0 0 0 0 0 0 0 0 0 0 0 -2.71278755220908 0 -0.622856854208095
0 0 0 0 0 0 0 0 0 0 0 0 0 0 0 0 0 0 0 0 0 0 0 0 0 1.60438073818337 0.29979465827233 0.405880000351945 0.37571884407711 0 0 0.132156582204539 0.523734150119862 0 0 0 -0.132768951138279 0 0 0 0 0 0 0 0 0 0 -8.55063907257591 0 0
0 0 0 0.0514037313210818 0 0 0.609633037090284 0 0 0 0 0 0 0 0 0 0 0 0 0 0 0 0 0 0 0 0 0 0 0 0 0 0 0 0 0 0 -0.132768951138279 0 0 0 0 0 0 0 0 0 -0.373341487602542 0 0
0 0 0 0 0 0 0 0 0 0 0 0 0 0 0 0 0 0.542131114736145 0 0 0 0 0 0 0 0 0 0 0 0 0 0 0 0 0 0 0 0 -0.132768951138279 0 0 0 0 0 0 0 0 0 -1.73626056510035 0
0 0 0 0 0 0 0 0 0 0 0 0 0 0 0 0 0 0 0 0 0 0 0.178613677910313 0.27958313817465 0.325337540729098 0.179550955809163 0.612877118848009 0.0806493445856888 0 0 0 0 0 0 0 0 0 0 0 -0.132768951138279 0 0 0 0 0 0 0 -0.981456976448427 0 0
0 0 0 0 0 0 0 0 0 0 0 0 0 0 0 0 0 0 0 0 0 0 0 0 0 0 0 0 0 0 0 0 0 0 0 0 0 0 0 0 -0.132768951138279 0 0 0 0 0 0 -2.57394230198342 -0.960307695038868 0
0 0 0 0 0 0 0 0 0 0 0 0 0 0 0 0.236354349807087 0 0.0567437558615091 0 0.0337407387501938 0 0.196116757499862 0.140248964084542 0.0717138104825956 0.0860468400080967 0.0577194965579315 0 0 0.210817481307794 0.0322955204147217 0.158413911654972 0 0.634562447510227 0 0 0 0 0 0 0 0 -0.132768951138279 0 0 0 0 0 -0.192806566027913 0 0
0 0 0 0 0 0 0 0 0 0 0 0 0 0 0 0 0 0 0 0 0 0 0 0 0 0 0 0 0 0 0 0 0 0 0 0 0 0 0 0 0 0 -0.132768951138279 0 0 0 0 -1.05351001509422 -0.81076762438811 0
0 0 0 0 0 0 0 0.078646892664914 0.0464260063337989 0 0.577674027335972 0.516037320046733 0 0.0649188025781777 0 0.264670636437984 0.203059418211664 0 0 0.105689354159418 0 0 0 0 0 0 0 0 0 0 0 0 0 0 0 0 0 0 0 0 0 0 0 -0.132768951138279 0 0 0 -1.43395572722998 0 0
0 0 0 0 0 0 0 0 0 0 0 0 0 0 0 0 0 0 0 0 0 0 0 0 0.431907532338769 0.210218065127195 0.047821565272988 0.0670806958109623 0 0 0 0 0 0 0 0 0 0 0 0 0 0 0 0 -0.132768951138279 0 0 -0.367476848596809 0 0
0 0 0 0 0 0 0 0 0 0 0 0 0 0 0 0 0 0 0.17608698611835 0.0721004590560128 0.0666245698608467 0 0 0 0 0 0 0 0 0 0 0 0 0 0 0 0 0 0 0 0 0 0 0 0 -0.132768951138279 0 -1.05592232122767 0 0
0 0 0 0 0 0 0 0 0 0.0454323230777344 0.180744547108874 0.152069842995717 0 0 0 0 0 0 0 0 0 0 0 0 0 0 0 0 0 0 0 0 0 0 0 0 0 0 0 0 0 0 0 0 0 0 -0.132768951138279 0 0 0
0 0 0 0 0 0 0 0 0 0 0 0 0 0 0 0 0 0 0 0 0 0 0 0 0 0 0 0 0 0 0 0 0 0.208739413312752 0 0.566228475161379 1.81610108894769 0.0760621292184117 0 0.194691042476781 0.513735521109473 0.0374440928664418 0.224896324466188 0.299550988408015 0.0747370343632531 0.218048171138777 0 -0.132768951138279 -1.56396500141492 0
0 0 0 0 0 0 0 0 0 0 0 0 0 0 0 0 0 0 0 0 0 0 0 0 0 0 0 0 0 0.340434155137743 0.605714669305702 0.459917531842817 0.0481899747786572 0 0.0520744782292229 0 0 0 0.355323319277457 0 0.188353337545528 0 0.154571711966263 0 0 0 0 0.296267387668179 -0.132768951138279 0.710330385207779
0 0 0 0 0 0 0 0 0 0 0 0 0 0 0 0 0 0 0 0 0 0 0 0 0 0 0 0 0 0 0 0 0 0 0 0.128454930394741 0 0 0 0 0 0 0 0 0 0 0 0 -3.2997099728412 -0.132768951138279
