-0.211161959286776 0 0 0 0 0 0 0 0 0 0 0 0 0 0 0 0 0 0 0 0 0 0 0 0 0 0 0 0 0 0 0 0 0 0 0 -1.32382056093109 0 0 0 0 0 0 0 0 0 0 0 0 0
0 -0.211161959286776 0 0 0 0 0 0 0 0 0 0 0 0 0 0 0 0 0 0 0 0 0 0 0 0 0 0 0 0 0 0 0 0 0 0 -1.19257786495146 0 0 0 0 0 0 0 0 0 0 0 0 0
0 0 -0.211161959286776 0 0 0 0 0 0 0 0 0 0 0 0 0 0 0 0 0 0 0 0 0 0 0 0 0 -0.63371161289388 0 0 0 0 0 0 0 -1.64176348796409 0 0 0 0 0 0 0 0 0 0 0 0 0
0 0 0 -0.211161959286776 0 0 -1.41447971868175 -3.78872046929868 0 0 0 0 -0.334738808962461 0 -0.417936768280729 0 0 0 0 0 0 0 0 0 0 -0.467541050460542 0 0 -0.456633863046611 0 0 0 0 0 0 0 0 0 0 0 0 0 -0.141518997685883 0 0 0 0 0 0 0
0 0 0 0 -0.211161959286776 0 0 0 0 -0.874629752478934 0 0 0 0 -1.55146468357006 -12.0719278777687 0 0 0 0 0 0 0 0 0 -2.07366418340391 0 0 0 0 0 0 0 0 0 0 0 0 0 0 0 0 -0.542205543724798 0 0 0 0 0 0 0
0 0 0 0 0 -0.211161959286776 0 0 -2.16025380387191 0 0 0 0 0 0 0 0 0 0 0 0 0 0 0 0 -0.65432242633356 0 0 0 0 0 0 0 0 0 0 -5.13097703029416 0 0 0 0 0 0 0 0 0 0 0 0 0
0 0 0 0.244230585096208 0 0 -0.211161959286776 0 0 0 0 0 0 0 0 0 0 0 0 0 0 0 0 0 0 0 0 0 0 0 0 0 0 0 0 0 0 0 0 0 0 0 0 0 0 0 0 0 0 0
0 0 0 0.851821409320065 0 0 0 -0.211161959286776 0 0 0 0 0 0 0 0 0 -0.221319377380061 0 0 0 0 0 0 0 -0.65124604375729 0 0 0 0 0 0 0 0 0 0 0 0 0 0 0 0 -0.67805889619234 0 0 0 0 0 0 0
0 0 0 0 0 0.425992975940758 0 0 -0.211161959286776 0 0 0 0 0 0 0 -2.37993554498833 -0.135369304126325 0 0 0 0 0 0 0 0 0 0 0 0 0 0 0 0 0 0 0 0 0 0 0 0 -2.40013362619866 0 0 -1.15854805291676 0 0 0 0
0 0 0 0 0.167910509034421 0 0 0 0 -0.211161959286776 0 0 0 0 0 0 0 -1.07750469866392 0 0 0 0 0 0 0 -0.324451722752338 0 0 0 0 0 0 0 0 0 0 0 0 0 0 0 0 -0.854493936482081 0 0 -1.38135087992402 0 0 0 0
0 0 0 0 0 0 0 0 0 0 -0.211161959286776 0 0 0 0 0 -0.712428859941891 0 0 0 0 0 0 0 0 0 0 0 0 0 0 0 0 0 0 0 0 0 0 0 0 0 -0.200380452584793 0 0 0 0 0 0 0
0 0 0 0 0 0 0 0 0 0 0 -0.211161959286776 0 0 0 0 0 -0.185944058623415 0 0 0 -0.61998855477732 0 0 0 0 0 0 0 0 0 0 0 0 0 0 0 0 0 0 0 0 0 0 0 -1.92949754757381 0 0 0 0
0 0 0 0.0690225781617958 0 0 0 0 0 0 0 0 -0.211161959286776 0 0 0 0 -0.244788086898308 0 0 0 0 0 0 0 0 0 0 0 0 0 0 0 0 0 0 0 0 0 0 0 0 0 0 0 0 0 0 0 0
0 0 0 0 0 0 0 0 0 0 0 0 0 -0.211161959286776 0 0 0 -2.16252404582512 0 0 0 0 0 0 0 0 0 0 0 0 -4.48985447749881 0 0 0 0 0 0 0 0 0 0 0 0 0 0 -4.46861273900921 0 0 0 0
0 0 0 0.0883860664733235 0.291580483785615 0 0 0 0 0 0 0 0 0 -0.211161959286776 0 0 0 0 0 0 0 0 0 0 0 0 0 0 0 -0.557315846590766 0 0 0 0 0 0 0 0 0 0 0 -0.229486020913228 0 0 0 0 0 0 -0.279189166800274
0 0 0 0 2.50357322936156 0 0 0 0 0 0 0 0 0 0 -0.211161959286776 0 -3.4471161831963 0 0 0 0 0 0 0 0 0 0 0 0 -0.77439837012893 0 -0.386909847167006 0 0 0 0 -1.52802180070051 0 0 0 0 -2.45288059344677 0 0 -4.71661455865469 0 0 0 -0.35521285099816
0 0 0 0 0 0 0 0 0.482820312179971 0 0.153965933290084 0 0 0 0 0 -0.211161959286776 0 0 0 0 0 0 0 0 0 0 0 0 0 0 0 0 0 0 0 0 -0.653335482328393 0 0 0 0 -0.14178504093449 0 0 0 0 0 0 -1.76666655899856
0 0 0 0 0 0 0 0.0415299369673411 0.0251583850023811 0.21472004715541 0 0.0376787362749766 0.0475472119211298 0.478549994387556 0 0.706463883366162 0 -0.211161959286776 0 0 0 0 0 0 0 0 0 -0.615958737948994 0 0 -0.218689644168854 0 0 0 0 0 0 0 0 0 0 0 0 0 0 0 0 0 0 0
0 0 0 0 0 0 0 0 0 0 0 0 0 0 0 0 0 0 -0.211161959286776 -0.951119797036265 0 0 -0.255881995721182 0 0 0 0 0 0 0 0 0 -2.66698898037077 0 0 0 0 -1.6042632872775 0 0 0 0 0 0 0 0 0 0 0 0
0 0 0 0 0 0 0 0 0 0 0 0 0 0 0 0 0 0 0.194627738639386 -0.211161959286776 0 0 0 0 0 0 0 0 0 0 -0.177647071830692 0 -0.188024977013525 -1.06120630789905 0 0 0 0 0 -0.650028832669915 0 0 0 0 0 0 0 0 -2.87492439866541 0
0 0 0 0 0 0 0 0 0 0 0 0 0 0 0 0 0 0 0 0 -0.211161959286776 0 0 0 -1.26556302100567 0 -1.09103597079992 0 0 0 0 0 0 0 0 0 0 0 0 0 0 0 0 -3.06983972862336 0 0 0 0 -0.878411676863054 0
0 0 0 0 0 0 0 0 0 0 0 0.125417360296725 0 0 0 0 0 0 0 0 0 -0.211161959286776 0 -0.588251787348598 -1.23364381400669 0 -0.338259490580496 0 0 0 0 0 -0.408189105166881 0 0 0 0 -6.26906278387647 0 -0.958709043967191 0 0 0 0 0 0 0 0 0 0
0 0 0 0 0 0 0 0 0 0 0 0 0 0 0 0 0 0 0.0493905419016594 0 0 0 -0.211161959286776 0 0 0 0 0 0 0 0 0 0 -2.41143155232237 0 0 0 -1.2636406955891 0 -0.543949493127966 0 0 0 0 0 0 0 0 0 0
0 0 0 0 0 0 0 0 0 0 0 0 0 0 0 0 0 0 0 0 0 0.117714282321441 0 -0.211161959286776 -0.527178362386056 0 0 0 0 0 0 0 -1.59352589043982 0 0 0 0 0 0 -0.219135808265903 -1.52918115098781 0 0 0 0 0 0 0 0 0
0 0 0 0 0 0 0 0 0 0 0 0 0 0 0 0 0 0 0 0 0.244419837287623 0.277822602301574 0 0.110776871705962 -0.211161959286776 0.588492603105873 -1.81696014631113 0 0 0 0 0 -1.12957824665375 0 0 0 0 0 0 0 0 0 0 -1.0980739720774 0 0 0 0 0 0
0 0 0 0.0905708299280776 0.407211901029165 0.141915179431797 0 0.125628967136803 0 0.0674874276891298 0 0 0 0 0 0 0 0 0 0 0 0 0 0 -2.93513573137557 -0.211161959286776 0 0 0 0 0 0 0 -1.05120393550802 0 0 0 -0.503933374684354 0 0 0 0 0 -0.649971852500681 0 0 0 0 0 0
0 0 0 0 0 0 0 0 0 0 0 0 0 0 0 0 0 0 0 0 0.205244859698748 0.0723859663160418 0 0 0.322436341704112 0 -0.211161959286776 0 0 0 0 0 0 0 0 0 0 -4.17015537535832 0 0 -2.61151774881575 0 0 0 0 0 0 0 0 0
0 0 0 0 0 0 0 0 0 0 0 0 0 0 0 0 0 0.12036518393668 0 0 0 0 0 0 0 0 0 -0.211161959286776 0 0 0 0 -0.584345284129215 0 0 0 0 -2.80040035690002 0 0 -1.34164794528562 0 0 0 0 0 0 0 0 0
0 0 0.133947108405198 0.0857552071868458 0 0 0 0 0 0 0 0 0 0 0 0 0 0 0 0 0 0 0 0 0 0 0 0 -0.211161959286776 -1.37282974001696 0 0 0 -0.238603115149334 -12.0868044934671 0 0 -0.600461963856487 0 0 -1.58271009399998 0 0 0 0 0 0 0 0 0
0 0 0 0 0 0 0 0 0 0 0 0 0 0 0 0 0 0 0 0 0 0 0 0 0 0 0 0 0.293289510980553 -0.211161959286776 0.0171067304391213 0 0 -0.329359493800706 0.244881847467386 0 0 0 0 0 0 -1.87659526643737 0 -5.39728686680305 0 0 -2.02580666064231 0 0 0
0 0 0 0 0 0 0 0 0 0 0 0 0 1.01379397074357 0.107373888193546 0.156078821747047 0 0.0385905353168614 0 0.0388135274125393 0 0 0 0 0 0 0 0 0 -0.0855689385740849 -0.211161959286776 0 0 -4.04618939224975 -0.443770492412317 0 0 0 0 0 -4.91874452028497 -0.775730197521957 0 -0.259525099696369 0 0 0 0 0 0
0 0 0 0 0 0 0 0 0 0 0 0 0 0 0 0 0 0 0 0 0 0 0 0 0 0 0 0 0 0 0 -0.211161959286776 0 -2.40446271353016 0 0 0 0 0 0 -0.340177521196402 -1.19145638750903 0 -0.845838230132297 0 0 0 0 0 0
0 0 0 0 0 0 0 0 0 0 0 0 0 0 0 0.0734312458387692 0 0 0.572906659902387 0.0376203820672391 0 0.0785439091510602 0 0.275692137854827 0.216670665744723 0 0 0.122459535843505 0 0 0 0 -0.211161959286776 -0.961951451073707 0 0 0 -1.58602205916518 0 0 -1.10756192247384 0 0 -1.05359714615143 0 0 0 0 0 0
0 0 0 0 0 0 0 0 0 0 0 0 0 0 0 0 0 0 0 0.210193203029279 0 0 0.455261810363284 0 0 0.21223450240434 0 0 0.0508314124807411 0.0723681020428105 0.805343315030711 0.465804910643677 0.189822805286541 -0.211161959286776 0 -1.21295261472011 0 0 0 0 0 -0.660834375543907 0 0 0 0 -0.831514562000975 0 0 0
0 0 0 0 0 0 0 0 0 0 0 0 0 0 0 0 0 0 0 0 0 0 0 0 0 0 0 0 2.37979358844285 -1.1983086313325 0.0936340385825329 0 0 0 -0.211161959286776 0 0 -0.707766214502255 0 0 0 -1.16273499953037 0 0 0 0 0 0 0 0
0 0 0 0 0 0 0 0 0 0 0 0 0 0 0 0 0 0 0 0 0 0 0 0 0 0 0 0 0 0 0 0 0 0.233656895103164 0 -0.211161959286776 0.14792508852416 -1.542183041503 0 0 0 0 0 0 0 0 0 0 0 0
0.280327705224688 0.229976935969557 0.317993763567139 0 0 1.09263306066351 0 0 0 0 0 0 0 0 0 0 0 0 0 0 0 0 0 0 0 0 0 0 0 0 0 0 0 0 0 -0.765575381858035 -0.211161959286776 0 0 0 0 0 0 -4.16603281242731 0 0 0 0 0 0
0 0 0 0 0 0 0 0 0 0 0 0 0 0 0 0.333273141502407 0.137662668871222 0 0.33171277110895 0 0 1.290967867611 0.238186479685323 0 0 0.104989653544256 0.816051044714382 0.483871251954361 0.107688492591374 0 0 0 0.350641535177144 0 0.131844474309472 0.29717622412101 0 -0.211161959286776 0 0 0 0 0 -0.251135400827063 0 0 0 0 0 0
0 0 0 0 0 0 0 0 0 0 0 0 0 0 0 0 0 0 0 0 0 0 0 0 0 0 0 0 0 0 0 0 0 0 0 0 0 0 -0.211161959286776 0 0 -1.63126741290485 0 -4.79899988514204 0 0 0 0 0 0
0 0 0 0 0 0 0 0 0 0 0 0 0 0 0 0 0 0 0 0.126850318101577 0 0.186242310817912 0.10676669895001 0.0477145871505951 0 0 0 0 0 0 0 0 0 0 0 0 0 0 0 -0.211161959286776 0 -0.916524871189224 0 -0.686816091311025 0 0 0 0 0 0
0 0 0 0 0 0 0 0 0 0 0 0 0 0 0 0 0 0 0 0 0 0 0 0.319643280790869 0 0 0.509184903569692 0.304066985340052 0.299397975269918 0 0.983630110558634 0.0696873512250342 0.210152334140775 0 0 0 0 0 0 0 -0.211161959286776 0 0 -4.328687833029 0 0 0 0 0 0
0 0 0 0 0 0 0 0 0 0 0 0 0 0 0 0 0 0 0 0 0 0 0 0 0 0 0 0 0 0.328495815674276 0.140107356186845 0.261106948317229 0 0.140874025663278 0.235835854868576 0 0 0 0.325464541746975 0.186654873004874 0 -0.211161959286776 0 0 0 0 0 0 0 0
0 0 0 0.0304687331399134 0.111893462927978 0 0 0.128957944767576 0.485815083498875 0.175078755040712 0.0396198881853179 0 0 0 0.0463049289360208 0.497186476058772 0.0281498074555233 0 0 0 0 0 0 0 0 0 0 0 0 0 0 0 0 0 0 0 0 0 0 0 0 0 -0.211161959286776 -0.468505974138126 0 0 0 0 0 0
0 0 0 0 0 0 0 0 0 0 0 0 0 0 0 0 0 0 0 0 0.609613532193031 0 0 0 0.201229414498549 0.120902248895214 0 0 0 1.1280786770769 0.0548210758702627 0.186449139254636 0.212409781224329 0 0 0 0.811810005388001 0.0500441281589049 0.941690043892619 0.13713726439976 0.894216745198632 0 0.092044990653441 -0.211161959286776 0 0 0 -1.18157711749485 0 0
0 0 0 0 0 0 0 0 0 0 0 0 0 0 0 0 0 0 0 0 0 0 0 0 0 0 0 0 0 0 0 0 0 0 0 0 0 0 0 0 0 0 0 0 -0.211161959286776 0 0 -0.467657010453331 0 0
0 0 0 0 0 0 0 0 0.248359565085949 0.29300331732498 0 0.389622972224215 0 0.892143758453117 0 0.913489676119494 0 0 0 0 0 0 0 0 0 0 0 0 0 0 0 0 0 0 0 0 0 0 0 0 0 0 0 0 0 -0.211161959286776 0 -1.61067179626475 0 0
0 0 0 0 0 0 0 0 0 0 0 0 0 0 0 0 0 0 0 0 0 0 0 0 0 0 0 0 0 0.419204342127966 0 0 0 0.154502413042941 0 0 0 0 0 0 0 0 0 0 0 0 -0.211161959286776 0 0 0
0 0 0 0 0 0 0 0 0 0 0 0 0 0 0 0 0 0 0 0 0 0 0 0 0 0 0 0 0 0 0 0 0 0 0 0 0 0 0 0 0 0 0 0.236676807772195 0.101769208615769 0.3092379600218 0 -0.211161959286776 0 0
0 0 0 0 0 0 0 0 0 0 0 0 0 0 0 0 0 0 0 0.583206767058192 0.170793229768649 0 0 0 0 0 0 0 0 0 0 0 0 0 0 0 0 0 0 0 0 0 0 0 0 0 0 0 -0.211161959286776 0
0 0 0 0 0 0 0 0 0 0 0 0 0 0 0.0558275059973976 0.0659161683191702 0.362441385220758 0 0 0 0 0 0 0 0 0 0 0 0 0 0 0 0 0 0 0 0 0 0 0 0 0 0 0 0 0 0 0 0 -0.211161959286776
