0 0 0 0 0 0 0 -0.576340119677066 0 0 0 0 0 0 0 0 0 0 0 0 0 0 -0.394507790777222 0 0 0 0 0 0 0 0 0 0 0 0 0 0 0 0 0 0 -4.80679367954283 0 0 0 0 0 0 0 0
0 0 0 -2.71785948349031 0 0 0 0 0 0 0 0 0 0 0 0 0 0 0 0 0 0 -0.388766020591214 -1.2936809534464 0 0 0 0 0 0 0 0 0 0 -0.685421379853936 0 0 0 0 0 0 0 0 0 0 0 0 0 -0.176683740345946 0
0 0 0 0 0 0 0 0 0 0 0 0 0 -3.31980197347206 0 0 -5.17194128312958 -0.646429970499727 -4.51991273453377 0 0 0 0 0 0 0 0 0 0 -0.447966886305729 0 0 0 0 0 0 0 0 0 0 0 0 0 0 -2.09274052811262 0 0 0 0 0
0 0.540575502115665 0 0 0 -0.947083011870706 0 0 0 0 0 0 -6.81368858892593 0 0 -0.248844694287699 0 0 0 0 0 0 0 0 0 0 0 0 0 0 0 0 0 0 0 0 0 0 0 0 0 0 0 0 0 0 0 0 0 0
0 0 0 0 0 0 -0.577590769569205 0 0 0 0 0 -2.62917604121673 0 0 0 0 -0.850550654477773 0 0 -2.84265419195852 -0.820081445090555 0 0 -1.37437801630704 0 -1.20992064105181 0 -1.35401994041898 0 0 0 0 0 0 0 0 0 0 0 0 0 0 0 0 0 0 0 0 0
0 0 0 0.184020897331856 0 0 0 0 -0.373149589688987 0 0 0 0 -0.749089758102485 0 0 0 0 0 0 -0.565514635222072 0 0 -1.14311715486172 0 0 0 0 0 0 0 0 0 0 0 0 0 0 0 0 0 0 -0.475497912743667 0 0 0 0 0 0 0
0 0 0 0 0.118854641147748 0 0 0 0 0 0 0 0 0 0 0 0 0 -0.24499101514232 0 -2.70244329804929 0 0 0 0 0 0 0 0 0 -1.09282697120121 -0.352926391808096 0 0 -0.232384966235963 -3.85483708031825 0 0 0 0 0 0 0 0 0 0 0 0 0 -5.94361019035399
0.104070445711769 0 0 0 0 0 0 0 0 0 0 0 0 0 -0.199154603736216 0 0 0 0 0 0 0 0 0 0 0 0 0 0 0 0 0 0 -0.299536922246837 0 0 0 0 0 0 0 0 0 0 0 -0.288256686791045 0 0 0 0
0 0 0 0 0 0.071036203515036 0 0 0 0 0 -1.73221874748039 0 0 0 0 0 0 0 0 0 0 0 0 0 0 0 0 0 0 0 0 0 0 0 0 0 0 0 0 0 0 0 0 0 0 0 0 0 0
0 0 0 0 0 0 0 0 0 0 0 0 0 0 0 0 0 0 0 0 0 0 0 0 0 0 0 0 0 0 0 0 -1.85349508008301 0 0 0 0 0 -4.72662339587529 0 0 0 0 0 0 0 0 -1.08965132822453 0 0
0 0 0 0 0 0 0 0 0 0 0 0 0 0 0 0 0 0 0 0 0 0 0 0 0 0 -0.631702996326578 -0.235396568520314 0 -1.46436873049083 0 0 0 -0.606322878270523 0 0 0 0 -0.863499619562397 0 0 0 0 0 0 0 0 0 0 0
0 0 0 0 0 0 0 0 0.368730638845921 0 0 0 0 0 0 0 -0.510376093756046 0 0 0 0 0 0 0 0 0 0 0 -2.99116984166056 0 0 0 0 0 0 0 0 0 0 0 0 0 0 0 0 0 0 0 0 0
0 0 0 1.31866405286982 0.532175403002171 0 0 0 0 0 0 0 0 0 0 0 0 0 0 0 0 0 0 0 0 0 0 0 0 0 0 -2.94511446898386 -0.0675087800894998 -0.780720927545094 0 0 -0.362823229475289 0 0 0 0 0 0 0 0 0 0 0 0 0
0 0 0.674001260519422 0 0 0.137215065178541 0 0 0 0 0 0 0 0 0 0 0 0 0 0 0 0 0 0 -1.25488565902385 0 0 0 0 0 -0.705395059747242 0 0 0 0 0 0 0 0 0 0 0 0 0 0 0 -2.10001087873214 0 0 0
0 0 0 0 0 0 0 0.0387615896251051 0 0 0 0 0 0 0 -0.260555836440646 -6.09927085997062 0 -0.0851877281828141 0 0 0 -1.23134476859037 -1.55208289578628 0 0 0 0 0 -0.498225518389266 0 -0.621584622959343 0 0 0 0 0 0 0 0 0 0 0 0 0 0 0 0 0 0
0 0 0 0.0501370239138193 0 0 0 0 0 0 0 0 0 0 0.0475344910636953 0 0 0 0 0 0 -0.253250744542123 0 0 0 0 0 0 -4.37558724406323 -0.497526601078285 0 0 0 0 0 0 0 -0.507925573908287 0 0 0 0 -0.187424406876136 0 0 0 0 0 0 -0.616493187849872
0 0 1.04663678988993 0 0 0 0 0 0 0 0 0.103178982901851 0 0 1.31467911120343 0 0 0 0 0 0 0 0 0 0 0 0 -7.07277632625005 0 0 0 0 0 0 0 0 0 0 0 0 0 0 0 0 0 0 0 0 0 0
0 0 0.135946502974919 0 0.154349596009987 0 0 0 0 0 0 0 0 0 0 0 0 0 0 0 -0.848632503067186 0 -2.73412935065468 0 0 0 0 0 0 -2.99847553589748 0 0 0 0 -0.175677843298638 0 0 0 0 0 0 0 0 -0.24295302290488 0 0 -0.881321216366989 -1.55062882298277 -0.410738252628356 0
0 0 0.926993396669631 0 0 0 0.0473429236193889 0 0 0 0 0 0 0 0.0162174545010291 0 0 0 0 0 0 0 0 0 0 0 0 0 0 0 0 0 0 0 0 0 -2.69429262469839 0 0 0 0 0 -0.348944826140885 0 0 0 0 0 0 0
0 0 0 0 0 0 0 0 0 0 0 0 0 0 0 0 0 0 0 0 0 0 0 0 0 0 0 0 0 0 0 0 0 0 0 0 0 0 0 0 0 0 0 0 0 0 0 0 0 -1.05980368288535
0 0 0 0 0.566011096349615 0.116900615041802 0.572777638031668 0 0 0 0 0 0 0 0 0 0 0.175792642554001 0 0 0 0 0 0 0 0 0 0 0 0 0 0 0 0 0 0 0 0 0 0 0 0 0 0 0 0 0 0 0 0
0 0 0 0 0.170057507479661 0 0 0 0 0 0 0 0 0 0 0.0507439898195748 0 0 0 0 0 0 0 0 0 0 0 0 0 0 0 0 0 0 0 0 0 -1.24904560659866 -1.18250262994055 0 0 0 0 0 0 0 0 0 0 -0.267572590572991
0.0866082890821147 0.0754782106613021 0 0 0 0 0 0 0 0 0 0 0 0 0.236722210606037 0 0 0.563482861735358 0 0 0 0 0 0 0 0 0 0 0 0 0 0 0 0 0 0 -1.57657425064198 -1.76168697098471 0 0 0 0 0 0 0 0 0 0 0 0
0 0.242120840530096 0 0 0 0.213507254945428 0 0 0 0 0 0 0 0 0.315674634343324 0 0 0 0 0 0 0 0 0 0 0 0 0 0 0 0 0 0 -0.22566192615794 0 0 0 0 0 0 0 0 0 0 0 -0.19650476536798 0 0 0 0
0 0 0 0 0.278830150386102 0 0 0 0 0 0 0 0 0.256928490222854 0 0 0 0 0 0 0 0 0 0 0 0 0 0 0 0 0 0 0 0 0 0 0 -0.26787844503114 0 0 -4.0760220241859 0 0 -0.334109727978997 0 0 0 -5.345499308775 -0.32872843140281 0
0 0 0 0 0 0 0 0 0 0 0 0 0 0 0 0 0 0 0 0 0 0 0 0 0 0 0 -1.27131273297207 0 -3.58764888984493 0 0 -1.06889885006023 0 0 0 0 0 0 0 0 0 0 0 0 -2.16554277556098 -0.845925081938019 0 0 0
0 0 0 0 0.229440589137616 0 0 0 0 0 0.123690107260014 0 0 0 0 0 0 0 0 0 0 0 0 0 0 0 0 -5.04818196022752 -3.20678492552248 0 0 0 0 0 0 0 0 0 0 -0.462613320050833 0 0 0 0 0 -0.508956351061965 0 -0.253053385034072 0 0
0 0 0 0 0 0 0 0 0 0 0.0445880231291478 0 0 0 0 0 1.44762185891756 0 0 0 0 0 0 0 0 0.249068003633804 0.915208830445263 0 0 0 0 0 0 0 0 0 0 0 -4.96404111169683 0 0 0 0 0 0 0 0 0 0 0
0 0 0 0 0.288743017927157 0 0 0 0 0 0 0.578364430362141 0 0 0 0.875971844575614 0 0 0 0 0 0 0 0 0 0 0.588552798550787 0 0 0 0 -2.81292526772428 0 0 0 0 0 0 0 0 0 0 0 0 0 0 0 0 0 0
0 0 0.093772114748031 0 0 0 0 0 0 0 0.263373965003796 0 0 0 0.0958228405125602 0.091758922889374 0 0.596777468695783 0 0 0 0 0 0 0 0.73028526396481 0 0 0 0 -1.24079410832735 0 0 0 0 0 0 -4.21114341698745 0 0 0 0 0 -0.337921978797728 0 0 -1.08521059937018 0 0 -1.09454049492388
0 0 0 0 0 0 0.216080808477847 0 0 0 0 0 0 0.134320447589936 0 0 0 0 0 0 0 0 0 0 0 0 0 0 0 0.255181722448973 0 0 0 0 0 -1.55147398168465 0 0 0 0 0 0 0 0 0 0 0 0 0 0
0 0 0 0 0 0 0.0766600930557629 0 0 0 0 0 0.620025083412218 0 0.123488854974667 0 0 0 0 0 0 0 0 0 0 0 0 0 0.572882388772395 0 0 0 0 0 0 0 0 0 0 0 0 0 -2.01759163675982 0 0 0 -1.41597641471185 0 0 -3.12660968173788
0 0 0 0 0 0 0 0 0 0.376989189939112 0 0 0.0136098916727289 0 0 0 0 0 0 0 0 0 0 0 0 0.213565797925971 0 0 0 0 0 0 0 0 0 0 -6.31603786963797 0 0 0 0 -0.39623079868666 0 0 0 0 0 0 0 -2.29108006979106
0 0 0 0 0 0 0 0.0619951298444336 0 0 0.121906297892202 0 0.150350471529193 0 0 0 0 0 0 0 0 0 0 0.0441415959958457 0 0 0 0 0 0 0 0 0 0 0 0 0 0 0 0 0 0 -0.73724429418192 0 0 0 0 0 0 0
0 0.142623092949015 0 0 0 0 0.0493975877546295 0 0 0 0 0 0 0 0 0 0 0.0366065981932654 0 0 0 0 0 0 0 0 0 0 0 0 0 0 0 0 0 0 0 0 0 0 0 0 0 0 0 0 -0.239567260789217 0 0 0
0 0 0 0 0 0 0.769112131675565 0 0 0 0 0 0 0 0 0 0 0 0 0 0 0 0 0 0 0 0 0 0 0 0.284943106107604 0 0 0 0 0 0 0 0 0 0 0 0 0 0 0 0 0 0 0
0 0 0 0 0 0 0 0 0 0 0 0 0.0737942629453161 0 0 0 0 0 0.474220408534093 0 0 0 0.275008239616619 0 0 0 0 0 0 0 0 0 1.20502867849522 0 0 0 0 0 0 0 0 0 0 0 -1.81069793114935 0 0 0 -1.51208237462568 -0.0861862989860259
0 0 0 0 0 0 0 0 0 0 0 0 0 0 0 0.0975673350723322 0 0 0 0 0 0.255565041361714 0.316367598309621 0 0.0538133935812582 0 0 0 0 0.775555356715122 0 0 0 0 0 0 0 0 0 -2.05980364669207 -0.735154405813387 0 0 0 0 0 0 -2.4248526848724 0 0
0 0 0 0 0 0 0 0 0 0.941276489710892 0.179114133918592 0 0 0 0 0 0 0 0 0 0 0.241793758731196 0 0 0 0 0 1.03191475713044 0 0 0 0 0 0 0 0 0 0 0 0 0 0 0 0 0 0 0 0 0 0
0 0 0 0 0 0 0 0 0 0 0 0 0 0 0 0 0 0 0 0 0 0 0 0 0 0 0.0909623452225758 0 0 0 0 0 0 0 0 0 0 0.411673038706897 0 0 0 0 0 0 0 0 0 0 0 0
0 0 0 0 0 0 0 0 0 0 0 0 0 0 0 0 0 0 0 0 0 0 0 0 0.816258322007437 0 0 0 0 0 0 0 0 0 0 0 0 0.150377690291938 0 0 0 0 0 0 0 -0.580753711977983 0 0 0 0
0.997822427184679 0 0 0 0 0 0 0 0 0 0 0 0 0 0 0 0 0 0 0 0 0 0 0 0 0 0 0 0 0 0 0 0.0827857619481636 0 0 0 0 0 0 0 0 0 0 0 0 0 0 0 0 0
0 0 0 0 0 0.0834962826977914 0 0 0 0 0 0 0 0 0 0.0373490934871788 0 0 0.0645211310527155 0 0 0 0 0 0 0 0 0 0 0 0 0.436171148406854 0 0.146952448423197 0 0 0 0 0 0 0 0 0 -1.68529672179859 0 0 0 0 0 0
0 0 0 0 0 0 0 0 0 0 0 0 0 0 0 0 0 0.0461983293767641 0 0 0 0 0 0 0.0673152196750623 0 0 0 0 0.0690902589635176 0 0 0 0 0 0 0 0 0 0 0 0 0.339099530983407 0 0 0 0 0 0 -0.136081958550808
0 0 0.401018149680824 0 0 0 0 0 0 0 0 0 0 0 0 0 0 0 0 0 0 0 0 0 0 0 0 0 0 0 0 0 0 0 0 0 0.398665958152447 0 0 0 0 0 0 0 0 0 0 -0.695285706516202 0 0
0 0 0 0 0 0 0 0.0634224122622485 0 0 0 0 0 0 0 0 0 0 0 0 0 0 0 0.0396821330122788 0 0.423090187372019 0.105008568456115 0 0 0 0 0 0 0 0 0 0 0 0 0 0.113416915357567 0 0 0 0 0 0 0 -3.10011387437931 0
0 0 0 0 0 0 0 0 0 0 0 0 0 0.408086324975466 0 0 0 0.16468804717455 0 0 0 0 0 0 0 0.169989953156488 0 0 0 0.234711037926131 0 0.300079948343745 0 0 0.0495309423602917 0 0 0 0 0 0 0 0 0 0 0 0 0 0 0
0 0 0 0 0 0 0 0 0 0.221138243182241 0 0 0 0 0 0 0 0.281679578537376 0 0 0 0 0 0 1.05771203695532 0 0.0517891791965227 0 0 0 0 0 0 0 0 0 0 0.466787527045188 0 0 0 0 0 0 0.144771824437841 0 0 0 0 0
0 0.0331178592880455 0 0 0 0 0 0 0 0 0 0 0 0 0 0 0 0.0892616381280132 0 0 0 0 0 0 0.0703342067646604 0 0 0 0 0 0 0 0 0 0 0 0.299183828169989 0 0 0 0 0 0 0 0 0.597373851014325 0 0 0 0
0 0 0 0 0 0 1.19612099700263 0 0 0 0 0 0 0 0 0.111051373788532 0 0 0 0.214851245857629 0 0.053135508209776 0 0 0 0 0 0 0 0.207713446821727 0 0.653127630717309 0.476553739289792 0 0 0 0.0184414759044678 0 0 0 0 0 0 0.0277996058219408 0 0 0 0 0 0
