0 0 0 0 0 0 0 0 0 -0.483314096866722 0 0 0 0 0 0 0 0 0 0 0 -0.568396683594124 0 0 0 0 0 0 0 0 0 0 0 0 -1.47212545026503 0 0 0 0 0 0 0 0 0 -0.326540084633724 0 0 0 0 0
0 0 0 0 -0.172367438321518 0 0 0 0 0 0 0 0 0 0 0 0 0 0 0 0 0 0 0 -1.25038913816567 0 0 0 -0.883726953459592 0 -6.47606514351163 -2.70475797572937 0 0 0 0 0 0 0 -2.80204201215086 0 0 -1.36572510541339 -1.17888122795888 0 0 0 0 0 0
0 0 0 0 0 0 0 0 -0.385595250934646 0 0 0 0 0 0 0 -1.99895775519717 0 0 0 -1.32284067988736 0 0 0 0 -4.020052783048 0 0 0 0 0 -0.42740812525144 0 0 0 0 0 -2.48452585683614 0 0 0 0 0 0 0 0 0 0 -4.99132397488085 0
0 0 0 0 0 0 0 0 0 0 0 0 0 0 0 0 0 0 -0.324421065703233 0 0 0 0 0 0 0 0 0 -1.3433440665668 -7.54477855552737 0 0 0 -0.126323568800227 0 0 -0.989004944723541 -0.718797554485518 0 0 -0.780529565768952 0 -1.4380963352557 0 0 0 0 0 0 -2.19780520953183
0 0.0333227705835404 0 0 0 0 0 0 0 -3.72440568210963 -0.580400432564976 0 0 0 0 0 -0.616183909946846 0 0 -0.119003300162745 0 0 0 0 0 0 0 0 0 0 0 0 0 0 0 0 0 0 0 0 0 0 0 0 -2.29039085622012 0 0 0 0 0
0 0 0 0 0 0 0 0 0 0 0 0 0 0 0 0 0 0 0 0 0 0 0 0 0 0 0 0 0 0 0 0 0 0 0 0 0 0 0 0 0 0 0 0 0 0 -4.5224889915593 0 0 0
0 0 0 0 0 0 0 0 0 0 0 0 0 0 0 0 0 0 0 0 0 0 0 0 0 0 0 0 0 0 0 0 0 0 0 0 0 0 0 0 0 0 0 0 0 0 -1.20918518816139 0 -1.21690739728424 0
0 0 0 0 0 0 0 0 0 0 0 -1.38597499228849 0 0 0 0 0 0 0 0 0 0 0 0 0 0 0 0 -1.15029824909788 0 0 0 0 0 0 0 0 -1.17705593411834 0 0 0 0 0 0 0 0 -3.32630763815413 0 0 0
0 0 0.0799418570206517 0 0 0 0 0 0 0 0 0 0 0 -0.535478773049792 0 0 0 0 0 0 0 0 -0.668233054764612 0 0 0 0 0 -0.403598937919646 0 0 0 0 0 0 0 0 -2.62840572941291 0 -1.06726591500723 0 0 0 -2.7861715022967 0 0 0 0 0
0.102009217941097 0 0 0 0.803753238889314 0 0 0 0 0 0 0 -0.35234093864039 0 0 0 0 0 0 0 0 0 0 0 0 0 0 0 0 0 0 0 0 0 -0.598455193480274 0 0 0 0 0 0 -1.22764702234711 0 0 0 0 0 -1.41606507812419 0 0
0 0 0 0 0.127606691723731 0 0 0 0 0 0 -0.855556390312002 0 0 0 0 0 -1.43411423134965 0 0 0 0 0 0 0 0 0 0 0 0 0 0 0 0 0 0 0 -1.29651677326838 0 0 0 0 0 0 0 0 0 -0.700032143773762 0 0
0 0 0 0 0 0 0 0.270956778510998 0 0 0.171090506499309 0 0 0 0 0 0 0 0 0 0 0 0 0 0 0 0 0 0 0 0 0 -3.97676401971491 0 0 0 0 -1.34357488999876 0 0 0 0 0 0 0 0 0 0 0 0
0 0 0 0 0 0 0 0 0 0.0660503357027218 0 0 0 -0.263658018010255 0 0 -2.90857871469725 0 0 0 0 -1.61553407384467 -0.186943184055716 0 0 0 0 -0.344520356180623 0 -0.851179680247134 0 0 -0.530784481859225 0 0 0 0 0 -3.5925665234016 0 0 0 -0.829198344825821 -0.212501455241215 0 0 0 0 0 0
0 0 0 0 0 0 0 0 0 0 0 0 0.0556063790923906 0 0 0 0 0 0 0 0 0 0 0 0 0 0 0 -5.59432345989351 -0.588941485978272 0 0 0 0 0 0 0 0 0 -5.11140291729649 0 0 0 0 0 0 0 0 0 -2.10463177757794
0 0 0 0 0 0 0 0 0.107014373347481 0 0 0 0 0 0 0 0 0 0 0 0 0 0 0 -1.3642854507048 0 0 0 0 0 0 0 0 0 0 0 0 0 0 0 0 0 0 0 0 0 0 0 -1.36103513815419 0
0 0 0 0 0 0 0 0 0 0 0 0 0 0 0 0 0 -0.405341611604219 0 0 0 0 0 0 0 0 0 0 -0.126328380688481 -0.794613182500259 0 0 0 0 0 0 0 0 0 0 0 0 0 0 0 0 0 0 0 0
0 0 0.400601694087189 0 0.137928981144694 0 0 0 0 0 0 0 0.553635329247424 0 0 0 0 0 0 0 0 0 0 0 -3.45954050322367 0 0 0 0 0 0 0 0 0 0 0 0 0 0 0 0 -1.20936919151892 0 0 0 0 0 0 0 0
0 0 0 0 0 0 0 0 0 0 0.268536715834813 0 0 0 0 0.086667447087271 0 0 0 0 0 0 0 0 0 0 -3.0195324721313 0 0 0 0 0 0 0 0 -0.508861373380625 0 0 0 -0.709957157767005 -0.507857406625817 0 0 0 0 0 0 0 -0.274626729260296 0
0 0 0 0.0645976282215742 0 0 0 0 0 0 0 0 0 0 0 0 0 0 0 0 0 0 0 0 0 0 0 -3.08232007361292 0 0 0 0 0 0 0 0 0 0 0 0 0 0 0 0 0 -0.922662670628848 0 0 0 0
0 0 0 0 0.0216785017330526 0 0 0 0 0 0 0 0 0 0 0 0 0 0 0 0 0 0 0 0 0 0 0 0 0 0 0 0 0 0 0 0 -0.135728238480954 0 0 0 0 0 0 0 0 0 0 0 0
0 0 0.263030760227844 0 0 0 0 0 0 0 0 0 0 0 0 0 0 0 0 0 0 0 0 -1.8998450633553 -1.20050676656174 0 0 0 -3.29267118610246 0 0 0 0 -1.64638547236923 0 0 0 0 0 0 0 0 0 0 0 0 0 0 0 0
0.112349648498548 0 0 0 0 0 0 0 0 0 0 0 0.318907869806347 0 0 0 0 0 0 0 0 0 0 -0.358924632580573 0 0 0 0 -0.74067979971168 0 0 0 0 0 0 0 0 0 0 0 0 0 0 0 0 0 0 0 0 0
0 0 0 0 0 0 0 0 0 0 0 0 0.0359553339835096 0 0 0 0 0 0 0 0 0 0 0 0 0 0 -0.150757088128641 0 0 0 0 0 0 0 0 0 0 0 0 0 0 0 0 0 -0.758432782650144 0 0 0 0
0 0 0 0 0 0 0 0 0.126293208346824 0 0 0 0 0 0 0 0 0 0 0 0.388144280735246 0.0687755896137931 0 0 0 0 0 -1.20103731900968 0 0 0 0 0 0 0 0 0 0 0 0 0 0 0 0 0 0 0 0 0 0
0 0.252821995558178 0 0 0 0 0 0 0 0 0 0 0 0 0.28365453676441 0 0.705546703682799 0 0 0 0.267063348941891 0 0 0 0 0 0 0 0 0 0 0 0 0 0 0 -2.12834619311533 0 0 0 0 0 0 0 0 0 0 0 0 0
0 0 0.730552201438446 0 0 0 0 0 0 0 0 0 0 0 0 0 0 0 0 0 0 0 0 0 0 0 0 0 0 0 0 0 -0.909880898120642 0 0 0 0 0 0 -0.933726865441162 0 0 0 -2.1371375974376 0 0 0 0 0 0
0 0 0 0 0 0 0 0 0 0 0 0 0 0 0 0 0 0.599455223356185 0 0 0 0 0 0 0 0 0 0 0 0 0 0 -0.670894245015519 0 -5.6753641591081 0 0 0 0 0 -0.827720020315589 0 0 0 0 0 -6.16955097058687 0 0 -0.887583294039304
0 0 0 0 0 0 0 0 0 0 0 0 0.0667468679540206 0 0 0 0 0 0.575937965348306 0 0 0 0.0328338548925869 0.243781936126461 0 0 0 0 0 0 0 0 0 0 0 0 0 0 0 0 0 0 0 0 0 0 0 0 -1.08681595417699 0
0 0.181095948814095 0 0.254217588423931 0 0 0 0.233114950492987 0 0 0 0 0 1.16875318021499 0 0.0247680079666882 0 0 0 0 0.68857012951678 0.153793754858872 0 0 0 0 0 0 0 0 -3.47477062255815 0 0 0 0 -2.05291165654876 -1.33440205566295 0 0 0 0 0 0 -0.53783132832691 0 0 0 0 0 -0.244437046871735
0 0 0 1.52982319748094 0 0 0 0 0.0765116979137977 0 0 0 0.170285009863013 0.116426840473689 0 0.157766652945005 0 0 0 0 0 0 0 0 0 0 0 0 0 0 0 0 0 0 0 0 0 0 -1.17178909995488 0 0 0 0 -0.628670567482075 0 0 0 0 0 0
0 1.31534862367401 0 0 0 0 0 0 0 0 0 0 0 0 0 0 0 0 0 0 0 0 0 0 0 0 0 0 0.623808937139734 0 0 0 0 0 0 -0.354115913760616 0 0 0 0 0 0 0 0 0 0 -0.293671321107419 0 0 0
0 0.529356192445371 0.0888608588142835 0 0 0 0 0 0 0 0 0 0 0 0 0 0 0 0 0 0 0 0 0 0 0 0 0 0 0 0 0 0 0 0 0 0 0 0 0 0 0 0 -1.21451894796883 0 0 0 0 -0.0752332300018632 0
0 0 0 0 0 0 0 0 0 0 0 0.843589851790966 0.105389276881518 0 0 0 0 0 0 0 0 0 0 0 0 0.180356306870473 0.131057146687458 0 0 0 0 0 0 -0.760548687001921 0 -3.31397021594673 0 0 0 0 0 0 0 0 0 0 0 0 0 0
0 0 0 0.025394657265076 0 0 0 0 0 0 0 0 0 0 0 0 0 0 0 0 0.343873372997243 0 0 0 0 0 0 0 0 0 0 0 0.158024609387776 0 0 0 0 0 -5.81788667052275 0 0 0 -0.288043713120857 0 0 0 0 -0.557101418855427 0 0
0.31577984820734 0 0 0 0 0 0 0 0 0.117920344342219 0 0 0 0 0 0 0 0 0 0 0 0 0 0 0 0 1.20373918197414 0 0 0 0 0 0 0 0 0 0 0 0 0 -0.932314610892729 0 0 0 0 0 -0.149107875851872 0 0 0
0 0 0 0 0 0 0 0 0 0 0 0 0 0 0 0 0 0.108584211358984 0 0 0 0 0 0 0 0 0 0 0.375261150685432 0 0.0662968081433499 0 0.665588216740862 0 0 0 0 0 -0.611986823704916 0 0 0 0 0 0 0 0 0 0 0
0 0 0 0.18768848508686 0 0 0 0 0 0 0 0 0 0 0 0 0 0 0 0 0 0 0 0 0.423618402223079 0 0 0 0.265678343213671 0 0 0 0 0 0 0 0 0 0 0 -0.515596054502266 0 0 0 0 0 0 0 0 0
0 0 0.469672006524014 0.154917797618412 0 0 0 0.237013316786708 0 0 0.270563678288885 0.260032157938779 0 0 0 0 0 0 0 0.0275576145149607 0 0 0 0 0 0 0 0 0 0 0 0 0 0 0 0 0 0 0 -1.28848070902104 0 0 -0.220718499300198 0 0 0 0 0 0 0
0 0 0 0 0 0 0 0 0.540773231519638 0 0 0 0.691420760743259 0 0 0 0 0 0 0 0 0 0 0 0 0 0 0 0 0.254775693300254 0 0 0 1.23994396176888 0 0.122120632278496 0 0 0 -0.982501235714024 0 0 0 0 0 0 0 0 0 -3.79504392458472
0 0.518055500436481 0 0 0 0 0 0 0 0 0 0 0 1.04346429712478 0 0 0 0.134590640174626 0 0 0 0 0 0 0 0.193382996676871 0 0 0 0 0 0 0 0 0 0 0 0.25659002579408 0.192695645079191 0 0 0 0 0 0 0 0 0 0 0
0 0 0 0.154139696913223 0 0 0 0 0.218572672543472 0 0 0 0 0 0 0 0 0.0983214410488658 0 0 0 0 0 0 0 0 0.164311946901823 0 0 0 0 0 0 0 0.194040410510288 0 0.10968624979163 0 0 0 0 0 0 0 0 0 0 0 0 0
0 0 0 0 0 0 0 0 0 0.231681746742842 0 0 0 0 0 0 0.237326928240862 0 0 0 0 0 0 0 0 0 0 0 0 0 0 0 0 0 0 0 0 0 0 0 0 0 0 0 0 0 0 0 0 0
0 0.273512638097345 0 0.297488133393018 0 0 0 0 0 0 0 0 0.148813818219924 0 0 0 0 0 0 0 0 0 0 0 0 0 0 0 0 0 0 0 0 0.0558992354671495 0 0 0 0.0447086580079258 0 0 0 0 0 0 0 0 0 0 -0.47285877386386 0
0 0.227634392597659 0 0 0 0 0 0 0 0 0 0 0.0391411758283823 0 0 0 0 0 0 0 0 0 0 0 0 0.423560015431892 0 0 0.103241856801913 0.126134293588683 0 0.22481511604964 0 0 0 0 0 0 0 0 0 0 0 0 -0.440008351491598 0 0 0 0 0
0.0629740392320779 0 0 0 0.476829160296364 0 0 0 0.558471729945391 0 0 0 0 0 0 0 0 0 0 0 0 0 0 0 0 0 0 0 0 0 0 0 0 0 0 0 0 0 0 0 0 0 0 0.0943266604185663 0 0 0 0 0 0
0 0 0 0 0 0 0 0 0 0 0 0 0 0 0 0 0 0 0.187598158883387 0 0 0 0.155555569287144 0 0 0 0 0 0 0 0 0 0 0 0 0 0 0 0 0 0 0 0 0 0 0 0 0 0 0
0 0 0 0 0 0.957534588397465 0.251883851210928 0.590691770815526 0 0 0 0 0 0 0 0 0 0 0 0 0 0 0 0 0 0 1.21933011036293 0 0 0 0.0585944383777977 0 0 0 0.0291868972793726 0 0 0 0 0 0 0 0 0 0 0 0 0 0 0
0 0 0 0 0 0 0 0 0 0.30075985919212 0.141361995284734 0 0 0 0 0 0 0 0 0 0 0 0 0 0 0 0 0 0 0 0 0 0 0.111295206372183 0 0 0 0 0 0 0 0 0 0 0 0 0 0 -1.53383515893921 0
0 0 1.01274820170956 0 0 0 0.254237212776486 0 0 0 0 0 0 0 0.279957118714253 0 0 0.0507270874303868 0 0 0 0 0 0 0 0 0 0.206929533840439 0 0 0 0.01580838667231 0 0 0 0 0 0 0 0 0 0 0.0921658924545969 0 0 0 0 0.330694914586301 0 0
0 0 0 0.443935848567206 0 0 0 0 0 0 0 0 0 0.4299845726994 0 0 0 0 0 0 0 0 0 0 0 0 0.186893766569576 0 0.0534311708009339 0 0 0 0 0 0 0 0 0 0.718715711194555 0 0 0 0 0 0 0 0 0 0 0
