0.322308663985807
0.257601009790908
0.471037635903256
1.09207878424406
0.714715554376016
1.60515576419148
0.961043009479325
0.340199132951103
0.352383808313819
1.47181585486561
1.47744355854416
0.0550241757271644
0.852905974762643
0.235639355661348
0.559096931081507
0.245058145332927
0.598796751258319
0.700068101933403
1.27670436008702
0.582409004184803
0.750111740367389
0.213240335914605
0.586433879835743
0.653244150161326
0.450685156265147
0.084595205903317
0.763687282982758
0.512013611908949
0.539429474431114
0.962324208356652
0.818778197435509
1.49485050197475
0.661057887878916
0.795180481146091
1.01628609483063
0.945668836395108
0.384760109721864
0.920634966120657
0.875287303213597
1.33799948622415
0.362121025189295
0.826102383799497
1.00606480934023
0.356769710616834
1.03665745725113
0.0790031976541625
0.619077470086954
0.644094071433752
0.697165748597985
0.435449490833359
