1.09067559730212
0.375997176573766
0.270610011213644
0.665042303670101
0.406605114687456
1.03439711058602
0.429514246246375
0.150607443268843
0.612127585951462
0.123634560579818
0.409392145520737
0.779985529183718
0.673234779600199
1.27123266538508
1.17923412217171
0.22655696356104
0.399306597879232
0.532978356374104
0.942350304726559
1.01061728625658
0.213787831626882
0.906522252154009
0.484225642383836
1.16870174126462
1.17731679946874
0.100236996286389
0.742428387996417
1.19942468661893
0.763279103042
0.397076583439776
0.79469117998011
0.118574429144581
0.768275600313558
0.383682463991569
0.361120016762109
0.29464449516693
1.28385331881561
0.256440937922858
1.2262208842159
0.778796362874533
0.674464550891765
1.08125131007272
0.945339967116132
0.667109620097131
0.951569425595173
0.730309661120919
1.19541258172029
0.0384091735655777
0.706138519470561
0.329119504056853
