1.18706141362658
2.05874615062058
0.87996176985635
1.48059937228518
0.949664437196487
0.414709839808399
1.89010063240914
1.96615939692935
0.962899610370051
0.161405545795109
0.541820148978831
1.59525321649403
1.7893012098894
1.09756458005644
0.535527757368609
0.626806154703699
0.643979751214282
1.22645795777997
0.870028772439895
0.178237090315644
1.89473551763072
0.702924093984779
0.314028606228301
0.272350187577795
0.616201729384885
1.49015937024906
2.09716937504554
1.15242841170821
2.76965576666549
1.98406822394671
1.45434873389301
1.67242180991211
0.512448979498954
0.270067310311243
1.90619416666907
0.429330679385266
1.0031744670204
1.90041934982009
0.826634330438988
0.842934949931717
0.805068923231853
0.271719134729956
1.83974025690906
1.41277273893097
0.459429902859697
0.101211297954625
1.24283125490153
0.129506901188871
0.798183870505163
0.429863802258625
