0.725746943529193
0.313685745049707
0.0240664001386765
0.635633353540689
1.31200252845445
0.186501717059905
1.3934053439627
0.649441777791764
0.624474638362782
1.66872188935358
1.17503211538617
0.210020068065155
1.37917363462024
0.505083748838465
0.450320320605852
0.417948112556327
0.118254603928586
0.439730659750841
0.751503580187045
0.748819490188264
0.193641388882425
0.421814859384232
1.14979179990632
1.24150261261073
0.693003985532554
0.991733341972987
0.712583506094607
1.10984843183238
0.118955546736047
0.308832673520887
0.326227695432034
0.711779087129742
0.544488019769629
0.422943375678289
1.68362542272586
0.562705523991684
0.469648090516812
0.578863588327025
0.849057690217823
0.663239514797332
0.84614978885995
0.318549159409679
0.699988663745139
0.505785418304619
0.269794426511635
0.434018557686968
1.00300789205953
0.350688091457824
0.948366270996221
1.20294884248687
