0.635664596238132
2.19798768936223
2.09959257855105
0.3095491584092
0.715035515174291
1.39917023656041
0.411452185986748
1.28236404752496
0.177704743097175
0.596840880945822
1.17975667620492
1.89250055699394
0.33737012992622
0.0686678536779717
0.781928038487888
0.267775376981199
1.67194250851201
0.287780343471943
1.0357880822506
0.250111292576051
0.208834130179361
0.666993793261986
1.33239761969008
0.791939603918934
0.494888833208489
1.12548285046127
0.0713717465335646
2.14488931494475
0.195212686400129
1.11037772174715
0.233954759356129
0.0283162021241957
0.378109438312005
0.329111894022804
0.263734881667996
0.612374558552762
0.660649899468779
0.17595492046853
0.124117073892951
0.201962071741281
0.596841607491591
1.4759759346391
0.142834458945582
1.44616178677337
0.339561551795644
0.0906348739842025
2.07947447984377
0.175530311706501
0.271265309360491
1.7454573699446
