0.978253670506827
0.493548838240536
1.66138987196999
0.566024004711224
2.53996227690873
0.32934281249259
2.01954743763539
2.19364720693687
0.912458454432021
0.547092920990693
1.09500853824324
0.610736997992639
3.24574414092515
1.55049137146278
0.264128651297087
1.3128478807852
0.494589127654493
0.725421009337032
1.72082888604789
0.669833697812208
0.46163917993975
0.571002284935521
0.347185379406177
0.268313471399601
0.934870471132859
0.538752603404135
5.17251729514752
0.499218563007162
3.7279840471567
0.146684717624411
1.0797202800761
1.15842339000492
1.37567459809483
1.59086434065798
0.652585340159808
2.41628803089101
0.543389512022358
1.86803000208747
0.144345452926546
0.469985924438984
0.938167377613376
0.686231638905981
0.858837017624039
1.44274320281064
0.775642371173349
0.166405542699459
2.74476464678946
0.620035104784128
0.608742347443382
1.13079100148212
