0 0 0 0 0 0 0 0 0 0 0 0 0 -0.26756724022081 0 0 0 -0.396052329332361 0 0 0 0 0 0 0 0 -0.478056178736048 -0.754309093173636 0 0 0 0 0 0 0 0 0 0 0 0 0 0 0 0 0 0 0 -1.39227528660464 0 0
0 0 0 0 0 0 0 0 0 0 0 0 0 0 0 -1.82067205288814 0 0 0 0 0 0 0 -2.25850775079528 0 0 0 0 0 0 -4.52751507636511 0 0 0 0 0 0 0 0 0 0 0 0 0 -1.05673752478024 0 0 0 0 0
0 0 0 0 0 0 0 0 0 0 0 0 0 0 -0.640486001428452 0 0 0 0 0 0 0 -2.88474063889215 0 0 0 -1.53167664656929 0 0 0 0 -0.992700946360932 0 0 0 0 0 0 0 0 0 0 0 0 0 0 0 0 0 0
0 0 0 0 0 0 0 0 -0.598050226761618 0 0 0 -0.597629539600073 0 0 -1.62683019179692 0 0 0 0 0 0 -1.00715153459908 0 0 0 0 0 -2.19973296156372 -0.344840212323286 0 0 0 0 0 0 0 0 0 0 0 0 0 0 0 0 0 0 0 0
0 0 0 0 0 0 -0.506620682559128 0 0 0 0 0 0 0 0 0 0 0 0 0 0 0 0 0 0 0 -0.551490224662136 0 0 0 -2.83966329882874 0 0 0 0 0 0 0 0 0 0 0 0 0 -1.55606147875635 0 -0.612034499786558 0 0 0
0 0 0 0 0 0 0 0 0 0 0 -3.3739102734442 -0.779938941449698 0 0 0 0 0 0 0 0 0 0 0 0 0 0 0 0 -2.95174369082741 0 0 0 0 0 0 0 0 0 0 0 0 -0.580871745117987 0 -0.442055134066002 0 0 0 0 -1.13174367531043
0 0 0 0 0.108904779119748 0 0 0 0 0 0 0 0 -0.190251194716106 -0.538431663335372 0 0 0 -0.633788884613302 0 0 0 0 -1.3408724046735 0 -1.05465560521581 0 0 0 0 0 0 0 0 0 0 0 0 0 0 0 0 0 0 0 0 0 0 0 0
0 0 0 0 0 0 0 0 0 0 0 0 0 0 -1.51198810903107 0 0 0 0 0 0 0 0 0 -1.26406525594894 0 0 0 0 0 0 0 0 0 0 -1.00022341984351 0 0 0 0 0 0 0 0 -0.962318697769475 -0.447473763836647 0 0 0 0
0 0 0 0.126305856598664 0 0 0 0 0 0 0 0 0 0 0 -0.251770185983516 0 0 0 0 0 0 0 0 0 0 0 0 0 0 0 0 0 0 0 0 0 0 0 0 0 0 0 0 0 -0.42843832242037 0 -0.813180359009096 0 0
0 0 0 0 0 0 0 0 0 0 0 0 0 0 0 0 0 0 0 0 0 0 0 0 0 0 0 0 0 0 0 0 0 0 -0.646120643724798 0 0 0 0 0 0 0 0 -0.928915342149967 0 0 0 0 0 0
0 0 0 0 0 0 0 0 0 0 0 0 0 0 0 0 0 0 0 0 0 0 -0.872282313815221 0 0 0 0 0 0 0 0 0 0 0 0 -0.409700310972732 -0.295745499306826 0 0 0 0 0 0 0 0 0 0 0 0 0
0 0 0 0 0 0.703432259118734 0 0 0 0 0 0 0 0 0 0 -0.936115388351548 0 0 0 0 0 0 0 0 0 0 0 0 0 0 0 0 0 0 0 0 0 0 0 0 0 0 0 0 -0.915600951893695 -9.05271356146854 0 -0.199690939457622 -0.576567366340138
0 0 0 0.117922038568186 0 0.152510673401046 0 0 0 0 0 0 0 0 -2.75921499164334 0 0 0 0 0 0 0 0 -0.388649919831225 0 0 0 0 0 0 0 0 0 0 0 0 0 0 0 0 0 0 0 0 0 0 0 0 0 0
0.0502143950523887 0 0 0 0 0 0.0392681020039361 0 0 0 0 0 0 0 0 0 0 -3.24982617513915 0 0 0 0 -2.86439593288635 0 0 0 0 0 0 0 0 0 0 0 0 0 0 -0.471901090148021 0 0 0 0 0 0 0 -1.0735067723569 0 0 0 0
0 0 0.116409151088612 0 0 0 0.104767006704996 0.298320242422721 0 0 0 0 0.517586093170769 0 0 0 0 0 0 0 -0.964528566462648 0 0 0 0 0 0 0 0 0 0 0 0 -0.472932391798195 0 0 0 0 0 0 0 -0.483033484260015 -2.73849754436148 0 0 0 -0.726469098878012 0 0 0
0 0.337310852241544 0 0.321239155665276 0 0 0 0 0.0494318932572688 0 0 0 0 0 0 0 0 0 0 0 0 0 0 0 0 0 0 0 0 0 0 0 0 0 0 0 0 0 -0.292254278407701 0 0 0 -2.95059854258906 0 0 0 0 -0.699419980526599 0 0
0 0 0 0 0 0 0 0 0 0 0 0.188203097854193 0 0 0 0 0 0 0 -0.756454703422636 0 0 0 0 0 0 0 0 0 0 0 0 -0.45124284614322 0 0 0 0 0 0 0 0 0 0 0 0 0 0 0 0 -0.664295606514794
0.0767352794161247 0 0 0 0 0 0 0 0 0 0 0 0 0.681684552759993 0 0 0 0 0 0 0 0 0 0 0 -5.76792146230956 -0.566024020872763 0 0 0 0 0 0 0 0 0 0 0 0 0 0 0 0 0 0 0 0 0 0 0
0 0 0 0 0 0 0.134389717024348 0 0 0 0 0 0 0 0 0 0 0 0 0 0 0 0 0 0 0 0 0 -1.50519334770051 0 0 0 0 0 0 0 -1.78913251788057 0 0 0 -1.27103169336261 0 0 0 0 0 0 0 0 -1.07096780692586
0 0 0 0 0 0 0 0 0 0 0 0 0 0 0 0 0.157874499313989 0 0 0 0 0 0 0 0 0 0 0 0 0 0 -2.2888975678518 0 0 0 0 0 0 -3.0526275198429 0 0 -1.67385208649662 0 0 0 0 0 0 0 0
0 0 0 0 0 0 0 0 0 0 0 0 0 0 0.195116159493481 0 0 0 0 0 0 0 0 0 0 0 0 -7.72631727286092 0 0 0 0 0 0 0 0 0 0 0 0 0 0 0 0 0 0 0 0 0 0
0 0 0 0 0 0 0 0 0 0 0 0 0 0 0 0 0 0 0 0 0 0 0 -2.35124225856504 0 0 0 0 0 0 0 -0.695154598520577 -2.48296751264937 0 -0.53049002211956 0 0 0 0 0 0 0 0 0 0 0 -0.150516429055058 0 0 0
0 0 0.598263708491473 0.203771369274381 0 0 0 0 0 0 0.170402277658737 0 0 0.599825181192912 0 0 0 0 0 0 0 0 0 0 0 0 0 0 0 0 0 0 0 0 0 0 0 0 0 0 0 0 0 0 0 0 0 0 -1.94274446066709 0
0 0.437860104013485 0 0 0 0 0.26382134859364 0 0 0 0 0 0.0729070820090345 0 0 0 0 0 0 0 0 0.530170184383322 0 0 0 0 0 0 -0.173401913209106 0 0 0 0 -0.746845599501298 0 0 0 0 0 0 0 0 0 0 0 0 0 -1.39826477508772 0 0
0 0 0 0 0 0 0 0.231930441684514 0 0 0 0 0 0 0 0 0 0 0 0 0 0 0 0 0 0 0 0 0 0 0 0 0 0 0 0 0 0 0 0 0 -2.0150857822339 0 0 0 0 0 0 0 0
0 0 0 0 0 0 0.218127267675474 0 0 0 0 0 0 0 0 0 0 1.14747517983037 0 0 0 0 0 0 0 0 0 0 -0.118319392926236 0 0 0 0 0 0 0 0 0 0 0 0 0 0 0 0 0 0 0 0 0
0.0932064334800905 0 0.324377824262769 0 0.111457187850813 0 0 0 0 0 0 0 0 0 0 0 0 0.1265619922592 0 0 0 0 0 0 0 0 0 0 0 0 0 0 0 0 0 0 0 0 0 0 0 -1.8012994740239 0 0 0 0 0 0 0 0
0.14118967107084 0 0 0 0 0 0 0 0 0 0 0 0 0 0 0 0 0 0 0 1.59434189770438 0 0 0 0 0 0 0 0 0 0 0 -4.13497373236325 -3.79743639490967 0 0 0 0 0 0 0 0 0 0 0 -0.962343258681026 -1.20380074452934 0 0 0
0 0 0 0.451271604964493 0 0 0 0 0 0 0 0 0 0 0 0 0 0 0.28362441088722 0 0 0 0 0.0341878265220917 0 0.0257039857878084 0 0 0 0 0 0 0 -0.616174150576192 0 0 0 0 0 0 0 0 0 0 0 0 0 0 0 0
0 0 0 0.0742214510937124 0 0.595533517683091 0 0 0 0 0 0 0 0 0 0 0 0 0 0 0 0 0 0 0 0 0 0 0 0 0 -2.87195360599597 0 0 0 0 0 0 0 0 0 0 0 0 0 -1.68362417957759 0 0 0 0
0 0.858531423732109 0 0 0.58013751063129 0 0 0 0 0 0 0 0 0 0 0 0 0 0 0 0 0 0 0 0 0 0 0 0 0 0 0 0 0 0 0 0 0 -0.788870879285393 0 0 0 0 0 0 0 0 0 0 0
0 0 0.199663312643792 0 0 0 0 0 0 0 0 0 0 0 0 0 0 0 0 0.46248385629888 0 0.138016659596334 0 0 0 0 0 0 0 0.546249260519117 0 0 0 0 0 0 0 0 0 0 0 0 -1.234701626474 0 0 0 -1.05495794956796 0 0 0
0 0 0 0 0 0 0 0 0 0 0 0 0 0 0 0 0.0898055699788717 0 0 0 0 0.52645513281423 0 0 0 0 0 0.834353908337855 0 0 0 0 0 0 0 0 0 0 0 0 0 0 0 0 0 0 0 0 0 0
0 0 0 0 0 0 0 0 0 0 0 0 0 0 0.103069667545687 0 0 0 0 0 0 0 0 0.15434677759204 0 0 0 0.713040511286469 0.127187500380953 0 0 0 0 0 0 0 0 0 0 0 0 0 0 0 0 0 0 0 0 -0.992866316017016
0 0 0 0 0 0 0 0 0 0.130270422703341 0 0 0 0 0 0 0 0 0 0 0 0.11833533793518 0 0 0 0 0 0 0 0 0 0 0 0 0 0 0 0 0 -1.03614442872569 0 0 0 0 0 0 0 0 0 0
0 0 0 0 0 0 0 0.206827785915892 0 0 0.0849039461286944 0 0 0 0 0 0 0 0 0 0 0 0 0 0 0 0 0 0 0 0 0 0 0 0 0 0 0 0 0 0 0 0 0 0 0 0 0 0 0
0 0 0 0 0 0 0 0 0 0 0.0561063126320369 0 0 0 0 0 0 0 0.337117534340852 0 0 0 0 0 0 0 0 0 0 0 0 0 0 0 0 0 0 -5.8297830189647 0 0 -0.70603961292239 0 0 0 0 0 -0.7783320886222 0 -2.53474140109632 0
0 0 0 0 0 0 0 0 0 0 0 0 0 0.100426261804225 0 0 0 0 0 0 0 0 0 0 0 0 0 0 0 0 0 0 0 0 0 0 1.15490956679634 0 0 0 0 0 0 0 0 0 0 -1.79731585923071 0 0
0 0 0 0 0 0 0 0 0 0 0 0 0 0 0 0.0566884716142001 0 0 0 0.630336638325997 0 0 0 0 0 0 0 0 0 0 0.155125644770759 0 0 0 0 0 0 0 0 0 0 0 0 0 0 0 -0.452135268249882 0 -0.465656134604085 0
0 0 0 0 0 0 0 0 0 0 0 0 0 0 0 0 0 0 0 0 0 0 0 0 0 0 0 0 0 0 0 0 0 0 0.20818460860262 0 0 0 0 0 0 0 -4.52452604109152 0 0 0 0 0 0 0
0 0 0 0 0 0 0 0 0 0 0 0 0 0 0 0 0 0 0.27056291175738 0 0 0 0 0 0 0 0 0 0 0 0 0 0 0 0 0 0.132462126546993 0 0 0 0 0 0 0 0 0 0 0 0 0
0 0 0 0 0 0 0 0 0 0 0 0 0 0 0.101928315187083 0 0 0 0 0.308165094448417 0 0 0 0 0.410947515072978 0 0.356280596074185 0 0 0 0 0 0 0 0 0 0 0 0 0 0 0 0 0 0 0 0 0 -2.11495588503416 0
0 0 0 0 0 0.108988382240155 0 0 0 0 0 0 0 0 0.570734878465373 0.533473747348398 0 0 0 0 0 0 0 0 0 0 0 0 0 0 0 0.215983763753553 0 0 0 0 0 0 0 0.945237944597428 0 0 0 0 0 0 -0.231195975174828 0 0 0
0 0 0 0 0 0 0 0 0 0.167791688440994 0 0 0 0 0 0 0 0 0 0 0 0 0 0 0 0 0 0 0 0 0 0 0 0 0 0 0 0 0 0 0 0 0 0 0 0 -1.46808376189968 0 0 0
0 0.192968820289153 0 0 0.310903129485587 0.0869882368249459 0 0.195637467872924 0 0 0 0 0 0 0 0 0 0 0 0 0 0 0 0 0 0 0 0 0 0 0 0 0 0 0 0 0 0 0 0 0 0 0 0 0 0 0 0 0 0
0 0 0 0 0 0 0 0.0830309729310879 0.085093859293408 0 0 0.191351757654326 0 0.206324469486682 0 0 0 0 0 0 0 0 0 0 0 0 0 0.190723521955014 0 0.328779281335547 0 0 0 0 0 0 0 0 0 0 0 0 0 0 0 0 0 0 0 0
0 0 0 0 0.115255313393936 0 0 0 0 0 0 1.72622416359097 0 0 0.155204836546466 0 0 0 0 0 0 0.0290940647763109 0 0 0 0 0 0.227866005906876 0 0 0 0.204378284985092 0 0 0 0 0.164752551105787 0 0.0958642342429201 0 0 0 0.0468315338584338 0.3131834263611 0 0 0 0 0 0
0.296829021264698 0 0 0 0 0 0 0 0.162938011922909 0 0 0 0 0 0 0.142842987735515 0 0 0 0 0 0 0 0.270697496992455 0 0 0 0 0 0 0 0 0 0 0 0 0 0.385869977806168 0 0 0 0 0 0 0 0 0 0 0 0
0 0 0 0 0 0 0 0 0 0 0 0.0388578921288262 0 0 0 0 0 0 0 0 0 0 0.381307859555291 0 0 0 0 0 0 0 0 0 0 0 0 0 0.487565720761821 0 0.0815065750460311 0 0 0.381977638578418 0 0 0 0 0 0 0 0
0 0 0 0 0 0.23847127791369 0 0 0 0 0 0.108203897750899 0 0 0 0 0.141366615900604 0 0.201521958391709 0 0 0 0 0 0 0 0 0 0 0 0 0 0 0.208532008512377 0 0 0 0 0 0 0 0 0 0 0 0 0 0 0 0
