1.7093096247525
1.53729462118027
0.224284227923435
2.14808350004498
0.184947143209651
0.0304523483230514
0.338121764534517
0.255086486773616
0.468120409206894
0.723599539436381
0.145657519918954
0.118321113079844
0.05655423703695
0.35926981975724
1.20863036282515
1.98499102224953
0.250782286931904
0.141248787802556
0.87662513071347
1.7660741285855
0.540071010419926
0.124163821979847
0.0732412833379268
0.0986351891363598
1.44035344336553
0.881598720863099
0.32089714131861
0.444731587489337
0.170941717879752
0.864242564868863
0.341392387082977
0.542382108573727
0.272571690298137
1.83158516679861
1.16910502152125
0.844292267079543
1.84383299341288
1.07551412448609
0.078783563932399
0.762664356332409
0.391610947985281
0.904750449893019
0.758602218101254
0.120463601208026
0.686850550109402
0.141763767198437
0.598636058136692
1.29213055692112
0.943623415678591
0.870666049228389
