0.183552908798922
0.142412687286683
1.32714482172132
0.762465476428539
1.40942776508783
0.583059287364858
0.070250727753597
1.53700953802035
1.45618865611645
0.61219550837516
0.906310906009173
0.0100820868707185
1.02151241002375
0.00775219385667434
0.518099698356287
0.402980680528287
1.59842027642861
0.389831002337429
0.439555832707943
0.285146534937063
1.24299134228452
1.21214952627207
0.819355900483236
0.0188585187518369
1.08786162085211
0.72470339809519
0.189124989522879
0.559381429770112
0.102830233308066
1.49819827910107
0.318698535100655
0.0810415726202111
0.37416738262499
0.477255893028251
0.696967851857925
0.245097184725424
0.845102837975981
0.751929568748483
1.74007274008921
0.853871980408062
1.33477886218613
0.729023043661191
1.43507214538609
1.70336578990382
0.41732134398745
0.1952102891367
0.986474046984727
0.980148144766881
0.068320987681613
0.945331879902432
