0 0 -0.473050019800808 -0.280240669055026 0 0 0 0 0 0 0 0 0 0 0 0 0 0 0 0 0 0 0 0 0 0 0 0 0 0 0 0 0 0 0 0 0 0 -0.96870486691802 0 0 -0.315628686919612 0 0 0 0 0 0 0 0
0 0 0 0 0 0 -2.45887616705336 0 0 0 0 0 0 0 0 0 -2.76970213013195 0 0 0 0 0 0 0 0 0 0 0 0 0 0 0 0 0 0 0 0 0 0 0 0 0 -0.338490206666582 -1.36088411526571 0 0 0 0 -2.54739867481936 0
0.0948290403852783 0 0 -0.133935004896418 0 0 0 0 0 0 0 0 0 0 0 0 0 -1.67125600491581 0 -5.24523134028078 -0.175443785354698 0 0 0 0 0 0 0 0 0 0 0 0 0 0 0 -3.34699809754065 0 -0.491930978041602 0 0 0 0 0 0 0 0 0 0 0
0.056823568007466 0 0.0288946549036499 0 -0.215633041114975 0 0 0 0 0 0 0 -1.33898890640007 0 0 0 -2.44334185746687 0 0 0 0 0 0 0 0 0 0 0 0 0 0 0 0 0 0 0 0 0 0 0 0 -2.41191814522467 0 0 0 0 0 0 0 0
0 0 0 0.043561367840987 0 0 -0.408297979021526 0 0 0 0 0 0 0 -2.54008293247953 0 0 0 0 0 0 0 -0.536394275398816 0 0 0 -1.10613613906758 0 0 0 0 -0.301848490624379 0 0 0 0 0 0 0 0 0 -0.201038152909311 0 0 0 0 -0.560823463797342 0 0 0
0 0 0 0 0 0 0 0 -1.58956705222345 0 0 0 -0.402079553902721 -2.10879000497747 0 0 0 0 0 0 0 0 0 0 0 0 0 0 0 -1.26497409282865 0 0 0 0 0 0 0 0 0 0 0 0 0 0 0 -1.4431699553791 0 0 0 0
0 0.47519457848603 0 0 0.0888072432798027 0 0 0 0 0 0 0 0 0 -0.355140942471848 0 0 0 0 0 0 0 0 -0.109538135238549 0 0 0 0 0 0 0 0 0 0 0 0 -0.333709607436827 0 0 0 0 0 0 0 0 0 0 0 0 -4.29191000896691
0 0 0 0 0 0 0 0 0 0 0 0 0 0 0 0 0 -2.40144433335989 0 0 0 0 0 -1.35247346090388 0 0 0 0 0 0 0 0 0 0 0 0 0 0 0 0 0 0 0 0 0 0 0 -1.31302219344364 0 0
0 0 0 0 0 0.313668121915521 0 0 0 0 0 0 0 0 0 0 0 0 0 0 0 0 0 -0.21056120484549 0 0 0 0 0 -6.11790878854108 0 0 0 0 0 0 0 0 0 -1.76555560463492 0 0 0 0 0 0 0 0 0 0
0 0 0 0 0 0 0 0 0 0 0 0 0 0 0 -0.436537533530693 0 0 0 0 -1.4660542551929 0 0 0 -0.466288199066744 0 -1.23323462297613 0 0 0 0 0 0 -0.536291837102972 0 0 0 0 0 0 0 0 0 0 0 0 0 0 0 0
0 0 0 0 0 0 0 0 0 0 0 0 0 0 0 0 0 -0.203649250849115 0 0 0 0 0 0 0 0 0 0 0 0 0 0 -0.745455096739918 0 0 0 0 -3.29845075035838 0 0 0 0 0 0 0 0 0 -3.34336993931384 -1.35355211481086 0
0 0 0 0 0 0 0 0 0 0 0 0 0 0 0 0 0 0 0 0 -3.44561791126033 0 0 0 0 0 0 -0.203188077781055 0 0 0 0 0 -0.61669284155304 0 0 0 0 0 0 0 0 -1.3634093347094 -0.264334525057154 0 0 0 0 0 0
0 0 0 0.292983592125006 0 0.0781180542987522 0 0 0 0 0 0 0 0 0 -0.79258033506933 0 0 -1.8466006940862 0 0 0 -0.317716265798394 -1.29331523716994 0 0 0 0 0 0 0 -0.164140602992769 0 0 0 0 -1.0747946805041 0 0 -3.0274802920627 0 0 0 0 0 0 0 0 0 0
0 0 0 0 0 0.401019221649237 0 0 0 0 0 0 0 0 0 0 0 0 0 0 -0.237845288793237 -2.40767833823673 -4.22699327194793 0 0 0 0 0 0 0 0 -0.867247687507508 0 0 0 0 0 -0.859367887263597 -0.37439315181764 0 0 0 0 -0.430793043609155 0 0 0 0 -0.483501898523634 0
0 0 0 0 0.534426989027533 0 0.0672998411271047 0 0 0 0 0 0 0 0 0 -0.323059990549414 0 0 0 0 0 -1.10254667733787 0 -1.56345166583017 0 0 -0.823735589701388 -2.13825883598031 0 0 -5.5672666496545 0 0 0 0 0 0 0 -1.35036327306253 -0.679323168629959 0 0 0 0 0 0 0 0 0
0 0 0 0 0 0 0 0 0 0.0848879713492783 0 0 0.147602713732773 0 0 0 0 0 0 0 0 0 -0.346857071033923 0 0 -0.114219892453602 0 0 0 0 0 0 0 -0.673720085812114 0 -1.71043581580038 0 -10.5647705853354 0 -0.982683421821692 0 0 0 0 0 0 0 0 0 0
0 0.537666259029162 0 0.501149398889751 0 0 0 0 0 0 0 0 0 0 0.0639075218721041 0 0 0 0 -1.75235757288568 0 0 0 0 0 0 0 0 0 0 0 0 0 0 0 0 0 0 -0.261839746489201 0 0 0 0 0 0 0 0 0 0 0
0 0 0.325432647504312 0 0 0 0 0.503965031255166 0 0 0.0416478327358511 0 0 0 0 0 0 0 0 0 0 0 0 0 0 0 0 0 0 0 0 0 0 0 0 0 0 0 0 0 0 0 0 -0.457260561782765 0 0 0 0 0 0
0 0 0 0 0 0 0 0 0 0 0 0 0.381212740729018 0 0 0 0 0 0 -0.344756446451942 0 0 0 0 0 -3.25840524824372 0 0 0 0 -1.40198904344953 0 -0.151438013784156 0 0 0 0 0 0 0 0 0 0 0 0 0 0 0 -2.04503092622371 0
0 0 0.964641461739988 0 0 0 0 0 0 0 0 0 0 0 0 0 0.346641350535269 0 0.0638180110141496 0 0 0 0 -2.22366102172761 0 0 0 0 0 0 0 0 0 0 0 0 -0.693166834361106 0 0 0 0 0 0 0 0 0 0 0 0 0
0 0 0.0390137026720352 0 0 0 0 0 0 0.292890029502266 0 0.6726786002814 0 0.0475267178294161 0 0 0 0 0 0 0 0 0 0 -1.09982535892717 0 0 0 0 -1.00432613800837 0 0 0 0 -0.245620526140389 0 0 0 0 0 0 -7.80008687454601 0 0 0 0 0 0 0 -0.764331752717005
0 0 0 0 0 0 0 0 0 0 0 0 0 0.490143492208352 0 0 0 0 0 0 0 0 0 0 0 0 0 0 0 0 0 0 -1.03900573441771 0 0 0 0 0 -0.952215774533429 0 0 0 0 0 0 0 0 0 0 0
0 0 0 0 0.108542477974987 0 0 0 0 0 0 0 0.0595277046075346 0.887478035582077 0.194950426716962 0.068086683912243 0 0 0 0 0 0 0 0 0 -7.0770308505017 0 0 -3.21044854449782 0 0 0 0 0 0 0 -5.43621250943345 0 0 0 0 0 0 0 0 -0.687513083723424 0 0 0 0
0 0 0 0 0 0 0.0215358209703634 0.268595506979961 0.0451330468296458 0 0 0 0.271855323570686 0 0 0 0 0 0 0.431118661362899 0 0 0 0 0 0 0 0 0 -1.95717446761395 0 0 0 0 0 0 0 0 0 0 0 0 -0.309272828893422 0 0 0 0 0 0 0
0 0 0 0 0 0 0 0 0 0.0960646311184208 0 0 0 0 0.308044159808582 0 0 0 0 0 0.232529555330914 0 0 0 0 0 -3.22309961523038 0 0 0 0 0 -0.334734664771374 0 -3.42216353121848 -0.46217228430708 -1.68266695497683 0 0 0 0 0 0 0 0 -2.08728617033036 0 0 0 0
0 0 0 0 0 0 0 0 0 0 0 0 0 0 0 0.0222091383644762 0 0 0.666515334015249 0 0 0 1.41863309394355 0 0 0 0 0 -0.734007384231401 0 0 0 0 0 0 0 0 0 -2.58326363923906 0 0 0 0 0 0 0 0 0 0 0
0 0 0 0 0.21471190514997 0 0 0 0 0.239765418085644 0 0 0 0 0 0 0 0 0 0 0 0 0 0 0.61614758624701 0 0 -0.318907639085379 -0.524039826545241 0 0 0 0 0 0 -0.876241570069673 0 0 0 0 0 0 0 0 0 0 0 0 0 0
0 0 0 0 0 0 0 0 0 0 0 0.0411618514792553 0 0 0.152417567211015 0 0 0 0 0 0 0 0 0 0 0 0.0646521144070881 0 0 0 0 0 0 0 0 0 0 0 0 0 0 0 0 0 0 0 0 0 0 0
0 0 0 0 0 0 0 0 0 0 0 0 0 0 0.463641831477274 0 0 0 0 0 0 0 0.603108619246197 0 0 0.164306194282585 0.118410517291977 0 0 0 0 0 0 0 0 0 0 0 0 0 0 0 -3.25218201589784 0 0 0 0 0 0 0
0 0 0 0 0 0.240271986534721 0 0 1.26449937809679 0 0 0 0 0 0 0 0 0 0 0 0.207004950271438 0 0 0.395852853510461 0 0 0 0 0 0 0 0 0 0 -6.40910376227968 0 -0.718869813015007 0 0 0 0 0 0 0 0 0 0 0 0 0
0 0 0 0 0 0 0 0 0 0 0 0 0 0 0 0 0 0 0.274259089575999 0 0 0 0 0 0 0 0 0 0 0 0 0 0 0 0 0 0 0 0 0 0 0 0 0 0 0 0 0 0 0
0 0 0 0 0.0624150068997585 0 0 0 0 0 0 0 0.032698284255134 0.176952802071678 1.02228051491151 0 0 0 0 0 0 0 0 0 0 0 0 0 0 0 0 0 0 0 0 0 -5.21279151880006 0 0 -8.49646331150729 0 0 0 0 0 0 0 0 -0.952894683687203 0
0 0 0 0 0 0 0 0 0 0 0.152192932431201 0 0 0 0 0 0 0 0.0306517300255375 0 0 0.205713594860076 0 0 0.0704254223719609 0 0 0 0 0 0 0 0 0 0 0 0 0 -0.968466334145271 0 0 0 0 0 0 0 0 0 0 0
0 0 0 0 0 0 0 0 0 0.106151871027092 0 0.123333958582705 0 0 0 0.136599279715709 0 0 0 0 0 0 0 0 0 0 0 0 0 0 0 0 0 0 0 0 0 0 0 0 0 0 0 0 0 0 0 0 0 0
0 0 0 0 0 0 0 0 0 0 0 0 0 0 0 0 0 0 0 0 0.0508655108069564 0 0 0 0.710662143231906 0 0 0 0 1.3401387120831 0 0 0 0 0 0 0 0 0 -1.28812884893324 0 0 0 0 -0.291260381804223 0 0 0 0 0
0 0 0 0 0 0 0 0 0 0 0 0 0 0 0 0.336456059402655 0 0 0 0 0 0 0 0 0.0957675035384284 0 0.171849890713905 0 0 0 0 0 0 0 0 0 0 -3.90168925710492 -1.52602399697325 0 0 0 0 0 0 0 0 0 -0.837595937732338 0
0 0 0.690290034944511 0 0 0 0.0708554930642422 0 0 0 0 0 0.207580759630773 0 0 0 0 0 0 0.136806664304202 0 0 1.09458945250124 0 0.321214148491011 0 0 0 0 0.140618601847333 0 1.02630702171405 0 0 0 0 0 0 -10.2024660036908 0 0 0 0 -11.9153933720025 0 0 0 0 0 0
0 0 0 0 0 0 0 0 0 0 0.63120522854381 0 0 0.175138638648784 0 2.20237013137118 0 0 0 0 0 0 0 0 0 0 0 0 0 0 0 0 0 0 0 0.732821332495663 0 0 0 0 0 0 0 0 0 -0.949019908733889 0 -1.10450289629142 0 0
0.194978853185451 0 0.0989385090336864 0 0 0 0 0 0 0 0 0 0 0.0763206338385715 0 0 0.0568243712763794 0 0 0 0 0.182613472756711 0 0 0 0.462576013465863 0 0 0 0 0 0 0.187841928494015 0 0 0.283906038025526 2.0473115528303 0 0 0 0 0 0 -1.20074371272399 0 0 0 0 0 0
0 0 0 0 0 0 0 0 0.377429371031731 0 0 0 0.623543930603427 0 0.25537311739184 0.189392877145159 0 0 0 0 0 0 0 0 0 0 0 0 0 0 0 1.70388800955654 0 0 0.268591179441514 0 0 0 0 0 0 0 0 0 0 0 0 0 -2.15069093650543 -0.494996863238005
0 0 0 0 0 0 0 0 0 0 0 0 0 0 0.138366255747791 0 0 0 0 0 0 0 0 0 0 0 0 0 0 0 0 0 0 0 0 0 0 0 0 0 0 0 0 0 -0.826176288970553 0 0 0 0 0
0.0622767615341144 0 0 0.473178537930884 0.0375667149516555 0 0 0 0 0 0 0 0 0 0 0 0 0 0 0 1.57039450483915 0 0 0 0 0 0 0 0 0 0 0 0 0 0 0 0 0 0 0 0 0 0 0 0 0 0 0 0 -1.74240285451562
0 0.0740536054026324 0 0 0 0 0 0 0 0 0 0.248848207262282 0 0 0 0 0 0 0 0 0 0 0 0.0628511411990378 0 0 0 0 0.670045396607514 0 0 0 0 0 0 0 0 0 0 0 0 0 0 0 0 0 0 -3.58427799232675 -1.31953405258645 0
0 0.256825370338461 0 0 0 0 0 0 0 0 0 0.0541450170251103 0 0.0800017695318711 0 0 0 0.0901669047756087 0 0 0 0 0 0 0 0 0 0 0 0 0 0 0 0 0 0 2.44904163801577 0 0.238999985694416 0 0 0 0 0 0 0 0 0 0 0
0 0 0 0 0 0 0 0 0 0 0 0 0 0 0 0 0 0 0 0 0 0 0 0 0 0 0 0 0 0 0 0 0 0 0.0622601163091836 0 0 0 0 0 0.151689564165995 0 0 0 0 0 0 0 0 0
0 0 0 0 0 0.253642357080084 0 0 0 0 0 0 0 0 0 0 0 0 0 0 0 0 0.136729107242059 0 0.42466177920502 0 0 0 0 0 0 0 0 0 0 0 0 0.189423839352271 0 0 0 0 0 0 0 0 0 0 0 -0.354287329952406
0 0 0 0 0.104566158794339 0 0 0 0 0 0 0 0 0 0 0 0 0 0 0 0 0 0 0 0 0 0 0 0 0 0 0 0 0 0 0 0 0 0 0 0 0 0 0 0 0 0 0 0 0
0 0 0 0 0 0 0 0.258125159766009 0 0 0.680999019123011 0 0 0 0 0 0 0 0 0 0 0 0 0 0 0 0 0 0 0 0 0 0 0 0 0 0 0.224808131455905 0 0 0 0 0.705508545906917 0 0 0 0 0 0 0
0 0.516553512495707 0 0 0 0 0 0 0 0 0.279267028393046 0 0 0.0863529743531804 0 0 0 0 0.39682993714835 0 0 0 0 0 0 0 0 0 0 0 0 0.209745413334218 0 0 0 0.172424147790131 0 0 0 0.425517801182161 0 0 0.270432653863732 0 0 0 0 0 0 0
0 0 0 0 0 0 0.81813116406442 0 0 0 0 0 0 0 0 0 0 0 0 0 0.156899860271089 0 0 0 0 0 0 0 0 0 0 0 0 0 0 0 0 0 0 0.100031784586193 0 0.342136465455089 0 0 0 0.0644780949241239 0 0 0 0
