0.260921419846099
2.96141841874385
0.221144427470775
0.822537337465467
0.233710034538385
0.702916429033467
1.60428881302604
1.88732111667243
0.154658395514216
2.99486738739844
0.433043901559359
0.685578198032851
0.265362649178236
0.090680991537728
0.229420307350148
0.0909112253388396
0.170733211956871
0.329886723613305
1.72297290579391
0.657877566448888
1.59285528241435
0.334273966756328
0.113150380742441
1.86361389919293
1.58585327074316
0.736150025066049
1.32352614296351
0.0126132251717352
1.63887602460811
0.0445470396110002
0.58480067464242
0.209635415130072
0.870716473157607
0.135146533983413
2.20823962298046
0.435914082745335
1.52401952966509
0.0435582086511083
0.292576972109025
0.462434153099901
2.04289753307456
0.117216167476423
1.18243646422787
2.08489195133374
0.352116437867863
0.394173975749939
0.296042240761291
0.656151966139964
1.96113334154687
0.171014869589191
