0 -0.994805124617945 0 0 0 0 0 0 0 0 0 0 0 0 0 0 0 0 0 0 0 0 0 0 0 0 0 0 0 0 0 0 -1.88078653945614 0 0 0 -0.494784962723179 0 0 0 0 0 0 0 -0.254879483103416 0 0 0 0 0
0.197594758728264 0 0 0 -0.55328113067869 0 0 0 0 0 0 -4.97510849326883 0 0 0 0 0 0 0 0 0 0 0 0 0 0 0 0 0 0 0 0 0 0 0 0 -0.485636354443545 0 0 0 0 0 0 0 0 0 0 -0.600990925861807 0 0
0 0 0 -0.118480726872693 0 -0.437250614921585 0 0 -0.078479731836526 0 0 0 0 0 0 0 0 0 0 0 0 0 0 0 0 -1.73809875247512 0 0 -0.207208957861231 0 0 0 0 0 0 0 0 0 0 0 0 0 0 0 0 0 0 0 0 0
0 0 0.0221158441544825 0 0 0 0 0 0 -0.831912522589862 0 0 0 -1.53099148357124 0 0 0 0 0 0 0 0 0 0 0 0 0 0 0 0 0 0 0 0 -0.942322481768731 0 0 0 0 0 0 0 -0.702685279744754 0 0 0 0 0 0 0
0 0.119584572878169 0 0 0 0 0 0 0 0 0 0 0 0 0 0 0 0 0 0 0 0 -0.230560392898195 0 0 0 -1.07370492698394 0 0 0 0 0 0 0 0 0 0 0 0 0 0 0 0 0 0 0 0 0 0 0
0 0 0.0922357395794356 0 0 0 0 0 0 0 0 0 0 0 0 0 0 0 0 0 0 0 0 0 0 0 0 0 0 0 0 0 0 0 0 0 0 0 0 0 0 0 0 0 0 0 0 0 -2.38989777173508 0
0 0 0 0 0 0 0 0 0 0 0 0 0 -3.37372269366095 0 0 0 0 0 0 0 0 0 0 0 0 -5.97235114914409 -1.03512951913068 0 0 0 0 0 0 0 0 0 0 0 0 0 0 0 0 0 -4.82671538565639 -0.689406999142926 -1.67614482975953 -0.243588818396524 0
0 0 0 0 0 0 0 0 0 0 0 0 0 0 0 0 0 -1.08071765959048 0 0 0 -0.160182804659614 0 0 0 0 0 0 -0.275274894045918 0 -0.0616549726746583 0 0 0 0 0 0 0 0 0 0 0 0 0 0 0 0 0 0 0
0 0 0.0154820449872523 0 0 0 0 0 0 0 0 0 0 0 -0.704069551071595 0 0 0 0 0 0 0 0 0 0 0 0 0 0 0 0 0 0 0 0 0 0 0 0 0 0 -1.79435518820262 -0.498111570214077 0 0 0 0 0 0 0
0 0 0 0.166182354760096 0 0 0 0 0 0 0 0 0 0 0 0 0 0 0 0 0 0 0 0 0 0 0 0 0 0 0 0 0 0 0 -1.03786019123547 0 0 -0.509127427442554 0 0 0 0 0 0 0 0 -6.38528117224048 0 -1.57577134687761
0 0 0 0 0 0 0 0 0 0 0 0 -1.96437821854587 0 0 -1.33972478701695 0 0 -0.516665035096363 -0.957710437592379 0 0 0 0 0 0 0 0 0 0 0 0 0 0 0 0 0 0 0 -1.09404636250822 -4.98739830594063 0 0 0 0 -0.109958342879783 0 -4.59198183180384 0 0
0 0.984262910688217 0 0 0 0 0 0 0 0 0 0 0 -0.362830380470531 0 0 0 0 0 0 0 0 0 0 -0.323323445024571 0 0 0 0 0 0 0 0 0 0 0 0 0 0 0 0 0 0 0 0 0 -0.976639750616617 0 0 0
0 0 0 0 0 0 0 0 0 0 0.412378798138668 0 0 0 0 0 -0.469088381827801 0 0 0 -0.283272892318487 0 0 -1.47472843718505 0 0 0 0 0 0 0 0 0 0 0 -0.190807235038117 0 0 0 0 0 0 0 0 -0.428091645166199 0 0 0 0 0
0 0 0 0.306952316369389 0 0 0.629532019413756 0 0 0 0 0.0725821795761048 0 0 0 0 0 0 0 0 0 0 0 0 0 0 0 0 0 0 0 0 0 0 0 -0.371669944878757 0 0 0 0 0 0 0 0 0 0 0 0 0 0
0 0 0 0 0 0 0 0 0.142072222310619 0 0 0 0 0 0 0 0 -1.05793677114227 0 0 0 0 0 0 0 0 0 -3.73795464371925 -3.78761839064195 0 0 0 0 0 0 0 0 0 0 0 0 0 0 0 0 0 0 0 0 0
0 0 0 0 0 0 0 0 0 0 0.254779815627678 0 0 0 0 0 0 0 0 0 0 0 0 0 0 0 0 0 0 0 0 0 0 0 0 0 0 0 -8.02300230266763 0 0 0 0 0 0 0 0 0 0 0
0 0 0 0 0 0 0 0 0 0 0 0 0.0892900211325801 0 0 0 0 0 0 0 0 0 0 0 0 0 0 0 0 0 0 0 0 -0.606360795317064 0 0 0 0 0 0 0 0 -0.16095956453225 0 0 0 0 0 0 0
0 0 0 0 0 0 0 0.218075347428967 0 0 0 0 0 0 0.201796666336545 0 0 0 0 0 0 0 0 0 0 0 0 0 0 0 0 0 0 0 -0.741751537671605 0 -0.348107009719458 0 0 0 0 0 0 0 0 0 0 0 0 0
0 0 0 0 0 0 0 0 0 0 0.109622194642062 0 0 0 0 0 0 0 0 0 0 0 0 -1.37308382780906 0 0 -3.49329720652491 0 0 0 0 0 -0.284221294199139 0 0 0 0 0 0 0 0 0 0 0 0 0 0 0 0 0
0 0 0 0 0 0 0 0 0 0 0.199348976710329 0 0 0 0 0 0 0 0 0 0 -1.26209290427998 -4.23676272448874 0 -1.69041790606202 0 0 0 0 0 0 0 0 -0.304627457032986 0 0 0 0 0 -0.676673064410349 0 0 0 0 0 0 0 0 0 0
0 0 0 0 0 0 0 0 0 0 0 0 0.060611990046605 0 0 0 0 0 0 0 0 0 0 0 0 0 0 0 0 0 0 0 -0.824473424053248 0 0 0 0 0 0 0 0 0 0 -0.303076509379455 0 0 0 0 0 0
0 0 0 0 0 0 0 0.0324551536285371 0 0 0 0 0 0 0 0 0 0 0 0.242641913692278 0 0 0 0 -2.21320802779151 0 0 0 -2.44707391529369 0 0 0 0 0 0 0 0 0 0 0 0 0 0 0 0 -5.33426318905271 0 0 0 0
0 0 0 0 0.0451611672786453 0 0 0 0 0 0 0 0 0 0 0 0 0 0 0.908786182871285 0 0 0 0 0 0 -0.36287092521377 0 0 -1.18915222144303 0 0 0 0 -0.480411616483992 0 0 0 0 0 0 0 0 0 0 0 -2.55472137934666 0 0 0
0 0 0 0 0 0 0 0 0 0 0 0 0.260428954694719 0 0 0 0 0 0.27765699844197 0 0 0 0 0 0 -0.681575030871467 0 0 0 0 0 0 0 0 0 0 0 0 0 0 0 0 0 0 0 0 -0.273240476738895 0 0 0
0 0 0 0 0 0 0 0 0 0 0 0.0622665976065531 0 0 0 0 0 0 0 0.339856764288575 0 0.482590083272743 0 0 0 0 0 0 -6.65883073023083 0 0 0 0 0 0 0 0 0 0 0 0 -3.31341614053112 0 0 -0.683693209482216 0 0 0 0 -1.15671855353138
0 0 0.325891683290307 0 0 0 0 0 0 0 0 0 0 0 0 0 0 0 0 0 0 0 0 0.136361185421084 0 0 0 0 0 0 0 -0.240643022469222 -0.596884892316515 0 0 0 -0.459629056456571 0 0 0 0 0 0 0 0 0 0 0 0 0
0 0 0 0 0.228393605541123 0 1.20424821135176 0 0 0 0 0 0 0 0 0 0 0 0.726007952817292 0 0 0 0.0716897436659215 0 0 0 0 0 0 0 0 0 0 0 0 0 0 0 0 0 0 0 0 0 0 0 0 0 0 0
0 0 0 0 0 0 0.206274693750289 0 0 0 0 0 0 0 0.796975792466576 0 0 0 0 0 0 0 0 0 0 0 0 0 0 0 0 0 0 0 0 0 0 0 0 0 0 0 0 0 -5.39431625486518 0 0 0 0 0
0 0 0.0438656499768691 0 0 0 0 0.0606354816761453 0 0 0 0 0 0 0.759314528332186 0 0 0 0 0 0 0.476105561967103 0 0 1.40807172363205 0 0 0 0 0 0 0 0 0 0 0 -1.63187359559011 -0.563382957967074 -0.321375415103791 0 0 0 0 0 0 -1.51638699574154 0 -2.62945594396003 0 0
0 0 0 0 0 0 0 0 0 0 0 0 0 0 0 0 0 0 0 0 0 0 0.220981432089499 0 0 0 0 0 0 0 0 0 0 0 0 0 0 0 0 0 0 -3.60702459392172 0 0 0 0 -0.444435010080699 0 0 0
0 0 0 0 0 0 0 0.0118835545795187 0 0 0 0 0 0 0 0 0 0 0 0 0 0 0 0 0 0 0 0 0 0 0 0 0 0 0 0 0 -0.187652318614849 0 0 0 0 0 -0.242935943127666 0 0 0 0 0 -0.559451154890735
0 0 0 0 0 0 0 0 0 0 0 0 0 0 0 0 0 0 0 0 0 0 0 0 0 0.0491975184894554 0 0 0 0 0 0 0 0 0 0 0 0 0 0 0 0 0 0 0 0 0 0 0 -0.910169884152104
0.384987567750171 0 0 0 0 0 0 0 0 0 0 0 0 0 0 0 0 0 0.0617871386574601 0 0.15203858594115 0 0 0 0 0.116668896517092 0 0 0 0 0 0 0 0 0 0 0 0 0 0 0 0 0 0 0 0 0 0 0 0
0 0 0 0 0 0 0 0 0 0 0 0 0 0 0 0 0.117637188097526 0 0 0.0609816409065434 0 0 0 0 0 0 0 0 0 0 0 0 0 0 0 0 0 0 0 0 0 0 0 0 0 0 0 0 0 0
0 0 0 0.217109189003268 0 0 0 0 0 0 0 0 0 0 0 0 0 0.157298242535059 0 0 0 0 0.0943607902354333 0 0 0 0 0 0 0 0 0 0 0 0 0 0 -0.295605558713762 0 0 0 0 0 0 0 -1.09488446797293 0 -6.6909877471763 0 0
0 0 0 0 0 0 0 0 0 0.209499552108409 0 0 0.0355519670908654 0.0722612793141362 0 0 0 0 0 0 0 0 0 0 0 0 0 0 0 0 0 0 0 0 0 0 0 0 0 0 0 0 0 0 0 0 0 0 0 0
0.103584415950953 0.0988208309299742 0 0 0 0 0 0 0 0 0 0 0 0 0 0 0 0.0682441522464591 0 0 0 0 0 0 0 0.0931420943925278 0 0 0.334874275544615 0 0 0 0 0 0 0 0 0 -0.887416765951149 0 0 0 0 0 -0.21347516025505 -0.351491471611893 0 0 0 -2.237432612861
0 0 0 0 0 0 0 0 0 0 0 0 0 0 0 0 0 0 0 0 0 0 0 0 0 0 0 0 0.1164106654646 0 0.0370120869434959 0 0 0 0.0588478495322816 0 0 0 0 0 0 0 0 0 0 0 0 0 0 0
0 0 0 0 0 0 0 0 0 0.112676063000771 0 0 0 0 0 1.64256235286817 0 0 0 0 0 0 0 0 0 0 0 0 0.0627496351367648 0 0 0 0 0 0 0 0.170338775677409 0 0 0 0 0 0 0 0 0 0 0 0 0
0 0 0 0 0 0 0 0 0 0 0.206335270608268 0 0 0 0 0 0 0 0 0.136103236864747 0 0 0 0 0 0 0 0 0 0 0 0 0 0 0 0 0 0 0 0 0 0 0 0 0 0 0 0 0 0
0 0 0 0 0 0 0 0 0 0 1.00799751472479 0 0 0 0 0 0 0 0 0 0 0 0 0 0 0 0 0 0 0 0 0 0 0 0 0 0 0 0 0 0 0 0 0 0 0 0 0 0 0
0 0 0 0 0 0 0 0 0.364603093601514 0 0 0 0 0 0 0 0 0 0 0 0 0 0 0 0.698336111149022 0 0 0 0 0.70700996125611 0 0 0 0 0 0 0 0 0 0 0 0 0 0 0 0 0 0 0 -1.36354818967634
0 0 0 0.140495699127536 0 0 0 0 0.101669908830902 0 0 0 0 0 0 0 0.031274801121356 0 0 0 0 0 0 0 0 0 0 0 0 0 0 0 0 0 0 0 0 0 0 0 0 0 0 -0.343780332524674 0 0 -0.441084829110672 0 0 0
0 0 0 0 0 0 0 0 0 0 0 0 0 0 0 0 0 0 0 0 0.0613695702812881 0 0 0 0 0 0 0 0 0 0.0508099889100699 0 0 0 0 0 0 0 0 0 0 0 0.0726537055968779 0 0 0 0 0 0 -0.395904549968231
0.0446296902821915 0 0 0 0 0 0 0 0 0 0 0 0.0925121551313086 0 0 0 0 0 0 0 0 0 0 0 0.133066201928737 0 0 1.13717172592604 0 0 0 0 0 0 0 0 0.0387112626950068 0 0 0 0 0 0 0 0 0 0 0 0 0
0 0 0 0 0 0 0.916944205241344 0 0 0 0.0212852460489684 0 0 0 0 0 0 0 0 0 0 1.00167227994759 0 0 0 0 0 0 0.310737461789959 0 0 0 0 0 0.202367504404665 0 0.0755204823525027 0 0 0 0 0 0 0 0 0 0 0 0 0
0 0 0 0 0 0 0.145752240320806 0 0 0 0 0.191331643389747 0 0 0 0 0 0 0 0 0 0 0.477839190041132 0.0510934407578809 0 0 0 0 0 0.0905937054462452 0 0 0 0 0 0 0 0 0 0 0 0 0.0890193834454618 0 0 0 0 -0.363686328091365 0 0
0 0.113967649609753 0 0 0 0 0.362759423907789 0 0 1.18603724317159 0.905591491344439 0 0 0 0 0 0 0 0 0 0 0 0 0 0 0 0 0 0.533897641171922 0 0 0 0 0 1.26153684005786 0 0 0 0 0 0 0 0 0 0 0 0.0719947109578822 0 0 0
0 0 0 0 0 0.456934852440082 0.0451890342284078 0 0 0 0 0 0 0 0 0 0 0 0 0 0 0 0 0 0 0 0 0 0 0 0 0 0 0 0 0 0 0 0 0 0 0 0 0 0 0 0 0 0 0
0 0 0 0 0 0 0 0 0 0.293360038134351 0 0 0 0 0 0 0 0 0 0 0 0 0 0 0.250732498718169 0 0 0 0 0 0.108607606902496 0.188554070163816 0 0 0 0 0.425636741986316 0 0 0 0 0.286449596854802 0 0.0867929836612375 0 0 0 0 0 0
