0.614764840476647
0.508449184742717
0.457242898170735
1.59280523672905
0.401954540592842
0.182143918124401
3.35435753716574
4.20047280179122
0.215443364464391
1.24806508968885
0.698782509752491
0.255466597999745
1.4002451197417
0.682299821030568
0.917005343981644
0.12645852330422
0.800370836834844
1.62735756141912
0.411519791397023
0.273533260393133
3.90592486711633
0.838880299691486
1.2357102471066
0.354670804225383
0.819629629846405
1.7212440320123
0.841036274720774
1.43426314403509
0.930776886117467
0.665387750414404
1.20560261098355
0.896784859390565
0.92805799223992
1.07408145693408
3.5268830840281
0.229980685991295
4.23346541939876
1.59115573186974
0.544395538593509
1.33834591488221
1.28573254832762
0.78347271908577
0.79505505116452
0.630483790548105
0.708024720333611
0.580471497540341
0.305101421519334
0.0902745978233484
0.618388954460028
0.60586727699574
