3.7308550466186
0.132170857256798
2.7214407362847
0.801648368474965
0.184382756944763
0.266833404018603
0.258440311890777
0.908788081310121
1.50317064974106
1.00429528101706
0.815189011407546
1.14727155957085
1.82935439445444
0.466504276409012
0.642658021764106
0.444199458643208
0.925636155884365
1.53562702307538
1.42513881365336
0.514806864425354
1.35390393113464
0.993579031281067
2.05837045222794
0.867489876938567
1.40104581470125
0.438120187440049
0.717340691299679
0.415952555134928
0.314498037116893
3.69402552684879
2.89957487847084
0.540765027958052
1.02938775654284
3.20227711522588
0.738611389371507
0.556670790444277
1.66536083975567
2.04765049340204
0.606003250104453
2.55317336715099
1.96882173112638
0.71237586152121
1.8743890325221
0.769426384719348
1.56423779380167
1.61045107863043
0.281480993658199
0.785110494196634
0.126009637568328
3.20846548747933
