0 0 0 0 0 -3.70192752320978 0 0 0 0 0 0 0 0 0 0 0 0 0 0 0 0 0 0 0 -1.69421001990065 0 0 0 0 0 0 0 0 0 0 0 0 0 0 0 -1.60636016879951 0 0 -1.58974133171714 0 0 0 0 0
0 0 0 0 -0.476055182008068 0 -1.11055086335657 0 0 0 0 0 -0.54478081502621 0 0 0 0 0 0 0 0 0 0 0 0 0 0 0 0 0 0 0 0 0 0 0 0 0 0 0 0 0 0 0 0 0 0 0 0 0
0 0 0 0 0 0 0 0 0 0 0 0 0 -0.174445838453415 0 0 0 0 0 -3.59889723433988 0 0 0 0 0 0 0 0 0 0 0 0 0 0 0 0 0 0 0 0 0 0 -0.92419322387929 0 0 0 0 0 0 0
0 0 0 0 0 0 0 0 0 -1.74583073221558 0 0 0 0 0 0 0 0 0 0 0 0 -1.06218480970112 -1.43452488632755 0 0 0 0 0 0 0 0 0 0 0 0 -0.591533872435195 0 0 0 0 0 0 0 0 0 -0.257745036314286 0 0 -1.09004584403394
0 0.0924475533122939 0 0 0 0 0 0 0 0 0 0 0 0 -5.23288527378952 0 0 0 0 0 -0.968831884821685 0 0 0 -0.810663348656886 0 0 0 0 0 0 0 0 0 0 0 -0.207658435050774 0 -1.15581752120865 0 0 0 0 0 0 -1.56281692277964 0 0 0 0
0.753869538349129 0 0 0 0 0 0 0 0 0 0 0 -1.06710140454813 0 0 0 0 0 0 0 -0.940151389756046 0 0 0 0 -0.938525647275468 0 0 0 0 0 0 0 0 0 0 0 0 0 0 0 0 0 0 0 0 0 0 0 0
0 0.225379471429138 0 0 0 0 0 0 0 0 0 0 0 0 0 0 0 0 0 0 0 0 0 0 0 0 0 0 0 -3.94945044397114 0 0 0 0 0 -1.23806227084531 0 0 -0.917988104554718 0 0 0 0 0 0 0 0 0 0 0
0 0 0 0 0 0 0 0 0 0 0 0 0 -2.40502574253801 0 0 0 0 -2.16037810213666 -0.425624740978673 0 0 0 0 0 0 0 0 0 0 0 0 0 0 0 0 0 0 0 -0.0773560648789496 0 -0.534975591448497 0 0 0 0 0 0 0 0
0 0 0 0 0 0 0 0 0 0 0 -0.187187292285296 0 0 0 0 -2.27922364491655 0 0 0 0 0 0 0 0 0 0 0 -1.77041826630506 0 0 0 0 0 0 -1.34424920606369 0 0 0 0 0 0 0 0 0 0 0 0 0 0
0 0 0 0.347302400333243 0 0 0 0 0 0 0 -0.341844871342351 0 0 0 0 -0.193428318069164 -0.101961843984856 0 -2.89464161989233 0 0 -0.754753119115137 0 0 -1.1553650467805 0 0 0 0 0 -0.716835662801484 -0.250155091913931 0 -2.15213694978439 0 0 0 0 0 0 0 0 0 0 0 0 0 -0.161806420032184 0
0 0 0 0 0 0 0 0 0 0 0 0 0 0 0 0 -0.793281749516177 0 0 0 0 0 0 0 -0.228241261084662 0 0 -0.452332623634357 0 -0.224970758743993 0 0 0 0 0 0 0 -1.16264439043652 0 0 0 0 -8.7765491206433 0 0 0 0 0 0 0
0 0 0 0 0 0 0 0 0.0374581744648211 0.0695458447759057 0 0 0 0 0 0 0 0 0 0 0 0 0 0 0 0 0 0 0 0 0 -2.34821647432271 0 0 0 -0.790772524433542 0 0 0 0 0 0 0 0 0 0 0 0 0 0
0 0.0959954498352467 0 0 0 0.208990229969947 0 0 0 0 0 0 0 0 0 0 -0.139700248428114 -0.313277843743865 0 0 0 0 0 0 0 0 -0.718641089354032 0 0 0 0 0 0 0 0 0 0 0 0 0 0 0 0 0 0 0 0 0 0 0
0 0 0.0342794670630289 0 0 0 0 0.466929667869707 0 0 0 0 0 0 0 0 0 0 0 0 0 0 0 0 0 -5.83203546633182 0 0 0 -2.07252867978621 0 0 0 0 -0.60886120977514 0 0 0 0 -7.19637651536361 0 0 0 0 0 0 0 0 0 0
0 0 0 0 1.06948126818044 0 0 0 0 0 0 0 0 0 0 0 0 -1.06785575335074 0 0 0 0 0 0 0 0 -0.589955211601837 0 0 0 0 -0.327695376654073 0 0 0 0 0 0 0 0 0 0 0 0 0 0 0 0 0 0
0 0 0 0 0 0 0 0 0 0 0 0 0 0 0 0 0 0 0 0 0 0 0 -9.56689111335223 -0.705228505436897 0 0 0 0 0 0 0 0 0 0 0 0 0 -1.89715245862583 0 0 0 0 -0.832870282876159 0 0 0 0 0 0
0 0 0 0 0 0 0 0 0.469993607761271 0.040707220282436 0.160837189981136 0 0.0285569125348169 0 0 0 0 0 0 0 -1.84195013971064 0 0 0 -4.07215425296612 0 0 0 0 0 0 0 0 0 0 0 0 -0.39564979173085 0 0 0 0 -1.35531321498124 -1.06145656214133 0 -6.49234927290611 -0.849814622397766 0 0 0
0 0 0 0 0 0 0 0 0 0.0208143747037737 0 0 0.0588118038949217 0 0.206236912217867 0 0 0 0 0 -0.465328196865989 0 0 0 0 0 0 0 -0.473553332723689 0 0 0 0 0 0 0 0 0 0 0 0 0 0 0 0 -0.624433751021768 0 0 0 0
0 0 0 0 0 0 0 0.429910149172811 0 0 0 0 0 0 0 0 0 0 0 -0.562055886555715 0 0 0 0 0 -5.00739168704744 0 0 0 0 -0.512907245329081 0 0 0 0 0 0 0 0 0 0 0 -0.143278961699047 0 0 0 -1.18054247876026 -1.2451732185028 0 0
0 0 0.742508923150964 0 0 0 0 0.0848412655150629 0 0.553329893718912 0 0 0 0 0 0 0 0 0.109413933219324 0 0 0 0 0 0 0 0 0 0 0 0 0 0 0 0 0 0 0 0 0 0 0 -1.65120462905979 0 0 0 0 0 -0.990619371633019 0
0 0 0 0 0.186269824989816 0.214442282151377 0 0 0 0 0 0 0 0 0 0 0.366011740679353 0.0937971121270289 0 0 0 0 -1.7919241179186 0 0 0 0 0 0 0 0 0 0 0 0 0 0 0 0 0 -0.490890630201903 0 0 -0.949886223993252 0 0 0 0 0 0
0 0 0 0 0 0 0 0 0 0 0 0 0 0 0 0 0 0 0 0 0 0 0 0 0 0 0 -0.832390181257761 0 -0.527203990612884 0 0 0 0 0 0 0 0 0 0 0 0 0 0 0 0 0 0 0 0
0 0 0 0.211707936084065 0 0 0 0 0 0.151982125765486 0 0 0 0 0 0 0 0 0 0 0.383925531609087 0 0 0 0 0 0 0 0 -2.66692953435598 0 -0.33818740457886 0 0 -1.11896248362089 0 0 0 0 0 0 0 0 0 0 0 0 0 0 0
0 0 0 0.291505112220265 0 0 0 0 0 0 0 0 0 0 0 1.90134403387362 0 0 0 0 0 0 0 0 0 0 0 0 0 0 0 0 0 0 0 0 0 0 0 0 0 0 0 0 0 0 0 0 0 0
0 0 0 0 0.141149309822905 0 0 0 0 0 0.0433904373830448 0 0 0 0 0.146688060509252 0.810303257398811 0 0 0 0 0 0 0 0 0 0 0 0 0 0 0 0 0 0 0 0 0 0 0 0 0 0 0 0 0 0 0 0 0
0.350066879945334 0 0 0 0 0.206677630440047 0 0 0 0.242712502763927 0 0 0 1.16367905132594 0 0 0 0 1.05524952485444 0 0 0 0 0 0 0 0 0 0 0 0 0 0 0 0 0 0 0 0 0 -1.60353186542609 0 0 0 0 0 0 0 0 0
0 0 0 0 0 0 0 0 0 0 0 0 0.14204027729313 0 0.108086313240957 0 0 0 0 0 0 0 0 0 0 0 0 0 0 0 0 0 0 0 0 0 -1.29751272687628 0 0 0 0 0 0 0 0 0 0 0 0 0
0 0 0 0 0 0 0 0 0 0 0.0971382516617762 0 0 0 0 0 0 0 0 0 0 0.170071653816321 0 0 0 0 0 0 0 0 0 0 0 0 0 -1.27523759051042 0 0 0 0 0 0 0 0 0 0 0 0 0 0
0 0 0 0 0 0 0 0 0.353619697491094 0 0 0 0 0 0 0 0 0.104563420962979 0 0 0 0 0 0 0 0 0 0 0 0 0 0 0 0 0 0 0 0 0 -0.840748859544876 0 0 0 0 0 0 -0.870081060538583 0 0 0
0 0 0 0 0 0 0.730315253889939 0 0 0 0.0445757828271172 0 0 0.393338490599139 0 0 0 0 0 0 0 0.113385836364809 0.513696529566683 0 0 0 0 0 0 0 0 0 0 0 0 0 0 0 0 0 -2.46372827556285 0 -1.12876406179715 0 0 0 0 0 0 0
0 0 0 0 0 0 0 0 0 0 0 0 0 0 0 0 0 0 0.10204244919571 0 0 0 0 0 0 0 0 0 0 0 0 0 0 0 0 0 0 0 0 0 0 0 0 0 -5.7871170190559 0 0 -0.506845081170629 0 0
0 0 0 0 0 0 0 0 0 0.143258339581368 0 0.480275956004331 0 0 0.0736313535659882 0 0 0 0 0 0 0 0.0703599905722094 0 0 0 0 0 0 0 0 0 0 0 0 0 0 0 0 0 -1.13093101377929 0 0 0 0 -0.417315370702935 0 0 0 0
0 0 0 0 0 0 0 0 0 0.051444603313107 0 0 0 0 0 0 0 0 0 0 0 0 0 0 0 0 0 0 0 0 0 0 0 0 -0.446015995560883 0 0 0 0 0 0 0 0 0 0 0 0 0 0 0
0 0 0 0 0 0 0 0 0 0 0 0 0 0 0 0 0 0 0 0 0 0 0 0 0 0 0 0 0 0 0 0 0 0 0 0 0 0 0 0 0 -1.13814962794912 -0.171170318181732 0 0 0 0 0 -0.690180541875414 0
0 0 0 0 0 0 0 0 0 0.432427076520526 0 0 0 0.124442386614941 0 0 0 0 0 0 0 0 0.222809465838094 0 0 0 0 0 0 0 0 0 0.0847662528857154 0 0 0 0 -0.91673966191514 0 -7.67028354847891 0 0 0 0 0 0 -0.767468781301314 0 0 0
0 0 0 0 0 0 0.242891430468084 0 0.263937983291681 0 0 0.163952265206539 0 0 0 0 0 0 0 0 0 0 0 0 0 0 0 0.239449827125879 0 0 0 0 0 0 0 0 0 -0.885369872109315 0 0 0 0 0 0 0 0 -0.360938195225334 0 0 0
0 0 0 0.108468893143476 0.047074037907049 0 0 0 0 0 0 0 0 0 0 0 0 0 0 0 0 0 0 0 0 0 0.26761362590379 0 0 0 0 0 0 0 0 0 0 0 0 0 0 0 0 0 0 0 0 0 0 0
0 0 0 0 0 0 0 0 0 0 0.21663682679985 0 0 0 0 0 0.0734590543508924 0 0 0 0 0 0 0 0 0 0 0 0 0 0 0 0 0 0.182264626667823 0.176618974178934 0 0 0 0 -1.68119993187034 0 -0.629467146083362 0 0 0 0 0 0 0
0 0 0 0 0.220825243742139 0 0.188264237011721 0 0 0 0 0 0 0 0 0.400249494788936 0 0 0 0 0 0 0 0 0 0 0 0 0 0 0 0 0 0 0 0 0 0 0 -0.671803596773502 0 0 0 0 0 0 0 0 0 0
0 0 0 0 0 0 0 0.0151334460134054 0 0 0 0 0 1.36236808283508 0 0 0 0 0 0 0 0 0 0 0 0 0 0 0.1630443289626 0 0 0 0 0 1.52846892240809 0 0 0 0.14326824471919 0 0 0 0 0 0 0 0 0 0 0
0 0 0 0 0 0 0 0 0 0 0 0 0 0 0 0 0 0 0 0 0.100576997591659 0 0 0 0 0.3296404277733 0 0 0 0.51560604612875 0 0.222355663732505 0 0 0 0 0 0.308049956594464 0 0 0 -0.224248817217088 0 0 0 0 -0.660479141352334 0 0 0
0.335952830541407 0 0 0 0 0 0 0.102219333310477 0 0 0 0 0 0 0 0 0 0 0 0 0 0 0 0 0 0 0 0 0 0 0 0 0 0.221371319224776 0 0 0 0 0 0 0.0452658354988613 0 0 0 0 0 0 0 0 -0.310431698632659
0 0 0.186823510467634 0 0 0 0 0 0 0 1.69417440670009 0 0 0 0 0 0.266146817758369 0 0.0297691660442022 0.339485678541296 0 0 0 0 0 0 0 0 0 0.202565044587862 0 0 0 0.0326559281805137 0 0 0 0.120686204067771 0 0 0 0 0 0 0 0 0 0 0 0
0 0 0 0 0 0 0 0 0 0 0 0 0 0 0 0.175093224018047 0.21525225145833 0 0 0 0.20497411301407 0 0 0 0 0 0 0 0 0 0 0 0 0 0 0 0 0 0 0 0 0 0 0 0 0 0 0 0 0
0.341548425591581 0 0 0 0 0 0 0 0 0 0 0 0 0 0 0 0 0 0 0 0 0 0 0 0 0 0 0 0 0 1.16454716647243 0 0 0 0 0 0 0 0 0 0 0 0 0 0 0 0 0 0 0
0 0 0 0 0.316825257818431 0 0 0 0 0 0 0 0 0 0 0 1.31376172702669 0.136516912879418 0 0 0 0 0 0 0 0 0 0 0 0 0 0.0870990561079197 0 0 0 0 0 0 0 0 0 0 0 0 0 0 0 -1.45895663051675 -0.588221607337252 0
0 0 0 0.0553431199252508 0 0 0 0 0 0 0 0 0 0 0 0 0.152677478971892 0 0.238063333985181 0 0 0 0 0 0 0 0 0 0.176473962155366 0 0 0 0 0 0.151815743783811 0.0738424397554388 0 0 0 0 0.136032842059184 0 0 0 0 0 0 0 0 0
0 0 0 0 0 0 0 0 0 0 0 0 0 0 0 0 0 0 0.256536725983161 0 0 0 0 0 0 0 0 0 0 0 0.0999441995557977 0 0 0 0 0 0 0 0 0 0 0 0 0 0 0.266390889327847 0 0 -0.974293184393741 0
0 0 0 0 0 0 0 0 0 0.0319437958589901 0 0 0 0 0 0 0 0 0 0.178260260632213 0 0 0 0 0 0 0 0 0 0 0 0 0 0.138742521777504 0 0 0 0 0 0 0 0 0 0 0 0.120850642480995 0 0.193391916758429 0 0
0 0 0 0.208350671387702 0 0 0 0 0 0 0 0 0 0 0 0 0 0 0 0 0 0 0 0 0 0 0 0 0 0 0 0 0 0 0 0 0 0 0 0 0 0.0582774178460919 0 0 0 0 0 0 0 0
