0 0 0 0 0 -1.6533630276692 0 0 0 0 0 0 0 0 0 0 0 0 0 0 0 0 0 0 0 -5.21287699036212 0 0 0 0 0 0 0 0 0 0 0 0 0 0 0 -1.39006711094146 0 0 -2.32228721604768 0 0 0 0 0
0 0 0 0 -1.38613643024168 0 -0.775637613369647 0 0 0 0 0 -2.15385495138648 0 0 0 0 0 0 0 0 0 0 0 0 0 0 0 0 0 0 0 0 0 0 0 0 0 0 0 0 0 0 0 0 0 0 0 0 0
0 0 0 0 0 0 0 0 0 0 0 0 0 -1.8641857970808 0 0 0 0 0 -0.293944446004703 0 0 0 0 0 0 0 0 0 0 0 0 0 0 0 0 0 0 0 0 0 0 -0.709880151630189 0 0 0 0 0 0 0
0 0 0 0 0 0 0 0 0 -0.516760361301724 0 0 0 0 0 0 0 0 0 0 0 0 -2.91246007990273 -0.526440175478793 0 0 0 0 0 0 0 0 0 0 0 0 -2.32757472809798 0 0 0 0 0 0 0 0 0 -3.12272431456002 0 0 -0.488404318540778
0 0.251550857638196 0 0 0 0 0 0 0 0 0 0 0 0 -0.606165038268216 0 0 0 0 0 -0.458147581001232 0 0 0 -0.316103133448586 0 0 0 0 0 0 0 0 0 0 0 -1.87895501333978 0 -7.45509430344911 0 0 0 0 0 0 -0.7053683641004 0 0 0 0
0.34661056450897 0 0 0 0 0 0 0 0 0 0 0 -0.992616171978064 0 0 0 0 0 0 0 -0.422046913325341 0 0 0 0 -0.833381460675561 0 0 0 0 0 0 0 0 0 0 0 0 0 0 0 0 0 0 0 0 0 0 0 0
0 0.153331195231247 0 0 0 0 0 0 0 0 0 0 0 0 0 0 0 0 0 0 0 0 0 0 0 0 0 0 0 -0.77794473851105 0 0 0 0 0 -2.28122330236816 0 0 -2.09549301038347 0 0 0 0 0 0 0 0 0 0 0
0 0 0 0 0 0 0 0 0 0 0 0 0 -3.09661449067778 0 0 0 0 -0.823127432888894 -1.27899820874628 0 0 0 0 0 0 0 0 0 0 0 0 0 0 0 0 0 0 0 -2.84384264565096 0 -1.14275202917298 0 0 0 0 0 0 0 0
0 0 0 0 0 0 0 0 0 0 0 -0.932127382207785 0 0 0 0 -0.316003495855035 0 0 0 0 0 0 0 0 0 0 0 -0.322427255943974 0 0 0 0 0 0 -0.214290593394403 0 0 0 0 0 0 0 0 0 0 0 0 0 0
0 0 0 0.104341958060865 0 0 0 0 0 0 0 -0.449665118607317 0 0 0 0 -1.0823530535451 -2.36634550374876 0 -0.689174102963754 0 0 -5.68064951922179 0 0 -0.130530003382657 0 0 0 0 0 -0.189555084033312 -3.32565835342149 0 -0.803908730613936 0 0 0 0 0 0 0 0 0 0 0 0 0 -5.08148679421714 0
0 0 0 0 0 0 0 0 0 0 0 0 0 0 0 0 -0.153035255320822 0 0 0 0 0 0 0 -6.17376400300181 0 0 -1.3821433873611 0 -3.81181587684022 0 0 0 0 0 0 0 -4.06312505648447 0 0 0 0 -0.706921349768713 0 0 0 0 0 0 0
0 0 0 0 0 0 0 0 0.175222577518425 0.0913146169635383 0 0 0 0 0 0 0 0 0 0 0 0 0 0 0 0 0 0 0 0 0 -0.248386971165004 0 0 0 -2.77141320705273 0 0 0 0 0 0 0 0 0 0 0 0 0 0
0 0.454667362678391 0 0 0 0.193804533093047 0 0 0 0 0 0 0 0 0 0 -2.42781749594194 -0.241805275535492 0 0 0 0 0 0 0 0 -1.07446631256694 0 0 0 0 0 0 0 0 0 0 0 0 0 0 0 0 0 0 0 0 0 0 0
0 0 0.377236090262923 0 0 0 0 0.651672000646443 0 0 0 0 0 0 0 0 0 0 0 0 0 0 0 0 0 -1.66491193289582 0 0 0 -6.65348444707719 0 0 0 0 -0.430724738122974 0 0 0 0 -0.318101383903602 0 0 0 0 0 0 0 0 0 0
0 0 0 0 0.12207116058064 0 0 0 0 0 0 0 0 0 0 0 0 -2.19861024110507 0 0 0 0 0 0 0 0 -0.321666852940341 0 0 0 0 -8.15269796630665 0 0 0 0 0 0 0 0 0 0 0 0 0 0 0 0 0 0
0 0 0 0 0 0 0 0 0 0 0 0 0 0 0 0 0 0 0 0 0 0 0 -0.200556442552226 -1.67709861348114 0 0 0 0 0 0 0 0 0 0 0 0 0 -1.69426201006622 0 0 0 0 -2.8360380046623 0 0 0 0 0 0
0 0 0 0 0 0 0 0 0.060932058638771 0.213057896499172 0.0322267270174836 0 0.497271436851399 0 0 0 0 0 0 0 -1.58250345952456 0 0 0 -0.648199481808819 0 0 0 0 0 0 0 0 0 0 0 0 -0.744979804753293 0 0 0 0 -1.99698483236335 -1.11505373224977 0 -0.522757800575756 -1.41537490849628 0 0 0
0 0 0 0 0 0 0 0 0 0.498868017270259 0 0 0.049965139281599 0 0.461849566557951 0 0 0 0 0 -1.34496377136431 0 0 0 0 0 0 0 -2.31929148157918 0 0 0 0 0 0 0 0 0 0 0 0 0 0 0 0 -1.55919289689036 0 0 0 0
0 0 0 0 0 0 0 0.16710613619999 0 0 0 0 0 0 0 0 0 0 0 -1.12119611795883 0 0 0 0 0 -0.546796665698561 0 0 0 0 -1.07729749453576 0 0 0 0 0 0 0 0 0 0 0 -0.540978058334437 0 0 0 -0.542555501655784 -0.142339525818666 0 0
0 0 0.0602322905263186 0 0 0 0 0.251603745136444 0 0.140288260926041 0 0 0 0 0 0 0 0 0.224440287239142 0 0 0 0 0 0 0 0 0 0 0 0 0 0 0 0 0 0 0 0 0 0 0 -1.93798498008652 0 0 0 0 0 -0.750329319817152 0
0 0 0 0 0.0892637856882794 0.0809608212986774 0 0 0 0 0 0 0 0 0 0 0.336045318130702 0.282823161541214 0 0 0 0 -0.369861266845359 0 0 0 0 0 0 0 0 0 0 0 0 0 0 0 0 0 -2.26781515189278 0 0 -0.319712346453356 0 0 0 0 0 0
0 0 0 0 0 0 0 0 0 0 0 0 0 0 0 0 0 0 0 0 0 0 0 0 0 0 0 -0.84455395514821 0 -0.725029540781743 0 0 0 0 0 0 0 0 0 0 0 0 0 0 0 0 0 0 0 0
0 0 0 0.592816382146609 0 0 0 0 0 1.2000643168502 0 0 0 0 0 0 0 0 0 0 0.0757289635379543 0 0 0 0 0 0 0 0 -5.03175930273402 0 -0.273429182301752 0 0 -3.11171966720761 0 0 0 0 0 0 0 0 0 0 0 0 0 0 0
0 0 0 0.0988288896076034 0 0 0 0 0 0 0 0 0 0 0 0.0389276963097482 0 0 0 0 0 0 0 0 0 0 0 0 0 0 0 0 0 0 0 0 0 0 0 0 0 0 0 0 0 0 0 0 0 0
0 0 0 0 0.0622925335557318 0 0 0 0 0 1.32855108063808 0 0 0 0 0.353840392348022 0.128922898367658 0 0 0 0 0 0 0 0 0 0 0 0 0 0 0 0 0 0 0 0 0 0 0 0 0 0 0 0 0 0 0 0 0
1.16616866644703 0 0 0 0 0.169209131951667 0 0 0 0.0247584279744156 0 0 0 0.326116012021953 0 0 0 0 0.113722968440614 0 0 0 0 0 0 0 0 0 0 0 0 0 0 0 0 0 0 0 0 0 -4.10770832901522 0 0 0 0 0 0 0 0 0
0 0 0 0 0 0 0 0 0 0 0 0 0.205981590760559 0 0.0714052845858305 0 0 0 0 0 0 0 0 0 0 0 0 0 0 0 0 0 0 0 0 0 -2.41227400540479 0 0 0 0 0 0 0 0 0 0 0 0 0
0 0 0 0 0 0 0 0 0 0 0.261947358085433 0 0 0 0 0 0 0 0 0 0 0.165865437791591 0 0 0 0 0 0 0 0 0 0 0 0 0 -0.606796435550749 0 0 0 0 0 0 0 0 0 0 0 0 0 0
0 0 0 0 0 0 0 0 0.0646130178165724 0 0 0 0 0 0 0 0 0.484892961603343 0 0 0 0 0 0 0 0 0 0 0 0 0 0 0 0 0 0 0 0 0 -0.909222652157793 0 0 0 0 0 0 -3.82769164980213 0 0 0
0 0 0 0 0 0 0.158099323118431 0 0 0 0.793170361281128 0 0 1.43128664668393 0 0 0 0 0 0 0 0.143437680033851 0.985309869786722 0 0 0 0 0 0 0 0 0 0 0 0 0 0 0 0 0 -1.40984287869599 0 -0.485898332708744 0 0 0 0 0 0 0
0 0 0 0 0 0 0 0 0 0 0 0 0 0 0 0 0 0 0.20365311443135 0 0 0 0 0 0 0 0 0 0 0 0 0 0 0 0 0 0 0 0 0 0 0 0 0 -1.56071346785529 0 0 -0.621387695949255 0 0
0 0 0 0 0 0 0 0 0 0.0385091169106804 0 0.0498489687581996 0 0 1.5691812802244 0 0 0 0 0 0 0 0.057757577817285 0 0 0 0 0 0 0 0 0 0 0 0 0 0 0 0 0 -1.02481908632405 0 0 0 0 -0.754953555475245 0 0 0 0
0 0 0 0 0 0 0 0 0 0.678689835279468 0 0 0 0 0 0 0 0 0 0 0 0 0 0 0 0 0 0 0 0 0 0 0 0 -0.3088421778292 0 0 0 0 0 0 0 0 0 0 0 0 0 0 0
0 0 0 0 0 0 0 0 0 0 0 0 0 0 0 0 0 0 0 0 0 0 0 0 0 0 0 0 0 0 0 0 0 0 0 0 0 0 0 0 0 -8.28355835702727 -2.09222561011583 0 0 0 0 0 -0.293009228743103 0
0 0 0 0 0 0 0 0 0 0.167773472174057 0 0 0 0.0845711126314461 0 0 0 0 0 0 0 0 0.61786890731913 0 0 0 0 0 0 0 0 0 0.0646429914364525 0 0 0 0 -2.98953658183164 0 -0.780900726465756 0 0 0 0 0 0 -0.783079682713917 0 0 0
0 0 0 0 0 0 0.475304934098212 0 0.0403914174358406 0 0 0.581741592863978 0 0 0 0 0 0 0 0 0 0 0 0 0 0 0 0.118722823559799 0 0 0 0 0 0 0 0 0 -2.63087281764797 0 0 0 0 0 0 0 0 -0.572482594980643 0 0 0
0 0 0 0.486737577524935 0.389039582251199 0 0 0 0 0 0 0 0 0 0 0 0 0 0 0 0 0 0 0 0 0 0.472409347499296 0 0 0 0 0 0 0 0 0 0 0 0 0 0 0 0 0 0 0 0 0 0 0
0 0 0 0 0 0 0 0 0 0 0.889779681775732 0 0 0 0 0 0.142627296401628 0 0 0 0 0 0 0 0 0 0 0 0 0 0 0 0 0 0.553584353909308 0.501531918275073 0 0 0 0 -0.969181066200515 0 -0.639743954078354 0 0 0 0 0 0 0
0 0 0 0 1.5410951846378 0 0.436156354521292 0 0 0 0 0 0 0 0 0.382380605920419 0 0 0 0 0 0 0 0 0 0 0 0 0 0 0 0 0 0 0 0 0 0 0 -1.76374603221049 0 0 0 0 0 0 0 0 0 0
0 0 0 0 0 0 0 0.512897291923544 0 0 0 0 0 0.0687682333330942 0 0 0 0 0 0 0 0 0 0 0 0 0 0 0.176277519802523 0 0 0 0 0 0.17109353520151 0 0 0 0.380455823618966 0 0 0 0 0 0 0 0 0 0 0
0 0 0 0 0 0 0 0 0 0 0 0 0 0 0 0 0 0 0 0 0.450782887098882 0 0 0 0 0.776262477279558 0 0 0 0.29706460337246 0 0.215987524715512 0 0 0 0 0 0.194906269361627 0 0 0 -0.421618039392058 0 0 0 0 -0.712520583346085 0 0 0
0.295120284104893 0 0 0 0 0 0 0.234548702527393 0 0 0 0 0 0 0 0 0 0 0 0 0 0 0 0 0 0 0 0 0 0 0 0 0 1.53784176891955 0 0 0 0 0 0 0.0883075293954982 0 0 0 0 0 0 0 0 -0.881758242760601
0 0 0.140373163139956 0 0 0 0 0 0 0 0.143875625093604 0 0 0 0 0 0.401295210670479 0 0.118166341859111 0.390101639323763 0 0 0 0 0 0 0 0 0 0.105814745741663 0 0 0 0.397837522685917 0 0 0 0.120902925743323 0 0 0 0 0 0 0 0 0 0 0 0
0 0 0 0 0 0 0 0 0 0 0 0 0 0 0 0.621297315727779 0.228717998520684 0 0 0 0.0615039694055482 0 0 0 0 0 0 0 0 0 0 0 0 0 0 0 0 0 0 0 0 0 0 0 0 0 0 0 0 0
0.494623586994852 0 0 0 0 0 0 0 0 0 0 0 0 0 0 0 0 0 0 0 0 0 0 0 0 0 0 0 0 0 0.310120725199892 0 0 0 0 0 0 0 0 0 0 0 0 0 0 0 0 0 0 0
0 0 0 0 0.13768692114572 0 0 0 0 0 0 0 0 0 0 0 0.114289664065597 0.295631248799062 0 0 0 0 0 0 0 0 0 0 0 0 0 0.151177481991351 0 0 0 0 0 0 0 0 0 0 0 0 0 0 0 -1.32282776031652 -1.04847765026884 0
0 0 0 0.62817585620064 0 0 0 0 0 0 0 0 0 0 0 0 0.274660889232028 0 0.0997069785414209 0 0 0 0 0 0 0 0 0 0.746207895656173 0 0 0 0 0 0.153919959957313 0.120015402509008 0 0 0 0 0.137699792415891 0 0 0 0 0 0 0 0 0
0 0 0 0 0 0 0 0 0 0 0 0 0 0 0 0 0 0 0.0269285782211731 0 0 0 0 0 0 0 0 0 0 0 0.125862361400828 0 0 0 0 0 0 0 0 0 0 0 0 0 0 0.251738487060654 0 0 -1.88714123089961 0
0 0 0 0 0 0 0 0 0 0.966916092804983 0 0 0 0 0 0 0 0 0 0.147279598630199 0 0 0 0 0 0 0 0 0 0 0 0 0 0.0555166337144143 0 0 0 0 0 0 0 0 0 0 0 0.207167492147995 0 0.364803830717458 0 0
0 0 0 0.109732575134507 0 0 0 0 0 0 0 0 0 0 0 0 0 0 0 0 0 0 0 0 0 0 0 0 0 0 0 0 0 0 0 0 0 0 0 0 0 0.18005339652135 0 0 0 0 0 0 0 0
