0 0 0 0 0 0 -0.142725324165773 0 0 0 0 0 0 0 0 0 0 0 0 0 0 0 0 0 0 0 -2.51668580192158 0 0 0 0 0 -1.13362807137235 0 -0.120141288968665 0 -2.16911691054344 0 0 0 0 0 0 0 0 0 0 -2.88820540356238 0 0
0 0 0 -1.18683107013572 0 0 0 0 -1.21213254424807 0 0 0 0 -0.572551201329608 -0.808368398418262 0 0 0 0 0 0 0 0 0 0 0 0 0 0 0 0 -0.156210548890376 0 0 0 0 0 0 0 0 0 0 0 0 0 0 0 0 0 0
0 0 0 0 0 0 0 0 0 0 0 0 0 0 0 -1.58321115472181 0 0 -1.43521587594112 0 0 0 0 0 0 0 0 0 0 0 0 0 0 0 0 -0.702197277836599 0 0 -1.20641755482758 0 0 0 0 0 0 0 0 0 0 0
0 0.251807440525308 0 0 0 0 0 0 0 0 0 0 -0.327071255359738 0 0 0 0 0 0 0 0 0 0 0 0 0 0 0 0 0 0 0 0 -0.21203147719726 0 0 0 0 0 -3.29608773892217 0 0 0 0 0 0 0 0 0 0
0 0 0 0 0 0 0 0 0 0 0 0 -4.65389762940512 0 -1.00800022045201 0 0 0 0 -0.563106978953149 0 -0.867604705147698 0 0 0 0 0 0 0 -0.187898459476294 0 0 -2.18982035548066 0 0 0 0 0 -0.986918595918521 0 0 0 0 0 0 0 0 0 0 0
0 0 0 0 0 0 0 0 0 0 0 -1.36896345702896 0 0 0 0 0 0 0 0 0 0 0 0 0 0 0 0 0 0 0 0 0 0 0 0 -1.41607844002541 0 0 0 0 0 0 0 0 -0.823001215036402 0 0 0 0
0.0265784067560021 0 0 0 0 0 0 0 0 0 0 0 0 0 0 0 0 0 0 0 0 0 0 0 0 -0.514725868311742 0 0 0 0 0 0 0 0 0 0 0 0 0 0 0 0 0 0 0 0 0 0 -0.756329832300242 0
0 0 0 0 0 0 0 0 0 0 0 0 0 0 -0.183188145302028 0 0 0 0 0 0 0 0 0 0 0 0 0 0 0 0 -0.301521713524639 0 0 0 0 -0.511912911276239 0 0 0 0 0 0 0 0 0 0 0 0 0
0 0.256207042211059 0 0 0 0 0 0 0 0 0 0 -0.589130443204589 0 0 0 0 0 0 0 0 0 0 0 0 -0.218102138189677 0 0 -0.682416526089603 0 0 0 0 0 0 0 0 0 0 0 0 0 0 0 0 0 0 0 0 0
0 0 0 0 0 0 0 0 0 0 0 0 0 0 0 0 0 0 0 0 0 0 0 -0.536832929440675 0 0 0 0 -1.6757993177085 0 0 0 0 0 0 0 0 0 0 0 0 0 0 0 0 0 0 0 0 0
0 0 0 0 0 0 0 0 0 0 0 0 0 -2.40750379973297 0 0 -1.36644809279225 0 -3.89461568274802 0 0 0 0 0 0 0 0 0 -4.55539191867761 0 0 0 0 0 0 0 0 0 0 0 0 0 0 -0.142028728265984 -2.18150444439379 0 -0.393271455952509 -2.1369729801522 0 -1.44866433544981
0 0 0 0 0 0.23545104582299 0 0 0 0 0 0 -3.0166603277525 0 0 0 0 0 0 0 0 0 0 0 -4.16686554587185 0 0 0 0 0 0 0 -0.880325741211965 0 0 0 0 0 0 0 0 0 0 0 0 0 0 0 0 0
0 0 0 0.0674612014223839 0.929719014271935 0 0 0 0.121620043429327 0 0 0.644454880337603 0 0 0 0 0 0 0 0 0 0 0 0 0 0 0 0 0 0 0 0 0 -0.408772329840222 0 0 0 0 0 0 0 0 0 0 0 0 0 0 0 0
0 0.112492672520648 0 0 0 0 0 0 0 0 0.488604756842161 0 0 0 0 0 -1.23507092286129 0 0 0 0 0 0 0 0 0 0 0 0 0 0 0 -6.11074134066856 0 0 0 0 0 0 0 0 0 0 0 0 -1.70627757651891 0 0 0 0
0 0.153328951172504 0 0 0.20555790282709 0 0 0.0372577203130176 0 0 0 0 0 0 0 0 0 0 0 0 0 0 0 0 0 0 0 0 0 0 -1.77706993209576 0 0 0 0 0 0 0 0 0 -0.758899342783533 0 0 0 0 0 -1.57912332393716 0 0 0
0 0 0.336958337019374 0 0 0 0 0 0 0 0 0 0 0 0 0 0 0 -3.39660111718132 0 0 -1.64126419818636 0 0 0 0 0 0 0 0 0 0 0 0 0 0 0 0 0 0 0 -2.74244947709782 0 0 0 0 0 0 0 0
0 0 0 0 0 0 0 0 0 0 0.286436734523015 0 0 0.238396541896159 0 0 0 0 0 0 0 0 0 0 0 0 0 0 0 0 0 0 -3.53796198532972 0 0 0 0 0 0 0 0 0 -4.35930559226273 0 0 0 0 0 0 0
0 0 0 0 0 0 0 0 0 0 0 0 0 0 0 0 0 0 0 0 0 -1.00709666957297 0 0 0 0 0 0 0 0 0 -0.159790732392712 0 0 0 0 0 -0.533885230115171 0 0 0 0 0 0 0 0 0 0 0 0
0 0 0.254522050507768 0 0 0 0 0 0 0 0.755747267907736 0 0 0 0 0.663840819518723 0 0 0 0 0 0 0 0 0 0 0 0 0 0 0 0 0 0 0 0 0 0 0 0 0 -2.61956074336392 0 0 0 0 0 0 0 0
0 0 0 0 0.123814890684327 0 0 0 0 0 0 0 0 0 0 0 0 0 0 0 0 0 -0.155274516402383 -2.13379123237301 0 0 0 -1.52641868133014 0 0 0 0 0 0 0 0 0 0 0 0 0 0 0 0 0 0 0 0 -0.473135608034492 0
0 0 0 0 0 0 0 0 0 0 0 0 0 0 0 0 0 0 0 0 0 0 0 0 0 0 0 0 0 0 0 0 0 0 0 0 0 0 0 -0.45528916962287 0 0 0 -0.91977650171404 0 0 0 0 0 0
0 0 0 0 0.177461639441983 0 0 0 0 0 0 0 0 0 0 0.335785328424461 0 0.210338277090125 0 0 0 0 0 0 0 0 -0.737642548151141 0 0 0 0 0 0 0 0 0 0 0 0 -0.166626898645979 0 0 0 0 0 0 -1.30701885146838 0 0 0
0 0 0 0 0 0 0 0 0 0 0 0 0 0 0 0 0 0 0 0.0278214962668074 0 0 0 -0.626784153416433 0 0 -0.143211718906388 0 0 0 0 0 0 0 0 0 0 0 0 0 0 0 0 0 0 0 0 0 0 0
0 0 0 0 0 0 0 0 0 0.105642060352298 0 0 0 0 0 0 0 0 0 0.428442930604569 0 0 0.122268881620115 0 0 0 0 -2.78892996345658 0 -0.500208696278657 0 0 0 0 0 0 0 0 0 0 -7.2780218495192 0 0 0 0 0 -1.31904548786074 0 0 0
0 0 0 0 0 0 0 0 0 0 0 0.85458846634656 0 0 0 0 0 0 0 0 0 0 0 0 0 0 -1.4308937162693 0 0 0 0 0 0 0 -0.263486506250442 0 0 0 0 0 -0.469879931943517 0 -0.478696068184853 0 0 0 0 0 0 0
0 0 0 0 0 0 0.103470570648847 0 0.0465080689710673 0 0 0 0 0 0 0 0 0 0 0 0 0 0 0 0 0 -0.841843555729347 0 0 0 0 0 0 0 0 -0.934381873274207 0 0 0 -2.48457100340697 0 0 0 0 0 0 0 0 0 0
0.498807201504107 0 0 0 0 0 0 0 0 0 0 0 0 0 0 0 0 0 0 0 0 0.15441018641131 0.0265366580616117 0 0.267953541629374 0.166132826103207 0 0 0 0 0 0 0 0 0 0 0 0 -0.691823264322095 0 0 -1.18394759992999 0 -1.22318899795328 0 0 0 -0.606082922661035 0 0
0 0 0 0 0 0 0 0 0 0 0 0 0 0 0 0 0 0 0 0.297064582796812 0 0 0 0.582415067196026 0 0 0 0 0 0 0 0 0 0 0 0 0 0 0 -2.0747590829091 0 -0.280530962542267 0 0 0 0 0 0 -3.52305410719002 0
0 0 0 0 0 0 0 0 0.144173609784535 0.334649966814161 0.844483678740863 0 0 0 0 0 0 0 0 0 0 0 0 0 0 0 0 0 0 0 0 0 0 0 0 0 0 0 -1.0674262337319 0 0 0 0 0 0 0 0 0 0 0
0 0 0 0 0.0354348497563256 0 0 0 0 0 0 0 0 0 0 0 0 0 0 0 0 0 0 0.102847207358855 0 0 0 0 0 0 0 0 0 0 0 0 0 0 0 0 0 0 0 0 0 0 0 0 0 0
0 0 0 0 0 0 0 0 0 0 0 0 0 0 0.348067635292827 0 0 0 0 0 0 0 0 0 0 0 0 0 0 0 0 0 -0.125434984245136 -0.670685461257547 0 0 -1.22676403167329 0 0 0 0 0 0 0 0 0 0 -0.443842869091287 0 0
0 0.0341096063499318 0 0 0 0 0 0.059492491159801 0 0 0 0 0 0 0 0 0 0.0311319590834978 0 0 0 0 0 0 0 0 0 0 0 0 0 0 0 0 0 0 0 0 0 0 0 0 0 0 0 -0.787754077903438 0 0 0 0
0.2360224930667 0 0 0 0.416227747822614 0 0 0 0 0 0 0.169003832673056 0 1.13752236086625 0 0 0.63556355956449 0 0 0 0 0 0 0 0 0 0 0 0 0 0.0259577523719469 0 0 0 -0.502460769744175 0 0 0 0 0 0 0 0 0 0 0 0 -1.54231990315632 0 0
0 0 0 0.0405162292283951 0 0 0 0 0 0 0 0 0.0742106754152435 0 0 0 0 0 0 0 0 0 0 0 0 0 0 0 0 0 0.13328701312069 0 0 0 0 -0.395764964518302 0 0 -1.00023015010163 0 0 0 0 0 0 0 0 -2.08050801025112 0 0
0.0236796402674312 0 0 0 0 0 0 0 0 0 0 0 0 0 0 0 0 0 0 0 0 0 0 0 0.0520197961376912 0 0 0 0 0 0 0 0.0965072675376977 0 0 0 0 0 -1.02162374312881 0 0 0 0 0 0 -0.990832486157512 0 -2.91828531314006 0 0
0 0 0.147942598335051 0 0 0 0 0 0 0 0 0 0 0 0 0 0 0 0 0 0 0 0 0 0 0.168825924651049 0 0 0 0 0 0 0 0.0842233789853706 0 0 0 0 0 -0.537562253705142 0 0 0 0 0 0 0 0 0 0
0.409219206910497 0 0 0 0 0.301260797333278 0 0.104975391145016 0 0 0 0 0 0 0 0 0 0 0 0 0 0 0 0 0 0 0 0 0 0 0.245956829059635 0 0 0 0 0 0 0 -0.326031810722338 0 0 0 0 0 0 0 0 0 0 0
0 0 0 0 0 0 0 0 0 0 0 0 0 0 0 0 0 0.0997158802616881 0 0 0 0 0 0 0 0 0 0 0 0 0 0 0 0 0 0 0 0 0 0 0 0 0 0 0 0 0 0 -0.560757935977874 0
0 0 0.252332071209478 0 0.199161011087738 0 0 0 0 0 0 0 0 0 0 0 0 0 0 0 0 0 0 0 0 0 0.134879503941963 0 0.201441593670819 0 0 0 0 0.199707960592233 0.197336060394751 0 0.060765328713404 0 0 0 0 0 0 0 0 0 0 -3.62098150724672 0 0
0 0 0 0.652351650796805 0 0 0 0 0 0 0 0 0 0 0 0 0 0 0 0 0.0931189466251769 0.0325297231712739 0 0 0 0.50415278387925 0 0.447060749358048 0 0 0 0 0 0 0 0.109202301351923 0 0 0 0 0 0 0 0 0 0 0 0 0 0
0 0 0 0 0 0 0 0 0 0 0 0 0 0 0.162964177304898 0 0 0 0 0 0 0 0 1.51810837721833 0.0944906034563527 0 0 0 0 0 0 0 0 0 0 0 0 0 0 0 0 0 0 -2.4224703382949 0 0 0 0 0 0
0 0 0 0 0 0 0 0 0 0 0 0 0 0 0 0.553770667368858 0 0 0.510403179711488 0 0 0 0 0 0 0 0.242184206153463 0.0534287038819093 0 0 0 0 0 0 0 0 0 0 0 0 0 0 0 0 0 0 0 0 0 0
0 0 0 0 0 0 0 0 0 0 0 0 0 0 0 0 0.920538633452014 0 0 0 0 0 0 0 0.0984273043636738 0 0 0 0 0 0 0 0 0 0 0 0 0 0 0 0 0 0 0 0 0 0 0 0 -2.55696914985561
0 0 0 0 0 0 0 0 0 0 0.0271396866138517 0 0 0 0 0 0 0 0 0 0.174625409981268 0 0 0 0 0 0.227545807214171 0 0 0 0 0 0 0 0 0 0 0 0 0 0.53348495361114 0 0 0 0 0 0 0 0 0
0 0 0 0 0 0 0 0 0 0 0.426077783295419 0 0 0 0 0 0 0 0 0 0 0 0 0 0 0 0 0 0 0 0 0 0 0 0 0 0 0 0 0 0 0 0 0 0 0 0 0 0 0
0 0 0 0 0 0.152303194178242 0 0 0 0 0 0 0 0.353484079647452 0 0 0 0 0 0 0 0 0 0 0 0 0 0 0 0 0 0.151134999728204 0 0 0.200617684827138 0 0 0 0 0 0 0 0 0 0 0 0 0 0 0
0 0 0 0 0 0 0 0 0 0 0.0740081481646158 0 0 0 0.322431717119958 0 0 0 0 0 0 0.26232315061577 0 0.266522201849031 0 0 0 0 0 0 0 0 0 0 0 0 0 0 0 0 0 0 0 0 0 0 0 0 0 0
0.56830316184987 0 0 0 0 0 0 0 0 0 0.440277370363285 0 0 0 0 0 0 0 0 0 0 0 0 0 0 0 0.121616607197626 0 0 0 0.0876161819418131 0 0.294444471821406 0.449229306986124 0.585505520365165 0 0 0 0.713426373810649 0 0 0 0 0 0 0 0 0 -2.65859157945948 0
0 0 0 0 0 0 0.164225712535286 0 0 0 0 0 0 0 0 0 0 0 0 0.0980799971344587 0 0 0 0 0 0 0 0.8000511828501 0 0 0 0 0 0 0 0 0 0.108925289404783 0 0 0 0 0 0 0 0 0 0.548071928446984 0 0
0 0 0 0 0 0 0 0 0 0 0.271334824259289 0 0 0 0 0 0 0 0 0 0 0 0 0 0 0 0 0 0 0 0 0 0 0 0 0 0 0 0 0 0 0 0.497095419511676 0 0 0 0 0 0 0
