0 0 0 0 0 0 0 0 0 0 0 0 0 0 0 0 0 0 0 0 0 0 0 0 0 0 0 0 0 0 0 0 0 0 0 0 0 0 0 0 0 -0.839068235871118 0 0 0 0 0 0 0 0
0 0 -1.39409336447333 0 0 0 0 -1.78967515609468 0 0 0 0 0 0 0 0 -2.25485839743002 0 0 -5.00198182455199 0 0 0 0 0 0 0 0 0 0 0 0 0 0 0 0 0 0 0 0 0 0 0 0 0 0 -2.93112125195295 0 0 0
0 0.283823198177811 0 0 0 0 -2.45741602994559 0 0 0 0 0 0 0 0 0 0 0 0 0 0 0 0 -1.69617292581746 0 0 0 0 0 0 0 0 0 0 0 0 0 0 0 0 0 0 0 0 0 0 0 0 0 0
0 0 0 0 0 0 0 -1.90212211599112 0 0 0 0 0 0 0 0 0 0 0 0 0 0 0 0 0 0 0 0 -0.960253514107185 0 -0.625945314287738 0 0 -0.356833224679913 0 0 0 0 0 0 0 0 0 0 0 0 0 0 0 0
0 0 0 0 0 0 0 0 0 0 0 0 0 0 0 0 0 0 0 -4.45374720011734 0 0 0 0 0 0 0 0 0 -0.699334413939142 0 0 0 0 0 -3.34807538003677 0 0 0 0 0 0 0 0 0 0 0 0 0 0
0 0 0 0 0 0 -0.35507154698954 0 -0.777013394049698 -0.415197506012641 0 0 0 0 0 0 0 0 0 0 0 0 0 0 0 0 0 0 0 0 0 0 -0.645795203941282 -5.94181440450724 0 0 0 0 0 0 -5.3009227551325 0 0 0 0 0 0 0 0 -0.263655185029972
0 0 0.453625636586988 0 0 0.0715793902527061 0 0 -0.439133303971444 0 0 0 0 0 0 0 0 -2.20303209826002 -1.02619729885207 0 0 0 -4.95537340002773 0 0 0 0 0 0 0 0 0 -1.33743107268256 0 0 0 -2.66328470701338 0 0 0 0 0 0 0 0 0 -10.6521639162642 0 0 0
0 0.375534865978171 0 0.396047799019669 0 0 0 0 0 0 0 -0.256789102240144 0 0 0 -0.172678217596513 0 0 0 0 0 0 -4.37150759431478 0 0 0 0 0 0 0 0 -1.61771709494441 0 0 0 0 0 0 0 0 0 0 0 0 0 0 0 0 0 -2.02178407585846
0 0 0 0 0 0.157763468783983 0.0860092344441916 0 0 -4.47918818918079 0 0 0 0 0 -1.48670284212808 0 0 -1.89134398928179 0 0 0 0 -2.68153452782348 0 0 0 0 0 0 0 0 0 0 0 -0.355171981950369 0 0 0 0 0 -2.3113070910674 0 0 0 0 0 0 0 0
0 0 0 0 0 0.0825598822399698 0 0 0.919450861462687 0 0 0 0 0 0 0 0 0 0 0 0 0 0 0 0 0 0 0 0 0 0 0 0 0 -1.42177770524143 0 -0.396805544682281 0 0 0 0 0 -0.673153164476127 0 0 0 -0.581812287327122 0 0 0
0 0 0 0 0 0 0 0 0 0 0 0 0 0 0 0 0 0 0 0 0 0 0 0 0 0 0 0 0 0 0 0 0 0 0 0 0 0 0 0 -1.07661609710641 0 0 0 0 0 -0.406714742738407 0 0 0
0 0 0 0 0 0 0 0.0511653440804903 0 0 0 0 -0.0394752028699746 0 0 0 0 0 0 0 0 0 0 0 0 0 -1.56791927190958 0 0 -1.18714606388177 -0.859744149587909 0 0 0 0 0 0 0 0 0 0 0 0 0 0 0 0 0 0 -0.151802498471476
0 0 0 0 0 0 0 0 0 0 0 0.00837750532861277 0 0 0 0 0 -0.270221128496977 0 -0.408690945455082 0 0 0 0 0 0 0 0 0 -0.492041171427011 0 -0.249283960575111 0 0 0 -2.35966980172299 0 0 0 0 0 0 0 0 0 0 0 0 0 0
0 0 0 0 0 0 0 0 0 0 0 0 0 0 0 0 0 0 0 0 0 0 0 0 0 0 0 0 0 0 0 0 0 0 0 0 0 0 0 0 0 -2.90970597549734 0 0 0 0 0 0 0 -4.49810195852832
0 0 0 0 0 0 0 0 0 0 0 0 0 0 0 0 0 0 0 0 0 0 0 0 0 0 0 0 0 0 0 -1.78782189821988 0 0 0 0 0 0 0 0 0 0 0 0 0 0 -0.922941764867395 0 0 0
0 0 0 0 0 0 0 0.0361278910089239 0.309481203439981 0 0 0 0 0 0 0 0 0 0 0 0 0 -1.70292017793411 0 0 0 0 0 0 0 0 0 0 -1.07913309125317 -0.970015167006195 0 0 -0.783065038422297 0 -1.16683700033554 0 0 0 0 0 0 0 0 0 0
0 0.469846579843075 0 0 0 0 0 0 0 0 0 0 0 0 0 0 0 0 0 0 -0.66380114106524 0 0 0 0 0 0 0 0 0 0 0 0 0 0 0 -0.24177338850051 0 -0.515518072366381 0 0 0 0 0 0 0 -0.757297916157657 -0.0791118270463342 0 0
0 0 0 0 0 0 0.45956350689367 0 0 0 0 0 0.0521346824808768 0 0 0 0 0 0 -7.52289225479067 -2.3593675894486 0 0 0 0 0 -0.475191138061472 0 0 0 0 0 0 0 -2.54646958888966 -3.932557070745 0 0 0 0 0 0 0 0 0 -0.736944108670547 0 0 0 0
0 0 0 0 0 0 0.205874083740228 0 0.367144623329407 0 0 0 0 0 0 0 0 0 0 0 0 0 0 0 0 0 0 0 -1.9162490811063 0 0 -1.66497282093073 0 0 0 0 0 0 0 0 0 0 -0.380818232375115 0 0 0 0 0 0 0
0 1.0708899544865 0 0 0.855888428888415 0 0 0 0 0 0 0 0.0806189968455443 0 0 0 0 1.37931932745399 0 0 0 0 0 0 0 0 0 0 0 0 0 0 -1.72413869794086 0 0 0 0 0 0 0 0 0 -0.0813149306822976 0 0 0 0 0 -0.465408600324116 0
0 0 0 0 0 0 0 0 0 0 0 0 0 0 0 0 0.124727117942691 0.484030809995791 0 0 0 0 0 0 0 0 -1.19665789081795 0 0 0 0 0 0 0 0 0 0 0 0 0 0 0 0 0 0 0 0 0 0 0
0 0 0 0 0 0 0 0 0 0 0 0 0 0 0 0 0 0 0 0 0 0 0 0 0 0 0 0 0 0 0 0 0 0 0 -0.666832954195999 0 -1.65875716928348 0 0 0 0 0 0 0 -0.594550547187194 0 0 0 -0.494779429696739
0 0 0 0 0 0 0.95477158546532 0.849102088261385 0 0 0 0 0 0 0 0.326216787941277 0 0 0 0 0 0 0 0 0 0 0 0 0 0 0 0 0 0 0 0 0 0 0 0 0 0 0 0 0 0 0 0 0 0
0 0 0.342803151690437 0 0 0 0 0 0.531051139890189 0 0 0 0 0 0 0 0 0 0 0 0 0 0 0 0 -2.09106967117186 0 -0.322667850495812 0 0 0 0 0 0 0 0 0 0 0 0 -1.77471566929187 0 0 0 0 0 0 0 -0.472407684161972 0
0 0 0 0 0 0 0 0 0 0 0 0 0 0 0 0 0 0 0 0 0 0 0 0 0 0 0 -0.465766477902115 0 0 0 -8.5003381305653 0 0 0 0 0 0 -1.12508455199035 0 0 0 0 0 0 0 0 0 0 0
0 0 0 0 0 0 0 0 0 0 0 0 0 0 0 0 0 0 0 0 0 0 0 0.402037775281434 0 0 0 0 0 0 0 0 0 0 -0.545889776694891 0 0 -0.282149292534247 0 0 0 0 -5.64124474665856 0 0 0 -0.568762249760451 0 0 0
0 0 0 0 0 0 0 0 0 0 0 0.335703184950658 0 0 0 0 0 0.092817056686697 0 0 0.237281271318337 0 0 0 0 0 0 0 0 0 0 0 0 0 0 0 0 0 0 0 0 0 0 0 0 0 0 0 0 0
0 0 0 0 0 0 0 0 0 0 0 0 0 0 0 0 0 0 0 0 0 0 0 0.0669035939705554 0.0927537844110435 0 0 0 0 0 0 0 0 0 0 0 0 0 0 0 0 0 0 0 0 0 0 0 0 0
0 0 0 0.207542120860243 0 0 0 0 0 0 0 0 0 0 0 0 0 0 0.382962209081452 0 0 0 0 0 0 0 0 0 0 0 0 0 0 0 0 0 0 0 0 -0.833663124332192 0 0 0 0 0 0 0 0 0 0
0 0 0 0 0.137813303051229 0 0 0 0 0 0 0.238687209453262 0.104185672552106 0 0 0 0 0 0 0 0 0 0 0 0 0 0 0 0 0 0 0 0 0 0 0 0 0 0 0 0 0 0 0 0 0 0 0 0 0
0 0 0 0.129273557703727 0 0 0 0 0 0 0 0.175436924200043 0 0 0 0 0 0 0 0 0 0 0 0 0 0 0 0 0 0 0 0 0 0 0 0 0 0 0 -0.691792784485041 0 -1.777183837679 -0.56895062145893 0 0 0 0 0 0 0
0 0 0 0 0 0 0 0.306547761978665 0 0 0 0 0.0539366094504545 0 0.369842936913824 0 0 0 0.344791314361488 0 0 0 0 0 1.5129972725312 0 0 0 0 0 0 0 0 0 0 0 0 0 -2.87073707663473 0 0 0 0 0 0 0 0 0 0 -1.76518519817878
0 0 0 0 0 0.133806125141782 0.275280697288936 0 0 0 0 0 0 0 0 0 0 0 0 0.318396604487382 0 0 0 0 0 0 0 0 0 0 0 0 0 0 0 0 0 0 0 0 0 0 0 0 0 0 0 0 0 -0.351562732886246
0 0 0 0.0677686278275116 0 1.19098081048167 0 0 0 0 0 0 0 0 0 0.194052108138515 0 0 0 0 0 0 0 0 0 0 0 0 0 0 0 0 0 0 0 0 0 0 0 0 0 0 0 0 0 0 0 0 0 0
0 0 0 0 0 0 0 0 0 0.312826814952352 0 0 0 0 0 0.198754297769278 0 0.508479861868204 0 0 0 0 0 0 0 0.112058239249299 0 0 0 0 0 0 0 0 0 0 -8.68144568135112 0 0 0 0 0 0 0 0 0 0 0 -0.159369256931583 0
0 0 0 0 0.643963746635015 0 0 0 0.0671152445783768 0 0 0 0.497506932983998 0 0 0 0 0.802109690500327 0 0 0 0.155238620267255 0 0 0 0 0 0 0 0 0 0 0 0 0 0 0 0 -3.15326020018806 0 0 -1.40274674826313 0 0 0 0 0 0 0 0
0 0 0 0 0 0 0.529867895598466 0 0 0.0775069179521463 0 0 0 0 0 0 0.0485107272166541 0 0 0 0 0 0 0 0 0 0 0 0 0 0 0 0 0 1.81792690158135 0 0 0 0 0 0 0 0 -0.804799704254984 0 0 -2.73603537394304 0 0 0
0 0 0 0 0 0 0 0 0 0 0 0 0 0 0 0.162922048402409 0 0 0 0 0 0.336129021622281 0 0 0 0.0590656300470836 0 0 0 0 0 0 0 0 0 0 0 0 0 0 0 0 0 0 -0.677981320457771 0 0 0 0 0
0 0 0 0 0 0 0 0 0 0 0 0 0 0 0 0 0.112053130972714 0 0 0 0 0 0 0 0.234237912521082 0 0 0 0 0 0 0.604378721303893 0 0 0 0.716136607322958 0 0 0 0 0 0 0 0 0 0 0 -0.601459742259394 0 0
0 0 0 0 0 0 0 0 0 0 0 0 0 0 0 0.234693650517158 0 0 0 0 0 0 0 0 0 0 0 0 0.155989627188662 0 0.136656417340969 0 0 0 0 0 0 0 0 0 0 0 0 0 0 0 0 0 0 0
0 0 0 0 0 1.05068079613917 0 0 0 0 0.224323689220164 0 0 0 0 0 0 0 0 0 0 0 0 0.365570152084701 0 0 0 0 0 0 0 0 0 0 0 0 0 0 0 0 0 0 0 0 0 -1.06982866176796 -1.0212499767119 0 0 0
0.159176675634275 0 0 0 0 0 0 0 0.490230740921503 0 0 0 0 0.566410418341174 0 0 0 0 0 0 0 0 0 0 0 0 0 0 0 0 0.397502674399059 0 0 0 0 0.261257293579715 0 0 0 0 0 0 0 0 0 0 0 0 0 0
0 0 0 0 0 0 0 0 0 0.132545316238201 0 0 0 0 0 0 0 0 0.073476883148679 0.0165435694933009 0 0 0 0 0 1.11124514635167 0 0 0 0 0.105579335804747 0 0 0 0 0 0 0 0 0 0 0 0 0 0 -0.379294266169522 0 0 -0.496180762538912 0
0 0 0 0 0 0 0 0 0 0 0 0 0 0 0 0 0 0 0 0 0 0 0 0 0 0 0 0 0 0 0 0 0 0 0 0 0.153179901622701 0 0 0 0 0 0 0 0 0 0 0 0 0
0 0 0 0 0 0 0 0 0 0 0 0 0 0 0 0 0 0 0 0 0 0 0 0 0 0 0 0 0 0 0 0 0 0 0 0 0 0.141849391680176 0 0 0 0 0 0 0 -1.98996887507555 0 0 0 0
0 0 0 0 0 0 0 0 0 0 0 0 0 0 0 0 0 0.148551294983428 0 0 0 0.115320445036128 0 0 0 0 0 0 0 0 0 0 0 0 0 0 0 0 0 0 0.203582175435186 0 0.0717797500219151 0 0.363140775332696 0 -0.440084973970139 0 0 0
0 0.598110280418299 0 0 0 0 2.01793237102365 0 0 0.113978871717409 0.085843067498362 0 0 0 0.205978048730794 0 0.159874337098222 0 0 0 0 0 0 0 0 0.125635346840288 0 0 0 0 0 0 0 0 0 0 0.557663731038819 0 0 0 0.203520181297195 0 0 0 0 0.0877763464854276 0 0 0 0
0 0 0 0 0 0 0 0 0 0 0 0 0 0 0 0 0.0153837572572766 0 0 0 0 0 0 0 0 0 0 0 0 0 0 0 0 0 0 0 0 0 0.112830952516192 0 0 0 0 0 0 0 0 0 0 0
0 0 0 0 0 0 0 0 0 0 0 0 0 0 0 0 0 0 0 0.0892342725567477 0 0 0 0.100270614103144 0 0 0 0 0 0 0 0 0 0 0.0329404089424116 0 0 0 0 0 0 0 0.0933693488438968 0 0 0 0 0 0 0
0 0 0 0 0 0.0500925981874827 0 0.382053083676786 0 0 0 0.0323412212382085 0 0.894874703297142 0 0 0 0 0 0 0 0.100512247652549 0 0 0 0 0 0 0 0 0 0.388223404442674 0.0674257489277438 0 0 0 0 0 0 0 0 0 0 0 0 0 0 0 0 0
