0.296482473398702
0.15594634556392
0.564010400635732
0.381056842155745
0.83767186222348
0.138266071509598
0.108675413413961
2.06613469233155
0.667094821278957
0.256971066686677
0.725148045241603
0.0540254865995829
0.468485251106989
1.43187152198123
0.0890383523722156
0.873299193417345
0.801605335845632
1.26276145857353
0.44816717587273
0.668634246983727
0.117796360729222
1.21352462115798
0.11769308503792
0.649526882693017
0.958437338635523
0.0370898949470795
0.736455949883059
1.6149684222443
0.0359465739008613
0.315117374116526
0.159538919935001
0.0585206349796103
0.501075437363339
0.0248088183056401
0.918479010176366
3.72489298402558
1.26881177196596
0.161862332691924
0.03940940155059
0.678702955135258
0.334917496943633
0.117324696916551
0.715130207628491
0.358321674748317
2.97111138315048
0.438164717342226
0.151114083746823
0.542185489686799
0.232376854814418
0.581480301075765
