1.23596480409684
1.08027204154006
0.868152025136699
0.301841597161974
1.3929885222835
0.959983993808914
0.407397808346708
0.615239911957858
1.58088376312553
0.793000056934639
1.27654232620938
1.82729107038724
0.713747126087481
2.28985538980167
0.969882602071222
1.82157840438895
1.96468307357117
0.997163390094119
0.445570560285245
0.557119509003666
0.186018112273316
3.49491275773458
1.86474942905844
1.9306510696415
1.47341448553613
0.308079279242994
1.15940969285088
3.865352793287
0.678102983568703
1.03458804924655
2.25500406317179
2.06453666841484
1.04653563199445
0.491919059975821
0.829102614462645
0.872036114433091
0.33192353179546
0.545559562623158
2.14992393360892
0.851671676122939
0.956382401327604
1.85804445111345
0.944424919673615
1.14796103408947
1.77963571699886
0.139385314831711
1.85496352668852
0.182602045202727
1.06294669822066
0.611725199030722
