1.48177917290814
3.69657776260826
0.216153054815303
0.183173317860116
0.851329741914128
1.32650415828082
0.426853912136612
0.415058732871336
1.69825892200466
0.804361567134272
0.930003378305051
1.00827025475507
2.70256592436847
0.737745457209914
1.03764824198578
0.724404863224143
3.70901838981216
0.315928709264603
2.10181605287217
1.70376183161657
1.26276631290273
2.24669472394133
2.21006420729224
1.43485394462321
0.470185925266296
2.10981424267469
0.774031783207324
1.12462290394869
1.56259161024948
0.613650932672474
0.510016619693833
3.56630246540044
2.38614337438174
0.44571489372925
0.915438909114214
0.309477946848236
1.12300208606556
2.31915097726481
2.76883081934378
1.62845950135874
0.553143989696473
3.11515935039818
0.684253870674992
3.17007408468117
1.36972781755983
0.402006624622483
0.0697188725811536
2.16356165139519
1.17480029129271
0.211892632931687
