0.426715305535532
0.770078796897237
0.381126589704883
1.05305802865992
0.582729379419436
0.553934779817053
0.490577719562081
0.552941655222137
1.26931727684288
1.65901813266598
0.861199550135935
1.27419754905932
1.20923957348369
0.583392934592636
0.318653850185155
0.361340369243664
1.10026071250501
1.3766693172285
0.210047661190995
1.23681133476302
0.208794978527545
0.755782965067037
0.275543219845988
1.00000724217748
0.275798705985202
1.2523206871619
0.995834136382999
1.48884705415358
0.224746434495403
1.50408699166567
0.464841969977744
1.10536724798771
0.376195308825519
0.703373622059857
0.469076375021722
1.41839793778949
0.429761084995269
1.2277650793188
0.168799080930444
0.076863453340286
0.656798754667667
0.909137278616726
0.667788310400753
0.32395025828435
1.50516256546769
0.107272426753771
0.165860704672818
0.278181456554818
0.225825540433443
1.65963229994995
