0.958776390668721
0.298461099747826
0.703137895711154
0.32377215731733
0.780049724276478
1.61661582521373
1.46874418264172
0.218849403929541
1.39849831756206
0.0214389186554198
0.792198229330822
0.129313678114155
0.203302136503158
0.103514735748153
0.258379305468796
0.637843252721439
0.816210551101953
0.887510537245185
0.590819813812075
0.467160543468911
0.263255482367489
0.461557359562369
0.473472397606807
1.66450566435799
0.286158282632995
0.762298474636986
0.198824530120295
0.762191656560077
0.685622990643611
0.113788886961417
0.334465704325553
0.904765489602726
0.855106228904628
0.0275374137328948
0.258867524741376
0.447880027300378
0.145687430160118
1.09199832321933
0.366460078227781
0.36794095817389
0.681711071951788
0.351255567184155
0.693582416519574
0.6531406352679
1.01924140544009
0.209544896915169
0.23494134694029
0.497036789265504
0.259153997920675
1.64223848596153
