0 0 0 0 0 0 0 0 -0.723131190799144 0 0 0 -1.23858889722451 0 -0.50518552920065 0 0 0 -0.525137769005298 0 0 0 0 -1.49344888471606 0 0 0 0 -0.886114429601811 0 0 0 0 0 0 0 0 0 0 0 0 0 0 0 0 0 0 0 0 0
0 0 0 0 0 0 0 0 0 0 0 0 0 0 0 0 0 0 0 0 0 0 0 0 0 0 0 0 -0.194661163631053 0 0 0 0 0 0 0 0 0 0 0 0 0 0 0 0 0 0 0 0 -0.667087576125461
0 0 0 0 0 0 0 0 0 -1.24847731504654 0 0 0 -0.501861700718847 0 0 0 0 -2.26998499231174 0 0 -0.211823765787845 0 0 0 0 0 -2.44637859750024 0 0 0 0 0 0 0 0 0 0 0 0 0 0 0 0 0 0 0 0 0 0
0 0 0 0 0 0 -1.57600542371189 0 0 0 0 0 -0.333239415060638 0 0 0 0 -1.36006751762718 0 0 0 0 -4.65059548530423 0 0 0 0 0 0 0 0 0 0 0 0 0 0 0 0 -3.76186967188474 0 0 0 0 0 0 0 0 0 0
0 0 0 0 0 0 0 0 0 0 0 -0.256479143725965 0 0 0 0 0 0 -4.87998050478945 0 0 0 0 0 0 0 0 0 0 0 0 0 0 0 0 0 0 0 0 0 -0.642124606148044 0 0 0 0 0 0 0 0 0
0 0 0 0 0 0 0 0 0 0 0 0 0 0 -1.09323152570848 0 0 0 0 0 -1.90718649148083 0 0 0 0 0 0 0 0 0 0 0 0 0 0 0 0 0 0 0 0 0 0 -2.0401756767684 0 0 0 0 0 0
0 0 0 0.333131315790502 0 0 0 0 0 0 0 0 0 0 0 0 0 -0.563673531707872 0 0 0 0 0 0 0 0 0 0 0 0 -2.03448411379747 0 0 -0.54508666430954 0 0 0 0 0 0 0 0 0 0 0 0 0 0 0 0
0 0 0 0 0 0 0 0 -1.78381234782534 0 0 0 0 0 0 0 0 0 0 0 0 -1.92807073153224 0 0 -0.152570049654669 0 0 -0.412280837540836 0 0 0 0 0 -1.53459173462412 0 0 0 0 0 -1.79686060831489 -7.42018381244563 -0.398416527591024 0 0 0 0 0 0 -10.0347225741195 0
0.149738280578473 0 0 0 0 0 0 0.350008045129984 0 0 0 -1.03024357653966 0 0 0 0 0 0 0 0 0 0 0 -2.50734264083838 0 0 0 0 0 0 0 -0.202009795968545 0 0 -1.12470194754548 -0.622481706236803 0 0 0 0 0 0 0 0 0 -12.1451452500207 0 -0.809745275919454 0 0
0 0 0.260155707905102 0 0 0 0 0 0 0 0 0 0 0 0 0 -5.94025739239049 0 0 0 -2.76192734064034 0 -1.8840521053554 0 0 0 0 0 0 0 -0.135435613314462 0 0 0 0 0 0 0 0 0 0 -0.531069266679494 0 0 0 0 0 0 0 0
0 0 0 0 0 0 0 0 0 0 0 0 0 0 -0.921800747342514 0 0 -1.35844782255337 0 0 0 0 0 -2.64683370187994 0 0 0 0 0 0 0 0 0 0 0 0 0 0 0 0 -3.46125093570469 0 -0.135959575858699 0 0 0 0 0 0 0
0 0 0 0 0.052791880990888 0 0 0 0.186461942748037 0 0 0 0 0 0 -2.16604369439228 0 0 0 0 0 0 0 -0.0606243781518635 0 0 0 -1.63906775798479 0 0 0 0 -1.29684862672115 -1.1635739989356 0 0 0 0 0 0 0 0 0 0 0 0 0 0 0 0
0.267056438042938 0 0 0.0701855246120322 0 0 0 0 0 0 0 0 0 0 0 0 0 0 -1.78942505470168 0 -0.423024787885297 0 0 0 0 0 0 0 0 0 0 0 0 0 0 0 0 0 0 0 0 0 0 0 0 0 0 0 0 0
0 0 0.0997811329300969 0 0 0 0 0 0 0 0 0 0 0 0 0 0 0 0 0 0 0 0 0 0 0 0 0 0 0 0 0 0 0 0 0 0 0 0 0 0 0 0 0 0 0 0 -0.404867154029921 0 0
0.106013851399059 0 0 0 0 0.22443391292011 0 0 0 0 0.192020705325455 0 0 0 0 0 0 0 0 0 0 0 0 0 0 0 -4.45373952030312 0 0 0 0 -0.830269721340443 0 -0.899970327721726 -2.98111189682245 0 0 0 0 0 0 0 0 0 0 0 0 0 0 0
0 0 0 0 0 0 0 0 0 0 0 0.40530166652981 0 0 0 0 0 0 -1.67492229237242 0 0 -1.96368702598273 0 0 0 0 0 0 0 0 0 0 0 0 0 0 0 0 -0.520265846492274 0 0 0 0 0 0 -0.280770620344789 0 0 0 0
0 0 0 0 0 0 0 0 0 1.29700705320173 0 0 0 0 0 0 0 0 0 0 0 0 0 0 0 0 0 0 -0.981149970001327 0 0 0 0 0 0 0 0 0 0 0 0 0 0 0 0 0 -1.16835017056341 0 0 0
0 0 0 0.270755565190677 0 0 0.109337009072793 0 0 0 0.271296348083846 0 0 0 0 0 0 0 0 0 0 0 0 0 0 0 0 -0.567299335490288 0 0 0 0 0 0 0 0 0 -0.250072443722084 0 0 0 0 0 0 0 -1.21461122960666 0 0 0 0
0.101065268559342 0 0.442050124321134 0 1.03445106720671 0 0 0 0 0 0 0 0.356265090156905 0 0 0.334301726372869 0 0 0 0 0 0 0 0 -0.847955690500948 0 0 0 0 0 0 0 0 0 0 0 0 0 0 0 0 0 0 -2.99686990929355 0 -0.538422941779244 0 0 0 0
0 0 0 0 0 0 0 0 0 0 0 0 0 0 0 0 0 0 0 0 0 0 0 0 -0.581674874279354 0 0 0 0 0 0 0 0 0 0 0 0 0 0 0 -1.08913164797191 -0.369368305438493 0 0 0 -1.56188074540847 0 0 0 0
0 0 0 0 0 0.367071288905843 0 0 0 0.555374109444601 0 0 0.0750703176394412 0 0 0 0 0 0 0 0 0 0 0 0 0 0 0 0 0 0 0 0 0 0 0 0 0 0 0 -0.428785273346303 0 0 0 0 0 0 0 -3.79602470099167 0
0 0 0.0408539908394517 0 0 0 0 0.395662862475648 0 0 0 0 0 0 0 0.371301444387749 0 0 0 0 0 0 0 0 0 0 0 0 -0.834393881776295 0 0 -0.762105731795456 0 0 0 0 0 0 0 0 0 0 0 0 0 -11.9733494475399 0 -0.743934437786181 0 0
0 0 0 1.03470067765027 0 0 0 0 0 0.347935435063005 0 0 0 0 0 0 0 0 0 0 0 0 0 0 0 0 0 0 0 0 0 0 0 0 0 0 0 0 0 0 -0.62479655820318 0 0 0 0 0 0 0 0 0
0.318558609699968 0 0 0 0 0 0 0 0.513462850497807 0 0.471811416261151 0.0112886518984279 0 0 0 0 0 0 0 0 0 0 0 0 0 0 -0.153859178107201 0 0 0 0 0 0 0 0 0 -3.39742738559783 0 0 0 0 0 0 0 0 0 0 0 0 0
0 0 0 0 0 0 0 0.0317797011790397 0 0 0 0 0 0 0 0 0 0 0.14956422720923 0.119091979712394 0 0 0 0 0 0 0 0 0 0 0 0 0 0 0 0 0 0 0 0 0 0 0 0 0 -0.494380446050105 0 0 -2.23835699932861 0
0 0 0 0 0 0 0 0 0 0 0 0 0 0 0 0 0 0 0 0 0 0 0 0 0 0 0 0 0 0 0 0 0 0 -0.231790761902775 0 0 0 0 0 -1.92532585807842 0 0 0 -0.449059964672031 0 0 0 0 0
0 0 0 0 0 0 0 0 0 0 0 0 0 0 0.878150976413173 0 0 0 0 0 0 0 0 0.0291955790821666 0 0 0 0 0 0 0 0 -0.484283790072649 0 0 0 0 0 -0.775660691295727 0 0 0 0 0 0 0 0 0 0 0
0 0 0.519471595293031 0 0 0 0 0.0815599405043944 0 0 0 0.315972586600871 0 0 0 0 0 0.112385642908342 0 0 0 0 0 0 0 0 0 0 0 0 0 0 0 0 0 0 0 0 0 0 0 0 0 0 0 0 0 0 -0.593670693834927 0
0.19974405559595 0.040531583794518 0 0 0 0 0 0 0 0 0 0 0 0 0 0 0.189242378532191 0 0 0 0 0.171456414846489 0 0 0 0 0 0 0 0 0 0 -1.11239437709687 0 0 0 0 0 -0.516092658192476 0 0 0 0 0 0 0 0 0 0 0
0 0 0 0 0 0 0 0 0 0 0 0 0 0 0 0 0 0 0 0 0 0 0 0 0 0 0 0 0 0 0 0 0 0 -0.796757040805862 0 0 0 0 0 0 0 0 0 0 -0.43226815932962 -0.645386925251844 0 0 0
0 0 0 0 0 0 0.402778192292577 0 0 0.0279176500406757 0 0 0 0 0 0 0 0 0 0 0 0 0 0 0 0 0 0 0 0 0 0 0 0 0 0 0 -0.646634755561665 0 0 -0.483685343820507 0 0 0 0 0 0 0 0 0
0 0 0 0 0 0 0 0 0.0424307717701463 0 0 0 0 0 0.150925912468008 0 0 0 0 0 0 0.152078362576233 0 0 0 0 0 0 0 0 0 0 0 0 0 0 0 0 0 0 -5.17125597410668 0 -0.52111515484897 0 0 0 0 0 0 0
0 0 0 0 0 0 0 0 0 0 0 0.250902593184638 0 0 0 0 0 0 0 0 0 0 0 0 0 0 0.0962503550108569 0 0.236388738111311 0 0 0 0 0 0 0 0 0 0 0 0 0 0 0 -3.49196176857135 0 0 0 0 0
0 0 0 0 0 0 0.115130588915099 0.290153391937594 0 0 0 0.234265591394778 0 0 0.185350608381575 0 0 0 0 0 0 0 0 0 0 0 0 0 0 0 0 0 0 0 0 0 0 0 0 0 -1.97365185638195 0 0 -0.473911503174232 0 0 0 0 0 -8.90786145141746
0 0 0 0 0 0 0 0 0.238085701861998 0 0 0 0 0 0.581375458458104 0 0 0 0 0 0 0 0 0 0 0.0479286953898782 0 0 0 0.153295316862239 0 0 0 0 0 0 0 0 0 0 0 0 0 0 0 0 0 0 0 0
0 0 0 0 0 0 0 0 0.13011522819218 0 0 0 0 0 0 0 0 0 0 0 0 0 0 0 0 0 0 0 0 0 0 0 0 0 0 0 0 0 0 0 0 -2.02105593881348 -0.933581837096621 0 0 0 0 -0.835151909939576 0 0
0 0 0 0 0 0 0 0 0 0 0 0 0 0 0 0 0 0 0 0 0 0 0 0.710220829161955 0 0 0 0 0 0 0 0 0 0 0 0 0 -0.171794625527868 0 0 0 0 0 0 0 0 0 0 0 0
0 0 0 0 0 0 0 0 0 0 0 0 0 0 0 0 0 0.0484492147078742 0 0 0 0 0 0 0 0 0 0 0 0 0.134162860675078 0 0 0 0 0 0.034281789617394 0 0 0 0 -0.443133978693135 0 0 -2.43617693252042 0 0 0 0 0
0 0 0 0 0 0 0 0 0 0 0 0 0 0 0 0.0987960825774584 0 0 0 0 0 0 0 0 0 0 0.147513758601039 0 0.110648176280515 0 0 0 0 0 0 0 0 0 0 0 0 0 0 0 0 0 -0.476648461488995 0 0 0
0 0 0 0.735215121874377 0 0 0 0.359191772685049 0 0 0 0 0 0 0 0 0 0 0 0 0 0 0 0 0 0 0 0 0 0 0 0 0 0 0 0 0 0 0 0 0 -1.74718995057704 0 0 0 0 0 0 0 0
0 0 0 0 0.137883248234105 0 0 1.26924622402329 0 0 0.754763517034924 0 0 0 0 0 0 0 0 0.233361011322217 0.082565943880332 0 0.140619685198375 0 0 0.387391957415697 0 0 0 0 0.0987362486268161 1.00050674232149 0 0.383753227904728 0 0 0 0 0 0 0 0 0 0 0 0 0 0 0 0
0 0 0 0 0 0 0 0.0746136335433775 0 0.108448867867733 0 0 0 0 0 0 0 0 0 0.0715351732499214 0 0 0 0 0 0 0 0 0 0 0 0 0 0 0 0.398764248588774 0 0.0856063552068683 0 0.338738651707408 0 0 -1.14846143652871 0 0 0 0 0 -0.453359788927676 0
0 0 0 0 0 0 0 0 0 0 0.0263787564259981 0 0 0 0 0 0 0 0 0 0 0 0 0 0 0 0 0 0 0 0 0.0978277815547354 0 0 0 0.187168225662223 0 0 0 0 0 0.220164570660146 0 -0.839314897118447 0 0 0 -0.679043649550907 0 0
0 0 0 0 0 0.400239218648433 0 0 0 0 0 0 0 0 0 0 0 0 0.581100702544113 0 0 0 0 0 0 0 0 0 0 0 0 0 0 0.0933116032031245 0 0 0 0 0 0 0 0 0.169592542008123 0 0 0 0 0 0 0
0 0 0 0 0 0 0 0 0 0 0 0 0 0 0 0 0 0 0 0 0 0 0 0 0 0.0909251081915426 0 0 0 0 0 0 0.703616968209582 0 0 0 0 0.486113082753577 0 0 0 0 0 0 0 0 0 0 0 0
0 0 0 0 0 0 0 0 2.47292281872363 0 0 0 0 0 0 0.0578445103942086 0 0.240589001351239 0.10728362049545 0.316375611549772 0 2.26678422626618 0 0 0.0932590345369177 0 0 0 0 0.08268141609978 0 0 0 0 0 0 0 0 0 0 0 0 0 0 0 0 0 0 0 0
0 0 0 0 0 0 0 0 0 0 0 0 0 0 0 0 0.219266229166084 0 0 0 0 0 0 0 0 0 0 0 0 0.121995199465435 0 0 0 0 0 0 0 0 0.0869189688257849 0 0 0 0 0 0 0 0 0 0 0
0 0 0 0 0 0 0 0 0.165397008840505 0 0 0 0 0.0761995521602734 0 0 0 0 0 0 0 0.142402685857959 0 0 0 0 0 0 0 0 0 0 0 0 0 0.168878075667137 0 0 0 0 0 0 0.135424543463391 0 0 0 0 0 0 0
0 0 0 0 0 0 0 2.01572319865844 0 0 0 0 0 0 0 0 0 0 0 0 0.751283537000917 0 0 0 0.474033119860236 0 0 0.130001890878426 0 0 0 0 0 0 0 0 0 0 0 0 0 0.0870007379611733 0 0 0 0 0 0 0 0
0 0.132713104462653 0 0 0 0 0 0 0 0 0 0 0 0 0 0 0 0 0 0 0 0 0 0 0 0 0 0 0 0 0 0 0 1.65435069762655 0 0 0 0 0 0 0 0 0 0 0 0 0 0 0 0
