0.275528321531644
1.09195516315965
0.401933532023414
1.06228391613833
0.63172514551357
0.922431022132441
0.355599821671639
0.435610175288722
0.96953566213983
0.610958659103924
0.573967797577422
0.684403124555617
0.290479757778581
0.68295820433371
0.43393908093127
0.445985791365368
0.543715126151778
0.980758744820554
1.10937205902283
0.543047948718551
0.897653036259949
0.413273088638183
0.917466441319369
0.158537594987306
0.593764426244115
0.47590351732777
0.325990522400091
0.9081799747333
0.303959182093131
0.566233582852214
1.14603034685165
0.21920212186167
0.32489599788679
0.103477161956398
0.876915977221886
0.771830561719483
0.692976574663082
0.45477184117608
0.227968703256944
0.468854840979558
1.1737080248006
0.915364846903475
0.274213109929773
1.14446495593811
1.09776632963514
1.21831523327178
0.509644415920806
0.421800626430362
0.897111883386418
0.376806196419093
