0.682006224557389
0.0687647943887374
1.43458959576975
0.223688183340173
0.26868434254098
2.32466154722182
0.0657578764911789
0.368255464571926
0.385429161165023
1.04797719769427
1.14021162540952
0.152342220282015
0.29940910266599
0.449022807725363
3.160360146488
0.626305346964162
1.34984831494192
0.122100504512267
0.627180538424296
0.388480064467055
1.6062712686106
0.735022241403877
0.39509875223302
0.765319718107058
0.28660322594533
1.29752006812197
0.216485139696987
0.1814462776911
0.644343771739941
0.411875247927454
0.182379818003169
0.232392746541683
0.125620007757979
1.90528745131164
0.159639950212654
0.59662456614025
0.515457782091517
2.71772527924833
0.434301489690825
0.438094442545125
0.0479528436019113
0.155285559433622
0.41019947190522
1.71450201122775
0.137369292851291
0.173571249857942
0.11592586607404
0.130250438292129
0.340600531108774
0.425153253933415
