1.1843976520347
2.13175962743035
0.565905979275333
0.346067682241667
1.23849976033742
1.88756994849551
0.958748682496598
0.899562327604122
0.632248635707733
1.44137268357734
0.822010221545881
0.357010229259908
0.402209117515014
0.850208351112467
0.480984936292653
0.137645466718632
0.402763216399021
0.504642498899038
0.0733075036748309
0.393047904700328
0.98513858122253
1.32200870579149
0.0964513593843567
0.0896892487676823
1.85522660576645
0.304862919616298
0.842386150298885
0.788532362840759
0.183480260589749
0.716373378249644
0.765356143710995
1.19849655446992
0.195995707462815
1.28344674044804
0.692788002290995
1.43054751560091
1.77625695286019
0.196864180236365
0.228864761448514
0.325724945458703
1.26525023138277
0.268339330313975
0.95548993312746
0.704774391192305
0.638060290412015
0.716361136459361
0.978422497639456
0.457883604495291
1.18241636744197
1.36289148324017
