1.11247491206175
0.549618737232794
0.615875059374606
0.588563033924268
0.96243892850766
0.264110600960231
1.35426909129483
1.1433787523561
0.738756398336582
2.91751549721216
0.536515283331303
0.509015632197223
0.364505878004816
3.1609098704141
0.624944743876587
0.453909434619119
0.482756809514252
1.74871054972869
0.373854393738898
0.486416003366253
0.693265360574352
2.06816322608036
0.967626914276349
1.15452661589228
1.74586992524172
0.397118215348699
0.628901479015109
0.220398942418119
0.159567637543128
2.79085947278159
0.396581520992196
2.35598892577141
0.66835415784764
1.6859832610816
0.409807996121064
0.42399670257437
0.251332741543276
0.294516451353772
0.555117496173453
0.1124636444535
0.0711158590949774
1.08151667759518
0.819700369590251
1.81045151185592
0.500428467555881
1.30989843034165
0.98804311190184
1.18219074106351
1.63726022463607
0.587659495973865
