1.18034319743892
0.412853296022837
1.07910577534437
0.456879326608221
0.285381637477973
1.75878087887461
0.743631899416535
0.350099247003031
0.747901555918828
0.0693735125668887
0.401056372005951
0.847673920068262
2.39171154815077
0.862752561999894
0.938527256230885
2.26811536503545
1.0156360830089
0.9425736376409
0.531216843639923
0.348164939062338
0.647005952878986
0.286686024371643
1.94389162178949
1.56086014447547
0.178317195220263
2.14634990160887
0.641422840647268
1.17706492231496
0.386625095234618
0.589793681980559
0.966974859492427
1.12838219814128
0.738539478937775
0.334634147151247
0.988336220385426
0.659611213561394
1.00061991459682
0.499370626548672
0.500395432007011
0.592961019068969
0.401730957646262
1.62334515846746
0.547257307600837
0.757790702776737
0.311121358977142
1.93105704331487
0.693542019318405
0.839185104186494
0.673928362175114
0.413929734794481
