1.45799471191883
0.683826831902458
0.310108686424902
1.36607150492434
0.409497646675959
1.85812055180668
0.667390470354276
1.51500151878489
1.5076795074969
1.53969162302634
0.448168348376581
0.40209711908314
1.31526227445072
1.2637897239731
0.847459400638991
0.274336430668005
0.0538257529811602
0.0342815581603902
0.365349403361603
0.749691985499825
0.344590382098486
0.830743855052227
0.11976410498647
0.273226997830173
0.0231872663118491
0.0582462604383134
0.498229738990761
0.0925075123528139
1.03905079882913
0.167653346949154
0.529672786601369
1.3700981593723
0.250916899263415
0.910684515690225
0.0875778743685213
0.198757956527889
1.25311687035814
0.645240400978769
0.375013710856662
1.84452854038672
4.30183409384765
0.303580428241813
0.5471644304072
2.94056541664903
0.420927395511011
2.48196874921041
0.864384319249876
0.360503855218615
1.32912891630659
0.649669354338863
