1.93898473716531
0.665559024338067
1.13343374581433
1.21388354293622
0.414748351343002
0.243364038540291
1.87066921976888
0.109057416883499
0.342738570481951
0.143878386662119
0.505949535995288
2.23732928225768
1.53762773477731
0.640182173724046
0.244421026684006
0.519677667551413
1.23917154829065
2.22900371717311
0.840410977134039
0.701860020023317
1.63666175850917
0.513586406034808
1.29562777797564
0.859320122250699
1.54434337622829
1.79042822416149
1.43716753022941
1.6787566588955
1.63388010275087
0.494547752653271
0.171355821216814
0.422517369716649
0.443372836836898
1.17601948129853
1.26390822119472
1.96074153570667
0.628359206000196
0.280688229506906
0.403316333383909
0.34482702187452
1.20755716860919
0.429106532384201
0.407943812597827
1.31965100250493
0.448198690987519
1.16684646181988
1.18333490887696
0.389010229690961
2.60336329278182
0.32382672956507
