0 -2.26245751646997 0 0 0 0 0 0 0 -0.335065910228437 0 0 0 0 -2.24600181908378 0 0 0 0 0 0 0 0 0 0 0 0 0 0 0 0 -1.04316615743198 0 0 0 0 0 0 0 0 0 0 0 -0.582212184206761 0 0 0 0 0 0
0.443595680852579 0 0 0 0 0 -0.479024009259865 0 0 -2.78591883284043 0 0 0 0 0 0 0 0 0 0 0 0 0 0 0 0 0 0 0 -0.498731300716131 0 0 0 -2.02218537351672 0 0 0 0 0 0 0 0 0 0 0 -0.432862789358464 0 0 0 0
0 0 0 0 0 0 0 0 0 0 0 0 0 0 -2.10890829757449 0 0 -0.247948419978263 0 -1.24800686156234 0 0 0 0 0 0 0 0 -0.27406685688367 0 0 0 0 0 0 0 0 0 0 0 0 0 -1.05427220221598 0 0 0 0 -3.45156236924829 0 0
0 0 0 0 0 0 0 0 -1.60881078696108 0 0 0 0 0 0 0 0 0 0 0 0 0 0 0 0 0 0 -0.430966807674174 0 0 0 0 0 0 -1.81163123009378 0 0 -2.10126670272507 0 0 0 0 0 0 0 0 0 0 0 -4.20407628767603
0 0 0 0 0 0 -3.95769582484864 0 0 0 0 0 0 0 0 0 0 0 -2.23732246915447 0 0 0 0 0 0 -2.21856643591507 0 0 0 0 0 0 0 0 0 0 -0.94868270533754 0 0 0 0 0 -0.53450967810487 0 0 0 0 -0.636672840772034 0 0
0 0 0 0 0 0 0 0 0 0 0 0 0 0 -0.519925436839754 0 0 0 0 0 0 -1.79159652685234 0 0 0 0 0 0 0 0 0 0 0 0 0 0 0 0 0 0 0 0 0 0 0 0 0 0 0 0
0 0.0891332727941331 0 0 0.836969231216476 0 0 0 -1.23952579794397 0 -0.156355383321872 -1.61090476140377 0 0 0 0 -4.70261295818351 0 0 0 0 0 0 0 0 0 0 0 0 -0.386869584121567 0 0 0 -0.479826414598559 0 0 0 0 0 0 0 0 0 0 0 0 0 0 0 0
0 0 0 0 0 0 0 0 0 0 -3.08728493304421 0 0 0 0 -0.330004608189347 0 0 0 0 0 0 0 0 0 0 0 0 -2.18287526193228 0 0 0 0 0 -1.35170299284961 0 0 0 0 -0.327354604677148 0 0 0 0 0 0 -0.62838939457283 0 0 0
0 0 0 0.334615466661243 0 0 0.272909954406366 0 0 -0.743202702462497 0 0 0 0 0 0 0 0 0 -4.27893219917331 -0.254268605242136 0 0 -0.677634592555142 0 0 0 0 0 -0.285376204275669 0 -2.78924037514452 0 0 0 0 0 0 0 0 0 0 -0.580717572620808 -1.38795553994142 0 0 0 -0.533664367055611 0 0
0.0672483846074513 0.593878304432563 0 0 0 0 0 0 0.142807475745591 0 0 0 0 -1.40922190820977 0 0 -0.480035557923607 0 0 0 0 0 0 -0.588766802052645 0 0 0 0 0 0 0 -3.20503138805629 0 0 0 0 0 0 0 -1.3966464829778 0 0 0 0 0 0 0 0 0 0
0 0 0 0 0 0 0.0299454706999668 0.667101727151132 0 0 0 0 0 0 0 0 0 0 0 0 0 0 0 0 0 0 0 0 -2.87550636100766 0 -1.41381660888242 0 -0.743534097644172 0 0 0 0 0 -3.8774781765428 0 0 0 -0.628240372543006 0 -1.43907682079455 0 0 0 0 0
0 0 0 0 0 0 0.320112682833935 0 0 0 0 0 0 0 0 0 -1.78890735898932 0 0 0 -0.108225004652283 0 0 0 -1.52720643922603 0 0 0 0 0 0 0 0 0 0 -0.621791691924606 -0.0658731156482724 0 0 -1.39032447248995 0 0 0 0 0 0 0 0 0 0
0 0 0 0 0 0 0 0 0 0 0 0 0 0 0 -2.91641241161255 0 0 0 0 0 0 0 0 0 -0.791209275036004 0 -0.554350059518559 0 0 -0.322019208971921 0 0 0 0 0 0 0 0 0 0 0 0 0 0 0 0 0 0 0
0 0 0 0 0 0 0 0 0 0.290154034656388 0 0 0 0 -1.23486795650229 0 0 0 0 0 -0.774432440177321 0 0 -0.437015384545152 0 0 0 0 0 0 0 0 0 0 -1.95127000835702 0 0 0 0 0 0 0 0 0 0 0 0 0 -1.01410058367466 0
0.438591206488644 0 0.410324226104564 0 0 0.106870057284215 0 0 0 0 0 0 0 0.229564586213398 0 0 0 0 -0.949378742287827 0 0 0 -2.11799483930502 0 0 0 0 0 -3.25486229245157 0 0 0 0 0 0 -0.601475224760384 0 0 0 0 0 0 0 0 0 0 0 0 0 0
0 0 0 0 0 0 0 0.0658771361026193 0 0 0 0 0.595609343576786 0 0 0 0 0 0 0 0 0 0 0 0 0 0 0 0 0 0 0 0 0 0 0 0 0 0 0 0 0 0 0 0 0 0 -2.17879774899526 0 0
0 0 0 0 0 0 0.928741853073381 0 0 0.0982734835089524 0 0.326031533902344 0 0 0 0 0 0 0 0 0 0 0 0 0 0 -0.875168075116181 0 0 0 0 -2.07541058518357 0 0 -0.434964945035866 0 0 0 0 0 0 0 0 0 0 0 0 0 0 0
0 0 0.0516638447401245 0 0 0 0 0 0 0 0 0 0 0 0 0 0 0 0 0 0 0 -1.41066301107719 -0.826734663634631 0 0 0 0 0 0 0 0 -0.256892089055294 0 0 0 0 0 0 0 0 0 0 0 0 0 0 0 -0.597191002313837 0
0 0 0 0 0.420610113302743 0 0 0 0 0 0 0 0 0 0.183822703362069 0 0 0 0 0 0 0 0 -0.0854808197357604 0 0 0 -0.295317607189697 0 0 0 0 0 0 0 0 0 0 0 0 0 0 0 0 0 0 0 -0.919703801981293 0 0
0 0 0.266346023654507 0 0 0 0 0 0.824977215037701 0 0 0 0 0 0 0 0 0 0 0 0 -0.561215479788125 0 0 0 0 0 0 0 0 0 0 0 0 0 0 0 0 0 0 0 -1.72170842476952 0 0 0 0 0 0 0 0
0 0 0 0 0 0 0 0 0.0527073086068902 0 0 0.0203781446175062 0 0.152010817516056 0 0 0 0 0 0 0 0 0 0 0 0 0 0 0 0 -1.41127359487175 0 0 -0.8265794733207 0 0 -0.971881368849245 0 -0.160409034025817 -5.93190722775551 0 0 0 0 0 0 0 0 0 0
0 0 0 0 0 0.338751199974691 0 0 0 0 0 0 0 0 0 0 0 0 0 0.115231677353362 0 0 0 0 0 0 0 0 0 0 0 0 0 0 0 0 0 0 0 0 0 0 0 0 0 0 0 0 0 0
0 0 0 0 0 0 0 0 0 0 0 0 0 0 0.440337024798675 0 0 0.260673672011042 0 0 0 0 0 0 0 0 -0.969616052541665 0 0 0 -3.5129236536982 0 0 0 0 0 0 0 0 0 0 -1.14922337091454 0 0 0 0 0 0 0 -0.84118123231226
0 0 0 0 0 0 0 0 0.140357893146787 0.124115825531106 0 0 0 0.0856181232160969 0 0 0 0.170929604325344 0.0153750751918849 0 0 0 0 0 0 0 0 0 0 0 0 -2.53101496123131 0 0 0 0 0 0 0 0 -2.98001953192306 0 0 0 -0.223771338117879 -1.05578034795577 0 0 -0.632710537498721 0
0 0 0 0 0 0 0 0 0 0 0 0.3113916028567 0 0 0 0 0 0 0 0 0 0 0 0 0 0 0 -0.445364752119245 0 0 0 0 0 0 0 0 0 0 0 0 0 0 0 0 0 0 0 0 0 0
0 0 0 0 0.444448263475599 0 0 0 0 0 0 0 0.150089582480099 0 0 0 0 0 0 0 0 0 0 0 0 0 0 -0.502938854207152 0 0 0 0 0 0 0 0 0 0 0 0 0 0 0 0 0 0 0 -0.0637917718542498 0 0
0 0 0 0 0 0 0 0 0 0 0 0 0 0 0 0 0.178458281063997 0 0 0 0 0 0.199733939527924 0 0 0 0 0 0 0 0 0 0 0 0 0 0 0 0 0 0 0 -1.16893330400945 0 0 0 0 0 0 0
0 0 0 0.0913516865809839 0 0 0 0 0 0 0 0 0.110387332790397 0 0 0 0 0 0.0575623222362946 0 0 0 0 0 0.0846965533786554 0.106151911817971 0 0 0 0 0 -1.17251604689246 0 0 0 0 0 0 0 -0.661842695700254 0 0 0 0 0 -0.510555614690246 0 0 0 0
0 0 0.0596348212244927 0 0 0 0 0.424335994928489 0 0 0.594166556472271 0 0 0 0.605594687249027 0 0 0 0 0 0 0 0 0 0 0 0 0 0 0 0 0 0 0 0 0 0 0 0 0 0 0 0 0 0 0 0 0 -0.475799431866295 0
0 0.100532845245218 0 0 0 0 0.0810181763327957 0 0.0581341447055662 0 0 0 0 0 0 0 0 0 0 0 0 0 0 0 0 0 0 0 0 0 0 -3.83401420735592 0 0 0 -2.99007798225614 -4.03562426299914 0 0 0 0 -1.37469919183322 -4.6876615602845 0 0 0 0 0 0 0
0 0 0 0 0 0 0 0 0 0 0.276783021485179 0 0.0653724905451019 0 0 0 0 0 0 0 0.297533105651031 0 0.712341501964422 0 0 0 0 0 0 0 0 0 0 0 0 0 0 0 0 0 0 0 0 -0.903994596700879 -0.194743609282998 0 0 -0.566948679109496 0 0
0.201519006916037 0 0 0 0 0 0 0 0.592703157658997 0.647713897376623 0 0 0 0 0 0 0.448167763247996 0 0 0 0 0 0 0.522629595106073 0 0 0 0.22681596836086 0 0.729561465123686 0 0 0 0 0 0 0 0 0 0 0 0 0 0 0 0 0 0 -2.41963741028916 0
0 0 0 0 0 0 0 0 0 0 0.146693853585495 0 0 0 0 0 0 0.0494169719326771 0 0 0 0 0 0 0 0 0 0 0 0 0 0 0 0 -1.05026723117733 0 0 0 0 0 0 0 -0.973299711181266 0 0 0 -0.172623188902428 0 0 0
0 0.396812632840946 0 0 0 0 0.0838270359231634 0 0 0 0 0 0 0 0 0 0 0 0 0 0.169501721784587 0 0 0 0 0 0 0 0 0 0 0 0 0 0 0 0 0 0 0 0 0 0 0 0 0 -2.03327461633833 -1.26087008528677 -3.37996970952867 0
0 0 0 0.351829688513138 0 0 0 0.294218039402156 0 0 0 0 0 0.35295493652372 0 0 0.0825727740077446 0 0 0 0 0 0 0 0 0 0 0 0 0 0 0 0.219983097291797 0 0 0 0 0 0 0 0 0 0 0 0 -2.64730620030333 0 0 0 -4.23552321319931
0 0 0 0 0 0 0 0 0 0 0 0.117802331855993 0 0 0.115677749189109 0 0 0 0 0 0 0 0 0 0 0 0 0 0 0.620492693959546 0 0 0 0 0 0 0 0 0 -0.943772268192256 0 0 0 0 0 0 0 0 0 0
0 0 0 0 0.190526842024201 0 0 0 0 0 0 0.0127647137595715 0 0 0 0 0 0 0 0 0.202338903552604 0 0 0 0 0 0 0 0 0.811559619140145 0 0 0 0 0 0 0 -4.86076109960274 0 0 0 0 -0.367716821590271 0 0 0 0 0 0 0
0 0 0 0.421594346540537 0 0 0 0 0 0 0 0 0 0 0 0 0 0 0 0 0 0 0 0 0 0 0 0 0 0 0 0 0 0 0 0 1.08100442604079 0 0 0 0 0 0 0 0 0 0 0 0 0
0 0 0 0 0 0 0 0 0 0 0.72618664545155 0 0 0 0 0 0 0 0 0 0.0299937168912297 0 0 0 0 0 0 0 0 0 0 0 0 0 0 0 0 0 0 0 0 0 0 0 0 0 0 0 0 0
0 0 0 0 0 0 0 0.0658198581851054 0 0.300660754256817 0 0.267018964906244 0 0 0 0 0 0 0 0 1.20136630256592 0 0 0 0 0 0 0.141097230664226 0 0 0 0 0 0 0 0.186992262065327 0 0 0 0 0 0 -0.828134039139939 0 0 0 0 -0.581257805868469 0 0
0 0 0 0 0 0 0 0 0 0 0 0 0 0 0 0 0 0 0 0 0 0 0 0.608550354988205 0 0 0 0 0 0 0 0 0 0 0 0 0 0 0 0 0 0 0 -0.392919705768999 0 0 0 0 -0.65556763548742 0
0 0 0 0 0 0 0 0 0 0 0 0 0 0 0 0 0 0 0 0.349817598861999 0 0 0.211871373787589 0 0 0 0 0 0 0.30554703481641 0 0 0 0 0 0 0 0 0 0 0 0 0 0 0 0 0 0 0 -3.68408507555714
0 0 0.198885108569752 0 0.111838469847891 0 0 0 0.127904488134522 0 0.124836965080796 0 0 0 0 0 0 0 0 0 0 0 0 0 0 0 0.234864584673944 0 0 0.888453330111202 0 0 0.208186563801788 0 0 0 0.0715611546499623 0 0 0.160835435459557 0 0 0 0 0 0 0 0 0 0
0.111742568972314 0 0 0 0 0 0 0 0.276867426706866 0 0 0 0 0 0 0 0 0 0 0 0 0 0 0 0 0 0 0 0 0 0.197403778132126 0 0 0 0 0 0 0 0 0 0.0841771194536962 0 0 0 0 0 0 0 0 0
0 0 0 0 0 0 0 0 0 0 0.301826629917796 0 0 0 0 0 0 0 0 0 0 0 0 0.0447243420211742 0 0 0 0 0 0 0.039331660572321 0 0 0 0 0 0 0 0 0 0 0 0 0 0 0 0 0 0 0
0 0.089174587995908 0 0 0 0 0 0 0 0 0 0 0 0 0 0 0 0 0 0 0 0 0 0.213506536999679 0 0 0 0.100606840524797 0 0 0 0 0 0 0.540538390353411 0 0 0 0 0 0 0 0 0 0 0 0 -1.16160645282929 0 0
0 0 0 0 0 0 0 0.118678919243847 0 0 0 0 0 0 0 0 0 0 0 0 0 0 0 0 0 0 0 0 0 0 0 0 0.0316213509751655 0.432201265987541 0 0 0 0 0 0 0 0 0 0 0 0 0 0 0 0
0 0 0.695956121105138 0 0.130832945562045 0 0 0 0.0969637383679162 0 0 0 0 0 0 0.436816622592586 0 0 0.185443782895852 0 0 0 0 0 0 0.0124945389006254 0 0 0 0 0.111953756841139 0 0 0.228941372039684 0 0 0 0 0 0.112048913614644 0 0 0 0 0 0.245109536296706 0 0 0 0
0 0 0 0 0 0 0 0 0 0 0 0 0 0.199413630837786 0 0 0 0.125831255548291 0 0 0 0 0 0.129443466839729 0 0 0 0 0.0911934059745717 0 0 0.486937770863896 0 0.64598134978578 0 0 0 0 0 0 0.127921294503821 0 0 0 0 0 0 0 0 -3.14199077963933
0 0 0 0.876126254059976 0 0 0 0 0 0 0 0 0 0 0 0 0 0 0 0 0 0 0.173047626648488 0 0 0 0 0 0 0 0 0 0 0 0.877151546994801 0 0 0 0 0 0 0.731787188835739 0 0 0 0 0 0 0.617928813446199 0
