0 -2.02829112994873 0 -1.69457082380211 -5.17820777481933 0 0 0 0 0 0 0 0 0 0 0 0 0 0 0 0 0 0 0 0 -0.68854556673377 0 -3.55035587799179 0 0 0 0 0 0 0 0 0 0 0 0 0 0 0 0 -2.29557789481827 0 0 0 0 0
0.38881405389149 0 0 0 0 -1.19507568903562 0 0 0 0 0 0 0 0 0 0 0 0 0 0 0 0 0 0 -1.33235324105767 0 0 0 0 0 0 0 0 0 0 0 -0.187814791075602 0 0 0 0 0 -2.18574572233913 0 0 0 0 0 0 0
0 0 0 0 0 0 0 0 0 0 0 -3.65936251208296 -1.21466737241242 -5.65527093798331 0 0 0 0 0 0 0 -0.314362185366629 0 0 0 0 0 0 -1.0027924323227 0 0 0 0 0 0 0 0 0 0 0 -0.659806571394242 0 0 0 0 0 0 0 0 0
0.331054167337776 0 0 0 0 0 0 -1.34650281346087 0 0 0 0 0 0 0 0 0 0 0 0 0 0 -0.72534161812491 0 0 0 0 0 0 0 0 0 0 0 0 0 0 0 0 0 0 -0.939468143044158 -0.794633214712912 -0.573100786097913 0 0 0 0 -0.413080804373315 0
1.03641271022038 0 0 0 0 0 0 0 0 0 0 0 0 0 0 0 0 0 -2.86704001738087 0 0 0 0 0 0 0 0 0 0 0 0 0 0 0 0 0 0 0 0 0 0 0 -0.626687747075092 0 0 0 0 0 0 0
0 0.247081311773742 0 0 0 0 0 0 0 0 0 0 0 0 0 0 0 0 0 0 0 0 0 0 0 -1.86363419513813 0 -4.25421853361241 0 0 0 0 0 0 0 0 0 0 0 0 0 0 0 0 0 0 0 -3.8892417013713 0 0
0 0 0 0 0 0 0 0 0 0 0 0 0 0 -0.721346353476995 0 0 -0.152282926100351 0 0 0 -3.67238653526129 0 0 0 0 -0.410562096584922 0 0 0 -0.164836639184095 0 0 0 0 0 0 0 0 0 0 0 0 0 0 0 0 0 0 -0.559817435967879
0 0 0 0.245318765329723 0 0 0 0 0 0 0 0 0 -0.521642180244477 0 0 0 0 0 0 0 0 0 0 0 0 -1.6680803966614 0 0 0 0 0 0 0 0 0 0 0 0 0 0 0 0 0 0 0 0 0 0 0
0 0 0 0 0 0 0 0 0 0 0 0 0 0 0 0 -0.988749043552947 0 -5.24538299402975 0 0 0 0 0 0 0 0 0 0 0 0 0 0 0 0 0 0 0 0 0 0 0 0 0 0 0 0 0 0 0
0 0 0 0 0 0 0 0 0 0 0 0 0 -0.674717484803648 0 0 0 0 0 0 0 0 0 0 0 0 0 0 0 -7.25065363216935 0 0 0 -0.497826694075307 0 0 0 -2.67617850011733 0 0 0 0 0 0 0 0 0 0 0 0
0 0 0 0 0 0 0 0 0 0 0 0 0 0 0 0 0 0 0 0 0 0 0 0 0 0 0 0 0 -7.69985417452014 -1.78360725166133 0 0 -3.16910907836372 0 0 0 0 0 0 -0.275167098219012 0 0 0 0 0 0 0 0 0
0 0 0.798904361149296 0 0 0 0 0 0 0 0 0 0 0 0 0 -0.542320739561856 0 0 0 0 0 0 0 0 0 0 0 0 0 0 0 -3.74422899785482 0 0 0 0 0 0 0 0 0 0 0 0 0 0 0 0 0
0 0 0.251464356934689 0 0 0 0 0 0 0 0 0 0 0 0 0 0 0 -1.83103536949014 0 0 0 0 0 -1.7906813815169 0 0 0 0 0 0 0 0 0 0 0 0 0 0 0 0 0 0 0 0 0 0 0 0 0
0 0 1.11766521527278 0 0 0 0 0.0972190935887654 0 0.132908659346645 0 0 0 0 0 0 -1.0728312865373 0 -2.1138784578815 0 0 0 0 0 0 0 0 -0.624692907592012 0 0 0 0 -0.619134864063666 0 0 0 0 0 0 0 0 0 0 0 0 0 0 0 0 0
0 0 0 0 0 0 0.145414070550746 0 0 0 0 0 0 0 0 0 0 0 0 0 0 0 0 0 0 -3.96380324163413 0 0 0 0 0 0 0 0 0 0 0 0 0 0 0 0 0 0 0 0 -0.454395430394526 0 0 -3.66000486556653
0 0 0 0 0 0 0 0 0 0 0 0 0 0 0 0 0 0 0 -1.8894619607365 0 0 -0.298275566185526 0 0 0 0 0 0 0 0 0 -0.87807859426909 0 0 0 0 0 0 0 0 0 0 0 0 -1.87364931012543 0 0 0 0
0 0 0 0 0 0 0 0 0.198341043063159 0 0 0.10292662766772 0 0.23238654837302 0 0 0 0 0 0 0 0 0 0 0 0 0 0 0 0 0 0 0 0 0 0 0 0 -0.76998219187165 0 0 0 0 0 0 0 0 0 0 0
0 0 0 0 0 0 0.0298789329552777 0 0 0 0 0 0 0 0 0 0 0 0 0 0 0 0 0 0 0 0 0 -0.947308093036674 0 0 0 0 -1.01262603064909 0 0 0 0 0 -0.154670315867731 0 0 -1.18323711876275 0 0 0 0 0 0 0
0 0 0 0 0.603062944163784 0 0 0 1.02942340917071 0 0 0 0.365729909092141 0.454986953430403 0 0 0 0 0 0 0 0 0 0 0 0 0 0 0 0 0 0 0 0 -0.725878140032168 0 0 0 0 0 0 0 0 0 0 -0.610317313669439 0 0 0 0
0 0 0 0 0 0 0 0 0 0 0 0 0 0 0 0.370970245087835 0 0 0 0 0 0 0 0 0 0 0 0 0 0 0 0 0 0 -1.07046161849449 0 0 0 0 0 0 0 -1.84131607159852 0 0 0 0 0 0 0
0 0 0 0 0 0 0 0 0 0 0 0 0 0 0 0 0 0 0 0 0 0 0 0 0 -0.797527940385858 0 0 0 0 0 0 0 0 -4.28127106111638 0 0 -0.296012662407524 0 0 0 0 0 0 0 0 0 0 0 0
0 0 0.0588074537720899 0 0 0 0.704574219410886 0 0 0 0 0 0 0 0 0 0 0 0 0 0 0 0 0 0 0 0 0 0 0 0 0 0 0 0 0 0 0 0 0 0 0 0 0 0 0 0 0 0 -2.24051469689441
0 0 0 0.147572873021586 0 0 0 0 0 0 0 0 0 0 0 0.0542532982709795 0 0 0 0 0 0 0 0 -0.702410637900222 0 -0.486777629373241 0 0 0 0 0 0 0 0 0 0 0 0 -0.598511025111499 0 0 0 0 0 0 0 0 0 0
0 0 0 0 0 0 0 0 0 0 0 0 0 0 0 0 0 0 0 0 0 0 0 0 0 0 0 0 0 0 0 0 0 0 0 0 0 0 -1.14169240854671 0 0 0 0 0 -1.75845005508134 0 -2.17788151451592 0 0 0
0 0.278122313874387 0 0 0 0 0 0 0 0 0 0 0.364635240800421 0 0 0 0 0 0 0 0 0 0.146476297214755 0 0 0 0 0 0 0 0 0 -0.187687949255622 0 0 0 0 0 0 0 0 0 -3.34485370079395 0 0 0 0 0 0 0
0.148854696605971 0 0 0 0 0.362402110453771 0 0 0 0 0 0 0 0 0.810904249153227 0 0 0 0 0 0.143377017144855 0 0 0 0 0 0 0 0 0 0 0 0 0 0 0 0 0 0 0 0 0 0 0 -1.87409303420826 0 0 0 0 0
0 0 0 0 0 0 0.0800990250293439 0.322165669011024 0 0 0 0 0 0 0 0 0 0 0 0 0 0 0.0924068043828617 0 0 0 0 0 0 -0.940560804153958 0 0 0 0 0 0 0 0 0 0 0 0 0 0 0 0 0 -0.55324374896124 0 0
0.729943119239437 0 0 0 0 0.873173356371293 0 0 0 0 0 0 0 0.118381908573648 0 0 0 0 0 0 0 0 0 0 0 0 0 0 0 0 0 -0.801414622689572 0 -2.78272977735053 0 0 0 0 0 0 0 0 0 0 0 0 0 0 0 0
0 0 0.183834775284574 0 0 0 0 0 0 0 0 0 0 0 0 0 0 0.200274353100612 0 0 0 0 0 0 0 0 0 0 0 0 0 0 0 0 0 0 0 0 0 0 0 0 0 0 -0.793369240479805 -1.80458769398538 0 0 0 0
0 0 0 0 0 0 0 0 0 1.54719821428808 1.54603010349784 0 0 0 0 0 0 0 0 0 0 0 0 0 0 0 0.181953580990319 0 0 0 -7.77494690582561 -0.758102252861972 0 0 0 0 0 0 0 0 0 0 0 0 0 0 0 0 0 0
0 0 0 0 0 0 0.0348330419905731 0 0 0 0.34112202316496 0 0 0 0 0 0 0 0 0 0 0 0 0 0 0 0 0 0 1.66745202316254 0 0 0 0 0 0 0 0 0 0 0 0 0 0 0 0 0 0 0 0
0 0 0 0 0 0 0 0 0 0 0 0 0 0 0 0 0 0 0 0 0 0 0 0 0 0 0 0.152344924435064 0 0.147881199288121 0 0 0 0 0 0 0 0 0 -0.915335679204644 0 0 -1.87321592776157 0 0 0 0 0 0 0
0 0 0 0 0 0 0 0 0 0 0 0.71723565527845 0 0.125464880594491 0 0.171535085282328 0 0 0 0 0 0 0 0 0.0383888534874736 0 0 0 0 0 0 0 0 0 -2.83723985620701 -3.49128889930669 0 -0.160277250458752 0 0 0 0 0 0 0 0 0 0 0 0
0 0 0 0 0 0 0 0 0 0.0976643755059851 0.603315181217602 0 0 0 0 0 0 0.190191985295284 0 0 0 0 0 0 0 0 0 0.535984861797152 0 0 0 0 0 0 0 0 0 0 0 -2.54361484519474 0 0 0 -0.521500970192709 0 0 0 0 0 0
0 0 0 0 0 0 0 0 0 0 0 0 0 0 0 0 0 0 0.135701865053521 0.212766731140763 0.821107442053946 0 0 0 0 0 0 0 0 0 0 0 0.524493267852875 0 0 0 0 0 0 0 -6.63198324365321 0 0 0 0 0 0 0 0 0
0 0 0 0 0 0 0 0 0 0 0 0 0 0 0 0 0 0 0 0 0 0 0 0 0 0 0 0 0 0 0 0 0.702361499098505 0 0 0 -0.320422354102515 0 0 0 0 0 0 0 0 -0.736102798646779 0 0 0 0
0 0.0395571539518791 0 0 0 0 0 0 0 0 0 0 0 0 0 0 0 0 0 0 0 0 0 0 0 0 0 0 0 0 0 0 0 0 0 0.0639608295910766 0 -3.37968842237556 0 0 0 0 0 0 0 0 0 0 0 0
0 0 0 0 0 0 0 0 0 0.552568297828307 0 0 0 0 0 0 0 0 0 0 0.0567459929311925 0 0 0 0 0 0 0 0 0 0 0 0.0322587520756119 0 0 0 0.668031558786975 0 -4.31124231923644 -9.76548963953513 0 0 0 0 0 0 0 -0.181519687250646 0 0
0 0 0 0 0 0 0 0 0 0 0 0 0 0 0 0 0.164840122926322 0 0 0 0 0 0 0.218594904974174 0 0 0 0 0 0 0 0 0 0 0 0 0 0.807735600826095 0 0 0 0 0 0 0 -2.13322974555361 0 0 0 0
0 0 0 0 0 0 0 0 0 0 0 0 0 0 0 0 0 0.0318410490132781 0 0 0 0 0.130558884525834 0 0 0 0 0 0 0 0 0.161701298217785 0 0.530783349787192 0 0 0 1.97815376874795 0 0 0 0 0 0 0 0 0 0 0 0
0 0 0.132094712691357 0 0 0 0 0 0 0 0.0524080085151671 0 0 0 0 0 0 0 0 0 0 0 0 0 0 0 0 0 0 0 0 0 0 0 1.41991973085961 0 0 0 0 0 0 0 0 -0.982028791256966 0 0 0 -0.497999562039972 0 0
0 0 0 0.17947617632552 0 0 0 0 0 0 0 0 0 0 0 0 0 0 0 0 0 0 0 0 0 0 0 0 0 0 0 0 0 0 0 0 0 0 0 0 0 0 0 0 0 0 0 0 0 0
0 0.42669217999325 0 0.157494220803214 0.12599253896805 0 0 0 0 0 0 0 0 0 0 0 0 0.248619336932253 0 0.375657764453716 0 0 0 0 0.690032825476793 0 0 0 0 0 0 0.361975197554674 0 0 0 0 0 0 0 0 0 0 0 0 0 0 -1.93513869960796 0 0 0
0 0 0 0.117622262071274 0 0 0 0 0 0 0 0 0 0 0 0 0 0 0 0 0 0 0 0 0 0 0 0 0 0 0 0 0 0.103415396539689 0 0 0 0 0 0 0.193802880003927 0 0 0 -2.95410629615373 0 0 0 0 0
0.423069864261123 0 0 0 0 0 0 0 0 0 0 0 0 0 0 0 0 0 0 0 0 0 0 0.366148030744398 0 0.394432267258299 0 0 0.153077381926338 0 0 0 0 0 0 0 0 0 0 0 0 0 0 0.557153529255419 0 0 0 0 0 0
0 0 0 0 0 0 0 0 0 0 0 0 0 0 0 0.368126011603979 0 0 0.111571954438204 0 0 0 0 0 0 0 0 0 0.371699475883954 0 0 0 0 0 0 0.14997375308239 0 0 0.445954941745598 0 0 0 0 0 0 0 0 0 -0.856159195893579 -4.33423713767505
0 0 0 0 0 0 0 0 0 0 0 0 0 0 0.0871486965200042 0 0 0 0 0 0 0 0 0.409431593942577 0 0 0 0 0 0 0 0 0 0 0 0 0 0 0 0 0 0 0.383175496190603 0 0 0 0 0 0 0
0 0 0 0 0 0.754616629745935 0 0 0 0 0 0 0 0 0 0 0 0 0 0 0 0 0 0 0 0 0.107673410271841 0 0 0 0 0 0 0 0 0 0 0.0338870943212214 0 0 0.105437071569447 0 0 0 0 0 0 0 0 0
0 0 0 0.0839565585411372 0 0 0 0 0 0 0 0 0 0 0 0 0 0 0 0 0 0 0 0 0 0 0 0 0 0 0 0 0 0 0 0 0 0 0 0 0 0 0 0 0 0.165951466657756 0 0 0 0
0 0 0 0 0 0 0.108557438311029 0 0 0 0 0 0 0 0.728620290852431 0 0 0 0 0 0 0.418454158859573 0 0 0 0 0 0 0 0 0 0 0 0 0 0 0 0 0 0 0 0 0 0 0 0.886807277770335 0 0 0 0
