0.348471301580148
0.812635741279935
1.85191596268419
1.60541155348458
1.7515076346888
0.714352452428132
0.617567973679368
0.145988007460447
0.33156344193741
1.26807379769544
1.25448414577065
0.59669358267582
0.796586772635496
0.280099558953537
0.435255053555424
0.587158048871075
0.535062109140666
0.421504784724799
2.46900431382124
0.42028811054272
2.49119061417371
0.377532193627697
0.352166926674077
0.780141103786038
1.43661271207072
0.183294751473664
0.122518923018352
1.69552394607089
0.282303788086535
2.56877811306382
1.8787278707813
0.375269714851838
0.197682925680678
0.697412127037439
0.891653189116765
0.716752344815244
1.84789382220837
0.230103935915937
1.33918901879914
0.808480767392883
0.692728666127716
0.701866339075822
0.990762477385306
1.43865130144946
0.431226508282884
2.1276122629538
0.718674240991936
0.35579627426228
1.41292721353865
0.444630058210247
