0.672420413474446
0.215959741156682
0.397120250801392
0.641005901033537
0.849986231039757
0.92167064032562
0.432549288556896
0.676647331167601
0.658338368567945
0.827562289268494
0.95270470329954
0.326909005336003
0.542212197231362
0.77119174504423
0.261511826403084
0.610505822457066
0.113828161671164
0.425979456983007
0.535192655756476
0.491404642766122
0.576038055414789
0.307337632667584
0.923340583539413
0.64033185818421
0.497222251796294
0.723890800325051
0.355520203725283
0.462005054360254
0.927739354997306
0.419636035651888
0.568898550877255
0.381538830217713
0.261204126681957
0.365298045774505
0.469710316496564
0.612408406076133
0.92425552437326
0.315328593714063
0.523266164628533
0.247485512227895
0.562044943346205
0.367264510029618
0.3813411164576
0.943874071218419
0.118628746814409
0.264076382763573
0.800650241612384
0.274152039768648
0.432185551265392
0.45025836395894
