0 0 0 0 0 0 0 0 0 0 0 0 0 0 0 0 0 0 0 0 0 0 0 0 0 0 0 0 0 0 0 0 0 0 0 0 0 0 0 0 0 -3.20174820893242 0 0 0 0 0 0 0 0
0 0 -0.340487103587517 0 0 0 0 -0.537430899481096 0 0 0 0 0 0 0 0 -0.982734249100887 0 0 -4.9420601022836 0 0 0 0 0 0 0 0 0 0 0 0 0 0 0 0 0 0 0 0 0 0 0 0 0 0 -0.935011963684988 0 0 0
0 0.0684039258039861 0 0 0 0 -3.01183588669765 0 0 0 0 0 0 0 0 0 0 0 0 0 0 0 0 -1.11461014040911 0 0 0 0 0 0 0 0 0 0 0 0 0 0 0 0 0 0 0 0 0 0 0 0 0 0
0 0 0 0 0 0 0 -1.06402875006243 0 0 0 0 0 0 0 0 0 0 0 0 0 0 0 0 0 0 0 0 -5.30176007607233 0 -7.20911406211435 0 0 -0.28204783623901 0 0 0 0 0 0 0 0 0 0 0 0 0 0 0 0
0 0 0 0 0 0 0 0 0 0 0 0 0 0 0 0 0 0 0 -0.577343967451871 0 0 0 0 0 0 0 0 0 -1.04778907034125 0 0 0 0 0 -1.94192849205681 0 0 0 0 0 0 0 0 0 0 0 0 0 0
0 0 0 0 0 0 -0.349889642376588 0 -3.25795083063319 -2.68318239689411 0 0 0 0 0 0 0 0 0 0 0 0 0 0 0 0 0 0 0 0 0 0 -1.61635690942275 -1.0146866234977 0 0 0 0 0 0 -0.600363391470465 0 0 0 0 0 0 0 0 -0.638361351614708
0 0 0.569522906819782 0 0 0.0636679576724042 0 0 -0.352980244473698 0 0 0 0 0 0 0 0 -0.151735162226711 -0.814558616826191 0 0 0 -0.56795670460047 0 0 0 0 0 0 0 0 0 -0.728021324062329 0 0 0 -0.306109349903993 0 0 0 0 0 0 0 0 0 -0.776286530715973 0 0 0
0 0.116449713546034 0 0.201236010107053 0 0 0 0 0 0 0 -1.58741605014516 0 0 0 -0.375869558323579 0 0 0 0 0 0 -2.43291191511093 0 0 0 0 0 0 0 0 -3.46876904488652 0 0 0 0 0 0 0 0 0 0 0 0 0 0 0 0 0 -0.540414367434834
0 0 0 0 0 0.66834753754369 0.0701167849806109 0 0 -2.44158368696554 0 0 0 0 0 -0.299068269492456 0 0 -0.51429677219476 0 0 0 0 -0.330565249471468 0 0 0 0 0 0 0 0 0 0 0 -0.228912916311958 0 0 0 0 0 -7.18867400080529 0 0 0 0 0 0 0 0
0 0 0 0 0 0.515742816045562 0 0 0.493194303581987 0 0 0 0 0 0 0 0 0 0 0 0 0 0 0 0 0 0 0 0 0 0 0 0 0 -0.241891608885184 0 -1.00486924872365 0 0 0 0 0 -0.715073203579365 0 0 0 -4.16058478917466 0 0 0
0 0 0 0 0 0 0 0 0 0 0 0 0 0 0 0 0 0 0 0 0 0 0 0 0 0 0 0 0 0 0 0 0 0 0 0 0 0 0 0 -0.790497290485402 0 0 0 0 0 -0.582830320090117 0 0 0
0 0 0 0 0 0 0 0.325473965929164 0 0 0 0 -0.462817251203426 0 0 0 0 0 0 0 0 0 0 0 0 0 -0.938001563847931 0 0 -0.898603912384588 -0.461071587608421 0 0 0 0 0 0 0 0 0 0 0 0 0 0 0 0 0 0 -1.6450357971223
0 0 0 0 0 0 0 0 0 0 0 0.0883081485223429 0 0 0 0 0 -0.749289369616583 0 -0.859801433383555 0 0 0 0 0 0 0 0 0 -1.05785715995098 0 -0.400774692320499 0 0 0 -6.50504434521397 0 0 0 0 0 0 0 0 0 0 0 0 0 0
0 0 0 0 0 0 0 0 0 0 0 0 0 0 0 0 0 0 0 0 0 0 0 0 0 0 0 0 0 0 0 0 0 0 0 0 0 0 0 0 0 -1.3453113663653 0 0 0 0 0 0 0 -0.90396564317155
0 0 0 0 0 0 0 0 0 0 0 0 0 0 0 0 0 0 0 0 0 0 0 0 0 0 0 0 0 0 0 -1.00353851944071 0 0 0 0 0 0 0 0 0 0 0 0 0 0 -0.270532511271681 0 0 0
0 0 0 0 0 0 0 0.0756912271053194 0.0648073708573194 0 0 0 0 0 0 0 0 0 0 0 0 0 -0.64623987324303 0 0 0 0 0 0 0 0 0 0 -12.3547973014614 -0.227917620101303 0 0 -1.82614503973413 0 -1.27642427028355 0 0 0 0 0 0 0 0 0 0
0 0.195518797880509 0 0 0 0 0 0 0 0 0 0 0 0 0 0 0 0 0 0 -1.49581409644898 0 0 0 0 0 0 0 0 0 0 0 0 0 0 0 -1.96227656971608 0 -1.48669406359071 0 0 0 0 0 0 0 -1.03075464806229 -2.05180884174123 0 0
0 0 0 0 0 0 0.0328639657881748 0 0 0 0 0 0.153755166703973 0 0 0 0 0 0 -0.355494193816464 -0.483304588490184 0 0 0 0 0 -0.38002746657339 0 0 0 0 0 0 0 -1.19303152104748 -0.418813998409215 0 0 0 0 0 0 0 0 0 -4.64726007664797 0 0 0 0
0 0 0 0 0 0 0.183227318548706 0 0.109621754057845 0 0 0 0 0 0 0 0 0 0 0 0 0 0 0 0 0 0 0 -0.390623831311662 0 0 -0.742177992818689 0 0 0 0 0 0 0 0 0 0 -1.638073954632 0 0 0 0 0 0 0
0 0.946990493720788 0 0 0.114787304730332 0 0 0 0 0 0 0 0.187833063025311 0 0 0 0 0.0752420572084997 0 0 0 0 0 0 0 0 0 0 0 0 0 0 -0.257904576873005 0 0 0 0 0 0 0 0 0 -1.04962563271766 0 0 0 0 0 -4.76209454709732 0
0 0 0 0 0 0 0 0 0 0 0 0 0 0 0 0 0.285303981837415 0.0978703118270566 0 0 0 0 0 0 0 0 -1.68801482495586 0 0 0 0 0 0 0 0 0 0 0 0 0 0 0 0 0 0 0 0 0 0 0
0 0 0 0 0 0 0 0 0 0 0 0 0 0 0 0 0 0 0 0 0 0 0 0 0 0 0 0 0 0 0 0 0 0 0 -8.67422652029825 0 -2.92101887416556 0 0 0 0 0 0 0 -0.417751439841231 0 0 0 -1.42060405568302
0 0 0 0 0 0 0.109411004484026 0.460114892240775 0 0 0 0 0 0 0 0.122451995501449 0 0 0 0 0 0 0 0 0 0 0 0 0 0 0 0 0 0 0 0 0 0 0 0 0 0 0 0 0 0 0 0 0 0
0 0 0.238316727796562 0 0 0 0 0 0.0698394521452616 0 0 0 0 0 0 0 0 0 0 0 0 0 0 0 0 -0.608713170882759 0 -0.149071359277335 0 0 0 0 0 0 0 0 0 0 0 0 -0.536962854679811 0 0 0 0 0 0 0 -1.24762026688981 0
0 0 0 0 0 0 0 0 0 0 0 0 0 0 0 0 0 0 0 0 0 0 0 0 0 0 0 -0.251320720164976 0 0 0 -10.877807711524 0 0 0 0 0 0 -1.21223841908403 0 0 0 0 0 0 0 0 0 0 0
0 0 0 0 0 0 0 0 0 0 0 0 0 0 0 0 0 0 0 0 0 0 0 0.112522025099264 0 0 0 0 0 0 0 0 0 0 -0.179018851533497 0 0 -0.881530977946451 0 0 0 0 -0.367784522247388 0 0 0 -1.08963575397407 0 0 0
0 0 0 0 0 0 0 0 0 0 0 0.183351019832851 0 0 0 0 0 0.0758011650745653 0 0 0.362921484994922 0 0 0 0 0 0 0 0 0 0 0 0 0 0 0 0 0 0 0 0 0 0 0 0 0 0 0 0 0
0 0 0 0 0 0 0 0 0 0 0 0 0 0 0 0 0 0 0 0 0 0 0 0.0323862813138669 0.0487021473945347 0 0 0 0 0 0 0 0 0 0 0 0 0 0 0 0 0 0 0 0 0 0 0 0 0
0 0 0 1.06792381171034 0 0 0 0 0 0 0 0 0 0 0 0 0 0 0.0814065314773557 0 0 0 0 0 0 0 0 0 0 0 0 0 0 0 0 0 0 0 0 -0.602818053706251 0 0 0 0 0 0 0 0 0 0
0 0 0 0 0.205121925480717 0 0 0 0 0 0 0.179694391996043 0.196358451727045 0 0 0 0 0 0 0 0 0 0 0 0 0 0 0 0 0 0 0 0 0 0 0 0 0 0 0 0 0 0 0 0 0 0 0 0 0
0 0 0 1.33331423885612 0 0 0 0 0 0 0 0.0928717141976228 0 0 0 0 0 0 0 0 0 0 0 0 0 0 0 0 0 0 0 0 0 0 0 0 0 0 0 -0.529326357594564 0 -0.575006098740163 -1.59457932842007 0 0 0 0 0 0 0
0 0 0 0 0 0 0 0.668359433871396 0 0 0 0 0.0808034971466915 0 0.195666217327688 0 0 0 0.151657340580658 0 0 0 0 0 1.88704188670293 0 0 0 0 0 0 0 0 0 0 0 0 0 -5.78967424891469 0 0 0 0 0 0 0 0 0 0 -2.98127018466136
0 0 0 0 0 0.296278613507828 0.144462109104345 0 0 0 0 0 0 0 0 0 0 0 0 0.0518696998940675 0 0 0 0 0 0 0 0 0 0 0 0 0 0 0 0 0 0 0 0 0 0 0 0 0 0 0 0 0 -10.5308743760348
0 0 0 0.0565011037768064 0 0.21408919422387 0 0 0 0 0 0 0 0 0 2.60251194857007 0 0 0 0 0 0 0 0 0 0 0 0 0 0 0 0 0 0 0 0 0 0 0 0 0 0 0 0 0 0 0 0 0 0
0 0 0 0 0 0 0 0 0 0.0469534317325203 0 0 0 0 0 0.0485794410473791 0 0.269641229186212 0 0 0 0 0 0 0 0.0361355694797482 0 0 0 0 0 0 0 0 0 0 -0.318387049970845 0 0 0 0 0 0 0 0 0 0 0 -0.194602945222518 0
0 0 0 0 0.401370189135954 0 0 0 0.04575281648852 0 0 0 1.30791472788957 0 0 0 0 0.089936986257939 0 0 0 1.79238427591578 0 0 0 0 0 0 0 0 0 0 0 0 0 0 0 0 -0.913093160132992 0 0 -0.915304626817595 0 0 0 0 0 0 0 0
0 0 0 0 0 0 0.0647771672958931 0 0 0.209701987050345 0 0 0 0 0 0 0.40546126457204 0 0 0 0 0 0 0 0 0 0 0 0 0 0 0 0 0 0.0775268718194359 0 0 0 0 0 0 0 0 -2.31798248605127 0 0 -1.90159438022716 0 0 0
0 0 0 0 0 0 0 0 0 0 0 0 0 0 0 0.37367043974362 0 0 0 0 0 0.609427529692078 0 0 0 0.189669992089902 0 0 0 0 0 0 0 0 0 0 0 0 0 0 0 0 0 0 -0.788827249999955 0 0 0 0 0
0 0 0 0 0 0 0 0 0 0 0 0 0 0 0 0 0.301611372745477 0 0 0 0 0 0 0 0.223257946388847 0 0 0 0 0 0 1.09380461670914 0 0 0 0.182586018863949 0 0 0 0 0 0 0 0 0 0 0 -2.4716194000699 0 0
0 0 0 0 0 0 0 0 0 0 0 0 0 0 0 0.264988693561163 0 0 0 0 0 0 0 0 0 0 0 0 0.124142677482179 0 0.0935920580247374 0 0 0 0 0 0 0 0 0 0 0 0 0 0 0 0 0 0 0
0 0 0 0 0 0.11899009100169 0 0 0 0 0.163705941738008 0 0 0 0 0 0 0 0 0 0 0 0 0.114707081064341 0 0 0 0 0 0 0 0 0 0 0 0 0 0 0 0 0 0 0 0 0 -0.905140678421732 -3.11111779251734 0 0 0
0.649184907219413 0 0 0 0 0 0 0 1.58017902012691 0 0 0 0 0.247537522178895 0 0 0 0 0 0 0 0 0 0 0 0 0 0 0 0 0.111651808333318 0 0 0 0 0.199595411444759 0 0 0 0 0 0 0 0 0 0 0 0 0 0
0 0 0 0 0 0 0 0 0 0.15904422507322 0 0 0 0 0 0 0 0 0.308070182721217 0.21782976732289 0 0 0 0 0 0.0752142416400126 0 0 0 0 0.306608849590172 0 0 0 0 0 0 0 0 0 0 0 0 0 0 -0.22951087699009 0 0 -1.15214934301467 0
0 0 0 0 0 0 0 0 0 0 0 0 0 0 0 0 0 0 0 0 0 0 0 0 0 0 0 0 0 0 0 0 0 0 0 0 0.433096568850798 0 0 0 0 0 0 0 0 0 0 0 0 0
0 0 0 0 0 0 0 0 0 0 0 0 0 0 0 0 0 0 0 0 0 0 0 0 0 0 0 0 0 0 0 0 0 0 0 0 0 0.171500674621666 0 0 0 0 0 0 0 -3.01340352957256 0 0 0 0
0 0 0 0 0 0 0 0 0 0 0 0 0 0 0 0 0 0.92131332184196 0 0 0 0.0820445091843726 0 0 0 0 0 0 0 0 0 0 0 0 0 0 0 0 0 0 0.190530399630592 0 0.0485804275132246 0 0.585012515186874 0 -2.91219624463518 0 0 0
0 0.186213103937 0 0 0 0 0.167490072364807 0 0 0.840208280421316 0.11715086931847 0 0 0 0.0504082964872008 0 0.2085185734 0 0 0 0 0 0 0 0 0.233385507482075 0 0 0 0 0 0 0 0 0 0 0.401981662722045 0 0 0 0.663343161823182 0 0 0 0 0.567203418200857 0 0 0 0
0 0 0 0 0 0 0 0 0 0 0 0 0 0 0 0 0.374153116764105 0 0 0 0 0 0 0 0 0 0 0 0 0 0 0 0 0 0 0 0 0 0.498553676787353 0 0 0 0 0 0 0 0 0 0 0
0 0 0 0 0 0 0 0 0 0 0 0 0 0 0 0 0 0 0 0.903100418558022 0 0 0 0.22345527122024 0 0 0 0 0 0 0 0 0 0 0.0417021718817513 0 0 0 0 0 0 0 0.212879565165581 0 0 0 0 0 0 0
0 0 0 0 0 0.133504783174877 0 0.109450362938535 0 0 0 0.30110364443974 0 0.17648512655095 0 0 0 0 0 0 0 0.275678482479713 0 0 0 0 0 0 0 0 0 0.64786292924136 2.17607963738538 0 0 0 0 0 0 0 0 0 0 0 0 0 0 0 0 0
