0.480992780810199
1.02003874806462
0.219542011501127
1.71449502834382
0.37270460643782
0.415075161535076
3.87040621020839
0.16978271289062
0.0417578416051895
0.389389871603268
1.44653868371106
0.929160546484177
0.480622696715186
0.168929091736808
0.168811667346385
0.0773667948216728
0.619527219422808
0.162919266559022
0.225478537617693
0.107386349447145
0.979248988626011
0.668324354553968
0.117143174499586
0.546236013860188
1.78765759206032
0.632997476035598
0.115746382097941
2.14174849087327
0.13069132606551
1.5341184652202
0.587260456949405
0.812592709825162
0.143654259533565
0.138553880743139
0.1086636911796
0.626291466063161
0.135929457080296
0.641614801747746
0.463035923824424
0.237502286756969
0.471209433551706
0.544853711577113
0.273111007153712
0.14948183828454
0.444312787684072
0.346105304995685
0.168029814830308
0.218205121717127
2.3785493908685
0.135405584785746
