0 0 0 -0.924434489839033 0 0 0 0 0 0 0 0 0 0 0 -0.357255901150359 0 0 0 0 0 0 0 0 0 0 0 0 0 -3.2574833416804 0 0 0 -2.60695549074042 0 0 0 -0.626412516419439 0 0 0 0 0 0 0 0 0 0 0 0
0 0 -0.0970996779211999 -7.22640150998429 0 0 0 0 0 0 0 0 0 0 -0.786443580231615 0 0 0 0 0 0 -0.952073710832792 -0.198928401686179 0 0 -0.877260113961051 0 -5.47295029970252 0 0 0 0 0 -1.34603286418582 0 0 0 0 0 -0.200623875182909 -2.4104626493156 0 0 0 0 0 0 0 -0.29757121642641 0
0 0.018598019438683 0 0 0 -0.733701962666788 0 0 0 0 0 0 0 0 0 0 -2.28579567939616 0 0 0 0 0 -0.445172785902893 0 0 0 0 0 0 -0.762016547790445 0 0 0 0 0 0 0 0 0 0 0 0 0 0 0 0 -1.41998788304979 0 0 0
0.193348738669486 1.4806709048501 0 0 0 0 0 0 0 0 0 0 0 0 0 0 0 0 0 0 0 0 0 0 0 0 0 0 0 0 0 0 0 0 0 0 0 0 0 0 0 0 0 0 0 0 0 0 0 0
0 0 0 0 0 0 0 0 0 0 -1.24060696012725 0 0 0 0 0 0 0 0 0 0 0 0 0 0 0 0 0 0 0 0 0 0 0 -0.965646434733123 0 0 0 0 0 0 0 0 0 0 0 -4.08287450152997 0 0 0
0 0 0.14932184193932 0 0 0 0 0 0 -0.836685959515053 0 0 -0.459221990268355 0 0 0 -0.735244050849058 0 0 0 0 0 0 -0.692783880693382 0 0 0 0 0 0 0 0 0 0 0 -1.6647529572999 0 0 -0.622519437309883 0 0 -0.254042580502881 0 0 0 -1.05700979697666 0 0 0 0
0 0 0 0 0 0 0 0 0 0 0 -5.15011843309537 0 0 0 0 0 -1.323262373076 0 0 0 0 0 0 0 0 0 0 0 0 0 -1.05419162701925 -1.08747631184529 0 0 0 0 0 0 0 0 0 0 0 0 0 0 0 0 0
0 0 0 0 0 0 0 0 0 -1.23407914782921 0 0 0 0 0 0 0 0 -0.697726828343766 0 0 0 0 0 0 -0.267281884103667 0 0 0 0 0 0 0 0 0 0 -0.457420440061617 0 -1.05579992880475 0 0 0 0 -1.34270613221323 0 0 0 0 -0.261230528165515 0
0 0 0 0 0 0 0 0 0 0 0 0 0 0 0 -0.991490131961575 -0.290031289581058 0 -0.389748715868859 0 0 0 0 0 -0.215884836722161 0 0 -0.432037826757258 0 -0.581826376390159 0 0 0 0 0 0 -0.649060931613097 -5.46577097946805 0 0 0 0 0 0 0 0 -1.62407223437657 0 0 0
0 0 0 0 0 0.165661698640042 0 0.229845483912575 0 0 0 0 0 0 0 0 0 0 0 0 0 0 0 0 0 0 0 -1.09377674439234 0 0 0 0 0 0 0 0 0 0 0 0 0 0 0 0 0 0 0 -1.39016005579083 0 0
0 0 0 0 0.258891474457172 0 0 0 0 0 0 0 0 0 0 0 0 -0.531366925401436 0 0 0 0 0 0 0 0 0 0 0 0 0 0 0 -0.147869266165643 0 0 -1.46409477676147 0 0 0 0 0 0 0 0 0 0 0 0 0
0 0 0 0 0 0 1.0699568080805 0 0 0 0 0 0 0 0 0 0 0 0 0 0 0 0 0 -1.38710512738341 0 0 -1.40820160204413 0 0 0 0 0 0 0 0 0 0 0 0 0 0 0 -1.32714758769278 0 0 0 0 0 0
0 0 0 0 0 0.105064965130393 0 0 0 0 0 0 0 0 0 0 0 -0.545479758891655 0 0 0 0 0 0 0 0 0 0 0 0 0 0 0 0 0 0 0 0 0 0 0 0 0 0 0 0 -0.328669561565238 0 -0.596727802871121 0
0 0 0 0 0 0 0 0 0 0 0 0 0 0 0 0 0 0 0 -0.68557330604798 0 0 0 0 -3.18645704008044 0 0 0 0 0 -0.387649856519303 0 -0.135380703467531 0 0 0 -0.318604174203109 0 0 0 0 -3.52878701906714 0 0 -3.83102066998812 0 0 0 0 0
0 0.148005010586472 0 0 0 0 0 0 0 0 0 0 0 0 0 0 0 0 0 0 0 0 0 -0.410321308247096 0 0 0 0 0 0 0 0 0 0 0 0 0 0 0 0 -8.47962544091784 0 0 0 0 0 -1.96769658294335 0 0 0
0.0753515744563044 0 0 0 0 0 0 0 0.205068562988186 0 0 0 0 0 0 0 0 0 0 0 0 0 0 0 0 0 0 0 0 -0.0924322059166455 -4.10302274335903 0 0 0 0 0 0 0 0 0 0 0 0 0 0 0 0 0 0 0
0 0 0.4374752630903 0 0 0.14656726890564 0 0 0.0599243831655575 0 0 0 0 0 0 0 0 0 0 0 0 0 0 0 -0.959794523990843 0 0 0 0 0 0 0 0 0 0 0 0 0 0 0 -0.594003918455308 0 -0.411143397401928 -0.770735115611954 0 0 -4.90616662858833 0 0 0
0 0 0 0 0 0 0.237517830106529 0 0 0 0.111042870854916 0 0.110067228912022 0 0 0 0 0 0 0 0 0 0 0 -1.83429597859895 0 0 0 -0.756515403582221 -0.0641469554034137 0 0 0 0 0 0 0 0 0 0 0 -1.39671128105203 0 0 0 0 0 0 0 -0.123394925303158
0 0 0 0 0 0 0 0.143323947348468 0.0729012625967672 0 0 0 0 0 0 0 0 0 0 0 0 -2.15270344599575 0 -0.373472553040174 -2.01243224736569 0 0 0 0 0 -1.38426188264755 0 0 -6.58230663534665 0 0 0 0 0 0 -0.921699156751508 0 0 0 -0.453859298089404 0 0 0 0 0
0 0 0 0 0 0 0 0 0 0 0 0 0 0.149080466073039 0 0 0 0 0 0 0 0 0 -1.82687928650118 0 0 0 0 0 0 0 0 0 0 -1.14700511389347 0 0 0 0 0 0 0 0 0 0 0 0 0 0 0
0 0 0 0 0 0 0 0 0 0 0 0 0 0 0 0 0 0 0 0 0 0 0 0 0 0 0 0 0 0 0 0 0 0 0 -0.341766852152051 0 0 0 0 0 0 -0.427169292822524 0 -0.687443817425514 0 -0.687716524327211 0 0 -0.252739885211031
0 0.203432434578874 0 0 0 0 0 0 0 0 0 0 0 0 0 0 0 0 0.422840949021778 0 0 0 0 -2.14950214549263 0 0 0 0 0 0 0 0 0 0 0 0 0 0 0 0 0 0 0 -0.96616473441077 0 -2.32948207685047 0 0 0 0
0 0.0390150975224706 0.0883109613222203 0 0 0 0 0 0 0 0 0 0 0 0 0 0 0 0 0 0 0 0 0 0 0 0 0 0 -1.61742413932309 0 0 -2.50844818636152 0 0 0 0 0 0 0 0 0 0 0 0 0 0 0 0 0
0 0 0 0 0 0.129068861105591 0 0 0 0 0 0 0 0 0.0798281114608443 0 0 0 0.0769385650313503 0.388728585744041 0 0.435446969001415 0 0 0 0 0 0 0 0 0 0 0 0 0 0 0 0 0 0 0 0 0 0 0 0 -0.406069947801062 0 0 0
0 0 0 0 0 0 0 0 0.0442830229156188 0 0 0.312325256755386 0 0.671848875849622 0 0 0.182698738502176 0.381223927325793 0.396808770509158 0 0 0 0 0 0 0 0 0 -2.40586232923876 0 -0.379758037843379 0 0 0 0 0 0 0 0 0 0 0 -0.229335419243043 0 0 0 -3.39155995962129 0 0 0
0 0.168817400063042 0 0 0 0 0 0.0471201455728986 0 0 0 0 0 0 0 0 0 0 0 0 0 0 0 0 0 0 0 0 0 0 0 0 0 -1.41995318359655 0 0 0 0 0 0 0 0 0 0 0 0 0 0 0 0
0 0 0 0 0 0 0 0 0 0 0 0 0 0 0 0 0 0 0 0 0 0 0 0 0 0 0 0 0 0 -1.32098325443011 0 0 0 0 0 0 0 0 0 0 0 0 0 0 0 0 0 0 0
0 1.02069435537049 0 0 0 0 0 0 0.0921855779707211 0.218244056291111 0 0.267379074049752 0 0 0 0 0 0 0 0 0 0 0 0 0 0 0 0 0 0 0 0 0 0 0 0 0 -1.10564457616075 0 0 0 0 0 0 0 0 0 0 0 0
0 0 0 0 0 0 0 0 0 0 0 0 0 0 0 0 0 0.141776586426292 0 0 0 0 0 0 0.494174913007048 0 0 0 0 0 0 0 0 -6.96317070709025 0 0 0 0 0 0 0 0 0 0 0 0 0 0 0 0
0.618988632348147 0 0.151326819581191 0 0 0 0 0 0.120648676722078 0 0 0 0 0 0 0.0192700433891212 0 0.0124537099443463 0 0 0 0 0.323888188248299 0 0 0 0 0 0 0 0 0 0 0 0 0 0 0 0 0 0 0 0 0 0 0 0 0 0 0
0 0 0 0 0 0 0 0 0 0 0 0 0 0.0788032883704798 0 0.818395774770217 0 0 0.284554790732818 0 0 0 0 0 0.0783633041145933 0 0.260309746212973 0 0 0 0 0 0 0 0 0 0 0 0 0 0 0 0 0 0 0 0 0 -2.10103989456205 0
0 0 0 0 0 0 0.211068248024133 0 0 0 0 0 0 0 0 0 0 0 0 0 0 0 0 0 0 0 0 0 0 0 0 0 0 0 0 0 0 0 0 -1.20211481438096 0 0 -0.517215476538078 0 0 0 0 0 -0.523577023077265 0
0 0 0 0 0 0 0.218193491899349 0 0 0 0 0 0 0.0272068652910837 0 0 0 0 0 0 0 0 0.456644698102938 0 0 0 0 0 0 0 0 0 0 0 0 0 0 0 0 -0.83427473238357 0 0 0 0 0 0 0 -0.514916428911277 0 0
0.505914219284435 0.296553014644251 0 0 0 0 0 0 0 0 0.0292418518158203 0 0 0 0 0 0 0 1.27561750097344 0 0 0 0 0 0 0.285016150645086 0 0 1.39670883422319 0 0 0 0 0 0 0 0 0 -0.872175832163954 0 0 0 0 0 0 0 0 0 0 0
0 0 0 0 0.211727458116431 0 0 0 0 0 0 0 0 0 0 0 0 0 0 0.229831379172234 0 0 0 0 0 0 0 0 0 0 0 0 0 0 0 0 0 0 0 0 0 0 0 0 -2.20299260586634 0 0 0 0 -1.55216485598755
0 0 0 0 0 0.355562113862247 0 0 0 0 0 0 0 0 0 0 0 0 0 0 0.0607133113348085 0 0 0 0 0 0 0 0 0 0 0 0 0 0 0 0 0 0 0 0 0 0 0 0 0 0 0 0 0
0 0 0 0 0 0 0 0.090080277439488 0.142417289621567 0 0.275871604407015 0 0 0.0628383998036439 0 0 0 0 0 0 0 0 0 0 0 0 0 0 0 0 0 0 0 0 0 0 0 0 0 0 0 0 0 0 0 0 0 0 0 0
0.109939787712937 0 0 0 0 0 0 0 1.12032938472966 0 0 0 0 0 0 0 0 0 0 0 0 0 0 0 0 0 0 0.224941714011192 0 0 0 0 0 0 0 0 0 0 0 0 0 -1.8870271859237 0 0 0 0 0 0 0 0
0 0 0 0 0 0.125109891224292 0 0.227010669048011 0 0 0 0 0 0 0 0 0 0 0 0 0 0 0 0 0 0 0 0 0 0 0 0 0 0.187124940990034 0 0 0 0 0 0 0 0 0 0 0 0 0 0 0 0
0 0.0418926245041907 0 0 0 0 0 0 0 0 0 0 0 0 0 0 0 0 0 0 0 0 0 0 0 0 0 0 0 0 0 0.226670094595256 0.15850388218255 0 0 0 0 0 0 0 0 0 0 0 0 0 0 0 0 0
0 0.453924120772872 0 0 0 0 0 0 0 0 0 0 0 0 1.85725545902845 0 0.106621010610511 0 0.191159124715944 0 0 0 0 0 0 0 0 0 0 0 0 0 0 0 0 0 0 0 0 0 0 0 0 0 0 0 0 0 0 0
0 0 0 0 0 0.0491251190879485 0 0 0 0 0 0 0 0.666478875510378 0 0 0 0.278395841621517 0 0 0 0 0 0 0 0 0 0 0 0 0 0 0 0 0 0 0 0.361201782367247 0 0 0 0 0 0 0 0 0 0 0 0
0 0 0 0 0 0 0 0 0 0 0 0 0 0 0 0 0.0816065971607833 0 0 0 0.0798971027721605 0 0 0 0.0489710115536012 0 0 0 0 0 0 0.104425475058424 0 0 0 0 0 0 0 0 0 0 0 0 0 0 0 0 0 0
0 0 0 0 0 0 0 0.263039370356722 0 0 0 0.235741117892239 0 0 0 0 0.163628729017276 0 0 0 0 0.183100976941024 0 0 0 0 0 0 0 0 0 0 0 0 0 0 0 0 0 0 0 0 0 0 -11.9249246923456 0 0 0 0 0
0 0 0 0 0 0 0 0 0 0 0 0 0 0.77767703919039 0 0 0 0 0.0942518642842503 0 0.138817579684188 0 0 0 0 0 0 0 0 0 0 0 0 0 0.459129804857876 0 0 0 0 0 0 0 0 2.29317874071827 0 0 -0.57106399646226 0 0 0
0 0 0 0 0 0.206809941861757 0 0 0 0 0 0 0 0 0 0 0 0 0 0 0 0.447581572518876 0 0 0 0 0 0 0 0 0 0 0 0 0 0 0 0 0 0 0 0 0 0 0 0 0 0 0 0
0 0 0.273537043733625 0 0.855592474929206 0 0 0 0.310553518722313 0 0 0 0.0681030963934398 0 0.431808975484902 0 0.965573714206766 0 0 0 0.131903728324504 0 0 0.0830953538497634 0.654766052929561 0 0 0 0 0 0 0 0 0 0 0 0 0 0 0 0 0 0 0 0.116789589647147 0 0 0 0 0
0 0 0 0 0 0 0 0 0 0.285363201949015 0 0 0 0 0 0 0 0 0 0 0 0 0 0 0 0 0 0 0 0 0 0 0.0956605881805351 0 0 0 0 0 0 0 0 0 0 0 0 0 0 0 0 0
0 0.0571395985062001 0 0 0 0 0 0.0488206890552255 0 0 0 0 0.114561545889359 0 0 0 0 0 0 0 0 0 0 0 0 0 0 0 0 0 0.416723759542167 0.0980618711508676 0 0 0 0 0 0 0 0 0 0 0 0 0 0 0 0 0 0
0 0 0 0 0 0 0 0 0 0 0 0 0 0 0 0 0 0.022525562873894 0 0 0.0541255666373996 0 0 0 0 0 0 0 0 0 0 0 0 0 0.329467437380967 0 0 0 0 0 0 0 0 0 0 0 0 0 0 0
