0.0488853120086595
0.29935751841178
0.37335360301407
0.958622086551448
1.91247599026454
1.31700754538989
1.32663363242849
0.551647735861863
0.614681016253562
0.0597703360158139
0.49133320646604
1.31642724007348
1.85700158387617
0.80710188436657
0.414936256468922
0.609213577272298
0.455863035947533
0.59263256207532
0.886443741061624
1.3200295342509
1.36122720369614
1.07107175885574
0.815642269878387
0.549899538048583
1.38713425343556
2.19161533252479
0.518558450487324
2.4321398199042
0.36149506870885
0.748949207549888
2.2188532000071
0.241794464273314
0.386191938639215
1.23264789558844
0.947267031485017
0.823779331629529
0.635566129832766
1.05270593688668
1.47363983324793
0.327168182428624
0.251927391440184
1.62363709847477
0.489290400317705
1.2441199580203
0.661878389468158
0.296788755029027
0.42476950497708
0.0576185196962657
1.13781614307992
1.0769356089071
