0.468248654435719
0.530322932464681
2.27467930663418
0.353623717705243
0.428774376572858
1.92183824206745
0.293250339993956
0.247248902475836
0.246155467896758
0.116632755827675
1.83772562260002
3.25668228398642
0.693755036268367
0.0690285019264016
0.565232603918643
0.185321958982362
0.234953906394452
0.864280076323096
2.01315007628995
1.28838548931942
0.525697855561381
0.0712723764780094
1.60190901302091
0.972077783479055
0.428415871993548
0.0694111545499241
2.2776865643177
2.87271626867098
0.619698934034536
1.54999817065246
0.351783108353659
0.370465552229732
0.855487372450728
0.305940949190347
0.241484620835837
1.73080570505244
1.31226850560229
0.938856754722864
1.81250766872205
1.77729763133899
0.435536332873055
0.39586333103382
1.7362903102544
0.191385991046119
0.615257389995361
0.0266286691121358
0.710712781613354
0.135936615348479
0.148964567636082
0.770914288542756
