2.11520049825172
1.65358972263242
0.979148293552033
0.455949468344659
0.159262501525345
0.144320529489845
0.859208664669391
0.0844163614573452
0.7620732755483
0.470248652824847
0.0789427866562246
4.30497704435857
2.65889282236354
5.09895902530805
1.97148314522501
0.0246849658948405
2.48906300206982
0.516238499914066
0.101079180875902
0.482423552208009
0.144920732406346
1.05389626003431
2.14918947946345
2.58815495806881
1.71979807013588
0.214372611251681
0.0230702058646716
0.595099331238411
0.835400890210084
1.09499859398341
0.480050334691461
0.0273193163772611
3.70542126871989
1.52500445974873
0.16219761220338
0.729842683960703
0.0771328434829027
3.84332885594887
0.0711263333136493
0.746455904484269
0.0461163102468501
0.359457356445428
0.223153011387988
0.150645776053653
3.25530430119189
0.452255460080214
2.46158833628557
0.21093687747798
0.421867867602366
1.1708234673912
