0.732643652842138
0.906279715659957
0.130209207406151
0.255754931120901
0.227531314004228
1.13780435707113
1.56903791289141
0.0667680156877871
0.247428297035167
0.127839525801302
0.215169191426894
0.680779307645229
1.15260680044522
1.64227081462368
0.669464723671726
1.1279369892029
0.216437327332103
0.68383342583332
0.914649164376227
0.394446059167745
1.05871870616539
0.145684515706649
0.43453575138887
0.199252378469801
0.862119711802897
1.31384901540825
1.22320094851934
0.146741840077902
0.155159203551266
0.183478298294411
1.22616559115992
0.310058294676184
0.862236591532923
1.51728740779
1.44866373191283
0.424885526732055
0.181470400370575
0.0838744638877512
0.590411188955476
1.02570073046335
0.0750924097876782
0.212187458515764
0.134239332959546
1.21511377964922
0.228268800587084
1.52322368462651
0.195964443823918
0.50981646173289
1.10080366490654
0.715633578659571
