0.73351765352516
0.247669357251334
1.18823496845776
0.277013297012657
0.319738766930716
1.78156139842517
0.413284654427778
0.666510157602639
0.168079314160885
0.474979561603267
0.633973127793888
0.70091035766053
0.0333169517180743
0.0791197267627605
0.568020886720368
0.151797958004448
1.31887903967023
0.0241146243768913
1.11125684220949
0.75916045421536
1.50301387240958
1.53354259852791
0.509715505475127
1.03383520255191
0.221845231612718
0.491936466663522
0.191561213263037
0.657701852866357
0.5938561612791
0.183238537381701
0.0620881072550147
0.778733824593278
0.152424843226352
0.180331039815967
0.424456969736773
0.0970053866176235
1.23199130455671
0.277440388438395
0.645481035415557
0.0727043457338271
0.537948433652036
1.33772549305811
0.224935294858642
0.0518511007149802
1.02035297274423
0.0420480098631515
0.398906393735931
0.436150742135941
0.649150479577599
1.64589001767095
