0.0209214943307286
0.771013120347883
0.212259569871522
2.47120357073956
0.0824116395091941
1.17743072147517
0.149574974123798
0.764339224653783
0.312791921504874
0.112314139846505
0.17247140814
0.255528585764662
0.876581350505968
2.51032024375208
0.282473294072198
0.893727787416099
1.67684077079492
0.0924092237920348
0.90231677566171
2.36662952005778
0.340650703543351
0.524930243192673
0.295202702009028
0.186851353958828
1.90461929907774
0.44026517660318
0.846981873780063
2.49047675491851
1.4437700879032
0.783851574919123
0.0093759713079602
1.64984362285081
0.669325437277673
0.0182387665014972
0.178708039551197
1.4537359177202
0.252635000711204
0.528631757635276
0.489043725064131
1.38209244334997
0.390257902380229
0.209524559321161
0.0855914569113424
0.748636936030437
1.04670935441345
0.0313837030407542
0.301408489669058
0.348960502415106
0.587187359693644
0.27011833729098
