0.59713768968085
1.66056264567999
0.825810385531697
0.263885627220921
1.5157252684939
3.05165027971237
1.53700319678996
0.57644914969504
0.911081391874908
1.12988062529668
1.60210521343447
0.852794229022202
0.394627583543028
0.872583551740869
1.46251936031978
1.51540829573294
0.618507534162317
1.73763662999333
1.11555750457739
1.00768871473482
0.546942656328696
2.0235606121158
1.67927232165674
0.601421211086589
0.556668163662124
0.391573310157183
0.937165533269457
1.66875545955778
1.25950848713886
1.78075773629979
0.869999091626087
0.180778260618644
1.11998614572092
1.61962225666011
1.37174554332657
2.4077836015865
0.702112450340622
1.64075258322519
1.76426709013695
0.945070862691149
0.539038364377421
1.12285221557138
0.417689682145421
0.898205688210173
0.342133120840556
0.300823570869885
1.83881348277039
0.598058965653028
0.590984858381906
2.53189298955965
