0.533496303419878
1.96683093865164
0.866688478710442
0.188026597691725
0.250847167799451
0.0337398970026143
0.109008230115562
0.641840350563695
0.227638820704814
0.713020001990365
0.317043318645864
0.0291539386914335
1.40341719888499
0.138642039781286
1.39190829549558
0.880819390909327
0.339268185545971
0.383443825553253
0.596861231320806
1.57229281061625
0.096458350742111
0.112888617869501
0.347945402194935
1.1521278194267
0.559375113945875
0.917958305527453
2.1403986420844
0.628110665176681
1.77321662454441
0.948682391518382
0.182995237968802
0.680286745897826
0.196069328779592
1.09892932048234
0.433114658260138
0.959179104473558
0.427443839080193
0.181587604424055
0.705164390088754
0.192112748539538
0.694131255470129
0.397169744955979
0.169880144497113
0.0995190995105982
0.298196591866231
0.885853667821262
1.64198134071944
1.18745232519895
0.224811326357258
0.287080183764832
