0 -4.45538381847103 0 0 0 0 -0.528761881716335 0 0 0 0 0 0 0 0 0 0 0 0 0 0 0 0 0 0 0 0 0 0 0 0 0 0 0 0 0 0 0 0 0 0 0 -5.22005822843544 0 -0.674391671136832 0 0 0 -1.26017489173577 0
0.890082470855966 0 0 0 0 0 0 0 0 0 0 0 0 0 0 0 0 0 0 0 0 -0.440780679195775 0 0 0 0 0 0 0 0 0 0 0 0 0 -2.12290225388314 -7.62383888994604 0 0 0 0 -11.7913854255706 0 0 0 0 0 -1.17330748317264 0 0
0 0 0 0 0 0 0 0 0 -1.77879671913992 0 0 0 0 0 0 0 0 0 0 0 0 0 0 0 0 -4.48265478161199 0 0 0 0 0 0 0 0 0 0 0 0 0 0 0 0 0 0 0 0 0 0 0
0 0 0 0 0 0 0 0 0 0 0 0 0 0 0 0 0 0 0 0 0 0 0 0 -3.76681531771891 0 0 0 0 0 0 0 0 0 0 0 0 0 0 0 0 0 0 0 0 0 0 0 0 0
0 0 0 0 0 0 0 0 0 0 0 0 0 0 0 0 0 0 0 0 0 0 0 0 0 0 0 0 0 0 0 0 0 0 0 0 0 0 0 -0.71664122328588 -0.665337822100303 0 0 0 0 0 0 0 0 0
0 0 0 0 0 0 0 0 0 -1.15332559320588 0 0 0 -1.4658925195953 0 0 0 0 -1.76600891635025 -0.215586455146662 0 0 0 -1.02117086806166 0 0 0 0 0 0 0 0 0 0 0 0 0 0 -0.816571518479733 0 0 0 0 0 0 0 0 0 0 0
0.101082389721563 0 0 0 0 0 0 0 0 0 0 -1.355619787858 0 0 0 0 0 -0.762498251723809 0 0 0 0 0 0 0 0 -0.352543797681741 0 0 -0.868977868259156 0 0 0 0 0 0 0 0 0 0 0 0 0 0 0 0 -0.564953778022518 0 0 0
0 0 0 0 0 0 0 0 0 -2.57024722499556 0 0 0 0 0 0 0 0 0 0 0 0 -1.71351029955909 0 0 0 0 0 0 -0.272495659922584 0 0 0 0 0 0 0 0 0 0 0 0 0 0 -2.86916005191383 0 0 0 0 0
0 0 0 0 0 0 0 0 0 -1.52248789839918 0 0 0 0 0 0 0 0 0 -1.37425795770417 0 0 0 0 0 0 0 0 0 0 0 0 -2.10399700466171 0 -1.30144136999197 -0.84103298325159 0 0 0 0 0 0 0 0 0 0 0 0 0 0
0 0 0.37577076078312 0 0 0.215258195133667 0 0.530722051331602 0.313471718952212 0 0 -1.25274732873743 0 0 0 0 0 0 0 0 0 0 0 0 0 0 0 0 0 0 0 0 0 0 0 0 0 -2.20419743464346 0 0 0 0 0 0 0 0 0 0 0 0
0 0 0 0 0 0 0 0 0 0 0 0 0 0 -0.347311964111844 0 0 0 -0.503920916713744 0 0 -0.918276119451023 0 0 0 0 0 0 0 0 0 0 0 0 0 0 0 -6.29934432869503 0 0 0 0 0 0 0 0 0 0 0 0
0 0 0 0 0 0 0.249149121860861 0 0 0.259896882252703 0 0 0 0 0 0 0 0 -0.963781503732661 0 0 0 0 0 0 0 0 0 0 0 0 0 0 0 0 0 0 0 0 0 0 0 0 0 0 0 0 0 0 0
0 0 0 0 0 0 0 0 0 0 0 0 0 0 0 0 0 0 0 0 0 0 -2.57088021595725 0 0 0 0 0 -1.4750041202584 0 0 0 0 0 -0.579540704312955 0 0 0 -0.503434624223645 0 0 0 0 0 0 0 0 0 0 0
0 0 0 0 0 0.298833981314223 0 0 0 0 0 0 0 0 -2.56134375470332 0 0 0 -0.130908821441955 0 0 0 0 0 0 0 0 -0.277894737636459 -1.385267995824 0 0 0 0 0 -1.28595069881398 0 0 0 0 0 0 0 0 0 -0.449392951253482 -3.00758834491096 0 0 0 0
0 0 0 0 0 0 0 0 0 0 0.0671885773112243 0 0 0.490797337018122 0 -0.997026615497167 0 -0.393579779383039 0 0 0 0 0 -1.28671502659202 0 0 0 0 0 0 0 0 0 0 0 0 -0.135083081248158 0 0 0 0 0 0 0 0 0 0 -0.434799269753793 0 0
0 0 0 0 0 0 0 0 0 0 0 0 0 0 0.197288816489978 0 0 0 0 0 0 -0.926507927135579 -0.883865323037072 0 0 0 0 0 0 0 0 0 0 0 0 0 0 -0.215413744509589 0 0 0 0 0 0 0 0 0 -0.708412614964588 0 -1.07025137366839
0 0 0 0 0 0 0 0 0 0 0 0 0 0 0 0 0 0 0 0 0 0 0 0 0 0 0 0 0 0 0 0 0 -0.290588370534694 0 0 0 0 0 0 0 0 -0.317309567274334 0 0 0 0 0 0 0
0 0 0 0 0 0 0.159875777844698 0 0 0 0 0 0 0 0.0821206393436157 0 0 0 0 0 0 -0.197185683276924 0 0 0 0 0 0 0 0 0 0 0 0 0 0 -0.59445743856848 0 0 0 0 0 0 0 0 0 0 -4.81262725235893 0 0
0 0 0 0 0 0.33405673317042 0 0 0 0 0.0931656644822011 0.185938536851399 0 0.0248732710599462 0 0 0 0 0 0 0 0 0 -0.311867930639802 0 0 0 0 0 -0.0408892336122854 0 0 0 -0.609221548545359 0 0 0 0 0 0 0 0 0 0 0 0 -0.138532563768513 0 0 0
0 0 0 0 0 0.0424996366706633 0 0 0.282433832698872 0 0 0 0 0 0 0 0 0 0 0 0 0 0 0 0 0 0 -2.66595384108247 0 0 0 0 -0.225858856496335 -0.961226019008594 0 0 0 0 0 0 0 0 0 0 0 0 0 0 0 0
0 0 0 0 0 0 0 0 0 0 0 0 0 0 0 0 0 0 0 0 0 0 0 0 0 0 0 0 0 0 0 0 -0.641936922390382 0 0 -1.12229605088888 0 0 -1.92807082263146 0 0 -0.501550342118116 0 0 0 0 -2.35345114406262 0 0 0
0 0.0896516527749499 0 0 0 0 0 0 0 0 0.18006119870037 0 0 0 0 0.194944499862819 0 0.0420684171949274 0 0 0 0 0 0 -1.25521799386246 0 0 0 0 0 0 0 0 0 0 0 -1.80659327027497 0 0 0 0 0 0 0 0 0 0 0 0 0
0 0 0 0 0 0 0 0.315317627932937 0 0 0 0 0.529332319356815 0 0 0.166869591399502 0 0 0 0 0 0 0 0 0 -0.426323495809693 0 0 0 0 0 0 0 0 -2.83931931262604 0 0 0 0 0 -3.66151089327882 0 0 -0.713762563713128 0 0 0 0 0 -1.05558896447376
0 0 0 0 0 0.209233603964949 0 0 0 0 0 0 0 0 0.26043664207631 0 0 0 0.0643768983636568 0 0 0 0 0 0 0 0 0 0 0 0 0 0 0 0 0 0 0 0 0 -4.05956150635975 0 0 0 -0.309205065301717 0 0 0 0 0
0 0 0 0.764659240343861 0 0 0 0 0 0 0 0 0 0 0 0 0 0 0 0 0 0.232953849563887 0 0 0 0 0 0 0 0 0 0 0 0 0 0 0 0 -0.795920327133611 0 0 0 0 0 0 0 0 -2.07672648777098 0 0
0 0 0 0 0 0 0 0 0 0 0 0 0 0 0 0 0 0 0 0 0 0 0.0921007012028552 0 0 0 0 0 0 0 0 0 -0.145501208847324 0 -0.984305640294035 0 -5.47966547057977 0 0 0 0 0 0 0 0 -0.0524102530532504 -0.907024590774608 0 0 0
0 0 0.925499386705382 0 0 0 0.0720158034569696 0 0 0 0 0 0 0 0 0 0 0 0 0 0 0 0 0 0 0 0 0 0 0 0 0 0 -1.83945302676458 0 0 0 0 0 0 0 0 0 0 0 0 0 0 0 0
0 0 0 0 0 0 0 0 0 0 0 0 0 0.0534739760811985 0 0 0 0 0 0.554013628015633 0 0 0 0 0 0 0 0 -0.590455891743342 0 0 0 0 0 0 0 0 0 0 0 0 0 0 0 0 0 -4.50535472390738 -1.56130326042594 0 0
0 0 0 0 0 0 0 0 0 0 0 0 0.289810581563776 0.305135195475159 0 0 0 0 0 0 0 0 0 0 0 0 0 0.119838369060748 0 0 0 0 0 0 -0.958784565871254 0 0 0 -1.40730994193337 -0.325095655832281 0 0 0 0 0 0 0 0 -2.13883492917342 0
0 0 0 0 0 0 0.167711116308079 0.0521599868480098 0 0 0 0 0 0 0 0 0 0 0.0085087215086619 0 0 0 0 0 0 0 0 0 0 0 0 0 0 0 0 0 0 0 0 0 0 0 0 0 0 0 0 0 0 0
0 0 0 0 0 0 0 0 0 0 0 0 0 0 0 0 0 0 0 0 0 0 0 0 0 0 0 0 0 0 0 0 0 0 0 0 0 0 0 0 0 0 0 -1.06350696696312 0 0 0 0 0 0
0 0 0 0 0 0 0 0 0 0 0 0 0 0 0 0 0 0 0 0 0 0 0 0 0 0 0 0 0 0 0 0 0 0 0 0 0 0 0 0 0 0 0 -0.674286404245014 0 0 0 -1.36328048008866 -0.697742323904423 0
0 0 0 0 0 0 0 0 0.435525795449464 0 0 0 0 0 0 0 0 0 0 0.0402211283770163 0.132714457001293 0 0 0 0 0.0281870077143939 0 0 0 0 0 0 0 0 0 -1.62971584011108 0 0 0 0 0 0 0 0 0 0 0 0 0 -0.697070452425952
0 0 0 0 0 0 0 0 0 0 0 0 0 0 0 0 0.0547308430562121 0 0.108514440249305 0.196651834603533 0 0 0 0 0 0 0.388019189331679 0 0 0 0 0 0 0 0 0 0 0 0 0 -0.553504867392445 0 0 0 0 0 0 0 0 0
0 0 0 0 0 0 0 0 0.254872229111246 0 0 0 0.123556816542759 0.256205893834369 0 0 0 0 0 0 0 0 0.556808049126363 0 0 0.193335613395793 0 0 0.185043442959125 0 0 0 0 0 0 0 0 0 0 0 0 0 0 -1.2641867585082 0 0 0 0 0 0
0 0.428301313402761 0 0 0 0 0 0 0.172484757982204 0 0 0 0 0 0 0 0 0 0 0 0.212649256722088 0 0 0 0 0 0 0 0 0 0 0 0.343571657046252 0 0 0 0 0 0 0 0 0 0 -1.27642707903657 0 0 0 0 0 0
0 1.60680736395947 0 0 0 0 0 0 0 0 0 0 0 0 0.0269981448804765 0 0 0.118161641253332 0 0 0 0.355090872826297 0 0 0 1.11012067422194 0 0 0 0 0 0 0 0 0 0 0 0 0 0 0 0 0 0 0 0 0 0 0 0
0 0 0 0 0 0 0 0 0 0.453141940370964 1.22132937076567 0 0 0 0 0.0466694797091839 0 0 0 0 0 0 0 0 0 0 0 0 0 0 0 0 0 0 0 0 0 0 0 -0.372426044000148 0 0 -1.02118779931478 0 0 0 0 -0.759681493718408 0 0
0 0 0 0 0 0.172141042642091 0 0 0 0 0 0 0.102171455616699 0 0 0 0 0 0 0 0.378763818094924 0 0 0 0.166757648416511 0 0 0 0.290753384386815 0 0 0 0 0 0 0 0 0 0 0 0 -1.36474339671768 0 0 0 0 0 -5.78500488873283 0 0
0 0 0 0 0.136583155591856 0 0 0 0 0 0 0 0 0 0 0 0 0 0 0 0 0 0 0 0 0 0 0 0.0632363251257042 0 0 0 0 0 0 0 0 0.0735223468951627 0 0 0 0 0 0 0 0 0 0 0 0
0 0 0 0 0.137954862651202 0 0 0 0 0 0 0 0 0 0 0 0 0 0 0 0 0 0.745082095454758 0.788722680174978 0 0 0 0 0 0 0 0 0 0.120092170071973 0 0 0 0 0 0 0 0 0 0 0 0 0 0 0 0
0 2.25624860698651 0 0 0 0 0 0 0 0 0 0 0 0 0 0 0 0 0 0 0.0954348857208879 0 0 0 0 0 0 0 0 0 0 0 0 0 0 0 0 0 0.280568756017353 0 0 0 0 0 0 0 0 0 0 0
1.00666548238976 0 0 0 0 0 0 0 0 0 0 0 0 0 0 0 0.0656917646765149 0 0 0 0 0 0 0 0 0 0 0 0 0 0 0 0 0 0 0 0 0.213723626642073 0 0 0 0 0 0 0 0 0 0 0 0
0 0 0 0 0 0 0 0 0 0 0 0 0 0 0 0 0 0 0 0 0 0 0.141363405551232 0 0 0 0 0 0 0 0.212905828859233 0.140598832249401 0 0 0.253120746131846 0.2372290939427 0 0 0 0 0 0 0 0 0 0 -1.05844279730456 0 0 -6.81540598728782
0.137030618480217 0 0 0 0 0 0 0.587230645914499 0 0 0 0 0 0.0898292936971498 0 0 0 0 0 0 0 0 0 0.0614194591766194 0 0 0 0 0 0 0 0 0 0 0 0 0 0 0 0 0 0 0 0 0 -6.11026273104715 0 0 -1.3443893225299 0
0 0 0 0 0 0 0 0 0 0 0 0 0 0.602753079093254 0 0 0 0 0 0 0 0 0 0 0 0.010479270166068 0 0 0 0 0 0 0 0 0 0 0 0 0 0 0 0 0 0 1.22244964772209 0 0 0 0 0
0 0 0 0 0 0 0.118861926691653 0 0 0 0 0 0 0 0 0 0 0 0.0263365377525405 0 0.500613800793383 0 0 0 0 0.168612491431062 0 0.943414062686021 0 0 0 0 0 0 0 0 0 0 0 0 0 0 0 0.192506883710246 0 0 0 0 0 0
0 0.222593411250806 0 0 0 0 0 0 0 0 0 0 0 0 0.0914130856014792 0.137220270368221 0 1.00273168226396 0 0 0 0 0 0 0.404694154206479 0 0 0.32574601493115 0 0 0 0.290691591641363 0 0 0 0 0 0.150268663392926 1.14292069060685 0 0 0 0 0 0 0 0 0 0 -1.03876204793333
0.213031221555444 0 0 0 0 0 0 0 0 0 0 0 0 0 0 0 0 0 0 0 0 0 0 0 0 0 0 0 0.41227866417486 0 0 0.144293632784891 0 0 0 0 0 0 0 0 0 0 0 0 0.279896875171851 0 0 0 0 0
0 0 0 0 0 0 0 0 0 0 0 0 0 0 0 0.228801739890299 0 0 0 0 0 0 0.236104919517989 0 0 0 0 0 0 0 0 0 0.145746387105142 0 0 0 0 0 0 0 0 0 0 1.35367381992414 0 0 0 0.198984772351205 0 0
