0.468140133204779
1.94578659690239
0.441363480991232
0.952504471401481
1.52154478766131
0.736511067207166
1.33508406780895
0.948063346139071
0.324499236207985
0.636826163959709
1.19912922923547
0.951435883624711
0.519947035234824
1.22499248996562
0.654501003634199
1.92583756189876
0.560510958074332
0.150611276258232
0.625470438409682
1.32699826472791
0.19527025806569
0.289577187827228
0.714365283548326
0.53486868354988
1.51080879316937
1.23883130871585
0.462071348578009
0.378367807961447
0.977184650604206
0.858617341883467
0.175727931524278
1.48657562456841
0.582614886579944
0.532930760236818
1.13855494296671
0.175235317960915
0.786091892188158
0.202646486594348
0.402635706419254
0.449278125179495
0.454419240539459
0.664619528592014
0.811720454791466
1.6952120959375
0.298746333440733
0.467376886913632
1.85484748216484
1.70263922288307
0.385663660197814
0.707790842871119
