0 0 0 0 0 0 0 0 0 0 0 0 0 0 -0.353553319302989 0 0 0 0 0 0 0 0 -1.13255352065299 0 0 -2.04772212043151 0 0 0 0 0 0 0 0 0 0 0 0 0 0 -1.18627604522049 0 0 0 0 0 0 0 0
0 0 -0.193703353602464 0 0 0 0 0 0 0 -0.385049780253959 0 0 0 0 0 0 0 0 0 0 0 0 0 0 0 0 0 0 0 0 0 -0.305284454379476 -1.89102873174027 -0.900542863280084 0 0 0 0 0 0 0 0 0 0 0 -2.33932230669454 0 0 0
0 0.0415006652802018 0 0 0 0 0 0 0 -0.567475199528359 0 0 -1.49045231802719 0 0 0 0 0 0 0 0 0 0 0 0 0 0 0 0 0 0 0 0 0 0 0 0 0 0 0 0 0 0 -0.293068881169964 0 0 0 0 0 0
0 0 0 0 0 -2.59367617307807 0 0 0 0 0 0 0 -1.30267577395741 0 -0.858403739293812 0 0 0 0 0 0 0 0 0 0 0 0 0 0 0 0 0 0 0 0 0 0 -0.0592934362211291 0 0 0 0 0 0 0 0 0 0 -0.174276159346438
0 0 0 0 0 0 -2.91904162684426 0 0 0 0 0 -0.649560881654691 0 -11.0999618969127 -0.833937640104091 0 0 0 0 0 0 0 0 0 0 0 0 0 0 0 0 0 0 0 0 0 0 0 0 0 -1.85816771787703 0 0 0 0 0 0 0 0
0 0 0 0.455338613752493 0 0 0 0 0 0 -2.08663736728388 0 0 0 0 0 0 0 0 0 0 0 0 0 0 0 0 0 0 0 0 0 0 0 0 0 0 0 0 0 0 0 0 0 0 0 0 0 0 0
0 0 0 0 0.587734090761892 0 0 0 0 0 0 0 0 0 0 0 0 0 0 0 0 0 0 0 0 -0.612154757973424 0 0 0 0 -1.79988045615935 0 0 0 0 0 0 0 0 0 0 0 0 0 0 0 0 0 0 0
0 0 0 0 0 0 0 0 0 0 0 0 0 0 0 0 0 0 -0.760527632203428 0 -3.28488461192935 0 0 0 -1.14952071923326 0 0 0 0 0 0 0 0 0 0 0 0 0 0 0 0 0 0 0 0 0 0 0 0 0
0 0 0 0 0 0 0 0 0 0 0 0 0 0 0 0 0 0 0 0 0 0 0 0 0 0 0 0 0 0 0 0 0 0 0 0 0 0 -1.30108845881319 0 0 -0.513476810746316 0 0 0 0 0 0 0 0
0 0 0.111003994155061 0 0 0 0 0 0 0 0 0 0 0 0 0 0 0 -1.42230188539589 0 0 0 0 0 0 0 0 -3.66755973401855 0 0 0 0 0 0 0 0 0 0 -4.74237077918189 0 0 0 -0.712573202001471 0 0 0 0 0 -1.00692386430615 -0.237047951018813
0 0.0796370187393131 0 0 0 0.410370808266226 0 0 0 0 0 0 0 0 0 0 0 0 0 0 0 -2.43145527043746 0 0 0 0 0 0 0 0 0 0 0 0 0 0 0 0 0 0 0 0 0 0 0 0 0 0 0 0
0 0 0 0 0 0 0 0 0 0 0 0 -0.153480638692769 0 0 0 -1.85934875772874 0 0 0 0 0 0 0 0 0 0 -3.31058262682858 0 0 0 0 0 -0.202404312296403 0 0 0 0 0 0 0 0 0 0 0 0 0 0 0 0
0 0 0.283372898812103 0 0.143339059060935 0 0 0 0 0 0 0.0315948876896111 0 -0.279706518276033 0 0 0 0 0 0 0 0 0 0 0 0 0 0 0 0 0 -1.77831088354585 0 0 0 0 0 0 -2.94484739799212 0 0 0 -1.12199790188602 0 0 0 0 0 0 0
0 0 0 0.272710925950979 0 0 0 0 0 0 0 0 0.0510924230746032 0 0 0 0 0 0 0 0 0 0 0 0 -4.23176055998404 0 0 0 0 0 0 -8.4897477442878 0 -0.257420796524147 0 0 0 0 0 0 -2.12183896428293 0 0 0 0 0 0 0 0
0.0750694760049146 0 0 0 2.25012623994423 0 0 0 0 0 0 0 0 0 0 0 0 0 0 0 0 0 0 0 0 0 0 -1.32664371378027 0 0 -0.499335160287664 0 0 0 0 0 0 0 0 0 0 -0.668980995561716 -1.04545218798199 0 0 0 0 0 0 0
0 0 0 0.171040761737694 0.168233363788624 0 0 0 0 0 0 0 0 0 0 0 0 0 0 0 0 0 0 0 0 0 0 0 0 0 0 0 0 -0.0794017990158617 0 0 0 0 0 0 0 0 0 0 0 0 0 0 0 0
0 0 0 0 0 0 0 0 0 0 0 0.370738251039263 0 0 0 0 0 0 0 0 0 0 0 -0.848231011158062 0 -0.315134356719355 0 0 0 0 0 0 -3.18146853646943 0 0 0 0 0 0 0 0 0 -2.92868049309004 0 0 0 -0.319956538363079 -4.6477575174873 0 0
0 0 0 0 0 0 0 0 0 0 0 0 0 0 0 0 0 0 0 0 -0.555625474302212 0 0 0 0 0 0 0 0 0 0 0 0 0 0 0 0 0 -1.36819550620269 0 0 0 0 0 0 0 0 0 -0.679965615316273 0
0 0 0 0 0 0 0 0.151273719651303 0 0.293172241095801 0 0 0 0 0 0 0 0 0 0 0 0 -1.90270932753718 0 0 0 0 0 0 0 0 -5.93511281997461 0 0 0 0 -1.62279366239706 0 0 0 0 0 0 0 0 0 0 0 0 0
0 0 0 0 0 0 0 0 0 0 0 0 0 0 0 0 0 0 0 0 0 0 0 0 0 0 0 0 0 0 0 0 0 0 0 0 0 0 0 0 0 0 0 0 -0.122694992874078 0 0 0 0 0
0 0 0 0 0 0 0 0.661825096760273 0 0 0 0 0 0 0 0 0 0.105068963354929 0 0 0 -1.48611645621588 0 0 0 0 0 0 0 0 0 0 0 0 0 0 0 0 0 0 0 0 0 0 0 0 0 0 0 0
0 0 0 0 0 0 0 0 0 0 0.446449510810862 0 0 0 0 0 0 0 0 0 0.304120994327154 0 -1.3541467894833 0 0 0 0 0 0 0 0 0 0 0 -0.514257496606479 0 0 -0.840689758802392 0 0 0 0 0 0 0 0 0 -2.09120869371983 0 0
0 0 0 0 0 0 0 0 0 0 0 0 0 0 0 0 0 0 0.378030313658224 0 0 0.272904602043092 0 0 0 0 0 0 0 0 0 0 0 0 0 0 0 0 0 -1.1230563097973 0 0 0 0 0 0 0 -0.712598630040421 0 0
0.232439249048149 0 0 0 0 0 0 0 0 0 0 0 0 0 0 0 0.164486261123471 0 0 0 0 0 0 0 0 0 0 0 -0.419198983758099 0 0 0 0 0 -0.247216350885909 0 0 0 0 0 0 0 0 0 0 0 0 0 0 0
0 0 0 0 0 0 0 0.241170422460722 0 0 0 0 0 0 0 0 0 0 0 0 0 0 0 0 0 0 0 -0.208278155836801 0 0 0 0 -0.636015961001172 0 0 -3.60161010013436 0 0 0 -0.323480212899955 0 0 0 0 0 0 0 0 0 0
0 0 0 0 0 0 0.122836414276779 0 0 0 0 0 0 0.881162148558935 0 0 0.0617407099995641 0 0 0 0 0 0 0 0 0 -1.1838216786655 0 0 -9.68256127671789 0 0 0 0 0 0 -0.404128863828573 0 0 0 0 0 -0.317237739925307 0 -0.675753176831332 -0.818303851783958 0 0 0 0
0.426395513824252 0 0 0 0 0 0 0 0 0 0 0 0 0 0 0 0 0 0 0 0 0 0 0 0 0.230954641064013 0 0 0 0 -4.3338417575047 0 0 0 0 0 0 0 0 0 0 0 0 -3.05006099223905 0 0 0 0 0 0
0 0 0 0 0 0 0 0 0 0.755574193153696 0 0.634055977371955 0 0 0.279589518419793 0 0 0 0 0 0 0 0 0 0.0392528236726259 0 0 0 0 0 -0.489452208626916 -1.42064901000513 0 0 0 0 0 0 0 0 0 -0.347812291311962 0 0 0 -0.581258721006511 0 0 0 0
0 0 0 0 0 0 0 0 0 0 0 0 0 0 0 0 0 0 0 0 0 0 0 0.088511528471048 0 0 0 0 0 0 0 -0.134132359262271 0 0 0 0 0 0 0 0 0 0 0 0 0 -0.918860467636074 0 0 0 -0.759652850790177
0 0 0 0 0 0 0 0 0 0 0 0 0 0 0 0 0 0 0 0 0 0 0 0 0 1.92833681593543 0 0 0 0 0 0 0 0 -4.46869094940861 0 0 0 0 0 0 0 0 0 0 0 0 0 0 0
0 0 0 0 0 0 0.351934186157109 0 0 0 0 0 0 0 0.0891527768873848 0 0 0 0 0 0 0 0 0 0 0 0.861802681339296 0.0984933902381079 0 0 0 0 0 0 0 0 0 0 0 0 0 0 -0.444115671009703 0 -0.381932207611179 0 0 0 0 0
0 0 0 0 0 0 0 0 0 0 0 0 0.355362217927637 0 0 0 0 0 1.30447160551944 0 0 0 0 0 0 0 0 0.28118264565335 0.0278867659294517 0 0 0 0 0 0 0 0 0 0 0 0 0 0 0 0 0 0 0 0 0
0 0.0635455454478901 0 0 0 0 0 0 0 0 0 0 0 1.5351722603594 0 0 0.63727408224036 0 0 0 0 0 0 0 0.125539396776535 0 0 0 0 0 0 0 0 0 0 0 0 0 0 0 0 0 0 0 0 -0.0994992057509183 0 -0.318520126373407 0 0
0 0.382940615801366 0 0 0 0 0 0 0 0 0 0.0411524435781451 0 0 0 0.0164738228171733 0 0 0 0 0 0 0 0 0 0 0 0 0 0 0 0 0 0 0 0 0 0 0 0 -0.420020958387897 0 0 -1.91882273841088 0 0 0 0 0 0
0 0.190902143120839 0 0 0 0 0 0 0 0 0 0 0 0.0530403346662137 0 0 0 0 0 0 0 0.107193486786174 0 0.0491628529275427 0 0 0 0 0 0.879661045538996 0 0 0 0 0 0 0 0 -0.270402594597551 0 0 0 0 0 0 0 0 -0.965962053476859 0 0
0 0 0 0 0 0 0 0 0 0 0 0 0 0 0 0 0 0 0 0 0 0 0 0 0.737187682274132 0 0 0 0 0 0 0 0 0 0 0 0 0 0 0 -0.86587878068354 0 -0.754887753966901 0 0 0 0 0 -1.30790575278599 0
0 0 0 0 0 0 0 0 0 0 0 0 0 0 0 0 0 0 0.327834733031321 0 0 0 0 0 0 0.082552552047199 0 0 0 0 0 0 0 0 0 0 0 0 -0.722094035572845 0 0 0 0 0 0 0 0 0 0 0
0 0 0 0 0 0 0 0 0 0 0 0 0 0 0 0 0 0 0 0 0 0.16210199761848 0 0 0 0 0 0 0 0 0 0 0 0 0 0 0 0 0 0 -0.276862281189924 0 0 0 0 -0.216468727017828 0 0 0 0
0 0 0 0.0124618412612136 0 0 0 0 0.280720732833949 0.905397356706584 0 0 0.600200740121465 0 0 0 0 0.28662941934784 0 0 0 0 0 0 0 0 0 0 0 0 0 0 0 0 0.0543531295608896 0 0.159147982259095 0 0 0 -0.567031676286475 0 0 0 0 0 0 0 0 0
0 0 0 0 0 0 0 0 0 0 0 0 0 0 0 0 0 0 0 0 0 0 0.219577892612781 0 0.0644884460439126 0 0 0 0 0 0 0 0 0 0 0 0 0 0 0 0 0 0 0 0 0 0 0 0 0
0 0 0 0 0 0 0 0 0 0 0 0 0 0 0 0 0 0 0 0 0 0 0 0 0 0 0 0 0 0 0 0 0 0.0828053064871045 0 0.165822617553577 0 0.0569540758826949 0.109231051445217 0 0 0 0 0 0 -1.85325846471666 0 0 0 0
0.236975432864881 0 0 0 0.384736028829514 0 0 0 0.0999246112500854 0 0 0 0 0.385035638818495 0.125641335872518 0 0 0 0 0 0 0 0 0 0 0 0 0.0690210686265149 0 0 0 0 0 0 0 0 0 0 0 0 0 0 0 0 0 -2.42787975071154 0 0 0 0
0 0 0 0 0 0 0 0 0 0.151240434738331 0 0 0.229303163055723 0 0.196815148420858 0 0.558071166002276 0 0 0 0 0 0 0 0 0.0702695992761641 0 0 0 0 0.0913672201668096 0 0 0 0 0.142755388663679 0 0 0 0 0 0 0 0 0 0 0 0 0 0
0 0 0.0589717234050026 0 0 0 0 0 0 0 0 0 0 0 0 0 0 0 0 0 0 0 0 0 0 0 0.581913568426584 0 0 0 0 0 0 0.404703465653459 0 0 0 0 0 0 0 0 0 0 0 0 0 0 0 0
0 0 0 0 0 0 0 0 0 0 0 0 0 0 0 0 0 0 0 0.0250968438876484 0 0 0 0 0 0.138421633486607 0 0 0 0 0.0741048062432594 0 0 0 0 0 0 0 0 0 0 0 0 0 0 0 0 0 0 0
0 0 0 0 0 0 0 0 0 0 0 0 0 0 0 0 0 0 0 0 0 0 0 0 0 0.168318211090474 0 0.121946687378828 0.194008225318348 0 0 0 0.0189747446319799 0 0 0 0 0.0407712577951416 0 0 0.365164893550346 0.498560876583227 0 0 0 0 0 0 0 0
0 0.485973245107226 0 0 0 0 0 0 0 0 0 0 0 0 0 0 0.0638674583667521 0 0 0 0 0 0 0 0 0 0 0 0 0 0 0 0 0 0 0 0 0 0 0 0 0 0 0 0 0 0 0 0 0
0 0 0 0 0 0 0 0 0 0 0 0 0 0 0 0 0.863641663692691 0 0 0 0 0.425743104171786 0.14403749285504 0 0 0 0 0 0 0 0 0 0.0567293042593177 0 0.200801445246036 0 0 0 0 0 0 0 0 0 0 0 0 0 0 0
0 0 0 0 0 0 0 0 0 0.199467803471981 0 0 0 0 0 0 0 0.130694700801651 0 0 0 0 0 0 0 0 0 0 0 0 0 0 0 0 0 0.268528900769574 0 0 0 0 0 0 0 0 0 0 0 0 0 0
0 0 0 0.035090985135776 0 0 0 0 0 0.049035185926677 0 0 0 0 0 0 0 0 0 0 0 0 0 0 0 0 0 0 0.144600521769753 0 0 0 0 0 0 0 0 0 0 0 0 0 0 0 0 0 0 0 0 0
