0 0 -4.90703623503215 0 0 0 0 -0.411222269554316 -0.212588910746242 0 0 0 0 0 -2.18039970119245 -3.72733761279783 0 0 0 -2.93712307692007 -0.870540379218142 0 0 0 0 -1.15784731655633 0 0 0 -1.16429591748251 0 0 0 0 0 -1.46471495191621 0 0 0 0 0 -5.45214368494798 0 0 0 -0.842822863623457 0 0 0 0
0 0 0 0 0 0 0 0 0 0 0 0 0 0 -0.48778588825704 0 0 -1.96789757766811 0 0 0 0 0 0 0 0 0 0 0 0 0 0 0 -0.383495727257698 -1.19852026138217 0 0 0 0 0 0 0 0 0 0 0 0 0 0 0
1.05022912895301 0 0 0 0 0 0 0 0 0 0 0 0 0 0 0 0 0 0 0 0 -8.08146771228168 -4.34630147658977 0 0 0 0 0 0 0 0 0 0 0 0 0 0 0 0 0 -0.110974254291298 0 0 0 0 0 0 0 0 0
0 0 0 0 0 0 0 0 0 0 -5.75589935908324 0 0 0 0 0 0 0 0 0 0 0 0 -1.45729244094274 0 -4.30382634862445 0 0 0 0 0 0 0 0 0 0 0 0 0 0 0 0 0 0 0 0 0 0 0 0
0 0 0 0 0 0 0 -4.27501594767895 0 0 0 0 0 0 0 0 0 0 0 0 0 0 0 0 0 0 0 0 0 0 0 0 0 0 0 0 0 0 0 0 0 0 0 0 0 0 0 0 0 0
0 0 0 0 0 0 0 0 -0.396355059613945 0 0 0 0 0 0 0 0 0 0 -3.91773914066423 0 0 0 0 0 0 0 0 -0.322905824549518 0 0 0 0 0 0 0 -0.804319572292705 0 0 0 0 0 0 0 0 0 0 0 0 0
0 0 0 0 0 0 0 -0.86293069112278 0 0 0 0 0 0 -1.4908978952511 -2.23113045401959 0 0 0 0 0 0 -0.249387754346994 0 0 0 0 0 0 0 0 0 0 -0.326600599148716 -0.977421027643188 0 0 0 0 0 0 0 0 0 0 0 0 0 0 0
0.0859602655134364 0 0 0 0.940750073485797 0 0.172940255080704 0 0 0 -0.261034102906636 0 0 0 0 0 0 0 0 0 0 0 0 0 0 0 0 0 0 0 0 0 0 0 0 0 0 0 -2.65254619470598 0 -0.953829205481305 0 0 0 -0.828921979912342 0 0 0 0 -0.225572733791399
0.0460072700321139 0 0 0 0 0.0809112510414577 0 0 0 0 0 0 0 0 0 0 -1.73201256599763 0 0 0 0 0 0 0 0 0 0 0 0 0 0 0 0 0 0 -0.182824462397391 0 -2.46574469633454 0 0 0 0 0 0 0 0 0 0 0 0
0 0 0 0 0 0 0 0 0 0 0 0 0 0 0 0 0 0 0 0 0 0 0 0 0 0 0 0 0 0 0 0 0 0 0 0 -0.616458369896226 0 0 0 0 0 0 0 0 0 0 0 0 0
0 0 0 1.10424703017281 0 0 0 0.0543859685652474 0 0 0 0 0 -2.03400698060713 0 0 0 0 -0.53142619466256 0 0 0 0 0 0 0 0 0 0 0 0 0 0 0 0 0 0 0 0 0 0 0 0 0 0 0 0 0 0 0
0 0 0 0 0 0 0 0 0 0 0 0 0 0 0 0 0 0 0 0 -5.93770651893229 0 0 0 -1.84510461546433 0 0 0 0 0 0 0 0 0 0 0 0 0 0 0 0 0 0 -1.29340479040392 -0.215119973203811 0 0 0 0 -3.86335084670902
0 0 0 0 0 0 0 0 0 0 0 0 0 0 0 0 0 0 0 0 0 0 0 0 -2.48181053252425 0 0 0 0 0 0 0 0 0 0 0 0 0 0 0 -0.355922738056887 0 0 0 -0.630574008472923 0 0 0 -0.207954752106784 0
0 0 0 0 0 0 0 0 0 0 0.413804569941233 0 0 0 0 0 0 0 0 0 -0.333786311200268 0 0 0 0 -0.54922944950659 0 0 0 0 0 0 0 0 0 0 -1.12660792626449 0 0 0 0 0 0 0 0 0 0 0 0 0
0.442552248224833 0.09848145526414 0 0 0 0 0.318382461610898 0 0 0 0 0 0 0 0 -0.429752463751359 0 0 0 0 0 0 0 0 0 -1.24620839373225 0 0 0 0 0 0 0 0 -1.30803498493153 0 0 0 0 0 0 0 0 -1.03483328281198 0 0 0 0 -0.725530546869148 0
0.773726368667027 0 0 0 0 0 0.439041057874626 0 0 0 0 0 0 0 0.0848339450773985 0 0 -3.19490563155202 0 0 -1.96468780635554 0 0 0 0 0 0 0 0 -0.372324791438473 0 0 0 0 0 0 0 0 0 0 0 0 0 0 0 0 0 0 0 0
0 0 0 0 0 0 0 0 0.338882246053257 0 0 0 0 0 0 0 0 0 0 0 0 0 0 0 0 0 0 0 0 0 0 0 0 0 -2.43096377971372 0 0 0 0 0 0 0 0 -0.248331846047345 -1.18364109188037 0 0 0 0 0
0 0.403057795785189 0 0 0 0 0 0 0 0 0 0 0 0 0 0.682544547685288 0 0 0 0 0 0 0 0 0 -1.25562722091734 0 0 0 0 0 0 0 0 0 0 0 0 0 0 0 0 0 0 0 0 0 0 0 0
0 0 0 0 0 0 0 0 0 0 0.0994193467729892 0 0 0 0 0 0 0 0 0 0 0 0 0 0 0 0 0 0 0 0 0 0 0 0 0 0 0 0 0 0 0 0 -0.289457312980464 0 0 0 0 0 0
0.595100265183815 0 0 0 0 0.775489839782115 0 0 0 0 0 0 0 0 0 0 0 0 0 0 0 -0.704453143641658 0 0 0 0 0 0 0 0 0 0 0 0 0 0 0 0 0 0 0 0 0 0 0 0 0 -0.508839716924312 -0.293365644258399 -0.935715791359155
0.18069872855114 0 0 0 0 0 0 0 0 0 0 1.25676789925058 0 0.0655991098389638 0 0.401656969383697 0 0 0 0 0 0 0 0 0 0 0 0 0 0 0 0 0 0 0 0 0 -0.205537070467706 0 0 0 0 0 -0.196259511659369 0 0 0 0 0 0
0 0 1.56782387820603 0 0 0 0 0 0 0 0 0 0 0 0 0 0 0 0 0.157414087885096 0 0 -0.555527673803973 0 0 0 0 0 0 0 0 -1.94064128020731 0 0 0 0 0 -0.175050911933275 0 0 0 0 0 0 0 0 0 0 0 0
0 0 0.879783099929815 0 0 0 0.0493286491276247 0 0 0 0 0 0 0 0 0 0 0 0 0 0 0.115496410571449 0 0 0 0 0 -0.582472413335518 0 0 0 0 0 0 0 0 0 0 0 0 -0.995924445235277 0 0 0 0 0 0 0 0 -0.615949855618301
0 0 0 0.304567244625546 0 0 0 0 0 0 0 0 0 0 0 0 0 0 0 0 0 0 0 0 -1.83626640221115 0 0 0 0 0 0 0 0 0 0 0 0 0 -2.6958058251038 0 0 0 0 0 0 0 0 0 0 -1.45126199524438
0 0 0 0 0 0 0 0 0 0 0 0.346381675718771 0.489809173234614 0 0 0 0 0 0 0 0 0 0 0.344657897684783 0 -6.52468508629111 -0.848299737259559 0 0 0 0 0 0 0 0 0 0 0 0 -0.524633862011074 0 0 0 0 0 0 0 0 0 0
0.250284326229996 0 0 0.875804383103251 0 0 0 0 0 0 0 0 0 0.10548763916865 0.260263090000085 0 0 0.25656072868795 0 0 0 0 0 0 1.29059999086488 0 0 0 0 0 0 0 0 0 0 0 0 0 0 0 0 0 0 0 0 -0.690611460528944 0 0 0 0
0 0 0 0 0 0 0 0 0 0 0 0 0 0 0 0 0 0 0 0 0 0 0 0 0.171919457341241 0 0 0 0 -0.244430162580045 0 0 0 0 0 0 0 0 0 -1.19392765436307 0 0 0 0 0 0 0 0 0 0
0 0 0 0 0 0 0 0 0 0 0 0 0 0 0 0 0 0 0 0 0 0 0.115943549537652 0 0 0 0 0 -0.364977122882558 0 0 0 0 -0.330075349698426 0 -2.69207743697623 0 0 -1.68273753385141 0 -0.195039545712881 0 0 0 0 0 0 -1.42455134854374 0 0
0 0 0 0 0 0.0653325122780769 0 0 0 0 0 0 0 0 0 0 0 0 0 0 0 0 0 0 0 0 0 0.0739094860077237 0 0 0 0 0 0 0 0 0 -2.14042325866679 0 0 0 0 0 0 0 0 0 -0.744580894684682 0 0
0.234876359282708 0 0 0 0 0 0 0 0 0 0 0 0 0 0 0.079883173872167 0 0 0 0 0 0 0 0 0 0 0.0485109928196064 0 0 0 0 0 0 0 0 0 0 0 0 0 -2.89051510048514 0 -2.23414301024528 0 -0.595387903353087 0 0 0 0 0
0 0 0 0 0 0 0 0 0 0 0 0 0 0 0 0 0 0 0 0 0 0 0 0 0 0 0 0 0 0 0 0 0 0 0 0 0 0 0 0 0 0 0 0 0 0 0 -0.224715289039939 0 0
0 0 0 0 0 0 0 0 0 0 0 0 0 0 0 0 0 0 0 0 0 0.415834615297968 0 0 0 0 0 0 0 0 0 0 0 0 0 0 0 0 -0.790310853790459 0 0 0 0 -0.870488333822148 0 0 0 0 0 0
0 0 0 0 0 0 0 0 0 0 0 0 0 0 0 0 0 0 0 0 0 0 0 0 0 0 0 0 0 0 0 0 0 0 0 0 0 0 0 0 0 -0.800426127641452 0 0 0 0 0 0 0 0
0 0.0745213259540779 0 0 0 0 0.0670297824656407 0 0 0 0 0 0 0 0 0 0 0 0 0 0 0 0 0 0 0 0 0.0660641821260563 0 0 0 0 0 0 0 0 0 0 0 0 0 0 0 0 0 0 0 0 0 0
0 0.239625431647856 0 0 0 0 0.194813428947176 0 0 0 0 0 0 0 0.25199203305177 0 0.520979822356541 0 0 0 0 0 0 0 0 0 0 0 0 0 0 0 0 0 0 0 0 -1.37846565522967 -2.49221671889057 0 0 0 0 -0.18435691381948 0 0 0 -2.7465938015938 0 0
0.289081184695008 0 0 0 0 0 0 0 0.0377822843758363 0 0 0 0 0 0 0 0 0 0 0 0 0 0 0 0 0 0 0.568504032885243 0 0 0 0 0 0 0 0 0 0 0 0 -0.305450572134087 0 0 0 0 0 0 0 -4.52913757798432 0
0 0 0 0 0 0.172234146162794 0 0 0 0.124393801616835 0 0 0 0.24512567180781 0 0 0 0 0 0 0 0 0 0 0 0 0 0 0 0 0 0 0 0 0 0 0 0 0 0 0 0 0 0 0 0 0 0 0 0
0 0 0 0 0 0 0 0 0.473947013103867 0 0 0 0 0 0 0 0 0 0 0 0.0393929426012807 0.0335425629283469 0 0 0 0 0 0 0.412474622596577 0 0 0 0 0 0.28153360377425 0 0 0 0 0 0 0 0 0 0 0 0 0 -2.05308681996846 0
0 0 0 0 0 0 0 0.510606919405722 0 0 0 0 0 0 0 0 0 0 0 0 0 0 0 0.54430101956482 0 0 0 0.316832757363494 0 0 0 0.176478496672621 0 0 0.473083446997151 0 0 0 0 0 0 0 0 0 -1.73875157736325 0 0 0 0 0
0 0 0 0 0 0 0 0 0 0 0 0 0 0 0 0 0 0 0 0 0 0 0 0 0.104323469254021 0 0.249377264026187 0 0 0 0 0 0 0 0 0 0 0 0 0 0 0 0 0 0 0 0 0 0 0
0 0 0.0236019158967049 0 0 0 0 0.205208448959347 0 0 0 0 0.0684869364834784 0 0 0 0 0 0 0 0 0 0.19405350803608 0 0 0 0 0.0409729045465349 0 0.572974676227392 0 0 0 0 0 0.062506137492423 0 0 0 0 0 0 0 0 0 0 0 0 0 0
1.11524910687739 0 0 0 0 0 0 0 0 0 0 0 0 0 0 0 0 0 0 0 0 0 0 0 0 0 0 0 0 0 0 0 0.1670487150891 0 0 0 0 0 0 0 0 0 0 0 0 0 0 0 0 0
0 0 0 0 0 0 0 0 0 0 0 0 0 0 0 0 0 0 0 0 0 0 0 0 0 0 0 0 0 0.415628522735824 0 0 0 0 0 0 0 0 0 0 0 0 0 0 -0.433313259796072 0 0 0 0 0
0 0 0 0 0 0 0 0 0 0 0 0.27339073331751 0 0 0.191350557975929 0 0.0499397870802597 0 0.0622254748290489 0 0.0384409786479692 0 0 0 0 0 0 0 0 0 0 0.177454743796463 0 0 0.0366473375039026 0 0 0 0 0 0 0 0 0 0 0 0 0 0 0
0 0 0 0 0 0 0 0.169534996111045 0 0 0 0.0413822685763407 0.117295014752337 0 0 0 0.225382310056529 0 0 0 0 0 0 0 0 0 0 0 0 0.116635236462716 0 0 0 0 0 0 0 0 0.343800220846346 0 0 0 0.0852941829035357 0 0 0 0 0 0 0
0.163806406176393 0 0 0 0 0 0 0 0 0 0 0 0 0 0 0 0 0 0 0 0 0 0 0 0 0.1326783898189 0 0 0 0 0 0 0 0 0 0 0 0 0 0 0 0 0 0 0 0 0 0 0 0
0 0 0 0 0 0 0 0 0 0 0 0 0 0 0 0 0 0 0 0 0 0 0 0 0 0 0 0 0 0 0 0 0 0 0 0 0 0 0 0 0 0 0 0 0 0 0 0 0 -1.47247830784026
0 0 0 0 0 0 0 0 0 0 0 0 0 0 0 0 0 0 0 0.0997468014274444 0 0 0 0 0 0 0 0.281938057673989 0.150860183370023 0 0.0451118803108034 0 0 0 0.587199977615868 0 0 0 0 0 0 0 0 0 0 0 0 0 0 0
0 0 0 0 0 0 0 0 0 0 0 0 0.0420611109924804 0 0.157240421192245 0 0 0 0 0.0570271805105558 0 0 0 0 0 0 0 0 0 0 0 0 0 0 0 0.96609214580803 0 0.399982147329971 0 0 0 0 0 0 0 0 0 0 0 0
0 0 0 0 0 0 0 0.0474550088031938 0 0 0 0.756910018229021 0 0 0 0 0 0 0 0.1751599321081 0 0 0.123066687711265 0.312249413452918 0 0 0 0 0 0 0 0 0 0 0 0 0 0 0 0 0 0 0 0 0 0 0.288869024909734 0 0 0
