0 0 0 0 0 0 -1.21959015147305 0 -5.45152893432409 0 0 0 0 0 -0.634467026507649 0 0 0 0 0 0 0 0 0 0 0 0 0 0 0 0 0 0 0 0 0 0 0 0 0 -5.83260825273949 0 0 0 -1.42357634674104 0 0 0 0 0
0 0 -1.42482126072294 0 0 0 0 0 -0.775029309234783 0 0 0 0 0 0 0 0 0 0 0 -1.56650065738622 0 0 0 -0.115977582354182 0 0 0 0 0 0 0 0 0 0 0 0 0 -4.54304087170759 0 0 0 0 -0.593037268061702 0 0 0 0 0 0
0 0.302780265810752 0 0 0 0 0 0 0 0 0 0 0 0 0 0 0 0 0 0 -1.62905972171025 0 0 0 0 0 0 0 0 -1.08914347869104 0 0 0 0 0 0 0 0 -0.756223814849745 0 0 -6.01290787497563 0 0 0 -0.562736872225128 0 0 0 0
0 0 0 0 0 0 0 0 0 0 0 0 0 0 0 0 0 0 0 0 0 -2.5422023970738 -0.940521752330839 0 0 -0.356492496827534 0 0 0 -2.3658639388861 0 0 0 0 0 0 0 0 0 0 0 0 0 0 0 0 0 0 0 0
0 0 0 0 0 0 0 0 -2.77514342530385 0 0 0 0 0 0 0 -1.35348121605037 0 0 0 0 -0.249185503740924 0 0 0 -0.736677631550018 0 -1.11927948695379 0 0 0 0 0 -7.69189905492645 -0.550024213749804 0 0 0 0 0 0 -2.73641580593401 0 0 0 0 0 0 0 -1.50889611840326
0 0 0 0 0 0 0 0 0 0 0 -0.172331006159895 0 -2.91546710009279 0 0 0 0 0 0 0 0 0 0 0 0 -1.11290192955111 0 -0.798528558345922 0 0 0 0 0 0 0 -2.22214035315585 -1.97186358332791 0 0 0 0 0 0 0 0 0 0 0 -0.501059219766755
0.231572013921495 0 0 0 0 0 0 0 0 -0.577256262016994 -0.246132901367009 0 0 -0.961892754489019 0 0 -0.726034026693859 0 0 0 0 0 0 0 0 0 0 0 0 0 0 0 0 0 0 0 0 0 0 0 0 0 0 0 0 0 -0.777001987371512 0 0 0
0 0 0 0 0 0 0 0 0 0 0 0 -0.922128922604212 0 -4.02366139751926 0 0 -1.00387326256567 0 0 0 0 0 0 0 0 0 0 0 0 -0.633711397458164 0 0 0 0 0 0 0 0 0 0 0 0 0 0 0 0 0 0 0
0.968865045463913 0.160973813112641 0 0 0.545599705065531 0 0 0 0 0 0 0 0 0 -0.734428935005577 0 0 0 0 0 0 0 0 0 0 0 0 0 0 0 0 0 0 0 0 0 0 0 0 0 0 -1.08157353662683 0 0 0 0 0 0 0 0
0 0 0 0 0 0 0.115260057175909 0 0 0 0 0 0 0 0 0 -0.655870151801471 0 0 0 0 0 0 0 0 0 0 0 0 0 0 0 0 0 0 0 0 0 0 0 -2.07793336700799 0 0 0 0 0 0 0 0 0
0 0 0 0 0 0 0.0516093285697445 0 0 0 0 0 0 -6.04087444707209 0 0 0 0 0 0 0 0 0 0 0 0 0 0 0 0 0 0 0 0 -1.8511997635253 0 0 0 0 0 0 0 0 0 0 0 0 0 0 0
0 0 0 0 0 0.0308083080437344 0 0 0 0 0 0 0 0 0 0 0 0 0 0 0 0 0 0 0 0 0 0 0 0 0 0 -1.83313182461848 0 0 0 -0.914218056512732 0 0 0 0 0 0 0 0 0 0 0 0 0
0 0 0 0 0 0 0 0.180993807082747 0 0 0 0 0 0 0 0 0 0 0 0 0 0 0 0 0 -0.169903837188208 0 0 0 0 0 0 0 0 0 0 0 0 0 0 0 0 0 0 0 -0.617934870117747 0 0 0 0
0 0 0 0 0 0.610497854253684 0.183239461561189 0 0 0 1.23276850845186 0 0 0 -2.4078442008747 0 0 0 0 0 0 0 0 -0.870428583502374 0 0 0 0 0 0 0 0 0 0 0 0 0 0 0 0 0 0 0 0 0 -2.6028620590175 0 0 0 -8.8211178258779
0.12988831505063 0 0 0 0 0 0 0.837497001099832 0.143399009568181 0 0 0 0 0.491225394892598 0 0 0 0 0 0 -0.530733249950398 0 0 0 0 0 0 0 0 0 0 0 0 0 0 0 0 0 0 0 0 0 0 0 0 0 0 0 0 0
0 0 0 0 0 0 0 0 0 0 0 0 0 0 0 0 0 0 0 0 0 0 0 -1.47808136473233 0 0 0 0 0 0 0 0 0 0 0 0 0 0 0 0 0 0 0 0 -3.4151263924309 0 0 0 0 0
0 0 0 0 0.278123300907712 0 0.147673615131008 0 0 0.125960543534413 0 0 0 0 0 0 0 0 -0.446045471516799 0 0 -0.588674283473341 0 0 -2.64175189669097 0 0 0 0 0 0 0 0 0 -2.52511745014167 0 0 0 0 -0.923271049034226 0 0 0 0 0 0 0 0 0 0
0 0 0 0 0 0 0 0.206683857649625 0 0 0 0 0 0 0 0 0 0 0 0 0 0 0 0 0 -1.1103873455396 0 0 0 0 -1.87278086818826 0 0 0 0 0 0 0 0 0 -2.07038120510503 0 -0.174752570468397 0 0 0 0 0 -1.90734858508948 0
0 0 0 0 0 0 0 0 0 0 0 0 0 0 0 0 0.0883345714054276 0 0 0 0 0 0 0 0 0 0 0 0 0 0 0 0 -2.29644415589366 0 0 0 0 0 -1.8411750301824 0 0 0 0 0 0 0 0 0 0
0 0 0 0 0 0 0 0 0 0 0 0 0 0 0 0 0 0 0 0 0 0 0 0 0 0 -0.320584827976602 0 0 0 0 0 0 0 0 0 0 0 0 0 0 0 0 0 0 0 0 0 0 0
0 0.329152114467627 0.346660100300481 0 0 0 0 0 0 0 0 0 0 0 0.100470905060816 0 0 0 0 0 0 0 0 0 0 0 0 0 0 0 0 0 0 0 0 0 0 0 0 0 0 0 0 0 0 0 0 0 -0.163275810964499 0
0 0 0 0.512566015636463 0.0508551900615507 0 0 0 0 0 0 0 0 0 0 0 0.115439164450085 0 0 0 0 0 0 0 0 0 0 0 0 0 0 0 0 0 0 0 0 0 0 0 0 0 0 0 0 0 0 0 0 0
0 0 0 0.190931029947758 0 0 0 0 0 0 0 0 0 0 0 0 0 0 0 0 0 0 0 0 0 0 0 0 0 0 -0.120792354898535 0 -0.921777320289734 0 0 0 0 0 0 -0.743781134529191 0 0 0 0 0 0 0 0 0 0
0 0 0 0 0 0 0 0 0 0 0 0 0 0.18245471683689 0 0.302278835421295 0 0 0 0 0 0 0 0 0 0 0 -0.11297905879329 0 0 0 0 0 -0.336029690938701 0 0 0 0 0 -0.210131431543049 -2.60143243546981 0 0 0 -0.174707206379782 0 0 0 0 0
0 0.0230525867097692 0 0 0 0 0 0 0 0 0 0 0 0 0 0 0.559247382942766 0 0 0 0 0 0 0 0 0 0 -0.337456683384795 0 0 0 0 0 0 0 0 0 0 0 0 0 0 0 0 0 -0.435473675815707 0 0 0 0
0 0 0 0.0727987668221898 0.155148999258998 0 0 0 0 0 0 0 0.0356542680001741 0 0 0 0 0.217116869906775 0 0 0 0 0 0 0 0 0 0 0 -1.39650286870966 0 0 0 0 0 0 0 0 0 0 0 0 0 0 0 0 0 0 0 0
0 0 0 0 0 0.207741934271042 0 0 0 0 0 0 0 0 0 0 0 0 0 0.0627319319954446 0 0 0 0 0 0 0 0 0 0 0 0 0 0 0 0 0 0 0 -0.552019209331645 0 0 0 0 0 0 0 0 0 -2.09919720159987
0 0 0 0 0.234083517188651 0 0 0 0 0 0 0 0 0 0 0 0 0 0 0 0 0 0 0.0231735655241061 0.0619984578843792 0 0 0 0 0 0 0 0 0 0 0 0 -2.62238455448658 -4.78902682335367 0 0 0 0 0 0 0 0 0 -0.992996871361394 0
0 0 0 0 0 0.146963284902305 0 0 0 0 0 0 0 0 0 0 0 0 0 0 0 0 0 0 0 0 0 0 0 0 0 0 0 0 0 0 0 0 0 0 0 0 0 0 0 0 0 0 -0.649807376210679 0
0 0 0.216366594791662 0.457377724970989 0 0 0 0 0 0 0 0 0 0 0 0 0 0 0 0 0 0 0 0 0 0.268773952445111 0 0 0 0 0 0 0 0 0 0 0 0 0 0 0 0 0 0 0 0 0 0 0 0
0 0 0 0 0 0 0 0.118120801622634 0 0 0 0 0 0 0 0 0 0.351914779325656 0 0 0 0 0.0216738353373343 0 0 0 0 0 0 0 0 0 -0.693894892173552 0 0 0 0 0 0 0 0 -1.89105569084038 0 0 0 0 0 0 0 0
0 0 0 0 0 0 0 0 0 0 0 0 0 0 0 0 0 0 0 0 0 0 0 0 0 0 0 0 0 0 0 0 0 0 0 0 0 0 0 0 0 0 0 0 0 0 0 0 -0.33747292622534 0
0 0 0 0 0 0 0 0 0 0 0 0.344708032524097 0 0 0 0 0 0 0 0 0 0 0.191504552234169 0 0 0 0 0 0 0 0.131148217513709 0 0 0 0 0 0 0 0 0 -0.207585544757129 0 -0.178183777385213 0 0 -0.568187345558024 0 0 0 0
0 0 0 0 1.41894585444123 0 0 0 0 0 0 0 0 0 0 0 0 0 0.475656930912037 0 0 0 0 0.0635312295288291 0 0 0 0 0 0 0 0 0 0 0 -0.824444716543009 0 0 0 0 0 0 0 0 0 0 0 0 -1.19635456340824 0
0 0 0 0 0.117498019390893 0 0 0 0 0 0.351859964370031 0 0 0 0 0 0.517183741628296 0 0 0 0 0 0 0 0 0 0 0 0 0 0 0 0 0 0 0 0 0 -0.544864322292489 0 0 0 0 0 0 0 0 0 -0.0800531112615286 0
0 0 0 0 0 0 0 0 0 0 0 0 0 0 0 0 0 0 0 0 0 0 0 0 0 0 0 0 0 0 0 0 0 0.169411806231932 0 0 0 0 0 0 0 0 0 0 0 0 0 0 0 0
0 0 0 0 0 0.441952564178486 0 0 0 0 0 0.187378571578504 0 0 0 0 0 0 0 0 0 0 0 0 0 0 0 0 0 0 0 0 0 0 0 0 0 0 0 0 0 0 0 0 0 0 0 0 0 0
0 0 0 0 0 0.382259676183133 0 0 0 0 0 0 0 0 0 0 0 0 0 0 0 0 0 0 0 0 0 0.511430342064186 0 0 0 0 0 0 0 0 0 0 0 0 0 0 0 0 0 0 0 0 -1.33598092645505 0
0 0.902412224190324 0.16139141472745 0 0 0 0 0 0 0 0 0 0 0 0 0 0 0 0 0 0 0 0 0 0 0 0 0.998233952664412 0 0 0 0 0 0 0.105588942783197 0 0 0 0 0 0 0 0 0 0 0 0 0 0 0
0 0 0 0 0 0 0 0 0 0 0 0 0 0 0 0 0.185091751372864 0 0.355827486271335 0 0 0 0.144534020888601 0.0419486310209821 0 0 0.101641992181901 0 0 0 0 0 0 0 0 0 0 0 0 0 0 0 0 0 0 0 0 0 0 0
1.17928436227206 0 0 0 0 0 0 0 0 0.388226056384995 0 0 0 0 0 0 0 0.388290653726541 0 0 0 0 0 0.50387497474971 0 0 0 0 0 0 0 0 0.0460920656048923 0 0 0 0 0 0 0 0 0 0 0 0 0 0 0 0 0
0 0 1.17480318025317 0 0.560178049858937 0 0 0 0.209895828017948 0 0 0 0 0 0 0 0 0 0 0 0 0 0 0 0 0 0 0 0 0 0.377617260880546 0 0 0 0 0 0 0 0 0 0 0 0 0 0 0 0 0 0 0
0 0 0 0 0 0 0 0 0 0 0 0 0 0 0 0 0 0.0364077001045608 0 0 0 0 0 0 0 0 0 0 0 0 0 0 0.033543456024131 0 0 0 0 0 0 0 0 0 0 0 0 -0.840920557917781 0 0 0 0
0 0.119175136068699 0 0 0 0 0 0 0 0 0 0 0 0 0 0 0 0 0 0 0 0 0 0 0 0 0 0 0 0 0 0 0 0 0 0 0 0 0 0 0 0 0 0 0 0 0 0 0 0
0.307829569472979 0 0 0 0 0 0 0 0 0 0 0 0 0 0 0.729547105016733 0 0 0 0 0 0 0 0.0339138278841888 0 0 0 0 0 0 0 0 0 0 0 0 0 0 0 0 0 0 0 0 0 0 0 -1.47452239938043 0 0
0 0 0.106726558562338 0 0 0 0 0 0 0 0 0 0.124812287720463 0.505606650898436 0 0 0 0 0 0 0 0 0 0 0.0924256134480125 0 0 0 0 0 0 0 0.112251497149241 0 0 0 0 0 0 0 0 0 0.177016655743604 0 0 0 0 0 0 0
0 0 0 0 0 0 0.158478980497626 0 0 0 0 0 0 0 0 0 0 0 0 0 0 0 0 0 0 0 0 0 0 0 0 0 0 0 0 0 0 0 0 0 0 0 0 0 0 0 0 0 0 0
0 0 0 0 0 0 0 0 0 0 0 0 0 0 0 0 0 0 0 0 0 0 0 0 0 0 0 0 0 0 0 0 0 0 0 0 0 0 0 0 0 0 0 0 0.317900155209229 0 0 0 0 0
0 0 0 0 0 0 0 0 0 0 0 0 0 0 0 0 0 0.391577089789688 0 0 0.0313022135642183 0 0 0 0 0 0 0.200778215267604 0.116878497539779 0 0 0.0704366717375771 0 0.234565981160406 0.0157733706552853 0 0 0.263325966075755 0 0 0 0 0 0 0 0 0 0 0 0
0 0 0 0 0.314926914475488 0.0891655827821238 0 0 0 0 0 0 0 1.74078040150776 0 0 0 0 0 0 0 0 0 0 0 0 0.384040932423962 0 0 0 0 0 0 0 0 0 0 0 0 0 0 0 0 0 0 0 0 0 0 0
