0 0 0 0 0 0 0 0 0 0 0 0 0 0 0 0 0 0 -7.51189585699789 0 -3.42911424394579 0 0 0 0 0 0 0 0 0 0 0 0 -0.233127006739196 0 0 0 0 0 0 0 0 0 0 0 0 0 0 0 -0.289697261684717
0 0 0 0 0 0 0 0 0 0 0 -0.488331140603171 -2.15888815622103 0 0 0 0 0 0 0 0 0 0 0 0 0 0 0 0 0 0 0 0 0 0 0 0 0 0 0 0 -0.67503677051078 0 0 0 0 0 0 -0.62418938988587 0
0 0 0 0 0 0 0 0 0 0 0 0 0 0 0 0 0 0 0 0 0 0 0 0 -0.282817485268885 0 -0.90150428688122 0 -1.11738308016226 0 0 0 0 0 0 0 0 0 0 0 0 0 0 -0.304470039747184 0 -1.72243206293509 0 0 0 -0.122818808822665
0 0 0 0 0 0 0 0 0 0 0 0 0 0 0 0 0 0 0 0 0 0 0 0 0 0 0 0 0 0 0 0 0 0 0 0 0 0 0 0 0 0 0 0 0 0 0 -1.10670658145428 0 0
0 0 0 0 0 0 0 0 0 0 0 0 0 0 0 -0.277506128158075 0 0 0 0 0 0 0 0 0 0 0 0 0 0 0 0 0 0 0 0 0 0 0 0 0 0 0 0 0 0 0 0 0 0
0 0 0 0 0 0 0 -1.52559094783422 0 0 0 0 0 0 0 0 0 0 0 0 0 0 -1.09883871644256 -1.47940645640632 0 -0.331079134902589 0 0 0 0 0 -2.16513284255088 -0.349991818688034 0 0 0 0 -0.238271393449333 0 0 0 0 0 0 0 0 0 0 -0.344041014948599 0
0 0 0 0 0 0 0 0 0 0 0 0 0 0 0 0 0 0 0 0 0 0 -0.123643890378619 0 0 0 0 0 0 0 0 0 0 0 0 0 0 0 0 0 0 0 0 0 -2.47049892975915 0 0 0 0 0
0 0 0 0 0 0.298380656280023 0 0 0 0 0 0 0 0 0 0 0 0 0 0 0 0 -1.45580039093314 0 0 0 0 -2.20684282264129 0 0 0 -0.297373369161545 -1.52285504061706 0 0 -0.513245230047416 0 0 0 0 0 0 0 0 0 0 -0.382756168630612 -8.4870285687639 0 0
0 0 0 0 0 0 0 0 0 0 0 0 -1.32234993936824 0 0 0 0 0 0 0 -0.0791806878602746 0 0 0 0 0 0 0 0 0 0 0 0 0 0 -0.932867356612851 0 0 0 0 0 0 0 0 0 0 0 0 0 0
0 0 0 0 0 0 0 0 0 0 0 0 0 0 0 0 0 0 0 0 0 0 0 0 0 0 0 0 0 0 0 -0.579949431228507 0 0 0 0 0 0 0 0 -2.83041612335192 0 0 0 0 0 0 0 0 -2.51921526209517
0 0 0 0 0 0 0 0 0 0 0 0 0 0 0 0 0 0 0 0 -1.81457220895417 0 0 0 0 0 0 -0.617773024354936 -4.52060186773275 -2.25053131583875 0 0 -1.94768574018493 0 0 0 0 0 0 0 0 0 0 0 0 0 0 0 0 0
0 0.0992206199910863 0 0 0 0 0 0 0 0 0 0 0 0 -0.154684097546566 0 0 0 0 0 0 0 0 0 0 0 0 0 0 0 0 0 0 0 0 0 0 -0.700668987029384 0 0 0 0 0 0 0 0 0 0 -4.21650809330154 -3.05301280556821
0 0.438526519008553 0 0 0 0 0 0 0.24617344081021 0 0 0 0 0 0 0 0 -1.52341025712267 0 0 0 0 0 0 0 -0.475489935398769 0 0 0 0 0 0 0 0 0 0 0 0 0 0 0 0 0 0 -1.04912583472052 0 0 0 0 0
0 0 0 0 0 0 0 0 0 0 0 0 0 0 0 0 0 0 -0.665269566943737 0 -0.891009854701718 0 0 0 0 0 0 -0.751848048159709 0 0 0 -1.82056846281098 0 0 0 0 0 0 0 0 0 0 0 0 0 0 0 0 0 0
0 0 0 0 0 0 0 0 0 0 0 0.0303829983429213 0 0 0 0 0 0 0 0 0 0 -1.94252984100448 0 0 -1.0271966251935 0 0 0 0 0 0 0 0 -0.626181194537415 0 0 -0.399231418459194 0 0 0 0 -0.731832555717 -4.44645736052191 0 -1.17024679667056 0 0 0 0
0 0 0 0 0.0517165056018417 0 0 0 0 0 0 0 0 0 0 0 0 0 0 0 0 0 0 0 0 0 0 -0.594487831025406 0 0 -0.228036153227667 0 0 -1.11176149223936 0 0 0 0 0 0 0 0 0 0 0 0 0 0 0 -1.68497156943668
0 0 0 0 0 0 0 0 0 0 0 0 0 0 0 0 0 0 0 0 -2.27257304843283 0 0 0 0 0 0 0 0 0 0 0 0 0 0 0 0 0 0 0 -0.281131025462554 0 0 -0.985258006779378 0 0 0 0 0 0
0 0 0 0 0 0 0 0 0 0 0 0 0.281215622460459 0 0 0 0 0 0 0 -0.419888085878095 0 0 0 0 -1.56488766632395 0 0 0 0 0 -0.475019575469412 0 0 0 0 0 0 0 0 0 0 0 0 0 0 0 0 0 -1.45529080125558
1.48921322517621 0 0 0 0 0 0 0 0 0 0 0 0 0.124452070026119 0 0 0 0 0 0 0 0 0 0 0 0 0 0 0 0 0 0 0 0 0 0 0 0 0 0 0 0 0 0 0 0 0 0 0 0
0 0 0 0 0 0 0 0 0 0 0 0 0 0 0 0 0 0 0 0 0 0 0 0 0 0 0 -0.0354557871511384 0 0 0 0 0 0 0 -2.08037912180415 0 0 0 0 0 0 0 0 -6.42250427044349 0 0 0 0 0
0.689345089522168 0 0 0 0 0 0 0 0.0141412236980729 0 0.375585602831972 0 0 0.182964822086224 0 0 0.465188747310972 0.0793071209738153 0 0 0 0 0 0 0 0 0 0 0 0 0 0 0 0 0 0 0 0 0 0 0 0 0 -2.02831372261456 0 0 0 0 0 0
0 0 0 0 0 0 0 0 0 0 0 0 0 0 0 0 0 0 0 0 0 0 0 0 0 0 0 0 0 0 -0.58982169039169 0 0 0 0 0 0 0 0 0 0 0 0 0 0 0 0 0 0 0
0 0 0 0 0 0.205342186531725 0.0239716534956374 0.280847720482836 0 0 0 0 0 0 0.393670581566181 0 0 0 0 0 0 0 0 0 0 0 -0.434619107341684 0 0 0 0 -1.64177555741743 0 0 0 -0.476324866571306 0 0 0 0 0 0 0 0 0 0 -1.09796496933979 0 0 0
0 0 0 0 0 0.309264121251315 0 0 0 0 0 0 0 0 0 0 0 0 0 0 0 0 0 0 0 0 0 0 0 0 0 0 0 -0.797508725776984 0 0 0 0 0 0 -0.266753856169441 0 -0.473816585168492 0 0 -1.1677932711602 0 0 -0.48856027900725 -2.40359458190545
0 0 0.0577046343830073 0 0 0 0 0 0 0 0 0 0 0 0 0 0 0 0 0 0 0 0 0 0 0 -0.597755760595674 0 0 0 0 0 -0.481546840720632 0 0 0 0 0 0 -0.245060092433589 0 0 0 0 0 0 0 0 0 0
0 0 0 0 0 0.0655684414110314 0 0 0 0 0 0 0.0937567165907272 0 0.206465675307115 0 0 0.345150850816074 0 0 0 0 0 0 0 0 0 0 -0.627983945809613 0 0 0 0 0 0 0 0 0 0 0 -0.617458651500386 0 0 0 0 0 0 0 -5.44272846522701 -0.514291411867893
0 0 0.184337155996414 0 0 0 0 0 0 0 0 0 0 0 0 0 0 0 0 0 0 0 0.0889906740043171 0 0.119309066316456 0 0 0 0 -1.00800670569718 0 -3.16208127637818 0 0 -0.254779469282459 0 0 0 0 0 0 0 -0.746961394259095 0 -2.49995330901056 0 0 0 0 0
0 0 0 0 0 0 0 0.423770677403186 0 0 0.11945267802033 0 0 0.144312995729371 0 0.121502427665307 0 0 0 0.00678685756207641 0 0 0 0 0 0 0 0 0 0 0 -0.104079608835246 0 0 0 0 0 0 0 -0.239001039321269 0 0 0 0 0 0 0 0 0 0
0 0 0.253750169259687 0 0 0 0 0 0 0 0.843935217495714 0 0 0 0 0 0 0 0 0 0 0 0 0 0 0.115912644020679 0 0 0 -0.964103786978405 0 -1.02182677023368 -0.544269086163718 -9.57292899945823 0 0 0 -1.52114397554154 0 0 0 0 0 0 -0.272331408157846 0 0 0 -12.0211895752817 0
0 0 0 0 0 0 0 0 0 0 0.491695895341198 0 0 0 0 0 0 0 0 0 0 0 0 0 0 0 0.190085084402901 0 0.1910538846136 0 0 0 0 0 0 0 0 0 0 0 -1.6123614986177 0 0 0 0 0 0 0 0 0
0 0 0 0 0 0 0 0 0 0 0 0 0 0 0 0.0452658015787771 0 0 0 0 0 0.116075170901414 0 0 0 0 0 0 0 0 0 0 -0.750672650901323 0 0 -0.584684599491559 0 0 0 0 0 -3.6669687987797 0 0 0 0 0 0 0 -4.11495042699273
0 0 0 0 0 0.417927254196843 0 0.0567248635375168 0 0.120882376720306 0 0 0 0.353728938552595 0 0 0 0.0895407939563808 0 0 0 0 0.304161115605421 0 0 0 0.646103324676404 0.0202321443374559 0.198638691188541 0 0 0 -0.189548961234262 0 0 0 0 0 0 0 -0.0931301674054505 0 0 0 0 0 0 0 0 0
0 0 0 0 0 0.069052315271979 0 0.320983327428914 0 0 0.379126658353572 0 0 0 0 0 0 0 0 0 0 0 0 0 0.102499000033613 0 0 0 0.115969608755931 0 0.154562698278044 0.0386253278468687 0 0 0 0 0 0 0 0 0 0 0 0 0 0 0 0 0 0
0.043951303663217 0 0 0 0 0 0 0 0 0 0 0 0 0 0 0.225785976723522 0 0 0 0 0 0 0 0.165373863510473 0 0 0 0 1.86716070626958 0 0 0 0 0 -0.202358708449118 0 0 0 0 0 -0.262639551166418 0 0 0 0 0 0 -1.06880513027665 0 0
0 0 0 0 0 0 0 0 0 0 0 0 0 0 0.125488552909032 0 0 0 0 0 0 0 0 0 0 0 0.0528775156736352 0 0 0 0 0 0 0.0368387378604706 0 -1.17036666174981 0 0 0 -3.45074587183713 0 0 0 0 0 0 0 0 0 0
0 0 0 0 0 0 0 0.108704881740888 0.192282991412827 0 0 0 0 0 0 0 0 0 0 0.423902581121698 0 0 0.0916661530073912 0 0 0 0 0 0 0 0.117874386938681 0 0 0 0.251749010732675 0 0 0 -0.735531716166871 0 0 0 0 0 0 0 0 0 0 0
0 0 0 0 0 0 0 0 0 0 0 0 0 0 0 0 0 0 0 0 0 0 0 0 0 0 0 0 0 0 0 0 0 0 0 0 0 0 0 0 0 0 0 0 0 0 0 -0.381680364708044 0 0
0 0 0 0 0 0.0453105907938005 0 0 0 0 0 0.134200565213299 0 0 0.0764539733761441 0 0 0 0 0 0 0 0 0 0 0 0 0 0.282321784116874 0 0 0 0 0 0 0 0 0 0 0 0 0 0 -1.01198991544026 0 -2.48424558604233 -0.474316278948685 0 -0.579030115485884 0
0 0 0 0 0 0 0 0 0 0 0 0 0 0 0 0 0 0 0 0 0 0 0 0 0 0 0 0 0 0 0 0 0 0 0 0.154113192227993 0 0 0 0 0 0 0 0 0 0 0 0 0 0
0 0 0 0 0 0 0 0 0 0 0 0 0 0 0 0 0 0 0 0 0 0 0 0 0.0452096472357861 0 0 0.051562805631536 0 0 0 0 0 0 0.642695292972812 0 0 0 0 0 0 0 0 0 -1.89699884961448 0 -0.782029900338593 0 0 0
0 0 0 0 0 0 0 0 0 0.528133345813067 0 0 0 0 0 0 0.0567044574480171 0 0 0 0 0 0 0.052220587673075 0 0.130201791844481 0 0 0 0.333383984688306 0 0.0194129380595153 0 0.054669703194807 0 0 0 0 0 0 0 0 0 0 0 0 0 0 0 0
0 0.13521867189427 0 0 0 0 0 0 0 0 0 0 0 0 0 0 0 0 0 0 0 0 0 0 0 0 0 0 0 0 0.7131746268667 0 0 0 0 0 0 0 0 0 0 0 0 0 0 0 0 0 0 -0.41397805040032
0 0 0 0 0 0 0 0 0 0 0 0 0 0 0.143454729790315 0 0 0 0 0 0 0 0 0.0894164503942595 0 0 0.142939925926572 0 0 0 0 0 0 0 0 0 0 0 0 0 0 0 0 0 0 0 0 -0.19087366149972 0 0
0 0 0.0640063286281954 0 0 0 0 0 0 0 0 0 0 0 0.948148574079775 0 0.18582375427163 0 0 0 0.421892401014881 0 0 0 0 0 0 0 0 0 0 0 0 0 0 0 0 0.200156057093206 0 0 0 0 0 0 -0.508054208486367 0 0 0 0 0
0 0 0 0 0 0 0.481312293989697 0 0 0 0 0 0.193215815599009 0 0 0 0 0 0 1.30367603734681 0 0 0 0 0 0 0.484999574253863 0 0.0564365850214053 0 0 0 0 0 0 0 0 0 0 0.383458133741168 0 0 0 0.101130267896515 0 0 0 0 0 0
0 0 0.362688105184679 0 0 0 0 0 0 0 0 0 0 0 0.245934332839679 0 0 0 0 0 0 0 0 0.218492439336821 0 0 0 0 0 0 0 0 0 0 0 0 0 0.500262182222167 0 0 0 0 0 0 0 0 0 0 -1.58869897212029 0
0 0 0 0 0 0 0 0.0770409880162722 0 0 0 0 0 0 0 0 0 0 0 0 0 0 0.210531996215402 0 0 0 0 0 0 0 0 0 0 0 0 0 0 0.0931224905923237 0 0.147344356341415 0 0 0 0 0 0 0 0 0 -1.23484211561008
0 0 0 0.219667657205581 0 0 0 1.72756252731957 0 0 0 0 0 0 0 0 0 0 0 0 0 0 0 0 0 0 0 0 0 0 0 0 0 0.204830237507106 0 0 0.0764170133855846 0 0 0 0 0 0.0366005776338518 0 0 0 0 0 0 0
0 0.123584338934653 0 0 0 0.0697974851497769 0 0 0 0 0 0.879407862941313 0 0 0 0 0 0 0 0 0 0 0 0.0915514478833136 0 0.973354058910793 0 0 2.23031136584832 0 0 0 0 0 0 0 0 0.115187004107817 0 0 0 0 0 0 0 0.354199025142613 0 0 0 0
0.0586952779499746 0 0.0250417270453355 0 0 0 0 0 0 0.50805083792858 0 0.627041010126973 0 0 0 0.295734410025499 0 0.302411861592772 0 0 0 0 0 0.508163908318278 0 0.102351430818843 0 0 0 0 0.812929142270819 0 0 0 0 0 0 0 0 0 0 0.0838880239130617 0 0 0 0 0.266667770706065 0 0 0
