0.160069974258822
1.08936206430936
1.14153513931969
0.0740097240336458
1.96339653307525
0.26258716536089
2.41720880242965
0.168276420183685
1.5153995779591
0.304935528336091
0.51837892107891
0.0219939864839165
0.309974945343715
0.988590758471346
1.6226825926185
0.219589366530611
0.336286317375224
0.0490680474662935
1.14814001169997
0.21647319993197
0.553770452862449
0.525413036072776
0.625779879133507
1.27352843887608
0.774212300867677
2.68323448006909
0.887205684628719
3.59255890412614
0.0378383842313785
0.581218717231751
1.70929091942303
0.970433749531468
0.908363440079892
3.4748415712604
0.299425049317545
1.18433160026051
0.131836597825711
1.23181103337251
0.0672974982261444
0.986588591690932
1.7432538936968
1.20597526351362
0.0666831088445526
0.396562184130411
0.278869125484853
0.700967233716615
0.590286122479012
0.154083625777832
0.0383094792451899
0.494320893446815
