2.44312676149587
0.559421551316992
1.11434542405901
2.77694312427096
1.5719557006879
2.16487226758399
0.809678807027968
0.435770058853677
1.67857240905893
0.226075349310078
2.16836959692096
4.44031999116928
0.71504342001129
0.527677937687214
2.58592421042042
3.00575613950699
0.977713886678247
0.286755911720281
0.636802956237973
0.822289163044113
3.01321461117723
3.83928507970237
0.73934928419385
0.573873504790616
0.323929968708002
0.521831450264796
7.33297945171338
1.26902827594456
0.959099568926324
2.55218909139953
0.284037483558214
1.24895923096488
2.29114659811635
2.54866849978438
0.407704587738641
1.78840540021687
1.16147702602564
0.696042666059495
1.77080225568387
0.231542910217456
1.53782518726657
0.298056919179694
1.66365912870479
0.6105131232673
0.905355427590821
0.782342624399637
1.36778196648209
0.0455817303541921
0.60361803613478
1.83762125237433
