0.427225868312232
0.241393375975528
0.132499064303908
0.469973053225472
0.393893061696863
0.0954748165087156
0.560621545773087
0.38907816640173
1.08095672592826
0.521660310893187
0.154212695645912
0.111599363876362
0.448877726925608
0.348410098106103
0.221627020349347
0.504513123676739
0.158962361138893
0.223368181426726
0.895679115641701
0.568515954228139
0.54831673656818
0.233929053403387
0.574548184701375
0.620042418779003
1.05864075776695
0.419855433587263
0.410469706066109
0.232801706285829
1.0533308872679
0.214094697279194
1.07502016174158
0.36822456641805
0.158466030024569
0.732320229018372
0.626791282442004
1.05822554567906
0.389573882361202
0.977263309040182
1.06880257361602
0.583409599566414
0.198180223296097
0.288131696046586
1.32351428680653
0.179290194090873
0.162685902116449
0.873232434851894
0.688113987428858
0.610184084547466
0.0353703336020415
0.465960028518241
