0.824315748315692
2.12373043322433
1.72730051855256
1.01784774366339
0.478633409758378
2.44470073040701
0.279457751069866
0.716715661531955
1.07724640319343
0.17484683820955
0.398270137304467
0.361248156852953
0.503805868543923
2.32799662412978
0.860838351564823
0.961720479269015
0.177599860633584
5.91522007659209
1.41519799286678
0.896292694714889
1.07776806338359
0.185245484826985
5.26655053806114
0.501573375805531
2.57545000167371
2.75732624260322
0.572412961000084
1.0876030942823
2.28788724811189
1.45075325582255
3.43280771944351
0.372517583561499
3.08847100327175
1.75399656534208
0.636045442679165
3.26289749969377
0.772144084504257
0.516894102697382
1.03731521884952
1.40327809816581
0.197840786259113
0.202885794842656
3.18146881668328
0.570292708054159
1.35178249706303
2.09247892046518
0.63619759839683
0.944671345769252
2.73291823305681
0.298452026792111
