0.496468535901042
1.29414607984609
0.418272124844977
0.685025328651693
0.769769347516971
0.517644895663634
0.539360361471601
1.80900595195239
1.71224634822145
0.905000844719499
0.49830311401754
1.09396286813798
0.667514528587548
0.447343267368473
0.867132708726525
1.41851696760764
0.51633143387606
0.925418597571385
0.717131927509563
0.592201889141385
0.669792247681266
1.10399574380902
0.292579999907746
0.66069891780572
1.63295775065568
0.378054039516382
0.11807064671073
0.522403991654189
0.328544843009937
0.367747185345111
0.265517689798284
0.934590488189071
0.271603085043861
0.519395509799831
0.290185078792522
0.632974374224758
1.47183948471826
1.6430959354649
0.35315775779588
0.40172945370835
0.713184116273954
1.29991400402985
0.288174909890046
0.571799438308672
1.03265837045614
0.437226632658566
0.904414124118766
0.512821188454274
1.36855996604291
1.30795236844493
