2.03699478764531
0.763610425439358
0.664874591945753
0.829189705151549
0.674976791464823
0.464341622107313
0.438655149092046
0.288685553967215
0.675928009431015
0.28786482894897
1.64812798360079
0.710683139735085
0.240007207273931
0.920347414785515
0.22143131756433
0.966388414674892
0.762901311128559
1.21225172350488
0.277212600094857
0.417614172041041
0.989416362472026
1.20093774020424
0.776913626351444
1.19883110467531
0.52893007847391
0.115070386623688
0.76375859496142
0.361651421784835
1.55378869247367
0.571502106598894
0.185371657762534
0.361500183923256
0.322333320524909
0.105091402445665
0.125757610912622
0.976662783666247
0.826892529013375
0.136583743158721
1.65909301738307
0.427536439421555
0.274757973192627
1.70146853329297
0.407814426197601
0.412436709323848
0.329414269045369
0.240824387867448
1.02538930719147
0.688847778071408
0.738491209398458
1.39115659799762
