0.135368833613374
0.121138133706958
0.421042768841268
1.04416928464846
0.300140861747508
0.965149911008592
0.846270783887088
0.373388193947676
0.69517058451345
1.78165758080736
0.815529291397294
0.83900059277378
0.408238531475268
0.159906556821704
2.39429337333159
2.02044612374528
0.222145116324568
0.367511695118264
1.58812483064697
1.00634871849134
0.288518779097383
0.552182623799458
1.96093257742022
1.84145872046449
0.200411256950095
1.8352715543162
0.108556526754997
0.175637754424859
1.96400438357555
0.0694337326664753
0.565093841003332
0.7723312062218
0.0693313182358955
0.931529794319103
0.477705156898196
0.932160134033275
0.216142792531845
0.521343088592423
0.929457510933442
0.26544663322512
0.999884991913446
0.332383561748547
1.78634729254668
0.0986036033166696
0.113401803685579
1.38939136693164
0.53889902185958
0.609348725112996
0.0870276332356039
0.0329487825386989
