0.104631792539581
1.31119024784578
0.823235313671499
0.796273630862728
2.4263994486676
0.126909369658037
0.661308631130075
0.786343748584136
1.3168457214133
0.378202719356157
1.20700068492016
3.11368244239173
0.326817245174294
0.712857130589077
1.25770878541763
0.327057493163525
0.745174679513753
3.81064720792749
0.403311223941846
0.873770927788652
2.52463735786896
0.850903876291931
1.18972139104739
0.489673935477678
3.21581159184325
0.186978693768571
0.0873942231360221
1.09559131808797
1.8781585467707
1.85561272452872
0.709788646051274
2.03560820160509
2.34675411528635
1.14733163441018
0.306923764255534
0.41637212493041
1.60097309526173
0.406947833596928
3.53566455869236
0.63432193054553
0.465330658841465
1.45689554288228
1.31094526272585
0.056300093893224
0.223265747762708
0.716238205480506
0.607215785577386
1.57715943202992
2.15756488344733
2.93655614158015
