0.631530705114337
1.04728010232709
0.130351380712412
0.296346658066321
0.274092545954217
1.26008294003143
1.84512004606982
0.374341717505072
0.455751228834139
0.37618015378378
0.748672305169259
0.540407292025858
1.43012276128974
0.508124859641064
1.14487393348091
0.268974952674218
1.54683382076818
0.827269154270681
0.955416168402215
0.563586413710719
1.5872264188096
1.33228955225946
0.140702085843263
0.135467227169162
0.575058823164523
0.498346459488882
0.540824608360985
0.194833396551496
0.6432912118444
1.53844630530231
0.929896260902322
0.728974481329827
0.659733076351116
0.292570798935205
1.73332029463415
1.06935480027347
0.633193800526299
0.913100824917746
0.972271760231122
1.17772338169462
0.752781527728752
0.279416434537273
0.43661667943865
0.740332534528246
0.830759642125352
1.27168310180681
1.18723219579663
0.186674647875155
0.797670935443733
0.978434363858856
