0.806346558504669
0.938986407445246
0.404149686944411
1.78640955494589
0.307678365541769
0.882325427231492
0.549741802905998
0.88284111946818
0.85475747334998
1.30583088261571
0.110983146917518
0.110512832733324
0.820937496060068
1.91844304741104
0.837812556694431
4.22104281333166
0.501745244117821
0.458672302227016
0.402323452509328
0.074416195742205
2.00574051922297
4.47254593703545
0.128465302411011
1.09370564470883
1.20861081083333
2.85518584111212
0.0884610794223656
1.95373467864164
0.250198659208553
0.86527866391736
1.41158443446113
0.976910285501758
0.0994408127695819
0.585647867008673
0.485753306397671
0.945899525144904
1.64627553602501
0.235496758963409
0.397096010879481
0.0949580893727404
0.00699062296939468
1.18672432046567
0.0958721369907281
0.244940913311072
0.464155063678678
0.69604095612008
1.45888362637797
0.178720971026414
0.590627954385532
0.361884254399559
