0 0 0 0 0 0 -1.20222702716075 0 0 0 0 0 0 0 0 0 0 0 0 0 0 0 0 0 0 0 0 0 0 0 -0.857233681010486 0 0 0 -0.17258464120367 0 -0.0991064383663211 0 0 -0.554521469713485 0 0 0 0 0 0 0 0 -1.38691780627575 -3.1821212596906
0 0 0 0 0 0 -0.21596314586996 0 -0.430028780774705 0 0 0 0 -2.95840520612954 0 0 0 0 0 0 0 0 0 -0.355963617682873 0 0 0 0 0 0 0 0 -3.77479974293996 0 0 0 0 0 0 0 0 0 0 0 0 0 0 0 0 0
0 0 0 -1.76618513431796 0 0 0 0 0 0 0 0 0 0 0 -0.430205747123796 0 0 0 0 0 0 0 0 0 0 0 -0.602940701438688 0 0 0 0 0 0 0 -1.18756885785976 0 0 0 0 0 0 0 0 0 0 -0.438702274809559 0 0 0
0 0 0.355573094342401 0 0 0 0 0 0 -3.95085039822127 0 0 0 0 0 0 0 0 0 0 0 0 0 0 -3.78164414067308 0 0 0 0 -1.29927503299481 0 0 0 -1.67224884315533 0 0 0 0 0 0 0 0 0 0 0 0 0 0 0 0
0 0 0 0 0 0 0 0 0 0 0 0 0 0 0 0 0 0 0 0 0 -0.731529655613218 0 0 -0.335007369904553 0 0 0 0 0 0 0 0 0 0 0 0 0 0 0 0 0 -0.943790931706901 0 0 0 0 0 0 0
0 0 0 0 0 0 0 0 0 0 0 0 0 0 0 0 0 0 0 0 0 0 0 0 0 0 0 0 0 0 0 0 0 0 0 0 0 0 0 0 0 -1.53666780577124 0 0 0 0 0 0 0 0
0.225694474431672 0.0437432090026878 0 0 0 0 0 0 0 0 -1.25021232914723 0 -8.08540298245727 0 0 0 0 0 0 0 0 0 0 0 -1.56950233968725 0 0 0 0 0 -0.871835524631186 0 0 0 0 0 0 0 0 0 0 0 0 0 0 0 0 0 0 0
0 0 0 0 0 0 0 0 0 0 0 0 0 -6.64710825617479 0 0 0 0 0 0 0 0 0 0 0 0 -0.692800683845866 0 0 0 0 0 0 0 0 -0.546482055960821 0 0 -1.28771873341396 0 0 0 0 0 0 0 0 0 0 0
0 0.0867440376122203 0 0 0 0 0 0 0 0 0 0 0 0 0 0 -0.130747784963484 0 -1.16562914395615 0 -0.20819635204883 0 0 0 0 0 0 0 0 0 0 0 0 0 0 0 0 0 0 0 0 0 0 0 0 0 0 0 -5.73064578227608 0
0 0 0 0.864240838345443 0 0 0 0 0 0 0 0 -0.623295458323752 0 0 0 0 0 0 0 0 -8.74036332669481 0 0 0 0 0 0 0 0 0 0 0 0 0 0 0 0 0 -0.141410815329185 0 0 0 0 0 0 0 0 0 0
0 0 0 0 0 0 0.252611054938378 0 0 0 0 0 -1.03320583728319 0 0 0 0 0 0 0 -9.82234100501278 -1.24055686114411 0 0 0 0 0 0 0 0 -4.33975672443928 -3.97026357968285 0 0 0 0 0 0 0 0 0 0 0 0 0 0 -0.345930220201841 0 0 0
0 0 0 0 0 0 0 0 0 0 0 0 0 0 0 0 0 0 0 0 0 0 0 0 0 0 0 0 0 0 -0.733213807505577 0 -1.18197886585738 0 0 0 0 0 0 0 0 0 0 0 0 0 0 0 0 0
0 0 0 0 0 0 1.52714122258957 0 0 0.123099856949697 0.216304655512723 0 0 0 0 0 0 0 0 0 0 0 0 0 -0.47958687178273 0 0 0 0 0 0 0 0 0 0 0 0 0 0 -1.33580337521727 0 0 -0.748328617555538 0 0 -1.31676977836494 -0.932439477291283 0 0 0
0 0.640257141407014 0 0 0 0 0 1.32862422243382 0 0 0 0 0 0 0 0 0 0 -0.647641976664408 0 0 0 0 0 0 -1.30020108934267 0 0 0 0 0 0 0 0 0 0 0 0 0 0 0 0 0 -0.481911934422592 0 0 0 0 0 0
0 0 0 0 0 0 0 0 0 0 0 0 0 0 0 0 0 0 0 -0.656096665174316 0 0 0 -3.43925509014486 0 -1.26559434861806 0 0 -2.82723882130048 0 0 0 0 0 0 0 0 0 0 0 0 0 0 0 0 0 0 0 0 0
0 0 0.0722309392508961 0 0 0 0 0 0 0 0 0 0 0 0 0 0 0 0 0 0 0 0 -0.185579870089794 0 0 0 0 0 0 0 0 0 0 0 0 0 0 0 0 0 0 0 0 0 -4.71319415858388 0 0 0 0
0 0 0 0 0 0 0 0 0.0234565354666307 0 0 0 0 0 0 0 0 0 0 -1.06775000833847 0 0 0 0 0 0 0 -0.923710771067222 -0.420313718871621 0 0 0 0 0 0 0 0 0 0 0 0 0 0 0 0 0 0 0 0 0
0 0 0 0 0 0 0 0 0 0 0 0 0 0 0 0 0 0 0 0 0 0 0 0 0 -1.03171995311588 0 0 0 -0.895962189262841 0 -0.693868922984501 0 0 0 0 0 0 0 0 0 0 -1.07921505363061 0 0 0 0 0 0 0
0 0 0 0 0 0 0 0 0.214980632931892 0 0 0 0 0.120803550705865 0 0 0 0 0 0 0 0 0 0 0 0 0 0 0 0 0 0 0 0 0 0 0 0 0 0 0 0 0 0 0 0 0 0 0 0
0 0 0 0 0 0 0 0 0 0 0 0 0 0 0.139169229270435 0 0.226275496222414 0 0 0 0 0 0 0 0 0 0 0 0 0 0 0 -1.45127382570742 0 0 0 0 0 0 0 0 0 0 0 0 -5.4029696580784 0 0 0 0
0 0 0 0 0 0 0 0 0.0403511465717925 0 1.91310886629949 0 0 0 0 0 0 0 0 0 0 0 0 0 0 0 -0.562858805538839 0 0 -1.41462291882251 0 -0.196417483832341 0 0 0 0 0 0 0 0 0 0 -0.211146642823903 0 -0.188161436709821 0 0 0 0 0
0 0 0 0 0.146256668760356 0 0 0 0 1.79245576113585 0.25498168227525 0 0 0 0 0 0 0 0 0 0 0 0 -1.16074952187998 -2.18391254779925 0 0 0 0 0 0 -5.97505973514476 0 0 0 0 0 0 0 0 0 0 0 0 0 0 0 0 0 0
0 0 0 0 0 0 0 0 0 0 0 0 0 0 0 0 0 0 0 0 0 0 0 0 0 0 0 0 0 -4.44136003611236 0 0 0 0 0 0 0 0 0 0 0 0 0 0 0 0 0 0 0 0
0 0.07328669134974 0 0 0 0 0 0 0 0 0 0 0 0 0.633850096156068 0.0357330293891545 0 0 0 0 0 0.219861361817495 0 0 0 0 0 0 -0.667552438044987 0 0 0 0 0 0 -0.855727824314556 0 0 0 0 0 0 0 0 0 0 0 -0.262504454400372 0 0
0 0 0 0.802586699468604 0.0634543004765979 0 0.308130278706049 0 0 0 0 0 0.104565911321391 0 0 0 0 0 0 0 0 0.459677198323567 0 0 0 0 0 0 -0.319827076963082 0 -1.46811914953925 0 0 0 0 -8.10695009225492 0 -0.583181470711328 -4.32604136278047 0 -0.0956514136116879 0 0 0 0 0 0 0 0 0
0 0 0 0 0 0 0 0 0 0 0 0 0 0.263184177026689 0.263265463286742 0 0 0.216996325775412 0 0 0 0 0 0 0 0 0 0 0 0 0 0 -1.00229294279798 0 0 -4.25803091298513 0 0 0 0 0 0 -2.89455022890283 0 -2.54156468009355 0 0 -0.774801787155486 -0.450699247250904 0
0 0 0 0 0 0 0 0.143038070354609 0 0 0 0 0 0 0 0 0 0 0 0 0.108106645190202 0 0 0 0 0 0 0 0 0 0 0 0 0 0 0 0 0 -8.09496615553996 0 0 0 0 0 0 -1.13994310461254 0 0 0 0
0 0 0.116283197724546 0 0 0 0 0 0 0 0 0 0 0 0 0 0.183515860598369 0 0 0 0 0 0 0 0 0 0 0 0 0 0 0 0 0 0 0 0 0 0 0 0 0 0 0 -0.207944756523363 0 0 0 0 0
0 0 0 0 0 0 0 0 0 0 0 0 0 0 0.554434125284391 0 0.0877215643596193 0 0 0 0 0 0 0.111231130100898 0.0660167436742443 0 0 0 0 0 0 -0.450549559728894 0 0 0 0 0 0 0 0 0 -2.07780286857613 0 0 0 0 0 -1.17056655477722 -0.704296235865012 0
0 0 0 0.257216521999153 0 0 0 0 0 0 0 0 0 0 0 0 0 0.176602467951445 0 0 0.288639976970448 0 0.826853022966067 0 0 0 0 0 0 0 0 0 0 0 0 0 0 0 0 -0.22340949325995 0 0 0 0 0 0 0 0 0 0
0.180518200129577 0 0 0 0 0 0.178556958197183 0 0 0 0.852628671778785 0.156298086999133 0 0 0 0 0 0 0 0 0 0 0 0 0.300460719233175 0 0 0 0 0 0 0 0 0 0 0 0 0 0 0 -0.333471375723086 0 0 0 0 0 -0.752224528547873 -2.77140394958762 -1.45388642633936 -0.671075323156938
0 0 0 0 0 0 0 0 0 0 0.87415914631692 0 0 0 0 0 0 0.143295923390346 0 0 0.0381795320915387 1.12979853149041 0 0 0 0 0 0 0.09757218530194 0 0 0 0 0 0 0 0 0 0 -8.1493294065554 0 -2.81693021652044 0 0 0 0 0 0 0 0
0 0.753151998594038 0 0 0 0 0 0 0 0 0 0.234782861622879 0 0 0 0 0 0 0 0.30557572372764 0 0 0 0 0 0.211211202037832 0 0 0 0 0 0 0 0 0 -0.179861275254506 0 0 0 0 0 0 0 -0.737348011287729 0 0 0 0 0 0
0 0 0 0.353159410857207 0 0 0 0 0 0 0 0 0 0 0 0 0 0 0 0 0 0 0 0 0 0 0 0 0 0 0 0 0 0 0 0 0 -0.295464563919341 0 0 0 0 0 0 0 0 0 0 0 0
0.0330513947452391 0 0 0 0 0 0 0 0 0 0 0 0 0 0 0 0 0 0 0 0 0 0 0 0 0 0 0 0 0 0 0 0 0 0 0 0 0 0 0 0 0 0 0 0 0 0 0 0 0
0 0 0.233474711384815 0 0 0 0 0.104392668239994 0 0 0 0 0 0 0 0 0 0 0 0 0 0 0 0.16811386077174 1.68398417142249 0.854544804509277 0 0 0 0 0 0 0.0337694876037752 0 0 0 0 0 0 0 0 0 0 0 0 0 0 0 0 0
0.0187613072980352 0 0 0 0 0 0 0 0 0 0 0 0 0 0 0 0 0 0 0 0 0 0 0 0 0 0 0 0 0 0 0 0 0 0 0 0 0 0 0 0 0 0 0 0 -0.16525100564786 -0.587010776222551 0 0 0
0 0 0 0 0 0 0 0 0 0 0 0 0 0 0 0 0 0 0 0 0 0 0 0 0.126999782697965 0 0 0 0 0 0 0 0 0.0608657359881743 0 0 0 0 0 0 0 0 0 0 0 0 0 0 0 0
0 0 0 0 0 0 0 0.247433631759286 0 0 0 0 0 0 0 0 0 0 0 0 0 0 0 0 0.896312907696908 0 1.55414556136431 0 0 0 0 0 0 0 0 0 0 0 0 -0.461556947998991 0 0 0 0 0 0 0 -0.373427561329934 0 0
0.113335381250054 0 0 0 0 0 0 0 0 0.0288944496135119 0 0 0.267522616216308 0 0 0 0 0 0 0 0 0 0 0 0 0 0 0 0 0.0413806113743702 0 1.61774942486306 0 0 0 0 0 0 0.0907286807319019 0 0 0 0 0 0 0 0 0 0 0
0 0 0 0 0 0 0 0 0 0 0 0 0 0 0 0 0 0 0 0 0 0 0 0 0.0184994747018077 0 0 0 0 0 0.0632419992035557 0 0 0 0 0 0 0 0 0 0 0 0 0 0 0 0 0 0 -0.375254082978379
0 0 0 0 0 0.329430568685459 0 0 0 0 0 0 0 0 0 0 0 0 0 0 0 0 0 0 0 0 0 0 0.415277992664125 0 0 0.545791669062423 0 0 0 0 0 0 0 0 0 0 0 0 0 0 0 0 0 0
0 0 0 0 0.188099667750893 0 0 0 0 0 0 0 0.155956180385221 0 0 0 0 0.221977884981632 0 0 0.0466432422275838 0 0 0 0 0.598783865096209 0 0 0 0 0 0 0 0 0 0 0 0 0 0 0 0 0 0 0 0 0 0 0 0
0 0 0 0 0 0 0 0 0 0 0 0 0 0.0911100680137333 0 0 0 0 0 0 0 0 0 0 0 0 0 0 0 0 0 0 0.14211523226259 0 0 0 0 0 0 0 0 0 0 0 -4.35175832134004 0 0 0 0 0
0 0 0 0 0 0 0 0 0 0 0 0 0 0 0 0 0 0 0 0 0.0396816645945369 0 0 0 0 0.535907154250541 0 0.0446724827430734 0 0 0 0 0 0 0 0 0 0 0 0 0 0 0 0.834544769008232 0 0 0 0 0 -0.17389445198614
0 0 0 0 0 0 0 0 0 0 0 0 0.258626943269091 0 0 0.896435197866983 0 0 0 1.12175609793927 0 0 0 0 0 0 0.21634397177057 0 0 0 0 0 0 0 0 0 0.0317207420134192 0 0 0 0 0 0 0 0 0 -0.637295927621679 0 0 0
0 0 0.0856378748911563 0 0 0 0 0 0 0 0.0661442773313959 0 0.195227194945665 0 0 0 0 0 0 0 0 0 0 0 0 0 0 0 0 0 0.153848700553744 0 0 0 0 0 0.114904603462661 0 0 0 0 0 0 0 0 0.124205259212236 0 0 0 0
0 0 0 0 0 0 0 0 0 0 0 0 0 0 0 0 0 0 0 0 0 0 0 0.0518515036429299 0 0.164243350372133 0 0 0.246658221019382 0 0.553933750128183 0 0 0 0 0 0 0 0.0739231200817685 0 0 0 0 0 0 0 0 0 0 0
0.268817097890573 0 0 0 0 0 0 0 1.16475820958872 0 0 0 0 0 0 0 0 0 0 0 0 0 0 0 0 0.0915057890294705 0 0 0.135945627867832 0 0.299326602499532 0 0 0 0 0 0 0 0 0 0 0 0 0 0 0 0 0 0 0
0.613261413361332 0 0 0 0 0 0 0 0 0 0 0 0 0 0 0 0 0 0 0 0 0 0 0 0 0 0 0 0 0 0.127399390835283 0 0 0 0 0 0 0 0 0 0.0772507723080507 0 0 0 0.0337541631866174 0 0 0 0 0
