0.101543945776006
0.845801531810184
0.44434565556092
1.44925035269261
2.30488444481358
1.07483390484346
0.965517275868349
2.01030032675916
0.630205069586278
0.50946088870151
0.925483163796764
1.34303169717879
1.89185350476128
1.16671818833641
0.201763794674951
1.51679114989477
1.98136675610677
1.62126813721659
0.235921141095376
0.214879823254315
0.232343127517943
0.618116012591367
0.556437637643695
0.515960050911462
1.36737403237977
0.408247368174335
1.02460573314976
0.706442965465688
1.01914436356339
0.269602181777065
1.63114703373339
0.44706543815289
0.61219142896065
0.991579078224618
2.10501873694473
0.301243359109041
2.03111797379958
0.280001672700673
0.513265373421699
0.781465529159333
0.714760990313353
0.377019045192829
1.37727465663631
0.324042814929152
0.812774504251991
0.497967167846785
0.563639466593966
1.59905127719229
0.72462195841795
1.07952258619375
