0.714491609437749
1.06773799988394
0.517783106263751
0.0350265618349934
0.414552578830741
0.443633290023159
0.876009626995629
0.427275498457816
0.673288364525577
0.784347346111209
0.238245422518413
0.16764563249552
0.178053265035181
2.80074491744418
0.560416806356111
0.542355051908746
0.485872178979145
0.743232496639868
0.135291436769579
1.01633964624891
1.51128367455188
1.29786305489964
4.82340768395603
0.678114644573491
0.633003124744344
0.665490326072452
0.24856214793607
0.502119259470903
1.2510533840264
0.241671790348091
1.14004173324511
3.77436183391426
0.182345008439211
0.769408458758426
2.72736877275621
0.0862821595300733
0.861911028970948
1.15142882829594
0.264666553386965
3.73415736138354
2.64733749655572
0.353225553972713
0.955880407789815
1.12465781689843
3.95694362540423
1.08030988095978
1.24034996282603
1.3571769457528
0.577108134906576
1.80790741494968
