3.49632652317232
0.968649861786191
4.00403248979769
3.54754739649783
2.93639904074104
0.101743574206572
1.4561623315125
0.113377539449149
3.61035985724337
0.418509447656809
0.45426901819239
1.5150285259635
0.589868859189194
0.239609160319164
0.235723931901089
0.105569512286181
0.0810161112701299
0.0854187200301999
0.666554383780024
0.483399128613853
0.285912537920104
0.0569260124069977
0.216715979490497
1.73915549036287
2.36491048232604
1.02919566492472
0.508678139051664
0.668787782571518
1.03283874583027
0.401078085963908
0.153594650821463
0.0973636476281295
0.178217191808043
0.821690464287392
0.429940245519841
0.192643489611008
0.720432254661548
0.126530223244994
0.369709513130133
0.388706003204515
0.913791691903111
0.863950848096188
0.18328731466831
0.624270405772452
0.730378177080668
0.453054707700067
2.07172951793893
0.754284951801933
0.262409412803306
0.657536232535117
