0 0 0 -1.18198806245758 0 0 0 0 0 0 0 0 0 0 0 -5.49857612899105 0 0 0 0 0 0 0 0 0 0 0 0 0 -0.957905733311301 0 0 0 -1.56797582694455 0 0 0 -1.45778439096056 0 0 0 0 0 0 0 0 0 0 0 0
0 0 -4.66653430616095 -1.73556407202323 0 0 0 0 0 0 0 0 0 0 -1.10003947820339 0 0 0 0 0 0 -0.59799771950769 -1.17270018910191 0 0 -0.721775271697667 0 -0.647243688621874 0 0 0 0 0 -3.29001319987197 0 0 0 0 0 -2.21540538792863 -1.02808156832827 0 0 0 0 0 0 0 -0.839888638700219 0
0 0.927064910354845 0 0 0 -2.2333399435308 0 0 0 0 0 0 0 0 0 0 -1.64000710148035 0 0 0 0 0 -1.54877387201218 0 0 0 0 0 0 -0.739625363551239 0 0 0 0 0 0 0 0 0 0 0 0 0 0 0 0 -0.188711441566258 0 0 0
0.239257991102045 0.329408648233789 0 0 0 0 0 0 0 0 0 0 0 0 0 0 0 0 0 0 0 0 0 0 0 0 0 0 0 0 0 0 0 0 0 0 0 0 0 0 0 0 0 0 0 0 0 0 0 0
0 0 0 0 0 0 0 0 0 0 -0.542010886091948 0 0 0 0 0 0 0 0 0 0 0 0 0 0 0 0 0 0 0 0 0 0 0 -0.653536166998591 0 0 0 0 0 0 0 0 0 0 0 -0.707144574454704 0 0 0
0 0 0.452274724406549 0 0 0 0 0 0 -0.829627334074943 0 0 -2.83778507581472 0 0 0 -0.314954684762548 0 0 0 0 0 0 -2.26488059003462 0 0 0 0 0 0 0 0 0 0 0 -2.75619280491783 0 0 -0.424916257697353 0 0 -0.654055370269012 0 0 0 -0.480194679599497 0 0 0 0
0 0 0 0 0 0 0 0 0 0 0 -1.10152296764139 0 0 0 0 0 -4.10682380219597 0 0 0 0 0 0 0 0 0 0 0 0 0 -4.72604330491166 -1.64876833433699 0 0 0 0 0 0 0 0 0 0 0 0 0 0 0 0 0
0 0 0 0 0 0 0 0 0 -0.806690492357717 0 0 0 0 0 0 0 0 -0.127148367189846 0 0 0 0 0 0 -0.211796299016275 0 0 0 0 0 0 0 0 0 0 -1.50338249809172 0 -2.58501046930179 0 0 0 0 -0.31478894700241 0 0 0 0 -0.472012940286755 0
0 0 0 0 0 0 0 0 0 0 0 0 0 0 0 -0.0880746712875878 -0.960894822994625 0 -6.92929509141544 0 0 0 0 0 -6.01624755875592 0 0 -0.624009840327959 0 -0.279928656783679 0 0 0 0 0 0 -0.561784106940651 -0.399652585134646 0 0 0 0 0 0 0 0 -0.18738715989633 0 0 0
0 0 0 0 0 0.165695455369286 0 0.168057499961045 0 0 0 0 0 0 0 0 0 0 0 0 0 0 0 0 0 0 0 -2.00137738107864 0 0 0 0 0 0 0 0 0 0 0 0 0 0 0 0 0 0 0 -1.75655441767035 0 0
0 0 0 0 0.118794994965277 0 0 0 0 0 0 0 0 0 0 0 0 -0.337523493464351 0 0 0 0 0 0 0 0 0 0 0 0 0 0 0 -0.301323851121642 0 0 -2.59882949987809 0 0 0 0 0 0 0 0 0 0 0 0 0
0 0 0 0 0 0 0.209737386237148 0 0 0 0 0 0 0 0 0 0 0 0 0 0 0 0 0 -0.491510411341338 0 0 -1.8404426285483 0 0 0 0 0 0 0 0 0 0 0 0 0 0 0 -0.533504318286558 0 0 0 0 0 0
0 0 0 0 0 0.539815491802144 0 0 0 0 0 0 0 0 0 0 0 -0.174586227461433 0 0 0 0 0 0 0 0 0 0 0 0 0 0 0 0 0 0 0 0 0 0 0 0 0 0 0 0 -1.65459677878929 0 -3.83550320843071 0
0 0 0 0 0 0 0 0 0 0 0 0 0 0 0 0 0 0 0 -0.231645463963981 0 0 0 0 -2.21682103235121 0 0 0 0 0 -0.983525630852581 0 -0.837371915295439 0 0 0 -2.14780255296489 0 0 0 0 -1.73191501016 0 0 -3.12710382886701 0 0 0 0 0
0 0.241688549756106 0 0 0 0 0 0 0 0 0 0 0 0 0 0 0 0 0 0 0 0 0 -3.08965186952188 0 0 0 0 0 0 0 0 0 0 0 0 0 0 0 0 -1.47647334763911 0 0 0 0 0 -0.53364728594913 0 0 0
1.04051607757491 0 0 0 0 0 0 0 0.0153186209303479 0 0 0 0 0 0 0 0 0 0 0 0 0 0 0 0 0 0 0 0 -0.155701274359104 -1.38924191083465 0 0 0 0 0 0 0 0 0 0 0 0 0 0 0 0 0 0 0
0 0 0.335266252817611 0 0 0.0596208472661531 0 0 0.186569053208406 0 0 0 0 0 0 0 0 0 0 0 0 0 0 0 -0.287779758442456 0 0 0 0 0 0 0 0 0 0 0 0 0 0 0 -2.11108266485958 0 -1.08438904086109 -0.875939833912688 0 0 -0.928477256230167 0 0 0
0 0 0 0 0 0 0.754440512249872 0 0 0 0.0713796677019632 0 0.0319494825317124 0 0 0 0 0 0 0 0 0 0 0 -1.28093481787968 0 0 0 -0.831855440661343 -0.330037463435083 0 0 0 0 0 0 0 0 0 0 0 -1.13922160113362 0 0 0 0 0 0 0 -2.09652680666848
0 0 0 0 0 0 0 0.0261077377661142 1.49914751237341 0 0 0 0 0 0 0 0 0 0 0 0 -1.05425706269671 0 -1.5884536718995 -1.11153884821045 0 0 0 0 0 -1.01033459117477 0 0 -2.22343263216964 0 0 0 0 0 0 -1.43563619577198 0 0 0 -1.06109462739277 0 0 0 0 0
0 0 0 0 0 0 0 0 0 0 0 0 0 0.0466302524596047 0 0 0 0 0 0 0 0 0 -0.580722926808229 0 0 0 0 0 0 0 0 0 0 -0.47710303740008 0 0 0 0 0 0 0 0 0 0 0 0 0 0 0
0 0 0 0 0 0 0 0 0 0 0 0 0 0 0 0 0 0 0 0 0 0 0 0 0 0 0 0 0 0 0 0 0 0 0 -1.49712423011286 0 0 0 0 0 0 -0.50765519636549 0 -1.78888690598209 0 -1.23086346785024 0 0 -2.42515792532247
0 0.130579051660921 0 0 0 0 0 0 0 0 0 0 0 0 0 0 0 0 0.214143580265796 0 0 0 0 -1.18557937052357 0 0 0 0 0 0 0 0 0 0 0 0 0 0 0 0 0 0 0 -0.721513320647438 0 -0.262864923384975 0 0 0 0
0 0.225835759724456 0.32631250960016 0 0 0 0 0 0 0 0 0 0 0 0 0 0 0 0 0 0 0 0 0 0 0 0 0 0 -6.13075313508329 0 0 -1.44943729788977 0 0 0 0 0 0 0 0 0 0 0 0 0 0 0 0 0
0 0 0 0 0 0.476222621347162 0 0 0 0 0 0 0 0 0.60201040895041 0 0 0 0.337295877803598 0.113625279790945 0 0.241487179732617 0 0 0 0 0 0 0 0 0 0 0 0 0 0 0 0 0 0 0 0 0 0 0 0 -0.372359638153092 0 0 0
0 0 0 0 0 0 0 0 1.24285275221883 0 0 0.100145669051637 0 0.416151456530359 0 0 0.0600988015817094 0.257032935185663 0.216434816889688 0 0 0 0 0 0 0 0 0 -0.659345865103858 0 -0.552748877425854 0 0 0 0 0 0 0 0 0 0 0 -4.06844784611747 0 0 0 -0.184161392776627 0 0 0
0 0.133689471764259 0 0 0 0 0 0.0399189173741257 0 0 0 0 0 0 0 0 0 0 0 0 0 0 0 0 0 0 0 0 0 0 0 0 0 -0.117778700169262 0 0 0 0 0 0 0 0 0 0 0 0 0 0 0 0
0 0 0 0 0 0 0 0 0 0 0 0 0 0 0 0 0 0 0 0 0 0 0 0 0 0 0 0 0 0 -1.32905263303723 0 0 0 0 0 0 0 0 0 0 0 0 0 0 0 0 0 0 0
0 0.124958831908975 0 0 0 0 0 0 0.123544510799834 0.382331366492785 0 0.323178262572842 0 0 0 0 0 0 0 0 0 0 0 0 0 0 0 0 0 0 0 0 0 0 0 0 0 -2.75503390614109 0 0 0 0 0 0 0 0 0 0 0 0
0 0 0 0 0 0 0 0 0 0 0 0 0 0 0 0 0 0.153891117956165 0 0 0 0 0 0 0.137166308976172 0 0 0 0 0 0 0 0 -0.334931867695105 0 0 0 0 0 0 0 0 0 0 0 0 0 0 0 0
0.185962513906272 0 0.160645139232225 0 0 0 0 0 0.0547739705766018 0 0 0 0 0 0 0.0294122611912038 0 0.0605548000351652 0 0 0 0 1.32158614794392 0 0 0 0 0 0 0 0 0 0 0 0 0 0 0 0 0 0 0 0 0 0 0 0 0 0 0
0 0 0 0 0 0 0 0 0 0 0 0 0 0.190527374132829 0 0.264165734324687 0 0 0.187168163652725 0 0 0 0 0 0.10711591601805 0 0.274627533408857 0 0 0 0 0 0 0 0 0 0 0 0 0 0 0 0 0 0 0 0 0 -3.86852720926441 0
0 0 0 0 0 0 0.892987947978711 0 0 0 0 0 0 0 0 0 0 0 0 0 0 0 0 0 0 0 0 0 0 0 0 0 0 0 0 0 0 0 0 -0.947487805040218 0 0 -0.590242321946183 0 0 0 0 0 -2.19603048697712 0
0 0 0 0 0 0 0.296401932070623 0 0 0 0 0 0 0.181076308613034 0 0 0 0 0 0 0 0 0.263426062252997 0 0 0 0 0 0 0 0 0 0 0 0 0 0 0 0 -1.92992392123948 0 0 0 0 0 0 0 -1.5782046530691 0 0
0.33938457167211 0.642607666210381 0 0 0 0 0 0 0 0 0.0624494969045802 0 0 0 0 0 0 0 0.461859655978481 0 0 0 0 0 0 0.0230562069180767 0 0 0.0679915985788994 0 0 0 0 0 0 0 0 0 -0.690585070455222 0 0 0 0 0 0 0 0 0 0 0
0 0 0 0 0.13316382727974 0 0 0 0 0 0 0 0 0 0 0 0 0 0 0.100785822117266 0 0 0 0 0 0 0 0 0 0 0 0 0 0 0 0 0 0 0 0 0 0 0 0 -0.131393659194916 0 0 0 0 -0.247336972804904
0 0 0 0 0 0.599947675397526 0 0 0 0 0 0 0 0 0 0 0 0 0 0 0.32507032641121 0 0 0 0 0 0 0 0 0 0 0 0 0 0 0 0 0 0 0 0 0 0 0 0 0 0 0 0 0
0 0 0 0 0 0 0 0.289595788787644 0.100714554759353 0 0.464783461035095 0 0 0.415764528696019 0 0 0 0 0 0 0 0 0 0 0 0 0 0 0 0 0 0 0 0 0 0 0 0 0 0 0 0 0 0 0 0 0 0 0 0
0.296988658708773 0 0 0 0 0 0 0 0.0777255928612136 0 0 0 0 0 0 0 0 0 0 0 0 0 0 0 0 0 0 0.610127664100833 0 0 0 0 0 0 0 0 0 0 0 0 0 -4.26198367778724 0 0 0 0 0 0 0 0
0 0 0 0 0 0.0802547670179475 0 0.543683184512143 0 0 0 0 0 0 0 0 0 0 0 0 0 0 0 0 0 0 0 0 0 0 0 0 0 0.130794151413377 0 0 0 0 0 0 0 0 0 0 0 0 0 0 0 0
0 0.411714214047841 0 0 0 0 0 0 0 0 0 0 0 0 0 0 0 0 0 0 0 0 0 0 0 0 0 0 0 0 0 0.204391409991074 0.435908786962779 0 0 0 0 0 0 0 0 0 0 0 0 0 0 0 0 0
0 0.202375760798251 0 0 0 0 0 0 0 0 0 0 0 0 0.283984532927394 0 0.400580802418775 0 0.293124443275009 0 0 0 0 0 0 0 0 0 0 0 0 0 0 0 0 0 0 0 0 0 0 0 0 0 0 0 0 0 0 0
0 0 0 0 0 0.129230309691852 0 0 0 0 0 0 0 0.365124839377034 0 0 0 0.235948929296306 0 0 0 0 0 0 0 0 0 0 0 0 0 0 0 0 0 0 0 0.891106185452723 0 0 0 0 0 0 0 0 0 0 0 0
0 0 0 0 0 0 0 0 0 0 0 0 0 0 0 0 0.2357657692503 0 0 0 0.102808155430074 0 0 0 0.726485305484058 0 0 0 0 0 0 0.115108480214337 0 0 0 0 0 0 0 0 0 0 0 0 0 0 0 0 0 0
0 0 0 0 0 0 0 0.0717735584642957 0 0 0 0.107533302538674 0 0 0 0 0.178869760440337 0 0 0 0 0.13800647775903 0 0 0 0 0 0 0 0 0 0 0 0 0 0 0 0 0 0 0 0 0 0 -0.188904095025188 0 0 0 0 0
0 0 0 0 0 0 0 0 0 0 0 0 0 0.660037909320758 0 0 0 0 0.196967386807664 0 0.369298464534951 0 0 0 0 0 0 0 0 0 0 0 0 0 0.0286371635143638 0 0 0 0 0 0 0 0 0.0432412763293992 0 0 -4.31783598270216 0 0 0
0 0 0 0 0 0.0901771119204796 0 0 0 0 0 0 0 0 0 0 0 0 0 0 0 0.0554426701328011 0 0 0 0 0 0 0 0 0 0 0 0 0 0 0 0 0 0 0 0 0 0 0 0 0 0 0 0
0 0 0.0355955267640418 0 0.128068622523472 0 0 0 0.0378856818635651 0 0 0 0.31674275983719 0 0.111961652489658 0 0.177908023216307 0 0 0 0.237386934991799 0 0 0.0720643020363789 0.0340046484638696 0 0 0 0 0 0 0 0 0 0 0 0 0 0 0 0 0 0 0 0.795060785095141 0 0 0 0 0
0 0 0 0 0 0 0 0 0 0.334139052409223 0 0 0 0 0 0 0 0 0 0 0 0 0 0 0 0 0 0 0 0 0 0 0.340434710837062 0 0 0 0 0 0 0 0 0 0 0 0 0 0 0 0 0
0 0.163921330158574 0 0 0 0 0 0.0999302917810724 0 0 0 0 0.783366456633739 0 0 0 0 0 0 0 0 0 0 0 0 0 0 0 0 0 0.760008228294066 0.432096404753884 0 0 0 0 0 0 0 0 0 0 0 0 0 0 0 0 0 0
0 0 0 0 0 0 0 0 0 0 0 0 0 0 0 0 0 0.397271607111536 0 0 0.476475890369527 0 0 0 0 0 0 0 0 0 0 0 0 0 0.0477129467886563 0 0 0 0 0 0 0 0 0 0 0 0 0 0 0
