0 0 0 0 0 0 -2.47634891771108 0 0 0 0 0 0 0 0 0 0 0 0 0 0 0 0 0 0 0 0 0 0 0 -0.557370278464727 0 0 0 -1.47968371868623 0 -0.567366294067034 0 0 -1.22466816916569 0 0 0 0 0 0 0 0 -0.0827971740932181 -0.595504664262992
0 0 0 0 0 0 -2.11031266699743 0 -0.19680094056103 0 0 0 0 -1.06644241298791 0 0 0 0 0 0 0 0 0 -0.397995196933548 0 0 0 0 0 0 0 0 -0.272957166603128 0 0 0 0 0 0 0 0 0 0 0 0 0 0 0 0 0
0 0 0 -0.996105863606057 0 0 0 0 0 0 0 0 0 0 0 -1.24465673565286 0 0 0 0 0 0 0 0 0 0 0 -1.62187026436625 0 0 0 0 0 0 0 -0.584750283524614 0 0 0 0 0 0 0 0 0 0 -0.822229261230947 0 0 0
0 0 0.199013097200979 0 0 0 0 0 0 -0.577125183964148 0 0 0 0 0 0 0 0 0 0 0 0 0 0 -0.953315933114625 0 0 0 0 -0.880911223934011 0 0 0 -0.68386127003471 0 0 0 0 0 0 0 0 0 0 0 0 0 0 0 0
0 0 0 0 0 0 0 0 0 0 0 0 0 0 0 0 0 0 0 0 0 -2.5213141903386 0 0 -0.296110891263624 0 0 0 0 0 0 0 0 0 0 0 0 0 0 0 0 0 -0.740695102191119 0 0 0 0 0 0 0
0 0 0 0 0 0 0 0 0 0 0 0 0 0 0 0 0 0 0 0 0 0 0 0 0 0 0 0 0 0 0 0 0 0 0 0 0 0 0 0 0 -2.62135200812843 0 0 0 0 0 0 0 0
0.486943393788011 0.422452503340477 0 0 0 0 0 0 0 0 -0.340998923875376 0 -0.706542054167223 0 0 0 0 0 0 0 0 0 0 0 -0.641698784095945 0 0 0 0 0 -1.41359525037673 0 0 0 0 0 0 0 0 0 0 0 0 0 0 0 0 0 0 0
0 0 0 0 0 0 0 0 0 0 0 0 0 -0.42006250198524 0 0 0 0 0 0 0 0 0 0 0 0 -3.07626701220696 0 0 0 0 0 0 0 0 -7.91716271812033 0 0 -1.68069544586933 0 0 0 0 0 0 0 0 0 0 0
0 0.0385975375694063 0 0 0 0 0 0 0 0 0 0 0 0 0 0 -2.73792064724309 0 -1.3008550118297 0 -0.608228271089202 0 0 0 0 0 0 0 0 0 0 0 0 0 0 0 0 0 0 0 0 0 0 0 0 0 0 0 -1.46423728467681 0
0 0 0 0.115810187230312 0 0 0 0 0 0 0 0 -1.46110899477802 0 0 0 0 0 0 0 0 -2.25122089488262 0 0 0 0 0 0 0 0 0 0 0 0 0 0 0 0 0 -1.98847170939695 0 0 0 0 0 0 0 0 0 0
0 0 0 0 0 0 0.0662057403134228 0 0 0 0 0 -1.32891895202309 0 0 0 0 0 0 0 -1.87791125127874 -3.16993063292817 0 0 0 0 0 0 0 0 -0.246752514968005 -1.71678241792565 0 0 0 0 0 0 0 0 0 0 0 0 0 0 -0.395384205178015 0 0 0
0 0 0 0 0 0 0 0 0 0 0 0 0 0 0 0 0 0 0 0 0 0 0 0 0 0 0 0 0 0 -2.64214831278157 0 -0.553414311441053 0 0 0 0 0 0 0 0 0 0 0 0 0 0 0 0 0
0 0 0 0 0 0 0.137234240039333 0 0 0.295969416068998 0.276526852005302 0 0 0 0 0 0 0 0 0 0 0 0 0 -0.0930012105741822 0 0 0 0 0 0 0 0 0 0 0 0 0 0 -0.356589661460348 0 0 -0.287432635163014 0 0 -1.44499702487746 -0.210816854805016 0 0 0
0 0.204975339997389 0 0 0 0 0 0.0833737781708981 0 0 0 0 0 0 0 0 0 0 -1.28346924063051 0 0 0 0 0 0 -1.00287435272 0 0 0 0 0 0 0 0 0 0 0 0 0 0 0 0 0 -1.33778969104332 0 0 0 0 0 0
0 0 0 0 0 0 0 0 0 0 0 0 0 0 0 0 0 0 0 -1.17017820126774 0 0 0 -1.90788689202373 0 -0.270907279366996 0 0 -1.40706837786217 0 0 0 0 0 0 0 0 0 0 0 0 0 0 0 0 0 0 0 0 0
0 0 0.227792921779195 0 0 0 0 0 0 0 0 0 0 0 0 0 0 0 0 0 0 0 0 -1.06923814116762 0 0 0 0 0 0 0 0 0 0 0 0 0 0 0 0 0 0 0 0 0 -3.29443080973296 0 0 0 0
0 0 0 0 0 0 0 0 0.548960052120894 0 0 0 0 0 0 0 0 0 0 -2.29007126089095 0 0 0 0 0 0 0 -1.09450569505177 -4.87855036662584 0 0 0 0 0 0 0 0 0 0 0 0 0 0 0 0 0 0 0 0 0
0 0 0 0 0 0 0 0 0 0 0 0 0 0 0 0 0 0 0 0 0 0 0 0 0 -0.534317837244606 0 0 0 -0.622348837750622 0 -0.931038211315292 0 0 0 0 0 0 0 0 0 0 -0.36197161911806 0 0 0 0 0 0 0
0 0 0 0 0 0 0 0 0.266678801644249 0 0 0 0 0.272631572672345 0 0 0 0 0 0 0 0 0 0 0 0 0 0 0 0 0 0 0 0 0 0 0 0 0 0 0 0 0 0 0 0 0 0 0 0
0 0 0 0 0 0 0 0 0 0 0 0 0 0 0.233686944039965 0 0.478136732031075 0 0 0 0 0 0 0 0 0 0 0 0 0 0 0 -1.22187265681432 0 0 0 0 0 0 0 0 0 0 0 0 -5.09666190817999 0 0 0 0
0 0 0 0 0 0 0 0 0.123302713589634 0 0.40408257751862 0 0 0 0 0 0 0 0 0 0 0 0 0 0 0 -0.798435366553008 0 0 -0.595199715469363 0 -0.111870543549374 0 0 0 0 0 0 0 0 0 0 -1.52076661769421 0 -1.10152266040009 0 0 0 0 0
0 0 0 0 0.51095647235665 0 0 0 0 0.428478779745496 0.623817447551722 0 0 0 0 0 0 0 0 0 0 0 0 -7.12107917181193 -0.348503218487885 0 0 0 0 0 0 -3.21985099920312 0 0 0 0 0 0 0 0 0 0 0 0 0 0 0 0 0 0
0 0 0 0 0 0 0 0 0 0 0 0 0 0 0 0 0 0 0 0 0 0 0 0 0 0 0 0 0 -0.718246287741056 0 0 0 0 0 0 0 0 0 0 0 0 0 0 0 0 0 0 0 0
0 0.0799900491175616 0 0 0 0 0 0 0 0 0 0 0 0 0.365760335920668 0.218341873401826 0 0 0 0 0 1.35627140994849 0 0 0 0 0 0 -0.784991333911424 0 0 0 0 0 0 -0.195570039740246 0 0 0 0 0 0 0 0 0 0 0 -1.75895649839616 0 0
0 0 0 0.193084859731892 0.0620459507639165 0 0.126366208678188 0 0 0 0 0 0.0195877001440134 0 0 0 0 0 0 0 0 0.0661205311513888 0 0 0 0 0 0 -0.159479587155344 0 -3.32730956010894 0 0 0 0 -0.19246257747238 0 -1.33806670086721 -0.716857797697505 0 -5.47628241839825 0 0 0 0 0 0 0 0 0
0 0 0 0 0 0 0 0 0 0 0 0 0 0.195049204250781 0.0533835359374104 0 0 0.112312929887375 0 0 0 0 0 0 0 0 0 0 0 0 0 0 -2.18553765137019 0 0 -1.48127736988074 0 0 0 0 0 0 -0.917119761174734 0 -1.36191644248496 0 0 -2.32660906996289 -1.57520905248155 0
0 0 0 0 0 0 0 0.625696330301531 0 0 0 0 0 0 0 0 0 0 0 0 0.159163648439589 0 0 0 0 0 0 0 0 0 0 0 0 0 0 0 0 0 -0.332887663559815 0 0 0 0 0 0 -0.649063080863291 0 0 0 0
0 0 0.318682999942041 0 0 0 0 0 0 0 0 0 0 0 0 0 0.220994094622802 0 0 0 0 0 0 0 0 0 0 0 0 0 0 0 0 0 0 0 0 0 0 0 0 0 0 0 -3.08474320283853 0 0 0 0 0
0 0 0 0 0 0 0 0 0 0 0 0 0 0 0.289893668112675 0 1.01371292878914 0 0 0 0 0 0 0.164149717009324 0.0317886816640569 0 0 0 0 0 0 -1.84058656715103 0 0 0 0 0 0 0 0 0 -0.541600126197435 0 0 0 0 0 -4.40412954562055 -4.18739970129865 0
0 0 0 0.17245822781405 0 0 0 0 0 0 0 0 0 0 0 0 0 0.129039073912116 0 0 0.130569544233772 0 0.146250867084407 0 0 0 0 0 0 0 0 0 0 0 0 0 0 0 0 -0.184289180633885 0 0 0 0 0 0 0 0 0 0
0.0967810388441774 0 0 0 0 0 0.292719796679332 0 0 0 0.0500106400338113 0.534101546482225 0 0 0 0 0 0 0 0 0 0 0 0 0.663748851338419 0 0 0 0 0 0 0 0 0 0 0 0 0 0 0 -2.92588596621981 0 0 0 0 0 -0.974845067941868 -5.2722520759713 -0.480966595572669 -0.35284852042824
0 0 0 0 0 0 0 0 0 0 0.337309024316691 0 0 0 0 0 0 0.185617184190216 0 0 0.0214562697497951 0.625003607821384 0 0 0 0 0 0 0.348241070627369 0 0 0 0 0 0 0 0 0 0 -0.50266302813847 0 -1.69607740101294 0 0 0 0 0 0 0 0
0 0.0544305846870767 0 0 0 0 0 0 0 0 0 0.109681448198881 0 0 0 0 0 0 0 0.250897298328892 0 0 0 0 0 0.412294928154154 0 0 0 0 0 0 0 0 0 -0.334960867365427 0 0 0 0 0 0 0 -1.23165846104696 0 0 0 0 0 0
0 0 0 0.138734972208989 0 0 0 0 0 0 0 0 0 0 0 0 0 0 0 0 0 0 0 0 0 0 0 0 0 0 0 0 0 0 0 0 0 -0.403665182585246 0 0 0 0 0 0 0 0 0 0 0 0
0.296882953832902 0 0 0 0 0 0 0 0 0 0 0 0 0 0 0 0 0 0 0 0 0 0 0 0 0 0 0 0 0 0 0 0 0 0 0 0 0 0 0 0 0 0 0 0 0 0 0 0 0
0 0 0.112645363508954 0 0 0 0 1.75303596839261 0 0 0 0 0 0 0 0 0 0 0 0 0 0 0 0.0362354992624216 0.0405833838811925 0.30513402024423 0 0 0 0 0 0 0.0640234842489356 0 0 0 0 0 0 0 0 0 0 0 0 0 0 0 0 0
0.107619911136273 0 0 0 0 0 0 0 0 0 0 0 0 0 0 0 0 0 0 0 0 0 0 0 0 0 0 0 0 0 0 0 0 0 0 0 0 0 0 0 0 0 0 0 0 -2.04567326412261 -1.00109433257014 0 0 0
0 0 0 0 0 0 0 0 0 0 0 0 0 0 0 0 0 0 0 0 0 0 0 0 0.285706830109783 0 0 0 0 0 0 0 0 0.0788942110854121 0 0 0 0 0 0 0 0 0 0 0 0 0 0 0 0
0 0 0 0 0 0 0 0.34058902968218 0 0 0 0 0 0 0 0 0 0 0 0 0 0 0 0 0.14700303402566 0 0.0704214181489255 0 0 0 0 0 0 0 0 0 0 0 0 -4.82419967606913 0 0 0 0 0 0 0 -1.7804845557614 0 0
0.249096908502791 0 0 0 0 0 0 0 0 0.403813575898198 0 0 0.0738777916123331 0 0 0 0 0 0 0 0 0 0 0 0 0 0 0 0 0.0368667687003318 0 0.0989388224788669 0 0 0 0 0 0 0.955806671312712 0 0 0 0 0 0 0 0 0 0 0
0 0 0 0 0 0 0 0 0 0 0 0 0 0 0 0 0 0 0 0 0 0 0 0 1.13128585291129 0 0 0 0 0 0.625794196894959 0 0 0 0 0 0 0 0 0 0 0 0 0 0 0 0 0 0 -0.458248812367885
0 0 0 0 0 0.511964708501506 0 0 0 0 0 0 0 0 0 0 0 0 0 0 0 0 0 0 0 0 0 0 0.11385086142928 0 0 0.335788164543543 0 0 0 0 0 0 0 0 0 0 0 0 0 0 0 0 0 0
0 0 0 0 0.142138036593856 0 0 0 0 0 0 0 0.0604458305791156 0 0 0 0 0.0783256277432107 0 0 0.304120196204847 0 0 0 0 0.18046720390559 0 0 0 0 0 0 0 0 0 0 0 0 0 0 0 0 0 0 0 0 0 0 0 0
0 0 0 0 0 0 0 0 0 0 0 0 0 0.26632869666096 0 0 0 0 0 0 0 0 0 0 0 0 0 0 0 0 0 0 0.261631324891579 0 0 0 0 0 0 0 0 0 0 0 -4.18601643352278 0 0 0 0 0
0 0 0 0 0 0 0 0 0 0 0 0 0 0 0 0 0 0 0 0 0.220903266910824 0 0 0 0 0.308834873650449 0 0.574885801818546 0 0 0 0 0 0 0 0 0 0 0 0 0 0 0 0.857060215866325 0 0 0 0 0 -0.660502688193399
0 0 0 0 0 0 0 0 0 0 0 0 0.254625660387649 0 0 0.691794590191325 0 0 0 1.0428553213609 0 0 0 0 0 0 0.129054260266034 0 0 0 0 0 0 0 0 0 0.407740242958879 0 0 0 0 0 0 0 0 0 -0.840697467694433 0 0 0
0 0 0.156032575121335 0 0 0 0 0 0 0 0.0841617727615541 0 0.0423666542263936 0 0 0 0 0 0 0 0 0 0 0 0 0 0 0 0 0 0.197766525586486 0 0 0 0 0 0.208544866578688 0 0 0 0 0 0 0 0 0.161606119735232 0 0 0 0
0 0 0 0 0 0 0 0 0 0 0 0 0 0 0 0 0 0 0 0 0 0 0 0.338480325584715 0 0.46663549231095 0 0 0.834405813346384 0 1.12328595080073 0 0 0 0 0 0 0 0.346141840838787 0 0 0 0 0 0 0 0 0 0 0
0.0167257314420993 0 0 0 0 0 0 0 0.299886277764966 0 0 0 0 0 0 0 0 0 0 0 0 0 0 0 0 0.32805982834146 0 0 0.860239639661887 0 0.100369705147348 0 0 0 0 0 0 0 0 0 0 0 0 0 0 0 0 0 0 0
0.117122441903287 0 0 0 0 0 0 0 0 0 0 0 0 0 0 0 0 0 0 0 0 0 0 0 0 0 0 0 0 0 0.0731299452844915 0 0 0 0 0 0 0 0 0 0.100309274330324 0 0 0 0.133010138144 0 0 0 0 0
