0.205832464252422
0.718021609727159
0.790277910233681
0.259700187093811
1.20214906981288
0.931664140130805
0.641336746010299
0.619055285960255
1.27030247662692
0.31090118641459
0.267475124613699
0.39587173800986
0.219471146966995
0.6868224797052
1.48569451216541
1.24338768700323
1.04690393198295
0.32367252547304
1.46573875651932
0.142861350019565
0.135276016325985
1.12377582408301
1.18244037031281
0.17096533442684
2.12244763696007
0.0447954941553725
0.284126482769588
0.987410320792089
0.264488778269508
4.00802615906201
0.553255133312724
0.114570075499364
2.16147930593883
3.58269755276808
0.449657080285215
0.666961022491977
0.437777175549425
0.44703755740685
0.429627553941861
0.536791583985737
0.454491810053443
1.85183223250143
1.44932301785039
0.111732432504369
1.08381750358782
4.66023957237628
0.0324592797048773
0.76757656879916
1.00676583339032
0.785145077777932
