0 0 0 0 0 0 0 0 -2.73924634583326 0 0 0 -0.448462232693062 0 -0.442413367812784 0 0 0 -0.115424207623761 0 0 0 0 -7.61497122256973 0 0 0 0 -4.59608789232543 0 0 0 0 0 0 0 0 0 0 0 0 0 0 0 0 0 0 0 0 0
0 0 0 0 0 0 0 0 0 0 0 0 0 0 0 0 0 0 0 0 0 0 0 0 0 0 0 0 -0.71042053875863 0 0 0 0 0 0 0 0 0 0 0 0 0 0 0 0 0 0 0 0 -4.19449020478686
0 0 0 0 0 0 0 0 0 -0.558030322703304 0 0 0 -1.07507622808489 0 0 0 0 -0.559045447825324 0 0 -0.501422899221842 0 0 0 0 0 -0.736843369106506 0 0 0 0 0 0 0 0 0 0 0 0 0 0 0 0 0 0 0 0 0 0
0 0 0 0 0 0 -0.204126675439731 0 0 0 0 0 -1.31085153431876 0 0 0 0 -2.25536632884184 0 0 0 0 -1.35364145351014 0 0 0 0 0 0 0 0 0 0 0 0 0 0 0 0 -0.229129575984392 0 0 0 0 0 0 0 0 0 0
0 0 0 0 0 0 0 0 0 0 0 -0.763822029963871 0 0 0 0 0 0 -2.53782727998273 0 0 0 0 0 0 0 0 0 0 0 0 0 0 0 0 0 0 0 0 0 -0.660707011250962 0 0 0 0 0 0 0 0 0
0 0 0 0 0 0 0 0 0 0 0 0 0 0 -0.345631475830437 0 0 0 0 0 -1.60648865161722 0 0 0 0 0 0 0 0 0 0 0 0 0 0 0 0 0 0 0 0 0 0 -2.13191478629908 0 0 0 0 0 0
0 0 0 0.0425087454558243 0 0 0 0 0 0 0 0 0 0 0 0 0 -1.98037057788739 0 0 0 0 0 0 0 0 0 0 0 0 -0.219968530541082 0 0 -5.84942768552446 0 0 0 0 0 0 0 0 0 0 0 0 0 0 0 0
0 0 0 0 0 0 0 0 -9.9699650688811 0 0 0 0 0 0 0 0 0 0 0 0 -1.39167071759763 0 0 -2.45270599533489 0 0 -1.39300536242088 0 0 0 0 0 -0.493292068842618 0 0 0 0 0 -0.99543857175119 -7.37738858863245 -0.597921583658109 0 0 0 0 0 0 -0.452999399619421 0
0.563715279992254 0 0 0 0 0 0 2.2588889365967 0 0 0 -1.16959685771575 0 0 0 0 0 0 0 0 0 0 0 -0.458241288666699 0 0 0 0 0 0 0 -0.64015248338943 0 0 -1.48712536156026 -1.39618592107369 0 0 0 0 0 0 0 0 0 -1.31576065674915 0 -4.78356081803344 0 0
0 0 0.109889461056491 0 0 0 0 0 0 0 0 0 0 0 0 0 -0.640034830055721 0 0 0 -0.564675573537271 0 -6.34713700489909 0 0 0 0 0 0 0 -4.6582759411751 0 0 0 0 0 0 0 0 0 0 -3.42530110321198 0 0 0 0 0 0 0 0
0 0 0 0 0 0 0 0 0 0 0 0 0 0 -0.530686310744156 0 0 -1.07652145299455 0 0 0 0 0 -0.261473474172815 0 0 0 0 0 0 0 0 0 0 0 0 0 0 0 0 -1.12672115341515 0 -5.69945134102396 0 0 0 0 0 0 0
0 0 0 0 0.159585483071652 0 0 0 0.234918881747207 0 0 0 0 0 0 -0.844366046724119 0 0 0 0 0 0 0 -0.814377110603282 0 0 0 -3.05170357386157 0 0 0 0 -0.696968744326753 -0.425990501755578 0 0 0 0 0 0 0 0 0 0 0 0 0 0 0 0
0.0850043875487411 0 0 0.256448610763782 0 0 0 0 0 0 0 0 0 0 0 0 0 0 -0.274306852380841 0 -0.385193737727715 0 0 0 0 0 0 0 0 0 0 0 0 0 0 0 0 0 0 0 0 0 0 0 0 0 0 0 0 0
0 0 0.221952415260757 0 0 0 0 0 0 0 0 0 0 0 0 0 0 0 0 0 0 0 0 0 0 0 0 0 0 0 0 0 0 0 0 0 0 0 0 0 0 0 0 0 0 0 0 -2.21412202835788 0 0
0.0905624956910841 0 0 0 0 0.0649798907759103 0 0 0 0 0.102144744856567 0 0 0 0 0 0 0 0 0 0 0 0 0 0 0 -0.495568779599768 0 0 0 0 -0.767701706430795 0 -1.25488049351548 -1.12476458146598 0 0 0 0 0 0 0 0 0 0 0 0 0 0 0
0 0 0 0 0 0 0 0 0 0 0 0.164464172525391 0 0 0 0 0 0 -0.675478101262058 0 0 -0.462260991049948 0 0 0 0 0 0 0 0 0 0 0 0 0 0 0 0 -2.85141420384999 0 0 0 0 0 0 -2.06563374028558 0 0 0 0
0 0 0 0 0 0 0 0 0 0.133606404737562 0 0 0 0 0 0 0 0 0 0 0 0 0 0 0 0 0 0 -1.08882990961719 0 0 0 0 0 0 0 0 0 0 0 0 0 0 0 0 0 -0.415388596184313 0 0 0
0 0 0 0.407593392583045 0 0 0.384843892076493 0 0 0 0.211705436237181 0 0 0 0 0 0 0 0 0 0 0 0 0 0 0 0 -2.86515053553603 0 0 0 0 0 0 0 0 0 -0.480832290021896 0 0 0 0 0 0 0 -0.311672988380623 0 0 0 0
0.0227483271671024 0 0.111859324127486 0 0.48717365185938 0 0 0 0 0 0 0 0.0477022054667534 0 0 0.12954113651625 0 0 0 0 0 0 0 0 -6.62200002832607 0 0 0 0 0 0 0 0 0 0 0 0 0 0 0 0 0 0 -1.04380943460755 0 -0.581094455492902 0 0 0 0
0 0 0 0 0 0 0 0 0 0 0 0 0 0 0 0 0 0 0 0 0 0 0 0 -1.73947298034978 0 0 0 0 0 0 0 0 0 0 0 0 0 0 0 -1.05140731418806 -0.168010872925825 0 0 0 -2.5023264510614 0 0 0 0
0 0 0 0 0 0.314108422401022 0 0 0 0.108731542030277 0 0 0.0758654413664981 0 0 0 0 0 0 0 0 0 0 0 0 0 0 0 0 0 0 0 0 0 0 0 0 0 0 0 -0.352369674530963 0 0 0 0 0 0 0 -1.07272307530148 0
0 0 0.0952948311632256 0 0 0 0 0.286190630038251 0 0 0 0 0 0 0 0.0894256927541391 0 0 0 0 0 0 0 0 0 0 0 0 -2.68997166385394 0 0 -3.8833720241922 0 0 0 0 0 0 0 0 0 0 0 0 0 -0.24584991240335 0 -10.5847757599398 0 0
0 0 0 0.255984854221224 0 0 0 0 0 1.36312290697669 0 0 0 0 0 0 0 0 0 0 0 0 0 0 0 0 0 0 0 0 0 0 0 0 0 0 0 0 0 0 -3.20071543427055 0 0 0 0 0 0 0 0 0
1.49312506412648 0 0 0 0 0 0 0 0.0965444647274445 0 0.0585133824425458 0.161703936080002 0 0 0 0 0 0 0 0 0 0 0 0 0 0 -0.155709422280163 0 0 0 0 0 0 0 0 0 -0.661851529914762 0 0 0 0 0 0 0 0 0 0 0 0 0
0 0 0 0 0 0 0 0.488652273142728 0 0 0 0 0 0 0 0 0 0 1.31860192212562 0.339534120195399 0 0 0 0 0 0 0 0 0 0 0 0 0 0 0 0 0 0 0 0 0 0 0 0 0 -2.47963975329353 0 0 -0.132639683921417 0
0 0 0 0 0 0 0 0 0 0 0 0 0 0 0 0 0 0 0 0 0 0 0 0 0 0 0 0 0 0 0 0 0 0 -1.06781985587862 0 0 0 0 0 -2.05477280812677 0 0 0 -1.36874937856071 0 0 0 0 0
0 0 0 0 0 0 0 0 0 0 0 0 0 0 0.0971001307052251 0 0 0 0 0 0 0 0 0.032535234882907 0 0 0 0 0 0 0 0 -2.34467901325983 0 0 0 0 0 -4.67318233147395 0 0 0 0 0 0 0 0 0 0 0
0 0 0.152421085606014 0 0 0 0 0.275343172476618 0 0 0 0.646963209591133 0 0 0 0 0 0.509831290799311 0 0 0 0 0 0 0 0 0 0 0 0 0 0 0 0 0 0 0 0 0 0 0 0 0 0 0 0 0 0 -1.69084337847912 0
0.898524106107728 0.154465958870864 0 0 0 0 0 0 0 0 0 0 0 0 0 0 0.217257032941984 0 0 0 0 0.545434236588342 0 0 0 0 0 0 0 0 0 0 -3.10010195857259 0 0 0 0 0 -3.57886524505122 0 0 0 0 0 0 0 0 0 0 0
0 0 0 0 0 0 0 0 0 0 0 0 0 0 0 0 0 0 0 0 0 0 0 0 0 0 0 0 0 0 0 0 0 0 -2.87676241835468 0 0 0 0 0 0 0 0 0 0 -1.17579113449583 -4.79771034494902 0 0 0
0 0 0 0 0 0 0.0456332894224825 0 0 1.02109025188857 0 0 0 0 0 0 0 0 0 0 0 0 0 0 0 0 0 0 0 0 0 0 0 0 0 0 0 -1.31474848325008 0 0 -0.758707814189486 0 0 0 0 0 0 0 0 0
0 0 0 0 0 0 0 0 0.130515954961627 0 0 0 0 0 0.163970034351538 0 0 0 0 0 0 0.726711726399591 0 0 0 0 0 0 0 0 0 0 0 0 0 0 0 0 0 0 -2.01627603405486 0 -1.4194623422805 0 0 0 0 0 0 0
0 0 0 0 0 0 0 0 0 0 0 0.143781973733183 0 0 0 0 0 0 0 0 0 0 0 0 0 0 0.524950757065351 0 0.619208716080022 0 0 0 0 0 0 0 0 0 0 0 0 0 0 0 -0.795594079099826 0 0 0 0 0
0 0 0 0 0 0 1.20832025927703 0.0944069833211255 0 0 0 0.085595094941283 0 0 0.263672900234168 0 0 0 0 0 0 0 0 0 0 0 0 0 0 0 0 0 0 0 0 0 0 0 0 0 -1.60644777771264 0 0 -0.711496183216593 0 0 0 0 0 -0.892752982066502
0 0 0 0 0 0 0 0 0.290122006529408 0 0 0 0 0 0.22653878548815 0 0 0 0 0 0 0 0 0 0 0.223436070520968 0 0 0 0.613075962047903 0 0 0 0 0 0 0 0 0 0 0 0 0 0 0 0 0 0 0 0
0 0 0 0 0 0 0 0 0.303221988574756 0 0 0 0 0 0 0 0 0 0 0 0 0 0 0 0 0 0 0 0 0 0 0 0 0 0 0 0 0 0 0 0 -0.249703883491019 -0.531669375353334 0 0 0 0 -1.46548746102534 0 0
0 0 0 0 0 0 0 0 0 0 0 0 0 0 0 0 0 0 0 0 0 0 0 0.128510204402711 0 0 0 0 0 0 0 0 0 0 0 0 0 -0.955938193882163 0 0 0 0 0 0 0 0 0 0 0 0
0 0 0 0 0 0 0 0 0 0 0 0 0 0 0 0 0 0.103928751724963 0 0 0 0 0 0 0 0 0 0 0 0 0.28346873316575 0 0 0 0 0 0.170605799070773 0 0 0 0 -0.586430463068858 0 0 -0.0966100919865451 0 0 0 0 0
0 0 0 0 0 0 0 0 0 0 0 0 0 0 0 0.560496846385773 0 0 0 0 0 0 0 0 0 0 0.938656837447508 0 0.732409790474703 0 0 0 0 0 0 0 0 0 0 0 0 0 0 0 0 0 -5.19728927147638 0 0 0
0 0 0 0.0457192938302045 0 0 0 0.196971064015959 0 0 0 0 0 0 0 0 0 0 0 0 0 0 0 0 0 0 0 0 0 0 0 0 0 0 0 0 0 0 0 0 0 -1.04095702683308 0 0 0 0 0 0 0 0
0 0 0 0 0.132153567670187 0 0 1.41969827469232 0 0 0.196430113552511 0 0 0 0 0 0 0 0 0.19171132996256 0.0683491734113876 0 0.642935748576963 0 0 0.405303429870101 0 0 0 0 0.167863740202787 0.411459146395309 0 0.335684571210629 0 0 0 0 0 0 0 0 0 0 0 0 0 0 0 0
0 0 0 0 0 0 0 0.127598969449913 0 0.698694060044952 0 0 0 0 0 0 0 0 0 0.0332943716687729 0 0 0 0 0 0 0 0 0 0 0 0 0 0 0 0.0459379297716954 0 0.116392781796045 0 0.204665095863951 0 0 -0.45372857088836 0 0 0 0 0 -1.47779396719819 0
0 0 0 0 0 0 0 0 0 0 1.1136909017539 0 0 0 0 0 0 0 0 0 0 0 0 0 0 0 0 0 0 0 0 0.263557815933743 0 0 0 0.108028711965349 0 0 0 0 0 0.0959929264530527 0 -0.0497622351308662 0 0 0 -0.796220378612577 0 0
0 0 0 0 0 0.400516032389882 0 0 0 0 0 0 0 0 0 0 0 0 0.199752374642706 0 0 0 0 0 0 0 0 0 0 0 0 0 0 0.140749031907912 0 0 0 0 0 0 0 0 0.0104062666151933 0 0 0 0 0 0 0
0 0 0 0 0 0 0 0 0 0 0 0 0 0 0 0 0 0 0 0 0 0 0 0 0 0.269880033589616 0 0 0 0 0 0 0.15946155963256 0 0 0 0 0.0200656931384663 0 0 0 0 0 0 0 0 0 0 0 0
0 0 0 0 0 0 0 0 0.26790044649238 0 0 0 0 0 0 0.445912631726123 0 0.063669929735135 0.123427860626056 0.547477529302543 0 0.0509723554923838 0 0 0.488875505305652 0 0 0 0 0.236157936004568 0 0 0 0 0 0 0 0 0 0 0 0 0 0 0 0 0 0 0 0
0 0 0 0 0 0 0 0 0 0 0 0 0 0 0 0 0.0854118422240323 0 0 0 0 0 0 0 0 0 0 0 0 0.933209404283639 0 0 0 0 0 0 0 0 1.08664811004678 0 0 0 0 0 0 0 0 0 0 0
0 0 0 0 0 0 0 0 0.94648733418998 0 0 0 0 0.44004814587698 0 0 0 0 0 0 0 1.9814965594929 0 0 0 0 0 0 0 0 0 0 0 0 0 0.302995475180119 0 0 0 0 0 0 0.163980733639878 0 0 0 0 0 0 0
0 0 0 0 0 0 0 0.0887183247090662 0 0 0 0 0 0 0 0 0 0 0 0 0.205413246124985 0 0 0 0.0236618864952643 0 0 0.323672338800321 0 0 0 0 0 0 0 0 0 0 0 0 0 0.280437789117551 0 0 0 0 0 0 0 0
0 0.926903332891936 0 0 0 0 0 0 0 0 0 0 0 0 0 0 0 0 0 0 0 0 0 0 0 0 0 0 0 0 0 0 0 0.189037249044569 0 0 0 0 0 0 0 0 0 0 0 0 0 0 0 0
