0.642658648282775
0.370571974724449
0.175196634511807
0.268400085696878
0.567507825179257
0.315332387114984
2.62578911601119
0.502293491659264
0.207300735560892
2.81813272802136
2.15062806782579
1.17056715768526
3.54863091959723
2.24710826606218
0.463232873238944
0.273698830657068
0.472043188089579
0.661924112624764
0.0449410099296005
1.07769743621463
0.0975943302478688
3.17634121959895
2.4085492442049
1.45034244115998
0.606931522098533
0.0122448118267869
1.88142287061342
2.72759665189387
1.53910035839113
1.49044110877961
0.385829377231008
0.717493208484385
0.168785547184069
0.293789716558459
0.181880453788357
0.105707698524321
0.797476726039426
0.855874117344739
0.585804521363305
0.775334140639186
0.771173448182528
0.567054213259758
2.84686620754146
0.30143532884841
0.250106242840309
1.9001054999327
0.0877483108675302
0.830217313692519
2.59706653569647
1.30423618103422
