0.776076547984311
2.00275871795234
0.26042882339669
0.715385907196445
3.32540956574228
2.03022794465101
1.9236722890686
0.797789496913967
0.669669685471407
1.09619724225261
2.92142767955992
1.12454791938523
0.769349837898217
0.610291558694642
0.907573913844895
0.576140790016532
0.266078197223295
0.481267280558167
1.30389917733269
1.08313368529073
0.907577186241896
0.167578010010151
1.59429629353927
0.353324608296622
0.73077567176025
0.578502158307559
2.41520443258125
1.2014138422692
0.580501687838456
0.450116603081333
0.107707841206246
0.496655010523625
2.06905244354212
0.466208586281532
0.849761904502251
0.962596538025948
1.41572273844987
3.91489428136236
1.29024755288405
0.676425127347846
0.543855276230291
0.599185781331087
0.209011726260246
1.54106038445843
1.25636982118779
0.808276839347686
0.128295048880419
1.02518447401637
1.2231024907583
1.25482359470778
