0.0691710543635977
0.735754927541557
1.04385101304454
0.129947104767924
0.847786976309225
0.797761709530237
0.193548056478429
0.778077862109278
0.0393837134809136
0.354180447247169
0.295935266155734
0.349270741975034
0.127276184652079
0.718306815397575
0.406648916894252
0.320235855276309
0.136137454397287
0.343682172292146
0.0693193086918163
1.00099928945137
0.282905652450078
0.607425722526812
0.209348357883891
0.180963974590644
0.139395903612895
0.940951669556485
0.962469401176476
0.691939014343537
0.674291001917341
0.654971664421525
0.524536267087543
0.430292208079854
1.09057194989719
0.0547912024357323
1.23252644206875
1.59477132494872
0.226067542219513
0.115654356920604
0.259292841623909
0.170858109223659
0.493691867566147
0.0367990675612764
1.67628467463942
0.137310962151672
0.21781343057341
0.33717569749224
1.1730572504941
0.20463415810375
0.518411463432678
1.59477761893112
