0 0 0 0 0 0 0 0 0 0 0 0 0 0 0 0 0 0 -0.315179132124032 0 -1.54817147031484 0 0 0 0 0 0 0 0 0 0 0 0 -0.676388175870863 0 0 0 0 0 0 0 0 0 0 0 0 0 0 0 -0.427641263788835
0 0 0 0 0 0 0 0 0 0 0 -1.10721824536929 -0.101071198243271 0 0 0 0 0 0 0 0 0 0 0 0 0 0 0 0 0 0 0 0 0 0 0 0 0 0 0 0 -0.678449379115381 0 0 0 0 0 0 -0.35058413049969 0
0 0 0 0 0 0 0 0 0 0 0 0 0 0 0 0 0 0 0 0 0 0 0 0 -0.965981575638727 0 -0.621166209277478 0 -1.13716234909537 0 0 0 0 0 0 0 0 0 0 0 0 0 0 -3.74497404636114 0 -0.946374892191847 0 0 0 -3.07544271053108
0 0 0 0 0 0 0 0 0 0 0 0 0 0 0 0 0 0 0 0 0 0 0 0 0 0 0 0 0 0 0 0 0 0 0 0 0 0 0 0 0 0 0 0 0 0 0 -0.584973572592233 0 0
0 0 0 0 0 0 0 0 0 0 0 0 0 0 0 -2.98131041926669 0 0 0 0 0 0 0 0 0 0 0 0 0 0 0 0 0 0 0 0 0 0 0 0 0 0 0 0 0 0 0 0 0 0
0 0 0 0 0 0 0 -1.01770676006421 0 0 0 0 0 0 0 0 0 0 0 0 0 0 -1.34189993695865 -2.89070503794465 0 -0.953281116411917 0 0 0 0 0 -1.1002261052009 -7.18174278321071 0 0 0 0 -1.7930098988669 0 0 0 0 0 0 0 0 0 0 -1.14273252039945 0
0 0 0 0 0 0 0 0 0 0 0 0 0 0 0 0 0 0 0 0 0 0 -0.758343279911382 0 0 0 0 0 0 0 0 0 0 0 0 0 0 0 0 0 0 0 0 0 -1.20684859665602 0 0 0 0 0
0 0 0 0 0 0.201715978116892 0 0 0 0 0 0 0 0 0 0 0 0 0 0 0 0 -2.81605280845146 0 0 0 0 -0.652530063703167 0 0 0 -0.245119109589906 -0.312428721393942 0 0 -3.40334460931376 0 0 0 0 0 0 0 0 0 0 -0.554614959598939 -0.334257900788813 0 0
0 0 0 0 0 0 0 0 0 0 0 0 -0.272011763159227 0 0 0 0 0 0 0 -1.79954036485469 0 0 0 0 0 0 0 0 0 0 0 0 0 0 -5.18170204414034 0 0 0 0 0 0 0 0 0 0 0 0 0 0
0 0 0 0 0 0 0 0 0 0 0 0 0 0 0 0 0 0 0 0 0 0 0 0 0 0 0 0 0 0 0 -0.605960329094349 0 0 0 0 0 0 0 0 -0.100642914073932 0 0 0 0 0 0 0 0 -0.300351830680969
0 0 0 0 0 0 0 0 0 0 0 0 0 0 0 0 0 0 0 0 -2.84655493641087 0 0 0 0 0 0 -7.83892327626199 -0.625418683085943 -1.21100244270777 0 0 -1.45917999653529 0 0 0 0 0 0 0 0 0 0 0 0 0 0 0 0 0
0 0.232936881984739 0 0 0 0 0 0 0 0 0 0 0 0 -2.74290559868756 0 0 0 0 0 0 0 0 0 0 0 0 0 0 0 0 0 0 0 0 0 0 -3.80978015324966 0 0 0 0 0 0 0 0 0 0 -0.370075909260373 -1.26538589283918
0 0.0213745687651707 0 0 0 0 0 0 0.0561545478045503 0 0 0 0 0 0 0 0 -1.20102541939086 0 0 0 0 0 0 0 -0.83074143043281 0 0 0 0 0 0 0 0 0 0 0 0 0 0 0 0 0 0 -5.79394495074243 0 0 0 0 0
0 0 0 0 0 0 0 0 0 0 0 0 0 0 0 0 0 0 -6.37155702761089 0 -0.736202268918532 0 0 0 0 0 0 -1.13825790901123 0 0 0 -3.26698608241242 0 0 0 0 0 0 0 0 0 0 0 0 0 0 0 0 0 0
0 0 0 0 0 0 0 0 0 0 0 0.564244745705161 0 0 0 0 0 0 0 0 0 0 -1.90641998275123 0 0 -0.64909380397179 0 0 0 0 0 0 0 0 -0.672090770041235 0 0 -1.87772411656087 0 0 0 0 -1.27758638307163 -1.00893624242824 0 -0.278856120226985 0 0 0 0
0 0 0 0 0.557821298315848 0 0 0 0 0 0 0 0 0 0 0 0 0 0 0 0 0 0 0 0 0 0 -1.3472833266196 0 0 -0.676243289982724 0 0 -3.55991303426095 0 0 0 0 0 0 0 0 0 0 0 0 0 0 0 -2.50159722133122
0 0 0 0 0 0 0 0 0 0 0 0 0 0 0 0 0 0 0 0 -0.868845583234264 0 0 0 0 0 0 0 0 0 0 0 0 0 0 0 0 0 0 0 -1.3949508844542 0 0 -1.97699987252216 0 0 0 0 0 0
0 0 0 0 0 0 0 0 0 0 0 0 0.232860801213611 0 0 0 0 0 0 0 -0.363401164005429 0 0 0 0 -0.293823458002786 0 0 0 0 0 -0.784128748754562 0 0 0 0 0 0 0 0 0 0 0 0 0 0 0 0 0 -1.29054178446234
0.0634371695099891 0 0 0 0 0 0 0 0 0 0 0 0 1.34835381311883 0 0 0 0 0 0 0 0 0 0 0 0 0 0 0 0 0 0 0 0 0 0 0 0 0 0 0 0 0 0 0 0 0 0 0 0
0 0 0 0 0 0 0 0 0 0 0 0 0 0 0 0 0 0 0 0 0 0 0 0 0 0 0 -0.332916137552379 0 0 0 0 0 0 0 -0.777639958103713 0 0 0 0 0 0 0 0 -0.664260737236535 0 0 0 0 0
0.314276062648389 0 0 0 0 0 0 0 0.353794644333932 0 0.553062806520318 0 0 0.15633689592969 0 0 0.17070249423292 0.0670506541682779 0 0 0 0 0 0 0 0 0 0 0 0 0 0 0 0 0 0 0 0 0 0 0 0 0 -2.9794788745539 0 0 0 0 0 0
0 0 0 0 0 0 0 0 0 0 0 0 0 0 0 0 0 0 0 0 0 0 0 0 0 0 0 0 0 0 -0.227383009872222 0 0 0 0 0 0 0 0 0 0 0 0 0 0 0 0 0 0 0
0 0 0 0 0 0.260314771194194 0.165657696882663 0.576969889688531 0 0 0 0 0 0 0.391150864455835 0 0 0 0 0 0 0 0 0 0 0 -1.04329709286826 0 0 0 0 -1.13658001219262 0 0 0 -0.598333196191823 0 0 0 0 0 0 0 0 0 0 -0.435309068269735 0 0 0
0 0 0 0 0 0.578947442377695 0 0 0 0 0 0 0 0 0 0 0 0 0 0 0 0 0 0 0 0 0 0 0 0 0 0 0 -0.671084446065555 0 0 0 0 0 0 -0.299842913121573 0 -0.330087423094165 0 0 -0.0701414530352506 0 0 -1.33825147192754 -8.56122551639755
0 0 0.190786107832107 0 0 0 0 0 0 0 0 0 0 0 0 0 0 0 0 0 0 0 0 0 0 0 -2.01273100187975 0 0 0 0 0 -2.29246944003606 0 0 0 0 0 0 -1.91050894385168 0 0 0 0 0 0 0 0 0 0
0 0 0 0 0 0.195803800868531 0 0 0 0 0 0 0.154779164740619 0 0.119101704020447 0 0 0.0582309404777352 0 0 0 0 0 0 0 0 0 0 -0.384266577228493 0 0 0 0 0 0 0 0 0 0 0 -2.43990744724351 0 0 0 0 0 0 0 -4.81534838882411 -1.27570278041885
0 0 0.124405305934257 0 0 0 0 0 0 0 0 0 0 0 0 0 0 0 0 0 0 0 0.217151389130598 0 0.383699100379425 0 0 0 0 -0.553482269653953 0 -0.392691037708266 0 0 -4.21383397988376 0 0 0 0 0 0 0 -0.981239193936988 0 -1.37886268416471 0 0 0 0 0
0 0 0 0 0 0 0 0.126635995042347 0 0 1.67414900849702 0 0 0.200642819608577 0 0.27459355430471 0 0 0 0.0687756807398963 0 0 0 0 0 0 0 0 0 0 0 -0.288438122009332 0 0 0 0 0 0 0 -0.378649697342626 0 0 0 0 0 0 0 0 0 0
0 0 0.215850749620809 0 0 0 0 0 0 0 0.121080747499902 0 0 0 0 0 0 0 0 0 0 0 0 0 0 0.0805094420187651 0 0 0 -0.403017118469604 0 -2.41181238894215 -0.928546674834148 -3.70833344934334 0 0 0 -0.531626049008611 0 0 0 0 0 0 -7.71552097486459 0 0 0 -1.02146739202433 0
0 0 0 0 0 0 0 0 0 0 0.249276663929769 0 0 0 0 0 0 0 0 0 0 0 0 0 0 0 0.111636458626166 0 0.0865961765750582 0 0 0 0 0 0 0 0 0 0 0 -3.5618535159914 0 0 0 0 0 0 0 0 0
0 0 0 0 0 0 0 0 0 0 0 0 0 0 0 0.143205775925529 0 0 0 0 0 0.0472911494351057 0 0 0 0 0 0 0 0 0 0 -1.08828401941704 0 0 -0.579004786769863 0 0 0 0 0 -0.500540796671485 0 0 0 0 0 0 0 -2.19053457598627
0 0 0 0 0 0.21727532687776 0 0.0518921116597955 0 0.114034826619818 0 0 0 0.639203747504932 0 0 0 0.168379949454739 0 0 0 0 0.223450185532387 0 0 0 0.0762649959885717 0.0606503722643821 0.472078350159837 0 0 0 -0.253013434017514 0 0 0 0 0 0 0 -1.13599421655253 0 0 0 0 0 0 0 0 0
0 0 0 0 0 1.49217972065176 0 0.063918034257208 0 0 0.278263149188601 0 0 0 0 0 0 0 0 0 0 0 0 0 0.451638453244259 0 0 0 0.185837603555758 0 0.214694580394317 0.0529312313810148 0 0 0 0 0 0 0 0 0 0 0 0 0 0 0 0 0 0
0.143459313922719 0 0 0 0 0 0 0 0 0 0 0 0 0 0 0.684902324408006 0 0 0 0 0 0 0 0.135338366966021 0 0 0 0 0.755209299880707 0 0 0 0 0 -0.50933216750521 0 0 0 0 0 -0.147199027456033 0 0 0 0 0 0 -0.517948227521482 0 0
0 0 0 0 0 0 0 0 0 0 0 0 0 0 0.134091896579037 0 0 0 0 0 0 0 0 0 0 0 0.912293769740466 0 0 0 0 0 0 0.108813187904025 0 -7.4823447773589 0 0 0 -0.624643177453167 0 0 0 0 0 0 0 0 0 0
0 0 0 0 0 0 0 0.658178508285436 1.02687057429199 0 0 0 0 0 0 0 0 0 0 0.147315796253404 0 0 0.112029975835891 0 0 0 0 0 0 0 0.116792535703766 0 0 0 1.52923033619226 0 0 0 -1.84816697213954 0 0 0 0 0 0 0 0 0 0 0
0 0 0 0 0 0 0 0 0 0 0 0 0 0 0 0 0 0 0 0 0 0 0 0 0 0 0 0 0 0 0 0 0 0 0 0 0 0 0 0 0 0 0 0 0 0 0 -0.443363971832701 0 0
0 0 0 0 0 0.340312032110935 0 0 0 0 0 0.784172786956037 0 0 0.391986766174615 0 0 0 0 0 0 0 0 0 0 0 0 0 0.105665832914872 0 0 0 0 0 0 0 0 0 0 0 0 0 0 -1.26272835489363 0 -1.20564827486633 -0.709767528320351 0 -1.94878556342989 0
0 0 0 0 0 0 0 0 0 0 0 0 0 0 0 0 0 0 0 0 0 0 0 0 0 0 0 0 0 0 0 0 0 0 0 0.37282284769133 0 0 0 0 0 0 0 0 0 0 0 0 0 0
0 0 0 0 0 0 0 0 0 0 0 0 0 0 0 0 0 0 0 0 0 0 0 0 0.367551592586358 0 0 0.0703771561501671 0 0 0 0 0 0 0.116245530413004 0 0 0 0 0 0 0 0 0 -0.478670923028867 0 -2.87826007453496 0 0 0
0 0 0 0 0 0 0 0 0 0.0199798933816205 0 0 0 0 0 0 0.263355441799879 0 0 0 0 0 0 0.0620363998855357 0 0.506321677510509 0 0 0 0.672543017220611 0 0.220262931146204 0 0.0255399309804698 0 0 0 0 0 0 0 0 0 0 0 0 0 0 0 0
0 0.13464154088859 0 0 0 0 0 0 0 0 0 0 0 0 0 0 0 0 0 0 0 0 0 0 0 0 0 0 0 0 0.0978578575369599 0 0 0 0 0 0 0 0 0 0 0 0 0 0 0 0 0 0 -0.16227258681117
0 0 0 0 0 0 0 0 0 0 0 0 0 0 0.256431541867455 0 0 0 0 0 0 0 0 0.0663425053610156 0 0 0.186609280445252 0 0 0 0 0 0 0 0 0 0 0 0 0 0 0 0 0 0 0 0 -1.76701391536784 0 0
0 0 0.744227644787489 0 0 0 0 0 0 0 0 0 0 0 0.191397227394962 0 0.400214920655131 0 0 0 0.615304578508321 0 0 0 0 0 0 0 0 0 0 0 0 0 0 0 0 0.25735165844618 0 0 0 0 0 0 -2.75659889182681 0 0 0 0 0
0 0 0 0 0 0 0.231805406027539 0 0 0 0 0 1.1761031963279 0 0 0 0 0 0 0.137886755771042 0 0 0 0 0 0 0.257083705161636 0 1.65740536120502 0 0 0 0 0 0 0 0 0 0 0.0951555640820842 0 0 0 0.528876362699662 0 0 0 0 0 0
0 0 0.177424133224936 0 0 0 0 0 0 0 0 0 0 0 0.0547364391790492 0 0 0 0 0 0 0 0 0.0127313214535701 0 0 0 0 0 0 0 0 0 0 0 0 0 0.220224395882795 0 0 0 0 0 0 0 0 0 0 -3.30810117667192 0
0 0 0 0 0 0 0 0.10894575886564 0 0 0 0 0 0 0 0 0 0 0 0 0 0 0.08560499012099 0 0 0 0 0 0 0 0 0 0 0 0 0 0 0.146716412548116 0 0.533084000130799 0 0 0 0 0 0 0 0 0 -0.549815705639267
0 0 0 0.117187462755637 0 0 0 0.0687001380770421 0 0 0 0 0 0 0 0 0 0 0 0 0 0 0 0 0 0 0 0 0 0 0 0 0 0.104849231328297 0 0 0.0921774230492189 0 0 0 0 0 0.360602626055421 0 0 0 0 0 0 0
0 0.0711571141038922 0 0 0 0.221101825395379 0 0 0 0 0 0.0738210611542761 0 0 0 0 0 0 0 0 0 0 0 0.27114104695858 0 0.993128590495967 0 0 0.216052050855149 0 0 0 0 0 0 0 0 0.371347422837877 0 0 0 0 0 0 0 0.690881898000783 0 0 0 0
0.0816713845202418 0 0.578259211071673 0 0 0 0 0 0 0.061038404728989 0 0.252471204539635 0 0 0 0.505681119626585 0 0.26197448652811 0 0 0 0 0 1.82704821971328 0 0.2540870145203 0 0 0 0 0.464008430494348 0 0 0 0 0 0 0 0 0 0 0.0311940188394728 0 0 0 0 0.107684275952019 0 0 0
