0.88194860775606
0.613783439472108
1.76425658424284
0.169129948424146
0.802364527870583
0.761298815041944
0.323979067839609
0.284042670591968
1.53892916387281
1.16173149028679
0.575464551665473
2.49087597925002
1.82631515171194
1.1430050432495
0.924209172080141
0.137181754647876
0.279689077572459
0.247729031415086
0.859279094633833
2.38323493255404
0.283619009039313
2.49215622169368
0.224727251123078
0.602970388473215
2.41439333988326
1.50465353055955
1.12040024423785
0.478515424917201
2.95561503365212
1.74541825796198
3.32868617815405
2.10296736776116
0.0599137536580902
0.190326769086764
0.68928209823258
0.510507767565341
1.0686832211178
2.36664126322297
1.6347260722372
0.854064810523349
1.13641552925249
1.70822784012992
1.32516473137391
1.09412107658218
0.252536924763898
0.221236518007061
1.63093575511671
1.18035983971197
1.47073248669778
1.64872588401777
