0.17916629339192
0.27362097255987
1.40989321939567
0.253853606065974
0.563038746150833
1.06869326713622
3.69257331080814
1.6955136011485
0.171145691299675
0.26483684009946
0.0533464749381832
2.19442703553564
0.735903406665089
1.05724450797698
0.162867184596611
0.582165481090433
0.743304595313482
0.101843921476932
0.171098011531467
0.182327684536383
0.959021605815461
1.41887948570853
0.0689967575238394
0.467724969528658
0.856459319095851
0.530584729968306
1.69948412560457
0.555096940699776
0.367059596839933
0.7686130234497
3.20199882264497
4.42324593738847
0.35275097223259
0.495571799309822
1.70760738859309
0.0822776924570101
0.0562500842880543
0.493844781260118
0.125754161642301
0.573297139742783
0.910968056945554
0.267649415216894
1.02006288809749
0.131367712659045
0.318689896487354
0.258469478743139
0.176446651297081
0.0731128248143764
0.109675533428163
0.197673682512325
