1.0933541291596
0.0496962018343412
0.327744399015301
0.206493621604566
0.197455186748708
0.966030881797004
1.14222910886982
1.18474004300298
0.0622774437631709
1.03989523354052
0.112130421963528
0.409527931810209
1.14121753242348
0.518810625461904
1.1284559526884
1.17235227477236
1.33728551733193
1.12204224722546
2.48636542099842
0.703386265053067
0.383295588043028
0.105034622973924
0.42113631738465
0.0106516219958715
2.79710950354971
0.629643072648277
0.461418411708316
0.306404469714491
0.310154870285583
0.120742067353968
0.147297685863363
0.26030254351153
0.520599693519742
0.168832802244983
1.8322594738088
1.04937290751376
1.12375480867286
0.645889442959414
0.252780197810241
1.60962706077892
0.0974223202270982
1.88686197296416
0.237902319118722
0.103345863396739
0.0388283253987783
0.0438112649310046
1.17292331845143
2.49888731168777
0.869687359206193
0.116209987518937
