0.518920301302129
0.845807213951624
0.393992487811007
0.679355198998632
0.81224194800571
0.42643903273074
0.384379181475001
0.624628835157091
0.713644229214264
0.508825008195746
0.839107855546861
1.10822183035397
1.13750607252051
0.551199233075587
0.529382649505281
0.680570947330957
0.0962858361543001
0.539865867869527
0.312100855896494
0.607180831854852
0.0974959375517424
0.383375250120342
1.4741380240309
0.602910609755253
1.22243046102806
0.273913896660782
1.39575521850485
0.08652042994459
0.265772622186968
0.322534102454759
0.468083008337985
0.64036983257374
0.534103368196956
0.903585751249908
0.617362781344764
0.533158841547565
0.682661729622728
0.685533702510576
0.276348209547296
0.314221074048506
1.74029453936347
0.750258617946322
0.0420916667909903
1.41813025137696
0.631563365163108
0.140331203528332
0.201880393071241
0.129371995675032
0.102261188845841
0.568469054510936
