0 0 0 0 0 0 0 0 0 0 0 0 -0.448887612759658 -1.63864106995386 0 0 0 0 0 0 0 0 0 0 -5.21470333686767 0 0 0 0 -4.66381391259306 0 0 0 -4.19726378976306 0 0 0 0 0 0 0 0 -0.259280376376381 0 0 0 0 0 0 0
0 0 0 0 0 0 0 0 0 0 0 0 0 0 -1.44526669324881 -0.317163234055958 0 0 0 0 -3.51509569727416 0 0 0 0 0 0 0 0 0 0 0 0 0 0 0 0 0 0 0 -0.515273769021568 0 0 0 0 0 0 0 0 0
0 0 0 0 0 0 0 0 0 0 0 0 0 0 -1.23845942048899 0 0 0 0 0 0 -0.448537524480653 -0.667889936939323 0 0 0 0 0 0 0 0 0 0 0 0 0 0 0 0 0 0 -0.366156484800654 -1.13007289620147 0 0 0 0 0 0 0
0 0 0 0 0 0 0 0 0 -1.11597925282947 0 0 0 0 0 0 0 -2.32110448620419 0 -2.18713477103299 -0.782347067028307 0 0 0 0 0 0 0 0 0 -1.47108928933415 0 0 0 0 0 0 0 0 0 0 0 0 0 0 0 -2.56020567254304 0 0 0
0 0 0 0 0 0 0 0 0 0 0 -2.00623694340087 0 0 0 0 0 0 -0.54459134741511 0 0 0 0 0 0 0 0 0 0 -3.24946284603668 0 0 0 0 0 0 0 0 0 0 0 0 0 0 0 0 0 0 0 0
0 0 0 0 0 0 -0.559970733923128 0 0 -0.97321927463938 0 0 0 0 0 0 0 0 0 0 0 0 -0.860581710646927 0 0 0 0 0 0 0 0 0 0 0 -0.263837520885366 0 0 0 0 0 0 0 0 0 0 0 0 0 0 0
0 0 0 0 0 0.115216055565367 0 0 0 0 0 0 0 0 0 0 0 0 0 0 0 0 0 0 0 0 0 0 0 0 0 0 0 0 0 0 0 0 0 0 0 0 -0.739230254038732 0 0 0 0 0 0 0
0 0 0 0 0 0 0 0 0 0 0 0 0 0 0 0 0 0 0 -0.242044791568377 0 -0.936005728604574 0 0 0 0 0 0 0 0 0 0 0 0 0 0 0 0 0 -1.2707154292266 0 0 0 0 0 0 0 0 -0.337889782642943 0
0 0 0 0 0 0 0 0 0 0 0 0 0 0 0 -0.419992035395163 0 0 0 0 0 -0.589147533927089 0 0 -2.42838162786233 0 0 0 0 0 0 0 0 0 0 0 0 0 0 0 0 0 0 0 0 0 0 0 -1.93199336594605 -1.43420294718335
0 0 0 0.2250430270443 0 0.194507452371808 0 0 0 0 0 0 0 0 0 0 0 0 0 0 0 0 0 0 0 0 0 0 0 0 0 0 0 0 0 0 0 -0.587949349445977 0 0 0 0 0 0 0 0 0 0 -1.93170646400731 0
0 0 0 0 0 0 0 0 0 0 0 0 0 0 -1.58786761430285 0 -0.0737759129550966 0 0 0 0 0 0 0 0 0 0 0 0 0 0 0 0 0 0 -0.705601509388386 0 0 -1.83249005413046 0 0 0 0 0 -1.41739920703039 -1.9970515808952 0 -3.02989457850112 -0.558554436610021 -3.64384925972113
0 0 0 0 0.408920035115978 0 0 0 0 0 0 0 0 0 -0.331264348761559 0 0 0 0 0 0 0 0 0 0 0 0 0 0 0 -1.4783665326516 0 0 0 0 0 0 0 0 0 0 0 0 0 -1.2221785618012 0 0 0 0 0
0.091510034232008 0 0 0 0 0 0 0 0 0 0 0 0 -5.07392479600173 0 0 0 -0.55861062765033 -0.639990648464742 0 0 0 0 -0.437555277804109 0 0 0 0 0 0 0 0 0 0 -1.50037900703803 0 0 0 0 0 0 -2.93819020204985 0 0 0 0 0 0 0 0
0.300660122487616 0 0 0 0 0 0 0 0 0 0 0 1.01883653633644 0 0 0 0 0 0 0 0 0 0 0 0 0 0 0 0 0 0 -0.651725256472731 0 0 0 0 0 0 0 -2.18201377038586 0 0 0 -0.36668094261294 0 0 0 0 0 0
0 0.281216905810749 0.240521722076718 0 0 0 0 0 0 0 0.345313521781301 0.0703391845917664 0 0 0 0 0 0 0 -0.923066712420255 0 0 0 0 0 0 0 0 0 0 0 -0.563867531704937 0 0 -0.957370940905855 0 0 0 -1.1232555974948 0 0 0 0 0 0 0 0 0 0 0
0 0.0629051475075931 0 0 0 0 0 0 0.0867209152019409 0 0 0 0 0 0 0 0 0 0 0 0 0 0 0 0 0 0 0 0 0 0 -0.350554603139688 -0.377043362018275 0 0 0 0 0 -2.26988564407123 0 0 0 0 0 0 0 0 0 0 0
0 0 0 0 0 0 0 0 0 0 0.0149908055124209 0 0 0 0 0 0 -0.621210493215652 0 0 0 0 -0.932959025778168 0 0 0 0 0 0 0 0 0 0 -0.299672006620617 0 0 0 0 0 0 0 0 0 0 0 0 0 0 0 0
0 0 0 0.480149330313885 0 0 0 0 0 0 0 0 0.109441077513564 0 0 0 0.118941739946103 0 0 0 0 0 0 0 0 0 0 0 0 0 0 0 0 0 0 0 0 0 0 0 0 0 0 0 -0.238048495219857 -0.849291759744001 0 0 0 0
0 0 0 0 0.106755540690471 0 0 0 0 0 0 0 0.125561729639495 0 0 0 0 0 0 -0.735666216770253 0 0 0 0 0 0 0 0 0 0 0 0 0 0 0 0 0 0 0 0 0 0 -0.63753037208091 0 0 0 -0.31316502976766 0 0 0
0 0 0 0.442206758471471 0 0 0 0.0485695287112025 0 0 0 0 0 0 0.192658195248846 0 0 0 0.151580378652116 0 0 0 0 0 0 0 0 -0.165301773224588 -0.0711414859727818 0 0 0 0 0 0 0 0 0 0 0 0 0 0 0 0 0 0 0 0 0
0 0.724374873281432 0 0.16378361004883 0 0 0 0 0 0 0 0 0 0 0 0 0 0 0 0 0 0 0 0 0 0 0 0 0 0 0 0 0 0 0 0 -0.739479613752253 0 0 0 0 -0.119945155582371 -0.659359335184096 -1.083916571916 -0.476546473804245 0 -2.37525273930663 0 0 0
0 0 0.085733467817673 0 0 0 0 0.189528927283953 0.117812690501861 0 0 0 0 0 0 0 0 0 0 0 0 0 0 0 0 0 0 -2.1789804393771 0 0 0 0 0 -0.89493325507486 0 0 -0.272822978278729 0 0 -2.34229818070455 0 0 0 0 0 0 -12.3723100069691 0 0 0
0 0 0.135355548192743 0 0 0.175560211775217 0 0 0 0 0 0 0 0 0 0 0.173201424735296 0 0 0 0 0 0 0 0 0 0 0 0 -1.04966673494875 0 -1.23396267904559 0 0 0 0 0 0 0 0 0 0 0 0 0 0 0 -0.60212695766079 0 0
0 0 0 0 0 0 0 0 0 0 0 0 0.0924749754403227 0 0 0 0 0 0 0 0 0 0 0 0 0 0 0 0 -0.459404300736459 0 0 0 -0.304831590257687 0 0 0 0 0 0 0 0 0 -1.76004262598942 0 0 0 0 -0.603903957761937 0
1.11627497700472 0 0 0 0 0 0 0 0.494751016101021 0 0 0 0 0 0 0 0 0 0 0 0 0 0 0 0 -0.182412495010546 0 0 0 0 0 0 0 0 0 0 0 0 0 0 0 -0.874523643467463 0 0 0 0 0 0 0 -0.564685767353353
0 0 0 0 0 0 0 0 0 0 0 0 0 0 0 0 0 0 0 0 0 0 0 0 0.0359061301564516 0 0 0 0 0 0 0 0 0 0 -1.27719354370071 0 0 0 0 0 0 0 0 0 0 0 0 0 0
0 0 0 0 0 0 0 0 0 0 0 0 0 0 0 0 0 0 0 0 0 0 0 0 0 0 0 0 0 0 0 0 -0.179958184510598 0 0 0 0 -5.58146864030127 -2.06649384633649 0 0 0 0 0 0 0 0 0 0 -2.89193546196242
0 0 0 0 0 0 0 0 0 0 0 0 0 0 0 0 0 0 0 0.0327137385299323 0 0.449656955679831 0 0 0 0 0 0 0 0 0 0 0 0 -0.713180565127632 0 0 0 0 0 0 0 0 -1.81280473176858 0 0 0 0 0 0
0 0 0 0 0 0 0 0 0 0 0 0 0 0 0 0 0 0 0 0.0141341261201286 0 0 0 0 0 0 0 0 0 0 0 0 0 0 0 0 0 0 0 0 0 0 0 0 -3.88824905481573 0 0 0 0 0
0.901576744221786 0 0 0 0.669187236479496 0 0 0 0 0 0 0 0 0 0 0 0 0 0 0 0 0 0.216864680031508 0.0892004908325887 0 0 0 0 0 0 0 -8.722194735429 0 0 0 0 0 0 0 0 0 0 -3.11319826585437 0 0 0 0 0 0 0
0 0 0 0.276782463240922 0 0 0 0 0 0 0 0.278999394887787 0 0 0 0 0 0 0 0 0 0 0 0 0 0 0 0 0 0 0 0 0 0 0 0 0 0 -2.85179508005373 0 -5.52139136704398 0 0 0 0 0 0 0 0 0
0 0 0 0 0 0 0 0 0 0 0 0 0 0.133530699451927 0.115973423708476 0.0692843251357756 0 0 0 0 0 0 0.247861177545904 0 0 0 0 0 0 1.6685054778462 0 0 0 0 0 0 0 0 0 0 0 0 0 0 0 0 0 0 0 0
0 0 0 0 0 0 0 0 0 0 0 0 0 0 0 0.0792567024605264 0 0 0 0 0 0 0 0 0 0 0.0378988502610887 0 0 0 0 0 0 0 0 0 0 0 -1.72424694007259 0 0 0 0 0 0 0 0 0 0 0
0.912820655527685 0 0 0 0 0 0 0 0 0 0 0 0 0 0 0 0.0586664607055232 0 0 0 0 0.19566293083364 0 0.0621562392945206 0 0 0 0 0 0 0 0 0 0 0 -0.61479731920365 0 -3.04662906688043 0 0 0 0 0 0 0 0 0 -1.08025702552712 0 0
0 0 0 0 0 0.0543863776290998 0 0 0 0 0 0 0.267606488985469 0 0.201540041880179 0 0 0 0 0 0 0 0 0 0 0 0 0.136460380480305 0 0 0 0 0 0 0 0 0 0 0 0 0 -2.5516348340983 0 0 0 0 0 -0.220957427770025 0 0
0 0 0 0 0 0 0 0 0 0 0.145066299000345 0 0 0 0 0 0 0 0 0 0 0 0 0 0 0.275141757690161 0 0 0 0 0 0 0 0.125244450304426 0 0 0 0 0 0 0 0 0 0 0 0 0 -0.625951240709624 0 0
0 0 0 0 0 0 0 0 0 0 0 0 0 0 0 0 0 0 0 0 0.157603435918468 0.0521734778596053 0 0 0 0 0 0 0 0 0 0 0 0 0 0 0 0 0 0 0 0 0 0 0 0 0 0 0 0
0 0 0 0 0 0 0 0 0 0.116628583155657 0 0 0 0 0 0 0 0 0 0 0 0 0 0 0 0 1.1907634881891 0 0 0 0 0 0 0.637141918043097 0 0 0 0 0 0 0 0 0 0 0 0 0 0 0 0
0 0 0 0 0 0 0 0 0 0 0.376910887220433 0 0 0 0.234815720729448 0.499846207813211 0 0 0 0 0 0 0 0 0 0 0.43460194849083 0 0 0 0.572968603055318 0 0.342512904305441 0 0 0 0 0 0 0 0 0 0 0 0 0 0 0 0 0
0 0 0 0 0 0 0 0.266755873910279 0 0 0 0 0 0.415278895833293 0 0 0 0 0 0 0 0.458027280768368 0 0 0 0 0 0 0 0 0 0 0 0 0 0 0 0 0 0 0 -0.267608818891545 0 0 0 0 0 -1.46440078853068 0 0
0 0.109605209604921 0 0 0 0 0 0 0 0 0 0 0 0 0 0 0 0 0 0 0 0 0 0 0 0 0 0 0 0 1.12066129256451 0 0 0 0 0 0 0 0 0 0 -0.55263450323612 -0.491789832727117 0 0 0 0 0 0 0
0 0 0.0780614649005224 0 0 0 0 0 0 0 0 0 0.606424367636963 0 0 0 0 0 0 0 0.0231573230256057 0 0 0 0.16688805927972 0 0 0 0 0 0 0 0 0 0.472416654532982 0 0 0 0 0.0548471438534126 0.10778926987616 0 0 0 0 0 -0.716364513146072 0 0 -4.2536650813711
0.0476502653405879 0 0.21905032286395 0 0 0 0.141712222831231 0 0 0 0 0 0 0 0 0 0 0 0.12733902831607 0 0.143315172578374 0 0 0 0 0 0 0 0 0.618852484095874 0 0 0 0 0 0 0 0 0 0 0.0941352042596096 0 0 0 0 -0.700437698691111 0 -0.349805423763744 0 0
0 0 0 0 0 0 0 0 0 0 0 0 0 0.0779044391994881 0 0 0 0 0 0 0.216560712275296 0 0 0.349152011200254 0 0 0 0.363139546341496 0 0 0 0 0 0 0 0 0 0 0 0 0 0 0 0 0 -2.0988374456968 0 0 0 0
0 0 0 0 0 0 0 0 0 0 0.296093310632761 0.246585037637503 0 0 0 0 0 0.0503321774660362 0 0 0.0982281531586997 0 0 0 0 0 0 0 0.814889978192496 0 0 0 0 0 0 0 0 0 0 0 0 0 0 0 0 0 0 0 0 0
0 0 0 0 0 0 0 0 0 0 0.369451633545651 0 0 0 0 0 0 0.172575003044534 0 0 0 0 0 0 0 0 0 0 0 0 0 0 0 0 0 0 0 0 0 0 0 0 0.137393279794239 0.428853286652739 0 0 0 0 0 0
0 0 0 0.493523925371446 0 0 0 0 0 0 0 0 0 0 0 0 0 0 0.0553909022331426 0 0.474357379497296 2.38065213530077 0 0 0 0 0 0 0 0 0 0 0 0 0 0 0 0 0 0 0 0.138269955531372 0 0 0 0 0 0 0 0
0 0 0 0 0 0 0 0 0 0 0.592465253032338 0 0 0 0 0 0 0 0 0 0 0 0.112903356647548 0 0 0 0 0 0 0 0 0 0 0.230189300618939 0.0455603960008198 0.125517422075046 0 0 0 0.311930149037473 0 0 0.0639080436267564 0 0 0 0 0 0 0
0 0 0 0 0 0 0 0.0674549860176952 0.416160743034086 0.372382951510707 0.11718821359371 0 0 0 0 0 0 0 0 0 0 0 0 0.115388579878144 0 0 0 0 0 0 0 0 0 0 0 0 0 0 0 0 0 0 0 0 0 0 0 0 0 0
0 0 0 0 0 0 0 0 0.300491676062213 0 0.829073808420288 0 0 0 0 0 0 0 0 0 0 0 0 0 0.114168028057368 0 0.565665761036574 0 0 0 0 0 0 0 0 0 0 0 0 0 0 0.876366441703376 0 0 0 0 0 0 0 0
