0 0 0 0 0 0 0 0 -2.06318486872855 0 0 0 0 0 0 -8.85937766802078 0 0 0 0 0 0 0 0 -0.598429623009097 0 0 0 0 0 0 0 0 0 0 0 0 0 0 0 0 0 0 0 0 0 0 0 0 0
0 0 0 0 0 0 0 0 0 0 0 0 0 0 0 0 0 0 0 0 0 0 0 0 0 0 0 0 0 0 0 -1.03186798306099 0 0 0 0 0 0 0 0 0 0 0 0 0 0 0 0 0 0
0 0 0 0 0 0 -1.85432629619992 0 0 0 0 0 -0.161899702292256 0 0 0 0 0 0 0 0 0 0 0 0 0 0 0 0 0 0 0 0 0 -1.65417338939899 0 0 0 0 0 0 0 -0.266813546561893 0 0 0 0 0 0 0
0 0 0 0 0 0 0 0 0 0 0 0 0 0 0 0 0 0 0 0 0 0 0 0 0 0 0 0 0 0 0 0 0 0 0 0 0 0 0 0 0 0 0 0 0 0 0 -1.083454822529 0 0
0 0 0 0 0 -2.54192435671869 0 0 0 0 0 0 0 -0.495805513312345 0 0 0 0 0 0 -1.05063763281734 -1.2088218216113 0 0 0 0 0 0 0 -2.23138181753235 0 0 0 0 0 0 0 0 0 0 0 0 0 0 0 0 -5.97680494730064 0 0 0
0 0 0 0 0.48645619386848 0 0 0 -1.35518753888855 0 0 0 0 0 0 0 -5.34731302214087 -2.12439841306242 0 0 0 0 0 0 0 -0.153638229919498 0 0 0 0 0 -0.204513392872225 0 0 0 0 0 0 0 0 -0.200432431982559 0 0 0 0 0 0 0 -1.11851819569154 0
0 0 0.383532118300476 0 0 0 0 0 0 0 0 -0.752092271285832 0 0 -1.04338854125202 0 0 0 0 0 0 0 0 0 0 0 0 0 0 0 0 0 0 0 0 0 0 -2.04295473572256 0 0 0 0 0 0 0 0 0 0 0 0
0 0 0 0 0 0 0 0 0 0 0 -2.42419113595911 0 0 0 0 0 0 0 0 0 0 0 0 0 0 0 0 0 0 0 0 0 0 0 0 0 -0.970972140454122 0 0 0 -2.80238321166519 0 0 0 0 0 0 0 0
0.424773202356221 0 0 0 0 0.257324206177798 0 0 0 0 0 0 0 -2.77129700351531 0 0 0 0 0 0 0 -2.64850235646419 0 0 0 0 0 0 -0.593898562041165 0 0 0 0 0 0 0 0 -1.40220680915549 0 -0.586524553500168 0 -1.24869858559991 0 0 0 0 0 0 0 0
0 0 0 0 0 0 0 0 0 0 0 0 0 0 0 0 0 0 0 0 0 0 0 0 0 0 0 -2.29426215912675 0 0 0 0 0 0 0 0 0 0 0 0 0 0 0 0 0 0 0 0 0 0
0 0 0 0 0 0 0 0 0 0 0 0 0 0 0 0 0 0 -3.13154082874688 0 0 0 0 0 0 -1.84171814763457 -0.825918133927589 0 0 0 0 0 0 0 0 0 0 0 0 0 0 0 0 0 0 0 0 0 0 0
0 0 0 0 0 0 0.147472693355949 0.480387434278569 0 0 0 0 0 0 0 0 0 0 0 0 0 0 0 0 0 0 0 0 0 -0.803560078692723 0 0 0 0 0 0 0 0 0 0 0 0 0 0 0 0 0 0 0 0
0 0 0.0336102600509034 0 0 0 0 0 0 0 0 0 0 0 0 0 0 0 0 -0.844808396385261 0 0 0 0 -1.53677276783249 0 0 0 0 0 -3.88563458367151 0 0 0 0 0 0 0 0 0 0 0 0 0 0 0 0 0 0 0
0 0 0 0 0.101145471304778 0 0 0 0.546928552163172 0 0 0 0 0 0 0 0 0 0 0 0 0 0 0 0 0 0 0 0 -0.639920111853505 0 0 0 -1.44983035629229 0 0 -1.33053645868473 0 0 0 0 0 0 0 0 0 0 0 0 0
0 0 0 0 0 0 0.208517793894785 0 0 0 0 0 0 0 0 0 0 0 0 0 0 0 0 0 0 0 0 0 0 0 0 0 0 0 0 0 0 0 0 -1.92662206090388 0 0 0 0 0 0 0 0 0 0
1.86663621907952 0 0 0 0 0 0 0 0 0 0 0 0 0 0 0 0 0 0 0 0 0 0 0 0 -4.11217711677047 0 0 0 0 0 0 0 0 0 0 0 0 0 0 0 0 0 0 0 0 0 0 0 0
0 0 0 0 0 1.07187431340819 0 0 0 0 0 0 0 0 0 0 0 0 0 0 0 0 0 0 0 0 0 0 0 -0.919942387138724 0 0 0 0 -3.99821799117935 0 0 0 0 0 0 0 0 0 0 0 0 0 0 -2.40738846928616
0 0 0 0 0 0.420635850895806 0 0 0 0 0 0 0 0 0 0 0 0 0 0 0 0 0 0 0 0 0 0 0 0 -2.97870359972492 0 -2.91531263303807 0 0 -2.24448431754818 0 0 0 -0.353659419226963 0 0 0 0 0 -1.42946089865119 0 -0.853493731194827 -1.02973485332783 0
0 0 0 0 0 0 0 0 0 0 0.66942560144019 0 0 0 0 0 0 0 0 -7.62764878688331 0 0 0 0 0 0 0 0 0 0 0 0 0 0 0 0 0 0 0 0 0 0 0 0 0 0 0 0 0 0
0 0 0 0 0 0 0 0 0 0 0 0 0.179778029308911 0 0 0 0 0 1.35686892360392 0 0 0 0 -0.24499862854223 0 0 0 0 0 0 0 0 0 0 0 0 0 -0.232134729210785 0 0 0 0 0 0 0 0 0 0 -1.14238248654726 -0.355186460282602
0 0 0 0 0.209251241241412 0 0 0 0 0 0 0 0 0 0 0 0 0 0 0 0 -7.60282602623621 0 0 0 0 0 0 0 0 0 -0.292663223616557 0 -7.92797876892026 0 0 0 0 0 0 0 0 0 0 0 0 0 0 0 -3.16095740980704
0 0 0 0 0.24817158150467 0 0 0 0.511744509410783 0 0 0 0 0 0 0 0 0 0 0 1.44422024266776 0 0 0 0 0 0 0 -0.448070092977974 0 0 0 0 0 0 0 0 0 0 0 -1.37732097963946 0 0 0 0 0 0 0 0 0
0 0 0 0 0 0 0 0 0 0 0 0 0 0 0 0 0 0 0 0 0 0 0 0 -0.241085923145672 0 0 0 0 0 -1.26012395281599 0 0 0 -0.431673028559268 0 -1.13142131049741 0 0 0 0 0 0 0 0 0 0 0 0 0
0 0 0 0 0 0 0 0 0 0 0 0 0 0 0 0 0 0 0 0.0511632227262253 0 0 0 0 0 0 0 0 -0.315475068727534 0 0 0 0 0 0 0 0 0 -2.70612265526239 0 0 0 0 -5.50524951609971 0 0 0 0 0 0
0.116718814856107 0 0 0 0 0 0 0 0 0 0 0 0.330513229180048 0 0 0 0 0 0 0 0 0 0.0454923583675125 0 0 0 0 0 0 0 0 0 0 0 0 -2.20648086739919 0 0 0 0 0 0 0 0 0 -0.759662047973289 0 0 0 0
0 0 0 0 0 0.0292371649110482 0 0 0 0 0.370930177702286 0 0 0 0 0.901222625563974 0 0 0 0 0 0 0 0 0 0 0 0 0 0 0 0 0 0 0 0 0 0 0 0 0 0 0 0 -0.591217238786368 0 0 0 0 0
0 0 0 0 0 0 0 0 0 0 0.163260603649433 0 0 0 0 0 0 0 0 0 0 0 0 0 0 0 0 0 0 0 0 0 0 0 0 0 0 0 0 0 0 0 0 0 0 0 0 0 0 0
0 0 0 0 0 0 0 0 0 0.456204032054088 0 0 0 0 0 0 0 0 0 0 0 0 0 0 0 0 0 0 0 0 0 0 -0.656157516795804 0 0 0 0 0 0 0 0 0 0 0 0 0 0 0 -0.813601933117804 0
0 0 0 0 0 0 0 0 0.122929079323199 0 0 0 0 0 0 0 0 0 0 0 0 0.0922193297465981 0 0.0602871891488602 0 0 0 0 0 0 0 0 0 0 -1.92016157096966 0 0 0 0 0 0 0 0 0 0 0 0 0 0 0
0 0 0 0 0.444166907659001 0 0 0 0 0 0 0.161646513175921 0 0.132599489507354 0 0 0.182971652593391 0 0 0 0 0 0 0 0 0 0 0 0 0 0 -0.910979984132403 0 0 -0.952186934020336 0 -5.36435640019248 0 0 0 0 0 0 0 0 0 0 0 0 0
0 0 0 0 0 0 0 0 0 0 0 0 0.755356150850017 0 0 0 0 0.62245635862002 0 0 0 0 0.255087164800168 0 0 0 0 0 0 0 0 0 0 0 0 0 0 0 -0.593358909116896 0 0 0 0 0 0 0 0 0 -2.2456860215237 0
0 0.210492799394644 0 0 0 0.0438474284224116 0 0 0 0 0 0 0 0 0 0 0 0 0 0 0.0615325352645832 0 0 0 0 0 0 0 0 0.194889269477234 0 0 0 0 0 0 0 0 -0.912348850215637 0 -1.1779471931992 0 0 0 -0.164686601812634 0 0 0 0 0
0 0 0 0 0 0 0 0 0 0 0 0 0 0 0 0 0 0.555026562276815 0 0 0 0 0 0 0 0 0 0.124200664304312 0 0 0 0 0 0 0 0 0 0 0 0 0 0 0 0 0 -0.157275079415907 -3.98957175411358 0 0 0
0 0 0 0 0 0 0 0 0 0 0 0 0 0.287961203317904 0 0 0 0 0 0 1.4975635420045 0 0 0 0 0 0 0 0 0 0 0 0 0 0 0 0 0 0 0 0 0 0 0 0 0 0 0 0 0
0 0 0.312531029459434 0 0 0 0 0 0 0 0 0 0 0 0 0 0.781002191636711 0 0 0 0 0 0.0901735153131822 0 0 0 0 0 0.394878108030633 0.18260893240466 0 0 0 0 0 0 0 0 0 0 0 0 0 -0.747513282419059 0 0 0 -2.11979403903666 0 0
0 0 0 0 0 0 0 0 0 0 0 0 0 0 0 0 0 0.45101080984087 0 0 0 0 0 0 0.470503053465694 0 0 0 0 0 0 0 0 0 0 0 0 0 0 -3.4246933847473 0 -0.307120949682158 0 0 0 0 0 0 0 0
0 0 0 0 0 0 0 0 0 0 0 0 0 0.250935062190204 0 0 0 0 0 0 0 0 0.218241353805698 0 0 0 0 0 0 1.06891632336339 0 0 0 0 0 0 0 0 0 0 0 0 0 -0.95554403926419 -1.27022501052335 0 0 0 0 0
0 0 0 0 0 0 0.430884123313801 0.192296159646595 0.268558791124936 0 0 0 0 0 0 0 0 0 0 0.0532548955094116 0 0 0 0 0 0 0 0 0 0 0 0 0 0 0 0 0 0 0 0 0 -1.01013586313992 0 0 0 0 0 0 -1.36368327122842 0
0 0 0 0 0 0 0 0 0 0 0 0 0 0 0 0 0 0 0 0 0 0 0 0.533432295658798 0 0 0 0 0 0 0.118886177997845 0.172277959025388 0 0 0 0 0 0 0 0 0 0 0 0 0 -1.49828598581826 0 0 0 0
0 0 0 0 0 0 0 0 0.122015011393173 0 0 0 0 0 0.391946292737215 0 0 0.0707705662906335 0 0 0 0 0 0 0 0 0 0 0 0 0 0 0 0 0 0.72695078901557 0 0 0 0 0 0 0 0 0 0 0 0 0 0
0 0 0 0 0 0.0431515982675367 0 0 0 0 0 0 0 0 0 0 0 0 0 0 0 0.263234303780248 0 0 0 0 0 0 0 0 0 0.227284676070552 0 0 0 0 0 0 0 0 0 0 0 0 -0.763647048046383 0 0 0 0 0
0 0 0 0 0 0 0 0.5907836957065 0.250869448401895 0 0 0 0 0 0 0 0 0 0 0 0 0 0 0 0 0 0 0 0 0 0 0 0 0 0 0.061476809628921 0 0.201600262794415 0 0 0 0 0 0 0 0 0 0 0 0
0 0 0.0505279435701359 0 0 0 0 0 0 0 0 0 0 0 0 0 0 0 0 0 0 0 0 0 0 0 0 0 0 0 0 0 0 0 0 0 0 0 0 0 0 0 0 0 0 0 0 0 0 0
0 0 0 0 0 0 0 0 0 0 0 0 0 0 0 0 0 0 0 0 0 0 0 1.0759695340264 0 0 0 0 0 0 0 0 0 0 0.151044225191445 0 0.18640925536901 0 0 0 0 0 0 0 0 0 0 0 0 0
0 0 0 0 0 0 0 0 0 0 0 0 0 0 0 0 0 0 0 0 0 0 0 0 0 0.108832363993784 0 0 0 0 0 0.0346959534206073 0 0 0 0 0.251242450011421 0 0 0 0.16107278294594 0 0 0 0 0 0 0 -0.753152543889426 0
0 0 0 0 0 0 0 0 0 0 0 0 0 0 0 0 0 0.267797720545712 0 0 0 0 0 0 0.157029423420497 0 0 0 0 0 0 0 0.0320444614288891 0 0 0 0 0 0.271419226091472 0 0 0 0 0 0 0 0 0 0 0
0 0 0 0 1.18492661215203 0 0 0 0 0 0 0 0 0 0 0 0 0 0 0 0 0 0 0 0 0 0 0 0 0 0 0 0.811927845226733 0 0 0 0 0 0 0 0 0 0 0 0 0 0 0 0 0
0 0 0 0.209695357773005 0 0 0 0 0 0 0 0 0 0 0 0 0 0.177714757169551 0 0 0 0 0 0 0 0 0 0 0 0 0 0 0 0 0.383406999815036 0 0 0 0 0 0 0 0 0 0 0 0 0 -0.417712176233187 0
0 0 0 0 0 0.215423697254776 0 0 0 0 0 0 0 0 0 0 0 0.218051859726639 0 0.200323759190178 0 0 0 0 0 0 0 0.168290881009498 0 0 0.480970579470875 0 0 0 0 0 0 0.268246310558886 0 0 0 0 0 0 0.129045850717999 0 0 0.0823122194776218 0 0
0 0 0 0 0 0 0 0 0 0 0 0 0 0 0 0 0.477770980522858 0 0 0.0762639936692739 0.642963751825101 0 0 0 0 0 0 0 0 0 0 0 0 0 0 0 0 0 0 0 0 0 0 0 0 0 0 0 0 0
