0.263045713390432
3.11647388472903
1.1523372028139
2.14066896601256
0.54610354780282
1.74435231070244
0.248168804576577
0.164291341700031
1.88180967481147
1.96247839125356
1.593179410073
3.48879568472369
2.88713414008852
0.299829768410522
0.865235278121322
0.344634784420008
0.308900626556681
1.11831630224811
0.16550633332217
0.9203087862361
1.40757463514979
0.517110029574874
1.77591060649041
1.9456012811848
1.24588352030766
0.501538849396675
0.64590799217579
0.334597320677255
0.903677407602723
0.544062689485089
1.17343337052633
1.38219239885139
0.78639432735349
1.14621855606542
0.174148009870832
0.804259883759027
0.940415081701586
1.56737770791163
0.388360500982564
2.79574810669998
0.607016210491611
0.385412268923518
0.607910329907982
0.689753151190131
0.223965012461642
0.828500893928208
0.495082252527865
2.04449338386899
0.107684538178367
1.34884727353804
