0 0 0 0 0 0 0 0 0 0 0 0 0 0 -5.92200596188108 0 0 0 0 0 0 0 0 -0.127932334265108 0 0 -1.26112781978704 0 0 0 0 0 0 0 0 0 0 0 0 0 0 -3.04164558695154 0 0 0 0 0 0 0 0
0 0 -0.744444931669473 0 0 0 0 0 0 0 -0.288576693333085 0 0 0 0 0 0 0 0 0 0 0 0 0 0 0 0 0 0 0 0 0 -0.163523887700653 -0.768007543965277 -0.580193964225386 0 0 0 0 0 0 0 0 0 0 0 -0.259410233996001 0 0 0
0 0.150700404296315 0 0 0 0 0 0 0 -0.419007736202996 0 0 -1.59074142808192 0 0 0 0 0 0 0 0 0 0 0 0 0 0 0 0 0 0 0 0 0 0 0 0 0 0 0 0 0 0 -0.844779899381951 0 0 0 0 0 0
0 0 0 0 0 -2.21173996829822 0 0 0 0 0 0 0 -0.863164621478695 0 -0.727643416992048 0 0 0 0 0 0 0 0 0 0 0 0 0 0 0 0 0 0 0 0 0 0 -0.296733328003157 0 0 0 0 0 0 0 0 0 0 -1.56771325619074
0 0 0 0 0 0 -0.243437982357123 0 0 0 0 0 -0.534392435473225 0 -0.380734047156136 -0.771083900410165 0 0 0 0 0 0 0 0 0 0 0 0 0 0 0 0 0 0 0 0 0 0 0 0 0 -0.622592258228562 0 0 0 0 0 0 0 0
0 0 0 0.424956618198728 0 0 0 0 0 0 -0.703347998590219 0 0 0 0 0 0 0 0 0 0 0 0 0 0 0 0 0 0 0 0 0 0 0 0 0 0 0 0 0 0 0 0 0 0 0 0 0 0 0
0 0 0 0 0.0494920522321107 0 0 0 0 0 0 0 0 0 0 0 0 0 0 0 0 0 0 0 0 -0.424203483723739 0 0 0 0 -0.34123908045158 0 0 0 0 0 0 0 0 0 0 0 0 0 0 0 0 0 0 0
0 0 0 0 0 0 0 0 0 0 0 0 0 0 0 0 0 0 -0.334883397988307 0 -1.77275985529233 0 0 0 -2.48171207007327 0 0 0 0 0 0 0 0 0 0 0 0 0 0 0 0 0 0 0 0 0 0 0 0 0
0 0 0 0 0 0 0 0 0 0 0 0 0 0 0 0 0 0 0 0 0 0 0 0 0 0 0 0 0 0 0 0 0 0 0 0 0 0 -0.641174522178536 0 0 -0.174167927627628 0 0 0 0 0 0 0 0
0 0 0.0784604349541228 0 0 0 0 0 0 0 0 0 0 0 0 0 0 0 -0.250997441904442 0 0 0 0 0 0 0 0 -1.71702537381171 0 0 0 0 0 0 0 0 0 0 -0.721256762395688 0 0 0 -0.465017896886953 0 0 0 0 0 -1.81366060921686 -2.31963460782011
0 0.0553450254381478 0 0 0 0.136750837291812 0 0 0 0 0 0 0 0 0 0 0 0 0 0 0 -0.917042934105224 0 0 0 0 0 0 0 0 0 0 0 0 0 0 0 0 0 0 0 0 0 0 0 0 0 0 0 0
0 0 0 0 0 0 0 0 0 0 0 0 -0.907166175523784 0 0 0 -1.8300549315907 0 0 0 0 0 0 0 0 0 0 -0.169856672732086 0 0 0 0 0 -1.3752058456238 0 0 0 0 0 0 0 0 0 0 0 0 0 0 0 0
0 0 0.296587702795422 0 0.106373019219204 0 0 0 0 0 0 0.187625367537929 0 -1.14223627322493 0 0 0 0 0 0 0 0 0 0 0 0 0 0 0 0 0 -0.247429827107319 0 0 0 0 0 0 -0.564453620705129 0 0 0 -0.554140225269491 0 0 0 0 0 0 0
0 0 0 0.16410212083318 0 0 0 0 0 0 0 0 0.227001590963267 0 0 0 0 0 0 0 0 0 0 0 0 -0.423755865897999 0 0 0 0 0 0 -0.617577030057281 0 -1.25235486052251 0 0 0 0 0 0 -0.821553216074375 0 0 0 0 0 0 0 0
1.17093070054534 0 0 0 0.0729976806661379 0 0 0 0 0 0 0 0 0 0 0 0 0 0 0 0 0 0 0 0 0 0 -2.34221270654327 0 0 -0.959796104731805 0 0 0 0 0 0 0 0 0 0 -1.30649714354617 -1.0526582169554 0 0 0 0 0 0 0
0 0 0 0.140834503069142 0.169102095737867 0 0 0 0 0 0 0 0 0 0 0 0 0 0 0 0 0 0 0 0 0 0 0 0 0 0 0 0 -0.355174792811654 0 0 0 0 0 0 0 0 0 0 0 0 0 0 0 0
0 0 0 0 0 0 0 0 0 0 0 0.353537619557679 0 0 0 0 0 0 0 0 0 0 0 -0.892485533887806 0 -0.663635095547069 0 0 0 0 0 0 -2.04323475559422 0 0 0 0 0 0 0 0 0 -0.457180929517862 0 0 0 -1.61513320456049 -0.886206612468025 0 0
0 0 0 0 0 0 0 0 0 0 0 0 0 0 0 0 0 0 0 0 -1.9297651059687 0 0 0 0 0 0 0 0 0 0 0 0 0 0 0 0 0 -2.13231400114654 0 0 0 0 0 0 0 0 0 -0.86792645207467 0
0 0 0 0 0 0 0 0.0640330565099059 0 0.0539041390912367 0 0 0 0 0 0 0 0 0 0 0 0 -0.986960401624839 0 0 0 0 0 0 0 0 -0.626501385141043 0 0 0 0 -0.576135959059636 0 0 0 0 0 0 0 0 0 0 0 0 0
0 0 0 0 0 0 0 0 0 0 0 0 0 0 0 0 0 0 0 0 0 0 0 0 0 0 0 0 0 0 0 0 0 0 0 0 0 0 0 0 0 0 0 0 -2.13767961423441 0 0 0 0 0
0 0 0 0 0 0 0 0.37226589203318 0 0 0 0 0 0 0 0 0 0.421538688889627 0 0 0 -7.18597128910792 0 0 0 0 0 0 0 0 0 0 0 0 0 0 0 0 0 0 0 0 0 0 0 0 0 0 0 0
0 0 0 0 0 0 0 0 0 0 0.186145447630688 0 0 0 0 0 0 0 0 0 1.42853205886933 0 -0.0310387986713964 0 0 0 0 0 0 0 0 0 0 0 -5.31762825415693 0 0 -9.83616485301848 0 0 0 0 0 0 0 0 0 -2.44231958148936 0 0
0 0 0 0 0 0 0 0 0 0 0 0 0 0 0 0 0 0 0.204411899828013 0 0 0.00577832058980999 0 0 0 0 0 0 0 0 0 0 0 0 0 0 0 0 0 -0.540959557393952 0 0 0 0 0 0 0 -1.61355496466967 0 0
0.0267883243447361 0 0 0 0 0 0 0 0 0 0 0 0 0 0 0 0.187478785863733 0 0 0 0 0 0 0 0 0 0 0 -3.62742975132301 0 0 0 0 0 -1.13220695253948 0 0 0 0 0 0 0 0 0 0 0 0 0 0 0
0 0 0 0 0 0 0 0.470111640357229 0 0 0 0 0 0 0 0 0 0 0 0 0 0 0 0 0 0 0 -0.492918905737518 0 0 0 0 -0.300568409059082 0 0 -0.257522035715798 0 0 0 -1.24424962319848 0 0 0 0 0 0 0 0 0 0
0 0 0 0 0 0 0.0722489558145002 0 0 0 0 0 0 0.0824421100953529 0 0 0.136573156761947 0 0 0 0 0 0 0 0 0 -2.32287498019799 0 0 -4.63140905043868 0 0 0 0 0 0 -1.18203662243098 0 0 0 0 0 -0.456951127611219 0 -6.02933431756926 -3.35123730735023 0 0 0 0
0.241222085234895 0 0 0 0 0 0 0 0 0 0 0 0 0 0 0 0 0 0 0 0 0 0 0 0 0.496609926527165 0 0 0 0 -2.22041625191506 0 0 0 0 0 0 0 0 0 0 0 0 -0.692483680770082 0 0 0 0 0 0
0 0 0 0 0 0 0 0 0 0.335594805786041 0 0.0347945448673574 0 0 0.437279183458571 0 0 0 0 0 0 0 0 0 0.0973404580188518 0 0 0 0 0 -5.12730457449378 -2.15557121235379 0 0 0 0 0 0 0 0 0 -2.03575014085977 0 0 0 -1.38004604943637 0 0 0 0
0 0 0 0 0 0 0 0 0 0 0 0 0 0 0 0 0 0 0 0 0 0 0 0.71465864406922 0 0 0 0 0 0 0 -0.471817308119011 0 0 0 0 0 0 0 0 0 0 0 0 0 -0.737985176190805 0 0 0 -6.30150042548526
0 0 0 0 0 0 0 0 0 0 0 0 0 0 0 0 0 0 0 0 0 0 0 0 0 0.866782915764518 0 0 0 0 0 0 0 0 -0.487136389285055 0 0 0 0 0 0 0 0 0 0 0 0 0 0 0
0 0 0 0 0 0 0.0621073583335428 0 0 0 0 0 0 0 0.197267331589111 0 0 0 0 0 0 0 0 0 0 0 0.45111120550476 1.0549616440537 0 0 0 0 0 0 0 0 0 0 0 0 0 0 -0.37703675928214 0 -0.475132877549844 0 0 0 0 0
0 0 0 0 0 0 0 0 0 0 0 0 0.0476072485818538 0 0 0 0 0 0.12494127016916 0 0 0 0 0 0 0 0 0.446402347739095 0.0984275304249777 0 0 0 0 0 0 0 0 0 0 0 0 0 0 0 0 0 0 0 0 0
0 0.033503007077211 0 0 0 0 0 0 0 0 0 0 0 0.101765056394326 0 0 0.401057217668127 0 0 0 0 0 0 0 0.0617943982336492 0 0 0 0 0 0 0 0 0 0 0 0 0 0 0 0 0 0 0 0 -0.247748555100459 0 -1.44317637953235 0 0
0 0.152642684978028 0 0 0 0 0 0 0 0 0 0.286358156994527 0 0 0 0.0656640590710036 0 0 0 0 0 0 0 0 0 0 0 0 0 0 0 0 0 0 0 0 0 0 0 0 -3.20391189164421 0 0 -8.74877011762081 0 0 0 0 0 0
0 0.114264796430408 0 0 0 0 0 0 0 0 0 0 0 0.269301553841138 0 0 0 0 0 0 0 1.17937066554437 0 0.192055759728788 0 0 0 0 0 0.100883784174139 0 0 0 0 0 0 0 0 -2.17508499925394 0 0 0 0 0 0 0 0 -1.20128562875695 0 0
0 0 0 0 0 0 0 0 0 0 0 0 0 0 0 0 0 0 0 0 0 0 0 0 0.0489248490043977 0 0 0 0 0 0 0 0 0 0 0 0 0 0 0 -0.272129447834343 0 -0.889778741545886 0 0 0 0 0 -1.95589729193942 0
0 0 0 0 0 0 0 0 0 0 0 0 0 0 0 0 0 0 0.125928950234519 0 0 0 0 0 0 0.235257999571787 0 0 0 0 0 0 0 0 0 0 0 0 -0.231504527576899 0 0 0 0 0 0 0 0 0 0 0
0 0 0 0 0 0 0 0 0 0 0 0 0 0 0 0 0 0 0 0 0 2.00104490965275 0 0 0 0 0 0 0 0 0 0 0 0 0 0 0 0 0 0 -0.334737695646327 0 0 0 0 -1.22365476307834 0 0 0 0
0 0 0 0.0684307099656666 0 0 0 0 0.129756533714704 0.141976941665754 0 0 0.103339334812062 0 0 0 0 0.455621580893412 0 0 0 0 0 0 0 0 0 0 0 0 0 0 0 0 0.435650762309017 0 0.0471880857725105 0 0 0 -0.479128613274145 0 0 0 0 0 0 0 0 0
0 0 0 0 0 0 0 0 0 0 0 0 0 0 0 0 0 0 0 0 0 0 0.0990023490623355 0 0.260753908768982 0 0 0 0 0 0 0 0 0 0 0 0 0 0 0 0 0 0 0 0 0 0 0 0 0
0 0 0 0 0 0 0 0 0 0 0 0 0 0 0 0 0 0 0 0 0 0 0 0 0 0 0 0 0 0 0 0 0 0.588540741927553 0 0.0547130891806999 0 0.0714754313632868 0.086162700320392 0 0 0 0 0 0 -0.528962938412903 0 0 0 0
0.57430643157427 0 0 0 0.123456416112258 0 0 0 0.0369564788132927 0 0 0 0 0.15585231767094 0.231063879929565 0 0 0 0 0 0 0 0 0 0 0 0 0.39850247178578 0 0 0 0 0 0 0 0 0 0 0 0 0 0 0 0 0 -2.6339696443369 0 0 0 0
0 0 0 0 0 0 0 0 0 0.0965639556595951 0 0 0.110849159778446 0 0.205187909567882 0 0.0941943327245803 0 0 0 0 0 0 0 0 0.100197390110586 0 0 0 0 0.0735029669100051 0 0 0 0 0.173816912155343 0 0 0 0 0 0 0 0 0 0 0 0 0 0
0 0 0.164962999706124 0 0 0 0 0 0 0 0 0 0 0 0 0 0 0 0 0 0 0 0 0 0 0 0.137381071625334 0 0 0 0 0 0 1.65403537639008 0 0 0 0 0 0 0 0 0 0 0 0 0 0 0 0
0 0 0 0 0 0 0 0 0 0 0 0 0 0 0 0 0 0 0 0.429273618260017 0 0 0 0 0 1.25018983726494 0 0 0 0 0.0901708853082666 0 0 0 0 0 0 0 0 0 0 0 0 0 0 0 0 0 0 0
0 0 0 0 0 0 0 0 0 0 0 0 0 0 0 0 0 0 0 0 0 0 0 0 0 0.701628675013547 0 0.289279607239897 0.137625418309105 0 0 0 0.0502750020997276 0 0 0 0 0.260556431654342 0 0 0.106977097830994 0.46934650555119 0 0 0 0 0 0 0 0
0 0.0521606652620761 0 0 0 0 0 0 0 0 0 0 0 0 0 0 0.313549529483593 0 0 0 0 0 0 0 0 0 0 0 0 0 0 0 0 0 0 0 0 0 0 0 0 0 0 0 0 0 0 0 0 0
0 0 0 0 0 0 0 0 0 0 0 0 0 0 0 0 0.18683126198862 0 0 0 0 0.490151613693856 0.337681631819778 0 0 0 0 0 0 0 0 0 0.293791136614725 0 0.238764476143829 0 0 0 0 0 0 0 0 0 0 0 0 0 0 0
0 0 0 0 0 0 0 0 0 0.349506096324336 0 0 0 0 0 0 0 0.183273512489499 0 0 0 0 0 0 0 0 0 0 0 0 0 0 0 0 0 0.3785425379621 0 0 0 0 0 0 0 0 0 0 0 0 0 0
0 0 0 0.319083856238986 0 0 0 0 0 0.464750893400195 0 0 0 0 0 0 0 0 0 0 0 0 0 0 0 0 0 0 1.3212406836145 0 0 0 0 0 0 0 0 0 0 0 0 0 0 0 0 0 0 0 0 0
