0.572394571093217
1.14356276815983
0.491662519097701
0.969781711414636
1.1632996459522
1.34255950834571
1.87975368136279
0.697378218645239
1.19493717246519
1.38683117234603
0.275307124637892
0.789233654180535
0.542912364116008
0.233171919667327
0.226224916304344
0.614333391576943
0.802007849620644
0.231871121332815
0.341841249569903
1.59626458688048
0.488241821109761
0.355054627217817
0.970659179887304
2.12609053508304
1.44900745480274
0.61559450185594
1.55099464745142
1.13116221922421
1.39496421318236
0.363782590499852
0.994114882602608
1.02557748214194
1.18115184975566
1.53547466414188
0.7265068719423
1.41332949268512
0.58809131761513
0.987633507733863
0.160292955648717
0.621218234107938
1.0146307177267
1.60613440475255
0.750960748611366
1.4898243606647
0.850128579624675
1.44011557194579
1.71032614172136
1.03393009305728
0.827073957671774
1.01031237250165
