2.52208445582628
0.463599802380833
2.57726586694626
0.913618646132438
1.07024453695749
0.2430496569261
0.649871370532057
1.82534221362637
2.16292920812097
0.11726459564627
1.64396673127998
0.407159660182557
0.349442871748597
0.462128280639825
1.90036647267704
0.929604125027927
0.163299909848648
0.17712039211012
1.53339981098211
0.270763001559964
0.1477394677371
1.45864996788688
0.20988455021473
1.61184068251182
0.142244204747045
0.153487938157496
0.159525586625408
0.746939047371061
1.68117883898901
0.30648457684676
1.89402338510755
1.21107927800573
3.20227510229372
0.329884795815472
0.272116238672579
0.776220297478624
0.301673259196177
0.344676553113397
1.65409415956308
0.341309529581423
1.51678441723693
0.324688864377295
0.044115570079633
0.261623828846309
0.707365697454413
0.645824071093123
0.846463116800946
0.115410353729643
0.127195981264567
3.15769652349561
