0 0 0 0 0 0 0 0 0 0 0 0 0 -1.89495874978753 0 0 0 0 0 -0.553177464366811 0 0 0 0 0 0 0 0 0 0 0 0 0 0 -3.98824140088858 0 0 0 0 0 0 0 0 0 0 0 0 0 -0.44220981530227 -1.1288728955587
0 0 0 0 0 0 0 0 0 0 0 0 0 0 -2.15347891324252 0 0 0 0 0 0 0 0 0 0 0 0 0 -0.782616065362821 0 0 0 -5.62100249537658 0 0 0 0 0 0 0 0 0 0 0 0 0 0 -1.42315704224069 0 0
0 0 0 -1.28113357069929 0 0 0 0 0 0 0 0 0 -0.591337308287264 0 0 0 0 0 0 0 0 0 0 0 0 0 0 -3.21616760831824 0 0 0 0 0 0 0 0 -1.68310907361914 0 0 0 0 0 0 0 0 0 0 0 0
0 0 0.25148546459812 0 0 0 -0.978240264123446 0 0 0 0 -0.148028434603587 0 0 0 0 0 0 0 0 0 -3.96788082135648 0 0 0 0 0 0 0 0 0 0 0 -0.49506027252457 0 0 0 0 0 0 -2.62212226782483 0 0 0 0 0 0 0 0 0
0 0 0 0 0 0 -4.76104503008486 0 0 0 0 0 -1.2151923163917 0 -0.345287360152695 0 0 0 0 0 0 0 0 0 0 0 0 0 0 0 0 0 0 0 0 0 -0.670291655677108 0 0 0 0 0 0 -0.735315422150444 0 0 0 0 0 0
0 0 0 0 0 0 0 0 0 0 0 0 0 0 0 0 0 0 0 0 0 0 0 0 0 0 0 0 0 0 0 0 0 0 0 0 0 0 0 0 0 0 0 0 -0.132105386183456 0 0 0 0 0
0 0 0 0.204491201529947 0.919997898371373 0 0 0 0 -1.68218361662198 0 0 0 0 0 0 0 0 0 0 -0.441881133475149 0 -0.382593570993209 0 0 0 0 0 0 0 0 0 0 0 0 0 0 -3.7232556440523 0 0 0 0 0 0 0 0 -0.98825761191213 0 0 0
0 0 0 0 0 0 0 0 0 0 0 0 0 0 0 0 0 0 0 0 0 0 0 0 0 0 0 0 0 -3.21487268511852 0 0 0 0 0 0 0 0 0 0 -2.28709646854687 0 0 0 0 0 0 0 0 0
0 0 0 0 0 0 0 0 0 0 0 0 0 0 0 0 0 0 0 0 0 0 0 -0.614671029111806 0 0 0 0 0 0 0 0 -6.26795843251107 0 0 -8.48635674487182 0 0 0 0 0 0 0 0 0 0 0 0 0 0
0 0 0 0 0 0 0.334233411816755 0 0 0 0 0 0 0 0 0 0 0 0 0 0 0 -0.918664026862965 0 0 0 0 0 0 0 0 0 0 0 0 0 0 0 0 0 0 0 0 0 0 0 0 0 0 0
0 0 0 0 0 0 0 0 0 0 0 0 0 0 0 0 0 0 -0.315705655808177 0 0 0 0 0 0 0 0 0 0 0 -0.95387443793205 0 0 0 0 0 0 0 0 0 0 0 -2.2041798365846 0 0 0 0 -6.3967609287808 0 0
0 0 0 0.0307648415844991 0 0 0 0 0 0 0 0 0 0 0 0 0 0 0 0 0 0 -3.03800705109179 0 0 0 0 0 0 0 0 -1.00989188013411 0 0 0 0 0 0 0 0 0 0 -0.883904542729235 -0.438820001930054 0 0 0 0 0 0
0 0 0 0 0.243952352434139 0 0 0 0 0 0 0 0 -2.37389856745883 0 0 0 0 0 0 0 0 0 0 0 0 0 0 -0.604553663184933 0 0 0 0 -1.24413607737498 0 0 0 0 -8.9049443341896 0 0 0 0 0 0 -1.86583538453624 0 0 0 0
0.39283995549501 0 0.124413397191816 0 0 0 0 0 0 0 0 0 0.444280048994903 0 0 0 0 0 -1.6100261605047 0 0 0 0 0 0 0 0 -1.13346796416121 0 -0.580288693625992 0 0 0 -1.40707540950355 0 0 0 -0.225786608477038 0 0 0 0 0 0 0 0 0 0 -8.36159063459317 0
0 0.414453399296611 0 0 0.0702193546600536 0 0 0 0 0 0 0 0 0 0 0 0 0 0 -7.5954549696359 0 0 0 0 0 0 0 0 0 -1.03433390955873 0 0 0 0 0 0 0 0 0 0 0 0 0 0 0 0 0 0 0 0
0 0 0 0 0 0 0 0 0 0 0 0 0 0 0 0 0 0 -0.263824554101509 0 0 0 0 0 0 0 0 0 0 0 0 0 0 0 0 0 0 0 0 0 0 0 0 0 0 0 0 0 0 0
0 0 0 0 0 0 0 0 0 0 0 0 0 0 0 0 0 0 0 0 0 0 0 0 0 0 0 0 0 -2.49086031809883 0 0 0 -0.864447467387552 -0.355735139525094 0 0 0 0 0 0 0 0 -1.07845032164521 0 0 0 0 0 0
0 0 0 0 0 0 0 0 0 0 0 0 0 0 0 0 0 0 0 0 0 0 0 -0.323929773982545 0 0 0 0 0 0 0 0 0 0 0 0 0 0 0 -0.570090311119232 0 0 0 0 0 0 -0.516418935774508 0 0 0
0 0 0 0 0 0 0 0 0 0 0.0621979816259942 0 0 0.290485124374473 0 0.0521618197388002 0 0 0 0 0 0 0 0 0 0 0 0 0 0 0 0 0 0 0 0 0 0 0 0 0 0 0 0 0 0 0 0 0 0
0.110693157380095 0 0 0 0 0 0 0 0 0 0 0 0 0 1.56766690474599 0 0 0 0 0 0 0 0 0 0 0 -0.649246493128856 0 0 0 0 -0.197659733511753 0 -1.04592229048613 0 0 0 -4.15777454786574 0 0 0 -4.20990302338458 0 0 0 -0.304429712160213 0 0 0 0
0 0 0 0 0 0 0.0850754011662073 0 0 0 0 0 0 0 0 0 0 0 0 0 0 0 0 0 0 0 0 0 0 0 0 0 0 0 0 0 0 0 0 0 0 0 0 -0.468966298601191 0 0 0 0 -1.98389662536977 0
0 0 0 0.845688635188753 0 0 0 0 0 0 0 0 0 0 0 0 0 0 0 0 0 0 0 0 0 -3.67849028230807 -2.51052225110629 0 0 0 0 0 0 0 0 0 0 -0.535729184998796 0 0 0 0 0 0 0 0 -2.22486824940674 0 0 0
0 0 0 0 0 0 0.0707969868238981 0 0 0.192702542784751 0 0.609474068670557 0 0 0 0 0 0 0 0 0 0 0 0 0 0 0 0 0 0 0 0 0 0 0 0 0 0 0 0 0 -6.92874212141871 0 0 0 0 0 0 0 0
0 0 0 0 0 0 0 0 0.128351691272714 0 0 0 0 0 0 0 0 0.0653749217446879 0 0 0 0 0 0 0 0 0 0 0 0 0 0 0 0 0 0 0 0 0 0 0 0 0 0 -0.874051375149987 0 0 0 0 0
0 0 0 0 0 0 0 0 0 0 0 0 0 0 0 0 0 0 0 0 0 0 0 0 0 0 0 -2.83067291674678 0 0 0 0 0 0 0 0 0 0 0 0 0 0 0 0 0 0 0 -1.17893806008923 0 0
0 0 0 0 0 0 0 0 0 0 0 0 0 0 0 0 0 0 0 0 0 0.837905540638891 0 0 0 0 0 0 0 0 0 0 0 0 0 0 0 0 0 0 0 0 0 0 0 0 0 0 0 0
0 0 0 0 0 0 0 0 0 0 0 0 0 0 0 0 0 0 0 0.126543664987242 0 0.503276374866504 0 0 0 0 0 0 0 0 0 0 0 -2.99985325115022 0 0 0 -0.183434843424653 0 0 0 0 0 0 -1.15226936073403 0 0 0 0 0
0 0 0 0 0 0 0 0 0 0 0 0 0 0.234158118509147 0 0 0 0 0 0 0 0 0 0 0.602582657752684 0 0 0 -3.46368946987729 0 0 0 0 0 0 0 0 -2.37279382932811 0 -0.697445721123026 0 0 0 0 0 0 0 0 0 0
0 0.156456182913228 0.626298463431255 0 0 0 0 0 0 0 0 0 0.124089973091722 0 0 0 0 0 0 0 0 0 0 0 0 0 0 0.636510487193007 0 0 0 0 -1.39164325643805 0 -2.12603909318899 0 0 0 0 0 0 0 -0.537108740091519 0 0 0 0 0 0 0
0 0 0 0 0 0 0 0.643085681351403 0 0 0 0 0 0.109110981184862 0.202672354885564 0 0.525008185131224 0 0 0 0 0 0 0 0 0 0 0 0 0 0 0 0 0 0 0 0 0 0 0 0 0 0 0 -4.43878246660127 0 0 0 0 0
0 0 0 0 0 0 0 0 0 0 0.20040077346681 0 0 0 0 0 0 0 0 0 0 0 0 0 0 0 0 0 0 0 0 -0.869937968546698 0 0 0 0 0 -1.24020204529332 -1.25874609846291 0 0 0 0 0 0 0 0 0 0 0
0 0 0 0 0 0 0 0 0 0 0 0.196448187759619 0 0 0 0 0 0 0 0.0388319984501806 0 0 0 0 0 0 0 0 0 0 0.184903555870162 0 -0.872470526383929 0 0 0 0 0 -0.188248246676193 0 0 0 0 0 0 0 0 0 0 0
0 1.08828238896222 0 0 0 0 0 0 1.19235497810055 0 0 0 0 0 0 0 0 0 0 0 0 0 0 0 0 0 0 0 0.287815744707967 0 0 0.165615036250017 0 0 0 0 -2.72669377516066 0 0 0 0 0 0 0 0 0 -2.11876085678667 0 0 0
0 0 0 0.0973311188467096 0 0 0 0 0 0 0 0 0.249795357941403 0.281758045491549 0 0 0.165231183121527 0 0 0.224446478565407 0 0 0 0 0 0 0.625626703100146 0 0 0 0 0 0 0 0 0 0 0 0 0 -4.36491316603987 0 0 0 0 0 0 0 0 0
0.820621575660367 0 0 0 0 0 0 0 0 0 0 0 0 0 0 0 0.0716782629356286 0 0 0 0 0 0 0 0 0 0 0 0.438977875759596 0 0 0 0 0 0 0 -0.690840020251481 0 0 0 0 0 0 0 0 0 0 0 0 0
0 0 0 0 0 0 0 0 1.71908356694912 0 0 0 0 0 0 0 0 0 0 0 0 0 0 0 0 0 0 0 0 0 0 0 0 0 0 0 0 0 0 0 0 -1.13184349320637 0 0 0 0 0 0 0 0
0 0 0 0 0.141318785779888 0 0 0 0 0 0 0 0 0 0 0 0 0 0 0 0 0 0 0 0 0 0 0 0 0 0 0 0.563285820860262 0 0.127142818294803 0 0 0 -1.65704062274902 -6.25638827828705 0 0 0 0 -0.813478135425986 0 0 0 0 -0.887408953694942
0 0 0.336094398756513 0 0 0 0.725332504155498 0 0 0 0 0 0 0.0434871924835393 0 0 0 0 0 0.827994358748999 0 0.116276941632709 0 0 0 0 0.0344638925824743 0.445900494603319 0 0 0.247695655206484 0 0 0 0 0 0 0 0 0 -0.344821398363515 0 0 0 0 0 0 0 0 0
0 0 0 0 0 0 0 0 0 0 0 0 1.72621719727329 0 0 0 0 0 0 0 0 0 0 0 0 0 0 0 0 0 0.23197320591017 0.0395011542360511 0 0 0 0 0.323810181643368 0 0 0 0 0 0 0 0 0 0 0 0 0
0 0 0 0 0 0 0 0 0 0 0 0 0 0 0 0 0 0.115009941868887 0 0 0 0 0 0 0 0 0 0.141680183666049 0 0 0 0 0 0 0 0 1.27769250348171 0 0 0 0 0 0 0 0 0 0 0 0 0
0 0 0 0.519947488441341 0 0 0 0.461527594309845 0 0 0 0 0 0 0 0 0 0 0 0 0 0 0 0 0 0 0 0 0 0 0 0 0 0.847834926917033 0 0 0 0.0659985416327247 0 0 0 0 0 -0.514066278368797 0 0 -2.05930098064086 0 0 -5.90869041952195
0 0 0 0 0 0 0 0 0 0 0 0 0 0 0 0 0 0 0 0.799760483238977 0 0 1.14848057261704 0 0 0 0 0 0 0 0 0 0 0 0 0.247760894669519 0 0 0 0 0 0 0 -0.915519601584861 0 0 0 0 0 0
0 0 0 0 0 0 0 0 0 0 0.468350927791125 0.190216010704983 0 0 0 0 0 0 0 0 0 0 0 0 0 0 0 0 0.100576822350234 0 0 0 0 0 0 0 0 0 0 0 0 0 0 0 0 0 0 0 0 0
0 0 0 0 0.140301885816618 0 0 0 0 0 0 0.0895485421681642 0 0 0 0 0.217101154512009 0 0 0 0.0916646335078736 0 0 0 0 0 0 0 0 0 0 0 0 0 0 0 0 0 0 0 0.0968143874594442 0.1757960172808 0 0 -0.851383314432543 0 0 0 0 0
0 0 0 0 0 0.0262952487385226 0 0 0 0 0 0 0 0 0 0 0 0 0 0 0 0 0 0.187119688279533 0 0 0.217906658445105 0 0 0.939046430551784 0 0 0 0 0 0 0.16309963320885 0 0 0 0 0 0 0.170414518404023 0 -1.69186224424428 0 0 0 0
0 0 0 0 0 0 0 0 0 0 0 0 0.353497579703014 0 0 0 0 0 0 0.0638817518558829 0 0 0 0 0 0 0 0 0 0 0 0 0 0 0 0 0 0 0 0 0 0 0 0 0.359581963780868 0 0 0 0 0
0 0 0 0 0 0 0.198970492878616 0 0 0 0 0 0 0 0 0 0 0.109393904394901 0 0 0 0.399451943869257 0 0 0 0 0 0 0 0 0 0 0.405879819346813 0 0 0 0 0 0 0 0.378854679536921 0 0 0 0 0 0 0 0 -0.0387351179687458
0 0.273299258554408 0 0 0 0 0 0 0 0 1.26743431688276 0 0 0 0 0 0 0 0 0 0 0 0 0 0.229624541005496 0 0 0 0 0 0 0 0 0 0 0 0 0 0 0 0 0 0 0 0 0 0 0 0 -0.0916967650260851
0.0933616377974523 0 0 0 0 0 0 0 0 0 0 0 0 1.73470123179925 0 0 0 0 0 0 0.384549044700603 0 0 0 0 0 0 0 0 0 0 0 0 0 0 0 0 0 0 0 0 0 0 0 0 0 0 0 0 0
0.221118834499298 0 0 0 0 0 0 0 0 0 0 0 0 0 0 0 0 0 0 0 0 0 0 0 0 0 0 0 0 0 0 0 0 0 0 0 0.170905400947277 0 0 0 1.17427572933932 0 0 0 0 0 0.00811843602774154 0.0187685206888334 0 0
