0.536002726312473
1.49035098845603
0.33001239088098
2.05612150728512
0.167459466575479
0.611123400300059
0.160795213195027
0.169768009828393
0.98680157169366
1.96034052212159
2.4424948424176
1.24839128054973
0.289928177303478
1.21447925597912
0.340058461296051
1.45093288595832
0.253371599846466
1.54616771653767
0.60891689552645
0.994218701433639
2.0190427813296
0.0333863157408447
0.588875211651178
2.09868585869785
2.34277865434613
0.690806812023084
0.813008200348913
0.262980667790035
0.800354365665561
0.975781325813542
0.628311028637458
0.718279095230364
1.91544577513821
0.858793233124754
0.901690141535713
0.655287064432643
1.89405883970366
1.01022804627673
0.991592831623377
1.89205946797873
1.68729897600178
0.259520939742876
0.597215393371096
0.971479869530933
1.14909019078627
0.768559269169024
0.591193687056389
1.29220408170361
0.455377673998631
0.364617126197439
