0.293869184371244
0.418191085359021
0.62140412441629
0.019406703567234
1.01886969838986
0.422635049646289
1.07619443679002
0.296164944919969
0.142620803561878
0.345854455773234
0.491607369213954
0.257518785825444
1.12098371251007
2.45727609980335
2.09141205944702
0.00416856614904773
0.56443658456308
1.38558110367619
0.137662105857465
0.974220234381522
1.06049379949668
0.292916151861132
2.09261276054768
0.349917273303366
0.327378489208039
0.22040966005455
0.0512435726516677
0.60889028603851
0.300668103945281
0.381638935215026
0.684477716925512
1.20335285971753
0.65637612501456
1.25567666567605
0.336099990850242
0.468709449413227
0.53225049991031
0.314871571463352
0.159172482857833
0.0799432740004333
0.233788107045221
0.974431332019801
1.32898401908165
0.615457222925573
0.341350987983181
0.436535427743661
1.21693015514834
2.619026379083
0.358367459573611
0.548534512147661
