0 0 0 0 0 -1.62330269614068 0 0 0 0 0 0 0 0 0 0 0 0 0 0 0 0 0 0 0 0 0 0 0 0 0 0 0 0 0 0 -0.618052800397179 0 0 0 0 -1.91015032004634 0 0 0 0 0 0 0 0
0 0 0 0 0 0 0 0 0 0 0 0 0 0 0 0 0 0 0 0 0 0 0 -0.71523618765297 0 0 0 0 0 -5.31451880496651 0 -0.304310312818471 0 0 0 0 0 0 0 -1.28239726305455 0 0 -0.702195171151525 0 0 -1.49411206510157 0 -0.883829224661314 0 0
0 0 0 0 0 0 0 0 0 0 0 0 0 0 0 0 0 0 0 0 0 0 -0.376894762458865 0 0 0 -2.70074135864807 0 0 0 0 0 0 0 0 0 0 0 0 0 0 0 0 0 0 0 0 0 0 0
0 0 0 0 0 0 -1.09827446454924 -0.732494553592033 0 0 0 0 0 0 0 0 -0.627862135241799 0 0 0 0 -0.882739314544178 0 0 0 0 0 0 0 0 0 0 -1.7333615881545 0 0 0 0 0 0 -1.15430102451321 0 0 0 0 -0.410349905784915 0 0 0 0 0
0 0 0 0 0 0 -1.33167632388308 0 -0.688209163606083 0 0 0 0 0 0 -0.256667251715099 0 0 0 0 0 0 0 0 0 -3.62891023455685 0 0 0 0 0 0 -0.55616246105396 0 -0.707097352065504 0 0 0 0 0 0 0 0 0 0 0 0 0 0 0
0.32228644749577 0 0 0 0 0 0 0 0 0 -1.08320891772043 0 0 0 0 0 0 0 0 0 0 0 0 0 0 0 0 0 0 0 0 0 -0.85624806632151 0 0 0 0 0 0 0 0 0 0 0 0 0 0 0 0 0
0 0 0 0.225339374105518 0.253232223945294 0 0 0 0 0 0 0 0 0 0 0 0 0 0 0 0 0 0 0 0 0 0 0 0 0 0 0 0 0 0 0 0 0 0 0 0 0 0 0 0 0 -1.82018162409409 0 0 0
0 0 0 0.147080989834997 0 0 0 0 0 0 0 -0.804697936560521 0 0 0 0 0 0 0 0 0 0 0 0 -0.435989045677064 0 0 0 0 0 0 0 0 0 0 0 0 0 0 0 -2.31635744631056 0 0 0 0 0 0 0 0 0
0 0 0 0 0.131051220391491 0 0 0 0 0 0 0 0 0 0 0 0 -0.244553168225698 -0.830524299083012 0 0 0 0 0 0 -1.30578226984031 0 0 0 0 0 0 0 0 -1.65433995754127 0 0 0 0 0 -0.815869993193997 0 -0.795307735908519 0 -0.321627394855991 0 -2.56584102492612 0 0 0
0 0 0 0 0 0 0 0 0 0 0 0 0 0 -0.51069563458035 0 0 0 0 0 0 0 -0.429077194282641 0 0 0 0 -0.452319220456449 0 0 0 0 -0.08562547480143 0 0 0 0 0 0 0 0 -0.584910198058546 -0.556885136150944 0 0 0 0 0 0 0
0 0 0 0 0 0.207399731795668 0 0 0 0 0 0 0 0 0 0 0 0 0 0 0 0 0 0 0 0 -0.561434687434035 0 0 0 0 0 0 0 -0.364029746364075 0 0 0 -0.391482220871174 0 0 0 0 0 0 0 0 0 0 0
0 0 0 0 0 0 0 0.170688808148019 0 0 0 0 0 0 0 0 0 0 0 0 -4.24177715695374 0 0 0 0 0 0 0 0 0 0 0 0 0 0 0 0 0 0 0 0 0 -1.16818148972516 -0.425616622741781 0 0 0 0 -1.11302159014684 0
0 0 0 0 0 0 0 0 0 0 0 0 0 0 0 0 0 0 0 0 0 -1.65922282648319 0 0 0 0 0 -0.554669489747721 0 0 0 0 0 0 0 0 0 0 0 0 0 0 0 0 0 0 0 -0.217342287349905 -0.941427564640557 0
0 0 0 0 0 0 0 0 0 0 0 0 0 0 0 0 -1.26766631230394 0 0 -0.788360177584264 0 0 0 0 0 0 0 -7.44223490218584 0 0 0 0 0 -2.57379741823986 0 0 0 0 0 0 0 0 0 0 0 0 0 0 0 0
0 0 0 0 0 0 0 0 0 0.102421911366774 0 0 0 0 0 0 0 0 0 0 -1.46089238591423 0 0 0 0 0 0 0 0 0 0 0 -0.473638475529677 0 0 0 0 0 0 0 0 0 0 0 -1.11931636615037 0 0 0 0 0
0 0 0 0 0.0532294027413773 0 0 0 0 0 0 0 0 0 0 0 0 0 0 0 0 0 0 0 0 0 0 0 0 0 -1.99712781043052 0 0 0 0 0 0 0 0 0 -0.616404095004459 0 0 -2.2119089182304 0 0 0 0 0 0
0 0 0 0.130475688743468 0 0 0 0 0 0 0 0 0 0.251896667902596 0 0 0 0 0 0 0 0 0 0 0 0 0 0 0 0 -0.790107117927403 -1.0557266185006 0 0 0 0 0 0 0 0 -0.207288798452477 -2.5660674502362 0 0 0 0 0 0 0 0
0 0 0 0 0 0 0 0 0.0487264439643402 0 0 0 0 0 0 0 0 0 0 0 0 0 0 0 0 0 0 0 0 0 0 0 0 0 0 0 0 0 0 0 0 0 0 0 0 0 0 0 0 -0.362151067886575
0 0 0 0 0 0 0 0 0.155730587365567 0 0 0 0 0 0 0 0 0 0 0 0 0 0 -1.71679721641212 0 -3.02563150508861 0 0 0 0 0 -0.727964106243933 0 0 0 0 0 0 0 0 0 0 0 0 0 0 0 0 0 0
0 0 0 0 0 0 0 0 0 0 0 0 0 0.153497911648495 0 0 0 0 0 0 0 0 0 0 -1.17170300948309 0 0 0 0 0 0 0 0 0 0 0 -0.642721850171303 0 0 0 0 0 0 0 0 0 0 0 -0.670926517692289 0
0 0 0 0 0 0 0 0 0 0 0 0.841640923041499 0 0 0.280890668953814 0 0 0 0 0 0 0 0 0 0 0 0 0 0 -6.99894969103873 0 0 0 0 0 0 0 0 0 0 -1.87207429144933 0 -0.107187794573023 0 0 0 0 0 0 0
0 0 0 0.169496351022365 0 0 0 0 0 0 0 0 0.329440464207398 0 0 0 0 0 0 0 0 0 0 0 0 0 0 -1.01168430708793 0 0 0 -0.60946104675033 0 0 0 0 0 0 0 0 0 0 0 0 0 0 0 0 0 0
0 0 0.0676012338445569 0 0 0 0 0 0 0.0848364967001472 0 0 0 0 0 0 0 0 0 0 0 0 0 0 0 0 0 0 0 0 0 -0.95803525544432 0 0 0 0 0 0 0 0 0 0 0 0 0 0 0 0 0 0
0 0.140474372018384 0 0 0 0 0 0 0 0 0 0 0 0 0 0 0 0 0.349815003607303 0 0 0 0 0 0 0 0 0 0 0 0 0 0 0 0 0 0 0 -0.427175932303139 0 0 0 -0.237294802768919 0 -0.264763925954968 0 0 0 -0.369656858891355 0
0 0 0 0 0 0 0 0.0853461942598651 0 0 0 0 0 0 0 0 0 0 0 0.231191445365704 0 0 0 0 0 0 0 0 0 -2.09708533248587 0 0 0 0 -8.51332474479229 0 0 0 0 0 0 0 0 0 0 0 0 0 0 0
0 0 0 0 0.677912584869325 0 0 0 0.278015925661536 0 0 0 0 0 0 0 0 0 0.589985066247606 0 0 0 0 0 0 0 0 0 0 0 0 0 -1.45271925962505 0 0 0 0 0 0 0 -0.198858030927199 0 0 0 0 0 0 0 0 0
0 0 0.535303207668648 0 0 0 0 0 0 0 0.110543020407374 0 0 0 0 0 0 0 0 0 0 0 0 0 0 0 0 0 -0.501973746422629 0 0 0 0 0 0 0 0 0 0 0 0 0 0 0 0 -4.9748922042324 0 0 0 0
0 0 0 0 0 0 0 0 0 0.0841217940094132 0 0 0.110578924865589 1.46193694513557 0 0 0 0 0 0 0 0.18796160836021 0 0 0 0 0 0 0 -1.15874458975848 0 0 0 0 0 0 0 0 0 0 0 0 0 0 0 0 -1.46929763005662 0 0 0
0 0 0 0 0 0 0 0 0 0 0 0 0 0 0 0 0 0 0 0 0 0 0 0 0 0 0.0955925453641894 0 0 0 0 0 0 0 0 0 0 0 -0.496388631135387 0 0 0 0 0 0 0 0 0 0 0
0 1.17222822730826 0 0 0 0 0 0 0 0 0 0 0 0 0 0 0 0 0 0 1.44367366555168 0 0 0 0.434739029317095 0 0 0.219431803613374 0 0 0 0 0 0 0 -0.716814872558672 0 0 0 0 0 0 0 0 0 0 0 0 0 0
0 0 0 0 0 0 0 0 0 0 0 0 0 0 0 0.368823796563368 0.163888270136516 0 0 0 0 0 0 0 0 0 0 0 0 0 0 0 0 -2.32563506707835 0 0 0 0 0 0 0 -2.24234487135465 0 0 0 0 0 0 0 0
0 0.0620189291274543 0 0 0 0 0 0 0 0 0 0 0 0 0 0 0.205191461259656 0 0.146115213018557 0 0 0.111695353462855 0.188738238972885 0 0 0 0 0 0 0 0 0 0 0 0 -2.25431806867656 0 0 0 0 0 0 0 0 0 0 0 0 0 0
0 0 0 0.346719575997372 0.0995071428639136 0.17306201742175 0 0 0 0.0170204399905086 0 0 0 0 0.0973083836161309 0 0 0 0 0 0 0 0 0 0 0.293761399831911 0 0 0 0 0 0 0 0 -0.629114040241533 0 -3.69569974909321 0 0 0 0 0 0 0 0 -1.47851568821953 0 0 0 0
0 0 0 0 0 0 0 0 0 0 0 0 0 0.508554203537233 0 0 0 0 0 0 0 0 0 0 0 0 0 0 0 0 0.485932301955194 0 0 0 0 0 0 0 0 0 0 0 0 0 0 0 0 0 -0.693063735143998 0
0 0 0 0 0.135434804831647 0 0 0 0.29983837242074 0 0.0706263397169012 0 0 0 0 0 0 0 0 0 0 0 0 0 1.70877840499853 0 0 0 0 0 0 0 0.115884875961476 0 0 0 0 0 0 -0.365335639432173 0 0 0 0 0 0 0 0 0 0
0 0 0 0 0 0 0 0 0 0 0 0 0 0 0 0 0 0 0 0 0 0 0 0 0 0 0 0 0 0.133885325752818 0 0.449643727152071 0 0 0 0 0 0 -6.69536388889179 0 -3.19647006902361 0 0 0 -2.5716871741964 0 0 0 -0.574641216197277 0
0.128542550614612 0 0 0 0 0 0 0 0 0 0 0 0 0 0 0 0 0 0 0.128761936000892 0 0 0 0 0 0 0 0 0 0 0 0 0.79157449244636 0 0 0 0 0 0 0 0 -3.16246947441883 0 0 0 -2.40113281011609 0 0 0 0
0 0 0 0 0 0 0 0 0 0 0 0 0 0 0 0 0 0 0 0 0 0 0 0 0 0 0 0 0 0 0 0 0 0 0 0 0 0 0 0 -7.18898562901968 0 0 0 0 0 0 0 0 0
0 0 0 0 0 0 0 0 0 0 0.0716010787828372 0 0 0 0 0 0 0 0 0 0 0 0 0.0893088102573859 0 0 0 0 0.0939588319228533 0 0 0 0 0 0 1.27498199456478 0 0 0 0 0 0 0 0 -1.31657600316474 0 0 0 0 -1.93091929444796
0 0.263175067229272 0 0.230696634933646 0 0 0 0 0 0 0 0 0 0 0 0 0 0 0 0 0 0 0 0 0 0 0 0 0 0 0 0 0 0 0.0723739750818294 0 0 0 0 0 0 -2.23265575974108 0 0 0 0 0 0 0 0
0 0 0 0 0 0 0 0.459396507937315 0.163174821696626 0 0 0 0 0 0 0.132542512873838 0.0405691416298427 0 0 0 0.377482620032184 0 0 0 0 0.0371261148790672 0 0 0 0 0 0 0 0 0 0.674640429937021 0 1.387595715815 0 0 0 0 0 -0.217677837251721 0 0 0 0 0 0
0.398244612157979 0 0 0 0 0 0 0 0 0.12119050416298 0 0 0 0 0 0 0.533599293855232 0 0 0 0 0 0 0 0 0 0 0 0 0 0.460095043528136 0 0 0 0 0 0.630932080503244 0 0 0.476725031267872 0 0 0 0 0 0 0 0 0 0
0 0.152766718310514 0 0 0 0 0 0 0.164818186626477 0.105533148402698 0 0.250601375170498 0 0 0 0 0 0 0 0 0.0210115273054294 0 0 0.0479637207044123 0 0 0 0 0 0 0 0 0 0 0 0 0 0 0 0 0 0 0 0 0 0 0 0 0 0
0 0 0 0 0 0 0 0 0 0 0 0.0856228128111564 0 0 0 0.419001417120636 0 0 0 0 0 0 0 0 0 0 0 0 0 0 0 0 0 0 0 0 0 0 0 0 0.0446098025504117 0 0 0 0 0 0 0 0 0
0 0 0 0.0751360617178187 0 0 0 0 0.0659779987362037 0 0 0 0 0 0.219667340101654 0 0 0 0 0 0 0 0 0.0531565528850116 0 0 0 0 0 0 0 0 0 0 0 0.498018151033361 0 0 0.257953207145727 0 0 0 0 0 0 0 0 0 0 -1.01716497369374
0 0.291056663108809 0 0 0 0 0 0 0 0 0 0 0 0 0 0 0 0 0 0 0 0 0 0 0 0 0.995036163208304 0 0 0 0 0 0.30851952060807 0 0 0 0.467236313251802 0 0 0 0 0 0 0 0 0 0 0 0 0
0 0 0 0 0 0 0.352793212893998 0 0.498833527196568 0 0 0 0 0 0 0 0 0 0 0 0 0 0 0 0 0 0 0.296141919791969 0 0 0 0 0 0 0 0 0 0 0 0 0 0 0 0 0 0 0 -0.536533604570043 0 0
0 0.162108712324978 0 0 0 0 0 0 0 0 0 0 0.0421086125966079 0 0 0 0 0 0 0 0 0 0 0 0 0 0 0 0 0 0 0 0 0 0 0 0 0 0 0 0 0 0 0 0 0 0.107231281876862 0 0 0
0 0 0 0 0 0 0 0 0 0 0 0.224820834292769 0.181535872787088 0 0 0 0 0 0 0.14241808683005 0 0 0 0.0728535851455185 0 0 0 0 0 0 0 0 0 0.148154675582255 0 0.116159827322464 0 0 0 0 0 0 0 0 0 0 0 0 0 0
0 0 0 0 0 0 0 0 0 0 0 0 0 0 0 0 0 0.0728200486337786 0 0 0 0 0 0 0 0 0 0 0 0 0 0 0 0 0 0 0 0 0.369406509681972 0 0 0 0 0 0.216908593834482 0 0 0 0 0
