2.57690089522449
2.30001835789018
1.40862767646852
0.232096810714199
0.713093207949678
0.480144211741461
0.615452760110171
1.02700399283103
1.42837235966512
2.18984934876279
1.08288333391182
0.902893828168331
0.705369832479019
0.940724864455455
0.697288965912593
0.228392371854647
3.67934624252205
0.921806553232866
0.43378127545932
0.697999856359442
2.56032090774096
2.97939557239493
0.514833831047986
1.14917142792382
0.744793163308086
0.534789525558918
1.25364536621868
3.30200138869353
0.178905747023934
0.255547146733014
1.16480119598823
2.48786890516393
2.80478499767209
0.177288252192168
1.51285222526838
1.30923160714979
1.17108197781445
1.98820399889134
3.403403065272
0.983721548164261
0.819996041591357
0.121638363080903
0.597306935176052
0.40684341449156
0.732932799036402
1.252972836978
3.12353816649375
1.55064692205301
5.28069893988862
0.959246891181321
