0.373182299972148
1.86838202024773
0.952090166940556
0.829218611464487
0.410148103291828
2.54087035605667
0.397236940894419
0.1090208390226
0.479000080524536
1.51167798867483
0.459997613745509
1.70571226685669
1.38959642605341
0.179327070764494
0.751333122759381
2.03401272459336
0.232338758613605
1.69775964660743
0.798781996738179
0.279117654994494
0.520341234596415
0.170016384778811
0.149661249722182
0.326313441663765
1.18728598718646
2.30090403305796
0.805809894247131
1.28834938702517
1.63031025744143
3.18499388789621
0.586720031506883
3.12142498428087
1.53412244487556
1.0150261321229
0.668262405351204
1.28313921260118
0.61716728440774
0.358084114819378
0.753006998032511
0.464769450151275
0.736618719294739
3.00633913789339
2.89783468712968
0.556780062906946
0.492607678952028
1.96483545877851
1.32766143943339
0.962646695299155
3.00463709721817
1.10567691557749
