ResidualVar LogAbundance (Intercept) LogDegree LogCloseness LogEigenvector TrophicLevel
-0.300994605964823 0.589107833458107 -2.98816638982256 0.5087959298807 0.0794243138346024 0.144863439222631 0.479471987676184
-0.363469493586319 0.716307333156139 -2.98816638982256 0.5087959298807 0.0794243138346024 0.144863439222631 0.479471987676184
-0.244171878237857 0.726319209198495 -2.98816638982256 0.5087959298807 0.0794243138346024 0.144863439222631 0.479471987676184
-0.276169248156956 0.718885877024992 -2.98816638982256 0.5087959298807 0.0794243138346024 0.144863439222631 0.479471987676184
-0.242726065673041 0.659090521599071 -2.98816638982256 0.5087959298807 0.0794243138346024 0.144863439222631 0.479471987676184
-0.322242504106361 0.737887844699592 -2.98816638982256 0.5087959298807 0.0794243138346024 0.144863439222631 0.479471987676184
-0.302525549296841 0.779292522892614 -2.98816638982256 0.5087959298807 0.0794243138346024 0.144863439222631 0.479471987676184
-0.314172809711212 0.665020216649854 -2.98816638982256 0.5087959298807 0.0794243138346024 0.144863439222631 0.479471987676184
-0.360375622017448 0.790100735944691 -2.98816638982256 0.5087959298807 0.0794243138346024 0.144863439222631 0.479471987676184
-0.312565874798862 0.7288764016546 -2.98816638982256 0.5087959298807 0.0794243138346024 0.144863439222631 0.479471987676184
-0.31022744030664 0.643468906930589 -2.98816638982256 0.5087959298807 0.0794243138346024 0.144863439222631 0.479471987676184
-0.376934230097507 0.700861696625415 -2.98816638982256 0.5087959298807 0.0794243138346024 0.144863439222631 0.479471987676184
-0.289274785164127 0.649764337146699 -2.98816638982256 0.5087959298807 0.0794243138346024 0.144863439222631 0.479471987676184
-0.263749091788717 0.698695873431225 -2.98816638982256 0.5087959298807 0.0794243138346024 0.144863439222631 0.479471987676184
-0.306032721879657 0.699140691671132 -2.98816638982256 0.5087959298807 0.0794243138346024 0.144863439222631 0.479471987676184
-0.312747500795517 0.683888954227226 -2.98816638982256 0.5087959298807 0.0794243138346024 0.144863439222631 0.479471987676184
-0.35695159360828 0.664760487070874 -2.98816638982256 0.5087959298807 0.0794243138346024 0.144863439222631 0.479471987676184
-0.0718164023736811 0.676591546668674 -2.98816638982256 0.5087959298807 0.0794243138346024 0.144863439222631 0.479471987676184
-0.320762575885128 0.67257924764898 -2.98816638982256 0.5087959298807 0.0794243138346024 0.144863439222631 0.479471987676184
-0.246020814120011 0.67124059768684 -2.98816638982256 0.5087959298807 0.0794243138346024 0.144863439222631 0.479471987676184
-0.28645139375296 0.665048304829734 -2.98816638982256 0.5087959298807 0.0794243138346024 0.144863439222631 0.479471987676184
-0.307936796861429 0.674098383146439 -2.98816638982256 0.5087959298807 0.0794243138346024 0.144863439222631 0.479471987676184
-0.283143597811942 0.648512679925141 -2.98816638982256 0.5087959298807 0.0794243138346024 0.144863439222631 0.479471987676184
-0.0593894910556716 0.689606144345422 -2.98816638982256 0.5087959298807 0.0794243138346024 0.144863439222631 0.479471987676184
-0.2986259921586 0.675762726116988 -2.98816638982256 0.5087959298807 0.0794243138346024 0.144863439222631 0.479471987676184
-0.295934022294318 0.633494286787721 -2.98816638982256 0.5087959298807 0.0794243138346024 0.144863439222631 0.479471987676184
-0.287669777868325 0.661102557625195 -2.98816638982256 0.5087959298807 0.0794243138346024 0.144863439222631 0.479471987676184
-0.290580587612699 0.684110913891575 -2.98816638982256 0.5087959298807 0.0794243138346024 0.144863439222631 0.479471987676184
-0.259312130509135 0.643873809601557 -2.98816638982256 0.5087959298807 0.0794243138346024 0.144863439222631 0.479471987676184
-0.334823531770296 0.721707642108298 -2.98816638982256 0.5087959298807 0.0794243138346024 0.144863439222631 0.479471987676184
