0.255230592365128
0.0788543952158524
0.171318845837811
0.0601265596836398
1.27165923146765
0.0626648565795793
0.285105597285641
0.641429153860818
0.0255893993136338
0.596775224963356
1.16444696498682
0.369211373454447
0.179416704140033
1.21862263998161
2.18989432766686
1.00616211938264
0.109148752925523
1.21387428995252
1.67448656806592
0.160760164975478
0.394733490799361
0.620381732300049
0.58826084552494
0.721207011782571
0.913260436950259
0.0546515696941299
0.471779843207181
0.140132722377233
3.11463787213827
0.0146727240125844
1.03645313468999
2.31738165336375
0.739755197317421
0.365795583484921
1.88916093572812
0.183548527529782
0.0847330913395104
0.375026348378323
0.787709920010069
2.36428556485491
0.66674820385569
0.858855448424985
5.30681265775353
0.162956577032981
1.30485232069056
0.44829883668584
0.863644739754027
0.53297546515708
0.429684514951304
1.9877786584035
0.223144371278249
0.969435365900019
0.269508910318139
0.326397708488566
0.75863449332265
0.153972116662258
0.391410513155167
0.125254519579927
1.30348764610566
0.955820354328536
4.49617580944138
0.478324778287035
0.19258591458928
0.295006296680564
0.536973656595232
0.127020149151878
0.107741792186625
0.507876268765915
7.44039982216223
0.0371260937065136
1.1786485375895
0.0617365338087492
0.220422886782903
1.28811244465918
2.60758588504461
0.676774168757122
3.0733561680697
0.202535820764467
0.440396683476751
0.695305406624121
0.940860191733438
0.41612809057735
0.552881900055062
0.621702675030812
0.465039497647008
0.563676237343921
0.0992764495430749
1.27196544624463
0.226355205788354
2.32315578312347
0.642588658910412
1.13811438722701
0.917139340605164
2.61851929970318
0.0388733969088584
0.516546707497172
0.429996284621684
1.22809860580848
1.07397699847411
0.0847481436987528
0.16096005137563
0.447333180558268
0.186184433589909
0.40364182432937
0.68480875052411
0.194534184943219
0.865418303911471
4.711610287776
2.43280921530997
0.11588881081623
0.333022388203293
0.392550724496391
0.251180924755735
2.74916773102727
1.9023066621222
0.500818563253785
0.0524944136447666
0.347103370549021
1.48216484473249
1.23865476763642
0.127089368632507
0.0390834535572855
0.195408446840121
0.494886779621146
2.23945132572722
0.217163033409102
0.246610046994595
0.149738459443452
0.267218932084723
0.0620356402356581
0.357405793531094
0.00143695653672678
1.13081834177676
0.0634847843881748
0.657051253403079
1.08794948748378
0.502658238350793
5.71522481037301
0.378834282106673
1.18339583402536
0.0888587510494166
0.0979766172633629
0.235825646534123
0.922320341515559
0.331247185396634
0.392678686242185
6.38975982923679
0.527022573031626
0.774231730795839
0.985980099409457
0.289431134053939
4.7464872510472
1.54235385410622
2.16687455514844
0.939309276444506
0.745994279735107
1.01376354292341
0.27373725140933
0.842716938183713
0.616485442366886
0.62683897367341
1.57762289617314
0.891314220062061
0.767134442638688
0.0864872873466544
1.30530200462966
0.469641606222653
0.912096349155245
1.2749932943104
7.11596665566896
