0.263830607780061
1.08766986203761
0.188803746383619
1.27446877988829
0.584626496561795
0.511367061374615
3.18349575889664
0.238485090023411
0.582340126017388
0.145967412897673
1.24272671446946
0.366963953225542
0.474200916880575
0.559474898390165
0.479052438421201
1.91291653791864
4.8651552567267
0.976020798276242
3.58184917459297
0.364739555848669
1.95010932203461
1.2846124847045
2.47877888562877
0.180288945309923
0.600463402820902
0.647152117503023
2.19978449288928
2.08883535553777
0.491742388171069
1.76610605766941
4.3756667090635
0.811314888092188
0.800423138636745
0.258679548358019
0.6687437696286
0.696574486484187
0.0956969622103263
0.160307519484211
0.516524153514687
0.767876550157007
0.936696842258665
1.06632364299014
0.0740597950788761
1.72434934962838
1.76920491439655
0.308119966689385
0.319089591880451
0.759599788514862
1.84377970139815
0.490331902402474
0.641983529858847
1.19036745821053
1.33883118679245
3.32832513326797
4.55665004553963
1.51977872258389
1.66598002942967
1.4637965218465
0.358464745288727
0.823488301831293
0.225609628430424
1.11810134655477
6.59544334291079
2.07578217962561
0.280628483423257
0.322977053151797
0.835224394884471
2.98693890456217
0.80362817863887
0.144489202030889
4.17020941503065
5.33632500602024
8.18055270880301
1.13426805494315
0.712189880029469
1.76634792433382
0.141273144142582
7.81080843575902
1.7199216795167
1.39103547309987
0.527290327234199
8.34880522819466
1.787769873786
1.05567631810387
2.65842602306514
0.650926008992665
2.01114993596601
1.59566404389745
2.63732623612889
1.2943311915482
1.79959916054762
1.11832219885328
0.881964392539293
4.14056995996497
1.23178901911009
1.52104841600867
1.17649532989999
3.09598648656059
2.72465703918602
0.537827013170352
0.246383063535497
0.577990318219031
0.561739157752772
0.48061468337583
0.686710111367499
1.60871003036075
2.91327849866948
1.25215685785404
1.08345804932677
2.81305895519258
0.225457107069391
0.750812382535774
0.633181926200241
0.729463759792795
0.636114419737669
3.15928915737583
0.740889041398746
0.468171470541761
1.11575035745172
0.488060850960814
1.37196130131398
1.8437397477135
1.77944944585351
3.00706019052282
0.349993001958444
0.224723968696196
0.536123449465224
0.386584701072573
1.27919849236916
0.975635856690383
3.65045420951723
0.548241156577549
1.15036534499652
2.54298641948683
0.281035756950329
1.30150292959217
0.30115760683192
1.09207137481039
2.45194008726041
2.42389121851718
4.17369384501131
2.52069188605458
1.08902528324384
3.11411772221341
0.701374092846737
0.295149563138973
0.690825318592037
0.465896143984411
1.37432615931949
0.180385009324434
0.952490673509411
3.78321476557459
0.25665593759382
0.866348448605967
1.47469956979065
0.42425685790293
0.203326003493236
2.08542864860138
1.81909408420944
1.21141453616683
1.95243583267667
3.56958004586399
2.28232930767467
0.533774863395282
1.61386854149691
0.958167915729416
0.235000875290665
2.07708994532012
1.07359846617919
0.285430412326041
