1.32977426445249
0.123132029043082
0.843908277280617
0.732433549305782
0.220643539114104
0.176951426907259
6.16183175326284
0.287581895096359
7.37643393085208
0.754334482659837
0.133924047954786
0.84261180058506
0.201205178533091
1.18932495036501
2.62021046866191
1.27417995056851
0.203391700951567
0.29459612484091
0.473979456862889
1.42662093549904
1.08251285569693
0.368789739313456
0.359435170087464
0.135168204691222
0.240155439945505
0.296064294836268
0.407709599272532
0.841437129890374
3.12928136592906
1.36773576113364
0.147787067198708
0.0491375058248949
2.12826176766879
0.395109341766179
0.352066576903367
0.0111877582570703
0.342018634622065
0.406856831071347
0.424261133748114
0.256010442022837
0.0898985638991289
0.129430583638593
0.204993024616741
0.772045386846656
0.38902359870773
0.00432573898864933
2.36117232509177
0.357039859927052
0.0263952764535498
0.518082617080806
0.0308771836697441
0.906813256193842
0.302112771509281
2.50062490868188
1.10383868117984
1.21838438455171
2.04204842538605
0.528888525766815
1.89685254445602
0.692060595347721
1.4859770527066
2.35898564663077
0.239804175144031
0.0637595379855988
0.095640598416536
0.552452778639198
0.558445164225
2.29198276063231
0.0776373526903016
0.298738012517971
2.05316831112834
0.318285902590571
0.762466243993937
0.223074095521575
0.359246202638416
0.0410786688945368
0.339092987685032
4.62080960853988
0.0951757525725078
0.516642282554543
0.306690540242618
0.49696421743583
2.73722386626607
0.141406251111126
0.0957219154418194
0.15760930953744
0.191630504709127
0.551945701706617
0.648578280678302
1.72818337458145
0.407613327127062
0.643195458513507
1.66681641569724
0.410437434339786
0.368132499212901
0.473525637695597
0.547537440828303
0.731290826830573
1.85135713543646
0.0842037959015606
1.8974219532086
0.0903993845149369
0.0229676326655377
1.25988552946367
4.37058498642189
1.02121656940027
0.122940487017907
2.0935378657954
0.20328992465952
0.0263661141094427
1.11031495663069
0.277415104431576
0.606936423028032
0.308360037837476
2.14889218469491
1.05240762175225
0.106985322328373
0.114538549832915
0.0812307503665821
0.182391493815689
0.607362539498727
0.296517701574654
0.552021030036363
0.278119197918404
0.0447513085760935
0.0606668050493899
0.68233022672245
4.72812073301104
0.0582540388229934
0.137944603102604
0.280669950332685
0.497532856403456
0.566059505693266
0.15604760970504
4.9180930579542
0.213714616307368
1.18397966853974
0.520616524186294
0.0627169141216124
2.2561782764661
0.134868019769949
0.280650109950674
0.11179246741175
1.2612017962576
0.0713076328937038
0.184184228270764
1.59765518412597
0.813141968603522
0.211407805961307
0.168241596327862
0.134506645267214
2.09973382181805
0.4605750020391
0.219539836576749
0.550573886584281
2.53131752179022
0.169859095887753
1.03634565129084
0.421039729247466
0.640329327483384
0.514508351452747
0.271663368227551
0.418671583888169
0.627026297370515
0.144110916764832
0.564634501020589
2.20717621679099
0.367545859445328
0.83053502886845
0.102433266088351
