0.549256542711875
1.25658967901104
1.52092577170244
0.411716562299765
1.72139206542658
0.616103260087042
1.49718722721728
0.253092229442393
0.859443828908732
0.171803965024066
0.987511277066616
0.69598758914234
0.729597492692779
0.857565979840939
0.530787122333605
2.80390732538906
1.24544705435948
1.27604195918298
3.02045773042538
0.432413870436768
0.323291236937424
0.72945371156621
2.57945003692223
0.168471436738226
1.10900644766974
0.671302684505814
0.180105501406293
3.87542260863425
0.78766911309254
1.11213826083806
0.834523296221501
1.69103492146835
1.53725901938722
2.77274171120775
1.32013342230507
3.51090260642336
1.52052472009373
0.182710507251623
0.81764817779678
1.45834431435431
1.10338836397171
1.23607711965097
0.231593725876267
0.303913410655292
0.169093294892093
3.97778724097643
3.8875280750496
0.213414166630197
11.247501754157
0.82227417740908
1.1156692229341
0.629923357346318
3.78644866017
1.25609091242527
1.67117984943268
2.36950955301406
0.473201622838936
1.36989011193162
0.139894025382823
4.48220196343067
0.0729908730025616
1.08806426593315
3.34393330343996
0.0826979070903113
3.45665382426574
0.64573649865327
0.399281438827374
2.30569401823751
1.57235917610358
0.824205839791896
0.66300426061675
1.1794970133208
0.545731643416581
1.53153556604762
1.14812026608404
0.162524221269851
4.47139535978434
4.89057226639144
2.64421957968268
3.99775191150326
1.02478230291199
0.91727589802706
0.0659602408769494
0.489611074727625
0.35514763270288
1.13966402124426
5.1488456554786
0.653395126862267
2.06496141778398
0.62511009775007
0.20766716760613
2.51179115817167
1.46013527180649
0.950738754783175
2.55232934983577
1.59558212768097
3.03525429146233
1.42003641049397
0.632054581235102
1.9827439351573
0.534201176831219
0.722952419348198
0.211240538562332
0.323441385423166
3.35111314238948
2.13453203164484
0.271213276271399
1.85361704743993
1.07007820371892
1.79675660145197
1.7523922611479
1.49950264155268
0.376774457806626
3.27824413220604
2.33442188121807
4.97359888561529
0.815685516870068
2.94168884903292
2.11960670230029
0.203897326968186
0.406862488683097
0.417857742362944
0.551271453633373
2.48523169594604
0.656706611442483
2.92648896677326
0.0978550790027905
1.1897286595686
1.17242054677579
0.473757621956996
1.82324569610023
0.684809285774332
0.954911622302678
0.854588233154646
1.27651020013815
1.25004480394418
0.76179298674419
1.90724489252411
1.98523294575041
0.523986233664174
0.369479473808394
0.372669593396595
1.46586749426282
1.43049431791876
0.227534361930608
0.388569849581122
1.03331911831491
1.97725083307748
1.52964356244695
3.14400702197709
1.31736969948129
5.58853816746461
1.1404493412907
0.551749604141395
0.588303757938861
0.327771534503853
0.184216700108472
0.293181710644842
0.284756705400509
6.21839533594334
1.1713308276908
1.00223437927842
2.00226779951604
0.395826958945763
0.588937735617917
3.36356012682483
1.54397110022428
1.5919381200714
2.59852370498712
3.65456046757669
