-0.275678550050556 0 0 0 0 0 0 0 0 0 0 0 -1.66479823571076 0 0 0 0 0 0 0 -1.67749741595033 0 0 0 0 0 0 0 0 0 0 0 0 0 0 0 0 0 0 0 0 0 0 0 0 0 0 0 0 0
0 -0.275678550050556 0 0 0 0 0 0 0 0 0 0 -2.19436387978909 0 0 0 0 0 0 0 0 0 0 0 0 0 0 0 0 0 0 0 0 0 0 0 0 0 0 0 0 -1.17221910148068 0 0 0 0 0 0 0 0
0 0 -0.275678550050556 -0.397205055609136 0 0 0 0 0 0 0 0 -1.19583771909324 -0.285630403520194 0 0 0 0 0 0 0 0 0 0 0 0 0 0 0 0 0 0 0 0 0 0 0 0 0 0 0 -1.47940945289539 0 0 0 0 0 0 0 0
0 0 0.0789697943478525 -0.275678550050556 0 0 0 0 0 0 0 0 0 0 0 0 0 0 0 0 0 0 0 0 0 0 0 0 0 0 0 0 0 0 0 -0.198372029524032 0 0 0 0 0 0 0 0 0 0 0 0 0 0
0 0 0 0 -0.275678550050556 0 0 0 0 -7.06176961000584 0 0 0 0 0 0 0 0 0 0 0 0 0 0 0 0 0 -0.414928389373343 0 0 0 0 0 0 0 -1.70139574543274 0 0 0 0 0 0 0 0 0 0 0 0 0 0
0 0 0 0 0 -0.275678550050556 -4.92567624749837 0 0 -1.15779189304051 0 0 0 0 0 0 0 0 0 0 0 0 0 0 0 0 0 -0.420667589642364 -1.64508269854914 0 0 0 0 0 0 0 0 0 0 0 -0.80557909708977 0 0 0 0 0 0 0 0 0
0 0 0 0 0 0.946087610299568 -0.275678550050556 0 0 -1.20351227641416 0 0 0 0 0 0 0 0 0 0 0 0 0 0 0 0 0 -2.60427637905789 -1.70163453586982 0 0 0 0 0 0 0 0 0 -1.39935019375373 0 0 0 0 0 0 0 0 0 0 0
0 0 0 0 0 0 0 -0.275678550050556 0 -7.43693158397376 0 0 0 0 0 0 0 0 0 0 0 0 -1.03457578714745 0 0 0 0 -5.43602396412146 0 0 0 0 0 0 0 0 0 -0.350714979491375 -8.23963126041965 0 0 0 0 0 0 0 0 0 0 0
0 0 0 0 0 0 0 0 -0.275678550050556 -2.91868224580207 0 0 0 0 0 0 0 0 0 0 0 0 -1.42187016015556 0 0 0 0 -1.45057669346582 0 0 0 0 0 0 0 0 0 0 0 0 -1.57694908320194 0 0 0 0 0 0 0 0 0
0 0 0 0 1.32650756817869 0.247508139938053 0.248509146653396 1.55235405758364 0.550314475070148 -0.275678550050556 0 0 0 0 0 0 -2.1831956190071 0 0 0 0 0 -3.19999052839507 0 0 0 0 -1.06650569149572 -3.8088615679207 0 0 0 0 0 0 0 0 0 0 0 0 0 0 0 0 0 -1.38710785499282 0 0 0
0 0 0 0 0 0 0 0 0 0 -0.275678550050556 0 0 0 0 0 -5.8383334535209 0 0 0 0 0 0 0 0 0 0 -1.30686314265531 0 0 0 0 0 -0.494818332646657 0 0 0 0 0 0 0 0 0 -0.57085619402681 0 0 -0.968303658940356 0 0 0
0 0 0 0 0 0 0 0 0 0 0 -0.275678550050556 0 0 0 0 -1.0007963106486 0 0 0 0 0 0 0 0 0 0 -0.703386854550693 0 0 0 0 0 -2.91624098958199 0 0 0 0 0 0 0 0 0 0 0 0 -2.22937911644627 0 0 0
0.324757673899507 0.441253158132479 0.248168554214103 0 0 0 0 0 0 0 0 0 -0.275678550050556 0 0 0 -0.355001494734536 0 0 0 0 0 0 0 0 0 0 0 0 0 0 0 0 -2.50434782909709 0 0 0 0 0 0 0 0 0 0 0 0 0 0 0 0
0 0 0.0593560614279098 0 0 0 0 0 0 0 0 0 0 -0.275678550050556 0 0 0 0 0 0 0 0 0 0 0 0 0 -0.80229018230216 0 0 -0.354485482324916 0 0 0 0 0 0 0 0 0 0 0 0 0 0 0 -1.2838271616434 0 0 0
0 0 0 0 0 0 0 0 0 0 0 0 0 0 -0.275678550050556 0 0 0 0 0 0 0 0 0 0 0 0 -1.67283232813712 0 0 -1.70817944957583 0 0 0 0 0 0 0 0 0 0 0 0 0 0 0 -2.99359094883623 0 0 0
0 0 0 0 0 0 0 0 0 0 0 0 0 0 0 -0.275678550050556 0 0 0 0 0 0 0 0 -0.582428024249589 0 0 0 0 0 -3.36187063757312 0 0 0 0 0 0 0 0 0 0 0 0 0 0 0 -1.09989453340731 0 0 0
0 0 0 0 0 0 0 0 0 0.410870368233997 1.16599212583333 0.205116295909477 0.0695740455589149 0 0 0 -0.275678550050556 0 0 0 0 0 0 0 0 0 0 0 0 0 -0.1071354804956 0 0 0 0 0 0 0 0 0 0 0 0 0 0 0 -0.458261154870535 0 0 0
0 0 0 0 0 0 0 0 0 0 0 0 0 0 0 0 0 -0.275678550050556 0 0 0 0 0 0 -0.312946272872509 0 0 0 0 0 -0.212179848487077 0 0 0 0 0 0 0 0 0 0 0 0 0 0 0 -5.10341866259562 0 -0.647832519328702 0
0 0 0 0 0 0 0 0 0 0 0 0 0 0 0 0 0 0 -0.275678550050556 0 0 0 0 0 0 0 0 0 0 0 0 0 0 0 0 0 0 0 0 0 0 0 0 0 0 0 -1.05063181379215 0 -1.17989093604421 0
0 0 0 0 0 0 0 0 0 0 0 0 0 0 0 0 0 0 0 -0.275678550050556 0 0 0 -0.188845021481131 0 0 0 0 0 0 0 0 0 0 -1.86180828979783 0 0 0 0 0 0 0 0 0 0 0 -0.964406412066852 0 0 0
0.332651430256758 0 0 0 0 0 0 0 0 0 0 0 0 0 0 0 0 0 0 0 -0.275678550050556 0 0 -1.56618903017063 0 -0.408911338654055 0 0 0 0 0 0 0 0 0 0 0 0 0 0 0 0 0 0 0 -3.66732431491389 -1.94379279762906 0 -2.10406403582336 0
0 0 0 0 0 0 0 0 0 0 0 0 0 0 0 0 0 0 0 0 0 -0.275678550050556 0 0 0 0 0 0 0 0 0 0 0 0 0 0 0 0 0 0 0 0 0 0 0 -0.824423164438093 0 0 0 0
0 0 0 0 0 0 0 0.205473917276298 0.301359398595621 0.655567886173127 0 0 0 0 0 0 0 0 0 0 0 0 -0.275678550050556 0 0 0 0 0 0 0 0 0 0 0 0 0 0 0 0 0 0 0 0 0 0 -0.502969313832419 0 0 0 0
0 0 0 0 0 0 0 0 0 0 0 0 0 0 0 0 0 0 0 0.0398822761196059 0.317419911368274 0 0 -0.275678550050556 0 0 0 0 0 0 0 0 0 0 0 0 0 0 0 0 0 0 0 0 0 -1.73789237240348 0 0 0 0
0 0 0 0 0 0 0 0 0 0 0 0 0 0 0 0.11536126569173 0 0.0648223592503109 0 0 0 0 0 0 -0.275678550050556 0 0 0 0 0 0 0 0 0 0 0 0 0 0 0 0 0 0 0 0 -1.31719844304949 0 0 0 0
0 0 0 0 0 0 0 0 0 0 0 0 0 0 0 0 0 0 0 0 0.0813749265421509 0 0 0 0 -0.275678550050556 0 0 0 0 0 0 0 0 0 0 0 0 0 0 0 0 0 0 0 -0.344685628996651 0 0 0 0
0 0 0 0 0 0 0 0 0 0 0 0 0 0 0 0 0 0 0 0 0 0 0 0 0 0 -0.275678550050556 0 0 -0.173529637859569 0 -0.643350040776482 0 0 0 0 0 0 0 0 0 0 0 0 0 -1.12907701654381 0 0 0 0
0 0 0 0 0.0849080694799908 0.0867895269269771 0.498452529760611 1.15185333067522 0.291916687972378 0.209110733113642 0.288076453180898 0.137246565651713 0 0.169553343055653 0.345425567622104 0 0 0 0 0 0 0 0 0 0 0 0 -0.275678550050556 0 -1.81699359792653 0 0 0 0 0 0 0 0 0 0 0 0 0 0 0 -5.8070279532399 0 0 0 0
0 0 0 0 0 0.335416198940957 0.356101473927434 0 0 0.769281818222174 0 0 0 0 0 0 0 0 0 0 0 0 0 0 0 0 0 0 -0.275678550050556 -2.13360329975889 0 -0.995146579154714 0 0 0 0 0 0 0 0 0 0 0 0 0 -0.1836657902623 0 0 0 0
0 0 0 0 0 0 0 0 0 0 0 0 0 0 0 0 0 0 0 0 0 0 0 0 0 0 0.0323710799514009 0.376222185833915 0.401447883588071 -0.275678550050556 0.104636027221513 0 0.259911948734022 0.429109621169707 0.0439221231804478 0 0 0 0 0 0 0 0 0 0 0 0 0 0 0
0 0 0 0 0 0 0 0 0 0 0 0 0 0.0710771918120573 0.331422574980976 0.670796436401016 0.0216635022594232 0.0456731336110118 0 0 0 0 0 0 0 0 0 0 0 -0.516903453351732 -0.275678550050556 -9.88316146505622 0 0 0 0 0 0 0 0 0 0 0 0 0 0 0 0 0 0
0 0 0 0 0 0 0 0 0 0 0 0 0 0 0 0 0 0 0 0 0 0 0 0 0 0 0.132844371236798 0 0.198818624841513 0 1.96719489308853 -0.275678550050556 0 0 0 0 0 0 0 0 0 0 0 0 0 0 0 0 0 -0.284006078026687
0 0 0 0 0 0 0 0 0 0 0 0 0 0 0 0 0 0 0 0 0 0 0 0 0 0 0 0 0 -1.32713569145253 0 0 -0.275678550050556 0 0 0 0 0 0 0 0 0 0 0 0 0 0 0 0 0
0 0 0 0 0 0 0 0 0 0 0.0986375414993007 0.542577371311954 0.47874818448251 0 0 0 0 0 0 0 0 0 0 0 0 0 0 0 0 -2.01040990422505 0 0 0 -0.275678550050556 0 0 0 0 0 0 0 0 0 0 0 0 0 0 0 -0.383114603518663
0 0 0 0 0 0 0 0 0 0 0 0 0 0 0 0 0 0 0 0.342700378212971 0 0 0 0 0 0 0 0 0 -0.212649834547305 0 0 0 0 -0.275678550050556 0 0 0 0 0 0 0 0 0 0 0 0 0 0 0
0 0 0 0.0372685971363633 0.349901933571117 0 0 0 0 0 0 0 0 0 0 0 0 0 0 0 0 0 0 0 0 0 0 0 0 0 0 0 0 0 0 -0.275678550050556 0 0 0 -10.143934840998 0 0 0 0 0 0 0 0 0 -0.190425005066857
0 0 0 0 0 0 0 0 0 0 0 0 0 0 0 0 0 0 0 0 0 0 0 0 0 0 0 0 0 0 0 0 0 0 0 0 -0.275678550050556 0 0 -0.521817246800098 0 0 0 0 0 0 0 0 0 -0.848531255003839
0 0 0 0 0 0 0 0.0727277914859942 0 0 0 0 0 0 0 0 0 0 0 0 0 0 0 0 0 0 0 0 0 0 0 0 0 0 0 0 0 -0.275678550050556 0 0 0 0 0 0 -0.385374259781568 0 0 0 0 -0.799518605767405
0 0 0 0 0 0 0.27297898477361 1.58756527330933 0 0 0 0 0 0 0 0 0 0 0 0 0 0 0 0 0 0 0 0 0 0 0 0 0 0 0 0 0 0 -0.275678550050556 0 0 0 0 0 0 0 0 0 0 -0.313827345958162
0 0 0 0 0 0 0 0 0 0 0 0 0 0 0 0 0 0 0 0 0 0 0 0 0 0 0 0 0 0 0 0 0 0 0 2.22954388755189 0.0925096620970916 0 0 -0.275678550050556 0 0 0 0 -1.50795695458309 0 0 0 0 0
0 0 0 0 0 0.162848054042264 0 0 0.301832112259492 0 0 0 0 0 0 0 0 0 0 0 0 0 0 0 0 0 0 0 0 0 0 0 0 0 0 0 0 0 0 0 -0.275678550050556 0 0 0 -4.04804969578514 0 0 -4.16242968301898 0 0
0 0.226896028984448 0.297503178718685 0 0 0 0 0 0 0 0 0 0 0 0 0 0 0 0 0 0 0 0 0 0 0 0 0 0 0 0 0 0 0 0 0 0 0 0 0 0 -0.275678550050556 0 0 -2.14034809957842 0 0 0 0 0
0 0 0 0 0 0 0 0 0 0 0 0 0 0 0 0 0 0 0 0 0 0 0 0 0 0 0 0 0 0 0 0 0 0 0 0 0 0 0 0 0 0 -0.275678550050556 0 -2.58885305684218 0 0 0 0 0
0 0 0 0 0 0 0 0 0 0 0.113874960437174 0 0 0 0 0 0 0 0 0 0 0 0 0 0 0 0 0 0 0 0 0 0 0 0 0 0 0 0 0 0 0 0 -0.275678550050556 -0.569057233567149 0 0 0 0 0
0 0 0 0 0 0 0 0 0 0 0 0 0 0 0 0 0 0 0 0 0 0 0 0 0 0 0 0 0 0 0 0 0 0 0 0 0 0.0753691458943055 0 0.298089903154027 0.809071270296058 0.434395134273955 0.542897280602756 0.113863697151381 -0.275678550050556 0 0 0.289542768245291 0 0
0 0 0 0 0 0 0 0 0 0 0 0 0 0 0 0 0 0 0 0 0.736936474739812 0.159241102337697 0.0986315340069521 0.358986395713826 0.250395988108144 0.0673649060159127 0.208555220910166 1.15160472889889 0.0399093394678411 0 0 0 0 0 0 0 0 0 0 0 0 0 0 0 0 -0.275678550050556 0 0 0 0
0 0 0 0 0 0 0 0 0 0.280566064470451 0.190916197673513 0.457207214806398 0 0.244798345235024 0.639115399305304 0.24264188363477 0.0992241483054864 1.06738516046894 0.197481932339405 0.205677715035175 0.39895586892321 0 0 0 0 0 0 0 0 0 0 0 0 0 0 0 0 0 0 0 0 0 0 0 0 0 -0.275678550050556 0 0 0
0 0 0 0 0 0 0 0 0 0 0 0 0 0 0 0 0 0 0 0 0 0 0 0 0 0 0 0 0 0 0 0 0 0 0 0 0 0 0 0 0.882844846207704 0 0 0 -1.50122495854546 0 0 -0.275678550050556 0 0
0 0 0 0 0 0 0 0 0 0 0 0 0 0 0 0 0 0.127677296112296 0.236795737595764 0 0.441271710554449 0 0 0 0 0 0 0 0 0 0 0 0 0 0 0 0 0 0 0 0 0 0 0 0 0 0 0 -0.275678550050556 0
0 0 0 0 0 0 0 0 0 0 0 0 0 0 0 0 0 0 0 0 0 0 0 0 0 0 0 0 0 0 0 0.0625277176923398 0 0.082035992196736 0 0.0385286827298728 0.171002549068109 0.167907345888637 0.0646034361033106 0 0 0 0 0 0 0 0 0 0 -0.275678550050556
