-0.0918761552826348 -1.0577814874132 0 0 0 0 0 0 0 0 0 0 0 0 0 0 0 0 0 0 0 0 0 0 0 0 0 0 0 0 0 0 0 0 0 0 0 0 0 0 0 0 0 0 0 0 0 0 0 0
0.203720286091043 -0.0918761552826348 0 0 -0.76040772464691 0 0 0 0 0 0 0 0 0 0 -0.417504629976681 0 0 0 0 0 0 0 0 0 0 0 0 0 0 0 0 0 0 0 0 0 0 0 0 0 0 0 0 0 0 0 0 0 -0.640920370426048
0 0 -0.0918761552826348 -1.10063359570959 -0.440167579196089 0 0 0 0 0 0 0 0 0 0 0 0 0 0 0 -0.335933847325747 0 0 0 0 -1.29438744410197 0 0 0 0 0 0 0 0 -0.323702581769601 0 0 0 0 0 0 0 0 0 0 0 0 0 0 -1.17222538761671
0 0 0.199192508932219 -0.0918761552826348 -2.02657881817853 0 0 0 0 0 -0.696775389104534 0 0 0 0 -2.87132150049219 0 0 0 0 0 0 0 0 0 -0.19337381434148 0 0 0 0 0 0 0 0 -0.315408567018157 0 0 0 0 0 0 0 0 0 0 0 0 0 0 -1.40019542066577
0 0.153415737297218 0.096034637768044 0.3958081313309 -0.0918761552826348 0 0 0 0 0 -1.29280071331473 0 0 0 0 -0.469917357624241 0 0 0 0 0 0 0 0 0 -0.343047261264248 0 0 0 0 0 0 0 0 0 0 0 0 0 0 0 0 0 0 0 0 0 0 0 -3.74130831736676
0 0 0 0 0 -0.0918761552826348 0 0 0 0 0 0 0 0 0 0 0 0 0 0 -0.191208867068345 0 0 0 0 0 0 0 0 0 0 0 0 0 -1.01089391128924 0 0 0 0 0 0 0 0 0 0 0 0 0 0 -3.99491360479609
0 0 0 0 0 0 -0.0918761552826348 0 0 0 0 0 0 0 0 0 0 0 0 0 0 0 0 0 0 -1.05217403958018 0 0 0 0 0 0 0 0 -0.506931521791565 0 0 0 0 0 0 0 0 0 0 0 0 0 0 0
0 0 0 0 0 0 0 -0.0918761552826348 0 -3.57204494918053 0 0 0 0 0 0 0 0 0 0 0 0 0 0 -0.749502228598434 0 0 0 0 0 0 0 0 0 0 0 0 0 0 0 -0.544495323636202 0 0 0 0 0 0 0 0 0
0 0 0 0 0 0 0 0 -0.0918761552826348 0 0 -0.669634395340778 -1.5711561030323 0 0 0 0 0 0 0 -4.79232378965914 0 0 0 -1.77716812752989 0 0 0 0 0 0 0 0 0 0 0 0 0 0 0 -2.1916662887093 0 0 0 0 0 0 0 0 0
0 0 0 0 0 0 0 0.767180800873118 0 -0.0918761552826348 0 0 -0.547394559791202 0 0 0 0 0 0 0 0 0 0 0 -0.438330549710535 0 0 0 0 0 -0.596664453153551 0 0 0 0 0 0 0 0 0 -0.66959516386926 0 0 0 0 0 0 0 0 0
0 0 0 0.131499764248757 0.257219047198389 0 0 0 0 0 -0.0918761552826348 0 0 0 -0.409252545014713 0 0 0 0 0 0 -8.7277117132044 0 0 -1.23222973994097 0 0 0 0 0 -1.18274059584524 0 0 0 0 0 0 0 0 -1.06676192223344 0 0 0 0 0 0 0 0 0 0
0 0 0 0 0 0 0 0 0.135777615286365 0 0 -0.0918761552826348 0 -0.271439733130589 0 0 0 0 -4.59195952384644 0 0 -1.07338782363704 0 0 -0.696289050406316 0 0 0 0 0 -2.37049054063005 0 0 0 0 0 0 0 0 0 0 0 0 0 0 0 0 0 0 0
0 0 0 0 0 0 0 0 0.325146788955079 0.101139974548887 0 0 -0.0918761552826348 -0.235954714272861 0 0 0 0 -0.222192426136297 0 0 0 0 0 0 0 0 0 0 0 -0.716591377177845 0 0 0 0 0 0 0 0 -0.604663558727869 -0.680593648410858 0 0 0 0 0 0 0 -0.349895390088401 0
0 0 0 0 0 0 0 0 0 0 0 0.0576603373869879 0.0441900951012786 -0.0918761552826348 0 0 -0.942250645282737 0 -0.520666611092693 0 0 -7.81685332349303 0 0 -1.26730120145107 0 0 0 0 0 -4.57774717375803 0 0 0 0 0 0 0 0 -3.98796030440497 -0.8338015832051 0 0 0 0 0 0 0 -0.489197105677946 0
0 0 0 0 0 0 0 0 0 0 0.0779695873745847 0 0 0 -0.0918761552826348 0 0 0 0 0 0 0 0 0 -0.172661090344171 0 0 0 0 -2.58013720371616 0 0 0 0 0 0 -3.48244884755863 0 0 0 0 0 0 0 0 0 0 0 -1.25320161429152 0
0 0.0823441313180701 0 0.567773286703794 0.0992544482749357 0 0 0 0 0 0 0 0 0 0 -0.0918761552826348 0 0 0 -1.33387309910859 0 0 0 0 -3.51665958172639 0 0 0 0 -0.521759015513805 0 0 0 0 0 0 -1.21084858026664 0 0 0 0 0 0 0 0 0 0 0 -0.256383201835378 0
0 0 0 0 0 0 0 0 0 0 0 0 0 0.181670628760527 0 0 -0.0918761552826348 0 0 0 0 0 0 0 -0.562429301442195 0 0 0 0 -0.345702044675456 0 0 0 0 0 0 0 0 0 0 0 0 0 0 -2.2657376568828 0 0 0 -0.541315279445517 0
0 0 0 0 0 0 0 0 0 0 0 0 0 0 0 0 0 -0.0918761552826348 0 0 0 0 0 0 -0.817855520667422 0 0 0 0 -1.08395191506392 0 0 0 0 0 0 0 0 0 0 0 0 0 0 -0.79117857596366 0 -3.56047442034812 0 -2.92981417547992 0
0 0 0 0 0 0 0 0 0 0 0 0.91535599536232 0.0451496365222684 0.11103386130014 0 0 0 0 -0.0918761552826348 0 0 0 0 0 -0.645715564395312 0 0 0 0 0 0 0 0 0 0 0 0 0 0 0 0 0 0 0 -4.1990233263924 0 -2.72574474584157 0 -0.399846112780309 0
0 0 0 0 0 0 0 0 0 0 0 0 0 0 0 0.271640681564388 0 0 0 -0.0918761552826348 0 0 0 -1.09729220995966 -1.54967845638505 0 0 0 0 -1.11085470247651 0 0 0 0 0 0 0 0 0 0 0 0 0 0 -8.47698885887984 0 0 0 0 0
0 0 0.067707323648526 0 0 0.0387552169240789 0 0 1.00335723021124 0 0 0 0 0 0 0 0 0 0 0 -0.0918761552826348 0 0 -0.761039328808968 0 0 0 0 0 -0.203221388275781 0 0 0 0 0 0 0 0 0 0 0 0 0 0 -0.384173331407579 0 -1.12808201924218 0 0 0
0 0 0 0 0 0 0 0 0 0 1.68742727960008 0.208928353560474 0 1.46083991695452 0 0 0 0 0 0 0 -0.0918761552826348 0 -0.113594953599638 0 0 0 0 0 0 0 0 0 0 0 0 0 0 0 0 0 0 0 0 -0.297807186718316 0 -2.79139631554815 0 0 0
0 0 0 0 0 0 0 0 0 0 0 0 0 0 0 0 0 0 0 0 0 0 -0.0918761552826348 0 -2.63084464692934 0 0 0 0 0 0 0 0 0 0 0 0 0 0 0 0 0 0 0 -1.54752087451077 0 0 0 0 0
0 0 0 0 0 0 0 0 0 0 0 0 0 0 0 0 0 0 0 0.222143676586821 0.151694411391639 0.0233312416694717 0 -0.0918761552826348 0 0 0 0 0 0 0 0 0 0 0 0 0 0 0 0 0 -2.27440532324219 0 0 0 0 0 0 0 0
0 0 0 0 0 0 0 0.153621685568626 0.343207574384206 0.0859501113327121 0.251207342613848 0.138956682836062 0 0.257803044354416 0.0366414282491483 0.736105432657802 0.117810965483473 0.157884016957582 0.13253481386778 0.307818479047074 0 0 0.512960105354645 0 -0.0918761552826348 0 0 0 0 0 0 -0.123499830686728 0 0 0 0 0 0 0 0 0 0 0 0 -0.785739905329988 -0.722933248951394 0 0 0 0
0 0 0.261954096751359 0.0376045752954903 0.0687663381795261 0 0.206718332428968 0 0 0 0 0 0 0 0 0 0 0 0 0 0 0 0 0 0 -0.0918761552826348 0 0 0 0 0 0 0 0 0 0 0 0 0 0 0 0 0 0 -0.220502883104529 0 0 0 0 0
0 0 0 0 0 0 0 0 0 0 0 0 0 0 0 0 0 0 0 0 0 0 0 0 0 0 -0.0918761552826348 0 0 0 0 0 0 0 0 0 0 0 0 0 0 0 -0.859167827946124 0 -0.532907511247596 -3.38333929443076 0 0 0 0
0 0 0 0 0 0 0 0 0 0 0 0 0 0 0 0 0 0 0 0 0 0 0 0 0 0 0 -0.0918761552826348 0 0 0 0 0 0 0 0 0 0 0 0 0 0 0 0 -4.3810039766387 -1.16215569321553 0 0 0 0
0 0 0 0 0 0 0 0 0 0 0 0 0 0 0 0 0 0 0 0 0 0 0 0 0 0 0 0 -0.0918761552826348 0 0 0 0 0 0 -0.548626689356853 0 0 0 0 0 0 0 0 0 -1.75552277627296 0 0 0 0
0 0 0 0 0 0 0 0 0 0 0 0 0 0 0.489935522238669 0.106828833113521 0.0755891229345804 0.219506631827219 0 0.226076658135891 0.0426098061358433 0 0 0 0 0 0 0 0 -0.0918761552826348 0 0 0 0 0 -1.42031292719672 0 0 0 0 0 0 0 0 0 -5.96355108349464 0 0 0 0
0 0 0 0 0 0 0 0 0 0.113495282863547 0.231628284998488 0.523653652195141 0.143790289990211 0.989714753410069 0 0 0 0 0 0 0 0 0 0 0 0 0 0 0 0 -0.0918761552826348 0 0 0 0 -0.659688902442567 0 0 0 0 0 0 0 0 0 -0.893001002175766 0 0 0 0
0 0 0 0 0 0 0 0 0 0 0 0 0 0 0 0 0 0 0 0 0 0 0 0 0.0270625051772628 0 0 0 0 0 0 -0.0918761552826348 0 0 0 -0.43365889364489 0 0 0 0 0 0 0 0 0 0 0 0 0 0
0 0 0 0 0 0 0 0 0 0 0 0 0 0 0 0 0 0 0 0 0 0 0 0 0 0 0 0 0 0 0 0 -0.0918761552826348 0 0 -1.58816329740448 0 0 0 0 0 0 0 0 0 -0.20686872199811 0 0 0 0
0 0 0 0 0 0 0 0 0 0 0 0 0 0 0 0 0 0 0 0 0 0 0 0 0 0 0 0 0 0 0 0 0 -0.0918761552826348 0 0 0 0 0 0 0 0 0 0 0 -0.125585998717654 0 0 0 0
0 0 0.0599763510276413 0.0593825791197429 0 0.206312372723313 0.107064329605058 0 0 0 0 0 0 0 0 0 0 0 0 0 0 0 0 0 0 0 0 0 0 0 0 0 0 0 -0.0918761552826348 0 0 0 0 0 0 0 0 0 0 -1.21125140519018 0 -12.0256873590381 0 0
0 0 0 0 0 0 0 0 0 0 0 0 0 0 0 0 0 0 0 0 0 0 0 0 0 0 0 0 0.100555773246418 0.294950159619919 0.125581056766764 0.0864965591528805 0.318808893132531 0 0 -0.0918761552826348 0 0 0 0 0 0 0 0 0 0 0 0 0 0
0 0 0 0 0 0 0 0 0 0 0 0 0 0 0.702941469808762 0.254025887412321 0 0 0 0 0 0 0 0 0 0 0 0 0 0 0 0 0 0 0 0 -0.0918761552826348 0 0 0 0 0 0 0 0 0 0 0 0 0
0 0 0 0 0 0 0 0 0 0 0 0 0 0 0 0 0 0 0 0 0 0 0 0 0 0 0 0 0 0 0 0 0 0 0 0 0 -0.0918761552826348 0 0 0 0 0 0 0 0 0 -0.360827499629547 0 0
0 0 0 0 0 0 0 0 0 0 0 0 0 0 0 0 0 0 0 0 0 0 0 0 0 0 0 0 0 0 0 0 0 0 0 0 0 0 -0.0918761552826348 0 0 0 0 0 0 0 0 -0.276049978859976 0 0
0 0 0 0 0 0 0 0 0 0 0.214756880658122 0 0.116775669501999 0.776477740135042 0 0 0 0 0 0 0 0 0 0 0 0 0 0 0 0 0 0 0 0 0 0 0 0 0 -0.0918761552826348 0 0 0 0 0 0 0 -0.565308213163271 0 0
0 0 0 0 0 0 0 0.105772540387257 0.443213526918971 0.129527799039898 0 0 0.140876500543966 0.14934901574492 0 0 0 0 0 0 0 0 0 0 0 0 0 0 0 0 0 0 0 0 0 0 0 0 0 0 -0.0918761552826348 0 0 -1.58739439759743 0 0 0 0 0 0
0 0 0 0 0 0 0 0 0 0 0 0 0 0 0 0 0 0 0 0 0 0 0 0.431598862315716 0 0 0 0 0 0 0 0 0 0 0 0 0 0 0 0 0 -0.0918761552826348 0 -2.16175495307549 0 0 0 -1.11788964302986 0 0
0 0 0 0 0 0 0 0 0 0 0 0 0 0 0 0 0 0 0 0 0 0 0 0 0 0 0.156257525149131 0 0 0 0 0 0 0 0 0 0 0 0 0 0 0 -0.0918761552826348 -2.22950508150141 0 0 0 0 0 0
0 0 0 0 0 0 0 0 0 0 0 0 0 0 0 0 0 0 0 0 0 0 0 0 0 0 0 0 0 0 0 0 0 0 0 0 0 0 0 0 0.330416201698763 0.432287864129212 0.444986181959249 -0.0918761552826348 0 0 0 -0.712921264301663 0 0
0 0 0 0 0 0 0 0 0 0 0 0 0 0 0 0 0.416927038724778 0.158238967852604 0.796404326684621 1.65842646492508 0.0742516060358023 0.0505511986695609 0.292331420278934 0 0.165440734909531 0.0442647287764215 0.103943019708799 0.896877371867375 0 0 0 0 0 0 0 0 0 0 0 0 0 0 0 0 -0.0918761552826348 0 0 -1.35669407621538 0 0
0 0 0 0 0 0 0 0 0 0 0 0 0 0 0 0 0 0 0 0 0 0 0 0 0.129710124036709 0 0.679011803462974 0.244615790555331 0.341649425378321 1.16729857950122 0.170909521961073 0 0.0394905926530713 0.0254279920320566 0.222492231124032 0 0 0 0 0 0 0 0 0 0 -0.0918761552826348 0 0 0 0
0 0 0 0 0 0 0 0 0 0 0 0 0 0 0 0 0 0.755673847641202 0.533267987274609 0 0.222298425786886 0.569267239308716 0 0 0 0 0 0 0 0 0 0 0 0 0 0 0 0 0 0 0 0 0 0 0 0 -0.0918761552826348 -1.88106973999839 0 0
0 0 0 0 0 0 0 0 0 0 0 0 0 0 0 0 0 0 0 0 0 0 0 0 0 0 0 0 0 0 0 0 0 0 2.29872585681614 0 0 0.0717702935666301 0.0494237136310267 0.112656860185674 0 0.230944595846706 0 0.138215051635955 0.278214258794756 0 0.402170809491974 -0.0918761552826348 0 0
0 0 0 0 0 0 0 0 0 0 0 0 0.0708266069033166 0.0936658563677394 0.242452015125948 0.0509870171012786 0.109598258683034 0.583649662849786 0.0827031060514901 0 0 0 0 0 0 0 0 0 0 0 0 0 0 0 0 0 0 0 0 0 0 0 0 0 0 0 0 0 -0.0918761552826348 0
0 0.12969005953056 0.23864200769823 0.270567746240336 0.764565494256406 0.830677290990575 0 0 0 0 0 0 0 0 0 0 0 0 0 0 0 0 0 0 0 0 0 0 0 0 0 0 0 0 0 0 0 0 0 0 0 0 0 0 0 0 0 0 0 -0.0918761552826348
