-0.283572328798821 -4.09298757414041 0 0 0 0 0 0 0 0 0 0 0 0 0 0 0 0 0 0 0 0 0 0 0 0 0 0 0 0 0 0 0 0 0 0 0 0 0 0 0 0 0 0 0 0 0 0 0 0
0.738906922322886 -0.283572328798821 0 0 -1.43371193186684 0 0 0 0 0 0 0 0 0 0 -3.79101102236335 0 0 0 0 0 0 0 0 0 0 0 0 0 0 0 0 0 0 0 0 0 0 0 0 0 0 0 0 0 0 0 0 0 -1.52809208875123
0 0 -0.283572328798821 -9.07522250477091 -8.99819201402658 0 0 0 0 0 0 0 0 0 0 0 0 0 0 0 -2.43462671776273 0 0 0 0 -2.21466857013566 0 0 0 0 0 0 0 0 -1.69760477053011 0 0 0 0 0 0 0 0 0 0 0 0 0 0 -0.460318428921508
0 0 1.85240063469125 -0.283572328798821 -2.23869900275012 0 0 0 0 0 -1.434729504302 0 0 0 0 -2.29198916050398 0 0 0 0 0 0 0 0 0 -0.681615786177508 0 0 0 0 0 0 0 0 -1.13626269900745 0 0 0 0 0 0 0 0 0 0 0 0 0 0 -0.27947979195169
0 0.280540668035321 1.88561920889578 0.485744174908055 -0.283572328798821 0 0 0 0 0 -0.312216619683069 0 0 0 0 -2.38026129429387 0 0 0 0 0 0 0 0 0 -1.72001988161084 0 0 0 0 0 0 0 0 0 0 0 0 0 0 0 0 0 0 0 0 0 0 0 -0.561100774229448
0 0 0 0 0 -0.283572328798821 0 0 0 0 0 0 0 0 0 0 0 0 0 0 -0.881018452354222 0 0 0 0 0 0 0 0 0 0 0 0 0 -1.20723319296676 0 0 0 0 0 0 0 0 0 0 0 0 0 0 -2.64490119651042
0 0 0 0 0 0 -0.283572328798821 0 0 0 0 0 0 0 0 0 0 0 0 0 0 0 0 0 0 -1.19045868812579 0 0 0 0 0 0 0 0 -0.667169501859904 0 0 0 0 0 0 0 0 0 0 0 0 0 0 0
0 0 0 0 0 0 0 -0.283572328798821 0 -0.210525373892273 0 0 0 0 0 0 0 0 0 0 0 0 0 0 -0.254950207955542 0 0 0 0 0 0 0 0 0 0 0 0 0 0 0 -1.59187625960911 0 0 0 0 0 0 0 0 0
0 0 0 0 0 0 0 0 -0.283572328798821 0 0 -0.105600086639172 -1.07024176086719 0 0 0 0 0 0 0 -0.428874454657269 0 0 0 -1.35943367711084 0 0 0 0 0 0 0 0 0 0 0 0 0 0 0 -1.14997994678054 0 0 0 0 0 0 0 0 0
0 0 0 0 0 0 0 0.0387287192524847 0 -0.283572328798821 0 0 -0.628252117435548 0 0 0 0 0 0 0 0 0 0 0 -0.331733688013886 0 0 0 0 0 -0.475174952959814 0 0 0 0 0 0 0 0 0 -5.05738361990024 0 0 0 0 0 0 0 0 0
0 0 0 0.297643380431192 0.0582178098527331 0 0 0 0 0 -0.283572328798821 0 0 0 -0.366112324593791 0 0 0 0 0 0 -0.587776950803863 0 0 -0.55572646337759 0 0 0 0 0 -0.197187526275542 0 0 0 0 0 0 0 0 -0.792885093652872 0 0 0 0 0 0 0 0 0 0
0 0 0 0 0 0 0 0 0.0215566601090928 0 0 -0.283572328798821 0 -0.199040952930019 0 0 0 0 -5.87254348211531 0 0 -2.08692630655009 0 0 -0.434552913366108 0 0 0 0 0 -0.874865509780512 0 0 0 0 0 0 0 0 0 0 0 0 0 0 0 0 0 0 0
0 0 0 0 0 0 0 0 0.220121352183335 0.133135230755692 0 0 -0.283572328798821 -0.424068570996185 0 0 0 0 -0.843131418472886 0 0 0 0 0 0 0 0 0 0 0 -0.920728033437756 0 0 0 0 0 0 0 0 -2.39709557792808 -6.7777230376828 0 0 0 0 0 0 0 -3.89698011162746 0
0 0 0 0 0 0 0 0 0 0 0 0.0430768986137774 0.0802476708927154 -0.283572328798821 0 0 -0.461122076047242 0 -0.288548578915043 0 0 -0.610804688945268 0 0 -1.18301748090353 0 0 0 0 0 -1.54378112643637 0 0 0 0 0 0 0 0 -1.06807681154266 -0.50614652206844 0 0 0 0 0 0 0 -1.26611612859816 0
0 0 0 0 0 0 0 0 0 0 0.0759969472483013 0 0 0 -0.283572328798821 0 0 0 0 0 0 0 0 0 -0.693478676855222 0 0 0 0 -1.12698296719942 0 0 0 0 0 0 -0.951632865757747 0 0 0 0 0 0 0 0 0 0 0 -1.3104347965833 0
0 0.799972127646321 0 0.463139542053644 0.485996329377776 0 0 0 0 0 0 0 0 0 0 -0.283572328798821 0 0 0 -1.16908419448832 0 0 0 0 -0.358037027326379 0 0 0 0 -0.564030003082821 0 0 0 0 0 0 -0.912467324235377 0 0 0 0 0 0 0 0 0 0 0 -0.220773722697149 0
0 0 0 0 0 0 0 0 0 0 0 0 0 0.0908396559541843 0 0 -0.283572328798821 0 0 0 0 0 0 0 -0.909804967981303 0 0 0 0 -1.14109940482057 0 0 0 0 0 0 0 0 0 0 0 0 0 0 -0.371553887481989 0 0 0 -0.329728110853823 0
0 0 0 0 0 0 0 0 0 0 0 0 0 0 0 0 0 -0.283572328798821 0 0 0 0 0 0 -2.49481376618362 0 0 0 0 -2.35365416496774 0 0 0 0 0 0 0 0 0 0 0 0 0 0 -7.28424532643132 0 -1.40761216961823 0 -0.0636656047847136 0
0 0 0 0 0 0 0 0 0 0 0 1.17647846057399 0.158935121331188 0.0596799817006573 0 0 0 0 -0.283572328798821 0 0 0 0 0 -1.17433006509631 0 0 0 0 0 0 0 0 0 0 0 0 0 0 0 0 0 0 0 -4.51510554954214 0 -2.93160529921985 0 -0.842026269749831 0
0 0 0 0 0 0 0 0 0 0 0 0 0 0 0 0.222349905124024 0 0 0 -0.283572328798821 0 0 0 -0.525374282142614 -0.540980660902118 0 0 0 0 -0.476179216709322 0 0 0 0 0 0 0 0 0 0 0 0 0 0 -2.16086769277757 0 0 0 0 0
0 0 0.511228231016583 0 0 0.185247675502951 0 0 0.082498432510646 0 0 0 0 0 0 0 0 0 0 0 -0.283572328798821 0 0 -0.642110501109921 0 0 0 0 0 -0.256150400863962 0 0 0 0 0 0 0 0 0 0 0 0 0 0 -1.34458498338095 0 -0.622806882496557 0 0 0
0 0 0 0 0 0 0 0 0 0 0.116053604503214 0.41954785628575 0 0.130210114249628 0 0 0 0 0 0 0 -0.283572328798821 0 -3.68292756932115 0 0 0 0 0 0 0 0 0 0 0 0 0 0 0 0 0 0 0 0 -4.80586216744967 0 -0.850887299852765 0 0 0
0 0 0 0 0 0 0 0 0 0 0 0 0 0 0 0 0 0 0 0 0 0 -0.283572328798821 0 -2.01732815396143 0 0 0 0 0 0 0 0 0 0 0 0 0 0 0 0 0 0 0 -2.24441071476377 0 0 0 0 0
0 0 0 0 0 0 0 0 0 0 0 0 0 0 0 0 0 0 0 0.114072111249258 0.119956990595351 0.667627341174151 0 -0.283572328798821 0 0 0 0 0 0 0 0 0 0 0 0 0 0 0 0 0 -1.93783362146795 0 0 0 0 0 0 0 0
0 0 0 0 0 0 0 0.0509875810104688 0.260420787693461 0.0667788336815688 0.10570639407101 0.0838541131024632 0 0.21343164962766 0.141300771056175 0.0643800484457429 0.183468119176922 0.454834264319831 0.231441894907567 0.110891154277349 0 0 0.401593347070088 0 -0.283572328798821 0 0 0 0 0 0 -2.40891192743383 0 0 0 0 0 0 0 0 0 0 0 0 -2.05607286475362 -0.361197843715891 0 0 0 0
0 0 0.426032605076707 0.137294936093283 0.323337987805825 0 0.246998860427252 0 0 0 0 0 0 0 0 0 0 0 0 0 0 0 0 0 0 -0.283572328798821 0 0 0 0 0 0 0 0 0 0 0 0 0 0 0 0 0 0 -0.257461069064345 0 0 0 0 0
0 0 0 0 0 0 0 0 0 0 0 0 0 0 0 0 0 0 0 0 0 0 0 0 0 0 -0.283572328798821 0 0 0 0 0 0 0 0 0 0 0 0 0 0 0 -0.435915735043369 0 -0.468774289003662 -2.56678555521934 0 0 0 0
0 0 0 0 0 0 0 0 0 0 0 0 0 0 0 0 0 0 0 0 0 0 0 0 0 0 0 -0.283572328798821 0 0 0 0 0 0 0 0 0 0 0 0 0 0 0 0 -1.49781830057719 -0.311270554469323 0 0 0 0
0 0 0 0 0 0 0 0 0 0 0 0 0 0 0 0 0 0 0 0 0 0 0 0 0 0 0 0 -0.283572328798821 0 0 0 0 0 0 -0.878405693106008 0 0 0 0 0 0 0 0 0 -0.273636272279716 0 0 0 0
0 0 0 0 0 0 0 0 0 0 0 0 0 0 0.236118383663279 0.124135334137528 0.228250282798232 0.459685128371204 0 0.0976262947745089 0.0472125901069558 0 0 0 0 0 0 0 0 -0.283572328798821 0 0 0 0 0 -0.722813698252948 0 0 0 0 0 0 0 0 0 -1.0215555105229 0 0 0 0
0 0 0 0 0 0 0 0 0 0.0924918525635049 0.0422143189090462 0.17845501314899 0.184350739340233 0.307955950523825 0 0 0 0 0 0 0 0 0 0 0 0 0 0 0 0 -0.283572328798821 0 0 0 0 -1.74971608124333 0 0 0 0 0 0 0 0 0 -1.06447707496393 0 0 0 0
0 0 0 0 0 0 0 0 0 0 0 0 0 0 0 0 0 0 0 0 0 0 0 0 0.463505066303062 0 0 0 0 0 0 -0.283572328798821 0 0 0 -0.70931773107772 0 0 0 0 0 0 0 0 0 0 0 0 0 0
0 0 0 0 0 0 0 0 0 0 0 0 0 0 0 0 0 0 0 0 0 0 0 0 0 0 0 0 0 0 0 0 -0.283572328798821 0 0 -0.676900929917783 0 0 0 0 0 0 0 0 0 -2.72232046575375 0 0 0 0
0 0 0 0 0 0 0 0 0 0 0 0 0 0 0 0 0 0 0 0 0 0 0 0 0 0 0 0 0 0 0 0 0 -0.283572328798821 0 0 0 0 0 0 0 0 0 0 0 -0.385692896299025 0 0 0 0
0 0 0.350376607969473 0.219811114105945 0 0.244741940759464 0.129872476571554 0 0 0 0 0 0 0 0 0 0 0 0 0 0 0 0 0 0 0 0 0 0 0 0 0 0 0 -0.283572328798821 0 0 0 0 0 0 0 0 0 0 -1.03087110359664 0 -0.448256371834606 0 0
0 0 0 0 0 0 0 0 0 0 0 0 0 0 0 0 0 0 0 0 0 0 0 0 0 0 0 0 0.172230402013107 0.138538093440967 0.365584576150433 0.146552806511716 0.137125681668534 0 0 -0.283572328798821 0 0 0 0 0 0 0 0 0 0 0 0 0 0
0 0 0 0 0 0 0 0 0 0 0 0 0 0 0.183770436462464 0.179051516497949 0 0 0 0 0 0 0 0 0 0 0 0 0 0 0 0 0 0 0 0 -0.283572328798821 0 0 0 0 0 0 0 0 0 0 0 0 0
0 0 0 0 0 0 0 0 0 0 0 0 0 0 0 0 0 0 0 0 0 0 0 0 0 0 0 0 0 0 0 0 0 0 0 0 0 -0.283572328798821 0 0 0 0 0 0 0 0 0 -2.03646674253854 0 0
0 0 0 0 0 0 0 0 0 0 0 0 0 0 0 0 0 0 0 0 0 0 0 0 0 0 0 0 0 0 0 0 0 0 0 0 0 0 -0.283572328798821 0 0 0 0 0 0 0 0 -0.141924106112743 0 0
0 0 0 0 0 0 0 0 0 0 0.155400757822988 0 0.486936509698138 0.204616010975745 0 0 0 0 0 0 0 0 0 0 0 0 0 0 0 0 0 0 0 0 0 0 0 0 0 -0.283572328798821 0 0 0 0 0 0 0 -0.775495684352447 0 0
0 0 0 0 0 0 0 0.318995695285748 0.211298060961675 0.954343179081057 0 0 1.30726097116664 0.10073350933432 0 0 0 0 0 0 0 0 0 0 0 0 0 0 0 0 0 0 0 0 0 0 0 0 0 0 -0.283572328798821 0 0 -7.03062087242519 0 0 0 0 0 0
0 0 0 0 0 0 0 0 0 0 0 0 0 0 0 0 0 0 0 0 0 0 0 0.371693718186103 0 0 0 0 0 0 0 0 0 0 0 0 0 0 0 0 0 -0.283572328798821 0 -2.8099902577298 0 0 0 -0.284409903631833 0 0
0 0 0 0 0 0 0 0 0 0 0 0 0 0 0 0 0 0 0 0 0 0 0 0 0 0 0.0851422555065669 0 0 0 0 0 0 0 0 0 0 0 0 0 0 0 -0.283572328798821 -0.467585534619803 0 0 0 0 0 0
0 0 0 0 0 0 0 0 0 0 0 0 0 0 0 0 0 0 0 0 0 0 0 0 0 0 0 0 0 0 0 0 0 0 0 0 0 0 0 0 1.29788024151071 0.500162396601783 0.0885393796360439 -0.283572328798821 0 0 0 -2.50592814306679 0 0
0 0 0 0 0 0 0 0 0 0 0 0 0 0 0 0 0.0776213733860866 1.43292471351986 0.917594548037206 0.415378662213538 0.249530312264423 0.873012091697057 0.455511246121323 0 0.379664056531899 0.0520257147264402 0.0950717293807192 0.294475174242252 0 0 0 0 0 0 0 0 0 0 0 0 0 0 0 0 -0.283572328798821 0 0 -1.31234562246131 0 0
0 0 0 0 0 0 0 0 0 0 0 0 0 0 0 0 0 0 0 0 0 0 0 0 0.0751373229680728 0 0.50243351879881 0.0606436663381201 0.0579477554476494 0.215505515275523 0.205836495185524 0 0.49355935873278 0.0841917774528781 0.204217521902204 0 0 0 0 0 0 0 0 0 0 -0.283572328798821 0 0 0 0
0 0 0 0 0 0 0 0 0 0 0 0 0 0 0 0 0 0.273881605704611 0.631235827489571 0 0.122480953528331 0.170851668537186 0 0 0 0 0 0 0 0 0 0 0 0 0 0 0 0 0 0 0 0 0 0 0 0 -0.283572328798821 -10.1221809431669 0 0
0 0 0 0 0 0 0 0 0 0 0 0 0 0 0 0 0 0 0 0 0 0 0 0 0 0 0 0 0 0 0 0 0 0 0.0839829726065453 0 0 0.396285031142677 0.030174182977225 0.156038871079099 0 0.0619625344938939 0 0.461206211136765 0.261093605317425 0 1.96092526203099 -0.283572328798821 0 0
0 0 0 0 0 0 0 0 0 0 0 0 0.720907745136254 0.266521126507936 0.242759709379334 0.0457730397196161 0.0651979430117769 0.0127797135002876 0.174467499350338 0 0 0 0 0 0 0 0 0 0 0 0 0 0 0 0 0 0 0 0 0 0 0 0 0 0 0 0 0 -0.283572328798821 0
0 0.322091570345304 0.0946608302651101 0.0597732631575832 0.112537958429592 0.546898606812642 0 0 0 0 0 0 0 0 0 0 0 0 0 0 0 0 0 0 0 0 0 0 0 0 0 0 0 0 0 0 0 0 0 0 0 0 0 0 0 0 0 0 0 -0.283572328798821
