-0.21727792379193 -3.23946151062772 0 0 0 0 0 0 0 0 0 0 0 0 0 0 0 0 0 0 0 0 0 0 0 0 0 0 0 0 0 0 0 0 0 0 0 0 0 0 0 0 0 0 0 0 0 0 0 0
0.647345733089748 -0.21727792379193 0 0 0 0 0 0 0 0 0 0 0 0 0 0 0 0 0 0 0 0 0 0 -1.49878895493988 0 0 0 0 0 0 0 0 0 0 0 0 0 0 0 0 0 0 0 0 0 0 0 0 0
0 0 -0.21727792379193 -1.79406005533984 0 0 0 0 -2.07331185244933 0 0 0 0 0 0 0 0 0 0 0 0 0 0 0 0 -1.74311816233477 0 0 0 0 0 0 0 0 0 0 0 0 0 0 0 0 0 0 0 0 0 0 0 0
0 0 0.356750058778067 -0.21727792379193 0.265807232828295 0 0 0 -0.497780961434429 0 0 0 0 0 0 0 0 0 0 0 0 0 0 0 0 -2.4390732005419 0 0 0 0 0 0 0 0 0 0 0 0 0 0 0 0 0 0 0 0 0 0 0 0
0 0 0 -1.37040119632603 -0.21727792379193 0 0 0 -1.10979980011595 0 0 0 0 0 0 0 0 0 0 0 0 0 0 0 0 -3.19544525360574 0 0 0 0 0 0 0 0 0 0 0 0 0 0 0 0 0 0 0 0 0 0 0 0
0 0 0 0 0 -0.21727792379193 -0.690489988605111 0 0 0 0 0 -1.11962810601088 0 0 0 0 0 0 0 0 0 0 0 0 0 0 0 0 0 0 0 0 0 0 0 0 0 0 0 0 0 0 0 0 0 0 0 0 0
0 0 0 0 0 0.148064427773109 -0.21727792379193 0 0 0 0 0 0 0 0 0 0 0 0 0 0 0 0 0 0 0 0 0 0 -0.458488105577522 0 0 0 0 0 0 0 0 0 0 0 0 0 0 0 0 0 0 0 0
0 0 0 0 0 0 0 -0.21727792379193 0 0 0 0 -0.651508560975345 0 0 0 0 0 0 0 0 0 0 0 0 0 0 0 0 -3.1067422070587 0 0 0 0 0 0 0 0 0 0 0 0 0 0 0 0 0 0 0 0
0 0 0.398437868701914 0.104155773136954 0.231876854109823 0 0 0 -0.21727792379193 0 0 0 -0.379728623877974 0 0 0 0 0 0 0 0 0 0 0 0 0 0 0 0 -1.9521357849477 0 0 0 -1.6139435008744 0 0 0 -0.77798477629524 0 0 0 0 0 0 0 0 0 0 0 0
0 0 0 0 0 0 0 0 0 -0.21727792379193 0 -0.386865557924556 0 0 0 0 0 0 0 -0.311378795156513 0 0 0 0 0 0 0 0 0 -2.75993379787169 -0.311770633054417 0 0 -0.120100275855661 0 0 0 0 0 0 0 0 0 0 0 0 0 0 0 0
0 0 0 0 0 0 0 0 0 0 -0.21727792379193 0.306286276266713 0 0 0 0 0 0 0 -0.260041465609361 0 0 0 0 0 0 0 0 0 -2.77670985334076 0 0 0 0 0 0 -1.22244274361287 -2.80889633728012 0 0 -1.41083384197709 -1.26858878521793 0 0 0 0 0 0 0 0
0 0 0 0 0 0 0 0 0 0.0866754185168554 -1.41095608801549 -0.21727792379193 0 0 0 0 -4.78886101352364 0 0 -0.600909838030536 0 0 0 0 0 0 0 0 0 0 0 0 0 -1.436857878677 0 0 -4.06198792586541 -0.0866936432091607 0 0 -1.505848703702 -0.274745582388399 0 0 0 0 0 0 0 0
0 0 0 0 0 0.219506668226539 0 0.142048210635065 0.0810317267768256 0 0 0 -0.21727792379193 0 0 0 -2.02932832357663 0 0 -5.42436848298636 0 0 0 0 0 0 0 0 0 0 0 0 0 0 0 0 -0.840246086560432 -1.34272450238046 0 0 0 0 0 0 0 0 0 0 0 0
0 0 0 0 0 0 0 0 0 0 0 0 0 -0.21727792379193 0 0 -1.17323291733243 0 0 -0.194619652448008 0 0 0 0 0 0 0 0 0 0 0 0 0 0 0 0 0 0 0 0 0 -0.307625084850555 0 0 0 0 0 0 0 0
0 0 0 0 0 0 0 0 0 0 0 0 0 0 -0.21727792379193 0 0 0 0 -0.176167797017157 0 -0.964772645418159 -0.273405744333475 0 0 0 0 0 0 0 0 0 0 0 0 0 0 0 -2.99002543918504 0 0 -1.05120785890761 0 0 0 0 0 0 0 0
0 0 0 0 0 0 0 0 0 0 0 0 0 0 0 -0.21727792379193 0 0 0 -0.941434987362319 0 0 -2.6883934370691 0 0 0 0 0 0 0 0 0 0 0 0 0 0 0 -2.17980106687412 0 0 -1.06659618141342 0 0 0 0 0 0 0 0
0 0 0 0 0 0 0 0 0 0 0 0.894539718217387 0.377450524911476 0.242152470819745 0 0 -0.21727792379193 0 0 -2.19409579941382 0 -0.200506369052897 0 0 0 0 0 0 0 0 0 0 0 0 0 0 0 0 -0.626713480352984 0 0 0 0 0 0 0 0 0 0 0
0 0 0 0 0 0 0 0 0 0 0 0 0 0 0 0 0 -0.21727792379193 -0.491113984975642 -1.07967686284615 0 0 0 0 0 0 0 0 0 0 0 0 0 0 0 0 0 0 -1.01387066233896 0 0 0 0 0 0 0 0 0 0 0
0 0 0 0 0 0 0 0 0 0 0 0 0 0 0 0 0 0.0861305959033772 -0.21727792379193 0 0 0 0 0 0 0 0 0 0 0 0 0 0 0 0 0 0 0 -0.965813133784827 0 0 -0.969904624518952 0 0 0 0 0 0 0 -0.0825237690691412
0 0 0 0 0 0 0 0 0 0.0670252195084496 0.0557103957837682 0.133760833152465 1.04678213197198 0.0418644471658804 0.0355604396859149 0.19628048493149 0.420638603912915 0.203265810609588 0 -0.21727792379193 0 0 0 0 0 0 0 0 0 0 0 0 0 0 0 0 0 0 0 0 0 -1.63465158538744 0 0 0 0 0 0 0 0
0 0 0 0 0 0 0 0 0 0 0 0 0 0 0 0 0 0 0 0 -0.21727792379193 0 0 0 0 0 0 0 -0.302168308347733 0 0 0 0 0 0 -3.0082594595958 0 0 -1.12158678175825 0 0 0 0 0 0 0 0 0 0 -0.25402654247693
0 0 0 0 0 0 0 0 0 0 0 0 0 0 0.18286164399298 0 0.0380813407054624 0 0 0 0 -0.21727792379193 0 0 0 0 0 0 -0.263523474390552 0 0 0 -0.773683217130916 0 0 0 0 0 -1.84860405660648 0 0 -1.24524906468659 0 0 0 0 0 0 0 -3.73735339208549
0 0 0 0 0 0 0 0 0 0 0 0 0 0 0.0530704049967471 0.505810879479614 0 0 0 0 0 0 -0.21727792379193 0 0 0 0 0 -0.400717063488706 0 0 0 -1.03395065271159 0 0 0 0 0 0 0 0 -0.164628782458481 0 0 0 0 0 0 0 -0.935409194373427
0 0 0 0 0 0 0 0 0 0 0 0 0 0 0 0 0 0 0 0 0 0 0 -0.21727792379193 0 0 0 0 0 0 0 -0.205670227939694 0 0 0 -0.944160517277737 0 0 -1.12547518139868 -1.1911062353191 0 -0.788697450034795 0 -2.1574760024832 0 0 0 0 0 -1.12201595237487
0 0.286691003593828 0 0 0 0 0 0 0 0 0 0 0 0 0 0 0 0 0 0 0 0 0 0 -0.21727792379193 0 0 0 0 0 0 0 0 0 0 0 0 0 0 -0.185615086050911 0 0 0 0 0 0 0 0 0 -0.818747174288056
0 0 0.350997781901933 0.470634094467481 0.636779944210262 0 0 0 0 0 0 0 0 0 0 0 0 0 0 0 0 0 0 0 0 -0.21727792379193 0 0 0 0 0 0 0 0 0 -5.03915531870139 0 0 0 -4.0347346575672 0 -1.8616654986119 0 0 0 0 0 0 0 -1.13096412727447
0 0 0 0 0 0 0 0 0 0 0 0 0 0 0 0 0 0 0 0 0 0 0 0 0 0 -0.21727792379193 0 0 0 0 0 0 0 -1.1301446412785 0 0 0 0 0 0 0 0 0 0 0 0 0 0 0
0 0 0 0 0 0 0 0 0 0 0 0 0 0 0 0 0 0 0 0 0 0 0 0 0 0 0 -0.21727792379193 0 0 0 0 0 0 0 0 0 0 0 0 0 0 0 0 0 0 0 0 0 -0.221144185724314
0 0 0 0 0 0 0 0 0 0 0 0 0 0 0 0 0 0 0 0 0.0587687746716237 0.0532947459191015 0.0798024461519735 0 0 0 0 0 -0.21727792379193 0 0 0 0 0 -0.833494783051037 0 0 0 0 0 0 0 0 0 0 0 0 0 0 0
0 0 0 0 0 0 0.0864535773154664 0.650661031394345 0.413927751857943 0.539735495243835 0.564273379969581 0 0 0 0 0 0 0 0 0 0 0 0 0 0 0 0 0 0 -0.21727792379193 0 0 0 0 -0.706065346460768 0 0 0 0 0 0 0 0 0 0 0 0 0 0 0
0 0 0 0 0 0 0 0 0 0.0619198603477745 0 0 0 0 0 0 0 0 0 0 0 0 0 0 0 0 0 0 0 0 -0.21727792379193 0 0 0 -0.747033900718837 0 0 0 0 0 0 0 0 0 0 0 0 0 0 0
0 0 0 0 0 0 0 0 0 0 0 0 0 0 0 0 0 0 0 0 0 0 0 0.0399284760918412 0 0 0 0 0 0 0 -0.21727792379193 0 0 -0.162766452526423 0 0 0 0 0 0 0 0 0 0 0 0 0 0 0
0 0 0 0 0 0 0 0 0 0 0 0 0 0 0 0 0 0 0 0 0 0.165035272117257 0.192917220095258 0 0 0 0 0 0 0 0 0 -0.21727792379193 0 -1.88954169971537 0 0 0 0 0 0 0 0 0 0 0 0 0 0 0
0 0 0 0 0 0 0 0 0.347207189555253 0.0224616529860439 0 0.294795827075682 0 0 0 0 0 0 0 0 0 0 0 0 0 0 0 0 0 0 0 0 0 -0.21727792379193 -0.521246302069244 0 0 0 0 0 0 0 0 0 -1.02577734020687 0 0 0 0 0
0 0 0 0 0 0 0 0 0 0 0 0 0 0 0 0 0 0 0 0 0 0 0 0 0 0 0.247829857064413 0 0.178679904501473 0.139665180505861 0.147749820903033 0.0290254863686699 0.372859670537161 0.105716569741883 -0.21727792379193 0.304477428794385 0.21784818662833 0.0966335312799848 0 0 0 0 0 0 0 0 0 0 0 0
0 0 0 0 0 0 0 0 0 0 0 0 0 0 0 0 0 0 0 0 0.553276018447674 0 0 0.190430014598374 0 1.06236266797158 0 0 0 0 0 0 0 0 -1.48981820128236 -0.21727792379193 0 0 0 0 0 0 0 0 -2.42958423934069 0 0 0 0 0
0 0 0 0 0 0 0 0 0 0 0.248871031756627 0.8059488943817 0.171092833915087 0 0 0 0 0 0 0 0 0 0 0 0 0 0 0 0 0 0 0 0 0 -1.02316031757577 0 -0.21727792379193 0 0 0 0 0 0 0 0 0 0 0 0 0
0 0 0 0 0 0 0 0 0.176043622453885 0 0.549035287371592 0.016986908348921 0.269519939730658 0 0 0 0 0 0 0 0 0 0 0 0 0 0 0 0 0 0 0 0 0 -0.454099263242378 0 0 -0.21727792379193 0 0 0 0 0 0 -1.40427247302436 0 0 0 0 0
0 0 0 0 0 0 0 0 0 0 0 0 0 0 0.636617213309101 0.454399068183961 0.12685759360835 0.194287411507691 0.186567542390557 0 0.235927724959819 0.352133129028076 0 0.1976123274791 0 0 0 0 0 0 0 0 0 0 0 0 0 0 -0.21727792379193 0 0 0 0 0 0 0 0 0 0 0
0 0 0 0 0 0 0 0 0 0 0 0 0 0 0 0 0 0 0 0 0 0 0 0.22472923505864 0.0363140201561395 0.788766256470474 0 0 0 0 0 0 0 0 0 0 0 0 0 -0.21727792379193 0 0 0 0 0 0 0 0 0 0
0 0 0 0 0 0 0 0 0 0 0.303284205846572 0.311176474299919 0 0 0 0 0 0 0 0 0 0 0 0 0 0 0 0 0 0 0 0 0 0 0 0 0 0 0 0 -0.21727792379193 0 0 0 0 0 0 0 0 0
0 0 0 0 0 0 0 0 0 0 0.261165447093605 0.0572629873025755 0 0.0646505755204131 0.192570628290027 0.220874350241051 0 0 0.198275547929479 0.336710989195853 0 0.235106674489164 0.0354178499359465 0.152641401067835 0 0.357424716044761 0 0 0 0 0 0 0 0 0 0 0 0 0 0 0 -0.21727792379193 0 0 0 0 0 0 0 0
0 0 0 0 0 0 0 0 0 0 0 0 0 0 0 0 0 0 0 0 0 0 0 0 0 0 0 0 0 0 0 0 0 0 0 0 0 0 0 0 0 0 -0.21727792379193 0 0 0 -3.52967842605333 0 0 0
0 0 0 0 0 0 0 0 0 0 0 0 0 0 0 0 0 0 0 0 0 0 0 0.441699855746586 0 0 0 0 0 0 0 0 0 0 0 0 0 0 0 0 0 0 0 -0.21727792379193 0 0 -3.08939459984606 0 0 0
0 0 0 0 0 0 0 0 0 0 0 0 0 0 0 0 0 0 0 0 0 0 0 0 0 0 0 0 0 0 0 0 0 0.200155916067991 0 0.506323591783515 0 0.299457432995369 0 0 0 0 0 0 -0.21727792379193 -0.452045414746735 -1.20739936308279 -4.60338557638914 0 0
0 0 0 0 0 0 0 0 0 0 0 0 0 0 0 0 0 0 0 0 0 0 0 0 0 0 0 0 0 0 0 0 0 0 0 0 0 0 0 0 0 0 0 0 0.0917489348975379 -0.21727792379193 -1.18453332099709 0.0399592283293906 0.130369747901442 0.242719264918546
0 0 0 0 0 0 0 0 0 0 0 0 0 0 0 0 0 0 0 0 0 0 0 0 0 0 0 0 0 0 0 0 0 0 0 0 0 0 0 0 0 0 0.650211675291458 0.637721353045672 0.241311948410498 0.232617814674155 -0.21727792379193 0 0 0
0 0 0 0 0 0 0 0 0 0 0 0 0 0 0 0 0 0 0 0 0 0 0 0 0 0 0 0 0 0 0 0 0 0 0 0 0 0 0 0 0 0 0 0 0.972640329017696 -0.192565899488723 0 -0.21727792379193 0 0
0 0 0 0 0 0 0 0 0 0 0 0 0 0 0 0 0 0 0 0 0 0 0 0 0 0 0 0 0 0 0 0 0 0 0 0 0 0 0 0 0 0 0 0 0 -0.644638844138694 0 0 -0.21727792379193 0
0 0 0 0 0 0 0 0 0 0 0 0 0 0 0 0 0 0 0.0168652685300201 0 0.0524462687032433 0.760938928589384 0.204339048205667 0.229630985526687 0.152777564502398 0.236314267323199 0 0.0417050459204204 0 0 0 0 0 0 0 0 0 0 0 0 0 0 0 0 0 -1.27134163980672 0 0 0 -0.21727792379193
