-0.293675721478084 -0.649890432904549 0 -1.40862853511118 0 0 0 0 0 0 0 0 0 0 0 0 0 0 0 0 0 0 0 0 0 0 0 0 0 0 0 0 0 0 0 0 0 0 0 0 0 0 0 0 0 0 0 0 0 0
0.13161330849811 -0.293675721478084 0 0 0 0 0 0 0 0 0 0 0 0 0 0 0 0 0 -1.12327948835481 0 0 0 0 0 0 0 0 0 0 0 0 0 0 0 0 0 0 0 0 0 0 0 0 0 0 0 0 0 0
0 0 -0.293675721478084 0 0 0 0 0 -0.813700453907065 0 0 0 0 0 0 0 0 0 0 -0.512538895186971 0 0 0 0 0 0 0 0 0 0 0 0 0 0 0 0 0 0 0 0 0 0 0 0 0 0 0 0 0 0
0.291251691447224 0 0 -0.293675721478084 0 0 0 0 -0.186820469395462 0 0 0 0 0 0 0 0 0 0 -1.8468824403412 0 0 0 0 0 0 0 0 0 0 0 0 0 0 0 0 0 0 0 0 0 0 0 0 0 0 0 0 0 0
0 0 0 0 -0.293675721478084 0 0 0 0 0 0 0 0 0 0 0 0 0 0 -1.36801212794119 0 0 0 0 0 0 0 0 0 0 0 0 0 0 0 0 0 0 0 0 0 0 0 -2.1083924983467 0 0 0 0 0 0
0 0 0 0 0 -0.293675721478084 0 0 0 0 0 0 0 0 0 0 0 0 0 -0.317778048866754 0 0 0 0 0 0 0 0 0 0 0 0 0 0 0 0 0 0 0 0 0 0 0 0 0 0 0 0 0 0
0 0 0 0 0 0 -0.293675721478084 0 0 -0.585138989728464 0 0 0 0 -5.50594885150183 0 0 0 0 0 0 0 0 0 0 0 0 0 0 0 0 0 0 0 0 0 0 0 0 0 0 0 0 0 0 0 0 0 0 0
0 0 0 0 0 0 0 -0.293675721478084 0 0 0 0 0 0 -0.356786535031894 0 0 0 0 0 0 0 0 0 0 0 0 0 0 0 0 -0.172671271898932 0 0 0 0 0 0 0 0 0 0 0 0 0 0 0 0 0 0
0 0 0.163911220168524 0.0360087816251998 0 0 0 0 -0.293675721478084 0 0 0 0 0 0 0 0 0 0 0 0 0 0 0 0 0 0 0 0 0 0 -1.44671800738587 0 0 0 0 0 0 0 0 0 0 0 0 0 -1.92446521745693 0 0 0 -1.68211302515357
0 0 0 0 0 0 0.103795140133444 0 0 -0.293675721478084 0 -1.22175155586189 0 0 0 0 0 0 0 0 0 0 0 0 0 0 0 0 0 0 0 -0.159227559616711 0 0 0 0 0 0 0 0 0 0 0 0 0 -0.827721336665043 0 0 0 -0.803975218949306
0 0 0 0 0 0 0 0 0 0 -0.293675721478084 0 0 0 0 0 0 0 0 0 0 0 -0.456773526723527 0 0 0 0 0 0 0 0 0 0 0 0 0 0 0 0 0 0 0 0 0 0 -0.0608130269461122 0 0 0 -1.74936884021913
0 0 0 0 0 0 0 0 0 0.25106061313528 0 -0.293675721478084 0 -2.68538559687589 0 -5.43430988255648 0 0 0 0 0 -1.35810838942899 0 0 -1.74336515019447 0 0 0 0 0 0 0 0 0 0 0 0 0 0 0 0 0 0 0 0 0 0 0 0 0
0 0 0 0 0 0 0 0 0 0 0 0 -0.293675721478084 0 0 0 0 0 0 0 0 -0.336462601940819 0 0 -0.672942539548087 0 0 0 0 0 0 0 0 0 0 0 0 0 0 0 0 0 0 0 0 0 0 0 0 0
0 0 0 0 0 0 0 0 0 0 0 0.497131352214307 0 -0.293675721478084 0 0 0 0 0 0 0 -2.56935533458575 0 0 -2.61130005222097 0 0 0 0 0 0 0 0 0 0 0 0 0 0 0 0 0 0 0 0 0 0 0 0 0
0 0 0 0 0 0 1.06559476204141 0.0741876277298638 0 0 0 0 0 0 -0.293675721478084 0 0 -3.57726254863062 -0.507012043661094 0 0 0 0 0 0 0 0 0 0 0 0 0 0 0 0 0 0 0 0 0 0 0 0 0 0 0 0 0 0 0
0 0 0 0 0 0 0 0 0 0 0 1.05658217134188 0 0 0 -0.293675721478084 0 0 0 0 0 0 0 0 0 0 0 0 -2.72845234394289 0 0 0 0 0 -2.12649672147414 0 0 0 -0.179594162600267 0 0 0 0 0 0 0 0 0 -0.341510767671498 0
0 0 0 0 0 0 0 0 0 0 0 0 0 0 0 0 -0.293675721478084 -0.877913679967737 0 0 0 0 0 0 0 0 -1.36033398269072 0 -2.40332520380876 0 0 0 0 0 -1.07567527621525 0 0 0 -2.70000242320328 0 0 0 0 0 0 0 0 0 -0.925855506804941 0
0 0 0 0 0 0 0 0 0 0 0 0 0 0 0.748695373490033 0 0.179558446442302 -0.293675721478084 0.0494387169000851 0 -0.220527693909119 0 0 0 0 0 -1.0749567348705 0 0 0 0 0 0 0 0 0 0 0 -4.25128953064568 0 0 0 0 0 -6.19625055621656 0 0 0 -0.178286127356908 0
0 0 0 0 0 0 0 0 0 0 0 0 0 0 0.108592465029495 0 0 -0.255055408633327 -0.293675721478084 0 0 0 0 0 0 0 -0.80609645287364 0 0 0 0 0 0 0 0 0 0 -0.429846433325777 -2.55863912556519 0 0 0 0 0 0 0 0 0 -0.501647857115885 0
0 0.224876659576589 0.111093090239126 0.361709349095613 0.264009966409393 0.0613997318904541 0 0 0 0 0 0 0 0 0 0 0 0 0 -0.293675721478084 0 0 0 0 0 0 -1.37726728126681 0 0 0 0 0 0 0 0 0 0 -0.738474237174913 0 0 0 0 0 0 0 0 0 0 -3.95122303446767 0
0 0 0 0 0 0 0 0 0 0 0 0 0 0 0 0 0 0.0449953314065316 0 0 -0.293675721478084 0 0 -0.547811401440287 0 0 0 0 0 0 -0.627318275686949 0 0 0 0 0 0 -1.94360750499577 0 0 0 0 0 0 -0.355274834419827 0 0 0 -5.27386301306305 0
0 0 0 0 0 0 0 0 0 0 0 0.282981540077702 0.0717951937430982 0.513003377689546 0 0 0 0 0 0 0 -0.293675721478084 0 -3.36564245238279 0 0 -1.15644201213708 0 0 0 0 0 0 0 0 0 0 0 -2.24396613945429 0 0 0 0 0 0 0 0 0 0 0
0 0 0 0 0 0 0 0 0 0 0.0956060663073398 0 0 0 0 0 0 0 0 0 0 0 -0.293675721478084 -0.71244681644836 0 0 0 0 0 0 -0.258696079182 0 0 -0.602715944525345 0 0 -0.60829720997613 0 -2.1668610905265 0 0 0 0 0 0 0 0 0 -0.0971750043050716 0
0 0 0 0 0 0 0 0 0 0 0 0 0 0 0 0 0 0 0 0 0.120287828834274 0.699001923343399 0.138931929049522 -0.293675721478084 0 0 0 0 0 0 -1.42421218825523 0 0 -0.399541955888567 0 0 -0.550159226612525 -1.91868339466761 -1.55061099575668 0 0 0 -1.41675773250325 0 0 0 0 0 -0.985911167103657 0
0 0 0 0 0 0 0 0 0 0 0 0.337066535920579 0.13541095165433 0.535880823232248 0 0 0 0 0 0 0 0 0 0 -0.293675721478084 0 0 0 0 0 -0.977243445555485 0 0 -0.432395754693332 0 0 -1.82215732605881 -3.46804009195574 0 0 0 0 -5.64153416191563 0 0 0 0 0 -0.247025153171606 0
0 0 0 0 0 0 0 0 0 0 0 0 0 0 0 0 0 0 0 0 0 0 0 0 0 -0.293675721478084 0 0 0 0 -0.421513519600973 0 0 -1.26646864443193 0 0 -3.42055818240865 -1.14026122888004 0 0 0 0 -0.841435764884834 0 0 0 0 0 0 0
0 0 0 0 0 0 0 0 0 0 0 0 0 0 0 0 0.265510976647115 0.22221212169079 0.165289647572196 0.2623009517998 0 0.227062175742443 0 0 0 0 -0.293675721478084 0 0 0 0 0 0 -0.737525071767023 0 0 -0.255554098782364 -5.21611110218467 0 0 0 0 0 0 0 0 0 0 -3.82006548531141 0
0 0 0 0 0 0 0 0 0 0 0 0 0 0 0 0 0 0 0 0 0 0 0 0 0 0 0 -0.293675721478084 0 0 0 0 0 -1.26236988937433 0 0 0 0 0 0 -0.266237197348555 0 -1.33204087339362 0 0 0 0 0 -0.260136509582173 0
0 0 0 0 0 0 0 0 0 0 0 0 0 0 0 0.498011531858324 0.483932588931405 0 0 0 0 0 0 0 0 0 0 0 -0.293675721478084 0 0 0 0 -0.427916681719267 0 0 0 -1.45882287361352 0 0 0 0 -1.18095706348899 0 0 0 0 0 0 0
0 0 0 0 0 0 0 0 0 0 0 0 0 0 0 0 0 0 0 0 0 0 0 0 0 0 0 0 0 -0.293675721478084 0 0 0 0 0 0 0 -0.558153258089443 0 0 0 0 0 0 0 0 0 0 -0.833338648020248 0
0 0 0 0 0 0 0 0 0 0 0 0 0 0 0 0 0 0 0 0 0.128013023107225 0 0.0520978483174546 0.272905024860602 0.185604321431511 0.0865741525808937 0 0 0 0 -0.293675721478084 0 0 0 0 0 0 0 0 0 -0.322518406883256 0 0 0 0 0 0 0 0 0
0 0 0 0 0 0 0 0.0336041924811524 0.27330738466104 0.0321279396318892 0 0 0 0 0 0 0 0 0 0 0 0 0 0 0 0 0 0 0 0 0 -0.293675721478084 0 0 0 0 0 0 0 0 0 -0.68355103823651 0 0 0 0 0 0 0 0
0 0 0 0 0 0 0 0 0 0 0 0 0 0 0 0 0 0 0 0 0 0 0 0 0 0 0 0 0 0 0 0 -0.293675721478084 0 0 0 0 0 0 0 0 -0.27217100069192 0 0 0 0 0 0 0 0
0 0 0 0 0 0 0 0 0 0 0 0 0 0 0 0 0 0 0 0 0 0 0.120334493124885 0.0868663158964814 0.0954866901103829 0.253275214803749 0.153182625084232 0.250820174713176 0.0907690386529848 0 0 0 0 -0.293675721478084 0 0 0 0 0 0 0 -2.11939904631479 0 0 0 0 0 0 0 0
0 0 0 0 0 0 0 0 0 0 0 0 0 0 0 0.38709927419418 0.21857873612257 0 0 0 0 0 0 0 0 0 0 0 0 0 0 0 0 0 -0.293675721478084 0 0 0 0 0 0 -0.606049682681875 0 0 0 0 0 0 0 0
0 0 0 0 0 0 0 0 0 0 0 0 0 0 0 0 0 0 0 0 0 0 0 0 0 0 0 0 0 0 0 0 0 0 0 -0.293675721478084 0 0 0 0 0 -1.35425076141554 0 0 0 0 0 -0.806144589835068 0 0
0 0 0 0 0 0 0 0 0 0 0 0 0 0 0 0 0 0 0 0 0 0 0.128786726624466 0.122280912480722 0.382186620663161 0.693568644528196 0.0525081865907118 0 0 0 0 0 0 0 0 0 -0.293675721478084 0 0 0 0 -0.852135862249943 0 0 0 0 0 -0.545793260425298 0 0
0 0 0 0 0 0 0 0 0 0 0 0 0 0 0 0 0 0 0.0892507845053384 0.15507656871937 0.396388782150153 0 0 0.382454639342571 0.72525490509636 0.233413981934295 1.04740756363862 0 0.287232985644973 0.108733765054103 0 0 0 0 0 0 0 -0.293675721478084 0 0 0 -0.672822952788954 0 0 0 0 0 0 0 0
0 0 0 0 0 0 0 0 0 0 0 0 0 0 0 0.0327850719649228 0.540001377439259 0.883921169912329 0.524172578561948 0 0 0.434196977624504 0.374770293460655 0.297640146273659 0 0 0 0 0 0 0 0 0 0 0 0 0 0 -0.293675721478084 0 0 0 0 0 0 0 0 -0.827826136356276 0 0
0 0 0 0 0 0 0 0 0 0 0 0 0 0 0 0 0 0 0 0 0 0 0 0 0 0 0 0 0 0 0 0 0 0 0 0 0 0 0 -0.293675721478084 0 0 0 0 0 0 0 -0.262065640823169 0 0
0 0 0 0 0 0 0 0 0 0 0 0 0 0 0 0 0 0 0 0 0 0 0 0 0 0 0 0.0545156359368325 0 0 0.0607550889938606 0 0 0 0 0 0 0 0 0 -0.293675721478084 0 0 0 0 0 0 -0.799480335159113 0 0
0 0 0 0 0 0 0 0 0 0 0 0 0 0 0 0 0 0 0 0 0 0 0 0 0 0 0 0 0 0 0 0.145594456180607 0.0534071245548647 0.428604858692667 0.123058756952079 0.259612680327704 0.170371751910077 0.138870370458153 0 0 0 -0.293675721478084 0 0 0 0 -2.15433630901568 0 0 0
0 0 0 0 0 0 0 0 0 0 0 0 0 0 0 0 0 0 0 0 0 0 0 0.266516194822658 1.16116735603235 0.175918751406768 0 0.255331067687811 0.228612544227906 0 0 0 0 0 0 0 0 0 0 0 0 0 -0.293675721478084 0 0 0 -0.296242347869575 -2.07488769879788 0 0
0 0 0 0 0.445667964015492 0 0 0 0 0 0 0 0 0 0 0 0 0 0 0 0 0 0 0 0 0 0 0 0 0 0 0 0 0 0 0 0 0 0 0 0 0 0 -0.293675721478084 0 0 -1.55974601516443 -0.264196652167956 0 0
0 0 0 0 0 0 0 0 0 0 0 0 0 0 0 0 0 1.2620755314013 0 0 0.0649083456184212 0 0 0 0 0 0 0 0 0 0 0 0 0 0 0 0 0 0 0 0 0 0 0 -0.293675721478084 0 0 0 0 0
0 0 0 0 0 0 0 0 0.363070088934375 0.166735110440569 0.0125311426051386 0 0 0 0 0 0 0 0 0 0 0 0 0 0 0 0 0 0 0 0 0 0 0 0 0 0 0 0 0 0 0 0 0 0 -0.293675721478084 0 0 0 0
0 0 0 0 0 0 0 0 0 0 0 0 0 0 0 0 0 0 0 0 0 0 0 0 0 0 0 0 0 0 0 0 0 0 0 0 0 0 0 0 0 0.447123359852519 0.0647709103783753 0.322866318045006 0 0 -0.293675721478084 0 0 0
0 0 0 0 0 0 0 0 0 0 0 0 0 0 0 0 0 0 0 0 0 0 0 0 0 0 0 0 0 0 0 0 0 0 0 0.16431724410469 0.120435501821607 0 0.178811424976288 0.0559702135843755 0.158072029929212 0 0.370891223266672 0.0493220915906797 0 0 0 -0.293675721478084 0 0
0 0 0 0 0 0 0 0 0 0 0 0 0 0 0 0.071407341421636 0.18064895829225 0.0378135097857564 0.105646065285661 0.799140403800342 1.06372467542617 0 0.0190299785244827 0.19048210046345 0.0449898571197143 0 0.727497464526 0.0465936901934602 0 0.182037525702817 0 0 0 0 0 0 0 0 0 0 0 0 0 0 0 0 0 0 -0.293675721478084 0
0 0 0 0 0 0 0 0 0.351770210512987 0.171648525173561 0.359806879540119 0 0 0 0 0 0 0 0 0 0 0 0 0 0 0 0 0 0 0 0 0 0 0 0 0 0 0 0 0 0 0 0 0 0 0 0 0 0 -0.293675721478084
