-0.189367320036218 0 0 0 0 0 0 0 0 0 0 0 0 0 0 0 0 0 0 0 0 0 0 0 0 0 0 0 0 -4.2204824416784 0 0 0 0 0 0 0 0 0 0 0 0 0 0 0 0 0 0 -0.323926486245318 0
0 -0.189367320036218 0 0 0 0 0 0 0 0 0 0 0 0 0 0 0 0 0 0 0 0 0 0 0 0 0 0 0 -1.76978874435494 0 0 0 0 0 0 0 0 0 0 0 0 0 0 0 0 0 0 -3.40079301759597 0
0 0 -0.189367320036218 0 0 0 0 0 0 0 0 -0.187836897553715 0 -1.57038685105472 0 0 -1.86230512084586 0 0 0 0 0 0 0 0 0 0 0 0 -0.59215385735043 -1.16283574687215 0 0 0 0 0 0 0 0 0 0 0 0 0 0 0 0 0 0 0
0 0 0 -0.189367320036218 0 0 -1.6352667337014 0 0 0 0 -0.578791965454341 0 -0.533497418291836 0 0 -0.955609452308781 0 0 0 0 0 0 0 0 0 0 0 0 0 0 0 0 0 0 0 0 0 0 0 0 0 0 0 0 -1.54647524769522 0 0 0 0
0 0 0 0 -0.189367320036218 0 -1.0935927532289 0 0 0 0 -0.351685278221202 0 -6.50420244200145 0 0 -1.44051893552423 0 0 0 0 0 0 0 0 0 0 0 0 0 0 0 0 0 0 0 0 0 0 0 0 0 0 0 0 -0.918620351904076 0 0 0 0
0 0 0 0 0 -0.189367320036218 -1.21356557379646 0 0 0 0 0 0 -0.19564954238571 0 0 -2.89544136517552 0 0 0 0 0 0 0 0 0 0 0 0 0 0 0 0 0 -2.81368712315155 0 0 0 -2.82004716055324 0 0 0 0 0 0 0 0 0 0 0
0 0 0 0.345974998363969 0.216450570184991 0.214400882844716 -0.189367320036218 0 -0.301914837184942 0 -5.28090617650128 0 0 0 0 0 0 0 0 0 0 0 0 0 0 0 0 0 0 0 0 0 0 0 -3.93311541207753 0 0 0 0 0 0 0 0 0 0 -1.10621675712048 0 0 0 0
0 0 0 0 0 0 0 -0.189367320036218 -0.650467487985435 0 -3.0453699663159 0 0 0 0 0 0 0 0 0 0 0 0 0 0 0 0 0 0 0 0 0 0 0 0 0 0 0 0 0 0 0 0 0 0 0 0 0 0 0
0 0 0 0 0 0 0.0615123422148695 0.13569318214302 -0.189367320036218 0 -2.82500201113763 0 0 0 -1.59959270482477 -0.171463703006871 0 0 0 0 0 0 0 0 -3.28562831673029 0 0 0 0 0 0 0 0 0 -1.09450576512577 0 0 0 0 0 0 0 0 0 0 -0.451316702264735 0 0 0 0
0 0 0 0 0 0 0 0 0 -0.189367320036218 -0.962460860151017 0 0 0 0 -0.0707875899979304 0 0 0 -0.999727726259101 0 0 0 0 0 0 0 0 0 0 0 0 0 0 -3.46728681170454 0 0 0 0 0 0 0 0 0 0 -3.0116170716283 0 0 0 0
0 0 0 0 0 0 1.04434048061053 0.625200472522967 0.511273907542284 0.19042714476457 -0.189367320036218 0.63244959524658 0 0 0 0 0 0 0 -1.11640350285018 0 0 0 0 0 0 0 0 0 0 0 0 0 0 -0.286014155900839 0 0 0 0 0 0 0 0 0 -1.67688094019034 0 0 0 0 0
0 0 0.0369571113608176 0.10572222448584 0.0727284102849737 0 0 0 0 0 -3.22238847088879 -0.189367320036218 0 0 0 0 0 0 0 -0.867794165705401 0 0 0 0 0 0 0 0 0 0 0 0 0 0 -2.95867832306402 0 -1.49858175515633 0 0 0 0 0 0 0 -1.66989585451655 -1.16563422481359 0 0 0 0
0 0 0 0 0 0 0 0 0 0 0 0 -0.189367320036218 0 0 -1.09366585611433 0 0 0 -1.63133504947891 0 0 0 0 0 0 0 0 0 0 0 0 0 0 0 0 -0.720279195978734 0 0 0 0 0 0 0 -1.30635455614555 -0.717080914330812 0 0 0 0
0 0 0.297850597658656 0.11730361805488 1.2481908369846 0.0371718202642211 0 0 0 0 0 0 0 -0.189367320036218 0 0 0 0 -0.311105059995538 0 0 0 0 0 0 0 0 0 -0.26432211109244 0 0 0 0 0 -1.61447999996808 0 -0.440750546893469 0 0 0 -0.29783883755444 0 0 0 0 0 0 0 0 0
0 0 0 0 0 0 0 0 0.309563498796026 0 0 0 0 0 -0.189367320036218 0 0 0 0 0 0 -0.235214147213856 0 0 0 0 0 0 0 0 0 -0.505917296961675 0 0 -0.723091402790222 0 -0.638014818408525 0 0 0 0 0 0 0 -1.2149594321928 0 0 0 0 0
0 0 0 0 0 0 0 0 0.0331453422936507 0.0136439529490223 0 0 0.212749576506667 0 0 -0.189367320036218 0 0 -0.281800600318126 0 0 -0.260123611559109 0 0 0 0 0 0 0 0 0 -0.95210838574597 0 0 -0.261473299172375 0 -2.10193619635977 0 0 0 -2.58905962625084 0 0 0 -0.291892325485999 0 0 0 0 0
0 0 0.38116465229185 0.185405301910378 0.299615207110859 0.554243837553478 0 0 0 0 0 0 0 0 0 0 -0.189367320036218 0 0 0 0 -1.8814874348776 0 0 0 0 -0.441368027269235 0 0 0 0 -0.899473841172146 0 0 -0.607353546845729 0 -0.334028965878228 0 0 0 0 0 0 0 -0.753237221500282 0 0 0 0 0
0 0 0 0 0 0 0 0 0 0 0 0 0 0 0 0 0 -0.189367320036218 0 0 0 -0.303654204299824 0 0 0 0 -5.0598574177035 0 0 0 0 0 0 0 -0.797029492016573 0 -1.17514564071459 0 0 0 -0.174659438751843 0 0 0 0 0 0 0 0 0
0 0 0 0 0 0 0 0 0 0 0 0 0 0.0646301981511081 0 0.0561721017644994 0 0 -0.189367320036218 0 0 0 0 0 0 0 0 0 0 0 0 -5.01494743393753 0 0 0 0 -0.511961122132704 0 0 0 0 0 0 0 -0.224910348842839 0 0 0 0 0
0 0 0 0 0 0 0 0 0 0.217829422726403 0.226009286265651 0.177074531625894 0.34933937335422 0 0 0 0 0 0 -0.189367320036218 0 -3.24675977053563 0 0 0 0 -1.47123180483951 0 0 0 0 -0.499137741747182 0 0 0 0 -1.86053078704273 0 0 0 0 0 0 0 0 0 0 0 0 0
0 0 0 0 0 0 0 0 0 0 0 0 0 0 0 0 0 0 0 0 -0.189367320036218 -0.850784443525742 0 0 0 0 -0.195456627586896 0 0 0 0 -0.728743528719102 0 0 0 0 -0.709775897984452 0 0 0 0 0 0 0 -0.222620007134696 0 0 0 0 0
0 0 0 0 0 0 0 0 0 0 0 0 0 0 0.0446118452089819 0.0511970388085919 0.377547344655437 0.0567262419525558 0 0.665229343811551 0.179421508300708 -0.189367320036218 0 0 0 0 -0.618754317280832 0 0 0 0 -0.785073893159764 0 0 0 0 -1.06513788592617 0 0 0 0 0 0 0 -0.292385936570033 0 0 0 0 0
0 0 0 0 0 0 0 0 0 0 0 0 0 0 0 0 0 0 0 0 0 0 -0.189367320036218 0 0 0 0 0 0 0 0 0 0 0 0 0 -1.71479761358208 0 0 0 0 0 0 0 -1.40121006391775 0 0 0 0 0
0 0 0 0 0 0 0 0 0 0 0 0 0 0 0 0 0 0 0 0 0 0 0 -0.189367320036218 0 0 0 0 0 0 0 -2.54034887095898 0 0 0 0 -1.92645849788393 0 0 0 0 0 0 0 0 0 0 0 0 0
0 0 0 0 0 0 0 0 0.659927756308535 0 0 0 0 0 0 0 0 0 0 0 0 0 0 0 -0.189367320036218 0 0 0 0 0 0 -0.590037760536811 0 0 0 0 -0.782522123989279 0 0 0 0 0 0 0 0 0 0 0 0 0
0 0 0 0 0 0 0 0 0 0 0 0 0 0 0 0 0 0 0 0 0 0 0 0 0 -0.189367320036218 0 0 0 0 0 -1.44015693510291 0 0 0 0 -1.54265180612499 0 0 0 0 -4.72766552420999 0 0 0 0 0 0 0 0
0 0 0 0 0 0 0 0 0 0 0 0 0 0 0 0 0.0847869981326492 0.979966419590252 0 0.276596626567848 0.0412308430432269 0.136633966888595 0 0 0 0 -0.189367320036218 0 0 0 0 0 0 0 0 0 -2.70116625712154 0 0 0 0 -1.56950856501802 0 0 0 0 0 0 0 0
0 0 0 0 0 0 0 0 0 0 0 0 0 0 0 0 0 0 0 0 0 0 0 0 0 0 0 -0.189367320036218 0 0 0 0 0 0 0 0 -0.792790429714263 0 0 0 0 -0.933427661392459 0 0 0 0 0 0 0 0
0 0 0 0 0 0 0 0 0 0 0 0 0 0.0561596831813298 0 0 0 0 0 0 0 0 0 0 0 0 0 0 -0.189367320036218 0 0 -3.55527769169457 0 0 0 0 -7.00032414874544 0 0 0 0 -1.88627302634065 0 0 0 0 0 0 0 0
0.823281119872854 0.357157933946893 0.126072303349254 0 0 0 0 0 0 0 0 0 0 0 0 0 0 0 0 0 0 0 0 0 0 0 0 0 0 -0.189367320036218 0 -1.1260452732445 0 0 0 0 0 0 0 0 0 0 -0.259058300949767 0 0 0 0 0 0 0
0 0 0.234042831785538 0 0 0 0 0 0 0 0 0 0 0 0 0 0 0 0 0 0 0 0 0 0 0 0 0 0 0 -0.189367320036218 0 0 -3.72869439646497 0 0 0 0 0 0 0 0 0 0 0 0 0 0 0 0
0 0 0 0 0 0 0 0 0 0 0 0 0 0 0.1076191702146 0.182696160073659 0.163574283769535 0 1.00546724974801 0.0955467066415674 0.158036913222154 0.155996264235436 0 0.50866087549106 0.116010772442395 0.275968466716524 0 0 0.693105864910198 0.239187736240398 0 -0.189367320036218 0 0 0 -0.581173267223378 0 0 0 0 0 0 0 -0.523069273797572 0 0 0 0 0 0
0 0 0 0 0 0 0 0 0 0 0 0 0 0 0 0 0 0 0 0 0 0 0 0 0 0 0 0 0 0 0 0 -0.189367320036218 -0.617605617836063 0 -4.9899436485896 0 0 0 0 0 0 0 0 0 0 0 0 0 0
0 0 0 0 0 0 0 0 0 0 0 0 0 0 0 0 0 0 0 0 0 0 0 0 0 0 0 0 0 0 0.785562709485942 0 0.129239030626381 -0.189367320036218 0 0 0 0 0 0 0 0 0 0 0 0 0 0 0 0
0 0 0 0 0 0.565749772681853 0.796849143884439 0 0.221810589606438 0.722930952565746 0.0574072990168895 0.610240042758528 0 0.341244184493233 0.158006369839221 0.0522946245726766 0.134097784423311 0.165984564556171 0 0 0 0 0 0 0 0 0 0 0 0 0 0 0 0 -0.189367320036218 0 0 0 0 0 0 0 0 0 0 0 0 0 0 0
0 0 0 0 0 0 0 0 0 0 0 0 0 0 0 0 0 0 0 0 0 0 0 0 0 0 0 0 0 0 0 0.116358455204348 1.12190065508397 0 0 -0.189367320036218 0 0 0 0 0 0 0 0 0 0 0 0 0 0
0 0 0 0 0 0 0 0 0 0 0 0.281755415163357 0.131890741045462 0.093440548653531 0.117201286393239 0.426099473762804 0.0708613184283859 0.23642929449713 0.107391063216244 0.346847469700144 0.149307358446185 0.22812121071466 0.34801936417745 0.36385882756391 0.154119437803601 0.28499542508773 0.571775433641018 0.164967470500929 1.35322862862104 0 0 0 0 0 0 0 -0.189367320036218 0 0 0 0 0 0 0 0 0 0 -0.63068501787663 0 0
0 0 0 0 0 0 0 0 0 0 0 0 0 0 0 0 0 0 0 0 0 0 0 0 0 0 0 0 0 0 0 0 0 0 0 0 0 -0.189367320036218 0 0 0 0 0 0 0 0 0 -0.859823491878035 0 0
0 0 0 0 0 0.639289069968932 0 0 0 0 0 0 0 0 0 0 0 0 0 0 0 0 0 0 0 0 0 0 0 0 0 0 0 0 0 0 0 0 -0.189367320036218 0 0 0 0 0 0 0 0 -1.38825468340024 0 0
0 0 0 0 0 0 0 0 0 0 0 0 0 0 0 0 0 0 0 0 0 0 0 0 0 0 0 0 0 0 0 0 0 0 0 0 0 0 0 -0.189367320036218 0 0 0 0 0 0 0 -1.44702863320644 0 0
0 0 0 0 0 0 0 0 0 0 0 0 0 0.0608082099402896 0 0.534287381456128 0 0.0347288257046947 0 0 0 0 0 0 0 0 0 0 0 0 0 0 0 0 0 0 0 0 0 0 -0.189367320036218 0 0 0 0 0 0 -3.53623771141519 0 0
0 0 0 0 0 0 0 0 0 0 0 0 0 0 0 0 0 0 0 0 0 0 0 0 0 1.05341552316469 0.32826327324923 0.162489971916367 0.370551754511345 0 0 0 0 0 0 0 0 0 0 0 0 -0.189367320036218 0 0 0 0 0 -0.523337195282841 0 0
0 0 0 0 0 0 0 0 0 0 0 0 0 0 0 0 0 0 0 0 0 0 0 0 0 0 0 0 0 0.0520970115053278 0 0 0 0 0 0 0 0 0 0 0 0 -0.189367320036218 0 0 0 0 -1.28617113934781 0 0
0 0 0 0 0 0 0 0 0 0 0 0 0 0 0 0 0 0 0 0 0 0 0 0 0 0 0 0 0 0 0 0.108514444934771 0 0 0 0 0 0 0 0 0 0 0 -0.189367320036218 0 0 0 -0.327323253313292 0 0
0 0 0 0 0 0 0 0 0 0 0.343453268836001 0.305272795559614 0.255440665479095 0 0.22973380138322 0.0609847827031244 0.156603604712428 0 0.046506213494967 0 0.0464649965618373 0.0558070260370847 0.265078184145655 0 0 0 0 0 0 0 0 0 0 0 0 0 0 0 0 0 0 0 0 0 -0.189367320036218 0 0 0 0 0
0 0 0 0.341370822321197 0.173562498600764 0 0.209952078781474 0 0.083474025035722 0.575671177687407 0 0.226459864738632 0.140583032232608 0 0 0 0 0 0 0 0 0 0 0 0 0 0 0 0 0 0 0 0 0 0 0 0 0 0 0 0 0 0 0 0 -0.189367320036218 0 -2.52667165316122 0 0
0 0 0 0 0 0 0 0 0 0 0 0 0 0 0 0 0 0 0 0 0 0 0 0 0 0 0 0 0 0 0 0 0 0 0 0 0 0 0 0 0 0 0 0 0 0 -0.189367320036218 -0.690451754411093 0 0
0 0 0 0 0 0 0 0 0 0 0 0 0 0 0 0 0 0 0 0 0 0 0 0 0 0 0 0 0 0 0 0 0 0 0 0 0.126372034788774 0.184827235770531 0.266215884123599 0.287504086390885 0.666050174635365 0.104707800718365 0.259895174665407 0.0662218631806518 0 0.485697683028062 0.147167454634905 -0.189367320036218 0.414722476889368 0.191999967642041
0.0630835657572629 0.689721501712833 0 0 0 0 0 0 0 0 0 0 0 0 0 0 0 0 0 0 0 0 0 0 0 0 0 0 0 0 0 0 0 0 0 0 0 0 0 0 0 0 0 0 0 0 0 -2.04752098430141 -0.189367320036218 0
0 0 0 0 0 0 0 0 0 0 0 0 0 0 0 0 0 0 0 0 0 0 0 0 0 0 0 0 0 0 0 0 0 0 0 0 0 0 0 0 0 0 0 0 0 0 0 -0.903678327358336 0 -0.189367320036218
