0.688793988292404
7.2899553926427
3.77684677195365
0.496073470741162
0.832991172418833
0.510248208164503
1.19674196433332
2.60390353066807
9.26555660796267
0.143746217928182
0.250593405871491
0.16167852069853
0.290412394222998
1.89122622903748
0.364593440905943
0.642639989783492
0.652204677269807
0.629168531066776
6.4117094846088
3.14535119021135
0.791220552823135
1.02719947648185
0.943690734879244
2.81856970940815
1.65294377216588
0.161965523265309
0.669935224664117
0.647586408109128
2.04103213488575
1.39344358505779
0.539060755790011
10.2450866145651
0.24605122800152
1.15736305726231
5.31361428942932
0.22935897680341
0.362775364931606
1.27518924614313
6.62812546525039
0.405530900963241
0.638653904571451
2.05873789911087
0.527900280093965
1.76207246073986
0.519703371678229
0.522380734193633
0.47760238365258
2.59234828745846
0.69938744439815
0.82547005481625
