-0.128030172111044 0 0 0 0 0 0 0 0 0 0 0 -11.093786657355 -8.12026452226801 0 0 0 0 0 0 0 0 -1.69615048389013 0 0 0 0 0 0 0 0 0 0 0 0 0 0 0 0 0 0 0 0 0 0 0 0 0 0 0
0 -0.128030172111044 -0.197759029207563 0 0 -0.198279063145491 0 0 0 0 0 0 0 0 0 0 0 0 0 -1.28874753281829 0 0 -3.2193648199704 0 0 0 0 0 -1.61350875420484 0 0 0 0 0 0 0 0 0 0 0 0 0 0 0 0 0 0 0 0 0
0 0.0398207698956208 -0.128030172111044 0 0 0 0 0 0 0 0 0 -1.89393080853738 0 0 -1.04338175692758 0 0 0 -0.468631214438296 0 0 -0.426839926949617 0 0 0 0 0 -0.907822273423723 0 0 0 0 0 0 0 0 0 0 0 0 0 0 0 0 0 0 0 0 0
0 0 0 -0.128030172111044 0 0 0 0 0 0 0 0 -0.0285539697366038 0 0 -4.43102028261359 0 0 0 0 0 0 0 0 0 0 0 0 0 0 0 0 0 -0.302168887907739 0 0 0 0 0 0 0 0 0 0 0 0 0 0 0 0
0 0 0 0 -0.128030172111044 0 0 0 -4.63977539727172 0 0 0 0 0 0 0 0 0 0 0 0 0 0 0 0 -0.967084764930242 0 -0.359884139292442 0 0 0 0 0 -0.282014552825521 0 0 0 -5.39342553754987 0 0 0 0 0 -0.35922985691622 0 0 0 0 0 0
0 0.0401949445255908 0 0 0 -0.128030172111044 -0.243839655352547 0 -3.96452847656722 0 0 0 0 0 0 0 0 0 0 0 0 0 0 0 0 0 0 -5.60386675174598 0 0 0 0 0 -1.40395609420389 0 0 0 -3.58462120438989 0 0 0 0 0 0 0 0 0 0 0 0
0 0 0 0 0 0.0495307841276569 -0.128030172111044 0 -0.461013489453489 -0.647398983312856 0 0 0 0 0 0 0 0 0 0 0 0 0 0 0 0 0 -1.07230183050747 0 0 0 -3.37064990267168 -1.21429822143753 -0.889332480210761 0 0 0 0 0 0 0 0 0 -1.43356025640846 0 0 0 0 0 0
0 0 0 0 0 0 0 -0.128030172111044 -0.126146535256801 0 0 -1.20868113990331 0 0 0 0 0 0 0 0 0 0 0 0 0 -2.30203920637679 0 0 0 0 0 -1.12998034431485 0 -1.0383667363287 0 0 0 0 0 0 0 0 0 -1.45113619985285 0 0 0 0 -0.713839420878167 0
0 0 0 0 0.887340698634445 0.813992576948475 0.0958936252263036 0.0255334556363255 -0.128030172111044 0 0 0 0 0 0 0 -0.3995114344332 0 0 0 0 0 0 0 -0.393870532484458 0 0 -0.931237141773917 0 -1.13849760731449 0 0 -0.979881894108005 0 0 0 0 0 0 -0.796507083708319 0 0 0 0 0 0 0 0 0 0
0 0 0 0 0 0 0.12213390901545 0 0 -0.128030172111044 0 0 0 0 0 0 -2.78977493315116 -0.254223843923742 -0.32920836759243 0 0 0 0 0 0 0 0 0 0 0 0 0 -0.771748760440095 0 0 0 0 0 0 0 -6.56097637853349 0 0 0 0 0 0 0 -3.76482816906737 0
0 0 0 0 0 0 0 0 0 0 -0.128030172111044 0 0 0 0 0 -1.5775569011553 -2.97394247284513 -2.50132094009 0 0 0 0 0 0 0 0 0 0 0 0 0 -0.298756660212915 0 0 0 0 0 0 -0.649076756266599 0 0 0 0 -2.20045453773821 0 0 0 0 0
0 0 0 0 0 0 0 0.252377941841903 0 0 0 -0.128030172111044 0 0 0 0 0 -1.83867065791595 -3.01944030154638 0 0 -1.25693180362975 0 0 0 0 0 0 0 0 0 0 -1.3670990450232 0 0 0 -0.758325192575807 0 0 -2.19493090603408 -0.113548001263756 0 0 0 0 0 0 0 0 0
2.38890715393299 0 0.386704475724221 0.00596853136063225 0 0 0 0 0 0 0 0 -0.128030172111044 0 0 0 0 -2.18494694279733 0 0 0 -2.71627204349378 0 0 0 0 -1.08926382635077 0 0 0 0 0 -4.252632206904 0 0 0 -0.95742257830978 0 0 -0.310563506992633 0 0 0 0 0 0 0 0 -0.704108905054595 0
1.52650529634757 0 0 0 0 0 0 0 0 0 0 0 0 -0.128030172111044 0 0 0 0 -0.507440918716131 0 -0.504909095663923 -1.99233297558002 0 0 0 0 -0.819972196327915 0 0 0 0 0 -2.27240823388475 0 0 0 -4.70783317464863 0 0 -5.5650973665739 0 0 0 0 0 0 0 0 -12.0282915162764 0
0 0 0 0 0 0 0 0 0 0 0 0 0 0 -0.128030172111044 0 0 -1.0812902823837 -0.4100558956688 0 0 -7.14283239840954 0 0 0 0 -3.29281931993105 0 0 0 0 0 -1.31212698287154 0 0 0 -0.713065189481397 0 0 0 0 0 0 0 0 0 0 0 -0.810661184025094 0
0 0 0.196120964096145 0.883729914737462 0 0 0 0 0 0 0 0 0 0 0 -0.128030172111044 0 0 0 0 0 -0.552502783915082 0 0 0 0 -1.09117981661051 0 0 0 0 0 0 0 0 0 -0.618317808501405 0 0 0 0 0 0 0 0 0 0 0 0 0
0 0 0 0 0 0 0 0 0.0769976461555633 0.580296611899172 0.308992946124086 0 0 0 0 0 -0.128030172111044 0 0 0 0 -0.795961296654123 0 0 0 0 -1.16755200481941 0 0 0 0 0 0 0 0 0 -3.12192605657442 0 0 -3.02017354976767 0 0 0 0 0 0 0 0 0 0
0 0 0 0 0 0 0 0 0 0.0492417718374027 0.624646626403343 0.352968765454164 0.432822828032076 0 0.213142960244186 0 0 -0.128030172111044 0 0 0 -0.701718119304602 0 0 0 0 -1.75708047940471 0 0 0 0 0 0 0 0 0 0 0 0 0 0 0 0 0 0 0 0 0 0 0
0 0 0 0 0 0 0 0 0 0.0657186879438773 0.495362543370286 0.597345214258963 0 0.101593662218112 0.0856930233100174 0 0 0 -0.128030172111044 0 0 -0.657413516959996 0 0 0 0 -3.10906359868367 0 0 0 0 0 0 0 0 0 0 0 0 0 0 0 0 0 0 0 0 0 0 0
0 0.239503165102724 0.0906300770538933 0 0 0 0 0 0 0 0 0 0 0 0 0 0 0 0 -0.128030172111044 0 -1.44526051565663 0 0 0 0 -0.942502182100497 0 0 0 0 0 0 0 0 0 0 0 0 -3.3541347076963 0 0 0 0 0 0 0 0 0 0
0 0 0 0 0 0 0 0 0 0 0 0 0 0.0960104644918057 0 0 0 0 0 0 -0.128030172111044 -3.16231682027615 0 0 0 0 -0.0867167274540501 0 0 0 0 0 0 0 0 0 0 0 0 -0.0801475253065788 0 0 0 0 0 0 0 0 0 0
0 0 0 0 0 0 0 0 0 0 0 0.264269551921148 0.541017129179846 0.351877663319491 1.48784541090407 0.103997447206467 0.159330713433889 0.137023227725353 0.145608847955117 0.295571431564253 0.634011975618501 -0.128030172111044 0.262302824175487 0.810459613158855 0 0 0 0 0 0 0 0 0 0 0 0 0 0 0 0 0 0 0 0 0 0 0 0 0 0
0.347010795456223 0.642443569560649 0.085452540011258 0 0 0 0 0 0 0 0 0 0 0 0 0 0 0 0 0 0 -1.25075361760575 -0.128030172111044 0 0 0 0 0 0 0 0 0 0 0 0 0 0 0 0 -3.67367164634855 0 0 0 0 0 0 0 0 0 0
0 0 0 0 0 0 0 0 0 0 0 0 0 0 0 0 0 0 0 0 0 -4.0842887262422 0 -0.128030172111044 0 0 0 0 0 0 0 0 0 0 0 0 0 0 0 0 0 0 0 0 0 0 0 0 0 0
0 0 0 0 0 0 0 0 0.082200276307291 0 0 0 0 0 0 0 0 0 0 0 0 0 0 0 -0.128030172111044 0 0 0 0 0 0 0 0 0 0 0 0 0 0 0 0 0 0 0 0 0 0 -2.47347723379661 0 0
0 0 0 0 0.193084185651225 0 0 0.465894433400847 0 0 0 0 0 0 0 0 0 0 0 0 0 0 0 0 0 -0.128030172111044 0 0 0 0 0 0 0 0 0 0 0 0 0 0 0 0 0 0 0 0 0 0 0 0
0 0 0 0 0 0 0 0 0 0 0 0 0.241089965157426 0.159622370034696 0.683088360537273 0.221880863018847 0.222166017977473 0.358149337366331 0.584249312751886 0.202611873258915 0.0176134482732276 0 0 0 0 0 -0.128030172111044 0 0 0 -0.516555783189799 0 0 0 0 0 0 0 0 0 0 0 0 0 0 0 0 0 0 0
0 0 0 0 0.0685881729502027 1.14501559988757 0.224129715432339 0 0.186680943869691 0 0 0 0 0 0 0 0 0 0 0 0 0 0 0 0 0 0 -0.128030172111044 0 0 0 0 0 0 0 0 0 0 0 0 0 0 0 0 0 0 0 0 0 0
0 0.282670490667484 0.191642100854486 0 0 0 0 0 0 0 0 0 0 0 0 0 0 0 0 0 0 0 0 0 0 0 0 0 -0.128030172111044 0 0 0 0 0 -0.106148648995728 0 0 0 0 0 0 0 0 0 0 0 0 0 0 0
0 0 0 0 0 0 0 0 0.216785777489712 0 0 0 0 0 0 0 0 0 0 0 0 0 0 0 0 0 0 0 0 -0.128030172111044 0 0 0 0 -0.227487345554636 0 0 0 0 0 0 0 0 0 0 0 0 0 0 0
0 0 0 0 0 0 0 0 0 0 0 0 0 0 0 0 0 0 0 0 0 0 0 0 0 0 0.100017928502685 0 0 0 -0.128030172111044 0 0 0 0 0 0 0 0 0 0 0 0 0 0 0 0 0 0 0
0 0 0 0 0 0 0.622556286877095 0.21441837066351 0 0 0 0 0 0 0 0 0 0 0 0 0 0 0 0 0 0 0 0 0 0 0 -0.128030172111044 0 0 0 0 0 0 0 0 0 0 0 0 0 0 0 0 0 0
0 0 0 0 0 0 0.232015583518552 0 0.190727835828316 0.165855945775084 0.0581459205113474 0.267144173913806 0.866985051107281 0.495245295534289 0.256980655996279 0 0 0 0 0 0 0 0 0 0 0 0 0 0 0 0 0 -0.128030172111044 0 -0.136195371013032 0 0 0 0 0 0 0 0 0 0 0 0 0 0 0
0 0 0 0.0597067359178916 0.0559993428759404 0.275015042852042 0.168932948678155 0.19533860011516 0 0 0 0 0 0 0 0 0 0 0 0 0 0 0 0 0 0 0 0 0 0 0 0 0 -0.128030172111044 0 0 0 0 0 0 0 0 0 0 0 0 0 0 0 0
0 0 0 0 0 0 0 0 0 0 0 0 0 0 0 0 0 0 0 0 0 0 0 0 0 0 0 0 0.0198055786430319 0.046903332780414 0 0 0.0272166347157799 0 -0.128030172111044 0.201449581669061 0.090175070798179 0.0507203503880705 0.689259920556994 0 0 0 0 0 0 0 0 0 0 0
0 0 0 0 0 0 0 0 0 0 0 0 0 0 0 0 0 0 0 0 0 0 0 0 0 0 0 0 0 0 0 0 0 0 -0.992635109621976 -0.128030172111044 0 0 0 0 0 0 0 0 0 0 0 0 0 -0.161707340470933
0 0 0 0 0 0 0 0 0 0 0 0.149809190341029 0.189251416780442 0.940632933977788 0.155274440329398 0.128487266438455 0.599217777797014 0 0 0 0 0 0 0 0 0 0 0 0 0 0 0 0 0 -0.447402566341063 0 -0.128030172111044 0 0 0 0 0 0 0 0 0 0 0 0 -1.57711508748968
0 0 0 0 1.118595658428 0.697091350755941 0 0 0 0 0 0 0 0 0 0 0 0 0 0 0 0 0 0 0 0 0 0 0 0 0 0 0 0 -0.24955383539565 0 0 -0.128030172111044 0 0 0 0 0 0 0 0 0 0 0 -1.33526892407688
0 0 0 0 0 0 0 0 0 0 0 0 0 0 0 0 0 0 0 0 0 0 0 0 0 0 0 0 0 0 0 0 0 0 -3.24257881003256 0 0 0 -0.128030172111044 0 0 0 -1.09019893784908 0 0 0 -0.663564462905622 0 0 0
0 0 0 0 0 0 0 0 0.169726592454272 0 0.116913932957794 0.418069550230828 0.0662980930220754 1.07352835354904 0 0 0.652706934758075 0 0 0.673746382623324 0.0170818120564831 0 0.837992670854557 0 0 0 0 0 0 0 0 0 0 0 0 0 0 0 0 -0.128030172111044 0 0 0 0 0 0 0 0 0 -2.95504973209915
0 0 0 0 0 0 0 0 0 1.39048900613118 0 0.0243416018391255 0 0 0 0 0 0 0 0 0 0 0 0 0 0 0 0 0 0 0 0 0 0 0 0 0 0 0 0 -0.128030172111044 0 -0.814022119340404 0 0 0 0 0 0 -1.310035757433
0 0 0 0 0 0 0 0 0 0 0 0 0 0 0 0 0 0 0 0 0 0 0 0 0 0 0 0 0 0 0 0 0 0 0 0 0 0 0 0 0 -0.128030172111044 0 0 0 0 0 0 0 -0.941278595093603
0 0 0 0 0 0 0 0 0 0 0 0 0 0 0 0 0 0 0 0 0 0 0 0 0 0 0 0 0 0 0 0 0 0 0 0 0 0 0.2240079719893 0 0.156679900150407 0 -0.128030172111044 0 0 0 0 0 0 -7.38651589203401
0 0 0 0 0.0694659629392784 0 0.289991844581066 0.313682668366688 0 0 0 0 0 0 0 0 0 0 0 0 0 0 0 0 0 0 0 0 0 0 0 0 0 0 0 0 0 0 0 0 0 0 0 -0.128030172111044 0 0 0 0 0 -3.10213762897503
0 0 0 0 0 0 0 0 0 0 0.431862700818581 0 0 0 0 0 0 0 0 0 0 0 0 0 0 0 0 0 0 0 0 0 0 0 0 0 0 0 0 0 0 0 0 0 -0.128030172111044 0 0 0 0 -0.914395095053505
0 0 0 0 0 0 0 0 0 0 0 0 0 0 0 0 0 0 0 0 0 0 0 0 0 0 0 0 0 0 0 0 0 0 0 0 0 0 0 0 0 0 0 0 0 -0.128030172111044 0 0 0 -0.415208860625935
0 0 0 0 0 0 0 0 0 0 0 0 0 0 0 0 0 0 0 0 0 0 0 0 0 0 0 0 0 0 0 0 0 0 0 0 0 0 0.128071988634459 0 0 0 0 0 0 0 -0.128030172111044 0 0 0
0 0 0 0 0 0 0 0 0 0 0 0 0 0 0 0 0 0 0 0 0 0 0 0 0.50956108877657 0 0 0 0 0 0 0 0 0 0 0 0 0 0 0 0 0 0 0 0 0 0 -0.128030172111044 0 0
0 0 0 0 0 0 0 0.153264572520549 0 0.7198930802371 0 0 0.13347500041618 2.54830731035979 0.160835472882609 0 0 0 0 0 0 0 0 0 0 0 0 0 0 0 0 0 0 0 0 0 0 0 0 0 0 0 0 0 0 0 0 0 -0.128030172111044 0
0 0 0 0 0 0 0 0 0 0 0 0 0 0 0 0 0 0 0 0 0 0 0 0 0 0 0 0 0 0 0 0 0 0 0 0.0330127552669904 0.320959638495748 0.266433988478471 0 0.631287089786716 0.28726630374734 0.17669054559725 1.39632074861331 0.600495174509743 0.175391621549101 0.0834619215638999 0 0 0 -0.128030172111044
