-0.250995666824444 0 0 -0.840217964065499 0 0 0 0 0 0 0 0 0 0 0 0 0 0 0 0 0 0 0 0 0 0 0 0 0 0 0 0 0 0 0 0 0 0 0 0 0 0 0 0 0 0 0 0 0 0
0 -0.250995666824444 0 0 0 0 0 0 -0.60059003274834 0 0 -1.83364073749588 0 0 -2.02754330619154 0 0 0 0 0 0 0 0 0 0 0 0 0 0 0 0 0 0 0 0 0 0 0 0 0 0 0 -7.08550347901839 0 0 0 0 0 0 0
0 0 -0.250995666824444 0 0 0 0 0 -0.686965097005607 0 0 0 0 0 -0.642662715295148 0 0 0 0 0 0 0 0 0 0 0 0 0 0 0 0 0 0 0 0 0 0 0 0 0 0 0 -1.85520375139528 0 0 0 0 0 0 0
0.172384251987733 0 0 -0.250995666824444 0 0 0 0 0 0 0 0 0 0 0 0 0 0 0 0 0 0 0 0 0 0 0 0 0 0 0 0 0 0 0 0 0 0 0 0 0 0 -2.25623099000603 0 0 0 0 0 0 0
0 0 0 0 -0.250995666824444 0 0 0 0 0 0 0 0 0 0 0 -3.99342810585532 0 0 0 0 0 0 0 0 0 0 0 0 0 0 0 0 0 -0.288658951338574 0 0 0 0 0 0 0 -0.6972543680545 0 0 0 0 0 0 0
0 0 0 0 0 -0.250995666824444 0 0 0 0 0 0 0 0 0 0 0 -0.0729322571755576 0 0 0 0 0 0 0 0 0 0 0 0 0 0 0 0 -0.664534635583031 0 0 0 0 0 0 0 -0.548911101690989 0 0 0 0 0 0 0
0 0 0 0 0 0 -0.250995666824444 0 0 0 0 0 0 0 0 0 0 -0.130105262297646 0 0 0 0 0 0 0 0 0 0 0 0 0 0 0 0 -1.39553371501307 0 0 0 0 0 0 0 -1.57091676024242 0 0 0 0 0 0 0
0 0 0 0 0 0 0 -0.250995666824444 0 0 0 0 0 0 0 0 0 0 -0.572296304210477 0 0 0 0 0 0 0 0 0 0 0 0 0 0 0 -2.91774800356821 -2.32594287594556 -1.15844459196843 0 0 0 0 0 0 0 0 0 0 0 0 0
0 0.126547449469268 0.131981005633256 0 0 0 0 0 -0.250995666824444 0 0 0 0 -0.225130077284879 0 0 0 0 -2.709451038923 0 0 0 0 0 -4.82742136415528 0 0 0 0 0 0 0 0 0 0 -0.557915426403679 0 0 0 0 0 0 -1.22720130661297 0 0 0 0 0 0 0
0 0 0 0 0 0 0 0 0 -0.250995666824444 0 0 0 -1.04575302083854 0 0 0 0 -0.108051226293449 0 0 0 0 0 -0.937242426935711 0 0 0 0 0 0 0 0 0 0 -2.88768551519332 -2.55747894612431 0 0 0 0 0 -1.37765601143013 0 0 0 0 0 0 0
0 0 0 0 0 0 0 0 0 0 -0.250995666824444 0 0 0 0 0 0 0 0 0 0 0 0 0 -0.706912142274328 0 0 0 0 0 0 0 0 0 0 0 -0.349412066649569 0 0 0 0 0 0 0 0 0 0 0 0 0
0 0.393546124652874 0 0 0 0 0 0 0 0 0 -0.250995666824444 0 0 0 0 0 0 0 0 0 0 0 0 0 0 0 0 0 0 -0.459235185323048 0 0 0 0 0 0 0 0 0 0 0 -0.337712733257051 -2.76512813584845 0 0 0 0 0 0
0 0 0 0 0 0 0 0 0 0 0 0 -0.250995666824444 0 0 0 0 0 0 -2.13300201543764 0 0 0 0 -0.737209167309251 0 0 0 0 0 -0.486435271165145 0 0 0 0 0 0 0 0 0 0 0 0 -0.386697303961341 0 0 0 0 0 0
0 0 0 0 0 0 0 0 0.0439816405701086 0.198686221561054 0 0 0 -0.250995666824444 0 0 0 0 0 -1.99574551655603 0 0 0 0 -0.253108681464677 0 0 0 0 0 -0.78929145870864 0 0 0 0 0 0 -0.844020449619059 0 0 0 0 0 0 0 0 0 0 0 0
0 0.430806499881585 0.141751142755444 0 0 0 0 0 0 0 0 0 0 0 -0.250995666824444 -3.71682530207424 0 0 0 0 0 0 0 0 -2.77894948093831 0 0 0 0 0 -4.87490772057515 0 0 0 0 0 0 -0.225341263059399 0 0 0 0 0 -0.59215889118086 0 0 0 0 0 0
0 0 0 0 0 0 0 0 0 0 0 0 0 0 0.791227959376587 -0.250995666824444 0 0 0 -4.99075725311432 0 0 0 -1.14777541934011 -5.48564976002913 0 0 0 0 0 -0.878794775009091 0 0 0 0 0 0 0 0 0 0 0 0 0 0 0 0 0 0 0
0 0 0 0 0.751110106573253 0 0 0 0 0 0 0 0 0 0 0 -0.250995666824444 0 0 0 -0.483861701754174 0 -0.660328520951823 -0.608464441661956 0 0 0 0 0 0 0 0 0 0 0 0 0 -0.436539836402638 0 0 0 0 0 0 0 0 -0.674085657202677 0 0 0
0 0 0 0 0 0.0149219282674595 0.0238257032309866 0 0 0 0 0 0 0 0 0 0 -0.250995666824444 0 0 -0.462562995526471 0 -0.953973489152907 0 0 0 0 0 0 0 0 0 0 0 0 0 0 -0.190521536299987 0 0 0 0 0 -0.237349461980306 0 0 -1.18467305941232 0 0 0
0 0 0 0 0 0 0 0.106583464987326 0.554032478517979 0.0209793753116367 0 0 0 0 0 0 0 0 -0.250995666824444 0 0 0 -4.08339113713356 -0.250129009733222 0 0 0 0 0 -0.158197015412579 0 0 0 0 0 0 0 -0.138468110061558 0 0 0 0 0 0 0 0 -0.386652704333437 0 0 0
0 0 0 0 0 0 0 0 0 0 0 0 0.429828585157221 0.410878433734033 0 0.965342297227137 0 0 0 -0.250995666824444 -0.60967556807651 0 -0.202715597040606 -0.569895622572089 0 0 0 0 0 -2.09222732044616 0 0 0 0 0 0 0 -2.48934438542453 0 0 0 0 0 0 0 0 0 0 0 0
0 0 0 0 0 0 0 0 0 0 0 0 0 0 0 0 0.100158470538254 0.092383875494769 0 0.120300734472571 -0.250995666824444 -0.436642181258901 -0.648531887291373 -0.455259749284961 0 0 0 0 0 -0.204379443964615 0 0 0 0 0 0 0 -5.70333458191991 0 0 0 0 0 -1.89152640395847 0 0 -0.208815889459463 0 -1.12457661513263 0
0 0 0 0 0 0 0 0 0 0 0 0 0 0 0 0 0 0 0 0 0.0836147503828584 -0.250995666824444 -0.368937416942736 0 0 0 0 0 0 -2.11765770103442 0 0 -6.59059760995179 0 0 0 0 -0.527206704102598 0 -0.503889994274627 0 0 0 0 0 0 -0.407425189726196 0 -0.828567104330694 0
0 0 0 0 0 0 0 0 0 0 0 0 0 0 0 0 0.130368466079614 0.178518598016361 0.843200311056824 0.038436455012247 0.132392464589501 0.0745498643694734 -0.250995666824444 0 0 0 0 0 0 -3.45822270174618 0 0 0 0 0 0 0 -0.436215728415586 0 -2.57091621854687 -4.91312909081621 0 0 0 0 0 0 0 -0.990690026212487 0
0 0 0 0 0 0 0 0 0 0 0 0 0 0 0 0.218255299564195 0.119931449627027 0 0.0435298157887103 0.109234153220056 0.0861105095081622 0 0 -0.250995666824444 0 0 0 0 0 -1.59649809831402 0 0 0 0 0 0 0 -0.303899178539075 0 -0.736371496945384 -0.458169391168337 0 0 0 0 0 0 0 -0.253575697182967 -0.488209637586475
0 0 0 0 0 0 0 0 0.922861127435874 0.181269383924674 0.139824284979325 0 0.158102929441881 0.0469410430522712 0.541052821545871 1.04417823760935 0 0 0 0 0 0 0 0 -0.250995666824444 -10.3181368656096 0 0 0 0 0 0 0 0 0 0 0 0 0 0 0 0 0 0 0 0 0 0 0 0
0 0 0 0 0 0 0 0 0 0 0 0 0 0 0 0 0 0 0 0 0 0 0 0 2.16645287406707 -0.250995666824444 0 0 0 0 0 0 0 0 0 0 0 0 0 0 0 0 0 0 0 0 0 0 0 -2.83614129515591
0 0 0 0 0 0 0 0 0 0 0 0 0 0 0 0 0 0 0 0 0 0 0 0 0 0 -0.250995666824444 -0.587034837191518 0 0 0 0 0 0 0 0 0 0 0 0 -1.20575246220446 -1.89339836090667 0 0 0 0 0 0 0 -0.41147456124236
0 0 0 0 0 0 0 0 0 0 0 0 0 0 0 0 0 0 0 0 0 0 0 0 0 0 0.121685874977654 -0.250995666824444 0.264287303856315 0 0 0 0 0 0 0 0 0 0 0 -0.988964209393684 -1.32128842895843 0 0 0 0 0 0 0 0
0 0 0 0 0 0 0 0 0 0 0 0 0 0 0 0 0 0 0 0 0 0 0 0 0 0 0 -1.29288123720737 -0.250995666824444 0 0 0 0 0 0 0 0 0 0 0 -3.15754895901055 -2.13236717871765 0 0 0 0 0 0 0 -1.12669407162624
0 0 0 0 0 0 0 0 0 0 0 0 0 0 0 0 0 0 0.0335187526358633 0.449085830485382 0.0424550660552637 0.443420512608401 0.642295457293026 0.323559780085295 0 0 0 0 0 -0.250995666824444 0 0 0 0 0 0 0 0 0 0 -0.987753407185979 -1.66185193473727 0 0 -0.28209577739319 0 0 0 0 0
0 0 0 0 0 0 0 0 0 0 0 0.0890257786676464 0.100477451515305 0.152719206949621 0.947040028333338 0.172166823089282 0 0 0 0 0 0 0 0 0 0 0 0 0 0 -0.250995666824444 0 0 0 0 0 0 0 0 0 0 -0.878972799629524 0 0 0 0 0 0 0 0
0 0 0 0 0 0 0 0 0 0 0 0 0 0 0 0 0 0 0 0 0 0 0 0 0 0 0 0 0 0 0 -0.250995666824444 0 0 0 0 0 0 -1.6359450513578 0 0 0 0 0 -0.772062221709467 0 0 0 0 0
0 0 0 0 0 0 0 0 0 0 0 0 0 0 0 0 0 0 0 0 0 1.40624484004241 0 0 0 0 0 0 0 0 0 0 -0.250995666824444 0 0 0 0 0 0 0 0 0 0 0 -1.64115341357542 0 0 0 0 0
0 0 0 0 0 0 0 0 0 0 0 0 0 0 0 0 0 0 0 0 0 0 0 0 0 0 0 0 0 0 0 0 0 -0.250995666824444 0 0 0 0 0 0 0 0 0 0 -0.623755390687936 0 0 0 0 0
0 0 0 0 0.0597770407148386 0.129882497036393 0.26542362867941 0.58888376928651 0 0 0 0 0 0 0 0 0 0 0 0 0 0 0 0 0 0 0 0 0 0 0 0 0 0 -0.250995666824444 0 0 0 0 0 0 0 0 0 -1.17539854780548 -0.700591798398542 0 0 0 0
0 0 0 0 0 0 0 0.47748846780329 0.105402343114761 0.560704829786801 0 0 0 0 0 0 0 0 0 0 0 0 0 0 0 0 0 0 0 0 0 0 0 0 0 -0.250995666824444 0 0 0 0 0 0 0 0 -3.96842122788256 -0.94703927527347 0 0 0 0
0 0 0 0 0 0 0 0.226144051585575 0 0.528258115471735 0.0700078273964243 0 0 0 0 0 0 0 0 0 0 0 0 0 0 0 0 0 0 0 0 0 0 0 0 0 -0.250995666824444 0 0 0 0 0 0 0 0 -0.981159597366761 0 0 0 0
0 0 0 0 0 0 0 0 0 0 0 0 0 0.161340828372651 0.0483025404913714 0 0.0890436382681143 0.0409182123439628 0.0266114834336621 0.491859765778581 1.19464510912273 0.105865647836016 0.0884510398368019 0.0579169748497348 0 0 0 0 0 0 0 0 0 0 0 0 0 -0.250995666824444 0 0 0 0 0 0 -0.474674111260869 -3.6529121330344 0 0 0 0
0 0 0 0 0 0 0 0 0 0 0 0 0 0 0 0 0 0 0 0 0 0 0 0 0 0 0 0 0 0 0 0.325980496343269 0 0 0 0 0 0 -0.250995666824444 0 0 0 0 0 -1.41086469054046 -2.05004567338908 0 0 0 0
0 0 0 0 0 0 0 0 0 0 0 0 0 0 0 0 0 0 0 0 0 0.0930342137234531 0.500024433497575 0.145391462758245 0 0 0 0 0 0 0 0 0 0 0 0 0 0 0 -0.250995666824444 0 0 0 0 0 -1.8920805494541 0 0 0 0
0 0 0 0 0 0 0 0 0 0 0 0 0 0 0 0 0 0 0 0 0 0 1.0178653208577 0.0918486273987534 0 0 0.24992804573618 0.1973752454417 0.60918234742163 0.223184318416639 0 0 0 0 0 0 0 0 0 0 -0.250995666824444 0 0 0 -0.493719387399016 -0.693817395785902 0 0 0 0
0 0 0 0 0 0 0 0 0 0 0 0 0 0 0 0 0 0 0 0 0 0 0 0 0 0 0.377383697258348 0.265357802591915 0.445365218968763 0.325490397953011 0.165365560501036 0 0 0 0 0 0 0 0 0 0 -0.250995666824444 0 0 0 0 0 0 0 0
0 1.41795782633768 0.374473798150332 0.458601896731093 0.137128481554785 0.109077839080613 0.299584285911338 0 0.23395021083183 0.295791251952531 0 0.0685421731832753 0 0 0 0 0 0 0 0 0 0 0 0 0 0 0 0 0 0 0 0 0 0 0 0 0 0 0 0 0 0 -0.250995666824444 0 -0.499116081258743 -1.07883463495512 0 0 0 0
0 0 0 0 0 0 0 0 0 0 0 0.548512891720905 0.0802508814333553 0 0.120974695362659 0 0 0.0486155436546507 0 0 0.38883258664328 0 0 0 0 0 0 0 0 0 0 0 0 0 0 0 0 0 0 0 0 0 0 -0.250995666824444 -1.48741503395595 0 0 -0.901377207788825 0 0
0 0 0 0 0 0 0 0 0 0 0 0 0 0 0 0 0 0 0 0 0 0 0 0 0 0 0 0 0 0.0547693080116914 0 0.158190416116072 0.332057544318566 0.126392526528258 0.255572144897102 0.78280617103244 0 0.105161266196802 0.294358633218026 0 0.0981757363577332 0 0.101841040216343 0.304703286716566 -0.250995666824444 0.415853995721613 0.0665510062145666 0 0 0
0 0 0 0 0 0 0 0 0 0 0 0 0 0 0 0 0 0 0 0 0 0 0 0 0 0 0 0 0 0 0 0 0 0 0.123365140778626 0.201165751788837 0.185750450751632 0.676674139227283 0.386932657254565 0.370106329970988 0.141437958759513 0 0.223076136997856 0 -2.17773322781197 -0.250995666824444 0 0 0 0
0 0 0 0 0 0 0 0 0 0 0 0 0 0 0 0 0.129009845504469 0.237241962925172 0.0783536355918416 0 0.0453499130657841 0.0933827111724684 0 0 0 0 0 0 0 0 0 0 0 0 0 0 0 0 0 0 0 0 0 0 -0.337399915528345 0 -0.250995666824444 -3.51590356646568 0 0
0 0 0 0 0 0 0 0 0 0 0 0 0 0 0 0 0 0 0 0 0 0 0 0 0 0 0 0 0 0 0 0 0 0 0 0 0 0 0 0 0 0 0 0.16659506002202 0 0 0.727767156675728 -0.250995666824444 0.152757900079041 0
0 0 0 0 0 0 0 0 0 0 0 0 0 0 0 0 0 0 0 0 0.229806990032789 0.169618244719193 0.197701254450706 0.0528914779611391 0 0 0 0 0 0 0 0 0 0 0 0 0 0 0 0 0 0 0 0 0 0 0 -0.770533231806091 -0.250995666824444 0
0 0 0 0 0 0 0 0 0 0 0 0 0 0 0 0 0 0 0 0 0 0 0 0.0904402987379581 0 0.601925876742283 0.0762482458292816 0 0.241722930807459 0 0 0 0 0 0 0 0 0 0 0 0 0 0 0 0 0 0 0 0 -0.250995666824444
