-0.478381972743099 0 0 0 0 -0.099432300195176 0 0 0 0 0 0 0 0 0 0 0 0 0 0 0 0 0 0 0 0 0 0 0 0 0 0 -2.66512128541294 0 0 0 0 0 0 0 0 0 0 0 0 0 0 0 0 0
0 -0.478381972743099 0 0 0 0 0 0 0 0 0 0 0 0 0 0 0 0 0 0 0 0 0 0 0 0 0 0 0 0 0 0 -0.952935866877992 0 0 0 0 0 0 0 0 0 0 0 0 0 0 0 0 0
0 0 -0.478381972743099 0 0 0 0 0 0 0 0 0 0 0 0 0 0 0 0 0 0 0 0 0 0 0 0 0 0 0 0 0 -0.766097352577229 0 0 0 0 0 0 0 0 0 0 0 0 0 0 0 0 0
0 0 0 -0.478381972743099 0 0 0 0 0 0 0 0 0 0 0 0 0 -1.49746787720679 0 0 0 0 0 0 0 0 0 0 0 0 0 0 -2.8964566364558 0 0 0 0 0 0 0 0 0 0 0 0 0 0 0 0 0
0 0 0 0 -0.478381972743099 0 0 0 0 0 0 0 0 0 0 0 0 -2.23347878635454 0 0 0 0 0 0 0 0 0 0 0 0 0 0 0 0 0 0 0 0 0 -3.45204594714996 0 0 0 0 0 0 0 0 0 0
0.0187845665481295 0 0 0 0 -0.478381972743099 0 0 0 0 0 0 0 0 0 0 0 -0.436641379183167 0 0 0 0 0 0 0 0 0 0 0 0 0 0 -0.896821727180704 0 0 0 0 0 0 -1.798258873788 0 0 0 0 0 0 0 0 0 0
0 0 0 0 0 0 -0.478381972743099 0 0 0 0 0 0 0 0 0 0 -2.24126724634879 0 0 0 0 0 0 0 0 0 0 0 0 0 0 -0.705971522916129 0 0 0 0 0 0 0 0 0 0 0 0 0 0 0 0 0
0 0 0 0 0 0 0 -0.478381972743099 0 0 0 0 0 0 -0.997793827936638 0 0 0 0 0 0 0 0 0 0 0 0 0 0 0 0 0 -3.72593326789732 0 0 0 0 0 0 0 0 0 0 0 0 0 0 0 0 0
0 0 0 0 0 0 0 0 -0.478381972743099 0 0 0 0 0 -2.50873623916632 0 0 0 0 0 0 0 0 0 0 0 0 0 0 0 0 0 0 0 0 0 0 0 0 0 0 0 0 0 0 0 0 0 0 0
0 0 0 0 0 0 0 0 0 -0.478381972743099 0 0 -1.89454391026814 0 0 -1.25770909936538 0 0 0 0 0 0 0 0 0 0 0 0 0 0 0 0 -0.666808781282069 0 0 0 0 0 0 0 0 0 0 0 0 0 0 0 0 0
0 0 0 0 0 0 0 0 0 0 -0.478381972743099 0 0 0 0 0 0 0 0 -1.84057285017798 0 0 0 0 0 0 0 0 0 0 -6.03403403287467 0 0 0 0 0 0 0 0 0 0 0 0 0 0 0 0 0 0 0
0 0 0 0 0 0 0 0 0 0 0 -0.478381972743099 0 0 0 0 0 0 0 -2.39878691970991 0 -4.63332384357195 0 0 0 -0.516878889382022 0 0 0 0 -5.79138607584683 0 0 0 0 0 0 0 0 0 0 0 0 0 0 0 0 0 0 0
0 0 0 0 0 0 0 0 0 0.356987347588566 0 0 -0.478381972743099 0 0 0 -1.55321265247558 0 0 0 0 0 0 0 0 -0.214757627553648 0 0 0 0 0 0 0 -2.74632000789144 0 0 0 0 0 0 0 0 0 0 0 0 0 0 0 0
0 0 0 0 0 0 0 0 0 0 0 0 0 -0.478381972743099 0 0 0 0 0 0 0 -1.92446689977462 0 0 0 -0.586996484791427 0 0 0 0 -1.15523930301592 0 0 -2.07301820205638 0 0 0 0 0 0 0 0 0 0 0 0 0 0 0 0
0 0 0 0 0 0 0 0.182048565657418 0.506149025293145 0 0 0 0 0 -0.478381972743099 0 0 0 0 0 0 0 0 0 0 -1.49130210771703 0 0 0 0 -1.75293732207767 0 0 -1.16241029030805 0 0 0 0 0 0 0 0 0 0 0 0 0 0 0 0
0 0 0 0 0 0 0 0 0 0.259662080860455 0 0 0 0 0 -0.478381972743099 0 0 0 0 0 -1.55067593716598 0 0 0 0 0 0 0 0 -1.33251998612082 0 0 -3.38867372135077 0 0 0 0 0 0 0 0 0 0 0 0 0 0 0 0
0 0 0 0 0 0 0 0 0 0 0 0 0.30394562877916 0 0 0 -0.478381972743099 0 0 0 0 -0.184344069915032 0 0 0 0 0 0 0 0 -1.25323290698248 -1.82956528653653 0 -0.831362107493078 0 -0.581285334119095 0 -1.29657675038363 0 0 0 0 0 0 0 0 0 0 -0.976268761977972 0
0 0 0 0.29395028269196 0.48721853129549 0.0899906774575071 0.435298132755444 0 0 0 0 0 0 0 0 0 0 -0.478381972743099 0 0 0 -1.6323428709696 0 0 0 0 0 0 0 0 0 -1.8383160759922 0 -1.07432828601398 0 0 0 -4.81416254164084 0 0 0 0 0 0 0 0 0 0 -0.687809230726338 0
0 0 0 0 0 0 0 0 0 0 0 0 0 0 0 0 0 0 -0.478381972743099 0 0 0 0 0 0 0 0 0 0 0 0 -0.846547695838491 0 0 0 0 0 0 0 0 0 0 0 0 0 0 0 0 0 0
0 0 0 0 0 0 0 0 0 0 0.395216082038707 0.463502888035173 0 0 0 0 0 0 0 -0.478381972743099 0 0 0 0 0 0 -0.939150277258248 0 0 0 0 0 0 -1.96389862111039 0 -1.06733943286737 0 0 0 0 0 0 0 0 0 0 0 0 -0.719959069627989 0
0 0 0 0 0 0 0 0 0 0 0 0 0 0 0 0 0 0 0 0 -0.478381972743099 0 0 0 -0.582551766793151 0 0 0 0 0 0 -0.668847051173263 0 0 0 -0.946424420823915 0 0 0 0 0 0 0 0 -0.130213696051905 0 0 0 -1.30356986394544 0
0 0 0 0 0 0 0 0 0 0 0 0.939889477757588 0 0.384097474847419 0 0.315825122842976 0.0362057769096473 0.333407616365227 0 0 0 -0.478381972743099 0 0 -0.678435814837336 0 -2.34499394019315 0 0 0 0 -7.19536150121341 0 0 0 0 0 0 0 0 0 0 0 0 0 0 0 -1.20028710146763 -0.684128271658856 0
0 0 0 0 0 0 0 0 0 0 0 0 0 0 0 0 0 0 0 0 0 0 -0.478381972743099 0 -1.37780630061036 0 0 0 0 -1.78781870075359 0 0 0 0 0 -1.1956394318188 0 0 0 0 0 0 0 0 0 0 0 -1.48630157618728 0 0
0 0 0 0 0 0 0 0 0 0 0 0 0 0 0 0 0 0 0 0 0 0 0 -0.478381972743099 -0.91163932686102 0 0 0 0 -0.423170240265822 0 0 0 0 0 -3.275086369305 -3.36812837600969 0 0 0 0 0 0 0 0 0 0 -0.856804293628243 0 0
0 0 0 0 0 0 0 0 0 0 0 0 0 0 0 0 0 0 0 0 0.114739217123499 0.14233486537453 0.277767621829046 0.165354104211934 -0.478381972743099 0 0 0 -0.66121581066862 0 0 0 0 0 0 0 -1.08390260929028 0 0 0 0 0 0 0 0 0 0 -0.622101830272653 0 0
0 0 0 0 0 0 0 0 0 0 0 0.0970966330018576 0.0403501804736868 0.111697270339522 0.283064421834494 0 0 0 0 0 0 0 0 0 0 -0.478381972743099 0 0 -0.197862365206982 -1.62298308079567 0 0 0 0 0 -0.41041501017216 0 0 0 0 -1.73840022584826 0 -7.59285551173125 0 0 0 0 -3.30654365908907 0 0
0 0 0 0 0 0 0 0 0 0 0 0 0 0 0 0 0 0 0 0.176144938692903 0 0.445031183993692 0 0 0 0 -0.478381972743099 0 -0.593697500864097 -2.68112722615359 0 0 0 0 0 -1.9822433702505 0 0 0 0 -0.30616860258694 0 -1.9591378986689 0 0 0 0 -3.8762301044476 0 0
0 0 0 0 0 0 0 0 0 0 0 0 0 0 0 0 0 0 0 0 0 0 0 0 0 0 0 -0.478381972743099 -0.43400181057278 -0.468788330120223 0 0 0 0 0 -0.466883179694284 0 0 0 0 -0.392475301332635 0 -0.322390645668496 0 0 0 0 -1.35679885577332 0 0
0 0 0 0 0 0 0 0 0 0 0 0 0 0 0 0 0 0 0 0 0 0 0 0 0.118692041679131 0.039608863529741 0.119072421868604 0.0833896781472055 -0.478381972743099 0 0.122016924918771 0.1928382475429 0 0 0 -0.604103554684625 0 0 0 0 -5.10557634412482 0 0 0 0 0 0 -0.533747036344063 0 0
0 0 0 0 0 0 0 0 0 0 0 0 0 0 0 0 0 0 0 0 0 0 0.339408671001893 0.0905075055588164 0 0.320562219065193 0.528619580033639 0.0969631425606361 0 -0.478381972743099 0 0 0 0 0 -0.997944122244388 0 0 0 0 -0.996325985248453 0 -3.06542576097651 0 0 0 0 -1.25222129765446 0 0
0 0 0 0 0 0 0 0 0 0 1.22200584630262 1.2172352021064 0 0.21666819826902 0.353567049398593 0.247683124757636 0.255411174338125 0 0 0 0 0 0 0 0 0 0 0 -0.579629201098624 0 -0.478381972743099 0 0 0 -1.90172166640548 0 0 0 0 0 -0.0584566116651993 0 -1.45563346698758 0 0 0 0 -0.981640293315273 0 0
0 0 0 0 0 0 0 0 0 0 0 0 0 0 0 0 0.36451521525327 0.379044872156305 0.156703911773836 0 0.144151060233971 1.44366296063734 0 0 0 0 0 0 -0.904211215766228 0 0 -0.478381972743099 0 0 -1.88546941903643 0 0 0 0 0 -1.12553139732994 0 0 0 0 0 0 -1.04619993720432 0 0
0.546644459910536 0.202145948273497 0.152678925938154 0.559549721077217 0 0.178785238127145 0.139481759284916 0.74283602219583 0 0.143959304688913 0 0 0 0 0 0 0 0 0 0 0 0 0 0 0 0 0 0 0 0 0 0 -0.478381972743099 0 0 0 0 0 0 0 0 0 0 -2.0212342042095 0 0 0 0 0 -0.324063657620414
0 0 0 0 0 0 0 0 0 0 0 0 0.537056483553117 0.405880570171655 0.243068272836308 0.661175659008442 0.1587024296665 0.22929978951275 0 0.387709656173029 0 0 0 0 0 0 0 0 0 0 0 0 0 -0.478381972743099 0 0 0 0 0 0 0 0 0 -8.08241988344572 0 -1.4479551091166 0 -0.96159874969018 0 0
0 0 0 0 0 0 0 0 0 0 0 0 0 0 0 0 0 0 0 0 0 0 0 0 0 0 0 0 0 0 0.39921860777917 0.396618144635209 0 0 -0.478381972743099 0 0 0 0 0 0 0 0 0 0 0 0 -1.42796250367518 0 -0.205790186758014
0 0 0 0 0 0 0 0 0 0 0 0 0 0 0 0 0.111819072836105 0 0 0.206857811891039 0.192635505739969 0 0.235100554188171 0.648082424396925 0 0.0836888330023734 0.413626927848644 0.0918139110717527 0.121310227718636 0.211580256026936 0 0 0 0 0 -0.478381972743099 0 0 0 0 0 0 0 0 0 0 0 0 0 -0.699979983874815
0 0 0 0 0 0 0 0 0 0 0 0 0 0 0 0 0 0 0 0 0 0 0 0.686398574280273 0.220340418532959 0 0 0 0 0 0 0 0 0 0 0 -0.478381972743099 0 0 0 0 0 0 0 0 0 0 -1.68789303240189 0 -0.162188070762153
0 0 0 0 0 0 0 0 0 0 0 0 0 0 0 0 0.268925762076811 0.936884761654469 0 0 0 0 0 0 0 0 0 0 0 0 0 0 0 0 0 0 0 -0.478381972743099 0 0 0 0 0 0 0 0 0 -0.693965259239295 0 -5.29585799836904
0 0 0 0 0 0 0 0 0 0 0 0 0 0 0 0 0 0 0 0 0 0 0 0 0 0 0 0 0 0 0 0 0 0 0 0 0 0 -0.478381972743099 0 0 0 0 0 0 0 0 -0.479830297499503 0 -0.215479706846195
0 0 0 0 0.68216546278088 0.378046902006493 0 0 0 0 0 0 0 0 0 0 0 0 0 0 0 0 0 0 0 0 0 0 0 0 0 0 0 0 0 0 0 0 0 -0.478381972743099 0 0 0 0 0 0 0 0 0 -2.08980380278508
0 0 0 0 0 0 0 0 0 0 0 0 0 0 0 0 0 0 0 0 0 0 0 0 0 0.338823940535401 0.061896060247004 0.0787486923425544 0.996507988644746 0.210902535375253 0.0121068275820044 0.20809766534268 0 0 0 0 0 0 0 0 -0.478381972743099 0 0 0 0 0 0 0 0 0
0 0 0 0 0 0 0 0 0 0 0 0 0 0 0 0 0 0 0 0 0 0 0 0 0 0 0 0 0 0 0 0 0 0 0 0 0 0 0 0 0 -0.478381972743099 0 0 0 0 0 0 0 -0.537501258941123
0 0 0 0 0 0 0 0 0 0 0 0 0 0 0 0 0 0 0 0 0 0 0 0 0 1.49248359170546 0.382980357052275 0.064836077900337 0 0.60975452569194 0.274480434143027 0 0 0 0 0 0 0 0 0 0 0 -0.478381972743099 0 0 0 0 0 0 0
0 0 0 0 0 0 0 0 0 0 0 0 0 0 0 0 0 0 0 0 0 0 0 0 0 0 0 0 0 0 0 0 0.423480988105469 1.48599679547773 0 0 0 0 0 0 0 0 0 -0.478381972743099 0 0 0 0 0 0
0 0 0 0 0 0 0 0 0 0 0 0 0 0 0 0 0 0 0 0 0.0259961426331242 0 0 0 0 0 0 0 0 0 0 0 0 0 0 0 0 0 0 0 0 0 0 0 -0.478381972743099 0 -1.04725098386789 0 0 0
0 0 0 0 0 0 0 0 0 0 0 0 0 0 0 0 0 0 0 0 0 0 0 0 0 0 0 0 0 0 0 0 0 0.291356725976373 0 0 0 0 0 0 0 0 0 0 0 -0.478381972743099 0 0 0 0
0 0 0 0 0 0 0 0 0 0 0 0 0 0 0 0 0 0 0 0 0 0 0 0 0 0 0 0 0 0 0 0 0 0 0 0 0 0 0 0 0 0 0 0 0.214287239710151 0 -0.478381972743099 0 0 0
0 0 0 0 0 0 0 0 0 0 0 0 0 0 0 0 0 0 0 0 0 0.251623560205965 0.319363864853288 0.174249404047267 0.122060124615329 0.648536950073024 0.774600947273654 0.296421824660739 0.109070609224029 0.252372936561511 0.203698107721889 0.206624565569832 0 0.192659322598248 0.257447142224077 0 0.330857685023952 0.144205019461229 0.0883652121811703 0 0 0 0 0 0 0 0 -0.478381972743099 0 0
0 0 0 0 0 0 0 0 0 0 0 0 0 0 0 0 0.197730481080791 0.134631516599068 0 0.139659979559384 0.244620840494742 0.12597576509962 0 0 0 0 0 0 0 0 0 0 0 0 0 0 0 0 0 0 0 0 0 0 0 0 0 0 -0.478381972743099 0
0 0 0 0 0 0 0 0 0 0 0 0 0 0 0 0 0 0 0 0 0 0 0 0 0 0 0 0 0 0 0 0 0.0608616000489501 0 0.0421684024958663 0.159019965625149 0.0341466325511582 1.08999860980914 0.0433164136526998 0.407641839268888 0 0.102992187858652 0 0 0 0 0 0 0 -0.478381972743099
