-0.253591306263776 -1.96206146972647 0 -0.660180982738835 0 0 0 0 0 0 0 0 0 0 0 0 0 0 0 0 0 0 0 0 0 0 0 0 0 0 0 0 0 0 0 0 0 0 0 0 0 0 0 0 0 0 0 0 0 0
0.42085489324531 -0.253591306263776 0 0 0 0 0 0 0 0 0 0 0 0 0 0 0 0 0 -0.664627891878314 0 0 0 0 0 0 0 0 0 0 0 0 0 0 0 0 0 0 0 0 0 0 0 0 0 0 0 0 0 0
0 0 -0.253591306263776 0 0 0 0 0 -0.440521317479762 0 0 0 0 0 0 0 0 0 0 -0.424086353093972 0 0 0 0 0 0 0 0 0 0 0 0 0 0 0 0 0 0 0 0 0 0 0 0 0 0 0 0 0 0
0.125935552449434 0 0 -0.253591306263776 0 0 0 0 -0.289465063955546 0 0 0 0 0 0 0 0 0 0 -1.03706664407424 0 0 0 0 0 0 0 0 0 0 0 0 0 0 0 0 0 0 0 0 0 0 0 0 0 0 0 0 0 0
0 0 0 0 -0.253591306263776 0 0 0 0 0 0 0 0 0 0 0 0 0 0 -1.05695136306732 0 0 0 0 0 0 0 0 0 0 0 0 0 0 0 0 0 0 0 0 0 0 0 -1.43802356915098 0 0 0 0 0 0
0 0 0 0 0 -0.253591306263776 0 0 0 0 0 0 0 0 0 0 0 0 0 -1.15432798696515 0 0 0 0 0 0 0 0 0 0 0 0 0 0 0 0 0 0 0 0 0 0 0 0 0 0 0 0 0 0
0 0 0 0 0 0 -0.253591306263776 0 0 -1.36592920569137 0 0 0 0 -0.69287135222481 0 0 0 0 0 0 0 0 0 0 0 0 0 0 0 0 0 0 0 0 0 0 0 0 0 0 0 0 0 0 0 0 0 0 0
0 0 0 0 0 0 0 -0.253591306263776 0 0 0 0 0 0 -2.41737478918267 0 0 0 0 0 0 0 0 0 0 0 0 0 0 0 0 -4.42290142122118 0 0 0 0 0 0 0 0 0 0 0 0 0 0 0 0 0 0
0 0 0.0874004469371937 0.0555936079419958 0 0 0 0 -0.253591306263776 0 0 0 0 0 0 0 0 0 0 0 0 0 0 0 0 0 0 0 0 0 0 -0.429967288087796 0 0 0 0 0 0 0 0 0 0 0 0 0 -0.385713778537917 0 0 0 -0.393905041846029
0 0 0 0 0 0 0.269870599795294 0 0 -0.253591306263776 0 -0.88033934918859 0 0 0 0 0 0 0 0 0 0 0 0 0 0 0 0 0 0 0 -1.65773457772854 0 0 0 0 0 0 0 0 0 0 0 0 0 -2.25259090472255 0 0 0 -0.684563715241031
0 0 0 0 0 0 0 0 0 0 -0.253591306263776 0 0 0 0 0 0 0 0 0 0 0 -6.97008340149902 0 0 0 0 0 0 0 0 0 0 0 0 0 0 0 0 0 0 0 0 0 0 -3.58299691054339 0 0 0 -0.184845991630072
0 0 0 0 0 0 0 0 0 0.189289874755963 0 -0.253591306263776 0 -0.617528773468936 0 -0.448723026460209 0 0 0 0 0 -0.794200816021717 0 0 -0.574062473979657 0 0 0 0 0 0 0 0 0 0 0 0 0 0 0 0 0 0 0 0 0 0 0 0 0
0 0 0 0 0 0 0 0 0 0 0 0 -0.253591306263776 0 0 0 0 0 0 0 0 -1.21370532786761 0 0 -9.50936836161233 0 0 0 0 0 0 0 0 0 0 0 0 0 0 0 0 0 0 0 0 0 0 0 0 0
0 0 0 0 0 0 0 0 0 0 0 0.136066234959738 0 -0.253591306263776 0 0 0 0 0 0 0 -0.328144777927545 0 0 -2.80090543683235 0 0 0 0 0 0 0 0 0 0 0 0 0 0 0 0 0 0 0 0 0 0 0 0 0
0 0 0 0 0 0 0.13766319289687 0.471522046986124 0 0 0 0 0 0 -0.253591306263776 0 0 -0.237669609106101 -3.43556453594135 0 0 0 0 0 0 0 0 0 0 0 0 0 0 0 0 0 0 0 0 0 0 0 0 0 0 0 0 0 0 0
0 0 0 0 0 0 0 0 0 0 0 0.0891695775140889 0 0 0 -0.253591306263776 0 0 0 0 0 0 0 0 0 0 0 0 -1.27794039757448 0 0 0 0 0 -1.05553517811062 0 0 0 -8.37799120048148 0 0 0 0 0 0 0 0 0 -0.899261719710149 0
0 0 0 0 0 0 0 0 0 0 0 0 0 0 0 0 -0.253591306263776 -0.723187915647021 0 0 0 0 0 0 0 0 -0.7433052643055 0 -0.408746245041488 0 0 0 0 0 -2.26285709025188 0 0 0 -0.386200569719112 0 0 0 0 0 0 0 0 0 -0.696478372864068 0
0 0 0 0 0 0 0 0 0 0 0 0 0 0 0.047153612018329 0 0.145699601524226 -0.253591306263776 0.0882753959290325 0 -1.73194363110881 0 0 0 0 0 -1.51341626031959 0 0 0 0 0 0 0 0 0 0 0 -2.17765824721783 0 0 0 0 0 -2.03109127432811 0 0 0 -0.744622563731741 0
0 0 0 0 0 0 0 0 0 0 0 0 0 0 0.698177185572975 0 0 -0.445499152718102 -0.253591306263776 0 0 0 0 0 0 0 -1.05637863374098 0 0 0 0 0 0 0 0 0 0 -1.07867486993633 -3.00989034494111 0 0 0 0 0 0 0 0 0 -4.49768625866083 0
0 0.134814150115359 0.0818719686403493 0.203798357812661 0.213128560143996 0.223353302359113 0 0 0 0 0 0 0 0 0 0 0 0 0 -0.253591306263776 0 0 0 0 0 0 -4.11110384048773 0 0 0 0 0 0 0 0 0 0 -0.252726091399538 0 0 0 0 0 0 0 0 0 0 -1.37214621118579 0
0 0 0 0 0 0 0 0 0 0 0 0 0 0 0 0 0 0.373081300139068 0 0 -0.253591306263776 0 0 -1.33146445006656 0 0 0 0 0 0 -0.757827821040736 0 0 0 0 0 0 -0.508523944593232 0 0 0 0 0 0 -1.46259255615517 0 0 0 -5.78988504053929 0
0 0 0 0 0 0 0 0 0 0 0 0.159429776718023 0.229379150512662 0.0629856463137846 0 0 0 0 0 0 0 -0.253591306263776 0 -0.996078618273005 0 0 -0.988973484044986 0 0 0 0 0 0 0 0 0 0 0 -0.299692720060991 0 0 0 0 0 0 0 0 0 0 0
0 0 0 0 0 0 0 0 0 0 1.34709285440291 0 0 0 0 0 0 0 0 0 0 0 -0.253591306263776 -0.705671441114714 0 0 0 0 0 0 -1.55273847166064 0 0 -4.39796702854297 0 0 -0.403550065995936 0 -4.0188909874357 0 0 0 0 0 0 0 0 0 -0.392066813221041 0
0 0 0 0 0 0 0 0 0 0 0 0 0 0 0 0 0 0 0 0 0.254060512871654 0.199954691258869 0.154516495338015 -0.253591306263776 0 0 0 0 0 0 -1.95398684332822 0 0 -1.77889560576721 0 0 -3.5720314816528 -1.15028646048495 -2.74950558715111 0 0 0 -2.58444844247649 0 0 0 0 0 -0.304164060638376 0
0 0 0 0 0 0 0 0 0 0 0 0.108279890824491 1.98119924370846 0.55423547790297 0 0 0 0 0 0 0 0 0 0 -0.253591306263776 0 0 0 0 0 -1.37943900545497 0 0 -1.51887038212081 0 0 -0.210975105768059 -0.161120468290212 0 0 0 0 -0.392242447807354 0 0 0 0 0 -1.41223987378479 0
0 0 0 0 0 0 0 0 0 0 0 0 0 0 0 0 0 0 0 0 0 0 0 0 0 -0.253591306263776 0 0 0 0 -1.49731258861168 0 0 -0.810240117195947 0 0 -0.950615536840176 -1.28405350377912 0 0 0 0 -0.67925781994823 0 0 0 0 0 0 0
0 0 0 0 0 0 0 0 0 0 0 0 0 0 0 0 0.152482125514068 0.281735911020808 0.219177450229793 0.812468691165372 0 0.182413324217073 0 0 0 0 -0.253591306263776 0 0 0 0 0 0 -2.29699617389842 0 0 -0.813407258606218 -1.32145825080229 0 0 0 0 0 0 0 0 0 0 -9.00857780392316 0
0 0 0 0 0 0 0 0 0 0 0 0 0 0 0 0 0 0 0 0 0 0 0 0 0 0 0 -0.253591306263776 0 0 0 0 0 -1.46321917381831 0 0 0 0 0 0 -3.76059995149419 0 -0.139371733061538 0 0 0 0 0 -5.76938416855767 0
0 0 0 0 0 0 0 0 0 0 0 0 0 0 0 0.249297060036023 0.0858455303795715 0 0 0 0 0 0 0 0 0 0 0 -0.253591306263776 0 0 0 0 -2.10704319873514 0 0 0 -2.35931098946583 0 0 0 0 -2.25454854865523 0 0 0 0 0 0 0
0 0 0 0 0 0 0 0 0 0 0 0 0 0 0 0 0 0 0 0 0 0 0 0 0 0 0 0 0 -0.253591306263776 0 0 0 0 0 0 0 -4.2230147866684 0 0 0 0 0 0 0 0 0 0 -0.437520260556239 0
0 0 0 0 0 0 0 0 0 0 0 0 0 0 0 0 0 0 0 0 0.152809690639392 0 0.312430311887546 0.356280783380107 0.285708016184663 0.285755742274589 0 0 0 0 -0.253591306263776 0 0 0 0 0 0 0 0 0 -4.26500365163304 0 0 0 0 0 0 0 0 0
0 0 0 0 0 0 0 0.945284650396374 0.0857685197858312 0.310405859449671 0 0 0 0 0 0 0 0 0 0 0 0 0 0 0 0 0 0 0 0 0 -0.253591306263776 0 0 0 0 0 0 0 0 0 -1.98679931638783 0 0 0 0 0 0 0 0
0 0 0 0 0 0 0 0 0 0 0 0 0 0 0 0 0 0 0 0 0 0 0 0 0 0 0 0 0 0 0 0 -0.253591306263776 0 0 0 0 0 0 0 0 -0.98294392108616 0 0 0 0 0 0 0 0
0 0 0 0 0 0 0 0 0 0 0 0 0 0 0 0 0 0 0 0 0 0 0.815264477366694 0.344078785713304 0.284945940729275 0.166981065622229 0.451762588383833 0.27589886224137 0.440588772399101 0 0 0 0 -0.253591306263776 0 0 0 0 0 0 0 -3.805344531026 0 0 0 0 0 0 0 0
0 0 0 0 0 0 0 0 0 0 0 0 0 0 0 0.203269976256678 0.477328744958675 0 0 0 0 0 0 0 0 0 0 0 0 0 0 0 0 0 -0.253591306263776 0 0 0 0 0 0 -0.304519990400015 0 0 0 0 0 0 0 0
0 0 0 0 0 0 0 0 0 0 0 0 0 0 0 0 0 0 0 0 0 0 0 0 0 0 0 0 0 0 0 0 0 0 0 -0.253591306263776 0 0 0 0 0 -6.98568205450086 0 0 0 0 0 -0.330560762479781 0 0
0 0 0 0 0 0 0 0 0 0 0 0 0 0 0 0 0 0 0 0 0 0 0.0822606434690815 0.710119212624012 0.044721004346886 0.193397409962454 0.159152354593541 0 0 0 0 0 0 0 0 0 -0.253591306263776 0 0 0 0 -2.96032308784676 0 0 0 0 0 -2.51210876302492 0 0
0 0 0 0 0 0 0 0 0 0 0 0 0 0 0 0 0 0 0.211306948995497 0.0545185072590275 0.0876449632696527 0 0 0.220239581674794 0.031212308249696 0.26905165713563 0.260016516545776 0 0.467340936777868 0.788004289383158 0 0 0 0 0 0 0 -0.253591306263776 0 0 0 -1.15717544922998 0 0 0 0 0 0 0 0
0 0 0 0 0 0 0 0 0 0 0 0 0 0 0 1.61735100477238 0.0730858135937885 0.434014749155778 0.604608530639919 0 0 0.057237238998312 0.763265790376543 0.54453029146886 0 0 0 0 0 0 0 0 0 0 0 0 0 0 -0.253591306263776 0 0 0 0 0 0 0 0 -5.94157082992293 0 0
0 0 0 0 0 0 0 0 0 0 0 0 0 0 0 0 0 0 0 0 0 0 0 0 0 0 0 0 0 0 0 0 0 0 0 0 0 0 0 -0.253591306263776 0 0 0 0 0 0 0 -0.773221463151257 0 0
0 0 0 0 0 0 0 0 0 0 0 0 0 0 0 0 0 0 0 0 0 0 0 0 0 0 0 0.674573908114605 0 0 0.897348301125929 0 0 0 0 0 0 0 0 0 -0.253591306263776 0 0 0 0 0 0 -0.732108470835138 0 0
0 0 0 0 0 0 0 0 0 0 0 0 0 0 0 0 0 0 0 0 0 0 0 0 0 0 0 0 0 0 0 0.410881063771796 0.190649266533548 0.783184875675547 0.0598666425789726 1.48529986114839 0.578754735609219 0.23621599575651 0 0 0 -0.253591306263776 0 0 0 0 -0.540827099560301 0 0 0
0 0 0 0 0 0 0 0 0 0 0 0 0 0 0 0 0 0 0 0 0 0 0 0.521342341844611 0.0728025559333168 0.139224125175268 0 0.0282912451688368 0.45376914659722 0 0 0 0 0 0 0 0 0 0 0 0 0 -0.253591306263776 0 0 0 -0.331723509195712 -1.94618530332344 0 0
0 0 0 0 0.308534346475874 0 0 0 0 0 0 0 0 0 0 0 0 0 0 0 0 0 0 0 0 0 0 0 0 0 0 0 0 0 0 0 0 0 0 0 0 0 0 -0.253591306263776 0 0 -0.581163790257049 -0.370578213143404 0 0
0 0 0 0 0 0 0 0 0 0 0 0 0 0 0 0 0 0.405970129416642 0 0 0.31745087860464 0 0 0 0 0 0 0 0 0 0 0 0 0 0 0 0 0 0 0 0 0 0 0 -0.253591306263776 0 0 0 0 0
0 0 0 0 0 0 0 0 0.0776981830276829 0.468346788746066 0.716049254698621 0 0 0 0 0 0 0 0 0 0 0 0 0 0 0 0 0 0 0 0 0 0 0 0 0 0 0 0 0 0 0 0 0 0 -0.253591306263776 0 0 0 0
0 0 0 0 0 0 0 0 0 0 0 0 0 0 0 0 0 0 0 0 0 0 0 0 0 0 0 0 0 0 0 0 0 0 0 0 0 0 0 0 0 0.100213682677663 0.0629685252120113 0.127700277243324 0 0 -0.253591306263776 0 0 0
0 0 0 0 0 0 0 0 0 0 0 0 0 0 0 0 0 0 0 0 0 0 0 0 0 0 0 0 0 0 0 0 0 0 0 0.0670040680794802 0.53049418938319 0 1.21020545279437 0.15083354292684 0.154405018166684 0 0.39000073234959 0.0702426723354438 0 0 0 -0.253591306263776 0 0
0 0 0 0 0 0 0 0 0 0 0 0 0 0 0 0.177893987066931 0.142800671741568 0.150760242333129 0.922911246490678 0.270655117035546 1.11417498900053 0 0.0878998636955983 0.0600207485796827 0.280835878232357 0 1.82964692149974 1.07843437941125 0 0.0875930948333541 0 0 0 0 0 0 0 0 0 0 0 0 0 0 0 0 0 0 -0.253591306263776 0
0 0 0 0 0 0 0 0 0.0696696312005213 0.130491028222918 0.0352820721943149 0 0 0 0 0 0 0 0 0 0 0 0 0 0 0 0 0 0 0 0 0 0 0 0 0 0 0 0 0 0 0 0 0 0 0 0 0 0 -0.253591306263776
