1.07941360783974
0.359185168706475
1.18224022684958
2.57353555926853
2.09529099882733
1.43925491709348
1.65833968634047
0.994411058314784
1.01297128432541
0.144882383414873
0.601756677819913
0.16910668138888
1.21730760348193
5.39109439893302
0.304645862726383
1.19511759768969
2.3474613626356
0.147364654025102
0.478171725662695
4.06358644637494
0.570680789131474
1.00111708921571
0.854482689902327
2.29205626497613
0.534135294456296
1.38996950320132
8.48172757659234
3.02820320428576
1.14727021904687
0.37656482740662
2.27985392130754
1.34259803642311
0.390604239332941
0.475759965376993
2.13374622557247
7.06008786419315
3.09373647679908
1.40358691304684
0.88930959289594
0.369884615839949
0.192332743640282
0.154087620546254
1.28721967997883
0.30548342362671
1.25014675524839
5.69369252778887
2.54479651515589
0.535305259598079
0.359368430939188
0.739928990583071
