3.61818892176985
5.43245648937175
1.0279143587859
0.779662409061193
1.3345966453652
4.19625107001406
1.96200878188049
0.314254303063453
0.920955729525932
2.75796285958638
0.749683790666567
0.132135256542638
1.71410822999505
0.156733769081285
1.30590394392909
0.677726078277241
0.430977018806235
0.141969145043686
0.975661870404068
0.79574360454374
0.0601123360793826
0.397596478526059
2.98375759349641
1.79560729531498
0.75314795391317
0.680252590631549
1.0681492511359
0.363338328948563
2.2872091808295
0.911104514337649
0.601580091394475
0.664311634605889
4.07713322122297
2.14211538337449
8.68877963187168
0.59640845833904
0.970398065145734
0.786487645509347
0.659898620105095
2.27476932131698
0.286888314059252
2.57441841236445
0.598415965674496
0.451811284984288
3.2679982348742
2.7985219786575
1.01227747004217
0.730426960154377
0.374134131722512
0.431139832995009
