-0.042315195955926 0 0 0 0 0 -1.05606458623328 0 -0.489077494701559 0 -0.375594708785851 0 0 0 0 0 0 0 0 0 0 0 0 0 0 0 -1.99284976021938 0 0 0 0 0 0 0 0 0 0 0 0 -7.96655537594678 0 0 0 0 0 0 0 0 0 0
0 -0.042315195955926 0 0 0 0 -3.45075490697296 0 -0.900181990232276 0 0 0 0 0 0 0 0 0 0 0 0 0 0 0 0 0 0 0 0 0 0 0 0 0 0 0 0 0 0 -0.320021974361814 0 0 0 0 0 0 0 0 0 0
0 0 -0.042315195955926 0 0 0 -0.197789407426335 0 -0.232944124107238 0 -1.95082684332535 0 0 0 0 0 0 0 0 0 0 0 0 0 0 0 0 0 0 0 0 0 0 0 0 0 0 0 0 -3.8266592953996 0 0 0 0 0 0 0 0 0 0
0 0 0 -0.042315195955926 0 0 0 0 0 0 0 0 0 0 0 0 0 0 0 0 0 0 0 0 0 0 -0.495540106899406 0 0 0 0 0 0 0 0 0 0 0 0 -0.717895487710347 0 0 0 0 0 0 0 0 0 0
0 0 0 0 -0.042315195955926 0 0 0 0 0 0 0 0 0 0 0 0 0 0 0 0 0 0 0 0 0 0 0 0 0 0 0 0 0 0 0 0 0 0 -0.708619900056865 0 0 0 0 0 0 0 0 0 0
0 0 0 0 0 -0.042315195955926 0 0 0 0 0 0 0 0 0 0 -0.394047608624726 0 0 0 0 0 0 0 0 0 0 -0.967914423245502 0 0 0 0 0 0 0 0 0 0 0 -1.71754569718946 0 0 0 0 0 0 0 0 0 0
0.198948076933608 0.697063302104538 0.0407235691525962 0 0 0 -0.042315195955926 0 0 0 0 0 0 0 0 0 0 0 0 0 0 0 0 0 0 0 0 -3.8887694027355 0 0 0 0 0 0 0 0 0 0 0 -1.35310749789939 0 0 0 0 0 0 0 0 0 0
0 0 0 0 0 0 0 -0.042315195955926 0 0 0 -0.944936512335448 0 0 0 0 0 0 0 0 0 0 0 0 0 0 0 -0.287579305697665 0 0 0 0 0 0 0 0 0 0 0 -0.538175537930527 0 0 0 0 0 0 0 0 0 0
0.0947547353041171 0.174342960334064 0.0461129904268949 0 0 0 0 0 -0.042315195955926 -0.640529769207257 0 -0.443730763547346 0 0 0 0 0 0 0 0 0 0 0 0 0 0 0 0 0 0 0 0 0 0 0 0 0 0 0 0 0 0 -0.219275199163938 0 0 0 0 0 0 0
0 0 0 0 0 0 0 0 0.130035246956821 -0.042315195955926 0 0 0 0 0 0 0 0 0 0 0 0 -0.330368712423013 0 0 0 0 -0.382683255120466 0 0 0 0 0 0 0 0 0 0 0 0 0 -1.34779171141935 0 0 0 0 0 0 0 0
0.0774151992046609 0 0.409989476894581 0 0 0 0 0 0 0 -0.042315195955926 0 0 0 0 0 0 0 0 0 0 0 -0.484620362047986 0 0 0 0 0 0 0 -0.7212403795622 0 0 0 0 0 0 0 0 0 0 -1.90143163446435 0 0 0 0 0 0 0 0
0 0 0 0 0 0 0 0.167311682457756 0.0897602040653962 0 0 -0.042315195955926 0 0 0 0 0 0 0 0 0 0 0 0 0 0 0 -0.276326354587894 0 0 0 0 0 0 0 0 0 0 0 0 0 -1.53775974054943 -1.54352528621454 0 0 0 0 0 0 0
0 0 0 0 0 0 0 0 0 0 0 0 -0.042315195955926 0 0 0 0 0 0 0 0 0 -0.310928676127789 0 0 0 0 -2.90918587925567 0 0 -1.351628271412 0 0 0 0 0 0 0 0 0 0 -1.90938419678141 0 0 0 0 0 0 0 0
0 0 0 0 0 0 0 0 0 0 0 0 0 -0.042315195955926 0 0 0 0 -1.4841408523835 -1.69849948842984 -1.36930179467752 0 0 0 0 0 0 0 0 0 0 -0.298054995996931 0 0 0 0 0 0 0 0 0 -0.624054285877412 0 -0.622831150731049 0 0 0 0 0 0
0 0 0 0 0 0 0 0 0 0 0 0 0 0 -0.042315195955926 0 0 0 -2.05367528629106 -0.399242411559895 -0.167492123477222 -1.27751394352699 0 0 -0.908936867805898 -0.72628824768454 0 -2.08506702710438 0 0 0 0 0 0 0 0 0 0 0 0 0 0 0 -1.92019271894315 0 0 0 -0.600287622327326 0 0
0 0 0 0 0 0 0 0 0 0 0 0 0 0 0 -0.042315195955926 0 0 -1.93157150285052 -0.491694722625883 -0.419937862419763 -0.645357522190411 0 0 -0.609637626004377 -2.10780898431399 0 0 0 0 0 0 0 0 0 0 0 0 0 0 0 -0.515171292969771 0 0 0 0 0 0 0 0
0 0 0 0 0 0.0829313209158501 0 0 0 0 0 0 0 0 0 0 -0.042315195955926 0 0 0 0 0 0 0 0 0 0 0 0 0 0 0 0 0 0 0 0 0 0 0 0 0 0 0 0 0 0 -3.92481093014102 0 0
0 0 0 0 0 0 0 0 0 0 0 0 0 0 0 0 0 -0.042315195955926 0 0 0 0 0 0 0 0 0 0 0 0 0 0 0 0 0 0 0 0 0 0 0 0 0 0 0 0 0 -2.6814853157027 0 0
0 0 0 0 0 0 0 0 0 0 0 0 0 0.304908733745253 0.379631686601206 0.382194204050602 0 0 -0.042315195955926 0 0 0 0 0 0 0 0 0 0 0 0 0 0 0 0 -0.638139206727567 0 0 0 0 0 0 0 0 0 0 0 -0.416448933723303 0 0
0 0 0 0 0 0 0 0 0 0 0 0 0 0.35845887095239 0.0791767555995481 0.102561800086917 0 0 0 -0.042315195955926 0 0 0 0 0 0 0 0 0 0 0 0 0 0 0 -2.27042828948813 0 -1.39125260078775 -0.197992298503348 0 0 0 0 0 0 0 0 -0.60211682281336 0 0
0 0 0 0 0 0 0 0 0 0 0 0 0 0.278594103236902 0.0301354694583522 0.0890282519883959 0 0 0 0 -0.042315195955926 0 0 0 0 0 0 0 0 -0.45229205093797 0 0 0 0 0 -0.557397299387039 0 -0.816136695108381 -0.435607447319402 0 0 0 0 0 0 0 0 -0.727290439659361 0 0
0 0 0 0 0 0 0 0 0 0 0 0 0 0 0.266052789124206 0.130523864245441 0 0 0 0 0 -0.042315195955926 0 0 0 0 0 0 0 -0.381869645637859 0 0 0 0 0 -1.85399166275527 0 -1.39454153755879 0 0 0 0 0 0 0 0 0 -0.279187270837917 0 0
0 0 0 0 0 0 0 0 0 0.0620297694042584 0.0913793017746606 0 0.0623776413313783 0 0 0 0 0 0 0 0 0 -0.042315195955926 0 0 0 0 0 0 -1.0298994840134 0 0 0 0 0 -2.19142253650554 0 0 0 0 0 0 0 0 0 0 0 -6.32384184204992 0 0
0 0 0 0 0 0 0 0 0 0 0 0 0 0 0 0 0 0 0 0 0 0 0 -0.042315195955926 0 0 0 0 0 0 0 0 0 0 -2.06747974560403 0 0 -0.521568973215312 -5.99379224718925 0 0 0 0 0 0 0 0 0 0 0
0 0 0 0 0 0 0 0 0 0 0 0 0 0 0.189016940335786 0.127691073070489 0 0 0 0 0 0 0 0 -0.042315195955926 0 0 0 0 0 0 0 0 0 -1.45345257214803 0 0 -0.430406713765743 -0.668528709184706 0 0 0 0 0 0 0 0 0 0 0
0 0 0 0 0 0 0 0 0 0 0 0 0 0 0.151478787083553 0.463945879541258 0 0 0 0 0 0 0 0 0 -0.042315195955926 0 0 0 0 0 0 0 0 0 0 0 -0.457690528863157 -1.88608394952995 0 0 0 0 0 0 0 0 0 0 0
0.404735016961563 0 0 0.0919435284068374 0 0 0 0 0 0 0 0 0 0 0 0 0 0 0 0 0 0 0 0 0 0 -0.042315195955926 0 0 0 0 0 0 0 0 0 0 0 -0.63648055303932 0 0 0 0 0 0 0 0 0 0 0
0 0 0 0 0 0.178759298689812 0.799115593165264 0.0520842704342126 0 0.0714807342120001 0 0.0593918508054334 0.635662982719755 0 0.411544446544361 0 0 0 0 0 0 0 0 0 0 0 0 -0.042315195955926 0 0 0 0 0 0 -8.49555209537256 0 0 0 0 0 0 0 0 0 0 0 0 0 0 0
0 0 0 0 0 0 0 0 0 0 0 0 0 0 0 0 0 0 0 0 0 0 0 0 0 0 0 0 -0.042315195955926 0 0 0 0 0 -0.416436222632483 0 0 0 0 0 0 0 0 0 0 0 0 0 0 0
0 0 0 0 0 0 0 0 0 0 0 0 0 0 0 0 0 0 0 0 0.0828650704673487 0.0759364505303996 0.198493964287734 0 0 0 0 0 0 -0.042315195955926 0 0 0 0 0 0 0 0 0 0 0 0 0 0 0 0 0 0 0 0
0 0 0 0 0 0 0 0 0 0 0.156343961129126 0 0.277872323412935 0 0 0 0 0 0 0 0 0 0 0 0 0 0 0 0 0 -0.042315195955926 0 0 0 -1.41351404788401 0 0 0 0 0 0 0 0 0 0 -0.600892673243145 0 0 0 0
0 0 0 0 0 0 0 0 0 0 0 0 0 0.0586055491492581 0 0 0 0 0 0 0 0 0 0 0 0 0 0 0 0 0 -0.042315195955926 0 0 -1.15154685738277 0 0 0 0 0 -1.124065659801 0 0 0 0 -3.36146512173831 0 0 0 0
0 0 0 0 0 0 0 0 0 0 0 0 0 0 0 0 0 0 0 0 0 0 0 0 0 0 0 0 0 0 0 0 -0.042315195955926 0 0 0 0 0 0 0 0 0 0 0 0 -1.02960239091084 0 0 0 0
0 0 0 0 0 0 0 0 0 0 0 0 0 0 0 0 0 0 0 0 0 0 0 0 0 0 0 0 0 0 0 0 0 -0.042315195955926 -1.30297537471196 0 0 0 0 0 -0.342694553286226 0 0 0 0 -0.149530036880534 0 0 0 0
0 0 0 0 0 0 0 0 0 0 0 0 0 0 0 0 0 0 0 0 0 0 0 0.391574668032744 0.30296210848979 0 0 1.75404983444802 0.0824303376079989 0 0.262339408531678 0.224523138503467 0 0.271726401347862 -0.042315195955926 0.181952643821632 0 0 0 0 -0.566687736567616 0 0 0 0 -0.232255570706439 0 0 0 0
0 0 0 0 0 0 0 0 0 0 0 0 0 0 0 0 0 0 0.12581917352383 0.464814389892889 0.1167717834181 0.356966676327917 0.408601117681941 0 0 0 0 0 0 0 0 0 0 0 -0.911117965394086 -0.042315195955926 0 0 0 0 -0.360823746835006 0 0 0 0 0 0 0 0 -1.62999373558832
0 0 0 0 0 0 0 0 0 0 0 0 0 0 0 0 0 0 0 0 0 0 0 0 0 0 0 0 0 0 0 0 0 0 0 0 -0.042315195955926 0 0 0 -0.67997727620743 0 0 0 0 0 0 0 0 -1.12675519429388
0 0 0 0 0 0 0 0 0 0 0 0 0 0 0 0 0 0 0 0.269501321619323 0.154553467727766 0.281168421272506 0 0.103710794292724 0.0844198024473432 0.0896106682652695 0 0 0 0 0 0 0 0 0 0 0 -0.042315195955926 0 0 -4.09907049098762 0 0 0 0 0 0 0 0 0
0 0 0 0 0 0 0 0 0 0 0 0 0 0 0 0 0 0 0 0.039939164349873 0.0936755328090044 0 0 1.20784367849676 0.143667383077851 0.365547265086099 0.126534175334269 0 0 0 0 0 0 0 0 0 0 0 -0.042315195955926 0 -1.94418011183541 0 0 0 0 0 -0.513860222949825 0 0 0
1.66244146891391 0.0613759379954039 0.774960136995514 0.145387320900308 0.139567243719135 0.380622294206093 0.270157937134788 0.102775307180267 0 0 0 0 0 0 0 0 0 0 0 0 0 0 0 0 0 0 0 0 0 0 0 0 0 0 0 0 0 0 0 -0.042315195955926 -0.0465352160693835 0 0 0 0 0 -3.47069165935778 0 0 -1.55223239175789
0 0 0 0 0 0 0 0 0 0 0 0 0 0 0 0 0 0 0 0 0 0 0 0 0 0 0 0 0 0 0 0.226150553177336 0 0.0712926171896044 0.108516095261511 0.0753105416766647 0.135566677908822 0.834801955307646 0.370170093999877 0.00992155636228701 -0.042315195955926 0.0947074246406916 0 0 0 0 0 0 0 0
0 0 0 0 0 0 0 0 0 0.28403890471496 0.40120562900295 0.288810625805092 0.374102758904429 0.119856038981788 0 0.10197707546538 0 0 0 0 0 0 0 0 0 0 0 0 0 0 0 0 0 0 0 0 0 0 0 0 -0.472291459445947 -0.042315195955926 0 0 0 0 0 0 -0.996617242361031 0
0 0 0 0 0 0 0 0 0.0422729733817373 0 0 0.29354675189817 0 0 0 0 0 0 0 0 0 0 0 0 0 0 0 0 0 0 0 0 0 0 0 0 0 0 0 0 0 0 -0.042315195955926 0 0 0 0 0 -3.19027755395481 0
0 0 0 0 0 0 0 0 0 0 0 0 0 0.12790609859034 0.375005587491077 0 0 0 0 0 0 0 0 0 0 0 0 0 0 0 0 0 0 0 0 0 0 0 0 0 0 0 0 -0.042315195955926 0 0 0 0 -0.251564572357095 0
0 0 0 0 0 0 0 0 0 0 0 0 0 0 0 0 0 0 0 0 0 0 0 0 0 0 0 0 0 0 0 0 0 0 0 0 0 0 0 0 0 0 0 0 -0.042315195955926 0 0 0 -0.109209061497885 0
0 0 0 0 0 0 0 0 0 0 0 0 0 0 0 0 0 0 0 0 0 0 0 0 0 0 0 0 0 0 0.122883540094327 0.679118275612537 0.204484997386608 0.0269337199127117 0.0517518214193809 0 0 0 0 0 0 0 0 0 0 -0.042315195955926 0 0 -0.777766965679392 0
0 0 0 0 0 0 0 0 0 0 0 0 0 0 0 0 0 0 0 0 0 0 0 0 0 0 0 0 0 0 0 0 0 0 0 0 0 0 0.0980341961139684 0.71157362525036 0 0 0 0 0 0 -0.042315195955926 0 -3.97034480057177 0
0 0 0 0 0 0 0 0 0 0 0 0 0 0 0.1172815235867 0 0.732330539350769 0.566341840725588 0.0863306910151486 0.123242125949408 0.133197014149798 0.0502587235852053 1.31930728097583 0 0 0 0 0 0 0 0 0 0 0 0 0 0 0 0 0 0 0 0 0 0 0 0 -0.042315195955926 0 0
0 0 0 0 0 0 0 0 0 0 0 0 0 0 0 0 0 0 0 0 0 0 0 0 0 0 0 0 0 0 0 0 0 0 0 0 0 0 0 0 0 0.198936870569939 0.630066298356181 0.0466319451195452 0.0200106975568875 0.161201132865862 0.784187154936958 0 -0.042315195955926 0
0 0 0 0 0 0 0 0 0 0 0 0 0 0 0 0 0 0 0 0 0 0 0 0 0 0 0 0 0 0 0 0 0 0 0 0.331786774932915 0.225323482075775 0 0 0.334256781702897 0 0 0 0 0 0 0 0 0 -0.042315195955926
