-0.46505400167169 0 -0.925439223765157 0 0 0 0 0 0 0 0 0 0 0 0 0 0 -1.03990261263947 0 0 -0.529924092515585 0 0 0 0 0 0 -4.36142447065344 0 0 0 0 0 0 0 0 0 0 0 0 0 0 0 0 0 0 0 0 0 0
0 -0.46505400167169 -4.83150699665344 0 0 -0.566609319912212 0 0 0 0 0 0 0 0 0 0 0 0 0 0 -0.728124287098121 0 0 -0.692529082532602 0 0 0 0 0 0 0 0 0 0 -0.542308056426034 0 0 0 0 0 0 0 0 0 0 0 0 0 0 0
0.176094664689015 1.01076557595051 -0.46505400167169 0 -2.24600834961713 0 0 0 0 0 0 0 0 -1.02981021304724 0 0 0 0 0 0 -2.25859517393534 0 0 0 0 0 -0.229128819198804 -0.709281139587247 0 0 -0.295037343277151 0 0 0 -1.40546610804451 0 0 0 0 0 0 0 0 0 0 0 0 0 0 0
0 0 0 -0.46505400167169 0 0 -11.5503522022952 0 -0.153604734730899 0 0 0 0 0 0 0 0 0 0 -0.815002931922457 -6.75177782039643 0 0 -0.419808508608194 -0.723919077872332 0 0 0 0 0 0 0 0 0 -0.630821521280057 -0.89126765700578 0 0 0 0 0 0 0 0 0 0 0 0 0 0
0 0 0.441915527500449 0 -0.46505400167169 0 -0.977692014168563 0 -2.92881969031441 0 0 0 0 -1.84152311710103 0 0 0 0 0 -0.25387781322069 -1.14948637240574 0 0 -1.24812363372521 0 0 0 0 0 0 0 0 0 0 -0.936985467736184 0 0 0 0 0 0 0 0 0 0 0 0 0 0 0
0 0.114307595695417 0 0 0 -0.46505400167169 -0.551942232463254 0 -2.88456502619995 -1.30832892758312 0 0 0 -0.272947308241337 0 0 0 0 -1.04295926453947 -8.17451869693496 0 0 0 -0.733196102639439 0 0 0 0 0 0 0 0 0 0 -0.87142679515351 0 0 0 0 0 0 0 0 0 0 0 0 0 0 0
0 0 0 2.25918958031968 0.195278814662252 0.113020712047552 -0.46505400167169 0 -0.732450877539192 -1.99772209485383 0 0 0 0 0 0 0 0 0 -0.654608637883191 0 0 0 -0.638009400313731 0 0 0 0 0 0 0 0 0 0 -1.08655567159225 0 0 0 0 0 0 0 0 0 0 0 0 0 0 0
0 0 0 0 0 0 0 -0.46505400167169 0 -11.7931146904688 0 0 0 0 0 0 0 0 0 0 0 0 0 0 0 0 0 0 0 0 0 0 0 0 0 0 0 0 0 0 0 0 0 0 0 0 0 0 0 0
0 0 0 0.0315586126075529 0.620055891519074 0.575925651979862 0.136844815305669 0 -0.46505400167169 0 0 0 0 0 0 0 0 0 0 -3.53355561841172 0 0 0 0 0 -1.12669135732009 0 0 0 0 0 0 0 0 0 0 0 0 0 0 0 0 0 0 0 0 0 0 0 0
0 0 0 0 0 0.244103629245007 0.381442642005789 2.36872543459032 0 -0.46505400167169 0 0 0 0 0 0 0 0 0 0 0 0 0 -5.07620573017008 0 0 0 0 0 0 0 0 0 0 0 0 0 0 -0.640623593237457 0 0 0 0 0 0 0 0 0 0 0
0 0 0 0 0 0 0 0 0 0 -0.46505400167169 0 0 0 0 0 0 0 0 0 0 0 0 -0.748307797188463 0 0 0 0 0 -0.696689175965187 0 0 0 0 0 0 0 0 0 0 0 0 0 0 0 0 0 0 0 0
0 0 0 0 0 0 0 0 0 0 0 -0.46505400167169 0 0 0 0 0 0 0 0 0 0 0 0 0 0 0 0 0 -4.68694248440488 0 0 0 -0.90146450796051 0 0 0 0 0 0 0 0 0 0 0 0 0 0 0 0
0 0 0 0 0 0 0 0 0 0 0 0 -0.46505400167169 0 0 0 0 0 0 0 0 0 0 -1.04259975575995 0 0 0 0 0 -0.475497131527866 0 0 0 -0.120536801117732 0 0 0 0 -0.282802862174262 0 0 0 0 0 0 0 0 0 0 0
0 0 0.200373353915056 0 0.362424017286079 0.0539636719558627 0 0 0 0 0 0 0 -0.46505400167169 0 0 0 0 0 0 0 0 0 -2.82490109809421 0 0 0 0 0 -2.4097556815572 0 0 0 -0.630818526525887 0 0 0 0 -1.00372711699215 0 0 0 0 0 0 0 0 0 0 0
0 0 0 0 0 0 0 0 0 0 0 0 0 0 -0.46505400167169 0 0 0 0 0 0 0 0 -0.379525173929896 0 0 0 0 0 -2.96645584460592 0 0 0 -0.384577357969372 0 0 0 0 0 0 0 0 0 0 0 0 0 0 0 0
0 0 0 0 0 0 0 0 0 0 0 0 0 0 0 -0.46505400167169 0 0 0 0 0 0 0 0 0 0 0 0 0 -1.63596172229425 0 0 0 -1.50745483059051 0 0 0 0 0 0 0 0 0 0 0 0 0 0 0 0
0 0 0 0 0 0 0 0 0 0 0 0 0 0 0 0 -0.46505400167169 0 0 0 0 0 -0.530512354818559 0 0 0 0 0 0 -0.521175162405754 0 -0.628001231618314 0 0 0 0 0 0 0 0 -0.372659074043813 0 0 0 -0.472424701021837 0 0 -0.355663149450126 0 0
0.206689612292663 0 0 0 0 0 0 0 0 0 0 0 0 0 0 0 0 -0.46505400167169 0 0 0 0 0 0 0 0 0 0 0 -0.552061226618532 0 -0.239985232689517 0 0 0 0 0 0 0 0 -2.12431993732431 0 0 0 0 0 0 0 0 0
0 0 0 0 0 0.206130541763649 0 0 0 0 0 0 0 0 0 0 0 0 -0.46505400167169 0 0 0 0 0 0 0 0 0 0 -1.64772700768856 0 0 0 0 0 0 0 0 0 0 -3.06856318728381 0 0 0 0 0 0 -0.514668020215038 0 0
0 0 0 0.165304544250162 0.0487771617620797 1.61966410829495 0.127755494379384 0 0.772351190972946 0 0 0 0 0 0 0 0 0 0 -0.46505400167169 0 0 0 0 0 0 0 0 0 -1.63562243683188 0 0 0 0 0 0 0 0 0 0 -0.634154882817646 0 0 0 0 0 0 -1.68817363189357 0 0
0.105804556715532 0.147130149365952 0.426764433639892 1.25424567670915 0.228600935825061 0 0 0 0 0 0 0 0 0 0 0 0 0 0 0 -0.46505400167169 0 0 0 0 0 0 0 0 0 0 0 0 0 0 0 0 0 0 0 0 0 0 0 0 0 0 -1.46244628795562 0 0
0 0 0 0 0 0 0 0 0 0 0 0 0 0 0 0 0 0 0 0 0 -0.46505400167169 0 0 0 0 0 0 0 0 0 0 0 0 0 0 0 0 0 0 0 0 0 0 0 0 0 -1.32456413788729 0 0
0 0 0 0 0 0 0 0 0 0 0 0 0 0 0 0 0.108999032794311 0 0 0 0 0 -0.46505400167169 0 0 0 0 0 0 0 0 0 0 0 0 0 0 0 0 0 0 0 0 0 0 0 0 -0.497543294502128 0 0
0 0.135700087769081 0 0.0835124748573533 0.242164332763323 0.148268141201169 0.123811337494025 0 0 1.07709991448555 0.144310057947424 0 0.20341641575262 0.568206532829328 0.0801623062695566 0 0 0 0 0 0 0 0 -0.46505400167169 0 0 0 0 0 0 0 0 0 0 0 0 0 0 0 0 0 0 0 0 0 0 0 0 0 0
0 0 0 0.141944639223681 0 0 0 0 0 0 0 0 0 0 0 0 0 0 0 0 0 0 0 0 -0.46505400167169 0 0 0 0 0 0 0 0 0 0 0 0 0 0 0 0 0 0 0 0 0 0 -0.825476888543584 0 0
0 0 0 0 0 0 0 0 0.209946753517829 0 0 0 0 0 0 0 0 0 0 0 0 0 0 0 0 -0.46505400167169 0 0 0 0 0 0 0 0 0 0 0 0 0 0 0 0 0 0 0 0 0 -0.398800608309539 0 0
0 0 0.0424492763080619 0 0 0 0 0 0 0 0 0 0 0 0 0 0 0 0 0 0 0 0 0 0 0 -0.46505400167169 0 0 0 0 0 0 0 0 0 0 0 0 0 0 0 -2.1115230242627 0 0 0 0 -0.967269272362708 0 0
0.782615770061639 0 0.138006254729243 0 0 0 0 0 0 0 0 0 0 0 0 0 0 0 0 0 0 0 0 0 0 0 0 -0.46505400167169 0 0 0 0 0 0 0 0 0 0 0 0 0 0 0 0 0 0 0 -0.191460983683795 0 0
0 0 0 0 0 0 0 0 0 0 0 0 0 0 0 0 0 0 0 0 0 0 0 0 0 0 0 0 -0.46505400167169 0 0 0 0 0 0 0 0 0 0 0 0 0 -1.0263201793762 0 0 0 0 0 0 0
0 0 0 0 0 0 0 0 0 0 0.148069440500983 0.913086073607333 0.0952045960112979 0.445149654898636 0.618814407667855 0.31657921526606 0.104999709692852 0.107648085551854 0.345833922588306 0.341739676723587 0 0 0 0 0 0 0 0 0 -0.46505400167169 0 0 0 0 0 0 0 0 0 0 0 0 -1.12286046303346 0 0 0 0 0 0 0
0 0 0.0602212596130939 0 0 0 0 0 0 0 0 0 0 0 0 0 0 0 0 0 0 0 0 0 0 0 0 0 0 0 -0.46505400167169 0 0 0 0 0 0 0 0 0 0 0 0 0 0 0 0 0 0 0
0 0 0 0 0 0 0 0 0 0 0 0 0 0 0 0 0.11662586192378 0.0475123850029249 0 0 0 0 0 0 0 0 0 0 0 0 0 -0.46505400167169 0 0 0 0 0 0 0 0 0 0 -1.74939535962635 0 0 0 0 0 0 0
0 0 0 0 0 0 0 0 0 0 0 0 0 0 0 0 0 0 0 0 0 0 0 0 0 0 0 0 0 0 0 0 -0.46505400167169 0 0 0 -2.10204891882846 0 0 -2.84043605356055 0 0 -1.02941695429235 0 0 0 0 0 0 0
0 0 0 0 0 0 0 0 0 0 0 0.179971497549114 0.0231385320867072 0.134715812836433 0.0815634780246698 0.297253303839215 0 0 0 0 0 0 0 0 0 0 0 0 0 0 0 0 0 -0.46505400167169 0 0 -1.10979475210304 0 0 -1.11115030354465 0 0 -1.01552788790726 0 0 0 0 0 0 0
0 0.107985908201328 0.297294462145064 0.134353158229493 0.188094645595265 0.16953114383846 0.212048348066155 0 0 0 0 0 0 0 0 0 0 0 0 0 0 0 0 0 0 0 0 0 0 0 0 0 0 0 -0.46505400167169 0 0 0 0 -4.44438879384401 0 0 -1.86167986858177 0 0 0 0 0 0 0
0 0 0 0.172363465746194 0 0 0 0 0 0 0 0 0 0 0 0 0 0 0 0 0 0 0 0 0 0 0 0 0 0 0 0 0 0 0 -0.46505400167169 0 0 0 -0.887663310535657 0 0 -11.4075364740889 0 0 0 0 0 0 0
0 0 0 0 0 0 0 0 0 0 0 0 0 0 0 0 0 0 0 0 0 0 0 0 0 0 0 0 0 0 0 0 0.447255754996145 0.240304126213848 0 0 -0.46505400167169 0 0 0 0 0 -0.919725605246283 0 0 0 0 0 0 0
0 0 0 0 0 0 0 0 0 0 0 0 0 0 0 0 0 0 0 0 0 0 0 0 0 0 0 0 0 0 0 0 0 0 0 0 0 -0.46505400167169 0 0 0 0 -0.905400648108773 0 0 0 0 0 0 0
0 0 0 0 0 0 0 0 0 0.13544864986561 0 0 0.056205872981246 0.211375479132989 0 0 0 0 0 0 0 0 0 0 0 0 0 0 0 0 0 0 0 0 0 0 0 0 -0.46505400167169 0 0 0 -3.21656665603508 0 0 0 0 0 0 0
0 0 0 0 0 0 0 0 0 0 0 0 0 0 0 0 0 0 0 0 0 0 0 0 0 0 0 0 0 0 0 0 0.551140254443777 0.220802645907337 0.8746497880417 0.194084877272795 0 0 0 -0.46505400167169 0 0 -0.842052191035279 0 0 0 0 0 0 0
0 0 0 0 0 0 0 0 0 0 0 0 0 0 0 0 0.073025688168411 0.451397735365677 0.632558897850528 0.124474747211982 0 0 0 0 0 0 0 0 0 0 0 0 0 0 0 0 0 0 0 0 -0.46505400167169 0 -1.50947870155482 0 0 -1.1958748413886 0 0 -0.884722210431134 0
0 0 0 0 0 0 0 0 0 0 0 0 0 0 0 0 0 0 0 0 0 0 0 0 0 0 0 0 0 0 0 0 0 0 0 0 0 0 0 0 0 -0.46505400167169 -0.391555533757304 0 0 -0.0874203042568289 0 0 -0.565699715695941 0
0 0 0 0 0 0 0 0 0 0 0 0 0 0 0 0 0 0 0 0 0 0 0 0 0 0 0.406760814847874 0 0.195257417877438 0.2281490747222 0 0.354167053465849 0.21215486659422 0.20031351977131 0.367031715484748 2.18638471268841 0.191134597988256 0.181728710665975 0.659133737539947 0.172276614465135 0.31152986998408 0.0822749466198564 -0.46505400167169 0 0 0 0 0 -1.48633710496476 -2.86833024367148
0 0 0 0 0 0 0 0 0 0 0 0 0 0 0 0 0 0 0 0 0 0 0 0 0 0 0 0 0 0 0 0 0 0 0 0 0 0 0 0 0 0 0 -0.46505400167169 0 -2.06257784526874 0 0 -0.462607909018012 -2.86218275123976
0 0 0 0 0 0 0 0 0 0 0 0 0 0 0 0 0.0880823372316899 0 0 0 0 0 0 0 0 0 0 0 0 0 0 0 0 0 0 0 0 0 0 0 0 0 0 0 -0.46505400167169 0 0 0 0 -0.916333467113329
0 0 0 0 0 0 0 0 0 0 0 0 0 0 0 0 0 0 0 0 0 0 0 0 0 0 0 0 0 0 0 0 0 0 0 0 0 0 0 0 0.251327656560119 0.018040574466322 0 0.360722129498372 0 -0.46505400167169 0 0 0 -0.63763295313987
0 0 0 0 0 0 0 0 0 0 0 0 0 0 0 0 0 0 0 0 0 0 0 0 0 0 0 0 0 0 0 0 0 0 0 0 0 0 0 0 0 0 0 0 0 0 -0.46505400167169 0 0 -2.65830220051491
0 0 0 0 0 0 0 0 0 0 0 0 0 0 0 0 0.0712499834405864 0 0.0978394979199359 0.316358725261735 0.291274050897944 0.279955634957419 0.0935161018497372 0 0.171127820797359 0.0771315440474078 0.199323948641289 0.0383039437400559 0 0 0 0 0 0 0 0 0 0 0 0 0 0 0 0 0 0 0 -0.46505400167169 0 0
0 0 0 0 0 0 0 0 0 0 0 0 0 0 0 0 0 0 0 0 0 0 0 0 0 0 0 0 0 0 0 0 0 0 0 0 0 0 0 0 0.187129961809824 0.109892639021423 0.309805616220637 0.0895068001550116 0 0 0 0 -0.46505400167169 0
0 0 0 0 0 0 0 0 0 0 0 0 0 0 0 0 0 0 0 0 0 0 0 0 0 0 0 0 0 0 0 0 0 0 0 0 0 0 0 0 0 0 0.580401126138493 0.52338579980313 0.182797987062899 0.133188348986645 0.560304565607435 0 0 -0.46505400167169
