-0.234047456677952 -0.386371943640195 -1.10139309389649 0 0 -2.08777369893414 0 0 0 0 0 0 0 0 0 0 0 0 0 0 0 0 0 0 0 0 0 0 0 0 0 0 0 0 0 0 0 0 0 0 0 0 0 0 0 0 0 0 0 0
0.0800319318405654 -0.234047456677952 0 0 0 0 0 0 0 0 0 0 0 0 0 0 0 0 0 0 0 0 0 0 0 0 0 0 0 0 0 0 0 0 0 0 0 0 0 0 0 0 0 0 0 0 0 0 0 0
0.222509456476331 0 -0.234047456677952 0 0 0 0 0 0 0 0 0 0 0 0 0 0 0 0 0 0 0 0 0 0 0 0 0 0 0 0 0 0 0 0 0 0 0 0 0 0 0 0 0 0 0 0 0 0 0
0 0 0 -0.234047456677952 -0.474629975585777 0 -2.42395882134171 -0.242115480611703 0 0 0 0 0 0 0 0 -0.801579641385325 0 0 0 0 0 0 0 0 0 0 0 0 0 0 0 0 0 0 0 0 0 0 0 0 0 0 0 0 0 0 -0.327688682142513 0 0
0 0 0 0.0957598248716511 -0.234047456677952 0 -4.51805068739411 0 0 0 0 0 0 0 0 -0.254712005121968 0 0 0 0 0 0 0 0 0 0 0 0 0 0 0 0 0 0 0 0 0 0 0 0 0 0 0 0 0 0 0 0 0 0
0.451272085460672 0 0 0 0 -0.234047456677952 0 0 0 -0.44981021156276 0 0 0 0 0 0 0 0 0 0 0 0 0 0 0 0 0 0 0 0 0 -0.214428370530678 -1.1222096526905 0 0 0 0 0 0 0 0 0 0 0 0 0 0 0 0 0
0 0 0 0.486893551242479 0.829157536782109 0 -0.234047456677952 0 0 0 0 0 0 0 0 0 0 0 -0.91283990439798 0 0 0 0 -0.466591275672229 0 0 0 0 0 0 0 0 0 0 0 0 0 0 0 0 0 0 -1.1210375111954 0 0 0 -0.255083919432592 0 0 0
0 0 0 0.0495811171792915 0 0 0 -0.234047456677952 0 0 0 0 0 0 0 0 0 0 0 0 0 -2.1379490101661 0 -1.89643973840249 0 0 0 0 0 0 0 0 0 -0.579009864104813 0 0 0 0 0 0 0 0 0 0 0 0 -0.470879155909086 0 0 0
0 0 0 0 0 0 0 0 -0.234047456677952 0 0 0 0 0 0 0 0 0 -1.3634868376797 0 0 0 0 0 0 0 -4.02745809976813 0 0 0 0 0 0 -0.159281364048344 0 0 0 0 0 0 0 0 0 0 0 0 0 0 0 -0.582527639480389
0 0 0 0 0 0.089278992364198 0 0 0 -0.234047456677952 0 0 0 0 -1.8215919125222 0 0 0 0 0 0 0 0 0 0 -0.32926123665859 -1.47362071676264 -1.86834691139371 0 0 0 0 -0.224497973539528 0 0 0 0 0 0 0 0 0 0 -0.333295871130774 0 0 0 0 -0.427235342354981 0
0 0 0 0 0 0 0 0 0 0 -0.234047456677952 0 0 0 0 0 0 0 -4.9284153138297 0 0 0 0 -2.27746009379106 0 0 -0.46466439413042 0 0 0 0 0 0 0 0 0 0 0 0 0 0 0 0 -1.67395640715234 0 0 0 0 -1.06256263863118 0
0 0 0 0 0 0 0 0 0 0 0 -0.234047456677952 0 0 0 0 0 -0.568333002415168 -1.25635400386754 0 0 0 0 -0.405791372931919 0 0 -1.32453826789643 0 0 0 0 0 0 0 0 0 0 0 0 0 0 0 0 -4.13633219542863 0 0 0 0 0 0
0 0 0 0 0 0 0 0 0 0 0 0 -0.234047456677952 0 0 0 0 -0.506127660940423 0 0 0 0 -4.63477739431652 0 0 0 -1.21338121590847 0 0 -0.955829646653535 0 0 0 0 0 0 0 0 0 0 0 0 0 -0.541336931876958 0 0 0 0 -1.31712451853152 0
0 0 0 0 0 0 0 0 0 0 0 0 0 -0.234047456677952 0 0 0 0 0 -0.900019530208343 0 0 0 0 0 0 -1.01305784823223 0 0 -2.21187336928876 0 0 0 0 0 0 0 -0.802667848575344 0 0 0 0 0 0 -0.831808120370984 0 0 0 -0.993127369090665 0
0 0 0 0 0 0 0 0 0 0.339159653783082 0 0 0 0 -0.234047456677952 0 0 0 0 0 0 0 0 0 0 0 -3.95769240468401 0 0 0 0 0 0 0 -0.813013191262966 0 0 0 0 0 0 0 0 -0.241326585269691 -2.79335897040578 0 0 0 0 0
0 0 0 0 0.0517622952020933 0 0 0 0 0 0 0 0 0 0 -0.234047456677952 0 0 0 -0.48949899524347 0 0 0 0 0 0 -0.187141590314728 0 0 0 0 0 0 0 -2.55303665884802 0 0 -1.49791419280875 0 0 0 0 0 -0.737912949486807 -0.23481434785192 0 0 0 -0.757455518984268 0
0 0 0 0.153348036055755 0 0 0 0 0 0 0 0 0 0 0 0 -0.234047456677952 0 0 0 0 0 0 0 0 0 0 0 0 0 0 0 0 0 -0.0607199208800279 0 0 -0.610860267301611 0 0 0 0 0 -0.507052327752509 -1.01744599831619 0 0 0 -0.660399313275177 0
0 0 0 0 0 0 0 0 0 0 0 0.118442032119707 0.101492558418515 0 0 0 0 -0.234047456677952 0 -1.08601014471442 0 0 0 0 0 0 0 0 0 0 0 0 0 0 -1.81288007698892 0 0 -0.351127984286589 0 0 0 0 0 -0.825293257790391 -1.72481209980164 0 0 0 -3.42458616982711 0
0 0 0 0 0 0 0.19564708682749 0 0.321786691164049 0 0.898316019178534 0.250025629656047 0 0 0 0 0 0 -0.234047456677952 0 0 0 0 0 0 0 0 0 0 0 0 0 0 0 -1.9740534700881 0 0 0 0 0 0 0 0 -1.49510557056269 0 0 0 0 -2.42785175914867 0
0 0 0 0 0 0 0 0 0 0 0 0 0 0.177540682963902 0 0.104047739202663 0 0.212620419836496 0 -0.234047456677952 0 0 0 0 0 0 0 0 0 0 0 0 0 0 -0.891011506391555 0 0 -0.618709058999903 0 0 0 0 0 -0.547436799346196 -2.57671214511287 0 0 0 -0.348947023938638 0
0 0 0 0 0 0 0 0 0 0 0 0 0 0 0 0 0 0 0 0 -0.234047456677952 0 0 0 0 0 0 0 0 0 0 0 0 0 -0.614457712557489 0 0 0 0 0 0 0 0 -0.377352946277567 -0.648247150088744 0 0 0 0 0
0 0 0 0 0 0 0 0.394720345496227 0 0 0 0 0 0 0 0 0 0 0 0 0 -0.234047456677952 0 0 0 0 0 0 0 0 0 0 0 0 0 0 0 0 0 0 0 0 0 -1.09734415085113 -1.70178695620283 0 0 0 0 0
0 0 0 0 0 0 0 0 0 0 0 0 0.930868731970998 0 0 0 0 0 0 0 0 0 -0.234047456677952 0 0 0 0 0 0 0 0 0 0 0 -5.20725851799724 0 0 0 0 0 0 0 0 -0.253032023189927 -3.30546927572298 0 0 0 -2.53521290376025 0
0 0 0 0 0 0 0.090134176303587 0.390242919221998 0 0 0.432736310551399 0.0871642863696463 0 0 0 0 0 0 0 0 0 0 0 -0.234047456677952 0 0 0 0 0 0 0 0 0 0 -0.700364556019678 0 0 0 0 0 0 0 0 -3.13095693379191 0 0 0 0 -1.25188144054558 0
0 0 0 0 0 0 0 0 0 0 0 0 0 0 0 0 0 0 0 0 0 0 0 0 -0.234047456677952 0 0 0 0 0 0 0 0 0 -1.98029751388658 0 0 0 0 0 0 0 0 -1.62965538726599 -3.36632313420211 0 0 0 -2.21590463360548 0
0 0 0 0 0 0 0 0 0 0.0664960842074072 0 0 0 0 0 0 0 0 0 0 0 0 0 0 0 -0.234047456677952 0 0 0 0 0 0 0 0 0 0 0 0 0 0 0 0 0 0 0 -2.90425543803194 0 0 -0.306766630592048 0
0 0 0 0 0 0 0 0 0.885086752672948 0.290587799709826 0.0905396487942472 0.239247788684909 0.240333255708828 0.186558109247206 0.840473664781142 0.0353820095784609 0 0 0 0 0 0 0 0 0 0 -0.234047456677952 0 0 0 0 0 0 0 0 0 0 0 0 0 0 0 0 -0.745822824050382 0 -2.58041447942642 0 0 -0.841869536773586 0
0 0 0 0 0 0 0 0 0 0.364469022805742 0 0 0 0 0 0 0 0 0 0 0 0 0 0 0 0 0 -0.234047456677952 0 0 -1.18635954668383 0 0 0 0 0 -0.178780684911666 0 0 -2.46690272470881 -1.53993871690052 0 0 0 -0.497180572757953 -0.781907737462288 0 0 0 0
0 0 0 0 0 0 0 0 0 0 0 0 0 0 0 0 0 0 0 0 0 0 0 0 0 0 0 0 -0.234047456677952 0 0 0 0 0 0 0 0 0 0 0 0 -1.48399504576127 0 -3.15956814418042 -0.267692091337681 -0.320199021182866 0 0 0 0
0 0 0 0 0 0 0 0 0 0 0 0 0.178332892570855 0.454395961149954 0 0 0 0 0 0 0 0 0 0 0 0 0 0 0 -0.234047456677952 0 0 0 0 0 0 0 0 0 0 0 -0.949726484744415 0 -0.863126172632142 0 -0.191699346930562 0 0 0 0
0 0 0 0 0 0 0 0 0 0 0 0 0 0 0 0 0 0 0 0 0 0 0 0 0 0 0 0.242363992395461 0 0 -0.234047456677952 0 0 0 0 0 -0.514911625293286 0 0 0 0 -1.83305785285664 0 0 -1.10425524430023 -0.714452152941055 0 0 0 0
0 0 0 0 0 0.0452705347497217 0 0 0 0 0 0 0 0 0 0 0 0 0 0 0 0 0 0 0 0 0 0 0 0 0 -0.234047456677952 0 0 0 0 -0.59745596694384 0 -0.647026465096166 0 0 0 0 -0.254684253072504 -2.29427624975017 -3.09560188138893 0 0 0 0
0 0 0 0 0 0.216505249570208 0 0 0 0.0443555115165252 0 0 0 0 0 0 0 0 0 0 0 0 0 0 0 0 0 0 0 0 0 0 -0.234047456677952 0 0 0 -0.243998515226864 0 -1.29642886838338 0 0 0 0 0 0 -0.914464480023863 0 0 0 0
0 0 0 0 0 0 0 0.104428640679177 0.0313732738185504 0 0 0 0 0 0 0 0 0 0 0 0 0 0 0 0 0 0 0 0 0 0 0 0 -0.234047456677952 0 0 0 0 0 0 0 -1.93600323325477 0 0 -0.158260526803389 0 0 0 0 0
0 0 0 0 0 0 0 0 0 0 0 0 0 0 0.157644800875076 0.477495907098366 0.0116834416423651 0.347641306122651 0.389007654707593 0.176620416314591 0.127006824501203 0 1.10993688713046 0.136205613807304 0.400557675083632 0 0 0 0 0 0 0 0 0 -0.234047456677952 0 -0.66793089495721 0 0 0 0 0 0 0 0 0 0 0 0 0
0 0 0 0 0 0 0 0 0 0 0 0 0 0 0 0 0 0 0 0 0 0 0 0 0 0 0 0 0 0 0 0 0 0 0 -0.234047456677952 -4.20958001008245 0 0 0 0 0 0 0 0 -0.441425153411201 0 0 0 0
0 0 0 0 0 0 0 0 0 0 0 0 0 0 0 0 0 0 0 0 0 0 0 0 0 0 0 0.0328425797031184 0 0 0.0997931723182908 0.127211051969452 0.0468728236564058 0 0.138816184910764 0.833529024258073 -0.234047456677952 0.618727519996579 0 0 0 0 0 0 0 -0.378706929326397 0 0 0 0
0 0 0 0 0 0 0 0 0 0 0 0 0 0.147012422251417 0 0.292373846318193 0.116697569060573 0.064017377578177 0 0.119455814402667 0 0 0 0 0 0 0 0 0 0 0 0 0 0 0 0 -3.03118271780805 -0.234047456677952 0 0 0 0 0 0 0 -0.731183756292542 0 0 0 0
0 0 0 0 0 0 0 0 0 0 0 0 0 0 0 0 0 0 0 0 0 0 0 0 0 0 0 0 0 0 0 0.146363588348474 0.271841035738494 0 0 0 0 0 -0.234047456677952 0 0 0 0 0 0 -1.30099002171054 0 0 0 0
0 0 0 0 0 0 0 0 0 0 0 0 0 0 0 0 0 0 0 0 0 0 0 0 0 0 0 0.528735450921153 0 0 0 0 0 0 0 0 0 0 0 -0.234047456677952 0 0 0 0 0 -0.801397107490817 0 0 0 0
0 0 0 0 0 0 0 0 0 0 0 0 0 0 0 0 0 0 0 0 0 0 0 0 0 0 0 0.306835526140231 0 0 0 0 0 0 0 0 0 0 0 0 -0.234047456677952 0 0 0 0 0 0 0 0 0
0 0 0 0 0 0 0 0 0 0 0 0 0 0 0 0 0 0 0 0 0 0 0 0 0 0 0 0 0.25173703782148 0.203494712460655 0.383227520675404 0 0 0.405033911435414 0 0 0 0 0 0 0 -0.234047456677952 0 0 0 -0.141246917359492 0 0 0 0
0 0 0 0 0 0 0.219866924642978 0 0 0 0 0 0 0 0 0 0 0 0 0 0 0 0 0 0 0 0 0 0 0 0 0 0 0 0 0 0 0 0 0 0 0 -0.234047456677952 0 0 0 0 0 0 0
0 0 0 0 0 0 0 0 0 0.0639343031801042 0.327880042231643 0.862716702907845 0.105403045671009 0 0.0473988039700069 0.142027838788535 0.0970125562497162 0.16711680390344 0.292382247033755 0.108431994758828 0.0765331236733 0.223440964248541 0.0557421663000291 0.610780611303374 0.329034565178405 0 0.154853062990871 0 0.646212404988463 0.167599522346105 0 0.0497668952793975 0 0 0 0 0 0 0 0 0 0 0 -0.234047456677952 0 0 0 0 0 0
0 0 0 0 0 0 0 0 0 0 0 0 0 0.173714841191851 0.57429128774285 0.048176439762942 0.192552722550087 0.329382419595936 0 0.507235401684816 0.136840236651862 0.346696994492629 0.58037400976683 0 0.689267995193268 0 0 0.0880188343276942 0.0579052682901222 0 0.229609798096129 0.498644314147916 0 0.0328892528865677 0 0 0 0 0 0 0 0 0 0 -0.234047456677952 0 0 0 0 0
0 0 0 0 0 0 0 0 0 0 0 0 0 0 0 0 0 0 0 0 0 0 0 0 0 0.562550501316366 0.505815220431496 0.162473469518873 0.0635746856212179 0.0364978857774886 0.154471854949401 0.650264535310149 0.19013381550427 0 0 0.0902200468176336 0.0819761290145376 0.157836893575307 0.247696543019988 0.162933950342868 0 0.0268747524487145 0 0 0 -0.234047456677952 0 0 0 0
0 0 0 0 0 0 0.0545691508927768 0.0959506655800599 0 0 0 0 0 0 0 0 0 0 0 0 0 0 0 0 0 0 0 0 0 0 0 0 0 0 0 0 0 0 0 0 0 0 0 0 0 0 -0.234047456677952 0 0 0
0 0 0 0.0604108673566175 0 0 0 0 0 0 0 0 0 0 0 0 0 0 0 0 0 0 0 0 0 0 0 0 0 0 0 0 0 0 0 0 0 0 0 0 0 0 0 0 0 0 0 -0.234047456677952 0 0
0 0 0 0 0 0 0 0 0 0.0811473956747752 0.207782279800218 0 0.244296997593943 0.196440151258287 0 0.147915123867994 0.13845683352821 0.706157901540661 0.440595328487034 0.0713170497001122 0 0 0.514688137875408 0.248151415706418 0.438907839075259 0.0583858146474177 0.182023023831372 0 0 0 0 0 0 0 0 0 0 0 0 0 0 0 0 0 0 0 0 0 -0.234047456677952 0
0 0 0 0 0 0 0 0 0.113273951371337 0 0 0 0 0 0 0 0 0 0 0 0 0 0 0 0 0 0 0 0 0 0 0 0 0 0 0 0 0 0 0 0 0 0 0 0 0 0 0 0 -0.234047456677952
