0.69748605650046
0.48394776035073
1.01478050601888
0.468071263808632
1.05650213835547
1.06543348813953
0.4388861087317
1.5080791000327
0.963051809671733
1.00184266208337
0.850794101778898
2.4508282844229
0.715903516619552
0.442967114606719
0.927464271494839
1.78860144074503
0.941484440057276
2.1608209405381
0.65603260919498
0.482790341848019
2.2141561945052
0.736518296957614
4.71617577468125
1.69712132957511
0.387623743979021
0.690742201002896
1.05541100264324
1.87778749572271
1.19869534696088
3.51600954180243
0.271672273930245
0.45603011636261
3.4931251227323
0.850755525288154
0.293399835375174
2.6288907142081
0.975982710953785
0.696044517233196
1.01102907072459
2.70553030493097
0.101943643037352
0.428192392168312
1.59060310852715
0.287148765058676
0.685412410215902
1.06603975221034
0.473529905467347
0.590025451381724
0.467896979605587
3.56658434054321
