-0.224217266652534 0 0 0 0 0 0 0 0 0 0 0 0 0 0 0 0 0 0 0 0 0 0 0 0 0 0 0 0 0 0 0 0 0 0 0 0 0 0 0 0 0 0 -0.263771495620427 0 0 0 0 0 0
0 -0.224217266652534 0 0 0 0 0 0 0 0 0 0 0 0 0 0 0 0 0 0 0 0 0 0 0 0 0 0 0 0 0 0 0 0 0 0 0 0 -1.08817139613399 0 0 0 0 -1.54708329292671 0 0 0 0 0 0
0 0 -0.224217266652534 0 0 0 0 0 0 0 0 0 0 0 0 0 0 0 0 0 0 0 0 0 0 0 0 0 0 0 0 0 0 0 0 0 0 0 -0.215408294716502 0 0 0 0 -2.17623556337813 0 0 0 0 0 0
0 0 0 -0.224217266652534 0 0 0 0 0 0 0 0 0 0 0 0 0 0 0 0 0 0 0 0 0 0 0 0 0 0 0 0 0 -1.20757322860048 0 0 0 0 -1.87530959409654 0 0 0 0 -2.17021405244391 0 0 0 0 0 0
0 0 0 0 -0.224217266652534 0 0 -0.217206793185145 -0.173125042555082 0 0 0 0 0 0 0 0 0 0 0 0 0 0 0 0 0 0 0 -0.446901482158559 0 0 0 0 -2.55631595353808 0 -0.721682172242806 0 0 0 0 0 0 0 -0.889495269210533 0 0 -1.79623060956763 0 0 0
0 0 0 0 0 -0.224217266652534 0 0 0 0 0 0 0 -0.322893464077125 0 0 -0.335823288302105 0 -10.6719106700161 0 0 0 0 0 0 0 0 0 0 0 0 0 0 -2.16712375494434 0 0 0 0 -1.33868240029869 0 0 0 0 -0.557849851880812 -0.328117020097983 0 0 0 0 0
0 0 0 0 0 0 -0.224217266652534 0 0 0 0 0 0 0 0 0 -3.30848785869924 0 0 -1.40647660851249 0 0 0 0 0 0 0 -0.688046086139081 0 0 0 0 0 -2.17974465285955 -1.32652909050003 0 0 0 -2.77052322799354 0 0 0 0 -1.00828223977606 -0.530945398191067 0 -0.868238655122925 0 0 0
0 0 0 0 0.0418439804534076 0 0 -0.224217266652534 0 0 0 0 0 -0.75677694566056 0 0 0 0 -0.634971500222446 -0.388818250371025 0 0 0 0 0 0 0 0 0 0 0 0 0 -3.64474025862529 -0.965629206768552 0 0 0 0 0 0 0 0 -0.569958602647941 -0.419091069867043 0 -3.49517176013709 0 0 0
0 0 0 0 0.0341659609467331 0 0 0 -0.224217266652534 0 0 0 0 0 -0.71481232291888 0 0 0 0 -0.343396449843916 0 0 0 0 0 0 0 -0.942524094081861 0 0 0 0 0 -1.65356601991061 0 0 0 0 -0.160759305440948 0 0 0 0 0 -5.64078238835614 0 -2.15944078890816 0 0 0
0 0 0 0 0 0 0 0 0 -0.224217266652534 0 0 0 0 -0.509781957420528 0 0 -0.37044770706916 0 0 0 0 0 0 0 0 0 -3.43066312239656 0 0 0 0 0 0 0 0 0 0 -0.753347031044285 0 0 0 0 0 -1.07519510324305 0 -0.470477028023702 0 0 0
0 0 0 0 0 0 0 0 0 0 -0.224217266652534 0 0 0 0 0 0 0 0 0 0 0 0 0 0 0 0 -0.802010073749891 0 0 0 -8.45938372600186 0 0 0 0 0 0 0 0 0 0 0 0 0 0 0 -1.54195588868996 -0.943626286881298 0
0 0 0 0 0 0 0 0 0 0 0 -0.224217266652534 0 0 0 0 0 -0.834700475250382 0 0 0 0 0 0 0 0 0 0 0 0 0 0 0 0 0 0 0 0 0 0 0 0 0 0 0 0 -0.740124272369317 -1.410770363384 0 0
0 0 0 0 0 0 0 0 0 0 0 0 -0.224217266652534 0 0 0 0 -2.69041006731527 0 0 0 0 0 0 0 0 0 -2.32795776366158 0 0 0 -1.74930517385244 0 0 0 0 0 0 0 0 0 0 0 0 0 0 -0.241235243674176 -0.274137711385808 0 0
0 0 0 0 0 0.0604489005651502 0 0.15792498253628 0 0 0 0 0 -0.224217266652534 0 0 0 -0.177049661953595 0 0 0 0 0 0 0 0 0 -0.955407746430363 0 0 0 0 0 0 0 0 0 0 0 0 0 0 0 0 0 0 -3.32569462813633 0 0 0
0 0 0 0 0 0 0 0 0.143755773788341 0.108384113174643 0 0 0 0 -0.224217266652534 0 0 -0.288745102295467 0 0 0 0 0 0 0 0 0 0 0 0 0 -3.53494217702966 0 0 0 0 0 0 0 0 0 0 0 0 0 0 0 0 0 0
0 0 0 0 0 0 0 0 0 0 0 0 0 0 0 -0.224217266652534 0 0 0 0 0 -2.38588075004814 0 0 0 0 0 0 0 0 0 -0.284270841250073 0 0 0 0 0 0 0 0 0 0 0 0 0 0 -0.478560887107488 0 0 0
0 0 0 0 0 0.0669459471594779 0.651688740469915 0 0 0 0 0 0 0 0 0 -0.224217266652534 0 0 0 0 0 0 0 0 0 0 -1.57710185882572 0 0 0 -3.31673389327326 0 0 0 0 0 0 0 0 0 0 0 0 0 0 -3.36072402024704 0 0 0
0 0 0 0 0 0 0 0 0 0.0684681665884363 0 0.179190760949223 0.516491432411275 0.0325423440042799 0.0613572770065243 0 0 -0.224217266652534 0 0 0 0 0 -1.83651308699141 0 0 0 -0.557957794852795 0 0 0 0 0 0 0 0 0 0 0 0 0 0 0 0 0 0 -0.432380716136455 0 0 0
0 0 0 0 0 2.14016427637155 0 0.123980214090262 0 0 0 0 0 0 0 0 0 0 -0.224217266652534 0 0 0 0 -2.01337759159449 0 0 0 0 0 0 0 0 0 0 0 0 0 0 0 0 0 0 -0.114847934775274 0 0 0 -1.40798744030668 0 0 0
0 0 0 0 0 0 0.300257614755328 0.0791090312873719 0.0667918419135599 0 0 0 0 0 0 0 0 0 0 -0.224217266652534 0 0 -3.47969404708315 -0.418341367549675 0 0 0 0 0 0 0 0 0 0 0 0 0 0 0 0 0 0 -0.901551538329587 0 0 0 0 0 0 0
0 0 0 0 0 0 0 0 0 0 0 0 0 0 0 0 0 0 0 0 -0.224217266652534 0 -5.282952642951 -0.669926898697455 0 0 -0.495233695118416 0 0 0 0 0 0 0 0 0 0 0 0 0 0 0 0 0 0 0 0 0 0 0
0 0 0 0 0 0 0 0 0 0 0 0 0 0 0 0.532925011766286 0 0 0 0 0 -0.224217266652534 -5.30388296019693 -0.322310847296913 0 0 -1.02952772175524 0 0 0 0 0 0 0 0 0 0 0 0 0 0 -0.716100909895278 -0.471325835156627 0 0 0 0 0 0 0
0 0 0 0 0 0 0 0 0 0 0 0 0 0 0 0 0 0 0 0.682789444596074 0.96120580099573 1.0620157229123 -0.224217266652534 0 0 0 0 0 0 0 0 0 0 0 0 0 0 0 0 0 0 0 -3.27326755330591 0 0 0 0 0 0 -1.094010995771
0 0 0 0 0 0 0 0 0 0 0 0 0 0 0 0 0 0.338150423774129 0.400682348105499 0.0800208824335758 0.131518249702718 0.0701100457716875 0 -0.224217266652534 -0.233456897534487 0 0 0 0 0 0 0 -1.26050077262984 0 0 0 0 0 0 0 0 0 0 0 0 0 0 0 0 0
0 0 0 0 0 0 0 0 0 0 0 0 0 0 0 0 0 0 0 0 0 0 0 0.0410708822875007 -0.224217266652534 0 0 0 0 0 0 0 -2.59754855552364 0 0 0 0 0 0 0 0 0 0 0 0 0 0 0 0 0
0 0 0 0 0 0 0 0 0 0 0 0 0 0 0 0 0 0 0 0 0 0 0 0 0 -0.224217266652534 0 0 0 0 0 0 -0.927940961313093 0 0 0 0 0 0 0 -0.224099229442594 0 0 0 0 0 0 0 0 0
0 0 0 0 0 0 0 0 0 0 0 0 0 0 0 0 0 0 0 0 0.101705614957989 0.206810158460669 0 0 0 0 -0.224217266652534 0 0 0 0 0 -1.17008845692259 0 0 0 0 0 0 0 0 0 0 0 0 0 0 0 0 0
0 0 0 0 0 0 0.13249323228901 0 0.198506970934731 0.740829327286936 0.15752694921256 0 0.453427795897732 0.183608278189418 0 0 0.337397846732895 0.1188167705278 0 0 0 0 0 0 0 0 0 -0.224217266652534 0 0 0 0 -3.21160443778517 0 0 0 0 0 0 0 -1.06529930906683 0 0 0 0 0 0 0 0 0
0 0 0 0 0.0924094811000569 0 0 0 0 0 0 0 0 0 0 0 0 0 0 0 0 0 0 0 0 0 0 0 -0.224217266652534 0 0 0 -0.817761628276982 0 0 0 0 0 0 0 -3.69522900552895 0 0 0 0 0 0 0 0 0
0 0 0 0 0 0 0 0 0 0 0 0 0 0 0 0 0 0 0 0 0 0 0 0 0 0 0 0 0 -0.224217266652534 0 0 -0.916806272112924 0 0 0 0 0 0 0 -0.403564753708282 0 0 0 0 0 0 0 0 0
0 0 0 0 0 0 0 0 0 0 0 0 0 0 0 0 0 0 0 0 0 0 0 0 0 0 0 0 0 0 -0.224217266652534 0 0 0 0 0 0 0 0 0 -1.55568410616336 0 0 0 0 -1.26381275947921 0 0 0 0
0 0 0 0 0 0 0 0 0 0 1.77197657237141 0 0.343900197399498 0 0.749716770072478 0.0571940189430527 0.676252149444964 0 0 0 0 0 0 0 0 0 0 0 0 0 0 -0.224217266652534 0 0 0 0 0 0 0 0 -4.42539356319705 0 0 0 0 0 0 0 0 0
0 0 0 0 0 0 0 0 0 0 0 0 0 0 0 0 0 0 0 0 0 0 0 0.247506876449845 0.503709900689912 0.182914856218939 0.235401592423596 0.68468577984434 0.162371092419989 0.186935689717395 0 0 -0.224217266652534 0 0 0 0 0 0 0 -2.57537321317445 0 0 0 0 -0.168505658667851 0 0 0 0
0 0 0 0.259319411890444 0.476517890959004 0.452265032866685 0.436750102841369 0.748668042691684 0.357067430528701 0 0 0 0 0 0 0 0 0 0 0 0 0 0 0 0 0 0 0 0 0 0 0 0 -0.224217266652534 0 0 0 0 0 0 -1.14362147637141 0 0 0 0 -0.567028300285168 0 0 0 0
0 0 0 0 0 0 0.24478076337103 0.18735353728716 0 0 0 0 0 0 0 0 0 0 0 0 0 0 0 0 0 0 0 0 0 0 0 0 0 0 -0.224217266652534 0 0 0 0 0 0 0 0 0 0 0 0 0 0 0
0 0 0 0 0.138912498790851 0 0 0 0 0 0 0 0 0 0 0 0 0 0 0 0 0 0 0 0 0 0 0 0 0 0 0 0 0 0 -0.224217266652534 0 0 0 0 -0.422662377741824 0 0 0 0 -0.674710315301186 0 0 0 0
0 0 0 0 0 0 0 0 0 0 0 0 0 0 0 0 0 0 0 0 0 0 0 0 0 0 0 0 0 0 0 0 0 0 0 0 -0.224217266652534 0 0 0 -0.967980650083902 0 0 0 0 -0.179198956752332 0 0 0 0
0 0 0 0 0 0 0 0 0 0 0 0 0 0 0 0 0 0 0 0 0 0 0 0 0 0 0 0 0 0 0 0 0 0 0 0 0 -0.224217266652534 0 0 0 0 0 0 0 -1.26045591332303 0 0 0 0
0 0.201579562082718 0.0406029386397665 0.366881309388525 0 0.258194292966227 0.500729485816249 0 0.0363799464645417 0.146855247242629 0 0 0 0 0 0 0 0 0 0 0 0 0 0 0 0 0 0 0 0 0 0 0 0 0 0 0 0 -0.224217266652534 0 0 0 0 0 0 -1.98439414009525 0 0 0 0
0 0 0 0 0 0 0 0 0 0 0 0 0 0 0 0 0 0 0 0 0 0 0 0 0 0 0 0 0 0 0 0 0 0 0 0 0 0 0 -0.224217266652534 0 0 0 0 0 -1.5705780192463 0 0 0 0
0 0 0 0 0 0 0 0 0 0 0 0 0 0 0 0 0 0 0 0 0 0 0 0 0 0.043232516264498 0 0.207852854846485 0.712724423175253 0.074118349148915 0.320485032923394 0.973750837281142 0.493153562475205 0.234275216444583 0 0.0828939472903583 0.183831968167579 0 0 0 -0.224217266652534 0 0 0 0 0 0 0 0 0
0 0 0 0 0 0 0 0 0 0 0 0 0 0 0 0 0 0 0 0 0 0.130646030455621 0 0 0 0 0 0 0 0 0 0 0 0 0 0 0 0 0 0 0 -0.224217266652534 0 0 0 0 0 0 0 0
0 0 0 0 0 0 0 0 0 0 0 0 0 0 0 0 0 0 0.0235940308199903 0.155737456868993 0 0.0981672101986429 0.696174097871439 0 0 0 0 0 0 0 0 0 0 0 0 0 0 0 0 0 0 0 -0.224217266652534 0 0 0 0 0 0 0
0.0543248521417567 0.319531887068187 0.41792192784568 0.420906150900171 0.182941382924298 0.106990355679134 0.200877690931184 0.114993228356149 0 0 0 0 0 0 0 0 0 0 0 0 0 0 0 0 0 0 0 0 0 0 0 0 0 0 0 0 0 0 0 0 0 0 0 -0.224217266652534 0 0 0 0 0 0
0 0 0 0 0 0.0626821852873821 0.109798078669458 0.0820973180083358 1.11979767561788 0.212481371080462 0 0 0 0 0 0 0 0 0 0 0 0 0 0 0 0 0 0 0 0 0 0 0 0 0 0 0 0 0 0 0 0 0 0 -0.224217266652534 0 0 0 0 0
0 0 0 0 0 0 0 0 0 0 0 0 0 0 0 0 0 0 0 0 0 0 0 0 0 0 0 0 0 0 0.2377483352251 0 0.0326650487122963 0.109370716512997 0 0.133320659082324 0.0362598176617492 0.263076258973874 0.413790706768383 0.313049727334097 0 0 0 0 0 -0.224217266652534 0 0 0 0
0 0 0 0 0.37968799051764 0 0.174850921328615 0.681848759668978 0.435337109947131 0.101403452921838 0 0.150428131064365 0.0469896245341955 0.655837897825869 0 0.0952177588595142 0.677262802580777 0.0840266956539766 0.28485871362017 0 0 0 0 0 0 0 0 0 0 0 0 0 0 0 0 0 0 0 0 0 0 0 0 0 0 0 -0.224217266652534 0 0 0
0 0 0 0 0 0 0 0 0 0 0.308967298294357 0.266968334294844 0.0525238565860303 0 0 0 0 0 0 0 0 0 0 0 0 0 0 0 0 0 0 0 0 0 0 0 0 0 0 0 0 0 0 0 0 0 0 -0.224217266652534 0 0
0 0 0 0 0 0 0 0 0 0 0.188220308817127 0 0 0 0 0 0 0 0 0 0 0 0 0 0 0 0 0 0 0 0 0 0 0 0 0 0 0 0 0 0 0 0 0 0 0 0 0 -0.224217266652534 0
0 0 0 0 0 0 0 0 0 0 0 0 0 0 0 0 0 0 0 0 0 0 0.231926517131 0 0 0 0 0 0 0 0 0 0 0 0 0 0 0 0 0 0 0 0 0 0 0 0 0 0 -0.224217266652534
