0.298219490614308
0.599473594230746
4.11055266621247
9.28751949683332
0.314241787854398
0.652592849977194
0.388811055760572
0.945635375280892
0.676039274324067
1.06794183314794
1.60625981443931
0.325541226570488
0.400762782954101
1.21832730266075
1.47787277498701
1.40614673042804
0.543461356295638
0.75293554026001
1.27578131089274
0.355731714240367
1.20263277848717
3.09492220166574
0.579057628012374
4.55938410870228
2.18040245305209
0.268054119299073
1.08299006385703
0.618343754554632
0.832822902768755
0.887639609555553
2.42256140575786
8.83695332744909
1.7101740451719
0.156425772338874
0.496231394708918
1.47691561853337
1.16801489682731
1.43110440112332
4.58888916942292
2.6114791570053
0.418600282709005
1.66686068615607
0.230302739412708
0.995635143042267
0.584384711906466
0.679265768820944
0.505861336551452
0.123988652195129
1.04992729665382
0.287778927540441
