-0.141387298274667 0 -1.11609153624437 0 0 -2.53096591275641 0 0 0 0 0 0 0 0 0 0 0 0 0 0 -0.168895326705861 0 0 0 0 0 0 0 0 0 0 0 -0.600680834406199 0 0 0 0 0 0 0 0 0 0 0 0 0 0 0 0 0
0 -0.141387298274667 0 0 0 0 0 0 0 -0.268145197598315 0 0 0 0 0 0 0 0 0 -0.434902157172085 -1.22622133215435 -0.451134420497532 0 0 0 0 0 0 0 0 0 0 0 0 0 0 0 0 0 0 0 0 0 0 0 0 0 0 0 0
0.21529218568214 0 -0.141387298274667 0 0 0 0 0 0 0 0 0 0 0 0 0 0 0 0 -1.78018650153873 -0.980495561617676 0 0 0 0 0 0 0 0 0 0 0 0 0 0 0 0 0 0 0 0 0 0 0 0 0 0 0 0 0
0 0 0 -0.141387298274667 0 0 -6.78774996630366 0 0 0 0 0 0 0 0 0 0 0 0 -1.08583903416659 0 0 0 0 0 0 0 0 0 0 0 0 0 0 0 0 0 0 0 0 0 0 0 0 0 0 0 0 0 0
0 0 0 0 -0.141387298274667 0 0 0 0 0 0 0 0 0 0 0 0 0 0 -3.92807311441047 -3.21548003907005 0 0 0 0 0 0 0 0 0 0 0 0 0 0 0 0 0 0 0 0 0 0 0 0 0 0 0 0 0
0.55359076626324 0 0 0 0 -0.141387298274667 0 0 0 0 0 0 0 0 0 0 0 0 0 -0.154736381596854 0 0 0 0 0 0 0 0 0 0 0 0 0 0 0 0 0 0 0 0 0 0 0 0 0 0 0 0 -0.49775253247786 0
0 0 0 1.31960361162503 0 0 -0.141387298274667 0 0 0 0 0 0 0 0 0 0 0 0 0 0 0 0 0 0 0 0 0 0 0 0 0 0 0 0 0 0 0 0 0 0 0 0 0 0 0 0 0 -1.37499620533558 0
0 0 0 0 0 0 0 -0.141387298274667 0 0 0 0 0 -0.234781247679957 0 0 0 0 0 -6.22911491953757 0 0 0 0 0 0 0 0 0 0 0 0 0 0 0 0 0 0 0 0 0 0 0 0 0 0 0 0 -1.04421670159551 0
0 0 0 0 0 0 0 0 -0.141387298274667 0 0 0 0 -0.484157796227147 0 0 0 0 0 -1.89154342746418 0 0 0 0 0 0 0 0 0 0 0 0 0 0 0 0 0 0 0 0 0 0 0 0 0 0 0 0 0 0
0 0.051175563854869 0 0 0 0 0 0 0 -0.141387298274667 0 0 0 -2.4561064095607 -1.89841887098744 0 0 0 0 -1.41156973660097 0 0 0 0 0 0 0 0 0 0 0 0 0 0 0 0 0 0 0 0 0 0 0 0 0 0 0 0 -0.69049158190379 0
0 0 0 0 0 0 0 0 0 0 -0.141387298274667 0 0 0 -0.234008476534557 0 0 0 0 -1.56312986025779 0 0 0 0 0 0 0 0 0 0 0 0 0 0 0 0 0 0 0 0 0 0 0 0 0 0 0 0 0 0
0 0 0 0 0 0 0 0 0 0 0 -0.141387298274667 0 0 -1.26234574286691 0 -1.58284150196055 0 -0.597409434397787 -0.898677672088152 0 0 0 0 0 0 0 0 0 0 0 0 0 -2.12940260579095 0 0 0 0 0 0 0 0 -0.372141676533019 -1.4767651546493 0 0 0 0 0 0
0 0 0 0 0 0 0 0 0 0 0 0 -0.141387298274667 0 0 0 -0.954299295631068 0 -2.24175235217484 -0.581914039911709 0 0 0 0 0 0 0 0 0 0 0 0 0 0 0 0 0 0 0 0 0 0 -0.272512078058735 -1.06544974944717 0 0 0 0 0 0
0 0 0 0 0 0 0 0.0447049164727856 0.0914387933895281 0.498578226814771 0 0 0 -0.141387298274667 0 0 -0.579428651116837 0 -0.598345967993821 0 0 0 0 0 0 0 0 0 0 0 0 0 0 0 0 0 0 0 0 0 0 0 0 -1.55212333050965 0 0 0 0 0 0
0 0 0 0 0 0 0 0 0 0.364768736622118 0.0463816182703261 0.239799786572032 0 0 -0.141387298274667 0 -0.39520349549101 0 -0.501920813770165 0 0 0 0 0 0 0 0 0 0 0 0 0 0 0 0 0 0 0 0 0 0 0 0 -4.12198954722508 0 0 0 0 0 0
0 0 0 0 0 0 0 0 0 0 0 0 0 0 0 -0.141387298274667 0 0 -0.627736055906714 0 0 0 0 -3.29075386862814 0 0 0 0 0 0 0 0 0 0 0 0 0 0 0 0 0 0 0 0 0 0 0 0 0 0
0 0 0 0 0 0 0 0 0 0 0 0.295696020635007 0.202339421885252 0.113902015843536 0.0791071155666215 0 -0.141387298274667 0 -1.38549740590983 0 0 0 0 0 0 0 0 0 0 0 0 0 0 0 0 0 0 0 0 0 0 0 -0.389141581683219 0 0 0 0 0 0 0
0 0 0 0 0 0 0 0 0 0 0 0 0 0 0 0 0 -0.141387298274667 0.388841995202603 0 0 0 0 0 0 0 -1.26716185662747 0 0 -0.31484185253227 0 -0.0793401971972207 0 0 0 0 0 0 0 0 0 0 0 0 0 0 0 0 0 0
0 0 0 0 0 0 0 0 0 0 0 0.117320719143483 0.465471968591826 0.123618483873739 0.0926985966214566 0.11686216069584 0.287595292540042 -1.87007888430587 -0.141387298274667 0 0 0 0 0 0 0 -0.61578702952139 0 -1.71018955935588 -0.463255640949519 0 -1.46099236663881 0 0 0 0 0 0 0 0 0 0 0 0 0 0 0 0 0 0
0 0.0822097505346114 0.340090591662284 0.224111803089737 0.767709428258023 0.0301118146941246 0 1.2420250945382 0.360423192921948 0.249061890299215 0.299758783474771 0.191546700519487 0.107821461947757 0 0 0 0 0 0 -0.141387298274667 0 0 0 0 0 -0.197441997445686 0 0 0 0 0 -3.09436108941154 0 0 0 -0.732730431008109 0 0 0 0 0 0 0 0 0 0 0 0 0 0
0.0330735607608984 0.264631878790008 0.215752224636953 0 0.635139354015791 0 0 0 0 0 0 0 0 0 0 0 0 0 0 0 -0.141387298274667 0 0 0 0 0 0 0 -0.382932133345691 0 0 0 0 0 0 -1.1567927194816 0 0 -0.832993855610683 0 0 0 0 0 0 0 0 0 0 0
0 0.0936603944880998 0 0 0 0 0 0 0 0 0 0 0 0 0 0 0 0 0 0 0 -0.141387298274667 0 0 0 0 0 0 -7.98598912468737 -1.01664539260638 0 0 0 0 0 -1.9610751763849 0 0 0 0 -0.208523178180468 0 0 0 0 0 0 0 0 0
0 0 0 0 0 0 0 0 0 0 0 0 0 0 0 0 0 0 0 0 0 0 -0.141387298274667 0 0 0 0 0 0 -3.52606595934606 0 0 0 0 0 0 0 0 0 0 0 0 0 0 0 0 0 0 0 0
0 0 0 0 0 0 0 0 0 0 0 0 0 0 0 0.65177676953891 0 0 0 0 0 0 0 -0.141387298274667 0 0 0 0 0 -1.75084405405798 0 0 0 0 0 -0.54204393866746 0 0 0 0 -2.31664143311684 0 0 0 0 0 0 0 0 0
0 0 0 0 0 0 0 0 0 0 0 0 0 0 0 0 0 0 0 0 0 0 0 0 -0.141387298274667 0 0 0 0 -3.33747566058354 0 0 0 0 0 -0.126660173635852 0 0 0 0 0 0 0 0 0 0 0 0 0 0
0 0 0 0 0 0 0 0 0 0 0 0 0 0 0 0 0 0 0 0.0375586472232593 0 0 0 0 0 -0.141387298274667 0 0 0 -0.365137178650679 0 0 0 0 -1.21307776520415 -1.17565591216875 0 0 0 0 0 0 0 0 0 -0.973724814056053 0 0 0 0
0 0 0 0 0 0 0 0 0 0 0 0 0 0 0 0 0 0.247769303985653 0.113891214842635 0 0 0 0 0 0 0 -0.141387298274667 0 0 0 0 0 0 0 -0.709996451268361 0 0 0 0 0 -0.753043424845742 0 0 0 0 -0.481063219958293 0 0 0 0
0 0 0 0 0 0 0 0 0 0 0 0 0 0 0 0 0 0 0 0 0 0 0 0 0 0 0 -0.141387298274667 0 0 0 0 0 0 -3.20856376650408 -0.856399690525827 0 0 0 0 0 0 0 0 0 -0.460545232220495 -1.21706520783218 -3.46919538035814 0 0
0 0 0 0 0 0 0 0 0 0 0 0 0 0 0 0 0 0 0.333436178558981 0 0.0759158542262013 1.53678106396918 0 0 0 0 0 0 -0.141387298274667 0 0 0 0 0 -1.67934487969295 0 -0.91887030600231 -2.57106622483085 0 0 -1.26283269187886 0 0 0 0 0 0 -0.352098033286855 0 0
0 0 0 0 0 0 0 0 0 0 0 0 0 0 0 0 0 0.061620347031677 0.090371902950681 0 0 0.19992040109062 0.723473956211995 0.36135359020487 0.741249659697731 0.0756160997414903 0 0 0 -0.141387298274667 0 0 0 0 0 0 -1.3519629575362 0 0 0 0 0 0 0 0 -2.93585152096122 -1.30498362497173 -1.02544465859972 0 0
0 0 0 0 0 0 0 0 0 0 0 0 0 0 0 0 0 0 0 0 0 0 0 0 0 0 0 0 0 0 -0.141387298274667 0 0 0 -1.71649543592919 0 0 0 0 0 0 0 0 0 0 0 -0.433529915738674 -0.952031474951627 0 -0.406980458717769
0 0 0 0 0 0 0 0 0 0 0 0 0 0 0 0 0 0.0158431529925374 0.313513991056532 0.597186836163812 0 0 0 0 0 0 0 0 0 0 0 -0.141387298274667 0 0 0 0 -0.221953786955578 0 0 -0.710231651952618 0 -0.827323873995413 0 0 -0.357230416271303 0 0 0 0 -2.56531281118491
0.127700299263462 0 0 0 0 0 0 0 0 0 0 0 0 0 0 0 0 0 0 0 0 0 0 0 0 0 0 0 0 0 0 0 -0.141387298274667 0 0 0 0 0 0 0 0 -1.12658645232817 0 0 -1.45840154290843 0 -2.04641565471325 0 0 0
0 0 0 0 0 0 0 0 0 0 0 0.428411428480462 0 0 0 0 0 0 0 0 0 0 0 0 0 0 0 0 0 0 0 0 0 -0.141387298274667 0 0 -1.1520047410571 0 0 -0.809201271323382 0 -0.982949177163721 0 0 -0.420395162994349 0 -1.01182276100911 0 0 -0.355482940690602
0 0 0 0 0 0 0 0 0 0 0 0 0 0 0 0 0 0 0 0 0 0 0 0 0 0.228592625374466 0.139228105756437 0.660635328068342 0.309607701555384 0 0.34253368479159 0 0 0 -0.141387298274667 0 0 0 0 -2.83886113202702 0 0 0 0 -5.72489422820317 0 -4.13969185777588 0 0 -0.400954034194148
0 0 0 0 0 0 0 0 0 0 0 0 0 0 0 0 0 0 0 0.15168521609405 0.229942593205249 0.417983130825568 0 0.102244068806637 0.0231836642927083 0.236137818511346 0 0.158823286180899 0 0 0 0 0 0 0 -0.141387298274667 0 0 0 -0.9054563990154 0 -0.700590859431931 0 0 -0.207575606413179 0 -1.68216923506696 0 0 -1.84745418832328
0 0 0 0 0 0 0 0 0 0 0 0 0 0 0 0 0 0 0 0 0 0 0 0 0 0 0 0 0.193663383323872 0.27179601760687 0 0.0436295901703267 0 0.245588548850513 0 0 -0.141387298274667 0 0 0 0 -1.43459704186996 0 0 -0.997975378696641 0 -1.24122380603862 0 0 -0.291835437819009
0 0 0 0 0 0 0 0 0 0 0 0 0 0 0 0 0 0 0 0 0 0 0 0 0 0 0 0 0.533933506448118 0 0 0 0 0 0 0 0 -0.141387298274667 0 0 0 -0.909457378427092 0 0 0 0 0 0 0 -1.11190911122064
0 0 0 0 0 0 0 0 0 0 0 0 0 0 0 0 0 0 0 0 0.173531071450876 0 0 0 0 0 0 0 0 0 0 0 0 0 0 0 0 0 -0.141387298274667 0 0 0 0 0 0 0 0 0 0 -1.95564776888804
0 0 0 0 0 0 0 0 0 0 0 0 0 0 0 0 0 0 0 0 0 0 0 0 0 0 0 0 0 0 0 0.139119393553083 0 0.169276960798207 0.512934797602328 0.182488386334262 0 0 0 -0.141387298274667 0 0 0 0 0 0 0 0 0 0
0 0 0 0 0 0 0 0 0 0 0 0 0 0 0 0 0 0 0 0 0 0.0424583267129098 0 0.428900639304389 0 0 0.156726077562821 0 0.249008747206201 0 0 0 0 0 0 0 0 0 0 0 -0.141387298274667 0 0 0 0 0 0 0 0 0
0 0 0 0 0 0 0 0 0 0 0 0 0 0 0 0 0 0 0 0 0 0 0 0 0 0 0 0 0 0 0 0.167811223922757 0.242532668502839 0.177536327150652 0 0.141259737705539 0.293388580505481 0.193430673198075 0 0 0 -0.141387298274667 0 0 0 0 0 0 0 0
0 0 0 0 0 0 0 0 0 0 0 0.0798865110073053 0.0586590775776054 0 0 0 0.0820932471372826 0 0 0 0 0 0 0 0 0 0 0 0 0 0 0 0 0 0 0 0 0 0 0 0 0 -0.141387298274667 0 0 0 0 0 0 -0.206709865049883
0 0 0 0 0 0 0 0 0 0 0 0.282674164903504 0.217230895342984 0.306923307698859 0.816814508009289 0 0 0 0 0 0 0 0 0 0 0 0 0 0 0 0 0 0 0 0 0 0 0 0 0 0 0 0 -0.141387298274667 0 0 0 0 0 -0.268317956944612
0 0 0 0 0 0 0 0 0 0 0 0 0 0 0 0 0 0 0 0 0 0 0 0 0 0 0 0 0 0 0 0.0770752286083618 0.294382371204079 0.0841579681624891 1.11762145843882 0.0448649222169804 0.204464036484943 0 0 0 0 0 0 0 -0.141387298274667 0 0 0 0 0
0 0 0 0 0 0 0 0 0 0 0 0 0 0 0 0 0 0 0 0 0 0 0 0 0 0.200280859640922 0.0983767092675287 0.091038046716365 0 0.643326494195512 0 0 0 0 0 0 0 0 0 0 0 0 0 0 0 -0.141387298274667 0 0 0 -0.416970361296064
0 0 0 0 0 0 0 0 0 0 0 0 0 0 0 0 0 0 0 0 0 0 0 0 0 0 0 0.227194585903876 0 0.255078864559991 0.0887555904913022 0 0.414149278813 0.203524546963137 0.874560742186541 0.363399158355257 0.262279853208445 0 0 0 0 0 0 0 0 0 -0.141387298274667 0 0 -0.327735902708049
0 0 0 0 0 0 0 0 0 0 0 0 0 0 0 0 0 0 0 0 0 0 0 0 0 0 0 0.694519025577141 0.074739901785337 0.221849431434343 0.181129673251599 0 0 0 0 0 0 0 0 0 0 0 0 0 0 0 0 -0.141387298274667 0 -4.12027655107536
0 0 0 0 0 0.0981467773167934 0.266979256160328 0.19969543236372 0 0.135773193572351 0 0 0 0 0 0 0 0 0 0 0 0 0 0 0 0 0 0 0 0 0 0 0 0 0 0 0 0 0 0 0 0 0 0 0 0 0 0 -0.141387298274667 -1.1874754398727
0 0 0 0 0 0 0 0 0 0 0 0 0 0 0 0 0 0 0 0 0 0 0 0 0 0 0 0 0 0 0.0804526393774911 0.496550390466482 0 0.0692286828952368 0.0786389082746646 0.400955787870536 0.0536021363757323 0.21792474520045 0.415038003401523 0 0 0 0.039387748726409 0.0501430047604723 0 0.0796363258919302 0.0656287991113968 0.877785164676857 0.240697100700599 -0.141387298274667
