-0.220572674584364 0 0 0 0 0 0 0 0 0 0 0 0 0 0 0 0 0 0 0 -0.5144883848733 0 -0.460886504475784 0 0 0 0 0 0 0 0 0 0 0 0 0 0 0 0 0 0 0 0 0 0 0 0 0 0 0
0 -0.220572674584364 0 0 0 0 0 0 0 0 0 0 0 0 0 0 0 0 0 0 -0.710582405875168 0 -0.108898493798554 0 0 0 0 0 0 0 0 0 0 0 0 0 0 0 0 0 0 0 0 0 0 0 0 0 0 0
0 0 -0.220572674584364 0 0 0 0 0 0 0 0 0 0 0 0 0 0 0 0 0 -0.96771513522405 0 -1.59315296005808 0 0 0 0 0 0 0 0 0 0 0 0 0 0 0 0 0 0 0 0 0 0 0 0 0 0 0
0 0 0 -0.220572674584364 0 -1.03464347873425 0 0 -0.22810350438867 0 0 0 0 -0.272097975783196 0 0 0 0 0 -1.17941495178892 0 0 -4.40619113657895 0 0 0 0 0 0 0 0 0 0 0 0 0 0 0 0 0 0 0 0 0 0 0 0 0 0 0
0 0 0 0 -0.220572674584364 -4.08697373788477 0 0 0 0 0 0 0 -0.486265812476004 0 0 0 0 0 -0.10192903552816 0 0 -0.735998664919463 0 0 0 0 0 0 0 0 0 0 0 0 0 0 0 -0.319813924027327 0 0 0 0 0 0 0 0 0 0 0
0 0 0 0.213431303058366 0.833277261345261 -0.220572674584364 0.138992582034769 0 0 0 0 0 0 -1.06420419680496 0 0 0 0 0 0 0 0 -2.26834131448903 0 0 0 0 0 0 0 0 0 0 0 0 0 0 0 -0.430299221409572 0 0 0 0 0 0 0 0 0 0 0
0 0 0 0 0 -0.728031138176009 -0.220572674584364 0 0 0 0 0 0 0 0 0 0 0 0 -1.92475201334631 0 0 0 0 0 0 0 0 0 0 0 0 0 0 0 0 0 0 0 0 0 0 0 0 0 0 0 0 0 0
0 0 0 0 0 0 0 -0.220572674584364 0 0 0 0 0 0 0 0 0 0 0 0 0 0 0 0 0 0 0 0 0 0 0 0 0 0 0 -1.65218009757746 0 0 -1.70467581041582 0 0 0 0 -0.537527328580706 0 0 0 0 0 0
0 0 0 0.0462988476261414 0 0 0 0 -0.220572674584364 0 0 0 0 0 0 0 0 0 0 0 0 0 0 0 0 0 0 0 0 0 0 0 0 0 0 -2.26064026293488 0 0 -0.953969132776209 0 0 0 0 -4.80999713286459 0 0 0 0 0 0
0 0 0 0 0 0 0 0 0 -0.220572674584364 0 0 0 0 -3.48438819529828 -0.690819079120492 0 0 0 0 0 0 0 0 0 0 -1.59425054703748 0 0 0 0 0 0 0 0 0 0 0 -0.189983256617704 0 0 -8.82807448530464 0 0 0 0 0 0 0 0
0 0 0 0 0 0 0 0 0 0 -0.220572674584364 0 0 0 -0.935065326354847 -1.37955589374 0 0 0 0 0 0 0 0 0 0 0 0 0 0 0 -0.558668988907176 0 0 0 0 0 0 -0.687632568268446 0 0 -1.50453457145553 0 0 0 0 0 0 0 0
0 0 0 0 0 0 0 0 0 0 0 -0.220572674584364 0 0 -0.406005295839244 0 0 0 0 0 0 0 0 0 -0.446000735896525 0 0 0 0 0 0 -0.61327016213455 0 0 0 0 0 0 0 0 0 -1.01199970860256 0 0 0 0 0 0 0 0
0 0 0 0 0 0 0 0 0 0 0 0 -0.220572674584364 0 -0.172124777230779 -0.273809846782634 0 0 0 0 0 0 0 0 -1.76743048241987 0 0 0 0 0 0 0 0 0 0 0 0 0 -0.193872882486878 0 0 0 0 0 0 -2.25710763036831 0 0 0 0
0 0 0 0.053004417816206 0.0911525082433656 0.20927985191887 0 0 0 0 0 0 0 -0.220572674584364 -3.61391273658242 0 0 0 0 0 0 0 0 0 0 0 0 0 0 0 0 -0.0639028155143814 0 0 0 0 0 0 -2.5770838738191 0 0 -0.474552011346252 0 0 0 -0.899384362224776 0 0 0 0
0 0 0 0 0 0 0 0 0 0.717443504082575 0.178749186471046 0.0813090919302997 0.0320211340965055 0.713094577434274 -0.220572674584364 0 0 0 0 0 0 0 0 0 0 0 0 0 0 0 0 0 0 0 0 0 0 0 -2.03890192553436 0 0 0 0 0 0 -0.136138436135408 0 0 0 0
0 0 0 0 0 0 0 0 0 0.133296424906403 0.3043984991993 0 0.0507949436368293 0 0 -0.220572674584364 0 0 0 0 0 0 0 0 0 0 0 0 -0.345045204678562 0 0 0 0 -0.894117071733493 0 0 0 0 0 0 0 -0.973067560419563 0 0 0 0 0 0 0 0
0 0 0 0 0 0 0 0 0 0 0 0 0 0 0 0 -0.220572674584364 0 0 0 0 0 0 0 0 0 0 0 -0.632552890449588 0 0 0 0 -0.362330851929099 -0.447146428812084 0 0 0 -1.03113595584009 0 0 -0.929821623368437 0 0 0 -1.67920682051415 0 0 0 0
0 0 0 0 0 0 0 0 0 0 0 0 0 0 0 0 0 -0.220572674584364 0 0 0 0 0 -1.48323428634694 0 0 0 0 -2.24102285972938 0 0 0 0 -0.590610978776294 -0.296570159877964 0 0 0 0 0 0 0 0 0 0 -1.18140610228051 0 0 0 0
0 0 0 0 0 0 0 0 0 0 0 0 0 0 0 0 0 0 -0.220572674584364 0 0 0 0 -0.222671309710312 0 0 0 0 -0.351323431803608 0 0 0 0 -2.56820768585788 0 0 0 0 -5.91121338213366 0 0 -1.80116625994464 0 0 0 0 0 0 0 0
0 0 0 0.23438258887536 0.0192173500368969 0 0.370161702637219 0 0 0 0 0 0 0 0 0 0 0 0 -0.220572674584364 0 0 0 -0.328862224528685 0 0 0 0 -1.61123126350976 0 0 0 0 -0.718237298233877 0 0 0 0 -2.8653164256651 0 0 -1.16546896115236 0 0 0 -0.454557584947344 0 0 0 0
0.0974756169229837 0.152153851951546 0.190000483954569 0 0 0 0 0 0 0 0 0 0 0 0 0 0 0 0 0 -0.220572674584364 0 0 0 0 0 0 0 -0.140832712815883 0 0 0 0 -2.91983963575904 0 0 0 0 0 0 0 -2.00821361438922 0 0 0 -2.39639524646567 -0.919920285146868 0 0 0
0 0 0 0 0 0 0 0 0 0 0 0 0 0 0 0 0 0 0 0 0 -0.220572674584364 0 0 0 -0.43688246901214 0 -0.199619377972458 -5.13223952968198 0 0 0 0 -0.381886507305757 0 0 0 0 0 0 0 0 0 0 0 -1.83768621798519 0 0 0 0
0.100349525998807 0.0216078546441319 0.296729771436445 0.835189667737392 0.142135174863374 0.442057971915934 0 0 0 0 0 0 0 0 0 0 0 0 0 0 0 0 -0.220572674584364 0 0 0 0 -0.525767667524524 -1.18076861772769 0 0 0 0 -1.53497068484789 0 0 0 0 0 0 0 0 0 0 0 0 0 0 0 0
0 0 0 0 0 0 0 0 0 0 0 0 0 0 0 0 0 0.292236544438532 0.0416450138025654 0.0652348199339885 0 0 0 -0.220572674584364 0 0 0 0 0 0 0 0 -1.9286771031274 0 0 0 0 0 0 0 0 0 0 0 0 -1.4160881165959 -0.0427799391256225 0 0 0
0 0 0 0 0 0 0 0 0 0 0 0.0859513643298016 0.355673204067122 0 0 0 0 0 0 0 0 0 0 0 -0.220572674584364 0 0 0 0 0 0 0 -0.215574736973555 0 0 0 0 0 0 0 0 0 0 0 0 0 -4.94116504640568 0 0 0
0 0 0 0 0 0 0 0 0 0 0 0 0 0 0 0 0 0 0 0 0 0.0834105702970029 0 0 0 -0.220572674584364 0 0 0 0 0 0 -0.410702328786099 0 0 0 0 0 0 0 0 0 0 0 0 -4.99051877126802 -0.217296299341985 0 0 0
0 0 0 0 0 0 0 0 0 0.314911606396929 0 0 0 0 0 0 0 0 0 0 0 0 0 0 0 0 -0.220572674584364 0 0 0 0 0 0 0 0 0 0 0 0 -2.19655578802534 -8.36063780552255 0 0 0 0 -0.531519015695629 -3.02354514173447 0 0 0
0 0 0 0 0 0 0 0 0 0 0 0 0 0 0 0 0 0 0 0 0 0.0405941027098971 0.101017624821821 0 0 0 0 -0.220572674584364 0 0 0 0 0 0 0 0 0 0 0 -1.96540096420125 0 0 0 0 0 -5.54286870279614 -1.47191921979593 0 0 0
0 0 0 0 0 0 0 0 0 0 0 0 0 0 0 0.074030668861949 0.122425900599523 0.428524120206488 0.0714439999471762 0.297338268037878 0.0260121571588251 0.975445568079697 0.225261086797761 0 0 0 0 0 -0.220572674584364 0 -0.714213777655464 0 0 0 0 0 0 0 0 -1.50727149818023 0 0 0 0 0 -1.64942770123136 -0.193077940436684 0 -0.893258214270211 0
0 0 0 0 0 0 0 0 0 0 0 0 0 0 0 0 0 0 0 0 0 0 0 0 0 0 0 0 0 -0.220572674584364 -0.164551395731792 0 0 0 0 0 0 0 0 -0.561975262661887 -3.6475955959477 0 0 0 0 -1.05028438725941 -1.04400602774081 0 0 0
0 0 0 0 0 0 0 0 0 0 0 0 0 0 0 0 0 0 0 0 0 0 0 0 0 0 0 0 0.136607997923414 0.0324685319747963 -0.220572674584364 0 0 0 0 0 0 0 0 0 -0.925276404912892 0 0 0 0 -4.8221187997303 -5.04549026133517 0 0 0
0 0 0 0 0 0 0 0 0 0 0.109112012565521 0.120291989737737 0 0.0115084359432292 0 0 0 0 0 0 0 0 0 0 0 0 0 0 0 0 0 -0.220572674584364 0 0 0 0 0 0 0 0 0 0 0 0 0 -3.97460848987945 -0.73203457880681 0 0 -0.617185502249477
0 0 0 0 0 0 0 0 0 0 0 0 0 0 0 0 0 0 0 0 0 0 0 0.37848686207861 0.039418157238326 0.0837781118167314 0 0 0 0 0 0 -0.220572674584364 0 0 0 0 0 0 0 0 0 0 0 0 0 0 0 0 -1.22575122544342
0 0 0 0 0 0 0 0 0 0 0 0 0 0 0 0.179635373422001 0.0754660535668375 0.120868108048447 0.535779987140151 0.143340037926082 0.580230227735779 0.0788568328987715 0.332892809473324 0 0 0 0 0 0 0 0 0 0 -0.220572674584364 0 0 0 0 0 0 0 0 0 0 0 0 0 0 0 -0.595637078124935
0 0 0 0 0 0 0 0 0 0 0 0 0 0 0 0 0.0871004805744352 0.0596933761259913 0 0 0 0 0 0 0 0 0 0 0 0 0 0 0 0 -0.220572674584364 0 0 0 0 0 0 0 0 0 0 0 0 0 0 -3.21149376440169
0 0 0 0 0 0 0 0.338075633534139 0.457307456323036 0 0 0 0 0 0 0 0 0 0 0 0 0 0 0 0 0 0 0 0 0 0 0 0 0 0 -0.220572674584364 0 0 0 0 0 0 0 0 0 0 0 0 0 -5.56272712433391
0 0 0 0 0 0 0 0 0 0 0 0 0 0 0 0 0 0 0 0 0 0 0 0 0 0 0 0 0 0 0 0 0 0 0 0 -0.220572674584364 0 0 0 0 0 0 0 0 0 0 0 0 -0.145145348124703
0 0 0 0 0 0 0 0 0 0 0 0 0 0 0 0 0 0 0 0 0 0 0 0 0 0 0 0 0 0 0 0 0 0 0 0 0 -0.220572674584364 0 0 0 0 0 0 0 0 0 -0.961246293026569 0 -4.15949004518166
0 0 0 0 0.0589172508105658 0.0885773913668068 0 0.35164438675594 0.200553526173609 0.0368170077069341 0.139993239729678 0 0.0368196377665766 0.504757427981509 0.420248042958571 0 0.201614243836294 0 1.24940682923317 0.526209705575967 0 0 0 0 0 0 0 0 0 0 0 0 0 0 0 0 0 0 -0.220572674584364 0 0 0 0 0 0 0 0 0 0 -1.35122970100211
0 0 0 0 0 0 0 0 0 0 0 0 0 0 0 0 0 0 0 0 0 0 0 0 0 0 0.44996561435481 0.383655432447863 0.292013300955799 0.104787114069039 0 0 0 0 0 0 0 0 0 -0.220572674584364 0 0 0 0 0 0 0 -7.37886111821169 0 0
0 0 0 0 0 0 0 0 0 0 0 0 0 0 0 0 0 0 0 0 0 0 0 0 0 0 1.60875526466226 0 0 0.72556616096555 0.169393899000982 0 0 0 0 0 0 0 0 0 -0.220572674584364 0 0 0 0 0 0 0 0 0
0 0 0 0 0 0 0 0 0 1.81823361698783 0.284430697779067 0.207896648344297 0 0.0962480563589326 0 0.194890967734346 0.193394692190901 0 0.303320102632557 0.234484531346279 0.422490643229114 0 0 0 0 0 0 0 0 0 0 0 0 0 0 0 0 0 0 0 0 -0.220572674584364 0 0 0 0 0 -1.06575805632417 0 0
0 0 0 0 0 0 0 0 0 0 0 0 0 0 0 0 0 0 0 0 0 0 0 0 0 0 0 0 0 0 0 0 0 0 0 0 0 0 0 0 0 0 -0.220572674584364 0 0 0 0 -0.598201583018475 0 0
0 0 0 0 0 0 0 0.102103686802589 0.886501085445454 0 0 0 0 0 0 0 0 0 0 0 0 0 0 0 0 0 0 0 0 0 0 0 0 0 0 0 0 0 0 0 0 0 0 -0.220572674584364 0 0 0 -0.12389781044673 0 0
0 0 0 0 0 0 0 0 0 0 0 0 0 0 0 0 0 0 0 0 0 0 0 0 0 0 0 0 0 0 0 0 0 0 0 0 0 0 0 0 0 0 0 0 -0.220572674584364 0 0 -0.273328490945946 0 0
0 0 0 0 0 0 0 0 0 0 0 0 0.420330140304666 0.187626711025444 0.0280318224382385 0 0.327129874701204 0.224199645953484 0 0.0923796823004856 0.491479325096106 0.358398476022073 0 0.294163169609161 0 1.03888152374619 0.10774942985106 1.14304932749287 0.337033478711733 0.222383943277095 0.963774601155711 0.825662919644007 0 0 0 0 0 0 0 0 0 0 0 0 0 -0.220572674584364 0 0 0 0
0 0 0 0 0 0 0 0 0 0 0 0 0 0 0 0 0 0 0 0 0.179820120838015 0 0 0.00828116661296565 0.974456325707293 0.0436185190702727 0.59751177247382 0.331677004256235 0.0389505252852052 0.211941356663105 1.03394185700771 0.138861421294708 0 0 0 0 0 0 0 0 0 0 0 0 0 0 -0.220572674584364 0 0 0
0 0 0 0 0 0 0 0 0 0 0 0 0 0 0 0 0 0 0 0 0 0 0 0 0 0 0 0 0 0 0 0 0 0 0 0 0 0.191283208750094 0 1.44609819863007 0 0.199070585260125 0.116651798881895 0.0239366355600812 0.0528234627602054 0 0 -0.220572674584364 0 0
0 0 0 0 0 0 0 0 0 0 0 0 0 0 0 0 0 0 0 0 0 0 0 0 0 0 0 0 0.184596793342307 0 0 0 0 0 0 0 0 0 0 0 0 0 0 0 0 0 0 0 -0.220572674584364 0
0 0 0 0 0 0 0 0 0 0 0 0 0 0 0 0 0 0 0 0 0 0 0 0 0 0 0 0 0 0 0 0.123718615681038 0.226682572022217 0.122688943888701 0.663089356721104 1.08701160591412 0.030186197214226 0.804115934817247 0.264296064376713 0 0 0 0 0 0 0 0 0 0 -0.220572674584364
