-0.107850314736853 0 0 0 0 0 0 0 -0.920111922456593 0 0 0 0 0 0 0 0 0 0 0 0 0 0 0 0 0 0 0 0 0 0 0 0 0 0 0 0 0 0 0 0 0 0 0 0 0 0 0 0 0
0 -0.107850314736853 0 -1.94527236186617 0 0 0 -0.108780512323612 0 0 0 0 0 0 0 0 0 0 0 0 0 0 0 0 0 0 0 0 0 0 0 0 0 0 0 0 0 0 0 0 0 0 0 0 0 0 0 0 0 0
0 0 -0.107850314736853 -7.26973615411813 0 0 0 0 0 0 0 0 0 0 0 0 -5.39745123913919 0 0 0 0 0 0 0 0 0 0 0 0 0 0 0 0 0 0 0 0 0 0 -0.0806241247411918 0 0 0 0 0 0 0 0 0 0
0 0.425221440147108 1.4020637767426 -0.107850314736853 0 0 0 0 0 0 0 0 0 0 -0.627046622773805 0 0 0 0 0 0 0 0 0 0 0 0 0 0 0 0 0 0 0 0 0 0 0 0 -1.39002585423365 0 0 0 0 0 0 0 0 0 0
0 0 0 0 -0.107850314736853 0 0 0 0 0 0 0 0 0 -1.13488914608991 0 0 0 0 -0.392665799683994 0 0 0 0 0 0 0 0 0 0 0 0 0 0 0 0 0 0 0 0 0 0 0 0 0 0 0 0 0 0
0 0 0 0 0 -0.107850314736853 0 0 0 0 0 0 0 0 -2.13244873201509 0 0 0 0 0 0 0 0 0 0 0 0 0 0 0 0 0 0 0 0 0 0 0 0 0 0 0 0 0 0 0 0 0 0 0
0 0 0 0 0 0 -0.107850314736853 0 0 0 0 0 0 0 0 0 0 0 0 0 0 -1.26161479553964 0 0 0 0 0 0 0 0 0 0 0 0 0 0 0 0 0 0 0 0 0 0 0 0 0 0 0 0
0 0.0224508223314382 0 0 0 0 0 -0.107850314736853 0 0 0 0 0 0 0 0 0 -0.0433496376685752 -1.59774266539025 0 0 -3.44060560167219 -0.652181800488848 0 0 0 0 0 0 0 0 0 0 0 0 0 0 0 0 0 0 0 0 0 0 0 0 0 0 0
0.183039485958273 0 0 0 0 0 0 0 -0.107850314736853 0 0 0 0 0 0 0 0 0 0 0 -1.72672217777801 -0.389274549645998 0 0 -1.12445075729537 0 0 0 0 0 0 0 0 0 0 0 0 0 0 0 0 0 0 0 0 0 0 0 0 0
0 0 0 0 0 0 0 0 0 -0.107850314736853 0 0 0 0 0 0 0 0 0 0 -0.690429404537506 -3.57862380478749 0 0 -0.590606949442587 0 0 0 0 0 0 0 0 0 0 0 0 0 0 0 0 0 0 0 0 0 0 0 0 0
0 0 0 0 0 0 0 0 0 0 -0.107850314736853 0 0 0 0 0 0 0 0 0 -1.7506966093639 -0.266963827311881 0 0 -0.640633343773413 0 0 0 0 0 0 0 0 0 0 0 0 0 0 0 0 0 0 0 0 0 0 0 0 0
0 0 0 0 0 0 0 0 0 0 0 -0.107850314736853 0 0 0 0 0 0 0 0 -0.116771625904877 -2.17780678245016 0 0 -0.753472621620167 0 0 0 0 0 0 0 0 0 0 0 0 0 0 0 0 0 0 0 0 0 0 0 0 0
0 0 0 0 0 0 0 0 0 0 0 0 -0.107850314736853 0 0 0 0 0 0 0 -1.50227943384014 -6.40590565807322 0 0 -0.241252252073758 0 0 0 0 0 0 0 0 0 0 0 0 0 0 0 0 0 0 0 0 0 0 0 0 0
0 0 0 0 0 0 0 0 0 0 0 0 0 -0.107850314736853 0 0 0 0 0 0 0 -3.146943863124 0 0 -2.9874697663008 0 0 0 0 0 0 0 0 0 0 0 0 0 0 0 0 0 0 0 0 0 0 0 0 0
0 0 0 0.129040260486144 0.219203913310792 0.450974616977306 0 0 0 0 0 0 0 0 -0.107850314736853 0 0 0 0 0 0 0 0 0 -2.60318712894495 0 0 0 0 0 0 0 0 0 0 0 0 0 0 0 0 0 0 0 0 0 0 0 0 0
0 0 0 0 0 0 0 0 0 0 0 0 0 0 0 -0.107850314736853 0 0 0 0 0 0 0 0 0 -5.38290477907819 0 0 0 0 -0.281667621482798 -0.606073650318226 0 0 0 0 0 0 0 0 0 0 0 0 0 0 0 0 0 0
0 0 1.070816903829 0 0 0 0 0 0 0 0 0 0 0 0 0 -0.107850314736853 0 0 0 0 0 0 -4.22576755034849 0 0 0 0 0 0 -1.28993566565259 -3.49734366202977 0 0 0 0 0 0 0 0 0 0 0 0 0 0 0 0 0 -0.105731510500226
0 0 0 0 0 0 0 0.00837650056034225 0 0 0 0 0 0 0 0 0 -0.107850314736853 0 0 0 0 0 -0.477384038015123 0 -2.11447534273922 0 0 0 0 -0.524583711036078 0 0 0 0 0 0 0 0 0 0 0 0 0 0 0 0 0 0 -0.496333523663538
0 0 0 0 0 0 0 0.335816075789603 0 0 0 0 0 0 0 0 0 0 -0.107850314736853 0 0 0 0 0 0 -0.862756093928855 0 0 0 0 -0.488393381269213 0 0 0 0 0 0 0 -0.608913732376192 0 0 0 0 0 0 0 0 0 0 -0.28923327973455
0 0 0 0 0.0773555214762475 0 0 0 0 0 0 0 0 0 0 0 0 0 0 -0.107850314736853 0 0 0 -0.330378166534818 0 -1.28060446244914 0 0 0 0 0 0 0 0 0 0 0 0 0 0 0 0 0 0 0 0 0 0 0 -1.23690758516839
0 0 0 0 0 0 0 0 0.347804031500186 0.134887901257434 0.352453383928092 0.0259051146446057 0.318857543085078 0 0 0 0 0 0 0 -0.107850314736853 0 0 0 0 0 0 0 0 0 -9.9941203324566 0 0 0 0 0 0 0 0 0 0 0 0 0 0 0 0 0 0 -0.987415359248694
0 0 0 0 0 0 0.241315055380199 0.651455443396379 0.0782926577254953 0.694269877380207 0.0555224920397977 0.429300441287599 1.3989281164759 0.608704961991979 0 0 0 0 0 0 0 -0.107850314736853 0 0 0 0 0 0 0 0 -1.24981868294098 0 0 0 0 0 0 0 -0.524963835534216 0 0 0 0 0 0 0 0 0 0 -1.62749738262371
0 0 0 0 0 0 0 0.141462185347688 0 0 0 0 0 0 0 0 0 0 0 0 0 0 -0.107850314736853 0 0 0 0 0 0 0 -1.14355720195592 0 0 0 0 0 0 0 0 0 0 0 0 0 0 0 0 0 0 -1.22267357826165
0 0 0 0 0 0 0 0 0 0 0 0 0 0 0 0 0.828590850248063 0.0948894190452334 0 0.0657347257005055 0 0 0 -0.107850314736853 0 0 0 0 0 -0.893925766992526 0 0 0 0 -3.00323802689432 0 0 0 0 0 0 0 0 0 0 -0.864442973761599 0 0 0 -0.770183059438296
0 0 0 0 0 0 0 0 0.227682829314741 0.115806187289303 0.127316851007778 0.157773109207344 0.0499502856821796 0.554850294831059 0.526274492955714 0 0 0 0 0 0 0 0 0 -0.107850314736853 0 0 0 0 -0.42883000779177 0 0 0 -1.31805486616585 0 0 0 -0.440865709699225 0 0 0 0 0 0 0 -0.381456823005708 0 0 -0.241771901847755 -1.27664914019475
0 0 0 0 0 0 0 0 0 0 0 0 0 0 0 1.08580450425948 0 0.462010966911283 0.176204509712785 0.242216763248604 0 0 0 0 0 -0.107850314736853 -0.924623298077742 0 -1.1774236195821 0 0 0 0 0 0 -1.20739597326244 0 -1.09220479417757 0 0 0 0 0 0 0 -5.75425394044221 0 0 -0.443835165495197 0
0 0 0 0 0 0 0 0 0 0 0 0 0 0 0 0 0 0 0 0 0 0 0 0 0 0.185998539924392 -0.107850314736853 0.234585576193304 0 0 0 0 0 -0.520922585055141 0 0 0 -0.441267764056536 0 0 0 0 0 0 -0.946110142841006 -2.40013069852333 0 0 -0.392028859125955 0
0 0 0 0 0 0 0 0 0 0 0 0 0 0 0 0 0 0 0 0 0 0 0 0 0 0 -1.20366511046298 -0.107850314736853 0 0 0 0 0 0 0 -0.287688800174848 0 -0.2335719788746 0 0 0 0 0 0 -0.704223175329265 0 0 0 -0.510287976023407 -0.0855339821221487
0 0 0 0 0 0 0 0 0 0 0 0 0 0 0 0 0 0 0 0 0 0 0 0 0 0.218061622978679 0 0 -0.107850314736853 0 0 0 0 -0.182317456697383 0 0 0 -10.8701173604496 0 0 0 0 0 0 0 -1.41093567881959 0 0 -0.514992448783421 -2.4116803868864
0 0 0 0 0 0 0 0 0 0 0 0 0 0 0 0 0 0 0 0 0 0 0 0.159958966340218 0.0890206868339651 0 0 0 0 -0.107850314736853 0 0 0 0 0 0 0 -0.993109768748167 0 0 0 0 0 0 -1.94552871365003 0 0 0 -3.36594426375456 -1.54877868293543
0 0 0 0 0 0 0 0 0 0 0 0 0 0 0 0.054450588579265 0.250342050866886 0.110654944027002 0.0987909855481439 0 2.05962233020212 0.258918110789274 0.228470528931849 0 0 0 0 0 0 0 -0.107850314736853 0 0 0 0 0 0 0 0 0 -0.204321304828118 0 0 -1.12048261698116 0 0 0 0 -0.711563834364541 0
0 0 0 0 0 0 0 0 0 0 0 0 0 0 0 0.12241768617583 0.684696958258753 0 0 0 0 0 0 0 0 0 0 0 0 0 0 -0.107850314736853 0 0 0 0 0 0 0 0 -0.775732189868984 0 0 -0.31416575140775 0 0 0 0 -0.488853600305178 0
0 0 0 0 0 0 0 0 0 0 0 0 0 0 0 0 0 0 0 0 0 0 0 0 0 0 0 0 0 0 0 0 -0.107850314736853 0 0 0 0 0 0 0 -4.43002868710633 0 0 -3.79331132503521 0 0 0 0 -5.4263954165732 -0.562585303001527
0 0 0 0 0 0 0 0 0 0 0 0 0 0 0 0 0 0 0 0 0 0 0 0 0.263641524372139 0 0.101450666762526 0 0.0368378630071631 0 0 0 0 -0.107850314736853 0 0 0 0 0 0 0 0 0 -1.46522268650129 0 0 0 0 -1.63523227187365 -0.909328994019149
0 0 0 0 0 0 0 0 0 0 0 0 0 0 0 0 0 0 0 0 0 0 0 0.62994131347815 0 0 0 0 0 0 0 0 0 0 -0.107850314736853 0 0 0 0 0 -0.819073497093854 0 0 -0.4801960008214 0 0 0 0 -0.760295237257458 -3.93079792165683
0 0 0 0 0 0 0 0 0 0 0 0 0 0 0 0 0 0 0 0 0 0 0 0 0 0.236630014986497 0 0.0562818845657492 0 0 0 0 0 0 0 -0.107850314736853 0 0 0 0 0 0 0 -2.12092995194954 0 0 0 0 0 0
0 0 0 0 0 0 0 0 0 0 0 0 0 0 0 0 0 0 0 0 0 0 0 0 0 0 0 0 0 0 0 0 0 0 0 0 -0.107850314736853 0 0 0 0 0 0 0 0 0 0 0 0 -0.261196380179676
0 0 0 0 0 0 0 0 0 0 0 0 0 0 0 0 0 0 0 0 0 0 0 0 0.0880565087803767 0.21849575283108 0.0893480108550819 0.044402720620324 2.30047950321883 0.203922438347318 0 0 0 0 0 0 0 -0.107850314736853 0 0 0 0 0 0 0 0 0 0 0 -3.6441073120991
0 0 0 0 0 0 0 0 0 0 0 0 0 0 0 0 0 0 0.126437100069812 0 0 0.103776963921875 0 0 0 0 0 0 0 0 0 0 0 0 0 0 0 0 -0.107850314736853 0 0 0 0 -0.435520554410462 0 0 0 0 0 -1.92759580112244
0 0 0.01466760481374 0.294476051425406 0 0 0 0 0 0 0 0 0 0 0 0 0 0 0 0 0 0 0 0 0 0 0 0 0 0 0 0 0 0 0 0 0 0 0 -0.107850314736853 0 0 0 0 0 0 0 -0.366706689164114 0 0
0 0 0 0 0 0 0 0 0 0 0 0 0 0 0 0 0 0 0 0 0 0 0 0 0 0 0 0 0 0 0.0438872088302265 0.153804100000027 0.868560894084261 0 0.14599225038769 0 0 0 0 0 -0.107850314736853 0 0 0 0 0 0 -2.42218619869526 0 0
0 0 0 0 0 0 0 0 0 0 0 0 0 0 0 0 0 0 0 0 0 0 0 0 0 0 0 0 0 0 0 0 0 0 0 0 0 0 0 0 0 -0.107850314736853 0 -6.56929561101129 0 0 0 -0.625083716346204 0 0
0 0 0 0 0 0 0 0 0 0 0 0 0 0 0 0 0 0 0 0 0 0 0 0 0 0 0 0 0 0 0 0 0 0 0 0 0 0 0 0 0 0 -0.107850314736853 -0.849237659188114 0 0 0 -2.68989340945469 0 0
0 0 0 0 0 0 0 0 0 0 0 0 0 0 0 0 0 0 0 0 0 0 0 0 0 0 0 0 0 0 0.23682598329372 0.0627563108552185 0.778328300097016 0.303840739545254 0.0999255085283289 0.449570157387283 0 0 0.0777858037210548 0 0 1.32692059162209 0.167966609852265 -0.107850314736853 0 0 0 0 0 0
0 0 0 0 0 0 0 0 0 0 0 0 0 0 0 0 0 0 0 0 0 0 0 0 0 0 0.19193885659475 0.140525297252432 0 0.4068750027536 0 0 0 0 0 0 0 0 0 0 0 0 0 0 -0.107850314736853 0 0 0 0 0
0 0 0 0 0 0 0 0 0 0 0 0 0 0 0 0 0 0 0 0 0 0 0 0.168602595449542 0.0700383622254538 1.14047866770996 0.482879461038748 0 0.279889127914867 0 0 0 0 0 0 0 0 0 0 0 0 0 0 0 0 -0.107850314736853 0 0 0 0
0 0 0 0 0 0 0 0 0 0 0 0 0 0 0 0 0 0 0 0 0 0 0 0 0 0 0 0 0 0 0 0 0 0 0 0 0 0 0 0 0 0 0 0 0 0 -0.107850314736853 -0.477648016938415 0 0
0 0 0 0 0 0 0 0 0 0 0 0 0 0 0 0 0 0 0 0 0 0 0 0 0 0 0 0 0 0 0 0 0 0 0 0 0 0 0 0.0738189367568938 0.465866049383801 0.12394998721848 0.513373272041965 0 0 0 0.0955526055712506 -0.107850314736853 0 0
0 0 0 0 0 0 0 0 0 0 0 0 0 0 0 0 0 0 0 0 0 0 0 0 0.0454054747190859 0.0880013854319212 0.083705502378568 0.102107355719528 0.109929520402231 0.639553830235935 0.142052481112192 0.108966864628622 1.02584731411888 0.321668675082209 0.173921792758968 0 0 0 0 0 0 0 0 0 0 0 0 0 -0.107850314736853 0
0 0 0 0 0 0 0 0 0 0 0 0 0 0 0 0 0.0213992847436119 0.102230740311332 0.0582079203608445 0.261437595574573 0.213259200664411 0.359284244700782 0.229795859875241 0.15464760809992 0.252875957209055 0 0 0.0160011984422601 0.475216667398818 0.299464263435054 0 0 0.116257419735413 0.159551662799436 0.785408742680644 0 0.0494919493249065 0.798086744474497 0.391203256713537 0 0 0 0 0 0 0 0 0 0 -0.107850314736853
