-0.530569371619872 -0.235382650761536 0 0 0 0 0 0 0 0 0 0 0 0 0 0 0 0 0 0 0 0 0 0 0 0 0 0 0 0 0 0 0 0 0 0 0 0 0 0 0 0 0 0 0 0 0 0 0 0
0.0513864656215614 -0.530569371619872 0 0 0 0 0 0 0 0 0 0 -1.10656530735527 0 0 0 0 -0.497315384577761 0 0 0 -0.842227587859648 0 0 0 0 0 0 0 0 0 0 0 0 0 0 0 0 0 0 0 0 0 0 0 0 0 0 0 0
0 0 -0.530569371619872 0 0 0 0 0 0 0 0 0 -0.198340694079944 0 0 0 0 0 -0.710224281618045 0 0 0 0 -0.241688282546685 0 0 0 0 0 0 0 0 0 -0.447800201716268 -3.2979460824237 0 0 0 0 0 0 0 0 0 0 0 0 0 -0.662197167107665 -0.884129636319211
0 0 0 -0.530569371619872 0 0 0 0 0 0 0 0 -5.01519212059702 0 0 0 0 -0.177037439979228 -0.468689476723176 0 0 0 0 0 -0.210100048753635 0 0 0 0 0 0 0 0 0 0 0 0 0 0 0 0 0 0 0 0 0 0 0 -0.609123855693366 0
0 0 0 0 -0.530569371619872 0 0 0 0 0 0 0 0 0 0 0 0 -2.91235923598029 -0.530136191373253 0 0 0 0 0 -7.13069127930024 0 0 0 0 0 0 0 0 0 0 0 0 0 0 0 0 0 0 0 0 0 0 0 -1.80089734295359 -2.42119299357922
0 0 0 0 0 -0.530569371619872 0 0 0 0 0 0 0 -0.473546735447563 0 0 0 0 0 0 0 0 0 0 0 0 0 0 0 0 0 0 0 0 0 0 0 -0.448525216709043 -0.42659424438473 -0.314641024151719 0 0 0 0 0 0 0 0 0 0
0 0 0 0 0 0 -0.530569371619872 0 -1.03311635196459 0 0 0 0 -1.43460889025067 0 0 -2.17531700673629 0 0 0 0 0 -1.2072512271843 0 0 0 0 0 0 0 0 0 0 0 0 0 0 -0.450351471235872 -0.721810085149172 0 0 0 0 -2.80238365378875 0 0 0 0 0 -1.33681821511945
0 0 0 0 0 0 0 -0.530569371619872 0 0 -1.55251075070952 0 0 -2.11008073299928 0 0 -2.07695150132724 0 0 0 0 0 -1.71620566287017 0 0 0 0 0 0 0 0 0 0 0 0 0 0 -0.770324775446396 -0.724089305486865 0 0 0 0 -0.725806968899782 0 0 0 0 0 -1.46427552594472
0 0 0 0 0 0 0.191529701758139 0 -0.530569371619872 0 0 0 0 -1.81138921982107 0 0 0 0 0 0 0 0 0 0 0 0 0 0 0 0 0 0 0 0 0 0 0 0 -0.523595639963849 0 0 0 0 -1.92489880542415 0 0 0 0 0 -0.547269927929496
0 0 0 0 0 0 0 0 0 -0.530569371619872 0 0 0 0 0 0 0 0 0 0 0 0 0 0 0 0 0 0 0 0 0 0 0 0 0 0 0 -1.69693528601033 -4.01450169972134 0 0 0 0 0 0 0 0 0 0 0
0 0 0 0 0 0 0 0.304620082576882 0 0 -0.530569371619872 0 0 -0.95006114420241 0 0 0 0 0 0 0 0 0 0 0 0 0 0 0 0 0 0 0 0 0 0 0 -0.224525514071429 0 0 -0.505187162909401 0 0 0 0 0 0 0 0 0
0 0 0 0 0 0 0 0 0 0 0 -0.530569371619872 0 0 0 0 0 0 0 0 0 0 0 0 0 0 0 0 0 0 0 0 0 0 0 0 0 0 0 0 -2.29430552911516 0 0 0 0 0 0 0 0 -0.654295558598316
0 0.233926380960213 0.0403570093460535 1.0035653074152 0 0 0 0 0 0 0 0 -0.530569371619872 0 0 0 0 0 0 0 -0.676379144565477 0 0 0 0 0 0 0 0 0 0 0 0 0 0 0 0 0 0 0 0 0 0 0 0 0 0 0 0 -0.265469375837336
0 0 0 0 0 0.0930745566656698 0.269477404068346 0.417423434301492 0.345165021779321 0 0.178762074189755 0 0 -0.530569371619872 0 0 0 0 0 0 -0.175265852784779 0 0 0 0 0 0 0 0 0 0 0 0 0 0 0 0 0 0 0 0 0 0 0 0 0 0 0 0 -0.590258335643673
0 0 0 0 0 0 0 0 0 0 0 0 0 0 -0.530569371619872 0 0 0 0 0 -0.955923504959811 0 0 0 0 -4.70732402483991 0 0 0 0 0 0 0 0 0 0 0 0 0 0 0 0 0 0 0 0 0 0 0 0
0 0 0 0 0 0 0 0 0 0 0 0 0 0 0 -0.530569371619872 0 0 0 0 -1.25393731830901 0 0 0 0 0 0 0 0 0 0 0 0 0 0 0 0 0 0 0 0 0 0 0 0 -0.403511295270353 0 0 0 0
0 0 0 0 0 0 0.407322603189627 0.43020910964479 0 0 0 0 0 0 0 0 -0.530569371619872 0 0 0 -1.17035299307633 0 0 0 0 -0.309285689347725 0 0 0 0 0 0 0 0 0 0 0 0 0 0 0 0 0 0 0 -0.289558868583572 0 0 0 -4.52023803881711
0 0.100268509302576 0 0.0356201491261787 0.563116122415051 0 0 0 0 0 0 0 0 0 0 0 0 -0.530569371619872 0 0 0 0 0 0 0 0 0 -0.144847165114058 0 0 0 0 0 0 0 0 0 0 0 0 0 0 0 0 0 -0.416383887262298 0 0 0 -0.297782053453012
0 0 0.141663429037319 0.0931892850324178 0.102340521063546 0 0 0 0 0 0 0 0 0 0 0 0 0 -0.530569371619872 0 0 0 0 0 0 0 0 -2.37664829318549 0 0 0 0 0 0 0 0 0 0 0 0 0 0 0 0 0 0 0 0 0 -0.196423583883019
0 0 0 0 0 0 0 0 0 0 0 0 0 0 0 0 0 0 0 -0.530569371619872 0 0 0 0 0 0 0 -4.01945661977204 0 0 0 0 -6.37211045976062 0 0 -0.934760858301629 0 0 0 0 0 0 0 0 0 0 0 0 0 0
0 0 0 0 0 0 0 0 0 0 0 0 0.143944828618301 0.0325219068914264 0.188317230158421 0.255278332450217 0.221078287890236 0 0 0 -0.530569371619872 0 0 0 0 0 -0.647064781443553 0 0 0 0 0 0 0 0 0 0 0 0 0 0 0 0 0 0 -0.497486861012851 0 0 0 0
0 0.167685432124843 0 0 0 0 0 0 0 0 0 0 0 0 0 0 0 0 0 0 0 -0.530569371619872 0 0 0 0 -4.50211735007639 0 -4.98291837389377 0 0 0 0 0 0 -2.04452774855148 0 0 0 0 0 0 0 0 0 -0.297787717453777 0 0 0 0
0 0 0 0 0 0 0.232685368024955 0.287390096672608 0 0 0 0 0 0 0 0 0 0 0 0 0 0 -0.530569371619872 0 0 0 0 0 -6.78291502025383 0 0 0 0 0 0 -1.74129884352312 0 0 0 0 0 0 0 0 0 -2.28290372678927 0 0 0 0
0 0 0.0510615024800102 0 0 0 0 0 0 0 0 0 0 0 0 0 0 0 0 0 0 0 0 -0.530569371619872 0 0 0 0 -0.428990126805362 0 0 0 0 0 0 0 0 0 0 0 0 0 0 0 0 0 0 0 0 0
0 0 0 0.0402299102597748 1.40295899474501 0 0 0 0 0 0 0 0 0 0 0 0 0 0 0 0 0 0 0 -0.530569371619872 0 0 0 0 0 -0.213665741090849 0 0 0 0 -1.56788641685495 0 0 0 0 0 0 0 0 0 0 0 0 0 0
0 0 0 0 0 0 0 0 0 0 0 0 0 0 0.915659005364908 0 0.0636288465454265 0 0 0 0 0 0 0 0 -0.530569371619872 0 0 -0.15351668826902 0 0 0 0 0 0 -0.202875738809868 0 0 0 0 0 0 0 0 0 -1.5605420518188 0 0 0 0
0 0 0 0 0 0 0 0 0 0 0 0 0 0 0 0 0 0 0 0 0.127640056762642 0.909382376190027 0 0 0 0 -0.530569371619872 0 0 0 -4.14954355531799 0 0 0 0 0 0 0 0 0 0 0 0 0 0 -1.3615244964599 0 0 0 0
0 0 0 0 0 0 0 0 0 0 0 0 0 0 0 0 0 0.0296376814792496 0.49054624047913 0.808186016143816 0 0 0 0 0 0 0 -0.530569371619872 -1.8563743153185 0 -0.837792638442819 -0.362727324921083 0 0 0 -0.183369511721181 0 0 0 0 0 0 0 0 0 -0.323262084496489 0 0 0 0
0 0 0 0 0 0 0 0 0 0 0 0 0 0 0 0 0 0 0 0 0 0.961496919700812 1.32565957925398 0.087734576300301 0 0.0309821606476011 0 0.388662622150499 -0.530569371619872 0 0.149963196504478 1.21523513343173 0 0 0 0 0 0 0 0 0 0 0 0 0 -1.04125385193121 0 0 0 0
0 0 0 0 0 0 0 0 0 0 0 0 0 0 0 0 0 0 0 0 0 0 0 0 0 0 0 0 0 -0.530569371619872 0 -0.464667457266634 0 0 0 0 0 0 0 0 0 -5.59638066396247 0 0 0 -0.489700973148744 0 0 0 0
0 0 0 0 0 0 0 0 0 0 0 0 0 0 0 0 0 0 0 0 0 0 0 0 0.0470735426293827 0 0.896284989242933 0.154011569736822 -0.711206492695429 0 -0.530569371619872 0.290140444231709 0 0 0 0 0 0 0 0 0 -0.731262629647185 0 0 0 0 0 0 0 0
0 0 0 0 0 0 0 0 0 0 0 0 0 0 0 0 0 0 0 0 0 0 0 0 0 0 0 0.071200167094731 -6.0518713509107 0.096010513262174 -1.48676192250289 -0.530569371619872 0 0 0 0 0 0 0 0 0 -0.258311902210249 0 0 0 0 0 0 0 0
0 0 0 0 0 0 0 0 0 0 0 0 0 0 0 0 0 0 0 1.14870410964223 0 0 0 0 0 0 0 0 0 0 0 0 -0.530569371619872 0 0 0 0 0 0 0 0 -0.178658273495346 -4.523374414801 0 0 -1.68295656078154 0 -0.287644732589833 0 0
0 0 0.0863989368787489 0 0 0 0 0 0 0 0 0 0 0 0 0 0 0 0 0 0 0 0 0 0 0 0 0 0 0 0 0 0 -0.530569371619872 0 0 0 0 0 0 0 -1.90667186641995 -6.03336938864698 0 0 -4.12939935229701 0 -0.426387486535991 0 0
0 0 0.588922138920375 0 0 0 0 0 0 0 0 0 0 0 0 0 0 0 0 0 0 0 0 0 0 0 0 0 0 0 0 0 0 0 -0.530569371619872 0 0 0 0 0 0 -0.428047168686997 0 0 0 0 0 0 0 0
0 0 0 0 0 0 0 0 0 0 0 0 0 0 0 0 0 0 0 0.171842736595466 0 0.412385534692934 0.319845063527825 0 0.328188730823293 0.0430381449361243 0 0.0359016465440807 0 0 0 0 0 0 0 -0.530569371619872 0 0 0 0 0 -0.39156779890013 0 0 0 0 0 -1.05717937863197 0 0
0 0 0 0 0 0 0 0 0 0 0 0 0 0 0 0 0 0 0 0 0 0 0 0 0 0 0 0 0 0 0 0 0 0 0 0 -0.530569371619872 0 0 0 0 0 0 0 0 -0.470411783188376 0 0 0 0
0 0 0 0 0 0.0959415581241254 0.0889957549396983 0.152008483869851 0 0.321836319335938 0.0458501483693286 0 0 0 0 0 0 0 0 0 0 0 0 0 0 0 0 0 0 0 0 0 0 0 0 0 0 -0.530569371619872 0 0 0 0 0 0 0 -4.48959338535042 0 -1.12291138765524 0 0
0 0 0 0 0 0.0778966833643843 0.131342747433945 0.144952698162718 0.100017483097948 0.85535433194806 0 0 0 0 0 0 0 0 0 0 0 0 0 0 0 0 0 0 0 0 0 0 0 0 0 0 0 0 -0.530569371619872 0 0 0 0 0 0 0 0 -0.803336514546528 0 0
0 0 0 0 0 0.062639407963003 0 0 0 0 0 0 0 0 0 0 0 0 0 0 0 0 0 0 0 0 0 0 0 0 0 0 0 0 0 0 0 0 0 -0.530569371619872 0 0 0 0 0 -0.54453598587731 0 0 0 0
0 0 0 0 0 0 0 0 0 0 0.0973662736652127 0.444811396099469 0 0 0 0 0 0 0 0 0 0 0 0 0 0 0 0 0 0 0 0 0 0 0 0 0 0 0 0 -0.530569371619872 0 0 0 0 -0.413821141043781 0 -5.22526257519868 0 0
0 0 0 0 0 0 0 0 0 0 0 0 0 0 0 0 0 0 0 0 0 0 0 0 0 0 0 0 0 1.17711427558152 0.151435228706813 0.0481310200061548 0.0334180854002823 0.374497989465234 0.0807322388519295 0.0786404683012001 0 0 0 0 0 -0.530569371619872 0 0 0 -2.89265733577642 0 -5.818012545492 0 0
0 0 0 0 0 0 0 0 0 0 0 0 0 0 0 0 0 0 0 0 0 0 0 0 0 0 0 0 0 0 0 0 0.911601179706515 1.20107223015233 0 0 0 0 0 0 0 0 -0.530569371619872 0 0 -5.46297305339879 0 -1.14997021927486 0 0
0 0 0 0 0 0 0.588273910444393 0.151287029706912 0.384884743919001 0 0 0 0 0 0 0 0 0 0 0 0 0 0 0 0 0 0 0 0 0 0 0 0 0 0 0 0 0 0 0 0 0 0 -0.530569371619872 0 -1.08660710787263 0 -0.328753880007737 0 0
0 0 0 0 0 0 0 0 0 0 0 0 0 0 0 0 0 0 0 0 0 0 0 0 0 0 0 0 0 0 0 0 0 0 0 0 0 0 0 0 0 0 0 0 -0.530569371619872 -0.290291906945371 0 0 0 0
0 0 0 0 0 0 0 0 0 0 0 0 0 0 0 0.0837677884326685 0.0544648999831033 0.0809763008347472 0 0 0.0974036898008177 0.0593937385380309 0.446206770463965 0 0 0.353010435827782 0.280609273726546 0.0637915543816149 0.214038285613051 0.0927963728243755 0 0 0.32826812139333 0.886221873534313 0 0 0.0922540173253516 0.905871294513082 0 0.103125639869994 0.0888111665765527 0.561432052752301 1.07899566074802 0.224315128154138 0.0568017183053442 -0.530569371619872 0 -0.898157019647021 0 0
0 0 0 0 0 0 0 0 0 0 0 0 0 0 0 0 0 0 0 0 0 0 0 0 0 0 0 0 0 0 0 0 0 0 0 0 0 0 0 0 0 0 0 0 0 0 -0.530569371619872 -0.293779765699369 0 0
0 0 0 0 0 0 0 0 0 0 0 0 0 0 0 0 0 0 0 0 0 0 0 0 0 0 0 0 0 0 0 0 0.0594069329542479 0.0977610293865195 0 0.212797369231746 0 0.238260574675238 0.161378797787498 0 1.04296021469154 1.12112048887536 0.23432362226888 0.0657972879611697 0 0.176839368293426 0.0612738402486649 -0.530569371619872 0.151442751692563 0
0 0 0.144243097566362 0.122715061738958 0.36968657185848 0 0 0 0 0 0 0 0 0 0 0 0 0 0 0 0 0 0 0 0 0 0 0 0 0 0 0 0 0 0 0 0 0 0 0 0 0 0 0 0 0 0 -0.767673685263063 -0.530569371619872 0
0 0 0.172462752179733 0 0.465070900692986 0 0.262225023469714 0.30283037361922 0.121599850331434 0 0 0.127778389473607 0.0498956723315587 0.12385872758176 0 0 0.922922008261455 0.0597354103795714 0.042398809397996 0 0 0 0 0 0 0 0 0 0 0 0 0 0 0 0 0 0 0 0 0 0 0 0 0 0 0 0 0 0 -0.530569371619872
