2.46832855797719
0.289243719834217
6.71999945966294
1.09480514293508
3.07865551067265
0.681871758766641
1.23181812023996
1.52284979129989
2.14651879702502
0.711543942615114
0.661558717329111
0.91677397933779
0.828864513489032
0.791258358039564
0.906605242014846
1.00356730845517
2.89676788344436
0.728700367373677
1.96602212536481
0.19418640324684
0.743338288501483
1.83287223933858
0.371162706203628
0.666486327544535
1.16659750373515
0.59041725835558
3.61477965564308
0.285782132637023
1.00379331255583
1.88137464863833
0.342375829998189
0.545471873035294
5.34237256535391
4.2720615491239
0.397984611620053
0.25645183403702
0.716318987006992
1.16718216429826
0.144201254458914
0.147836859934656
2.59115826975292
1.99907686369756
2.25498751073051
1.32280908733356
0.5280136337432
1.28443835087345
1.11972168686765
0.646837371339444
0.35017111649406
2.75156780089583
