3.46378020816558
0.625363884987681
0.792798027326386
0.577668308362492
0.135593912981454
0.584686356656859
0.688596605236314
0.262381699110407
0.277415926987797
2.44874742064579
0.704633663000092
1.23576623939874
2.22370475995707
1.72323496557442
2.04213157570988
6.64638684659391
2.14473585418935
3.68236827553885
1.87501514014466
1.05501120842328
0.335295062533393
1.11642037889703
0.66086214262047
0.570699035985477
1.62163945820021
1.92812289227656
10.3473684036125
0.532152549555582
1.60220434202106
1.83171477584521
1.69314127487177
1.0997093806087
2.91401878835646
11.2032204976616
1.34758104013235
0.783960818973686
0.775653404789675
4.71993082695679
0.449911916275592
3.36898429170842
1.28664516484947
0.904582747575415
3.76259639020735
0.606351565443076
1.18585983509383
0.35390784827132
2.70304967491648
5.08129189556587
2.10810625068309
0.553471033117747
