2.21530266422835
1.47481642718188
2.37088403748727
0.554370469389508
0.263850909722038
0.747403028229257
0.492966485174976
1.06467970419473
1.53894855177182
1.19830314232189
2.66051464627555
2.06321959672462
0.493329650618275
5.5262645243178
2.34953387255134
2.94994372707572
0.217897604794617
1.18256857158182
0.745626385986891
4.17939094259483
1.46527933173758
0.539495843619994
0.872714874728941
7.64378335105271
2.7682975437523
0.954347043209232
5.68762026590798
2.67432049499868
4.6476117964662
1.95421228800707
1.15221373438741
1.8204655121622
8.17210024993469
0.303625556443355
3.40923754211367
4.86726046644394
0.814047130668908
0.624453486338382
1.07388991114888
2.46831010196309
3.06289451518894
0.396372992863233
0.417036404695549
2.39156522103708
2.1964121063393
9.85982224384112
0.731465308903836
3.24654935879608
4.33447229533546
1.90074975488056
