-0.274930706135922 0 0 0 0 0 0 -3.46872186642319 0 0 0 0 0 0 0 0 0 0 -0.370733281889377 0 0 0 0 0 0 0 0 0 0 0 0 0 0 0 0 0 0 0 0 0 0 0 0 0 -0.172262759821154 -0.0810122651462815 0 0 0 0
0 -0.274930706135922 0 0 0 0 0 0 0 0 0 0 0 0 0 0 0 -0.643666389787554 0 0 0 0 0 0 0 0 0 0 0 0 0 0 0 0 0 0 0 0 0 0 0 0 0 0 -0.249247086185144 -1.38181748258752 0 0 0 0
0 0 -0.274930706135922 0 0 0 0 0 0 0 0 0 0 0 0 0 0 -2.75803843044209 0 0 0 0 0 0 0 0 0 0 0 0 0 0 0 0 0 0 0 0 0 0 0 0 0 0 -1.53927651335774 -5.94125138311616 0 0 0 0
0 0 0 -0.274930706135922 0 0 0 0 0 0 0 0 0 0 0 0 0 -1.49065106482621 0 0 0 0 0 0 0 0 0 0 0 0 0 0 0 0 0 0 0 0 0 0 0 0 0 0 -3.91189606266096 -0.184175574958586 0 0 0 0
0 0 0 0 -0.274930706135922 0 0 0 0 0 0 0 0 0 0 0 0 0 0 0 0 0 0 0 0 0 0 0 0 0 0 0 0 0 0 0 0 0 0 0 0 0 0 0 0 -1.60080682944042 0 0 0 0
0 0 0 0 0 -0.274930706135922 0 0 0 0 0 0 0 0 0 0 0 0 0 0 0 0 0 0 0 0 0 0 0 0 0 0 0 0 0 0 0 0 0 0 0 0 0 0 -1.5693992538218 -0.735792134141939 0 0 0 0
0 0 0 0 0 0 -0.274930706135922 0 -8.15989368447261 -0.53128502326342 0 0 0 0 0 0 0 -0.85103399538662 0 0 0 0 0 0 0 0 0 0 0 0 0 0 0 0 0 0 0 0 0 0 0 0 0 0 0 0 0 0 0 0
0.665429235782005 0 0 0 0 0 0 -0.274930706135922 -0.749442121255778 -0.895493577438429 0 0 0 0 0 0 0 -2.68363933303538 0 0 0 0 0 0 0 0 0 0 0 0 0 0 0 0 0 0 0 0 0 0 0 0 0 -0.522988151092764 0 0 0 0 0 0
0 0 0 0 0 0 1.55576755466337 0.152486941970876 -0.274930706135922 0.0283633177583402 0 0 0 0 0 0 0 0 0 0 -0.127070084408062 0 0 0 0 0 0 0 0 0 0 0 0 0 0 0 0 0 0 0 0 0 0 0 0 0 -1.5954094355311 0 0 0
0 0 0 0 0 0 0.11478948255672 0.174658446763846 -0.134428638971524 -0.274930706135922 0 0 0 0 0 0 0 0 0 0 -0.584198195699497 0 0 0 0 0 0 0 0 0 0 0 0 0 0 0 -5.41504783586482 0 0 0 0 0 0 0 0 0 -0.746857965679385 0 0 0
0 0 0 0 0 0 0 0 0 0 -0.274930706135922 0 -0.573672109936063 0 0 0 0 0 0 0 -0.829110484716521 0 0 0 0 0 0 0 0 0 0 0 0 0 0 0 -4.25922360152698 0 0 0 0 0 0 -1.60673527008922 0 0 0 0 0 0
0 0 0 0 0 0 0 0 0 0 0 -0.274930706135922 -0.42264517716787 0 0 0 0 0 0 0 0 0 0 0 0 0 0 0 0 0 0 0 -0.394010172402958 0 0 0 0 0 0 0 0 0 0 -3.71593190648504 0 0 -1.70175626916492 0 0 0
0 0 0 0 0 0 0 0 0 0 0.122920160959668 0.0763425492257737 -0.274930706135922 0 0 -0.554442485812287 0 0 0 0 0 0 0 0 0 0 -4.90607692445244 0 -0.455413453706779 -0.919267352293995 -1.28573154374387 0 0 0 0 0 -0.704313690897701 0 0 0 0 0 0 0 0 0 -4.6670341363099 0 0 0
0 0 0 0 0 0 0 0 0 0 0 0 0 -0.274930706135922 0 -0.729329058263264 0 0 0 0 0 0 0 0 0 0 -0.461065403460974 0 -1.89791077689573 -1.8633218992755 -2.80764986318698 -0.516593978788772 0 0 0 0 -0.317486483305937 0 0 0 0 0 0 0 0 0 -2.20257078069629 0 0 0
0 0 0 0 0 0 0 0 0 0 0 0 0 0 -0.274930706135922 0 0 0 0 -0.240959368277514 0 0 0 0 0 0 -1.48834128474378 0 0 -6.41008565429717 0 -0.725642707569889 0 -0.527306395124955 0 0 0 0 0 0 0 0 0 0 0 0 -0.823049596945972 0 0 0
0 0 0 0 0 0 0 0 0 0 0 0 0.108700512929886 0.148616826084955 0 -0.274930706135922 0 0 0 -3.33561317841909 0 0 0 0 0 0 0 0 0 0 0 -0.365017503203185 0 -2.38941375348922 0 0 0 0 0 0 0 0 0 0 0 0 0 0 0 0
0 0 0 0 0 0 0 0 0 0 0 0 0 0 0 0 -0.274930706135922 0 0 -1.05615286071158 0 0 0 0 0 -1.14237061577481 0 0 0 -2.42095527606658 0 0 0 -0.439275073232259 0 0 0 0 0 0 0 0 0 0 0 0 -0.779738736264206 0 0 0
0 0.13107083956435 0.553475406610576 0.317031874042979 0 0 0.177982233642999 0.566374581030874 0 0 0 0 0 0 0 0 0 -0.274930706135922 0 -0.835157080484558 0 0 0 0 0 -0.598942110335492 0 0 0 -1.58223617075138 0 0 0 -3.98841304056074 0 0 0 0 0 0 0 0 0 0 0 0 0 0 0 0
0.0723675406593411 0 0 0 0 0 0 0 0 0 0 0 0 0 0 0 0 0 -0.274930706135922 -0.369052574251986 0 0 0 0 0 0 0 0 0 0 0 0 0 -0.976062337875565 0 0 0 0 0 0 0 0 -0.808667141385924 0 0 0 -2.62247888812672 0 0 0
0 0 0 0 0 0 0 0 0 0 0 0 0 0 0.050547883584523 0.704209352410633 0.202245646680436 0.16060294549573 0.0762364965390127 -0.274930706135922 0 0 0 0 0 0 0 0 0 0 0 0 0 -2.93809653911658 0 0 0 0 0 0 0 0 0 0 0 0 0 0 0 0
0 0 0 0 0 0 0 0 0.0260377380849039 0.117555821981659 0.14407137168245 0 0 0 0 0 0 0 0 0 -0.274930706135922 0 -6.85716449260506 0 0 0 0 0 0 0 0 0 0 0 -0.486848277761025 0 0 0 0 0 0 0 0 0 0 0 -0.939014866637464 0 0 0
0 0 0 0 0 0 0 0 0 0 0 0 0 0 0 0 0 0 0 0 0 -0.274930706135922 -0.351784741057317 0 0 0 0 0 0 0 0 0 0 0 -2.53738947350693 0 0 -0.227058440694202 0 0 0 0 0 0 0 0 0 0 0 0
0 0 0 0 0 0 0 0 0 0 0 0 0 0 0 0 0 0 0 0 1.38097610494586 0.0672147058302912 -0.274930706135922 0 0 0 0 0 0 0 0 0 0 0 0 0 0 0 0 0 0 0 0 0 0 0 0 0 0 0
0 0 0 0 0 0 0 0 0 0 0 0 0 0 0 0 0 0 0 0 0 0 0 -0.274930706135922 0 0 0 0 0 0 0 0 0 0 -0.0933146338152376 0 0 -1.80892413206606 0 0 0 0 0 0 0 0 0 0 0 0
0 0 0 0 0 0 0 0 0 0 0 0 0 0 0 0 0 0 0 0 0 0 0 0 -0.274930706135922 0 0 0 0 0 0 0 0 0 -1.60552807984568 0 0 -0.197145670008832 0 -0.434641731126064 0 0 0 0 0 0 0 0 -0.619568180718263 0
0 0 0 0 0 0 0 0 0 0 0 0 0 0 0 0 0.207115029757655 0.125128687697187 0 0 0 0 0 0 0 -0.274930706135922 0 0 0 0 0 0 0 0 -1.17484000375196 0 0 0 0 0 0 0 0 0 0 0 0 0 -0.523304646632437 0
0 0 0 0 0 0 0 0 0 0 0 0 0.972817155917185 0.0832631929650268 0.297315555255763 0 0 0 0 0 0 0 0 0 0 0 -0.274930706135922 0 0 0 0 0 0 0 -1.36742839411717 0 0 -0.224286825596278 0 -1.32593486887786 0 0 0 0 0 0 0 0 0 0
0 0 0 0 0 0 0 0 0 0 0 0 0 0 0 0 0 0 0 0 0 0 0 0 0 0 0 -0.274930706135922 0 0 0 0 0 0 0 -0.31292309205183 0 -5.84668669766616 0 -4.23642006830816 0 0 0 0 0 0 0 0 0 0
0 0 0 0 0 0 0 0 0 0 0 0 0.0906169967339817 0.384286101598604 0 0 0 0 0 0 0 0 0 0 0 0 0 0 -0.274930706135922 0 0 0 0 0 0 -0.0766791443675694 0 0 0 -0.418742100565084 0 0 0 0 0 0 0 0 0 0
0 0 0 0 0 0 0 0 0 0 0 0 0.191292918334206 0.347139565436168 1.32926021291621 0 0.519851559602976 0.30481218467432 0 0 0 0 0 0 0 0 0 0 0 -0.274930706135922 0 0 0 0 0 -0.498331358924128 0 -0.539310056659341 0 0 0 -0.153550169646092 0 0 0 0 0 0 0 0
0 0 0 0 0 0 0 0 0 0 0 0 0.279703699815738 0.60170605538551 0 0 0 0 0 0 0 0 0 0 0 0 0 0 0 0 -0.274930706135922 0 0 0 0 -0.5776076491302 0 -0.0723097558427108 0 -1.62736281673161 0 0 0 0 0 0 0 0 0 0
0 0 0 0 0 0 0 0 0 0 0 0 0 0.0946894688903063 0.150797607356564 0.0732959032771579 0 0 0 0 0 0 0 0 0 0 0 0 0 0 0 -0.274930706135922 0 0 0 -1.04209265646851 0 -0.58945879383053 0 -9.0439979606554 0 0 0 0 0 0 0 0 0 0
0 0 0 0 0 0 0 0 0 0 0 0.0831271286541459 0 0 0 0 0 0 0 0 0 0 0 0 0 0 0 0 0 0 0 0 -0.274930706135922 0 0 0 0 -0.40863637706163 0 0 -0.497865121160431 0 0 0 0 0 0 0 0 0
0 0 0 0 0 0 0 0 0 0 0 0 0 0 0.108453381892077 0.483442542267363 0.0880483934003809 0.810023168349067 0.192963793691313 0.544545229393449 0 0 0 0 0 0 0 0 0 0 0 0 0 -0.274930706135922 0 0 0 0 0 -0.683775749131987 0 0 0 0 0 0 0 0 0 0
0 0 0 0 0 0 0 0 0 0 0 0 0 0 0 0 0 0 0 0 0.0967933706443835 0.550766441444801 0 0.0206450905255159 0.339803055304991 0.228073228238866 0.284061481412793 0 0 0 0 0 0 0 -0.274930706135922 0 0 0 0 -1.5615666321055 -4.92575311291768 0 0 0 0 0 0 0 0 0
0 0 0 0 0 0 0 0 0 0 0 0 0 0 0 0 0 0 0 0 0 0 0 0 0 0 0 0.0604315631958581 0.0174034199544496 0.0989222870369351 0.123945872340034 0.208911018333705 0 0 0 -0.274930706135922 0 -1.4420797954733 0 -0.441672672520602 -0.480444608662116 0 0 0 0 0 0 0 0 0
0 0 0 0 0 0 0 0 0 1.05731744679572 0.873377661789596 0 0.14286035394955 0.0613643615232425 0 0 0 0 0 0 0 0 0 0 0 0 0 0 0 0 0 0 0 0 0 0 -0.274930706135922 0 0 -0.245201568897967 0 0 0 0 0 0 0 -0.162776086041983 0 0
0 0 0 0 0 0 0 0 0 0 0 0 0 0 0 0 0 0 0 0 0 0.0465916849788459 0 0.363756128176633 0.0422099642094838 0 0.0418617807296339 1.2576672539523 0 0.103966155783822 0.0141225778900604 0.126556621415451 0.077527919984465 0 0 0.28583122791131 0 -0.274930706135922 0 0 0 0 0 0 0 0 0 -9.86682542229913 0 0
0 0 0 0 0 0 0 0 0 0 0 0 0 0 0 0 0 0 0 0 0 0 0 0 0 0 0 0 0 0 0 0 0 0 0 0 0 0 -0.274930706135922 -0.63961435526408 0 0 0 0 0 0 0 -1.45788102553893 0 0
0 0 0 0 0 0 0 0 0 0 0 0 0 0 0 0 0 0 0 0 0 0 0 0 0.0835965964745636 0 0.274945267236595 0.807093559833094 0.0877484382841465 0 0.315943710887793 1.69482149667072 0 0.140408392772227 0.317369548434644 0.0893538822064255 0.0490966990487357 0 0.134499615967947 -0.274930706135922 0.767371111937776 0 0 0 0 0 0 0 0 0
0 0 0 0 0 0 0 0 0 0 0 0 0 0 0 0 0 0 0 0 0 0 0 0 0 0 0 0 0 0 0 0 0.111194371005085 0 0.998988777242094 0.0984931093610376 0 0 0 -3.8079462233204 -0.274930706135922 0 0 0 0 0 0 -0.141326053533801 0 0
0 0 0 0 0 0 0 0 0 0 0 0 0 0 0 0 0 0 0 0 0 0 0 0 0 0 0 0 0 0.0308928423954163 0 0 0 0 0 0 0 0 0 0 0 -0.274930706135922 0 0 0 0 0 -0.450502636933609 0 0
0 0 0 0 0 0 0 0 0 0 0 0 0 0 0 0 0 0 0.173773609089707 0 0 0 0 0 0 0 0 0 0 0 0 0 0 0 0 0 0 0 0 0 0 0 -0.274930706135922 0 0 0 0 -2.08820163370461 0 -0.514277583696724
0 0 0 0 0 0 0 0.116280660497637 0 0 0.325788597543414 0.728537551734167 0 0 0 0 0 0 0 0 0 0 0 0 0 0 0 0 0 0 0 0 0 0 0 0 0 0 0 0 0 0 0 -0.274930706135922 0 0 0 0 0 -0.0529831146063419
0.0335975119549666 0.0514356392696736 0.308194429935358 0.857457145576308 0 0.316926922350511 0 0 0 0 0 0 0 0 0 0 0 0 0 0 0 0 0 0 0 0 0 0 0 0 0 0 0 0 0 0 0 0 0 0 0 0 0 0 -0.274930706135922 0 0 0 0 -2.17869928952535
0.0167364670913141 0.274845417750333 1.31965563543914 0.0358365409944179 0.31225175184603 0.154161575672429 0 0 0 0 0 0 0 0 0 0 0 0 0 0 0 0 0 0 0 0 0 0 0 0 0 0 0 0 0 0 0 0 0 0 0 0 0 0 0 -0.274930706135922 0 0 0 0
0 0 0 0 0 0 0 0 0.314266641555078 0.140188419035928 0 0.384661764673904 0.927526370047056 0.431831337285758 0.161493976652632 0 0.171025566312621 0 0.56525392127194 0 0.176567774932776 0 0 0 0 0 0 0 0 0 0 0 0 0 0 0 0 0 0 0 0 0 0 0 0 0 -0.274930706135922 0 0 0
0 0 0 0 0 0 0 0 0 0 0 0 0 0 0 0 0 0 0 0 0 0 0 0 0 0 0 0 0 0 0 0 0 0 0 0 0.0336375961800305 1.98131795314929 0.319118352511758 0 0.0289343294356208 0.0962447626691008 0.412360059958155 0 0 0 0 -0.274930706135922 0 0
0 0 0 0 0 0 0 0 0 0 0 0 0 0 0 0 0 0 0 0 0 0 0 0 0.126663201850017 0.0972301604938524 0 0 0 0 0 0 0 0 0 0 0 0 0 0 0 0 0 0 0 0 0 0 -0.274930706135922 0
0 0 0 0 0 0 0 0 0 0 0 0 0 0 0 0 0 0 0 0 0 0 0 0 0 0 0 0 0 0 0 0 0 0 0 0 0 0 0 0 0 0 0.107662238553582 0.0107567844630549 0.438992626147445 0 0 0 0 -0.274930706135922
