2.9026435657766
0.180265115394646
1.78657448963765
1.26890253180815
0.637884213620654
10.0526351637419
0.92741278862058
0.246357353282064
2.48422889000488
0.209289807943828
0.476945268716993
1.38479346676358
1.81669915000228
0.415726251160039
0.174600312966528
0.618213526410418
0.152173631329332
5.29283208426959
0.561279673486349
2.23094793201772
0.513504135125733
1.03465710008188
2.4344330267378
1.66608693800885
0.113589227469676
0.804266978457521
2.18214062273072
1.66371601087495
0.337427331351684
0.287963842286156
2.73763835665382
4.85346755661413
0.956380852288334
0.794281545646994
2.36048362045868
1.32779917846853
1.23726070572245
3.14641488291961
0.170765208020555
0.897179766264359
0.848554328022416
0.283964747035031
0.799537546743261
1.72081331627633
1.84237554658299
5.89868251642648
1.10467624499229
3.08271362567518
1.59818904343542
0.65699727171906
