-0.449693593130566 0 0 0 0 0 0 0 0 -0.308760725096905 0 0 0 -0.862078393395383 0 0 0 0 0 0 0 0 0 0 0 0 0 0 0 0 0 0 0 0 0 0 0 0 0 0 0 0 0 0 0 0 0 0 0 0
0 -0.449693593130566 0 0 0 0 0 0 0 -1.56522644157018 -0.989648303634986 0 0 0 0 0 0 0 -0.438227773920042 0 0 0 0 0 0 0 0 0 0 0 0 0 0 0 0 0 -2.59896281393364 0 -0.504743799353936 0 0 0 0 0 0 0 0 0 0 0
0 0 -0.449693593130566 0 0 0 0 0 0 -0.835155031402776 -0.510079634552107 0 0 0 0 0 0 0 0 0 0 0 0 0 0 0 0 0 0 0 0 0 0 0 0 0 -0.728823524129656 0 -1.35319170261789 0 0 0 0 0 0 0 0 0 0 0
0 0 0 -0.449693593130566 0 -1.34225059896247 0 0 0 0 -1.5576642738927 0 0 0 0 0 0 0 0 0 0 0 0 0 0 0 -0.0607911911444328 0 0 0 0 0 0 0 0 0 -1.13269115542857 0 -0.485053643691495 0 0 0 0 0 0 0 0 0 0 0
0 0 0 0 -0.449693593130566 0 0 0 0 0 -2.26203662729374 0 0 0 -0.64529171186162 0 0 0 0 0 0 0 0 0 0 0 -0.228053323332969 0 0 0 0 0 0 0 0 0 -0.914526670631644 0 -1.01390948616338 0 0 0 0 0 0 0 0 0 0 0
0 0 0 0.254951063766871 0 -0.449693593130566 -1.26158044564574 0 0 0 -1.9537188893593 0 0 0 -0.197618090714289 0 0 0 0 0 0 0 0 0 0 0 -0.486302805666535 0 0 0 0 0 0 0 0 0 -0.528702196751686 0 -3.17533390630482 0 0 0 0 0 0 0 0 0 0 0
0 0 0 0 0 0.237454192522795 -0.449693593130566 0 -1.54190375703368 0 0 -1.64512027082235 0 0 -2.14126008840866 0 0 0 0 0 0 0 0 0 0 0 -0.363408098510502 0 0 0 0 0 0 0 0 -0.532075785657759 0 -0.875319526467939 -1.01711096463788 0 0 -0.906793635034518 0 0 0 0 0 0 0 0
0 0 0 0 0 0 0 -0.449693593130566 0 0 0 0 0 0 0 0 0 0 0 0 0 -2.63201381185497 0 0 0 0 0 0 0 0 0 0 0 0 0 -3.15159362345571 0 0 0 0 0 0 0 0 0 0 0 0 0 0
0 0 0 0 0 0 0.322239426705907 0 -0.449693593130566 0 0 0 0 0 0 0 0 0 0 0 0 -0.248233580349228 0 0 0 0 0 0 0 0 0 0 0 0 0 -0.726517434520385 0 0 0 0 0 0 0 0 0 0 -0.117815551236735 0 0 0
0.0670623114212793 0.308795325146583 0.173524001589892 0 0 0 0 0 0 -0.449693593130566 0 0 0 0 0 0 0 0 0 -0.128170926179596 0 -0.332468864425542 0 0 0 0 0 0 0 0 0 0 0 0 0 0 0 0 0 0 0 0 0 0 0 0 -1.27097788788178 0 0 0
0 0.196851125344998 0.0905375309849915 0.338599290310662 0.423012864086882 0.393878477490002 0 0 0 0 -0.449693593130566 0 0 0 0 0 0 0 0 -0.683344919344387 0 -0.821516413778939 0 0 0 0 0 0 0 0 0 0 0 0 0 -0.540254367376964 0 0 0 0 0 0 0 0 0 0 -1.91550299219979 0 0 0
0 0 0 0 0 0 0.312669492210397 0 0 0 0 -0.449693593130566 -0.655438124635576 0 0 0 0 0 0 0 0 0 0 0 0 0 0 -1.33694709927156 -3.20557483478111 0 0 0 0 0 0 -2.26588888019056 0 0 0 0 0 0 0 0 0 0 -1.65029433952144 0 0 0
0 0 0 0 0 0 0 0 0 0 0 0.127490954577196 -0.449693593130566 0 0 0 0 0 0 0 0 0 0 0 0 0 0 -0.185953537626778 -3.9283391554676 0 0 0 0 0 0 -0.382755602693058 0 0 0 0 0 0 0 0 0 0 -1.68382597337529 0 0 0
0.178786257913941 0 0 0 0 0 0 0 0 0 0 0 0 -0.449693593130566 0 0 0 0 0 0 0 0 0 0 0 0 0 0 0 0 0 0 0 0 0 -0.24089955054638 0 0 0 0 0 0 0 0 0 0 -0.28970641499995 0 0 0
0 0 0 0 0.137358783313075 0.03789196698489 0.409037438208031 0 0 0 0 0 0 0 -0.449693593130566 0 0 0 0 0 0 0 -2.95385955385966 0 0 0 0 -3.29113722569503 0 0 0 0 0 0 0 0 0 0 0 0 0 0 0 0 0 0 0 0 0 0
0 0 0 0 0 0 0 0 0 0 0 0 0 0 0 -0.449693593130566 0 0 0 0 0 0 -1.41127787286115 0 0 0 0 0 0 0 0 0 0 0 0 0 0 0 0 0 -3.71582476589998 0 0 0 0 0 0 0 0 0
0 0 0 0 0 0 0 0 0 0 0 0 0 0 0 0 -0.449693593130566 0 0 0 0 0 -1.43009502001291 0 0 0 0 -0.490627651669754 0 0 0 0 0 0 0 0 0 0 0 0 -0.840122775284403 0 0 0 0 0 0 0 0 0
0 0 0 0 0 0 0 0 0 0 0 0 0 0 0 0 0 -0.449693593130566 0 0 -0.270607077414737 0 0 0 0 0 0 -0.42500517146934 0 0 0 0 0 0 0 0 0 0 0 -0.661267460482622 0 0 0 0 0 0 0 0 0 0
0 0.0822167487686714 0 0 0 0 0 0 0 0 0 0 0 0 0 0 0 0 -0.449693593130566 0 -1.55856578942321 0 0 0 0 0 0 -1.73803124806185 0 0 0 0 0 0 0 0 0 0 0 -5.67816427770178 0 0 0 0 0 0 0 0 0 0
0 0 0 0 0 0 0 0 0 0.0258188073277247 0.138998059457594 0 0 0 0 0 0 0 0 -0.449693593130566 0 0 -0.145425667736716 0 0 0 0 -1.29649756761031 0 0 0 0 -2.72984498884215 0 0 0 0 0 0 0 0 0 0 0 0 -1.61691474729772 0 0 0 0
0 0 0 0 0 0 0 0 0 0 0 0 0 0 0 0 0 0.0549458000789036 0.321540487175276 0 -0.449693593130566 0 -0.468634036615975 0 0 -1.26484101592358 0 0 0 0 0 -1.69101441740948 -1.15734197741335 -3.93223479405773 0 0 0 0 0 -0.514432452499248 0 0 0 0 0 -0.620333405938749 0 0 0 0
0 0 0 0 0 0 0 0.484199024581461 0.0518480173711522 0.0672444798796459 0.169631255017671 0 0 0 0 0 0 0 0 0 0 -0.449693593130566 -3.90741009924239 0 0 -0.53490183911784 0 0 0 0 0 -0.222928386709936 0 0 0 0 0 0 0 -2.18527542137631 0 0 0 0 0 -4.18350129234799 0 0 0 0
0 0 0 0 0 0 0 0 0 0 0 0 0 0 0.600977914231038 0.30453745199879 0.278578107594572 0 0 0.0285384335535009 0.0972330618500628 0.783410418783867 -0.449693593130566 0 0 0 0 0 0 0 0 -1.9444464561089 -3.26943498199321 0 0 0 0 0 0 -6.55974796258475 0 0 0 0 0 -1.10670954777009 0 0 0 0
0 0 0 0 0 0 0 0 0 0 0 0 0 0 0 0 0 0 0 0 0 0 0 -0.449693593130566 0 0 0 0 0 -0.854907134223359 -3.13307334133705 0 0 0 0 0 0 0 0 0 0 0 -6.70485530439619 0 0 -3.31592066195398 0 0 0 0
0 0 0 0 0 0 0 0 0 0 0 0 0 0 0 0 0 0 0 0 0 0 0 0 -0.449693593130566 0 0 0 0 -3.10243652024668 -1.00821507454492 0 0 0 0 0 0 0 0 0 0 0 0 0 -3.66028139031096 -1.35857384071657 0 0 0 0
0 0 0 0 0 0 0 0 0 0 0 0 0 0 0 0 0 0 0 0 0.243234852278956 0.0966313691054845 0 0 0 -0.449693593130566 0 0 0 -1.57793037353648 -1.92001902833198 0 0 0 0 0 0 0 0 -0.523635010402055 0 0 -2.14376283428811 0 0 0 0 -0.308601599804686 0 0
0 0 0 0.0123432420214956 0.0471775863447656 0.101951336952401 0.0771350654948506 0 0 0 0 0 0 0 0 0 0 0 0 0 0 0 0 0 0 0 -0.449693593130566 0 0 -0.300059738184214 -0.369672850201944 0 0 0 0 0 0 0 0 -0.731197496408499 0 0 -3.20412717037166 0 0 0 0 0 0 0
0 0 0 0 0 0 0 0 0 0 0 0.255997640765189 0.0390737815743191 0 0.68841004953595 0 0.0999555825469145 0.0810482965918385 0.34003025906833 0.268203040965781 0 0 0 0 0 0 0 -0.449693593130566 0 -0.596293721654365 0 0 0 0 0 0 0 0 0 0 0 0 0 0 0 -0.875120829135326 0 -1.76071999961403 -0.282821398230736 0
0 0 0 0 0 0 0 0 0 0 0 0.617878104277956 0.773631271712997 0 0 0 0 0 0 0 0 0 0 0 0 0 0 0 -0.449693593130566 -0.436752393222342 0 0 0 0 0 0 0 0 0 0 0 0 0 0 0 -0.691190586578339 0 -0.708166068531258 -0.0787936069523732 0
0 0 0 0 0 0 0 0 0 0 0 0 0 0 0 0 0 0 0 0 0 0 0 0.16649054152536 0.605867743333582 0.298889095506447 0.067070497853781 0.122984679644839 0.0858004636961171 -0.449693593130566 0 0 0 0 0 0 0 0 0 0 0 0 0 0 0 -1.04506817454931 0 -1.21657454574953 -0.477489841056587 0
0 0 0 0 0 0 0 0 0 0 0 0 0 0 0 0 0 0 0 0 0 0 0 0.622544667134532 0.209199661325205 0.398581113088322 0.071200555739314 0 0 0 -0.449693593130566 0 0 0 0 0 0 0 0 0 0 0 0 0 0 -0.349759016808415 0 -0.364940111661302 -1.49625138659674 0
0 0 0 0 0 0 0 0 0 0 0 0 0 0 0 0 0 0 0 0 0.345509577177376 0.0441324222563258 0.366471083704411 0 0 0 0 0 0 0 0 -0.449693593130566 0 0 0 0 0 0 0 0 0 0 0 0 0 -0.170029028638805 0 0 -0.476096441159532 0
0 0 0 0 0 0 0 0 0 0 0 0 0 0 0 0 0 0 0 0.550988533699117 0.232625896538478 0 0.638762854374003 0 0 0 0 0 0 0 0 0 -0.449693593130566 0 0 0 0 0 0 0 0 0 0 0 0 -0.574787269674087 0 -0.4896526493581 0 0
0 0 0 0 0 0 0 0 0 0 0 0 0 0 0 0 0 0 0 0 0.74586631997994 0 0 0 0 0 0 0 0 0 0 0 0 -0.449693593130566 0 0 0 0 0 0 0 0 0 0 0 0 0 -2.24690591756549 -0.173041598466891 -0.289956677082606
0 0 0 0 0 0 0 0 0 0 0 0 0 0 0 0 0 0 0 0 0 0 0 0 0 0 0 0 0 0 0 0 0 0 -0.449693593130566 0 0 0 0 0 0 0 0 0 0 -2.53313475817296 0 -2.83936599372458 -0.722096315505615 -2.43062979336796
0 0 0 0 0 0 0.101528527125787 0.675624189991914 0.144672330287683 0 0.105885248056309 0.44216768468258 0.0684523455718209 0.0485985640809268 0 0 0 0 0 0 0 0 0 0 0 0 0 0 0 0 0 0 0 0 0 -0.449693593130566 0 0 0 0 0 0 0 0 0 -0.318300353221188 0 0 -0.564922597344086 -0.657081733928006
0 0.549435860709422 0.126997204113076 0.22921542493084 0.180275598174573 0.101633408736314 0 0 0 0 0 0 0 0 0 0 0 0 0 0 0 0 0 0 0 0 0 0 0 0 0 0 0 0 0 0 -0.449693593130566 0 0 0 0 0 0 0 0 -1.10693062350916 0 -0.586002118499845 0 0
0 0 0 0 0 0 0.158951121079747 0 0 0 0 0 0 0 0 0 0 0 0 0 0 0 0 0 0 0 0 0 0 0 0 0 0 0 0 0 0 -0.449693593130566 0 0 0 0 0 -2.80110094014993 0 -1.03090122356951 0 0 0 -0.22708342749544
0 0.0902575893400599 0.282860558381655 0.101224534805434 0.182817750802795 0.626457682040821 0.208090395355323 0 0 0 0 0 0 0 0 0 0 0 0 0 0 0 0 0 0 0 0 0 0 0 0 0 0 0 0 0 0 0 -0.449693593130566 0 0 0 0 0 0 -1.48469853011927 0 0 0 0
0 0 0 0 0 0 0 0 0 0 0 0 0 0 0 0 0 0.128993413967298 1.08720559555721 0 0.109459229859421 0.449763353866707 1.39917245357757 0 0 0.0942631466788421 0.139180891281506 0 0 0 0 0 0 0 0 0 0 0 0 -0.449693593130566 0 0 0 0 0 0 0 0 0 0
0 0 0 0 0 0 0 0 0 0 0 0 0 0 0 0.757510401011376 0.160150278043394 0 0 0 0 0 0 0 0 0 0 0 0 0 0 0 0 0 0 0 0 0 0 0 -0.449693593130566 0 0 0 0 0 0 0 0 0
0 0 0 0 0 0 0.195521319208205 0 0 0 0 0 0 0 0 0 0 0 0 0 0 0 0 0 0 0 0 0 0 0 0 0 0 0 0 0 0 0 0 0 0 -0.449693593130566 0 0 0 0 0 0 0 0
0 0 0 0 0 0 0 0 0 0 0 0 0 0 0 0 0 0 0 0 0 0 0 1.29984136248713 0 0.429616449477287 0.651029475220481 0 0 0 0 0 0 0 0 0 0 0 0 0 0 0 -0.449693593130566 0 0 0 0 0 0 0
0 0 0 0 0 0 0 0 0 0 0 0 0 0 0 0 0 0 0 0 0 0 0 0 0 0 0 0 0 0 0 0 0 0 0 0 0 0.568569190303913 0 0 0 0 0 -0.449693593130566 0 0 0 0 0 0
0 0 0 0 0 0 0 0 0 0 0 0 0 0 0 0 0 0 0 0 0 0 0 0 0.740214892228776 0 0 0 0 0 0 0 0 0 0 0 0 0 0 0 0 0 0 0 -0.449693593130566 0 0 0 0 0
0 0 0 0 0 0 0 0 0 0 0 0 0 0 0 0 0 0 0 0.313989171199871 0.126008905654202 0.837296135028763 0.225073394424736 0.663707452418081 0.290426172137126 0 0 0.168817241268274 0.131568507211753 0.198560629287041 0.0681619636679666 0.0339691517258875 0.106595348974134 0 0.507768979847542 0.0639640743197909 0.233316551831038 0.206654836927998 0.290368928086983 0 0 0 0 0 0 -0.449693593130566 0 0 0 0
0 0 0 0 0 0 0 0 0.0216417626508143 0.260165281870486 0.382736332641013 0.356875012352258 0.341959763761863 0.0623329788604682 0 0 0 0 0 0 0 0 0 0 0 0 0 0 0 0 0 0 0 0 0 0 0 0 0 0 0 0 0 0 0 0 -0.449693593130566 0 0 0
0 0 0 0 0 0 0 0 0 0 0 0 0 0 0 0 0 0 0 0 0 0 0 0 0 0.0632675366089926 0 0.377047363167865 0.143207665638699 0.24984285348481 0.0672073730756456 0 0.0990459406839215 0.416737179686038 0.575441642360696 0 0.110017627866396 0 0 0 0 0 0 0 0 0 0 -0.449693593130566 0 0
0 0 0 0 0 0 0 0 0 0 0 0 0 0 0 0 0 0 0 0 0 0 0 0 0 0 0 0.055719612197659 0.015849305448811 0.0918742560925025 0.306542307898292 0.0958615640768153 0 0.0339863327409022 0.150092616197747 0.119434654807655 0 0 0 0 0 0 0 0 0 0 0 0 -0.449693593130566 0
0 0 0 0 0 0 0 0 0 0 0 0 0 0 0 0 0 0 0 0 0 0 0 0 0 0 0 0 0 0 0 0 0 0.0609524469836051 0.448453383056816 0.135844447509277 0 0.0467723291850054 0 0 0 0 0 0 0 0 0 0 0 -0.449693593130566
