8.23084190339427
4.75629388044096
1.3557647261988
0.526128250955028
0.283494589511509
0.311278606105488
3.78058922594407
1.03961451680049
0.356811759889046
1.60673228530657
0.428904832555981
0.755757201522353
5.03980328957879
1.00691098664145
0.998003227479891
0.291656596176307
0.17617945043974
4.11261298353426
2.26666916679123
1.47694940652158
9.38623920043707
0.202737710621364
0.302397449002465
0.900304059791862
0.879638199303336
0.269643829659404
0.94373822512978
0.751086784692911
3.53379019443046
1.97622564678189
4.20618924367032
1.21163679152182
1.55519514022647
0.438313770682385
1.28721597300873
0.318010418795357
0.76516536411253
4.45402801623463
7.87906972125358
1.4485467840858
0.179919687983628
6.91761310315574
2.46083475476574
0.20431678473314
1.06309850660948
1.81492267175163
0.361272708369724
1.34547367161609
2.3370480849102
1.48665023536408
