1.17033707305393
0.158395838705259
3.59536545295713
1.45813436523191
1.54012186007593
1.21683445152538
1.26253099448493
2.88075953094326
0.856196080844753
8.85793639433126
0.0959822453319667
0.754411053545265
0.510585561204675
2.28194396220697
0.766258924120066
0.343986520605678
0.410477218009235
0.093571108762973
0.135498579236316
2.41860897909801
0.238169255787527
6.91104147838127
2.03679848564352
4.27142875567345
0.586576715399693
2.38563552809591
0.41970286106845
0.641564564237695
0.991713587249721
0.726310024511243
0.633365778619111
0.294652540175143
0.126237076370369
2.31690819300249
2.36639036059654
0.662063600877412
1.49401473083888
0.366649999672124
6.53155705626189
0.546935821774982
0.577895317645091
1.62253529307193
1.78207153142023
0.319012200573157
0.197678982983888
2.48272015318825
0.22660344364908
0.778475907136657
1.4193098386184
0.954275796450247
