0.277137452353707
2.78144859594018
1.03874830042255
2.19896526864061
5.56383760655206
0.182082550390411
0.726212508908989
0.404900434787456
2.68273758971839
0.337959141103015
0.292669833996483
0.571559655950567
5.16697805576753
1.28977358779326
0.142313405341841
2.27300667059308
2.08409055701808
0.222487635142604
1.29699328942813
0.332796630774621
0.44557087918241
0.0804988634361222
0.776579442480324
0.648176098533291
0.390793675982633
0.227560564903197
0.901653031175421
3.09907678884019
10.7629063186248
0.57850869182248
0.204793483638679
0.516351606910686
0.767923119224306
2.67079337017645
0.537825128459882
0.560115582913899
1.1953869986046
0.62954809550338
0.19331873721663
0.492472539398498
1.60070089912379
0.644856417343493
0.980970209032067
1.80713052619404
3.51313341859949
4.12810964293079
1.58378782289786
0.612865986851589
1.28631626550998
0.657277810143417
