-0.247239884297985 0 -1.34428015156281 0 0 0 0 0 0 0 -1.01477282920006 0 -0.523072006029334 0 0 0 0 0 0 0 0 0 0 0 0 0 0 0 0 0 0 0 0 0 0 0 0 0 0 0 0 0 0 0 0 0 0 0 0 0
0 -0.247239884297985 0 0 0 0 0 0 0 0 -1.59130994198339 0 -1.26132210574267 0 0 0 0 0 0 0 0 0 0 0 0 0 0 0 0 0 0 0 0 0 0 0 0 0 0 0 0 0 0 0 0 0 -0.0951845542051833 0 0 0
0.283026425320665 0 -0.247239884297985 0 -1.11247632779066 0 0 0 0 0 0 0 0 0 0 0 0 -0.934982700993454 0 0 0 0 0 0 0 0 0 0 0 0 0 0 0 0 0 0 0 0 0 0 0 -1.76491807281525 0 0 0 0 0 0 0 0
0 0 0 -0.247239884297985 0 -1.31111384657666 0 0 0 0 0 -0.505447415053434 0 0 0 -1.00813727145487 0 -0.0876470650858084 -4.57781808297343 0 0 0 0 0 0 0 -0.809191458145346 0 0 0 0 0 0 0 0 0 0 0 0 0 0 0 0 0 0 0 -1.25385533342073 0 0 0
0 0 0.238518113046319 0 -0.247239884297985 -1.104707906138 -1.69814492432076 0 0 0 0 0 0 0 0 -1.47716885850595 0 -2.2148984269987 -3.39643732042165 0 0 0 0 0 0 0 -2.6959832658483 0 0 -0.95788362531619 -0.189320681948398 0 0 0 0 0 0 0 0 0 0 -0.395926128685379 0 -0.502119495823575 0 0 0 0 0 0
0 0 0 0.241405274457507 0.209343948691555 -0.247239884297985 0 0 0 0 0 -0.579905936990073 0 0 0 -2.05118818759985 0 -0.817734597837698 -3.60246359544539 0 0 0 0 0 0 0 0 0 0 -0.994710719467878 -0.282338144877027 0 0 0 0 0 0 0 0 0 0 -0.461182949649429 0 0 0 0 0 0 0 0
0 0 0 0 0.331337696265979 0 -0.247239884297985 0 0 0 0 0 0 0 0 -1.69087245194685 0 -0.901467646493973 -4.37414771930401 0 0 0 0 0 0 0 0 0 0 -1.03118076493312 -0.251897631868127 0 0 0 0 0 0 0 0 0 0 -0.918562968745876 0 -0.933990293172325 0 0 -0.485114744602974 0 0 0
0 0 0 0 0 0 0 -0.247239884297985 0 0 0 0 0 0 0 0 0 0 -0.592627665022547 0 0 0 0 0 0 0 0 0 0 -4.64357334497583 0 0 0 0 0 0 0 0 0 0 0 -1.12593569853086 0 -0.718309313679571 0 0 -3.84965322276295 0 0 0
0 0 0 0 0 0 0 0 -0.247239884297985 0 0 0 0 0 0 0 0 0 0 0 0 0 0 0 0 0 0 0 0 -0.102161207822544 0 0 0 0 0 0 0 0 0 0 0 -3.13295538969657 0 -0.440116253827597 0 0 -0.424889758610912 0 0 0
0 0 0 0 0 0 0 0 0 -0.247239884297985 0 0 0 0 0 0 0 0 0 0 0 0 0 0 0 0 0 0 0 -0.710761137817005 0 -2.27537498507242 0 0 0 0 0 0 0 0 0 0 0 -0.492591709369179 0 0 0 0 0 0
0.195740363457308 0.321961153455199 0 0 0 0 0 0 0 0 -0.247239884297985 0 0 0 0 0 0 0 0 0 0 0 0 0 -2.19505388640889 0 0 0 0 -0.764069464991729 0 -1.37374705443319 0 0 0 0 0 0 0 0 0 0 0 -0.27944793717411 0 0 0 0 0 0
0 0 0 0.106093926754418 0 0.12015546934645 0 0 0 0 0 -0.247239884297985 0 0 0 0 -6.12909861136425 0 0 0 0 0 0 0 0 0 0 0 0 -0.240526105650635 0 0 0 0 0 0 0 0 0 0 0 0 0 -0.729200194081652 0 0 -0.0970607392601232 0 0 0
0.102224757839588 0.251369730084596 0 0 0 0 0 0 0 0 0 0 -0.247239884297985 0 0 0 0 0 0 0 0 0 0 0 0 0 0 0 0 -0.198555417996048 0 0 0 0 0 0 0 0 0 0 0 0 0 -1.17495177098173 0 0 0 0 0 0
0 0 0 0 0 0 0 0 0 0 0 0 0 -0.247239884297985 0 0 0 0 0 0 0 0 0 0 0 0 0 0 0 -2.07287535794032 0 0 0 0 0 0 0 0 0 0 -4.39663222986096 0 0 0 0 0 0 0 0 0
0 0 0 0 0 0 0 0 0 0 0 0 0 0 -0.247239884297985 0 0 0 0 0 -1.31467149577145 0 0 -0.253871217262703 0 0 0 0 0 -2.98607528348038 0 0 0 0 0 -0.0588402280494495 -1.77548569758078 0 0 0 0 0 0 0 0 0 0 0 0 0
0 0 0 0.210396988498546 0.305339667824415 0.376625023243249 0.329785955171068 0 0 0 0 0 0 0 0 -0.247239884297985 0 0 0 0 -1.63783402911593 0 0 -1.70340935502625 0 0 0 0 0 0 0 0 0 0 0 -0.852543183770262 0 0 0 0 0 0 0 0 0 0 0 0 0 0
0 0 0 0 0 0 0 0 0 0 0 1.28787789775499 0 0 0 0 -0.247239884297985 0 0 0 -0.428254053402196 0 0 0 0 -3.30425416202967 0 -4.79963024525527 0 -0.446648015698413 0 0 0 0 0 -0.689800914868481 -0.382177227355195 0 0 0 0 0 0 0 0 0 0 0 0 0
0 0 0.173806610394932 0.0174405722624401 0.444390464926722 0.160464678303326 0.167372490832216 0 0 0 0 0 0 0 0 0 0 -0.247239884297985 0 -1.28893221111267 0 0 -1.1008615168728 -0.410374890470227 0 -0.724275291022093 0 0 0 -1.30529407714157 0 0 0 0 0 -0.339711551594336 -7.38907042619229 0 0 0 0 0 0 0 0 0 0 0 0 0
0 0 0 0.808383196886344 0.617223095898306 0.624880546043569 0.778188228615902 0.114674300320142 0 0 0 0 0 0 0 0 0 0 -0.247239884297985 0 -2.55709122622612 0 -1.04350134482124 0 0 -2.77660087720679 0 0 0 0 0 0 0 0 0 -0.930116960234931 -0.457827912566687 0 0 0 0 0 0 0 0 0 0 0 0 0
0 0 0 0 0 0 0 0 0 0 0 0 0 0 0 0 0 0.259740342503689 0 -0.247239884297985 0 0 0 0 0 0 0 0 0 0 0 0 0 0 0 -0.248576682578723 -7.92225137649879 0 0 0 0 0 0 0 0 0 0 0 0 0
0 0 0 0 0 0 0 0 0 0 0 0 0 0 0.252359896623344 0.335855116064405 0.084224980706807 0 0.475522796863818 0 -0.247239884297985 0 -0.278177904568559 0 0 -0.298978622891289 0 0 0 0 0 0 0 0 0 0 -0.807482116042539 0 0 0 0 0 0 0 0 0 0 0 0 0
0 0 0 0 0 0 0 0 0 0 0 0 0 0 0 0 0 0 0 0 0 -0.247239884297985 -0.467763376728651 0 0 0 0 0 0 0 0 0 0 0 0 -2.53374302939674 -1.79575123945293 0 0 0 0 0 0 0 0 0 0 0 0 0
0 0 0 0 0 0 0 0 0 0 0 0 0 0 0 0 0 0.215801008673935 0.208019018792905 0 0.0595351791410893 0.0921693811435297 -0.247239884297985 0 0 0 0 0 0 0 0 0 0 0 0 -4.45065396915661 -1.55663657372644 0 0 0 0 0 0 0 0 0 0 0 0 0
0 0 0 0 0 0 0 0 0 0 0 0 0 0 0.0489772533853423 0.31749049593436 0 0.0850469430254031 0 0 0 0 0 -0.247239884297985 0 -0.0997244930117193 0 0 0 0 0 0 0 0 0 -0.483483729987214 -0.644769036299562 0 0 0 0 0 0 0 0 0 0 0 0 0
0 0 0 0 0 0 0 0 0 0 0.406068968826475 0 0 0 0 0 0 0 0 0 0 0 0 0 -0.247239884297985 0 0 0 0 0 0 0 0 0 0 -0.309826651989718 -1.41220593136304 0 0 0 0 0 0 0 0 0 0 0 0 0
0 0 0 0 0 0 0 0 0 0 0 0 0 0 0 0 0.684976346301066 0.129505417359927 0.582099502317748 0 0.0574919552021402 0 0 0.0193954259513537 0 -0.247239884297985 0 0 0 0 0 0 0 0 0 -2.16321055450326 -3.46032411169476 0 0 0 0 0 0 0 0 0 0 0 0 0
0 0 0 0.139918837965515 0.523189780692903 0 0 0 0 0 0 0 0 0 0 0 0 0 0 0 0 0 0 0 0 0 -0.247239884297985 0 0 0 0 0 0 0 0 0 -2.55097278607812 0 0 0 0 0 0 0 0 0 0 -2.23983852561526 0 0
0 0 0 0 0 0 0 0 0 0 0 0 0 0 0 0 0.913062746035381 0 0 0 0 0 0 0 0 0 0 -0.247239884297985 0 0 0 0 0 0 0 0 0 0 0 0 0 0 0 0 0 0 0 -0.672479884391371 0 0
0 0 0 0 0 0 0 0 0 0 0 0 0 0 0 0 0 0 0 0 0 0 0 0 0 0 0 0 -0.247239884297985 0 0 0 0 0 -4.53017173605287 0 -1.32091699665996 0 0 0 0 0 0 0 0 0 0 0 0 0
0 0 0 0 0.189200064305385 0.190508713851556 0.215940367403838 0.997576153783635 0.0198043950135218 0.139984080125779 0.157227167900334 0.0457575306651114 0.0394783269901688 0.414657324992969 0.628145985933288 0 0.0865598130115076 0.248241571701526 0 0 0 0 0 0 0 0 0 0 0 -0.247239884297985 0 0 0 0 0 0 0 0 0 0 0 0 -1.1810866048153 0 0 0 0 0 0 0
0 0 0 0 0.036422424883916 0.0571434228563165 0.0482563087923493 0 0 0 0 0 0 0 0 0 0 0 0 0 0 0 0 0 0 0 0 0 0 0 -0.247239884297985 0 0 0 -4.72545548699173 0 -4.27076386995729 -3.80534168713568 0 0 0 0 0 0 0 0 0 -0.272887706215701 0 0
0 0 0 0 0 0 0 0 0 0.434109220367816 0.263463172931612 0 0 0 0 0 0 0 0 0 0 0 0 0 0 0 0 0 0 0 0 -0.247239884297985 0 0 -0.274495278116045 0 -0.297580800009464 0 0 -0.491465187240248 0 0 0 0 0 0 0 -1.31314997609843 0 0
0 0 0 0 0 0 0 0 0 0 0 0 0 0 0 0 0 0 0 0 0 0 0 0 0 0 0 0 0 0 0 0 -0.247239884297985 0 0 0 0 0 -0.844428350778336 0 0 0 0 0 0 0 0 -0.434134058944607 0 0
0 0 0 0 0 0 0 0 0 0 0 0 0 0 0 0 0 0 0 0 0 0 0 0 0 0 0 0 0 0 0 0 0 -0.247239884297985 0 0 0 0 0 0 0 0 0 0 0 0 0 -0.182185071193213 0 -1.21392446454506
0 0 0 0 0 0 0 0 0 0 0 0 0 0 0 0 0 0 0 0 0 0 0 0 0 0 0 0 0.796500075841922 0 0.949727205130876 0.0546875037220917 0 0 -0.247239884297985 0 0 0 -1.06525313771045 0 0 0 0 0 -0.251163538605846 0 0 0 -1.15944208917997 -0.0455827273016903
0 0 0 0 0 0 0 0 0 0 0 0 0 0 0.0112240539592871 0.176149367271818 0.136073426956473 0.0693799636319764 0.185360221448097 0.0518405200558846 0 0.518082099596784 0.918112404308504 0.099062248716938 0.0626828775259314 0.417411003475421 0 0 0 0 0 0 0 0 0 -0.247239884297985 0 0 0 0 0 0 0 0 0 0 0 -0.146368161353082 -0.605856864536609 -0.302344735817351
0 0 0 0 0 0 0 0 0 0 0 0 0 0 0.348409828669935 0 0.0685366570269263 1.510043173984 0.0929124817161012 1.72485959506281 0.165849634722461 0.365733849320593 0.306832198688402 0.13030268811379 0.270449569207064 0.695347810729856 0.502310169697749 0 0.252941157096991 0 0.887759706209322 0.0597447499378009 0 0 0 0 -0.247239884297985 0 0 0 0 0 0 0 -1.52011204951447 0 0 -0.726251951212248 0 -0.0541974955200378
0 0 0 0 0 0 0 0 0 0 0 0 0 0 0 0 0 0 0 0 0 0 0 0 0 0 0 0 0 0 0.742166359740087 0 0 0 0 0 0 -0.247239884297985 0 0 0 0 0 0 -0.8283650997367 0 0 0 0 0
0 0 0 0 0 0 0 0 0 0 0 0 0 0 0 0 0 0 0 0 0 0 0 0 0 0 0 0 0 0 0 0 0.166935316207317 0 0.213870720977984 0 0 0 -0.247239884297985 0 0 0 0 0 0 0 0 -0.593624450623661 0 0
0 0 0 0 0 0 0 0 0 0 0 0 0 0 0 0 0 0 0 0 0 0 0 0 0 0 0 0 0 0 0 0.100440402649856 0 0 0 0 0 0 0 -0.247239884297985 0 0 0 0 0 0 0 -2.29305856497181 0 0
0 0 0 0 0 0 0 0 0 0 0 0 0 0.907276170608706 0 0 0 0 0 0 0 0 0 0 0 0 0 0 0 0 0 0 0 0 0 0 0 0 0 0 -0.247239884297985 0 0 0 0 0 0 -0.563208139951038 0 0
0 0 0.358581450984234 0 0.0798146026399879 0.0918535482887533 0.19953561763984 0.232552413948303 0.597178276582652 0 0 0 0 0 0 0 0 0 0 0 0 0 0 0 0 0 0 0 0 0 0 0 0 0 0 0 0 0 0 0 0 -0.247239884297985 0 0 0 0 0 0 0 0
0 0 0 0 0 0 0 0 0 0 0 0 0 0 0 0 0 0 0 0 0 0 0 0 0 0 0 0 0 0.210702220180462 0 0 0 0 0 0 0 0 0 0 0 0 -0.247239884297985 0 0 0 0 0 0 0
0 0 0 0 0.0967790931675091 0 0.196498637910293 0.12995784661176 0.0909870356776933 0.108515442530146 0.0561040189590844 0.139496703569668 0.227398973898574 0 0 0 0 0 0 0 0 0 0 0 0 0 0 0 0 0 0 0 0 0 0 0 0 0 0 0 0 0 0 -0.247239884297985 0 0 0 -0.610603665458318 0 0
0 0 0 0 0 0 0 0 0 0 0 0 0 0 0 0 0 0 0 0 0 0 0 0 0 0 0 0 0 0 0 0 0 0 0.0468546718157257 0 0.317680909458257 0.157810271022124 0 0 0 0 0 0 -0.247239884297985 0 0 0 0 0
0 0 0 0 0 0 0 0 0 0 0 0 0 0 0 0 0 0 0 0 0 0 0 0 0 0 0 0 0 0 0 0 0 0 0 0 0 0 0 0 0 0 0 0 0 -0.247239884297985 0 -0.466124360401991 0 0
0 0.0208498439441541 0 0.243647787550606 0 0 0.0987017416652467 0.831851816211875 0.0838176956867176 0 0 0.0188869296106017 0 0 0 0 0 0 0 0 0 0 0 0 0 0 0 0 0 0 0 0 0 0 0 0 0 0 0 0 0 0 0 0 0 0 -0.247239884297985 -0.938661701700158 0 0
0 0 0 0 0 0 0 0 0 0 0 0 0 0 0 0 0 0 0 0 0 0 0 0 0 0 0.43962780043648 0.127039138669292 0 0 0.0529151445401876 0.27221800717647 0.0816566081872433 0.0378052078030495 0 0.0299020573360358 0.14801003957466 0 0.121747547312934 0.468230533654534 0.122970883432386 0 0 0.106127264922047 0 0.0876264488086993 0.196517177932433 -0.247239884297985 0 0
0 0 0 0 0 0 0 0 0 0 0 0 0 0 0 0 0 0 0 0 0 0 0 0 0 0 0 0 0 0 0 0 0 0 0.227152747630234 0.112372752347821 0 0 0 0 0 0 0 0 0 0 0 0 -0.247239884297985 0
0 0 0 0 0 0 0 0 0 0 0 0 0 0 0 0 0 0 0 0 0 0 0 0 0 0 0 0 0 0 0 0 0 0.229640774385634 0.00967223443871021 0.058749219335664 0.0115191820739266 0 0 0 0 0 0 0 0 0 0 0 0 -0.247239884297985
