-0.327316265853608 -0.288197152061856 -1.0121427927622 0 0 -1.05202687931002 0 0 0 0 0 0 0 0 0 0 0 0 0 0 0 0 0 0 0 0 0 0 0 0 0 0 0 0 0 0 0 0 0 0 0 0 0 0 0 0 0 0 0 0
0.0605245092488474 -0.327316265853608 0 0 0 0 0 0 0 0 0 0 0 0 0 0 0 0 0 0 0 0 0 0 0 0 0 0 0 0 0 0 0 0 0 0 0 0 0 0 0 0 0 0 0 0 0 0 0 0
0.199846482353707 0 -0.327316265853608 0 0 0 0 0 0 0 0 0 0 0 0 0 0 0 0 0 0 0 0 0 0 0 0 0 0 0 0 0 0 0 0 0 0 0 0 0 0 0 0 0 0 0 0 0 0 0
0 0 0 -0.327316265853608 -0.715731942506949 0 -0.385883013619464 -0.865940470689236 0 0 0 0 0 0 0 0 -0.174013687189515 0 0 0 0 0 0 0 0 0 0 0 0 0 0 0 0 0 0 0 0 0 0 0 0 0 0 0 0 0 0 -10.9195545247863 0 0
0 0 0 0.133470103373677 -0.327316265853608 0 -1.86548727477574 0 0 0 0 0 0 0 0 -0.908962079883178 0 0 0 0 0 0 0 0 0 0 0 0 0 0 0 0 0 0 0 0 0 0 0 0 0 0 0 0 0 0 0 0 0 0
0.201409819199042 0 0 0 0 -0.327316265853608 0 0 0 -0.825408776963826 0 0 0 0 0 0 0 0 0 0 0 0 0 0 0 0 0 0 0 0 0 -3.42066997908439 -0.410783149556363 0 0 0 0 0 0 0 0 0 0 0 0 0 0 0 0 0
0 0 0 0.071203050649651 0.336459144613318 0 -0.327316265853608 0 0 0 0 0 0 0 0 0 0 0 -1.41407823444367 0 0 0 0 -2.52574050361839 0 0 0 0 0 0 0 0 0 0 0 0 0 0 0 0 0 0 -0.57278619978657 0 0 0 -3.15997628270031 0 0 0
0 0 0 0.177852385129124 0 0 0 -0.327316265853608 0 0 0 0 0 0 0 0 0 0 0 0 0 -8.77643291035354 0 -0.404449812469645 0 0 0 0 0 0 0 0 0 -0.118460938969207 0 0 0 0 0 0 0 0 0 0 0 0 -0.326041743216481 0 0 0
0 0 0 0 0 0 0 0 -0.327316265853608 0 0 0 0 0 0 0 0 0 -0.394182752910374 0 0 0 0 0 0 0 -0.342398387182526 0 0 0 0 0 0 -0.482926867994145 0 0 0 0 0 0 0 0 0 0 0 0 0 0 0 -0.453677934173986
0 0 0 0 0 0.179148177895478 0 0 0 -0.327316265853608 0 0 0 0 -3.22414322021681 0 0 0 0 0 0 0 0 0 0 -1.21280167735494 -0.612304985833424 -0.950421647831204 0 0 0 0 -1.02040782855551 0 0 0 0 0 0 0 0 0 0 -0.735556603543055 0 0 0 0 -0.449046516723158 0
0 0 0 0 0 0 0 0 0 0 -0.327316265853608 0 0 0 0 0 0 0 -0.78276321012758 0 0 0 0 -1.42104406938172 0 0 -3.79694339752299 0 0 0 0 0 0 0 0 0 0 0 0 0 0 0 0 -3.17793765616735 0 0 0 0 -6.07598494259279 0
0 0 0 0 0 0 0 0 0 0 0 -0.327316265853608 0 0 0 0 0 -5.71762538703994 -0.554165990239463 0 0 0 0 -0.474300139426799 0 0 -0.799478712862298 0 0 0 0 0 0 0 0 0 0 0 0 0 0 0 0 -1.47996804041886 0 0 0 0 0 0
0 0 0 0 0 0 0 0 0 0 0 0 -0.327316265853608 0 0 0 0 -0.812934674717847 0 0 0 0 -0.836295889552462 0 0 0 -1.70005828636653 0 0 -0.256737977725249 0 0 0 0 0 0 0 0 0 0 0 0 0 -1.98935848033369 0 0 0 0 -0.976250108477904 0
0 0 0 0 0 0 0 0 0 0 0 0 0 -0.327316265853608 0 0 0 0 0 -1.47144977388659 0 0 0 0 0 0 -0.539281566851136 0 0 -2.70248448496083 0 0 0 0 0 0 0 -3.61885805519114 0 0 0 0 0 0 -0.604290105937801 0 0 0 -1.45698407410662 0
0 0 0 0 0 0 0 0 0 0.679416434993301 0 0 0 0 -0.327316265853608 0 0 0 0 0 0 0 0 0 0 0 -0.305469364894693 0 0 0 0 0 0 0 -2.61724809365964 0 0 0 0 0 0 0 0 -2.7447170329786 -2.8675170032416 0 0 0 0 0
0 0 0 0 0.184560590300584 0 0 0 0 0 0 0 0 0 0 -0.327316265853608 0 0 0 -0.145666365300505 0 0 0 0 0 0 -0.852901499619809 0 0 0 0 0 0 0 -0.565219733393897 0 0 -1.56229615009579 0 0 0 0 0 -2.52845973640647 -0.88229353344788 0 0 0 -0.48888492720477 0
0 0 0 0.0338090925284865 0 0 0 0 0 0 0 0 0 0 0 0 -0.327316265853608 0 0 0 0 0 0 0 0 0 0 0 0 0 0 0 0 0 -0.423126535203272 0 0 -0.379487556513493 0 0 0 0 0 -0.411469156145904 -1.82097425687623 0 0 0 -0.638517930973948 0
0 0 0 0 0 0 0 0 0 0 0 1.13186378331014 0.164534047966762 0 0 0 0 -0.327316265853608 0 -1.92603292207154 0 0 0 0 0 0 0 0 0 0 0 0 0 0 -5.08703053734737 0 0 -0.496730623559283 0 0 0 0 0 -0.606038018301541 -1.33444922952355 0 0 0 -0.865100635885323 0
0 0 0 0 0 0 0.27596979408525 0 0.07337313428319 0 0.167449760838778 0.10225526836649 0 0 0 0 0 0 -0.327316265853608 0 0 0 0 0 0 0 0 0 0 0 0 0 0 0 -2.32249234884914 0 0 0 0 0 0 0 0 -6.305355775301 0 0 0 0 -0.160645082482926 0
0 0 0 0 0 0 0 0 0 0 0 0 0 0.311066718171357 0 0.025531891463465 0 0.38436479147334 0 -0.327316265853608 0 0 0 0 0 0 0 0 0 0 0 0 0 0 -1.15424529549784 0 0 -2.27970509985515 0 0 0 0 0 -3.58294300719455 -3.78099079045276 0 0 0 -5.21881448564722 0
0 0 0 0 0 0 0 0 0 0 0 0 0 0 0 0 0 0 0 0 -0.327316265853608 0 0 0 0 0 0 0 0 0 0 0 0 0 -0.838881851151031 0 0 0 0 0 0 0 0 -1.45203445263683 -0.61577313681123 0 0 0 0 0
0 0 0 0 0 0 0 1.76188807908819 0 0 0 0 0 0 0 0 0 0 0 0 0 -0.327316265853608 0 0 0 0 0 0 0 0 0 0 0 0 0 0 0 0 0 0 0 0 0 -0.526684548411104 -0.874580548006356 0 0 0 0 0
0 0 0 0 0 0 0 0 0 0 0 0 0.17257070813083 0 0 0 0 0 0 0 0 0 -0.327316265853608 0 0 0 0 0 0 0 0 0 0 0 -2.29989353604624 0 0 0 0 0 0 0 0 -1.22238787772901 -0.631162481347183 0 0 0 -0.162722537781802 0
0 0 0 0 0 0 0.473974485346423 0.0802806948032873 0 0 0.275395779240895 0.0997113902673285 0 0 0 0 0 0 0 0 0 0 0 -0.327316265853608 0 0 0 0 0 0 0 0 0 0 -1.9981334096233 0 0 0 0 0 0 0 0 -0.229544553587143 0 0 0 0 -0.960099913727944 0
0 0 0 0 0 0 0 0 0 0 0 0 0 0 0 0 0 0 0 0 0 0 0 0 -0.327316265853608 0 0 0 0 0 0 0 0 0 -4.13545181660325 0 0 0 0 0 0 0 0 -0.714363240896007 -2.31495013250555 0 0 0 -0.158747374979433 0
0 0 0 0 0 0 0 0 0 0.253755938248688 0 0 0 0 0 0 0 0 0 0 0 0 0 0 0 -0.327316265853608 0 0 0 0 0 0 0 0 0 0 0 0 0 0 0 0 0 0 0 -1.77353002963925 0 0 -1.2480539941198 0
0 0 0 0 0 0 0 0 0.0714060601193895 0.122223103528119 0.809014167152176 0.162027002739086 0.332719440968492 0.0957300760309844 0.0654841209687685 0.190083771309793 0 0 0 0 0 0 0 0 0 0 -0.327316265853608 0 0 0 0 0 0 0 0 0 0 0 0 0 0 0 0 -0.370182240067202 0 -1.08633053970922 0 0 -0.67730395967765 0
0 0 0 0 0 0 0 0 0 0.198044101928636 0 0 0 0 0 0 0 0 0 0 0 0 0 0 0 0 0 -0.327316265853608 0 0 -0.14437015102909 0 0 0 0 0 -0.575401892129841 0 0 -0.274870335158217 -0.286346622049019 0 0 0 -0.556754753287597 -0.41379600983288 0 0 0 0
0 0 0 0 0 0 0 0 0 0 0 0 0 0 0 0 0 0 0 0 0 0 0 0 0 0 0 0 -0.327316265853608 0 0 0 0 0 0 0 0 0 0 0 0 -3.57366438145028 0 -3.56827689177637 -2.84811354396746 -0.314824383018583 0 0 0 0
0 0 0 0 0 0 0 0 0 0 0 0 0.0500704229258673 0.548550780578824 0 0 0 0 0 0 0 0 0 0 0 0 0 0 0 -0.327316265853608 0 0 0 0 0 0 0 0 0 0 0 -2.73764496282147 0 -1.24069880793872 0 -1.27656646899475 0 0 0 0
0 0 0 0 0 0 0 0 0 0 0 0 0 0 0 0 0 0 0 0 0 0 0 0 0 0 0 0.0271301317290305 0 0 -0.327316265853608 0 0 0 0 0 -0.957428831064747 0 0 0 0 -2.77854377055601 0 0 -0.978402420873873 -1.31873260900409 0 0 0 0
0 0 0 0 0 0.689633723671632 0 0 0 0 0 0 0 0 0 0 0 0 0 0 0 0 0 0 0 0 0 0 0 0 0 -0.327316265853608 0 0 0 0 -1.94718805086338 0 -1.23865414158101 0 0 0 0 -5.22748603562796 -3.92338590895261 -1.81748865200505 0 0 0 0
0 0 0 0 0 0.0862630232251576 0 0 0 0.204541929895647 0 0 0 0 0 0 0 0 0 0 0 0 0 0 0 0 0 0 0 0 0 0 -0.327316265853608 0 0 0 -3.05075277228095 0 -1.97605390192939 0 0 0 0 0 0 -1.10103953189458 0 0 0 0
0 0 0 0 0 0 0 0.0257167342972856 0.0908199456004133 0 0 0 0 0 0 0 0 0 0 0 0 0 0 0 0 0 0 0 0 0 0 0 0 -0.327316265853608 0 0 0 0 0 0 0 -3.77211679062419 0 0 -0.556912375053731 0 0 0 0 0
0 0 0 0 0 0 0 0 0 0 0 0 0 0 0.514947369725792 0.111985101224135 0.087668897903868 0.977770672102454 0.439108443618988 0.241549900428484 0.155253160861521 0 0.490304618015618 0.426117822639019 0.841720054435133 0 0 0 0 0 0 0 0 0 -0.327316265853608 0 -0.403080046412537 0 0 0 0 0 0 0 0 0 0 0 0 0
0 0 0 0 0 0 0 0 0 0 0 0 0 0 0 0 0 0 0 0 0 0 0 0 0 0 0 0 0 0 0 0 0 0 0 -0.327316265853608 -0.265486105590153 0 0 0 0 0 0 0 0 -0.379080906144148 0 0 0 0
0 0 0 0 0 0 0 0 0 0 0 0 0 0 0 0 0 0 0 0 0 0 0 0 0 0 0 0.128351537232968 0 0 0.187467962323206 0.382956933559825 0.590589266666989 0 0.0852044555041484 0.0571005454664586 -0.327316265853608 0.878999706298293 0 0 0 0 0 0 0 -2.54791532015255 0 0 0 0
0 0 0 0 0 0 0 0 0 0 0 0 0 0.71339924659024 0 0.329348531780632 0.0750335330057636 0.0935141383487472 0 0.442351011579708 0 0 0 0 0 0 0 0 0 0 0 0 0 0 0 0 -4.50108111662867 -0.327316265853608 0 0 0 0 0 0 0 -4.70636674552068 0 0 0 0
0 0 0 0 0 0 0 0 0 0 0 0 0 0 0 0 0 0 0 0 0 0 0 0 0 0 0 0 0 0 0 0.263685896122416 0.365170136856243 0 0 0 0 0 -0.327316265853608 0 0 0 0 0 0 -0.220910038150262 0 0 0 0
0 0 0 0 0 0 0 0 0 0 0 0 0 0 0 0 0 0 0 0 0 0 0 0 0 0 0 0.0589876223779921 0 0 0 0 0 0 0 0 0 0 0 -0.327316265853608 0 0 0 0 0 -5.00512963367802 0 0 0 0
0 0 0 0 0 0 0 0 0 0 0 0 0 0 0 0 0 0 0 0 0 0 0 0 0 0 0 0.0579811271391031 0 0 0 0 0 0 0 0 0 0 0 0 -0.327316265853608 0 0 0 0 0 0 0 0 0
0 0 0 0 0 0 0 0 0 0 0 0 0 0 0 0 0 0 0 0 0 0 0 0 0 0 0 0 0.69561437535908 0.592660308992486 0.566915535897042 0 0 0.80074867443077 0 0 0 0 0 0 0 -0.327316265853608 0 0 0 -0.2343744133327 0 0 0 0
0 0 0 0 0 0 0.119815501065465 0 0 0 0 0 0 0 0 0 0 0 0 0 0 0 0 0 0 0 0 0 0 0 0 0 0 0 0 0 0 0 0 0 0 0 -0.327316265853608 0 0 0 0 0 0 0
0 0 0 0 0 0 0 0 0 0.134327612756465 0.639759793686491 0.294530401348214 0.393749010266242 0 0.563879497829193 0.520150232820493 0.0830146519364852 0.130806036579537 1.17244353884982 0.746310733513074 0.285079115152886 0.102087262217263 0.239297859918179 0.0479485624776918 0.135951139764334 0 0.0694285842416891 0 0.702549138241164 0.24017962829743 0 1.00679654934901 0 0 0 0 0 0 0 0 0 0 0 -0.327316265853608 0 0 0 0 0 0
0 0 0 0 0 0 0 0 0 0 0 0 0 0.130173922859682 0.578129180005716 0.172739422772982 0.388295271280843 0.2326397793754 0 0.745091555480266 0.121815327823905 0.165856741850471 0.13439332896068 0 0.469113781210642 0 0 0.109448374375013 0.566688559022395 0 0.188903940736873 0.843146267698943 0 0.118622333542764 0 0 0 0 0 0 0 0 0 0 -0.327316265853608 0 0 0 0 0
0 0 0 0 0 0 0 0 0 0 0 0 0 0 0 0 0 0 0 0 0 0 0 0 0 0.354540147019962 0.210483187608491 0.0784595477702344 0.0672115340420336 0.252643208543235 0.286803436353629 0.356728094071433 0.210705308301178 0 0 0.0741716044683909 0.52982472257907 0.981605333469239 0.0423762279162202 1.05741233992256 0 0.0470933777621163 0 0 0 -0.327316265853608 0 0 0 0
0 0 0 0 0 0 0.643110436555451 0.0653167836206694 0 0 0 0 0 0 0 0 0 0 0 0 0 0 0 0 0 0 0 0 0 0 0 0 0 0 0 0 0 0 0 0 0 0 0 0 0 0 -0.327316265853608 0 0 0
0 0 0 1.94603920295766 0 0 0 0 0 0 0 0 0 0 0 0 0 0 0 0 0 0 0 0 0 0 0 0 0 0 0 0 0 0 0 0 0 0 0 0 0 0 0 0 0 0 0 -0.327316265853608 0 0
0 0 0 0 0 0 0 0 0 0.0882317431469345 1.27995033651165 0 0.199001248999553 0.301592957825733 0 0.0945444007944905 0.122939979847162 0.163251774425841 0.0318880718042357 1.03536755718449 0 0 0.0338762418997497 0.200017917706826 0.032335331666674 0.262512845945056 0.138306506153033 0 0 0 0 0 0 0 0 0 0 0 0 0 0 0 0 0 0 0 0 0 -0.327316265853608 0
0 0 0 0 0 0 0 0 0.0854488920296533 0 0 0 0 0 0 0 0 0 0 0 0 0 0 0 0 0 0 0 0 0 0 0 0 0 0 0 0 0 0 0 0 0 0 0 0 0 0 0 0 -0.327316265853608
