0.484888800907159
1.14767861430601
1.16097038742036
0.633114486677942
4.47695624720226
2.15365566881943
0.864763692019915
0.232293067857502
0.785374497772386
2.22484637895271
0.570671291512654
0.989531718486094
7.06645125653889
1.13587056535167
0.710946785408373
8.49179492254525
0.940206713785762
6.07447342534612
1.40897735095073
0.180232255630916
0.520903206514498
3.26118768240871
0.546077915245056
3.69832460135688
1.18409092730184
0.369789324043524
1.50474669570709
1.61545922885017
0.928136698659176
0.72752930631421
5.36993701802914
1.60787073248744
0.602334400271677
0.106318345402023
2.08496870897984
0.169388448068582
0.221196401635206
1.19150867047301
0.122730233806028
3.76604638827148
0.77041682915756
0.202724293054877
0.709516463350818
0.905342313459413
1.45677172257658
7.82931153107864
1.06458947948432
1.83187724062258
0.84750537241649
1.61232381946991
