-0.343746100665863 0 0 -0.503667124693637 0 0 0 0 0 0 0 0 0 0 0 0 0 0 0 0 0 0 0 0 0 0 0 0 0 0 0 0 0 0 0 0 0 0 0 0 0 0 0 0 0 0 0 0 0 0
0 -0.343746100665863 0 0 0 0 0 0 -0.387549720274278 0 0 -0.754482131829871 0 0 -1.69693935934323 0 0 0 0 0 0 0 0 0 0 0 0 0 0 0 0 0 0 0 0 0 0 0 0 0 0 0 -0.232402503880776 0 0 0 0 0 0 0
0 0 -0.343746100665863 0 0 0 0 0 -3.24920473783629 0 0 0 0 0 -0.631914373984416 0 0 0 0 0 0 0 0 0 0 0 0 0 0 0 0 0 0 0 0 0 0 0 0 0 0 0 -6.05568397704509 0 0 0 0 0 0 0
0.109024116672787 0 0 -0.343746100665863 0 0 0 0 0 0 0 0 0 0 0 0 0 0 0 0 0 0 0 0 0 0 0 0 0 0 0 0 0 0 0 0 0 0 0 0 0 0 -0.602975536915195 0 0 0 0 0 0 0
0 0 0 0 -0.343746100665863 0 0 0 0 0 0 0 0 0 0 0 -4.33507392207498 0 0 0 0 0 0 0 0 0 0 0 0 0 0 0 0 0 -0.865041098801065 0 0 0 0 0 0 0 -0.519032185784624 0 0 0 0 0 0 0
0 0 0 0 0 -0.343746100665863 0 0 0 0 0 0 0 0 0 0 0 -0.373475895311229 0 0 0 0 0 0 0 0 0 0 0 0 0 0 0 0 -7.32751249537247 0 0 0 0 0 0 0 -3.3552811804044 0 0 0 0 0 0 0
0 0 0 0 0 0 -0.343746100665863 0 0 0 0 0 0 0 0 0 0 -2.44844912036191 0 0 0 0 0 0 0 0 0 0 0 0 0 0 0 0 -4.94982681356809 0 0 0 0 0 0 0 -7.30507434701158 0 0 0 0 0 0 0
0 0 0 0 0 0 0 -0.343746100665863 0 0 0 0 0 0 0 0 0 0 -0.704363837056784 0 0 0 0 0 0 0 0 0 0 0 0 0 0 0 -2.67742360358745 -4.17060749339052 -0.129888886896997 0 0 0 0 0 0 0 0 0 0 0 0 0
0 0.0800506041836979 0.640253856443047 0 0 0 0 0 -0.343746100665863 0 0 0 0 -1.78129452941596 0 0 0 0 -0.560170427401026 0 0 0 0 0 -0.900178054554013 0 0 0 0 0 0 0 0 0 0 -1.38827898778339 0 0 0 0 0 0 -0.624378457325003 0 0 0 0 0 0 0
0 0 0 0 0 0 0 0 0 -0.343746100665863 0 0 0 -7.40994910059636 0 0 0 0 -0.750938244200362 0 0 0 0 0 -0.581018968594982 0 0 0 0 0 0 0 0 0 0 -0.968468423183745 -2.49080765388497 0 0 0 0 0 -2.66948048497184 0 0 0 0 0 0 0
0 0 0 0 0 0 0 0 0 0 -0.343746100665863 0 0 0 0 0 0 0 0 0 0 0 0 0 -2.66370264559719 0 0 0 0 0 0 0 0 0 0 0 -0.299162197320645 0 0 0 0 0 0 0 0 0 0 0 0 0
0 0.153437464561763 0 0 0 0 0 0 0 0 0 -0.343746100665863 0 0 0 0 0 0 0 0 0 0 0 0 0 0 0 0 0 0 -1.72173972198297 0 0 0 0 0 0 0 0 0 0 0 -0.392430577768313 -0.888970341357767 0 0 0 0 0 0
0 0 0 0 0 0 0 0 0 0 0 0 -0.343746100665863 0 0 0 0 0 0 -2.16672329338671 0 0 0 0 -1.98797353316408 0 0 0 0 0 -2.60972297790582 0 0 0 0 0 0 0 0 0 0 0 0 -4.6649267387978 0 0 0 0 0 0
0 0 0 0 0 0 0 0 0.358371409019966 1.38781430705059 0 0 0 -0.343746100665863 0 0 0 0 0 -1.41297044484743 0 0 0 0 -0.682777127486574 0 0 0 0 0 -5.78846786130624 0 0 0 0 0 0 -1.18794867632327 0 0 0 0 0 0 0 0 0 0 0 0
0 0.351538492229163 0.136030403505189 0 0 0 0 0 0 0 0 0 0 0 -0.343746100665863 -6.75805474423705 0 0 0 0 0 0 0 0 -0.492213640543377 0 0 0 0 0 -3.44434108880787 0 0 0 0 0 0 -1.84407653428147 0 0 0 0 0 -0.594450144491288 0 0 0 0 0 0
0 0 0 0 0 0 0 0 0 0 0 0 0 0 1.37404844352559 -0.343746100665863 0 0 0 -2.78612899399733 0 0 0 -0.827683547567301 -0.517012286706704 0 0 0 0 0 -0.678663179291699 0 0 0 0 0 0 0 0 0 0 0 0 0 0 0 0 0 0 0
0 0 0 0 0.948771276680524 0 0 0 0 0 0 0 0 0 0 0 -0.343746100665863 0 0 0 -0.914725582217079 0 -3.3969149267822 -1.09588866037421 0 0 0 0 0 0 0 0 0 0 0 0 0 -0.695295573771766 0 0 0 0 0 0 0 0 -1.43651790902153 0 0 0
0 0 0 0 0 0.0800978444826831 0.518232365041395 0 0 0 0 0 0 0 0 0 0 -0.343746100665863 0 0 -1.59449090138734 0 -0.224163336713307 0 0 0 0 0 0 0 0 0 0 0 0 0 0 -0.47372749838865 0 0 0 0 0 -3.54867105568606 0 0 -0.116052180410334 0 0 0
0 0 0 0 0 0 0 0.138981961330314 0.101607510316636 0.157504531550843 0 0 0 0 0 0 0 0 -0.343746100665863 0 0 0 -0.605640421700202 -7.79801322028502 0 0 0 0 0 -1.41208343334118 0 0 0 0 0 0 0 -0.332141613767597 0 0 0 0 0 0 0 0 -1.13791003579674 0 0 0
0 0 0 0 0 0 0 0 0 0 0 0 0.466309137793323 0.290266140648486 0 0.530985831133297 0 0 0 -0.343746100665863 -0.828886090590579 0 -0.656331290234413 -0.310990186750732 0 0 0 0 0 -0.123257663486255 0 0 0 0 0 0 0 -0.817572829893859 0 0 0 0 0 0 0 0 0 0 0 0
0 0 0 0 0 0 0 0 0 0 0 0 0 0 0 0 0.17697065246874 0.318024406553086 0 0.16123632501108 -0.343746100665863 -0.297562286048296 -0.128332418497483 -0.459180605413802 0 0 0 0 0 -0.640290750776345 0 0 0 0 0 0 0 -7.42330326669829 0 0 0 0 0 -0.719968479799585 0 0 -0.994682445200088 0 -0.461061356365824 0
0 0 0 0 0 0 0 0 0 0 0 0 0 0 0 0 0 0 0 0 0.0630024827940156 -0.343746100665863 -0.500653915844461 0 0 0 0 0 0 -0.0796073247702642 0 0 -1.24436372555784 0 0 0 0 -1.16138165304413 0 -4.56169880537538 0 0 0 0 0 0 -2.48025191533815 0 -0.681201855330441 0
0 0 0 0 0 0 0 0 0 0 0 0 0 0 0 0 0.73404957356126 0.0466704636381231 0.110574483949195 0.129153927182981 0.0261530975378247 0.0992358249237914 -0.343746100665863 0 0 0 0 0 0 -0.0428570224079668 0 0 0 0 0 0 0 -0.456262030594754 0 -1.23024898599999 -5.19345982899823 0 0 0 0 0 0 0 -0.272751494807745 0
0 0 0 0 0 0 0 0 0 0 0 0 0 0 0 0.182250370019474 0.213629509455896 0 1.55955918991539 0.0629728943448299 0.0989129461660375 0 0 -0.343746100665863 0 0 0 0 0 -0.678826813772819 0 0 0 0 0 0 0 -0.570447104975121 0 -0.586447512101462 -2.9210350622715 0 0 0 0 0 0 0 -0.555789348197007 -0.561986000868505
0 0 0 0 0 0 0 0 0.174383220588471 0.117187489011815 0.53479296480502 0 0.416972886330329 0.144492899591323 0.0927723867463497 0.103488308178938 0 0 0 0 0 0 0 0 -0.343746100665863 -0.505462849970162 0 0 0 0 0 0 0 0 0 0 0 0 0 0 0 0 0 0 0 0 0 0 0 0
0 0 0 0 0 0 0 0 0 0 0 0 0 0 0 0 0 0 0 0 0 0 0 0 0.113978721415799 -0.343746100665863 0 0 0 0 0 0 0 0 0 0 0 0 0 0 0 0 0 0 0 0 0 0 0 -0.924298816884518
0 0 0 0 0 0 0 0 0 0 0 0 0 0 0 0 0 0 0 0 0 0 0 0 0 0 -0.343746100665863 -5.10515483907823 0 0 0 0 0 0 0 0 0 0 0 0 -1.20070105131297 -0.859214736281662 0 0 0 0 0 0 0 -1.56753001548094
0 0 0 0 0 0 0 0 0 0 0 0 0 0 0 0 0 0 0 0 0 0 0 0 0 0 0.932110993786944 -0.343746100665863 1.08276107095468 0 0 0 0 0 0 0 0 0 0 0 -0.529191434737399 -1.0391952352583 0 0 0 0 0 0 0 0
0 0 0 0 0 0 0 0 0 0 0 0 0 0 0 0 0 0 0 0 0 0 0 0 0 0 0 -5.45843092171275 -0.343746100665863 0 0 0 0 0 0 0 0 0 0 0 -1.45026703736893 -0.219929718022922 0 0 0 0 0 0 0 -7.22034174967899
0 0 0 0 0 0 0 0 0 0 0 0 0 0 0 0 0 0 0.270379162078182 0.0230741574386515 0.140515366673839 0.0173316663915271 0.00896540527727411 0.14258499417903 0 0 0 0 0 -0.343746100665863 0 0 0 0 0 0 0 0 0 0 -0.300205003883678 -0.711535887580256 0 0 -0.861670317891606 0 0 0 0 0
0 0 0 0 0 0 0 0 0 0 0 0.327123224525262 0.503794918467591 1.05202537198393 0.702439730852128 0.142526656956231 0 0 0 0 0 0 0 0 0 0 0 0 0 0 -0.343746100665863 0 0 0 0 0 0 0 0 0 0 -0.417101768977066 0 0 0 0 0 0 0 0
0 0 0 0 0 0 0 0 0 0 0 0 0 0 0 0 0 0 0 0 0 0 0 0 0 0 0 0 0 0 0 -0.343746100665863 0 0 0 0 0 0 -0.831114671469104 0 0 0 0 0 -1.55373228865863 0 0 0 0 0
0 0 0 0 0 0 0 0 0 0 0 0 0 0 0 0 0 0 0 0 0 0.267458016740759 0 0 0 0 0 0 0 0 0 0 -0.343746100665863 0 0 0 0 0 0 0 0 0 0 0 -0.521953535263061 0 0 0 0 0
0 0 0 0 0 0 0 0 0 0 0 0 0 0 0 0 0 0 0 0 0 0 0 0 0 0 0 0 0 0 0 0 0 -0.343746100665863 0 0 0 0 0 0 0 0 0 0 -0.071335556484576 0 0 0 0 0
0 0 0 0 0.166662069540269 1.4856678903626 0.977063814498373 0.480455788261375 0 0 0 0 0 0 0 0 0 0 0 0 0 0 0 0 0 0 0 0 0 0 0 0 0 0 -0.343746100665863 0 0 0 0 0 0 0 0 0 -0.948836224037208 -0.134686330264184 0 0 0 0
0 0 0 0 0 0 0 0.868273083034322 0.266814852600627 0.198844834473334 0 0 0 0 0 0 0 0 0 0 0 0 0 0 0 0 0 0 0 0 0 0 0 0 0 -0.343746100665863 0 0 0 0 0 0 0 0 -9.73616087083438 -0.763632393378617 0 0 0 0
0 0 0 0 0 0 0 0.0266488635918703 0 0.470860845523717 0.0617822026632379 0 0 0 0 0 0 0 0 0 0 0 0 0 0 0 0 0 0 0 0 0 0 0 0 0 -0.343746100665863 0 0 0 0 0 0 0 0 -1.45839855738334 0 0 0 0
0 0 0 0 0 0 0 0 0 0 0 0 0 0.250786278069636 0.35115611968702 0 0.139960564923232 0.0966760920665472 0.0644092306335754 0.143367931141574 1.47708631416574 0.25775829411408 0.0933744728089839 0.111822150616919 0 0 0 0 0 0 0 0 0 0 0 0 0 -0.343746100665863 0 0 0 0 0 0 -2.45389063654247 -0.499725146908808 0 0 0 0
0 0 0 0 0 0 0 0 0 0 0 0 0 0 0 0 0 0 0 0 0 0 0 0 0 0 0 0 0 0 0 0.156187546902546 0 0 0 0 0 0 -0.343746100665863 0 0 0 0 0 -0.941021300414645 -1.6773991400709 0 0 0 0
0 0 0 0 0 0 0 0 0 0 0 0 0 0 0 0 0 0 0 0 0 0.859099509637888 0.25273698195527 0.117023827727311 0 0 0 0 0 0 0 0 0 0 0 0 0 0 0 -0.343746100665863 0 0 0 0 0 -1.446621980469 0 0 0 0
0 0 0 0 0 0 0 0 0 0 0 0 0 0 0 0 0 0 0 0 0 0 1.03486071043098 0.599712526352858 0 0 0.210060248919433 0.105939940226247 0.300195797374233 0.0623190069085722 0 0 0 0 0 0 0 0 0 0 -0.343746100665863 0 0 0 -0.977149507212387 -1.50200163330764 0 0 0 0
0 0 0 0 0 0 0 0 0 0 0 0 0 0 0 0 0 0 0 0 0 0 0 0 0 0 0.176789601626447 0.209736600090215 0.0449364176259899 0.137324170847128 0.0777671986394866 0 0 0 0 0 0 0 0 0 0 -0.343746100665863 0 0 0 0 0 0 0 0
0 0.0432192563258108 1.26289848999697 0.12071160125248 0.104691432134031 0.649997951535244 1.49392313659592 0 0.12501586836439 0.537337855790518 0 0.0787188996297057 0 0 0 0 0 0 0 0 0 0 0 0 0 0 0 0 0 0 0 0 0 0 0 0 0 0 0 0 0 0 -0.343746100665863 0 -0.516020588385433 -0.2930838816367 0 0 0 0
0 0 0 0 0 0 0 0 0 0 0 0.165538442313376 0.958666985014933 0 0.125072759962261 0 0 0.675680243218687 0 0 0.146905313923222 0 0 0 0 0 0 0 0 0 0 0 0 0 0 0 0 0 0 0 0 0 0 -0.343746100665863 -2.18513247407659 0 0 -1.05858762769128 0 0
0 0 0 0 0 0 0 0 0 0 0 0 0 0 0 0 0 0 0 0 0 0 0 0 0 0 0 0 0 0.164116158373856 0 0.292790372639495 0.0959899192214749 0.0142010486021909 0.196005777565186 2.03196642759668 0 0.493107529561062 0.177767270395582 0 0.194912415239054 0 0.105706475396106 0.486846271265882 -0.343746100665863 1.15709754288193 0.178366762930635 0 0 0
0 0 0 0 0 0 0 0 0 0 0 0 0 0 0 0 0 0 0 0 0 0 0 0 0 0 0 0 0 0 0 0 0 0 0.0243490685103353 0.14918949483346 0.295105037020095 0.098418261910103 0.340925524711846 0.276825524573691 0.317263558646434 0 0.0585857370053485 0 -6.26439339165981 -0.343746100665863 0 0 0 0
0 0 0 0 0 0 0 0 0 0 0 0 0 0 0 0 0.323348064976352 0.0223514984822839 0.232119722198448 0 0.206086083379667 0.524466867181521 0 0 0 0 0 0 0 0 0 0 0 0 0 0 0 0 0 0 0 0 0 0 -1.01399132719723 0 -0.343746100665863 -0.845835353069619 0 0
0 0 0 0 0 0 0 0 0 0 0 0 0 0 0 0 0 0 0 0 0 0 0 0 0 0 0 0 0 0 0 0 0 0 0 0 0 0 0 0 0 0 0 0.211259387206155 0 0 0.159367877951634 -0.343746100665863 0.925109812263929 0
0 0 0 0 0 0 0 0 0 0 0 0 0 0 0 0 0 0 0 0 0.100830212617398 0.13187860845536 0.0515922267584083 0.1207592721182 0 0 0 0 0 0 0 0 0 0 0 0 0 0 0 0 0 0 0 0 0 0 0 -4.57192168556308 -0.343746100665863 0
0 0 0 0 0 0 0 0 0 0 0 0 0 0 0 0 0 0 0 0 0 0 0 0.105935499528409 0 0.185953076885425 0.320233074343357 0 1.4481157615838 0 0 0 0 0 0 0 0 0 0 0 0 0 0 0 0 0 0 0 0 -0.343746100665863
