-0.710360732583303 0 0 0 0 0 0 -0.570462699298438 0 0 0 0 0 0 0 0 0 0 0 0 0 0 0 0 0 0 0 0 0 0 0 0 0 0 0 0 0 0 0 0 0 0 0 0 0 0 0 0 0 0
0 -0.710360732583303 0 0 0 0 0 -2.93101774423163 0 0 0 0 0 0 0 0 0 0 0 0 0 0 0 0 0 0 0 0 0 0 0 0 0 0 0 0 0 0 0 0 0 0 0 0 0 0 0 0 0 0
0 0 -0.710360732583303 0 0 0 0 -0.634809402468921 0 0 0 0 0 0 0 0 0 0 0 0 -0.27085313589158 0 0 0 0 0 0 0 0 0 0 0 0 0 0 0 0 0 0 0 0 0 0 0 0 0 0 0 0 0
0 0 0 -0.710360732583303 0 -0.595231036403982 0 -0.173413835272206 0 0 0 0 0 0 0 0 0 0 0 0 -0.251495118539004 0 0 0 0 0 0 0 0 0 0 0 0 0 0 0 0 0 0 0 0 0 0 0 0 0 0 0 0 0
0 0 0 0 -0.710360732583303 0 0 0 0 0 -1.73607031367228 0 0 0 0 0 -0.939625198712025 0 0 0 0 0 0 0 0 0 0 0 0 0 0 0 0 0 0 0 0 0 0 0 0 0 0 0 0 0 0 0 0 0
0 0 0 0.117213042901826 0 -0.710360732583303 -2.83283610795365 0 0 0 -2.07827670655248 0 0 0 0 0 0 0 0 -0.946190554939643 -1.41102545933203 0 0 0 0 0 0 0 0 0 0 0 0 0 0 0 0 0 0 -7.15361131928901 0 0 0 0 0 0 0 0 0 0
0 0 0 0 0 0.569714338429746 -0.710360732583303 0 -0.710330392080206 0 0 0 0 0 0 0 0 0 0 -7.10198450618035 -3.24313501253381 0 0 0 0 0 0 0 0 0 0 0 0 0 0 0 0 0 0 0 0 0 0 0 0 0 0 0 0 0
0.121658703950117 0.584520006453289 0.122051433417379 0.0345415582305673 0 0 0 -0.710360732583303 0 0 0 0 0 0 -2.76003283759491 0 0 0 0 -2.06094210628097 0 0 0 0 0 0 0 0 0 0 0 0 -0.42988642224531 0 0 0 0 0 0 0 0 0 0 0 0 0 0 0 0 0
0 0 0 0 0 0 0.142309006466812 0 -0.710360732583303 0 0 0 0 0 -0.299583367527468 0 0 -3.58686114916541 0 0 0 0 0 0 0 0 0 0 0 0 0 0 -0.49856746566728 0 0 0 0 0 0 -0.693708585748568 0 0 0 0 0 0 0 0 0 0
0 0 0 0 0 0 0 0 0 -0.710360732583303 0 0 0 0 -1.65890356214951 -1.01236822266423 0 0 0 0 0 0 0 0 0 0 0 0 0 0 0 0 -0.169772493222863 0 0 0 0 0 0 -1.70691211209502 0 0 0 0 0 0 0 0 0 0
0 0 0 0 0.350962695975445 0.417362619703235 0 0 0 0 -0.710360732583303 0 0 0 0 -2.22803859121546 0 -0.807249090361458 0 0 0 0 0 0 0 0 0 0 0 0 0 0 0 0 0 0 0 0 0 -0.284041392452813 0 0 0 0 0 0 0 0 0 0
0 0 0 0 0 0 0 0 0 0 0 -0.710360732583303 0 0 0 0 0 -1.88064878479209 0 0 0 0 0 0 0 0 0 0 0 0 0 0 -0.254710582679175 0 0 0 0 0 0 -0.749481904951536 0 0 0 0 0 0 0 0 0 0
0 0 0 0 0 0 0 0 0 0 0 0 -0.710360732583303 0 0 -0.949459751496253 0 0 0 0 0 0 0 0 0 0 0 0 0 0 0 0 -0.637193194488886 0 0 0 0 0 0 0 0 0 0 0 0 0 0 0 0 0
0 0 0 0 0 0 0 0 0 0 0 0 0 -0.710360732583303 0 0 0 0 -0.112857998577907 0 0 0 0 0 0 0 0 0 0 0 0 0 0 0 0 0 -1.87698135054566 0 -0.403546295763027 0 0 0 0 0 0 -1.72099232778625 0 0 0 0
0 0 0 0 0 0 0 0.501391974387058 0.061964845711132 0.365570569203462 0 0 0 0 -0.710360732583303 0 0 0 0 0 0 0 0 0 0 0 0 0 0 0 0 0 0 0 0 0 0 0 -0.576765689748711 0 0 0 0 0 0 -0.494774284534812 0 0 0 0
0 0 0 0 0 0 0 0 0 0.212836882149563 0.449729706282909 0 0.185751262297626 0 0 -0.710360732583303 0 0 0 0 0 0 0 0 0 0 0 0 0 0 0 0 0 0 0 0 0 0 0 0 -0.319319775822641 0 0 0 0 0 0 0 0 0
0 0 0 0 0.192110240881658 0 0 0 0 0 0 0 0 0 0 0 -0.710360732583303 0 0 0 0 0 0 0 0 0 0 0 0 0 0 0 0 0 0 0 0 0 0 -1.75928538698263 -1.93709133500542 0 0 0 0 0 0 0 0 0
0 0 0 0 0 0 0 0 0.686565407152616 0 0.163843814240413 0.39308695500058 0 0 0 0 0 -0.710360732583303 0 0 0 -1.33115439646776 -0.456419508457441 0 0 -1.85080822368028 0 -3.17262763513077 0 -2.54188258452642 0 0 0 0 0 0 0 0 0 -9.34227484818634 -0.336571989695359 0 0 0 0 0 -0.546119390295247 0 0 0
0 0 0 0 0 0 0 0 0 0 0 0 0 0.0241527903143876 0 0 0 0 -0.710360732583303 0 0 -0.888363848362095 0 0 0 -3.53151220188982 0 -0.465635454401064 0 -0.76794218882752 -6.11130796841122 0 0 0 0 0 0 0 0 0 -0.808462730919359 0 -1.54564990616594 0 0 0 0 0 0 0
0 0 0 0 0 0.187564225398319 1.42625380224758 0.40578105240237 0 0 0 0 0 0 0 0 0 0 0 -0.710360732583303 0 -2.49867580392921 -0.618369810611156 0 0 0 0 -0.123746804626752 0 0 -0.533399310925162 0 0 0 0 0 0 0 0 -1.07008926610849 -2.50321828035808 0 -1.78137093929807 0 0 0 -0.804544577398414 0 0 0
0 0 0.0565849203578406 0.0520494478641218 0 0.287435237188967 0.643718893062262 0 0 0 0 0 0 0 0 0 0 0 0 0 -0.710360732583303 0 0 -1.33291794643514 -0.930523596313051 0 0 0 0 -0.997571175493695 -0.593441924946956 0 0 0 0 0 0 0 0 0 -2.95189893167277 0 -1.74560697612834 0 0 0 0 -0.570917592057399 -0.393760580442569 0
0 0 0 0 0 0 0 0 0 0 0 0 0 0 0 0 0 0.252674290923743 0.187431292357777 0.488305665821205 0 -0.710360732583303 0 0 0 0 0 0 0 -0.88280826441871 0 0 0 0 0 0 0 0 0 -5.96100419905412 0 0 -0.438413387585321 -0.408895074280782 0 0 0 0 -2.1721111751186 0
0 0 0 0 0 0 0 0 0 0 0 0 0 0 0 0 0 0.094536438352929 0 0.125940552692592 0 0 -0.710360732583303 0 0 0 0 0 0 0 0 0 0 0 0 0 0 0 0 -1.56110835688695 0 0 -2.11234275986774 -0.191682073715756 0 0 0 0 -0.518673156045335 0
0 0 0 0 0 0 0 0 0 0 0 0 0 0 0 0 0 0 0 0 0.270676609867089 0 0 -0.710360732583303 0 0 0 0 0 0 0 0 0 0 0 0 0 0 0 -2.14936934528677 0 0 0 -0.206782518245114 0 0 0 0 -0.560387728060461 0
0 0 0 0 0 0 0 0 0 0 0 0 0 0 0 0 0 0 0 0 0.160974693818437 0 0 0 -0.710360732583303 0 0 0 0 0 0 0 0 0 0 0 0 0 0 0 0 0 -0.650014388326718 0 0 0 0 0 -2.9198590541235 0
0 0 0 0 0 0 0 0 0 0 0 0 0 0 0 0 0 0.375881030420608 0.753900822719264 0 0 0 0 0 0 -0.710360732583303 0 0 0 0 0 0 0 0 0 0 0 0 0 0 0 0 -1.91118781057948 0 0 0 0 0 -0.607302608138259 0
0 0 0 0 0 0 0 0 0 0 0 0 0 0 0 0 0 0 0 0 0 0 0 0 0 0 -0.710360732583303 0 0 0 0 0 0 0 0 0 0 0 0 -1.35687444816595 0 0 -0.453815119700235 0 0 0 0 0 0 0
0 0 0 0 0 0 0 0 0 0 0 0 0 0 0 0 0 0.623354781745999 0.0923382575755845 0.0258987248901389 0 0 0 0 0 0 0 -0.710360732583303 0 0 0 0 0 0 0 0 0 0 0 -1.09594512202821 0 0 -6.96488011555554 0 0 0 0 0 0 0
0 0 0 0 0 0 0 0 0 0 0 0 0 0 0 0 0 0 0 0 0 0 0 0 0 0 0 0 -0.710360732583303 0 0 0 0 0 0 0 0 -0.724047191178111 0 -5.06208388141632 0 0 -0.682559302954977 0 0 0 0 0 0 0
0 0 0 0 0 0 0 0 0 0 0 0 0 0 0 0 0 0.504002027912815 0.155278566637085 0 0.209230038005518 0.160858890756584 0 0 0 0 0 0 0 -0.710360732583303 0 0 0 0 0 0 0 0 0 -0.442169531039571 0 -0.437344044295877 -2.98371946231583 0 0 0 0 0 0 0
0 0 0 0 0 0 0 0 0 0 0 0 0 0 0 0 0 0 1.34357429271567 0.115560352883709 0.116487047543537 0 0 0 0 0 0 0 0 0 -0.710360732583303 -0.143205006085774 0 0 0 0 0 -1.46090014669503 0 -0.871531808896228 0 -1.6172728983556 -2.57078318752684 0 -1.42343399022534 0 0 0 0 0
0 0 0 0 0 0 0 0 0 0 0 0 0 0 0 0 0 0 0 0 0 0 0 0 0 0 0 0 0 0 0.0301411896122454 -0.710360732583303 0 0 -0.663626571453156 0 0 -0.543423267118872 0 0 0 0 0 0 0 0 0 0 0 0
0 0 0 0 0 0 0 0.0930236931887334 0.0998519397371162 0.034557921207783 0 0.0503836784400172 0.128513707642619 0 0 0 0 0 0 0 0 0 0 0 0 0 0 0 0 0 0 0 -0.710360732583303 0 -0.276297986237761 0 0 -0.585751918410294 0 0 0 -0.360322185659731 -1.70081251018043 0 -1.5445970756175 0 0 0 0 0
0 0 0 0 0 0 0 0 0 0 0 0 0 0 0 0 0 0 0 0 0 0 0 0 0 0 0 0 0 0 0 0 0 -0.710360732583303 -0.493472591067018 0 0 -2.24396880754248 0 0 0 -3.85409694488556 0 0 -1.37999610312394 0 0 0 0 0
0 0 0 0 0 0 0 0 0 0 0 0 0 0 0 0 0 0 0 0 0 0 0 0 0 0 0 0 0 0 0 0.147331409012469 0.0532715492508136 0.0938358945990509 -0.710360732583303 0 0 0 0 0 0 0 0 0 -1.29013964931235 0 0 0 0 0
0 0 0 0 0 0 0 0 0 0 0 0 0 0 0 0 0 0 0 0 0 0 0 0 0 0 0 0 0 0 0 0 0 0 0 -0.710360732583303 0 0 0 0 0 0 0 0 -1.17904401991534 0 0 0 0 0
0 0 0 0 0 0 0 0 0 0 0 0 0 0.346757978364817 0 0 0 0 0 0 0 0 0 0 0 0 0 0 0 0 0 0 0 0 0 0 -0.710360732583303 0 0 0 0 0 0 0 0 0 0 0 0 0
0 0 0 0 0 0 0 0 0 0 0 0 0 0 0 0 0 0 0 0 0 0 0 0 0 0 0 0 0.16423973315664 0 0.27812991333735 0.105468149584744 0.12627822699333 0.454892739244113 0 0 0 -0.710360732583303 0 0 0 0 0 0 0 0 0 0 0 0
0 0 0 0 0 0 0 0 0 0 0 0 0 0.0863440079566768 0.11025362540446 0 0 0 0 0 0 0 0 0 0 0 0 0 0 0 0 0 0 0 0 0 0 0 -0.710360732583303 0 0 0 0 0 0 0 0 0 0 0
0 0 0 0 0 1.42290032168529 0 0 0.135989055111738 0.331428518796774 0.0552563980399548 0.160741010413874 0 0 0 0 0.319206898288194 1.96604192098801 0 0.216589636830076 0 1.11342065322407 0.317385592511389 0.431420926083088 0 0 0.246482197984874 0.211399490610176 1.04040247511712 0.0800232653252644 0.180075612130026 0 0 0 0 0 0 0 0 -0.710360732583303 0 0 0 0 0 0 0 0 0 0
0 0 0 0 0 0 0 0 0 0 0 0 0 0 0 0.0646113998001051 0.35404506211609 0.0681823308327745 0.162713435589505 0.485710901449658 0.622542415463492 0 0 0 0 0 0 0 0 0 0 0 0 0 0 0 0 0 0 0 -0.710360732583303 0 0 0 0 0 0 0 0 0
0 0 0 0 0 0 0 0 0 0 0 0 0 0 0 0 0 0 0 0 0 0 0 0 0 0 0 0 0 0.0845274895847009 0.318641639347595 0 0.0693981746795373 0.754401094961154 0 0 0 0 0 0 0 -0.710360732583303 0 0 0 0 0 0 0 0
0 0 0 0 0 0 0 0 0 0 0 0 0 0 0 0 0 0 0.319583456008229 0.348071242329652 0.357428190469122 0.087164875919194 0.392109872763603 0 0.142404631330299 0.400038359626442 0.0893610510508284 1.26580475389449 0.131198868693231 0.599423259453281 0.52250489388392 0 0.300997621367275 0 0 0 0 0 0 0 0 0 -0.710360732583303 0 0 0 0 0 0 0
0 0 0 0 0 0 0 0 0 0 0 0 0 0 0 0 0 0 0 0 0 0.0781333125644773 0.0378910540286148 0.0381894300694398 0 0 0 0 0 0 0 0 0 0 0 0 0 0 0 0 0 0 0 -0.710360732583303 0 0 0 0 0 0
0 0 0 0 0 0 0 0 0 0 0 0 0 0 0 0 0 0 0 0 0 0 0 0 0 0 0 0 0 0 0.269606743339228 0 0.307447388088499 0.278421984632793 0.261145981756777 0.239869262110251 0 0 0 0 0 0 0 0 -0.710360732583303 0 0 0 0 0
0 0 0 0 0 0 0 0 0 0 0 0 0 0.349360738564316 0.0944536096525744 0 0 0 0 0 0 0 0 0 0 0 0 0 0 0 0 0 0 0 0 0 0 0 0 0 0 0 0 0 0 -0.710360732583303 0 0 0 0
0 0 0 0 0 0 0 0 0 0 0 0 0 0 0 0 0 0.104624021621377 0 0.165210179524059 0 0 0 0 0 0 0 0 0 0 0 0 0 0 0 0 0 0 0 0 0 0 0 0 0 0 -0.710360732583303 0 0 0
0 0 0 0 0 0 0 0 0 0 0 0 0 0 0 0 0 0 0 0 0.115261042709686 0 0 0 0 0 0 0 0 0 0 0 0 0 0 0 0 0 0 0 0 0 0 0 0 0 0 -0.710360732583303 0 0
0 0 0 0 0 0 0 0 0 0 0 0 0 0 0 0 0 0 0 0 0.085171083962866 0.465474067432751 0.110854441960441 0.105919217922978 0.562151841943397 0.113964679192452 0 0 0 0 0 0 0 0 0 0 0 0 0 0 0 0 0 0 0 0 0 0 -0.710360732583303 -0.788272884820406
0 0 0 0 0 0 0 0 0 0 0 0 0 0 0 0 0 0 0 0 0 0 0 0 0 0 0 0 0 0 0 0 0 0 0 0 0 0 0 0 0 0 0 0 0 0 0 0 0.163270968901789 -0.710360732583303
