2.6793497784624
0.724825683593393
1.71065699318107
4.20062576072957
2.59477658332571
0.674039039982116
3.69465670032058
0.483833298268692
3.29655931688501
0.360257229792181
1.11763377151186
0.646614252179997
0.346122697585633
0.579274136442901
1.75169675592793
0.690371494100131
0.120343830371397
1.47681301181054
0.976488043888906
0.12503220829073
0.226655701499371
1.11414869511683
1.70772663863336
0.576273117569739
2.09288788693791
4.80310634413799
1.20520164462228
0.826212537286424
1.0567629395045
0.868311402613052
1.90491903213713
1.95069365293334
3.37223100127196
1.39842312724594
0.36515595576441
2.94827498955227
0.895716539621637
0.509274107311952
0.338820130129598
0.499960109006289
0.167079159591869
0.973844178073488
3.17364667532057
0.620467594980115
1.89531861292759
0.391228574050391
2.50224684353039
0.413710003304732
0.258788374111235
0.78866147511706
