0.149997265382308
0.92454099428839
2.26426435634323
0.978322846618947
1.50379585759116
1.14741313772808
1.4301566568736
5.69894710310733
2.09718484699426
3.36186935689556
1.32370107246669
0.200218814534961
0.556910693629643
2.5725489111841
1.95912191287122
0.628082890672008
0.0549934356619518
3.01399720722406
1.35568351128618
7.16337643083425
0.350819787182484
2.27084808061275
3.24935727989569
0.184130376140045
0.664643085101697
0.806352547676736
0.912527614503995
1.70264422701195
1.3849231742215
2.0014798644739
0.15334035571673
1.1315850249247
2.82993282492797
0.389642259672506
0.416478005367174
0.7417944500706
1.81636884361934
2.66742808399901
0.51869674196287
0.305756941805712
1.00591573213906
0.567786921796353
1.06195221197738
0.480581642400389
0.689440323471016
0.35113584893463
3.4203444555199
1.1942792011538
2.14272993649505
1.21456937104854
