-0.163665253935831 0 0 0 0 0 0 -2.2236013869383 0 0 0 0 0 0 0 0 0 0 -4.12843747252201 0 0 0 0 0 0 0 0 0 0 0 0 0 0 0 0 0 0 0 0 0 0 0 0 0 -2.53584064195059 -1.58007828657315 0 0 0 0
0 -0.163665253935831 0 0 0 0 0 0 0 0 0 0 0 0 0 0 0 -1.24837847860095 0 0 0 0 0 0 0 0 0 0 0 0 0 0 0 0 0 0 0 0 0 0 0 0 0 0 -1.58983822798534 -2.35470511530469 0 0 0 0
0 0 -0.163665253935831 0 0 0 0 0 0 0 0 0 0 0 0 0 0 -0.568218843746264 0 0 0 0 0 0 0 0 0 0 0 0 0 0 0 0 0 0 0 0 0 0 0 0 0 0 -1.85004861378803 -0.48559440012481 0 0 0 0
0 0 0 -0.163665253935831 0 0 0 0 0 0 0 0 0 0 0 0 0 -2.00603972033644 0 0 0 0 0 0 0 0 0 0 0 0 0 0 0 0 0 0 0 0 0 0 0 0 0 0 -1.28044047212689 -0.20055832534161 0 0 0 0
0 0 0 0 -0.163665253935831 0 0 0 0 0 0 0 0 0 0 0 0 0 0 0 0 0 0 0 0 0 0 0 0 0 0 0 0 0 0 0 0 0 0 0 0 0 0 0 0 -0.813865806845029 0 0 0 0
0 0 0 0 0 -0.163665253935831 0 0 0 0 0 0 0 0 0 0 0 0 0 0 0 0 0 0 0 0 0 0 0 0 0 0 0 0 0 0 0 0 0 0 0 0 0 0 -0.535886565104411 -0.53306987167128 0 0 0 0
0 0 0 0 0 0 -0.163665253935831 0 -0.455399895724862 -1.03505133850289 0 0 0 0 0 0 0 -2.7267224376722 0 0 0 0 0 0 0 0 0 0 0 0 0 0 0 0 0 0 0 0 0 0 0 0 0 0 0 0 0 0 0 0
0.433488180991864 0 0 0 0 0 0 -0.163665253935831 -0.979351335933012 -0.474157865331391 0 0 0 0 0 0 0 -0.668325094379303 0 0 0 0 0 0 0 0 0 0 0 0 0 0 0 0 0 0 0 0 0 0 0 0 0 -0.514986608796376 0 0 0 0 0 0
0 0 0 0 0 0 0.089012435672907 0.19216830713685 -0.163665253935831 0.256764856966818 0 0 0 0 0 0 0 0 0 0 -0.431994715123137 0 0 0 0 0 0 0 0 0 0 0 0 0 0 0 0 0 0 0 0 0 0 0 0 0 -2.22278811993173 0 0 0
0 0 0 0 0 0 0.222343853741866 0.0943337988529658 -1.26565151499541 -0.163665253935831 0 0 0 0 0 0 0 0 0 0 -0.124255705489634 0 0 0 0 0 0 0 0 0 0 0 0 0 0 0 -3.05581562460146 0 0 0 0 0 0 0 0 0 -0.994275120044123 0 0 0
0 0 0 0 0 0 0 0 0 0 -0.163665253935831 0 -3.24494339292138 0 0 0 0 0 0 0 -3.04785164633791 0 0 0 0 0 0 0 0 0 0 0 0 0 0 0 -0.481691609550848 0 0 0 0 0 0 -2.30558602141605 0 0 0 0 0 0
0 0 0 0 0 0 0 0 0 0 0 -0.163665253935831 -0.488325599814274 0 0 0 0 0 0 0 0 0 0 0 0 0 0 0 0 0 0 0 -2.76171315848045 0 0 0 0 0 0 0 0 0 0 -6.28127840088813 0 0 -4.96758144766758 0 0 0
0 0 0 0 0 0 0 0 0 0 0.660726312880356 0.0960880519384401 -0.163665253935831 0 0 -5.33766337389467 0 0 0 0 0 0 0 0 0 0 -6.3871935938108 0 -0.837654151466255 -0.498017825100652 -1.67786011069839 0 0 0 0 0 -0.677036766464658 0 0 0 0 0 0 0 0 0 -0.32896374437164 0 0 0
0 0 0 0 0 0 0 0 0 0 0 0 0 -0.163665253935831 0 -0.851480338128379 0 0 0 0 0 0 0 0 0 0 -1.51016906317225 0 -0.26478658141727 -0.347587329347645 -0.368778872278977 -1.56918315666649 0 0 0 0 -1.92459323448906 0 0 0 0 0 0 0 0 0 -0.943119069538272 0 0 0
0 0 0 0 0 0 0 0 0 0 0 0 0 0 -0.163665253935831 0 0 0 0 -0.353207053389036 0 0 0 0 0 0 -0.7207056294416 0 0 -0.178133857480249 0 -1.92668340306015 0 -2.75215978278936 0 0 0 0 0 0 0 0 0 0 0 0 -0.540948892629141 0 0 0
0 0 0 0 0 0 0 0 0 0 0 0 1.15895820741826 0.169880904031678 0 -0.163665253935831 0 0 0 -0.838676691782769 0 0 0 0 0 0 0 0 0 0 0 -0.302695268665131 0 -1.53054423718821 0 0 0 0 0 0 0 0 0 0 0 0 0 0 0 0
0 0 0 0 0 0 0 0 0 0 0 0 0 0 0 0 -0.163665253935831 0 0 -3.02945744396748 0 0 0 0 0 -1.97578312698403 0 0 0 -1.19887745058783 0 0 0 -1.22233381536058 0 0 0 0 0 0 0 0 0 0 0 0 -4.00534856220016 0 0 0
0 0.262004886047682 0.10959819715672 0.384770738475414 0 0 0.552110032803013 0.140234854907475 0 0 0 0 0 0 0 0 0 -0.163665253935831 0 -0.532309808212854 0 0 0 0 0 -1.41500234909181 0 0 0 -2.26982089110643 0 0 0 -0.45868389663218 0 0 0 0 0 0 0 0 0 0 0 0 0 0 0 0
0.809972101136203 0 0 0 0 0 0 0 0 0 0 0 0 0 0 0 0 0 -0.163665253935831 -0.201381575797379 0 0 0 0 0 0 0 0 0 0 0 0 0 -0.109561359032786 0 0 0 0 0 0 0 0 -2.30943726048161 0 0 0 -0.936824064219819 0 0 0
0 0 0 0 0 0 0 0 0 0 0 0 0 0 0.0657574612423412 0.16932833046749 0.580970332958397 0.104743762896282 0.0381453461336251 -0.163665253935831 0 0 0 0 0 0 0 0 0 0 0 0 0 -0.278606508495464 0 0 0 0 0 0 0 0 0 0 0 0 0 0 0 0
0 0 0 0 0 0 0 0 0.0877741054804089 0.0236540642957675 0.649125915866318 0 0 0 0 0 0 0 0 0 -0.163665253935831 0 -2.25542762414397 0 0 0 0 0 0 0 0 0 0 0 -0.827596805546656 0 0 0 0 0 0 0 0 0 0 0 -1.06443636622328 0 0 0
0 0 0 0 0 0 0 0 0 0 0 0 0 0 0 0 0 0 0 0 0 -0.163665253935831 -0.693938542597321 0 0 0 0 0 0 0 0 0 0 0 -2.47365958098611 0 0 -4.65956240768966 0 0 0 0 0 0 0 0 0 0 0 0
0 0 0 0 0 0 0 0 0 0 0 0 0 0 0 0 0 0 0 0 0.485044508699714 0.134646741267803 -0.163665253935831 0 0 0 0 0 0 0 0 0 0 0 0 0 0 0 0 0 0 0 0 0 0 0 0 0 0 0
0 0 0 0 0 0 0 0 0 0 0 0 0 0 0 0 0 0 0 0 0 0 0 -0.163665253935831 0 0 0 0 0 0 0 0 0 0 -1.08364309011784 0 0 -1.2393062913869 0 0 0 0 0 0 0 0 0 0 0 0
0 0 0 0 0 0 0 0 0 0 0 0 0 0 0 0 0 0 0 0 0 0 0 0 -0.163665253935831 0 0 0 0 0 0 0 0 0 -3.51947249363291 0 0 -1.14908319755225 0 -0.59380509367058 0 0 0 0 0 0 0 0 -1.49850962844078 0
0 0 0 0 0 0 0 0 0 0 0 0 0 0 0 0 0.417029761211402 0.281746348053551 0 0 0 0 0 0 0 -0.163665253935831 0 0 0 0 0 0 0 0 -2.00484260040866 0 0 0 0 0 0 0 0 0 0 0 0 0 -0.468423255023122 0
0 0 0 0 0 0 0 0 0 0 0 0 1.21379704421712 0.310500176697881 0.137033910782799 0 0 0 0 0 0 0 0 0 0 0 -0.163665253935831 0 0 0 0 0 0 0 -0.347260156225021 0 0 -2.33679591592346 0 -1.10135103738745 0 0 0 0 0 0 0 0 0 0
0 0 0 0 0 0 0 0 0 0 0 0 0 0 0 0 0 0 0 0 0 0 0 0 0 0 0 -0.163665253935831 0 0 0 0 0 0 0 -2.53093275206767 0 -2.41783708898437 0 -0.451505736932201 0 0 0 0 0 0 0 0 0 0
0 0 0 0 0 0 0 0 0 0 0 0 0.169761004962568 0.053160919535366 0 0 0 0 0 0 0 0 0 0 0 0 0 0 -0.163665253935831 0 0 0 0 0 0 -0.714918770867281 0 0 0 -0.0667060360433142 0 0 0 0 0 0 0 0 0 0
0 0 0 0 0 0 0 0 0 0 0 0 0.104785875666235 0.064459181788046 0.0349628653736075 0 0.243392559437953 0.451493499614396 0 0 0 0 0 0 0 0 0 0 0 -0.163665253935831 0 0 0 0 0 -0.594607610239362 0 -0.569031106865398 0 0 0 -0.941633152001865 0 0 0 0 0 0 0 0
0 0 0 0 0 0 0 0 0 0 0 0 0.361345284558545 0.0728901821423288 0 0 0 0 0 0 0 0 0 0 0 0 0 0 0 0 -0.163665253935831 0 0 0 0 -2.35615457645913 0 -1.40560911310398 0 -1.0742090104481 0 0 0 0 0 0 0 0 0 0
0 0 0 0 0 0 0 0 0 0 0 0 0 0.324803730684946 0.365165058556727 0.0555736798538019 0 0 0 0 0 0 0 0 0 0 0 0 0 0 0 -0.163665253935831 0 0 0 -0.522254229095197 0 -1.79747304287184 0 -1.70995767487002 0 0 0 0 0 0 0 0 0 0
0 0 0 0 0 0 0 0 0 0 0 0.568312097917193 0 0 0 0 0 0 0 0 0 0 0 0 0 0 0 0 0 0 0 0 -0.163665253935831 0 0 0 0 -2.42050113374802 0 0 -1.92875024028729 0 0 0 0 0 0 0 0 0
0 0 0 0 0 0 0 0 0 0 0 0 0 0 0.520244685465123 0.300217515639089 0.262094917749327 0.0941690325568063 0.0223072297027253 0.0541665690520802 0 0 0 0 0 0 0 0 0 0 0 0 0 -0.163665253935831 0 0 0 0 0 -1.51680884797279 0 0 0 0 0 0 0 0 0 0
0 0 0 0 0 0 0 0 0 0 0 0 0 0 0 0 0 0 0 0 0.164447842154284 0.462677751107938 0 0.226348392523971 0.746061029035164 0.402016078805224 0.0666476424741847 0 0 0 0 0 0 0 -0.163665253935831 0 0 0 0 -1.31152900418245 -0.663163509003057 0 0 0 0 0 0 0 0 0
0 0 0 0 0 0 0 0 0 0 0 0 0 0 0 0 0 0 0 0 0 0 0 0 0 0 0 0.51857072843813 0.131182968849165 0.116529230267754 0.452598288395123 0.110684662982301 0 0 0 -0.163665253935831 0 -1.79086451245501 0 -8.13769774377234 -0.583323519404104 0 0 0 0 0 0 0 0 0
0 0 0 0 0 0 0 0 0 0.612746045889565 0.0996311025378829 0 0.137951287474922 0.403546274085451 0 0 0 0 0 0 0 0 0 0 0 0 0 0 0 0 0 0 0 0 0 0 -0.163665253935831 0 0 -7.0416035508556 0 0 0 0 0 0 0 -0.255023922522277 0 0
0 0 0 0 0 0 0 0 0 0 0 0 0 0 0 0 0 0 0 0 0 0.906512285794156 0 0.269077559066018 0.225649768620872 0 0.463405743359203 0.517160673145735 0 0.109979242478186 0.265570112066093 0.36700301712612 0.515477490221408 0 0 0.367229082387122 0 -0.163665253935831 0 0 0 0 0 0 0 0 0 -0.738896077546359 0 0
0 0 0 0 0 0 0 0 0 0 0 0 0 0 0 0 0 0 0 0 0 0 0 0 0 0 0 0 0 0 0 0 0 0 0 0 0 0 -0.163665253935831 -3.43039048278221 0 0 0 0 0 0 0 -3.8280364647686 0 0
0 0 0 0 0 0 0 0 0 0 0 0 0 0 0 0 0 0 0 0 0 0 0 0 0.120320602765528 0 0.206310390778202 0.0899928207188368 0.0137456660420233 0 0.204399895239619 0.354320108667893 0 0.328387342501239 0.257199723258321 1.74185177626207 1.3686034887977 0 0.701542467748799 -0.163665253935831 0.157070646327287 0 0 0 0 0 0 0 0 0
0 0 0 0 0 0 0 0 0 0 0 0 0 0 0 0 0 0 0 0 0 0 0 0 0 0 0 0 0 0 0 0 0.390448450104888 0 0.138689900418334 0.115115107299566 0 0 0 -0.765572966738129 -0.163665253935831 0 0 0 0 0 0 -0.424092953980668 0 0
0 0 0 0 0 0 0 0 0 0 0 0 0 0 0 0 0 0 0 0 0 0 0 0 0 0 0 0 0 0.198097670685902 0 0 0 0 0 0 0 0 0 0 0 -0.163665253935831 0 0 0 0 0 -1.99539024527609 0 0
0 0 0 0 0 0 0 0 0 0 0 0 0 0 0 0 0 0 0.42474212041729 0 0 0 0 0 0 0 0 0 0 0 0 0 0 0 0 0 0 0 0 0 0 0 -0.163665253935831 0 0 0 0 -0.869302297148776 0 -0.582723253243664
0 0 0 0 0 0 0 0.103372460278082 0 0 0.459732081470525 1.24541959397988 0 0 0 0 0 0 0 0 0 0 0 0 0 0 0 0 0 0 0 0 0 0 0 0 0 0 0 0 0 0 0 -0.163665253935831 0 0 0 0 0 -4.75092603536054
0.512487572952236 0.318468438404744 0.358896884826005 0.245058456969906 0 0.115912517724389 0 0 0 0 0 0 0 0 0 0 0 0 0 0 0 0 0 0 0 0 0 0 0 0 0 0 0 0 0 0 0 0 0 0 0 0 0 0 -0.163665253935831 0 0 0 0 -0.666049561962212
0.321878577593764 0.470819453453519 0.102859025797173 0.0403440392731253 0.165267266801905 0.103988341127118 0 0 0 0 0 0 0 0 0 0 0 0 0 0 0 0 0 0 0 0 0 0 0 0 0 0 0 0 0 0 0 0 0 0 0 0 0 0 0 -0.163665253935831 0 0 0 0
0 0 0 0 0 0 0 0 0.455865192955529 0.199480108357094 0 1.00107889850507 0.0663213768580846 0.192688432287845 0.109692506437753 0 0.818510312528175 0 0.195124239435623 0 0.204872063597923 0 0 0 0 0 0 0 0 0 0 0 0 0 0 0 0 0 0 0 0 0 0 0 0 0 -0.163665253935831 0 0 0
0 0 0 0 0 0 0 0 0 0 0 0 0 0 0 0 0 0 0 0 0 0 0 0 0 0 0 0 0 0 0 0 0 0 0 0 0.0494245884300694 0.156299317257487 0.716246444520074 0 0.0842210344172251 0.404809117190736 0.17601950560215 0 0 0 0 -0.163665253935831 0 0
0 0 0 0 0 0 0 0 0 0 0 0 0 0 0 0 0 0 0 0 0 0 0 0 0.325647670482212 0.0924482247914215 0 0 0 0 0 0 0 0 0 0 0 0 0 0 0 0 0 0 0 0 0 0 -0.163665253935831 0
0 0 0 0 0 0 0 0 0 0 0 0 0 0 0 0 0 0 0 0 0 0 0 0 0 0 0 0 0 0 0 0 0 0 0 0 0 0 0 0 0 0 0.115156831155629 0.938672539640023 0.129067430077804 0 0 0 0 -0.163665253935831
