-0.119959828191375 -1.63012396202922 0 0 0 0 0 0 0 0 0 0 0 0 0 0 0 0 0 0 0 0 0 0 0 0 0 0 0 0 0 0 0 0 0 0 0 0 0 0 0 0 0 0 0 0 0 0 0 0
0.306253258413239 -0.119959828191375 0 0 0 0 0 0 0 0 0 0 0 0 0 0 0 0 0 0 0 0 0 0 -1.04978696651622 0 0 0 0 0 0 0 0 0 0 0 0 0 0 0 0 0 0 0 0 0 0 0 0 0
0 0 -0.119959828191375 -1.32745894772589 0 0 0 0 -0.480146669238712 0 0 0 0 0 0 0 0 0 0 0 0 0 0 0 0 -2.01774641295891 0 0 0 0 0 0 0 0 0 0 0 0 0 0 0 0 0 0 0 0 0 0 0 0
0 0 0.255524057039253 -0.119959828191375 0.171549646108834 0 0 0 -1.66413357383715 0 0 0 0 0 0 0 0 0 0 0 0 0 0 0 0 -0.431908715159606 0 0 0 0 0 0 0 0 0 0 0 0 0 0 0 0 0 0 0 0 0 0 0 0
0 0 0 -0.824863201216307 -0.119959828191375 0 0 0 -1.79125202820792 0 0 0 0 0 0 0 0 0 0 0 0 0 0 0 0 -1.93183434993474 0 0 0 0 0 0 0 0 0 0 0 0 0 0 0 0 0 0 0 0 0 0 0 0
0 0 0 0 0 -0.119959828191375 -0.800188464688142 0 0 0 0 0 -4.50517929950281 0 0 0 0 0 0 0 0 0 0 0 0 0 0 0 0 0 0 0 0 0 0 0 0 0 0 0 0 0 0 0 0 0 0 0 0 0
0 0 0 0 0 0.15668862798823 -0.119959828191375 0 0 0 0 0 0 0 0 0 0 0 0 0 0 0 0 0 0 0 0 0 0 -0.245806383588394 0 0 0 0 0 0 0 0 0 0 0 0 0 0 0 0 0 0 0 0
0 0 0 0 0 0 0 -0.119959828191375 0 0 0 0 -2.78086144726781 0 0 0 0 0 0 0 0 0 0 0 0 0 0 0 0 -1.51252393769084 0 0 0 0 0 0 0 0 0 0 0 0 0 0 0 0 0 0 0 0
0 0 0.0913583525864165 0.356100561484854 0.385653724875109 0 0 0 -0.119959828191375 0 0 0 -1.57741272427094 0 0 0 0 0 0 0 0 0 0 0 0 0 0 0 0 -0.150564439499044 0 0 0 -1.06340373451706 0 0 0 -0.471672267362648 0 0 0 0 0 0 0 0 0 0 0 0
0 0 0 0 0 0 0 0 0 -0.119959828191375 0 -1.56937105326889 0 0 0 0 0 0 0 -0.169135055373357 0 0 0 0 0 0 0 0 0 -0.891266649646841 -0.668522666986765 0 0 -0.534422225895207 0 0 0 0 0 0 0 0 0 0 0 0 0 0 0 0
0 0 0 0 0 0 0 0 0 0 -0.119959828191375 0.0948113855091949 0 0 0 0 0 0 0 -1.72841655960914 0 0 0 0 0 0 0 0 0 -2.59671505551851 0 0 0 0 0 0 -1.48416956755645 -2.16076839188714 0 0 -0.954419606464247 -0.524714040463892 0 0 0 0 0 0 0 0
0 0 0 0 0 0 0 0 0 0.323156281450424 -0.443468857904671 -0.119959828191375 0 0 0 0 -1.06755635168853 0 0 -0.333913253823743 0 0 0 0 0 0 0 0 0 0 0 0 0 -2.3481097346974 0 0 -0.82065194671085 -0.548758180957689 0 0 -1.13888533198323 -2.0554997748322 0 0 0 0 0 0 0 0
0 0 0 0 0 0.880746172294647 0 0.546511834011288 0.32335360764463 0 0 0 -0.119959828191375 0 0 0 -1.17349038700946 0 0 -3.68765452238897 0 0 0 0 0 0 0 0 0 0 0 0 0 0 0 0 -0.955681241373702 -1.99734552231802 0 0 0 0 0 0 0 0 0 0 0 0
0 0 0 0 0 0 0 0 0 0 0 0 0 -0.119959828191375 0 0 -1.73556511255386 0 0 -0.780125757476596 0 0 0 0 0 0 0 0 0 0 0 0 0 0 0 0 0 0 0 0 0 -10.0605354960042 0 0 0 0 0 0 0 0
0 0 0 0 0 0 0 0 0 0 0 0 0 0 -0.119959828191375 0 0 0 0 -1.14116374290196 0 -0.915528597871519 -0.75245415587111 0 0 0 0 0 0 0 0 0 0 0 0 0 0 0 -1.47200054064676 0 0 -0.858580404959962 0 0 0 0 0 0 0 0
0 0 0 0 0 0 0 0 0 0 0 0 0 0 0 -0.119959828191375 0 0 0 -1.58807698012912 0 0 -4.9763500792867 0 0 0 0 0 0 0 0 0 0 0 0 0 0 0 -2.09392082977039 0 0 -1.05081086899572 0 0 0 0 0 0 0 0
0 0 0 0 0 0 0 0 0 0 0 0.21163742300004 0.245717801540088 0.32584717484635 0 0 -0.119959828191375 0 0 -0.685573998865671 0 -0.786061160240944 0 0 0 0 0 0 0 0 0 0 0 0 0 0 0 0 -0.57452033942431 0 0 0 0 0 0 0 0 0 0 0
0 0 0 0 0 0 0 0 0 0 0 0 0 0 0 0 0 -0.119959828191375 -1.89184677955235 -2.55483891921964 0 0 0 0 0 0 0 0 0 0 0 0 0 0 0 0 0 0 -0.158248414773466 0 0 0 0 0 0 0 0 0 0 0
0 0 0 0 0 0 0 0 0 0 0 0 0 0 0 0 0 0.355401524562009 -0.119959828191375 0 0 0 0 0 0 0 0 0 0 0 0 0 0 0 0 0 0 0 -0.228296872067537 0 0 -0.648079778856735 0 0 0 0 0 0 0 -0.347391765917976
0 0 0 0 0 0 0 0 0 0.0325531403568377 0.330254216743498 0.0696464267202747 0.742769309916736 0.164275121815373 0.207658557466324 0.311395406642281 0.131095230037735 0.526397132048693 0 -0.119959828191375 0 0 0 0 0 0 0 0 0 0 0 0 0 0 0 0 0 0 0 0 0 -0.349461046238565 0 0 0 0 0 0 0 0
0 0 0 0 0 0 0 0 0 0 0 0 0 0 0 0 0 0 0 0 -0.119959828191375 0 0 0 0 0 0 0 -0.725749100373069 0 0 0 0 0 0 -0.344618108402665 0 0 -4.45191313530291 0 0 0 0 0 0 0 0 0 0 -1.51049891456332
0 0 0 0 0 0 0 0 0 0 0 0 0 0 0.175559834157052 0 0.152160292849762 0 0 0 0 -0.119959828191375 0 0 0 0 0 0 -2.89859016405857 0 0 0 -1.6251924378424 0 0 0 0 0 -0.483186505056789 0 0 -3.20773152331467 0 0 0 0 0 0 0 -1.61436059246486
0 0 0 0 0 0 0 0 0 0 0 0 0 0 0.150835290147161 1.04820099214537 0 0 0 0 0 0 -0.119959828191375 0 0 0 0 0 -0.882044413440542 0 0 0 -0.199226057441231 0 0 0 0 0 0 0 0 -1.24483252398379 0 0 0 0 0 0 0 -0.824781269707433
0 0 0 0 0 0 0 0 0 0 0 0 0 0 0 0 0 0 0 0 0 0 0 -0.119959828191375 0 0 0 0 0 0 0 -3.26273759519257 0 0 0 -4.00947457077172 0 0 -2.23702038812583 -3.0049054628899 0 -0.119800960307347 0 -0.793098688818102 0 0 0 0 0 -0.955787980711591
0 0.198520231832405 0 0 0 0 0 0 0 0 0 0 0 0 0 0 0 0 0 0 0 0 0 0 -0.119959828191375 0 0 0 0 0 0 0 0 0 0 0 0 0 0 -5.29621820369353 0 0 0 0 0 0 0 0 0 -0.645667656205371
0 0 0.416890126743931 0.084026641617012 0.384432476845084 0 0 0 0 0 0 0 0 0 0 0 0 0 0 0 0 0 0 0 0 -0.119959828191375 0 0 0 0 0 0 0 0 0 -5.47121922672778 0 0 0 -1.21761752473447 0 -0.831552332917682 0 0 0 0 0 0 0 -4.27766610233513
0 0 0 0 0 0 0 0 0 0 0 0 0 0 0 0 0 0 0 0 0 0 0 0 0 0 -0.119959828191375 0 0 0 0 0 0 0 -0.647311092486428 0 0 0 0 0 0 0 0 0 0 0 0 0 0 0
0 0 0 0 0 0 0 0 0 0 0 0 0 0 0 0 0 0 0 0 0 0 0 0 0 0 0 -0.119959828191375 0 0 0 0 0 0 0 0 0 0 0 0 0 0 0 0 0 0 0 0 0 -1.37782473971173
0 0 0 0 0 0 0 0 0 0 0 0 0 0 0 0 0 0 0 0 0.138973942096838 0.57162861507152 0.181999353978647 0 0 0 0 0 -0.119959828191375 0 0 0 0 0 -0.797447264567041 0 0 0 0 0 0 0 0 0 0 0 0 0 0 0
0 0 0 0 0 0 0.0509583181524741 0.339832872477153 0.0292988994664354 0.185443434939645 0.504248597422581 0 0 0 0 0 0 0 0 0 0 0 0 0 0 0 0 0 0 -0.119959828191375 0 0 0 0 -0.254094440842671 0 0 0 0 0 0 0 0 0 0 0 0 0 0 0
0 0 0 0 0 0 0 0 0 0.127793082599484 0 0 0 0 0 0 0 0 0 0 0 0 0 0 0 0 0 0 0 0 -0.119959828191375 0 0 0 -0.931973617993089 0 0 0 0 0 0 0 0 0 0 0 0 0 0 0
0 0 0 0 0 0 0 0 0 0 0 0 0 0 0 0 0 0 0 0 0 0 0 0.6632339248054 0 0 0 0 0 0 0 -0.119959828191375 0 0 -1.05494010404879 0 0 0 0 0 0 0 0 0 0 0 0 0 0 0
0 0 0 0 0 0 0 0 0 0 0 0 0 0 0 0 0 0 0 0 0 0.312879150533035 0.040906920174384 0 0 0 0 0 0 0 0 0 -0.119959828191375 0 -0.803409881394623 0 0 0 0 0 0 0 0 0 0 0 0 0 0 0
0 0 0 0 0 0 0 0 0.206403152318557 0.102817443334229 0 0.49099787571637 0 0 0 0 0 0 0 0 0 0 0 0 0 0 0 0 0 0 0 0 0 -0.119959828191375 -9.26847275627187 0 0 0 0 0 0 0 0 0 -1.27337641172931 0 0 0 0 0
0 0 0 0 0 0 0 0 0 0 0 0 0 0 0 0 0 0 0 0 0 0 0 0 0 0 0.131595307728045 0 0.164683086336187 0.0502002128368024 0.188665448637097 0.204615269871923 0.167807933251715 1.71970009318844 -0.119959828191375 0.112490440076932 0.271332430086559 0.0960299027307704 0 0 0 0 0 0 0 0 0 0 0 0
0 0 0 0 0 0 0 0 0 0 0 0 0 0 0 0 0 0 0 0 0.0700988237363847 0 0 0.79322984578541 0 1.15035014490289 0 0 0 0 0 0 0 0 -0.550262830838614 -0.119959828191375 0 0 0 0 0 0 0 0 -0.181231857643822 0 0 0 0 0
0 0 0 0 0 0 0 0 0 0 0.302824473954839 0.144854738841259 0.18320753543962 0 0 0 0 0 0 0 0 0 0 0 0 0 0 0 0 0 0 0 0 0 -1.26497446408488 0 -0.119959828191375 0 0 0 0 0 0 0 0 0 0 0 0 0
0 0 0 0 0 0 0 0 0.0883223933867579 0 0.397883719548979 0.107937891626957 0.390965977921678 0 0 0 0 0 0 0 0 0 0 0 0 0 0 0 0 0 0 0 0 0 -0.460607776629669 0 0 -0.119959828191375 0 0 0 0 0 0 -0.443890325288853 0 0 0 0 0
0 0 0 0 0 0 0 0 0 0 0 0 0 0 0.306410363906539 0.415867553928153 0.122621133095571 0.0317228116312884 0.0453046724219297 0 0.933798267219454 0.093973683599263 0 0.455712054330511 0 0 0 0 0 0 0 0 0 0 0 0 0 0 -0.119959828191375 0 0 0 0 0 0 0 0 0 0 0
0 0 0 0 0 0 0 0 0 0 0 0 0 0 0 0 0 0 0 0 0 0 0 0.636240007825162 1.09650926255657 0.242547269460749 0 0 0 0 0 0 0 0 0 0 0 0 0 -0.119959828191375 0 0 0 0 0 0 0 0 0 0
0 0 0 0 0 0 0 0 0 0 0.182815092214134 0.237296007724841 0 0 0 0 0 0 0 0 0 0 0 0 0 0 0 0 0 0 0 0 0 0 0 0 0 0 0 0 -0.119959828191375 0 0 0 0 0 0 0 0 0
0 0 0 0 0 0 0 0 0 0 0.100433569534068 0.400619123149425 0 1.96553283946397 0.178611495101825 0.209307172098665 0 0 0.118439574788384 0.064858622055031 0 0.637802194687547 0.233471444182359 0.0245761301019669 0 0.16945205799647 0 0 0 0 0 0 0 0 0 0 0 0 0 0 0 -0.119959828191375 0 0 0 0 0 0 0 0
0 0 0 0 0 0 0 0 0 0 0 0 0 0 0 0 0 0 0 0 0 0 0 0 0 0 0 0 0 0 0 0 0 0 0 0 0 0 0 0 0 0 -0.119959828191375 0 0 0 -2.45058180859073 0 0 0
0 0 0 0 0 0 0 0 0 0 0 0 0 0 0 0 0 0 0 0 0 0 0 0.153687640391055 0 0 0 0 0 0 0 0 0 0 0 0 0 0 0 0 0 0 0 -0.119959828191375 0 0 -0.628224304622351 0 0 0
0 0 0 0 0 0 0 0 0 0 0 0 0 0 0 0 0 0 0 0 0 0 0 0 0 0 0 0 0 0 0 0 0 0.255969370042808 0 0.0353203468107943 0 0.092863152048351 0 0 0 0 0 0 -0.119959828191375 -1.29480824273399 -1.07303377711062 -0.493512532863333 0 0
0 0 0 0 0 0 0 0 0 0 0 0 0 0 0 0 0 0 0 0 0 0 0 0 0 0 0 0 0 0 0 0 0 0 0 0 0 0 0 0 0 0 0 0 0.266827044702662 -0.119959828191375 -0.752888327007964 0.396154363261108 0.111419396608898 0.300098425494632
0 0 0 0 0 0 0 0 0 0 0 0 0 0 0 0 0 0 0 0 0 0 0 0 0 0 0 0 0 0 0 0 0 0 0 0 0 0 0 0 0 0 0.504911934589944 0.126780767268962 0.211226900992444 0.162219345940301 -0.119959828191375 0 0 0
0 0 0 0 0 0 0 0 0 0 0 0 0 0 0 0 0 0 0 0 0 0 0 0 0 0 0 0 0 0 0 0 0 0 0 0 0 0 0 0 0 0 0 0 0.10290482547022 -2.06802808604471 0 -0.119959828191375 0 0
0 0 0 0 0 0 0 0 0 0 0 0 0 0 0 0 0 0 0 0 0 0 0 0 0 0 0 0 0 0 0 0 0 0 0 0 0 0 0 0 0 0 0 0 0 -0.529118608488784 0 0 -0.119959828191375 0
0 0 0 0 0 0 0 0 0 0 0 0 0 0 0 0 0 0 0.0694195362684313 0 0.322580783869278 0.329376075171547 0.165309901615191 0.200266801940333 0.13661388513718 0.914515640171788 0 0.287735917255644 0 0 0 0 0 0 0 0 0 0 0 0 0 0 0 0 0 -1.52155123330945 0 0 0 -0.119959828191375
