2.73244367549391
0.573452532510034
2.17990382032713
2.2285986229431
1.59446490639992
0.280185153988917
2.43535320649294
0.280425085356805
0.96876305214512
0.577805866487205
4.34635147642788
8.36052021177721
1.67738371761538
4.45354177655304
1.24047926268464
1.81041263297821
2.12966549792284
0.627845898798965
2.25071210905908
1.30306424772029
1.77872668575277
5.9226864021055
2.34444093981551
0.516814061250664
0.363499635414487
0.301546520356845
1.67249371200425
0.156898877354106
3.44741561511707
2.45287937023552
1.69499322393991
0.688185142452637
1.09930675550369
2.21603736436769
8.58879179666635
0.964419378211429
0.251788684028294
0.568792907291064
2.55566602286043
4.43863976260306
2.26779323616378
0.700646963738164
1.19903467219119
1.18505265214131
0.509461733423457
0.376078817221786
0.967894576080878
5.81098335501655
0.380581079027408
0.2314079908469
