2.3612334351129
0.488310915288036
1.26274849443009
0.668654022033102
1.63320810980026
0.567197281818695
3.56527948168343
0.23441400201404
6.3205671341073
1.01777242019627
0.365322677448352
0.387181980537865
1.55312447773383
0.713529042794926
0.699080988394201
2.12663799539308
0.91511679668028
2.15709466281705
1.76056485935848
0.654585974560441
0.584972947029548
6.23375436423497
1.61284724471442
1.63515776969169
0.957317774562544
1.8912058634213
3.66001485127082
1.13217677915417
3.47392282255562
0.410742700441074
0.151496082244847
0.921673071321476
0.0464013224980732
3.26614486510842
2.74112011789628
0.656788772648966
1.26437067164548
2.54633082659687
1.20417222311169
1.07767917038893
1.79101515080964
0.561605575551574
1.38236816364205
1.55321188978394
3.47964071617896
0.155529388211647
1.11357756807284
6.02734437308629
0.704539381442765
4.77092059292301
