0.48268535308331
0.513117326421357
8.11825302963019
0.532320347886047
0.546841991233919
0.414044841578259
0.727376603158844
1.06280282651608
0.544606357870623
0.111597462425214
1.15397951324942
1.1937481449461
0.817034342604736
1.31845280111818
2.17911528598147
1.11609809529154
0.710606357560231
4.28771266029639
0.316276821845819
0.620851828204091
1.09980854064496
1.5225912331724
0.826895486244673
0.456981831970039
1.47149039146178
2.8077126209284
3.19002532218797
1.05857125080835
3.05970435424133
1.08786573933155
0.902761090650542
0.272494493365737
0.95860123900243
2.46091966602701
2.10617703511715
1.09068974557165
1.03251285654236
0.544176065615713
1.34634862319326
0.621516860806421
0.843383003043211
4.13085416421951
0.088372707840399
0.204998406017844
1.82439091803718
3.46532641972795
0.656993189334097
2.18397461766337
2.38136296029436
0.531573329761385
