0.385042083528188
1.39063375078211
0.945906708123556
2.0516249923275
1.29172101894376
0.599379433040195
1.6024239613074
1.29639926249949
4.09820429484759
2.15698010409132
0.810051201883674
0.819641634285836
0.627130168113015
2.22148091597317
1.11261511828168
1.7419315965784
0.333533132408786
1.29347239149168
1.28168836835245
0.235790917078862
0.206584409181083
0.77668563556437
0.51200073609362
3.51779852088811
2.91815726195903
1.94772919325515
2.33259226506254
1.34553272479059
7.19141979133253
1.0944558736961
0.9113242897418
0.374588300934681
0.150504695682961
1.00340366106105
0.865868892759201
2.47605490216235
0.396703859305295
5.39747036255674
1.71727106026848
1.03576884143318
1.04666260196873
0.615943677288395
2.27200349926453
1.48465338327519
0.882212618897201
0.603743474504585
0.829907597120989
5.84690391852411
10.065907484192
0.507380132499184
