-0.440324228972697 0 0 0 0 0 0 -1.30112942034183 0 0 0 0 0 0 0 0 0 0 0 0 0 0 0 0 0 0 0 0 0 0 0 0 0 0 0 0 0 0 0 0 0 0 0 0 0 0 0 0 0 0
0 -0.440324228972697 0 0 0 0 0 -0.176814271086752 0 0 0 0 0 0 0 0 0 0 0 0 0 0 0 0 0 0 0 0 0 0 0 0 0 0 0 0 0 0 0 0 0 0 0 0 0 0 0 0 0 0
0 0 -0.440324228972697 0 0 0 0 -0.718369232311806 0 0 0 0 0 0 0 0 0 0 0 0 -1.42087549496959 0 0 0 0 0 0 0 0 0 0 0 0 0 0 0 0 0 0 0 0 0 0 0 0 0 0 0 0 0
0 0 0 -0.440324228972697 0 -0.29228748345101 0 -1.80329559890838 0 0 0 0 0 0 0 0 0 0 0 0 -0.316469861967407 0 0 0 0 0 0 0 0 0 0 0 0 0 0 0 0 0 0 0 0 0 0 0 0 0 0 0 0 0
0 0 0 0 -0.440324228972697 0 0 0 0 0 -0.510783696486292 0 0 0 0 0 -0.267201889442764 0 0 0 0 0 0 0 0 0 0 0 0 0 0 0 0 0 0 0 0 0 0 0 0 0 0 0 0 0 0 0 0 0
0 0 0 0.0587506399259961 0 -0.440324228972697 -2.79967446168409 0 0 0 -0.83112541011025 0 0 0 0 0 0 0 0 -1.34717533590616 -2.58946848184537 0 0 0 0 0 0 0 0 0 0 0 0 0 0 0 0 0 0 -0.884652601040521 0 0 0 0 0 0 0 0 0 0
0 0 0 0 0 0.573305298608178 -0.440324228972697 0 -0.202222093826859 0 0 0 0 0 0 0 0 0 0 -0.150058228322354 -0.268653001281415 0 0 0 0 0 0 0 0 0 0 0 0 0 0 0 0 0 0 0 0 0 0 0 0 0 0 0 0 0
0.268517168642271 0.0365608607379288 0.158535333417582 0.36574670888209 0 0 0 -0.440324228972697 0 0 0 0 0 0 -0.821056456168019 0 0 0 0 -1.52645413703938 0 0 0 0 0 0 0 0 0 0 0 0 -0.259803906150835 0 0 0 0 0 0 0 0 0 0 0 0 0 0 0 0 0
0 0 0 0 0 0 0.0409176420876355 0 -0.440324228972697 0 0 0 0 0 -2.37750577614974 0 0 -1.34447809887293 0 0 0 0 0 0 0 0 0 0 0 0 0 0 -2.03354132038654 0 0 0 0 0 0 -0.557089559136366 0 0 0 0 0 0 0 0 0 0
0 0 0 0 0 0 0 0 0 -0.440324228972697 0 0 0 0 -0.887671118893463 -0.702110367180751 0 0 0 0 0 0 0 0 0 0 0 0 0 0 0 0 -0.986219552419426 0 0 0 0 0 0 -0.737353554296641 0 0 0 0 0 0 0 0 0 0
0 0 0 0 0.0953340841365955 0.176858154890623 0 0 0 0 -0.440324228972697 0 0 0 0 -0.656059734990286 0 -1.27408354344675 0 0 0 0 0 0 0 0 0 0 0 0 0 0 0 0 0 0 0 0 0 -1.6878215490834 0 0 0 0 0 0 0 0 0 0
0 0 0 0 0 0 0 0 0 0 0 -0.440324228972697 0 0 0 0 0 -4.36352581479679 0 0 0 0 0 0 0 0 0 0 0 0 0 0 -0.449247210369582 0 0 0 0 0 0 -2.01876292069514 0 0 0 0 0 0 0 0 0 0
0 0 0 0 0 0 0 0 0 0 0 0 -0.440324228972697 0 0 -0.722007406229082 0 0 0 0 0 0 0 0 0 0 0 0 0 0 0 0 -1.20800392570435 0 0 0 0 0 0 0 0 0 0 0 0 0 0 0 0 0
0 0 0 0 0 0 0 0 0 0 0 0 0 -0.440324228972697 0 0 0 0 -3.17281853335818 0 0 0 0 0 0 0 0 0 0 0 0 0 0 0 0 0 -1.24775254357667 0 -0.543840695305395 0 0 0 0 0 0 -0.792713211489884 0 0 0 0
0 0 0 0 0 0 0 0.166792128829987 0.493980006109851 0.170849006650406 0 0 0 0 -0.440324228972697 0 0 0 0 0 0 0 0 0 0 0 0 0 0 0 0 0 0 0 0 0 0 0 -1.66308194366256 0 0 0 0 0 0 -2.96045884538583 0 0 0 0
0 0 0 0 0 0 0 0 0 0.147488420449596 0.143648927204055 0 0.141133615448471 0 0 -0.440324228972697 0 0 0 0 0 0 0 0 0 0 0 0 0 0 0 0 0 0 0 0 0 0 0 0 -1.06514249239965 0 0 0 0 0 0 0 0 0
0 0 0 0 0.0519101177415704 0 0 0 0 0 0 0 0 0 0 0 -0.440324228972697 0 0 0 0 0 0 0 0 0 0 0 0 0 0 0 0 0 0 0 0 0 0 -2.86107695799189 -3.13714196412655 0 0 0 0 0 0 0 0 0
0 0 0 0 0 0 0 0 0.28175396725575 0 0.248329292818391 0.909789564139099 0 0 0 0 0 -0.440324228972697 0 0 0 -0.550580831980811 -1.52871508836403 0 0 -5.63768936897192 0 -1.8950995811869 0 -3.48604209903738 0 0 0 0 0 0 0 0 0 -2.94124918089121 -1.30156628528551 0 0 0 0 0 -1.39529295513356 0 0 0
0 0 0 0 0 0 0 0 0 0 0 0 0 0.615227440985637 0 0 0 0 -0.440324228972697 0 0 -3.23612179097916 0 0 0 -1.13829606278623 0 -0.223987861511786 0 -0.347775827560456 -1.15042543844745 0 0 0 0 0 0 0 0 0 -0.558913507839978 0 -1.16224707098249 0 0 0 0 0 0 0
0 0 0 0 0 0.2496868202775 0.033584242884946 0.327630740658179 0 0 0 0 0 0 0 0 0 0 0 -0.440324228972697 0 -1.14382666543519 -0.966279552362134 0 0 0 0 -1.72671028789892 0 0 -0.473293600330353 0 0 0 0 0 0 0 0 -0.401001658081215 -1.17845918116227 0 -0.951355629771292 0 0 0 -1.58907997764187 0 0 0
0 0 0.292241902524387 0.0621996284822809 0 0.481342992735709 0.0523935300888599 0 0 0 0 0 0 0 0 0 0 0 0 0 -0.440324228972697 0 0 -0.618238236896929 -0.943974541541816 0 0 0 0 -2.49747150458271 -0.799665896447887 0 0 0 0 0 0 0 0 0 -1.26133048304203 0 -0.732003982005372 0 0 0 0 -2.96405673124249 -0.783690364625626 0
0 0 0 0 0 0 0 0 0 0 0 0 0 0 0 0 0 0.106960706325526 0.646477333298445 0.212921134905748 0 -0.440324228972697 0 0 0 0 0 0 0 -2.56448786490964 0 0 0 0 0 0 0 0 0 -2.04340264436373 0 0 -0.727783498565427 -0.709742215961251 0 0 0 0 -0.892540374315957 0
0 0 0 0 0 0 0 0 0 0 0 0 0 0 0 0 0 0.287406984147394 0 0.181225537723089 0 0 -0.440324228972697 0 0 0 0 0 0 0 0 0 0 0 0 0 0 0 0 -1.27877225338807 0 0 -2.09789465985613 -0.797782631458325 0 0 0 0 -0.497607940249666 0
0 0 0 0 0 0 0 0 0 0 0 0 0 0 0 0 0 0 0 0 0.125573848659223 0 0 -0.440324228972697 0 0 0 0 0 0 0 0 0 0 0 0 0 0 0 -0.355920541357519 0 0 0 -0.756484642305958 0 0 0 0 -1.01192833575346 0
0 0 0 0 0 0 0 0 0 0 0 0 0 0 0 0 0 0 0 0 0.175790930671066 0 0 0 -0.440324228972697 0 0 0 0 0 0 0 0 0 0 0 0 0 0 0 0 0 -0.488705857518376 0 0 0 0 0 -0.726386404603381 0
0 0 0 0 0 0 0 0 0 0 0 0 0 0 0 0 0 1.22534300081059 0.243658384826532 0 0 0 0 0 0 -0.440324228972697 0 0 0 0 0 0 0 0 0 0 0 0 0 0 0 0 -1.94486858438099 0 0 0 0 0 -0.697950339979782 0
0 0 0 0 0 0 0 0 0 0 0 0 0 0 0 0 0 0 0 0 0 0 0 0 0 0 -0.440324228972697 0 0 0 0 0 0 0 0 0 0 0 0 -0.456493241030839 0 0 -0.82214308535064 0 0 0 0 0 0 0
0 0 0 0 0 0 0 0 0 0 0 0 0 0 0 0 0 0.384081437345038 0.0460719285274244 0.3119642269654 0 0 0 0 0 0 0 -0.440324228972697 0 0 0 0 0 0 0 0 0 0 0 -1.99938094093377 0 0 -0.352246294667054 0 0 0 0 0 0 0
0 0 0 0 0 0 0 0 0 0 0 0 0 0 0 0 0 0 0 0 0 0 0 0 0 0 0 0 -0.440324228972697 0 0 0 0 0 0 0 0 -0.852234876105656 0 -0.471018183108315 0 0 -1.09545481960535 0 0 0 0 0 0 0
0 0 0 0 0 0 0 0 0 0 0 0 0 0 0 0 0 0.657063799582377 0.0707780277133698 0 0.454239203295133 0.487317310953086 0 0 0 0 0 0 0 -0.440324228972697 0 0 0 0 0 0 0 0 0 -0.899600104562633 0 -1.27097500842506 -5.14728941712004 0 0 0 0 0 0 0
0 0 0 0 0 0 0 0 0 0 0 0 0 0 0 0 0 0 0.24990679133701 0.0864785100756176 0.146033399162408 0 0 0 0 0 0 0 0 0 -0.440324228972697 -1.5698003629617 0 0 0 0 0 -0.663729616991657 0 -2.74880488993198 0 -1.53017978886211 -0.248266702724617 0 -0.714122494364852 0 0 0 0 0
0 0 0 0 0 0 0 0 0 0 0 0 0 0 0 0 0 0 0 0 0 0 0 0 0 0 0 0 0 0 0.305976040362001 -0.440324228972697 0 0 -0.677923907003122 0 0 -1.94665339179068 0 0 0 0 0 0 0 0 0 0 0 0
0 0 0 0 0 0 0 0.0491840387818668 0.390479499828281 0.199504539632423 0 0.0808668122653497 0.247148313553953 0 0 0 0 0 0 0 0 0 0 0 0 0 0 0 0 0 0 0 -0.440324228972697 0 -0.758116936244693 0 0 -2.68224035777986 0 0 0 -1.208997246841 -0.481503935667495 0 -0.107769856129059 0 0 0 0 0
0 0 0 0 0 0 0 0 0 0 0 0 0 0 0 0 0 0 0 0 0 0 0 0 0 0 0 0 0 0 0 0 0 -0.440324228972697 -1.86381608952314 0 0 -4.1786677294221 0 0 0 -1.16636082003282 0 0 -0.356930528898877 0 0 0 0 0
0 0 0 0 0 0 0 0 0 0 0 0 0 0 0 0 0 0 0 0 0 0 0 0 0 0 0 0 0 0 0 0.134640694609433 0.148860908622408 0.351372423831921 -0.440324228972697 0 0 0 0 0 0 0 0 0 -0.566190443553517 0 0 0 0 0
0 0 0 0 0 0 0 0 0 0 0 0 0 0 0 0 0 0 0 0 0 0 0 0 0 0 0 0 0 0 0 0 0 0 0 -0.440324228972697 0 0 0 0 0 0 0 0 -0.514489098456175 0 0 0 0 0
0 0 0 0 0 0 0 0 0 0 0 0 0 0.236335411104653 0 0 0 0 0 0 0 0 0 0 0 0 0 0 0 0 0 0 0 0 0 0 -0.440324228972697 0 0 0 0 0 0 0 0 0 0 0 0 0
0 0 0 0 0 0 0 0 0 0 0 0 0 0 0 0 0 0 0 0 0 0 0 0 0 0 0 0 0.165188971084802 0 0.131964737192792 0.371609711688005 0.524476510331459 0.833971870031279 0 0 0 -0.440324228972697 0 0 0 0 0 0 0 0 0 0 0 0
0 0 0 0 0 0 0 0 0 0 0 0 0 0.112731393528427 0.326647783233799 0 0 0 0 0 0 0 0 0 0 0 0 0 0 0 0 0 0 0 0 0 0 0 -0.440324228972697 0 0 0 0 0 0 0 0 0 0 0
0 0 0 0 0 0.169569092027166 0 0 0.120055621903704 0.152826774786695 0.326341538808779 0.397556671541486 0 0 0 0 0.580123435969358 0.605466271583519 0 0.082249238136421 0 0.451969841752001 0.249273110124088 0.0683812590323162 0 0 0.088186644255735 0.399015652862915 0.0899293170950837 0.189042507918832 0.5417368465139 0 0 0 0 0 0 0 0 -0.440324228972697 0 0 0 0 0 0 0 0 0 0
0 0 0 0 0 0 0 0 0 0 0 0 0 0 0 0.220614416170483 0.618132670885671 0.242617968494161 0.111409711211617 0.241610105624818 0.255781050655447 0 0 0 0 0 0 0 0 0 0 0 0 0 0 0 0 0 0 0 -0.440324228972697 0 0 0 0 0 0 0 0 0
0 0 0 0 0 0 0 0 0 0 0 0 0 0 0 0 0 0 0 0 0 0 0 0 0 0 0 0 0 0.241192563353019 0.341757182607951 0 0.241902478141161 0.236590149426864 0 0 0 0 0 0 0 -0.440324228972697 0 0 0 0 0 0 0 0
0 0 0 0 0 0 0 0 0 0 0 0 0 0 0 0 0 0 0.243810146965047 0.192869783489567 0.166864232153431 0.137573955557977 0.406221912937993 0 0.0855676202555496 0.378963498630771 0.173187760679843 0.075203820276379 0.210242698311069 1.04090322865292 0.0482101915103057 0 0.0940965102887396 0 0 0 0 0 0 0 0 0 -0.440324228972697 0 0 0 0 0 0 0
0 0 0 0 0 0 0 0 0 0 0 0 0 0 0 0 0 0 0 0 0 0.137845443821265 0.144251595500035 0.154469955316386 0 0 0 0 0 0 0 0 0 0 0 0 0 0 0 0 0 0 0 -0.440324228972697 0 0 0 0 0 0
0 0 0 0 0 0 0 0 0 0 0 0 0 0 0 0 0 0 0 0 0 0 0 0 0 0 0 0 0 0 0.125014494522917 0 0.02254152098874 0.070830958966329 0.107560456688772 0.107655326161598 0 0 0 0 0 0 0 0 -0.440324228972697 0 0 0 0 0
0 0 0 0 0 0 0 0 0 0 0 0 0 0.162412677842928 0.623184369002115 0 0 0 0 0 0 0 0 0 0 0 0 0 0 0 0 0 0 0 0 0 0 0 0 0 0 0 0 0 0 -0.440324228972697 0 0 0 0
0 0 0 0 0 0 0 0 0 0 0 0 0 0 0 0 0 0.268111862677082 0 0.316035118711763 0 0 0 0 0 0 0 0 0 0 0 0 0 0 0 0 0 0 0 0 0 0 0 0 0 0 -0.440324228972697 0 0 0
0 0 0 0 0 0 0 0 0 0 0 0 0 0 0 0 0 0 0 0 0.572956209831714 0 0 0 0 0 0 0 0 0 0 0 0 0 0 0 0 0 0 0 0 0 0 0 0 0 0 -0.440324228972697 0 0
0 0 0 0 0 0 0 0 0 0 0 0 0 0 0 0 0 0 0 0 0.158979181045585 0.182803805597526 0.0947788008793975 0.212157482245627 0.146360398120146 0.141105844673654 0 0 0 0 0 0 0 0 0 0 0 0 0 0 0 0 0 0 0 0 0 0 -0.440324228972697 -0.464352565014165
0 0 0 0 0 0 0 0 0 0 0 0 0 0 0 0 0 0 0 0 0 0 0 0 0 0 0 0 0 0 0 0 0 0 0 0 0 0 0 0 0 0 0 0 0 0 0 0 0.0937444959301903 -0.440324228972697
