0.492686688913285
0.188838785377507
0.296458277431233
1.21013668450626
1.98146150406418
0.912342042651458
1.1077608656083
0.305645302172086
0.0607334413053273
0.694758006826843
3.1116333283369
0.458287772272959
1.10057536017426
6.60205650732908
0.567303625260613
4.4660279480991
0.39181789997707
1.40283113386218
2.23082526495213
0.864686640231922
0.347959908770823
0.587589370253099
4.83000734592079
0.362715199882422
2.53038523903903
0.753416748452317
0.92450812103714
3.10675284118766
1.17146031608403
1.10686508331749
0.417156003573382
0.783809058046155
1.13885436620264
0.767036039472607
1.99036713539019
1.21436583027938
1.7289415477588
0.771995872174876
1.9687508596592
0.416925563589997
1.12513291251947
5.26650720656457
0.388289373494151
6.32066459329177
0.89883144616949
0.657679649179898
2.83485838882737
0.477889346570456
5.07906855752546
1.12684102782641
