1.00674883821718
0.795178146699838
2.12689403368582
1.34569261421596
0.596429584629919
9.13263297643331
0.43978548587073
0.946441015092201
2.84766687996559
0.483929966436938
0.242617918632512
0.0737517852546813
0.0554666937323356
2.25029338992095
0.271570632991601
1.14714194552015
0.370097561592112
1.51749501890587
1.1562247588529
0.869171570671364
1.88970597633283
3.02500860959165
1.58660061986981
0.15772098858559
0.787727603775394
0.386768860824991
1.46105484301607
0.4386080456247
0.61857069928354
1.14847108023227
0.462089047198014
0.400662690856634
2.46444252923822
1.18987129816276
1.50284133911763
0.36820302308327
0.29170334652078
0.662433612935659
0.555276318397306
0.0876184859821714
0.352251789699876
0.359049972828541
2.88884885932033
5.71786667897755
1.17882120405413
0.374535524967276
4.35767925457234
0.255593969227452
1.63414487618783
1.84999256247563
