-0.10742095874224 0 0 0 0 0 -0.272235239252186 0 -1.5891226198479 0 -1.70489875268395 0 0 0 0 0 0 0 0 0 0 0 0 0 0 0 -0.653142553416166 0 0 0 0 0 0 0 0 0 0 0 0 -1.64116644262655 0 0 0 0 0 0 0 0 0 0
0 -0.10742095874224 0 0 0 0 -0.500772530095586 0 -2.45552785714141 0 0 0 0 0 0 0 0 0 0 0 0 0 0 0 0 0 0 0 0 0 0 0 0 0 0 0 0 0 0 -0.255564541921676 0 0 0 0 0 0 0 0 0 0
0 0 -0.10742095874224 0 0 0 -0.412821553967334 0 -1.7215721384111 0 -2.76122287785761 0 0 0 0 0 0 0 0 0 0 0 0 0 0 0 0 0 0 0 0 0 0 0 0 0 0 0 0 -0.398400013803781 0 0 0 0 0 0 0 0 0 0
0 0 0 -0.10742095874224 0 0 0 0 0 0 0 0 0 0 0 0 0 0 0 0 0 0 0 0 0 0 -0.81645792948818 0 0 0 0 0 0 0 0 0 0 0 0 -1.97424322291087 0 0 0 0 0 0 0 0 0 0
0 0 0 0 -0.10742095874224 0 0 0 0 0 0 0 0 0 0 0 0 0 0 0 0 0 0 0 0 0 0 0 0 0 0 0 0 0 0 0 0 0 0 -0.24689057736876 0 0 0 0 0 0 0 0 0 0
0 0 0 0 0 -0.10742095874224 0 0 0 0 0 0 0 0 0 0 -1.80457829492363 0 0 0 0 0 0 0 0 0 0 -1.20909757185414 0 0 0 0 0 0 0 0 0 0 0 -5.19201734773459 0 0 0 0 0 0 0 0 0 0
0.0521690925432979 0.0969805311757887 0.0837651723866631 0 0 0 -0.10742095874224 0 0 0 0 0 0 0 0 0 0 0 0 0 0 0 0 0 0 0 0 -0.331095604663571 0 0 0 0 0 0 0 0 0 0 0 -1.45634313922504 0 0 0 0 0 0 0 0 0 0
0 0 0 0 0 0 0 -0.10742095874224 0 0 0 -2.746549983861 0 0 0 0 0 0 0 0 0 0 0 0 0 0 0 -0.478822182499584 0 0 0 0 0 0 0 0 0 0 0 -0.110962334093135 0 0 0 0 0 0 0 0 0 0
0.307618117170774 0.484541714923151 0.308754531801584 0 0 0 0 0 -0.10742095874224 -0.342730176327984 0 -1.85349395187059 0 0 0 0 0 0 0 0 0 0 0 0 0 0 0 0 0 0 0 0 0 0 0 0 0 0 0 0 0 0 -1.29241350533779 0 0 0 0 0 0 0
0 0 0 0 0 0 0 0 0.0666823221624685 -0.10742095874224 0 0 0 0 0 0 0 0 0 0 0 0 -2.26907720038359 0 0 0 0 -0.333736524402952 0 0 0 0 0 0 0 0 0 0 0 0 0 -1.79755727959149 0 0 0 0 0 0 0 0
0.364619793703312 0 0.511781314298507 0 0 0 0 0 0 0 -0.10742095874224 0 0 0 0 0 0 0 0 0 0 0 -0.47056903046222 0 0 0 0 0 0 0 -0.829409035075488 0 0 0 0 0 0 0 0 0 0 -1.3706857807238 0 0 0 0 0 0 0 0
0 0 0 0 0 0 0 0.53059473994172 0.379254590946934 0 0 -0.10742095874224 0 0 0 0 0 0 0 0 0 0 0 0 0 0 0 -4.15305871964027 0 0 0 0 0 0 0 0 0 0 0 0 0 -0.792184753631104 -0.395646324017813 0 0 0 0 0 0 0
0 0 0 0 0 0 0 0 0 0 0 0 -0.10742095874224 0 0 0 0 0 0 0 0 0 -0.391206324907529 0 0 0 0 -0.407654301204624 0 0 -2.85119529315749 0 0 0 0 0 0 0 0 0 0 -0.255306850772968 0 0 0 0 0 0 0 0
0 0 0 0 0 0 0 0 0 0 0 0 0 -0.10742095874224 0 0 0 0 -1.63277734406985 -0.380444383719878 -0.305191525437299 0 0 0 0 0 0 0 0 0 0 -0.757931498225 0 0 0 0 0 0 0 0 0 -0.560990651193756 0 -1.45715943301104 0 0 0 0 0 0
0 0 0 0 0 0 0 0 0 0 0 0 0 0 -0.10742095874224 0 0 0 -0.963279059859911 -3.20920402571597 -0.795688884188212 -6.08860658301679 0 0 -0.507754487567028 -1.45853808698777 0 -0.623819154394776 0 0 0 0 0 0 0 0 0 0 0 0 0 0 0 -5.11860429741722 0 0 0 -0.166391875456429 0 0
0 0 0 0 0 0 0 0 0 0 0 0 0 0 0 -0.10742095874224 0 0 -1.49588142513339 -0.323399133711953 -2.397152587869 -0.850383886006349 0 0 -0.711292983320497 -1.53821673376308 0 0 0 0 0 0 0 0 0 0 0 0 0 0 0 -0.41813106690882 0 0 0 0 0 0 0 0
0 0 0 0 0 0.345418080075398 0 0 0 0 0 0 0 0 0 0 -0.10742095874224 0 0 0 0 0 0 0 0 0 0 0 0 0 0 0 0 0 0 0 0 0 0 0 0 0 0 0 0 0 0 -2.32456926186584 0 0
0 0 0 0 0 0 0 0 0 0 0 0 0 0 0 0 0 -0.10742095874224 0 0 0 0 0 0 0 0 0 0 0 0 0 0 0 0 0 0 0 0 0 0 0 0 0 0 0 0 0 -0.727293367287328 0 0
0 0 0 0 0 0 0 0 0 0 0 0 0 0.319172594218643 0.202186176136929 0.30268235793379 0 0 -0.10742095874224 0 0 0 0 0 0 0 0 0 0 0 0 0 0 0 0 -0.316219750717721 0 0 0 0 0 0 0 0 0 0 0 -1.63848219383964 0 0
0 0 0 0 0 0 0 0 0 0 0 0 0 0.0791553919981702 0.632392894330544 0.0614806954305383 0 0 0 -0.10742095874224 0 0 0 0 0 0 0 0 0 0 0 0 0 0 0 -0.466882772262546 0 -1.14355574772578 -0.965967658056559 0 0 0 0 0 0 0 0 -0.394081344913436 0 0
0 0 0 0 0 0 0 0 0 0 0 0 0 0.0648288028919798 0.162114988593106 0.452705843258146 0 0 0 0 -0.10742095874224 0 0 0 0 0 0 0 0 -3.49775960317404 0 0 0 0 0 -0.598143360049098 0 -0.277032859296566 -1.0728792837909 0 0 0 0 0 0 0 0 -0.714873663260944 0 0
0 0 0 0 0 0 0 0 0 0 0 0 0 0 1.13113900917508 0.171795393803275 0 0 0 0 0 -0.10742095874224 0 0 0 0 0 0 0 -1.55355953694297 0 0 0 0 0 -0.561268308222614 0 -0.539019825403045 0 0 0 0 0 0 0 0 0 -0.496636642054882 0 0
0 0 0 0 0 0 0 0 0 0.453605848619086 0.0969277977906486 0 0.0732218642188054 0 0 0 0 0 0 0 0 0 -0.10742095874224 0 0 0 0 0 0 -0.692436477346689 0 0 0 0 0 -0.296241283002121 0 0 0 0 0 0 0 0 0 0 0 -0.777030997286957 0 0
0 0 0 0 0 0 0 0 0 0 0 0 0 0 0 0 0 0 0 0 0 0 0 -0.10742095874224 0 0 0 0 0 0 0 0 0 0 -1.94695072771015 0 0 -0.627468677911532 -2.65121595526417 0 0 0 0 0 0 0 0 0 0 0
0 0 0 0 0 0 0 0 0 0 0 0 0 0 0.0922519205244325 0.141911988778075 0 0 0 0 0 0 0 0 -0.10742095874224 0 0 0 0 0 0 0 0 0 -0.728135691712945 0 0 -1.15866205825102 -1.41045167469804 0 0 0 0 0 0 0 0 0 0 0
0 0 0 0 0 0 0 0 0 0 0 0 0 0 0.289651594670958 0.326368318054924 0 0 0 0 0 0 0 0 0 -0.10742095874224 0 0 0 0 0 0 0 0 0 0 0 -0.0988697748464505 -2.42770591025292 0 0 0 0 0 0 0 0 0 0 0
0.143491573301201 0 0 0.161678362584503 0 0 0 0 0 0 0 0 0 0 0 0 0 0 0 0 0 0 0 0 0 0 -0.10742095874224 0 0 0 0 0 0 0 0 0 0 0 -4.75274963280875 0 0 0 0 0 0 0 0 0 0 0
0 0 0 0 0 0.234662425923998 0.0742784786311756 0.0969214530040904 0 0.0684229832029807 0 0.844971644302671 0.0748507127402623 0 0.121391684782341 0 0 0 0 0 0 0 0 0 0 0 0 -0.10742095874224 0 0 0 0 0 0 -2.17429602328472 0 0 0 0 0 0 0 0 0 0 0 0 0 0 0
0 0 0 0 0 0 0 0 0 0 0 0 0 0 0 0 0 0 0 0 0 0 0 0 0 0 0 0 -0.10742095874224 0 0 0 0 0 -1.39907524472606 0 0 0 0 0 0 0 0 0 0 0 0 0 0 0
0 0 0 0 0 0 0 0 0 0 0 0 0 0 0 0 0 0 0 0 0.73559611646866 0.313124153915256 0.131452476034153 0 0 0 0 0 0 -0.10742095874224 0 0 0 0 0 0 0 0 0 0 0 0 0 0 0 0 0 0 0 0
0 0 0 0 0 0 0 0 0 0 0.163956909765702 0 0.537393999171376 0 0 0 0 0 0 0 0 0 0 0 0 0 0 0 0 0 -0.10742095874224 0 0 0 -0.568234037049248 0 0 0 0 0 0 0 0 0 0 -1.6224871073936 0 0 0 0
0 0 0 0 0 0 0 0 0 0 0 0 0 0.145310591368055 0 0 0 0 0 0 0 0 0 0 0 0 0 0 0 0 0 -0.10742095874224 0 0 -1.26080356751986 0 0 0 0 0 -1.05525853393984 0 0 0 0 -2.22755265669944 0 0 0 0
0 0 0 0 0 0 0 0 0 0 0 0 0 0 0 0 0 0 0 0 0 0 0 0 0 0 0 0 0 0 0 0 -0.10742095874224 0 0 0 0 0 0 0 0 0 0 0 0 -0.835603397125505 0 0 0 0
0 0 0 0 0 0 0 0 0 0 0 0 0 0 0 0 0 0 0 0 0 0 0 0 0 0 0 0 0 0 0 0 0 -0.10742095874224 -2.34394846352798 0 0 0 0 0 -0.512943304183792 0 0 0 0 -2.14088061441918 0 0 0 0
0 0 0 0 0 0 0 0 0 0 0 0 0 0 0 0 0 0 0 0 0 0 0 0.369579533557589 0.149473342994183 0 0 0.42737468965841 0.284536284709871 0 0.114959439853804 0.248480890141735 0 0.470711137316672 -0.10742095874224 1.04662716885549 0 0 0 0 -0.931380285951261 0 0 0 0 -0.772654026484467 0 0 0 0
0 0 0 0 0 0 0 0 0 0 0 0 0 0 0 0 0 0 0.0608768779932887 0.0892951554704776 0.128818269584259 0.114325811472734 0.0569009855272394 0 0 0 0 0 0 0 0 0 0 0 -5.12829722124258 -0.10742095874224 0 0 0 0 -1.67635914542444 0 0 0 0 0 0 0 0 -1.00027940228377
0 0 0 0 0 0 0 0 0 0 0 0 0 0 0 0 0 0 0 0 0 0 0 0 0 0 0 0 0 0 0 0 0 0 0 0 -0.10742095874224 0 0 0 -1.94802872295667 0 0 0 0 0 0 0 0 -1.35689829309444
0 0 0 0 0 0 0 0 0 0 0 0 0 0 0 0 0 0 0 0.241476565545169 0.0554367431120945 0.101244603816517 0 0.122290992367259 0.236211241859329 0.0201402484431527 0 0 0 0 0 0 0 0 0 0 0 -0.10742095874224 0 0 -1.92130974108265 0 0 0 0 0 0 0 0 0
0 0 0 0 0 0 0 0 0 0 0 0 0 0 0 0 0 0 0 0.17877588468016 0.209969103176063 0 0 0.53584999250698 0.273529113158916 0.455201869801377 1.00758894519535 0 0 0 0 0 0 0 0 0 0 0 -0.10742095874224 0 -3.76333083010291 0 0 0 0 0 -1.31162208736318 0 0 0
0.342532248982208 0.0476341057217893 0.0860719900710174 0.3774318209137 0.0524725720303007 1.10829660199102 0.284478722716659 0.0250257849717078 0 0 0 0 0 0 0 0 0 0 0 0 0 0 0 0 0 0 0 0 0 0 0 0 0 0 0 0 0 0 0 -0.10742095874224 -5.44710374125147 0 0 0 0 0 -1.62675267661208 0 0 -0.298805827559819
0 0 0 0 0 0 0 0 0 0 0 0 0 0 0 0 0 0 0 0 0 0 0 0 0 0 0 0 0 0 0 0.226624792375889 0 0.107135682010957 0.182451532337253 0.311175959442803 0.382822362240305 0.405518666888822 0.680728226173238 1.17166746722723 -0.10742095874224 0.0697676924387792 0 0 0 0 0 0 0 0
0 0 0 0 0 0 0 0 0 0.368006955006931 0.266786500478386 0.154960615629439 0.051436864748988 0.104148038400392 0 0.0838177406471322 0 0 0 0 0 0 0 0 0 0 0 0 0 0 0 0 0 0 0 0 0 0 0 0 -0.354913926313581 -0.10742095874224 0 0 0 0 0 0 -0.482631946627837 0
0 0 0 0 0 0 0 0 0.236509102870521 0 0 0.0821852708270363 0 0 0 0 0 0 0 0 0 0 0 0 0 0 0 0 0 0 0 0 0 0 0 0 0 0 0 0 0 0 -0.10742095874224 0 0 0 0 0 -1.33733959232786 0
0 0 0 0 0 0 0 0 0 0 0 0 0 0.284467846084095 1.03364619331265 0 0 0 0 0 0 0 0 0 0 0 0 0 0 0 0 0 0 0 0 0 0 0 0 0 0 0 0 -0.10742095874224 0 0 0 0 -3.46975689993176 0
0 0 0 0 0 0 0 0 0 0 0 0 0 0 0 0 0 0 0 0 0 0 0 0 0 0 0 0 0 0 0 0 0 0 0 0 0 0 0 0 0 0 0 0 -0.10742095874224 0 0 0 -1.84843724755339 0
0 0 0 0 0 0 0 0 0 0 0 0 0 0 0 0 0 0 0 0 0 0 0 0 0 0 0 0 0 0 0.3222439825113 0.456270064263011 0.168480044905097 0.428510290665796 0.164782103360625 0 0 0 0 0 0 0 0 0 0 -0.10742095874224 0 0 -0.719832595075412 0
0 0 0 0 0 0 0 0 0 0 0 0 0 0 0 0 0 0 0 0 0 0 0 0 0 0 0 0 0 0 0 0 0 0 0 0 0 0 0.27429886748019 0.29258092317941 0 0 0 0 0 0 -0.10742095874224 0 -0.688972644743625 0
0 0 0 0 0 0 0 0 0 0 0 0 0 0 0.0321387286456917 0 0.501304377688178 0.135109951239601 0.335872935072242 0.0739819893372731 0.134552052124784 0.0930904821638235 0.15515434815127 0 0 0 0 0 0 0 0 0 0 0 0 0 0 0 0 0 0 0 0 0 0 0 0 -0.10742095874224 0 0
0 0 0 0 0 0 0 0 0 0 0 0 0 0 0 0 0 0 0 0 0 0 0 0 0 0 0 0 0 0 0 0 0 0 0 0 0 0 0 0 0 0.093451228503852 0.255311096921863 0.694941462088997 0.360695093260965 0.13534660242964 0.142529384129045 0 -0.10742095874224 0
0 0 0 0 0 0 0 0 0 0 0 0 0 0 0 0 0 0 0 0 0 0 0 0 0 0 0 0 0 0 0 0 0 0 0 0.205028559810633 0.269471181812094 0 0 0.0584746105473468 0 0 0 0 0 0 0 0 0 -0.10742095874224
