-0.49150344213429 -1.0737969455016 0 -1.5804508039162 0 0 0 0 0 0 0 0 0 0 0 0 0 0 0 0 0 0 0 0 0 0 0 0 0 0 0 0 0 0 0 0 0 0 0 0 0 0 0 0 0 0 0 0 0 0
0.20764257336873 -0.49150344213429 0 0 0 0 0 0 0 0 0 0 0 0 0 0 0 0 0 -2.55601868383187 0 0 0 0 0 0 0 0 0 0 0 0 0 0 0 0 0 0 0 0 0 0 0 0 0 0 0 0 0 0
0 0 -0.49150344213429 0 0 0 0 0 -1.35162621917491 0 0 0 0 0 0 0 0 0 0 -0.634818710581728 0 0 0 0 0 0 0 0 0 0 0 0 0 0 0 0 0 0 0 0 0 0 0 0 0 0 0 0 0 0
0.320235897250262 0 0 -0.49150344213429 0 0 0 0 -2.23950028117863 0 0 0 0 0 0 0 0 0 0 -0.403689961424243 0 0 0 0 0 0 0 0 0 0 0 0 0 0 0 0 0 0 0 0 0 0 0 0 0 0 0 0 0 0
0 0 0 0 -0.49150344213429 0 0 0 0 0 0 0 0 0 0 0 0 0 0 -7.55611087835819 0 0 0 0 0 0 0 0 0 0 0 0 0 0 0 0 0 0 0 0 0 0 0 -1.2914175901886 0 0 0 0 0 0
0 0 0 0 0 -0.49150344213429 0 0 0 0 0 0 0 0 0 0 0 0 0 -1.19494802443708 0 0 0 0 0 0 0 0 0 0 0 0 0 0 0 0 0 0 0 0 0 0 0 0 0 0 0 0 0 0
0 0 0 0 0 0 -0.49150344213429 0 0 -0.818159814832441 0 0 0 0 -0.280760553043523 0 0 0 0 0 0 0 0 0 0 0 0 0 0 0 0 0 0 0 0 0 0 0 0 0 0 0 0 0 0 0 0 0 0 0
0 0 0 0 0 0 0 -0.49150344213429 0 0 0 0 0 0 -0.0608142248079573 0 0 0 0 0 0 0 0 0 0 0 0 0 0 0 0 -1.59348155040162 0 0 0 0 0 0 0 0 0 0 0 0 0 0 0 0 0 0
0 0 0.28317191936484 0.454567867890956 0 0 0 0 -0.49150344213429 0 0 0 0 0 0 0 0 0 0 0 0 0 0 0 0 0 0 0 0 0 0 -1.22960556511303 0 0 0 0 0 0 0 0 0 0 0 0 0 -1.0969086991608 0 0 0 -2.47252404661997
0 0 0 0 0 0 0.152623606798576 0 0 -0.49150344213429 0 -3.30821656556359 0 0 0 0 0 0 0 0 0 0 0 0 0 0 0 0 0 0 0 -0.362432011538101 0 0 0 0 0 0 0 0 0 0 0 0 0 -1.40215143547185 0 0 0 -0.437516430816627
0 0 0 0 0 0 0 0 0 0 -0.49150344213429 0 0 0 0 0 0 0 0 0 0 0 -1.08966295196757 0 0 0 0 0 0 0 0 0 0 0 0 0 0 0 0 0 0 0 0 0 0 -10.267500067752 0 0 0 -5.43935332359423
0 0 0 0 0 0 0 0 0 0.667453913093617 0 -0.49150344213429 0 -2.1915347893572 0 -10.4220188277749 0 0 0 0 0 -5.93812811190016 0 0 -5.30657456144684 0 0 0 0 0 0 0 0 0 0 0 0 0 0 0 0 0 0 0 0 0 0 0 0 0
0 0 0 0 0 0 0 0 0 0 0 0 -0.49150344213429 0 0 0 0 0 0 0 0 -0.93693567478266 0 0 -1.13719019183106 0 0 0 0 0 0 0 0 0 0 0 0 0 0 0 0 0 0 0 0 0 0 0 0 0
0 0 0 0 0 0 0 0 0 0 0 0.431272864075947 0 -0.49150344213429 0 0 0 0 0 0 0 -1.32696917423638 0 0 -0.948341956068673 0 0 0 0 0 0 0 0 0 0 0 0 0 0 0 0 0 0 0 0 0 0 0 0 0
0 0 0 0 0 0 0.0527815826521 0.0111047901098428 0 0 0 0 0 0 -0.49150344213429 0 0 -0.193865777189795 -1.16456813735591 0 0 0 0 0 0 0 0 0 0 0 0 0 0 0 0 0 0 0 0 0 0 0 0 0 0 0 0 0 0 0
0 0 0 0 0 0 0 0 0 0 0 2.17454035514255 0 0 0 -0.49150344213429 0 0 0 0 0 0 0 0 0 0 0 0 -0.932332495861363 0 0 0 0 0 -0.921513296996897 0 0 0 -0.59661834996331 0 0 0 0 0 0 0 0 0 -0.665083341046273 0
0 0 0 0 0 0 0 0 0 0 0 0 0 0 0 0 -0.49150344213429 -0.485306325769002 0 0 0 0 0 0 0 0 -2.26394903158964 0 -0.238326114997166 0 0 0 0 0 -2.76623671314463 0 0 0 -0.869759250170952 0 0 0 0 0 0 0 0 0 -1.96218306938855 0
0 0 0 0 0 0 0 0 0 0 0 0 0 0 0.0380218345214558 0 0.0965574734666835 -0.49150344213429 0.87976419756565 0 -2.95548261904974 0 0 0 0 0 -1.14746887645268 0 0 0 0 0 0 0 0 0 0 0 -0.942077233576658 0 0 0 0 0 -0.863185079074952 0 0 0 -1.17670989763917 0
0 0 0 0 0 0 0 0 0 0 0 0 0 0 0.244124514430169 0 0 -4.74538053929639 -0.49150344213429 0 0 0 0 0 0 0 -0.635784523436886 0 0 0 0 0 0 0 0 0 0 -0.688823893654607 -2.63374038633107 0 0 0 0 0 0 0 0 0 -3.84724505748953 0
0 0.461192428802586 0.124828408234936 0.0761457353903865 1.58284896909557 0.224793047631347 0 0 0 0 0 0 0 0 0 0 0 0 0 -0.49150344213429 0 0 0 0 0 0 -0.391457296880675 0 0 0 0 0 0 0 0 0 0 -0.835444643028291 0 0 0 0 0 0 0 0 0 0 -1.26582155279181 0
0 0 0 0 0 0 0 0 0 0 0 0 0 0 0 0 0 0.574604404708688 0 0 -0.49150344213429 0 0 -2.66065195435506 0 0 0 0 0 0 -1.75198920540336 0 0 0 0 0 0 -0.770231720317835 0 0 0 0 0 0 -1.46764901559672 0 0 0 -2.12643499048288 0
0 0 0 0 0 0 0 0 0 0 0 1.19860009670756 0.168731925212219 0.257396289180621 0 0 0 0 0 0 0 -0.49150344213429 0 -0.905165841941481 0 0 -1.39449540077653 0 0 0 0 0 0 0 0 0 0 0 -1.62799677065232 0 0 0 0 0 0 0 0 0 0 0
0 0 0 0 0 0 0 0 0 0 0.214723712376703 0 0 0 0 0 0 0 0 0 0 0 -0.49150344213429 -0.835190123985989 0 0 0 0 0 0 -0.207144673711685 0 0 -0.245481083753351 0 0 -0.618205750126463 0 -7.65123986570638 0 0 0 0 0 0 0 0 0 -0.163110216021845 0
0 0 0 0 0 0 0 0 0 0 0 0 0 0 0 0 0 0 0 0 0.553485702228454 0.170805102143903 0.151785816986484 -0.49150344213429 0 0 0 0 0 0 -1.13827617897334 0 0 -0.842534127426646 0 0 -3.82184847469067 -2.0854354493123 -4.13414540262821 0 0 0 -0.806944070372956 0 0 0 0 0 -0.44993054020973 0
0 0 0 0 0 0 0 0 0 0 0 1.06851947225453 0.235372021626106 0.206882768789369 0 0 0 0 0 0 0 0 0 0 -0.49150344213429 0 0 0 0 0 -0.501828709277453 0 0 -1.774168372917 0 0 -0.411590490682151 -0.158565863655784 0 0 0 0 -1.26415090200035 0 0 0 0 0 -1.77711268001633 0
0 0 0 0 0 0 0 0 0 0 0 0 0 0 0 0 0 0 0 0 0 0 0 0 0 -0.49150344213429 0 0 0 0 -2.39297885187908 0 0 -3.72800248540502 0 0 -0.911075247512513 -0.967956111538309 0 0 0 0 -1.8673023452938 0 0 0 0 0 0 0
0 0 0 0 0 0 0 0 0 0 0 0 0 0 0 0 0.443289904950399 0.240978668248261 0.13581375143823 0.0819735264513877 0 0.263898631985689 0 0 0 0 -0.49150344213429 0 0 0 0 0 0 -0.307842224847693 0 0 -0.435897094019545 -0.578007583935044 0 0 0 0 0 0 0 0 0 0 -0.854636621571891 0
0 0 0 0 0 0 0 0 0 0 0 0 0 0 0 0 0 0 0 0 0 0 0 0 0 0 0 -0.49150344213429 0 0 0 0 0 -0.1638029907399 0 0 0 0 0 0 -1.71100102902098 0 -1.23535834481154 0 0 0 0 0 -0.945867933000417 0
0 0 0 0 0 0 0 0 0 0 0 0 0 0 0 0.190852003757975 0.0482431869155089 0 0 0 0 0 0 0 0 0 0 0 -0.49150344213429 0 0 0 0 -0.275587393105685 0 0 0 -1.1277212510198 0 0 0 0 -3.1899908926451 0 0 0 0 0 0 0
0 0 0 0 0 0 0 0 0 0 0 0 0 0 0 0 0 0 0 0 0 0 0 0 0 0 0 0 0 -0.49150344213429 0 0 0 0 0 0 0 -2.82762611496607 0 0 0 0 0 0 0 0 0 0 -0.291139145353055 0
0 0 0 0 0 0 0 0 0 0 0 0 0 0 0 0 0 0 0 0 0.320585349838264 0 0.045501625361714 0.241492484707104 0.101867384300356 0.468448769324426 0 0 0 0 -0.49150344213429 0 0 0 0 0 0 0 0 0 -1.39684205828516 0 0 0 0 0 0 0 0 0
0 0 0 0 0 0 0 0.326061335742017 0.233707194050647 0.0735370111488574 0 0 0 0 0 0 0 0 0 0 0 0 0 0 0 0 0 0 0 0 0 -0.49150344213429 0 0 0 0 0 0 0 0 0 -0.0818324451811453 0 0 0 0 0 0 0 0
0 0 0 0 0 0 0 0 0 0 0 0 0 0 0 0 0 0 0 0 0 0 0 0 0 0 0 0 0 0 0 0 -0.49150344213429 0 0 0 0 0 0 0 0 -5.53684953100265 0 0 0 0 0 0 0 0
0 0 0 0 0 0 0 0 0 0 0 0 0 0 0 0 0 0 0 0 0 0 0.0530658448231991 0.179145553264591 0.348992121037382 0.777663799984798 0.0591855351860946 0.0336100198004036 0.0564690234974484 0 0 0 0 -0.49150344213429 0 0 0 0 0 0 0 -0.932585229129176 0 0 0 0 0 0 0 0
0 0 0 0 0 0 0 0 0 0 0 0 0 0 0 0.17361600827781 0.567206704163287 0 0 0 0 0 0 0 0 0 0 0 0 0 0 0 0 0 -0.49150344213429 0 0 0 0 0 0 -0.482084565239236 0 0 0 0 0 0 0 0
0 0 0 0 0 0 0 0 0 0 0 0 0 0 0 0 0 0 0 0 0 0 0 0 0 0 0 0 0 0 0 0 0 0 0 -0.49150344213429 0 0 0 0 0 -0.958459728164778 0 0 0 0 0 -0.31712440712027 0 0
0 0 0 0 0 0 0 0 0 0 0 0 0 0 0 0 0 0 0 0 0 0 0.125454444956158 0.741229395409638 0.0821261914866456 0.189356720806554 0.0809965710423035 0 0 0 0 0 0 0 0 0 -0.49150344213429 0 0 0 0 -0.24747288482856 0 0 0 0 0 -1.01542013899685 0 0
0 0 0 0 0 0 0 0 0 0 0 0 0 0 0 0 0 0 0.133147332743303 0.164367294110761 0.161909097832863 0 0 0.428843312658407 0.0330054927033033 0.198284563836015 0.124788043103598 0 0.228992512748683 0.548263481400978 0 0 0 0 0 0 0 -0.49150344213429 0 0 0 -1.95426959114259 0 0 0 0 0 0 0 0
0 0 0 0 0 0 0 0 0 0 0 0 0 0 0 0.118128342943464 0.178844009288142 0.206437069934583 0.507467082319867 0 0 0.339140451273333 1.45576579901955 0.813824694873453 0 0 0 0 0 0 0 0 0 0 0 0 0 0 -0.49150344213429 0 0 0 0 0 0 0 0 -1.26917990441557 0 0
0 0 0 0 0 0 0 0 0 0 0 0 0 0 0 0 0 0 0 0 0 0 0 0 0 0 0 0 0 0 0 0 0 0 0 0 0 0 0 -0.49150344213429 0 0 0 0 0 0 0 -1.9643239151214 0 0
0 0 0 0 0 0 0 0 0 0 0 0 0 0 0 0 0 0 0 0 0 0 0 0 0 0 0 0.353453684747385 0 0 0.291715389061283 0 0 0 0 0 0 0 0 0 -0.49150344213429 0 0 0 0 0 0 -0.114616894713441 0 0
0 0 0 0 0 0 0 0 0 0 0 0 0 0 0 0 0 0 0 0 0 0 0 0 0 0 0 0 0 0 0 0.0150758162150745 0.998554573682717 0.210652052580138 0.0947859588931113 0.192929325611965 0.0526426160783831 0.358483253995254 0 0 0 -0.49150344213429 0 0 0 0 -1.85222199059623 0 0 0
0 0 0 0 0 0 0 0 0 0 0 0 0 0 0 0 0 0 0 0 0 0 0 0.143037469636501 0.270013602159177 0.38713216378105 0 0.248251127210142 0.608892992726347 0 0 0 0 0 0 0 0 0 0 0 0 0 -0.49150344213429 0 0 0 -2.4977639860511 -0.660140825932526 0 0
0 0 0 0 0.273944791845649 0 0 0 0 0 0 0 0 0 0 0 0 0 0 0 0 0 0 0 0 0 0 0 0 0 0 0 0 0 0 0 0 0 0 0 0 0 0 -0.49150344213429 0 0 -0.323468125006334 -1.61998254412349 0 0
0 0 0 0 0 0 0 0 0 0 0 0 0 0 0 0 0 0.176040545885082 0 0 0.306693747254486 0 0 0 0 0 0 0 0 0 0 0 0 0 0 0 0 0 0 0 0 0 0 0 -0.49150344213429 0 0 0 0 0
0 0 0 0 0 0 0 0 0.213653740422833 0.280421873762394 2.02227024754751 0 0 0 0 0 0 0 0 0 0 0 0 0 0 0 0 0 0 0 0 0 0 0 0 0 0 0 0 0 0 0 0 0 0 -0.49150344213429 0 0 0 0
0 0 0 0 0 0 0 0 0 0 0 0 0 0 0 0 0 0 0 0 0 0 0 0 0 0 0 0 0 0 0 0 0 0 0 0 0 0 0 0 0 0.385567599333937 0.471367798841743 0.0658582956800549 0 0 -0.49150344213429 0 0 0
0 0 0 0 0 0 0 0 0 0 0 0 0 0 0 0 0 0 0 0 0 0 0 0 0 0 0 0 0 0 0 0 0 0 0 0.0621142122137747 0.212428428278061 0 0.257915073581892 0.397955067027087 0.0216071848083414 0 0.126038948265707 0.33756829501331 0 0 0 -0.49150344213429 0 0
0 0 0 0 0 0 0 0 0 0 0 0 0 0 0 0.124944319278415 0.359945490880386 0.237644450463276 0.770583000800172 0.252976573747583 0.387966321697112 0 0.0303272346673463 0.0884643506563858 0.363341708000382 0 0.172665450485091 0.167639733398675 0 0.0557757937175889 0 0 0 0 0 0 0 0 0 0 0 0 0 0 0 0 0 0 -0.49150344213429 0
0 0 0 0 0 0 0 0 0.475161257949124 0.0898087635931049 1.19139093444901 0 0 0 0 0 0 0 0 0 0 0 0 0 0 0 0 0 0 0 0 0 0 0 0 0 0 0 0 0 0 0 0 0 0 0 0 0 0 -0.49150344213429
