-0.143330189074919 0 0 0 0 0 0 0 0 0 0 0 0 -0.567851829934537 -1.11825168185456 0 0 0 0 0 -0.90170818587125 0 0 0 0 0 0 0 0 0 -0.197067794824602 0 -0.494347607852744 0 -5.51478498890748 -0.309780807429102 0 -2.07989134837551 0 0 0 0 0 0 0 0 0 0 0 0
0 -0.143330189074919 -0.562740122957987 0 0 0 0 0 0 0 0 0 0 0 -0.260589226057722 0 0 0 0 0 -1.79314610095193 0 0 0 0 0 0 0 0 0 0 0 -0.31500418867417 0 -1.02854487243544 -0.492463666255993 0 0 0 0 0 0 0 0 0 0 0 0 0 0
0 0.110816349807138 -0.143330189074919 0.218928090263437 0 0 0 0 0 0 0 0 0 0 -0.386807511412564 0 0 -0.654787646762229 0 0 0 0 0 0 0 0 0 0 0 0 -0.39117784510217 0 0 0 0 -2.09770171012493 0 -0.197819264896163 0 0 0 0 0 0 0 0 0 0 0 0
0 0 -1.05828266713599 -0.143330189074919 0 0 0 0 0 0 0 0 0 0 -0.595600911657125 0 0 -1.76577278191248 0 0 0 0 0 0 0 0 0 0 0 0 0 0 0 0 -6.34313827398084 0 0 -0.869887147537988 0 0 0 0 0 0 0 0 0 0 0 0
0 0 0 0 -0.143330189074919 0 0 0 -1.40151761214183 0 0 0 0 0 0 0 0 -0.289205302729183 0 0 0 0 0 0 0 0 0 0 0 0 -1.55616221257463 0 -0.770757830491609 0 -1.55951506022127 -0.344147398847321 0 -0.436045305538233 0 0 0 0 0 0 0 0 0 0 0 0
0 0 0 0 0 -0.143330189074919 0 0 -0.816866882609412 0 0 0 0 0 0 0 0 -0.488304991287341 0 0 -0.495789906622805 0 0 0 -9.16778722516771 0 0 0 0 0 -0.85918969108798 0 0 0 -1.91465406807555 -0.424168369836949 0 -2.03617085635609 0 0 0 0 0 0 0 0 0 0 0 0
0 0 0 0 0 0 -0.143330189074919 0 -0.280124335368258 0 0 0 0 0 0 0 0 -1.711277559651 0 0 -0.648740405937063 0 0 0 -0.701239981304128 0 0 0 0 0 0 0 -0.560707034991175 0 -0.921531595238941 0 0 -0.500752159074952 0 0 0 0 0 0 0 0 0 0 0 0
0 0 0 0 0 0 0 -0.143330189074919 -1.48362794241081 0 0 0 0 0 0 0 0 0 0 0 -1.46611791030179 0 0 0 0 0 0 0 0 0 -1.45091699620454 0 -1.48984463325527 0 0 -0.304430740079204 0 0 0 0 0 0 0 -1.85628939999566 0 0 0 0 0 0
0 0 0 0 0.27965057515911 0.15960669396541 0.0553529205792704 0.313404545102798 -0.143330189074919 0 0 0 0 0 0 0 0 0 0 0 -1.93400712456395 0 0 0 -0.722738393289613 0 0 0 0 0 0 0 0 0 0 0 -1.73154615869005 0 0 0 0 0 0 0 0 0 0 0 0 0
0 0 0 0 0 0 0 0 0 -0.143330189074919 0 0 0 0 0 0 -3.61616672942719 0 0 0 0 0 -0.916703173311491 0 -12.4001724253738 0 0 0 0 0 0 0 -0.824012117920651 0 0 0 0 0 0 0 0 0 0 0 0 0 0 0 0 -0.103542259745662
0 0 0 0 0 0 0 0 0 0 -0.143330189074919 0 0 0 0 0 -7.71621512277732 0 0 0 0 0 -0.907150769650825 0 -0.739185620074808 0 0 0 0 0 0 0 -0.61540902579621 0 0 0 -0.41291411132542 0 0 0 0 0 0 0 0 0 -0.698053982782825 0 0 0
0 0 0 0 0 0 0 0 0 0 0 -0.143330189074919 0 0 0 0 -0.926448697213411 0 0 0 0 0 0 0 0 0 0 0 0 0 0 0 -1.28941089741 0 0 0 0 0 0 0 0 0 0 0 0 0 -9.89328658723189 0 0 0
0 0 0 0 0 0 0 0 0 0 0 0 -0.143330189074919 0 0 0 0 0 0 0 0 0 0 0 0 0 0 0 0 0 0 0 0 0 0 0 0 0 0 0 0 0 0 0 0 0 0 0 0 -4.37235665292476
0.121805567333181 0 0 0 0 0 0 0 0 0 0 0 0 -0.143330189074919 0 0 -0.529048201987871 0 0 0 0 0 0 0 0 0 0 0 0 0 0 0 0 0 0 0 0 0 0 0 0 0 0 0 0 0 0 0 0 0
0.223848389281623 0.0531178477047884 0.0798135698752473 0.121551779831149 0 0 0 0 0 0 0 0 0 0 -0.143330189074919 0 0 0 -3.3540261282678 0 0 0 0 0 0 0 -8.08295403060425 0 0 0 0 0 0 0 0 0 0 0 0 0 0 0 0 0 0 0 0 0 0 0
0 0 0 0 0 0 0 0 0 0 0 0 0 0 0 -0.143330189074919 0 0 0 0 0 0 0 0 0 0 -0.365685930682684 0 0 0 0 0 0 0 0 0 0 0 0 0 0 0 0 0 0 0 0 0 0 -0.20232130758261
0 0 0 0 0 0 0 0 0 0.714791928335757 1.50109256946967 0.192503788026924 0 0.110408259370907 0 0 -0.143330189074919 0 0 0 0 0 0 0 0 0 0 0 -1.90950704958154 0 0 0 0 0 0 0 0 0 0 0 0 0 0 0 0 0 0 0 0 -3.14366503500634
0 0 0.130817384818668 0.369732449919871 0.0598210032599586 0.0993789954978339 0.344045021050717 0 0 0 0 0 0 0 0 0 0 -0.143330189074919 0 0 0 -4.99862047862355 0 0 0 0 0 0 0 -1.13196664402056 0 0 0 0 0 0 0 0 0 0 0 0 0 0 0 0 0 0 0 -0.351665175063555
0 0 0 0 0 0 0 0 0 0 0 0 0 0 0.721634511817409 0 0 0 -0.143330189074919 -0.829143800965054 0 0 0 0 0 0 0 0 0 -0.693034373294951 0 0 0 0 0 0 0 0 0 -1.45778444464834 0 0 0 0 0 0 0 -1.07470481429608 0 -2.31498164620884
0 0 0 0 0 0 0 0 0 0 0 0 0 0 0 0 0 0 0.170097856808259 -0.143330189074919 0 0 0 0 0 0 0 0 -1.8167292610972 0 0 0 0 0 0 0 0 0 0 -0.540103665062744 0 0 0 0 0 0 0 0 0 -1.6519339390482
0.181064767251561 0.348212924763668 0 0 0 0.100000047053393 0.132443869822041 0.280850842090634 0.361981722173218 0 0 0 0 0 0 0 0 0 0 0 -0.143330189074919 0 0 0 0 0 0 -1.11263461244421 -1.2462682948971 0 0 0 0 0 0 0 0 0 -0.255014103322548 -3.97906626603005 0 0 0 0 0 0 0 0 0 -3.20879333361972
0 0 0 0 0 0 0 0 0 0 0 0 0 0 0 0 0 1.0176678577829 0 0 0 -0.143330189074919 0 0 0 0 0 0 0 0 0 0 0 0 0 0 0 0 -0.688726014980045 0 0 0 0 0 0 0 0 -1.49590295977068 0 -0.834930971315093
0 0 0 0 0 0 0 0 0 0.169317147063434 0.183265229018501 0 0 0 0 0 0 0 0 0 0 0 -0.143330189074919 0 0 0 0 -0.13798527560468 -2.82329931492857 0 0 0 0 0 0 0 0 0 -1.62101816042822 0 0 0 0 0 0 0 0 -0.255107292224898 0 0
0 0 0 0 0 0 0 0 0 0 0 0 0 0 0 0 0 0 0 0 0 0 0 -0.143330189074919 0 0 0 0 0 0 0 0 0 -2.4734434105955 0 0 0 0 0 0 0 0 0 0 0 0 0 0 0 0
0 0 0 0 0 1.64954073588466 0.146333525976912 0 0.153120654162148 2.53389594395494 0.151362118431912 0 0 0 0 0 0 0 0 0 0 0 0 0 -0.143330189074919 -4.93564160984291 0 0 0 0 0 0 0 -1.57348338965468 0 0 0 0 0 0 0 0 0 0 0 0 0 0 0 0
0 0 0 0 0 0 0 0 0 0 0 0 0 0 0 0 0 0 0 0 0 0 0 0 0.980479102879982 -0.143330189074919 0.228990811009436 0.325565594437056 0 0 0 0 0 -1.66928968361824 0 0 0 0 0 0 0 -0.273021247819543 0 0 0 0 0 0 0 0
0 0 0 0 0 0 0 0 0 0 0 0 0 0 1.67254713102588 0.0718839053490221 0 0 0 0 0 0 0 0 0 -1.08835291415749 -0.143330189074919 0 0 0 0 0 0 0 0 0 0 0 0 0 0 0 0 0 0 0 0 0 0 0
0 0 0 0 0 0 0 0 0 0 0 0 0 0 0 0 0 0 0 0 0.227952811462026 0 0.0286542188013647 0 0 -1.60560910506192 0 -0.143330189074919 0 0 0 0 0 0 0 0 0 0 0 0 -0.184563426893457 -1.19006257866532 -0.458695590956014 0 0 0 0 0 0 0
0 0 0 0 0 0 0 0 0 0 0 0 0 0 0 0 0.393959411076115 0 0 0.368112312558617 0.269937892107635 0 0.565568982000334 0 0 0 0 0 -0.143330189074919 0 0 0 0 0 0 0 0 0 0 0 -1.03408241632323 -0.600938474838549 -0.47460878013806 0 0 0 0 0 0 0
0 0 0 0 0 0 0 0 0 0 0 0 0 0 0 0 0 0.233067296045495 0.140777284420181 0 0 0 0 0 0 0 0 0 0 -0.143330189074919 0 0 0 0 0 0 0 0 0 0 -2.78138634841228 -3.83593855466694 0 0 0 0 0 0 0 0
0.0412099059043053 0 0.0760982763105518 0 0.336816867880359 0.167803314587588 0 0.276325668164372 0 0 0 0 0 0 0 0 0 0 0 0 0 0 0 0 0 0 0 0 0 0 -0.143330189074919 0 0 0 0 0 0 0 0 0 -5.01153887677224 -1.12141481400085 -0.41314104138094 0 0 0 0 0 0 0
0 0 0 0 0 0 0 0 0 0 0 0 0 0 0 0 0 0 0 0 0 0 0 0 0 0 0 0 0 0 0 -0.143330189074919 0 0 0 0 0 0 0 0 -1.09435870730634 -0.932211892730588 -0.677160660442925 0 0 0 0 0 0 0
0.0911442866661872 0.0696949531374448 0 0 0.163949665072564 0 0.111081240872778 0.299843948448792 0 0.179567076798321 0.11564252082607 0.255461384730918 0 0 0 0 0 0 0 0 0 0 0 0 0 0 0 0 0 0 0 0 -0.143330189074919 0 0 0 0 0 0 0 0 0 -0.310145574451661 0 0 0 0 0 0 0
0 0 0 0 0 0 0 0 0 0 0 0 0 0 0 0 0 0 0 0 0 0 0 0.472733471420654 0.313620287351765 0.356570655931203 0 0 0 0 0 0 0 -0.143330189074919 0 0 0 0 0 0 0 0 -0.331662417358147 0 0 0 0 0 0 0
1.07534818837689 0.224550220231622 0 1.14510126626764 0.33225423219034 0.353423287057638 0.179209908592396 0 0 0 0 0 0 0 0 0 0 0 0 0 0 0 0 0 0 0 0 0 0 0 0 0 0 0 -0.143330189074919 0 0 0 0 0 -0.376426647896375 -0.439299957830494 0 0 0 0 0 0 0 0
0.0624221135784979 0.0945163305830952 0.436161816687984 0 0.070481792039479 0.0828313830338293 0 0.0648679060971808 0 0 0 0 0 0 0 0 0 0 0 0 0 0 0 0 0 0 0 0 0 0 0 0 0 0 0 -0.143330189074919 0 0 0 0 -0.888167778710147 0 0 0 -0.622879096447669 0 0 0 0 0
0 0 0 0 0 0 0 0 0.356387045864516 0 0.0841236721376265 0 0 0 0 0 0 0 0 0 0 0 0 0 0 0 0 0 0 0 0 0 0 0 0 0 -0.143330189074919 0 0 0 -0.461367362054126 0 0 0 -2.27027703499786 0 0 0 0 0
0.426575566088748 0 0.037938947567909 0.174673142248268 0.0897854442178573 0.42088054256746 0.0996504173241095 0 0 0 0 0 0 0 0 0 0 0 0 0 0 0 0 0 0 0 0 0 0 0 0 0 0 0 0 0 0 -0.143330189074919 0 0 -2.20476305669935 0 0 0 0 0 0 0 0 0
0 0 0 0 0 0 0 0 0 0 0 0 0 0 0 0 0 0 0 0 0.0514808590398643 0.118826460643071 0.300397603988314 0 0 0 0 0 0 0 0 0 0 0 0 0 0 0 -0.143330189074919 0 0 0 0 0 0 0 0 0 0 0
0 0 0 0 0 0 0 0 0 0 0 0 0 0 0 0 0 0 0.294786625550882 0.117845913660526 0.78055953853246 0 0 0 0 0 0 0 0 0 0 0 0 0 0 0 0 0 0 -0.143330189074919 -2.80201671186308 0 0 0 0 0 0 0 0 0
0 0 0 0 0 0 0 0 0 0 0 0 0 0 0 0 0 0 0 0 0 0 0 0 0 0 0 0.0372968995663135 0.208089975800957 0.617550700559987 1.10374725142631 0.213603660086383 0 0 0.0810980013956469 0.170635399586169 0.0927190916557394 0.433947972096844 0 0.59973971846133 -0.143330189074919 0 0 0 0.0910463343137188 0.33142531709959 0.0392839199074936 0.168184101980829 0.467144374893762 0.0470472021428022
0 0 0 0 0 0 0 0 0 0 0 0 0 0 0 0 0 0 0 0 0 0 0 0 0 0.0534603207320456 0 0.248657697775763 0.121924608768388 0.766253740845256 0.251244511861677 0.182747976762674 0 0 0.084390237941294 0 0 0 0 0 0 -0.143330189074919 0 0 0 0 0 0 0 0
0 0 0 0 0 0 0 0 0 0 0 0 0 0 0 0 0 0 0 0 0 0 0 0 0 0 0 0.0950810117479544 0.0949393021993109 0 0.0784666436391248 0.138041157895813 0.0606192242505202 0.0626742978105173 0 0 0 0 0 0 0 0 -0.143330189074919 0 0 0 0 0 0 0
0 0 0 0 0 0 0 0.40719590723574 0 0 0 0 0 0 0 0 0 0 0 0 0 0 0 0 0 0 0 0 0 0 0 0 0 0 0 0 0 0 0 0 0 0 0 -0.143330189074919 0 0 0 0 0 0
0 0 0 0 0 0 0 0 0 0 0 0 0 0 0 0 0 0 0 0 0 0 0 0 0 0 0 0 0 0 0 0 0 0 0 0.124198731353559 0.502232068029145 0 0 0 -0.5039441311792 0 0 0 -0.143330189074919 0 0 0 0 0
0 0 0 0 0 0 0 0 0 0 0 0 0 0 0 0 0 0 0 0 0 0 0 0 0 0 0 0 0 0 0 0 0 0 0 0 0 0 0 0 -1.69846021247694 0 0 0 0 -0.143330189074919 0 0 0 0
0 0 0 0 0 0 0 0 0 0 0.145301763643093 2.08110076430886 0 0 0 0 0 0 0 0 0 0 0 0 0 0 0 0 0 0 0 0 0 0 0 0 0 0 0 0 -0.186657361440678 0 0 0 0 0 -0.143330189074919 0 0 0
0 0 0 0 0 0 0 0 0 0 0 0 0 0 0 0 0 0 0.215532947340966 0 0 0.29382705030452 0.0469323590900202 0 0 0 0 0 0 0 0 0 0 0 0 0 0 0 0 0 -0.809703852751478 0 0 0 0 0 0 -0.143330189074919 0 0
0 0 0 0 0 0 0 0 0 0 0 0 0 0 0 0 0 0 0 0 0 0 0 0 0 0 0 0 0 0 0 0 0 0 0 0 0 0 0 0 -2.42220472117663 0 0 0 0 0 0 0 -0.143330189074919 0
0 0 0 0 0 0 0 0 0 0.0202214472314612 0 0 0.859143600240467 0 0 0.0427610770222583 0.585012964591262 0.0705996503884374 0.486755309506934 0.339257375435254 0.646565462455042 0.17090021125327 0 0 0 0 0 0 0 0 0 0 0 0 0 0 0 0 0 0 -0.225161278285523 0 0 0 0 0 0 0 0 -0.143330189074919
