0.364022752930338
3.58147927022861
0.708513577680696
2.19098369862123
0.314623215738576
5.03938202913104
1.30714501234553
3.03003763836242
0.318148420147796
1.9429052762674
0.505985808614588
1.34955245679443
0.746695068049466
0.502761149724988
4.68438103198627
1.94462312952742
0.97171673315276
1.55028258814208
0.876926025743045
0.253521450513834
1.63971713525391
3.64285400206745
0.449695742197649
1.90369233914371
0.516160576835805
1.78606868266155
0.210342026158031
3.07327867991438
0.736347253760415
1.01035279178908
3.96951142066045
0.861916238921242
0.825795183543543
0.345014803361261
4.97059020984556
2.86659536329527
0.173621765832264
4.50864134796236
0.262500058321953
2.0426274635016
0.190689050669926
2.94857243300058
1.48692984149317
0.598717470455914
0.61150738713806
2.0470187723323
3.91906923332328
2.04834404827661
0.333012758480969
3.89630257009228
