-0.161108699766727 0 0 0 0 0 0 0 0 0 0 -1.05852960329891 0 0 -4.61889444680728 0 0 0 0 0 0 0 0 0 0 0 0 0 0 0 0 0 0 0 0 0 0 0 0 0 0 0 0 0 0 -0.0893102680194817 0 0 0 0
0 -0.161108699766727 0 0 -0.650703667728858 0 0 0 0 0 0 0 0 0 -1.81801900261807 0 0 0 0 0 0 0 0 0 0 0 0 0 0 0 0 0 0 0 0 0 0 -1.76176856554403 0 0 0 0 0 0 -7.29989706306713 -0.979844061005063 0 0 -2.10667380431747 0
0 0 -0.161108699766727 0 -0.303683437854559 0 0 0 -0.974698797068885 0 0 0 0 0 -0.120860152582765 0 0 0 0 0 0 0 0 0 0 0 0 0 0 0 0 0 0 0 0 0 0 0 0 0 0 0 0 0 -0.227981974932078 -0.60981925239873 0 0 -0.456638049460002 0
0 0 0 -0.161108699766727 0 0 -2.01607561076701 0 -0.626850694539467 0 0 0 0 0 -4.71734189074752 0 0 0 0 0 0 0 0 0 0 0 0 0 0 0 0 0 0 0 0 0 0 0 0 0 0 0 0 0 0 0 0 0 -0.111099154275218 0
0 0.133171339938237 0.0669814264359556 0 -0.161108699766727 0 0 0 0 0 0 0 0 -0.227548471421342 0 0 0 0 0 0 0 0 0 0 0 0 0 -1.72375391925094 0 0 0 0 0 0 0 0 0 0 0 0 0 -0.313898048566288 0 0 -10.2346199168193 0 0 0 0 0
0 0 0 0 0 -0.161108699766727 0 0 0 0 0 0 0 -4.02224969501185 0 -0.599741842284611 0 0 0 0 0 0 0 0 0 0 0 -2.08603524914175 0 0 0 0 0 0 0 0 0 0 0 0 0 -0.643668412770296 0 0 -0.609612603817712 0 0 0 0 0
0 0 0 0.40014265128424 0 0 -0.161108699766727 0 0 0 0 0 0 0 0 -1.22508019120918 0 0 0 0 0 0 0 0 0 0 0 -0.349089789694846 0 -1.03044686120532 0 0 0 0 0 0 0 0 0 0 -0.800280839245309 -1.0738255278056 0 0 -1.19417951848256 0 0 0 0 0
0 0 0 0 0 0 0 -0.161108699766727 0 0 0 0 0 0 0 0 0 0 0 0 -0.445593743407075 0 0 0 0 0 0 0 0 0 0 0 0 0 0 0 0 0 0 0 0 -1.1807251881439 0 0 -0.670638195738899 0 0 0 0 0
0 0 0.205788772857769 0.126322112100086 0 0 0 0 -0.161108699766727 0 -2.42840106549543 0 0 0 0 0 0 -0.56256944809733 0 0 -1.45470292115688 0 0 0 0 0 0 -2.12751442869013 0 0 0 -0.839987110094931 0 0 0 0 0 0 0 0 -2.00626671337125 0 0 0 -0.629035214312394 0 0 0 0 0
0 0 0 0 0 0 0 0 0 -0.161108699766727 -1.2414668770019 0 0 0 0 0 0 -3.74275679453371 0 0 -2.41985100730375 0 0 0 0 0 0 -0.907907947965911 0 0 0 -0.708084433570668 0 0 0 0 0 0 0 0 -2.10681023485263 -1.13138968035932 0 0 0 0 0 0 0 0
0 0 0 0 0 0 0 0 0.46900053452601 0.270902408940831 -0.161108699766727 0 0 0 0 0 0 0 0 0 0 0 0 0 0 0 0 0 0 0 0 0 0 0 0 0 0 0 0 0 0 0 0 0 -1.97834122789839 0 0 0 0 0
0.207050164657733 0 0 0 0 0 0 0 0 0 0 -0.161108699766727 0 0 0 0 0 0 0 0 0 0 0 0 0 0 0 0 0 0 0 0 0 0 0 0 0 0 0 0 -1.38008384104419 0 0 0 -0.758228536352419 0 0 0 0 0
0 0 0 0 0 0 0 0 0 0 0 0 -0.161108699766727 0 0 0 0 0 0 0 0 0 0 0 0 0 -0.257757441263672 0 -5.31181582458545 0 0 0 0 0 0 0 0 0 0 -0.487696232612078 0 0 0 0 0 0 0 0 0 0
0 0 0 0 0.0425683589657997 0.811419004065919 0 0 0 0 0 0 0 -0.161108699766727 0 0 -2.94265122022551 0 0 0 0 0 0 0 0 0 -1.13461283876883 0 0 0 0 0 0 -3.03425388882405 0 0 0 0 0 -0.699484149773295 0 0 0 0 0 0 0 0 0 0
0.950435807236026 0.372703390218618 0.0234403045470933 1.00587045860973 0 0 0 0 0 0 0 0 0 0 -0.161108699766727 0 0 0 0 0 0 0 0 0 0 0 0 0 0 0 0 0 -0.865616336392305 0 0 0 0 0 0 -1.02258443946746 0 0 0 0 0 0 0 0 0 0
0 0 0 0 0 0.125063837864987 0.244678101659682 0 0 0 0 0 0 0 0 -0.161108699766727 0 0 0 0 0 0 0 0 0 0 0 0 0 0 0 0 -1.45359449830212 0 -2.02277182940263 0 0 0 0 -1.25138858081292 0 0 0 0 0 0 0 0 0 0
0 0 0 0 0 0 0 0 0 0 0 0 0 0.620914622485634 0 0 -0.161108699766727 0 0 0 0 0 0 0 0 0 0 0 0 0 0 0 -1.17889901395421 0 -3.10933914780842 0 0 0 0 0 0 0 0 0 0 0 0 0 0 0
0 0 0 0 0 0 0 0 0.11008147003436 0.758364729100838 0 0 0 0 0 0 0 -0.161108699766727 0 0 0 0 0 0 0 0 0 0 0 0 0 0 -1.51091426230154 0 -2.38874996658019 0 0 0 0 -1.80699599953311 0 0 0 0 0 0 0 0 0 0
0 0 0 0 0 0 0 0 0 0 0 0 0 0 0 0 0 0 -0.161108699766727 0 0 0 0 0 0 0 0 0 0 0 0 0 -1.06706605821326 0 -0.843871030881705 0 0 0 0 0 0 0 0 0 0 0 0 -0.342774545013556 0 0
0 0 0 0 0 0 0 0 0 0 0 0 0 0 0 0 0 0 0 -0.161108699766727 0 0 0 0 0 0 0 0 0 0 0 0 -1.11713101946844 0 -0.582715635595343 0 0 0 0 0 0 0 0 0 0 0 0 -2.38069293776413 0 0
0 0 0 0 0 0 0 0.0972411921591917 0.304900891073144 0.526001209145549 0 0 0 0 0 0 0 0 0 0 -0.161108699766727 0 0 0 0 0 0 0 0 0 0 0 0 0 -1.28698478341333 0 0 0 0 0 0 0 0 0 0 0 0 -1.18423029570406 0 0
0 0 0 0 0 0 0 0 0 0 0 0 0 0 0 0 0 0 0 0 0 -0.161108699766727 0 0 0 0 0 0 0 0 0 0 -2.91627221643132 0 0 0 0 0 0 0 0 0 0 0 0 0 0 -0.71457693088369 0 0
0 0 0 0 0 0 0 0 0 0 0 0 0 0 0 0 0 0 0 0 0 0 -0.161108699766727 0 0 0 0 0 0 0 0 0 -6.34814177928574 0 -0.999027815192244 0 0 0 0 0 0 0 0 0 0 0 0 -5.32967225949671 0 0
0 0 0 0 0 0 0 0 0 0 0 0 0 0 0 0 0 0 0 0 0 0 0 -0.161108699766727 0 0 0 0 0 0 0 0 -2.41943903837965 0 0 0 0 0 0 0 0 0 0 0 0 0 0 -0.886180770508483 0 0
0 0 0 0 0 0 0 0 0 0 0 0 0 0 0 0 0 0 0 0 0 0 0 0 -0.161108699766727 0 0 0 0 0 0 0 0 0 0 0 0 0 0 0 0 0 0 0 0 0 0 -1.07918224606724 0 0
0 0 0 0 0 0 0 0 0 0 0 0 0 0 0 0 0 0 0 0 0 0 0 0 0 -0.161108699766727 0 0 0 0 0 0 0 0 0 0 0 0 0 0 0 0 0 0 0 0 0 -0.744056222278685 0 0
0 0 0 0 0 0 0 0 0 0 0 0 0.0504197540829479 0.20498184969184 0 0 0 0 0 0 0 0 0 0 0 0 -0.161108699766727 0 0 0 0 0 0 0 0 0 0 0 0 0 0 0 0 0 0 0 0 0 0 0
0 0 0 0 0.376977115080258 0.401562637601182 0.0649295389149988 0 0.424099181783175 0.190610195894368 0 0 0 0 0 0 0 0 0 0 0 0 0 0 0 0 0 -0.161108699766727 0 0 0 0 0 0 0 0 0 0 0 0 0 0 0 0 0 0 0 0 0 0
0 0 0 0 0 0 0 0 0 0 0 0 1.02770013664559 0 0 0 0 0 0 0 0 0 0 0 0 0 0 0 -0.161108699766727 0 0 0 0 0 0 0 0 0 0 0 0 0 0 0 0 0 0 0 0 0
0 0 0 0 0 0 0.205162729164269 0 0 0 0 0 0 0 0 0 0 0 0 0 0 0 0 0 0 0 0 0 0 -0.161108699766727 -0.773606184496298 0 0 0 0 -0.543323572230923 0 0 0 0 0 0 0 0 0 0 0 0 0 0
0 0 0 0 0 0 0 0 0 0 0 0 0 0 0 0 0 0 0 0 0 0 0 0 0 0 0 0 0 0.157735893269574 -0.161108699766727 0 0.152375841976854 0.0544388269833209 0 0 0 0 -2.88917783215041 0 0 0 0 0 0 0 0 0 0 0
0 0 0 0 0 0 0 0 0.180030485181771 0.151171453681817 0 0 0 0 0 0 0 0 0 0 0 0 0 0 0 0 0 0 0 0 0 -0.161108699766727 0 0 0 0 0 0 -1.80382897961588 0 0 0 0 0 0 0 0 0 0 0
0 0 0 0 0 0 0 0 0 0 0 0 0 0 0.167983112821609 0.306669418691133 0.239022202527344 0.283813862862435 0.216497488986187 0.229073146408075 0 0.60284222020177 1.2355903670233 0.492424481885469 0 0 0 0 0 0 -0.739817320187639 0 -0.161108699766727 0 0 0 0 0 -0.605816362025034 0 0 0 0 0 0 0 0 0 0 0
0 0 0 0 0 0 0 0 0 0 0 0 0 0.581139663866241 0 0 0 0 0 0 0 0 0 0 0 0 0 0 0 0 -0.260452796029942 0 0 -0.161108699766727 0 0 0 0 -0.910995719239094 0 0 0 0 0 0 0 0 0 0 0
0 0 0 0 0 0 0 0 0 0 0 0 0 0 0 0.376223995397765 0.623753800349364 0.495449405373304 0.196974181310691 0.0991354929084823 0.250299893930813 0 0.197460155579798 0 0 0 0 0 0 0 0 0 0 0 -0.161108699766727 0 0 0 0 0 0 0 0 0 0 0 0 0 0 0
0 0 0 0 0 0 0 0 0 0 0 0 0 0 0 0 0 0 0 0 0 0 0 0 0 0 0 0 0 0.106638562567486 0 0 0 0 0 -0.161108699766727 0 0 -1.06799597736079 0 0 0 0 0 0 0 -1.97076539018668 0 0 0
0 0 0 0 0 0 0 0 0 0 0 0 0 0 0 0 0 0 0 0 0 0 0 0 0 0 0 0 0 0 0 0 0 0 0 0 -0.161108699766727 0 0 0 0 0 0 0 0 0 -0.619852780019549 0 0 0
0 0.329803659046892 0 0 0 0 0 0 0 0 0 0 0 0 0 0 0 0 0 0 0 0 0 0 0 0 0 0 0 0 0 0 0 0 0 0 0 -0.161108699766727 0 0 0 0 0 0 0 0 0 0 0 0
0 0 0 0 0 0 0 0 0 0 0 0 0 0 0 0 0 0 0 0 0 0 0 0 0 0 0 0 0 0 0.589230449547816 0.346285785338056 0.12653567261637 0.177157145832887 0 0.200812489392642 0 0 -0.161108699766727 0 0 0 -1.75628422226412 0 0 0 -1.53410081907282 0 0 0
0 0 0 0 0 0 0 0 0 0 0 0 0.0936445887119015 0.137619212852648 0.215248070789036 0.274453960924076 0 0.352075167408691 0 0 0 0 0 0 0 0 0 0 0 0 0 0 0 0 0 0 0 0 0 -0.161108699766727 0 0 0 0 0 0 -1.38945094074835 0 0 0
0 0 0 0 0 0 0.157255238924834 0 0.385488586067457 0.428093727525022 0 0.270649135709394 0 0 0 0 0 0 0 0 0 0 0 0 0 0 0 0 0 0 0 0 0 0 0 0 0 0 0 0 -0.161108699766727 0 0 0 0 0 -1.03807490284267 0 0 -0.936769539201531
0 0 0 0 0.0631137474986049 0.135997037714155 0.215641104344526 0.245103255614312 0 0.219812219209926 0 0 0 0 0 0 0 0 0 0 0 0 0 0 0 0 0 0 0 0 0 0 0 0 0 0 0 0 0 0 0 -0.161108699766727 0 0 0 0 -0.894128626430526 0 0 -3.23490140136564
0 0 0 0 0 0 0 0 0 0 0 0 0 0 0 0 0 0 0 0 0 0 0 0 0 0 0 0 0 0 0 0 0 0 0 0 0 0 0.362621873753598 0 0 0 -0.161108699766727 0 0 0 -1.85899795029244 0 0 0
0 0 0 0 0 0 0 0 0 0 0 0 0 0 0 0 0 0 0 0 0 0 0 0 0 0 0 0 0 0 0 0 0 0 0 0 0 0 0 0 0 0 0 -0.161108699766727 0 0 -0.359974952580036 0 0 -0.301377941440455
0 1.5150581381104 0.041707904017807 0 2.02488230025131 0.111829637113944 0.248732655555032 0.131193727509736 0.137552535653981 0 0.373988482934386 0.150684179508077 0 0 0 0 0 0 0 0 0 0 0 0 0 0 0 0 0 0 0 0 0 0 0 0 0 0 0 0 0 0 0 0 -0.161108699766727 0 0 0 0 -0.502473691434999
0.0199233416274423 0.194653003717964 0.115924257395644 0 0 0 0 0 0 0 0 0 0 0 0 0 0 0 0 0 0 0 0 0 0 0 0 0 0 0 0 0 0 0 0 0 0 0 0 0 0 0 0 0 0 -0.161108699766727 0 0 0 -0.797699030756045
0 0 0 0 0 0 0 0 0 0 0 0 0 0 0 0 0 0 0 0 0 0 0 0 0 0 0 0 0 0 0 0 0 0 0 0.386238077780861 0.118018620435158 0 0.311729035485866 0.266928266641296 0.194346513080331 0.193148160268093 0.360649356024159 0.0811832670920231 0 0 -0.161108699766727 0 0 0
0 0 0 0 0 0 0 0 0 0 0 0 0 0 0 0 0 0 0.0719088916149921 0.488425147991302 0.248184418786466 0.15085863390065 1.09417732705181 0.189009410821448 0.231963520134727 0.140877422357089 0 0 0 0 0 0 0 0 0 0 0 0 0 0 0 0 0 0 0 0 0 -0.161108699766727 0 -0.473156128427905
0 0.409184102094459 0.086791621627012 0.0216986828761624 0 0 0 0 0 0 0 0 0 0 0 0 0 0 0 0 0 0 0 0 0 0 0 0 0 0 0 0 0 0 0 0 0 0 0 0 0 0 0 0 0 0 0 0 -0.161108699766727 0
0 0 0 0 0 0 0 0 0 0 0 0 0 0 0 0 0 0 0 0 0 0 0 0 0 0 0 0 0 0 0 0 0 0 0 0 0 0 0 0 0.195396000445471 0.679316524342258 0 0.0574161360542781 0.100079856857338 0.170459322583077 0 0.0973399460843699 0 -0.161108699766727
