1.08154807201443
0.955783502501156
0.333010917945821
1.41441251493464
0.204778702408278
0.731513316064267
2.41614638382811
0.535793345817909
0.165336494368695
0.228915693699242
0.879295662455548
0.571854228972893
0.289703512592721
5.1592387856753
1.40892356061682
0.209849975672465
0.698752232157894
5.12554556177503
1.7206812699416
0.227860429378536
1.88620841329539
0.286203984355293
1.09151309222934
1.47118311629721
0.569986611631904
0.392601554769794
0.795438644027921
2.11262283824261
0.326107436489766
0.701148017856252
1.33083310753142
1.44745869248298
0.882634743958053
2.41237052103161
0.796166419073597
0.917113521347016
1.42086531941006
0.470124136923984
0.90966575466522
0.654026839874629
0.0910538161740231
1.92697919365635
0.298250583798497
0.725046670399449
2.03261982081724
5.74645219814089
1.72414707970787
0.78405338115355
2.01201475591411
0.825315881975986
