-0.213127757344906 -0.241475414795052 -6.19775872379943 0 0 -4.11150178195017 0 0 0 0 0 0 0 0 0 0 0 0 0 0 0 0 0 0 0 0 0 0 0 0 0 0 0 0 0 0 0 0 0 0 0 0 0 0 0 0 0 0 0 0
0.0478656450824346 -0.213127757344906 0 0 0 0 0 0 0 0 0 0 0 0 0 0 0 0 0 0 0 0 0 0 0 0 0 0 0 0 0 0 0 0 0 0 0 0 0 0 0 0 0 0 0 0 0 0 0 0
1.19723419902413 0 -0.213127757344906 0 0 0 0 0 0 0 0 0 0 0 0 0 0 0 0 0 0 0 0 0 0 0 0 0 0 0 0 0 0 0 0 0 0 0 0 0 0 0 0 0 0 0 0 0 0 0
0 0 0 -0.213127757344906 -0.636475242664108 0 -0.904949489935018 -0.734234566020316 0 0 0 0 0 0 0 0 -0.895406231169016 0 0 0 0 0 0 0 0 0 0 0 0 0 0 0 0 0 0 0 0 0 0 0 0 0 0 0 0 0 0 -2.17589995541223 0 0
0 0 0 0.127675741690164 -0.213127757344906 0 -3.15758858149876 0 0 0 0 0 0 0 0 -2.96724882914321 0 0 0 0 0 0 0 0 0 0 0 0 0 0 0 0 0 0 0 0 0 0 0 0 0 0 0 0 0 0 0 0 0 0
0.82057430116333 0 0 0 0 -0.213127757344906 0 0 0 -1.18127723905984 0 0 0 0 0 0 0 0 0 0 0 0 0 0 0 0 0 0 0 0 0 -0.384249034760488 -1.71137991883599 0 0 0 0 0 0 0 0 0 0 0 0 0 0 0 0 0
0 0 0 0.189860256927386 0.621472040578974 0 -0.213127757344906 0 0 0 0 0 0 0 0 0 0 0 -2.66489063524593 0 0 0 0 -1.3026244467407 0 0 0 0 0 0 0 0 0 0 0 0 0 0 0 0 0 0 -0.888953596348979 0 0 0 -0.767355450888118 0 0 0
0 0 0 0.147839809544235 0 0 0 -0.213127757344906 0 0 0 0 0 0 0 0 0 0 0 0 0 -1.41642011211583 0 -0.946865907618637 0 0 0 0 0 0 0 0 0 -0.846366816602104 0 0 0 0 0 0 0 0 0 0 0 0 -1.72509563290118 0 0 0
0 0 0 0 0 0 0 0 -0.213127757344906 0 0 0 0 0 0 0 0 0 -3.51203993089443 0 0 0 0 0 0 0 -3.47042939703924 0 0 0 0 0 0 -2.14753145748348 0 0 0 0 0 0 0 0 0 0 0 0 0 0 0 -10.0143174768628
0 0 0 0 0 0.213818444799446 0 0 0 -0.213127757344906 0 0 0 0 -0.786896908361494 0 0 0 0 0 0 0 0 0 0 -0.81361358387136 -0.75010717449969 -0.34122915448575 0 0 0 0 -0.296171453329319 0 0 0 0 0 0 0 0 0 0 -0.348166336671 0 0 0 0 -1.56604852203594 0
0 0 0 0 0 0 0 0 0 0 -0.213127757344906 0 0 0 0 0 0 0 -0.178358956787957 0 0 0 0 -0.349928951717926 0 0 -1.00785303618246 0 0 0 0 0 0 0 0 0 0 0 0 0 0 0 0 -0.440690218322013 0 0 0 0 -0.982548597437419 0
0 0 0 0 0 0 0 0 0 0 0 -0.213127757344906 0 0 0 0 0 -1.47492560235532 -0.519449083169658 0 0 0 0 -1.93498834349345 0 0 -1.85884228957347 0 0 0 0 0 0 0 0 0 0 0 0 0 0 0 0 -1.21753738501936 0 0 0 0 0 0
0 0 0 0 0 0 0 0 0 0 0 0 -0.213127757344906 0 0 0 0 -0.550868504075426 0 0 0 0 -0.755227277722207 0 0 0 -2.1315248365878 0 0 -2.07660810997036 0 0 0 0 0 0 0 0 0 0 0 0 0 -0.285326164593159 0 0 0 0 -0.511642698222071 0
0 0 0 0 0 0 0 0 0 0 0 0 0 -0.213127757344906 0 0 0 0 0 -2.92217429022142 0 0 0 0 0 0 -0.918125899981241 0 0 -0.594891736744687 0 0 0 0 0 0 0 -2.18220540962742 0 0 0 0 0 0 -0.822252024591342 0 0 0 -0.318884476690364 0
0 0 0 0 0 0 0 0 0 0.147127073749168 0 0 0 0 -0.213127757344906 0 0 0 0 0 0 0 0 0 0 0 -2.11477361951292 0 0 0 0 0 0 0 -1.82914968381389 0 0 0 0 0 0 0 0 -0.522261751563931 -0.326352479529582 0 0 0 0 0
0 0 0 0 0.61980293581129 0 0 0 0 0 0 0 0 0 0 -0.213127757344906 0 0 0 -0.519437886625321 0 0 0 0 0 0 -1.69220930573714 0 0 0 0 0 0 0 -1.87456708663433 0 0 -0.20385223097869 0 0 0 0 0 -1.70430906678452 -0.230911011897927 0 0 0 -0.391420081233423 0
0 0 0 0.174564270634241 0 0 0 0 0 0 0 0 0 0 0 0 -0.213127757344906 0 0 0 0 0 0 0 0 0 0 0 0 0 0 0 0 0 -3.99874403707767 0 0 -0.225002543321295 0 0 0 0 0 -0.673445338639763 -0.452731901086204 0 0 0 -1.33328232134286 0
0 0 0 0 0 0 0 0 0 0 0 0.306214064285832 0.109266858201201 0 0 0 0 -0.213127757344906 0 -0.757910632476678 0 0 0 0 0 0 0 0 0 0 0 0 0 0 -0.728461028260967 0 0 -0.543217847486043 0 0 0 0 0 -2.57290607990842 -1.18197712276257 0 0 0 -1.74878781122093 0
0 0 0 0 0 0 0.531578488947383 0 0.673485216842314 0 0.0352503815709418 0.102874013535378 0 0 0 0 0 0 -0.213127757344906 0 0 0 0 0 0 0 0 0 0 0 0 0 0 0 -1.64822278294653 0 0 0 0 0 0 0 0 -2.52759922371414 0 0 0 0 -0.829938757224418 0
0 0 0 0 0 0 0 0 0 0 0 0 0 0.591007506259839 0 0.110485862783787 0 0.15434520219148 0 -0.213127757344906 0 0 0 0 0 0 0 0 0 0 0 0 0 0 -0.0756239797263061 0 0 -1.27142574064753 0 0 0 0 0 -1.46207963207239 -2.52985134070022 0 0 0 -1.88136932262156 0
0 0 0 0 0 0 0 0 0 0 0 0 0 0 0 0 0 0 0 0 -0.213127757344906 0 0 0 0 0 0 0 0 0 0 0 0 0 -0.21144768371794 0 0 0 0 0 0 0 0 -12.1566969120866 -2.63309974377995 0 0 0 0 0
0 0 0 0 0 0 0 0.268950570638217 0 0 0 0 0 0 0 0 0 0 0 0 0 -0.213127757344906 0 0 0 0 0 0 0 0 0 0 0 0 0 0 0 0 0 0 0 0 0 -1.36892190923204 -0.203429655540643 0 0 0 0 0
0 0 0 0 0 0 0 0 0 0 0 0 0.159024198677312 0 0 0 0 0 0 0 0 0 -0.213127757344906 0 0 0 0 0 0 0 0 0 0 0 -0.796084393899599 0 0 0 0 0 0 0 0 -0.206908776785383 -0.460850504624628 0 0 0 -0.24650188532667 0
0 0 0 0 0 0 0.257448119373572 0.199511610814315 0 0 0.0669472875515015 0.396214653285593 0 0 0 0 0 0 0 0 0 0 0 -0.213127757344906 0 0 0 0 0 0 0 0 0 0 -5.45394562612815 0 0 0 0 0 0 0 0 -0.928484580368678 0 0 0 0 -1.11285194010601 0
0 0 0 0 0 0 0 0 0 0 0 0 0 0 0 0 0 0 0 0 0 0 0 0 -0.213127757344906 0 0 0 0 0 0 0 0 0 -0.901312439643684 0 0 0 0 0 0 0 0 -0.997684694253161 -0.638844485870392 0 0 0 -0.170762115605339 0
0 0 0 0 0 0 0 0 0 0.15382057462765 0 0 0 0 0 0 0 0 0 0 0 0 0 0 0 -0.213127757344906 0 0 0 0 0 0 0 0 0 0 0 0 0 0 0 0 0 0 0 -0.791632945837509 0 0 -3.90811019821904 0
0 0 0 0 0 0 0 0 0.710881646114992 0.147202391005726 0.205866710839093 0.381549861659935 0.422953870180575 0.176978228518285 0.437624212223724 0.346660828476583 0 0 0 0 0 0 0 0 0 0 -0.213127757344906 0 0 0 0 0 0 0 0 0 0 0 0 0 0 0 0 -0.89748645995305 0 -1.83629045530241 0 0 -0.774822583212876 0
0 0 0 0 0 0 0 0 0 0.0688406342076685 0 0 0 0 0 0 0 0 0 0 0 0 0 0 0 0 0 -0.213127757344906 0 0 -4.21211537257087 0 0 0 0 0 -0.331130775566214 0 0 -0.682984780880035 -0.902665912946405 0 0 0 -1.34115971866854 -0.313885402286033 0 0 0 0
0 0 0 0 0 0 0 0 0 0 0 0 0 0 0 0 0 0 0 0 0 0 0 0 0 0 0 0 -0.213127757344906 0 0 0 0 0 0 0 0 0 0 0 0 -2.32671756862933 0 -0.986175274653245 -0.194323404401505 -2.38894448130782 0 0 0 0
0 0 0 0 0 0 0 0 0 0 0 0 0.401608905888617 0.121590352985913 0 0 0 0 0 0 0 0 0 0 0 0 0 0 0 -0.213127757344906 0 0 0 0 0 0 0 0 0 0 0 -0.509643527076221 0 -0.328027399046653 0 -2.6775377300244 0 0 0 0
0 0 0 0 0 0 0 0 0 0 0 0 0 0 0 0 0 0 0 0 0 0 0 0 0 0 0 0.859859599858089 0 0 -0.213127757344906 0 0 0 0 0 -0.560988135948272 0 0 0 0 -0.246684629129212 0 0 -3.04599734739567 -0.938480530237343 0 0 0 0
0 0 0 0 0 0.0777371276707931 0 0 0 0 0 0 0 0 0 0 0 0 0 0 0 0 0 0 0 0 0 0 0 0 0 -0.213127757344906 0 0 0 0 -0.622580916086245 0 -0.413297887836716 0 0 0 0 -0.239301811071117 -0.492296100410053 -1.18467347389078 0 0 0 0
0 0 0 0 0 0.348470345258957 0 0 0 0.0625498499552626 0 0 0 0 0 0 0 0 0 0 0 0 0 0 0 0 0 0 0 0 0 0 -0.213127757344906 0 0 0 -1.61487625534571 0 -5.25913731628682 0 0 0 0 0 0 -5.03188992260192 0 0 0 0
0 0 0 0 0 0 0 0.165388581261167 0.443682394051128 0 0 0 0 0 0 0 0 0 0 0 0 0 0 0 0 0 0 0 0 0 0 0 0 -0.213127757344906 0 0 0 0 0 0 0 -1.18296561028008 0 0 -3.61188709936935 0 0 0 0 0
0 0 0 0 0 0 0 0 0 0 0 0 0 0 0.356816008635764 0.376098105025229 0.818706545314483 0.154274280565026 0.320292481658044 0.0133778041132784 0.0441148642287289 0 0.170376667484277 1.04197620148058 0.174590329914677 0 0 0 0 0 0 0 0 0 -0.213127757344906 0 -0.674919592185434 0 0 0 0 0 0 0 0 0 0 0 0 0
0 0 0 0 0 0 0 0 0 0 0 0 0 0 0 0 0 0 0 0 0 0 0 0 0 0 0 0 0 0 0 0 0 0 0 -0.213127757344906 -0.276907551814283 0 0 0 0 0 0 0 0 -4.79989704043973 0 0 0 0
0 0 0 0 0 0 0 0 0 0 0 0 0 0 0 0 0 0 0 0 0 0 0 0 0 0 0 0.0638343062307701 0 0 0.105804760209098 0.130044588825831 0.306504945878434 0 0.131738229685655 0.055293452820027 -0.213127757344906 1.09184804397321 0 0 0 0 0 0 0 -2.55789819798732 0 0 0 0
0 0 0 0 0 0 0 0 0 0 0 0 0 0.417660557643218 0 0.0419046447143352 0.0412580754704342 0.108415902591442 0 0.234637534651023 0 0 0 0 0 0 0 0 0 0 0 0 0 0 0 0 -5.76710824734789 -0.213127757344906 0 0 0 0 0 0 0 -1.75555657305016 0 0 0 0
0 0 0 0 0 0 0 0 0 0 0 0 0 0 0 0 0 0 0 0 0 0 0 0 0 0 0 0 0 0 0 0.0849312610295781 0.9463461815504 0 0 0 0 0 -0.213127757344906 0 0 0 0 0 0 -1.30888701491262 0 0 0 0
0 0 0 0 0 0 0 0 0 0 0 0 0 0 0 0 0 0 0 0 0 0 0 0 0 0 0 0.138014945815825 0 0 0 0 0 0 0 0 0 0 0 -0.213127757344906 0 0 0 0 0 -0.657464087343168 0 0 0 0
0 0 0 0 0 0 0 0 0 0 0 0 0 0 0 0 0 0 0 0 0 0 0 0 0 0 0 0.177924594819309 0 0 0 0 0 0 0 0 0 0 0 0 -0.213127757344906 0 0 0 0 0 0 0 0 0
0 0 0 0 0 0 0 0 0 0 0 0 0 0 0 0 0 0 0 0 0 0 0 0 0 0 0 0 0.45086649679495 0.11156404135585 0.0494300335895985 0 0 0.215559100563455 0 0 0 0 0 0 0 -0.213127757344906 0 0 0 -0.932220060589329 0 0 0 0
0 0 0 0 0 0 0.168024467737469 0 0 0 0 0 0 0 0 0 0 0 0 0 0 0 0 0 0 0 0 0 0 0 0 0 0 0 0 0 0 0 0 0 0 0 -0.213127757344906 0 0 0 0 0 0 0
0 0 0 0 0 0 0 0 0 0.0766721994065957 0.0828925501780174 0.236811024172203 0.0543293178516715 0 0.109017309690098 0.339988465010167 0.130865362382793 0.490810427685032 0.537781398275548 0.310757846034615 2.48434265972171 0.277125620649738 0.0436144870828809 0.196007311972222 0.19543324912007 0 0.168984958130094 0 0.194100940473299 0.0629664852898576 0 0.0502859116246114 0 0 0 0 0 0 0 0 0 0 0 -0.213127757344906 0 0 0 0 0 0
0 0 0 0 0 0 0 0 0 0 0 0 0 0.166128154918841 0.0601453762108906 0.0455661748441276 0.0867718524728982 0.240166424303738 0 0.51718743125439 0.562022675095172 0.0370885337918032 0.0902158434322357 0 0.143682380213099 0 0 0.275614190276181 0.0390566863265071 0 0.608165838194204 0.103758087371788 0 0.767268166620945 0 0 0 0 0 0 0 0 0 0 -0.213127757344906 0 0 0 0 0
0 0 0 0 0 0 0 0 0 0 0 0 0 0 0 0 0 0 0 0 0 0 0 0 0 0.165482512091285 0.366526119702085 0.0637199757787334 0.493398415067518 0.559396791715389 0.200347610915147 0.236504382815821 0.998787709891262 0 0 0.953005590349688 0.514710788459952 0.331325771648491 0.267573050883811 0.127210024635914 0 0.19004052798972 0 0 0 -0.213127757344906 0 0 0 0
0 0 0 0 0 0 0.154191008218288 0.30656187557217 0 0 0 0 0 0 0 0 0 0 0 0 0 0 0 0 0 0 0 0 0 0 0 0 0 0 0 0 0 0 0 0 0 0 0 0 0 0 -0.213127757344906 0 0 0
0 0 0 0.485730449759427 0 0 0 0 0 0 0 0 0 0 0 0 0 0 0 0 0 0 0 0 0 0 0 0 0 0 0 0 0 0 0 0 0 0 0 0 0 0 0 0 0 0 0 -0.213127757344906 0 0
0 0 0 0 0 0 0 0 0 0.321699002773439 0.214847580200684 0 0.0993439882938476 0.0616817930293724 0 0.0746166166700654 0.260410064365792 0.350968207225063 0.152345102842731 0.371641414300987 0 0 0.0522277335666357 0.238946551834087 0.0339644995111368 0.727733215885837 0.154266079462491 0 0 0 0 0 0 0 0 0 0 0 0 0 0 0 0 0 0 0 0 0 -0.213127757344906 0
0 0 0 0 0 0 0 0 2.08795604000518 0 0 0 0 0 0 0 0 0 0 0 0 0 0 0 0 0 0 0 0 0 0 0 0 0 0 0 0 0 0 0 0 0 0 0 0 0 0 0 0 -0.213127757344906
