-0.326253138827059 0 0 0 0 0 0 0 0 -0.89007128922687 0 0 0 -0.967603176703487 0 0 0 0 0 0 0 0 0 0 0 0 0 0 0 0 0 0 0 0 0 0 0 0 0 0 0 0 0 0 0 0 0 0 0 0
0 -0.326253138827059 0 0 0 0 0 0 0 -0.798866763688784 -0.270012413098098 0 0 0 0 0 0 0 -0.642676330131619 0 0 0 0 0 0 0 0 0 0 0 0 0 0 0 0 0 -0.792856556530896 0 -0.413229209528954 0 0 0 0 0 0 0 0 0 0 0
0 0 -0.326253138827059 0 0 0 0 0 0 -5.35067088661185 -2.99710387297419 0 0 0 0 0 0 0 0 0 0 0 0 0 0 0 0 0 0 0 0 0 0 0 0 0 -4.22753079342746 0 -0.827395648081041 0 0 0 0 0 0 0 0 0 0 0
0 0 0 -0.326253138827059 0 -1.09571446802964 0 0 0 0 -0.588102764655184 0 0 0 0 0 0 0 0 0 0 0 0 0 0 0 -0.742579677518141 0 0 0 0 0 0 0 0 0 -0.654000809335082 0 -0.284632205510764 0 0 0 0 0 0 0 0 0 0 0
0 0 0 0 -0.326253138827059 0 0 0 0 0 -0.2851443916318 0 0 0 -10.2972866269454 0 0 0 0 0 0 0 0 0 0 0 -2.26657166555172 0 0 0 0 0 0 0 0 0 -1.67636359274061 0 -1.77899421038587 0 0 0 0 0 0 0 0 0 0 0
0 0 0 0.230011879502794 0 -0.326253138827059 -0.0593016104023996 0 0 0 -0.300468540306073 0 0 0 -0.323509358891596 0 0 0 0 0 0 0 0 0 0 0 -0.404417937884514 0 0 0 0 0 0 0 0 0 -1.57106033325046 0 -0.722832572996909 0 0 0 0 0 0 0 0 0 0 0
0 0 0 0 0 0.0112489896865048 -0.326253138827059 0 -1.01591223829767 0 0 -3.26760057252252 0 0 -2.34270825769693 0 0 0 0 0 0 0 0 0 0 0 -1.3132022212771 0 0 0 0 0 0 0 0 -1.028954511775 0 -3.31322205145656 -0.747103751870668 0 0 -0.331783838236265 0 0 0 0 0 0 0 0
0 0 0 0 0 0 0 -0.326253138827059 0 0 0 0 0 0 0 0 0 0 0 0 0 -0.242057805979015 0 0 0 0 0 0 0 0 0 0 0 0 0 -1.90240682792544 0 0 0 0 0 0 0 0 0 0 0 0 0 0
0 0 0 0 0 0 0.214858213008365 0 -0.326253138827059 0 0 0 0 0 0 0 0 0 0 0 0 -1.182740853198 0 0 0 0 0 0 0 0 0 0 0 0 0 -1.67127989707529 0 0 0 0 0 0 0 0 0 0 -1.77585174851209 0 0 0
0.174806122622035 0.162956535316712 1.08975976549192 0 0 0 0 0 0 -0.326253138827059 0 0 0 0 0 0 0 0 0 -0.694728507242218 0 -1.3435163606518 0 0 0 0 0 0 0 0 0 0 0 0 0 0 0 0 0 0 0 0 0 0 0 0 -0.646697480929076 0 0 0
0 0.0492593050171068 0.588985168825388 0.11584017844803 0.0563771538644372 0.064345763953033 0 0 0 0 -0.326253138827059 0 0 0 0 0 0 0 0 -0.778880189542303 0 -0.680393920129396 0 0 0 0 0 0 0 0 0 0 0 0 0 -0.233219010683861 0 0 0 0 0 0 0 0 0 0 -1.2534975243887 0 0 0
0 0 0 0 0 0 0.675937120513815 0 0 0 0 -0.326253138827059 -4.39435161772575 0 0 0 0 0 0 0 0 0 0 0 0 0 0 -0.127854641212505 -1.24514916665795 0 0 0 0 0 0 -1.35263383897391 0 0 0 0 0 0 0 0 0 0 -1.33254886030274 0 0 0
0 0 0 0 0 0 0 0 0 0 0 0.918328062383797 -0.326253138827059 0 0 0 0 0 0 0 0 0 0 0 0 0 0 -0.324070729434666 -0.987921144186641 0 0 0 0 0 0 -0.793107024461059 0 0 0 0 0 0 0 0 0 0 -4.45867691093116 0 0 0
0.192196408994368 0 0 0 0 0 0 0 0 0 0 0 0 -0.326253138827059 0 0 0 0 0 0 0 0 0 0 0 0 0 0 0 0 0 0 0 0 0 -1.13051633704518 0 0 0 0 0 0 0 0 0 0 -0.899603406667888 0 0 0
0 0 0 0 1.91762136928624 0.0660833926033867 0.437499357678677 0 0 0 0 0 0 0 -0.326253138827059 0 0 0 0 0 0 0 -2.09396551349986 0 0 0 0 -0.342840461436923 0 0 0 0 0 0 0 0 0 0 0 0 0 0 0 0 0 0 0 0 0 0
0 0 0 0 0 0 0 0 0 0 0 0 0 0 0 -0.326253138827059 0 0 0 0 0 0 -0.795984654373262 0 0 0 0 0 0 0 0 0 0 0 0 0 0 0 0 0 -0.391202265794488 0 0 0 0 0 0 0 0 0
0 0 0 0 0 0 0 0 0 0 0 0 0 0 0 0 -0.326253138827059 0 0 0 0 0 -1.688230494248 0 0 0 0 -2.07459043048523 0 0 0 0 0 0 0 0 0 0 0 0 -6.05005819412573 0 0 0 0 0 0 0 0 0
0 0 0 0 0 0 0 0 0 0 0 0 0 0 0 0 0 -0.326253138827059 0 0 -0.855674586805525 0 0 0 0 0 0 -0.437140282112404 0 0 0 0 0 0 0 0 0 0 0 -1.77106179650517 0 0 0 0 0 0 0 0 0 0
0 0.122518112138877 0 0 0 0 0 0 0 0 0 0 0 0 0 0 0 0 -0.326253138827059 0 -3.14620812409686 0 0 0 0 0 0 -0.646336274171537 0 0 0 0 0 0 0 0 0 0 0 -0.452312014335293 0 0 0 0 0 0 0 0 0 0
0 0 0 0 0 0 0 0 0 0.135132337369201 0.151474023440009 0 0 0 0 0 0 0 0 -0.326253138827059 0 0 -0.649607028499456 0 0 0 0 -1.84542070306302 0 0 0 0 -0.122775277027065 0 0 0 0 0 0 0 0 0 0 0 0 -1.38934061101128 0 0 0 0
0 0 0 0 0 0 0 0 0 0 0 0 0 0 0 0 0 0.171694917956126 0.600444369470302 0 -0.326253138827059 0 -0.115771375544771 0 0 -0.275080758344268 0 0 0 0 0 -0.638191033622208 -0.698967270096694 -7.83689458414529 0 0 0 0 0 -0.45140659147226 0 0 0 0 0 -2.63774624672503 0 0 0 0
0 0 0 0 0 0 0 0.0472076421841193 0.239996845581707 0.270043500350576 0.114688120794791 0 0 0 0 0 0 0 0 0 0 -0.326253138827059 -1.69493804693586 0 0 -0.63024787903603 0 0 0 0 0 -8.30489740667044 0 0 0 0 0 0 0 -0.761885786106084 0 0 0 0 0 -3.46432998694801 0 0 0 0
0 0 0 0 0 0 0 0 0 0 0 0 0 0 0.455784391623472 0.157765334191251 0.312000201405697 0 0 0.126247291035608 0.0219405836619571 0.366112732814125 -0.326253138827059 0 0 0 0 0 0 0 0 -0.303963199395643 -0.852285262417558 0 0 0 0 0 0 -2.85942330815831 0 0 0 0 0 -1.14274954105253 0 0 0 0
0 0 0 0 0 0 0 0 0 0 0 0 0 0 0 0 0 0 0 0 0 0 0 -0.326253138827059 0 0 0 0 0 -0.238628979917929 -1.4857094001424 0 0 0 0 0 0 0 0 0 0 0 -5.61084928190289 0 0 -1.24181701031347 0 0 0 0
0 0 0 0 0 0 0 0 0 0 0 0 0 0 0 0 0 0 0 0 0 0 0 0 -0.326253138827059 0 0 0 0 -8.90417970177936 -1.97335081882915 0 0 0 0 0 0 0 0 0 0 0 0 0 -0.355538669472491 -0.0605564408598576 0 0 0 0
0 0 0 0 0 0 0 0 0 0 0 0 0 0 0 0 0 0 0 0 0.0579104253175955 0.118353478159728 0 0 0 -0.326253138827059 0 0 0 -1.96687543630638 -0.630828804037967 0 0 0 0 0 0 0 0 -1.420315440529 0 0 -0.329934419155352 0 0 0 0 -0.99635519292561 0 0
0 0 0 0.138371207712656 0.440052480442263 0.0828077306558034 0.251333811263862 0 0 0 0 0 0 0 0 0 0 0 0 0 0 0 0 0 0 0 -0.326253138827059 0 0 -1.70093068720245 -0.386598693916888 0 0 0 0 0 0 0 0 -5.76035186642423 0 0 -4.34285680503381 0 0 0 0 0 0 0
0 0 0 0 0 0 0 0 0 0 0 0.0246966859176817 0.0624862372783497 0 0.0658509914108352 0 0.409498549857749 0.0875011577646146 0.126676608535653 0.347709839384672 0 0 0 0 0 0 0 -0.326253138827059 0 -2.41666314713825 0 0 0 0 0 0 0 0 0 0 0 0 0 0 0 -1.17541598462138 0 -0.208596166759009 -0.547772548751768 0
0 0 0 0 0 0 0 0 0 0 0 0.246167675889636 0.20295665807486 0 0 0 0 0 0 0 0 0 0 0 0 0 0 0 -0.326253138827059 -3.99772790103816 0 0 0 0 0 0 0 0 0 0 0 0 0 0 0 -0.0519504435490736 0 -2.5639518391225 -0.94673694042111 0
0 0 0 0 0 0 0 0 0 0 0 0 0 0 0 0 0 0 0 0 0 0 0 0.0455613280980786 1.84483169733741 0.386151293577938 0.359025550268232 0.504500487526018 0.773435614666756 -0.326253138827059 0 0 0 0 0 0 0 0 0 0 0 0 0 0 0 -0.29941762694752 0 -2.23458010167671 -0.274670380680427 0
0 0 0 0 0 0 0 0 0 0 0 0 0 0 0 0 0 0 0 0 0 0 0 0.326142940423617 0.395333306953892 0.124972166221898 0.0740428713486764 0 0 0 -0.326253138827059 0 0 0 0 0 0 0 0 0 0 0 0 0 0 -2.58084725409814 0 -0.7676216943908 -1.01343678959809 0
0 0 0 0 0 0 0 0 0 0 0 0 0 0 0 0 0 0 0 0 0.134378241471139 1.72175529070054 0.0620583838091427 0 0 0 0 0 0 0 0 -0.326253138827059 0 0 0 0 0 0 0 0 0 0 0 0 0 -1.74682641827579 0 0 -2.2348193822836 0
0 0 0 0 0 0 0 0 0 0 0 0 0 0 0 0 0 0 0 0.023467197851405 0.152182435081655 0 0.183359583233045 0 0 0 0 0 0 0 0 0 -0.326253138827059 0 0 0 0 0 0 0 0 0 0 0 0 -4.22539925500524 0 -2.47555862694984 0 0
0 0 0 0 0 0 0 0 0 0 0 0 0 0 0 0 0 0 0 0 1.68368354941953 0 0 0 0 0 0 0 0 0 0 0 0 -0.326253138827059 0 0 0 0 0 0 0 0 0 0 0 0 0 -1.27670661642307 -0.675672868694801 -1.96108391020559
0 0 0 0 0 0 0 0 0 0 0 0 0 0 0 0 0 0 0 0 0 0 0 0 0 0 0 0 0 0 0 0 0 0 -0.326253138827059 0 0 0 0 0 0 0 0 0 0 -0.539978498539125 0 -0.608003398136143 -1.66027930933924 -1.49897020289514
0 0 0 0 0 0 0.208907546888009 0.374807853824519 0.327810859830098 0 0.04825661558107 0.277308057248691 0.17033082734701 0.227204224777898 0 0 0 0 0 0 0 0 0 0 0 0 0 0 0 0 0 0 0 0 0 -0.326253138827059 0 0 0 0 0 0 0 0 0 -1.93736704979617 0 0 -0.279466771556435 -4.47438971420487
0 0.150992303615641 0.911713343823668 0.132959101474908 0.338789903049154 0.317773186327594 0 0 0 0 0 0 0 0 0 0 0 0 0 0 0 0 0 0 0 0 0 0 0 0 0 0 0 0 0 0 -0.326253138827059 0 0 0 0 0 0 0 0 -0.734125465724982 0 -1.76815782599661 0 0
0 0 0 0 0 0 0.654836695908726 0 0 0 0 0 0 0 0 0 0 0 0 0 0 0 0 0 0 0 0 0 0 0 0 0 0 0 0 0 0 -0.326253138827059 0 0 0 0 0 -1.55329523619513 0 -0.347413068010493 0 0 0 -1.06377614016619
0 0.0815492264184521 0.162092679894382 0.060178253508238 0.381195155761597 0.152679945000028 0.145900631737191 0 0 0 0 0 0 0 0 0 0 0 0 0 0 0 0 0 0 0 0 0 0 0 0 0 0 0 0 0 0 0 -0.326253138827059 0 0 0 0 0 0 -0.805040792665691 0 0 0 0
0 0 0 0 0 0 0 0 0 0 0 0 0 0 0 0 0 0.381114288049018 0.0905503814199594 0 0.0948488143139518 0.140080432996077 0.568967801669801 0 0 0.275627746198069 1.18794029003925 0 0 0 0 0 0 0 0 0 0 0 0 -0.326253138827059 0 0 0 0 0 0 0 0 0 0
0 0 0 0 0 0 0 0 0 0 0 0 0 0 0 0.0787190254974523 1.29546540232005 0 0 0 0 0 0 0 0 0 0 0 0 0 0 0 0 0 0 0 0 0 0 0 -0.326253138827059 0 0 0 0 0 0 0 0 0
0 0 0 0 0 0 0.0656761478943151 0 0 0 0 0 0 0 0 0 0 0 0 0 0 0 0 0 0 0 0 0 0 0 0 0 0 0 0 0 0 0 0 0 0 -0.326253138827059 0 0 0 0 0 0 0 0
0 0 0 0 0 0 0 0 0 0 0 0 0 0 0 0 0 0 0 0 0 0 0 1.16974206999162 0 0.0633008128865531 0.84942612435846 0 0 0 0 0 0 0 0 0 0 0 0 0 0 0 -0.326253138827059 0 0 0 0 0 0 0
0 0 0 0 0 0 0 0 0 0 0 0 0 0 0 0 0 0 0 0 0 0 0 0 0 0 0 0 0 0 0 0 0 0 0 0 0 0.305116198950604 0 0 0 0 0 -0.326253138827059 0 0 0 0 0 0
0 0 0 0 0 0 0 0 0 0 0 0 0 0 0 0 0 0 0 0 0 0 0 0 0.0706915165753261 0 0 0 0 0 0 0 0 0 0 0 0 0 0 0 0 0 0 0 -0.326253138827059 0 0 0 0 0
0 0 0 0 0 0 0 0 0 0 0 0 0 0 0 0 0 0 0 0.241180140639842 0.513723479327782 0.659734667173046 0.228801082616463 0.247119627954651 0.0123746100867047 0 0 0.233236992644396 0.0100953013108028 0.0610537551528237 0.529399728301051 0.341728545435207 0.899945434931865 0 0.111237519960474 0.396360308790451 0.142972838253459 0.0664552303768696 0.172410605053247 0 0 0 0 0 0 -0.326253138827059 0 0 0 0
0 0 0 0 0 0 0 0 0.348369342063927 0.132089571290214 0.254378692107175 0.246387161709572 0.884087500245517 0.188517956815668 0 0 0 0 0 0 0 0 0 0 0 0 0 0 0 0 0 0 0 0 0 0 0 0 0 0 0 0 0 0 0 0 -0.326253138827059 0 0 0
0 0 0 0 0 0 0 0 0 0 0 0 0 0 0 0 0 0 0 0 0 0 0 0 0 0.190905861440865 0 0.0446693515894451 0.509950876791129 0.450834704824757 0.150979912274686 0 0.470695280962901 0.246921877756568 0.125944010608691 0 0.356448537805976 0 0 0 0 0 0 0 0 0 0 -0.326253138827059 0 0
0 0 0 0 0 0 0 0 0 0 0 0 0 0 0 0 0 0 0 0 0 0 0 0 0 0 0 0.102134811142421 0.186825487275932 0.0554198861693414 0.20982779577019 0.474109486278864 0 0.143407463389609 0.314614967920647 0.0549796492977128 0 0 0 0 0 0 0 0 0 0 0 0 -0.326253138827059 0
0 0 0 0 0 0 0 0 0 0 0 0 0 0 0 0 0 0 0 0 0 0 0 0 0 0 0 0 0 0 0 0 0 0.43207581878832 0.300903314813579 0.911261089704369 0 0.19932463786281 0 0 0 0 0 0 0 0 0 0 0 -0.326253138827059
