0.21465086373361
0.904257969518264
2.69446188654366
0.273292120394603
0.808927384886071
0.72573967140594
0.960765456057801
0.783854884015338
0.570771139560299
0.38252438685937
0.997188472283628
0.767571501996199
1.3517282609728
0.255999591584834
1.57336578153236
0.486437797899123
0.152117368533561
1.46193173339837
0.343522257574339
0.426554286632691
1.23499723849957
0.774694229969581
0.963601685114532
1.90629459677171
1.27163909700351
0.635633966872992
12.4014705925915
0.314631072630781
0.443648011210527
0.5901011718868
3.1970866811487
2.20622328998484
0.420606230750527
0.684153395900804
4.44403757986916
0.571446332024822
0.673017110199557
0.27568527409156
0.408261952791098
0.502434528168679
0.418123892129342
3.70139428380415
0.53378563426818
1.3414735626373
0.0919824464198341
0.920302473530213
2.16965243682939
0.641632925944212
1.11820154513421
0.0766479864365618
