-0.112219214189383 0 0 0 0 0 0 0 0 0 0 0 -2.82619445382293 -0.996371014469093 0 0 0 0 0 0 0 0 -0.509669508350577 0 0 0 0 0 0 0 0 0 0 0 0 0 0 0 0 0 0 0 0 0 0 0 0 0 0 0
0 -0.112219214189383 -1.31638240044087 0 0 -0.739558668464702 0 0 0 0 0 0 0 0 0 0 0 0 0 -0.289925942293343 0 0 -3.64452534999402 0 0 0 0 0 -1.03015531041819 0 0 0 0 0 0 0 0 0 0 0 0 0 0 0 0 0 0 0 0 0
0 0.287219522606201 -0.112219214189383 0 0 0 0 0 0 0 0 0 -6.72607777567637 0 0 -0.71697364018065 0 0 0 -1.28013732114829 0 0 -0.98860064203856 0 0 0 0 0 -0.362991251890319 0 0 0 0 0 0 0 0 0 0 0 0 0 0 0 0 0 0 0 0 0
0 0 0 -0.112219214189383 0 0 0 0 0 0 0 0 -0.872605289538824 0 0 -2.62673745316598 0 0 0 0 0 0 0 0 0 0 0 0 0 0 0 0 0 -0.391367589306252 0 0 0 0 0 0 0 0 0 0 0 0 0 0 0 0
0 0 0 0 -0.112219214189383 0 0 0 -1.78214648663677 0 0 0 0 0 0 0 0 0 0 0 0 0 0 0 0 -0.591108869362516 0 -1.03351513229843 0 0 0 0 0 -0.137604834399407 0 0 0 -0.052143431168603 0 0 0 0 0 -0.711128491816907 0 0 0 0 0 0
0 0.146276869632297 0 0 0 -0.112219214189383 -1.95840780573596 0 -0.733173134672505 0 0 0 0 0 0 0 0 0 0 0 0 0 0 0 0 0 0 -1.98014430173936 0 0 0 0 0 -0.77410948505589 0 0 0 -1.14182384675249 0 0 0 0 0 0 0 0 0 0 0 0
0 0 0 0 0 0.392653552640567 -0.112219214189383 0 -5.4146538758539 -2.55127500078366 0 0 0 0 0 0 0 0 0 0 0 0 0 0 0 0 0 -7.97872971948626 0 0 0 -1.01816214166057 -0.384671013148022 -0.668357591667818 0 0 0 0 0 0 0 0 0 -0.403647522244379 0 0 0 0 0 0
0 0 0 0 0 0 0 -0.112219214189383 -1.06193916367616 0 0 -2.36430742430272 0 0 0 0 0 0 0 0 0 0 0 0 0 -0.678372452886449 0 0 0 0 0 -0.486981447848482 0 -5.18231434620497 0 0 0 0 0 0 0 0 0 -0.675770491738655 0 0 0 0 -0.727475594259012 0
0 0 0 0 0.355229861881186 0.138127202257649 1.11090371020346 0.220029041840567 -0.112219214189383 0 0 0 0 0 0 0 -1.94913692379844 0 0 0 0 0 0 0 -0.603048611949219 0 0 -0.368482671649574 0 -0.856230602280476 0 0 -4.52051310757223 0 0 0 0 0 0 -10.2396773516346 0 0 0 0 0 0 0 0 0 0
0 0 0 0 0 0 0.510156803528775 0 0 -0.112219214189383 0 0 0 0 0 0 -6.05137976872436 -0.262931429914335 -3.63853596833 0 0 0 0 0 0 0 0 0 0 0 0 0 -0.429698603292677 0 0 0 0 0 0 0 -0.364335587389662 0 0 0 0 0 0 0 -0.439817767579409 0
0 0 0 0 0 0 0 0 0 0 -0.112219214189383 0 0 0 0 0 -1.88008405902569 -2.32009878425863 -1.52098924838443 0 0 0 0 0 0 0 0 0 0 0 0 0 -1.21490365625126 0 0 0 0 0 0 -0.63762508508837 0 0 0 0 -0.605178229051722 0 0 0 0 0
0 0 0 0 0 0 0 0.429823705187895 0 0 0 -0.112219214189383 0 0 0 0 0 -0.332256415350756 -0.580632730229669 0 0 -0.719395939450571 0 0 0 0 0 0 0 0 0 0 -0.868356349499863 0 0 0 -0.452376727506966 0 0 -1.37320745514862 -0.786256461348491 0 0 0 0 0 0 0 0 0
0.599485736046856 0 1.27783560667443 0.178305316423149 0 0 0 0 0 0 0 0 -0.112219214189383 0 0 0 0 -1.00982440203716 0 0 0 -5.05671277223049 0 0 0 0 -0.553800770064929 0 0 0 0 0 -0.371275707513946 0 0 0 -1.03094160342207 0 0 -0.412331464514389 0 0 0 0 0 0 0 0 -0.670723890724263 0
0.193969480536294 0 0 0 0 0 0 0 0 0 0 0 0 -0.112219214189383 0 0 0 0 -0.926492796500231 0 -1.02451248152877 -0.794292261944691 0 0 0 0 -0.164184313818538 0 0 0 0 0 -2.19512690835781 0 0 0 -0.922255570860001 0 0 -1.80576735432587 0 0 0 0 0 0 0 0 -2.74632100072761 0
0 0 0 0 0 0 0 0 0 0 0 0 0 0 -0.112219214189383 0 0 -0.503209658470154 -1.20967007766582 0 0 -1.1499539439679 0 0 0 0 -0.47381564902373 0 0 0 0 0 -0.644287872592921 0 0 0 -2.64468190924657 0 0 0 0 0 0 0 0 0 0 0 -0.293746698297402 0
0 0 0.141856009531754 0.492931780393273 0 0 0 0 0 0 0 0 0 0 0 -0.112219214189383 0 0 0 0 0 -1.85482310937632 0 0 0 0 -4.03053906169422 0 0 0 0 0 0 0 0 0 -3.3190543779021 0 0 0 0 0 0 0 0 0 0 0 0 0
0 0 0 0 0 0 0 0 0.384438648641775 1.32381634410803 0.369514066598043 0 0 0 0 0 -0.112219214189383 0 0 0 0 -0.872247245140035 0 0 0 0 -0.982291717521 0 0 0 0 0 0 0 0 0 -0.727615735133245 0 0 -2.54378900437009 0 0 0 0 0 0 0 0 0 0
0 0 0 0 0 0 0 0 0 0.0571004184041893 0.48703904887094 0.0676637056615392 0.217412866485313 0 0.111566935566544 0 0 -0.112219214189383 0 0 0 -3.26858305620291 0 0 0 0 -0.95197541296815 0 0 0 0 0 0 0 0 0 0 0 0 0 0 0 0 0 0 0 0 0 0 0
0 0 0 0 0 0 0 0 0 0.736762246897527 0.298384505841604 0.111990889499771 0 0.183474671536796 0.241134945809578 0 0 0 -0.112219214189383 0 0 -3.46852992221565 0 0 0 0 -0.818409397085817 0 0 0 0 0 0 0 0 0 0 0 0 0 0 0 0 0 0 0 0 0 0 0
0 0.0637924512846093 0.244631060333498 0 0 0 0 0 0 0 0 0 0 0 0 0 0 0 0 -0.112219214189383 0 -0.210416626680613 0 0 0 0 -0.517373277953521 0 0 0 0 0 0 0 0 0 0 0 0 -4.22646257846741 0 0 0 0 0 0 0 0 0 0
0 0 0 0 0 0 0 0 0 0 0 0 0 0.202852498732237 0 0 0 0 0 0 -0.112219214189383 -2.63888989135536 0 0 0 0 -0.354880085394866 0 0 0 0 0 0 0 0 0 0 0 0 -0.883726693226342 0 0 0 0 0 0 0 0 0 0
0 0 0 0 0 0 0 0 0 0 0 0.149551774057055 0.987344427401631 0.162984421510731 0.236525721919242 0.376122690006173 0.168642909087358 0.64785712333679 0.659256636020011 0.0423419101055204 0.531727312968044 -0.112219214189383 0.0895279971117984 0.833682129001254 0 0 0 0 0 0 0 0 0 0 0 0 0 0 0 0 0 0 0 0 0 0 0 0 0 0
0.0895927265436291 0.781619224874402 0.213166211705786 0 0 0 0 0 0 0 0 0 0 0 0 0 0 0 0 0 0 -0.436163283371112 -0.112219214189383 0 0 0 0 0 0 0 0 0 0 0 0 0 0 0 0 -0.231979737057639 0 0 0 0 0 0 0 0 0 0
0 0 0 0 0 0 0 0 0 0 0 0 0 0 0 0 0 0 0 0 0 -4.00867575471663 0 -0.112219214189383 0 0 0 0 0 0 0 0 0 0 0 0 0 0 0 0 0 0 0 0 0 0 0 0 0 0
0 0 0 0 0 0 0 0 0.119729668500626 0 0 0 0 0 0 0 0 0 0 0 0 0 0 0 -0.112219214189383 0 0 0 0 0 0 0 0 0 0 0 0 0 0 0 0 0 0 0 0 0 0 -2.15388366258343 0 0
0 0 0 0 0.115415616566338 0 0 0.138705493886187 0 0 0 0 0 0 0 0 0 0 0 0 0 0 0 0 0 -0.112219214189383 0 0 0 0 0 0 0 0 0 0 0 0 0 0 0 0 0 0 0 0 0 0 0 0
0 0 0 0 0 0 0 0 0 0 0 0 0.111976103487702 0.0325085281370627 0.0945596629352542 0.90532901820114 0.202785419146471 0.178226315364295 0.165741215681441 0.0992568608984381 0.0670961481031158 0 0 0 0 0 -0.112219214189383 0 0 0 -3.37227161520932 0 0 0 0 0 0 0 0 0 0 0 0 0 0 0 0 0 0 0
0 0 0 0 0.207646292538683 0.414917537261285 1.65587399457283 0 0.0772790240751191 0 0 0 0 0 0 0 0 0 0 0 0 0 0 0 0 0 0 -0.112219214189383 0 0 0 0 0 0 0 0 0 0 0 0 0 0 0 0 0 0 0 0 0 0
0 0.217547027601421 0.0806819994585223 0 0 0 0 0 0 0 0 0 0 0 0 0 0 0 0 0 0 0 0 0 0 0 0 0 -0.112219214189383 0 0 0 0 0 -0.699533747981086 0 0 0 0 0 0 0 0 0 0 0 0 0 0 0
0 0 0 0 0 0 0 0 0.172540713051242 0 0 0 0 0 0 0 0 0 0 0 0 0 0 0 0 0 0 0 0 -0.112219214189383 0 0 0 0 -1.76946776131558 0 0 0 0 0 0 0 0 0 0 0 0 0 0 0
0 0 0 0 0 0 0 0 0 0 0 0 0 0 0 0 0 0 0 0 0 0 0 0 0 0 0.721996979916566 0 0 0 -0.112219214189383 0 0 0 0 0 0 0 0 0 0 0 0 0 0 0 0 0 0 0
0 0 0 0 0 0 0.198067432639256 0.0993326580472392 0 0 0 0 0 0 0 0 0 0 0 0 0 0 0 0 0 0 0 0 0 0 0 -0.112219214189383 0 0 0 0 0 0 0 0 0 0 0 0 0 0 0 0 0 0
0 0 0 0 0 0 0.0784017775423665 0 0.93073732832692 0.0885776685475865 0.241442800458714 0.178185208058555 0.0734674899755244 0.466343581376025 0.136104475913633 0 0 0 0 0 0 0 0 0 0 0 0 0 0 0 0 0 -0.112219214189383 0 -0.150721970090645 0 0 0 0 0 0 0 0 0 0 0 0 0 0 0
0 0 0 0.0705982556343948 0.0282493997415806 0.155374038853502 0.139821943936882 1.01568273293467 0 0 0 0 0 0 0 0 0 0 0 0 0 0 0 0 0 0 0 0 0 0 0 0 0 -0.112219214189383 0 0 0 0 0 0 0 0 0 0 0 0 0 0 0 0
0 0 0 0 0 0 0 0 0 0 0 0 0 0 0 0 0 0 0 0 0 0 0 0 0 0 0 0 0.139673012599123 0.323866752802227 0 0 0.0311389676643691 0 -0.112219214189383 1.47883792011534 0.223266758993605 0.243116718694034 0.202379605589698 0 0 0 0 0 0 0 0 0 0 0
0 0 0 0 0 0 0 0 0 0 0 0 0 0 0 0 0 0 0 0 0 0 0 0 0 0 0 0 0 0 0 0 0 0 -6.85573450944402 -0.112219214189383 0 0 0 0 0 0 0 0 0 0 0 0 0 -1.5854505576971
0 0 0 0 0 0 0 0 0 0 0 0.0907286042220225 0.216676939748276 0.185439690909829 0.541479997171785 0.64535345835751 0.164031319761888 0 0 0 0 0 0 0 0 0 0 0 0 0 0 0 0 0 -1.11195595530626 0 -0.112219214189383 0 0 0 0 0 0 0 0 0 0 0 0 -2.94339560921641
0 0 0 0 0.0101877814717825 0.238780643617802 0 0 0 0 0 0 0 0 0 0 0 0 0 0 0 0 0 0 0 0 0 0 0 0 0 0 0 0 -1.12966430061703 0 0 -0.112219214189383 0 0 0 0 0 0 0 0 0 0 0 -1.22368348271314
0 0 0 0 0 0 0 0 0 0 0 0 0 0 0 0 0 0 0 0 0 0 0 0 0 0 0 0 0 0 0 0 0 0 -1.0113964366297 0 0 0 -0.112219214189383 0 0 0 -0.678726797399165 0 0 0 -1.72445892794485 0 0 0
0 0 0 0 0 0 0 0 2.06389612144686 0 0.133235523517594 0.279351368750557 0.0865069032475611 0.353311798636221 0 0 0.508506176328481 0 0 0.856106649571262 0.171213268654194 0 0.0492949874576214 0 0 0 0 0 0 0 0 0 0 0 0 0 0 0 0 -0.112219214189383 0 0 0 0 0 0 0 0 0 -7.56788799939329
0 0 0 0 0 0 0 0 0 0.0701953866185281 0 0.155397009464586 0 0 0 0 0 0 0 0 0 0 0 0 0 0 0 0 0 0 0 0 0 0 0 0 0 0 0 0 -0.112219214189383 0 -0.858153884878268 0 0 0 0 0 0 -0.398300852770681
0 0 0 0 0 0 0 0 0 0 0 0 0 0 0 0 0 0 0 0 0 0 0 0 0 0 0 0 0 0 0 0 0 0 0 0 0 0 0 0 0 -0.112219214189383 0 0 0 0 0 0 0 -1.00485322291184
0 0 0 0 0 0 0 0 0 0 0 0 0 0 0 0 0 0 0 0 0 0 0 0 0 0 0 0 0 0 0 0 0 0 0 0 0 0 0.134881261393175 0 0.169296228099586 0 -0.112219214189383 0 0 0 0 0 0 -0.14269295970823
0 0 0 0 0.145813093987502 0 0.080605661719691 0.136540885019025 0 0 0 0 0 0 0 0 0 0 0 0 0 0 0 0 0 0 0 0 0 0 0 0 0 0 0 0 0 0 0 0 0 0 0 -0.112219214189383 0 0 0 0 0 -0.203435183034218
0 0 0 0 0 0 0 0 0 0 0.128857008171353 0 0 0 0 0 0 0 0 0 0 0 0 0 0 0 0 0 0 0 0 0 0 0 0 0 0 0 0 0 0 0 0 0 -0.112219214189383 0 0 0 0 -0.522507125420976
0 0 0 0 0 0 0 0 0 0 0 0 0 0 0 0 0 0 0 0 0 0 0 0 0 0 0 0 0 0 0 0 0 0 0 0 0 0 0 0 0 0 0 0 0 -0.112219214189383 0 0 0 -0.449804110300163
0 0 0 0 0 0 0 0 0 0 0 0 0 0 0 0 0 0 0 0 0 0 0 0 0 0 0 0 0 0 0 0 0 0 0 0 0 0 0.344838868620021 0 0 0 0 0 0 0 -0.112219214189383 0 0 0
0 0 0 0 0 0 0 0 0 0 0 0 0 0 0 0 0 0 0 0 0 0 0 0 0.449379247129285 0 0 0 0 0 0 0 0 0 0 0 0 0 0 0 0 0 0 0 0 0 0 -0.112219214189383 0 0
0 0 0 0 0 0 0 0.139413669793101 0 0.0886832906964508 0 0 0.131917320695025 0.569318007440955 0.0550617673787269 0 0 0 0 0 0 0 0 0 0 0 0 0 0 0 0 0 0 0 0 0 0 0 0 0 0 0 0 0 0 0 0 0 -0.112219214189383 0
0 0 0 0 0 0 0 0 0 0 0 0 0 0 0 0 0 0 0 0 0 0 0 0 0 0 0 0 0 0 0 0 0 0 0 0.318171264880797 0.578795411573904 0.25193635840512 0 1.53476914872619 0.0764338724629691 0.199723925191907 0.0279493717556945 0.0391699562609253 0.102141861321192 0.090706793846635 0 0 0 -0.112219214189383
