0.489551118526824
0.863680378992476
1.20214879549825
1.3494516352601
0.552155392616622
1.09711265931534
0.5773273253189
0.544352773536825
0.39799283835457
0.882927802289746
0.461608738226741
1.23611425492332
0.679498393967108
0.301137923446085
1.93295851459252
0.517604954819202
1.02225835937888
0.296371728803586
0.15744295446596
1.48189656800261
1.03212149840427
0.304355657766926
2.43767790328293
1.09049890876194
3.8826239081802
1.32884826756581
0.322426780044674
4.23793118959981
1.06059262548043
1.77416326834163
1.62191824342174
2.44220446635915
1.62483016745417
3.6840467728886
0.278080044234749
0.751130540442792
0.703548305745107
0.954287747666378
2.88515613872971
0.819689800307003
0.570758258532084
0.322460925817798
0.470236248469773
2.07281350711006
0.275030257544316
2.7292558337572
6.29756005063608
0.336384124439151
1.91126892349796
0.596761579795326
