1.73252099010581
0.259507574347915
8.60363245005124
0.255514134123687
1.50822292299762
1.01482179890818
0.901844665750519
0.542580669388663
0.388726596406622
0.758331148851386
3.01407896148956
2.79545449128424
2.8843254588361
0.254763019665289
2.34939245811914
2.08226872390997
0.793950229861148
1.68631210525313
1.15430531235636
2.82159685724687
0.696882023093794
0.665898546920851
0.711349137809364
0.0887208479028849
0.780064738588267
0.839743606318324
0.163514664364417
1.27199752120616
0.28687304711996
0.398089687306147
0.914960096965103
0.507474654521204
1.57326866256811
0.369511797767283
0.866899700704669
1.84164483801614
0.320183230991057
0.149743947491666
6.18281882791709
7.80586609823546
0.262092608245478
0.924243070077233
0.482267486445986
1.13172765953383
2.21150055723575
0.924505489132465
7.0290434442712
3.13383001987826
0.798955454960781
1.27031217222859
