1.15464290849705
1.18019064466606
3.12342873147175
0.503068847286707
0.827115284364745
0.633812750607447
5.12307972396334
0.266939816813809
2.29154470604146
2.10700172932371
0.112785203362846
0.435736137048391
0.835480127816935
0.975613385079245
1.4293002049053
3.17069979231967
0.953010327473658
1.50690465503591
0.461812609327052
0.996861715555685
0.208816942027534
2.14074391102689
0.421044948250784
2.58667167718145
1.12731264035937
1.91699458106931
0.428607352165244
1.1818885402041
1.29849999590621
1.03855098054744
0.136787133433386
3.53619642511582
2.53041304560068
7.13290431712648
1.38592391088205
0.276794517990989
0.988913771397403
4.16888265599797
0.285765198888571
2.46009424731704
0.86202987073531
0.25411698082589
0.268106253879564
0.824654580873551
0.560325134655132
0.178941903217452
2.38850407481979
0.701412656397013
0.893884309093829
0.955350086973398
