-0.144734406098515 0 0 0 0 0 0 0 0 0 0 0 0 0 0 0 0 0 0 0 0 0 0 0 0 0 -0.160722229118906 0 0 0 0 0 0 0 0 0 0 0 0 0 0 0 0 0 0 0 0 0 0 0
0 -0.144734406098515 -0.841456105532928 0 0 0 0 0 0 0 0 0 0 0 0 0 0 0 0 0 0 0 0 0 0 0 -1.39187864319794 0 0 0 0 0 0 -11.8850913402742 0 0 0 0 0 0 0 0 0 0 0 0 0 0 0 0
0 0.157953220794747 -0.144734406098515 0 0 0 0 0 0 0 0 0 0 0 0 0 0 0 0 0 0 0 0 0 0 0 -11.1711558190437 0 -2.29353385199066 0 0 0 0 -0.597761330658317 0 0 0 0 0 0 0 0 0 0 0 0 0 0 0 0
0 0 0 -0.144734406098515 0 0 0 0 0 0 0 0 0 0 0 0 0 0 0 0 0 0 0 0 0 0 -1.13664718891635 0 -1.81555494388302 0 0 0 0 -0.199565897244364 -0.202665211652021 0 0 0 0 0 0 0 0 0 0 0 0 0 0 0
0 0 0 0 -0.144734406098515 0 0 0 0 0 0 0 0 0 0 0 0 0 0 0 0 0 0 0 0 0 -0.765897785384842 0 -0.798757009347553 0 0 0 0 -5.32145030759194 0 0 0 0 0 0 0 0 0 0 0 0 0 0 0 -0.638300757030909
0 0 0 0 0 -0.144734406098515 0 0 0 0 0 0 0 0 0 0 0 0 0 0 0 0 0 0 0 0 -1.90495927725339 0 -1.12093266159414 0 0 0 0 -1.48078786447464 -0.341538991080109 0 0 0 0 0 0 0 0 0 0 0 0 0 0 -0.850571690569892
0 0 0 0 0 0 -0.144734406098515 0 0 0 0 0 0 0 0 0 0 0 -0.317446479006537 0 0 0 0 0 0 0 0 -0.813216067488881 0 0 0 0 0 0 -4.96297105670329 -0.391129440181799 0 0 -0.512160267955071 0 0 0 0 0 0 0 0 0 0 -1.75902904293117
0 0 0 0 0 0 0 -0.144734406098515 0 0 0 0 0 0 0 0 0 0 0 0 0 0 0 0 0 0 0 -0.579696703018589 0 0 0 0 0 0 -0.56646495428006 -1.71465517974359 0 0 0 0 0 0 0 0 0 0 0 0 0 0
0 0 0 0 0 0 0 0 -0.144734406098515 -1.67465119320221 -4.8557964254558 0 0 0 0 -0.241378801096152 0 0 -2.05637782034194 0 0 0 0 0 0 0 0 0 0 -0.103043033567635 0 0 0 0 0 0 0 0 0 0 0 0 0 0 0 0 0 0 0 -4.60181684242124
0 0 0 0 0 0 0 0 0.357179243702153 -0.144734406098515 0.166594549779403 0 -0.229704305180449 0 0 -0.353462204980055 0 -1.44927346959732 0 0 0 0 0 0 0 0 0 0 0 -0.245282583877992 0 0 0 0 0 0 0 0 0 0 0 0 0 0 0 0 0 0 0 -0.532933556811544
0 0 0 0 0 0 0 0 0.981623622221599 -0.876068793639071 -0.144734406098515 0 -0.400082274553437 0 0 0 0 0 -1.41210364344969 0 0 0 0 0 0 0 0 0 0 -1.69105350546413 0 0 0 0 0 0 0 0 0 0 0 0 0 0 0 0 0 0 0 -0.118572648320907
0 0 0 0 0 0 0 0 0 0 0 -0.144734406098515 0 0 0 0 -0.515686825891949 0 0 0 0 0 0 -0.559767943697881 0 0 0 0 0 0 0 0 0 0 0 0 -0.73938637588381 0 0 0 0 0 0 0 0 0 0 -0.580664966758033 0 -1.30248142179635
0 0 0 0 0 0 0 0 0 0.0443069224464887 0.0677269655721658 0 -0.144734406098515 0 0 0 -3.80151273393871 0 0 0 -2.05991143448468 0 0 -0.56911110413421 0 0 0 0 0 0 0 0 0 0 0 0 -8.39936942515326 0 0 0 0 0 0 0 0 0 -0.735288478346889 -1.4684186716758 0 -1.09470204099077
0 0 0 0 0 0 0 0 0 0 0 0 0 -0.144734406098515 0 0 0 0 0 0 0 0 0 0 0 0 0 0 0 -0.169268565283657 0 0 0 0 0 0 -1.27573722649245 0 0 0 0 0 0 0 0 0 -2.69092438060902 -0.850689220192718 0 -0.400911172658933
0 0 0 0 0 0 0 0 0 0 0 0 0 0 -0.144734406098515 0 0 0 0 0 -1.13922520774599 0 0 0 0 0 0 0 0 0 0 0 0 0 0 0 0 0 0 0 0 0 -1.14162040722618 0 0 0 -1.77470105369259 0 0 0
0 0 0 0 0 0 0 0 0.0458310318947088 0.0666813970155637 0 0 0 0 0 -0.144734406098515 0 0 0 0 -2.56855566129832 0 0 0 0 0 0 0 0 0 0 0 0 0 0 0 0 -1.40821757851945 0 0 0 0 -11.3719173591938 0 0 0 -1.0360083902922 -0.471526711900541 0 0
0 0 0 0 0 0 0 0 0 0 0 0.103351565575615 0.819454579580527 0 0 0 -0.144734406098515 0 0 0 -0.809527024439116 0 0 0 0 0 0 0 0 0 0 0 0 0 0 0 0 -2.92096886008586 0 0 0 0 0 0 0 0 0 -0.0940372579532402 0 0
0 0 0 0 0 0 0 0 0 0.291370493439249 0 0 0 0 0 0 0 -0.144734406098515 0 0 -0.707266114049786 0 0 0 0 0 0 0 0 0 0 0 0 0 0 0 0 -0.367963161888567 0 0 0 0 -4.38430596174722 0 0 0 -3.8934782191525 -1.37543696358082 0 0
0 0 0 0 0 0 0.063679677232536 0 0.416870037894622 0 0.28142614638043 0 0 0 0 0 0 0 -0.144734406098515 0 -1.40545653884509 0 0 0 0 0 0 0 0 0 0 0 0 0 0 0 0 -0.377380456657211 0 0 0 0 -0.610228547156974 0 0 0 -0.549306939936222 -0.838616271178137 0 0
0 0 0 0 0 0 0 0 0 0 0 0 0 0 0 0 0 0 0 -0.144734406098515 0 0 0 0 0 0 0 0 0 0 0 0 0 0 0 0 0 -8.58281636270189 0 0 0 0 -0.572903367451118 0 0 0 -0.834952404546635 -3.77682687245412 0 0
0 0 0 0 0 0 0 0 0 0 0 0 0.393284091639983 0 0.217584373690293 0.536594784517353 0.163282994781158 0.146788772673946 0.292072619661761 0 -0.144734406098515 0 0 0 0 0 0 0 0 0 0 0 0 0 0 0 0 -1.51670891158981 0 0 0 0 0 0 0 0 -0.239483218341115 0 0 0
0 0 0 0 0 0 0 0 0 0 0 0 0 0 0 0 0 0 0 0 0 -0.144734406098515 0 0 0 -0.921484980180869 0 0 0 0 0 0 0 0 0 0 0 -1.37163505129267 0 0 0 0 -0.482670111245413 0 0 0 -0.701310176310336 -0.813324412789299 0 0
0 0 0 0 0 0 0 0 0 0 0 0 0 0 0 0 0 0 0 0 0 0 -0.144734406098515 0 0 -4.48285680550206 0 0 0 0 0 0 0 0 0 0 0 -0.808733778635174 0 0 0 0 -0.378084368777551 0 0 0 -0.508549093854091 -0.778704239950568 0 0
0 0 0 0 0 0 0 0 0 0 0 0.122795740485637 0.110525998233776 0 0 0 0 0 0 0 0 0 0 -0.144734406098515 0 -3.10466307579713 0 0 0 0 0 0 0 0 0 0 0 -1.15498022541715 0 0 0 0 0 0 0 0 -0.243049780032976 -0.688688121249463 0 0
0 0 0 0 0 0 0 0 0 0 0 0 0 0 0 0 0 0 0 0 0 0 0 0 -0.144734406098515 -2.56495471988864 0 0 0 0 0 0 0 0 0 0 0 -0.895282893092433 0 0 0 0 0 0 0 0 0 0 0 0
0 0 0 0 0 0 0 0 0 0 0 0 0 0 0 0 0 0 0 0 0 0.184385505319376 0.859427870062735 0.609402923520849 0.514680815619362 -0.144734406098515 0 0 0 0 0 0 0 0 0 0 0 -0.221743841760419 0 0 0 0 -1.09647093929112 0 0 0 0 0 0 0
0.0300840273002357 0.244968308330548 2.21977453905577 0.233554903580357 0.160064120583762 0.410337071445627 0 0 0 0 0 0 0 0 0 0 0 0 0 0 0 0 0 0 0 0 -0.144734406098515 0 0 0 0 0 0 0 0 0 0 0 0 0 0 0 0 0 0 0 0 0 0 0
0 0 0 0 0 0 0.178882202706704 0.116031421652272 0 0 0 0 0 0 0 0 0 0 0 0 0 0 0 0 0 0 0 -0.144734406098515 0 0 0 0 0 0 0 0 0 0 0 0 0 0 0 0 0 0 0 0 -0.303128768456366 0
0 0 0.457454202865867 0.355750043797374 0.162722128502808 0.22455140157002 0 0 0 0 0 0 0 0 0 0 0 0 0 0 0 0 0 0 0 0 0 0 -0.144734406098515 0 0 0 -1.39380614559417 0 0 0 0 0 0 0 0 0 0 0 0 0 0 -3.75499029689392 -0.389806584932288 0
0 0 0 0 0 0 0 0 0.0206159573961526 0.0446893256865916 0.345215300622247 0 0 0.033229013039018 0 0 0 0 0 0 0 0 0 0 0 0 0 0 0 -0.144734406098515 0 0 0 0 0 0 0 0 0 0 0 0 0 0 0 0 0 -0.202663306974945 0 0
0 0 0 0 0 0 0 0 0 0 0 0 0 0 0 0 0 0 0 0 0 0 0 0 0 0 0 0 0 0 -0.144734406098515 0 0 0 0 0 0 0 0 0 0 0 0 0 0 0 0 -0.999111623814606 -0.399046296980575 0
0 0 0 0 0 0 0 0 0 0 0 0 0 0 0 0 0 0 0 0 0 0 0 0 0 0 0 0 0 0 0 -0.144734406098515 0 0 0 0 0 0 0 0 0 0 0 0 0 0 0 -1.17061848218297 -1.86546520403172 0
0 0 0 0 0 0 0 0 0 0 0 0 0 0 0 0 0 0 0 0 0 0 0 0 0 0 0 0 0.287285905150097 0 0 0 -0.144734406098515 0 0 0 0 0 0 0 0 0 0 0 0 0 0 -0.540034049713675 -1.16538226284797 0
0 2.38322614142933 0.113848180614294 0.0422960678221575 1.10828849375821 0.289769626064314 0 0 0 0 0 0 0 0 0 0 0 0 0 0 0 0 0 0 0 0 0 0 0 0 0 0 0 -0.144734406098515 0 0 0 0 0 0 0 0 0 0 0 0 0 0 -0.256958003363016 0
0 0 0 0.0398304989283717 0 0.0653479834218058 0.935370409726905 0.117585910450602 0 0 0 0 0 0 0 0 0 0 0 0 0 0 0 0 0 0 0 0 0 0 0 0 0 0 -0.144734406098515 0 0 0 0 0 0 0 0 0 -3.87810510413834 0 0 0 0 0
0 0 0 0 0 0 0.0778018503752783 0.313315377455319 0 0 0 0 0 0 0 0 0 0 0 0 0 0 0 0 0 0 0 0 0 0 0 0 0 0 0 -0.144734406098515 0 0 0 -0.879005896098737 0 0 0 0 -0.271743530729867 0 0 0 -0.744400236093861 0
0 0 0 0 0 0 0 0 0 0 0 0.146086221124727 1.66860942550386 0.247274858192796 0 0 0 0 0 0 0 0 0 0 0 0 0 0 0 0 0 0 0 0 0 0 -0.144734406098515 0 0 0 0 -0.585315384682001 0 0 -0.121847188017602 0 0 0 0 0
0 0 0 0 0 0 0 0 0 0 0 0 0 0 0 0.274733212702118 0.575534188007088 0.0768137331120689 0.0798479802676803 1.75504715196919 0.342246736276415 0.286534231095551 0.174589552694693 0.246943910479595 0.169210878201191 0.0423326154108637 0 0 0 0 0 0 0 0 0 0 0 -0.144734406098515 0 0 -0.378998676639299 -1.39172625298518 0 0 -0.0638432422931862 0 0 0 0 0
0 0 0 0 0 0 0.106516885787376 0 0 0 0 0 0 0 0 0 0 0 0 0 0 0 0 0 0 0 0 0 0 0 0 0 0 0 0 0 0 0 -0.144734406098515 0 0 -0.718155004082056 0 0 -0.44326528509945 0 0 0 0 0
0 0 0 0 0 0 0 0 0 0 0 0 0 0 0 0 0 0 0 0 0 0 0 0 0 0 0 0 0 0 0 0 0 0 0 0.171826129774611 0 0 0 -0.144734406098515 0 -1.6993302405056 0 0 -1.47614608445702 0 0 0 0 0
0 0 0 0 0 0 0 0 0 0 0 0 0 0 0 0 0 0 0 0 0 0 0 0 0 0 0 0 0 0 0 0 0 0 0 0 0 0.0791472636189453 0 0 -0.144734406098515 -0.649147655920317 0 0 0 0 0 0 0 0
0 0 0 0 0 0 0 0 0 0 0 0 0 0 0 0 0 0 0 0 0 0 0 0 0 0 0 0 0 0 0 0 0 0 0 0 0.116022802155363 0.301716063964482 0.142732214721077 0.332589259111327 0.125047301678406 -0.144734406098515 0.0572288420186502 0 -0.652980881350805 0 0 0 0 0
0 0 0 0 0 0 0 0 0 0 0 0 0 0 0.222871637339945 2.37278043259433 0 0.877996873890524 0.110557231825081 0.120875731304492 0 0.102249700735293 0.0775551714853275 0 0 0.218935926769719 0 0 0 0 0 0 0 0 0 0 0 0 0 0 0 -0.290564576613423 -0.144734406098515 0 -0.82381947290637 0 0 0 0 0
0 0 0 0 0 0 0 0 0 0 0 0 0 0 0 0 0 0 0 0 0 0 0 0 0 0 0 0 0 0 0 0 0 0 0 0 0 0 0 0 0 0 0 -0.144734406098515 -1.5040336096564 0 0 0 0 0
0 0 0 0 0 0 0 0 0 0 0 0 0 0 0 0 0 0 0 0 0 0 0 0 0 0 0 0 0 0 0 0 0 0 0.794979512757299 0.054356346388164 0.0246773033065233 0.0122168420177935 0.0852515009882861 0.28677893140578 0 0.138904033585421 0.159601166211843 0.312033291854959 -0.144734406098515 0.756116708153275 0 0 0 0
0 0 0 0 0 0 0 0 0 0 0 0 0 0 0 0 0 0 0 0 0 0 0 0 0 0 0 0 0 0 0 0 0 0 0 0 0 0 0 0 0 0 0 0 -3.64533815625955 -0.144734406098515 0 0 0 0
0 0 0 0 0 0 0 0 0 0 0 0 0.146973653053609 0.551522799987777 0.333813483480621 0.193932893224057 0 0.715722910950062 0.107741909030259 0.171189317143176 0.0516724410014281 0.13776973938375 0.110660243950973 0.0466185132490921 0 0 0 0 0 0 0 0 0 0 0 0 0 0 0 0 0 0 0 0 0 0 -0.144734406098515 0 0 0
0 0 0 0 0 0 0 0 0 0 0 0.103960356070859 0.274539545399898 0.17059355931628 0 0.0981713999152751 0.0196808418747028 0.263114831907051 0.175983987972658 0.766912832478645 0 0.158042073104236 0.154439145619472 0.141781024752385 0 0 0 0 0.758839329612146 0.0389758537666585 0.188759673528981 0.224559122642781 0.11348242257156 0 0 0 0 0 0 0 0 0 0 0 0 0 0 -0.144734406098515 0 0
0 0 0 0 0 0 0 0 0 0 0 0 0 0 0 0 0 0 0 0 0 0 0 0 0 0 0 0.064129738388818 0.0763965917820347 0 0.0747976738996946 0.370885734286211 0.22748276681318 0.054397675221227 0 0.144329533301741 0 0 0 0 0 0 0 0 0 0 0 0 -0.144734406098515 0
0 0 0 0 0.135725643569854 0.169305379699185 0.3468085008057 0 0.892173431135141 0.113458663756515 0.0245322132003244 0.254936516505509 0.207014675371373 0.0807561687288386 0 0 0 0 0 0 0 0 0 0 0 0 0 0 0 0 0 0 0 0 0 0 0 0 0 0 0 0 0 0 0 0 0 0 0 -0.144734406098515
