0.663396836530602
1.57071465459292
0.698460861645989
0.934589365220094
3.39124402776453
2.24201398621211
0.415025418511291
0.824825440527273
0.842801166074246
0.15178801213201
0.717900162025666
0.882880041741237
0.506558398530413
2.97486783022893
0.216370232156888
0.364632143338037
0.516755266094017
0.890148868436143
4.46995305483936
0.953113745542495
0.676849528758105
0.373549653776992
4.66988897592192
0.761399293833578
0.505937133527651
0.291286846417655
1.02638498616032
0.573961525820455
0.760262836726103
1.42422347601114
2.6347561042513
0.423557492005566
0.817773211258115
0.407791989577146
4.42894654704339
1.18117992051272
0.231317739766057
0.398973880650506
0.583128746239134
5.31279350462765
3.74087310485136
1.13147646654949
0.493810137266772
2.08837814231128
0.861237359666397
1.04783978983134
0.322379907702318
0.391875511548844
0.626721489762596
0.727343315823876
