1.6374846927171
0.789384544503543
2.76708615988107
5.98550996026921
0.693234333977878
1.77592100902246
3.94440249675369
2.01337167078507
0.413871072371315
5.38894537736547
1.9998065843538
1.98430235072235
1.81185147352469
3.54769351310966
0.480629246306593
3.6131572443274
0.354827981197636
0.765923656887244
0.986449612280567
1.86720428076436
0.20604903655324
0.269328792215051
1.13507098976348
6.34066440774416
0.354586051890911
0.74818976956409
3.22713249440842
0.905439427722544
1.52084494581988
0.891123046036759
1.67046045632986
0.635770550070244
0.480725445532007
0.282289914483763
4.93514535877631
6.0932435329566
0.0700821153004742
0.585095055222015
1.11428636951349
0.698566946434178
1.77504995680021
1.32463510263913
1.5634617418991
2.16030328186996
4.03686077383514
0.623448766650827
3.48755336263611
0.683302224125057
1.28640466934637
1.47422992962503
