-0.23631187145116 0 0 0 0 0 0 0 0 0 0 0 0 -1.15251628406228 -0.763149333220744 0 0 0 0 0 -0.255508807602002 0 0 0 0 0 0 0 0 0 -0.274263689098617 0 -0.357786289280976 0 -1.26305534560377 -3.218096849516 0 -0.440240721941871 0 0 0 0 0 0 0 0 0 0 0 0
0 -0.23631187145116 -3.30664182242637 0 0 0 0 0 0 0 0 0 0 0 -2.53791344527287 0 0 0 0 0 -5.94474361245747 0 0 0 0 0 0 0 0 0 0 0 -1.72523298397146 0 -3.42070534500764 -0.158855970170784 0 0 0 0 0 0 0 0 0 0 0 0 0 0
0 0.664102158622615 -0.23631187145116 0.203871533318701 0 0 0 0 0 0 0 0 0 0 -1.23460966486519 0 0 -0.326254467721079 0 0 0 0 0 0 0 0 0 0 0 0 -1.357763485497 0 0 0 0 -0.22230318984579 0 -0.952989677171401 0 0 0 0 0 0 0 0 0 0 0 0
0 0 -1.08066759268196 -0.23631187145116 0 0 0 0 0 0 0 0 0 0 -0.226335755575877 0 0 -0.978221325095196 0 0 0 0 0 0 0 0 0 0 0 0 0 0 0 0 -1.15449858485203 0 0 -1.70393419635848 0 0 0 0 0 0 0 0 0 0 0 0
0 0 0 0 -0.23631187145116 0 0 0 -0.316241317925143 0 0 0 0 0 0 0 0 -0.76713877434166 0 0 0 0 0 0 0 0 0 0 0 0 -0.597249818031091 0 -1.12176342274631 0 -2.70667648451288 -0.255854449423327 0 -2.80856920965792 0 0 0 0 0 0 0 0 0 0 0 0
0 0 0 0 0 -0.23631187145116 0 0 -1.79828161023699 0 0 0 0 0 0 0 0 -0.380016788355971 0 0 -2.74132555724185 0 0 0 -2.03618972691007 0 0 0 0 0 -1.98161935140728 0 0 0 -1.81662363750682 -0.82563350017144 0 -7.38843017668885 0 0 0 0 0 0 0 0 0 0 0 0
0 0 0 0 0 0 -0.23631187145116 0 -4.00429141693244 0 0 0 0 0 0 0 0 -2.36086250336259 0 0 -2.3128080404904 0 0 0 -0.85177201099493 0 0 0 0 0 0 0 -1.10639109904314 0 -1.30154847846132 0 0 -0.363831284108507 0 0 0 0 0 0 0 0 0 0 0 0
0 0 0 0 0 0 0 -0.23631187145116 -0.920683743991311 0 0 0 0 0 0 0 0 0 0 0 -1.0950092593763 0 0 0 0 0 0 0 0 0 -0.336614740865849 0 -0.183024598530546 0 0 -0.323982047482453 0 0 0 0 0 0 0 -1.30053211237995 0 0 0 0 0 0
0 0 0 0 0.0650537659322098 0.326485553673942 0.800380160464359 0.205256322739603 -0.23631187145116 0 0 0 0 0 0 0 0 0 0 0 -1.11423412375146 0 0 0 -2.54488360734934 0 0 0 0 0 0 0 0 0 0 0 -0.437535187004813 0 0 0 0 0 0 0 0 0 0 0 0 0
0 0 0 0 0 0 0 0 0 -0.23631187145116 0 0 0 0 0 0 -1.16156154660956 0 0 0 0 0 -0.188196859265854 0 -1.52109990344892 0 0 0 0 0 0 0 -0.665977330041816 0 0 0 0 0 0 0 0 0 0 0 0 0 0 0 0 -0.486777840622352
0 0 0 0 0 0 0 0 0 0 -0.23631187145116 0 0 0 0 0 -2.92708981415104 0 0 0 0 0 -0.994206228112468 0 -3.82678540642011 0 0 0 0 0 0 0 -0.820095913774709 0 0 0 -0.0930374605712916 0 0 0 0 0 0 0 0 0 -0.333452096561999 0 0 0
0 0 0 0 0 0 0 0 0 0 0 -0.23631187145116 0 0 0 0 -1.4286610008822 0 0 0 0 0 0 0 0 0 0 0 0 0 0 0 -2.82197081558214 0 0 0 0 0 0 0 0 0 0 0 0 0 -0.162379793094909 0 0 0
0 0 0 0 0 0 0 0 0 0 0 0 -0.23631187145116 0 0 0 0 0 0 0 0 0 0 0 0 0 0 0 0 0 0 0 0 0 0 0 0 0 0 0 0 0 0 0 0 0 0 0 0 -7.22554167175989
0.219778457628022 0 0 0 0 0 0 0 0 0 0 0 0 -0.23631187145116 0 0 -4.69569598356179 0 0 0 0 0 0 0 0 0 0 0 0 0 0 0 0 0 0 0 0 0 0 0 0 0 0 0 0 0 0 0 0 0
0.156084311015762 0.481200623918995 0.238531951075793 0.0446919260766335 0 0 0 0 0 0 0 0 0 0 -0.23631187145116 0 0 0 -2.5039393143951 0 0 0 0 0 0 0 -2.5535365415891 0 0 0 0 0 0 0 0 0 0 0 0 0 0 0 0 0 0 0 0 0 0 0
0 0 0 0 0 0 0 0 0 0 0 0 0 0 0 -0.23631187145116 0 0 0 0 0 0 0 0 0 0 -0.320327616773043 0 0 0 0 0 0 0 0 0 0 0 0 0 0 0 0 0 0 0 0 0 0 -2.21970128911692
0 0 0 0 0 0 0 0 0 0.216645529811725 0.604728668578066 0.293534033756856 0 0.932153581966053 0 0 -0.23631187145116 0 0 0 0 0 0 0 0 0 0 0 -0.706195069854398 0 0 0 0 0 0 0 0 0 0 0 0 0 0 0 0 0 0 0 0 -3.33324380761145
0 0 0.0644084495477276 0.175504218620882 0.152885962631327 0.0752145103970633 0.455702432456932 0 0 0 0 0 0 0 0 0 0 -0.23631187145116 0 0 0 -3.022366880603 0 0 0 0 0 0 0 -0.764789553283392 0 0 0 0 0 0 0 0 0 0 0 0 0 0 0 0 0 0 0 -0.187101491529101
0 0 0 0 0 0 0 0 0 0 0 0 0 0 0.477890518521699 0 0 0 -0.23631187145116 -2.01936970674491 0 0 0 0 0 0 0 0 0 -0.188910693918684 0 0 0 0 0 0 0 0 0 -1.06418199386813 0 0 0 0 0 0 0 -1.53846676527977 0 -0.964627821103785
0 0 0 0 0 0 0 0 0 0 0 0 0 0 0 0 0 0 0.400934141250418 -0.23631187145116 0 0 0 0 0 0 0 0 -0.830717911011147 0 0 0 0 0 0 0 0 0 0 -0.18067333864489 0 0 0 0 0 0 0 0 0 -0.410724570381065
0.0468392426506454 1.28921364628968 0 0 0 0.55734096368374 0.445371785922849 0.229689319180808 0.21297986614096 0 0 0 0 0 0 0 0 0 0 0 -0.23631187145116 0 0 0 0 0 0 -1.52062665057808 -0.981459752458803 0 0 0 0 0 0 0 0 0 -1.89063749495652 -11.9435354344078 0 0 0 0 0 0 0 0 0 -3.41632995072265
0 0 0 0 0 0 0 0 0 0 0 0 0 0 0 0 0 0.623647473624394 0 0 0 -0.23631187145116 0 0 0 0 0 0 0 0 0 0 0 0 0 0 0 0 -2.1167135778568 0 0 0 0 0 0 0 0 -0.856705163293634 0 -3.08891099178365
0 0 0 0 0 0 0 0 0 0.036236170986069 0.214390497333743 0 0 0 0 0 0 0 0 0 0 0 -0.23631187145116 0 0 0 0 -1.25164313941468 -1.2125737948905 0 0 0 0 0 0 0 0 0 -0.532203061266613 0 0 0 0 0 0 0 0 -0.261062228117379 0 0
0 0 0 0 0 0 0 0 0 0 0 0 0 0 0 0 0 0 0 0 0 0 0 -0.23631187145116 0 0 0 0 0 0 0 0 0 -0.341546811379483 0 0 0 0 0 0 0 0 0 0 0 0 0 0 0 0
0 0 0 0 0 0.387573529748264 0.173648477482829 0 0.483367465487834 0.313977556495515 0.743855893175856 0 0 0 0 0 0 0 0 0 0 0 0 0 -0.23631187145116 -0.408670180120055 0 0 0 0 0 0 0 -5.25737763660399 0 0 0 0 0 0 0 0 0 0 0 0 0 0 0 0
0 0 0 0 0 0 0 0 0 0 0 0 0 0 0 0 0 0 0 0 0 0 0 0 0.0800361300977352 -0.23631187145116 0.327007492989028 0.143607467540152 0 0 0 0 0 -4.39435552541109 0 0 0 0 0 0 0 -2.18421644095666 0 0 0 0 0 0 0 0
0 0 0 0 0 0 0 0 0 0 0 0 0 0 0.49818783178179 0.0630769667024545 0 0 0 0 0 0 0 0 0 -1.60205379743891 -0.23631187145116 0 0 0 0 0 0 0 0 0 0 0 0 0 0 0 0 0 0 0 0 0 0 0
0 0 0 0 0 0 0 0 0 0 0 0 0 0 0 0 0 0 0 0 0.306419803481064 0 0.258461706345665 0 0 -0.691689525165634 0 -0.23631187145116 0 0 0 0 0 0 0 0 0 0 0 0 -0.390251057074175 -1.71511765139766 -0.404276320269221 0 0 0 0 0 0 0
0 0 0 0 0 0 0 0 0 0 0 0 0 0 0 0 0.140065688404616 0 0 0.168081371436758 0.196120651366904 0 0.253648466376021 0 0 0 0 0 -0.23631187145116 0 0 0 0 0 0 0 0 0 0 0 -0.891223895948655 -4.57171376909485 -2.05947063670728 0 0 0 0 0 0 0
0 0 0 0 0 0 0 0 0 0 0 0 0 0 0 0 0 0.142787755435948 0.0345766694334943 0 0 0 0 0 0 0 0 0 0 -0.23631187145116 0 0 0 0 0 0 0 0 0 0 -0.472733836433512 -3.8859140524744 0 0 0 0 0 0 0 0
0.0570111333821572 0 0.257646521388948 0 0.114182448160771 0.434244091256689 0 0.059061792877367 0 0 0 0 0 0 0 0 0 0 0 0 0 0 0 0 0 0 0 0 0 0 -0.23631187145116 0 0 0 0 0 0 0 0 0 -1.602804317327 -1.17540133602898 -0.544560581662525 0 0 0 0 0 0 0
0 0 0 0 0 0 0 0 0 0 0 0 0 0 0 0 0 0 0 0 0 0 0 0 0 0 0 0 0 0 0 -0.23631187145116 0 0 0 0 0 0 0 0 -1.85946870972779 -0.988482657348437 -0.417851446262935 0 0 0 0 0 0 0
0.0680311355857383 0.343238064663586 0 0 0.221112620848609 0 0.216705132932895 0.0358831091560872 0 0.136169968788269 0.161890891977122 0.558332373524506 0 0 0 0 0 0 0 0 0 0 0 0 0 0 0 0 0 0 0 0 -0.23631187145116 0 0 0 0 0 0 0 0 0 -0.536418063402077 0 0 0 0 0 0 0
0 0 0 0 0 0 0 0 0 0 0 0 0 0 0 0 0 0 0 0 0 0 0 0.0736684667932834 1.13397961712201 0.899888025438264 0 0 0 0 0 0 0 -0.23631187145116 0 0 0 0 0 0 0 0 -4.1012547751572 0 0 0 0 0 0 0
0.282101201425118 0.736035786808526 0 0.239301422583157 0.518462755494758 0.378872229695204 0.270976390913809 0 0 0 0 0 0 0 0 0 0 0 0 0 0 0 0 0 0 0 0 0 0 0 0 0 0 0 -0.23631187145116 0 0 0 0 0 -6.04664836615101 -0.905241312037396 0 0 0 0 0 0 0 0
0.657734303664194 0.0325961883452146 0.0405673501939391 0 0.048905922507084 0.168869722538546 0 0.0668514432125075 0 0 0 0 0 0 0 0 0 0 0 0 0 0 0 0 0 0 0 0 0 0 0 0 0 0 0 -0.23631187145116 0 0 0 0 -2.18233954089929 0 0 0 -0.447340350921939 0 0 0 0 0
0 0 0 0 0 0 0 0 0.0933318404940094 0 0.0192308375213325 0 0 0 0 0 0 0 0 0 0 0 0 0 0 0 0 0 0 0 0 0 0 0 0 0 -0.23631187145116 0 0 0 -0.737368169162218 0 0 0 -0.398520518720933 0 0 0 0 0
0.0858481518715755 0 0.195924807536608 0.319643934031771 0.524174418833131 1.5919929676982 0.0761755766886867 0 0 0 0 0 0 0 0 0 0 0 0 0 0 0 0 0 0 0 0 0 0 0 0 0 0 0 0 0 0 -0.23631187145116 0 0 -0.628891813310347 0 0 0 0 0 0 0 0 0
0 0 0 0 0 0 0 0 0 0 0 0 0 0 0 0 0 0 0 0 0.398793077959829 0.3788642716949 0.102643393242497 0 0 0 0 0 0 0 0 0 0 0 0 0 0 0 -0.23631187145116 0 0 0 0 0 0 0 0 0 0 0
0 0 0 0 0 0 0 0 0 0 0 0 0 0 0 0 0 0 0.22845604653484 0.0341974546450143 2.19900973380735 0 0 0 0 0 0 0 0 0 0 0 0 0 0 0 0 0 0 -0.23631187145116 -0.449618216711829 0 0 0 0 0 0 0 0 0
0 0 0 0 0 0 0 0 0 0 0 0 0 0 0 0 0 0 0 0 0 0 0 0 0 0 0 0.0851579796832226 0.171892640784232 0.0981996324596564 0.329558923567616 0.357608092588536 0 0 1.23144596314155 0.453054218498562 0.149098710649555 0.119210857256933 0 0.0858446562324766 -0.23631187145116 0 0 0 0.0339464343975964 0.0478556060890073 0.132130565834278 0.307237249701968 0.246688795191558 0.240723189356874
0 0 0 0 0 0 0 0 0 0 0 0 0 0 0 0 0 0 0 0 0 0 0 0 0 0.420576324849185 0 0.344620705160721 0.980647281668516 0.846521139304081 0.222039221637194 0.193816862501101 0 0 0.182138798896915 0 0 0 0 0 0 -0.23631187145116 0 0 0 0 0 0 0 0
0 0 0 0 0 0 0 0 0 0 0 0 0 0 0 0 0 0 0 0 0 0 0 0 0 0 0 0.0798734792987817 0.409027925860462 0 0.0976293871537422 0.0779881018872061 0.0996159576549559 0.768527064096836 0 0 0 0 0 0 0 0 -0.23631187145116 0 0 0 0 0 0 0
0 0 0 0 0 0 0 0.254978115498639 0 0 0 0 0 0 0 0 0 0 0 0 0 0 0 0 0 0 0 0 0 0 0 0 0 0 0 0 0 0 0 0 0 0 0 -0.23631187145116 0 0 0 0 0 0
0 0 0 0 0 0 0 0 0 0 0 0 0 0 0 0 0 0 0 0 0 0 0 0 0 0 0 0 0 0 0 0 0 0 0 0.0891001296158934 0.0869327697733423 0 0 0 -0.168023177184878 0 0 0 -0.23631187145116 0 0 0 0 0
0 0 0 0 0 0 0 0 0 0 0 0 0 0 0 0 0 0 0 0 0 0 0 0 0 0 0 0 0 0 0 0 0 0 0 0 0 0 0 0 -0.232547996803339 0 0 0 0 -0.23631187145116 0 0 0 0
0 0 0 0 0 0 0 0 0 0 0.0656963209516713 0.0315699704105947 0 0 0 0 0 0 0 0 0 0 0 0 0 0 0 0 0 0 0 0 0 0 0 0 0 0 0 0 -0.617171289064141 0 0 0 0 0 -0.23631187145116 0 0 0
0 0 0 0 0 0 0 0 0 0 0 0 0 0 0 0 0 0 0.306395742886535 0 0 0.175067948684784 0.0525305744043351 0 0 0 0 0 0 0 0 0 0 0 0 0 0 0 0 0 -1.47511240487018 0 0 0 0 0 0 -0.23631187145116 0 0
0 0 0 0 0 0 0 0 0 0 0 0 0 0 0 0 0 0 0 0 0 0 0 0 0 0 0 0 0 0 0 0 0 0 0 0 0 0 0 0 -1.21755126728959 0 0 0 0 0 0 0 -0.23631187145116 0
0 0 0 0 0 0 0 0 0 0.0996264619567865 0 0 1.46102868779014 0 0 0.430692717134525 0.724622231261769 0.0377809619489159 0.185388631443197 0.0792353402454564 0.589219319066033 0.638746528366028 0 0 0 0 0 0 0 0 0 0 0 0 0 0 0 0 0 0 -1.19975887472453 0 0 0 0 0 0 0 0 -0.23631187145116
