0.338306754666031
5.9530569412961
4.07455405233315
0.294338879100073
9.08122636799824
0.145156695505511
1.47086682560401
1.21161487834879
1.32690468070948
1.32283367856626
2.05874182901402
0.34840884061883
3.20636115676
0.298962816841807
0.53254148917158
0.39364018170611
0.694034275084138
1.00643302570922
2.32231623550295
0.81845133201721
2.8683526325881
0.768625486904451
3.78413938089198
0.127979841274974
0.226008725937173
0.194131055042207
0.55327613713124
1.93796550932402
1.18806794983893
3.89549440108297
0.632771066413652
0.160168034955203
0.354487950818662
1.31296083381172
1.69339737185692
0.52660990664403
0.225476465358431
0.969104907220874
1.9577449616262
0.169153145343073
0.582897786121587
5.26460056676518
0.179021025926248
5.03516711512491
3.35322065698221
2.14755900967801
0.715999283357915
0.42464434748434
0.40298172577809
0.524300285782244
