-0.211010576570044 -0.677682502487456 0 0 0 0 0 0 0 0 0 0 0 0 0 0 0 0 0 0 0 0 0 0 0 0 0 0 0 0 0 0 0 0 0 0 0 0 0 0 0 0 0 0 0 0 0 0 0 0
0.130106677166545 -0.211010576570044 0 0 -1.82882000648589 0 0 0 0 0 0 0 0 0 0 -2.64618512966281 0 0 0 0 0 0 0 0 0 0 0 0 0 0 0 0 0 0 0 0 0 0 0 0 0 0 0 0 0 0 0 0 0 -1.01871881730531
0 0 -0.211010576570044 -4.16190931886804 -0.992869016391442 0 0 0 0 0 0 0 0 0 0 0 0 0 0 0 -0.327452045380683 0 0 0 0 -0.611314415280454 0 0 0 0 0 0 0 0 -0.61170616096249 0 0 0 0 0 0 0 0 0 0 0 0 0 0 -2.13165998397418
0 0 0.889613040358837 -0.211010576570044 -6.25760535324549 0 0 0 0 0 -1.23044567046724 0 0 0 0 -0.383362665066662 0 0 0 0 0 0 0 0 0 -6.58421643764963 0 0 0 0 0 0 0 0 -0.804141274965914 0 0 0 0 0 0 0 0 0 0 0 0 0 0 -1.12895414339746
0 0.336651302181922 0.205198646759671 1.2171997524217 -0.211010576570044 0 0 0 0 0 -1.22710420904976 0 0 0 0 -0.875183198916007 0 0 0 0 0 0 0 0 0 -0.895841827157991 0 0 0 0 0 0 0 0 0 0 0 0 0 0 0 0 0 0 0 0 0 0 0 -1.35526901335866
0 0 0 0 0 -0.211010576570044 0 0 0 0 0 0 0 0 0 0 0 0 0 0 -2.14000040130983 0 0 0 0 0 0 0 0 0 0 0 0 0 -0.0910567566421806 0 0 0 0 0 0 0 0 0 0 0 0 0 0 -0.341015019087021
0 0 0 0 0 0 -0.211010576570044 0 0 0 0 0 0 0 0 0 0 0 0 0 0 0 0 0 0 -1.09527937236787 0 0 0 0 0 0 0 0 -2.54063332217169 0 0 0 0 0 0 0 0 0 0 0 0 0 0 0
0 0 0 0 0 0 0 -0.211010576570044 0 -1.01349610580916 0 0 0 0 0 0 0 0 0 0 0 0 0 0 -0.299524380213147 0 0 0 0 0 0 0 0 0 0 0 0 0 0 0 -0.716638003697756 0 0 0 0 0 0 0 0 0
0 0 0 0 0 0 0 0 -0.211010576570044 0 0 -2.75204039332946 -0.797852667366137 0 0 0 0 0 0 0 -0.825132736613406 0 0 0 -0.276029364994033 0 0 0 0 0 0 0 0 0 0 0 0 0 0 0 -0.897476560984933 0 0 0 0 0 0 0 0 0
0 0 0 0 0 0 0 0.200403553310113 0 -0.211010576570044 0 0 -1.09560142758855 0 0 0 0 0 0 0 0 0 0 0 -1.14821399621492 0 0 0 0 0 -0.262763534436549 0 0 0 0 0 0 0 0 0 -1.06658835996405 0 0 0 0 0 0 0 0 0
0 0 0 0.245673540349443 0.240979638704198 0 0 0 0 0 -0.211010576570044 0 0 0 -0.641413674898846 0 0 0 0 0 0 -0.312056274992365 0 0 -0.334391553259557 0 0 0 0 0 -0.771343905143653 0 0 0 0 0 0 0 0 -1.4860353444356 0 0 0 0 0 0 0 0 0 0
0 0 0 0 0 0 0 0 0.509541323763414 0 0 -0.211010576570044 0 -2.09187624698922 0 0 0 0 -0.275491763303388 0 0 -0.427930602160123 0 0 -0.653282546068721 0 0 0 0 0 -5.54453789010486 0 0 0 0 0 0 0 0 0 0 0 0 0 0 0 0 0 0 0
0 0 0 0 0 0 0 0 0.161801607401205 0.219387211413025 0 0 -0.211010576570044 -0.253817266737906 0 0 0 0 -0.773557106391644 0 0 0 0 0 0 0 0 0 0 0 -0.989123079504486 0 0 0 0 0 0 0 0 -0.512171063064811 -1.69302088932925 0 0 0 0 0 0 0 -3.47767876630227 0
0 0 0 0 0 0 0 0 0 0 0 0.419068474859285 0.046171807239697 -0.211010576570044 0 0 -1.21339146553284 0 -0.269952846741515 0 0 -1.12216415479158 0 0 -0.426612091161049 0 0 0 0 0 -0.917524668880331 0 0 0 0 0 0 0 0 -0.407460980521022 -0.445500042435139 0 0 0 0 0 0 0 -3.70868698015555 0
0 0 0 0 0 0 0 0 0 0 0.126138061622631 0 0 0 -0.211010576570044 0 0 0 0 0 0 0 0 0 -1.45437248301314 0 0 0 0 -4.99427705977221 0 0 0 0 0 0 -0.181877542736112 0 0 0 0 0 0 0 0 0 0 0 -0.194339849539582 0
0 0.573611926668582 0 0.0771110952150812 0.170307859421793 0 0 0 0 0 0 0 0 0 0 -0.211010576570044 0 0 0 -1.07566657132325 0 0 0 0 -0.70439061615653 0 0 0 0 -0.163287700830179 0 0 0 0 0 0 -0.357946836647069 0 0 0 0 0 0 0 0 0 0 0 -2.17625073906356 0
0 0 0 0 0 0 0 0 0 0 0 0 0 0.245212667395545 0 0 -0.211010576570044 0 0 0 0 0 0 0 -1.13141437515242 0 0 0 0 -0.38403109604655 0 0 0 0 0 0 0 0 0 0 0 0 0 0 -9.27102831305371 0 0 0 -0.655462572357012 0
0 0 0 0 0 0 0 0 0 0 0 0 0 0 0 0 0 -0.211010576570044 0 0 0 0 0 0 -1.61959361872232 0 0 0 0 -3.30010674918529 0 0 0 0 0 0 0 0 0 0 0 0 0 0 -0.252647965835477 0 -0.910334144586775 0 -2.16643699443494 0
0 0 0 0 0 0 0 0 0 0 0 0.0577045424495609 0.155223468792288 0.0571189076524631 0 0 0 0 -0.211010576570044 0 0 0 0 0 -1.45452214369523 0 0 0 0 0 0 0 0 0 0 0 0 0 0 0 0 0 0 0 -2.00689232758729 0 -0.425373515598385 0 -4.40693328930265 0
0 0 0 0 0 0 0 0 0 0 0 0 0 0 0 0.207869678910587 0 0 0 -0.211010576570044 0 0 0 -7.47351431764602 -0.136256233179913 0 0 0 0 -2.62796114269264 0 0 0 0 0 0 0 0 0 0 0 0 0 0 -0.521483072374103 0 0 0 0 0
0 0 0.0676223534384852 0 0 0.428473352525311 0 0 0.162267449391652 0 0 0 0 0 0 0 0 0 0 0 -0.211010576570044 0 0 -0.404667171574548 0 0 0 0 0 -0.206968593672093 0 0 0 0 0 0 0 0 0 0 0 0 0 0 -1.27679458361618 0 -0.234114811240644 0 0 0
0 0 0 0 0 0 0 0 0 0 0.0640214703465592 0.08932992179304 0 0.221325435088142 0 0 0 0 0 0 0 -0.211010576570044 0 -0.512366604469653 0 0 0 0 0 0 0 0 0 0 0 0 0 0 0 0 0 0 0 0 -0.625830038340207 0 -0.495789975754337 0 0 0
0 0 0 0 0 0 0 0 0 0 0 0 0 0 0 0 0 0 0 0 0 0 -0.211010576570044 0 -0.883739483622474 0 0 0 0 0 0 0 0 0 0 0 0 0 0 0 0 0 0 0 -0.381230391035939 0 0 0 0 0
0 0 0 0 0 0 0 0 0 0 0 0 0 0 0 0 0 0 0 1.48647918754688 0.0782131923376269 0.0963737615883175 0 -0.211010576570044 0 0 0 0 0 0 0 0 0 0 0 0 0 0 0 0 0 -0.169616804283138 0 0 0 0 0 0 0 0
0 0 0 0 0 0 0 0.0537152321043781 0.054256412782958 0.237366634550573 0.061221408000872 0.125378619216311 0 0.0883861217717251 0.311325284581318 0.147891829696206 0.229343405601209 0.332429906992681 0.309597026849542 0.0252052403979415 0 0 0.161877273879516 0 -0.211010576570044 0 0 0 0 0 0 -0.518214333336456 0 0 0 0 0 0 0 0 0 0 0 0 -1.16791124731887 -3.44973646411984 0 0 0 0
0 0 0.122294246740814 1.27782412620522 0.176326653370685 0 0.227227606257289 0 0 0 0 0 0 0 0 0 0 0 0 0 0 0 0 0 0 -0.211010576570044 0 0 0 0 0 0 0 0 0 0 0 0 0 0 0 0 0 0 -1.01724464397388 0 0 0 0 0
0 0 0 0 0 0 0 0 0 0 0 0 0 0 0 0 0 0 0 0 0 0 0 0 0 0 -0.211010576570044 0 0 0 0 0 0 0 0 0 0 0 0 0 0 0 -0.872424619289736 0 -2.01152562285838 -2.30906796047424 0 0 0 0
0 0 0 0 0 0 0 0 0 0 0 0 0 0 0 0 0 0 0 0 0 0 0 0 0 0 0 -0.211010576570044 0 0 0 0 0 0 0 0 0 0 0 0 0 0 0 0 -0.92076930150624 -0.774465353995088 0 0 0 0
0 0 0 0 0 0 0 0 0 0 0 0 0 0 0 0 0 0 0 0 0 0 0 0 0 0 0 0 -0.211010576570044 0 0 0 0 0 0 -0.934364816360051 0 0 0 0 0 0 0 0 0 -3.83305647334228 0 0 0 0
0 0 0 0 0 0 0 0 0 0 0 0 0 0 0.985107542820169 0.030558321656417 0.0749981354943036 0.63977075071219 0 0.511577695057365 0.0387934628025446 0 0 0 0 0 0 0 0 -0.211010576570044 0 0 0 0 0 -1.45042887643263 0 0 0 0 0 0 0 0 0 -0.877840053203053 0 0 0 0
0 0 0 0 0 0 0 0 0 0.0495197569918949 0.146018284981637 1.12654514482889 0.181955179435952 0.183979780672162 0 0 0 0 0 0 0 0 0 0 0 0 0 0 0 0 -0.211010576570044 0 0 0 0 -0.647192447175531 0 0 0 0 0 0 0 0 0 -1.07168737796268 0 0 0 0
0 0 0 0 0 0 0 0 0 0 0 0 0 0 0 0 0 0 0 0 0 0 0 0 0.0972596538035326 0 0 0 0 0 0 -0.211010576570044 0 0 0 -0.522827825566049 0 0 0 0 0 0 0 0 0 0 0 0 0 0
0 0 0 0 0 0 0 0 0 0 0 0 0 0 0 0 0 0 0 0 0 0 0 0 0 0 0 0 0 0 0 0 -0.211010576570044 0 0 -1.60357364995896 0 0 0 0 0 0 0 0 0 -0.584738199074098 0 0 0 0
0 0 0 0 0 0 0 0 0 0 0 0 0 0 0 0 0 0 0 0 0 0 0 0 0 0 0 0 0 0 0 0 0 -0.211010576570044 0 0 0 0 0 0 0 0 0 0 0 -0.151979042583521 0 0 0 0
0 0 0.119772220570153 0.161713209567631 0 0.0182555544303478 0.547016263573895 0 0 0 0 0 0 0 0 0 0 0 0 0 0 0 0 0 0 0 0 0 0 0 0 0 0 0 -0.211010576570044 0 0 0 0 0 0 0 0 0 0 -0.398238917632172 0 -0.195205980199406 0 0
0 0 0 0 0 0 0 0 0 0 0 0 0 0 0 0 0 0 0 0 0 0 0 0 0 0 0 0 0.193479192554684 0.295859000291018 0.145193639202198 0.104078964335575 0.305425413956109 0 0 -0.211010576570044 0 0 0 0 0 0 0 0 0 0 0 0 0 0
0 0 0 0 0 0 0 0 0 0 0 0 0 0 0.0370052875158752 0.0709807676817275 0 0 0 0 0 0 0 0 0 0 0 0 0 0 0 0 0 0 0 0 -0.211010576570044 0 0 0 0 0 0 0 0 0 0 0 0 0
0 0 0 0 0 0 0 0 0 0 0 0 0 0 0 0 0 0 0 0 0 0 0 0 0 0 0 0 0 0 0 0 0 0 0 0 0 -0.211010576570044 0 0 0 0 0 0 0 0 0 -0.934086344391603 0 0
0 0 0 0 0 0 0 0 0 0 0 0 0 0 0 0 0 0 0 0 0 0 0 0 0 0 0 0 0 0 0 0 0 0 0 0 0 0 -0.211010576570044 0 0 0 0 0 0 0 0 -5.34260603015109 0 0
0 0 0 0 0 0 0 0 0 0 0.288801223145736 0 0.102588701169064 0.0817260651596821 0 0 0 0 0 0 0 0 0 0 0 0 0 0 0 0 0 0 0 0 0 0 0 0 0 -0.211010576570044 0 0 0 0 0 0 0 -0.97737401310452 0 0
0 0 0 0 0 0 0 0.142839790979342 0.176371532064667 0.224007401120432 0 0 0.330712951184225 0.0819261135149516 0 0 0 0 0 0 0 0 0 0 0 0 0 0 0 0 0 0 0 0 0 0 0 0 0 0 -0.211010576570044 0 0 -1.36763906874639 0 0 0 0 0 0
0 0 0 0 0 0 0 0 0 0 0 0 0 0 0 0 0 0 0 0 0 0 0 0.0298283636044521 0 0 0 0 0 0 0 0 0 0 0 0 0 0 0 0 0 -0.211010576570044 0 -0.601466332739426 0 0 0 -0.293851545788082 0 0
0 0 0 0 0 0 0 0 0 0 0 0 0 0 0 0 0 0 0 0 0 0 0 0 0 0 0.163351390329453 0 0 0 0 0 0 0 0 0 0 0 0 0 0 0 -0.211010576570044 -0.392518387896557 0 0 0 0 0 0
0 0 0 0 0 0 0 0 0 0 0 0 0 0 0 0 0 0 0 0 0 0 0 0 0 0 0 0 0 0 0 0 0 0 0 0 0 0 0 0 0.267789849955615 0.117216258117311 0.0761071646605382 -0.211010576570044 0 0 0 -0.477564618470543 0 0
0 0 0 0 0 0 0 0 0 0 0 0 0 0 0 0 1.84169126085197 0.0493635421168939 0.369397264048171 0.108978364133886 0.245195456786544 0.124795470192714 0.0756600296730599 0 0.238782912421207 0.213817082356753 0.374996370564714 0.177208314661657 0 0 0 0 0 0 0 0 0 0 0 0 0 0 0 0 -0.211010576570044 0 0 -1.19948551109976 0 0
0 0 0 0 0 0 0 0 0 0 0 0 0 0 0 0 0 0 0 0 0 0 0 0 0.703874006905283 0 0.499227959757286 0.155025639382958 0.819710586374539 0.164727988532721 0.232697200170848 0 0.115429707003079 0.0316408646912121 0.0787426228759695 0 0 0 0 0 0 0 0 0 0 -0.211010576570044 0 0 0 0
0 0 0 0 0 0 0 0 0 0 0 0 0 0 0 0 0 0.176406279533478 0.0849241775480508 0 0.0437716713604536 0.0926337196462153 0 0 0 0 0 0 0 0 0 0 0 0 0 0 0 0 0 0 0 0 0 0 0 0 -0.211010576570044 -2.26083860200711 0 0
0 0 0 0 0 0 0 0 0 0 0 0 0 0 0 0 0 0 0 0 0 0 0 0 0 0 0 0 0 0 0 0 0 0 0.0384509078273493 0 0 0.194702182663073 1.25353504503875 0.191434467200613 0 0.0572938615475971 0 0.0928831289141597 0.250423949020903 0 0.449754712382985 -0.211010576570044 0 0
0 0 0 0 0 0 0 0 0 0 0 0 0.666651483449776 0.744122169737465 0.0377435475524895 0.429895970516757 0.138706451506905 0.457624242705344 0.885464375653638 0 0 0 0 0 0 0 0 0 0 0 0 0 0 0 0 0 0 0 0 0 0 0 0 0 0 0 0 0 -0.211010576570044 0
0 0.217511734981879 0.407919502560602 0.218373248125406 0.28830094342333 0.0635553385180486 0 0 0 0 0 0 0 0 0 0 0 0 0 0 0 0 0 0 0 0 0 0 0 0 0 0 0 0 0 0 0 0 0 0 0 0 0 0 0 0 0 0 0 -0.211010576570044
