-0.164401833913327 0 0 0 0 0 0 0 0 0 0 -0.207366519876903 0 0 -3.09352788907373 0 0 0 0 0 0 0 0 0 0 0 0 0 0 0 0 0 0 0 0 0 0 0 0 0 0 0 0 0 0 -0.573051388383975 0 0 0 0
0 -0.164401833913327 0 0 -0.551088153941628 0 0 0 0 0 0 0 0 0 -1.17249994481658 0 0 0 0 0 0 0 0 0 0 0 0 0 0 0 0 0 0 0 0 0 0 -0.365476230545559 0 0 0 0 0 0 -0.286666066464858 -1.5166322244535 0 0 -0.97957174021619 0
0 0 -0.164401833913327 0 -0.352434140464703 0 0 0 -0.308049821382935 0 0 0 0 0 -0.174825646833553 0 0 0 0 0 0 0 0 0 0 0 0 0 0 0 0 0 0 0 0 0 0 0 0 0 0 0 0 0 -0.349996079980268 -0.459409036878625 0 0 -1.99960068447155 0
0 0 0 -0.164401833913327 0 0 -0.149521866922582 0 -5.88690731185305 0 0 0 0 0 -0.318836317114601 0 0 0 0 0 0 0 0 0 0 0 0 0 0 0 0 0 0 0 0 0 0 0 0 0 0 0 0 0 0 0 0 0 -3.36592450076885 0
0 0.105115648052544 0.0742851551255996 0 -0.164401833913327 0 0 0 0 0 0 0 0 -0.448641666497203 0 0 0 0 0 0 0 0 0 0 0 0 0 -0.255460811384972 0 0 0 0 0 0 0 0 0 0 0 0 0 -1.08048599519114 0 0 -0.339056819660707 0 0 0 0 0
0 0 0 0 0 -0.164401833913327 0 0 0 0 0 0 0 -1.17120207300135 0 -0.985071740679649 0 0 0 0 0 0 0 0 0 0 0 -1.77478369479463 0 0 0 0 0 0 0 0 0 0 0 0 0 -0.240314738437322 0 0 -0.30486505117256 0 0 0 0 0
0 0 0 0.0302180858988064 0 0 -0.164401833913327 0 0 0 0 0 0 0 0 -1.80198996040625 0 0 0 0 0 0 0 0 0 0 0 -1.32165872157577 0 -1.0572614760143 0 0 0 0 0 0 0 0 0 0 -1.51073764576186 -0.094323781956251 0 0 -2.90623974517355 0 0 0 0 0
0 0 0 0 0 0 0 -0.164401833913327 0 0 0 0 0 0 0 0 0 0 0 0 -3.73151725257848 0 0 0 0 0 0 0 0 0 0 0 0 0 0 0 0 0 0 0 0 -0.99350427888368 0 0 -2.51452922178326 0 0 0 0 0
0 0 0.0568459170923627 1.0625222356979 0 0 0 0 -0.164401833913327 0 -0.990818251751991 0 0 0 0 0 0 -0.498271777208823 0 0 -1.07274872892621 0 0 0 0 0 0 -0.612050230867833 0 0 0 -4.37590007908772 0 0 0 0 0 0 0 0 -1.06540298711605 0 0 0 -1.47144539524391 0 0 0 0 0
0 0 0 0 0 0 0 0 0 -0.164401833913327 -1.4427850646709 0 0 0 0 0 0 -1.67293505257381 0 0 -0.466331714995353 0 0 0 0 0 0 -0.489271051241405 0 0 0 -0.363146142364934 0 0 0 0 0 0 0 0 -2.22138365777802 -0.753583422483206 0 0 0 0 0 0 0 0
0 0 0 0 0 0 0 0 0.196882396245744 0.279493837151578 -0.164401833913327 0 0 0 0 0 0 0 0 0 0 0 0 0 0 0 0 0 0 0 0 0 0 0 0 0 0 0 0 0 0 0 0 0 -4.05316046915729 0 0 0 0 0
0.0420575724472115 0 0 0 0 0 0 0 0 0 0 -0.164401833913327 0 0 0 0 0 0 0 0 0 0 0 0 0 0 0 0 0 0 0 0 0 0 0 0 0 0 0 0 -0.350740298348862 0 0 0 -7.75668085976697 0 0 0 0 0
0 0 0 0 0 0 0 0 0 0 0 0 -0.164401833913327 0 0 0 0 0 0 0 0 0 0 0 0 0 -0.572710141256406 0 -0.557160516776197 0 0 0 0 0 0 0 0 0 0 -1.43011795577282 0 0 0 0 0 0 0 0 0 0
0 0 0 0 0.0849943945005959 0.247381128086906 0 0 0 0 0 0 0 -0.164401833913327 0 0 -0.675820752969121 0 0 0 0 0 0 0 0 0 -0.966584161848401 0 0 0 0 0 0 -1.29520226200084 0 0 0 0 0 -3.42920400185372 0 0 0 0 0 0 0 0 0 0
0.585897584282307 0.226514988506846 0.0334375485251174 0.0640295997290778 0 0 0 0 0 0 0 0 0 0 -0.164401833913327 0 0 0 0 0 0 0 0 0 0 0 0 0 0 0 0 0 -0.502528857011728 0 0 0 0 0 0 -2.43203973479742 0 0 0 0 0 0 0 0 0 0
0 0 0 0 0 0.200584684193199 0.337873263691434 0 0 0 0 0 0 0 0 -0.164401833913327 0 0 0 0 0 0 0 0 0 0 0 0 0 0 0 0 -1.41565218534737 0 -0.614607740642071 0 0 0 0 -0.599121603973407 0 0 0 0 0 0 0 0 0 0
0 0 0 0 0 0 0 0 0 0 0 0 0 0.137840501954895 0 0 -0.164401833913327 0 0 0 0 0 0 0 0 0 0 0 0 0 0 0 -2.12085973165267 0 -0.232962760903119 0 0 0 0 0 0 0 0 0 0 0 0 0 0 0
0 0 0 0 0 0 0 0 0.105169982303429 0.329701703493579 0 0 0 0 0 0 0 -0.164401833913327 0 0 0 0 0 0 0 0 0 0 0 0 0 0 -0.486964940461732 0 -2.7127368633728 0 0 0 0 -1.75281156843747 0 0 0 0 0 0 0 0 0 0
0 0 0 0 0 0 0 0 0 0 0 0 0 0 0 0 0 0 -0.164401833913327 0 0 0 0 0 0 0 0 0 0 0 0 0 -2.61506354398788 0 -0.613438916779848 0 0 0 0 0 0 0 0 0 0 0 0 -0.313623015835655 0 0
0 0 0 0 0 0 0 0 0 0 0 0 0 0 0 0 0 0 0 -0.164401833913327 0 0 0 0 0 0 0 0 0 0 0 0 -0.822377691014409 0 -1.12344064714409 0 0 0 0 0 0 0 0 0 0 0 0 -0.686934764805356 0 0
0 0 0 0 0 0 0 0.709356787533384 0.20988706740601 0.098501649892444 0 0 0 0 0 0 0 0 0 0 -0.164401833913327 0 0 0 0 0 0 0 0 0 0 0 0 0 -0.700482275874185 0 0 0 0 0 0 0 0 0 0 0 0 -0.27422812701206 0 0
0 0 0 0 0 0 0 0 0 0 0 0 0 0 0 0 0 0 0 0 0 -0.164401833913327 0 0 0 0 0 0 0 0 0 0 -4.21232264580923 0 0 0 0 0 0 0 0 0 0 0 0 0 0 -2.29451158090962 0 0
0 0 0 0 0 0 0 0 0 0 0 0 0 0 0 0 0 0 0 0 0 0 -0.164401833913327 0 0 0 0 0 0 0 0 0 -0.241042642824433 0 -1.28504296194456 0 0 0 0 0 0 0 0 0 0 0 0 -1.97174743327824 0 0
0 0 0 0 0 0 0 0 0 0 0 0 0 0 0 0 0 0 0 0 0 0 0 -0.164401833913327 0 0 0 0 0 0 0 0 -0.638157694074227 0 0 0 0 0 0 0 0 0 0 0 0 0 0 -3.14898132713475 0 0
0 0 0 0 0 0 0 0 0 0 0 0 0 0 0 0 0 0 0 0 0 0 0 0 -0.164401833913327 0 0 0 0 0 0 0 0 0 0 0 0 0 0 0 0 0 0 0 0 0 0 -0.250424392518459 0 0
0 0 0 0 0 0 0 0 0 0 0 0 0 0 0 0 0 0 0 0 0 0 0 0 0 -0.164401833913327 0 0 0 0 0 0 0 0 0 0 0 0 0 0 0 0 0 0 0 0 0 -2.28910311371581 0 0
0 0 0 0 0 0 0 0 0 0 0 0 0.112311050123701 0.194452245273576 0 0 0 0 0 0 0 0 0 0 0 0 -0.164401833913327 0 0 0 0 0 0 0 0 0 0 0 0 0 0 0 0 0 0 0 0 0 0 0
0 0 0 0 0.0503978661234623 0.360787565202543 0.228691020731078 0 0.122807816769847 0.0975869945997365 0 0 0 0 0 0 0 0 0 0 0 0 0 0 0 0 0 -0.164401833913327 0 0 0 0 0 0 0 0 0 0 0 0 0 0 0 0 0 0 0 0 0 0
0 0 0 0 0 0 0 0 0 0 0 0 0.108400654472019 0 0 0 0 0 0 0 0 0 0 0 0 0 0 0 -0.164401833913327 0 0 0 0 0 0 0 0 0 0 0 0 0 0 0 0 0 0 0 0 0
0 0 0 0 0 0 0.217129460889185 0 0 0 0 0 0 0 0 0 0 0 0 0 0 0 0 0 0 0 0 0 0 -0.164401833913327 -2.44853089152481 0 0 0 0 -1.17266443658943 0 0 0 0 0 0 0 0 0 0 0 0 0 0
0 0 0 0 0 0 0 0 0 0 0 0 0 0 0 0 0 0 0 0 0 0 0 0 0 0 0 0 0 0.469907535672211 -0.164401833913327 0 0.0864626685874279 0.142271261714481 0 0 0 0 -0.765457835532963 0 0 0 0 0 0 0 0 0 0 0
0 0 0 0 0 0 0 0 0.902686426797373 0.0754923028667714 0 0 0 0 0 0 0 0 0 0 0 0 0 0 0 0 0 0 0 0 0 -0.164401833913327 0 0 0 0 0 0 -0.682690406148658 0 0 0 0 0 0 0 0 0 0 0
0 0 0 0 0 0 0 0 0 0 0 0 0 0 0.102887715406736 0.283855303388329 0.435617777747176 0.0876802993269573 0.553454995004233 0.166538712930728 0 0.93060604970108 0.0446066512882087 0.141420628819574 0 0 0 0 0 0 -0.463617399293293 0 -0.164401833913327 0 0 0 0 0 -0.346808786760468 0 0 0 0 0 0 0 0 0 0 0
0 0 0 0 0 0 0 0 0 0 0 0 0 0.230204607603864 0 0 0 0 0 0 0 0 0 0 0 0 0 0 0 0 -0.780346236985263 0 0 -0.164401833913327 0 0 0 0 -6.17634343235895 0 0 0 0 0 0 0 0 0 0 0
0 0 0 0 0 0 0 0 0 0 0 0 0 0 0 0.116604350473315 0.0476476181242153 0.504230317022779 0.117761246413555 0.211220332017189 0.131308118470767 0 0.272991078410258 0 0 0 0 0 0 0 0 0 0 0 -0.164401833913327 0 0 0 0 0 0 0 0 0 0 0 0 0 0 0
0 0 0 0 0 0 0 0 0 0 0 0 0 0 0 0 0 0 0 0 0 0 0 0 0 0 0 0 0 0.233042162149339 0 0 0 0 0 -0.164401833913327 0 0 -0.816546875369467 0 0 0 0 0 0 0 -2.71765918667916 0 0 0
0 0 0 0 0 0 0 0 0 0 0 0 0 0 0 0 0 0 0 0 0 0 0 0 0 0 0 0 0 0 0 0 0 0 0 0 -0.164401833913327 0 0 0 0 0 0 0 0 0 -6.17768906525766 0 0 0
0 0.0775411562910024 0 0 0 0 0 0 0 0 0 0 0 0 0 0 0 0 0 0 0 0 0 0 0 0 0 0 0 0 0 0 0 0 0 0 0 -0.164401833913327 0 0 0 0 0 0 0 0 0 0 0 0
0 0 0 0 0 0 0 0 0 0 0 0 0 0 0 0 0 0 0 0 0 0 0 0 0 0 0 0 0 0 0.164427980267134 0.13306456201737 0.071551572829317 1.19044671773374 0 0.153076015248822 0 0 -0.164401833913327 0 0 0 -1.45155583983406 0 0 0 -3.62847381220269 0 0 0
0 0 0 0 0 0 0 0 0 0 0 0 0.295569938891397 0.750043821403498 0.490776319822335 0.116075676747118 0 0.320298711230949 0 0 0 0 0 0 0 0 0 0 0 0 0 0 0 0 0 0 0 0 0 -0.164401833913327 0 0 0 0 0 0 -2.08670146934462 0 0 0
0 0 0 0 0 0 0.285737580406534 0 0.211590150206815 0.433538101890983 0 0.0672514567606278 0 0 0 0 0 0 0 0 0 0 0 0 0 0 0 0 0 0 0 0 0 0 0 0 0 0 0 0 -0.164401833913327 0 0 0 0 0 -0.50913543684738 0 0 -0.896905955118229
0 0 0 0 0.20199383140386 0.0461973493774281 0.0192022855803307 0.187565890358462 0 0.146981875908136 0 0 0 0 0 0 0 0 0 0 0 0 0 0 0 0 0 0 0 0 0 0 0 0 0 0 0 0 0 0 0 -0.164401833913327 0 0 0 0 -0.651407765885006 0 0 -1.32917231420442
0 0 0 0 0 0 0 0 0 0 0 0 0 0 0 0 0 0 0 0 0 0 0 0 0 0 0 0 0 0 0 0 0 0 0 0 0 0 0.291883810825274 0 0 0 -0.164401833913327 0 0 0 -1.64232011229728 0 0 0
0 0 0 0 0 0 0 0 0 0 0 0 0 0 0 0 0 0 0 0 0 0 0 0 0 0 0 0 0 0 0 0 0 0 0 0 0 0 0 0 0 0 0 -0.164401833913327 0 0 -0.725122940101546 0 0 -0.240411070933249
0 0.0598759821050287 0.0661884381990907 0 0.0721231480125116 0.0612845922500387 0.582848871021791 0.497701364821328 0.309850125405807 0 0.849713768232978 1.55381056846297 0 0 0 0 0 0 0 0 0 0 0 0 0 0 0 0 0 0 0 0 0 0 0 0 0 0 0 0 0 0 0 0 -0.164401833913327 0 0 0 0 -0.298921014499384
0.126231885284811 0.279424601105155 0.105835360595506 0 0 0 0 0 0 0 0 0 0 0 0 0 0 0 0 0 0 0 0 0 0 0 0 0 0 0 0 0 0 0 0 0 0 0 0 0 0 0 0 0 0 -0.164401833913327 0 0 0 -1.88834685294011
0 0 0 0 0 0 0 0 0 0 0 0 0 0 0 0 0 0 0 0 0 0 0 0 0 0 0 0 0 0 0 0 0 0 0 0.550254790116805 1.28342579832773 0 0.706953647864143 0.430258408459727 0.106666656553471 0.125009465645626 0.33228917540437 0.146299634157667 0 0 -0.164401833913327 0 0 0
0 0 0 0 0 0 0 0 0 0 0 0 0 0 0 0 0 0 0.0602808712592355 0.13789927710149 0.0566678702565152 0.493236591515776 0.391525246583155 0.621217658164878 0.0464682121657818 0.470794143033403 0 0 0 0 0 0 0 0 0 0 0 0 0 0 0 0 0 0 0 0 0 -0.164401833913327 0 -2.21306647329412
0 0.200569044694888 0.418503455605336 0.702625342676652 0 0 0 0 0 0 0 0 0 0 0 0 0 0 0 0 0 0 0 0 0 0 0 0 0 0 0 0 0 0 0 0 0 0 0 0 0 0 0 0 0 0 0 0 -0.164401833913327 0
0 0 0 0 0 0 0 0 0 0 0 0 0 0 0 0 0 0 0 0 0 0 0 0 0 0 0 0 0 0 0 0 0 0 0 0 0 0 0 0 0.186681002556553 0.249958289052842 0 0.0492995052155599 0.0584965165431537 0.373520546832721 0 0.421676731717675 0 -0.164401833913327
