1.08752863589094
5.58530749454372
1.06778630410527
1.7196398403702
0.399140263939693
1.41388985902862
0.352247848249704
0.526581371799891
1.78054277036692
2.35216024928255
0.278039917140916
0.259754723113497
0.415043917863802
3.73521894835309
8.57546557710673
1.72191516487348
2.85231712967697
0.635366199289989
0.382542299357556
1.81538162891423
7.49475179628447
0.569683283809563
1.21583531604773
2.4127201606301
0.144087493860892
1.63781441995271
0.244520041925789
1.04868524590837
0.719289598098136
0.9362136402686
0.269499273071023
2.73077625264416
0.736228177335207
2.2897517449799
0.383075738085825
1.97923303122839
0.433332494978634
0.170745962235652
4.3069787573932
1.21927357332316
0.47140196464834
2.11101909367
0.80511700889426
0.126731565967731
0.707111471693789
0.250983399258996
5.68684408504808
0.939131007971363
2.06297700915734
0.158065917140406
