-0.123638004526889 -1.58209323094267 0 0 0 0 -0.358677704860799 0 0 0 0 0 0 0 0 0 0 0 0 -1.23335380501529 0 -0.117999571094467 -0.850146756710866 0 0 0 0 0 0 0 0 -4.5491650238116 0 0 0 0 0 0 0 0 0 0 0 0 0 0 0 0 0 0
0.276914857939996 -0.123638004526889 0 0 0 0 -0.388834601067555 0 0 0 0 0 0 0 0 0 0 0 0 -0.179601514724361 0 0 -0.260740055787501 0 0 0 0 0 0 0 0 -1.71143472768479 0 0 0 0 0 0 0 0 0 0 0 0 0 0 0 0 0 0
0 0 -0.123638004526889 -0.27403093640158 -1.04721454307128 -3.69994109227945 0 0 0 0 0 0 0 0 0 0 0 0 0 -2.88718852934521 0 0 -2.01336881106218 0 0 0 0 0 0 0 0 -1.82766765300197 0 0 0 0 0 0 0 0 0 0 0 0 0 0 0 0 0 0
0 0 0.0541686223459622 -0.123638004526889 0 -0.730515233415097 0 0 0 -1.59653208310373 0 0 0 0 0 0 0 0 0 0 0 0 0 0 0 0 0 0 0 0 0 -1.07259965232602 0 0 0 0 0 0 0 0 0 0 0 0 0 0 0 0 0 0
0 0 0.191144409701396 0 -0.123638004526889 0 0 0 -1.36637332774382 -0.547324590746483 0 0 0 0 0 0 0 0 0 0 0 0 0 0 0 0 0 0 0 -0.663436766206568 0 0 0 0 0 0 0 0 0 0 0 0 0 0 0 0 0 0 0 0
0 0 0.688579947093926 0.149357890076275 0 -0.123638004526889 0 0 -0.782307636108335 -3.16958735862318 0 0 0 -1.04077679030472 0 0 0 0 -0.715728898077283 0 0 0 0 0 0 0 0 0 0 -0.460840645060898 0 0 0 0 0 0 0 0 0 0 0 0 0 0 0 0 0 0 0 0
0.0755376911343989 0.0812649706598712 0 0 0 0 -0.123638004526889 0 -0.702827086009651 -2.30881705643726 0 0 0 0 0 0 0 0 0 0 0 0 0 0 0 0 0 0 0 -1.05112371114087 0 -0.934087489768264 0 0 0 0 0 0 0 0 0 0 0 0 0 0 0 0 0 0
0 0 0 0 0 0 0 -0.123638004526889 0 0 0 0 0 0 0 0 0 -1.65472893310129 0 0 0 0 0 0 0 0 0 0 0 0 -0.560916765895703 -1.34160423396027 0 0 0 0 0 0 0 0 0 0 0 0 0 0 0 0 0 0
0 0 0 0 0.286116388640359 0.144789541140238 0.149097271562537 0 -0.123638004526889 0 0 0 0 0 0 0 0 0 0 0 0 0 0 0 0 0 0 0 0 -0.637034949795684 -0.870401274484952 0 0 0 0 0 0 0 0 0 0 0 0 0 0 0 -0.294880820170185 0 0 0
0 0 0 0.342328487386375 0.104202715665596 0.604641690347671 0.457648289377331 0 0 -0.123638004526889 0 -0.216070772130138 -1.00239469890106 0 0 0 0 0 0 0 0 0 0 0 0 -1.10139203338045 0 0 0 -0.959319848332416 0 0 0 0 0 0 0 0 0 0 0 0 0 0 0 0 -2.17412010498516 0 0 0
0 0 0 0 0 0 0 0 0 0 -0.123638004526889 0 0 0 0 0 0 0 0 0 0 0 0 0 0 -0.182355203679292 0 0 0 -1.48874989979082 -1.66530449797583 -0.255470652388347 0 0 0 0 0 0 0 0 0 0 0 0 0 0 0 0 0 0
0 0 0 0 0 0 0 0 0 0.0426745293541829 0 -0.123638004526889 0 0 0 0 0 0 0 0 0 0 0 0 0 -2.29800890471931 0 -3.60275089364644 0 -1.45821541515679 -0.396548685715243 0 0 0 0 0 0 0 0 0 0 0 0 0 0 0 0 0 -0.943085368774848 0
0 0 0 0 0 0 0 0 0 0.194467685476648 0 0 -0.123638004526889 0 0 0 0 0 0 0 0 0 0 0 0 -1.04669793772107 0 -1.72971528046497 0 0 -0.522477800653047 0 0 0 0 0 0 0 0 0 -0.196291902475524 0 0 0 0 -0.469423863361392 0 0 -1.83558344746603 0
0 0 0 0 0 0.222904142752865 0 0 0 0 0 0 0 -0.123638004526889 0 0 0 0 0 0 0 0 0 0 0 -0.0421903546647955 0 -1.02650340261243 0 0 0 0 0 0 0 0 0 0 0 0 0 0 0 0 -0.854092729933605 0 0 0 -1.07964798653224 0
0 0 0 0 0 0 0 0 0 0 0 0 0 0 -0.123638004526889 0 0 0 0 0 0 0 0 0 0 -0.265667651774091 0 0 0 -2.53410727754245 -1.26668103598757 0 0 0 0 0 0 0 0 0 0 0 0 0 0 0 0 0 0 0
0 0 0 0 0 0 0 0 0 0 0 0 0 0 0 -0.123638004526889 0 0 0 0 0 0 0 -0.164032698270218 0 -3.23438756483378 0 -1.41589338456009 0 -0.789243418464666 -5.75900255329786 0 0 0 0 0 0 0 0 0 0 0 0 0 -0.892740055206747 0 0 0 -1.25768854623981 0
0 0 0 0 0 0 0 0 0 0 0 0 0 0 0 0 -0.123638004526889 0 0 0 0 0 0 0 0 -0.367578587009614 0 0 0 -0.876845062356952 -2.43168810184979 0 0 0 0 0 0 0 0 0 0 0 0 0 0 0 0 0 0 0
0 0 0 0 0 0 0 0.343668262624568 0 0 0 0 0 0 0 0 0 -0.123638004526889 0 0 -0.194254637988909 0 0 -0.937186563379951 -0.276840940006948 0 0 0 0 -1.81209208862157 -0.74023878062493 0 0 0 0 0 -0.144745575245755 -1.25709838815492 0 0 0 0 0 0 -6.11524714696966 0 0 0 0 0
0 0 0 0 0 0.129567893764564 0 0 0 0 0 0 0 0 0 0 0 0 -0.123638004526889 0 0 0 0 0 -1.57030681703088 -0.785586842451986 0 0 0 0 -0.630082234212002 0 -2.17113698548507 0 0 0 0 -3.69842927653915 0 0 0 0 -1.27373496056445 0 -2.79034958289971 0 0 0 0 0
0.233469181178173 0.036563921701267 0.546534791873642 0 0 0 0 0 0 0 0 0 0 0 0 0 0 0 0 -0.123638004526889 0 0 0 0 -0.656892728569367 0 0 0 0 0 0 0 -0.24473459065505 0 -2.10233102026509 0 0 0 -0.213860792034159 0 0 0 -0.212860204590474 0 -1.26163011000995 0 0 0 0 0
0 0 0 0 0 0 0 0 0 0 0 0 0 0 0 0 0 0.037435321204095 0 0 -0.123638004526889 0 0 0 -0.297341723327235 -1.58461929288199 0 0 0 0 0 0 0 0 -1.43815814300113 0 0 0 -0.11905423909388 -1.43012025484439 0 0 -0.723773562626187 0 -0.182567948204709 0 0 0 0 0
0.0232632074989346 0 0 0 0 0 0 0 0 0 0 0 0 0 0 0 0 0 0 0 0 -0.123638004526889 0 0 0 0 0 0 0 0 0 0 -1.09545119051619 0 0 0 0 0 -4.07121601807987 -0.285919706456667 0 0 0 0 -0.313245901211872 0 0 0 0 0
0.158433850544573 0.0536311721587027 0.408424885915777 0 0 0 0 0 0 0 0 0 0 0 0 0 0 0 0 0 0 0 -0.123638004526889 0 0 0 0 0 0 0 0 0 -1.62014683160021 0 -1.87722692623763 0 0 0 0 -0.338213568493159 0 0 0 0 0 0 0 0 0 0
0 0 0 0 0 0 0 0 0 0 0 0 0 0 0 0.0334776584490389 0 0.187246379880536 0 0 0 0 0 -0.123638004526889 0 0 0 0 0 0 0 0 0 0 0 0 0 0 0 -1.52548774061224 0 0 -0.456800663868174 0 0 0 0 0 0 0
0 0 0 0 0 0 0 0 0 0 0 0 0 0 0 0 0 0.0559684524600079 0.306469001756496 0.130895887725796 0.0585908014122447 0 0 0 -0.123638004526889 0 0 0 0 0 0 0 0 0 0 0 0 0 0 -1.15493189942052 0 0 0 0 0 0 0 0 0 0
0 0 0 0 0 0 0 0 0 0.19458553340407 0.0369071152475572 0.460687494945151 0.203255139957839 0.00878289103388487 0.0517972928955698 0.635962592183497 0.0735828432044278 0 0.158124302707564 0 0.315116439488853 0 0 0 0 -0.123638004526889 0 0 0 0 0 0 0 0 0 0 0 0 0 -2.93021093893689 0 0 -1.05946140661528 0 0 0 0 0 0 0
0 0 0 0 0 0 0 0 0 0 0 0 0 0 0 0 0 0 0 0 0 0 0 0 0 0 -0.123638004526889 0 0 0 0 0 0 0 0 0 0 0 0 0 0 0 -0.105289284974218 0 0 0 0 0 0 -2.03443312205897
0 0 0 0 0 0 0 0 0 0 0 0.776076189771405 0.344450078943206 0.186283301028737 0 0.281825488242901 0 0 0 0 0 0 0 0 0 0 0 -0.123638004526889 0 0 0 0 0 0 0 0 0 0 0 -1.04546997386291 0 0 -1.0762911146228 -0.633481402301957 0 0 0 0 0 -0.499443062115775
0 0 0 0 0 0 0 0 0 0 0 0 0 0 0 0 0 0 0 0 0 0 0 0 0 0 0 0 -0.123638004526889 0 0 0 0 0 0 0 0 0 0 0 0 0 0 -1.44164333723837 0 0 0 0 0 -0.353579354014297
0 0 0 0 0.142004311974493 0.0988690980232844 0.212211842815578 0 0.136827243924695 0.200057084009616 0.275788434499336 0.293216677547789 0 0 0.459905637696702 0.153125857107486 0.181086688860946 0.366889575103549 0 0 0 0 0 0 0 0 0 0 0 -0.123638004526889 0 0 0 0 0 0 0 0 0 -0.719671670786378 0 0 0 0 0 0 0 0 0 -0.0838531754918578
0 0 0 0 0 0 0 0.115543751099396 0.17735529603511 0 0.330783492501119 0.0772870140385845 0.0967646638828696 0 0.251042097615402 1.22617498342582 0.484911920960307 0.148126819558938 0.133092503744069 0 0 0 0 0 0 0 0 0 0 0 -0.123638004526889 0 0 0 0 0 0 0 0 -0.813634389843452 0 0 0 -0.399238511189027 0 0 0 0 0 -3.55185585253657
0.900003659271444 0.355453492690428 0.372747896538745 0.207086778590881 0 0 0.18100378720223 0.259126828139584 0 0 0.0472962719146013 0 0 0 0 0 0 0 0 0 0 0 0 0 0 0 0 0 0 0 0 -0.123638004526889 0 0 0 0 0 0 0 -0.87078623483461 0 0 0 -3.98375427758976 0 0 0 0 0 -0.789860655272469
0 0 0 0 0 0 0 0 0 0 0 0 0 0 0 0 0 0 0.413744598684929 0.0481098383568231 0 0.204723943561915 0.298433073541377 0 0 0 0 0 0 0 0 0 -0.123638004526889 0 0 0 0 0 0 -1.05678128457944 0 0 0 -0.359499509212159 0 0 0 0 0 0
0 0 0 0 0 0 0 0 0 0 0 0 0 0 0 0 0 0 0 0 0 0 0 0 0 0 0 0 0 0 0 0 0 -0.123638004526889 0 0 0 0 0 -4.16301996227867 0 0 0 0 0 0 0 0 0 0
0 0 0 0 0 0 0 0 0 0 0 0 0 0 0 0 0 0 0 0.421071228354732 0.276937274592426 0 0.340273630801163 0 0 0 0 0 0 0 0 0 0 0 -0.123638004526889 -2.25364891168557 0 0 0 -0.963409223301054 0 0 0 0 0 0 0 0 0 0
0 0 0 0 0 0 0 0 0 0 0 0 0 0 0 0 0 0 0 0 0 0 0 0 0 0 0 0 0 0 0 0 0 0 0.457501418064233 -0.123638004526889 0 0 0 0 0 0 0 0 0 0 0 0 0 0
0 0 0 0 0 0 0 0 0 0 0 0 0 0 0 0 0 0.0295765962198526 0 0 0 0 0 0 0 0 0 0 0 0 0 0 0 0 0 0 -0.123638004526889 0 0 0 0 0 0 0 0 0 0 0 0 0
0 0 0 0 0 0 0 0 0 0 0 0 0 0 0 0 0 0.237722613962351 0.764059244380434 0 0 0 0 0 0 0 0 0 0 0 0 0 0 0 0 0 0 -0.123638004526889 0 0 0 -1.55654924056794 0 0 0 0 0 0 0 0
0 0 0 0 0 0 0 0 0 0 0 0 0 0 0 0 0 0 0 0.0415346976019816 0.0256494861335747 0.762630020806021 0 0 0 0 0 0 0 0 0 0 0 0 0 0 0 0 -0.123638004526889 0 0 -0.4731999765286 0 0 0 0 0 0 0 0
0 0 0 0 0 0 0 0 0 0 0 0 0 0 0 0 0 0 0 0 0.2813069692872 0.0559534566328786 0.0726511716711218 0.305887946198386 0.249039662950441 0.541515553199104 0 0.210676525166929 0 0.156700313061886 0.155931087283867 0.156604709609977 0.198781232624459 0.837429157923145 0.18607182310757 0 0 0 0 -0.123638004526889 0 0 0 0 0 0 0 -2.97499384853474 0 0
0 0 0 0 0 0 0 0 0 0 0 0 0.0395731407732828 0 0 0 0 0 0 0 0 0 0 0 0 0 0 0 0 0 0 0 0 0 0 0 0 0 0 0 -0.123638004526889 0 0 0 0 0 0 0 0 0
0 0 0 0 0 0 0 0 0 0 0 0 0 0 0 0 0 0 0 0 0 0 0 0 0 0 0 0 0 0 0 0 0 0 0 0 0 0.312318887044565 0.0992938993635593 0 0 -0.123638004526889 0 0 0 0 0 0 0 0
0 0 0 0 0 0 0 0 0 0 0 0 0 0 0 0 0 0 0.25404106727371 0.0407911158338424 0.146969942941882 0 0 0.0962288084123255 0 0.209936552641136 0.02083476646572 0.199681728183149 0 0 0 0 0 0 0 0 0 0 0 0 0 0 -0.123638004526889 0 0 0 0 0 0 0
0 0 0 0 0 0 0 0 0 0 0 0 0 0 0 0 0 0 0 0 0 0 0 0 0 0 0 0.120960453241155 0.286831337273153 0 0.0809707631938688 0.861350959040475 0.069270978800652 0 0 0 0 0 0 0 0 0 0 -0.123638004526889 0 0 0 0 0 0
0 0 0 0 0 0 0 0 0 0 0 0 0 0.16874995109102 0 0.18110631027726 0 1.24263217224329 0.520016596893802 0.254484586231193 0.0391031465379576 0.0631260362209549 0 0 0 0 0 0 0 0 0 0 0 0 0 0 0 0 0 0 0 0 0 0 -0.123638004526889 0 0 0 0 0
0 0 0 0 0 0 0 0 0 0 0 0 0.0962251988486947 0 0 0 0 0 0 0 0 0 0 0 0 0 0 0 0 0 0 0 0 0 0 0 0 0 0 0 0 0 0 0 0 -0.123638004526889 0 0 0 0
0 0 0 0 0 0 0 0 0.0617796441851421 0.459748523426244 0 0 0 0 0 0 0 0 0 0 0 0 0 0 0 0 0 0 0 0 0 0 0 0 0 0 0 0 0 0 0 0 0 0 0 0 -0.123638004526889 0 0 0
0 0 0 0 0 0 0 0 0 0 0 0 0 0 0 0 0 0 0 0 0 0 0 0 0 0 0 0 0 0 0 0 0 0 0 0 0 0 0 0.610708783256399 0 0 0 0 0 0 0 -0.123638004526889 0 0
0 0 0 0 0 0 0 0 0 0 0 0.190000798976896 0.37609248188609 0.21563001613812 0 0.23911242373502 0 0 0 0 0 0 0 0 0 0 0 0 0 0 0 0 0 0 0 0 0 0 0 0 0 0 0 0 0 0 0 0 -0.123638004526889 0
0 0 0 0 0 0 0 0 0 0 0 0 0 0 0 0 0 0 0 0 0 0 0 0 0 0 0.419283979203092 0.0993336311879279 0.0775497405824516 0.0160201694649275 0.705374287399902 0.157520740783658 0 0 0 0 0 0 0 0 0 0 0 0 0 0 0 0 0 -0.123638004526889
