-0.151566278917366 0 -0.15352289182135 0 0 0 0 0 0 0 -2.90822357986428 0 -0.290509260321287 0 0 0 0 0 0 0 0 0 0 0 0 0 0 0 0 0 0 0 0 0 0 0 0 0 0 0 0 0 0 0 0 0 0 0 0 0
0 -0.151566278917366 0 0 0 0 0 0 0 0 -4.63159555749531 0 -7.47864308346178 0 0 0 0 0 0 0 0 0 0 0 0 0 0 0 0 0 0 0 0 0 0 0 0 0 0 0 0 0 0 0 0 0 -1.61770884110233 0 0 0
0.0304319241000557 0 -0.151566278917366 0 -0.696927533691943 0 0 0 0 0 0 0 0 0 0 0 0 -1.51690466766348 0 0 0 0 0 0 0 0 0 0 0 0 0 0 0 0 0 0 0 0 0 0 0 -1.81010579855083 0 0 0 0 0 0 0 0
0 0 0 -0.151566278917366 0 -1.56178954143595 0 0 0 0 0 -0.857604992702408 0 0 0 -2.19731805262728 0 -5.08620707867964 -0.673694111698792 0 0 0 0 0 0 0 -0.969105991887543 0 0 0 0 0 0 0 0 0 0 0 0 0 0 0 0 0 0 0 -3.39640077462421 0 0 0
0 0 0.130404214395601 0 -0.151566278917366 -1.71174238271364 -0.417579969786487 0 0 0 0 0 0 0 0 -0.265097688572488 0 -1.46131970227659 -0.24952213473213 0 0 0 0 0 0 0 -0.565386280352027 0 0 -5.1795993000803 -1.54271321562731 0 0 0 0 0 0 0 0 0 0 -1.83160310983525 0 -0.733115368909079 0 0 0 0 0 0
0 0 0 0.340960887930544 0.318601353635265 -0.151566278917366 0 0 0 0 0 -0.459312617365691 0 0 0 -1.19660771598245 0 -0.430521581010206 -0.429680876284865 0 0 0 0 0 0 0 0 0 0 -0.438857169703808 -0.233601416817413 0 0 0 0 0 0 0 0 0 0 -0.856975212116519 0 0 0 0 0 0 0 0
0 0 0 0 0.091252825597716 0 -0.151566278917366 0 0 0 0 0 0 0 0 -0.51711697295139 0 -0.266548623092181 -0.861808947763203 0 0 0 0 0 0 0 0 0 0 -1.27671616020383 -0.7473537006007 0 0 0 0 0 0 0 0 0 0 -1.63995770682283 0 -5.31309080106929 0 0 -0.302654469283742 0 0 0
0 0 0 0 0 0 0 -0.151566278917366 0 0 0 0 0 0 0 0 0 0 -0.378826742495783 0 0 0 0 0 0 0 0 0 0 -0.977091739445569 0 0 0 0 0 0 0 0 0 0 0 -1.79430220728414 0 -0.781414477253531 0 0 -0.295497171827712 0 0 0
0 0 0 0 0 0 0 0 -0.151566278917366 0 0 0 0 0 0 0 0 0 0 0 0 0 0 0 0 0 0 0 0 -1.59440436098339 0 0 0 0 0 0 0 0 0 0 0 -3.48599510236516 0 -6.17990704958393 0 0 -6.52748426621712 0 0 0
0 0 0 0 0 0 0 0 0 -0.151566278917366 0 0 0 0 0 0 0 0 0 0 0 0 0 0 0 0 0 0 0 -0.650521944696166 0 -0.538537964725723 0 0 0 0 0 0 0 0 0 0 0 -1.26312952541534 0 0 0 0 0 0
0.59382958975377 0.875748864863715 0 0 0 0 0 0 0 0 -0.151566278917366 0 0 0 0 0 0 0 0 0 0 0 0 0 -1.0614512938603 0 0 0 0 -0.151452672378654 0 -0.437839703060232 0 0 0 0 0 0 0 0 0 0 0 -0.885458617147379 0 0 0 0 0 0
0 0 0 0.17673819893344 0 0.0991056250504533 0 0 0 0 0 -0.151566278917366 0 0 0 0 -1.4078598172812 0 0 0 0 0 0 0 0 0 0 0 0 -0.273793530155621 0 0 0 0 0 0 0 0 0 0 0 0 0 -1.87951765859164 0 0 -1.15137559786565 0 0 0
0.0591191100850651 1.61769484958622 0 0 0 0 0 0 0 0 0 0 -0.151566278917366 0 0 0 0 0 0 0 0 0 0 0 0 0 0 0 0 -1.00361931756155 0 0 0 0 0 0 0 0 0 0 0 0 0 -0.395331728232251 0 0 0 0 0 0
0 0 0 0 0 0 0 0 0 0 0 0 0 -0.151566278917366 0 0 0 0 0 0 0 0 0 0 0 0 0 0 0 -1.00734204441509 0 0 0 0 0 0 0 0 0 0 -0.464936954954533 0 0 0 0 0 0 0 0 0
0 0 0 0 0 0 0 0 0 0 0 0 0 0 -0.151566278917366 0 0 0 0 0 -4.1861791631528 0 0 -2.40695382997278 0 0 0 0 0 -0.735638414663214 0 0 0 0 0 -2.31641912141411 -2.57683519555451 0 0 0 0 0 0 0 0 0 0 0 0 0
0 0 0 0.444920345616806 0.0521098892349358 0.263840684923081 0.103701705095731 0 0 0 0 0 0 0 0 -0.151566278917366 0 0 0 0 -1.03736919089495 0 0 -0.151854134514268 0 0 0 0 0 0 0 0 0 0 0 -0.781509954649287 0 0 0 0 0 0 0 0 0 0 0 0 0 0
0 0 0 0 0 0 0 0 0 0 0 0.300023553725258 0 0 0 0 -0.151566278917366 0 0 0 -1.33332822529896 0 0 0 0 -2.98864460665739 0 -0.59286030758376 0 -2.85127173652336 0 0 0 0 0 -0.241056337973624 -4.1434905702056 0 0 0 0 0 0 0 0 0 0 0 0 0
0 0 0.302292018240016 1.01314894300179 0.301614560887782 0.0773596518153492 0.0579052025263898 0 0 0 0 0 0 0 0 0 0 -0.151566278917366 0 -1.71134710020536 0 0 -1.25271230041528 -0.369087442060796 0 -1.03118464250188 0 0 0 -0.197317557326183 0 0 0 0 0 -0.222351787155232 -2.24170171297077 0 0 0 0 0 0 0 0 0 0 0 0 0
0 0 0 0.145711974658089 0.0525614174843496 0.0884430420148863 0.164419567915682 0.0757761428405737 0 0 0 0 0 0 0 0 0 0 -0.151566278917366 0 -0.399671682110036 0 -0.262089510753285 0 0 -0.274083000998252 0 0 0 0 0 0 0 0 0 -0.582423620205176 -0.178021353052115 0 0 0 0 0 0 0 0 0 0 0 0 0
0 0 0 0 0 0 0 0 0 0 0 0 0 0 0 0 0 0.34010850313564 0 -0.151566278917366 0 0 0 0 0 0 0 0 0 0 0 0 0 0 0 -1.39368673337586 -0.149582660885201 0 0 0 0 0 0 0 0 0 0 0 0 0
0 0 0 0 0 0 0 0 0 0 0 0 0 0 0.805762601576204 0.205827193935167 0.264649287195059 0 0.0758751097089313 0 -0.151566278917366 0 -0.841352419302478 0 0 -0.778388466000695 0 0 0 0 0 0 0 0 0 0 -5.93425076890432 0 0 0 0 0 0 0 0 0 0 0 0 0
0 0 0 0 0 0 0 0 0 0 0 0 0 0 0 0 0 0 0 0 0 -0.151566278917366 -0.663424256642096 0 0 0 0 0 0 0 0 0 0 0 0 -1.57036926173932 -8.29227262617757 0 0 0 0 0 0 0 0 0 0 0 0 0
0 0 0 0 0 0 0 0 0 0 0 0 0 0 0 0 0 0.25205632880444 0.0522863631496484 0 0.162651808817184 0.135492701197709 -0.151566278917366 0 0 0 0 0 0 0 0 0 0 0 0 -0.612792955047709 -0.475299053320142 0 0 0 0 0 0 0 0 0 0 0 0 0
0 0 0 0 0 0 0 0 0 0 0 0 0 0 0.462690436704748 0.0300398400041031 0 0.0757770083691329 0 0 0 0 0 -0.151566278917366 0 -0.64641610900828 0 0 0 0 0 0 0 0 0 -1.16101499511602 -2.73179146029849 0 0 0 0 0 0 0 0 0 0 0 0 0
0 0 0 0 0 0 0 0 0 0 0.235709983797288 0 0 0 0 0 0 0 0 0 0 0 0 0 -0.151566278917366 0 0 0 0 0 0 0 0 0 0 -1.71421862744239 -1.13422686260481 0 0 0 0 0 0 0 0 0 0 0 0 0
0 0 0 0 0 0 0 0 0 0 0 0 0 0 0 0 0.553080998596292 0.193119954012761 0.0522937392663763 0 0.161084406374134 0 0 0.129125476509547 0 -0.151566278917366 0 0 0 0 0 0 0 0 0 -0.585791540149062 -1.04748868106137 0 0 0 0 0 0 0 0 0 0 0 0 0
0 0 0 0.186209543077555 0.117446220599281 0 0 0 0 0 0 0 0 0 0 0 0 0 0 0 0 0 0 0 0 0 -0.151566278917366 0 0 0 0 0 0 0 0 0 -0.15266992300455 0 0 0 0 0 0 0 0 0 0 -4.19646587282343 0 0
0 0 0 0 0 0 0 0 0 0 0 0 0 0 0 0 0.125132234039766 0 0 0 0 0 0 0 0 0 0 -0.151566278917366 0 0 0 0 0 0 0 0 0 0 0 0 0 0 0 0 0 0 0 -1.56487514580254 0 0
0 0 0 0 0 0 0 0 0 0 0 0 0 0 0 0 0 0 0 0 0 0 0 0 0 0 0 0 -0.151566278917366 0 0 0 0 0 -0.937944733964534 0 -1.82062491304883 0 0 0 0 0 0 0 0 0 0 0 0 0
0 0 0 0 1.06924899883613 0.07983675238448 0.239473957192314 0.193384731735693 0.316630993745724 0.130799638389721 0.0298023246531403 0.0547913726793451 0.210904670129981 0.213059892254661 0.156663018706701 0 0.606586124506134 0.0391218651909098 0 0 0 0 0 0 0 0 0 0 0 -0.151566278917366 0 0 0 0 0 0 0 0 0 0 0 0 -1.10208072686067 0 0 0 0 0 0 0
0 0 0 0 0.311009412929511 0.047747187636179 0.144596147653862 0 0 0 0 0 0 0 0 0 0 0 0 0 0 0 0 0 0 0 0 0 0 0 -0.151566278917366 0 0 0 -0.134765020065748 0 -0.568126315312449 -2.23336920844834 0 0 0 0 0 0 0 0 0 -0.520649164046923 0 0
0 0 0 0 0 0 0 0 0 0.106999238663987 0.0835510431910133 0 0 0 0 0 0 0 0 0 0 0 0 0 0 0 0 0 0 0 0 -0.151566278917366 0 0 -0.869390500530316 0 -1.07746920048599 0 0 -1.26987829376575 0 0 0 0 0 0 0 -0.926207444824051 0 0
0 0 0 0 0 0 0 0 0 0 0 0 0 0 0 0 0 0 0 0 0 0 0 0 0 0 0 0 0 0 0 0 -0.151566278917366 0 0 0 0 0 -1.55980941043739 0 0 0 0 0 0 0 0 -0.0786513750527251 0 0
0 0 0 0 0 0 0 0 0 0 0 0 0 0 0 0 0 0 0 0 0 0 0 0 0 0 0 0 0 0 0 0 0 -0.151566278917366 0 0 0 0 0 0 0 0 0 0 0 0 0 -1.34853199088286 0 -1.90122766495587
0 0 0 0 0 0 0 0 0 0 0 0 0 0 0 0 0 0 0 0 0 0 0 0 0 0 0 0 0.185205382962142 0 0.0268445973011066 0.178119136238876 0 0 -0.151566278917366 0 0 0 -1.77939652510836 0 0 0 0 0 -0.11559323711635 0 0 0 -3.8814242304408 -2.39290129714777
0 0 0 0 0 0 0 0 0 0 0 0 0 0 0.479909735527524 0.158727303436332 0.0487913845048981 0.0438428537409589 0.123179340775447 0.278424021156314 0 0.310489512308033 0.116195977283894 0.224102897819435 0.342304413562946 0.126236692855468 0 0 0 0 0 0 0 0 0 -0.151566278917366 0 0 0 0 0 0 0 0 0 0 0 -2.13704811670446 -4.90660412802815 -0.310951509808305
0 0 0 0 0 0 0 0 0 0 0 0 0 0 0.543531790864398 0 0.898933111389992 0.428625583989349 0.0363746186286584 0.0304962052066212 1.22451307213409 1.5898868270401 0.0886739860260083 0.61786489109694 0.211844089118343 0.209313798308705 0.0317258874434105 0 0.368692747612496 0 0.1068609321029 0.223077559278848 0 0 0 0 -0.151566278917366 0 0 0 0 0 0 0 -0.305559248128909 0 0 -2.73260727881125 0 -1.37821055655146
0 0 0 0 0 0 0 0 0 0 0 0 0 0 0 0 0 0 0 0 0 0 0 0 0 0 0 0 0 0 0.456247022567353 0 0 0 0 0 0 -0.151566278917366 0 0 0 0 0 0 -1.00267837542125 0 0 0 0 0
0 0 0 0 0 0 0 0 0 0 0 0 0 0 0 0 0 0 0 0 0 0 0 0 0 0 0 0 0 0 0 0 0.334060865200096 0 0.367224257575171 0 0 0 -0.151566278917366 0 0 0 0 0 0 0 0 -0.705639322655562 0 0
0 0 0 0 0 0 0 0 0 0 0 0 0 0 0 0 0 0 0 0 0 0 0 0 0 0 0 0 0 0 0 0.238370759394803 0 0 0 0 0 0 0 -0.151566278917366 0 0 0 0 0 0 0 -0.425648127357776 0 0
0 0 0 0 0 0 0 0 0 0 0 0 0 0.0980252095338888 0 0 0 0 0 0 0 0 0 0 0 0 0 0 0 0 0 0 0 0 0 0 0 0 0 0 -0.151566278917366 0 0 0 0 0 0 -0.268411494158608 0 0
0 0 0.34228993676355 0 0.345563409850252 0.180158500631757 0.311330952365313 0.371101666380897 0.711049442744136 0 0 0 0 0 0 0 0 0 0 0 0 0 0 0 0 0 0 0 0 0 0 0 0 0 0 0 0 0 0 0 0 -0.151566278917366 0 0 0 0 0 0 0 0
0 0 0 0 0 0 0 0 0 0 0 0 0 0 0 0 0 0 0 0 0 0 0 0 0 0 0 0 0 0.205534573601861 0 0 0 0 0 0 0 0 0 0 0 0 -0.151566278917366 0 0 0 0 0 0 0
0 0 0 0 0.15171513458843 0 0.999127033468752 0.149717674382906 1.34520234293594 0.25413300670784 0.164765807240014 0.352114939766572 0.0771620466636844 0 0 0 0 0 0 0 0 0 0 0 0 0 0 0 0 0 0 0 0 0 0 0 0 0 0 0 0 0 0 -0.151566278917366 0 0 0 -0.283642346737996 0 0
0 0 0 0 0 0 0 0 0 0 0 0 0 0 0 0 0 0 0 0 0 0 0 0 0 0 0 0 0 0 0 0 0 0 0.0216856739200999 0 0.0636495068029249 0.222034469679985 0 0 0 0 0 0 -0.151566278917366 0 0 0 0 0
0 0 0 0 0 0 0 0 0 0 0 0 0 0 0 0 0 0 0 0 0 0 0 0 0 0 0 0 0 0 0 0 0 0 0 0 0 0 0 0 0 0 0 0 0 -0.151566278917366 0 -1.42949601786259 0 0
0 0.331064316806366 0 0.738999000719895 0 0 0.0634447985786097 0.0570885050096487 1.38292667579266 0 0 0.215700454245453 0 0 0 0 0 0 0 0 0 0 0 0 0 0 0 0 0 0 0 0 0 0 0 0 0 0 0 0 0 0 0 0 0 0 -0.151566278917366 -0.559534066348964 0 0
0 0 0 0 0 0 0 0 0 0 0 0 0 0 0 0 0 0 0 0 0 0 0 0 0 0 0.885048983000763 0.319392531410409 0 0 0.103225933337984 0.200871424950383 0.0157485510661559 0.283832513618702 0 0.446496566668211 0.53946684156288 0 0.141132859688629 0.0853477920043257 0.046694270086141 0 0 0.058619290644128 0 0.247255719416274 0.112722846213424 -0.151566278917366 0 0
0 0 0 0 0 0 0 0 0 0 0 0 0 0 0 0 0 0 0 0 0 0 0 0 0 0 0 0 0 0 0 0 0 0 0.794799828921263 0.988015909091416 0 0 0 0 0 0 0 0 0 0 0 0 -0.151566278917366 0
0 0 0 0 0 0 0 0 0 0 0 0 0 0 0 0 0 0 0 0 0 0 0 0 0 0 0 0 0 0 0 0 0 0.388813156273553 0.528263796829272 0.0571818821735279 0.296754624785023 0 0 0 0 0 0 0 0 0 0 0 0 -0.151566278917366
