-0.194922639822247 0 0 0 0 -1.80687349788047 0 0 0 0 0 0 0 0 0 0 0 -1.79961803218221 0 0 0 0 0 0 -0.506681485781256 0 0 -0.235676757518592 0 0 0 0 0 -3.01863792488338 0 0 0 0 0 0 0 0 0 0 0 0 0 0 -2.33825137474628 0
0 -0.194922639822247 0 0 0 0 0 0 0 0 0 0 0 0 0 0 0 0 0 0 0 0 0 0 -0.812823986459742 0 0 -1.61471962407459 0 0 0 0 0 0 0 0 0 0 0 0 0 0 0 0 -2.39903952269513 0 0 0 -0.380500801219254 0
0 0 -0.194922639822247 -0.401552448434708 0 0 0 -5.60138450363236 0 -0.584622510022118 0 0 0 0 0 0 0 0 0 0 0 0 0 0 -3.58984874714669 0 0 0 0 0 0 0 0 0 0 0 0 0 0 0 0 0 0 0 0 0 0 0 -0.753189809400682 0
0 0 0.0883841517560024 -0.194922639822247 0 0 0 0 0 0 0 0 0 0 -0.291488152956463 0 0 0 0 0 0 0 0 0 0 0 0 0 0 0 -1.53386370482635 0 0 -4.01811572783588 0 0 0 0 -0.541548875342014 0 0 0 0 0 0 0 0 0 -1.91977773573858 0
0 0 0 0 -0.194922639822247 0 0 0 -2.97393261300501 0 0 0 0 0 -0.374592434795624 0 0 0 0 0 0 0 0 -0.414601670007328 0 0 0 0 0 0 -0.308427700692225 0 0 0 0 0 0 0 -0.608735820108143 0 0 0 0 0 0 0 0 0 0 0
0.359548769426934 0 0 0 0 -0.194922639822247 0 0 -1.89262200272679 0 0 0 0 0 0 0 0 0 0 0 0 0 0 -0.259946328954319 0 0 0 0 0 0 -1.75378763523156 0 0 0 0 0 0 0 -1.11468260501634 0 0 0 0 0 0 0 0 0 -1.01078163178328 0
0 0 0 0 0 0 -0.194922639822247 0 -3.09431882754082 0 0 0 0 0 0 0 0 0 0 0 0 0 0 -1.76513127073301 0 0 0 0 0 0 0 0 0 0 0 0 0 0 -0.443309500961894 0 0 0 0 0 0 0 0 0 -4.53964688461381 0
0 0 1.09333236915964 0 0 0 0 -0.194922639822247 0 0 0 0 0 0 0 0 0 0 0 0 0 0 0 -0.665462159228434 0 0 0 0 0 0 -2.29538923853336 0 0 0 0 0 0 0 -1.08782849978404 0 0 0 0 0 0 0 0 0 0 0
0 0 0 0 0.605869816310172 0.392693427459424 0.574756589880686 0 -0.194922639822247 0 0 0 0 0 0 0 0 0 0 0 0 0 0 -4.18033877854177 0 -0.55532594110947 0 0 0 0 0 0 0 0 0 0 0 0 0 0 0 0 0 0 0 0 0 0 -3.59136092060017 0
0 0 0.121977408554861 0 0 0 0 0 0 -0.194922639822247 0 0 0 0 0 0 0 0 0 0 0 0 0 -2.14939962297875 0 -1.29323977671671 0 0 0 0 0 0 0 0 0 0 0 0 0 0 0 0 0 0 0 0 0 0 0 0
0 0 0 0 0 0 0 0 0 0 -0.194922639822247 0 0 0 0 0 -0.172928428987145 0 0 0 0 0 0 -0.498230491567951 0 -0.191002561211548 0 0 -0.823995859315802 0 -1.04875892066223 0 0 0 0 0 0 0 0 0 0 0 0 0 0 -0.281931894921173 0 0 -1.06692950054708 0
0 0 0 0 0 0 0 0 0 0 0 -0.194922639822247 0 0 0 0 -0.153354163159494 0 0 0 0 0 0 0 0 -1.26454948445667 0 0 -2.60310165006379 0 -2.8361718427574 0 0 0 0 0 0 0 0 0 0 0 0 0 0 0 0 0 -4.95234616926001 0
0 0 0 0 0 0 0 0 0 0 0 0 -0.194922639822247 0 0 0 0 0 0 0 0 0 0 0 0 0 0 0 0 0 -0.1770978349763 0 0 0 0 0 0 0 0 0 0 0 0 0 0 -0.93311357273292 0 0 -2.94706254931374 0
0 0 0 0 0 0 0 0 0 0 0 0 0 -0.194922639822247 0 0 0 0 0 0 0 0 0 0 0 0 0 0 0 0 -1.47599040452256 0 0 0 0 0 0 0 0 0 0 -1.47248207923566 0 0 0 0 0 0 0 0
0 0 0 0.059016915047398 0.0680047810857886 0 0 0 0 0 0 0 0 0 -0.194922639822247 0 0 0 0 0 0 0 0 0 0 0 0 0 0 0 -1.09374660314843 0 0 0 0 0 0 0 0 0 0 0 0 0 0 0 0 0 0 0
0 0 0 0 0 0 0 0 0 0 0 0 0 0 0 -0.194922639822247 0 0 0 0 0 0 0 0 0 0 0 0 0 0 0 0 0 0 0 0 0 0 0 0 0 -3.42856346164269 0 0 0 0 0 0 -2.3511146534051 0
0 0 0 0 0 0 0 0 0 0 0.0378801253417535 0.030680885747577 0 0 0 0 -0.194922639822247 0 0 0 0 0 0 0 0 0 0 0 0 0 -1.01358202348734 0 0 0 0 0 0 0 0 0 0 -0.866932451806234 0 0 0 0 0 0 0 0
0.351875359245734 0 0 0 0 0 0 0 0 0 0 0 0 0 0 0 0 -0.194922639822247 0 0 -0.554427154800192 0 0 0 0 0 0 0 0 0 -1.68824673971548 0 0 0 0 0 0 0 0 0 0 0 0 0 0 0 0 0 -0.676034967397509 0
0 0 0 0 0 0 0 0 0 0 0 0 0 0 0 0 0 0 -0.194922639822247 0 0 0 0 0 0 0 0 0 0 0 0 -1.93375810637618 0 0 0 0 -0.65480591185826 0 0 0 0 -0.719989474403588 0 0 0 0 -0.448341563986413 0 0 0
0 0 0 0 0 0 0 0 0 0 0 0 0 0 0 0 0 0 0 -0.194922639822247 0 -0.822113595378323 0 0 0 0 0 0 0 -0.673971426918344 -0.249709656354004 0 0 0 0 0 0 0 0 0 0 0 0 0 0 0 -0.242682314744958 0 -1.2172945833153 0
0 0 0 0 0 0 0 0 0 0 0 0 0 0 0 0 0 0.115243737444651 0 0 -0.194922639822247 -0.201417990518592 0 0 0 0 0 0 0 -2.25265175327028 0 0 0 0 0 0 0 0 0 0 0 0 0 0 0 0 -0.355790363027796 0 -0.797175312706517 0
0 0 0 0 0 0 0 0 0 0 0 0 0 0 0 0 0 0 0 0.168634789978174 0.0398565384848204 -0.194922639822247 0.414278473730455 0 0 0 0 0 0 0 0 0 0 0 0 0 0 -1.16170990000574 0 0 0 0 0 0 0 0 -0.742978671669423 0 0 0
0 0 0 0 0 0 0 0 0 0 0 0 0 0 0 0 0 0 0 0 0 -2.22517580105277 -0.194922639822247 0 0 0 0 0 0 0 0 0 -0.259983180978525 0 -3.62303518232075 0 0 -0.425716385281547 0 0 0 0 0 0 0 0 -0.558350521971088 0 0 0
0 0 0 0 0.0843419325915124 0.0524435879492515 0.386564145350161 0.128618670131786 0.852041823235101 0.407130661557203 0.107566271212708 0 0 0 0 0 0 0 0 0 0 0 0 -0.194922639822247 0 0 0 0 0 0 0 0 -0.156251160726032 0 0 -7.04322615935479 0 -2.10811913760146 0 0 0 0 0 0 0 0 -0.774389572027565 0 -0.670253187015938 0
0.0983480653139797 0.162006691828218 0.722665525406134 0 0 0 0 0 0 0 0 0 0 0 0 0 0 0 0 0 0 0 0 0 -0.194922639822247 0 0 0 0 0 0 0 -0.908650671183212 0 0 0 0 0 0 0 0 0 0 0 0 0 -1.37112000059804 0 -3.25101361614886 0
0 0 0 0 0 0 0 0 0.11583068172811 0.266644724107351 0.0383547804132133 0.255955847973602 0 0 0 0 0 0 0 0 0 0 0 0 0 -0.194922639822247 0 0 0 0 0 0 0 0 0 0 0 0 0 0 0 0 -0.115526950439971 0 0 0 0 0 -1.99474230267688 0
0 0 0 0 0 0 0 0 0 0 0 0 0 0 0 0 0 0 0 0 0 0 0 0 0 0 -0.194922639822247 0 0 0 0 0 -0.487843081331156 0 0 0 0 0 0 0 0 0 -6.76393003508186 0 0 0 -0.337947387968071 0 0 0
0.049140987023839 0.319845841825431 0 0 0 0 0 0 0 0 0 0 0 0 0 0 0 0 0 0 0 0 0 0 0 0 0 -0.194922639822247 0 0 0 0 -0.405881424671105 0 0 0 0 0 0 0 0 0 -2.97277408105559 -2.07315871474749 0 0 -1.36898547911933 0 -2.46057209393146 0
0 0 0 0 0 0 0 0 0 0 0.163186817078343 0.522571055094767 0 0 0 0 0 0 0 0 0 0 0 0 0 0 0 0 -0.194922639822247 0 0 0 -0.235833079891253 0 0 0 0 0 0 -0.391375273780108 0 0 -0.525122219074109 -0.49254412072844 0 0 -0.539781697413719 0 -0.711521574511032 0
0 0 0 0 0 0 0 0 0 0 0 0 0 0 0 0 0 0 0 0.132919034717482 0.41952098353379 0 0 0 0 0 0 0 0 -0.194922639822247 0 0 -0.660890681624934 0 0 0 0 0 0 0 0 0 -0.46731874399897 -0.653720535811423 0 0 0 0 0 0
0 0 0 0.30115141406715 0.0620200789218088 0.368980756612327 0 0.464685874996653 0 0 0.205471131844358 0.530712862965234 0.0335163896405239 0.295750070502022 0.245471000688085 0 0.206820539978601 0.339342584935903 0 0.0484181876100224 0 0 0 0 0 0 0 0 0 0 -0.194922639822247 0 -0.202708685721517 0 0 0 0 0 0 0 0 0 -1.94835376713115 0 0 0 -2.54049229871753 -1.75392937627249 0 -1.67753944141284
0 0 0 0 0 0 0 0 0 0 0 0 0 0 0 0 0 0 0.390805687387116 0 0 0 0 0 0 0 0 0 0 0 0 -0.194922639822247 0 0 0 0 0 0 0 0 0 0 0 0 0 0 0 0 0 -0.299676794856163
0 0 0 0 0 0 0 0 0 0 0 0 0 0 0 0 0 0 0 0 0 0 0.0552692361417779 0.0326520925606067 0.185158441700211 0 0.091171066187764 0.0798101614170632 0.0495570385360367 0.128597025141932 0.0418653794902608 0 -0.194922639822247 0 0 0 0 0 0 0 0 0 0 0 0 0 0 0 0 -0.446575184575373
0.640904795708453 0 0 0.841305633606653 0 0 0 0 0 0 0 0 0 0 0 0 0 0 0 0 0 0 0 0 0 0 0 0 0 0 0 0 0 -0.194922639822247 0 0 0 0 0 0 0 0 0 0 0 0 0 0 0 0
0 0 0 0 0 0 0 0 0 0 0 0 0 0 0 0 0 0 0 0 0 0 0.760526818184829 0 0 0 0 0 0 0 0 0 0 0 -0.194922639822247 0 0 0 0 0 -3.24050025817644 0 0 0 0 0 0 0 0 0
0 0 0 0 0 0 0 0 0 0 0 0 0 0 0 0 0 0 0 0 0 0 0 1.45956737626611 0 0 0 0 0 0 0 0 0 0 0 -0.194922639822247 0 0 0 0 0 0 0 0 0 0 0 0 0 0
0 0 0 0 0 0 0 0 0 0 0 0 0 0 0 0 0 0 0.142322729241395 0 0 0 0 0 0 0 0 0 0 0 0 0 0 0 0 0 -0.194922639822247 0 0 0 -1.64223761861709 0 0 0 0 0 0 0 0 0
0 0 0 0 0 0 0 0 0 0 0 0 0 0 0 0 0 0 0 0 0 0.199719842499671 0.0831675441027298 0.434611422905362 0 0 0 0 0 0 0 0 0 0 0 0 0 -0.194922639822247 0 0 -2.76396008398007 0 0 0 0 0 0 0 0 0
0 0 0 0.113598189955915 0.13250134145071 0.226314342599988 0.0928722085786585 0.219970722282924 0 0 0 0 0 0 0 0 0 0 0 0 0 0 0 0 0 0 0 0 0 0 0 0 0 0 0 0 0 0 -0.194922639822247 0 0 0 0 0 0 0 0 0 0 0
0 0 0 0 0 0 0 0 0 0 0 0 0 0 0 0 0 0 0 0 0 0 0 0 0 0 0 0 0.0752374560925965 0 0 0 0 0 0 0 0 0 0 -0.194922639822247 0 0 0 0 0 0 0 0 0 0
0 0 0 0 0 0 0 0 0 0 0 0 0 0 0 0 0 0 0 0 0 0 0 0 0 0 0 0 0 0 0 0 0 0 0.665188272461722 0 0.324507094608566 0.520347449015873 0 0 -0.194922639822247 0 0 0 0 0 0 0 0 0
0 0 0 0 0 0 0 0 0 0 0 0 0 0.306329476899287 0 0.657399080522644 0.175017845861797 0 0.14188905124963 0 0 0 0 0 0 0 0 0 0 0 0 0 0 0 0 0 0 0 0 0 0 -0.194922639822247 0 0 0 0 0 0 0 0
0 0 0 0 0 0 0 0 0 0 0 0 0 0 0 0 0 0 0 0 0 0 0 0 0 0.0220675374684852 1.26434359200716 0.59324084514332 0.103130758409403 0.0874349664740096 0.413314009983215 0 0 0 0 0 0 0 0 0 0 0 -0.194922639822247 0 0 0 0 0 0 0
0 0 0 0 0 0 0 0 0 0 0 0 0 0 0 0 0 0 0 0 0 0 0 0 0 0 0 0.426609936750337 0.094738511526585 0.13507430773033 0 0 0 0 0 0 0 0 0 0 0 0 0 -0.194922639822247 0 0 0 0 0 0
0 0.500389588297283 0 0 0 0 0 0 0 0 0 0 0 0 0 0 0 0 0 0 0 0 0 0 0 0 0 0 0 0 0 0 0 0 0 0 0 0 0 0 0 0 0 0 -0.194922639822247 0 0 0 0 0
0 0 0 0 0 0 0 0 0 0 0.0588891841923068 0 0.18436354557506 0 0 0 0 0 0 0 0 0 0 0 0 0 0 0 0 0 0 0 0 0 0 0 0 0 0 0 0 0 0 0 0 -0.194922639822247 0 0 0 0
0 0 0 0 0 0 0 0 0 0 0 0 0 0 0 0 0 0 0.0904694817346513 0.0504287414568204 0.0697412129441432 0.15533098364255 0.104179862587189 0.157973274443374 0.276533919772952 0 0.0675170662332715 0.262141608606997 0.105558272612258 0 0.472383684800296 0 0 0 0 0 0 0 0 0 0 0 0 0 0 0 -0.194922639822247 0 0 0
0 0 0 0 0 0 0 0 0 0 0 0 0 0 0 0 0 0 0 0 0 0 0 0 0 0 0 0 0 0 0.349341551834202 0 0 0 0 0 0 0 0 0 0 0 0 0 0 0 0 -0.194922639822247 0 0
0.494992089071286 0.0758914871672395 0.162257088249913 0.414587639621899 0 0.192498294424594 0.975339176479899 0 0.694864751289117 0 0.230959224553175 0.998780363051678 0.621659952150431 0 0 0.46187899219232 0 0.142043153988267 0 0.246975599095665 0.151971043479642 0 0 0.134121507702119 0.670035830336783 0.415915064205203 0 0.457186459747945 0.146468639039826 0 0 0 0 0 0 0 0 0 0 0 0 0 0 0 0 0 0 0 -0.194922639822247 0
0 0 0 0 0 0 0 0 0 0 0 0 0 0 0 0 0 0 0 0 0 0 0 0 0 0 0 0 0 0 0.354392851730664 0.0615448619427932 0.0866765234703284 0 0 0 0 0 0 0 0 0 0 0 0 0 0 0 0 -0.194922639822247
