-0.251852879606843 0 0 0 0 0 0 0 0 0 0 0 0 0 0 0 0 0 0 0 -1.53201694973852 0 -0.453607596729947 0 0 0 0 0 0 0 0 0 0 0 0 0 0 0 0 0 0 0 0 0 0 0 0 0 0 0
0 -0.251852879606843 0 0 0 0 0 0 0 0 0 0 0 0 0 0 0 0 0 0 -0.903434189405655 0 -0.224936934982517 0 0 0 0 0 0 0 0 0 0 0 0 0 0 0 0 0 0 0 0 0 0 0 0 0 0 0
0 0 -0.251852879606843 0 0 0 0 0 0 0 0 0 0 0 0 0 0 0 0 0 -1.18380156358319 0 -3.50599493888184 0 0 0 0 0 0 0 0 0 0 0 0 0 0 0 0 0 0 0 0 0 0 0 0 0 0 0
0 0 0 -0.251852879606843 0 -0.791110395712833 0 0 -2.06089446724464 0 0 0 0 -1.89359815834736 0 0 0 0 0 -0.65551879964261 0 0 -0.298613671230942 0 0 0 0 0 0 0 0 0 0 0 0 0 0 0 0 0 0 0 0 0 0 0 0 0 0 0
0 0 0 0 -0.251852879606843 -0.18599645159913 0 0 0 0 0 0 0 -0.363517186827748 0 0 0 0 0 -0.864293569700048 0 0 -1.15356117675125 0 0 0 0 0 0 0 0 0 0 0 0 0 0 0 -3.73207789746922 0 0 0 0 0 0 0 0 0 0 0
0 0 0 0.162203581132374 0.0370210866593151 -0.251852879606843 0.452036519007261 0 0 0 0 0 0 -1.39520259676533 0 0 0 0 0 0 0 0 -0.464974026070616 0 0 0 0 0 0 0 0 0 0 0 0 0 0 0 -1.56556511889054 0 0 0 0 0 0 0 0 0 0 0
0 0 0 0 0 -2.26834292366273 -0.251852879606843 0 0 0 0 0 0 0 0 0 0 0 0 -0.827619945099049 0 0 0 0 0 0 0 0 0 0 0 0 0 0 0 0 0 0 0 0 0 0 0 0 0 0 0 0 0 0
0 0 0 0 0 0 0 -0.251852879606843 0 0 0 0 0 0 0 0 0 0 0 0 0 0 0 0 0 0 0 0 0 0 0 0 0 0 0 -5.31906066584447 0 0 -0.392212812203123 0 0 0 0 -3.10206564559365 0 0 0 0 0 0
0 0 0 0.4392012263433 0 0 0 0 -0.251852879606843 0 0 0 0 0 0 0 0 0 0 0 0 0 0 0 0 0 0 0 0 0 0 0 0 0 0 -0.76993583018613 0 0 -1.81420598078377 0 0 0 0 -0.508647957307914 0 0 0 0 0 0
0 0 0 0 0 0 0 0 0 -0.251852879606843 0 0 0 0 -0.442456973555752 -1.51101239132226 0 0 0 0 0 0 0 0 0 0 -0.487506395315719 0 0 0 0 0 0 0 0 0 0 0 -0.863086551082786 0 0 -0.398173514865271 0 0 0 0 0 0 0 0
0 0 0 0 0 0 0 0 0 0 -0.251852879606843 0 0 0 -2.11898082747577 -2.38261779489598 0 0 0 0 0 0 0 0 0 0 0 0 0 0 0 -0.194111556042356 0 0 0 0 0 0 -1.00113464828899 0 0 -2.69620593051832 0 0 0 0 0 0 0 0
0 0 0 0 0 0 0 0 0 0 0 -0.251852879606843 0 0 -6.20753163569943 0 0 0 0 0 0 0 0 0 -0.073655856729536 0 0 0 0 0 0 -0.483733218827519 0 0 0 0 0 0 0 0 0 -2.42098997279147 0 0 0 0 0 0 0 0
0 0 0 0 0 0 0 0 0 0 0 0 -0.251852879606843 0 -0.207098826719963 -3.82678396113173 0 0 0 0 0 0 0 0 -0.213217274223218 0 0 0 0 0 0 0 0 0 0 0 0 0 -0.805434788086181 0 0 0 0 0 0 -5.09026002257194 0 0 0 0
0 0 0 0.37289672706257 0.0742097382567508 0.275337867962436 0 0 0 0 0 0 0 -0.251852879606843 -0.986949968137377 0 0 0 0 0 0 0 0 0 0 0 0 0 0 0 0 -0.112886606804915 0 0 0 0 0 0 -0.188141679788185 0 0 -1.12833962064192 0 0 0 -4.3583875122929 0 0 0 0
0 0 0 0 0 0 0 0 0 0.0864718240881777 0.415303871725792 1.28523898755465 0.042348026607027 0.220244971256076 -0.251852879606843 0 0 0 0 0 0 0 0 0 0 0 0 0 0 0 0 0 0 0 0 0 0 0 -1.43582073932033 0 0 0 0 0 0 -9.19188734543975 0 0 0 0
0 0 0 0 0 0 0 0 0 0.287790172212207 0.477903270397757 0 0.72147561408379 0 0 -0.251852879606843 0 0 0 0 0 0 0 0 0 0 0 0 -0.199075875409006 0 0 0 0 -0.324232729145886 0 0 0 0 0 0 0 -0.67043959072627 0 0 0 0 0 0 0 0
0 0 0 0 0 0 0 0 0 0 0 0 0 0 0 0 -0.251852879606843 0 0 0 0 0 0 0 0 0 0 0 -6.77076656745862 0 0 0 0 -1.46506051690077 -0.807316711759569 0 0 0 -1.08792739395268 0 0 -1.40433597786081 0 0 0 -1.49724745804167 0 0 0 0
0 0 0 0 0 0 0 0 0 0 0 0 0 0 0 0 0 -0.251852879606843 0 0 0 0 0 -0.255978624046764 0 0 0 0 -0.133770829840693 0 0 0 0 -0.813780111702247 -0.991608160184374 0 0 0 0 0 0 0 0 0 0 -0.378583538827738 0 0 0 0
0 0 0 0 0 0 0 0 0 0 0 0 0 0 0 0 0 0 -0.251852879606843 0 0 0 0 -1.41841734611957 0 0 0 0 -1.84162533814213 0 0 0 0 -1.85506233140761 0 0 0 0 -2.6993155231583 0 0 -0.200021175638952 0 0 0 0 0 0 0 0
0 0 0 0.133589788563556 0.166116469758051 0 0.159709802199265 0 0 0 0 0 0 0 0 0 0 0 0 -0.251852879606843 0 0 0 -2.88957186326945 0 0 0 0 -0.219879136196684 0 0 0 0 -0.647826328062459 0 0 0 0 -0.614814834301737 0 0 -0.985044380286085 0 0 0 -1.39279875769891 0 0 0 0
0.323582058424305 0.182009702072784 0.241122475321575 0 0 0 0 0 0 0 0 0 0 0 0 0 0 0 0 0 -0.251852879606843 0 0 0 0 0 0 0 -2.37733293091411 0 0 0 0 -2.72373778330082 0 0 0 0 0 0 0 -0.251641379813802 0 0 0 -9.37814248432355 -0.835049293769477 0 0 0
0 0 0 0 0 0 0 0 0 0 0 0 0 0 0 0 0 0 0 0 0 -0.251852879606843 0 0 0 -11.7448857596248 0 -0.109462407799485 -1.92445347103766 0 0 0 0 -0.435375378119872 0 0 0 0 0 0 0 0 0 0 0 -1.65068865403568 0 0 0 0
0.0927560239170078 0.0417049006016703 0.708598166080292 0.0554930482958978 0.223155797635013 0.0830814802047161 0 0 0 0 0 0 0 0 0 0 0 0 0 0 0 0 -0.251852879606843 0 0 0 0 -0.85856186586818 -2.58798550105704 0 0 0 0 -4.63913100580543 0 0 0 0 0 0 0 0 0 0 0 0 0 0 0 0
0 0 0 0 0 0 0 0 0 0 0 0 0 0 0 0 0 0.054316301296745 0.286671715603439 0.587688418727512 0 0 0 -0.251852879606843 0 0 0 0 0 0 0 0 -1.05969388530156 0 0 0 0 0 0 0 0 0 0 0 0 -1.18884137912906 -0.19720552571657 0 0 0
0 0 0 0 0 0 0 0 0 0 0 0.01460650485162 0.0440840461338766 0 0 0 0 0 0 0 0 0 0 0 -0.251852879606843 0 0 0 0 0 0 0 -1.54140221423661 0 0 0 0 0 0 0 0 0 0 0 0 0 -1.09694425077678 0 0 0
0 0 0 0 0 0 0 0 0 0 0 0 0 0 0 0 0 0 0 0 0 2.19637733181053 0 0 0 -0.251852879606843 0 0 0 0 0 0 -7.74420373980446 0 0 0 0 0 0 0 0 0 0 0 0 -2.11772190333127 -0.141447804875871 0 0 0
0 0 0 0 0 0 0 0 0 0.0974819970376821 0 0 0 0 0 0 0 0 0 0 0 0 0 0 0 0 -0.251852879606843 0 0 0 0 0 0 0 0 0 0 0 0 -0.816119834795219 -5.14584695579985 0 0 0 0 -0.399295499069198 -1.58772240423245 0 0 0
0 0 0 0 0 0 0 0 0 0 0 0 0 0 0 0 0 0 0 0 0 0.0215645150586883 0.161901018389411 0 0 0 0 -0.251852879606843 0 0 0 0 0 0 0 0 0 0 0 -1.86439446132347 0 0 0 0 0 -1.33898545837996 -1.39182259266283 0 0 0
0 0 0 0 0 0 0 0 0 0 0 0 0 0 0 0.0395323037150287 1.42569042966776 0.0286519886528925 0.366514293229762 0.0458464668358297 0.531769196986773 0.354463364069829 0.508518067234469 0 0 0 0 0 -0.251852879606843 0 -0.472581457819075 0 0 0 0 0 0 0 0 -4.44324374737555 0 0 0 0 0 -3.76147193494818 -0.377461443390389 0 -4.21062117551819 0
0 0 0 0 0 0 0 0 0 0 0 0 0 0 0 0 0 0 0 0 0 0 0 0 0 0 0 0 0 -0.251852879606843 -0.475342230414383 0 0 0 0 0 0 0 0 -0.516150850417598 -0.289796764195053 0 0 0 0 -2.90413907605142 -1.72470468248621 0 0 0
0 0 0 0 0 0 0 0 0 0 0 0 0 0 0 0 0 0 0 0 0 0 0 0 0 0 0 0 0.0932841291962525 0.0975146544215799 -0.251852879606843 0 0 0 0 0 0 0 0 0 -4.51914223647982 0 0 0 0 -0.286362884522605 -1.12689815484408 0 0 0
0 0 0 0 0 0 0 0 0 0 0.039741274587798 0.09212789997076 0 0.0211350736032989 0 0 0 0 0 0 0 0 0 0 0 0 0 0 0 0 0 -0.251852879606843 0 0 0 0 0 0 0 0 0 0 0 0 0 -0.616849461079027 -0.378790907614843 0 0 -1.43001769113497
0 0 0 0 0 0 0 0 0 0 0 0 0 0 0 0 0 0 0 0 0 0 0 0.225459544133693 0.312180305819416 1.48172847432602 0 0 0 0 0 0 -0.251852879606843 0 0 0 0 0 0 0 0 0 0 0 0 0 0 0 0 -1.40287066741926
0 0 0 0 0 0 0 0 0 0 0 0 0 0 0 0.0634666330826351 0.302557860797435 0.150304587530552 0.354952479205055 0.122734713030378 0.532409001709734 0.0930588911140607 0.938055731193673 0 0 0 0 0 0 0 0 0 0 -0.251852879606843 0 0 0 0 0 0 0 0 0 0 0 0 0 0 0 -0.0981577879401711
0 0 0 0 0 0 0 0 0 0 0 0 0 0 0 0 0.159628626762322 0.198711644432729 0 0 0 0 0 0 0 0 0 0 0 0 0 0 0 0 -0.251852879606843 0 0 0 0 0 0 0 0 0 0 0 0 0 0 -1.80896373570192
0 0 0 0 0 0 0 0.993429919344707 0.142313666673717 0 0 0 0 0 0 0 0 0 0 0 0 0 0 0 0 0 0 0 0 0 0 0 0 0 0 -0.251852879606843 0 0 0 0 0 0 0 0 0 0 0 0 0 -0.663835952625086
0 0 0 0 0 0 0 0 0 0 0 0 0 0 0 0 0 0 0 0 0 0 0 0 0 0 0 0 0 0 0 0 0 0 0 0 -0.251852879606843 0 0 0 0 0 0 0 0 0 0 0 0 -3.6291194275686
0 0 0 0 0 0 0 0 0 0 0 0 0 0 0 0 0 0 0 0 0 0 0 0 0 0 0 0 0 0 0 0 0 0 0 0 0 -0.251852879606843 0 0 0 0 0 0 0 0 0 -0.629562014899408 0 -5.01573299013859
0 0 0 0 0.768187378924562 0.321837393504389 0 0.0776130516344699 0.37184146611878 0.168260485247975 0.203001562859308 0 0.152156186307311 0.0390995336537281 0.27807414160749 0 0.232037178025349 0 0.562648296136248 0.122177710822901 0 0 0 0 0 0 0 0 0 0 0 0 0 0 0 0 0 0 -0.251852879606843 0 0 0 0 0 0 0 0 0 0 -1.06262308492538
0 0 0 0 0 0 0 0 0 0 0 0 0 0 0 0 0 0 0 0 0 0 0 0 0 0 0.157771924653211 0.363521958628986 0.873991994666136 0.0986683804511548 0 0 0 0 0 0 0 0 0 -0.251852879606843 0 0 0 0 0 0 0 -0.391955513043064 0 0
0 0 0 0 0 0 0 0 0 0 0 0 0 0 0 0 0 0 0 0 0 0 0 0 0 0 1.01079625582832 0 0 0.0604153535522167 0.91367345456324 0 0 0 0 0 0 0 0 0 -0.251852879606843 0 0 0 0 0 0 0 0 0
0 0 0 0 0 0 0 0 0 0.0814142514739908 0.506495943348844 0.493976472679328 0 0.227108479502575 0 0.127162318754866 0.272601127011611 0 0.0381069049546831 0.187133328822541 0.0521725520349502 0 0 0 0 0 0 0 0 0 0 0 0 0 0 0 0 0 0 0 0 -0.251852879606843 0 0 0 0 0 -0.324410735773467 0 0
0 0 0 0 0 0 0 0 0 0 0 0 0 0 0 0 0 0 0 0 0 0 0 0 0 0 0 0 0 0 0 0 0 0 0 0 0 0 0 0 0 0 -0.251852879606843 0 0 0 0 -0.50782544436323 0 0
0 0 0 0 0 0 0 0.626472463768949 0.10590562544735 0 0 0 0 0 0 0 0 0 0 0 0 0 0 0 0 0 0 0 0 0 0 0 0 0 0 0 0 0 0 0 0 0 0 -0.251852879606843 0 0 0 -0.475665521585522 0 0
0 0 0 0 0 0 0 0 0 0 0 0 0 0 0 0 0 0 0 0 0 0 0 0 0 0 0 0 0 0 0 0 0 0 0 0 0 0 0 0 0 0 0 0 -0.251852879606843 0 0 -1.50133089847151 0 0
0 0 0 0 0 0 0 0 0 0 0 0 0.95291952184071 0.915140285170537 1.88582927111234 0 0.26061617681653 0.0741201837851298 0 0.254351648204802 1.96468536661864 0.304977979752766 0 0.238963120658975 0 0.426406754129942 0.077973772218211 0.259806075543688 0.76133921747666 0.610761079726016 0.0557934580046745 0.122123903057692 0 0 0 0 0 0 0 0 0 0 0 0 0 -0.251852879606843 0 0 0 0
0 0 0 0 0 0 0 0 0 0 0 0 0 0 0 0 0 0 0 0 0.174974005366272 0 0 0.0422382628082475 0.224191709705516 0.0288329448965047 0.335008393605091 0.274481607737233 0.079141750832842 0.345924842832339 0.210658445438249 0.0822128006655932 0 0 0 0 0 0 0 0 0 0 0 0 0 0 -0.251852879606843 0 0 0
0 0 0 0 0 0 0 0 0 0 0 0 0 0 0 0 0 0 0 0 0 0 0 0 0 0 0 0 0 0 0 0 0 0 0 0 0 0.125629468671692 0 0.0767729955987795 0 0.0636941222896312 0.100764197450593 0.0967949048044618 0.299926438744078 0 0 -0.251852879606843 0 0
0 0 0 0 0 0 0 0 0 0 0 0 0 0 0 0 0 0 0 0 0 0 0 0 0 0 0 0 0.831035221362159 0 0 0 0 0 0 0 0 0 0 0 0 0 0 0 0 0 0 0 -0.251852879606843 0
0 0 0 0 0 0 0 0 0 0 0 0 0 0 0 0 0 0 0 0 0 0 0 0 0 0 0 0 0 0 0 0.265575781392163 0.304024293390062 0.0218947350951575 0.365064439641984 0.134942964930116 0.727717449527669 0.928299520312043 0.222977696195825 0 0 0 0 0 0 0 0 0 0 -0.251852879606843
