0.503620900343123
0.535248980833616
2.34102009174208
1.35344425158935
3.91487550315099
3.30902211596041
1.47783374226591
0.262026365833823
0.228891876889592
0.255085624308702
0.475589337456256
0.76411541161301
4.30818957099146
0.45317704670043
0.371724437111562
0.349482214968881
0.9083593488158
0.537407129361833
0.460227977532306
2.86277269807221
0.891513006309174
1.08498187517174
0.528819375301211
0.540677524858029
1.04300785676317
1.15681905097218
1.4546746641648
0.361970625561313
1.53376050315899
5.04534440016816
4.67370063853449
0.775395508369694
0.144641902683604
1.21023910381281
11.2355838712471
0.964863298440849
0.549024713667664
0.985389575153957
0.665039878775486
0.662371694586976
7.03874191205824
2.67291168331338
0.318002806178643
0.369075319182763
1.96086990761641
1.58187399078404
0.746010005561521
0.472969916241946
0.168222870264114
0.574097711322582
