1.96087387179705
0.550046981957431
0.516628266854703
2.25870402983766
0.457986002126496
0.56143235542437
0.304933563491432
5.90378520767597
0.927076821597973
0.666699284539926
0.452888723255475
1.36762702022783
1.19852739771064
4.26646467651813
0.736166132508444
7.94453972762871
1.87478173538745
1.54169994240714
0.236664585992115
1.75977899312714
1.26948010792063
2.45927096332376
0.763831799174005
1.03927128913005
1.74576330057781
0.0707644605246096
3.98513837801964
1.68693748464494
0.401019509304101
5.67141810872624
1.51802791221165
0.231107081566008
1.82992121169658
0.357784732359531
0.712761302894452
0.60508342465969
1.22044059961035
4.81714407483801
1.30692746263569
0.762383050695589
0.930031999114932
0.836021552056232
0.0933979377599283
1.41365914543327
0.769921270911202
0.902208299318411
0.399472352090263
0.435990975166738
0.780812027117584
1.5643404872505
3.4890828366697
0.319689494591823
1.7710379951993
0.979600404795887
2.83080686219956
1.38072697053974
1.68662843424479
1.63333367170629
1.60614960418058
0.749585300424602
0.618047383162506
2.71375284440082
1.89492682304091
2.10515846260465
0.747772607877425
0.110758660375628
1.44426736671345
0.186351997995832
3.81304409338631
1.04033392906181
0.293394980297185
1.21027543277227
2.71850009272467
0.376358012708956
0.154397492074836
0.887750443637591
1.03024747517021
1.96575080519178
0.408183151689664
4.66035364820319
3.02098185701347
0.783292086713753
0.696048307747403
2.79577690312279
3.93849808505784
1.69147797516748
0.898381011929028
0.244524217707893
1.24718260872526
1.13775148872938
1.7547212278963
0.583713464827198
0.231559239941426
1.08358817703186
0.771684084349233
0.25612398197048
2.02376964709632
12.0322439030352
1.83318815454192
0.0734039669093172
2.42147661813749
0.584572200664593
0.840974973096452
0.389094594122081
0.527689035466505
1.53083030837398
1.29942027919617
0.319271558058251
1.08863503777042
0.684221795102013
0.798789987005481
1.52461680437895
1.12619808009704
0.823373371066278
3.00752724601097
0.0874013876574885
3.78566628464619
0.925728116880693
0.859194512137101
0.776330612406667
0.417481404329974
0.311096561349877
0.202995968251041
0.498545212644712
6.01774951303728
2.6825890554234
1.65595562138459
0.208684640073963
0.394178197741549
0.472038095246869
0.691003705553013
0.251947557405852
1.09142875031053
1.21612528673543
6.46543887262364
1.30002928037429
1.92207041095716
0.901506065889267
0.0499197036139366
0.681363201111461
0.756544725472799
8.97039663763048
10.6883341974697
1.56142917596392
0.0791554247364653
0.198027998489422
0.641158691815023
0.790525556897286
4.25775086062047
1.57345624957399
3.25802192081043
0.747270551397978
0.875418555108457
0.326123399400035
0.863046440808566
0.84966477789085
0.188571163089866
0.646447800477153
0.0691726041808243
2.23567730873198
3.54358493660649
0.991570403182702
1.30529912774674
1.39124999671309
2.57483772496897
3.9339844462096
0.077142075696882
1.28272681108961
2.31893058911069
1.40021420702796
